{
  "run_info": {
    "set": "ugc-av2-2k",
    "run_id": "ugc-av2-2k-part-s0-t3",
    "extra_options": "",
    "qualities": [
      27,
      39,
      49,
      59,
      63
    ],
    "cost_method": "metrics",
    "optimiser_mode": "per_clip",
    "lambda_opt": true,
    "codec": "av1",
    "metrics": "MS-SSIM (libvmaf)"
  },
  "DinnerSceneCropped_1920x1080_2997fps_10bit_420.y4m": {
    "brent_data": [
      1.14,
      0.14923950235048444,
      0,
      0
    ],
    "total_encodes": 12,
    "bdrate_data": {
      "0.57": {
        "0": 8.624270902329373,
        "1": 9.791774226580918,
        "2": 2.545138149403736,
        "3": 2.6402904464551735,
        "4": -5.622894337722196,
        "5": 1.3038052335036188,
        "6": 2.8009894739605024,
        "7": 3.0333458169814476,
        "8": 2.583737854764756,
        "9": 3.4482851254422853,
        "10": -4.571811479627675,
        "11": 2.472178344213316,
        "12": 2.8493051552801685,
        "13": 2.3057225469208964,
        "14": 2.265410211519381,
        "15": 2.4232439242191095,
        "16": -5.734529181191972
      },
      "1.02": {
        "0": 0.6902588169273941,
        "1": 6.636731714734238,
        "2": 0.14439860887609512,
        "3": -0.25947473401912724,
        "4": -0.17353861480026156,
        "5": 1.4450188188163793,
        "6": 0.3130387110307442,
        "7": 0.22499214288156377,
        "8": 0.1646678207877672,
        "9": -0.14960129489373086,
        "10": 0.1207454162041044,
        "11": 0.14634463183476054,
        "12": -0.15264325925283817,
        "13": -0.04415786413567435,
        "14": 0.17104459475849598,
        "15": -0.26705770421279196,
        "16": -0.11872811118711635
      },
      "1.11": {
        "0": 4.865884682986046,
        "1": 16.9181976695394,
        "2": 0.20900106076491287,
        "3": -0.09866070309335617,
        "4": 2.7898460489300003,
        "5": 0.6810813027061879,
        "6": 0.4889720161310285,
        "7": 0.300176590701251,
        "8": 0.26409201583099673,
        "9": -0.1085235540416174,
        "10": 3.2862748647501494,
        "11": 0.31485123156282935,
        "12": 0.7043492512219363,
        "13": 0.5855865133040261,
        "14": 0.2841255702365819,
        "15": -0.07862632360681188,
        "16": 2.8499124149825583
      },
      "1.12": {
        "0": 1.7056765855399458,
        "1": 10.03823144070121,
        "2": 0.1765461666790369,
        "3": 0.3086016389702406,
        "4": 2.311337649480638,
        "5": 1.5980881375962097,
        "6": 0.5136507684113445,
        "7": 0.2905540308940191,
        "8": 0.24172769837280672,
        "9": 0.25647965028692266,
        "10": 2.3724030652106043,
        "11": 0.3016125480533427,
        "12": 0.4365798644530683,
        "13": 0.2027503244476092,
        "14": 0.25886437927788997,
        "15": 0.33529787606687567,
        "16": 2.399786814081306
      },
      "1.13": {
        "0": 2.244396823364542,
        "1": 26.369226386033706,
        "2": 0.21198373076025678,
        "3": -0.37741131970486785,
        "4": 1.7989195094972876,
        "5": 0.6482259794374556,
        "6": 0.3368612327819154,
        "7": 0.17237055645984434,
        "8": 0.1432677143343719,
        "9": -0.35343459122721965,
        "10": 2.066107619746238,
        "11": 0.2763289048660189,
        "12": 0.16822045654234508,
        "13": 0.10320201570375165,
        "14": 0.30139697623687844,
        "15": -0.3457607281732944,
        "16": 1.8499490117841688
      },
      "1.14": {
        "0": -0.9251470938162323,
        "1": 1.7844706082706818,
        "2": 0.16892647351547385,
        "3": -0.09366770412293501,
        "4": 2.8179740362268113,
        "5": 2.0446974644920957,
        "6": 0.36478568181350646,
        "7": 0.14923950235048444,
        "8": 0.21504970276244872,
        "9": -0.11000681684144586,
        "10": 3.155513646972552,
        "11": 0.26837769562693126,
        "12": -1.0024079929770835,
        "13": -0.7036865986036811,
        "14": 0.2552416136569091,
        "15": -0.045957451261813276,
        "16": 2.8792063879476304
      },
      "1.15": {
        "0": 0.3654847217886008,
        "1": -2.991082982975977,
        "2": 0.25128349268848105,
        "3": 0.045048626462729224,
        "4": 3.294596360854385,
        "5": 0.8181287756395594,
        "6": 0.5151513517725359,
        "7": 0.2682840864288716,
        "8": 0.08937723196467129,
        "9": -0.07184024593284155,
        "10": 3.825622395413908,
        "11": 0.4148699488676799,
        "12": 1.0472167030713075,
        "13": 0.620859263743001,
        "14": 0.3485381386557629,
        "15": 0.08878031722989732,
        "16": 3.367260441665154
      },
      "1.16": {
        "0": -0.9018262754751988,
        "1": 2.9274602406495664,
        "2": 0.24407021739818457,
        "3": -0.016306113866537686,
        "4": 3.41408953215947,
        "5": 1.8322015578045026,
        "6": 0.5715788356234208,
        "7": 0.35781194346082845,
        "8": 0.3942137993037331,
        "9": -0.11130629720700336,
        "10": 3.785369642390335,
        "11": 0.45866378079220116,
        "12": 1.73838583790904,
        "13": 1.0394255398206598,
        "14": 0.3385269172274441,
        "15": 0.01926243023604446,
        "16": 3.5097656202472294
      },
      "1.2": {
        "0": -0.5537147559859633,
        "1": -4.307098475735476,
        "2": 0.2741264570414348,
        "3": 0.15307748922408493,
        "4": 3.9453910491827893,
        "5": 2.367357521786939,
        "6": 0.4804386259889659,
        "7": 0.2827984587806087,
        "8": 0.22791840500793192,
        "9": 0.03513751066537285,
        "10": 4.291501924784713,
        "11": 0.4806411369556507,
        "12": 1.4729223735393537,
        "13": 0.9456395570105913,
        "14": 0.3906544193711614,
        "15": 0.2122528917249955,
        "16": 4.0391638009336095
      },
      "1.31": {
        "0": -1.2310830243870208,
        "1": 5.852815398975838,
        "2": 0.6668461087368627,
        "3": 0.674178788690627,
        "4": 6.8308254769841925,
        "5": 1.2431880365635584,
        "6": 1.1015661888234662,
        "7": 0.7106871266602699,
        "8": 0.3705236693639202,
        "9": 0.3689009407840782,
        "10": 7.17296227308768,
        "11": 1.0176135615768134,
        "12": 2.1086619054806466,
        "13": 1.7597292355265859,
        "14": 0.7897964384690814,
        "15": 0.7720370658722109,
        "16": 6.975293388181636
      },
      "1.59": {
        "0": -2.883652626417227,
        "1": 5.8733131118628625,
        "2": 1.7558751294845854,
        "3": 1.5188058007457483,
        "4": 12.411474816232904,
        "5": 5.404423759130195,
        "6": 2.7223902803984013,
        "7": 2.0091829975782627,
        "8": 1.4973841827586654,
        "9": 1.1180551900670688,
        "10": 13.0331500022568,
        "11": 2.1345486966542815,
        "12": 3.406842488787598,
        "13": 3.4008031128250904,
        "14": 1.8221889312981077,
        "15": 1.7141569618114971,
        "16": 12.590016094222879
      },
      "2.51": {
        "0": -2.470056987182698,
        "1": 7.75825764944211,
        "2": 6.586043337955694,
        "3": 8.466616192620524,
        "4": 34.59587505828261,
        "5": 15.335325709584403,
        "6": 8.940669471425977,
        "7": 7.823991537002062,
        "8": 7.1895982677989245,
        "9": 7.543840452366091,
        "10": 35.466563643823214,
        "11": 8.030203394632718,
        "12": 13.211334027345911,
        "13": 13.174813487943403,
        "14": 7.127957343966562,
        "15": 9.070719005790462,
        "16": 35.0934896754725
      }
    },
    "cost_pair": {
      "0.57": 3.0333458169814476,
      "1.02": 0.22499214288156377,
      "1.11": 0.300176590701251,
      "1.12": 0.2905540308940191,
      "1.13": 0.17237055645984434,
      "1.14": 0.14923950235048444,
      "1.15": 0.2682840864288716,
      "1.16": 0.35781194346082845,
      "1.2": 0.2827984587806087,
      "1.31": 0.7106871266602699,
      "1.59": 2.0091829975782627,
      "2.51": 7.823991537002062
    }
  },
  "FoodMarket_1920x1080_5994_10bit_420.y4m": {
    "brent_data": [
      0.69,
      -0.9690803761223221,
      0,
      0
    ],
    "total_encodes": 9,
    "bdrate_data": {
      "0.39": {
        "0": -0.006785518069788651,
        "1": 7.672967455796314,
        "2": 5.714548071589087,
        "3": -2.469109374525602,
        "4": 0.33657132726860883,
        "5": 1.4259533083739395,
        "6": 3.23043147284916,
        "7": 1.9092756791221133,
        "8": 6.823053975486992,
        "9": -1.3449295072895606,
        "10": 1.44921422856632,
        "11": 6.442765642134041,
        "12": 10.290258965797427,
        "13": 10.257457718587881,
        "14": 5.851084839966858,
        "15": -2.396400103242935,
        "16": 0.3667660085991509
      },
      "0.67": {
        "0": 0.21891451698389494,
        "1": -1.265802121024583,
        "2": 0.7900975756452766,
        "3": -2.699686538983148,
        "4": -1.6573694019063945,
        "5": -1.070773519489121,
        "6": -0.40958197450606804,
        "7": -0.9497441105660864,
        "8": 1.2122804920921437,
        "9": -2.494842131655728,
        "10": -1.401452589844121,
        "11": 1.0371025738489914,
        "12": 2.906210012106225,
        "13": 2.8155501814222106,
        "14": 0.8308022710019625,
        "15": -2.691856736056941,
        "16": -1.6617459520759659
      },
      "0.68": {
        "0": 2.6392251556599455,
        "1": 15.044668417833293,
        "2": 0.7371590830977048,
        "3": -2.720531381479663,
        "4": -1.9050321778037782,
        "5": -0.9271531598888383,
        "6": -0.4221203039226906,
        "7": -0.9588082597009384,
        "8": 1.156242461774748,
        "9": -2.4671082514099885,
        "10": -1.649391472789019,
        "11": 0.9803401496621511,
        "12": 2.460953446868741,
        "13": 2.5015185961179798,
        "14": 0.7774625856776796,
        "15": -2.701126613802929,
        "16": -1.9083851410969022
      },
      "0.69": {
        "0": 11.165695420024257,
        "1": 20.556690792544845,
        "2": 0.6120885865833925,
        "3": -2.320073267946199,
        "4": -2.1522291762074985,
        "5": -0.9019065262738657,
        "6": -0.47796853123320826,
        "7": -0.9690803761223221,
        "8": 1.012784733845029,
        "9": -2.1625637474295134,
        "10": -2.015203651108133,
        "11": 0.8408816135341279,
        "12": 2.2165279434027463,
        "13": 2.2061207723387044,
        "14": 0.6494274059975158,
        "15": -2.3104943800942412,
        "16": -2.150417046496478
      },
      "0.7": {
        "0": 1.4107203365446432,
        "1": 30.80293103089608,
        "2": 0.7164448978618454,
        "3": -2.3257575488581317,
        "4": -1.6480241659379558,
        "5": -0.9030057615744602,
        "6": -0.3297406042252371,
        "7": -0.8253580202337352,
        "8": 1.092455532218728,
        "9": -2.1103125914333942,
        "10": -1.49023242252454,
        "11": 0.9321731107267084,
        "12": 2.318381204484732,
        "13": 2.347335726463551,
        "14": 0.7534763926900334,
        "15": -2.32315015246104,
        "16": -1.6526647539780503
      },
      "0.77": {
        "0": 0.26247755243115006,
        "1": -1.5260777194933055,
        "2": 0.25928115073396985,
        "3": -1.945062634637451,
        "4": -1.463794539698271,
        "5": -0.8451164490291596,
        "6": -0.5517476033234825,
        "7": -0.8943799528147611,
        "8": 0.5091067066935295,
        "9": -1.8188465413842447,
        "10": -1.4464055209905236,
        "11": 0.39369305412759736,
        "12": 1.4090260238509345,
        "13": 1.4105062729446782,
        "14": 0.2893786305638635,
        "15": -1.9392291749714352,
        "16": -1.45652462002126
      },
      "1.02": {
        "0": 2.217082495018461,
        "1": 13.411285471911855,
        "2": 0.08413833565354967,
        "3": 0.046028798052577535,
        "4": 0.1917703275885252,
        "5": 0.22020400186191225,
        "6": 0.20432932877907373,
        "7": 0.20442346417095525,
        "8": 0.07385424407353458,
        "9": 0.017693823781383955,
        "10": 0.21433926442901985,
        "11": 0.07901596921251475,
        "12": 0.0502725728976694,
        "13": -0.05169278639630681,
        "14": 0.08495500703638026,
        "15": 0.03728286816180315,
        "16": 0.1809711772988276
      },
      "1.59": {
        "0": 2.0207575461215703,
        "1": 8.2961739411927,
        "2": 1.666431163756088,
        "3": 5.520969534207154,
        "4": 5.445299939486481,
        "5": 4.0506846481146885,
        "6": 3.419645685817496,
        "7": 3.9641554319995054,
        "8": 1.2813764229917979,
        "9": 6.140692564891181,
        "10": 5.829006410909954,
        "11": 1.5365766655055957,
        "12": -0.6923623034167936,
        "13": -0.7939920681839907,
        "14": 1.6645983577843415,
        "15": 5.547892585104863,
        "16": 5.476237893980773
      },
      "2.51": {
        "0": 4.381985883511541,
        "1": 7.101114224336777,
        "2": 6.334739274030787,
        "3": 15.65059174418344,
        "4": 13.908998473540745,
        "5": 11.430062615803415,
        "6": 10.447918622105501,
        "7": 11.184460296372144,
        "8": 5.8070412244028535,
        "9": 17.54369070266073,
        "10": 15.60465146416956,
        "11": 6.389854516295035,
        "12": 1.4195088358224472,
        "13": 1.4513568435845503,
        "14": 6.424813921200467,
        "15": 15.839743355276514,
        "16": 14.053881548511571
      }
    },
    "cost_pair": {
      "0.39": 1.9092756791221133,
      "0.67": -0.9497441105660864,
      "0.68": -0.9588082597009384,
      "0.69": -0.9690803761223221,
      "0.7": -0.8253580202337352,
      "0.77": -0.8943799528147611,
      "1.02": 0.20442346417095525,
      "1.59": 3.9641554319995054,
      "2.51": 11.184460296372144
    }
  },
  "OldTownCross_1920x1080p50.y4m": {
    "brent_data": [
      0.68,
      -0.9175009012046598,
      0,
      0
    ],
    "total_encodes": 8,
    "bdrate_data": {
      "0.51": {
        "0": -0.22178543548901666,
        "1": 20.925348133555882,
        "2": -0.950609805955982,
        "3": -0.37255456736248194,
        "4": -3.0975065176698235,
        "5": -2.3101411029223584,
        "6": -0.915198348298818,
        "7": -0.08023805705726916,
        "8": -0.4607160392436582,
        "9": 0.5022363882439373,
        "10": -1.5096911419854142,
        "11": -0.5225131927560689,
        "12": -2.4253503369712104,
        "13": -1.7359762396810585,
        "14": -1.383056421263229,
        "15": -0.5042375408756072,
        "16": -3.0847003044052745
      },
      "0.67": {
        "0": 8.30918736612299,
        "1": 22.582627039503304,
        "2": -1.5459616672679144,
        "3": -1.1425299633420871,
        "4": -2.875050956587588,
        "5": -2.364215675043746,
        "6": -1.4066970774797571,
        "7": -0.8661092043419694,
        "8": -1.367279976418323,
        "9": -0.5808986967154817,
        "10": -1.9087816547560865,
        "11": -1.3886232263487397,
        "12": -2.613202758827171,
        "13": -2.318854125567049,
        "14": -1.8189197983662142,
        "15": -1.2369229834744422,
        "16": -2.881734103371847
      },
      "0.68": {
        "0": -2.0801155238329465,
        "1": 9.100662353211789,
        "2": -1.5222266480868107,
        "3": -1.1584954743308784,
        "4": -3.0704313452798337,
        "5": -2.313238116877381,
        "6": -1.5116768112638623,
        "7": -0.9175009012046598,
        "8": -1.4366560027572195,
        "9": -0.6880563822023955,
        "10": -2.202060955281049,
        "11": -1.4705289992193227,
        "12": -2.401657609172525,
        "13": -2.2499187472747706,
        "14": -1.7856086921937853,
        "15": -1.2522129897408973,
        "16": -3.0743190083972527
      },
      "0.7": {
        "0": -3.109588923723045,
        "1": -7.360067554939775,
        "2": -1.3633691517151103,
        "3": -1.4095277846426169,
        "4": -2.8908702712628576,
        "5": -2.2182169711205124,
        "6": -1.334471414321614,
        "7": -0.7522237928099473,
        "8": -1.2339470249675744,
        "9": -0.9966704828118345,
        "10": -1.9672576393614194,
        "11": -1.2893638258067663,
        "12": -2.397782725291575,
        "13": -2.005764129660148,
        "14": -1.6089176579018427,
        "15": -1.5025998915468075,
        "16": -2.8995101309101434
      },
      "0.76": {
        "0": 1.3141129007522134,
        "1": -3.8854146876111315,
        "2": -1.2726259219205671,
        "3": -1.4098425294627348,
        "4": -2.394354616165628,
        "5": -1.87641250649625,
        "6": -1.169075615950954,
        "7": -0.7004295797270021,
        "8": -1.2252552662542548,
        "9": -0.9162191380911566,
        "10": -1.9915130735200126,
        "11": -1.2639628757849408,
        "12": -1.7136865782721333,
        "13": -1.6221735854057617,
        "14": -1.4625279468552521,
        "15": -1.4908056693493932,
        "16": -2.403817963013144
      },
      "1.02": {
        "0": -3.0055193350814107,
        "1": 4.523926591553858,
        "2": 0.09511576271259425,
        "3": -0.035734621104022146,
        "4": 0.3963551998439341,
        "5": 0.1625480843576943,
        "6": 0.0263021966083965,
        "7": -0.02055796691566858,
        "8": 0.05539551930595632,
        "9": -0.09734960528147152,
        "10": 0.17311330002900416,
        "11": 0.05365412641720191,
        "12": -0.5449879912346245,
        "13": -0.28308527756448765,
        "14": 0.11030437152925732,
        "15": -0.02772672898319062,
        "16": 0.39525189333062816
      },
      "1.59": {
        "0": -2.7292007607276636,
        "1": -10.792938854951158,
        "2": 4.960669925964067,
        "3": 2.638061256555324,
        "4": 4.020567510204054,
        "5": 5.285449163194933,
        "6": 4.287036862898663,
        "7": 3.2099134493269954,
        "8": 4.679220951159757,
        "9": 2.1126404878613947,
        "10": 3.1986104899232926,
        "11": 4.562241259885802,
        "12": 6.231163705500209,
        "13": 5.827162960537136,
        "14": 5.4121787437888536,
        "15": 2.7396924686141633,
        "16": 4.0742256569139546
      },
      "2.51": {
        "0": -2.3676292008848696,
        "1": -10.379156508135496,
        "2": 15.285516600670768,
        "3": 2.7353555823178777,
        "4": 3.8649173049853713,
        "5": 12.488258503137018,
        "6": 14.101533134279908,
        "7": 11.448989378673978,
        "8": 15.191477126754926,
        "9": 2.198615306042062,
        "10": 3.155338292377352,
        "11": 14.402453963214734,
        "12": 17.951652057289902,
        "13": 17.082398074743764,
        "14": 16.373416536988582,
        "15": 2.653063077903406,
        "16": 3.957870567632038
      }
    },
    "cost_pair": {
      "0.51": -0.08023805705726916,
      "0.67": -0.8661092043419694,
      "0.68": -0.9175009012046598,
      "0.7": -0.7522237928099473,
      "0.76": -0.7004295797270021,
      "1.02": -0.02055796691566858,
      "1.59": 3.2099134493269954,
      "2.51": 11.448989378673978
    }
  },
  "Riverbed_1920x1080p25.y4m": {
    "brent_data": [
      3.97,
      -3.897468815787397,
      0,
      0
    ],
    "total_encodes": 10,
    "bdrate_data": {
      "1.59": {
        "0": -1.2641290072622577,
        "1": -0.5401031035861182,
        "2": -1.5385443658799458,
        "3": -0.44837196729514694,
        "4": 0.5389337765808078,
        "5": -1.156113060488162,
        "6": -1.676043461204979,
        "7": -1.5676005292121875,
        "8": -1.5979662951881912,
        "9": -0.6590514153677951,
        "10": 0.09424906204389405,
        "11": -1.5594346997301334,
        "12": -1.973866741819208,
        "13": -1.9592753046549616,
        "14": -1.7780295763476617,
        "15": -0.6504176104625281,
        "16": 0.258559683383619
      },
      "2.51": {
        "0": -1.7993859204457703,
        "1": -1.7003738322711275,
        "2": -2.8255979565413925,
        "3": 0.1634067129589134,
        "4": 2.6238623354664314,
        "5": -1.8127967084052177,
        "6": -3.0662781951556584,
        "7": -2.8499131715385317,
        "8": -2.9516584811115076,
        "9": -0.2660382513094195,
        "10": 2.24845147975381,
        "11": -2.8094346937680426,
        "12": -3.783036298355902,
        "13": -3.7292005886264357,
        "14": -3.3526853669616163,
        "15": -0.2428882199593807,
        "16": 2.003936350949065
      },
      "3.08": {
        "0": -2.6084221555918585,
        "1": 3.746017899347011,
        "2": -3.3487903788026574,
        "3": 0.25383759607247036,
        "4": 4.1989770437337315,
        "5": -2.067212944399266,
        "6": -3.6482889812745722,
        "7": -3.382984724690019,
        "8": -3.4901336209224088,
        "9": -0.26837784685448396,
        "10": 3.7279474896789067,
        "11": -3.3136007692806113,
        "12": -4.640776898485665,
        "13": -4.586112173157664,
        "14": -4.013916549510165,
        "15": -0.22462091494760417,
        "16": 3.490853723471332
      },
      "3.43": {
        "0": 14.939316745500703,
        "1": 17.529415073561598,
        "2": -3.63555093137351,
        "3": 0.7502869156064795,
        "4": 4.886034962047137,
        "5": -2.088945473367898,
        "6": -3.9208882938462697,
        "7": -3.6475794023290486,
        "8": -3.777082471109028,
        "9": 0.19815529306366209,
        "10": 4.4686621242700175,
        "11": -3.570264453758243,
        "12": -5.085222328981098,
        "13": -5.03288494076215,
        "14": -4.373287160800032,
        "15": 0.24170877894853504,
        "16": 4.162504713081128
      },
      "3.65": {
        "0": -0.8693785782903604,
        "1": 5.360503372862768,
        "2": -3.7530705393604036,
        "3": 0.5408595687746764,
        "4": 4.578592525849889,
        "5": -2.30174059719086,
        "6": -4.030231619287594,
        "7": -3.7419749472843877,
        "8": -3.8934245490873542,
        "9": -0.06589548688293867,
        "10": 3.9262067649793675,
        "11": -3.695740589515162,
        "12": -5.22208545256222,
        "13": -5.172799978913778,
        "14": -4.534105842588243,
        "15": 0.024427490362555204,
        "16": 3.8437413373649587
      },
      "3.82": {
        "0": -0.8534338975089684,
        "1": 28.102671874143237,
        "2": -3.8510512468256652,
        "3": 0.6701377529201524,
        "4": 4.851857604941512,
        "5": -2.365537213029123,
        "6": -4.150207730798783,
        "7": -3.8365972043040264,
        "8": -3.998990936160862,
        "9": 0.033489545515030805,
        "10": 4.248079948146022,
        "11": -3.788774441263487,
        "12": -5.4494286300122985,
        "13": -5.36864725356756,
        "14": -4.665869517055876,
        "15": 0.14042645955845146,
        "16": 4.099533140772804
      },
      "3.89": {
        "0": 0.5817386738467714,
        "1": 15.925993924717108,
        "2": -3.8752834345108678,
        "3": 0.7171293281090563,
        "4": 5.6499077134179565,
        "5": -2.1844052131158698,
        "6": -4.167397367503323,
        "7": -3.8674528913784645,
        "8": -4.009639746035498,
        "9": 0.14790729005917935,
        "10": 5.167241212815199,
        "11": -3.7840140196620964,
        "12": -5.5065113505130325,
        "13": -5.433130064140535,
        "14": -4.7019047143666555,
        "15": 0.20463265109449402,
        "16": 4.924546652004258
      },
      "3.93": {
        "0": -0.5677607202338913,
        "1": 13.607452857881372,
        "2": -3.8862366341297694,
        "3": 0.584055323088073,
        "4": 5.232042751516874,
        "5": -2.355293909833045,
        "6": -4.190846006194427,
        "7": -3.8823888772071657,
        "8": -4.032487940631646,
        "9": -0.011874822331892076,
        "10": 4.682270319987425,
        "11": -3.816833384396223,
        "12": -5.507606093081197,
        "13": -5.436898765631259,
        "14": -4.717511663158125,
        "15": 0.04675848023651952,
        "16": 4.478184729703227
      },
      "3.96": {
        "0": 0.09894451422486489,
        "1": -2.9940358149504047,
        "2": -3.910475970301297,
        "3": 0.6496829886280864,
        "4": 5.2274725759770435,
        "5": -2.2970145012893073,
        "6": -4.207880668537978,
        "7": -3.896207187372547,
        "8": -4.069186474811904,
        "9": 0.0162839002022519,
        "10": 4.718628241563505,
        "11": -3.8503251762843638,
        "12": -5.537178910558449,
        "13": -5.481483681646315,
        "14": -4.747557069222863,
        "15": 0.11865392229417626,
        "16": 4.475831187970858
      },
      "3.97": {
        "0": -2.0877292335450233,
        "1": -6.0712085520663415,
        "2": -3.9255968039709765,
        "3": 0.5920250931692683,
        "4": 5.091027423607297,
        "5": -2.44606322407831,
        "6": -4.193403023689446,
        "7": -3.897468815787397,
        "8": -4.0558912921247465,
        "9": -0.028674919524085407,
        "10": 4.442103563547328,
        "11": -3.8439814139978323,
        "12": -5.511722504557037,
        "13": -5.468303455088064,
        "14": -4.7621225470147905,
        "15": 0.05390993346483519,
        "16": 4.3389121779187745
      }
    },
    "cost_pair": {
      "1.59": -1.5676005292121875,
      "2.51": -2.8499131715385317,
      "3.08": -3.382984724690019,
      "3.43": -3.6475794023290486,
      "3.65": -3.7419749472843877,
      "3.82": -3.8365972043040264,
      "3.89": -3.8674528913784645,
      "3.93": -3.8823888772071657,
      "3.96": -3.896207187372547,
      "3.97": -3.897468815787397
    }
  },
  "Skater227_1920x1080_30fps.y4m": {
    "brent_data": [
      2.13,
      -1.6564019806660557,
      0,
      0
    ],
    "total_encodes": 13,
    "bdrate_data": {
      "1.59": {
        "0": -1.3583182021025069,
        "1": 5.454650040889688,
        "2": -2.036077524286073,
        "3": 2.0428486931399092,
        "4": 2.0430900196498847,
        "5": 0.5597258165635388,
        "6": -1.2021791609085009,
        "7": -1.286927034309493,
        "8": -1.8403849894343849,
        "9": 2.1121915554629167,
        "10": 2.2071263182935175,
        "11": -1.6346617176547729,
        "12": -2.3799608816072126,
        "13": -2.3400788918133686,
        "14": -2.12483441163942,
        "15": 1.613700722976219,
        "16": 1.7408265973278603
      },
      "1.94": {
        "0": -7.644182020092652,
        "1": -13.550560141684038,
        "2": -2.557520110942635,
        "3": 3.0710539178610663,
        "4": 4.507368088807806,
        "5": 0.7360342324622904,
        "6": -1.3495745356405298,
        "7": -1.4674217192183314,
        "8": -2.303015926353469,
        "9": 3.2039957851064615,
        "10": 4.811679358712073,
        "11": -1.9886111224811542,
        "12": -2.923591378051049,
        "13": -2.875982855526382,
        "14": -2.700643896536503,
        "15": 2.507666094445571,
        "16": 3.7560736878780476
      },
      "2.08": {
        "0": -7.046287343853042,
        "1": -10.885662027305246,
        "2": -2.791008896248426,
        "3": 3.5604717738271896,
        "4": 5.22452599820471,
        "5": 0.9036619349564567,
        "6": -1.3636476046402835,
        "7": -1.507714226137169,
        "8": -2.490256718733941,
        "9": 3.7820475866955805,
        "10": 5.3864179701140324,
        "11": -2.138385863122194,
        "12": -3.162043802966985,
        "13": -3.21796306769635,
        "14": -2.918260088849467,
        "15": 2.952300406803232,
        "16": 4.367011258660036
      },
      "2.11": {
        "0": -7.988269614910572,
        "1": -14.788825422476304,
        "2": -2.7087970203190204,
        "3": 4.050326662455528,
        "4": 5.039672289172481,
        "5": 1.2127498797793956,
        "6": -1.3532130497727612,
        "7": -1.4804603856097054,
        "8": -2.4154502088701624,
        "9": 4.255924458305338,
        "10": 5.317610175722853,
        "11": -2.053412770916785,
        "12": -3.2820750376857055,
        "13": -3.2173968547986376,
        "14": -2.867003044883143,
        "15": 3.3805915394929498,
        "16": 4.31085379864482
      },
      "2.12": {
        "0": -7.809298235912129,
        "1": -15.768047320520301,
        "2": -2.760632065790458,
        "3": 3.6350710061937797,
        "4": 5.643245008000974,
        "5": 1.5679557906420838,
        "6": -1.3720058599610008,
        "7": -1.5069289932436836,
        "8": -2.488221388347611,
        "9": 3.8053476486936466,
        "10": 5.804897356360139,
        "11": -2.122601648302058,
        "12": -3.3890883133722904,
        "13": -3.310191518312411,
        "14": -2.9430370327335864,
        "15": 2.9611592997339287,
        "16": 4.879287095371909
      },
      "2.13": {
        "0": -8.2626696025234,
        "1": -18.71652440360207,
        "2": -2.8699248965131874,
        "3": 3.8094319491609463,
        "4": 5.4028360712298,
        "5": 1.238319980363678,
        "6": -1.5137749722636373,
        "7": -1.6564019806660557,
        "8": -2.5915572661156294,
        "9": 3.9581353498076455,
        "10": 5.670156859970588,
        "11": -2.2171889695525304,
        "12": -3.164408533977414,
        "13": -3.1905736957623665,
        "14": -3.0209668967313363,
        "15": 3.162263099946694,
        "16": 4.595430953833568
      },
      "2.14": {
        "0": -7.744763508828499,
        "1": -13.080438512859175,
        "2": -2.7717511700857456,
        "3": 4.279006346430125,
        "4": 5.926636899931492,
        "5": 1.5009445279123623,
        "6": -1.4209315323336136,
        "7": -1.5560977691445488,
        "8": -2.4821418780460847,
        "9": 4.419463969631443,
        "10": 6.16181568590044,
        "11": -2.089341806733791,
        "12": -3.4632283562567534,
        "13": -3.392579960430764,
        "14": -2.9424109519389674,
        "15": 3.635083659424043,
        "16": 5.097262294711036
      },
      "2.16": {
        "0": -7.819398207883213,
        "1": -15.379162669797589,
        "2": -2.945636629291637,
        "3": 3.590447345975889,
        "4": 5.519976215609068,
        "5": 1.3345048466283371,
        "6": -1.4411945594211106,
        "7": -1.6227997385688586,
        "8": -2.64099731161872,
        "9": 3.7846390200475977,
        "10": 5.813959153089376,
        "11": -2.266193757385282,
        "12": -3.546159044154229,
        "13": -3.446148580514763,
        "14": -3.0932809406104655,
        "15": 2.867730026788884,
        "16": 4.726664402998959
      },
      "2.2": {
        "0": -8.102860443952784,
        "1": -14.113927453458425,
        "2": -2.9317006554577363,
        "3": 4.033011604929615,
        "4": 6.054575036861398,
        "5": 1.3785185219587603,
        "6": -1.4345120287002855,
        "7": -1.598438324521334,
        "8": -2.5952026233457604,
        "9": 4.136033528911609,
        "10": 6.250768698622822,
        "11": -2.1994469291957697,
        "12": -3.7744882407310443,
        "13": -3.7955833125044913,
        "14": -3.108796864461505,
        "15": 3.3775148878055994,
        "16": 5.254912195962458
      },
      "2.29": {
        "0": -7.956850387100912,
        "1": -10.699246844855473,
        "2": -3.0168500243877405,
        "3": 5.581976889832996,
        "4": 6.472194802201625,
        "5": 2.1770273037011734,
        "6": -1.3797411956873118,
        "7": -1.5770618381563462,
        "8": -2.675078866565861,
        "9": 5.703073036957629,
        "10": 6.707866736968415,
        "11": -2.22437188601724,
        "12": -3.9364049574095117,
        "13": -3.830842373144283,
        "14": -3.192084068360701,
        "15": 4.867684470721945,
        "16": 5.567514601836954
      },
      "2.51": {
        "0": -6.62205698475679,
        "1": -4.974962733346993,
        "2": -3.118101323494271,
        "3": 6.027656320211494,
        "4": 7.417784902837976,
        "5": 2.0555506708906046,
        "6": -1.2914214457056428,
        "7": -1.4892743141313836,
        "8": -2.7589088098307624,
        "9": 6.209542736681373,
        "10": 7.636105361908463,
        "11": -2.2670241819587322,
        "12": -3.5297937491217346,
        "13": -3.554401029007581,
        "14": -3.3055116356585756,
        "15": 5.2779431211276595,
        "16": 6.40414758499479
      },
      "2.64": {
        "0": -6.787090789375215,
        "1": -6.5929655450097835,
        "2": -3.2741306743287457,
        "3": 6.831283256699772,
        "4": 8.530375673306235,
        "5": 2.50624220128961,
        "6": -1.2671865859414044,
        "7": -1.4741971393927522,
        "8": -2.896276968580569,
        "9": 7.058029164717805,
        "10": 8.797609886664937,
        "11": -2.344386117060404,
        "12": -3.938301967468383,
        "13": -3.8309295821431055,
        "14": -3.486460760735499,
        "15": 6.098424536847258,
        "16": 7.521900812670967
      },
      "3.08": {
        "0": -5.837608084451194,
        "1": 9.260410741698688,
        "2": -3.4633084638578726,
        "3": 8.293176889329668,
        "4": 10.797925744835712,
        "5": 3.5659266484341146,
        "6": -1.205140346656275,
        "7": -1.4565799786479539,
        "8": -3.059428036566403,
        "9": 8.555230684515557,
        "10": 11.190323140489378,
        "11": -2.391446603598313,
        "12": -3.9873637558864417,
        "13": -3.909380382140093,
        "14": -3.713792449907305,
        "15": 7.534670187770676,
        "16": 9.718072664061372
      }
    },
    "cost_pair": {
      "1.59": -1.286927034309493,
      "1.94": -1.4674217192183314,
      "2.08": -1.507714226137169,
      "2.11": -1.4804603856097054,
      "2.12": -1.5069289932436836,
      "2.13": -1.6564019806660557,
      "2.14": -1.5560977691445488,
      "2.16": -1.6227997385688586,
      "2.2": -1.598438324521334,
      "2.29": -1.5770618381563462,
      "2.51": -1.4892743141313836,
      "2.64": -1.4741971393927522,
      "3.08": -1.4565799786479539
    }
  },
  "CoverSong_1080P-1b0c.y4m": {
    "brent_data": [
      3.2,
      -3.5982433838934735,
      0,
      0
    ],
    "total_encodes": 9,
    "bdrate_data": {
      "1.59": {
        "0": -0.7627192604470592,
        "1": -3.631312625590985,
        "2": -2.65613659821734,
        "3": -2.230267244069961,
        "4": -2.4870035077191988,
        "5": -2.638475722956768,
        "6": -1.9010588828818231,
        "7": -1.9464222872826231,
        "8": -2.544911404667738,
        "9": -2.3745646671909926,
        "10": -2.666535423722538,
        "11": -2.575209173743176,
        "12": -2.7537857772913843,
        "13": -2.9906893639085164,
        "14": -2.7942524897636156,
        "15": -2.427948191813134,
        "16": -2.7496401757490796
      },
      "2.51": {
        "0": -2.0712594665232373,
        "1": -11.910625068179339,
        "2": -4.629688823995903,
        "3": -3.6171242410541593,
        "4": -4.348389960053101,
        "5": -4.5525972120011415,
        "6": -3.1541565340746702,
        "7": -3.2085505721723973,
        "8": -4.357898487539824,
        "9": -3.9297542460490997,
        "10": -4.871008088915607,
        "11": -4.450381984842656,
        "12": -5.247683221655941,
        "13": -5.21015532180833,
        "14": -4.925961273292057,
        "15": -4.0589488895747206,
        "16": -4.872435642234674
      },
      "3.08": {
        "0": -1.5428714401475756,
        "1": -8.70953524969034,
        "2": -5.454856228089932,
        "3": -3.9436511506254157,
        "4": -4.878201712064623,
        "5": -5.228422275254918,
        "6": -3.3841542631012023,
        "7": -3.472384095331238,
        "8": -5.031723815550193,
        "9": -4.281543691328126,
        "10": -5.402863906253685,
        "11": -5.101255200412846,
        "12": -5.727311013207603,
        "13": -5.923248190112329,
        "14": -5.766293257149546,
        "15": -4.470365394868114,
        "16": -5.466060237329362
      },
      "3.13": {
        "0": -0.5994857761064847,
        "1": 21.211802422458774,
        "2": -5.53608695983594,
        "3": -4.081190566502091,
        "4": -4.902821136091129,
        "5": -5.367620045890087,
        "6": -3.4646220047471976,
        "7": -3.571155509902979,
        "8": -5.14008423195248,
        "9": -4.450428395309025,
        "10": -5.440918014287988,
        "11": -5.201819429652965,
        "12": -6.181941304768069,
        "13": -6.269467555729047,
        "14": -5.84113384068361,
        "15": -4.482944086273832,
        "16": -5.503882059594134
      },
      "3.18": {
        "0": -1.4124333354682836,
        "1": 10.015970272301885,
        "2": -5.5781259877294875,
        "3": -4.107283011186458,
        "4": -5.160236546683306,
        "5": -5.511437823784837,
        "6": -3.4608552387702107,
        "7": -3.5809183079214324,
        "8": -5.146160443717395,
        "9": -4.483272012409656,
        "10": -5.767793223325668,
        "11": -5.245720250936237,
        "12": -5.90279431413987,
        "13": -6.091805066221867,
        "14": -5.89356845290504,
        "15": -4.555560139055636,
        "16": -5.765315296369467
      },
      "3.2": {
        "0": -1.279150481472444,
        "1": -1.8473427450772677,
        "2": -5.602587955391824,
        "3": -4.047566397945824,
        "4": -5.157613242325176,
        "5": -5.36526131122661,
        "6": -3.4774835189140263,
        "7": -3.5982433838934735,
        "8": -5.204125556556161,
        "9": -4.345855995170855,
        "10": -5.697007781761054,
        "11": -5.277938136760163,
        "12": -6.138329342432359,
        "13": -6.207050989257057,
        "14": -5.913588884910615,
        "15": -4.552252753723174,
        "16": -5.765146259484311
      },
      "3.23": {
        "0": -0.852062397583465,
        "1": 3.260111928667649,
        "2": -5.683623967929153,
        "3": -4.136209071152319,
        "4": -5.08596978367658,
        "5": -5.419776039037972,
        "6": -3.442990377106081,
        "7": -3.579142587969808,
        "8": -5.234959725465238,
        "9": -4.5068181631445325,
        "10": -5.595005377715245,
        "11": -5.30145827197811,
        "12": -6.034017300683914,
        "13": -6.290166915723616,
        "14": -5.973273387891931,
        "15": -4.6503807181339285,
        "16": -5.663955241449637
      },
      "3.32": {
        "0": -0.8430427776120594,
        "1": 2.181499050761436,
        "2": -5.663628818506239,
        "3": -4.3275028234886825,
        "4": -5.306784524603236,
        "5": -5.568524020310228,
        "6": -3.3655825180604726,
        "7": -3.4936903816638276,
        "8": -5.217019492778762,
        "9": -4.770561852063437,
        "10": -5.827698401661186,
        "11": -5.338531833470106,
        "12": -5.9700836042933965,
        "13": -6.14468499465729,
        "14": -5.981523848805603,
        "15": -4.781942646192738,
        "16": -5.897626181040083
      },
      "3.49": {
        "0": -0.9359613024009197,
        "1": -4.473008709650007,
        "2": -5.8822416369084145,
        "3": -4.091815446965397,
        "4": -5.3702390264629525,
        "5": -5.61497831924298,
        "6": -3.4187302833312505,
        "7": -3.551557922716586,
        "8": -5.401821481828916,
        "9": -4.437030199049586,
        "10": -5.9885427055557106,
        "11": -5.483693391729316,
        "12": -6.339787319835999,
        "13": -6.47317464254723,
        "14": -6.179352773351621,
        "15": -4.56197151657971,
        "16": -5.993412594110459
      }
    },
    "cost_pair": {
      "1.59": -1.9464222872826231,
      "2.51": -3.2085505721723973,
      "3.08": -3.472384095331238,
      "3.13": -3.571155509902979,
      "3.18": -3.5809183079214324,
      "3.2": -3.5982433838934735,
      "3.23": -3.579142587969808,
      "3.32": -3.4936903816638276,
      "3.49": -3.551557922716586
    }
  },
  "MusicVideo_1080P-04b6.y4m": {
    "brent_data": [
      2.51,
      -1.296640561661444,
      0,
      0
    ],
    "total_encodes": 6,
    "bdrate_data": {
      "1.59": {
        "0": -4.728693475835756,
        "1": -8.774937709560534,
        "2": -1.3526191070604043,
        "3": 1.9078459660292646,
        "4": 1.7391245100636166,
        "5": -0.27723248419747604,
        "6": -1.2706393947164663,
        "7": -0.9936878054222165,
        "8": -1.608809905082964,
        "9": 1.5486363690865756,
        "10": 1.2597178093698647,
        "11": -1.498191873060739,
        "12": -3.0745313954367304,
        "13": -2.9717612558494144,
        "14": -1.8255444468284643,
        "15": 1.6979664718804965,
        "16": 1.4534210702072947
      },
      "2.48": {
        "0": -18.64814015533711,
        "1": -10.419622009595138,
        "2": -2.0613731931066304,
        "3": 6.163093828586796,
        "4": 6.001968209269171,
        "5": 0.5889347320309657,
        "6": -1.8447464386534551,
        "7": -1.2905802003464029,
        "8": -2.6256491502444357,
        "9": 5.501284923081773,
        "10": 5.052344128508812,
        "11": -2.3190774910049283,
        "12": -5.178067309448265,
        "13": -5.06302466928632,
        "14": -3.0938984915811374,
        "15": 5.721630479464013,
        "16": 5.485741178989145
      },
      "2.51": {
        "0": -18.39492187474945,
        "1": -9.529607571986901,
        "2": -2.0352251691348577,
        "3": 6.243450944745321,
        "4": 6.486410015769395,
        "5": 0.7294804909532937,
        "6": -1.8813567640153628,
        "7": -1.296640561661444,
        "8": -2.6534001699776932,
        "9": 5.841647401526795,
        "10": 5.510763857308376,
        "11": -2.327792244585103,
        "12": -5.126492819320272,
        "13": -5.066428189122774,
        "14": -3.0762104443424865,
        "15": 5.777317658394487,
        "16": 5.85871876239239
      },
      "2.56": {
        "0": -18.39942493697692,
        "1": -8.618545984730924,
        "2": -2.0739193185213,
        "3": 6.978766019257154,
        "4": 6.769412352269488,
        "5": 0.8797665514314046,
        "6": -1.8528463444489218,
        "7": -1.274489700873449,
        "8": -2.6741421862076176,
        "9": 6.362859116851238,
        "10": 5.746383670428967,
        "11": -2.3310350521214995,
        "12": -5.2366544791600305,
        "13": -5.1702772504551024,
        "14": -3.1496077452510596,
        "15": 6.54771144103794,
        "16": 6.200070417448322
      },
      "2.64": {
        "0": -18.2777705911209,
        "1": -9.963514972518682,
        "2": -2.0168980954420213,
        "3": 7.420876819079814,
        "4": 7.572996296871981,
        "5": 1.0885369999817929,
        "6": -1.7555124802784428,
        "7": -1.141668596204204,
        "8": -2.6289672866153024,
        "9": 6.895597535954323,
        "10": 6.614881757469271,
        "11": -2.2639090031669973,
        "12": -5.198435575866367,
        "13": -5.161330345486093,
        "14": -3.144204307825127,
        "15": 7.037223686432492,
        "16": 6.969118584657963
      },
      "3.08": {
        "0": -18.178474083486563,
        "1": -10.232106474915357,
        "2": -2.1619929787734526,
        "3": 11.217080473747053,
        "4": 11.431631459233248,
        "5": 2.026120696165168,
        "6": -1.8869085243439332,
        "7": -1.1618386337251096,
        "8": -2.8964695617512137,
        "9": 11.334585415690924,
        "10": 10.727718927491958,
        "11": -2.317225948428736,
        "12": -5.905699909059637,
        "13": -5.825703383157055,
        "14": -3.47283622147454,
        "15": 10.876844918581853,
        "16": 10.825309457236742
      }
    },
    "cost_pair": {
      "1.59": -0.9936878054222165,
      "2.48": -1.2905802003464029,
      "2.51": -1.296640561661444,
      "2.56": -1.274489700873449,
      "2.64": -1.141668596204204,
      "3.08": -1.1618386337251096
    }
  },
  "TelevisionClip_1080P-39e3.y4m": {
    "brent_data": [
      1.02,
      -0.03854952802293532,
      0,
      0
    ],
    "total_encodes": 5,
    "bdrate_data": {
      "0.87": {
        "0": -0.9005866254243591,
        "1": 1.7959285285424293,
        "2": 0.463503008210675,
        "3": -0.68566255357011,
        "4": 0.05737119750621744,
        "5": -0.0002951137871298748,
        "6": 0.5283907112423769,
        "7": 0.26408169269693804,
        "8": 0.6964605368162458,
        "9": -0.5731063928967273,
        "10": -0.027319527029090462,
        "11": 0.6583008447589522,
        "12": 1.5369180744507327,
        "13": 1.4253168895902446,
        "14": 0.6358876518268275,
        "15": -0.5911089558019778,
        "16": 0.09637411283995867
      },
      "1.02": {
        "0": -0.5252912701238036,
        "1": 3.704742983118396,
        "2": -0.03131929422605095,
        "3": -0.36783036401558666,
        "4": -0.3291462967897396,
        "5": -0.15548209508520205,
        "6": -0.07760141743591298,
        "7": -0.03854952802293532,
        "8": -0.0750611053028094,
        "9": -0.3113600372777636,
        "10": -0.21384227630900643,
        "11": -0.07530042006926863,
        "12": 0.2006361636552878,
        "13": 0.10408240873811536,
        "14": -0.049086114036778206,
        "15": -0.3615074830297549,
        "16": -0.37971436382520096
      },
      "1.04": {
        "0": -0.09647643056860412,
        "1": 1.6245936769431573,
        "2": -0.10196680192895435,
        "3": 0.17940306891008895,
        "4": 0.09083002999881185,
        "5": 0.060134001609046805,
        "6": -0.05307204032510837,
        "7": -0.032415557153542274,
        "8": -0.15988106046754824,
        "9": 0.36685512404355247,
        "10": 0.14171955807544823,
        "11": -0.13608800713749147,
        "12": -0.1404071402651641,
        "13": -0.13121679925988117,
        "14": -0.14162479719034282,
        "15": 0.16884174428946075,
        "16": 0.045113300496057995
      },
      "1.59": {
        "0": -0.15461615439550414,
        "1": 3.0324978817148387,
        "2": -0.4345839340658464,
        "3": 3.360425865223182,
        "4": 2.5339816989445207,
        "5": 1.166211314954002,
        "6": -0.5160638020616948,
        "7": 0.37716649326153817,
        "8": -1.2718703341354498,
        "9": 3.4493676725697364,
        "10": 2.9395305720312015,
        "11": -1.0554629228632817,
        "12": -2.111462805075326,
        "13": -2.2274819426002512,
        "14": -1.0425473517060024,
        "15": 3.089552056282985,
        "16": 2.032220413509167
      },
      "2.51": {
        "0": 1.4774271226529911,
        "1": -7.265871894712657,
        "2": 0.9765389612494513,
        "3": 13.716071471684167,
        "4": 9.209478915300263,
        "5": 5.427526855663256,
        "6": 0.9670020057624074,
        "7": 2.96252981060221,
        "8": -0.7560255687792616,
        "9": 14.1161084282605,
        "10": 10.407731730780334,
        "11": -0.15973568996361376,
        "12": -2.9427938386772268,
        "13": -3.1845230039597494,
        "14": -0.30188108045735573,
        "15": 13.217632744501607,
        "16": 8.470376985930894
      }
    },
    "cost_pair": {
      "0.87": 0.26408169269693804,
      "1.02": -0.03854952802293532,
      "1.04": -0.032415557153542274,
      "1.59": 0.37716649326153817,
      "2.51": 2.96252981060221
    }
  },
  "Lecture_1080P-3ce0.y4m": {
    "brent_data": [
      2.51,
      -2.0422724066252007,
      0,
      0
    ],
    "total_encodes": 5,
    "bdrate_data": {
      "1.59": {
        "0": -0.6505704656801383,
        "1": -4.485249184524552,
        "2": 1.0616130321576822,
        "3": 0.6376387630171232,
        "4": -0.5662755187516577,
        "5": 1.8170347586587976,
        "6": -1.0093164545308952,
        "7": -0.9279641216345502,
        "8": -1.052634778421624,
        "9": 3.3077660605104864,
        "10": 0.555154503452493,
        "11": -0.7717877216562585,
        "12": -2.0401551890477654,
        "13": -0.22895730757986898,
        "14": 1.2525887264513536,
        "15": 0.7704526302696246,
        "16": -0.4325576613935289
      },
      "2.43": {
        "0": -0.7370084568047872,
        "1": -3.651782949337301,
        "2": 3.9423084706946776,
        "3": 0.5154563072482299,
        "4": -0.9041586686211578,
        "5": 4.267037484985203,
        "6": -1.4526077959391426,
        "7": -1.95512955138597,
        "8": -1.3385771113676892,
        "9": 5.970907141625603,
        "10": 1.6367552147539044,
        "11": -0.8400940667422807,
        "12": -1.778167451864987,
        "13": 1.3484214913901393,
        "14": 4.40635850845823,
        "15": 0.8281317131005883,
        "16": -0.6630290671319261
      },
      "2.51": {
        "0": -0.1885683710837327,
        "1": -8.453054678145264,
        "2": 4.211079190850553,
        "3": 0.7598775382501533,
        "4": -0.9012985014012709,
        "5": 4.6317473891289485,
        "6": -1.503209263354055,
        "7": -2.0422724066252007,
        "8": -1.3136277002883556,
        "9": 6.186672278597016,
        "10": 1.609474491495999,
        "11": -0.8122074123474876,
        "12": -1.579770934712621,
        "13": 1.587834033602742,
        "14": 4.695703294601583,
        "15": 1.0816716370062096,
        "16": -0.6603359687278321
      },
      "2.62": {
        "0": 0.6530907080314711,
        "1": -3.2784126099343487,
        "2": 4.614617906898766,
        "3": 0.9282785342587196,
        "4": -1.0932055294665677,
        "5": 4.792252067623792,
        "6": -1.3123186736511028,
        "7": -1.8891282644893703,
        "8": -1.123222489918696,
        "9": 6.69439766363209,
        "10": 1.6135788848374855,
        "11": -0.62164124607621,
        "12": -1.4848387464853618,
        "13": 1.784412722773876,
        "14": 5.129935588524304,
        "15": 1.2784667663906735,
        "16": -0.8518118298360466
      },
      "3.08": {
        "0": -0.6662745446825576,
        "1": -14.772793313101285,
        "2": 5.487017823286688,
        "3": 2.1435147296438695,
        "4": -0.22941263608228235,
        "5": 6.133914165798626,
        "6": -0.5612011874994494,
        "7": -1.3749496420781382,
        "8": -0.4009361698837144,
        "9": 8.728139268085755,
        "10": 2.554812803850548,
        "11": 0.18077571658554614,
        "12": -1.1142752837857484,
        "13": 2.7387343135795605,
        "14": 6.074983256646216,
        "15": 2.545466386800177,
        "16": 0.02884159539804365
      }
    },
    "cost_pair": {
      "1.59": -0.9279641216345502,
      "2.43": -1.95512955138597,
      "2.51": -2.0422724066252007,
      "2.62": -1.8891282644893703,
      "3.08": -1.3749496420781382
    }
  },
  "Vlog_1080P-58ad.y4m": {
    "brent_data": [
      3.64,
      -3.268362447959705,
      0,
      0
    ],
    "total_encodes": 12,
    "bdrate_data": {
      "1.59": {
        "0": -0.7998637935541196,
        "1": 3.013715987055999,
        "2": -1.4253924861171274,
        "3": -1.7158391493592329,
        "4": -1.8698046842876237,
        "5": -1.512663401482739,
        "6": -1.5446660272492863,
        "7": -1.3764896012658512,
        "8": -1.5586949085178325,
        "9": -1.8531080390720156,
        "10": -1.976676156245949,
        "11": -1.641491686707175,
        "12": -2.2220869645396824,
        "13": -2.2593922682969114,
        "14": -1.9121203841734546,
        "15": -1.807118258574869,
        "16": -1.8939891614189186
      },
      "2.51": {
        "0": -1.570497019001399,
        "1": 2.6748764312134305,
        "2": -2.589635327358142,
        "3": -3.3164411279161476,
        "4": -3.1922254562734675,
        "5": -2.818429411413881,
        "6": -2.7484029010403144,
        "7": -2.5066075857994474,
        "8": -2.8304326261147095,
        "9": -3.503323032040506,
        "10": -3.2933511436528007,
        "11": -2.980046892005328,
        "12": -4.02119491882984,
        "13": -4.002665797826632,
        "14": -3.4873626352994513,
        "15": -3.3684503226690032,
        "16": -3.1786076560052168
      },
      "3.08": {
        "0": -1.250230342497193,
        "1": -3.137709036708633,
        "2": -3.07838383601845,
        "3": -3.9550549163482995,
        "4": -3.881187055791968,
        "5": -3.4058980047719567,
        "6": -3.157806527519069,
        "7": -2.9317802771175017,
        "8": -3.313407596955953,
        "9": -4.161893278973972,
        "10": -4.083085934598174,
        "11": -3.4912769743543515,
        "12": -4.880748539676505,
        "13": -4.801864838169722,
        "14": -4.149822419429972,
        "15": -4.008520775203017,
        "16": -3.901414003917947
      },
      "3.43": {
        "0": -0.7054454623151973,
        "1": 28.79564553145212,
        "2": -3.2745382600870787,
        "3": -4.057768394841654,
        "4": -3.9543436739641113,
        "5": -3.452476505859259,
        "6": -3.343572558254304,
        "7": -3.1372806706803202,
        "8": -3.53875702299028,
        "9": -4.285222339852912,
        "10": -4.108766342971437,
        "11": -3.7102987798658615,
        "12": -4.995502451735334,
        "13": -4.982203768042181,
        "14": -4.41309617376583,
        "15": -4.080841867640029,
        "16": -3.924413512417879
      },
      "3.57": {
        "0": -1.7472873993183375,
        "1": 5.384957679294476,
        "2": -3.3781235117295805,
        "3": -4.219153426247568,
        "4": -4.3192858208147005,
        "5": -3.6949275432007433,
        "6": -3.410810455966029,
        "7": -3.205207104031671,
        "8": -3.6290562119364433,
        "9": -4.4967892719851354,
        "10": -4.442508411591928,
        "11": -3.8149866723422243,
        "12": -5.10381979436313,
        "13": -5.033700789884166,
        "14": -4.559139530107592,
        "15": -4.2379443837700865,
        "16": -4.271895583294649
      },
      "3.62": {
        "0": -1.0192732884358031,
        "1": -1.1483162564106564,
        "2": -3.369013106899199,
        "3": -4.3675636215442015,
        "4": -4.1695476465510755,
        "5": -3.670622317799588,
        "6": -3.4429650517241894,
        "7": -3.2323114190685676,
        "8": -3.6286966012354704,
        "9": -4.613376442139428,
        "10": -4.245898703756989,
        "11": -3.81777883935851,
        "12": -5.089396684034608,
        "13": -5.072515722691195,
        "14": -4.540739209739386,
        "15": -4.394851520115239,
        "16": -4.17285245211183
      },
      "3.63": {
        "0": -0.03529580643522399,
        "1": 21.4373128164215,
        "2": -3.387454004483026,
        "3": -4.363197699780608,
        "4": -4.2109106184060385,
        "5": -3.788025324524791,
        "6": -3.420482789326762,
        "7": -3.2283209925832224,
        "8": -3.6371104954311173,
        "9": -4.6172431003320575,
        "10": -4.318812364252933,
        "11": -3.8276955716928462,
        "12": -5.275092383657021,
        "13": -5.187565381230119,
        "14": -4.574823023526053,
        "15": -4.393906295690176,
        "16": -4.189144573682491
      },
      "3.64": {
        "0": -0.666261462591651,
        "1": 12.822570941831312,
        "2": -3.425264559951968,
        "3": -4.28697398634299,
        "4": -4.34769729007809,
        "5": -3.746936335417217,
        "6": -3.4692039423597554,
        "7": -3.268362447959705,
        "8": -3.6764361592425576,
        "9": -4.547052514094152,
        "10": -4.477873773611696,
        "11": -3.8649404108873187,
        "12": -5.2246111914017845,
        "13": -5.23107560019006,
        "14": -4.6195474094559374,
        "15": -4.325941636247988,
        "16": -4.300656288895555
      },
      "3.65": {
        "0": 0.4499789505517415,
        "1": 8.405527095896675,
        "2": -3.4079185878609475,
        "3": -4.177125510283819,
        "4": -4.068361058652359,
        "5": -3.6667662896678554,
        "6": -3.450862442210678,
        "7": -3.2483111734785353,
        "8": -3.655649199250366,
        "9": -4.414820367798966,
        "10": -4.199882588120818,
        "11": -3.835506924247434,
        "12": -5.2009212892587975,
        "13": -5.1603173758005605,
        "14": -4.608238496163908,
        "15": -4.175852105605083,
        "16": -4.06450019165201
      },
      "3.66": {
        "0": -1.9988011168045245,
        "1": 4.531534088716682,
        "2": -3.4004221306837112,
        "3": -4.304755227882007,
        "4": -4.343287373733462,
        "5": -3.67934303706442,
        "6": -3.4249463510675704,
        "7": -3.2137461253269772,
        "8": -3.659035621726636,
        "9": -4.577599869350268,
        "10": -4.458547793282797,
        "11": -3.851399647552556,
        "12": -5.19158959607674,
        "13": -5.1688340224254725,
        "14": -4.5972398537889365,
        "15": -4.322234344972021,
        "16": -4.265461041816465
      },
      "3.69": {
        "0": -0.9570329017455174,
        "1": 1.8390927470338314,
        "2": -3.4205405275985146,
        "3": -4.145642169988983,
        "4": -4.2386926976866635,
        "5": -3.6568371292409307,
        "6": -3.431981113559879,
        "7": -3.227537419870552,
        "8": -3.661665794928881,
        "9": -4.400219490175894,
        "10": -4.4024381141050455,
        "11": -3.8504699780497864,
        "12": -5.274525102325334,
        "13": -5.231927733694941,
        "14": -4.627516764760953,
        "15": -4.172312410192546,
        "16": -4.254157356926569
      },
      "3.78": {
        "0": 0.27364603373660507,
        "1": 2.5594476936210206,
        "2": -3.440119022097632,
        "3": -4.358206041571766,
        "4": -4.417030705579716,
        "5": -3.7863390251798856,
        "6": -3.419211822736845,
        "7": -3.2360889398493797,
        "8": -3.682888525825656,
        "9": -4.584551589179875,
        "10": -4.523852951920359,
        "11": -3.878742367906962,
        "12": -5.360601755725791,
        "13": -5.267174981973333,
        "14": -4.655748540554139,
        "15": -4.424708325185822,
        "16": -4.374475439980219
      }
    },
    "cost_pair": {
      "1.59": -1.3764896012658512,
      "2.51": -2.5066075857994474,
      "3.08": -2.9317802771175017,
      "3.43": -3.1372806706803202,
      "3.57": -3.205207104031671,
      "3.62": -3.2323114190685676,
      "3.63": -3.2283209925832224,
      "3.64": -3.268362447959705,
      "3.65": -3.2483111734785353,
      "3.66": -3.2137461253269772,
      "3.69": -3.227537419870552,
      "3.78": -3.2360889398493797
    }
  }
}