%!PS-Adobe-3.0 EPSF-3.0
%%Creator: (MATLAB, The Mathworks, Inc. Version 9.11.0.1837725 \(R2021b\) Update 2. Operating System: Mac OS X)
%%Title: plots/pchip/Vlog_1080P-58ad.y4m-av1-nVMAF.eps
%%CreationDate: 2022-02-03T19:13:49
%%Pages: (atend)
%%BoundingBox:    33   425   508   826
%%LanguageLevel: 3
%%EndComments
%%BeginProlog
%%BeginResource: procset (Apache XML Graphics Std ProcSet) 1.2 0
%%Version: 1.2 0
%%Copyright: (Copyright 2001-2003,2010 The Apache Software Foundation. License terms: http://www.apache.org/licenses/LICENSE-2.0)
/bd{bind def}bind def
/ld{load def}bd
/GR/grestore ld
/GS/gsave ld
/RM/rmoveto ld
/C/curveto ld
/t/show ld
/L/lineto ld
/ML/setmiterlimit ld
/CT/concat ld
/f/fill ld
/N/newpath ld
/S/stroke ld
/CC/setcmykcolor ld
/A/ashow ld
/cp/closepath ld
/RC/setrgbcolor ld
/LJ/setlinejoin ld
/GC/setgray ld
/LW/setlinewidth ld
/M/moveto ld
/re {4 2 roll M
1 index 0 rlineto
0 exch rlineto
neg 0 rlineto
cp } bd
/_ctm matrix def
/_tm matrix def
/BT { _ctm currentmatrix pop matrix _tm copy pop 0 0 moveto } bd
/ET { _ctm setmatrix } bd
/iTm { _ctm setmatrix _tm concat } bd
/Tm { _tm astore pop iTm 0 0 moveto } bd
/ux 0.0 def
/uy 0.0 def
/F {
  /Tp exch def
  /Tf exch def
  Tf findfont Tp scalefont setfont
  /cf Tf def  /cs Tp def
} bd
/ULS {currentpoint /uy exch def /ux exch def} bd
/ULE {
  /Tcx currentpoint pop def
  gsave
  newpath
  cf findfont cs scalefont dup
  /FontMatrix get 0 get /Ts exch def /FontInfo get dup
  /UnderlinePosition get Ts mul /To exch def
  /UnderlineThickness get Ts mul /Tt exch def
  ux uy To add moveto  Tcx uy To add lineto
  Tt setlinewidth stroke
  grestore
} bd
/OLE {
  /Tcx currentpoint pop def
  gsave
  newpath
  cf findfont cs scalefont dup
  /FontMatrix get 0 get /Ts exch def /FontInfo get dup
  /UnderlinePosition get Ts mul /To exch def
  /UnderlineThickness get Ts mul /Tt exch def
  ux uy To add cs add moveto Tcx uy To add cs add lineto
  Tt setlinewidth stroke
  grestore
} bd
/SOE {
  /Tcx currentpoint pop def
  gsave
  newpath
  cf findfont cs scalefont dup
  /FontMatrix get 0 get /Ts exch def /FontInfo get dup
  /UnderlinePosition get Ts mul /To exch def
  /UnderlineThickness get Ts mul /Tt exch def
  ux uy To add cs 10 mul 26 idiv add moveto Tcx uy To add cs 10 mul 26 idiv add lineto
  Tt setlinewidth stroke
  grestore
} bd
/QT {
/Y22 exch store
/X22 exch store
/Y21 exch store
/X21 exch store
currentpoint
/Y21 load 2 mul add 3 div exch
/X21 load 2 mul add 3 div exch
/X21 load 2 mul /X22 load add 3 div
/Y21 load 2 mul /Y22 load add 3 div
/X22 load /Y22 load curveto
} bd
/SSPD {
dup length /d exch dict def
{
/v exch def
/k exch def
currentpagedevice k known {
/cpdv currentpagedevice k get def
v cpdv ne {
/upd false def
/nullv v type /nulltype eq def
/nullcpdv cpdv type /nulltype eq def
nullv nullcpdv or
{
/upd true def
} {
/sametype v type cpdv type eq def
sametype {
v type /arraytype eq {
/vlen v length def
/cpdvlen cpdv length def
vlen cpdvlen eq {
0 1 vlen 1 sub {
/i exch def
/obj v i get def
/cpdobj cpdv i get def
obj cpdobj ne {
/upd true def
exit
} if
} for
} {
/upd true def
} ifelse
} {
v type /dicttype eq {
v {
/dv exch def
/dk exch def
/cpddv cpdv dk get def
dv cpddv ne {
/upd true def
exit
} if
} forall
} {
/upd true def
} ifelse
} ifelse
} if
} ifelse
upd true eq {
d k v put
} if
} if
} if
} forall
d length 0 gt {
d setpagedevice
} if
} bd
/RE { % /NewFontName [NewEncodingArray] /FontName RE -
  findfont dup length dict begin
  {
    1 index /FID ne
    {def} {pop pop} ifelse
  } forall
  /Encoding exch def
  /FontName 1 index def
  currentdict definefont pop
  end
} bind def
%%EndResource
%%BeginResource: procset (Apache XML Graphics EPS ProcSet) 1.0 0
%%Version: 1.0 0
%%Copyright: (Copyright 2002-2003 The Apache Software Foundation. License terms: http://www.apache.org/licenses/LICENSE-2.0)
/BeginEPSF { %def
/b4_Inc_state save def         % Save state for cleanup
/dict_count countdictstack def % Count objects on dict stack
/op_count count 1 sub def      % Count objects on operand stack
userdict begin                 % Push userdict on dict stack
/showpage { } def              % Redefine showpage, { } = null proc
0 setgray 0 setlinecap         % Prepare graphics state
1 setlinewidth 0 setlinejoin
10 setmiterlimit [ ] 0 setdash newpath
/languagelevel where           % If level not equal to 1 then
{pop languagelevel             % set strokeadjust and
1 ne                           % overprint to their defaults.
{false setstrokeadjust false setoverprint
} if
} if
} bd
/EndEPSF { %def
count op_count sub {pop} repeat            % Clean up stacks
countdictstack dict_count sub {end} repeat
b4_Inc_state restore
} bd
%%EndResource
%FOPBeginFontDict
%%IncludeResource: font Courier-Oblique
%%IncludeResource: font Courier-BoldOblique
%%IncludeResource: font Courier-Bold
%%IncludeResource: font ZapfDingbats
%%IncludeResource: font Symbol
%%IncludeResource: font Helvetica
%%IncludeResource: font Helvetica-Oblique
%%IncludeResource: font Helvetica-Bold
%%IncludeResource: font Helvetica-BoldOblique
%%IncludeResource: font Times-Roman
%%IncludeResource: font Times-Italic
%%IncludeResource: font Times-Bold
%%IncludeResource: font Times-BoldItalic
%%IncludeResource: font Courier
%FOPEndFontDict
%%BeginResource: encoding WinAnsiEncoding
/WinAnsiEncoding [
/.notdef /.notdef /.notdef /.notdef /.notdef
/.notdef /.notdef /.notdef /.notdef /.notdef
/.notdef /.notdef /.notdef /.notdef /.notdef
/.notdef /.notdef /.notdef /.notdef /.notdef
/.notdef /.notdef /.notdef /.notdef /.notdef
/.notdef /.notdef /.notdef /.notdef /.notdef
/.notdef /.notdef /space /exclam /quotedbl
/numbersign /dollar /percent /ampersand /quotesingle
/parenleft /parenright /asterisk /plus /comma
/hyphen /period /slash /zero /one
/two /three /four /five /six
/seven /eight /nine /colon /semicolon
/less /equal /greater /question /at
/A /B /C /D /E
/F /G /H /I /J
/K /L /M /N /O
/P /Q /R /S /T
/U /V /W /X /Y
/Z /bracketleft /backslash /bracketright /asciicircum
/underscore /quoteleft /a /b /c
/d /e /f /g /h
/i /j /k /l /m
/n /o /p /q /r
/s /t /u /v /w
/x /y /z /braceleft /bar
/braceright /asciitilde /bullet /Euro /bullet
/quotesinglbase /florin /quotedblbase /ellipsis /dagger
/daggerdbl /circumflex /perthousand /Scaron /guilsinglleft
/OE /bullet /Zcaron /bullet /bullet
/quoteleft /quoteright /quotedblleft /quotedblright /bullet
/endash /emdash /asciitilde /trademark /scaron
/guilsinglright /oe /bullet /zcaron /Ydieresis
/space /exclamdown /cent /sterling /currency
/yen /brokenbar /section /dieresis /copyright
/ordfeminine /guillemotleft /logicalnot /sfthyphen /registered
/macron /degree /plusminus /twosuperior /threesuperior
/acute /mu /paragraph /middot /cedilla
/onesuperior /ordmasculine /guillemotright /onequarter /onehalf
/threequarters /questiondown /Agrave /Aacute /Acircumflex
/Atilde /Adieresis /Aring /AE /Ccedilla
/Egrave /Eacute /Ecircumflex /Edieresis /Igrave
/Iacute /Icircumflex /Idieresis /Eth /Ntilde
/Ograve /Oacute /Ocircumflex /Otilde /Odieresis
/multiply /Oslash /Ugrave /Uacute /Ucircumflex
/Udieresis /Yacute /Thorn /germandbls /agrave
/aacute /acircumflex /atilde /adieresis /aring
/ae /ccedilla /egrave /eacute /ecircumflex
/edieresis /igrave /iacute /icircumflex /idieresis
/eth /ntilde /ograve /oacute /ocircumflex
/otilde /odieresis /divide /oslash /ugrave
/uacute /ucircumflex /udieresis /yacute /thorn
/ydieresis
] def
%%EndResource
%FOPBeginFontReencode
/Courier-Oblique findfont
dup length dict begin
  {1 index /FID ne {def} {pop pop} ifelse} forall
  /Encoding WinAnsiEncoding def
  currentdict
end
/Courier-Oblique exch definefont pop
/Courier-BoldOblique findfont
dup length dict begin
  {1 index /FID ne {def} {pop pop} ifelse} forall
  /Encoding WinAnsiEncoding def
  currentdict
end
/Courier-BoldOblique exch definefont pop
/Courier-Bold findfont
dup length dict begin
  {1 index /FID ne {def} {pop pop} ifelse} forall
  /Encoding WinAnsiEncoding def
  currentdict
end
/Courier-Bold exch definefont pop
/Helvetica findfont
dup length dict begin
  {1 index /FID ne {def} {pop pop} ifelse} forall
  /Encoding WinAnsiEncoding def
  currentdict
end
/Helvetica exch definefont pop
/Helvetica-Oblique findfont
dup length dict begin
  {1 index /FID ne {def} {pop pop} ifelse} forall
  /Encoding WinAnsiEncoding def
  currentdict
end
/Helvetica-Oblique exch definefont pop
/Helvetica-Bold findfont
dup length dict begin
  {1 index /FID ne {def} {pop pop} ifelse} forall
  /Encoding WinAnsiEncoding def
  currentdict
end
/Helvetica-Bold exch definefont pop
/Helvetica-BoldOblique findfont
dup length dict begin
  {1 index /FID ne {def} {pop pop} ifelse} forall
  /Encoding WinAnsiEncoding def
  currentdict
end
/Helvetica-BoldOblique exch definefont pop
/Times-Roman findfont
dup length dict begin
  {1 index /FID ne {def} {pop pop} ifelse} forall
  /Encoding WinAnsiEncoding def
  currentdict
end
/Times-Roman exch definefont pop
/Times-Italic findfont
dup length dict begin
  {1 index /FID ne {def} {pop pop} ifelse} forall
  /Encoding WinAnsiEncoding def
  currentdict
end
/Times-Italic exch definefont pop
/Times-Bold findfont
dup length dict begin
  {1 index /FID ne {def} {pop pop} ifelse} forall
  /Encoding WinAnsiEncoding def
  currentdict
end
/Times-Bold exch definefont pop
/Times-BoldItalic findfont
dup length dict begin
  {1 index /FID ne {def} {pop pop} ifelse} forall
  /Encoding WinAnsiEncoding def
  currentdict
end
/Times-BoldItalic exch definefont pop
/Courier findfont
dup length dict begin
  {1 index /FID ne {def} {pop pop} ifelse} forall
  /Encoding WinAnsiEncoding def
  currentdict
end
/Courier exch definefont pop
%FOPEndFontReencode
%%EndProlog
%%Page: 1 1
%%PageBoundingBox: 0 0 1120 840
%%BeginPageSetup
[1 0 0 -1 0 840] CT
%%EndPageSetup
GS
1 GC
N
0 0 1120 840 re
f
GR
GS
1 GC
N
73 374 M
507 374 L
507 31.5 L
73 31.5 L
cp
f
GR
GS
0.149 GC
2 setlinecap
1 LJ
0.5 LW
N
73 374 M
507 374 L
S
GR
GS
0.149 GC
2 setlinecap
1 LJ
0.5 LW
N
73 31.5 M
507 31.5 L
S
GR
GS
0.149 GC
2 setlinecap
1 LJ
0.5 LW
N
94.338 374 M
94.338 369.66 L
S
GR
GS
0.149 GC
2 setlinecap
1 LJ
0.5 LW
N
141.066 374 M
141.066 369.66 L
S
GR
GS
0.149 GC
2 setlinecap
1 LJ
0.5 LW
N
187.794 374 M
187.794 369.66 L
S
GR
GS
0.149 GC
2 setlinecap
1 LJ
0.5 LW
N
234.522 374 M
234.522 369.66 L
S
GR
GS
0.149 GC
2 setlinecap
1 LJ
0.5 LW
N
281.25 374 M
281.25 369.66 L
S
GR
GS
0.149 GC
2 setlinecap
1 LJ
0.5 LW
N
327.978 374 M
327.978 369.66 L
S
GR
GS
0.149 GC
2 setlinecap
1 LJ
0.5 LW
N
374.706 374 M
374.706 369.66 L
S
GR
GS
0.149 GC
2 setlinecap
1 LJ
0.5 LW
N
421.434 374 M
421.434 369.66 L
S
GR
GS
0.149 GC
2 setlinecap
1 LJ
0.5 LW
N
468.161 374 M
468.161 369.66 L
S
GR
GS
0.149 GC
2 setlinecap
1 LJ
0.5 LW
N
94.338 31.5 M
94.338 35.84 L
S
GR
GS
0.149 GC
2 setlinecap
1 LJ
0.5 LW
N
141.066 31.5 M
141.066 35.84 L
S
GR
GS
0.149 GC
2 setlinecap
1 LJ
0.5 LW
N
187.794 31.5 M
187.794 35.84 L
S
GR
GS
0.149 GC
2 setlinecap
1 LJ
0.5 LW
N
234.522 31.5 M
234.522 35.84 L
S
GR
GS
0.149 GC
2 setlinecap
1 LJ
0.5 LW
N
281.25 31.5 M
281.25 35.84 L
S
GR
GS
0.149 GC
2 setlinecap
1 LJ
0.5 LW
N
327.978 31.5 M
327.978 35.84 L
S
GR
GS
0.149 GC
2 setlinecap
1 LJ
0.5 LW
N
374.706 31.5 M
374.706 35.84 L
S
GR
GS
0.149 GC
2 setlinecap
1 LJ
0.5 LW
N
421.434 31.5 M
421.434 35.84 L
S
GR
GS
0.149 GC
2 setlinecap
1 LJ
0.5 LW
N
468.161 31.5 M
468.161 35.84 L
S
GR
GS
0.149 GC
2 setlinecap
1 LJ
0.5 LW
N
75.647 374 M
75.647 371.83 L
S
GR
GS
0.149 GC
2 setlinecap
1 LJ
0.5 LW
N
84.992 374 M
84.992 371.83 L
S
GR
GS
0.149 GC
2 setlinecap
1 LJ
0.5 LW
N
103.683 374 M
103.683 371.83 L
S
GR
GS
0.149 GC
2 setlinecap
1 LJ
0.5 LW
N
113.029 374 M
113.029 371.83 L
S
GR
GS
0.149 GC
2 setlinecap
1 LJ
0.5 LW
N
122.375 374 M
122.375 371.83 L
S
GR
GS
0.149 GC
2 setlinecap
1 LJ
0.5 LW
N
131.72 374 M
131.72 371.83 L
S
GR
GS
0.149 GC
2 setlinecap
1 LJ
0.5 LW
N
150.411 374 M
150.411 371.83 L
S
GR
GS
0.149 GC
2 setlinecap
1 LJ
0.5 LW
N
159.757 374 M
159.757 371.83 L
S
GR
GS
0.149 GC
2 setlinecap
1 LJ
0.5 LW
N
169.103 374 M
169.103 371.83 L
S
GR
GS
0.149 GC
2 setlinecap
1 LJ
0.5 LW
N
178.448 374 M
178.448 371.83 L
S
GR
GS
0.149 GC
2 setlinecap
1 LJ
0.5 LW
N
197.139 374 M
197.139 371.83 L
S
GR
GS
0.149 GC
2 setlinecap
1 LJ
0.5 LW
N
206.485 374 M
206.485 371.83 L
S
GR
GS
0.149 GC
2 setlinecap
1 LJ
0.5 LW
N
215.831 374 M
215.831 371.83 L
S
GR
GS
0.149 GC
2 setlinecap
1 LJ
0.5 LW
N
225.176 374 M
225.176 371.83 L
S
GR
GS
0.149 GC
2 setlinecap
1 LJ
0.5 LW
N
243.867 374 M
243.867 371.83 L
S
GR
GS
0.149 GC
2 setlinecap
1 LJ
0.5 LW
N
253.213 374 M
253.213 371.83 L
S
GR
GS
0.149 GC
2 setlinecap
1 LJ
0.5 LW
N
262.558 374 M
262.558 371.83 L
S
GR
GS
0.149 GC
2 setlinecap
1 LJ
0.5 LW
N
271.904 374 M
271.904 371.83 L
S
GR
GS
0.149 GC
2 setlinecap
1 LJ
0.5 LW
N
290.595 374 M
290.595 371.83 L
S
GR
GS
0.149 GC
2 setlinecap
1 LJ
0.5 LW
N
299.941 374 M
299.941 371.83 L
S
GR
GS
0.149 GC
2 setlinecap
1 LJ
0.5 LW
N
309.286 374 M
309.286 371.83 L
S
GR
GS
0.149 GC
2 setlinecap
1 LJ
0.5 LW
N
318.632 374 M
318.632 371.83 L
S
GR
GS
0.149 GC
2 setlinecap
1 LJ
0.5 LW
N
337.323 374 M
337.323 371.83 L
S
GR
GS
0.149 GC
2 setlinecap
1 LJ
0.5 LW
N
346.669 374 M
346.669 371.83 L
S
GR
GS
0.149 GC
2 setlinecap
1 LJ
0.5 LW
N
356.014 374 M
356.014 371.83 L
S
GR
GS
0.149 GC
2 setlinecap
1 LJ
0.5 LW
N
365.36 374 M
365.36 371.83 L
S
GR
GS
0.149 GC
2 setlinecap
1 LJ
0.5 LW
N
384.051 374 M
384.051 371.83 L
S
GR
GS
0.149 GC
2 setlinecap
1 LJ
0.5 LW
N
393.397 374 M
393.397 371.83 L
S
GR
GS
0.149 GC
2 setlinecap
1 LJ
0.5 LW
N
402.742 374 M
402.742 371.83 L
S
GR
GS
0.149 GC
2 setlinecap
1 LJ
0.5 LW
N
412.088 374 M
412.088 371.83 L
S
GR
GS
0.149 GC
2 setlinecap
1 LJ
0.5 LW
N
430.779 374 M
430.779 371.83 L
S
GR
GS
0.149 GC
2 setlinecap
1 LJ
0.5 LW
N
440.125 374 M
440.125 371.83 L
S
GR
GS
0.149 GC
2 setlinecap
1 LJ
0.5 LW
N
449.47 374 M
449.47 371.83 L
S
GR
GS
0.149 GC
2 setlinecap
1 LJ
0.5 LW
N
458.816 374 M
458.816 371.83 L
S
GR
GS
0.149 GC
2 setlinecap
1 LJ
0.5 LW
N
477.507 374 M
477.507 371.83 L
S
GR
GS
0.149 GC
2 setlinecap
1 LJ
0.5 LW
N
486.853 374 M
486.853 371.83 L
S
GR
GS
0.149 GC
2 setlinecap
1 LJ
0.5 LW
N
496.198 374 M
496.198 371.83 L
S
GR
GS
0.149 GC
2 setlinecap
1 LJ
0.5 LW
N
505.544 374 M
505.544 371.83 L
S
GR
GS
0.149 GC
2 setlinecap
1 LJ
0.5 LW
N
75.647 31.5 M
75.647 33.67 L
S
GR
GS
0.149 GC
2 setlinecap
1 LJ
0.5 LW
N
84.992 31.5 M
84.992 33.67 L
S
GR
GS
0.149 GC
2 setlinecap
1 LJ
0.5 LW
N
103.683 31.5 M
103.683 33.67 L
S
GR
GS
0.149 GC
2 setlinecap
1 LJ
0.5 LW
N
113.029 31.5 M
113.029 33.67 L
S
GR
GS
0.149 GC
2 setlinecap
1 LJ
0.5 LW
N
122.375 31.5 M
122.375 33.67 L
S
GR
GS
0.149 GC
2 setlinecap
1 LJ
0.5 LW
N
131.72 31.5 M
131.72 33.67 L
S
GR
GS
0.149 GC
2 setlinecap
1 LJ
0.5 LW
N
150.411 31.5 M
150.411 33.67 L
S
GR
GS
0.149 GC
2 setlinecap
1 LJ
0.5 LW
N
159.757 31.5 M
159.757 33.67 L
S
GR
GS
0.149 GC
2 setlinecap
1 LJ
0.5 LW
N
169.103 31.5 M
169.103 33.67 L
S
GR
GS
0.149 GC
2 setlinecap
1 LJ
0.5 LW
N
178.448 31.5 M
178.448 33.67 L
S
GR
GS
0.149 GC
2 setlinecap
1 LJ
0.5 LW
N
197.139 31.5 M
197.139 33.67 L
S
GR
GS
0.149 GC
2 setlinecap
1 LJ
0.5 LW
N
206.485 31.5 M
206.485 33.67 L
S
GR
GS
0.149 GC
2 setlinecap
1 LJ
0.5 LW
N
215.831 31.5 M
215.831 33.67 L
S
GR
GS
0.149 GC
2 setlinecap
1 LJ
0.5 LW
N
225.176 31.5 M
225.176 33.67 L
S
GR
GS
0.149 GC
2 setlinecap
1 LJ
0.5 LW
N
243.867 31.5 M
243.867 33.67 L
S
GR
GS
0.149 GC
2 setlinecap
1 LJ
0.5 LW
N
253.213 31.5 M
253.213 33.67 L
S
GR
GS
0.149 GC
2 setlinecap
1 LJ
0.5 LW
N
262.558 31.5 M
262.558 33.67 L
S
GR
GS
0.149 GC
2 setlinecap
1 LJ
0.5 LW
N
271.904 31.5 M
271.904 33.67 L
S
GR
GS
0.149 GC
2 setlinecap
1 LJ
0.5 LW
N
290.595 31.5 M
290.595 33.67 L
S
GR
GS
0.149 GC
2 setlinecap
1 LJ
0.5 LW
N
299.941 31.5 M
299.941 33.67 L
S
GR
GS
0.149 GC
2 setlinecap
1 LJ
0.5 LW
N
309.286 31.5 M
309.286 33.67 L
S
GR
GS
0.149 GC
2 setlinecap
1 LJ
0.5 LW
N
318.632 31.5 M
318.632 33.67 L
S
GR
GS
0.149 GC
2 setlinecap
1 LJ
0.5 LW
N
337.323 31.5 M
337.323 33.67 L
S
GR
GS
0.149 GC
2 setlinecap
1 LJ
0.5 LW
N
346.669 31.5 M
346.669 33.67 L
S
GR
GS
0.149 GC
2 setlinecap
1 LJ
0.5 LW
N
356.014 31.5 M
356.014 33.67 L
S
GR
GS
0.149 GC
2 setlinecap
1 LJ
0.5 LW
N
365.36 31.5 M
365.36 33.67 L
S
GR
GS
0.149 GC
2 setlinecap
1 LJ
0.5 LW
N
384.051 31.5 M
384.051 33.67 L
S
GR
GS
0.149 GC
2 setlinecap
1 LJ
0.5 LW
N
393.397 31.5 M
393.397 33.67 L
S
GR
GS
0.149 GC
2 setlinecap
1 LJ
0.5 LW
N
402.742 31.5 M
402.742 33.67 L
S
GR
GS
0.149 GC
2 setlinecap
1 LJ
0.5 LW
N
412.088 31.5 M
412.088 33.67 L
S
GR
GS
0.149 GC
2 setlinecap
1 LJ
0.5 LW
N
430.779 31.5 M
430.779 33.67 L
S
GR
GS
0.149 GC
2 setlinecap
1 LJ
0.5 LW
N
440.125 31.5 M
440.125 33.67 L
S
GR
GS
0.149 GC
2 setlinecap
1 LJ
0.5 LW
N
449.47 31.5 M
449.47 33.67 L
S
GR
GS
0.149 GC
2 setlinecap
1 LJ
0.5 LW
N
458.816 31.5 M
458.816 33.67 L
S
GR
GS
0.149 GC
2 setlinecap
1 LJ
0.5 LW
N
477.507 31.5 M
477.507 33.67 L
S
GR
GS
0.149 GC
2 setlinecap
1 LJ
0.5 LW
N
486.853 31.5 M
486.853 33.67 L
S
GR
GS
0.149 GC
2 setlinecap
1 LJ
0.5 LW
N
496.198 31.5 M
496.198 33.67 L
S
GR
GS
0.149 GC
2 setlinecap
1 LJ
0.5 LW
N
505.544 31.5 M
505.544 33.67 L
S
GR
GS
[1 0 0 1 94.3378 378.80002] CT
0.149 GC
/Helvetica 14 F
GS
[1 0 0 1 0 0] CT
-16 14 moveto 
1 -1 scale
(1000) t 
GR
GR
GS
[1 0 0 1 141.06577 378.80002] CT
0.149 GC
/Helvetica 14 F
GS
[1 0 0 1 0 0] CT
-16 14 moveto 
1 -1 scale
(2000) t 
GR
GR
GS
[1 0 0 1 187.79372 378.80002] CT
0.149 GC
/Helvetica 14 F
GS
[1 0 0 1 0 0] CT
-16 14 moveto 
1 -1 scale
(3000) t 
GR
GR
GS
[1 0 0 1 234.52168 378.80002] CT
0.149 GC
/Helvetica 14 F
GS
[1 0 0 1 0 0] CT
-16 14 moveto 
1 -1 scale
(4000) t 
GR
GR
GS
[1 0 0 1 281.24963 378.80002] CT
0.149 GC
/Helvetica 14 F
GS
[1 0 0 1 0 0] CT
-16 14 moveto 
1 -1 scale
(5000) t 
GR
GR
GS
[1 0 0 1 327.9776 378.80002] CT
0.149 GC
/Helvetica 14 F
GS
[1 0 0 1 0 0] CT
-16 14 moveto 
1 -1 scale
(6000) t 
GR
GR
GS
[1 0 0 1 374.70557 378.80002] CT
0.149 GC
/Helvetica 14 F
GS
[1 0 0 1 0 0] CT
-16 14 moveto 
1 -1 scale
(7000) t 
GR
GR
GS
[1 0 0 1 421.43353 378.80002] CT
0.149 GC
/Helvetica 14 F
GS
[1 0 0 1 0 0] CT
-16 14 moveto 
1 -1 scale
(8000) t 
GR
GR
GS
[1 0 0 1 468.1615 378.80002] CT
0.149 GC
/Helvetica 14 F
GS
[1 0 0 1 0 0] CT
-16 14 moveto 
1 -1 scale
(9000) t 
GR
GR
GS
[1 0 0 1 290.00021 396.30002] CT
0.149 GC
/Helvetica 15.4 F
GS
[1 0 0 1 0 0] CT
-42 15 moveto 
1 -1 scale
(Bitrate\(kb/s\)) t 
GR
GR
GS
0.149 GC
2 setlinecap
1 LJ
0.5 LW
N
73 374 M
73 31.5 L
S
GR
GS
0.149 GC
2 setlinecap
1 LJ
0.5 LW
N
507 374 M
507 31.5 L
S
GR
GS
0.149 GC
2 setlinecap
1 LJ
0.5 LW
N
73 356.921 M
77.34 356.921 L
S
GR
GS
0.149 GC
2 setlinecap
1 LJ
0.5 LW
N
73 327.315 M
77.34 327.315 L
S
GR
GS
0.149 GC
2 setlinecap
1 LJ
0.5 LW
N
73 297.709 M
77.34 297.709 L
S
GR
GS
0.149 GC
2 setlinecap
1 LJ
0.5 LW
N
73 268.104 M
77.34 268.104 L
S
GR
GS
0.149 GC
2 setlinecap
1 LJ
0.5 LW
N
73 238.498 M
77.34 238.498 L
S
GR
GS
0.149 GC
2 setlinecap
1 LJ
0.5 LW
N
73 208.892 M
77.34 208.892 L
S
GR
GS
0.149 GC
2 setlinecap
1 LJ
0.5 LW
N
73 179.286 M
77.34 179.286 L
S
GR
GS
0.149 GC
2 setlinecap
1 LJ
0.5 LW
N
73 149.68 M
77.34 149.68 L
S
GR
GS
0.149 GC
2 setlinecap
1 LJ
0.5 LW
N
73 120.074 M
77.34 120.074 L
S
GR
GS
0.149 GC
2 setlinecap
1 LJ
0.5 LW
N
73 90.468 M
77.34 90.468 L
S
GR
GS
0.149 GC
2 setlinecap
1 LJ
0.5 LW
N
73 60.862 M
77.34 60.862 L
S
GR
GS
0.149 GC
2 setlinecap
1 LJ
0.5 LW
N
507 356.921 M
502.66 356.921 L
S
GR
GS
0.149 GC
2 setlinecap
1 LJ
0.5 LW
N
507 327.315 M
502.66 327.315 L
S
GR
GS
0.149 GC
2 setlinecap
1 LJ
0.5 LW
N
507 297.709 M
502.66 297.709 L
S
GR
GS
0.149 GC
2 setlinecap
1 LJ
0.5 LW
N
507 268.104 M
502.66 268.104 L
S
GR
GS
0.149 GC
2 setlinecap
1 LJ
0.5 LW
N
507 238.498 M
502.66 238.498 L
S
GR
GS
0.149 GC
2 setlinecap
1 LJ
0.5 LW
N
507 208.892 M
502.66 208.892 L
S
GR
GS
0.149 GC
2 setlinecap
1 LJ
0.5 LW
N
507 179.286 M
502.66 179.286 L
S
GR
GS
0.149 GC
2 setlinecap
1 LJ
0.5 LW
N
507 149.68 M
502.66 149.68 L
S
GR
GS
0.149 GC
2 setlinecap
1 LJ
0.5 LW
N
507 120.074 M
502.66 120.074 L
S
GR
GS
0.149 GC
2 setlinecap
1 LJ
0.5 LW
N
507 90.468 M
502.66 90.468 L
S
GR
GS
0.149 GC
2 setlinecap
1 LJ
0.5 LW
N
507 60.862 M
502.66 60.862 L
S
GR
GS
0.149 GC
2 setlinecap
1 LJ
0.5 LW
N
73 368.764 M
75.17 368.764 L
S
GR
GS
0.149 GC
2 setlinecap
1 LJ
0.5 LW
N
73 362.843 M
75.17 362.843 L
S
GR
GS
0.149 GC
2 setlinecap
1 LJ
0.5 LW
N
73 351 M
75.17 351 L
S
GR
GS
0.149 GC
2 setlinecap
1 LJ
0.5 LW
N
73 345.079 M
75.17 345.079 L
S
GR
GS
0.149 GC
2 setlinecap
1 LJ
0.5 LW
N
73 339.158 M
75.17 339.158 L
S
GR
GS
0.149 GC
2 setlinecap
1 LJ
0.5 LW
N
73 333.237 M
75.17 333.237 L
S
GR
GS
0.149 GC
2 setlinecap
1 LJ
0.5 LW
N
73 321.394 M
75.17 321.394 L
S
GR
GS
0.149 GC
2 setlinecap
1 LJ
0.5 LW
N
73 315.473 M
75.17 315.473 L
S
GR
GS
0.149 GC
2 setlinecap
1 LJ
0.5 LW
N
73 309.552 M
75.17 309.552 L
S
GR
GS
0.149 GC
2 setlinecap
1 LJ
0.5 LW
N
73 303.631 M
75.17 303.631 L
S
GR
GS
0.149 GC
2 setlinecap
1 LJ
0.5 LW
N
73 291.788 M
75.17 291.788 L
S
GR
GS
0.149 GC
2 setlinecap
1 LJ
0.5 LW
N
73 285.867 M
75.17 285.867 L
S
GR
GS
0.149 GC
2 setlinecap
1 LJ
0.5 LW
N
73 279.946 M
75.17 279.946 L
S
GR
GS
0.149 GC
2 setlinecap
1 LJ
0.5 LW
N
73 274.025 M
75.17 274.025 L
S
GR
GS
0.149 GC
2 setlinecap
1 LJ
0.5 LW
N
73 262.182 M
75.17 262.182 L
S
GR
GS
0.149 GC
2 setlinecap
1 LJ
0.5 LW
N
73 256.261 M
75.17 256.261 L
S
GR
GS
0.149 GC
2 setlinecap
1 LJ
0.5 LW
N
73 250.34 M
75.17 250.34 L
S
GR
GS
0.149 GC
2 setlinecap
1 LJ
0.5 LW
N
73 244.419 M
75.17 244.419 L
S
GR
GS
0.149 GC
2 setlinecap
1 LJ
0.5 LW
N
73 232.576 M
75.17 232.576 L
S
GR
GS
0.149 GC
2 setlinecap
1 LJ
0.5 LW
N
73 226.655 M
75.17 226.655 L
S
GR
GS
0.149 GC
2 setlinecap
1 LJ
0.5 LW
N
73 220.734 M
75.17 220.734 L
S
GR
GS
0.149 GC
2 setlinecap
1 LJ
0.5 LW
N
73 214.813 M
75.17 214.813 L
S
GR
GS
0.149 GC
2 setlinecap
1 LJ
0.5 LW
N
73 202.971 M
75.17 202.971 L
S
GR
GS
0.149 GC
2 setlinecap
1 LJ
0.5 LW
N
73 197.049 M
75.17 197.049 L
S
GR
GS
0.149 GC
2 setlinecap
1 LJ
0.5 LW
N
73 191.128 M
75.17 191.128 L
S
GR
GS
0.149 GC
2 setlinecap
1 LJ
0.5 LW
N
73 185.207 M
75.17 185.207 L
S
GR
GS
0.149 GC
2 setlinecap
1 LJ
0.5 LW
N
73 173.365 M
75.17 173.365 L
S
GR
GS
0.149 GC
2 setlinecap
1 LJ
0.5 LW
N
73 167.443 M
75.17 167.443 L
S
GR
GS
0.149 GC
2 setlinecap
1 LJ
0.5 LW
N
73 161.522 M
75.17 161.522 L
S
GR
GS
0.149 GC
2 setlinecap
1 LJ
0.5 LW
N
73 155.601 M
75.17 155.601 L
S
GR
GS
0.149 GC
2 setlinecap
1 LJ
0.5 LW
N
73 143.759 M
75.17 143.759 L
S
GR
GS
0.149 GC
2 setlinecap
1 LJ
0.5 LW
N
73 137.837 M
75.17 137.837 L
S
GR
GS
0.149 GC
2 setlinecap
1 LJ
0.5 LW
N
73 131.916 M
75.17 131.916 L
S
GR
GS
0.149 GC
2 setlinecap
1 LJ
0.5 LW
N
73 125.995 M
75.17 125.995 L
S
GR
GS
0.149 GC
2 setlinecap
1 LJ
0.5 LW
N
73 114.153 M
75.17 114.153 L
S
GR
GS
0.149 GC
2 setlinecap
1 LJ
0.5 LW
N
73 108.232 M
75.17 108.232 L
S
GR
GS
0.149 GC
2 setlinecap
1 LJ
0.5 LW
N
73 102.31 M
75.17 102.31 L
S
GR
GS
0.149 GC
2 setlinecap
1 LJ
0.5 LW
N
73 96.389 M
75.17 96.389 L
S
GR
GS
0.149 GC
2 setlinecap
1 LJ
0.5 LW
N
73 84.547 M
75.17 84.547 L
S
GR
GS
0.149 GC
2 setlinecap
1 LJ
0.5 LW
N
73 78.626 M
75.17 78.626 L
S
GR
GS
0.149 GC
2 setlinecap
1 LJ
0.5 LW
N
73 72.704 M
75.17 72.704 L
S
GR
GS
0.149 GC
2 setlinecap
1 LJ
0.5 LW
N
73 66.783 M
75.17 66.783 L
S
GR
GS
0.149 GC
2 setlinecap
1 LJ
0.5 LW
N
73 54.941 M
75.17 54.941 L
S
GR
GS
0.149 GC
2 setlinecap
1 LJ
0.5 LW
N
73 49.02 M
75.17 49.02 L
S
GR
GS
0.149 GC
2 setlinecap
1 LJ
0.5 LW
N
73 43.098 M
75.17 43.098 L
S
GR
GS
0.149 GC
2 setlinecap
1 LJ
0.5 LW
N
73 37.177 M
75.17 37.177 L
S
GR
GS
0.149 GC
2 setlinecap
1 LJ
0.5 LW
N
507 368.764 M
504.83 368.764 L
S
GR
GS
0.149 GC
2 setlinecap
1 LJ
0.5 LW
N
507 362.843 M
504.83 362.843 L
S
GR
GS
0.149 GC
2 setlinecap
1 LJ
0.5 LW
N
507 351 M
504.83 351 L
S
GR
GS
0.149 GC
2 setlinecap
1 LJ
0.5 LW
N
507 345.079 M
504.83 345.079 L
S
GR
GS
0.149 GC
2 setlinecap
1 LJ
0.5 LW
N
507 339.158 M
504.83 339.158 L
S
GR
GS
0.149 GC
2 setlinecap
1 LJ
0.5 LW
N
507 333.237 M
504.83 333.237 L
S
GR
GS
0.149 GC
2 setlinecap
1 LJ
0.5 LW
N
507 321.394 M
504.83 321.394 L
S
GR
GS
0.149 GC
2 setlinecap
1 LJ
0.5 LW
N
507 315.473 M
504.83 315.473 L
S
GR
GS
0.149 GC
2 setlinecap
1 LJ
0.5 LW
N
507 309.552 M
504.83 309.552 L
S
GR
GS
0.149 GC
2 setlinecap
1 LJ
0.5 LW
N
507 303.631 M
504.83 303.631 L
S
GR
GS
0.149 GC
2 setlinecap
1 LJ
0.5 LW
N
507 291.788 M
504.83 291.788 L
S
GR
GS
0.149 GC
2 setlinecap
1 LJ
0.5 LW
N
507 285.867 M
504.83 285.867 L
S
GR
GS
0.149 GC
2 setlinecap
1 LJ
0.5 LW
N
507 279.946 M
504.83 279.946 L
S
GR
GS
0.149 GC
2 setlinecap
1 LJ
0.5 LW
N
507 274.025 M
504.83 274.025 L
S
GR
GS
0.149 GC
2 setlinecap
1 LJ
0.5 LW
N
507 262.182 M
504.83 262.182 L
S
GR
GS
0.149 GC
2 setlinecap
1 LJ
0.5 LW
N
507 256.261 M
504.83 256.261 L
S
GR
GS
0.149 GC
2 setlinecap
1 LJ
0.5 LW
N
507 250.34 M
504.83 250.34 L
S
GR
GS
0.149 GC
2 setlinecap
1 LJ
0.5 LW
N
507 244.419 M
504.83 244.419 L
S
GR
GS
0.149 GC
2 setlinecap
1 LJ
0.5 LW
N
507 232.576 M
504.83 232.576 L
S
GR
GS
0.149 GC
2 setlinecap
1 LJ
0.5 LW
N
507 226.655 M
504.83 226.655 L
S
GR
GS
0.149 GC
2 setlinecap
1 LJ
0.5 LW
N
507 220.734 M
504.83 220.734 L
S
GR
GS
0.149 GC
2 setlinecap
1 LJ
0.5 LW
N
507 214.813 M
504.83 214.813 L
S
GR
GS
0.149 GC
2 setlinecap
1 LJ
0.5 LW
N
507 202.971 M
504.83 202.971 L
S
GR
GS
0.149 GC
2 setlinecap
1 LJ
0.5 LW
N
507 197.049 M
504.83 197.049 L
S
GR
GS
0.149 GC
2 setlinecap
1 LJ
0.5 LW
N
507 191.128 M
504.83 191.128 L
S
GR
GS
0.149 GC
2 setlinecap
1 LJ
0.5 LW
N
507 185.207 M
504.83 185.207 L
S
GR
GS
0.149 GC
2 setlinecap
1 LJ
0.5 LW
N
507 173.365 M
504.83 173.365 L
S
GR
GS
0.149 GC
2 setlinecap
1 LJ
0.5 LW
N
507 167.443 M
504.83 167.443 L
S
GR
GS
0.149 GC
2 setlinecap
1 LJ
0.5 LW
N
507 161.522 M
504.83 161.522 L
S
GR
GS
0.149 GC
2 setlinecap
1 LJ
0.5 LW
N
507 155.601 M
504.83 155.601 L
S
GR
GS
0.149 GC
2 setlinecap
1 LJ
0.5 LW
N
507 143.759 M
504.83 143.759 L
S
GR
GS
0.149 GC
2 setlinecap
1 LJ
0.5 LW
N
507 137.837 M
504.83 137.837 L
S
GR
GS
0.149 GC
2 setlinecap
1 LJ
0.5 LW
N
507 131.916 M
504.83 131.916 L
S
GR
GS
0.149 GC
2 setlinecap
1 LJ
0.5 LW
N
507 125.995 M
504.83 125.995 L
S
GR
GS
0.149 GC
2 setlinecap
1 LJ
0.5 LW
N
507 114.153 M
504.83 114.153 L
S
GR
GS
0.149 GC
2 setlinecap
1 LJ
0.5 LW
N
507 108.232 M
504.83 108.232 L
S
GR
GS
0.149 GC
2 setlinecap
1 LJ
0.5 LW
N
507 102.31 M
504.83 102.31 L
S
GR
GS
0.149 GC
2 setlinecap
1 LJ
0.5 LW
N
507 96.389 M
504.83 96.389 L
S
GR
GS
0.149 GC
2 setlinecap
1 LJ
0.5 LW
N
507 84.547 M
504.83 84.547 L
S
GR
GS
0.149 GC
2 setlinecap
1 LJ
0.5 LW
N
507 78.626 M
504.83 78.626 L
S
GR
GS
0.149 GC
2 setlinecap
1 LJ
0.5 LW
N
507 72.704 M
504.83 72.704 L
S
GR
GS
0.149 GC
2 setlinecap
1 LJ
0.5 LW
N
507 66.783 M
504.83 66.783 L
S
GR
GS
0.149 GC
2 setlinecap
1 LJ
0.5 LW
N
507 54.941 M
504.83 54.941 L
S
GR
GS
0.149 GC
2 setlinecap
1 LJ
0.5 LW
N
507 49.02 M
504.83 49.02 L
S
GR
GS
0.149 GC
2 setlinecap
1 LJ
0.5 LW
N
507 43.098 M
504.83 43.098 L
S
GR
GS
0.149 GC
2 setlinecap
1 LJ
0.5 LW
N
507 37.177 M
504.83 37.177 L
S
GR
GS
[1 0 0 1 68.2 356.92136] CT
0.149 GC
/Helvetica 14 F
GS
[1 0 0 1 0 0] CT
-16 5.5 moveto 
1 -1 scale
(45) t 
GR
GR
GS
[1 0 0 1 68.2 327.31543] CT
0.149 GC
/Helvetica 14 F
GS
[1 0 0 1 0 0] CT
-16 5.5 moveto 
1 -1 scale
(50) t 
GR
GR
GS
[1 0 0 1 68.2 297.70947] CT
0.149 GC
/Helvetica 14 F
GS
[1 0 0 1 0 0] CT
-16 5.5 moveto 
1 -1 scale
(55) t 
GR
GR
GS
[1 0 0 1 68.2 268.10355] CT
0.149 GC
/Helvetica 14 F
GS
[1 0 0 1 0 0] CT
-16 5.5 moveto 
1 -1 scale
(60) t 
GR
GR
GS
[1 0 0 1 68.2 238.49762] CT
0.149 GC
/Helvetica 14 F
GS
[1 0 0 1 0 0] CT
-16 5.5 moveto 
1 -1 scale
(65) t 
GR
GR
GS
[1 0 0 1 68.2 208.89168] CT
0.149 GC
/Helvetica 14 F
GS
[1 0 0 1 0 0] CT
-16 5.5 moveto 
1 -1 scale
(70) t 
GR
GR
GS
[1 0 0 1 68.2 179.28575] CT
0.149 GC
/Helvetica 14 F
GS
[1 0 0 1 0 0] CT
-16 5.5 moveto 
1 -1 scale
(75) t 
GR
GR
GS
[1 0 0 1 68.2 149.67982] CT
0.149 GC
/Helvetica 14 F
GS
[1 0 0 1 0 0] CT
-16 5.5 moveto 
1 -1 scale
(80) t 
GR
GR
GS
[1 0 0 1 68.2 120.07388] CT
0.149 GC
/Helvetica 14 F
GS
[1 0 0 1 0 0] CT
-16 5.5 moveto 
1 -1 scale
(85) t 
GR
GR
GS
[1 0 0 1 68.2 90.46795] CT
0.149 GC
/Helvetica 14 F
GS
[1 0 0 1 0 0] CT
-16 5.5 moveto 
1 -1 scale
(90) t 
GR
GR
GS
[1 0 0 1 68.2 60.86202] CT
0.149 GC
/Helvetica 14 F
GS
[1 0 0 1 0 0] CT
-16 5.5 moveto 
1 -1 scale
(95) t 
GR
GR
GS
[0 -1 1 0 49.2 202.74982] CT
0.149 GC
/Helvetica 15.4 F
GS
[1 0 0 1 0 0] CT
-40 -4 moveto 
1 -1 scale
(VMAF-NEG) t 
GR
GR
GS
[1 0 0 1 290.00027 29.57499] CT
/Helvetica-Bold 15.4 F
GS
[1 0 0 1 0 0] CT
-96.5 -4 moveto 
1 -1 scale
(Vlog_1080P-58ad.y4m-av1) t 
GR
GR
GS
0 0.447 0.741 RC
1 LJ
0.5 LW
N
80.841 326.3 M
81.776 322.106 L
82.71 317.923 L
83.645 313.753 L
84.579 309.6 L
85.514 305.467 L
86.448 301.358 L
87.383 297.276 L
88.317 293.223 L
89.252 289.204 L
90.187 285.221 L
91.121 281.279 L
92.056 277.379 L
92.99 273.525 L
93.925 269.721 L
94.859 265.97 L
95.794 262.274 L
96.729 258.638 L
97.663 255.065 L
98.598 251.557 L
99.532 248.118 L
100.467 244.751 L
101.401 241.46 L
102.336 238.248 L
103.27 235.117 L
104.205 232.072 L
105.14 229.116 L
106.074 226.251 L
107.009 223.475 L
107.943 220.728 L
108.878 217.991 L
109.812 215.267 L
110.747 212.555 L
111.681 209.857 L
112.616 207.172 L
113.551 204.503 L
114.485 201.848 L
115.42 199.209 L
116.354 196.587 L
117.289 193.981 L
118.223 191.394 L
119.158 188.825 L
120.092 186.275 L
121.027 183.745 L
121.962 181.235 L
122.896 178.746 L
123.831 176.279 L
124.765 173.834 L
125.7 171.412 L
126.634 169.014 L
127.569 166.64 L
128.504 164.291 L
129.438 161.967 L
130.373 159.67 L
131.307 157.399 L
132.242 155.156 L
133.176 152.941 L
134.111 150.755 L
135.045 148.598 L
135.98 146.471 L
136.915 144.375 L
137.849 142.311 L
138.784 140.278 L
139.718 138.278 L
140.653 136.311 L
141.587 134.378 L
142.522 132.48 L
143.456 130.617 L
144.391 128.79 L
145.326 126.999 L
146.26 125.246 L
147.195 123.53 L
148.129 121.853 L
149.064 120.215 L
149.998 118.617 L
150.933 117.059 L
151.867 115.542 L
152.802 114.067 L
153.737 112.634 L
154.671 111.244 L
155.606 109.898 L
156.54 108.596 L
157.475 107.339 L
158.409 106.128 L
159.344 104.963 L
160.279 103.844 L
161.213 102.772 L
162.148 101.716 L
163.082 100.664 L
164.017 99.615 L
164.951 98.57 L
165.886 97.528 L
166.82 96.49 L
167.755 95.456 L
168.69 94.427 L
169.624 93.401 L
170.559 92.38 L
171.493 91.364 L
172.428 90.353 L
173.362 89.346 L
174.297 88.344 L
175.231 87.347 L
176.166 86.356 L
177.101 85.37 L
178.035 84.39 L
178.97 83.415 L
179.904 82.446 L
180.839 81.483 L
181.773 80.526 L
182.708 79.576 L
183.643 78.631 L
184.577 77.694 L
185.512 76.763 L
186.446 75.838 L
187.381 74.921 L
188.315 74.011 L
189.25 73.108 L
190.184 72.212 L
191.119 71.324 L
192.054 70.443 L
192.988 69.57 L
193.923 68.705 L
194.857 67.849 L
195.792 67 L
196.726 66.16 L
197.661 65.328 L
198.595 64.504 L
199.53 63.69 L
200.465 62.884 L
201.399 62.087 L
202.334 61.3 L
203.268 60.521 L
204.203 59.753 L
205.137 58.993 L
206.072 58.244 L
207.006 57.504 L
207.941 56.774 L
208.876 56.055 L
209.81 55.345 L
210.745 54.647 L
211.679 53.958 L
212.614 53.28 L
213.548 52.614 L
214.483 51.958 L
215.418 51.313 L
216.352 50.679 L
217.287 50.057 L
218.221 49.446 L
219.156 48.847 L
220.09 48.26 L
221.025 47.684 L
221.959 47.121 L
222.894 46.57 L
223.829 46.031 L
224.763 45.505 L
225.698 44.991 L
226.632 44.49 L
227.567 44.002 L
228.501 43.527 L
229.436 43.066 L
230.37 42.617 L
231.305 42.182 L
232.24 41.761 L
233.174 41.353 L
234.109 40.959 L
235.043 40.579 L
235.978 40.214 L
236.912 39.862 L
237.847 39.525 L
238.782 39.203 L
239.716 38.895 L
240.651 38.602 L
241.585 38.324 L
242.52 38.061 L
243.454 37.814 L
244.389 37.582 L
245.323 37.365 L
246.258 37.164 L
247.193 36.979 L
248.127 36.81 L
249.062 36.657 L
249.996 36.52 L
250.931 36.4 L
251.865 36.296 L
252.8 36.208 L
253.734 36.138 L
254.669 36.084 L
255.604 36.044 L
256.538 36.006 L
257.473 35.968 L
258.407 35.93 L
259.342 35.892 L
260.276 35.855 L
261.211 35.817 L
262.145 35.78 L
263.08 35.743 L
264.015 35.706 L
264.949 35.67 L
265.884 35.633 L
266.818 35.597 L
267.753 35.561 L
268.687 35.525 L
269.622 35.49 L
270.557 35.454 L
271.491 35.419 L
272.426 35.384 L
273.36 35.349 L
274.295 35.314 L
275.229 35.28 L
276.164 35.245 L
277.098 35.211 L
278.033 35.177 L
278.968 35.144 L
279.902 35.11 L
280.837 35.077 L
281.771 35.043 L
282.706 35.01 L
283.64 34.978 L
284.575 34.945 L
285.509 34.912 L
286.444 34.88 L
287.379 34.848 L
288.313 34.816 L
289.248 34.784 L
290.182 34.753 L
291.117 34.721 L
292.051 34.69 L
292.986 34.659 L
293.921 34.628 L
294.855 34.598 L
295.79 34.567 L
296.724 34.537 L
297.659 34.507 L
298.593 34.477 L
299.528 34.447 L
300.462 34.417 L
301.397 34.388 L
302.332 34.359 L
303.266 34.33 L
304.201 34.301 L
305.135 34.272 L
306.07 34.243 L
307.004 34.215 L
307.939 34.187 L
308.873 34.159 L
309.808 34.131 L
310.743 34.103 L
311.677 34.076 L
312.612 34.048 L
313.546 34.021 L
314.481 33.994 L
315.415 33.967 L
316.35 33.941 L
317.284 33.914 L
318.219 33.888 L
319.154 33.862 L
320.088 33.836 L
321.023 33.81 L
321.957 33.784 L
322.892 33.759 L
323.826 33.733 L
324.761 33.708 L
325.695 33.683 L
326.63 33.659 L
327.565 33.634 L
328.499 33.609 L
329.434 33.585 L
330.368 33.561 L
331.303 33.537 L
332.237 33.513 L
333.172 33.489 L
334.107 33.466 L
335.041 33.443 L
335.976 33.419 L
336.91 33.396 L
337.845 33.374 L
338.779 33.351 L
339.714 33.328 L
340.648 33.306 L
341.583 33.284 L
342.518 33.262 L
343.452 33.24 L
344.387 33.218 L
345.321 33.197 L
346.256 33.175 L
347.19 33.154 L
348.125 33.133 L
349.059 33.112 L
349.994 33.091 L
350.929 33.07 L
351.863 33.05 L
352.798 33.03 L
353.732 33.009 L
354.667 32.989 L
355.601 32.969 L
356.536 32.95 L
357.471 32.93 L
358.405 32.911 L
359.34 32.892 L
360.274 32.872 L
361.209 32.853 L
362.143 32.835 L
363.078 32.816 L
364.012 32.798 L
364.947 32.779 L
365.882 32.761 L
366.816 32.743 L
367.751 32.725 L
368.685 32.707 L
369.62 32.69 L
370.554 32.672 L
371.489 32.655 L
372.423 32.638 L
373.358 32.621 L
374.293 32.604 L
375.227 32.587 L
376.162 32.571 L
377.096 32.554 L
378.031 32.538 L
378.965 32.522 L
379.9 32.506 L
380.835 32.49 L
381.769 32.474 L
382.704 32.459 L
383.638 32.443 L
384.573 32.428 L
385.507 32.413 L
386.442 32.398 L
387.376 32.383 L
388.311 32.368 L
389.246 32.353 L
390.18 32.339 L
391.115 32.325 L
392.049 32.311 L
392.984 32.297 L
393.918 32.283 L
394.853 32.269 L
395.787 32.255 L
396.722 32.242 L
397.657 32.228 L
398.591 32.215 L
399.526 32.202 L
400.46 32.189 L
401.395 32.176 L
402.329 32.164 L
403.264 32.151 L
404.198 32.139 L
405.133 32.126 L
406.068 32.114 L
407.002 32.102 L
407.937 32.09 L
408.871 32.079 L
409.806 32.067 L
410.74 32.056 L
411.675 32.044 L
412.61 32.033 L
413.544 32.022 L
414.479 32.011 L
415.413 32 L
416.348 31.989 L
417.282 31.979 L
418.217 31.968 L
419.151 31.958 L
420.086 31.948 L
421.021 31.938 L
421.955 31.928 L
422.89 31.918 L
423.824 31.908 L
424.759 31.899 L
425.693 31.889 L
426.628 31.88 L
427.562 31.871 L
428.497 31.862 L
429.432 31.853 L
430.366 31.844 L
431.301 31.835 L
432.235 31.827 L
433.17 31.818 L
434.104 31.81 L
435.039 31.802 L
435.974 31.794 L
436.908 31.786 L
437.843 31.778 L
438.777 31.77 L
439.712 31.762 L
440.646 31.755 L
441.581 31.747 L
442.515 31.74 L
443.45 31.733 L
444.385 31.726 L
445.319 31.719 L
446.254 31.712 L
447.188 31.706 L
448.123 31.699 L
449.057 31.693 L
449.992 31.686 L
450.926 31.68 L
451.861 31.674 L
452.796 31.668 L
453.73 31.662 L
454.665 31.656 L
455.599 31.651 L
456.534 31.645 L
457.468 31.64 L
458.403 31.634 L
459.337 31.629 L
460.272 31.624 L
461.207 31.619 L
462.141 31.614 L
463.076 31.609 L
464.01 31.605 L
464.945 31.6 L
465.879 31.595 L
466.814 31.591 L
467.749 31.587 L
468.683 31.583 L
469.618 31.579 L
470.552 31.575 L
471.487 31.571 L
472.421 31.567 L
473.356 31.564 L
474.29 31.56 L
475.225 31.557 L
476.16 31.553 L
477.094 31.55 L
478.029 31.547 L
478.963 31.544 L
479.898 31.541 L
480.832 31.538 L
481.767 31.536 L
482.701 31.533 L
483.636 31.531 L
484.571 31.528 L
485.505 31.526 L
486.44 31.524 L
487.374 31.522 L
488.309 31.52 L
489.243 31.518 L
490.178 31.516 L
491.112 31.514 L
492.047 31.513 L
492.982 31.511 L
493.916 31.51 L
494.851 31.509 L
495.785 31.507 L
496.72 31.506 L
497.654 31.505 L
498.589 31.504 L
499.524 31.503 L
500.458 31.503 L
501.393 31.502 L
502.327 31.501 L
503.262 31.501 L
504.196 31.501 L
505.131 31.5 L
506.065 31.5 L
507 31.5 L
S
GR
GS
0.851 0.325 0.098 RC
1 LJ
0.5 LW
N
73 374 M
73.935 368.539 L
74.869 363.096 L
75.804 357.677 L
76.738 352.29 L
77.673 346.94 L
78.607 341.637 L
79.542 336.385 L
80.476 331.192 L
81.411 326.065 L
82.346 321.012 L
83.28 316.038 L
84.215 311.151 L
85.149 306.357 L
86.084 301.665 L
87.018 297.08 L
87.953 292.609 L
88.888 288.26 L
89.822 284.039 L
90.757 279.953 L
91.691 276.01 L
92.626 272.215 L
93.56 268.541 L
94.495 264.898 L
95.429 261.282 L
96.364 257.693 L
97.299 254.133 L
98.233 250.602 L
99.168 247.101 L
100.102 243.63 L
101.037 240.191 L
101.971 236.784 L
102.906 233.41 L
103.84 230.069 L
104.775 226.763 L
105.71 223.492 L
106.644 220.257 L
107.579 217.058 L
108.513 213.897 L
109.448 210.774 L
110.382 207.69 L
111.317 204.646 L
112.251 201.642 L
113.186 198.679 L
114.121 195.758 L
115.055 192.88 L
115.99 190.045 L
116.924 187.255 L
117.859 184.509 L
118.793 181.809 L
119.728 179.156 L
120.663 176.549 L
121.597 173.991 L
122.532 171.481 L
123.466 169.021 L
124.401 166.611 L
125.335 164.252 L
126.27 161.945 L
127.204 159.69 L
128.139 157.488 L
129.074 155.34 L
130.008 153.247 L
130.943 151.21 L
131.877 149.228 L
132.812 147.304 L
133.746 145.437 L
134.681 143.629 L
135.615 141.88 L
136.55 140.189 L
137.485 138.515 L
138.419 136.846 L
139.354 135.182 L
140.288 133.524 L
141.223 131.872 L
142.157 130.226 L
143.092 128.587 L
144.027 126.955 L
144.961 125.33 L
145.896 123.713 L
146.83 122.104 L
147.765 120.504 L
148.699 118.912 L
149.634 117.33 L
150.568 115.757 L
151.503 114.194 L
152.438 112.642 L
153.372 111.1 L
154.307 109.569 L
155.241 108.049 L
156.176 106.542 L
157.11 105.046 L
158.045 103.563 L
158.979 102.092 L
159.914 100.635 L
160.849 99.191 L
161.783 97.761 L
162.718 96.345 L
163.652 94.944 L
164.587 93.558 L
165.521 92.187 L
166.456 90.832 L
167.39 89.493 L
168.325 88.17 L
169.26 86.864 L
170.194 85.575 L
171.129 84.304 L
172.063 83.05 L
172.998 81.815 L
173.932 80.598 L
174.867 79.4 L
175.802 78.222 L
176.736 77.063 L
177.671 75.923 L
178.605 74.805 L
179.54 73.707 L
180.474 72.63 L
181.409 71.574 L
182.343 70.541 L
183.278 69.529 L
184.213 68.54 L
185.147 67.574 L
186.082 66.631 L
187.016 65.711 L
187.951 64.816 L
188.885 63.945 L
189.82 63.098 L
190.754 62.277 L
191.689 61.481 L
192.624 60.71 L
193.558 59.966 L
194.493 59.248 L
195.427 58.557 L
196.362 57.893 L
197.296 57.257 L
198.231 56.649 L
199.165 56.068 L
200.1 55.517 L
201.035 54.994 L
201.969 54.501 L
202.904 54.038 L
203.838 53.604 L
204.773 53.201 L
205.707 52.829 L
206.642 52.488 L
207.577 52.178 L
208.511 51.9 L
209.446 51.654 L
210.38 51.432 L
211.315 51.213 L
212.249 50.994 L
213.184 50.777 L
214.118 50.561 L
215.053 50.347 L
215.988 50.133 L
216.922 49.921 L
217.857 49.711 L
218.791 49.501 L
219.726 49.293 L
220.66 49.086 L
221.595 48.88 L
222.529 48.676 L
223.464 48.473 L
224.399 48.271 L
225.333 48.07 L
226.268 47.871 L
227.202 47.673 L
228.137 47.476 L
229.071 47.281 L
230.006 47.087 L
230.941 46.894 L
231.875 46.702 L
232.81 46.511 L
233.744 46.322 L
234.679 46.134 L
235.613 45.948 L
236.548 45.762 L
237.482 45.578 L
238.417 45.395 L
239.352 45.213 L
240.286 45.033 L
241.221 44.854 L
242.155 44.676 L
243.09 44.499 L
244.024 44.324 L
244.959 44.15 L
245.893 43.977 L
246.828 43.805 L
247.763 43.635 L
248.697 43.466 L
249.632 43.298 L
250.566 43.131 L
251.501 42.965 L
252.435 42.801 L
253.37 42.638 L
254.304 42.476 L
255.239 42.316 L
256.174 42.157 L
257.108 41.999 L
258.043 41.842 L
258.977 41.686 L
259.912 41.532 L
260.846 41.379 L
261.781 41.227 L
262.716 41.076 L
263.65 40.927 L
264.585 40.778 L
265.519 40.631 L
266.454 40.486 L
267.388 40.341 L
268.323 40.198 L
269.257 40.056 L
270.192 39.915 L
271.127 39.775 L
272.061 39.637 L
272.996 39.499 L
273.93 39.363 L
274.865 39.228 L
275.799 39.095 L
276.734 38.962 L
277.668 38.831 L
278.603 38.701 L
279.538 38.572 L
280.472 38.445 L
281.407 38.318 L
282.341 38.193 L
283.276 38.069 L
284.21 37.946 L
285.145 37.825 L
286.079 37.705 L
287.014 37.585 L
287.949 37.467 L
288.883 37.351 L
289.818 37.235 L
290.752 37.121 L
291.687 37.007 L
292.621 36.895 L
293.556 36.785 L
294.491 36.675 L
295.425 36.567 L
296.36 36.459 L
297.294 36.353 L
298.229 36.248 L
299.163 36.145 L
300.098 36.042 L
301.032 35.941 L
301.967 35.841 L
302.902 35.742 L
303.836 35.644 L
304.771 35.547 L
305.705 35.452 L
306.64 35.358 L
307.574 35.265 L
308.509 35.173 L
309.443 35.082 L
310.378 34.992 L
311.313 34.904 L
312.247 34.817 L
313.182 34.731 L
314.116 34.646 L
315.051 34.562 L
315.985 34.48 L
316.92 34.398 L
317.855 34.318 L
318.789 34.239 L
319.724 34.161 L
320.658 34.084 L
321.593 34.009 L
322.527 33.934 L
323.462 33.861 L
324.396 33.789 L
325.331 33.718 L
326.266 33.648 L
327.2 33.579 L
328.135 33.512 L
329.069 33.446 L
330.004 33.38 L
330.938 33.316 L
331.873 33.254 L
332.807 33.192 L
333.742 33.131 L
334.677 33.072 L
335.611 33.013 L
336.546 32.956 L
337.48 32.9 L
338.415 32.845 L
339.349 32.791 L
340.284 32.739 L
341.219 32.687 L
342.153 32.637 L
343.088 32.588 L
344.022 32.54 L
344.957 32.493 L
345.891 32.447 L
346.826 32.402 L
347.76 32.358 L
348.695 32.316 L
349.63 32.275 L
350.564 32.235 L
351.499 32.195 L
352.433 32.158 L
353.368 32.121 L
354.302 32.085 L
355.237 32.05 L
356.171 32.017 L
357.106 31.985 L
358.041 31.953 L
358.975 31.923 L
359.91 31.894 L
360.844 31.866 L
361.779 31.84 L
362.713 31.814 L
363.648 31.789 L
364.582 31.766 L
365.517 31.744 L
366.452 31.722 L
367.386 31.702 L
368.321 31.683 L
369.255 31.665 L
370.19 31.649 L
371.124 31.633 L
372.059 31.618 L
372.994 31.605 L
373.928 31.592 L
374.863 31.581 L
375.797 31.571 L
376.732 31.562 L
377.666 31.554 L
378.601 31.547 L
379.535 31.541 L
380.47 31.536 L
381.405 31.532 L
382.339 31.53 L
383.274 31.528 L
S
GR
GS
0.929 0.694 0.125 RC
1 LJ
0.5 LW
N
80.348 328.011 M
81.283 323.639 L
82.217 319.278 L
83.152 314.932 L
84.087 310.604 L
85.021 306.299 L
85.956 302.019 L
86.89 297.768 L
87.825 293.551 L
88.759 289.37 L
89.694 285.229 L
90.628 281.132 L
91.563 277.082 L
92.498 273.084 L
93.432 269.14 L
94.367 265.254 L
95.301 261.431 L
96.236 257.673 L
97.17 253.984 L
98.105 250.369 L
99.039 246.829 L
99.974 243.37 L
100.909 239.995 L
101.843 236.707 L
102.778 233.51 L
103.712 230.408 L
104.647 227.403 L
105.581 224.501 L
106.516 221.675 L
107.451 218.865 L
108.385 216.068 L
109.32 213.285 L
110.254 210.518 L
111.189 207.766 L
112.123 205.03 L
113.058 202.311 L
113.992 199.61 L
114.927 196.927 L
115.862 194.262 L
116.796 191.618 L
117.731 188.993 L
118.665 186.389 L
119.6 183.806 L
120.534 181.246 L
121.469 178.708 L
122.403 176.193 L
123.338 173.703 L
124.273 171.237 L
125.207 168.796 L
126.142 166.381 L
127.076 163.992 L
128.011 161.631 L
128.945 159.298 L
129.88 156.992 L
130.814 154.716 L
131.749 152.47 L
132.684 150.254 L
133.618 148.069 L
134.553 145.916 L
135.487 143.795 L
136.422 141.706 L
137.356 139.652 L
138.291 137.631 L
139.226 135.646 L
140.16 133.696 L
141.095 131.782 L
142.029 129.904 L
142.964 128.064 L
143.898 126.262 L
144.833 124.499 L
145.767 122.775 L
146.702 121.091 L
147.637 119.448 L
148.571 117.846 L
149.506 116.285 L
150.44 114.768 L
151.375 113.293 L
152.309 111.862 L
153.244 110.476 L
154.178 109.135 L
155.113 107.839 L
156.048 106.59 L
156.982 105.387 L
157.917 104.233 L
158.851 103.126 L
159.786 102.05 L
160.72 100.977 L
161.655 99.908 L
162.59 98.843 L
163.524 97.781 L
164.459 96.724 L
165.393 95.671 L
166.328 94.621 L
167.262 93.577 L
168.197 92.537 L
169.131 91.502 L
170.066 90.471 L
171.001 89.446 L
171.935 88.426 L
172.87 87.411 L
173.804 86.402 L
174.739 85.398 L
175.673 84.4 L
176.608 83.408 L
177.542 82.422 L
178.477 81.442 L
179.412 80.469 L
180.346 79.502 L
181.281 78.542 L
182.215 77.589 L
183.15 76.642 L
184.084 75.703 L
185.019 74.771 L
185.953 73.847 L
186.888 72.929 L
187.823 72.02 L
188.757 71.119 L
189.692 70.225 L
190.626 69.34 L
191.561 68.462 L
192.495 67.594 L
193.43 66.734 L
194.365 65.882 L
195.299 65.04 L
196.234 64.206 L
197.168 63.382 L
198.103 62.567 L
199.037 61.762 L
199.972 60.966 L
200.906 60.18 L
201.841 59.403 L
202.776 58.637 L
203.71 57.881 L
204.645 57.136 L
205.579 56.401 L
206.514 55.676 L
207.448 54.963 L
208.383 54.26 L
209.317 53.568 L
210.252 52.888 L
211.187 52.219 L
212.121 51.561 L
213.056 50.916 L
213.99 50.282 L
214.925 49.66 L
215.859 49.05 L
216.794 48.452 L
217.729 47.867 L
218.663 47.295 L
219.598 46.735 L
220.532 46.188 L
221.467 45.654 L
222.401 45.133 L
223.336 44.626 L
224.27 44.132 L
225.205 43.651 L
226.14 43.184 L
227.074 42.732 L
228.009 42.293 L
228.943 41.868 L
229.878 41.458 L
230.812 41.062 L
231.747 40.681 L
232.681 40.315 L
233.616 39.963 L
234.551 39.627 L
235.485 39.306 L
236.42 39 L
237.354 38.71 L
238.289 38.436 L
239.223 38.177 L
240.158 37.934 L
241.092 37.707 L
242.027 37.497 L
242.962 37.303 L
243.896 37.126 L
244.831 36.965 L
245.765 36.821 L
246.7 36.694 L
247.634 36.584 L
248.569 36.492 L
249.504 36.417 L
250.438 36.36 L
251.373 36.318 L
252.307 36.277 L
253.242 36.238 L
254.176 36.198 L
255.111 36.159 L
256.045 36.119 L
256.98 36.08 L
257.915 36.042 L
258.849 36.003 L
259.784 35.965 L
260.718 35.927 L
261.653 35.889 L
262.587 35.851 L
263.522 35.813 L
264.456 35.776 L
265.391 35.739 L
266.326 35.702 L
267.26 35.665 L
268.195 35.628 L
269.129 35.592 L
270.064 35.556 L
270.998 35.52 L
271.933 35.484 L
272.867 35.448 L
273.802 35.413 L
274.737 35.377 L
275.671 35.342 L
276.606 35.308 L
277.54 35.273 L
278.475 35.238 L
279.409 35.204 L
280.344 35.17 L
281.279 35.136 L
282.213 35.103 L
283.148 35.069 L
284.082 35.036 L
285.017 35.003 L
285.951 34.97 L
286.886 34.937 L
287.82 34.904 L
288.755 34.872 L
289.69 34.84 L
290.624 34.808 L
291.559 34.776 L
292.493 34.744 L
293.428 34.713 L
294.362 34.682 L
295.297 34.651 L
296.231 34.62 L
297.166 34.589 L
298.101 34.559 L
299.035 34.528 L
299.97 34.498 L
300.904 34.468 L
301.839 34.438 L
302.773 34.409 L
303.708 34.379 L
304.643 34.35 L
305.577 34.321 L
306.512 34.292 L
307.446 34.264 L
308.381 34.235 L
309.315 34.207 L
310.25 34.179 L
311.184 34.151 L
312.119 34.123 L
313.054 34.095 L
313.988 34.068 L
314.923 34.041 L
315.857 34.014 L
316.792 33.987 L
317.726 33.96 L
318.661 33.933 L
319.595 33.907 L
320.53 33.881 L
321.465 33.855 L
322.399 33.829 L
323.334 33.803 L
324.268 33.778 L
325.203 33.752 L
326.137 33.727 L
327.072 33.702 L
328.007 33.677 L
328.941 33.653 L
329.876 33.628 L
330.81 33.604 L
331.745 33.58 L
332.679 33.556 L
333.614 33.532 L
334.548 33.508 L
335.483 33.485 L
336.418 33.461 L
337.352 33.438 L
338.287 33.415 L
339.221 33.393 L
340.156 33.37 L
341.09 33.347 L
342.025 33.325 L
342.959 33.303 L
343.894 33.281 L
344.829 33.259 L
345.763 33.237 L
346.698 33.216 L
347.632 33.195 L
348.567 33.173 L
349.501 33.152 L
350.436 33.132 L
351.37 33.111 L
352.305 33.09 L
353.24 33.07 L
354.174 33.05 L
355.109 33.03 L
356.043 33.01 L
356.978 32.99 L
357.912 32.97 L
358.847 32.951 L
359.781 32.932 L
360.716 32.913 L
361.651 32.894 L
362.585 32.875 L
363.52 32.856 L
364.454 32.838 L
365.389 32.819 L
366.323 32.801 L
367.258 32.783 L
368.193 32.765 L
369.127 32.748 L
370.062 32.73 L
370.996 32.713 L
371.931 32.695 L
372.865 32.678 L
373.8 32.661 L
374.734 32.644 L
375.669 32.628 L
376.604 32.611 L
377.538 32.595 L
378.473 32.579 L
379.407 32.563 L
380.342 32.547 L
381.276 32.531 L
382.211 32.515 L
383.145 32.5 L
384.08 32.484 L
385.015 32.469 L
385.949 32.454 L
386.884 32.439 L
387.818 32.425 L
388.753 32.41 L
389.687 32.395 L
390.622 32.381 L
391.557 32.367 L
392.491 32.353 L
393.426 32.339 L
394.36 32.325 L
395.295 32.312 L
396.229 32.298 L
397.164 32.285 L
398.098 32.272 L
399.033 32.259 L
399.968 32.246 L
400.902 32.233 L
401.837 32.22 L
402.771 32.208 L
403.706 32.195 L
404.64 32.183 L
405.575 32.171 L
406.509 32.159 L
407.444 32.147 L
408.379 32.136 L
409.313 32.124 L
410.248 32.113 L
411.182 32.101 L
412.117 32.09 L
413.051 32.079 L
413.986 32.068 L
414.921 32.058 L
415.855 32.047 L
416.79 32.036 L
417.724 32.026 L
418.659 32.016 L
419.593 32.006 L
420.528 31.996 L
421.462 31.986 L
422.397 31.976 L
423.332 31.967 L
424.266 31.957 L
425.201 31.948 L
426.135 31.939 L
427.07 31.93 L
428.004 31.921 L
428.939 31.912 L
429.873 31.903 L
430.808 31.895 L
431.743 31.886 L
432.677 31.878 L
433.612 31.87 L
434.546 31.862 L
435.481 31.854 L
436.415 31.846 L
437.35 31.838 L
438.284 31.831 L
439.219 31.823 L
440.154 31.816 L
441.088 31.809 L
442.023 31.802 L
442.957 31.795 L
443.892 31.788 L
444.826 31.781 L
445.761 31.774 L
446.696 31.768 L
447.63 31.762 L
448.565 31.755 L
449.499 31.749 L
450.434 31.743 L
451.368 31.737 L
452.303 31.731 L
453.237 31.726 L
454.172 31.72 L
455.107 31.715 L
456.041 31.709 L
456.976 31.704 L
457.91 31.699 L
458.845 31.694 L
459.779 31.689 L
460.714 31.684 L
461.648 31.68 L
462.583 31.675 L
463.518 31.671 L
464.452 31.666 L
465.387 31.662 L
466.321 31.658 L
467.256 31.654 L
468.19 31.65 L
469.125 31.646 L
470.06 31.643 L
470.994 31.639 L
471.929 31.636 L
472.863 31.632 L
473.798 31.629 L
474.732 31.626 L
475.667 31.623 L
476.601 31.62 L
477.536 31.617 L
478.471 31.615 L
479.405 31.612 L
480.34 31.609 L
481.274 31.607 L
482.209 31.605 L
483.143 31.602 L
484.078 31.6 L
485.012 31.598 L
485.947 31.596 L
486.882 31.595 L
487.816 31.593 L
488.751 31.591 L
489.685 31.59 L
490.62 31.588 L
491.554 31.587 L
492.489 31.586 L
493.423 31.585 L
494.358 31.584 L
495.293 31.583 L
496.227 31.582 L
497.162 31.581 L
498.096 31.581 L
499.031 31.58 L
499.965 31.58 L
500.9 31.579 L
501.835 31.579 L
502.769 31.579 L
503.704 31.579 L
S
GR
GS
0.494 0.184 0.557 RC
1 LJ
0.5 LW
N
78.714 330.897 M
79.649 326.288 L
80.583 321.691 L
81.518 317.112 L
82.452 312.554 L
83.387 308.021 L
84.321 303.517 L
85.256 299.047 L
86.19 294.615 L
87.125 290.224 L
88.06 285.879 L
88.994 281.583 L
89.929 277.342 L
90.863 273.159 L
91.798 269.038 L
92.732 264.983 L
93.667 260.998 L
94.601 257.088 L
95.536 253.257 L
96.471 249.508 L
97.405 245.845 L
98.34 242.274 L
99.274 238.797 L
100.209 235.42 L
101.143 232.145 L
102.078 228.978 L
103.013 225.922 L
103.947 222.929 L
104.882 219.951 L
105.816 216.987 L
106.751 214.038 L
107.685 211.106 L
108.62 208.191 L
109.554 205.293 L
110.489 202.414 L
111.424 199.555 L
112.358 196.716 L
113.293 193.897 L
114.227 191.101 L
115.162 188.327 L
116.096 185.576 L
117.031 182.849 L
117.965 180.148 L
118.9 177.472 L
119.835 174.822 L
120.769 172.2 L
121.704 169.606 L
122.638 167.041 L
123.573 164.505 L
124.507 162 L
125.442 159.527 L
126.376 157.085 L
127.311 154.676 L
128.246 152.301 L
129.18 149.96 L
130.115 147.654 L
131.049 145.385 L
131.984 143.152 L
132.918 140.957 L
133.853 138.8 L
134.788 136.682 L
135.722 134.605 L
136.657 132.568 L
137.591 130.573 L
138.526 128.62 L
139.46 126.71 L
140.395 124.844 L
141.329 123.022 L
142.264 121.247 L
143.199 119.517 L
144.133 117.835 L
145.068 116.201 L
146.002 114.615 L
146.937 113.079 L
147.871 111.592 L
148.806 110.158 L
149.74 108.774 L
150.675 107.444 L
151.61 106.167 L
152.544 104.944 L
153.479 103.776 L
154.413 102.634 L
155.348 101.496 L
156.282 100.363 L
157.217 99.233 L
158.151 98.108 L
159.086 96.987 L
160.021 95.871 L
160.955 94.76 L
161.89 93.654 L
162.824 92.553 L
163.759 91.457 L
164.693 90.368 L
165.628 89.283 L
166.563 88.205 L
167.497 87.133 L
168.432 86.067 L
169.366 85.008 L
170.301 83.955 L
171.235 82.908 L
172.17 81.869 L
173.104 80.837 L
174.039 79.812 L
174.974 78.795 L
175.908 77.785 L
176.843 76.783 L
177.777 75.789 L
178.712 74.802 L
179.646 73.825 L
180.581 72.855 L
181.515 71.895 L
182.45 70.943 L
183.385 70 L
184.319 69.066 L
185.254 68.141 L
186.188 67.226 L
187.123 66.321 L
188.057 65.425 L
188.992 64.54 L
189.926 63.664 L
190.861 62.799 L
191.796 61.944 L
192.73 61.1 L
193.665 60.267 L
194.599 59.445 L
195.534 58.633 L
196.468 57.834 L
197.403 57.045 L
198.338 56.269 L
199.272 55.504 L
200.207 54.751 L
201.141 54.011 L
202.076 53.283 L
203.01 52.567 L
203.945 51.864 L
204.879 51.174 L
205.814 50.497 L
206.749 49.833 L
207.683 49.182 L
208.618 48.545 L
209.552 47.922 L
210.487 47.313 L
211.421 46.717 L
212.356 46.136 L
213.29 45.569 L
214.225 45.017 L
215.16 44.48 L
216.094 43.957 L
217.029 43.45 L
217.963 42.957 L
218.898 42.48 L
219.832 42.019 L
220.767 41.574 L
221.702 41.144 L
222.636 40.73 L
223.571 40.333 L
224.505 39.952 L
225.44 39.588 L
226.374 39.24 L
227.309 38.91 L
228.243 38.596 L
229.178 38.3 L
230.113 38.021 L
231.047 37.76 L
231.982 37.516 L
232.916 37.291 L
233.851 37.084 L
234.785 36.895 L
235.72 36.724 L
236.654 36.572 L
237.589 36.439 L
238.524 36.325 L
239.458 36.229 L
240.393 36.154 L
241.327 36.097 L
242.262 36.057 L
243.196 36.017 L
244.131 35.978 L
245.066 35.939 L
246 35.9 L
246.935 35.862 L
247.869 35.823 L
248.804 35.785 L
249.738 35.747 L
250.673 35.709 L
251.607 35.672 L
252.542 35.634 L
253.477 35.597 L
254.411 35.56 L
255.346 35.524 L
256.28 35.487 L
257.215 35.451 L
258.149 35.414 L
259.084 35.378 L
260.018 35.343 L
260.953 35.307 L
261.888 35.272 L
262.822 35.237 L
263.757 35.202 L
264.691 35.167 L
265.626 35.132 L
266.56 35.098 L
267.495 35.064 L
268.429 35.03 L
269.364 34.996 L
270.299 34.962 L
271.233 34.929 L
272.168 34.896 L
273.102 34.863 L
274.037 34.83 L
274.971 34.797 L
275.906 34.765 L
276.841 34.733 L
277.775 34.701 L
278.71 34.669 L
279.644 34.637 L
280.579 34.606 L
281.513 34.574 L
282.448 34.543 L
283.382 34.512 L
284.317 34.482 L
285.252 34.451 L
286.186 34.421 L
287.121 34.391 L
288.055 34.361 L
288.99 34.331 L
289.924 34.301 L
290.859 34.272 L
291.793 34.243 L
292.728 34.213 L
293.663 34.185 L
294.597 34.156 L
295.532 34.127 L
296.466 34.099 L
297.401 34.071 L
298.335 34.043 L
299.27 34.015 L
300.204 33.988 L
301.139 33.96 L
302.074 33.933 L
303.008 33.906 L
303.943 33.879 L
304.877 33.852 L
305.812 33.826 L
306.746 33.799 L
307.681 33.773 L
308.616 33.747 L
309.55 33.721 L
310.485 33.696 L
311.419 33.67 L
312.354 33.645 L
313.288 33.62 L
314.223 33.595 L
315.157 33.57 L
316.092 33.546 L
317.027 33.521 L
317.961 33.497 L
318.896 33.473 L
319.83 33.449 L
320.765 33.425 L
321.699 33.402 L
322.634 33.378 L
323.568 33.355 L
324.503 33.332 L
325.438 33.309 L
326.372 33.286 L
327.307 33.264 L
328.241 33.241 L
329.176 33.219 L
330.11 33.197 L
331.045 33.175 L
331.98 33.154 L
332.914 33.132 L
333.849 33.111 L
334.783 33.089 L
335.718 33.068 L
336.652 33.047 L
337.587 33.027 L
338.521 33.006 L
339.456 32.986 L
340.391 32.965 L
341.325 32.945 L
342.26 32.925 L
343.194 32.906 L
344.129 32.886 L
345.063 32.867 L
345.998 32.847 L
346.932 32.828 L
347.867 32.809 L
348.802 32.79 L
349.736 32.772 L
350.671 32.753 L
351.605 32.735 L
352.54 32.717 L
353.474 32.699 L
354.409 32.681 L
355.343 32.663 L
356.278 32.645 L
357.213 32.628 L
358.147 32.611 L
359.082 32.594 L
360.016 32.577 L
360.951 32.56 L
361.885 32.543 L
362.82 32.527 L
363.755 32.51 L
364.689 32.494 L
365.624 32.478 L
366.558 32.462 L
367.493 32.446 L
368.427 32.431 L
369.362 32.415 L
370.296 32.4 L
371.231 32.385 L
372.166 32.37 L
373.1 32.355 L
374.035 32.34 L
374.969 32.326 L
375.904 32.311 L
376.838 32.297 L
377.773 32.283 L
378.707 32.269 L
379.642 32.255 L
380.577 32.241 L
381.511 32.228 L
382.446 32.214 L
383.38 32.201 L
384.315 32.188 L
385.249 32.175 L
386.184 32.162 L
387.118 32.149 L
388.053 32.137 L
388.988 32.124 L
389.922 32.112 L
390.857 32.1 L
391.791 32.088 L
392.726 32.076 L
393.66 32.064 L
394.595 32.052 L
395.53 32.041 L
396.464 32.029 L
397.399 32.018 L
398.333 32.007 L
399.268 31.996 L
400.202 31.985 L
401.137 31.975 L
402.071 31.964 L
403.006 31.954 L
403.941 31.943 L
404.875 31.933 L
405.81 31.923 L
406.744 31.913 L
407.679 31.903 L
408.613 31.894 L
409.548 31.884 L
410.482 31.875 L
411.417 31.866 L
412.352 31.856 L
413.286 31.847 L
414.221 31.839 L
415.155 31.83 L
416.09 31.821 L
417.024 31.813 L
417.959 31.804 L
418.894 31.796 L
419.828 31.788 L
420.763 31.78 L
421.697 31.772 L
422.632 31.764 L
423.566 31.757 L
424.501 31.749 L
425.435 31.742 L
426.37 31.734 L
427.305 31.727 L
428.239 31.72 L
429.174 31.713 L
430.108 31.707 L
431.043 31.7 L
431.977 31.693 L
432.912 31.687 L
433.846 31.681 L
434.781 31.674 L
435.716 31.668 L
436.65 31.662 L
437.585 31.656 L
438.519 31.651 L
439.454 31.645 L
440.388 31.64 L
441.323 31.634 L
442.258 31.629 L
443.192 31.624 L
444.127 31.619 L
445.061 31.614 L
445.996 31.609 L
446.93 31.604 L
447.865 31.6 L
448.799 31.595 L
449.734 31.591 L
450.669 31.586 L
451.603 31.582 L
452.538 31.578 L
453.472 31.574 L
454.407 31.57 L
455.341 31.567 L
456.276 31.563 L
457.21 31.56 L
458.145 31.556 L
459.08 31.553 L
460.014 31.55 L
460.949 31.547 L
461.883 31.544 L
462.818 31.541 L
463.752 31.538 L
464.687 31.535 L
465.621 31.533 L
466.556 31.53 L
467.491 31.528 L
468.425 31.525 L
469.36 31.523 L
470.294 31.521 L
471.229 31.519 L
472.163 31.517 L
473.098 31.516 L
474.033 31.514 L
474.967 31.512 L
475.902 31.511 L
476.836 31.509 L
477.771 31.508 L
478.705 31.507 L
479.64 31.506 L
480.574 31.505 L
481.509 31.504 L
482.444 31.503 L
483.378 31.502 L
484.313 31.502 L
485.247 31.501 L
486.182 31.501 L
487.116 31.5 L
488.051 31.5 L
488.985 31.5 L
489.92 31.5 L
S
GR
GS
0.467 0.675 0.188 RC
1 LJ
0.5 LW
N
78.121 332.149 M
79.056 327.466 L
79.99 322.797 L
80.925 318.146 L
81.859 313.517 L
82.794 308.915 L
83.728 304.344 L
84.663 299.808 L
85.597 295.311 L
86.532 290.857 L
87.467 286.451 L
88.401 282.096 L
89.336 277.798 L
90.27 273.559 L
91.205 269.385 L
92.139 265.28 L
93.074 261.247 L
94.008 257.292 L
94.943 253.417 L
95.878 249.627 L
96.812 245.928 L
97.747 242.321 L
98.681 238.813 L
99.616 235.407 L
100.55 232.107 L
101.485 228.917 L
102.419 225.827 L
103.354 222.761 L
104.289 219.709 L
105.223 216.671 L
106.158 213.649 L
107.092 210.643 L
108.027 207.655 L
108.961 204.684 L
109.896 201.733 L
110.831 198.802 L
111.765 195.892 L
112.7 193.004 L
113.634 190.138 L
114.569 187.297 L
115.503 184.479 L
116.438 181.688 L
117.372 178.922 L
118.307 176.184 L
119.242 173.474 L
120.176 170.793 L
121.111 168.143 L
122.045 165.523 L
122.98 162.935 L
123.914 160.379 L
124.849 157.857 L
125.783 155.37 L
126.718 152.918 L
127.653 150.503 L
128.587 148.124 L
129.522 145.784 L
130.456 143.483 L
131.391 141.222 L
132.325 139.001 L
133.26 136.823 L
134.195 134.687 L
135.129 132.594 L
136.064 130.546 L
136.998 128.543 L
137.933 126.587 L
138.867 124.678 L
139.802 122.817 L
140.736 121.005 L
141.671 119.242 L
142.606 117.531 L
143.54 115.871 L
144.475 114.264 L
145.409 112.71 L
146.344 111.21 L
147.278 109.766 L
148.213 108.379 L
149.147 107.048 L
150.082 105.775 L
151.017 104.561 L
151.951 103.381 L
152.886 102.204 L
153.82 101.032 L
154.755 99.865 L
155.689 98.702 L
156.624 97.544 L
157.558 96.391 L
158.493 95.243 L
159.428 94.1 L
160.362 92.963 L
161.297 91.832 L
162.231 90.707 L
163.166 89.587 L
164.1 88.475 L
165.035 87.368 L
165.97 86.269 L
166.904 85.176 L
167.839 84.09 L
168.773 83.012 L
169.708 81.94 L
170.642 80.877 L
171.577 79.821 L
172.511 78.774 L
173.446 77.734 L
174.381 76.703 L
175.315 75.68 L
176.25 74.666 L
177.184 73.661 L
178.119 72.665 L
179.053 71.679 L
179.988 70.701 L
180.922 69.734 L
181.857 68.776 L
182.792 67.828 L
183.726 66.891 L
184.661 65.964 L
185.595 65.047 L
186.53 64.141 L
187.464 63.246 L
188.399 62.363 L
189.333 61.49 L
190.268 60.629 L
191.203 59.78 L
192.137 58.943 L
193.072 58.117 L
194.006 57.304 L
194.941 56.503 L
195.875 55.715 L
196.81 54.94 L
197.745 54.178 L
198.679 53.429 L
199.614 52.693 L
200.548 51.971 L
201.483 51.262 L
202.417 50.568 L
203.352 49.887 L
204.286 49.221 L
205.221 48.569 L
206.156 47.932 L
207.09 47.31 L
208.025 46.702 L
208.959 46.11 L
209.894 45.534 L
210.828 44.973 L
211.763 44.427 L
212.697 43.898 L
213.632 43.385 L
214.567 42.888 L
215.501 42.407 L
216.436 41.943 L
217.37 41.496 L
218.305 41.067 L
219.239 40.654 L
220.174 40.259 L
221.109 39.881 L
222.043 39.522 L
222.978 39.18 L
223.912 38.856 L
224.847 38.551 L
225.781 38.264 L
226.716 37.996 L
227.65 37.747 L
228.585 37.517 L
229.52 37.306 L
230.454 37.115 L
231.389 36.944 L
232.323 36.792 L
233.258 36.66 L
234.192 36.549 L
235.127 36.457 L
236.061 36.387 L
236.996 36.337 L
237.931 36.296 L
238.865 36.255 L
239.8 36.215 L
240.734 36.174 L
241.669 36.134 L
242.603 36.094 L
243.538 36.055 L
244.473 36.015 L
245.407 35.976 L
246.342 35.937 L
247.276 35.898 L
248.211 35.859 L
249.145 35.821 L
250.08 35.783 L
251.014 35.745 L
251.949 35.707 L
252.884 35.669 L
253.818 35.632 L
254.753 35.595 L
255.687 35.558 L
256.622 35.521 L
257.556 35.484 L
258.491 35.448 L
259.425 35.412 L
260.36 35.376 L
261.295 35.34 L
262.229 35.305 L
263.164 35.269 L
264.098 35.234 L
265.033 35.199 L
265.967 35.165 L
266.902 35.13 L
267.836 35.096 L
268.771 35.062 L
269.706 35.028 L
270.64 34.994 L
271.575 34.961 L
272.509 34.927 L
273.444 34.894 L
274.378 34.861 L
275.313 34.828 L
276.248 34.796 L
277.182 34.764 L
278.117 34.732 L
279.051 34.7 L
279.986 34.668 L
280.92 34.636 L
281.855 34.605 L
282.789 34.574 L
283.724 34.543 L
284.659 34.512 L
285.593 34.482 L
286.528 34.451 L
287.462 34.421 L
288.397 34.391 L
289.331 34.361 L
290.266 34.332 L
291.2 34.302 L
292.135 34.273 L
293.07 34.244 L
294.004 34.215 L
294.939 34.186 L
295.873 34.158 L
296.808 34.13 L
297.742 34.102 L
298.677 34.074 L
299.612 34.046 L
300.546 34.018 L
301.481 33.991 L
302.415 33.964 L
303.35 33.937 L
304.284 33.91 L
305.219 33.883 L
306.153 33.857 L
307.088 33.831 L
308.023 33.805 L
308.957 33.779 L
309.892 33.753 L
310.826 33.727 L
311.761 33.702 L
312.695 33.677 L
313.63 33.652 L
314.564 33.627 L
315.499 33.602 L
316.434 33.578 L
317.368 33.554 L
318.303 33.53 L
319.237 33.506 L
320.172 33.482 L
321.106 33.458 L
322.041 33.435 L
322.975 33.412 L
323.91 33.389 L
324.845 33.366 L
325.779 33.343 L
326.714 33.32 L
327.648 33.298 L
328.583 33.276 L
329.517 33.254 L
330.452 33.232 L
331.387 33.21 L
332.321 33.189 L
333.256 33.167 L
334.19 33.146 L
335.125 33.125 L
336.059 33.104 L
336.994 33.084 L
337.928 33.063 L
338.863 33.043 L
339.798 33.023 L
340.732 33.003 L
341.667 32.983 L
342.601 32.963 L
343.536 32.944 L
344.47 32.924 L
345.405 32.905 L
346.339 32.886 L
347.274 32.867 L
348.209 32.848 L
349.143 32.83 L
350.078 32.812 L
351.012 32.793 L
351.947 32.775 L
352.881 32.757 L
353.816 32.74 L
354.75 32.722 L
355.685 32.704 L
356.62 32.687 L
357.554 32.67 L
358.489 32.653 L
359.423 32.636 L
360.358 32.62 L
361.292 32.603 L
362.227 32.587 L
363.162 32.571 L
364.096 32.555 L
365.031 32.539 L
365.965 32.523 L
366.9 32.507 L
367.834 32.492 L
368.769 32.477 L
369.703 32.462 L
370.638 32.447 L
371.573 32.432 L
372.507 32.417 L
373.442 32.403 L
374.376 32.388 L
375.311 32.374 L
376.245 32.36 L
377.18 32.346 L
378.114 32.332 L
379.049 32.319 L
379.984 32.305 L
380.918 32.292 L
381.853 32.278 L
382.787 32.265 L
383.722 32.252 L
384.656 32.24 L
385.591 32.227 L
386.526 32.215 L
387.46 32.202 L
388.395 32.19 L
389.329 32.178 L
390.264 32.166 L
391.198 32.154 L
392.133 32.143 L
393.067 32.131 L
394.002 32.12 L
394.937 32.108 L
395.871 32.097 L
396.806 32.086 L
397.74 32.076 L
398.675 32.065 L
399.609 32.054 L
400.544 32.044 L
401.478 32.034 L
402.413 32.023 L
403.348 32.013 L
404.282 32.004 L
405.217 31.994 L
406.151 31.984 L
407.086 31.975 L
408.02 31.965 L
408.955 31.956 L
409.889 31.947 L
410.824 31.938 L
411.759 31.929 L
412.693 31.921 L
413.628 31.912 L
414.562 31.904 L
415.497 31.895 L
416.431 31.887 L
417.366 31.879 L
418.301 31.871 L
419.235 31.863 L
420.17 31.856 L
421.104 31.848 L
422.039 31.841 L
422.973 31.833 L
423.908 31.826 L
424.842 31.819 L
425.777 31.812 L
426.712 31.805 L
427.646 31.799 L
428.581 31.792 L
429.515 31.786 L
430.45 31.779 L
431.384 31.773 L
432.319 31.767 L
433.253 31.761 L
434.188 31.755 L
435.123 31.749 L
436.057 31.744 L
436.992 31.738 L
437.926 31.733 L
438.861 31.728 L
439.795 31.722 L
440.73 31.717 L
441.664 31.713 L
442.599 31.708 L
443.534 31.703 L
444.468 31.698 L
445.403 31.694 L
446.337 31.69 L
447.272 31.685 L
448.206 31.681 L
449.141 31.677 L
450.076 31.673 L
451.01 31.669 L
451.945 31.666 L
452.879 31.662 L
453.814 31.659 L
454.748 31.655 L
455.683 31.652 L
456.617 31.649 L
457.552 31.646 L
458.487 31.643 L
459.421 31.64 L
460.356 31.637 L
461.29 31.635 L
462.225 31.632 L
463.159 31.63 L
464.094 31.628 L
465.028 31.625 L
465.963 31.623 L
466.898 31.621 L
467.832 31.619 L
468.767 31.618 L
469.701 31.616 L
470.636 31.614 L
471.57 31.613 L
472.505 31.611 L
473.44 31.61 L
474.374 31.609 L
475.309 31.608 L
476.243 31.607 L
477.178 31.606 L
478.112 31.605 L
479.047 31.604 L
479.981 31.604 L
480.916 31.603 L
481.851 31.603 L
482.785 31.602 L
483.72 31.602 L
484.654 31.602 L
485.589 31.602 L
S
GR
GS
0.302 0.745 0.933 RC
[10 6] 0 setdash
2 LJ
0.5 LW
N
74.687 366.121 M
75.622 360.893 L
76.556 355.682 L
77.491 350.492 L
78.426 345.33 L
79.36 340.202 L
80.295 335.114 L
81.229 330.071 L
82.164 325.079 L
83.098 320.145 L
84.033 315.273 L
84.967 310.471 L
85.902 305.743 L
86.837 301.097 L
87.771 296.537 L
88.706 292.069 L
89.64 287.7 L
90.575 283.435 L
91.509 279.281 L
92.444 275.242 L
93.379 271.326 L
94.313 267.537 L
95.248 263.882 L
96.182 260.354 L
97.117 256.865 L
98.051 253.399 L
98.986 249.956 L
99.92 246.537 L
100.855 243.142 L
101.79 239.773 L
102.724 236.43 L
103.659 233.114 L
104.593 229.826 L
105.528 226.567 L
106.462 223.337 L
107.397 220.137 L
108.331 216.968 L
109.266 213.831 L
110.201 210.727 L
111.135 207.655 L
112.07 204.618 L
113.004 201.616 L
113.939 198.649 L
114.873 195.719 L
115.808 192.826 L
116.743 189.971 L
117.677 187.154 L
118.612 184.378 L
119.546 181.641 L
120.481 178.946 L
121.415 176.293 L
122.35 173.682 L
123.284 171.115 L
124.219 168.592 L
125.154 166.115 L
126.088 163.683 L
127.023 161.297 L
127.957 158.96 L
128.892 156.67 L
129.826 154.429 L
130.761 152.238 L
131.695 150.098 L
132.63 148.009 L
133.565 145.972 L
134.499 143.988 L
135.434 142.057 L
136.368 140.182 L
137.303 138.361 L
138.237 136.596 L
139.172 134.888 L
140.106 133.238 L
141.041 131.646 L
141.976 130.097 L
142.91 128.554 L
143.845 127.016 L
144.779 125.482 L
145.714 123.954 L
146.648 122.431 L
147.583 120.914 L
148.518 119.403 L
149.452 117.899 L
150.387 116.401 L
151.321 114.91 L
152.256 113.427 L
153.19 111.952 L
154.125 110.484 L
155.059 109.025 L
155.994 107.575 L
156.929 106.133 L
157.863 104.701 L
158.798 103.278 L
159.732 101.866 L
160.667 100.463 L
161.601 99.071 L
162.536 97.69 L
163.47 96.32 L
164.405 94.961 L
165.34 93.614 L
166.274 92.28 L
167.209 90.957 L
168.143 89.647 L
169.078 88.351 L
170.012 87.067 L
170.947 85.798 L
171.881 84.542 L
172.816 83.301 L
173.751 82.074 L
174.685 80.862 L
175.62 79.665 L
176.554 78.483 L
177.489 77.318 L
178.423 76.169 L
179.358 75.036 L
180.293 73.92 L
181.227 72.82 L
182.162 71.739 L
183.096 70.675 L
184.031 69.629 L
184.965 68.601 L
185.9 67.592 L
186.834 66.602 L
187.769 65.631 L
188.704 64.68 L
189.638 63.748 L
190.573 62.837 L
191.507 61.946 L
192.442 61.076 L
193.376 60.228 L
194.311 59.4 L
195.245 58.595 L
196.18 57.811 L
197.115 57.05 L
198.049 56.311 L
198.984 55.596 L
199.918 54.904 L
200.853 54.235 L
201.787 53.591 L
202.722 52.97 L
203.657 52.374 L
204.591 51.803 L
205.526 51.258 L
206.46 50.737 L
207.395 50.243 L
208.329 49.775 L
209.264 49.333 L
210.198 48.917 L
211.133 48.529 L
212.068 48.169 L
213.002 47.835 L
213.937 47.53 L
214.871 47.254 L
215.806 47.005 L
216.74 46.786 L
217.675 46.596 L
218.609 46.431 L
219.544 46.27 L
220.479 46.11 L
221.413 45.951 L
222.348 45.793 L
223.282 45.636 L
224.217 45.48 L
225.151 45.324 L
226.086 45.17 L
227.02 45.017 L
227.955 44.864 L
228.89 44.713 L
229.824 44.562 L
230.759 44.412 L
231.693 44.264 L
232.628 44.116 L
233.562 43.969 L
234.497 43.823 L
235.432 43.679 L
236.366 43.535 L
237.301 43.391 L
238.235 43.249 L
239.17 43.108 L
240.104 42.968 L
241.039 42.829 L
241.973 42.69 L
242.908 42.553 L
243.843 42.416 L
244.777 42.281 L
245.712 42.146 L
246.646 42.012 L
247.581 41.879 L
248.515 41.747 L
249.45 41.616 L
250.384 41.486 L
251.319 41.357 L
252.254 41.229 L
253.188 41.101 L
254.123 40.975 L
255.057 40.849 L
255.992 40.724 L
256.926 40.601 L
257.861 40.478 L
258.796 40.356 L
259.73 40.235 L
260.665 40.115 L
261.599 39.995 L
262.534 39.877 L
263.468 39.76 L
264.403 39.643 L
265.337 39.527 L
266.272 39.413 L
267.207 39.299 L
268.141 39.186 L
269.076 39.074 L
270.01 38.963 L
270.945 38.852 L
271.879 38.743 L
272.814 38.634 L
273.748 38.527 L
274.683 38.42 L
275.618 38.314 L
276.552 38.209 L
277.487 38.105 L
278.421 38.001 L
279.356 37.899 L
280.29 37.797 L
281.225 37.697 L
282.159 37.597 L
283.094 37.498 L
284.029 37.4 L
284.963 37.303 L
285.898 37.207 L
286.832 37.111 L
287.767 37.017 L
288.701 36.923 L
289.636 36.83 L
290.571 36.738 L
291.505 36.647 L
292.44 36.557 L
293.374 36.467 L
294.309 36.378 L
295.243 36.291 L
296.178 36.204 L
297.112 36.118 L
298.047 36.033 L
298.982 35.948 L
299.916 35.865 L
300.851 35.782 L
301.785 35.7 L
302.72 35.619 L
303.654 35.539 L
304.589 35.46 L
305.523 35.382 L
306.458 35.304 L
307.393 35.227 L
308.327 35.151 L
309.262 35.076 L
310.196 35.002 L
311.131 34.929 L
312.065 34.856 L
313 34.784 L
313.935 34.713 L
314.869 34.643 L
315.804 34.574 L
316.738 34.505 L
317.673 34.438 L
318.607 34.371 L
319.542 34.305 L
320.476 34.24 L
321.411 34.175 L
322.346 34.112 L
323.28 34.049 L
324.215 33.987 L
325.149 33.926 L
326.084 33.865 L
327.018 33.806 L
327.953 33.747 L
328.887 33.689 L
329.822 33.632 L
330.757 33.576 L
331.691 33.52 L
332.626 33.466 L
333.56 33.412 L
334.495 33.359 L
335.429 33.306 L
336.364 33.255 L
337.298 33.204 L
338.233 33.154 L
339.168 33.105 L
340.102 33.057 L
341.037 33.009 L
341.971 32.963 L
342.906 32.917 L
343.84 32.871 L
344.775 32.827 L
345.71 32.783 L
346.644 32.74 L
347.579 32.698 L
348.513 32.657 L
349.448 32.617 L
350.382 32.577 L
351.317 32.538 L
352.251 32.5 L
353.186 32.462 L
354.121 32.426 L
355.055 32.39 L
355.99 32.355 L
356.924 32.32 L
357.859 32.287 L
358.793 32.254 L
359.728 32.222 L
360.662 32.191 L
361.597 32.16 L
362.532 32.13 L
363.466 32.101 L
364.401 32.073 L
365.335 32.046 L
366.27 32.019 L
367.204 31.993 L
368.139 31.968 L
369.074 31.943 L
370.008 31.919 L
370.943 31.896 L
371.877 31.874 L
372.812 31.853 L
373.746 31.832 L
374.681 31.812 L
375.615 31.793 L
376.55 31.774 L
377.485 31.756 L
378.419 31.739 L
379.354 31.723 L
380.288 31.707 L
381.223 31.693 L
382.157 31.678 L
383.092 31.665 L
384.026 31.652 L
384.961 31.64 L
385.896 31.629 L
386.83 31.619 L
387.765 31.609 L
388.699 31.6 L
389.634 31.592 L
390.568 31.584 L
391.503 31.577 L
392.437 31.571 L
393.372 31.565 L
394.307 31.561 L
395.241 31.557 L
396.176 31.553 L
397.11 31.551 L
398.045 31.549 L
398.979 31.548 L
399.914 31.547 L
S
GR
GS
0.635 0.078 0.184 RC
[10 6] 0 setdash
2 LJ
0.5 LW
N
80.414 326.953 M
81.349 322.64 L
82.283 318.338 L
83.218 314.05 L
84.152 309.781 L
85.087 305.533 L
86.021 301.311 L
86.956 297.117 L
87.891 292.955 L
88.825 288.829 L
89.76 284.742 L
90.694 280.697 L
91.629 276.699 L
92.563 272.75 L
93.498 268.854 L
94.433 265.015 L
95.367 261.236 L
96.302 257.521 L
97.236 253.873 L
98.171 250.295 L
99.105 246.792 L
100.04 243.366 L
100.974 240.022 L
101.909 236.762 L
102.844 233.59 L
103.778 230.51 L
104.713 227.525 L
105.647 224.638 L
106.582 221.826 L
107.516 219.029 L
108.451 216.245 L
109.385 213.474 L
110.32 210.718 L
111.255 207.976 L
112.189 205.25 L
113.124 202.54 L
114.058 199.847 L
114.993 197.172 L
115.927 194.515 L
116.862 191.876 L
117.797 189.257 L
118.731 186.659 L
119.666 184.081 L
120.6 181.524 L
121.535 178.99 L
122.469 176.478 L
123.404 173.99 L
124.338 171.525 L
125.273 169.086 L
126.208 166.672 L
127.142 164.284 L
128.077 161.922 L
129.011 159.588 L
129.946 157.282 L
130.88 155.004 L
131.815 152.756 L
132.749 150.538 L
133.684 148.35 L
134.619 146.193 L
135.553 144.069 L
136.488 141.977 L
137.422 139.918 L
138.357 137.893 L
139.291 135.902 L
140.226 133.947 L
141.16 132.027 L
142.095 130.144 L
143.03 128.298 L
143.964 126.49 L
144.899 124.72 L
145.833 122.99 L
146.768 121.299 L
147.702 119.648 L
148.637 118.039 L
149.572 116.471 L
150.506 114.945 L
151.441 113.463 L
152.375 112.024 L
153.31 110.63 L
154.244 109.28 L
155.179 107.976 L
156.113 106.718 L
157.048 105.508 L
157.983 104.344 L
158.917 103.229 L
159.852 102.148 L
160.786 101.072 L
161.721 99.998 L
162.655 98.928 L
163.59 97.863 L
164.524 96.801 L
165.459 95.743 L
166.394 94.689 L
167.328 93.64 L
168.263 92.596 L
169.197 91.556 L
170.132 90.521 L
171.066 89.491 L
172.001 88.466 L
172.936 87.447 L
173.87 86.433 L
174.805 85.424 L
175.739 84.422 L
176.674 83.425 L
177.608 82.434 L
178.543 81.45 L
179.477 80.472 L
180.412 79.501 L
181.347 78.536 L
182.281 77.578 L
183.216 76.627 L
184.15 75.683 L
185.085 74.747 L
186.019 73.818 L
186.954 72.896 L
187.888 71.983 L
188.823 71.077 L
189.758 70.179 L
190.692 69.29 L
191.627 68.409 L
192.561 67.536 L
193.496 66.672 L
194.43 65.817 L
195.365 64.971 L
196.299 64.134 L
197.234 63.306 L
198.169 62.487 L
199.103 61.678 L
200.038 60.879 L
200.972 60.09 L
201.907 59.311 L
202.841 58.542 L
203.776 57.783 L
204.711 57.035 L
205.645 56.297 L
206.58 55.57 L
207.514 54.854 L
208.449 54.149 L
209.383 53.456 L
210.318 52.773 L
211.252 52.103 L
212.187 51.444 L
213.122 50.797 L
214.056 50.161 L
214.991 49.538 L
215.925 48.928 L
216.86 48.329 L
217.794 47.744 L
218.729 47.171 L
219.663 46.611 L
220.598 46.064 L
221.533 45.53 L
222.467 45.009 L
223.402 44.502 L
224.336 44.009 L
225.271 43.53 L
226.205 43.064 L
227.14 42.613 L
228.074 42.176 L
229.009 41.753 L
229.944 41.345 L
230.878 40.951 L
231.813 40.573 L
232.747 40.209 L
233.682 39.861 L
234.616 39.528 L
235.551 39.21 L
236.486 38.909 L
237.42 38.622 L
238.355 38.352 L
239.289 38.098 L
240.224 37.86 L
241.158 37.639 L
242.093 37.434 L
243.027 37.245 L
243.962 37.074 L
244.897 36.92 L
245.831 36.782 L
246.766 36.662 L
247.7 36.56 L
248.635 36.475 L
249.569 36.408 L
250.504 36.358 L
251.438 36.317 L
252.373 36.276 L
253.308 36.235 L
254.242 36.194 L
255.177 36.154 L
256.111 36.114 L
257.046 36.074 L
257.98 36.034 L
258.915 35.994 L
259.85 35.955 L
260.784 35.916 L
261.719 35.877 L
262.653 35.838 L
263.588 35.799 L
264.522 35.761 L
265.457 35.723 L
266.391 35.685 L
267.326 35.647 L
268.261 35.61 L
269.195 35.573 L
270.13 35.536 L
271.064 35.499 L
271.999 35.462 L
272.933 35.426 L
273.868 35.389 L
274.802 35.353 L
275.737 35.318 L
276.672 35.282 L
277.606 35.246 L
278.541 35.211 L
279.475 35.176 L
280.41 35.141 L
281.344 35.107 L
282.279 35.072 L
283.214 35.038 L
284.148 35.004 L
285.083 34.97 L
286.017 34.937 L
286.952 34.903 L
287.886 34.87 L
288.821 34.837 L
289.755 34.804 L
290.69 34.772 L
291.625 34.739 L
292.559 34.707 L
293.494 34.675 L
294.428 34.643 L
295.363 34.611 L
296.297 34.58 L
297.232 34.549 L
298.166 34.518 L
299.101 34.487 L
300.036 34.456 L
300.97 34.426 L
301.905 34.395 L
302.839 34.365 L
303.774 34.335 L
304.708 34.305 L
305.643 34.276 L
306.577 34.247 L
307.512 34.217 L
308.447 34.189 L
309.381 34.16 L
310.316 34.131 L
311.25 34.103 L
312.185 34.075 L
313.119 34.047 L
314.054 34.019 L
314.989 33.991 L
315.923 33.964 L
316.858 33.936 L
317.792 33.909 L
318.727 33.882 L
319.661 33.856 L
320.596 33.829 L
321.53 33.803 L
322.465 33.776 L
323.4 33.751 L
324.334 33.725 L
325.269 33.699 L
326.203 33.674 L
327.138 33.648 L
328.072 33.623 L
329.007 33.598 L
329.941 33.574 L
330.876 33.549 L
331.811 33.525 L
332.745 33.5 L
333.68 33.476 L
334.614 33.453 L
335.549 33.429 L
336.483 33.405 L
337.418 33.382 L
338.352 33.359 L
339.287 33.336 L
340.222 33.313 L
341.156 33.291 L
342.091 33.268 L
343.025 33.246 L
343.96 33.224 L
344.894 33.202 L
345.829 33.18 L
346.764 33.158 L
347.698 33.137 L
348.633 33.116 L
349.567 33.095 L
350.502 33.074 L
351.436 33.053 L
352.371 33.033 L
353.305 33.012 L
354.24 32.992 L
355.175 32.972 L
356.109 32.952 L
357.044 32.932 L
357.978 32.913 L
358.913 32.893 L
359.847 32.874 L
360.782 32.855 L
361.716 32.836 L
362.651 32.817 L
363.586 32.799 L
364.52 32.78 L
365.455 32.762 L
366.389 32.744 L
367.324 32.726 L
368.258 32.708 L
369.193 32.691 L
370.128 32.673 L
371.062 32.656 L
371.997 32.639 L
372.931 32.622 L
373.866 32.605 L
374.8 32.588 L
375.735 32.572 L
376.669 32.555 L
377.604 32.539 L
378.539 32.523 L
379.473 32.507 L
380.408 32.491 L
381.342 32.476 L
382.277 32.46 L
383.211 32.445 L
384.146 32.43 L
385.08 32.415 L
386.015 32.4 L
386.95 32.386 L
387.884 32.371 L
388.819 32.357 L
389.753 32.343 L
390.688 32.329 L
391.622 32.315 L
392.557 32.301 L
393.491 32.287 L
394.426 32.274 L
395.361 32.261 L
396.295 32.247 L
397.23 32.234 L
398.164 32.222 L
399.099 32.209 L
400.033 32.196 L
400.968 32.184 L
401.903 32.172 L
402.837 32.159 L
403.772 32.147 L
404.706 32.136 L
405.641 32.124 L
406.575 32.112 L
407.51 32.101 L
408.444 32.09 L
409.379 32.078 L
410.314 32.068 L
411.248 32.057 L
412.183 32.046 L
413.117 32.035 L
414.052 32.025 L
414.986 32.015 L
415.921 32.004 L
416.855 31.994 L
417.79 31.985 L
418.725 31.975 L
419.659 31.965 L
420.594 31.956 L
421.528 31.946 L
422.463 31.937 L
423.397 31.928 L
424.332 31.919 L
425.267 31.91 L
426.201 31.902 L
427.136 31.893 L
428.07 31.885 L
429.005 31.877 L
429.939 31.868 L
430.874 31.86 L
431.808 31.853 L
432.743 31.845 L
433.678 31.837 L
434.612 31.83 L
435.547 31.822 L
436.481 31.815 L
437.416 31.808 L
438.35 31.801 L
439.285 31.794 L
440.219 31.788 L
441.154 31.781 L
442.089 31.774 L
443.023 31.768 L
443.958 31.762 L
444.892 31.756 L
445.827 31.75 L
446.761 31.744 L
447.696 31.738 L
448.63 31.733 L
449.565 31.727 L
450.5 31.722 L
451.434 31.717 L
452.369 31.712 L
453.303 31.707 L
454.238 31.702 L
455.172 31.697 L
456.107 31.692 L
457.042 31.688 L
457.976 31.683 L
458.911 31.679 L
459.845 31.675 L
460.78 31.671 L
461.714 31.667 L
462.649 31.663 L
463.583 31.66 L
464.518 31.656 L
465.453 31.653 L
466.387 31.649 L
467.322 31.646 L
468.256 31.643 L
469.191 31.64 L
470.125 31.637 L
471.06 31.634 L
471.994 31.632 L
472.929 31.629 L
473.864 31.627 L
474.798 31.624 L
475.733 31.622 L
476.667 31.62 L
477.602 31.618 L
478.536 31.616 L
479.471 31.614 L
480.405 31.613 L
481.34 31.611 L
482.275 31.61 L
483.209 31.608 L
484.144 31.607 L
485.078 31.606 L
486.013 31.605 L
486.947 31.604 L
487.882 31.603 L
488.817 31.602 L
489.751 31.602 L
490.686 31.601 L
491.62 31.601 L
492.555 31.601 L
493.489 31.6 L
494.424 31.6 L
S
GR
GS
0 0.447 0.741 RC
[10 6] 0 setdash
2 LJ
0.5 LW
N
78.854 330.293 M
79.788 325.746 L
80.723 321.212 L
81.657 316.695 L
82.592 312.198 L
83.526 307.726 L
84.461 303.283 L
85.395 298.872 L
86.33 294.497 L
87.265 290.163 L
88.199 285.873 L
89.134 281.632 L
90.068 277.443 L
91.003 273.31 L
91.937 269.237 L
92.872 265.228 L
93.807 261.286 L
94.741 257.417 L
95.676 253.624 L
96.61 249.91 L
97.545 246.281 L
98.479 242.738 L
99.414 239.288 L
100.348 235.933 L
101.283 232.677 L
102.218 229.525 L
103.152 226.48 L
104.087 223.501 L
105.021 220.535 L
105.956 217.583 L
106.89 214.645 L
107.825 211.722 L
108.759 208.815 L
109.694 205.926 L
110.629 203.053 L
111.563 200.2 L
112.498 197.365 L
113.432 194.551 L
114.367 191.758 L
115.301 188.986 L
116.236 186.237 L
117.171 183.511 L
118.105 180.81 L
119.04 178.133 L
119.974 175.482 L
120.909 172.858 L
121.843 170.26 L
122.778 167.692 L
123.712 165.152 L
124.647 162.641 L
125.582 160.162 L
126.516 157.714 L
127.451 155.298 L
128.385 152.914 L
129.32 150.565 L
130.254 148.251 L
131.189 145.971 L
132.123 143.728 L
133.058 141.522 L
133.993 139.354 L
134.927 137.225 L
135.862 135.135 L
136.796 133.085 L
137.731 131.076 L
138.665 129.109 L
139.6 127.185 L
140.534 125.304 L
141.469 123.468 L
142.404 121.677 L
143.338 119.931 L
144.273 118.232 L
145.207 116.581 L
146.142 114.978 L
147.076 113.424 L
148.011 111.92 L
148.946 110.467 L
149.88 109.065 L
150.815 107.716 L
151.749 106.42 L
152.684 105.178 L
153.618 103.99 L
154.553 102.843 L
155.487 101.702 L
156.422 100.564 L
157.357 99.43 L
158.291 98.301 L
159.226 97.176 L
160.16 96.056 L
161.095 94.94 L
162.029 93.83 L
162.964 92.725 L
163.898 91.625 L
164.833 90.53 L
165.768 89.441 L
166.702 88.359 L
167.637 87.282 L
168.571 86.211 L
169.506 85.147 L
170.44 84.089 L
171.375 83.038 L
172.309 81.994 L
173.244 80.957 L
174.179 79.928 L
175.113 78.905 L
176.048 77.891 L
176.982 76.884 L
177.917 75.885 L
178.851 74.894 L
179.786 73.912 L
180.721 72.938 L
181.655 71.972 L
182.59 71.016 L
183.524 70.068 L
184.459 69.13 L
185.393 68.201 L
186.328 67.281 L
187.262 66.371 L
188.197 65.472 L
189.132 64.582 L
190.066 63.702 L
191.001 62.833 L
191.935 61.974 L
192.87 61.126 L
193.804 60.289 L
194.739 59.463 L
195.673 58.648 L
196.608 57.845 L
197.543 57.053 L
198.477 56.273 L
199.412 55.505 L
200.346 54.75 L
201.281 54.006 L
202.215 53.275 L
203.15 52.557 L
204.085 51.851 L
205.019 51.159 L
205.954 50.479 L
206.888 49.813 L
207.823 49.161 L
208.757 48.522 L
209.692 47.897 L
210.626 47.286 L
211.561 46.69 L
212.496 46.107 L
213.43 45.54 L
214.365 44.987 L
215.299 44.449 L
216.234 43.926 L
217.168 43.418 L
218.103 42.926 L
219.037 42.449 L
219.972 41.989 L
220.907 41.544 L
221.841 41.115 L
222.776 40.703 L
223.71 40.307 L
224.645 39.928 L
225.579 39.565 L
226.514 39.22 L
227.448 38.892 L
228.383 38.581 L
229.318 38.287 L
230.252 38.012 L
231.187 37.754 L
232.121 37.514 L
233.056 37.293 L
233.99 37.09 L
234.925 36.905 L
235.86 36.74 L
236.794 36.593 L
237.729 36.465 L
238.663 36.357 L
239.598 36.268 L
240.532 36.198 L
241.467 36.149 L
242.401 36.108 L
243.336 36.067 L
244.271 36.026 L
245.205 35.986 L
246.14 35.946 L
247.074 35.906 L
248.009 35.866 L
248.943 35.827 L
249.878 35.788 L
250.812 35.749 L
251.747 35.71 L
252.682 35.671 L
253.616 35.633 L
254.551 35.595 L
255.485 35.557 L
256.42 35.519 L
257.354 35.481 L
258.289 35.444 L
259.224 35.407 L
260.158 35.37 L
261.093 35.333 L
262.027 35.297 L
262.962 35.261 L
263.896 35.225 L
264.831 35.189 L
265.765 35.153 L
266.7 35.118 L
267.635 35.082 L
268.569 35.047 L
269.504 35.013 L
270.438 34.978 L
271.373 34.944 L
272.307 34.909 L
273.242 34.875 L
274.176 34.842 L
275.111 34.808 L
276.046 34.775 L
276.98 34.741 L
277.915 34.708 L
278.849 34.676 L
279.784 34.643 L
280.718 34.611 L
281.653 34.578 L
282.587 34.546 L
283.522 34.515 L
284.457 34.483 L
285.391 34.452 L
286.326 34.42 L
287.26 34.389 L
288.195 34.359 L
289.129 34.328 L
290.064 34.298 L
290.999 34.267 L
291.933 34.237 L
292.868 34.208 L
293.802 34.178 L
294.737 34.149 L
295.671 34.119 L
296.606 34.09 L
297.54 34.061 L
298.475 34.033 L
299.41 34.004 L
300.344 33.976 L
301.279 33.948 L
302.213 33.92 L
303.148 33.892 L
304.082 33.865 L
305.017 33.837 L
305.951 33.81 L
306.886 33.783 L
307.821 33.756 L
308.755 33.73 L
309.69 33.703 L
310.624 33.677 L
311.559 33.651 L
312.493 33.625 L
313.428 33.6 L
314.362 33.574 L
315.297 33.549 L
316.232 33.524 L
317.166 33.499 L
318.101 33.474 L
319.035 33.449 L
319.97 33.425 L
320.904 33.401 L
321.839 33.377 L
322.774 33.353 L
323.708 33.329 L
324.643 33.306 L
325.577 33.282 L
326.512 33.259 L
327.446 33.236 L
328.381 33.214 L
329.315 33.191 L
330.25 33.168 L
331.185 33.146 L
332.119 33.124 L
333.054 33.102 L
333.988 33.08 L
334.923 33.059 L
335.857 33.037 L
336.792 33.016 L
337.726 32.995 L
338.661 32.974 L
339.596 32.954 L
340.53 32.933 L
341.465 32.913 L
342.399 32.893 L
343.334 32.872 L
344.268 32.853 L
345.203 32.833 L
346.138 32.813 L
347.072 32.794 L
348.007 32.775 L
348.941 32.756 L
349.876 32.737 L
350.81 32.718 L
351.745 32.7 L
352.679 32.681 L
353.614 32.663 L
354.549 32.645 L
355.483 32.627 L
356.418 32.609 L
357.352 32.592 L
358.287 32.575 L
359.221 32.557 L
360.156 32.54 L
361.09 32.523 L
362.025 32.507 L
362.96 32.49 L
363.894 32.474 L
364.829 32.457 L
365.763 32.441 L
366.698 32.425 L
367.632 32.409 L
368.567 32.394 L
369.501 32.378 L
370.436 32.363 L
371.371 32.348 L
372.305 32.333 L
373.24 32.318 L
374.174 32.303 L
375.109 32.289 L
376.043 32.274 L
376.978 32.26 L
377.913 32.246 L
378.847 32.232 L
379.782 32.218 L
380.716 32.204 L
381.651 32.191 L
382.585 32.177 L
383.52 32.164 L
384.454 32.151 L
385.389 32.138 L
386.324 32.125 L
387.258 32.113 L
388.193 32.1 L
389.127 32.088 L
390.062 32.076 L
390.996 32.064 L
391.931 32.052 L
392.865 32.04 L
393.8 32.029 L
394.735 32.017 L
395.669 32.006 L
396.604 31.995 L
397.538 31.983 L
398.473 31.973 L
399.407 31.962 L
400.342 31.951 L
401.277 31.941 L
402.211 31.93 L
403.146 31.92 L
404.08 31.91 L
405.015 31.9 L
405.949 31.89 L
406.884 31.881 L
407.818 31.871 L
408.753 31.862 L
409.688 31.853 L
410.622 31.844 L
411.557 31.835 L
412.491 31.826 L
413.426 31.817 L
414.36 31.809 L
415.295 31.8 L
416.229 31.792 L
417.164 31.784 L
418.099 31.776 L
419.033 31.768 L
419.968 31.76 L
420.902 31.752 L
421.837 31.745 L
422.771 31.737 L
423.706 31.73 L
424.64 31.723 L
425.575 31.716 L
426.51 31.709 L
427.444 31.702 L
428.379 31.696 L
429.313 31.689 L
430.248 31.683 L
431.182 31.677 L
432.117 31.67 L
433.052 31.664 L
433.986 31.659 L
434.921 31.653 L
435.855 31.647 L
436.79 31.642 L
437.724 31.636 L
438.659 31.631 L
439.593 31.626 L
440.528 31.621 L
441.463 31.616 L
442.397 31.611 L
443.332 31.606 L
444.266 31.602 L
445.201 31.597 L
446.135 31.593 L
447.07 31.589 L
448.004 31.585 L
448.939 31.581 L
449.874 31.577 L
450.808 31.573 L
451.743 31.57 L
452.677 31.566 L
453.612 31.563 L
454.546 31.559 L
455.481 31.556 L
456.416 31.553 L
457.35 31.55 L
458.285 31.547 L
459.219 31.545 L
460.154 31.542 L
461.088 31.54 L
462.023 31.537 L
462.957 31.535 L
463.892 31.533 L
464.827 31.531 L
465.761 31.529 L
466.696 31.527 L
467.63 31.525 L
468.565 31.523 L
469.499 31.522 L
470.434 31.52 L
471.368 31.519 L
472.303 31.518 L
473.238 31.517 L
474.172 31.516 L
475.107 31.515 L
476.041 31.514 L
476.976 31.513 L
477.91 31.513 L
478.845 31.512 L
479.78 31.512 L
480.714 31.512 L
481.649 31.511 L
482.583 31.511 L
S
GR
GS
0.851 0.325 0.098 RC
[10 6] 0 setdash
2 LJ
0.5 LW
N
78.239 332.033 M
79.173 327.294 L
80.108 322.569 L
81.042 317.863 L
81.977 313.179 L
82.911 308.522 L
83.846 303.896 L
84.78 299.307 L
85.715 294.758 L
86.65 290.253 L
87.584 285.797 L
88.519 281.395 L
89.453 277.051 L
90.388 272.77 L
91.322 268.555 L
92.257 264.411 L
93.191 260.343 L
94.126 256.354 L
95.061 252.451 L
95.995 248.636 L
96.93 244.914 L
97.864 241.29 L
98.799 237.767 L
99.733 234.352 L
100.668 231.047 L
101.602 227.857 L
102.537 224.771 L
103.472 221.711 L
104.406 218.666 L
105.341 215.638 L
106.275 212.626 L
107.21 209.633 L
108.144 206.659 L
109.079 203.704 L
110.014 200.77 L
110.948 197.857 L
111.883 194.966 L
112.817 192.098 L
113.752 189.254 L
114.686 186.435 L
115.621 183.641 L
116.555 180.874 L
117.49 178.133 L
118.425 175.421 L
119.359 172.737 L
120.294 170.082 L
121.228 167.458 L
122.163 164.866 L
123.097 162.305 L
124.032 159.777 L
124.966 157.283 L
125.901 154.823 L
126.836 152.399 L
127.77 150.01 L
128.705 147.659 L
129.639 145.346 L
130.574 143.071 L
131.508 140.835 L
132.443 138.64 L
133.378 136.486 L
134.312 134.373 L
135.247 132.304 L
136.181 130.278 L
137.116 128.296 L
138.05 126.36 L
138.985 124.469 L
139.919 122.625 L
140.854 120.829 L
141.789 119.082 L
142.723 117.384 L
143.658 115.736 L
144.592 114.138 L
145.527 112.593 L
146.461 111.1 L
147.396 109.661 L
148.33 108.276 L
149.265 106.946 L
150.2 105.671 L
151.134 104.454 L
152.069 103.273 L
153.003 102.097 L
153.938 100.925 L
154.872 99.757 L
155.807 98.593 L
156.741 97.435 L
157.676 96.281 L
158.611 95.132 L
159.545 93.989 L
160.48 92.851 L
161.414 91.719 L
162.349 90.592 L
163.283 89.472 L
164.218 88.358 L
165.153 87.25 L
166.087 86.149 L
167.022 85.054 L
167.956 83.967 L
168.891 82.887 L
169.825 81.814 L
170.76 80.748 L
171.694 79.691 L
172.629 78.641 L
173.564 77.6 L
174.498 76.567 L
175.433 75.542 L
176.367 74.526 L
177.302 73.519 L
178.236 72.522 L
179.171 71.533 L
180.105 70.554 L
181.04 69.585 L
181.975 68.625 L
182.909 67.676 L
183.844 66.736 L
184.778 65.808 L
185.713 64.89 L
186.647 63.982 L
187.582 63.086 L
188.516 62.201 L
189.451 61.327 L
190.386 60.465 L
191.32 59.615 L
192.255 58.776 L
193.189 57.95 L
194.124 57.136 L
195.058 56.335 L
195.993 55.546 L
196.928 54.771 L
197.862 54.008 L
198.797 53.259 L
199.731 52.523 L
200.666 51.801 L
201.6 51.093 L
202.535 50.399 L
203.469 49.72 L
204.404 49.054 L
205.339 48.404 L
206.273 47.768 L
207.208 47.147 L
208.142 46.542 L
209.077 45.952 L
210.011 45.377 L
210.946 44.819 L
211.88 44.276 L
212.815 43.749 L
213.75 43.239 L
214.684 42.746 L
215.619 42.269 L
216.553 41.809 L
217.488 41.366 L
218.422 40.941 L
219.357 40.533 L
220.292 40.143 L
221.226 39.771 L
222.161 39.417 L
223.095 39.081 L
224.03 38.764 L
224.964 38.465 L
225.899 38.186 L
226.833 37.925 L
227.768 37.684 L
228.703 37.462 L
229.637 37.259 L
230.572 37.077 L
231.506 36.914 L
232.441 36.772 L
233.375 36.65 L
234.31 36.549 L
235.244 36.468 L
236.179 36.409 L
237.114 36.366 L
238.048 36.323 L
238.983 36.281 L
239.917 36.24 L
240.852 36.198 L
241.786 36.157 L
242.721 36.116 L
243.655 36.075 L
244.59 36.034 L
245.525 35.994 L
246.459 35.954 L
247.394 35.914 L
248.328 35.874 L
249.263 35.835 L
250.197 35.796 L
251.132 35.757 L
252.067 35.718 L
253.001 35.679 L
253.936 35.641 L
254.87 35.603 L
255.805 35.565 L
256.739 35.527 L
257.674 35.489 L
258.608 35.452 L
259.543 35.415 L
260.478 35.378 L
261.412 35.342 L
262.347 35.305 L
263.281 35.269 L
264.216 35.233 L
265.15 35.197 L
266.085 35.162 L
267.019 35.126 L
267.954 35.091 L
268.889 35.056 L
269.823 35.022 L
270.758 34.987 L
271.692 34.953 L
272.627 34.919 L
273.561 34.885 L
274.496 34.851 L
275.431 34.818 L
276.365 34.785 L
277.3 34.752 L
278.234 34.719 L
279.169 34.686 L
280.103 34.654 L
281.038 34.622 L
281.972 34.59 L
282.907 34.558 L
283.842 34.526 L
284.776 34.495 L
285.711 34.464 L
286.645 34.433 L
287.58 34.402 L
288.514 34.371 L
289.449 34.341 L
290.383 34.311 L
291.318 34.281 L
292.253 34.251 L
293.187 34.222 L
294.122 34.192 L
295.056 34.163 L
295.991 34.134 L
296.925 34.105 L
297.86 34.077 L
298.794 34.048 L
299.729 34.02 L
300.664 33.992 L
301.598 33.965 L
302.533 33.937 L
303.467 33.91 L
304.402 33.882 L
305.336 33.855 L
306.271 33.829 L
307.206 33.802 L
308.14 33.775 L
309.075 33.749 L
310.009 33.723 L
310.944 33.697 L
311.878 33.672 L
312.813 33.646 L
313.747 33.621 L
314.682 33.596 L
315.617 33.571 L
316.551 33.546 L
317.486 33.522 L
318.42 33.497 L
319.355 33.473 L
320.289 33.449 L
321.224 33.425 L
322.158 33.402 L
323.093 33.378 L
324.028 33.355 L
324.962 33.332 L
325.897 33.309 L
326.831 33.286 L
327.766 33.264 L
328.7 33.241 L
329.635 33.219 L
330.569 33.197 L
331.504 33.175 L
332.439 33.154 L
333.373 33.132 L
334.308 33.111 L
335.242 33.09 L
336.177 33.069 L
337.111 33.048 L
338.046 33.028 L
338.981 33.007 L
339.915 32.987 L
340.85 32.967 L
341.784 32.947 L
342.719 32.927 L
343.653 32.908 L
344.588 32.889 L
345.522 32.869 L
346.457 32.85 L
347.392 32.831 L
348.326 32.813 L
349.261 32.794 L
350.195 32.776 L
351.13 32.758 L
352.064 32.74 L
352.999 32.722 L
353.933 32.704 L
354.868 32.687 L
355.803 32.669 L
356.737 32.652 L
357.672 32.635 L
358.606 32.618 L
359.541 32.602 L
360.475 32.585 L
361.41 32.569 L
362.345 32.553 L
363.279 32.537 L
364.214 32.521 L
365.148 32.505 L
366.083 32.49 L
367.017 32.474 L
367.952 32.459 L
368.886 32.444 L
369.821 32.429 L
370.756 32.414 L
371.69 32.4 L
372.625 32.385 L
373.559 32.371 L
374.494 32.357 L
375.428 32.343 L
376.363 32.329 L
377.297 32.315 L
378.232 32.302 L
379.167 32.289 L
380.101 32.275 L
381.036 32.262 L
381.97 32.25 L
382.905 32.237 L
383.839 32.224 L
384.774 32.212 L
385.708 32.199 L
386.643 32.187 L
387.578 32.175 L
388.512 32.164 L
389.447 32.152 L
390.381 32.14 L
391.316 32.129 L
392.25 32.118 L
393.185 32.107 L
394.12 32.096 L
395.054 32.085 L
395.989 32.074 L
396.923 32.064 L
397.858 32.053 L
398.792 32.043 L
399.727 32.033 L
400.661 32.023 L
401.596 32.013 L
402.531 32.003 L
403.465 31.994 L
404.4 31.984 L
405.334 31.975 L
406.269 31.966 L
407.203 31.957 L
408.138 31.948 L
409.072 31.94 L
410.007 31.931 L
410.942 31.923 L
411.876 31.914 L
412.811 31.906 L
413.745 31.898 L
414.68 31.89 L
415.614 31.882 L
416.549 31.875 L
417.484 31.867 L
418.418 31.86 L
419.353 31.853 L
420.287 31.846 L
421.222 31.839 L
422.156 31.832 L
423.091 31.825 L
424.025 31.819 L
424.96 31.812 L
425.895 31.806 L
426.829 31.8 L
427.764 31.794 L
428.698 31.788 L
429.633 31.782 L
430.567 31.776 L
431.502 31.771 L
432.436 31.765 L
433.371 31.76 L
434.306 31.755 L
435.24 31.75 L
436.175 31.745 L
437.109 31.74 L
438.044 31.735 L
438.978 31.731 L
439.913 31.726 L
440.848 31.722 L
441.782 31.718 L
442.717 31.714 L
443.651 31.71 L
444.586 31.706 L
445.52 31.702 L
446.455 31.699 L
447.389 31.695 L
448.324 31.692 L
449.259 31.688 L
450.193 31.685 L
451.128 31.682 L
452.062 31.679 L
452.997 31.676 L
453.931 31.674 L
454.866 31.671 L
455.8 31.669 L
456.735 31.666 L
457.67 31.664 L
458.604 31.662 L
459.539 31.66 L
460.473 31.658 L
461.408 31.656 L
462.342 31.655 L
463.277 31.653 L
464.211 31.652 L
465.146 31.65 L
466.081 31.649 L
467.015 31.648 L
467.95 31.647 L
468.884 31.646 L
469.819 31.645 L
470.753 31.644 L
471.688 31.644 L
472.622 31.643 L
473.557 31.643 L
474.492 31.642 L
475.426 31.642 L
476.361 31.642 L
S
GR
GS
1 GC
N
499 366 M
499 218.5 L
327.5 218.5 L
327.5 366 L
cp
f
GR
GS
[1 0 0 1 364.5 228.25] CT
/Helvetica 13 F
GS
[1 0 0 1 0 0] CT
0 5 moveto 
1 -1 scale
(Base Run) t 
GR
GR
GS
0 0.447 0.741 RC
1 LJ
0.5 LW
N
331.5 228.25 M
361.5 228.25 L
S
GR
GS
[1 0 0 1 364.5 244.25] CT
/Helvetica 13 F
GS
[1 0 0 1 0 0] CT
0 5 moveto 
1 -1 scale
(All Frames) t 
GR
GR
GS
0.851 0.325 0.098 RC
1 LJ
0.5 LW
N
331.5 244.25 M
361.5 244.25 L
S
GR
GS
[1 0 0 1 364.5 260.25] CT
/Helvetica 13 F
GS
[1 0 0 1 0 0] CT
0 5 moveto 
1 -1 scale
(KF Only) t 
GR
GR
GS
0.929 0.694 0.125 RC
1 LJ
0.5 LW
N
331.5 260.25 M
361.5 260.25 L
S
GR
GS
[1 0 0 1 364.5 276.25] CT
/Helvetica 13 F
GS
[1 0 0 1 0 0] CT
0 5 moveto 
1 -1 scale
(GF, ARF Only) t 
GR
GR
GS
0.494 0.184 0.557 RC
1 LJ
0.5 LW
N
331.5 276.25 M
361.5 276.25 L
S
GR
GS
[1 0 0 1 364.5 292.25] CT
/Helvetica 13 F
GS
[1 0 0 1 0 0] CT
0 5 moveto 
1 -1 scale
(KF, GF, ARF Only) t 
GR
GR
GS
0.467 0.675 0.188 RC
1 LJ
0.5 LW
N
331.5 292.25 M
361.5 292.25 L
S
GR
GS
[1 0 0 1 364.5 308.25] CT
/Helvetica 13 F
GS
[1 0 0 1 0 0] CT
0 5 moveto 
1 -1 scale
(Part All Frames) t 
GR
GR
GS
0.302 0.745 0.933 RC
[10 6] 0 setdash
2 LJ
0.5 LW
N
331.5 308.25 M
361.5 308.25 L
S
GR
GS
[1 0 0 1 364.5 324.25] CT
/Helvetica 13 F
GS
[1 0 0 1 0 0] CT
0 5 moveto 
1 -1 scale
(Part KF Only) t 
GR
GR
GS
0.635 0.078 0.184 RC
[10 6] 0 setdash
2 LJ
0.5 LW
N
331.5 324.25 M
361.5 324.25 L
S
GR
GS
[1 0 0 1 364.5 340.25] CT
/Helvetica 13 F
GS
[1 0 0 1 0 0] CT
0 5 moveto 
1 -1 scale
(Part GF, ARF Only) t 
GR
GR
GS
0 0.447 0.741 RC
[10 6] 0 setdash
2 LJ
0.5 LW
N
331.5 340.25 M
361.5 340.25 L
S
GR
GS
[1 0 0 1 364.5 356.25] CT
/Helvetica 13 F
GS
[1 0 0 1 0 0] CT
0 5 moveto 
1 -1 scale
(Part KF, GF, ARF Only) t 
GR
GR
GS
0.851 0.325 0.098 RC
[10 6] 0 setdash
2 LJ
0.5 LW
N
331.5 356.25 M
361.5 356.25 L
S
GR
GS
0.149 GC
10.0 ML
0.5 LW
N
327.5 366 M
327.5 218.5 L
499 218.5 L
499 366 L
cp
S
GR
%%Trailer
%%Pages: 1
%%EOF
