%!PS-Adobe-3.0 EPSF-3.0
%%Creator: (MATLAB, The Mathworks, Inc. Version 9.11.0.1837725 \(R2021b\) Update 2. Operating System: Mac OS X)
%%Title: plots/pchip/Vlog_1080P-58ad.y4m-hevc-APSNRY.eps
%%CreationDate: 2022-02-03T19:15:00
%%Pages: (atend)
%%BoundingBox:    33   425   515   826
%%LanguageLevel: 3
%%EndComments
%%BeginProlog
%%BeginResource: procset (Apache XML Graphics Std ProcSet) 1.2 0
%%Version: 1.2 0
%%Copyright: (Copyright 2001-2003,2010 The Apache Software Foundation. License terms: http://www.apache.org/licenses/LICENSE-2.0)
/bd{bind def}bind def
/ld{load def}bd
/GR/grestore ld
/GS/gsave ld
/RM/rmoveto ld
/C/curveto ld
/t/show ld
/L/lineto ld
/ML/setmiterlimit ld
/CT/concat ld
/f/fill ld
/N/newpath ld
/S/stroke ld
/CC/setcmykcolor ld
/A/ashow ld
/cp/closepath ld
/RC/setrgbcolor ld
/LJ/setlinejoin ld
/GC/setgray ld
/LW/setlinewidth ld
/M/moveto ld
/re {4 2 roll M
1 index 0 rlineto
0 exch rlineto
neg 0 rlineto
cp } bd
/_ctm matrix def
/_tm matrix def
/BT { _ctm currentmatrix pop matrix _tm copy pop 0 0 moveto } bd
/ET { _ctm setmatrix } bd
/iTm { _ctm setmatrix _tm concat } bd
/Tm { _tm astore pop iTm 0 0 moveto } bd
/ux 0.0 def
/uy 0.0 def
/F {
  /Tp exch def
  /Tf exch def
  Tf findfont Tp scalefont setfont
  /cf Tf def  /cs Tp def
} bd
/ULS {currentpoint /uy exch def /ux exch def} bd
/ULE {
  /Tcx currentpoint pop def
  gsave
  newpath
  cf findfont cs scalefont dup
  /FontMatrix get 0 get /Ts exch def /FontInfo get dup
  /UnderlinePosition get Ts mul /To exch def
  /UnderlineThickness get Ts mul /Tt exch def
  ux uy To add moveto  Tcx uy To add lineto
  Tt setlinewidth stroke
  grestore
} bd
/OLE {
  /Tcx currentpoint pop def
  gsave
  newpath
  cf findfont cs scalefont dup
  /FontMatrix get 0 get /Ts exch def /FontInfo get dup
  /UnderlinePosition get Ts mul /To exch def
  /UnderlineThickness get Ts mul /Tt exch def
  ux uy To add cs add moveto Tcx uy To add cs add lineto
  Tt setlinewidth stroke
  grestore
} bd
/SOE {
  /Tcx currentpoint pop def
  gsave
  newpath
  cf findfont cs scalefont dup
  /FontMatrix get 0 get /Ts exch def /FontInfo get dup
  /UnderlinePosition get Ts mul /To exch def
  /UnderlineThickness get Ts mul /Tt exch def
  ux uy To add cs 10 mul 26 idiv add moveto Tcx uy To add cs 10 mul 26 idiv add lineto
  Tt setlinewidth stroke
  grestore
} bd
/QT {
/Y22 exch store
/X22 exch store
/Y21 exch store
/X21 exch store
currentpoint
/Y21 load 2 mul add 3 div exch
/X21 load 2 mul add 3 div exch
/X21 load 2 mul /X22 load add 3 div
/Y21 load 2 mul /Y22 load add 3 div
/X22 load /Y22 load curveto
} bd
/SSPD {
dup length /d exch dict def
{
/v exch def
/k exch def
currentpagedevice k known {
/cpdv currentpagedevice k get def
v cpdv ne {
/upd false def
/nullv v type /nulltype eq def
/nullcpdv cpdv type /nulltype eq def
nullv nullcpdv or
{
/upd true def
} {
/sametype v type cpdv type eq def
sametype {
v type /arraytype eq {
/vlen v length def
/cpdvlen cpdv length def
vlen cpdvlen eq {
0 1 vlen 1 sub {
/i exch def
/obj v i get def
/cpdobj cpdv i get def
obj cpdobj ne {
/upd true def
exit
} if
} for
} {
/upd true def
} ifelse
} {
v type /dicttype eq {
v {
/dv exch def
/dk exch def
/cpddv cpdv dk get def
dv cpddv ne {
/upd true def
exit
} if
} forall
} {
/upd true def
} ifelse
} ifelse
} if
} ifelse
upd true eq {
d k v put
} if
} if
} if
} forall
d length 0 gt {
d setpagedevice
} if
} bd
/RE { % /NewFontName [NewEncodingArray] /FontName RE -
  findfont dup length dict begin
  {
    1 index /FID ne
    {def} {pop pop} ifelse
  } forall
  /Encoding exch def
  /FontName 1 index def
  currentdict definefont pop
  end
} bind def
%%EndResource
%%BeginResource: procset (Apache XML Graphics EPS ProcSet) 1.0 0
%%Version: 1.0 0
%%Copyright: (Copyright 2002-2003 The Apache Software Foundation. License terms: http://www.apache.org/licenses/LICENSE-2.0)
/BeginEPSF { %def
/b4_Inc_state save def         % Save state for cleanup
/dict_count countdictstack def % Count objects on dict stack
/op_count count 1 sub def      % Count objects on operand stack
userdict begin                 % Push userdict on dict stack
/showpage { } def              % Redefine showpage, { } = null proc
0 setgray 0 setlinecap         % Prepare graphics state
1 setlinewidth 0 setlinejoin
10 setmiterlimit [ ] 0 setdash newpath
/languagelevel where           % If level not equal to 1 then
{pop languagelevel             % set strokeadjust and
1 ne                           % overprint to their defaults.
{false setstrokeadjust false setoverprint
} if
} if
} bd
/EndEPSF { %def
count op_count sub {pop} repeat            % Clean up stacks
countdictstack dict_count sub {end} repeat
b4_Inc_state restore
} bd
%%EndResource
%FOPBeginFontDict
%%IncludeResource: font Courier-Oblique
%%IncludeResource: font Courier-BoldOblique
%%IncludeResource: font Courier-Bold
%%IncludeResource: font ZapfDingbats
%%IncludeResource: font Symbol
%%IncludeResource: font Helvetica
%%IncludeResource: font Helvetica-Oblique
%%IncludeResource: font Helvetica-Bold
%%IncludeResource: font Helvetica-BoldOblique
%%IncludeResource: font Times-Roman
%%IncludeResource: font Times-Italic
%%IncludeResource: font Times-Bold
%%IncludeResource: font Times-BoldItalic
%%IncludeResource: font Courier
%FOPEndFontDict
%%BeginResource: encoding WinAnsiEncoding
/WinAnsiEncoding [
/.notdef /.notdef /.notdef /.notdef /.notdef
/.notdef /.notdef /.notdef /.notdef /.notdef
/.notdef /.notdef /.notdef /.notdef /.notdef
/.notdef /.notdef /.notdef /.notdef /.notdef
/.notdef /.notdef /.notdef /.notdef /.notdef
/.notdef /.notdef /.notdef /.notdef /.notdef
/.notdef /.notdef /space /exclam /quotedbl
/numbersign /dollar /percent /ampersand /quotesingle
/parenleft /parenright /asterisk /plus /comma
/hyphen /period /slash /zero /one
/two /three /four /five /six
/seven /eight /nine /colon /semicolon
/less /equal /greater /question /at
/A /B /C /D /E
/F /G /H /I /J
/K /L /M /N /O
/P /Q /R /S /T
/U /V /W /X /Y
/Z /bracketleft /backslash /bracketright /asciicircum
/underscore /quoteleft /a /b /c
/d /e /f /g /h
/i /j /k /l /m
/n /o /p /q /r
/s /t /u /v /w
/x /y /z /braceleft /bar
/braceright /asciitilde /bullet /Euro /bullet
/quotesinglbase /florin /quotedblbase /ellipsis /dagger
/daggerdbl /circumflex /perthousand /Scaron /guilsinglleft
/OE /bullet /Zcaron /bullet /bullet
/quoteleft /quoteright /quotedblleft /quotedblright /bullet
/endash /emdash /asciitilde /trademark /scaron
/guilsinglright /oe /bullet /zcaron /Ydieresis
/space /exclamdown /cent /sterling /currency
/yen /brokenbar /section /dieresis /copyright
/ordfeminine /guillemotleft /logicalnot /sfthyphen /registered
/macron /degree /plusminus /twosuperior /threesuperior
/acute /mu /paragraph /middot /cedilla
/onesuperior /ordmasculine /guillemotright /onequarter /onehalf
/threequarters /questiondown /Agrave /Aacute /Acircumflex
/Atilde /Adieresis /Aring /AE /Ccedilla
/Egrave /Eacute /Ecircumflex /Edieresis /Igrave
/Iacute /Icircumflex /Idieresis /Eth /Ntilde
/Ograve /Oacute /Ocircumflex /Otilde /Odieresis
/multiply /Oslash /Ugrave /Uacute /Ucircumflex
/Udieresis /Yacute /Thorn /germandbls /agrave
/aacute /acircumflex /atilde /adieresis /aring
/ae /ccedilla /egrave /eacute /ecircumflex
/edieresis /igrave /iacute /icircumflex /idieresis
/eth /ntilde /ograve /oacute /ocircumflex
/otilde /odieresis /divide /oslash /ugrave
/uacute /ucircumflex /udieresis /yacute /thorn
/ydieresis
] def
%%EndResource
%FOPBeginFontReencode
/Courier-Oblique findfont
dup length dict begin
  {1 index /FID ne {def} {pop pop} ifelse} forall
  /Encoding WinAnsiEncoding def
  currentdict
end
/Courier-Oblique exch definefont pop
/Courier-BoldOblique findfont
dup length dict begin
  {1 index /FID ne {def} {pop pop} ifelse} forall
  /Encoding WinAnsiEncoding def
  currentdict
end
/Courier-BoldOblique exch definefont pop
/Courier-Bold findfont
dup length dict begin
  {1 index /FID ne {def} {pop pop} ifelse} forall
  /Encoding WinAnsiEncoding def
  currentdict
end
/Courier-Bold exch definefont pop
/Helvetica findfont
dup length dict begin
  {1 index /FID ne {def} {pop pop} ifelse} forall
  /Encoding WinAnsiEncoding def
  currentdict
end
/Helvetica exch definefont pop
/Helvetica-Oblique findfont
dup length dict begin
  {1 index /FID ne {def} {pop pop} ifelse} forall
  /Encoding WinAnsiEncoding def
  currentdict
end
/Helvetica-Oblique exch definefont pop
/Helvetica-Bold findfont
dup length dict begin
  {1 index /FID ne {def} {pop pop} ifelse} forall
  /Encoding WinAnsiEncoding def
  currentdict
end
/Helvetica-Bold exch definefont pop
/Helvetica-BoldOblique findfont
dup length dict begin
  {1 index /FID ne {def} {pop pop} ifelse} forall
  /Encoding WinAnsiEncoding def
  currentdict
end
/Helvetica-BoldOblique exch definefont pop
/Times-Roman findfont
dup length dict begin
  {1 index /FID ne {def} {pop pop} ifelse} forall
  /Encoding WinAnsiEncoding def
  currentdict
end
/Times-Roman exch definefont pop
/Times-Italic findfont
dup length dict begin
  {1 index /FID ne {def} {pop pop} ifelse} forall
  /Encoding WinAnsiEncoding def
  currentdict
end
/Times-Italic exch definefont pop
/Times-Bold findfont
dup length dict begin
  {1 index /FID ne {def} {pop pop} ifelse} forall
  /Encoding WinAnsiEncoding def
  currentdict
end
/Times-Bold exch definefont pop
/Times-BoldItalic findfont
dup length dict begin
  {1 index /FID ne {def} {pop pop} ifelse} forall
  /Encoding WinAnsiEncoding def
  currentdict
end
/Times-BoldItalic exch definefont pop
/Courier findfont
dup length dict begin
  {1 index /FID ne {def} {pop pop} ifelse} forall
  /Encoding WinAnsiEncoding def
  currentdict
end
/Courier exch definefont pop
%FOPEndFontReencode
%%EndProlog
%%Page: 1 1
%%PageBoundingBox: 0 0 1120 840
%%BeginPageSetup
[1 0 0 -1 0 840] CT
%%EndPageSetup
GS
1 GC
N
0 0 1120 840 re
f
GR
GS
1 GC
N
73 374 M
507 374 L
507 31.5 L
73 31.5 L
cp
f
GR
GS
0.149 GC
2 setlinecap
1 LJ
0.5 LW
N
73 374 M
507 374 L
S
GR
GS
0.149 GC
2 setlinecap
1 LJ
0.5 LW
N
73 31.5 M
507 31.5 L
S
GR
GS
0.149 GC
2 setlinecap
1 LJ
0.5 LW
N
96.769 374 M
96.769 369.66 L
S
GR
GS
0.149 GC
2 setlinecap
1 LJ
0.5 LW
N
154.315 374 M
154.315 369.66 L
S
GR
GS
0.149 GC
2 setlinecap
1 LJ
0.5 LW
N
211.86 374 M
211.86 369.66 L
S
GR
GS
0.149 GC
2 setlinecap
1 LJ
0.5 LW
N
269.406 374 M
269.406 369.66 L
S
GR
GS
0.149 GC
2 setlinecap
1 LJ
0.5 LW
N
326.951 374 M
326.951 369.66 L
S
GR
GS
0.149 GC
2 setlinecap
1 LJ
0.5 LW
N
384.497 374 M
384.497 369.66 L
S
GR
GS
0.149 GC
2 setlinecap
1 LJ
0.5 LW
N
442.042 374 M
442.042 369.66 L
S
GR
GS
0.149 GC
2 setlinecap
1 LJ
0.5 LW
N
499.588 374 M
499.588 369.66 L
S
GR
GS
0.149 GC
2 setlinecap
1 LJ
0.5 LW
N
96.769 31.5 M
96.769 35.84 L
S
GR
GS
0.149 GC
2 setlinecap
1 LJ
0.5 LW
N
154.315 31.5 M
154.315 35.84 L
S
GR
GS
0.149 GC
2 setlinecap
1 LJ
0.5 LW
N
211.86 31.5 M
211.86 35.84 L
S
GR
GS
0.149 GC
2 setlinecap
1 LJ
0.5 LW
N
269.406 31.5 M
269.406 35.84 L
S
GR
GS
0.149 GC
2 setlinecap
1 LJ
0.5 LW
N
326.951 31.5 M
326.951 35.84 L
S
GR
GS
0.149 GC
2 setlinecap
1 LJ
0.5 LW
N
384.497 31.5 M
384.497 35.84 L
S
GR
GS
0.149 GC
2 setlinecap
1 LJ
0.5 LW
N
442.042 31.5 M
442.042 35.84 L
S
GR
GS
0.149 GC
2 setlinecap
1 LJ
0.5 LW
N
499.588 31.5 M
499.588 35.84 L
S
GR
GS
0.149 GC
2 setlinecap
1 LJ
0.5 LW
N
73.751 374 M
73.751 371.83 L
S
GR
GS
0.149 GC
2 setlinecap
1 LJ
0.5 LW
N
85.26 374 M
85.26 371.83 L
S
GR
GS
0.149 GC
2 setlinecap
1 LJ
0.5 LW
N
108.278 374 M
108.278 371.83 L
S
GR
GS
0.149 GC
2 setlinecap
1 LJ
0.5 LW
N
119.787 374 M
119.787 371.83 L
S
GR
GS
0.149 GC
2 setlinecap
1 LJ
0.5 LW
N
131.297 374 M
131.297 371.83 L
S
GR
GS
0.149 GC
2 setlinecap
1 LJ
0.5 LW
N
142.806 374 M
142.806 371.83 L
S
GR
GS
0.149 GC
2 setlinecap
1 LJ
0.5 LW
N
165.824 374 M
165.824 371.83 L
S
GR
GS
0.149 GC
2 setlinecap
1 LJ
0.5 LW
N
177.333 374 M
177.333 371.83 L
S
GR
GS
0.149 GC
2 setlinecap
1 LJ
0.5 LW
N
188.842 374 M
188.842 371.83 L
S
GR
GS
0.149 GC
2 setlinecap
1 LJ
0.5 LW
N
200.351 374 M
200.351 371.83 L
S
GR
GS
0.149 GC
2 setlinecap
1 LJ
0.5 LW
N
223.369 374 M
223.369 371.83 L
S
GR
GS
0.149 GC
2 setlinecap
1 LJ
0.5 LW
N
234.878 374 M
234.878 371.83 L
S
GR
GS
0.149 GC
2 setlinecap
1 LJ
0.5 LW
N
246.388 374 M
246.388 371.83 L
S
GR
GS
0.149 GC
2 setlinecap
1 LJ
0.5 LW
N
257.897 374 M
257.897 371.83 L
S
GR
GS
0.149 GC
2 setlinecap
1 LJ
0.5 LW
N
280.915 374 M
280.915 371.83 L
S
GR
GS
0.149 GC
2 setlinecap
1 LJ
0.5 LW
N
292.424 374 M
292.424 371.83 L
S
GR
GS
0.149 GC
2 setlinecap
1 LJ
0.5 LW
N
303.933 374 M
303.933 371.83 L
S
GR
GS
0.149 GC
2 setlinecap
1 LJ
0.5 LW
N
315.442 374 M
315.442 371.83 L
S
GR
GS
0.149 GC
2 setlinecap
1 LJ
0.5 LW
N
338.46 374 M
338.46 371.83 L
S
GR
GS
0.149 GC
2 setlinecap
1 LJ
0.5 LW
N
349.969 374 M
349.969 371.83 L
S
GR
GS
0.149 GC
2 setlinecap
1 LJ
0.5 LW
N
361.479 374 M
361.479 371.83 L
S
GR
GS
0.149 GC
2 setlinecap
1 LJ
0.5 LW
N
372.988 374 M
372.988 371.83 L
S
GR
GS
0.149 GC
2 setlinecap
1 LJ
0.5 LW
N
396.006 374 M
396.006 371.83 L
S
GR
GS
0.149 GC
2 setlinecap
1 LJ
0.5 LW
N
407.515 374 M
407.515 371.83 L
S
GR
GS
0.149 GC
2 setlinecap
1 LJ
0.5 LW
N
419.024 374 M
419.024 371.83 L
S
GR
GS
0.149 GC
2 setlinecap
1 LJ
0.5 LW
N
430.533 374 M
430.533 371.83 L
S
GR
GS
0.149 GC
2 setlinecap
1 LJ
0.5 LW
N
453.551 374 M
453.551 371.83 L
S
GR
GS
0.149 GC
2 setlinecap
1 LJ
0.5 LW
N
465.06 374 M
465.06 371.83 L
S
GR
GS
0.149 GC
2 setlinecap
1 LJ
0.5 LW
N
476.57 374 M
476.57 371.83 L
S
GR
GS
0.149 GC
2 setlinecap
1 LJ
0.5 LW
N
488.079 374 M
488.079 371.83 L
S
GR
GS
0.149 GC
2 setlinecap
1 LJ
0.5 LW
N
73.751 31.5 M
73.751 33.67 L
S
GR
GS
0.149 GC
2 setlinecap
1 LJ
0.5 LW
N
85.26 31.5 M
85.26 33.67 L
S
GR
GS
0.149 GC
2 setlinecap
1 LJ
0.5 LW
N
108.278 31.5 M
108.278 33.67 L
S
GR
GS
0.149 GC
2 setlinecap
1 LJ
0.5 LW
N
119.787 31.5 M
119.787 33.67 L
S
GR
GS
0.149 GC
2 setlinecap
1 LJ
0.5 LW
N
131.297 31.5 M
131.297 33.67 L
S
GR
GS
0.149 GC
2 setlinecap
1 LJ
0.5 LW
N
142.806 31.5 M
142.806 33.67 L
S
GR
GS
0.149 GC
2 setlinecap
1 LJ
0.5 LW
N
165.824 31.5 M
165.824 33.67 L
S
GR
GS
0.149 GC
2 setlinecap
1 LJ
0.5 LW
N
177.333 31.5 M
177.333 33.67 L
S
GR
GS
0.149 GC
2 setlinecap
1 LJ
0.5 LW
N
188.842 31.5 M
188.842 33.67 L
S
GR
GS
0.149 GC
2 setlinecap
1 LJ
0.5 LW
N
200.351 31.5 M
200.351 33.67 L
S
GR
GS
0.149 GC
2 setlinecap
1 LJ
0.5 LW
N
223.369 31.5 M
223.369 33.67 L
S
GR
GS
0.149 GC
2 setlinecap
1 LJ
0.5 LW
N
234.878 31.5 M
234.878 33.67 L
S
GR
GS
0.149 GC
2 setlinecap
1 LJ
0.5 LW
N
246.388 31.5 M
246.388 33.67 L
S
GR
GS
0.149 GC
2 setlinecap
1 LJ
0.5 LW
N
257.897 31.5 M
257.897 33.67 L
S
GR
GS
0.149 GC
2 setlinecap
1 LJ
0.5 LW
N
280.915 31.5 M
280.915 33.67 L
S
GR
GS
0.149 GC
2 setlinecap
1 LJ
0.5 LW
N
292.424 31.5 M
292.424 33.67 L
S
GR
GS
0.149 GC
2 setlinecap
1 LJ
0.5 LW
N
303.933 31.5 M
303.933 33.67 L
S
GR
GS
0.149 GC
2 setlinecap
1 LJ
0.5 LW
N
315.442 31.5 M
315.442 33.67 L
S
GR
GS
0.149 GC
2 setlinecap
1 LJ
0.5 LW
N
338.46 31.5 M
338.46 33.67 L
S
GR
GS
0.149 GC
2 setlinecap
1 LJ
0.5 LW
N
349.969 31.5 M
349.969 33.67 L
S
GR
GS
0.149 GC
2 setlinecap
1 LJ
0.5 LW
N
361.479 31.5 M
361.479 33.67 L
S
GR
GS
0.149 GC
2 setlinecap
1 LJ
0.5 LW
N
372.988 31.5 M
372.988 33.67 L
S
GR
GS
0.149 GC
2 setlinecap
1 LJ
0.5 LW
N
396.006 31.5 M
396.006 33.67 L
S
GR
GS
0.149 GC
2 setlinecap
1 LJ
0.5 LW
N
407.515 31.5 M
407.515 33.67 L
S
GR
GS
0.149 GC
2 setlinecap
1 LJ
0.5 LW
N
419.024 31.5 M
419.024 33.67 L
S
GR
GS
0.149 GC
2 setlinecap
1 LJ
0.5 LW
N
430.533 31.5 M
430.533 33.67 L
S
GR
GS
0.149 GC
2 setlinecap
1 LJ
0.5 LW
N
453.551 31.5 M
453.551 33.67 L
S
GR
GS
0.149 GC
2 setlinecap
1 LJ
0.5 LW
N
465.06 31.5 M
465.06 33.67 L
S
GR
GS
0.149 GC
2 setlinecap
1 LJ
0.5 LW
N
476.57 31.5 M
476.57 33.67 L
S
GR
GS
0.149 GC
2 setlinecap
1 LJ
0.5 LW
N
488.079 31.5 M
488.079 33.67 L
S
GR
GS
[1 0 0 1 96.76929 378.80011] CT
0.149 GC
/Helvetica 14 F
GS
[1 0 0 1 0 0] CT
-16 14 moveto 
1 -1 scale
(1000) t 
GR
GR
GS
[1 0 0 1 154.31479 378.80011] CT
0.149 GC
/Helvetica 14 F
GS
[1 0 0 1 0 0] CT
-16 14 moveto 
1 -1 scale
(2000) t 
GR
GR
GS
[1 0 0 1 211.86029 378.80011] CT
0.149 GC
/Helvetica 14 F
GS
[1 0 0 1 0 0] CT
-16 14 moveto 
1 -1 scale
(3000) t 
GR
GR
GS
[1 0 0 1 269.40579 378.80011] CT
0.149 GC
/Helvetica 14 F
GS
[1 0 0 1 0 0] CT
-16 14 moveto 
1 -1 scale
(4000) t 
GR
GR
GS
[1 0 0 1 326.95129 378.80011] CT
0.149 GC
/Helvetica 14 F
GS
[1 0 0 1 0 0] CT
-16 14 moveto 
1 -1 scale
(5000) t 
GR
GR
GS
[1 0 0 1 384.4968 378.80011] CT
0.149 GC
/Helvetica 14 F
GS
[1 0 0 1 0 0] CT
-16 14 moveto 
1 -1 scale
(6000) t 
GR
GR
GS
[1 0 0 1 442.04227 378.80011] CT
0.149 GC
/Helvetica 14 F
GS
[1 0 0 1 0 0] CT
-16 14 moveto 
1 -1 scale
(7000) t 
GR
GR
GS
[1 0 0 1 499.58777 378.80011] CT
0.149 GC
/Helvetica 14 F
GS
[1 0 0 1 0 0] CT
-16 14 moveto 
1 -1 scale
(8000) t 
GR
GR
GS
[1 0 0 1 290.00018 396.30008] CT
0.149 GC
/Helvetica 15.4 F
GS
[1 0 0 1 0 0] CT
-42 15 moveto 
1 -1 scale
(Bitrate\(kb/s\)) t 
GR
GR
GS
0.149 GC
2 setlinecap
1 LJ
0.5 LW
N
73 374 M
73 31.5 L
S
GR
GS
0.149 GC
2 setlinecap
1 LJ
0.5 LW
N
507 374 M
507 31.5 L
S
GR
GS
0.149 GC
2 setlinecap
1 LJ
0.5 LW
N
73 328.109 M
77.34 328.109 L
S
GR
GS
0.149 GC
2 setlinecap
1 LJ
0.5 LW
N
73 269.429 M
77.34 269.429 L
S
GR
GS
0.149 GC
2 setlinecap
1 LJ
0.5 LW
N
73 210.749 M
77.34 210.749 L
S
GR
GS
0.149 GC
2 setlinecap
1 LJ
0.5 LW
N
73 152.069 M
77.34 152.069 L
S
GR
GS
0.149 GC
2 setlinecap
1 LJ
0.5 LW
N
73 93.389 M
77.34 93.389 L
S
GR
GS
0.149 GC
2 setlinecap
1 LJ
0.5 LW
N
73 34.709 M
77.34 34.709 L
S
GR
GS
0.149 GC
2 setlinecap
1 LJ
0.5 LW
N
507 328.109 M
502.66 328.109 L
S
GR
GS
0.149 GC
2 setlinecap
1 LJ
0.5 LW
N
507 269.429 M
502.66 269.429 L
S
GR
GS
0.149 GC
2 setlinecap
1 LJ
0.5 LW
N
507 210.749 M
502.66 210.749 L
S
GR
GS
0.149 GC
2 setlinecap
1 LJ
0.5 LW
N
507 152.069 M
502.66 152.069 L
S
GR
GS
0.149 GC
2 setlinecap
1 LJ
0.5 LW
N
507 93.389 M
502.66 93.389 L
S
GR
GS
0.149 GC
2 setlinecap
1 LJ
0.5 LW
N
507 34.709 M
502.66 34.709 L
S
GR
GS
0.149 GC
2 setlinecap
1 LJ
0.5 LW
N
73 372.119 M
75.17 372.119 L
S
GR
GS
0.149 GC
2 setlinecap
1 LJ
0.5 LW
N
73 357.449 M
75.17 357.449 L
S
GR
GS
0.149 GC
2 setlinecap
1 LJ
0.5 LW
N
73 342.779 M
75.17 342.779 L
S
GR
GS
0.149 GC
2 setlinecap
1 LJ
0.5 LW
N
73 313.439 M
75.17 313.439 L
S
GR
GS
0.149 GC
2 setlinecap
1 LJ
0.5 LW
N
73 298.769 M
75.17 298.769 L
S
GR
GS
0.149 GC
2 setlinecap
1 LJ
0.5 LW
N
73 284.099 M
75.17 284.099 L
S
GR
GS
0.149 GC
2 setlinecap
1 LJ
0.5 LW
N
73 254.759 M
75.17 254.759 L
S
GR
GS
0.149 GC
2 setlinecap
1 LJ
0.5 LW
N
73 240.089 M
75.17 240.089 L
S
GR
GS
0.149 GC
2 setlinecap
1 LJ
0.5 LW
N
73 225.419 M
75.17 225.419 L
S
GR
GS
0.149 GC
2 setlinecap
1 LJ
0.5 LW
N
73 196.079 M
75.17 196.079 L
S
GR
GS
0.149 GC
2 setlinecap
1 LJ
0.5 LW
N
73 181.409 M
75.17 181.409 L
S
GR
GS
0.149 GC
2 setlinecap
1 LJ
0.5 LW
N
73 166.739 M
75.17 166.739 L
S
GR
GS
0.149 GC
2 setlinecap
1 LJ
0.5 LW
N
73 137.399 M
75.17 137.399 L
S
GR
GS
0.149 GC
2 setlinecap
1 LJ
0.5 LW
N
73 122.729 M
75.17 122.729 L
S
GR
GS
0.149 GC
2 setlinecap
1 LJ
0.5 LW
N
73 108.059 M
75.17 108.059 L
S
GR
GS
0.149 GC
2 setlinecap
1 LJ
0.5 LW
N
73 78.719 M
75.17 78.719 L
S
GR
GS
0.149 GC
2 setlinecap
1 LJ
0.5 LW
N
73 64.049 M
75.17 64.049 L
S
GR
GS
0.149 GC
2 setlinecap
1 LJ
0.5 LW
N
73 49.379 M
75.17 49.379 L
S
GR
GS
0.149 GC
2 setlinecap
1 LJ
0.5 LW
N
507 372.119 M
504.83 372.119 L
S
GR
GS
0.149 GC
2 setlinecap
1 LJ
0.5 LW
N
507 357.449 M
504.83 357.449 L
S
GR
GS
0.149 GC
2 setlinecap
1 LJ
0.5 LW
N
507 342.779 M
504.83 342.779 L
S
GR
GS
0.149 GC
2 setlinecap
1 LJ
0.5 LW
N
507 313.439 M
504.83 313.439 L
S
GR
GS
0.149 GC
2 setlinecap
1 LJ
0.5 LW
N
507 298.769 M
504.83 298.769 L
S
GR
GS
0.149 GC
2 setlinecap
1 LJ
0.5 LW
N
507 284.099 M
504.83 284.099 L
S
GR
GS
0.149 GC
2 setlinecap
1 LJ
0.5 LW
N
507 254.759 M
504.83 254.759 L
S
GR
GS
0.149 GC
2 setlinecap
1 LJ
0.5 LW
N
507 240.089 M
504.83 240.089 L
S
GR
GS
0.149 GC
2 setlinecap
1 LJ
0.5 LW
N
507 225.419 M
504.83 225.419 L
S
GR
GS
0.149 GC
2 setlinecap
1 LJ
0.5 LW
N
507 196.079 M
504.83 196.079 L
S
GR
GS
0.149 GC
2 setlinecap
1 LJ
0.5 LW
N
507 181.409 M
504.83 181.409 L
S
GR
GS
0.149 GC
2 setlinecap
1 LJ
0.5 LW
N
507 166.739 M
504.83 166.739 L
S
GR
GS
0.149 GC
2 setlinecap
1 LJ
0.5 LW
N
507 137.399 M
504.83 137.399 L
S
GR
GS
0.149 GC
2 setlinecap
1 LJ
0.5 LW
N
507 122.729 M
504.83 122.729 L
S
GR
GS
0.149 GC
2 setlinecap
1 LJ
0.5 LW
N
507 108.059 M
504.83 108.059 L
S
GR
GS
0.149 GC
2 setlinecap
1 LJ
0.5 LW
N
507 78.719 M
504.83 78.719 L
S
GR
GS
0.149 GC
2 setlinecap
1 LJ
0.5 LW
N
507 64.049 M
504.83 64.049 L
S
GR
GS
0.149 GC
2 setlinecap
1 LJ
0.5 LW
N
507 49.379 M
504.83 49.379 L
S
GR
GS
[1 0 0 1 68.2 328.1091] CT
0.149 GC
/Helvetica 14 F
GS
[1 0 0 1 0 0] CT
-16 5.5 moveto 
1 -1 scale
(34) t 
GR
GR
GS
[1 0 0 1 68.2 269.42914] CT
0.149 GC
/Helvetica 14 F
GS
[1 0 0 1 0 0] CT
-16 5.5 moveto 
1 -1 scale
(36) t 
GR
GR
GS
[1 0 0 1 68.2 210.74918] CT
0.149 GC
/Helvetica 14 F
GS
[1 0 0 1 0 0] CT
-16 5.5 moveto 
1 -1 scale
(38) t 
GR
GR
GS
[1 0 0 1 68.2 152.06921] CT
0.149 GC
/Helvetica 14 F
GS
[1 0 0 1 0 0] CT
-16 5.5 moveto 
1 -1 scale
(40) t 
GR
GR
GS
[1 0 0 1 68.2 93.38926] CT
0.149 GC
/Helvetica 14 F
GS
[1 0 0 1 0 0] CT
-16 5.5 moveto 
1 -1 scale
(42) t 
GR
GR
GS
[1 0 0 1 68.2 34.70929] CT
0.149 GC
/Helvetica 14 F
GS
[1 0 0 1 0 0] CT
-16 5.5 moveto 
1 -1 scale
(44) t 
GR
GR
GS
[0 -1 1 0 49.2 202.74992] CT
0.149 GC
/Helvetica 15.4 F
GS
[1 0 0 1 0 0] CT
-47 -4 moveto 
1 -1 scale
(APSNR Y\(dB\)) t 
GR
GR
GS
[1 0 0 1 290.00027 29.57504] CT
/Helvetica-Bold 15.4 F
GS
[1 0 0 1 0 0] CT
-101.5 -4 moveto 
1 -1 scale
(Vlog_1080P-58ad.y4m-hevc) t 
GR
GR
GS
0 0.447 0.741 RC
1 LJ
0.5 LW
N
74.474 372.731 M
75.625 369.019 L
76.776 365.323 L
77.927 361.647 L
79.077 357.994 L
80.228 354.366 L
81.379 350.766 L
82.53 347.198 L
83.681 343.664 L
84.832 340.166 L
85.983 336.708 L
87.134 333.293 L
88.285 329.922 L
89.436 326.6 L
90.587 323.329 L
91.738 320.111 L
92.888 316.949 L
94.039 313.847 L
95.19 310.807 L
96.341 307.832 L
97.492 304.925 L
98.643 302.089 L
99.794 299.325 L
100.945 296.638 L
102.096 294.03 L
103.247 291.504 L
104.398 289.062 L
105.548 286.685 L
106.699 284.333 L
107.85 282.008 L
109.001 279.708 L
110.152 277.435 L
111.303 275.187 L
112.454 272.965 L
113.605 270.769 L
114.756 268.598 L
115.907 266.452 L
117.058 264.331 L
118.208 262.236 L
119.359 260.166 L
120.51 258.12 L
121.661 256.1 L
122.812 254.104 L
123.963 252.133 L
125.114 250.186 L
126.265 248.264 L
127.416 246.366 L
128.567 244.492 L
129.718 242.642 L
130.868 240.817 L
132.019 239.015 L
133.17 237.237 L
134.321 235.483 L
135.472 233.753 L
136.623 232.045 L
137.774 230.362 L
138.925 228.701 L
140.076 227.064 L
141.227 225.45 L
142.378 223.859 L
143.528 222.29 L
144.679 220.745 L
145.83 219.222 L
146.981 217.722 L
148.132 216.244 L
149.283 214.789 L
150.434 213.356 L
151.585 211.945 L
152.736 210.556 L
153.887 209.189 L
155.038 207.844 L
156.188 206.52 L
157.339 205.218 L
158.49 203.927 L
159.641 202.645 L
160.792 201.371 L
161.943 200.105 L
163.094 198.848 L
164.245 197.599 L
165.396 196.359 L
166.547 195.127 L
167.698 193.903 L
168.848 192.688 L
169.999 191.481 L
171.15 190.283 L
172.301 189.092 L
173.452 187.911 L
174.603 186.737 L
175.754 185.572 L
176.905 184.415 L
178.056 183.266 L
179.207 182.126 L
180.358 180.994 L
181.508 179.87 L
182.659 178.754 L
183.81 177.647 L
184.961 176.548 L
186.112 175.457 L
187.263 174.374 L
188.414 173.3 L
189.565 172.234 L
190.716 171.176 L
191.867 170.126 L
193.018 169.084 L
194.168 168.051 L
195.319 167.025 L
196.47 166.008 L
197.621 164.999 L
198.772 163.998 L
199.923 163.005 L
201.074 162.021 L
202.225 161.044 L
203.376 160.076 L
204.527 159.115 L
205.678 158.163 L
206.829 157.219 L
207.979 156.283 L
209.13 155.355 L
210.281 154.435 L
211.432 153.523 L
212.583 152.619 L
213.734 151.723 L
214.885 150.835 L
216.036 149.955 L
217.187 149.084 L
218.338 148.22 L
219.489 147.364 L
220.639 146.516 L
221.79 145.676 L
222.941 144.844 L
224.092 144.02 L
225.243 143.204 L
226.394 142.396 L
227.545 141.595 L
228.696 140.803 L
229.847 140.019 L
230.998 139.242 L
232.149 138.473 L
233.299 137.713 L
234.45 136.96 L
235.601 136.215 L
236.752 135.478 L
237.903 134.748 L
239.054 134.027 L
240.205 133.313 L
241.356 132.607 L
242.507 131.909 L
243.658 131.219 L
244.809 130.536 L
245.959 129.862 L
247.11 129.195 L
248.261 128.536 L
249.412 127.884 L
250.563 127.241 L
251.714 126.604 L
252.865 125.969 L
254.016 125.335 L
255.167 124.7 L
256.318 124.066 L
257.469 123.432 L
258.619 122.799 L
259.77 122.166 L
260.921 121.533 L
262.072 120.9 L
263.223 120.268 L
264.374 119.637 L
265.525 119.005 L
266.676 118.375 L
267.827 117.745 L
268.978 117.115 L
270.129 116.486 L
271.279 115.857 L
272.43 115.229 L
273.581 114.602 L
274.732 113.976 L
275.883 113.35 L
277.034 112.724 L
278.185 112.1 L
279.336 111.476 L
280.487 110.853 L
281.638 110.231 L
282.789 109.609 L
283.939 108.989 L
285.09 108.369 L
286.241 107.75 L
287.392 107.132 L
288.543 106.515 L
289.694 105.899 L
290.845 105.284 L
291.996 104.67 L
293.147 104.057 L
294.298 103.445 L
295.449 102.834 L
296.599 102.225 L
297.75 101.616 L
298.901 101.009 L
300.052 100.402 L
301.203 99.797 L
302.354 99.193 L
303.505 98.591 L
304.656 97.99 L
305.807 97.39 L
306.958 96.791 L
308.109 96.194 L
309.259 95.598 L
310.41 95.003 L
311.561 94.41 L
312.712 93.818 L
313.863 93.228 L
315.014 92.639 L
316.165 92.052 L
317.316 91.466 L
318.467 90.882 L
319.618 90.3 L
320.769 89.719 L
321.919 89.14 L
323.07 88.562 L
324.221 87.986 L
325.372 87.412 L
326.523 86.839 L
327.674 86.268 L
328.825 85.7 L
329.976 85.132 L
331.127 84.567 L
332.278 84.004 L
333.429 83.442 L
334.579 82.882 L
335.73 82.325 L
336.881 81.769 L
338.032 81.215 L
339.183 80.663 L
340.334 80.113 L
341.485 79.566 L
342.636 79.02 L
343.787 78.476 L
344.938 77.935 L
346.089 77.395 L
347.24 76.858 L
348.39 76.323 L
349.541 75.79 L
350.692 75.26 L
351.843 74.732 L
352.994 74.206 L
354.145 73.682 L
355.296 73.161 L
356.447 72.642 L
357.598 72.125 L
358.749 71.611 L
359.9 71.099 L
361.05 70.59 L
362.201 70.083 L
363.352 69.579 L
364.503 69.077 L
365.654 68.578 L
366.805 68.081 L
367.956 67.587 L
369.107 67.095 L
370.258 66.607 L
371.409 66.121 L
372.56 65.637 L
373.71 65.156 L
374.861 64.679 L
376.012 64.203 L
377.163 63.731 L
378.314 63.261 L
379.465 62.795 L
380.616 62.331 L
381.767 61.87 L
382.918 61.412 L
384.069 60.957 L
385.22 60.504 L
386.37 60.055 L
387.521 59.609 L
388.672 59.166 L
389.823 58.726 L
390.974 58.289 L
392.125 57.855 L
393.276 57.424 L
394.427 56.996 L
395.578 56.572 L
396.729 56.151 L
397.88 55.733 L
399.03 55.318 L
400.181 54.906 L
401.332 54.498 L
402.483 54.093 L
403.634 53.692 L
404.785 53.294 L
405.936 52.899 L
407.087 52.508 L
408.238 52.12 L
409.389 51.735 L
410.54 51.354 L
411.69 50.977 L
412.841 50.603 L
413.992 50.233 L
415.143 49.866 L
416.294 49.503 L
417.445 49.143 L
418.596 48.788 L
419.747 48.435 L
420.898 48.087 L
422.049 47.742 L
423.2 47.401 L
424.35 47.064 L
425.501 46.731 L
426.652 46.401 L
427.803 46.076 L
428.954 45.754 L
430.105 45.436 L
431.256 45.122 L
432.407 44.812 L
433.558 44.506 L
434.709 44.204 L
435.86 43.906 L
437.01 43.612 L
438.161 43.322 L
439.312 43.036 L
440.463 42.754 L
441.614 42.477 L
442.765 42.203 L
443.916 41.934 L
445.067 41.669 L
446.218 41.408 L
447.369 41.152 L
448.52 40.899 L
449.671 40.652 L
450.821 40.408 L
451.972 40.169 L
453.123 39.934 L
454.274 39.703 L
455.425 39.477 L
456.576 39.256 L
457.727 39.039 L
458.878 38.826 L
460.029 38.618 L
461.18 38.415 L
462.331 38.216 L
463.481 38.021 L
464.632 37.832 L
465.783 37.647 L
466.934 37.466 L
468.085 37.291 L
469.236 37.12 L
470.387 36.953 L
471.538 36.792 L
472.689 36.635 L
473.84 36.483 L
474.991 36.336 L
476.141 36.194 L
477.292 36.057 L
478.443 35.925 L
479.594 35.797 L
480.745 35.675 L
481.896 35.557 L
483.047 35.445 L
484.198 35.337 L
485.349 35.235 L
486.5 35.138 L
487.651 35.045 L
488.801 34.958 L
489.952 34.877 L
491.103 34.8 L
492.254 34.728 L
493.405 34.662 L
494.556 34.601 L
S
GR
GS
0.851 0.325 0.098 RC
1 LJ
0.5 LW
N
74.212 373.697 M
75.363 369.947 L
76.514 366.215 L
77.664 362.503 L
78.815 358.813 L
79.966 355.15 L
81.117 351.515 L
82.268 347.913 L
83.419 344.345 L
84.57 340.815 L
85.721 337.325 L
86.872 333.879 L
88.023 330.48 L
89.174 327.13 L
90.324 323.832 L
91.475 320.59 L
92.626 317.406 L
93.777 314.283 L
94.928 311.225 L
96.079 308.233 L
97.23 305.311 L
98.381 302.463 L
99.532 299.69 L
100.683 296.996 L
101.834 294.384 L
102.984 291.856 L
104.135 289.416 L
105.286 287.03 L
106.437 284.672 L
107.588 282.34 L
108.739 280.035 L
109.89 277.757 L
111.041 275.505 L
112.192 273.28 L
113.343 271.08 L
114.494 268.907 L
115.644 266.76 L
116.795 264.639 L
117.946 262.543 L
119.097 260.473 L
120.248 258.428 L
121.399 256.409 L
122.55 254.414 L
123.701 252.445 L
124.852 250.501 L
126.003 248.581 L
127.154 246.686 L
128.304 244.815 L
129.455 242.969 L
130.606 241.146 L
131.757 239.348 L
132.908 237.574 L
134.059 235.823 L
135.21 234.096 L
136.361 232.393 L
137.512 230.713 L
138.663 229.056 L
139.814 227.422 L
140.964 225.811 L
142.115 224.223 L
143.266 222.658 L
144.417 221.115 L
145.568 219.594 L
146.719 218.096 L
147.87 216.62 L
149.021 215.165 L
150.172 213.733 L
151.323 212.322 L
152.474 210.933 L
153.624 209.566 L
154.775 208.219 L
155.926 206.894 L
157.077 205.587 L
158.228 204.29 L
159.379 203.001 L
160.53 201.72 L
161.681 200.448 L
162.832 199.184 L
163.983 197.928 L
165.134 196.681 L
166.285 195.442 L
167.435 194.211 L
168.586 192.989 L
169.737 191.775 L
170.888 190.569 L
172.039 189.372 L
173.19 188.183 L
174.341 187.002 L
175.492 185.83 L
176.643 184.666 L
177.794 183.51 L
178.945 182.362 L
180.095 181.223 L
181.246 180.092 L
182.397 178.969 L
183.548 177.855 L
184.699 176.749 L
185.85 175.651 L
187.001 174.561 L
188.152 173.48 L
189.303 172.407 L
190.454 171.342 L
191.605 170.285 L
192.755 169.237 L
193.906 168.197 L
195.057 167.165 L
196.208 166.141 L
197.359 165.126 L
198.51 164.118 L
199.661 163.119 L
200.812 162.128 L
201.963 161.146 L
203.114 160.171 L
204.265 159.205 L
205.415 158.247 L
206.566 157.297 L
207.717 156.355 L
208.868 155.422 L
210.019 154.496 L
211.17 153.579 L
212.321 152.67 L
213.472 151.769 L
214.623 150.877 L
215.774 149.992 L
216.925 149.116 L
218.075 148.248 L
219.226 147.387 L
220.377 146.536 L
221.528 145.692 L
222.679 144.856 L
223.83 144.028 L
224.981 143.209 L
226.132 142.398 L
227.283 141.594 L
228.434 140.799 L
229.585 140.012 L
230.735 139.233 L
231.886 138.462 L
233.037 137.7 L
234.188 136.945 L
235.339 136.199 L
236.49 135.46 L
237.641 134.73 L
238.792 134.007 L
239.943 133.293 L
241.094 132.587 L
242.245 131.888 L
243.395 131.198 L
244.546 130.516 L
245.697 129.842 L
246.848 129.176 L
247.999 128.518 L
249.15 127.868 L
250.301 127.226 L
251.452 126.586 L
252.603 125.946 L
253.754 125.307 L
254.905 124.668 L
256.055 124.029 L
257.206 123.39 L
258.357 122.752 L
259.508 122.114 L
260.659 121.476 L
261.81 120.839 L
262.961 120.202 L
264.112 119.566 L
265.263 118.93 L
266.414 118.295 L
267.565 117.66 L
268.715 117.026 L
269.866 116.393 L
271.017 115.76 L
272.168 115.127 L
273.319 114.496 L
274.47 113.865 L
275.621 113.234 L
276.772 112.605 L
277.923 111.976 L
279.074 111.348 L
280.225 110.721 L
281.376 110.094 L
282.526 109.469 L
283.677 108.844 L
284.828 108.22 L
285.979 107.598 L
287.13 106.976 L
288.281 106.355 L
289.432 105.735 L
290.583 105.116 L
291.734 104.498 L
292.885 103.882 L
294.036 103.266 L
295.186 102.652 L
296.337 102.038 L
297.488 101.426 L
298.639 100.815 L
299.79 100.205 L
300.941 99.597 L
302.092 98.99 L
303.243 98.384 L
304.394 97.779 L
305.545 97.176 L
306.696 96.574 L
307.846 95.974 L
308.997 95.375 L
310.148 94.778 L
311.299 94.182 L
312.45 93.587 L
313.601 92.994 L
314.752 92.403 L
315.903 91.813 L
317.054 91.224 L
318.205 90.638 L
319.356 90.053 L
320.506 89.469 L
321.657 88.888 L
322.808 88.308 L
323.959 87.73 L
325.11 87.153 L
326.261 86.579 L
327.412 86.006 L
328.563 85.435 L
329.714 84.866 L
330.865 84.299 L
332.016 83.734 L
333.166 83.171 L
334.317 82.609 L
335.468 82.05 L
336.619 81.493 L
337.77 80.937 L
338.921 80.384 L
340.072 79.833 L
341.223 79.284 L
342.374 78.738 L
343.525 78.193 L
344.676 77.651 L
345.826 77.111 L
346.977 76.573 L
348.128 76.037 L
349.279 75.504 L
350.43 74.973 L
351.581 74.444 L
352.732 73.918 L
353.883 73.394 L
355.034 72.872 L
356.185 72.353 L
357.336 71.837 L
358.486 71.322 L
359.637 70.811 L
360.788 70.302 L
361.939 69.796 L
363.09 69.292 L
364.241 68.79 L
365.392 68.292 L
366.543 67.796 L
367.694 67.303 L
368.845 66.812 L
369.996 66.324 L
371.146 65.839 L
372.297 65.357 L
373.448 64.878 L
374.599 64.401 L
375.75 63.928 L
376.901 63.457 L
378.052 62.989 L
379.203 62.524 L
380.354 62.062 L
381.505 61.603 L
382.656 61.147 L
383.806 60.694 L
384.957 60.245 L
386.108 59.798 L
387.259 59.354 L
388.41 58.914 L
389.561 58.476 L
390.712 58.042 L
391.863 57.611 L
393.014 57.184 L
394.165 56.759 L
395.316 56.338 L
396.466 55.92 L
397.617 55.506 L
398.768 55.095 L
399.919 54.687 L
401.07 54.283 L
402.221 53.882 L
403.372 53.485 L
404.523 53.091 L
405.674 52.7 L
406.825 52.314 L
407.976 51.93 L
409.126 51.551 L
410.277 51.175 L
411.428 50.802 L
412.579 50.433 L
413.73 50.068 L
414.881 49.707 L
416.032 49.349 L
417.183 48.995 L
418.334 48.645 L
419.485 48.299 L
420.636 47.957 L
421.787 47.618 L
422.937 47.283 L
424.088 46.952 L
425.239 46.626 L
426.39 46.303 L
427.541 45.984 L
428.692 45.669 L
429.843 45.358 L
430.994 45.051 L
432.145 44.749 L
433.296 44.45 L
434.447 44.155 L
435.597 43.865 L
436.748 43.579 L
437.899 43.297 L
439.05 43.019 L
440.201 42.746 L
441.352 42.477 L
442.503 42.212 L
443.654 41.952 L
444.805 41.695 L
445.956 41.444 L
447.107 41.196 L
448.257 40.953 L
449.408 40.715 L
450.559 40.481 L
451.71 40.252 L
452.861 40.027 L
454.012 39.806 L
455.163 39.59 L
456.314 39.379 L
457.465 39.173 L
458.616 38.971 L
459.767 38.773 L
460.917 38.581 L
462.068 38.393 L
463.219 38.21 L
464.37 38.032 L
465.521 37.858 L
466.672 37.69 L
467.823 37.526 L
468.974 37.367 L
470.125 37.213 L
471.276 37.064 L
472.427 36.92 L
473.577 36.781 L
474.728 36.647 L
475.879 36.518 L
477.03 36.394 L
478.181 36.275 L
479.332 36.161 L
480.483 36.052 L
481.634 35.949 L
482.785 35.85 L
483.936 35.757 L
485.087 35.669 L
486.237 35.586 L
487.388 35.509 L
488.539 35.437 L
489.69 35.37 L
490.841 35.308 L
S
GR
GS
0.929 0.694 0.125 RC
1 LJ
0.5 LW
N
73 374 M
74.151 370.173 L
75.302 366.366 L
76.453 362.579 L
77.604 358.818 L
78.755 355.084 L
79.905 351.381 L
81.056 347.711 L
82.207 344.078 L
83.358 340.485 L
84.509 336.933 L
85.66 333.428 L
86.811 329.97 L
87.962 326.564 L
89.113 323.212 L
90.264 319.918 L
91.415 316.683 L
92.565 313.512 L
93.716 310.407 L
94.867 307.371 L
96.018 304.407 L
97.169 301.518 L
98.32 298.706 L
99.471 295.976 L
100.622 293.33 L
101.773 290.77 L
102.924 288.288 L
104.075 285.839 L
105.225 283.417 L
106.376 281.022 L
107.527 278.655 L
108.678 276.314 L
109.829 274.001 L
110.98 271.716 L
112.131 269.457 L
113.282 267.224 L
114.433 265.019 L
115.584 262.841 L
116.735 260.688 L
117.885 258.563 L
119.036 256.464 L
120.187 254.391 L
121.338 252.344 L
122.489 250.323 L
123.64 248.328 L
124.791 246.36 L
125.942 244.417 L
127.093 242.499 L
128.244 240.608 L
129.395 238.742 L
130.546 236.901 L
131.696 235.086 L
132.847 233.295 L
133.998 231.53 L
135.149 229.79 L
136.3 228.075 L
137.451 226.385 L
138.602 224.719 L
139.753 223.079 L
140.904 221.462 L
142.055 219.87 L
143.206 218.303 L
144.356 216.76 L
145.507 215.241 L
146.658 213.746 L
147.809 212.275 L
148.96 210.828 L
150.111 209.404 L
151.262 208.005 L
152.413 206.629 L
153.564 205.269 L
154.715 203.919 L
155.866 202.577 L
157.016 201.245 L
158.167 199.921 L
159.318 198.606 L
160.469 197.3 L
161.62 196.003 L
162.771 194.714 L
163.922 193.435 L
165.073 192.164 L
166.224 190.903 L
167.375 189.65 L
168.526 188.407 L
169.676 187.172 L
170.827 185.946 L
171.978 184.729 L
173.129 183.521 L
174.28 182.322 L
175.431 181.132 L
176.582 179.951 L
177.733 178.779 L
178.884 177.616 L
180.035 176.462 L
181.186 175.317 L
182.336 174.18 L
183.487 173.053 L
184.638 171.935 L
185.789 170.826 L
186.94 169.725 L
188.091 168.634 L
189.242 167.552 L
190.393 166.479 L
191.544 165.414 L
192.695 164.359 L
193.846 163.313 L
194.996 162.276 L
196.147 161.248 L
197.298 160.228 L
198.449 159.218 L
199.6 158.217 L
200.751 157.225 L
201.902 156.242 L
203.053 155.269 L
204.204 154.304 L
205.355 153.348 L
206.506 152.401 L
207.656 151.464 L
208.807 150.535 L
209.958 149.616 L
211.109 148.705 L
212.26 147.804 L
213.411 146.912 L
214.562 146.029 L
215.713 145.155 L
216.864 144.29 L
218.015 143.434 L
219.166 142.588 L
220.316 141.75 L
221.467 140.922 L
222.618 140.102 L
223.769 139.292 L
224.92 138.491 L
226.071 137.699 L
227.222 136.917 L
228.373 136.143 L
229.524 135.379 L
230.675 134.623 L
231.826 133.877 L
232.976 133.14 L
234.127 132.413 L
235.278 131.694 L
236.429 130.985 L
237.58 130.285 L
238.731 129.593 L
239.882 128.912 L
241.033 128.239 L
242.184 127.575 L
243.335 126.914 L
244.486 126.252 L
245.636 125.591 L
246.787 124.93 L
247.938 124.269 L
249.089 123.609 L
250.24 122.948 L
251.391 122.289 L
252.542 121.629 L
253.693 120.97 L
254.844 120.311 L
255.995 119.653 L
257.146 118.996 L
258.297 118.338 L
259.447 117.682 L
260.598 117.026 L
261.749 116.37 L
262.9 115.716 L
264.051 115.061 L
265.202 114.408 L
266.353 113.755 L
267.504 113.103 L
268.655 112.452 L
269.806 111.802 L
270.957 111.152 L
272.107 110.503 L
273.258 109.855 L
274.409 109.208 L
275.56 108.562 L
276.711 107.917 L
277.862 107.273 L
279.013 106.63 L
280.164 105.988 L
281.315 105.347 L
282.466 104.708 L
283.617 104.069 L
284.767 103.432 L
285.918 102.795 L
287.069 102.16 L
288.22 101.527 L
289.371 100.894 L
290.522 100.263 L
291.673 99.633 L
292.824 99.004 L
293.975 98.377 L
295.126 97.752 L
296.277 97.127 L
297.427 96.505 L
298.578 95.883 L
299.729 95.264 L
300.88 94.645 L
302.031 94.029 L
303.182 93.414 L
304.333 92.801 L
305.484 92.189 L
306.635 91.579 L
307.786 90.971 L
308.937 90.365 L
310.087 89.76 L
311.238 89.157 L
312.389 88.556 L
313.54 87.957 L
314.691 87.36 L
315.842 86.765 L
316.993 86.172 L
318.144 85.58 L
319.295 84.991 L
320.446 84.404 L
321.597 83.819 L
322.747 83.236 L
323.898 82.655 L
325.049 82.076 L
326.2 81.5 L
327.351 80.925 L
328.502 80.353 L
329.653 79.783 L
330.804 79.216 L
331.955 78.651 L
333.106 78.088 L
334.257 77.527 L
335.407 76.969 L
336.558 76.414 L
337.709 75.861 L
338.86 75.31 L
340.011 74.762 L
341.162 74.216 L
342.313 73.673 L
343.464 73.133 L
344.615 72.595 L
345.766 72.06 L
346.917 71.528 L
348.067 70.998 L
349.218 70.472 L
350.369 69.947 L
351.52 69.426 L
352.671 68.908 L
353.822 68.392 L
354.973 67.88 L
356.124 67.37 L
357.275 66.863 L
358.426 66.359 L
359.577 65.859 L
360.727 65.361 L
361.878 64.866 L
363.029 64.375 L
364.18 63.886 L
365.331 63.401 L
366.482 62.919 L
367.633 62.44 L
368.784 61.964 L
369.935 61.492 L
371.086 61.023 L
372.237 60.557 L
373.387 60.094 L
374.538 59.635 L
375.689 59.18 L
376.84 58.727 L
377.991 58.279 L
379.142 57.833 L
380.293 57.392 L
381.444 56.953 L
382.595 56.519 L
383.746 56.088 L
384.897 55.66 L
386.048 55.237 L
387.198 54.817 L
388.349 54.4 L
389.5 53.988 L
390.651 53.579 L
391.802 53.174 L
392.953 52.773 L
394.104 52.375 L
395.255 51.982 L
396.406 51.593 L
397.557 51.207 L
398.708 50.825 L
399.858 50.448 L
401.009 50.074 L
402.16 49.705 L
403.311 49.339 L
404.462 48.978 L
405.613 48.621 L
406.764 48.268 L
407.915 47.919 L
409.066 47.575 L
410.217 47.235 L
411.368 46.899 L
412.518 46.567 L
413.669 46.24 L
414.82 45.916 L
415.971 45.598 L
417.122 45.284 L
418.273 44.974 L
419.424 44.669 L
420.575 44.368 L
421.726 44.072 L
422.877 43.78 L
424.028 43.493 L
425.178 43.211 L
426.329 42.933 L
427.48 42.66 L
428.631 42.392 L
429.782 42.129 L
430.933 41.87 L
432.084 41.616 L
433.235 41.367 L
434.386 41.122 L
435.537 40.883 L
436.688 40.648 L
437.838 40.419 L
438.989 40.194 L
440.14 39.974 L
441.291 39.76 L
442.442 39.55 L
443.593 39.346 L
444.744 39.146 L
445.895 38.952 L
447.046 38.763 L
448.197 38.579 L
449.348 38.4 L
450.498 38.227 L
451.649 38.059 L
452.8 37.896 L
453.951 37.738 L
455.102 37.586 L
456.253 37.44 L
457.404 37.298 L
458.555 37.162 L
459.706 37.032 L
460.857 36.907 L
462.008 36.788 L
463.158 36.674 L
464.309 36.566 L
465.46 36.463 L
466.611 36.366 L
467.762 36.275 L
468.913 36.189 L
470.064 36.109 L
471.215 36.035 L
472.366 35.967 L
473.517 35.904 L
474.668 35.848 L
475.818 35.797 L
476.969 35.752 L
S
GR
GS
0.494 0.184 0.557 RC
1 LJ
0.5 LW
N
75.409 368.628 M
76.56 365.01 L
77.711 361.408 L
78.861 357.825 L
80.012 354.264 L
81.163 350.726 L
82.314 347.216 L
83.465 343.734 L
84.616 340.285 L
85.767 336.871 L
86.918 333.494 L
88.069 330.157 L
89.22 326.862 L
90.371 323.613 L
91.522 320.412 L
92.672 317.262 L
93.823 314.164 L
94.974 311.123 L
96.125 308.14 L
97.276 305.219 L
98.427 302.361 L
99.578 299.569 L
100.729 296.847 L
101.88 294.197 L
103.031 291.62 L
104.182 289.121 L
105.332 286.702 L
106.483 284.361 L
107.634 282.059 L
108.785 279.781 L
109.936 277.529 L
111.087 275.301 L
112.238 273.098 L
113.389 270.92 L
114.54 268.767 L
115.691 266.638 L
116.842 264.534 L
117.992 262.453 L
119.143 260.397 L
120.294 258.365 L
121.445 256.357 L
122.596 254.373 L
123.747 252.412 L
124.898 250.475 L
126.049 248.562 L
127.2 246.672 L
128.351 244.805 L
129.502 242.962 L
130.652 241.141 L
131.803 239.344 L
132.954 237.569 L
134.105 235.817 L
135.256 234.087 L
136.407 232.381 L
137.558 230.696 L
138.709 229.034 L
139.86 227.394 L
141.011 225.776 L
142.162 224.18 L
143.312 222.606 L
144.463 221.054 L
145.614 219.523 L
146.765 218.014 L
147.916 216.526 L
149.067 215.06 L
150.218 213.614 L
151.369 212.19 L
152.52 210.787 L
153.671 209.405 L
154.822 208.043 L
155.972 206.702 L
157.123 205.381 L
158.274 204.081 L
159.425 202.802 L
160.576 201.538 L
161.727 200.282 L
162.878 199.034 L
164.029 197.794 L
165.18 196.562 L
166.331 195.338 L
167.482 194.122 L
168.632 192.913 L
169.783 191.713 L
170.934 190.52 L
172.085 189.335 L
173.236 188.158 L
174.387 186.989 L
175.538 185.828 L
176.689 184.675 L
177.84 183.529 L
178.991 182.392 L
180.142 181.262 L
181.292 180.14 L
182.443 179.026 L
183.594 177.919 L
184.745 176.821 L
185.896 175.73 L
187.047 174.647 L
188.198 173.572 L
189.349 172.505 L
190.5 171.446 L
191.651 170.394 L
192.802 169.35 L
193.952 168.314 L
195.103 167.286 L
196.254 166.266 L
197.405 165.253 L
198.556 164.248 L
199.707 163.252 L
200.858 162.262 L
202.009 161.281 L
203.16 160.307 L
204.311 159.341 L
205.462 158.383 L
206.612 157.433 L
207.763 156.49 L
208.914 155.556 L
210.065 154.628 L
211.216 153.709 L
212.367 152.798 L
213.518 151.894 L
214.669 150.998 L
215.82 150.109 L
216.971 149.229 L
218.122 148.356 L
219.273 147.491 L
220.423 146.633 L
221.574 145.784 L
222.725 144.942 L
223.876 144.107 L
225.027 143.281 L
226.178 142.462 L
227.329 141.651 L
228.48 140.848 L
229.631 140.052 L
230.782 139.264 L
231.933 138.484 L
233.083 137.711 L
234.234 136.946 L
235.385 136.189 L
236.536 135.439 L
237.687 134.697 L
238.838 133.963 L
239.989 133.236 L
241.14 132.518 L
242.291 131.806 L
243.442 131.103 L
244.593 130.407 L
245.743 129.719 L
246.894 129.038 L
248.045 128.365 L
249.196 127.7 L
250.347 127.042 L
251.498 126.392 L
252.649 125.749 L
253.8 125.115 L
254.951 124.488 L
256.102 123.868 L
257.253 123.25 L
258.403 122.632 L
259.554 122.015 L
260.705 121.397 L
261.856 120.78 L
263.007 120.164 L
264.158 119.547 L
265.309 118.931 L
266.46 118.315 L
267.611 117.7 L
268.762 117.085 L
269.913 116.47 L
271.063 115.856 L
272.214 115.242 L
273.365 114.629 L
274.516 114.016 L
275.667 113.404 L
276.818 112.792 L
277.969 112.18 L
279.12 111.57 L
280.271 110.96 L
281.422 110.35 L
282.573 109.742 L
283.723 109.133 L
284.874 108.526 L
286.025 107.919 L
287.176 107.313 L
288.327 106.708 L
289.478 106.104 L
290.629 105.5 L
291.78 104.897 L
292.931 104.295 L
294.082 103.694 L
295.233 103.094 L
296.383 102.495 L
297.534 101.897 L
298.685 101.299 L
299.836 100.703 L
300.987 100.108 L
302.138 99.513 L
303.289 98.92 L
304.44 98.328 L
305.591 97.737 L
306.742 97.147 L
307.893 96.558 L
309.043 95.97 L
310.194 95.383 L
311.345 94.798 L
312.496 94.214 L
313.647 93.631 L
314.798 93.05 L
315.949 92.469 L
317.1 91.89 L
318.251 91.313 L
319.402 90.737 L
320.553 90.162 L
321.703 89.588 L
322.854 89.016 L
324.005 88.446 L
325.156 87.877 L
326.307 87.309 L
327.458 86.743 L
328.609 86.179 L
329.76 85.616 L
330.911 85.054 L
332.062 84.494 L
333.213 83.936 L
334.363 83.38 L
335.514 82.825 L
336.665 82.272 L
337.816 81.721 L
338.967 81.171 L
340.118 80.623 L
341.269 80.077 L
342.42 79.533 L
343.571 78.99 L
344.722 78.45 L
345.873 77.911 L
347.023 77.374 L
348.174 76.84 L
349.325 76.307 L
350.476 75.776 L
351.627 75.247 L
352.778 74.72 L
353.929 74.195 L
355.08 73.672 L
356.231 73.151 L
357.382 72.633 L
358.533 72.116 L
359.684 71.602 L
360.834 71.089 L
361.985 70.58 L
363.136 70.072 L
364.287 69.566 L
365.438 69.063 L
366.589 68.562 L
367.74 68.063 L
368.891 67.567 L
370.042 67.073 L
371.193 66.581 L
372.344 66.092 L
373.494 65.605 L
374.645 65.12 L
375.796 64.638 L
376.947 64.159 L
378.098 63.682 L
379.249 63.207 L
380.4 62.736 L
381.551 62.266 L
382.702 61.799 L
383.853 61.335 L
385.004 60.874 L
386.154 60.415 L
387.305 59.959 L
388.456 59.505 L
389.607 59.055 L
390.758 58.607 L
391.909 58.162 L
393.06 57.719 L
394.211 57.28 L
395.362 56.843 L
396.513 56.409 L
397.664 55.978 L
398.814 55.55 L
399.965 55.125 L
401.116 54.703 L
402.267 54.284 L
403.418 53.868 L
404.569 53.454 L
405.72 53.044 L
406.871 52.637 L
408.022 52.233 L
409.173 51.832 L
410.324 51.435 L
411.474 51.04 L
412.625 50.649 L
413.776 50.26 L
414.927 49.875 L
416.078 49.494 L
417.229 49.115 L
418.38 48.74 L
419.531 48.368 L
420.682 48 L
421.833 47.634 L
422.984 47.273 L
424.134 46.914 L
425.285 46.559 L
426.436 46.208 L
427.587 45.86 L
428.738 45.515 L
429.889 45.174 L
431.04 44.837 L
432.191 44.503 L
433.342 44.172 L
434.493 43.845 L
435.644 43.522 L
436.794 43.203 L
437.945 42.887 L
439.096 42.575 L
440.247 42.266 L
441.398 41.962 L
442.549 41.661 L
443.7 41.364 L
444.851 41.07 L
446.002 40.781 L
447.153 40.495 L
448.304 40.213 L
449.454 39.935 L
450.605 39.661 L
451.756 39.391 L
452.907 39.125 L
454.058 38.863 L
455.209 38.605 L
456.36 38.351 L
457.511 38.101 L
458.662 37.855 L
459.813 37.613 L
460.964 37.376 L
462.115 37.142 L
463.265 36.913 L
464.416 36.687 L
465.567 36.466 L
466.718 36.249 L
467.869 36.037 L
469.02 35.829 L
470.171 35.625 L
471.322 35.425 L
472.473 35.23 L
473.624 35.039 L
474.775 34.852 L
475.925 34.67 L
477.076 34.492 L
478.227 34.319 L
479.378 34.15 L
480.529 33.986 L
481.68 33.826 L
482.831 33.671 L
483.982 33.52 L
485.133 33.374 L
486.284 33.233 L
487.435 33.096 L
488.585 32.964 L
489.736 32.836 L
490.887 32.713 L
492.038 32.595 L
493.189 32.482 L
494.34 32.373 L
495.491 32.269 L
496.642 32.171 L
497.793 32.076 L
498.944 31.987 L
500.095 31.903 L
501.245 31.823 L
502.396 31.749 L
503.547 31.679 L
504.698 31.614 L
505.849 31.555 L
507 31.5 L
S
GR
GS
0.467 0.675 0.188 RC
[10 6] 0 setdash
2 LJ
0.5 LW
N
74.382 372.998 M
75.533 369.276 L
76.684 365.571 L
77.835 361.886 L
78.986 358.224 L
80.137 354.588 L
81.288 350.98 L
82.439 347.403 L
83.59 343.861 L
84.741 340.355 L
85.891 336.889 L
87.042 333.467 L
88.193 330.089 L
89.344 326.76 L
90.495 323.483 L
91.646 320.259 L
92.797 317.093 L
93.948 313.986 L
95.099 310.942 L
96.25 307.964 L
97.401 305.054 L
98.551 302.215 L
99.702 299.45 L
100.853 296.762 L
102.004 294.154 L
103.155 291.629 L
104.306 289.189 L
105.457 286.808 L
106.608 284.454 L
107.759 282.126 L
108.91 279.825 L
110.061 277.549 L
111.211 275.299 L
112.362 273.075 L
113.513 270.877 L
114.664 268.704 L
115.815 266.557 L
116.966 264.435 L
118.117 262.338 L
119.268 260.267 L
120.419 258.22 L
121.57 256.198 L
122.721 254.202 L
123.871 252.23 L
125.022 250.282 L
126.173 248.359 L
127.324 246.461 L
128.475 244.587 L
129.626 242.737 L
130.777 240.911 L
131.928 239.109 L
133.079 237.331 L
134.23 235.576 L
135.381 233.845 L
136.532 232.138 L
137.682 230.454 L
138.833 228.794 L
139.984 227.156 L
141.135 225.542 L
142.286 223.951 L
143.437 222.383 L
144.588 220.837 L
145.739 219.314 L
146.89 217.814 L
148.041 216.336 L
149.192 214.88 L
150.342 213.447 L
151.493 212.036 L
152.644 210.646 L
153.795 209.279 L
154.946 207.933 L
156.097 206.609 L
157.248 205.306 L
158.399 204.013 L
159.55 202.728 L
160.701 201.452 L
161.852 200.185 L
163.002 198.925 L
164.153 197.674 L
165.304 196.432 L
166.455 195.198 L
167.606 193.972 L
168.757 192.755 L
169.908 191.546 L
171.059 190.345 L
172.21 189.152 L
173.361 187.969 L
174.512 186.793 L
175.662 185.626 L
176.813 184.466 L
177.964 183.316 L
179.115 182.173 L
180.266 181.039 L
181.417 179.914 L
182.568 178.796 L
183.719 177.687 L
184.87 176.586 L
186.021 175.493 L
187.172 174.409 L
188.322 173.332 L
189.473 172.264 L
190.624 171.204 L
191.775 170.153 L
192.926 169.11 L
194.077 168.074 L
195.228 167.047 L
196.379 166.029 L
197.53 165.018 L
198.681 164.016 L
199.832 163.022 L
200.982 162.036 L
202.133 161.058 L
203.284 160.088 L
204.435 159.126 L
205.586 158.173 L
206.737 157.227 L
207.888 156.29 L
209.039 155.361 L
210.19 154.44 L
211.341 153.527 L
212.492 152.622 L
213.642 151.725 L
214.793 150.837 L
215.944 149.956 L
217.095 149.083 L
218.246 148.219 L
219.397 147.362 L
220.548 146.514 L
221.699 145.673 L
222.85 144.841 L
224.001 144.016 L
225.152 143.2 L
226.302 142.391 L
227.453 141.591 L
228.604 140.799 L
229.755 140.014 L
230.906 139.238 L
232.057 138.469 L
233.208 137.708 L
234.359 136.956 L
235.51 136.211 L
236.661 135.474 L
237.812 134.745 L
238.962 134.024 L
240.113 133.311 L
241.264 132.606 L
242.415 131.909 L
243.566 131.219 L
244.717 130.538 L
245.868 129.864 L
247.019 129.198 L
248.17 128.541 L
249.321 127.89 L
250.472 127.248 L
251.622 126.612 L
252.773 125.975 L
253.924 125.339 L
255.075 124.703 L
256.226 124.068 L
257.377 123.433 L
258.528 122.798 L
259.679 122.163 L
260.83 121.529 L
261.981 120.895 L
263.132 120.262 L
264.283 119.629 L
265.433 118.997 L
266.584 118.365 L
267.735 117.733 L
268.886 117.102 L
270.037 116.472 L
271.188 115.842 L
272.339 115.213 L
273.49 114.585 L
274.641 113.957 L
275.792 113.33 L
276.943 112.703 L
278.093 112.077 L
279.244 111.453 L
280.395 110.828 L
281.546 110.205 L
282.697 109.582 L
283.848 108.961 L
284.999 108.34 L
286.15 107.72 L
287.301 107.101 L
288.452 106.483 L
289.603 105.866 L
290.753 105.25 L
291.904 104.635 L
293.055 104.021 L
294.206 103.408 L
295.357 102.797 L
296.508 102.186 L
297.659 101.576 L
298.81 100.968 L
299.961 100.361 L
301.112 99.755 L
302.263 99.15 L
303.413 98.547 L
304.564 97.945 L
305.715 97.344 L
306.866 96.745 L
308.017 96.146 L
309.168 95.55 L
310.319 94.955 L
311.47 94.361 L
312.621 93.768 L
313.772 93.177 L
314.923 92.588 L
316.073 92 L
317.224 91.414 L
318.375 90.829 L
319.526 90.246 L
320.677 89.665 L
321.828 89.085 L
322.979 88.507 L
324.13 87.931 L
325.281 87.356 L
326.432 86.783 L
327.583 86.212 L
328.733 85.643 L
329.884 85.075 L
331.035 84.51 L
332.186 83.946 L
333.337 83.384 L
334.488 82.824 L
335.639 82.266 L
336.79 81.71 L
337.941 81.156 L
339.092 80.604 L
340.243 80.054 L
341.393 79.507 L
342.544 78.961 L
343.695 78.417 L
344.846 77.876 L
345.997 77.336 L
347.148 76.799 L
348.299 76.264 L
349.45 75.732 L
350.601 75.201 L
351.752 74.673 L
352.903 74.148 L
354.053 73.624 L
355.204 73.103 L
356.355 72.584 L
357.506 72.068 L
358.657 71.554 L
359.808 71.043 L
360.959 70.534 L
362.11 70.028 L
363.261 69.524 L
364.412 69.023 L
365.563 68.524 L
366.713 68.028 L
367.864 67.534 L
369.015 67.044 L
370.166 66.555 L
371.317 66.07 L
372.468 65.587 L
373.619 65.108 L
374.77 64.63 L
375.921 64.156 L
377.072 63.685 L
378.223 63.216 L
379.374 62.75 L
380.524 62.287 L
381.675 61.827 L
382.826 61.37 L
383.977 60.916 L
385.128 60.465 L
386.279 60.017 L
387.43 59.572 L
388.581 59.13 L
389.732 58.692 L
390.883 58.256 L
392.034 57.823 L
393.184 57.394 L
394.335 56.968 L
395.486 56.545 L
396.637 56.125 L
397.788 55.709 L
398.939 55.295 L
400.09 54.886 L
401.241 54.479 L
402.392 54.076 L
403.543 53.676 L
404.694 53.28 L
405.844 52.887 L
406.995 52.497 L
408.146 52.112 L
409.297 51.729 L
410.448 51.35 L
411.599 50.975 L
412.75 50.603 L
413.901 50.235 L
415.052 49.87 L
416.203 49.509 L
417.354 49.152 L
418.504 48.799 L
419.655 48.449 L
420.806 48.103 L
421.957 47.761 L
423.108 47.422 L
424.259 47.087 L
425.41 46.757 L
426.561 46.43 L
427.712 46.107 L
428.863 45.788 L
430.014 45.472 L
431.164 45.161 L
432.315 44.854 L
433.466 44.551 L
434.617 44.252 L
435.768 43.957 L
436.919 43.666 L
438.07 43.379 L
439.221 43.096 L
440.372 42.818 L
441.523 42.543 L
442.674 42.273 L
443.824 42.007 L
444.975 41.746 L
446.126 41.488 L
447.277 41.235 L
448.428 40.987 L
449.579 40.743 L
450.73 40.503 L
451.881 40.267 L
453.032 40.036 L
454.183 39.809 L
455.334 39.587 L
456.484 39.369 L
457.635 39.156 L
458.786 38.948 L
459.937 38.744 L
461.088 38.544 L
462.239 38.35 L
463.39 38.16 L
464.541 37.974 L
465.692 37.793 L
466.843 37.617 L
467.994 37.446 L
469.144 37.28 L
470.295 37.118 L
471.446 36.961 L
472.597 36.809 L
473.748 36.662 L
474.899 36.52 L
476.05 36.382 L
477.201 36.25 L
478.352 36.123 L
479.503 36 L
480.654 35.883 L
481.804 35.77 L
482.955 35.663 L
484.106 35.561 L
485.257 35.464 L
486.408 35.372 L
487.559 35.285 L
488.71 35.204 L
489.861 35.127 L
491.012 35.056 L
492.163 34.99 L
493.314 34.93 L
S
GR
GS
0.302 0.745 0.933 RC
[10 6] 0 setdash
2 LJ
0.5 LW
N
74.257 372.726 M
75.408 368.996 L
76.559 365.283 L
77.71 361.589 L
78.861 357.919 L
80.011 354.275 L
81.162 350.659 L
82.313 347.075 L
83.464 343.525 L
84.615 340.013 L
85.766 336.54 L
86.917 333.111 L
88.068 329.728 L
89.219 326.394 L
90.37 323.111 L
91.521 319.882 L
92.671 316.712 L
93.822 313.601 L
94.973 310.553 L
96.124 307.572 L
97.275 304.659 L
98.426 301.818 L
99.577 299.052 L
100.728 296.363 L
101.879 293.755 L
103.03 291.229 L
104.181 288.79 L
105.331 286.406 L
106.482 284.047 L
107.633 281.716 L
108.784 279.411 L
109.935 277.132 L
111.086 274.879 L
112.237 272.652 L
113.388 270.451 L
114.539 268.275 L
115.69 266.125 L
116.841 264.001 L
117.992 261.903 L
119.142 259.829 L
120.293 257.781 L
121.444 255.758 L
122.595 253.759 L
123.746 251.786 L
124.897 249.837 L
126.048 247.913 L
127.199 246.014 L
128.35 244.139 L
129.501 242.288 L
130.652 240.462 L
131.802 238.659 L
132.953 236.88 L
134.104 235.126 L
135.255 233.395 L
136.406 231.687 L
137.557 230.004 L
138.708 228.343 L
139.859 226.706 L
141.01 225.092 L
142.161 223.501 L
143.312 221.933 L
144.462 220.388 L
145.613 218.865 L
146.764 217.365 L
147.915 215.888 L
149.066 214.433 L
150.217 213 L
151.368 211.589 L
152.519 210.201 L
153.67 208.834 L
154.821 207.49 L
155.972 206.166 L
157.122 204.861 L
158.273 203.565 L
159.424 202.277 L
160.575 200.998 L
161.726 199.727 L
162.877 198.465 L
164.028 197.211 L
165.179 195.965 L
166.33 194.728 L
167.481 193.499 L
168.632 192.278 L
169.782 191.066 L
170.933 189.862 L
172.084 188.667 L
173.235 187.48 L
174.386 186.301 L
175.537 185.131 L
176.688 183.969 L
177.839 182.815 L
178.99 181.67 L
180.141 180.533 L
181.292 179.404 L
182.442 178.284 L
183.593 177.172 L
184.744 176.068 L
185.895 174.972 L
187.046 173.885 L
188.197 172.806 L
189.348 171.736 L
190.499 170.674 L
191.65 169.619 L
192.801 168.574 L
193.952 167.536 L
195.102 166.507 L
196.253 165.486 L
197.404 164.473 L
198.555 163.468 L
199.706 162.472 L
200.857 161.484 L
202.008 160.504 L
203.159 159.533 L
204.31 158.569 L
205.461 157.614 L
206.612 156.667 L
207.762 155.728 L
208.913 154.797 L
210.064 153.875 L
211.215 152.96 L
212.366 152.054 L
213.517 151.156 L
214.668 150.266 L
215.819 149.385 L
216.97 148.511 L
218.121 147.646 L
219.272 146.788 L
220.422 145.939 L
221.573 145.098 L
222.724 144.265 L
223.875 143.44 L
225.026 142.624 L
226.177 141.815 L
227.328 141.015 L
228.479 140.222 L
229.63 139.438 L
230.781 138.661 L
231.932 137.893 L
233.082 137.133 L
234.233 136.381 L
235.384 135.637 L
236.535 134.901 L
237.686 134.173 L
238.837 133.453 L
239.988 132.741 L
241.139 132.037 L
242.29 131.342 L
243.441 130.654 L
244.592 129.974 L
245.743 129.302 L
246.893 128.638 L
248.044 127.982 L
249.195 127.335 L
250.346 126.694 L
251.497 126.056 L
252.648 125.417 L
253.799 124.779 L
254.95 124.141 L
256.101 123.503 L
257.252 122.866 L
258.403 122.229 L
259.553 121.592 L
260.704 120.956 L
261.855 120.32 L
263.006 119.685 L
264.157 119.05 L
265.308 118.415 L
266.459 117.781 L
267.61 117.148 L
268.761 116.515 L
269.912 115.883 L
271.063 115.251 L
272.213 114.62 L
273.364 113.989 L
274.515 113.36 L
275.666 112.731 L
276.817 112.102 L
277.968 111.475 L
279.119 110.848 L
280.27 110.222 L
281.421 109.597 L
282.572 108.973 L
283.723 108.349 L
284.873 107.727 L
286.024 107.105 L
287.175 106.484 L
288.326 105.865 L
289.477 105.246 L
290.628 104.628 L
291.779 104.012 L
292.93 103.396 L
294.081 102.782 L
295.232 102.168 L
296.383 101.556 L
297.533 100.945 L
298.684 100.335 L
299.835 99.727 L
300.986 99.12 L
302.137 98.514 L
303.288 97.909 L
304.439 97.305 L
305.59 96.703 L
306.741 96.102 L
307.892 95.503 L
309.043 94.905 L
310.193 94.309 L
311.344 93.714 L
312.495 93.12 L
313.646 92.528 L
314.797 91.938 L
315.948 91.349 L
317.099 90.762 L
318.25 90.176 L
319.401 89.592 L
320.552 89.01 L
321.703 88.429 L
322.853 87.85 L
324.004 87.273 L
325.155 86.697 L
326.306 86.124 L
327.457 85.552 L
328.608 84.982 L
329.759 84.414 L
330.91 83.848 L
332.061 83.283 L
333.212 82.721 L
334.363 82.16 L
335.513 81.602 L
336.664 81.046 L
337.815 80.491 L
338.966 79.939 L
340.117 79.389 L
341.268 78.84 L
342.419 78.295 L
343.57 77.751 L
344.721 77.209 L
345.872 76.67 L
347.023 76.132 L
348.173 75.597 L
349.324 75.065 L
350.475 74.534 L
351.626 74.006 L
352.777 73.481 L
353.928 72.957 L
355.079 72.437 L
356.23 71.918 L
357.381 71.402 L
358.532 70.889 L
359.683 70.378 L
360.833 69.869 L
361.984 69.363 L
363.135 68.86 L
364.286 68.359 L
365.437 67.861 L
366.588 67.366 L
367.739 66.873 L
368.89 66.383 L
370.041 65.896 L
371.192 65.411 L
372.343 64.929 L
373.493 64.45 L
374.644 63.974 L
375.795 63.501 L
376.946 63.03 L
378.097 62.563 L
379.248 62.098 L
380.399 61.637 L
381.55 61.178 L
382.701 60.722 L
383.852 60.27 L
385.003 59.82 L
386.154 59.373 L
387.304 58.93 L
388.455 58.49 L
389.606 58.052 L
390.757 57.619 L
391.908 57.188 L
393.059 56.76 L
394.21 56.336 L
395.361 55.915 L
396.512 55.497 L
397.663 55.083 L
398.814 54.672 L
399.964 54.264 L
401.115 53.86 L
402.266 53.459 L
403.417 53.061 L
404.568 52.667 L
405.719 52.277 L
406.87 51.89 L
408.021 51.506 L
409.172 51.127 L
410.323 50.75 L
411.474 50.378 L
412.624 50.009 L
413.775 49.643 L
414.926 49.282 L
416.077 48.924 L
417.228 48.57 L
418.379 48.219 L
419.53 47.872 L
420.681 47.53 L
421.832 47.191 L
422.983 46.856 L
424.134 46.524 L
425.284 46.197 L
426.435 45.874 L
427.586 45.554 L
428.737 45.239 L
429.888 44.928 L
431.039 44.62 L
432.19 44.317 L
433.341 44.018 L
434.492 43.723 L
435.643 43.432 L
436.794 43.145 L
437.944 42.862 L
439.095 42.584 L
440.246 42.31 L
441.397 42.04 L
442.548 41.774 L
443.699 41.513 L
444.85 41.256 L
446.001 41.003 L
447.152 40.755 L
448.303 40.511 L
449.454 40.272 L
450.604 40.037 L
451.755 39.806 L
452.906 39.58 L
454.057 39.359 L
455.208 39.142 L
456.359 38.93 L
457.51 38.722 L
458.661 38.519 L
459.812 38.321 L
460.963 38.127 L
462.114 37.938 L
463.264 37.754 L
464.415 37.574 L
465.566 37.4 L
466.717 37.23 L
467.868 37.065 L
469.019 36.904 L
470.17 36.749 L
471.321 36.598 L
472.472 36.453 L
473.623 36.312 L
474.774 36.177 L
475.924 36.046 L
477.075 35.921 L
478.226 35.8 L
479.377 35.684 L
480.528 35.574 L
481.679 35.469 L
482.83 35.369 L
483.981 35.274 L
485.132 35.184 L
486.283 35.1 L
487.434 35.02 L
488.585 34.946 L
489.735 34.878 L
490.886 34.814 L
492.037 34.756 L
S
GR
GS
0.635 0.078 0.184 RC
[10 6] 0 setdash
2 LJ
0.5 LW
N
75.35 369.415 M
76.501 365.76 L
77.652 362.122 L
78.802 358.503 L
79.953 354.906 L
81.104 351.333 L
82.255 347.788 L
83.406 344.272 L
84.557 340.789 L
85.708 337.341 L
86.859 333.931 L
88.01 330.563 L
89.161 327.237 L
90.312 323.958 L
91.462 320.728 L
92.613 317.55 L
93.764 314.426 L
94.915 311.359 L
96.066 308.352 L
97.217 305.407 L
98.368 302.528 L
99.519 299.717 L
100.67 296.976 L
101.821 294.309 L
102.972 291.719 L
104.123 289.207 L
105.273 286.776 L
106.424 284.426 L
107.575 282.112 L
108.726 279.825 L
109.877 277.562 L
111.028 275.326 L
112.179 273.114 L
113.33 270.928 L
114.481 268.767 L
115.632 266.63 L
116.783 264.519 L
117.933 262.432 L
119.084 260.369 L
120.235 258.332 L
121.386 256.318 L
122.537 254.329 L
123.688 252.363 L
124.839 250.422 L
125.99 248.504 L
127.141 246.61 L
128.292 244.74 L
129.443 242.893 L
130.593 241.069 L
131.744 239.269 L
132.895 237.491 L
134.046 235.737 L
135.197 234.005 L
136.348 232.296 L
137.499 230.61 L
138.65 228.946 L
139.801 227.304 L
140.952 225.685 L
142.103 224.087 L
143.253 222.512 L
144.404 220.958 L
145.555 219.426 L
146.706 217.916 L
147.857 216.427 L
149.008 214.959 L
150.159 213.512 L
151.31 212.087 L
152.461 210.682 L
153.612 209.299 L
154.763 207.936 L
155.913 206.593 L
157.064 205.271 L
158.215 203.97 L
159.366 202.688 L
160.517 201.422 L
161.668 200.164 L
162.819 198.915 L
163.97 197.673 L
165.121 196.439 L
166.272 195.213 L
167.423 193.996 L
168.573 192.786 L
169.724 191.584 L
170.875 190.39 L
172.026 189.204 L
173.177 188.026 L
174.328 186.856 L
175.479 185.694 L
176.63 184.539 L
177.781 183.393 L
178.932 182.255 L
180.083 181.124 L
181.233 180.002 L
182.384 178.887 L
183.535 177.78 L
184.686 176.681 L
185.837 175.59 L
186.988 174.507 L
188.139 173.431 L
189.29 172.364 L
190.441 171.304 L
191.592 170.253 L
192.743 169.209 L
193.893 168.173 L
195.044 167.144 L
196.195 166.124 L
197.346 165.112 L
198.497 164.107 L
199.648 163.11 L
200.799 162.121 L
201.95 161.139 L
203.101 160.166 L
204.252 159.2 L
205.403 158.242 L
206.553 157.292 L
207.704 156.35 L
208.855 155.415 L
210.006 154.488 L
211.157 153.569 L
212.308 152.658 L
213.459 151.754 L
214.61 150.858 L
215.761 149.97 L
216.912 149.09 L
218.063 148.217 L
219.214 147.352 L
220.364 146.495 L
221.515 145.646 L
222.666 144.804 L
223.817 143.97 L
224.968 143.143 L
226.119 142.325 L
227.27 141.514 L
228.421 140.71 L
229.572 139.914 L
230.723 139.126 L
231.874 138.346 L
233.024 137.573 L
234.175 136.808 L
235.326 136.051 L
236.477 135.301 L
237.628 134.559 L
238.779 133.824 L
239.93 133.097 L
241.081 132.378 L
242.232 131.666 L
243.383 130.962 L
244.534 130.266 L
245.684 129.577 L
246.835 128.895 L
247.986 128.222 L
249.137 127.555 L
250.288 126.897 L
251.439 126.246 L
252.59 125.602 L
253.741 124.966 L
254.892 124.338 L
256.043 123.716 L
257.194 123.095 L
258.344 122.475 L
259.495 121.854 L
260.646 121.234 L
261.797 120.614 L
262.948 119.994 L
264.099 119.375 L
265.25 118.756 L
266.401 118.137 L
267.552 117.519 L
268.703 116.901 L
269.854 116.284 L
271.004 115.667 L
272.155 115.05 L
273.306 114.435 L
274.457 113.819 L
275.608 113.204 L
276.759 112.59 L
277.91 111.976 L
279.061 111.363 L
280.212 110.75 L
281.363 110.139 L
282.514 109.528 L
283.664 108.917 L
284.815 108.307 L
285.966 107.698 L
287.117 107.09 L
288.268 106.483 L
289.419 105.876 L
290.57 105.271 L
291.721 104.666 L
292.872 104.062 L
294.023 103.459 L
295.174 102.857 L
296.324 102.255 L
297.475 101.655 L
298.626 101.056 L
299.777 100.458 L
300.928 99.861 L
302.079 99.265 L
303.23 98.67 L
304.381 98.076 L
305.532 97.483 L
306.683 96.892 L
307.834 96.301 L
308.984 95.712 L
310.135 95.124 L
311.286 94.537 L
312.437 93.952 L
313.588 93.368 L
314.739 92.785 L
315.89 92.204 L
317.041 91.624 L
318.192 91.045 L
319.343 90.468 L
320.494 89.892 L
321.644 89.318 L
322.795 88.745 L
323.946 88.173 L
325.097 87.603 L
326.248 87.035 L
327.399 86.468 L
328.55 85.903 L
329.701 85.34 L
330.852 84.778 L
332.003 84.217 L
333.154 83.659 L
334.305 83.102 L
335.455 82.547 L
336.606 81.994 L
337.757 81.442 L
338.908 80.892 L
340.059 80.344 L
341.21 79.798 L
342.361 79.254 L
343.512 78.711 L
344.663 78.171 L
345.814 77.632 L
346.965 77.096 L
348.115 76.561 L
349.266 76.029 L
350.417 75.498 L
351.568 74.97 L
352.719 74.443 L
353.87 73.919 L
355.021 73.397 L
356.172 72.877 L
357.323 72.359 L
358.474 71.843 L
359.625 71.329 L
360.775 70.818 L
361.926 70.309 L
363.077 69.802 L
364.228 69.298 L
365.379 68.796 L
366.53 68.296 L
367.681 67.798 L
368.832 67.303 L
369.983 66.811 L
371.134 66.321 L
372.285 65.833 L
373.435 65.347 L
374.586 64.865 L
375.737 64.384 L
376.888 63.907 L
378.039 63.432 L
379.19 62.959 L
380.341 62.489 L
381.492 62.022 L
382.643 61.558 L
383.794 61.096 L
384.945 60.636 L
386.095 60.18 L
387.246 59.726 L
388.397 59.275 L
389.548 58.827 L
390.699 58.382 L
391.85 57.94 L
393.001 57.5 L
394.152 57.063 L
395.303 56.629 L
396.454 56.199 L
397.605 55.771 L
398.755 55.346 L
399.906 54.924 L
401.057 54.505 L
402.208 54.089 L
403.359 53.676 L
404.51 53.267 L
405.661 52.86 L
406.812 52.457 L
407.963 52.057 L
409.114 51.66 L
410.265 51.266 L
411.415 50.875 L
412.566 50.488 L
413.717 50.104 L
414.868 49.723 L
416.019 49.346 L
417.17 48.972 L
418.321 48.601 L
419.472 48.234 L
420.623 47.87 L
421.774 47.509 L
422.925 47.152 L
424.075 46.799 L
425.226 46.449 L
426.377 46.102 L
427.528 45.759 L
428.679 45.42 L
429.83 45.084 L
430.981 44.752 L
432.132 44.424 L
433.283 44.099 L
434.434 43.778 L
435.585 43.46 L
436.735 43.146 L
437.886 42.836 L
439.037 42.53 L
440.188 42.228 L
441.339 41.929 L
442.49 41.635 L
443.641 41.344 L
444.792 41.057 L
445.943 40.774 L
447.094 40.495 L
448.245 40.22 L
449.395 39.949 L
450.546 39.682 L
451.697 39.418 L
452.848 39.159 L
453.999 38.905 L
455.15 38.654 L
456.301 38.407 L
457.452 38.164 L
458.603 37.926 L
459.754 37.692 L
460.905 37.462 L
462.056 37.236 L
463.206 37.014 L
464.357 36.797 L
465.508 36.584 L
466.659 36.375 L
467.81 36.171 L
468.961 35.971 L
470.112 35.776 L
471.263 35.585 L
472.414 35.398 L
473.565 35.216 L
474.716 35.038 L
475.866 34.865 L
477.017 34.696 L
478.168 34.532 L
479.319 34.373 L
480.47 34.218 L
481.621 34.068 L
482.772 33.922 L
483.923 33.781 L
485.074 33.644 L
486.225 33.513 L
487.376 33.386 L
488.526 33.264 L
489.677 33.147 L
490.828 33.034 L
491.979 32.926 L
493.13 32.824 L
494.281 32.726 L
495.432 32.633 L
496.583 32.544 L
497.734 32.461 L
498.885 32.383 L
500.036 32.31 L
501.186 32.242 L
502.337 32.178 L
503.488 32.12 L
S
GR
GS
1 GC
N
499 366 M
499 250.5 L
344.5 250.5 L
344.5 366 L
cp
f
GR
GS
[1 0 0 1 381.5 260.25] CT
/Helvetica 13 F
GS
[1 0 0 1 0 0] CT
0 5 moveto 
1 -1 scale
(Base Run) t 
GR
GR
GS
0 0.447 0.741 RC
1 LJ
0.5 LW
N
348.5 260.25 M
378.5 260.25 L
S
GR
GS
[1 0 0 1 381.5 276.25] CT
/Helvetica 13 F
GS
[1 0 0 1 0 0] CT
0 5 moveto 
1 -1 scale
(I & B Frames) t 
GR
GR
GS
0.851 0.325 0.098 RC
1 LJ
0.5 LW
N
348.5 276.25 M
378.5 276.25 L
S
GR
GS
[1 0 0 1 381.5 292.25] CT
/Helvetica 13 F
GS
[1 0 0 1 0 0] CT
0 5 moveto 
1 -1 scale
(I Frames Only) t 
GR
GR
GS
0.929 0.694 0.125 RC
1 LJ
0.5 LW
N
348.5 292.25 M
378.5 292.25 L
S
GR
GS
[1 0 0 1 381.5 308.25] CT
/Helvetica 13 F
GS
[1 0 0 1 0 0] CT
0 5 moveto 
1 -1 scale
(B Frames Only) t 
GR
GR
GS
0.494 0.184 0.557 RC
1 LJ
0.5 LW
N
348.5 308.25 M
378.5 308.25 L
S
GR
GS
[1 0 0 1 381.5 324.25] CT
/Helvetica 13 F
GS
[1 0 0 1 0 0] CT
0 5 moveto 
1 -1 scale
(Part I & B Frames) t 
GR
GR
GS
0.467 0.675 0.188 RC
[10 6] 0 setdash
2 LJ
0.5 LW
N
348.5 324.25 M
378.5 324.25 L
S
GR
GS
[1 0 0 1 381.5 340.25] CT
/Helvetica 13 F
GS
[1 0 0 1 0 0] CT
0 5 moveto 
1 -1 scale
(Part I Frames Only) t 
GR
GR
GS
0.302 0.745 0.933 RC
[10 6] 0 setdash
2 LJ
0.5 LW
N
348.5 340.25 M
378.5 340.25 L
S
GR
GS
[1 0 0 1 381.5 356.25] CT
/Helvetica 13 F
GS
[1 0 0 1 0 0] CT
0 5 moveto 
1 -1 scale
(Part B Frames Only) t 
GR
GR
GS
0.635 0.078 0.184 RC
[10 6] 0 setdash
2 LJ
0.5 LW
N
348.5 356.25 M
378.5 356.25 L
S
GR
GS
0.149 GC
10.0 ML
0.5 LW
N
344.5 366 M
344.5 250.5 L
499 250.5 L
499 366 L
cp
S
GR
%%Trailer
%%Pages: 1
%%EOF
