%!PS-Adobe-3.0 EPSF-3.0
%%Creator: (MATLAB, The Mathworks, Inc. Version 9.11.0.1837725 \(R2021b\) Update 2. Operating System: Mac OS X)
%%Title: plots/pchip/Vlog_1080P-58ad.y4m-av1-VMAF.eps
%%CreationDate: 2022-02-03T19:13:48
%%Pages: (atend)
%%BoundingBox:    34   425   508   826
%%LanguageLevel: 3
%%EndComments
%%BeginProlog
%%BeginResource: procset (Apache XML Graphics Std ProcSet) 1.2 0
%%Version: 1.2 0
%%Copyright: (Copyright 2001-2003,2010 The Apache Software Foundation. License terms: http://www.apache.org/licenses/LICENSE-2.0)
/bd{bind def}bind def
/ld{load def}bd
/GR/grestore ld
/GS/gsave ld
/RM/rmoveto ld
/C/curveto ld
/t/show ld
/L/lineto ld
/ML/setmiterlimit ld
/CT/concat ld
/f/fill ld
/N/newpath ld
/S/stroke ld
/CC/setcmykcolor ld
/A/ashow ld
/cp/closepath ld
/RC/setrgbcolor ld
/LJ/setlinejoin ld
/GC/setgray ld
/LW/setlinewidth ld
/M/moveto ld
/re {4 2 roll M
1 index 0 rlineto
0 exch rlineto
neg 0 rlineto
cp } bd
/_ctm matrix def
/_tm matrix def
/BT { _ctm currentmatrix pop matrix _tm copy pop 0 0 moveto } bd
/ET { _ctm setmatrix } bd
/iTm { _ctm setmatrix _tm concat } bd
/Tm { _tm astore pop iTm 0 0 moveto } bd
/ux 0.0 def
/uy 0.0 def
/F {
  /Tp exch def
  /Tf exch def
  Tf findfont Tp scalefont setfont
  /cf Tf def  /cs Tp def
} bd
/ULS {currentpoint /uy exch def /ux exch def} bd
/ULE {
  /Tcx currentpoint pop def
  gsave
  newpath
  cf findfont cs scalefont dup
  /FontMatrix get 0 get /Ts exch def /FontInfo get dup
  /UnderlinePosition get Ts mul /To exch def
  /UnderlineThickness get Ts mul /Tt exch def
  ux uy To add moveto  Tcx uy To add lineto
  Tt setlinewidth stroke
  grestore
} bd
/OLE {
  /Tcx currentpoint pop def
  gsave
  newpath
  cf findfont cs scalefont dup
  /FontMatrix get 0 get /Ts exch def /FontInfo get dup
  /UnderlinePosition get Ts mul /To exch def
  /UnderlineThickness get Ts mul /Tt exch def
  ux uy To add cs add moveto Tcx uy To add cs add lineto
  Tt setlinewidth stroke
  grestore
} bd
/SOE {
  /Tcx currentpoint pop def
  gsave
  newpath
  cf findfont cs scalefont dup
  /FontMatrix get 0 get /Ts exch def /FontInfo get dup
  /UnderlinePosition get Ts mul /To exch def
  /UnderlineThickness get Ts mul /Tt exch def
  ux uy To add cs 10 mul 26 idiv add moveto Tcx uy To add cs 10 mul 26 idiv add lineto
  Tt setlinewidth stroke
  grestore
} bd
/QT {
/Y22 exch store
/X22 exch store
/Y21 exch store
/X21 exch store
currentpoint
/Y21 load 2 mul add 3 div exch
/X21 load 2 mul add 3 div exch
/X21 load 2 mul /X22 load add 3 div
/Y21 load 2 mul /Y22 load add 3 div
/X22 load /Y22 load curveto
} bd
/SSPD {
dup length /d exch dict def
{
/v exch def
/k exch def
currentpagedevice k known {
/cpdv currentpagedevice k get def
v cpdv ne {
/upd false def
/nullv v type /nulltype eq def
/nullcpdv cpdv type /nulltype eq def
nullv nullcpdv or
{
/upd true def
} {
/sametype v type cpdv type eq def
sametype {
v type /arraytype eq {
/vlen v length def
/cpdvlen cpdv length def
vlen cpdvlen eq {
0 1 vlen 1 sub {
/i exch def
/obj v i get def
/cpdobj cpdv i get def
obj cpdobj ne {
/upd true def
exit
} if
} for
} {
/upd true def
} ifelse
} {
v type /dicttype eq {
v {
/dv exch def
/dk exch def
/cpddv cpdv dk get def
dv cpddv ne {
/upd true def
exit
} if
} forall
} {
/upd true def
} ifelse
} ifelse
} if
} ifelse
upd true eq {
d k v put
} if
} if
} if
} forall
d length 0 gt {
d setpagedevice
} if
} bd
/RE { % /NewFontName [NewEncodingArray] /FontName RE -
  findfont dup length dict begin
  {
    1 index /FID ne
    {def} {pop pop} ifelse
  } forall
  /Encoding exch def
  /FontName 1 index def
  currentdict definefont pop
  end
} bind def
%%EndResource
%%BeginResource: procset (Apache XML Graphics EPS ProcSet) 1.0 0
%%Version: 1.0 0
%%Copyright: (Copyright 2002-2003 The Apache Software Foundation. License terms: http://www.apache.org/licenses/LICENSE-2.0)
/BeginEPSF { %def
/b4_Inc_state save def         % Save state for cleanup
/dict_count countdictstack def % Count objects on dict stack
/op_count count 1 sub def      % Count objects on operand stack
userdict begin                 % Push userdict on dict stack
/showpage { } def              % Redefine showpage, { } = null proc
0 setgray 0 setlinecap         % Prepare graphics state
1 setlinewidth 0 setlinejoin
10 setmiterlimit [ ] 0 setdash newpath
/languagelevel where           % If level not equal to 1 then
{pop languagelevel             % set strokeadjust and
1 ne                           % overprint to their defaults.
{false setstrokeadjust false setoverprint
} if
} if
} bd
/EndEPSF { %def
count op_count sub {pop} repeat            % Clean up stacks
countdictstack dict_count sub {end} repeat
b4_Inc_state restore
} bd
%%EndResource
%FOPBeginFontDict
%%IncludeResource: font Courier-Oblique
%%IncludeResource: font Courier-BoldOblique
%%IncludeResource: font Courier-Bold
%%IncludeResource: font ZapfDingbats
%%IncludeResource: font Symbol
%%IncludeResource: font Helvetica
%%IncludeResource: font Helvetica-Oblique
%%IncludeResource: font Helvetica-Bold
%%IncludeResource: font Helvetica-BoldOblique
%%IncludeResource: font Times-Roman
%%IncludeResource: font Times-Italic
%%IncludeResource: font Times-Bold
%%IncludeResource: font Times-BoldItalic
%%IncludeResource: font Courier
%FOPEndFontDict
%%BeginResource: encoding WinAnsiEncoding
/WinAnsiEncoding [
/.notdef /.notdef /.notdef /.notdef /.notdef
/.notdef /.notdef /.notdef /.notdef /.notdef
/.notdef /.notdef /.notdef /.notdef /.notdef
/.notdef /.notdef /.notdef /.notdef /.notdef
/.notdef /.notdef /.notdef /.notdef /.notdef
/.notdef /.notdef /.notdef /.notdef /.notdef
/.notdef /.notdef /space /exclam /quotedbl
/numbersign /dollar /percent /ampersand /quotesingle
/parenleft /parenright /asterisk /plus /comma
/hyphen /period /slash /zero /one
/two /three /four /five /six
/seven /eight /nine /colon /semicolon
/less /equal /greater /question /at
/A /B /C /D /E
/F /G /H /I /J
/K /L /M /N /O
/P /Q /R /S /T
/U /V /W /X /Y
/Z /bracketleft /backslash /bracketright /asciicircum
/underscore /quoteleft /a /b /c
/d /e /f /g /h
/i /j /k /l /m
/n /o /p /q /r
/s /t /u /v /w
/x /y /z /braceleft /bar
/braceright /asciitilde /bullet /Euro /bullet
/quotesinglbase /florin /quotedblbase /ellipsis /dagger
/daggerdbl /circumflex /perthousand /Scaron /guilsinglleft
/OE /bullet /Zcaron /bullet /bullet
/quoteleft /quoteright /quotedblleft /quotedblright /bullet
/endash /emdash /asciitilde /trademark /scaron
/guilsinglright /oe /bullet /zcaron /Ydieresis
/space /exclamdown /cent /sterling /currency
/yen /brokenbar /section /dieresis /copyright
/ordfeminine /guillemotleft /logicalnot /sfthyphen /registered
/macron /degree /plusminus /twosuperior /threesuperior
/acute /mu /paragraph /middot /cedilla
/onesuperior /ordmasculine /guillemotright /onequarter /onehalf
/threequarters /questiondown /Agrave /Aacute /Acircumflex
/Atilde /Adieresis /Aring /AE /Ccedilla
/Egrave /Eacute /Ecircumflex /Edieresis /Igrave
/Iacute /Icircumflex /Idieresis /Eth /Ntilde
/Ograve /Oacute /Ocircumflex /Otilde /Odieresis
/multiply /Oslash /Ugrave /Uacute /Ucircumflex
/Udieresis /Yacute /Thorn /germandbls /agrave
/aacute /acircumflex /atilde /adieresis /aring
/ae /ccedilla /egrave /eacute /ecircumflex
/edieresis /igrave /iacute /icircumflex /idieresis
/eth /ntilde /ograve /oacute /ocircumflex
/otilde /odieresis /divide /oslash /ugrave
/uacute /ucircumflex /udieresis /yacute /thorn
/ydieresis
] def
%%EndResource
%FOPBeginFontReencode
/Courier-Oblique findfont
dup length dict begin
  {1 index /FID ne {def} {pop pop} ifelse} forall
  /Encoding WinAnsiEncoding def
  currentdict
end
/Courier-Oblique exch definefont pop
/Courier-BoldOblique findfont
dup length dict begin
  {1 index /FID ne {def} {pop pop} ifelse} forall
  /Encoding WinAnsiEncoding def
  currentdict
end
/Courier-BoldOblique exch definefont pop
/Courier-Bold findfont
dup length dict begin
  {1 index /FID ne {def} {pop pop} ifelse} forall
  /Encoding WinAnsiEncoding def
  currentdict
end
/Courier-Bold exch definefont pop
/Helvetica findfont
dup length dict begin
  {1 index /FID ne {def} {pop pop} ifelse} forall
  /Encoding WinAnsiEncoding def
  currentdict
end
/Helvetica exch definefont pop
/Helvetica-Oblique findfont
dup length dict begin
  {1 index /FID ne {def} {pop pop} ifelse} forall
  /Encoding WinAnsiEncoding def
  currentdict
end
/Helvetica-Oblique exch definefont pop
/Helvetica-Bold findfont
dup length dict begin
  {1 index /FID ne {def} {pop pop} ifelse} forall
  /Encoding WinAnsiEncoding def
  currentdict
end
/Helvetica-Bold exch definefont pop
/Helvetica-BoldOblique findfont
dup length dict begin
  {1 index /FID ne {def} {pop pop} ifelse} forall
  /Encoding WinAnsiEncoding def
  currentdict
end
/Helvetica-BoldOblique exch definefont pop
/Times-Roman findfont
dup length dict begin
  {1 index /FID ne {def} {pop pop} ifelse} forall
  /Encoding WinAnsiEncoding def
  currentdict
end
/Times-Roman exch definefont pop
/Times-Italic findfont
dup length dict begin
  {1 index /FID ne {def} {pop pop} ifelse} forall
  /Encoding WinAnsiEncoding def
  currentdict
end
/Times-Italic exch definefont pop
/Times-Bold findfont
dup length dict begin
  {1 index /FID ne {def} {pop pop} ifelse} forall
  /Encoding WinAnsiEncoding def
  currentdict
end
/Times-Bold exch definefont pop
/Times-BoldItalic findfont
dup length dict begin
  {1 index /FID ne {def} {pop pop} ifelse} forall
  /Encoding WinAnsiEncoding def
  currentdict
end
/Times-BoldItalic exch definefont pop
/Courier findfont
dup length dict begin
  {1 index /FID ne {def} {pop pop} ifelse} forall
  /Encoding WinAnsiEncoding def
  currentdict
end
/Courier exch definefont pop
%FOPEndFontReencode
%%EndProlog
%%Page: 1 1
%%PageBoundingBox: 0 0 1120 840
%%BeginPageSetup
[1 0 0 -1 0 840] CT
%%EndPageSetup
GS
1 GC
N
0 0 1120 840 re
f
GR
GS
1 GC
N
73 374 M
507 374 L
507 31.5 L
73 31.5 L
cp
f
GR
GS
0.149 GC
2 setlinecap
1 LJ
0.5 LW
N
73 374 M
507 374 L
S
GR
GS
0.149 GC
2 setlinecap
1 LJ
0.5 LW
N
73 31.5 M
507 31.5 L
S
GR
GS
0.149 GC
2 setlinecap
1 LJ
0.5 LW
N
94.338 374 M
94.338 369.66 L
S
GR
GS
0.149 GC
2 setlinecap
1 LJ
0.5 LW
N
141.066 374 M
141.066 369.66 L
S
GR
GS
0.149 GC
2 setlinecap
1 LJ
0.5 LW
N
187.794 374 M
187.794 369.66 L
S
GR
GS
0.149 GC
2 setlinecap
1 LJ
0.5 LW
N
234.522 374 M
234.522 369.66 L
S
GR
GS
0.149 GC
2 setlinecap
1 LJ
0.5 LW
N
281.25 374 M
281.25 369.66 L
S
GR
GS
0.149 GC
2 setlinecap
1 LJ
0.5 LW
N
327.978 374 M
327.978 369.66 L
S
GR
GS
0.149 GC
2 setlinecap
1 LJ
0.5 LW
N
374.706 374 M
374.706 369.66 L
S
GR
GS
0.149 GC
2 setlinecap
1 LJ
0.5 LW
N
421.434 374 M
421.434 369.66 L
S
GR
GS
0.149 GC
2 setlinecap
1 LJ
0.5 LW
N
468.161 374 M
468.161 369.66 L
S
GR
GS
0.149 GC
2 setlinecap
1 LJ
0.5 LW
N
94.338 31.5 M
94.338 35.84 L
S
GR
GS
0.149 GC
2 setlinecap
1 LJ
0.5 LW
N
141.066 31.5 M
141.066 35.84 L
S
GR
GS
0.149 GC
2 setlinecap
1 LJ
0.5 LW
N
187.794 31.5 M
187.794 35.84 L
S
GR
GS
0.149 GC
2 setlinecap
1 LJ
0.5 LW
N
234.522 31.5 M
234.522 35.84 L
S
GR
GS
0.149 GC
2 setlinecap
1 LJ
0.5 LW
N
281.25 31.5 M
281.25 35.84 L
S
GR
GS
0.149 GC
2 setlinecap
1 LJ
0.5 LW
N
327.978 31.5 M
327.978 35.84 L
S
GR
GS
0.149 GC
2 setlinecap
1 LJ
0.5 LW
N
374.706 31.5 M
374.706 35.84 L
S
GR
GS
0.149 GC
2 setlinecap
1 LJ
0.5 LW
N
421.434 31.5 M
421.434 35.84 L
S
GR
GS
0.149 GC
2 setlinecap
1 LJ
0.5 LW
N
468.161 31.5 M
468.161 35.84 L
S
GR
GS
0.149 GC
2 setlinecap
1 LJ
0.5 LW
N
75.647 374 M
75.647 371.83 L
S
GR
GS
0.149 GC
2 setlinecap
1 LJ
0.5 LW
N
84.992 374 M
84.992 371.83 L
S
GR
GS
0.149 GC
2 setlinecap
1 LJ
0.5 LW
N
103.683 374 M
103.683 371.83 L
S
GR
GS
0.149 GC
2 setlinecap
1 LJ
0.5 LW
N
113.029 374 M
113.029 371.83 L
S
GR
GS
0.149 GC
2 setlinecap
1 LJ
0.5 LW
N
122.375 374 M
122.375 371.83 L
S
GR
GS
0.149 GC
2 setlinecap
1 LJ
0.5 LW
N
131.72 374 M
131.72 371.83 L
S
GR
GS
0.149 GC
2 setlinecap
1 LJ
0.5 LW
N
150.411 374 M
150.411 371.83 L
S
GR
GS
0.149 GC
2 setlinecap
1 LJ
0.5 LW
N
159.757 374 M
159.757 371.83 L
S
GR
GS
0.149 GC
2 setlinecap
1 LJ
0.5 LW
N
169.103 374 M
169.103 371.83 L
S
GR
GS
0.149 GC
2 setlinecap
1 LJ
0.5 LW
N
178.448 374 M
178.448 371.83 L
S
GR
GS
0.149 GC
2 setlinecap
1 LJ
0.5 LW
N
197.139 374 M
197.139 371.83 L
S
GR
GS
0.149 GC
2 setlinecap
1 LJ
0.5 LW
N
206.485 374 M
206.485 371.83 L
S
GR
GS
0.149 GC
2 setlinecap
1 LJ
0.5 LW
N
215.831 374 M
215.831 371.83 L
S
GR
GS
0.149 GC
2 setlinecap
1 LJ
0.5 LW
N
225.176 374 M
225.176 371.83 L
S
GR
GS
0.149 GC
2 setlinecap
1 LJ
0.5 LW
N
243.867 374 M
243.867 371.83 L
S
GR
GS
0.149 GC
2 setlinecap
1 LJ
0.5 LW
N
253.213 374 M
253.213 371.83 L
S
GR
GS
0.149 GC
2 setlinecap
1 LJ
0.5 LW
N
262.558 374 M
262.558 371.83 L
S
GR
GS
0.149 GC
2 setlinecap
1 LJ
0.5 LW
N
271.904 374 M
271.904 371.83 L
S
GR
GS
0.149 GC
2 setlinecap
1 LJ
0.5 LW
N
290.595 374 M
290.595 371.83 L
S
GR
GS
0.149 GC
2 setlinecap
1 LJ
0.5 LW
N
299.941 374 M
299.941 371.83 L
S
GR
GS
0.149 GC
2 setlinecap
1 LJ
0.5 LW
N
309.286 374 M
309.286 371.83 L
S
GR
GS
0.149 GC
2 setlinecap
1 LJ
0.5 LW
N
318.632 374 M
318.632 371.83 L
S
GR
GS
0.149 GC
2 setlinecap
1 LJ
0.5 LW
N
337.323 374 M
337.323 371.83 L
S
GR
GS
0.149 GC
2 setlinecap
1 LJ
0.5 LW
N
346.669 374 M
346.669 371.83 L
S
GR
GS
0.149 GC
2 setlinecap
1 LJ
0.5 LW
N
356.014 374 M
356.014 371.83 L
S
GR
GS
0.149 GC
2 setlinecap
1 LJ
0.5 LW
N
365.36 374 M
365.36 371.83 L
S
GR
GS
0.149 GC
2 setlinecap
1 LJ
0.5 LW
N
384.051 374 M
384.051 371.83 L
S
GR
GS
0.149 GC
2 setlinecap
1 LJ
0.5 LW
N
393.397 374 M
393.397 371.83 L
S
GR
GS
0.149 GC
2 setlinecap
1 LJ
0.5 LW
N
402.742 374 M
402.742 371.83 L
S
GR
GS
0.149 GC
2 setlinecap
1 LJ
0.5 LW
N
412.088 374 M
412.088 371.83 L
S
GR
GS
0.149 GC
2 setlinecap
1 LJ
0.5 LW
N
430.779 374 M
430.779 371.83 L
S
GR
GS
0.149 GC
2 setlinecap
1 LJ
0.5 LW
N
440.125 374 M
440.125 371.83 L
S
GR
GS
0.149 GC
2 setlinecap
1 LJ
0.5 LW
N
449.47 374 M
449.47 371.83 L
S
GR
GS
0.149 GC
2 setlinecap
1 LJ
0.5 LW
N
458.816 374 M
458.816 371.83 L
S
GR
GS
0.149 GC
2 setlinecap
1 LJ
0.5 LW
N
477.507 374 M
477.507 371.83 L
S
GR
GS
0.149 GC
2 setlinecap
1 LJ
0.5 LW
N
486.853 374 M
486.853 371.83 L
S
GR
GS
0.149 GC
2 setlinecap
1 LJ
0.5 LW
N
496.198 374 M
496.198 371.83 L
S
GR
GS
0.149 GC
2 setlinecap
1 LJ
0.5 LW
N
505.544 374 M
505.544 371.83 L
S
GR
GS
0.149 GC
2 setlinecap
1 LJ
0.5 LW
N
75.647 31.5 M
75.647 33.67 L
S
GR
GS
0.149 GC
2 setlinecap
1 LJ
0.5 LW
N
84.992 31.5 M
84.992 33.67 L
S
GR
GS
0.149 GC
2 setlinecap
1 LJ
0.5 LW
N
103.683 31.5 M
103.683 33.67 L
S
GR
GS
0.149 GC
2 setlinecap
1 LJ
0.5 LW
N
113.029 31.5 M
113.029 33.67 L
S
GR
GS
0.149 GC
2 setlinecap
1 LJ
0.5 LW
N
122.375 31.5 M
122.375 33.67 L
S
GR
GS
0.149 GC
2 setlinecap
1 LJ
0.5 LW
N
131.72 31.5 M
131.72 33.67 L
S
GR
GS
0.149 GC
2 setlinecap
1 LJ
0.5 LW
N
150.411 31.5 M
150.411 33.67 L
S
GR
GS
0.149 GC
2 setlinecap
1 LJ
0.5 LW
N
159.757 31.5 M
159.757 33.67 L
S
GR
GS
0.149 GC
2 setlinecap
1 LJ
0.5 LW
N
169.103 31.5 M
169.103 33.67 L
S
GR
GS
0.149 GC
2 setlinecap
1 LJ
0.5 LW
N
178.448 31.5 M
178.448 33.67 L
S
GR
GS
0.149 GC
2 setlinecap
1 LJ
0.5 LW
N
197.139 31.5 M
197.139 33.67 L
S
GR
GS
0.149 GC
2 setlinecap
1 LJ
0.5 LW
N
206.485 31.5 M
206.485 33.67 L
S
GR
GS
0.149 GC
2 setlinecap
1 LJ
0.5 LW
N
215.831 31.5 M
215.831 33.67 L
S
GR
GS
0.149 GC
2 setlinecap
1 LJ
0.5 LW
N
225.176 31.5 M
225.176 33.67 L
S
GR
GS
0.149 GC
2 setlinecap
1 LJ
0.5 LW
N
243.867 31.5 M
243.867 33.67 L
S
GR
GS
0.149 GC
2 setlinecap
1 LJ
0.5 LW
N
253.213 31.5 M
253.213 33.67 L
S
GR
GS
0.149 GC
2 setlinecap
1 LJ
0.5 LW
N
262.558 31.5 M
262.558 33.67 L
S
GR
GS
0.149 GC
2 setlinecap
1 LJ
0.5 LW
N
271.904 31.5 M
271.904 33.67 L
S
GR
GS
0.149 GC
2 setlinecap
1 LJ
0.5 LW
N
290.595 31.5 M
290.595 33.67 L
S
GR
GS
0.149 GC
2 setlinecap
1 LJ
0.5 LW
N
299.941 31.5 M
299.941 33.67 L
S
GR
GS
0.149 GC
2 setlinecap
1 LJ
0.5 LW
N
309.286 31.5 M
309.286 33.67 L
S
GR
GS
0.149 GC
2 setlinecap
1 LJ
0.5 LW
N
318.632 31.5 M
318.632 33.67 L
S
GR
GS
0.149 GC
2 setlinecap
1 LJ
0.5 LW
N
337.323 31.5 M
337.323 33.67 L
S
GR
GS
0.149 GC
2 setlinecap
1 LJ
0.5 LW
N
346.669 31.5 M
346.669 33.67 L
S
GR
GS
0.149 GC
2 setlinecap
1 LJ
0.5 LW
N
356.014 31.5 M
356.014 33.67 L
S
GR
GS
0.149 GC
2 setlinecap
1 LJ
0.5 LW
N
365.36 31.5 M
365.36 33.67 L
S
GR
GS
0.149 GC
2 setlinecap
1 LJ
0.5 LW
N
384.051 31.5 M
384.051 33.67 L
S
GR
GS
0.149 GC
2 setlinecap
1 LJ
0.5 LW
N
393.397 31.5 M
393.397 33.67 L
S
GR
GS
0.149 GC
2 setlinecap
1 LJ
0.5 LW
N
402.742 31.5 M
402.742 33.67 L
S
GR
GS
0.149 GC
2 setlinecap
1 LJ
0.5 LW
N
412.088 31.5 M
412.088 33.67 L
S
GR
GS
0.149 GC
2 setlinecap
1 LJ
0.5 LW
N
430.779 31.5 M
430.779 33.67 L
S
GR
GS
0.149 GC
2 setlinecap
1 LJ
0.5 LW
N
440.125 31.5 M
440.125 33.67 L
S
GR
GS
0.149 GC
2 setlinecap
1 LJ
0.5 LW
N
449.47 31.5 M
449.47 33.67 L
S
GR
GS
0.149 GC
2 setlinecap
1 LJ
0.5 LW
N
458.816 31.5 M
458.816 33.67 L
S
GR
GS
0.149 GC
2 setlinecap
1 LJ
0.5 LW
N
477.507 31.5 M
477.507 33.67 L
S
GR
GS
0.149 GC
2 setlinecap
1 LJ
0.5 LW
N
486.853 31.5 M
486.853 33.67 L
S
GR
GS
0.149 GC
2 setlinecap
1 LJ
0.5 LW
N
496.198 31.5 M
496.198 33.67 L
S
GR
GS
0.149 GC
2 setlinecap
1 LJ
0.5 LW
N
505.544 31.5 M
505.544 33.67 L
S
GR
GS
[1 0 0 1 94.3378 378.79999] CT
0.149 GC
/Helvetica 14 F
GS
[1 0 0 1 0 0] CT
-16 14 moveto 
1 -1 scale
(1000) t 
GR
GR
GS
[1 0 0 1 141.06577 378.79999] CT
0.149 GC
/Helvetica 14 F
GS
[1 0 0 1 0 0] CT
-16 14 moveto 
1 -1 scale
(2000) t 
GR
GR
GS
[1 0 0 1 187.79372 378.79999] CT
0.149 GC
/Helvetica 14 F
GS
[1 0 0 1 0 0] CT
-16 14 moveto 
1 -1 scale
(3000) t 
GR
GR
GS
[1 0 0 1 234.52168 378.79999] CT
0.149 GC
/Helvetica 14 F
GS
[1 0 0 1 0 0] CT
-16 14 moveto 
1 -1 scale
(4000) t 
GR
GR
GS
[1 0 0 1 281.24963 378.79999] CT
0.149 GC
/Helvetica 14 F
GS
[1 0 0 1 0 0] CT
-16 14 moveto 
1 -1 scale
(5000) t 
GR
GR
GS
[1 0 0 1 327.9776 378.79999] CT
0.149 GC
/Helvetica 14 F
GS
[1 0 0 1 0 0] CT
-16 14 moveto 
1 -1 scale
(6000) t 
GR
GR
GS
[1 0 0 1 374.70557 378.79999] CT
0.149 GC
/Helvetica 14 F
GS
[1 0 0 1 0 0] CT
-16 14 moveto 
1 -1 scale
(7000) t 
GR
GR
GS
[1 0 0 1 421.43353 378.79999] CT
0.149 GC
/Helvetica 14 F
GS
[1 0 0 1 0 0] CT
-16 14 moveto 
1 -1 scale
(8000) t 
GR
GR
GS
[1 0 0 1 468.1615 378.79999] CT
0.149 GC
/Helvetica 14 F
GS
[1 0 0 1 0 0] CT
-16 14 moveto 
1 -1 scale
(9000) t 
GR
GR
GS
[1 0 0 1 290.00021 396.29999] CT
0.149 GC
/Helvetica 15.4 F
GS
[1 0 0 1 0 0] CT
-42 15 moveto 
1 -1 scale
(Bitrate\(kb/s\)) t 
GR
GR
GS
0.149 GC
2 setlinecap
1 LJ
0.5 LW
N
73 374 M
73 31.5 L
S
GR
GS
0.149 GC
2 setlinecap
1 LJ
0.5 LW
N
507 374 M
507 31.5 L
S
GR
GS
0.149 GC
2 setlinecap
1 LJ
0.5 LW
N
73 365.516 M
77.34 365.516 L
S
GR
GS
0.149 GC
2 setlinecap
1 LJ
0.5 LW
N
73 335.133 M
77.34 335.133 L
S
GR
GS
0.149 GC
2 setlinecap
1 LJ
0.5 LW
N
73 304.751 M
77.34 304.751 L
S
GR
GS
0.149 GC
2 setlinecap
1 LJ
0.5 LW
N
73 274.368 M
77.34 274.368 L
S
GR
GS
0.149 GC
2 setlinecap
1 LJ
0.5 LW
N
73 243.986 M
77.34 243.986 L
S
GR
GS
0.149 GC
2 setlinecap
1 LJ
0.5 LW
N
73 213.604 M
77.34 213.604 L
S
GR
GS
0.149 GC
2 setlinecap
1 LJ
0.5 LW
N
73 183.221 M
77.34 183.221 L
S
GR
GS
0.149 GC
2 setlinecap
1 LJ
0.5 LW
N
73 152.839 M
77.34 152.839 L
S
GR
GS
0.149 GC
2 setlinecap
1 LJ
0.5 LW
N
73 122.456 M
77.34 122.456 L
S
GR
GS
0.149 GC
2 setlinecap
1 LJ
0.5 LW
N
73 92.074 M
77.34 92.074 L
S
GR
GS
0.149 GC
2 setlinecap
1 LJ
0.5 LW
N
73 61.692 M
77.34 61.692 L
S
GR
GS
0.149 GC
2 setlinecap
1 LJ
0.5 LW
N
507 365.516 M
502.66 365.516 L
S
GR
GS
0.149 GC
2 setlinecap
1 LJ
0.5 LW
N
507 335.133 M
502.66 335.133 L
S
GR
GS
0.149 GC
2 setlinecap
1 LJ
0.5 LW
N
507 304.751 M
502.66 304.751 L
S
GR
GS
0.149 GC
2 setlinecap
1 LJ
0.5 LW
N
507 274.368 M
502.66 274.368 L
S
GR
GS
0.149 GC
2 setlinecap
1 LJ
0.5 LW
N
507 243.986 M
502.66 243.986 L
S
GR
GS
0.149 GC
2 setlinecap
1 LJ
0.5 LW
N
507 213.604 M
502.66 213.604 L
S
GR
GS
0.149 GC
2 setlinecap
1 LJ
0.5 LW
N
507 183.221 M
502.66 183.221 L
S
GR
GS
0.149 GC
2 setlinecap
1 LJ
0.5 LW
N
507 152.839 M
502.66 152.839 L
S
GR
GS
0.149 GC
2 setlinecap
1 LJ
0.5 LW
N
507 122.456 M
502.66 122.456 L
S
GR
GS
0.149 GC
2 setlinecap
1 LJ
0.5 LW
N
507 92.074 M
502.66 92.074 L
S
GR
GS
0.149 GC
2 setlinecap
1 LJ
0.5 LW
N
507 61.692 M
502.66 61.692 L
S
GR
GS
0.149 GC
2 setlinecap
1 LJ
0.5 LW
N
73 371.592 M
75.17 371.592 L
S
GR
GS
0.149 GC
2 setlinecap
1 LJ
0.5 LW
N
73 359.439 M
75.17 359.439 L
S
GR
GS
0.149 GC
2 setlinecap
1 LJ
0.5 LW
N
73 353.363 M
75.17 353.363 L
S
GR
GS
0.149 GC
2 setlinecap
1 LJ
0.5 LW
N
73 347.286 M
75.17 347.286 L
S
GR
GS
0.149 GC
2 setlinecap
1 LJ
0.5 LW
N
73 341.21 M
75.17 341.21 L
S
GR
GS
0.149 GC
2 setlinecap
1 LJ
0.5 LW
N
73 329.057 M
75.17 329.057 L
S
GR
GS
0.149 GC
2 setlinecap
1 LJ
0.5 LW
N
73 322.98 M
75.17 322.98 L
S
GR
GS
0.149 GC
2 setlinecap
1 LJ
0.5 LW
N
73 316.904 M
75.17 316.904 L
S
GR
GS
0.149 GC
2 setlinecap
1 LJ
0.5 LW
N
73 310.827 M
75.17 310.827 L
S
GR
GS
0.149 GC
2 setlinecap
1 LJ
0.5 LW
N
73 298.674 M
75.17 298.674 L
S
GR
GS
0.149 GC
2 setlinecap
1 LJ
0.5 LW
N
73 292.598 M
75.17 292.598 L
S
GR
GS
0.149 GC
2 setlinecap
1 LJ
0.5 LW
N
73 286.521 M
75.17 286.521 L
S
GR
GS
0.149 GC
2 setlinecap
1 LJ
0.5 LW
N
73 280.445 M
75.17 280.445 L
S
GR
GS
0.149 GC
2 setlinecap
1 LJ
0.5 LW
N
73 268.292 M
75.17 268.292 L
S
GR
GS
0.149 GC
2 setlinecap
1 LJ
0.5 LW
N
73 262.215 M
75.17 262.215 L
S
GR
GS
0.149 GC
2 setlinecap
1 LJ
0.5 LW
N
73 256.139 M
75.17 256.139 L
S
GR
GS
0.149 GC
2 setlinecap
1 LJ
0.5 LW
N
73 250.063 M
75.17 250.063 L
S
GR
GS
0.149 GC
2 setlinecap
1 LJ
0.5 LW
N
73 237.91 M
75.17 237.91 L
S
GR
GS
0.149 GC
2 setlinecap
1 LJ
0.5 LW
N
73 231.833 M
75.17 231.833 L
S
GR
GS
0.149 GC
2 setlinecap
1 LJ
0.5 LW
N
73 225.757 M
75.17 225.757 L
S
GR
GS
0.149 GC
2 setlinecap
1 LJ
0.5 LW
N
73 219.68 M
75.17 219.68 L
S
GR
GS
0.149 GC
2 setlinecap
1 LJ
0.5 LW
N
73 207.527 M
75.17 207.527 L
S
GR
GS
0.149 GC
2 setlinecap
1 LJ
0.5 LW
N
73 201.451 M
75.17 201.451 L
S
GR
GS
0.149 GC
2 setlinecap
1 LJ
0.5 LW
N
73 195.374 M
75.17 195.374 L
S
GR
GS
0.149 GC
2 setlinecap
1 LJ
0.5 LW
N
73 189.298 M
75.17 189.298 L
S
GR
GS
0.149 GC
2 setlinecap
1 LJ
0.5 LW
N
73 177.145 M
75.17 177.145 L
S
GR
GS
0.149 GC
2 setlinecap
1 LJ
0.5 LW
N
73 171.068 M
75.17 171.068 L
S
GR
GS
0.149 GC
2 setlinecap
1 LJ
0.5 LW
N
73 164.992 M
75.17 164.992 L
S
GR
GS
0.149 GC
2 setlinecap
1 LJ
0.5 LW
N
73 158.915 M
75.17 158.915 L
S
GR
GS
0.149 GC
2 setlinecap
1 LJ
0.5 LW
N
73 146.762 M
75.17 146.762 L
S
GR
GS
0.149 GC
2 setlinecap
1 LJ
0.5 LW
N
73 140.686 M
75.17 140.686 L
S
GR
GS
0.149 GC
2 setlinecap
1 LJ
0.5 LW
N
73 134.609 M
75.17 134.609 L
S
GR
GS
0.149 GC
2 setlinecap
1 LJ
0.5 LW
N
73 128.533 M
75.17 128.533 L
S
GR
GS
0.149 GC
2 setlinecap
1 LJ
0.5 LW
N
73 116.38 M
75.17 116.38 L
S
GR
GS
0.149 GC
2 setlinecap
1 LJ
0.5 LW
N
73 110.303 M
75.17 110.303 L
S
GR
GS
0.149 GC
2 setlinecap
1 LJ
0.5 LW
N
73 104.227 M
75.17 104.227 L
S
GR
GS
0.149 GC
2 setlinecap
1 LJ
0.5 LW
N
73 98.151 M
75.17 98.151 L
S
GR
GS
0.149 GC
2 setlinecap
1 LJ
0.5 LW
N
73 85.998 M
75.17 85.998 L
S
GR
GS
0.149 GC
2 setlinecap
1 LJ
0.5 LW
N
73 79.921 M
75.17 79.921 L
S
GR
GS
0.149 GC
2 setlinecap
1 LJ
0.5 LW
N
73 73.845 M
75.17 73.845 L
S
GR
GS
0.149 GC
2 setlinecap
1 LJ
0.5 LW
N
73 67.768 M
75.17 67.768 L
S
GR
GS
0.149 GC
2 setlinecap
1 LJ
0.5 LW
N
73 55.615 M
75.17 55.615 L
S
GR
GS
0.149 GC
2 setlinecap
1 LJ
0.5 LW
N
73 49.539 M
75.17 49.539 L
S
GR
GS
0.149 GC
2 setlinecap
1 LJ
0.5 LW
N
73 43.462 M
75.17 43.462 L
S
GR
GS
0.149 GC
2 setlinecap
1 LJ
0.5 LW
N
73 37.386 M
75.17 37.386 L
S
GR
GS
0.149 GC
2 setlinecap
1 LJ
0.5 LW
N
507 371.592 M
504.83 371.592 L
S
GR
GS
0.149 GC
2 setlinecap
1 LJ
0.5 LW
N
507 359.439 M
504.83 359.439 L
S
GR
GS
0.149 GC
2 setlinecap
1 LJ
0.5 LW
N
507 353.363 M
504.83 353.363 L
S
GR
GS
0.149 GC
2 setlinecap
1 LJ
0.5 LW
N
507 347.286 M
504.83 347.286 L
S
GR
GS
0.149 GC
2 setlinecap
1 LJ
0.5 LW
N
507 341.21 M
504.83 341.21 L
S
GR
GS
0.149 GC
2 setlinecap
1 LJ
0.5 LW
N
507 329.057 M
504.83 329.057 L
S
GR
GS
0.149 GC
2 setlinecap
1 LJ
0.5 LW
N
507 322.98 M
504.83 322.98 L
S
GR
GS
0.149 GC
2 setlinecap
1 LJ
0.5 LW
N
507 316.904 M
504.83 316.904 L
S
GR
GS
0.149 GC
2 setlinecap
1 LJ
0.5 LW
N
507 310.827 M
504.83 310.827 L
S
GR
GS
0.149 GC
2 setlinecap
1 LJ
0.5 LW
N
507 298.674 M
504.83 298.674 L
S
GR
GS
0.149 GC
2 setlinecap
1 LJ
0.5 LW
N
507 292.598 M
504.83 292.598 L
S
GR
GS
0.149 GC
2 setlinecap
1 LJ
0.5 LW
N
507 286.521 M
504.83 286.521 L
S
GR
GS
0.149 GC
2 setlinecap
1 LJ
0.5 LW
N
507 280.445 M
504.83 280.445 L
S
GR
GS
0.149 GC
2 setlinecap
1 LJ
0.5 LW
N
507 268.292 M
504.83 268.292 L
S
GR
GS
0.149 GC
2 setlinecap
1 LJ
0.5 LW
N
507 262.215 M
504.83 262.215 L
S
GR
GS
0.149 GC
2 setlinecap
1 LJ
0.5 LW
N
507 256.139 M
504.83 256.139 L
S
GR
GS
0.149 GC
2 setlinecap
1 LJ
0.5 LW
N
507 250.063 M
504.83 250.063 L
S
GR
GS
0.149 GC
2 setlinecap
1 LJ
0.5 LW
N
507 237.91 M
504.83 237.91 L
S
GR
GS
0.149 GC
2 setlinecap
1 LJ
0.5 LW
N
507 231.833 M
504.83 231.833 L
S
GR
GS
0.149 GC
2 setlinecap
1 LJ
0.5 LW
N
507 225.757 M
504.83 225.757 L
S
GR
GS
0.149 GC
2 setlinecap
1 LJ
0.5 LW
N
507 219.68 M
504.83 219.68 L
S
GR
GS
0.149 GC
2 setlinecap
1 LJ
0.5 LW
N
507 207.527 M
504.83 207.527 L
S
GR
GS
0.149 GC
2 setlinecap
1 LJ
0.5 LW
N
507 201.451 M
504.83 201.451 L
S
GR
GS
0.149 GC
2 setlinecap
1 LJ
0.5 LW
N
507 195.374 M
504.83 195.374 L
S
GR
GS
0.149 GC
2 setlinecap
1 LJ
0.5 LW
N
507 189.298 M
504.83 189.298 L
S
GR
GS
0.149 GC
2 setlinecap
1 LJ
0.5 LW
N
507 177.145 M
504.83 177.145 L
S
GR
GS
0.149 GC
2 setlinecap
1 LJ
0.5 LW
N
507 171.068 M
504.83 171.068 L
S
GR
GS
0.149 GC
2 setlinecap
1 LJ
0.5 LW
N
507 164.992 M
504.83 164.992 L
S
GR
GS
0.149 GC
2 setlinecap
1 LJ
0.5 LW
N
507 158.915 M
504.83 158.915 L
S
GR
GS
0.149 GC
2 setlinecap
1 LJ
0.5 LW
N
507 146.762 M
504.83 146.762 L
S
GR
GS
0.149 GC
2 setlinecap
1 LJ
0.5 LW
N
507 140.686 M
504.83 140.686 L
S
GR
GS
0.149 GC
2 setlinecap
1 LJ
0.5 LW
N
507 134.609 M
504.83 134.609 L
S
GR
GS
0.149 GC
2 setlinecap
1 LJ
0.5 LW
N
507 128.533 M
504.83 128.533 L
S
GR
GS
0.149 GC
2 setlinecap
1 LJ
0.5 LW
N
507 116.38 M
504.83 116.38 L
S
GR
GS
0.149 GC
2 setlinecap
1 LJ
0.5 LW
N
507 110.303 M
504.83 110.303 L
S
GR
GS
0.149 GC
2 setlinecap
1 LJ
0.5 LW
N
507 104.227 M
504.83 104.227 L
S
GR
GS
0.149 GC
2 setlinecap
1 LJ
0.5 LW
N
507 98.151 M
504.83 98.151 L
S
GR
GS
0.149 GC
2 setlinecap
1 LJ
0.5 LW
N
507 85.998 M
504.83 85.998 L
S
GR
GS
0.149 GC
2 setlinecap
1 LJ
0.5 LW
N
507 79.921 M
504.83 79.921 L
S
GR
GS
0.149 GC
2 setlinecap
1 LJ
0.5 LW
N
507 73.845 M
504.83 73.845 L
S
GR
GS
0.149 GC
2 setlinecap
1 LJ
0.5 LW
N
507 67.768 M
504.83 67.768 L
S
GR
GS
0.149 GC
2 setlinecap
1 LJ
0.5 LW
N
507 55.615 M
504.83 55.615 L
S
GR
GS
0.149 GC
2 setlinecap
1 LJ
0.5 LW
N
507 49.539 M
504.83 49.539 L
S
GR
GS
0.149 GC
2 setlinecap
1 LJ
0.5 LW
N
507 43.462 M
504.83 43.462 L
S
GR
GS
0.149 GC
2 setlinecap
1 LJ
0.5 LW
N
507 37.386 M
504.83 37.386 L
S
GR
GS
[1 0 0 1 68.2 365.51559] CT
0.149 GC
/Helvetica 14 F
GS
[1 0 0 1 0 0] CT
-16 5.5 moveto 
1 -1 scale
(45) t 
GR
GR
GS
[1 0 0 1 68.2 335.13321] CT
0.149 GC
/Helvetica 14 F
GS
[1 0 0 1 0 0] CT
-16 5.5 moveto 
1 -1 scale
(50) t 
GR
GR
GS
[1 0 0 1 68.2 304.75082] CT
0.149 GC
/Helvetica 14 F
GS
[1 0 0 1 0 0] CT
-16 5.5 moveto 
1 -1 scale
(55) t 
GR
GR
GS
[1 0 0 1 68.2 274.36841] CT
0.149 GC
/Helvetica 14 F
GS
[1 0 0 1 0 0] CT
-16 5.5 moveto 
1 -1 scale
(60) t 
GR
GR
GS
[1 0 0 1 68.2 243.98601] CT
0.149 GC
/Helvetica 14 F
GS
[1 0 0 1 0 0] CT
-16 5.5 moveto 
1 -1 scale
(65) t 
GR
GR
GS
[1 0 0 1 68.2 213.60362] CT
0.149 GC
/Helvetica 14 F
GS
[1 0 0 1 0 0] CT
-16 5.5 moveto 
1 -1 scale
(70) t 
GR
GR
GS
[1 0 0 1 68.2 183.22122] CT
0.149 GC
/Helvetica 14 F
GS
[1 0 0 1 0 0] CT
-16 5.5 moveto 
1 -1 scale
(75) t 
GR
GR
GS
[1 0 0 1 68.2 152.83882] CT
0.149 GC
/Helvetica 14 F
GS
[1 0 0 1 0 0] CT
-16 5.5 moveto 
1 -1 scale
(80) t 
GR
GR
GS
[1 0 0 1 68.2 122.45642] CT
0.149 GC
/Helvetica 14 F
GS
[1 0 0 1 0 0] CT
-16 5.5 moveto 
1 -1 scale
(85) t 
GR
GR
GS
[1 0 0 1 68.2 92.07402] CT
0.149 GC
/Helvetica 14 F
GS
[1 0 0 1 0 0] CT
-16 5.5 moveto 
1 -1 scale
(90) t 
GR
GR
GS
[1 0 0 1 68.2 61.69162] CT
0.149 GC
/Helvetica 14 F
GS
[1 0 0 1 0 0] CT
-16 5.5 moveto 
1 -1 scale
(95) t 
GR
GR
GS
[0 -1 1 0 49.2 202.74985] CT
0.149 GC
/Helvetica 15.4 F
GS
[1 0 0 1 0 0] CT
-21 -4 moveto 
1 -1 scale
(VMAF) t 
GR
GR
GS
[1 0 0 1 290.00027 29.575] CT
/Helvetica-Bold 15.4 F
GS
[1 0 0 1 0 0] CT
-96.5 -4 moveto 
1 -1 scale
(Vlog_1080P-58ad.y4m-av1) t 
GR
GR
GS
0 0.447 0.741 RC
1 LJ
0.5 LW
N
80.841 323.872 M
81.776 319.501 L
82.71 315.14 L
83.645 310.794 L
84.579 306.465 L
85.514 302.158 L
86.448 297.876 L
87.383 293.621 L
88.317 289.399 L
89.252 285.211 L
90.187 281.062 L
91.121 276.956 L
92.056 272.895 L
92.99 268.883 L
93.925 264.924 L
94.859 261.022 L
95.794 257.178 L
96.729 253.398 L
97.663 249.685 L
98.598 246.042 L
99.532 242.472 L
100.467 238.98 L
101.401 235.568 L
102.336 232.241 L
103.27 229.001 L
104.205 225.852 L
105.14 222.798 L
106.074 219.842 L
107.009 216.981 L
107.943 214.148 L
108.878 211.324 L
109.812 208.511 L
110.747 205.709 L
111.681 202.919 L
112.616 200.142 L
113.551 197.378 L
114.485 194.629 L
115.42 191.895 L
116.354 189.176 L
117.289 186.475 L
118.223 183.791 L
119.158 181.126 L
120.092 178.48 L
121.027 175.854 L
121.962 173.249 L
122.896 170.665 L
123.831 168.104 L
124.765 165.567 L
125.7 163.053 L
126.634 160.565 L
127.569 158.102 L
128.504 155.666 L
129.438 153.257 L
130.373 150.876 L
131.307 148.524 L
132.242 146.202 L
133.176 143.911 L
134.111 141.651 L
135.045 139.424 L
135.98 137.229 L
136.915 135.068 L
137.849 132.943 L
138.784 130.852 L
139.718 128.798 L
140.653 126.781 L
141.587 124.802 L
142.522 122.861 L
143.456 120.96 L
144.391 119.1 L
145.326 117.281 L
146.26 115.503 L
147.195 113.769 L
148.129 112.078 L
149.064 110.432 L
149.998 108.83 L
150.933 107.275 L
151.867 105.767 L
152.802 104.306 L
153.737 102.894 L
154.671 101.531 L
155.606 100.219 L
156.54 98.957 L
157.475 97.747 L
158.409 96.589 L
159.344 95.485 L
160.279 94.435 L
161.213 93.439 L
162.148 92.462 L
163.082 91.488 L
164.017 90.519 L
164.951 89.554 L
165.886 88.593 L
166.82 87.637 L
167.755 86.686 L
168.69 85.739 L
169.624 84.797 L
170.559 83.86 L
171.493 82.928 L
172.428 82.001 L
173.362 81.079 L
174.297 80.163 L
175.231 79.253 L
176.166 78.347 L
177.101 77.448 L
178.035 76.554 L
178.97 75.667 L
179.904 74.785 L
180.839 73.91 L
181.773 73.041 L
182.708 72.178 L
183.643 71.322 L
184.577 70.472 L
185.512 69.629 L
186.446 68.793 L
187.381 67.964 L
188.315 67.142 L
189.25 66.327 L
190.184 65.519 L
191.119 64.719 L
192.054 63.926 L
192.988 63.141 L
193.923 62.364 L
194.857 61.595 L
195.792 60.833 L
196.726 60.08 L
197.661 59.334 L
198.595 58.597 L
199.53 57.869 L
200.465 57.149 L
201.399 56.438 L
202.334 55.735 L
203.268 55.041 L
204.203 54.357 L
205.137 53.681 L
206.072 53.014 L
207.006 52.357 L
207.941 51.709 L
208.876 51.071 L
209.81 50.443 L
210.745 49.824 L
211.679 49.215 L
212.614 48.616 L
213.548 48.027 L
214.483 47.449 L
215.418 46.88 L
216.352 46.322 L
217.287 45.775 L
218.221 45.238 L
219.156 44.713 L
220.09 44.198 L
221.025 43.694 L
221.959 43.201 L
222.894 42.719 L
223.829 42.249 L
224.763 41.79 L
225.698 41.342 L
226.632 40.907 L
227.567 40.483 L
228.501 40.071 L
229.436 39.671 L
230.37 39.283 L
231.305 38.908 L
232.24 38.544 L
233.174 38.194 L
234.109 37.855 L
235.043 37.53 L
235.978 37.217 L
236.912 36.917 L
237.847 36.63 L
238.782 36.357 L
239.716 36.096 L
240.651 35.849 L
241.585 35.616 L
242.52 35.396 L
243.454 35.189 L
244.389 34.997 L
245.323 34.818 L
246.258 34.654 L
247.193 34.503 L
248.127 34.367 L
249.062 34.245 L
249.996 34.138 L
250.931 34.045 L
251.865 33.967 L
252.8 33.904 L
253.734 33.856 L
254.669 33.823 L
255.604 33.802 L
256.538 33.782 L
257.473 33.762 L
258.407 33.743 L
259.342 33.724 L
260.276 33.704 L
261.211 33.685 L
262.145 33.666 L
263.08 33.647 L
264.015 33.628 L
264.949 33.609 L
265.884 33.591 L
266.818 33.572 L
267.753 33.554 L
268.687 33.535 L
269.622 33.517 L
270.557 33.499 L
271.491 33.481 L
272.426 33.463 L
273.36 33.445 L
274.295 33.427 L
275.229 33.409 L
276.164 33.392 L
277.098 33.374 L
278.033 33.357 L
278.968 33.34 L
279.902 33.322 L
280.837 33.305 L
281.771 33.288 L
282.706 33.271 L
283.64 33.255 L
284.575 33.238 L
285.509 33.221 L
286.444 33.205 L
287.379 33.188 L
288.313 33.172 L
289.248 33.156 L
290.182 33.14 L
291.117 33.124 L
292.051 33.108 L
292.986 33.092 L
293.921 33.076 L
294.855 33.06 L
295.79 33.045 L
296.724 33.029 L
297.659 33.014 L
298.593 32.999 L
299.528 32.983 L
300.462 32.968 L
301.397 32.953 L
302.332 32.938 L
303.266 32.924 L
304.201 32.909 L
305.135 32.894 L
306.07 32.88 L
307.004 32.865 L
307.939 32.851 L
308.873 32.837 L
309.808 32.822 L
310.743 32.808 L
311.677 32.794 L
312.612 32.78 L
313.546 32.766 L
314.481 32.753 L
315.415 32.739 L
316.35 32.725 L
317.284 32.712 L
318.219 32.699 L
319.154 32.685 L
320.088 32.672 L
321.023 32.659 L
321.957 32.646 L
322.892 32.633 L
323.826 32.62 L
324.761 32.607 L
325.695 32.595 L
326.63 32.582 L
327.565 32.57 L
328.499 32.557 L
329.434 32.545 L
330.368 32.533 L
331.303 32.52 L
332.237 32.508 L
333.172 32.496 L
334.107 32.484 L
335.041 32.473 L
335.976 32.461 L
336.91 32.449 L
337.845 32.438 L
338.779 32.426 L
339.714 32.415 L
340.648 32.403 L
341.583 32.392 L
342.518 32.381 L
343.452 32.37 L
344.387 32.359 L
345.321 32.348 L
346.256 32.337 L
347.19 32.326 L
348.125 32.316 L
349.059 32.305 L
349.994 32.295 L
350.929 32.284 L
351.863 32.274 L
352.798 32.264 L
353.732 32.253 L
354.667 32.243 L
355.601 32.233 L
356.536 32.223 L
357.471 32.213 L
358.405 32.204 L
359.34 32.194 L
360.274 32.184 L
361.209 32.175 L
362.143 32.165 L
363.078 32.156 L
364.012 32.146 L
364.947 32.137 L
365.882 32.128 L
366.816 32.119 L
367.751 32.11 L
368.685 32.101 L
369.62 32.092 L
370.554 32.083 L
371.489 32.075 L
372.423 32.066 L
373.358 32.057 L
374.293 32.049 L
375.227 32.041 L
376.162 32.032 L
377.096 32.024 L
378.031 32.016 L
378.965 32.008 L
379.9 32 L
380.835 31.992 L
381.769 31.984 L
382.704 31.976 L
383.638 31.968 L
384.573 31.961 L
385.507 31.953 L
386.442 31.945 L
387.376 31.938 L
388.311 31.931 L
389.246 31.923 L
390.18 31.916 L
391.115 31.909 L
392.049 31.902 L
392.984 31.895 L
393.918 31.888 L
394.853 31.881 L
395.787 31.874 L
396.722 31.867 L
397.657 31.861 L
398.591 31.854 L
399.526 31.848 L
400.46 31.841 L
401.395 31.835 L
402.329 31.828 L
403.264 31.822 L
404.198 31.816 L
405.133 31.81 L
406.068 31.804 L
407.002 31.798 L
407.937 31.792 L
408.871 31.786 L
409.806 31.78 L
410.74 31.774 L
411.675 31.769 L
412.61 31.763 L
413.544 31.758 L
414.479 31.752 L
415.413 31.747 L
416.348 31.741 L
417.282 31.736 L
418.217 31.731 L
419.151 31.726 L
420.086 31.721 L
421.021 31.716 L
421.955 31.711 L
422.89 31.706 L
423.824 31.701 L
424.759 31.696 L
425.693 31.692 L
426.628 31.687 L
427.562 31.683 L
428.497 31.678 L
429.432 31.674 L
430.366 31.669 L
431.301 31.665 L
432.235 31.661 L
433.17 31.656 L
434.104 31.652 L
435.039 31.648 L
435.974 31.644 L
436.908 31.64 L
437.843 31.636 L
438.777 31.633 L
439.712 31.629 L
440.646 31.625 L
441.581 31.621 L
442.515 31.618 L
443.45 31.614 L
444.385 31.611 L
445.319 31.607 L
446.254 31.604 L
447.188 31.601 L
448.123 31.598 L
449.057 31.594 L
449.992 31.591 L
450.926 31.588 L
451.861 31.585 L
452.796 31.582 L
453.73 31.579 L
454.665 31.576 L
455.599 31.574 L
456.534 31.571 L
457.468 31.568 L
458.403 31.566 L
459.337 31.563 L
460.272 31.561 L
461.207 31.558 L
462.141 31.556 L
463.076 31.553 L
464.01 31.551 L
464.945 31.549 L
465.879 31.547 L
466.814 31.544 L
467.749 31.542 L
468.683 31.54 L
469.618 31.538 L
470.552 31.536 L
471.487 31.535 L
472.421 31.533 L
473.356 31.531 L
474.29 31.529 L
475.225 31.528 L
476.16 31.526 L
477.094 31.524 L
478.029 31.523 L
478.963 31.521 L
479.898 31.52 L
480.832 31.519 L
481.767 31.517 L
482.701 31.516 L
483.636 31.515 L
484.571 31.514 L
485.505 31.513 L
486.44 31.512 L
487.374 31.511 L
488.309 31.51 L
489.243 31.509 L
490.178 31.508 L
491.112 31.507 L
492.047 31.506 L
492.982 31.505 L
493.916 31.505 L
494.851 31.504 L
495.785 31.504 L
496.72 31.503 L
497.654 31.503 L
498.589 31.502 L
499.524 31.502 L
500.458 31.501 L
501.393 31.501 L
502.327 31.501 L
503.262 31.5 L
504.196 31.5 L
505.131 31.5 L
506.065 31.5 L
507 31.5 L
S
GR
GS
0.851 0.325 0.098 RC
1 LJ
0.5 LW
N
73 374 M
73.935 368.28 L
74.869 362.579 L
75.804 356.903 L
76.738 351.26 L
77.673 345.657 L
78.607 340.103 L
79.542 334.604 L
80.476 329.168 L
81.411 323.803 L
82.346 318.516 L
83.28 313.315 L
84.215 308.207 L
85.149 303.2 L
86.084 298.301 L
87.018 293.518 L
87.953 288.858 L
88.888 284.329 L
89.822 279.938 L
90.757 275.693 L
91.691 271.601 L
92.626 267.67 L
93.56 263.868 L
94.495 260.099 L
95.429 256.358 L
96.364 252.645 L
97.299 248.961 L
98.233 245.308 L
99.168 241.686 L
100.102 238.096 L
101.037 234.538 L
101.971 231.015 L
102.906 227.525 L
103.84 224.072 L
104.775 220.654 L
105.71 217.274 L
106.644 213.931 L
107.579 210.627 L
108.513 207.363 L
109.448 204.139 L
110.382 200.957 L
111.317 197.817 L
112.251 194.719 L
113.186 191.666 L
114.121 188.657 L
115.055 185.694 L
115.99 182.777 L
116.924 179.907 L
117.859 177.085 L
118.793 174.313 L
119.728 171.59 L
120.663 168.917 L
121.597 166.297 L
122.532 163.728 L
123.466 161.212 L
124.401 158.751 L
125.335 156.344 L
126.27 153.994 L
127.204 151.699 L
128.139 149.462 L
129.074 147.283 L
130.008 145.164 L
130.943 143.104 L
131.877 141.105 L
132.812 139.168 L
133.746 137.293 L
134.681 135.481 L
135.615 133.734 L
136.55 132.048 L
137.485 130.381 L
138.419 128.719 L
139.354 127.061 L
140.288 125.409 L
141.223 123.763 L
142.157 122.122 L
143.092 120.488 L
144.027 118.861 L
144.961 117.241 L
145.896 115.629 L
146.83 114.025 L
147.765 112.429 L
148.699 110.842 L
149.634 109.264 L
150.568 107.696 L
151.503 106.137 L
152.438 104.589 L
153.372 103.052 L
154.307 101.526 L
155.241 100.012 L
156.176 98.509 L
157.11 97.018 L
158.045 95.541 L
158.979 94.076 L
159.914 92.625 L
160.849 91.188 L
161.783 89.764 L
162.718 88.356 L
163.652 86.963 L
164.587 85.584 L
165.521 84.222 L
166.456 82.876 L
167.39 81.547 L
168.325 80.234 L
169.26 78.939 L
170.194 77.661 L
171.129 76.402 L
172.063 75.161 L
172.998 73.939 L
173.932 72.737 L
174.867 71.554 L
175.802 70.391 L
176.736 69.249 L
177.671 68.127 L
178.605 67.027 L
179.54 65.948 L
180.474 64.892 L
181.409 63.857 L
182.343 62.846 L
183.278 61.858 L
184.213 60.893 L
185.147 59.952 L
186.082 59.036 L
187.016 58.144 L
187.951 57.278 L
188.885 56.437 L
189.82 55.622 L
190.754 54.833 L
191.689 54.071 L
192.624 53.336 L
193.558 52.628 L
194.493 51.948 L
195.427 51.297 L
196.362 50.674 L
197.296 50.08 L
198.231 49.516 L
199.165 48.981 L
200.1 48.477 L
201.035 48.003 L
201.969 47.56 L
202.904 47.149 L
203.838 46.769 L
204.773 46.421 L
205.707 46.106 L
206.642 45.824 L
207.577 45.575 L
208.511 45.36 L
209.446 45.178 L
210.38 45.022 L
211.315 44.868 L
212.249 44.715 L
213.184 44.562 L
214.118 44.411 L
215.053 44.261 L
215.988 44.112 L
216.922 43.963 L
217.857 43.816 L
218.791 43.669 L
219.726 43.524 L
220.66 43.379 L
221.595 43.236 L
222.529 43.093 L
223.464 42.952 L
224.399 42.811 L
225.333 42.672 L
226.268 42.533 L
227.202 42.395 L
228.137 42.258 L
229.071 42.123 L
230.006 41.988 L
230.941 41.854 L
231.875 41.721 L
232.81 41.589 L
233.744 41.458 L
234.679 41.328 L
235.613 41.198 L
236.548 41.07 L
237.482 40.943 L
238.417 40.817 L
239.352 40.691 L
240.286 40.567 L
241.221 40.443 L
242.155 40.32 L
243.09 40.199 L
244.024 40.078 L
244.959 39.958 L
245.893 39.839 L
246.828 39.721 L
247.763 39.604 L
248.697 39.488 L
249.632 39.373 L
250.566 39.258 L
251.501 39.145 L
252.435 39.032 L
253.37 38.921 L
254.304 38.81 L
255.239 38.7 L
256.174 38.591 L
257.108 38.483 L
258.043 38.376 L
258.977 38.27 L
259.912 38.165 L
260.846 38.061 L
261.781 37.957 L
262.716 37.855 L
263.65 37.753 L
264.585 37.652 L
265.519 37.552 L
266.454 37.453 L
267.388 37.355 L
268.323 37.258 L
269.257 37.162 L
270.192 37.066 L
271.127 36.971 L
272.061 36.878 L
272.996 36.785 L
273.93 36.693 L
274.865 36.602 L
275.799 36.512 L
276.734 36.422 L
277.668 36.334 L
278.603 36.246 L
279.538 36.159 L
280.472 36.074 L
281.407 35.989 L
282.341 35.904 L
283.276 35.821 L
284.21 35.739 L
285.145 35.657 L
286.079 35.576 L
287.014 35.496 L
287.949 35.417 L
288.883 35.339 L
289.818 35.262 L
290.752 35.185 L
291.687 35.11 L
292.621 35.035 L
293.556 34.961 L
294.491 34.888 L
295.425 34.816 L
296.36 34.744 L
297.294 34.673 L
298.229 34.604 L
299.163 34.535 L
300.098 34.467 L
301.032 34.399 L
301.967 34.333 L
302.902 34.267 L
303.836 34.202 L
304.771 34.138 L
305.705 34.075 L
306.64 34.013 L
307.574 33.951 L
308.509 33.89 L
309.443 33.831 L
310.378 33.771 L
311.313 33.713 L
312.247 33.656 L
313.182 33.599 L
314.116 33.543 L
315.051 33.488 L
315.985 33.434 L
316.92 33.38 L
317.855 33.327 L
318.789 33.276 L
319.724 33.224 L
320.658 33.174 L
321.593 33.125 L
322.527 33.076 L
323.462 33.028 L
324.396 32.981 L
325.331 32.934 L
326.266 32.889 L
327.2 32.844 L
328.135 32.8 L
329.069 32.757 L
330.004 32.714 L
330.938 32.673 L
331.873 32.632 L
332.807 32.592 L
333.742 32.552 L
334.677 32.514 L
335.611 32.476 L
336.546 32.439 L
337.48 32.402 L
338.415 32.367 L
339.349 32.332 L
340.284 32.298 L
341.219 32.265 L
342.153 32.232 L
343.088 32.2 L
344.022 32.169 L
344.957 32.139 L
345.891 32.11 L
346.826 32.081 L
347.76 32.053 L
348.695 32.026 L
349.63 31.999 L
350.564 31.973 L
351.499 31.948 L
352.433 31.924 L
353.368 31.9 L
354.302 31.877 L
355.237 31.855 L
356.171 31.834 L
357.106 31.813 L
358.041 31.793 L
358.975 31.774 L
359.91 31.756 L
360.844 31.738 L
361.779 31.721 L
362.713 31.704 L
363.648 31.689 L
364.582 31.674 L
365.517 31.66 L
366.452 31.646 L
367.386 31.634 L
368.321 31.621 L
369.255 31.61 L
370.19 31.599 L
371.124 31.59 L
372.059 31.58 L
372.994 31.572 L
373.928 31.564 L
374.863 31.557 L
375.797 31.55 L
376.732 31.545 L
377.666 31.54 L
378.601 31.535 L
379.535 31.532 L
380.47 31.529 L
381.405 31.526 L
382.339 31.525 L
383.274 31.524 L
S
GR
GS
0.929 0.694 0.125 RC
1 LJ
0.5 LW
N
80.348 325.606 M
81.283 321.039 L
82.217 316.483 L
83.152 311.942 L
84.087 307.421 L
85.021 302.922 L
85.956 298.451 L
86.89 294.011 L
87.825 289.605 L
88.759 285.239 L
89.694 280.915 L
90.628 276.639 L
91.563 272.413 L
92.498 268.241 L
93.432 264.128 L
94.367 260.078 L
95.301 256.094 L
96.236 252.181 L
97.17 248.342 L
98.105 244.581 L
99.039 240.902 L
99.974 237.31 L
100.909 233.808 L
101.843 230.399 L
102.778 227.089 L
103.712 223.88 L
104.647 220.777 L
105.581 217.784 L
106.516 214.873 L
107.451 211.975 L
108.385 209.089 L
109.32 206.217 L
110.254 203.358 L
111.189 200.514 L
112.123 197.685 L
113.058 194.873 L
113.992 192.077 L
114.927 189.299 L
115.862 186.54 L
116.796 183.801 L
117.731 181.082 L
118.665 178.383 L
119.6 175.707 L
120.534 173.053 L
121.469 170.423 L
122.403 167.817 L
123.338 165.236 L
124.273 162.681 L
125.207 160.153 L
126.142 157.652 L
127.076 155.18 L
128.011 152.736 L
128.945 150.323 L
129.88 147.94 L
130.814 145.589 L
131.749 143.27 L
132.684 140.985 L
133.618 138.733 L
134.553 136.516 L
135.487 134.335 L
136.422 132.19 L
137.356 130.082 L
138.291 128.012 L
139.226 125.981 L
140.16 123.989 L
141.095 122.038 L
142.029 120.128 L
142.964 118.26 L
143.898 116.435 L
144.833 114.654 L
145.767 112.916 L
146.702 111.225 L
147.637 109.579 L
148.571 107.98 L
149.506 106.428 L
150.44 104.926 L
151.375 103.472 L
152.309 102.068 L
153.244 100.716 L
154.178 99.414 L
155.113 98.166 L
156.048 96.971 L
156.982 95.829 L
157.917 94.743 L
158.851 93.712 L
159.786 92.717 L
160.72 91.725 L
161.655 90.738 L
162.59 89.755 L
163.524 88.777 L
164.459 87.804 L
165.393 86.835 L
166.328 85.871 L
167.262 84.912 L
168.197 83.958 L
169.131 83.01 L
170.066 82.066 L
171.001 81.128 L
171.935 80.196 L
172.87 79.27 L
173.804 78.349 L
174.739 77.434 L
175.673 76.526 L
176.608 75.623 L
177.542 74.727 L
178.477 73.837 L
179.412 72.954 L
180.346 72.077 L
181.281 71.207 L
182.215 70.345 L
183.15 69.489 L
184.084 68.64 L
185.019 67.798 L
185.953 66.964 L
186.888 66.138 L
187.823 65.319 L
188.757 64.507 L
189.692 63.704 L
190.626 62.909 L
191.561 62.121 L
192.495 61.342 L
193.43 60.571 L
194.365 59.809 L
195.299 59.055 L
196.234 58.31 L
197.168 57.574 L
198.103 56.847 L
199.037 56.128 L
199.972 55.419 L
200.906 54.719 L
201.841 54.029 L
202.776 53.348 L
203.71 52.677 L
204.645 52.015 L
205.579 51.364 L
206.514 50.722 L
207.448 50.091 L
208.383 49.47 L
209.317 48.859 L
210.252 48.259 L
211.187 47.669 L
212.121 47.09 L
213.056 46.522 L
213.99 45.964 L
214.925 45.418 L
215.859 44.883 L
216.794 44.36 L
217.729 43.848 L
218.663 43.347 L
219.598 42.858 L
220.532 42.381 L
221.467 41.916 L
222.401 41.462 L
223.336 41.021 L
224.27 40.593 L
225.205 40.176 L
226.14 39.773 L
227.074 39.381 L
228.009 39.003 L
228.943 38.637 L
229.878 38.285 L
230.812 37.945 L
231.747 37.619 L
232.681 37.306 L
233.616 37.007 L
234.551 36.721 L
235.485 36.449 L
236.42 36.191 L
237.354 35.946 L
238.289 35.716 L
239.223 35.5 L
240.158 35.298 L
241.092 35.111 L
242.027 34.938 L
242.962 34.78 L
243.896 34.637 L
244.831 34.508 L
245.765 34.395 L
246.7 34.297 L
247.634 34.214 L
248.569 34.146 L
249.504 34.094 L
250.438 34.058 L
251.373 34.035 L
252.307 34.013 L
253.242 33.992 L
254.176 33.972 L
255.111 33.951 L
256.045 33.93 L
256.98 33.91 L
257.915 33.889 L
258.849 33.869 L
259.784 33.849 L
260.718 33.829 L
261.653 33.808 L
262.587 33.789 L
263.522 33.769 L
264.456 33.749 L
265.391 33.73 L
266.326 33.71 L
267.26 33.691 L
268.195 33.671 L
269.129 33.652 L
270.064 33.633 L
270.998 33.614 L
271.933 33.595 L
272.867 33.577 L
273.802 33.558 L
274.737 33.54 L
275.671 33.521 L
276.606 33.503 L
277.54 33.485 L
278.475 33.467 L
279.409 33.449 L
280.344 33.431 L
281.279 33.413 L
282.213 33.395 L
283.148 33.378 L
284.082 33.36 L
285.017 33.343 L
285.951 33.325 L
286.886 33.308 L
287.82 33.291 L
288.755 33.274 L
289.69 33.257 L
290.624 33.241 L
291.559 33.224 L
292.493 33.207 L
293.428 33.191 L
294.362 33.175 L
295.297 33.158 L
296.231 33.142 L
297.166 33.126 L
298.101 33.11 L
299.035 33.094 L
299.97 33.078 L
300.904 33.063 L
301.839 33.047 L
302.773 33.032 L
303.708 33.016 L
304.643 33.001 L
305.577 32.986 L
306.512 32.971 L
307.446 32.956 L
308.381 32.941 L
309.315 32.926 L
310.25 32.911 L
311.184 32.897 L
312.119 32.882 L
313.054 32.868 L
313.988 32.853 L
314.923 32.839 L
315.857 32.825 L
316.792 32.811 L
317.726 32.797 L
318.661 32.783 L
319.595 32.77 L
320.53 32.756 L
321.465 32.742 L
322.399 32.729 L
323.334 32.715 L
324.268 32.702 L
325.203 32.689 L
326.137 32.676 L
327.072 32.663 L
328.007 32.65 L
328.941 32.637 L
329.876 32.624 L
330.81 32.612 L
331.745 32.599 L
332.679 32.587 L
333.614 32.574 L
334.548 32.562 L
335.483 32.55 L
336.418 32.538 L
337.352 32.525 L
338.287 32.514 L
339.221 32.502 L
340.156 32.49 L
341.09 32.478 L
342.025 32.467 L
342.959 32.455 L
343.894 32.444 L
344.829 32.432 L
345.763 32.421 L
346.698 32.41 L
347.632 32.399 L
348.567 32.388 L
349.501 32.377 L
350.436 32.366 L
351.37 32.356 L
352.305 32.345 L
353.24 32.334 L
354.174 32.324 L
355.109 32.313 L
356.043 32.303 L
356.978 32.293 L
357.912 32.283 L
358.847 32.273 L
359.781 32.263 L
360.716 32.253 L
361.651 32.243 L
362.585 32.233 L
363.52 32.224 L
364.454 32.214 L
365.389 32.205 L
366.323 32.195 L
367.258 32.186 L
368.193 32.177 L
369.127 32.168 L
370.062 32.159 L
370.996 32.15 L
371.931 32.141 L
372.865 32.132 L
373.8 32.123 L
374.734 32.114 L
375.669 32.106 L
376.604 32.097 L
377.538 32.089 L
378.473 32.081 L
379.407 32.072 L
380.342 32.064 L
381.276 32.056 L
382.211 32.048 L
383.145 32.04 L
384.08 32.032 L
385.015 32.024 L
385.949 32.016 L
386.884 32.009 L
387.818 32.001 L
388.753 31.994 L
389.687 31.986 L
390.622 31.979 L
391.557 31.972 L
392.491 31.964 L
393.426 31.957 L
394.36 31.95 L
395.295 31.943 L
396.229 31.936 L
397.164 31.929 L
398.098 31.923 L
399.033 31.916 L
399.968 31.909 L
400.902 31.903 L
401.837 31.896 L
402.771 31.89 L
403.706 31.884 L
404.64 31.877 L
405.575 31.871 L
406.509 31.865 L
407.444 31.859 L
408.379 31.853 L
409.313 31.847 L
410.248 31.841 L
411.182 31.836 L
412.117 31.83 L
413.051 31.824 L
413.986 31.819 L
414.921 31.813 L
415.855 31.808 L
416.79 31.802 L
417.724 31.797 L
418.659 31.792 L
419.593 31.787 L
420.528 31.782 L
421.462 31.777 L
422.397 31.772 L
423.332 31.767 L
424.266 31.762 L
425.201 31.757 L
426.135 31.753 L
427.07 31.748 L
428.004 31.743 L
428.939 31.739 L
429.873 31.735 L
430.808 31.73 L
431.743 31.726 L
432.677 31.722 L
433.612 31.718 L
434.546 31.713 L
435.481 31.709 L
436.415 31.705 L
437.35 31.702 L
438.284 31.698 L
439.219 31.694 L
440.154 31.69 L
441.088 31.687 L
442.023 31.683 L
442.957 31.679 L
443.892 31.676 L
444.826 31.673 L
445.761 31.669 L
446.696 31.666 L
447.63 31.663 L
448.565 31.659 L
449.499 31.656 L
450.434 31.653 L
451.368 31.65 L
452.303 31.647 L
453.237 31.645 L
454.172 31.642 L
455.107 31.639 L
456.041 31.636 L
456.976 31.634 L
457.91 31.631 L
458.845 31.629 L
459.779 31.626 L
460.714 31.624 L
461.648 31.621 L
462.583 31.619 L
463.518 31.617 L
464.452 31.615 L
465.387 31.613 L
466.321 31.611 L
467.256 31.608 L
468.19 31.607 L
469.125 31.605 L
470.06 31.603 L
470.994 31.601 L
471.929 31.599 L
472.863 31.598 L
473.798 31.596 L
474.732 31.594 L
475.667 31.593 L
476.601 31.591 L
477.536 31.59 L
478.471 31.589 L
479.405 31.587 L
480.34 31.586 L
481.274 31.585 L
482.209 31.584 L
483.143 31.583 L
484.078 31.582 L
485.012 31.581 L
485.947 31.58 L
486.882 31.579 L
487.816 31.578 L
488.751 31.577 L
489.685 31.576 L
490.62 31.576 L
491.554 31.575 L
492.489 31.574 L
493.423 31.574 L
494.358 31.573 L
495.293 31.573 L
496.227 31.572 L
497.162 31.572 L
498.096 31.572 L
499.031 31.572 L
499.965 31.571 L
500.9 31.571 L
501.835 31.571 L
502.769 31.571 L
503.704 31.571 L
S
GR
GS
0.494 0.184 0.557 RC
1 LJ
0.5 LW
N
78.714 328.502 M
79.649 323.696 L
80.583 318.902 L
81.518 314.126 L
82.452 309.373 L
83.387 304.646 L
84.321 299.949 L
85.256 295.289 L
86.19 290.668 L
87.125 286.091 L
88.06 281.562 L
88.994 277.087 L
89.929 272.668 L
90.863 268.312 L
91.798 264.022 L
92.732 259.802 L
93.667 255.658 L
94.601 251.593 L
95.536 247.611 L
96.471 243.718 L
97.405 239.917 L
98.34 236.214 L
99.274 232.611 L
100.209 229.115 L
101.143 225.729 L
102.078 222.457 L
103.013 219.305 L
103.947 216.219 L
104.882 213.144 L
105.816 210.083 L
106.751 207.035 L
107.685 204.001 L
108.62 200.983 L
109.554 197.982 L
110.489 194.998 L
111.424 192.034 L
112.358 189.088 L
113.293 186.164 L
114.227 183.261 L
115.162 180.381 L
116.096 177.524 L
117.031 174.692 L
117.965 171.886 L
118.9 169.106 L
119.835 166.354 L
120.769 163.631 L
121.704 160.938 L
122.638 158.275 L
123.573 155.644 L
124.507 153.046 L
125.442 150.481 L
126.376 147.951 L
127.311 145.457 L
128.246 143 L
129.18 140.58 L
130.115 138.199 L
131.049 135.858 L
131.984 133.557 L
132.918 131.299 L
133.853 129.083 L
134.788 126.91 L
135.722 124.783 L
136.657 122.701 L
137.591 120.666 L
138.526 118.679 L
139.46 116.741 L
140.395 114.852 L
141.329 113.014 L
142.264 111.229 L
143.199 109.495 L
144.133 107.816 L
145.068 106.191 L
146.002 104.623 L
146.937 103.111 L
147.871 101.656 L
148.806 100.261 L
149.74 98.926 L
150.675 97.651 L
151.61 96.438 L
152.544 95.288 L
153.479 94.202 L
154.413 93.146 L
155.348 92.095 L
156.282 91.049 L
157.217 90.008 L
158.151 88.971 L
159.086 87.941 L
160.021 86.915 L
160.955 85.895 L
161.89 84.881 L
162.824 83.872 L
163.759 82.87 L
164.693 81.873 L
165.628 80.883 L
166.563 79.899 L
167.497 78.922 L
168.432 77.951 L
169.366 76.987 L
170.301 76.03 L
171.235 75.079 L
172.17 74.136 L
173.104 73.201 L
174.039 72.272 L
174.974 71.352 L
175.908 70.439 L
176.843 69.533 L
177.777 68.636 L
178.712 67.747 L
179.646 66.866 L
180.581 65.994 L
181.515 65.13 L
182.45 64.275 L
183.385 63.428 L
184.319 62.591 L
185.254 61.762 L
186.188 60.943 L
187.123 60.133 L
188.057 59.332 L
188.992 58.542 L
189.926 57.76 L
190.861 56.989 L
191.796 56.228 L
192.73 55.477 L
193.665 54.736 L
194.599 54.006 L
195.534 53.286 L
196.468 52.577 L
197.403 51.879 L
198.338 51.192 L
199.272 50.516 L
200.207 49.851 L
201.141 49.197 L
202.076 48.555 L
203.01 47.925 L
203.945 47.307 L
204.879 46.7 L
205.814 46.106 L
206.749 45.523 L
207.683 44.953 L
208.618 44.396 L
209.552 43.851 L
210.487 43.319 L
211.421 42.8 L
212.356 42.293 L
213.29 41.8 L
214.225 41.321 L
215.16 40.854 L
216.094 40.402 L
217.029 39.962 L
217.963 39.537 L
218.898 39.126 L
219.832 38.729 L
220.767 38.346 L
221.702 37.978 L
222.636 37.624 L
223.571 37.284 L
224.505 36.96 L
225.44 36.65 L
226.374 36.356 L
227.309 36.076 L
228.243 35.812 L
229.178 35.564 L
230.113 35.331 L
231.047 35.114 L
231.982 34.913 L
232.916 34.728 L
233.851 34.558 L
234.785 34.406 L
235.72 34.269 L
236.654 34.15 L
237.589 34.047 L
238.524 33.96 L
239.458 33.891 L
240.393 33.839 L
241.327 33.804 L
242.262 33.783 L
243.196 33.763 L
244.131 33.743 L
245.066 33.723 L
246 33.703 L
246.935 33.684 L
247.869 33.664 L
248.804 33.645 L
249.738 33.626 L
250.673 33.607 L
251.607 33.587 L
252.542 33.569 L
253.477 33.55 L
254.411 33.531 L
255.346 33.512 L
256.28 33.494 L
257.215 33.475 L
258.149 33.457 L
259.084 33.439 L
260.018 33.421 L
260.953 33.403 L
261.888 33.385 L
262.822 33.367 L
263.757 33.349 L
264.691 33.332 L
265.626 33.314 L
266.56 33.297 L
267.495 33.279 L
268.429 33.262 L
269.364 33.245 L
270.299 33.228 L
271.233 33.211 L
272.168 33.194 L
273.102 33.178 L
274.037 33.161 L
274.971 33.145 L
275.906 33.128 L
276.841 33.112 L
277.775 33.096 L
278.71 33.08 L
279.644 33.064 L
280.579 33.048 L
281.513 33.032 L
282.448 33.016 L
283.382 33.001 L
284.317 32.985 L
285.252 32.97 L
286.186 32.954 L
287.121 32.939 L
288.055 32.924 L
288.99 32.909 L
289.924 32.894 L
290.859 32.879 L
291.793 32.864 L
292.728 32.85 L
293.663 32.835 L
294.597 32.821 L
295.532 32.806 L
296.466 32.792 L
297.401 32.778 L
298.335 32.764 L
299.27 32.75 L
300.204 32.736 L
301.139 32.722 L
302.074 32.709 L
303.008 32.695 L
303.943 32.681 L
304.877 32.668 L
305.812 32.655 L
306.746 32.641 L
307.681 32.628 L
308.616 32.615 L
309.55 32.602 L
310.485 32.589 L
311.419 32.577 L
312.354 32.564 L
313.288 32.551 L
314.223 32.539 L
315.157 32.526 L
316.092 32.514 L
317.027 32.502 L
317.961 32.49 L
318.896 32.477 L
319.83 32.465 L
320.765 32.454 L
321.699 32.442 L
322.634 32.43 L
323.568 32.418 L
324.503 32.407 L
325.438 32.395 L
326.372 32.384 L
327.307 32.373 L
328.241 32.361 L
329.176 32.35 L
330.11 32.339 L
331.045 32.328 L
331.98 32.317 L
332.914 32.307 L
333.849 32.296 L
334.783 32.285 L
335.718 32.275 L
336.652 32.264 L
337.587 32.254 L
338.521 32.244 L
339.456 32.234 L
340.391 32.223 L
341.325 32.213 L
342.26 32.203 L
343.194 32.194 L
344.129 32.184 L
345.063 32.174 L
345.998 32.164 L
346.932 32.155 L
347.867 32.145 L
348.802 32.136 L
349.736 32.127 L
350.671 32.118 L
351.605 32.108 L
352.54 32.099 L
353.474 32.09 L
354.409 32.081 L
355.343 32.073 L
356.278 32.064 L
357.213 32.055 L
358.147 32.047 L
359.082 32.038 L
360.016 32.03 L
360.951 32.021 L
361.885 32.013 L
362.82 32.005 L
363.755 31.997 L
364.689 31.989 L
365.624 31.981 L
366.558 31.973 L
367.493 31.965 L
368.427 31.957 L
369.362 31.95 L
370.296 31.942 L
371.231 31.934 L
372.166 31.927 L
373.1 31.92 L
374.035 31.912 L
374.969 31.905 L
375.904 31.898 L
376.838 31.891 L
377.773 31.884 L
378.707 31.877 L
379.642 31.87 L
380.577 31.863 L
381.511 31.856 L
382.446 31.85 L
383.38 31.843 L
384.315 31.837 L
385.249 31.83 L
386.184 31.824 L
387.118 31.818 L
388.053 31.811 L
388.988 31.805 L
389.922 31.799 L
390.857 31.793 L
391.791 31.787 L
392.726 31.781 L
393.66 31.776 L
394.595 31.77 L
395.53 31.764 L
396.464 31.759 L
397.399 31.753 L
398.333 31.748 L
399.268 31.742 L
400.202 31.737 L
401.137 31.732 L
402.071 31.726 L
403.006 31.721 L
403.941 31.716 L
404.875 31.711 L
405.81 31.706 L
406.744 31.701 L
407.679 31.697 L
408.613 31.692 L
409.548 31.687 L
410.482 31.683 L
411.417 31.678 L
412.352 31.674 L
413.286 31.669 L
414.221 31.665 L
415.155 31.66 L
416.09 31.656 L
417.024 31.652 L
417.959 31.648 L
418.894 31.644 L
419.828 31.64 L
420.763 31.636 L
421.697 31.632 L
422.632 31.628 L
423.566 31.625 L
424.501 31.621 L
425.435 31.617 L
426.37 31.614 L
427.305 31.61 L
428.239 31.607 L
429.174 31.603 L
430.108 31.6 L
431.043 31.597 L
431.977 31.594 L
432.912 31.591 L
433.846 31.587 L
434.781 31.584 L
435.716 31.581 L
436.65 31.579 L
437.585 31.576 L
438.519 31.573 L
439.454 31.57 L
440.388 31.568 L
441.323 31.565 L
442.258 31.562 L
443.192 31.56 L
444.127 31.557 L
445.061 31.555 L
445.996 31.553 L
446.93 31.55 L
447.865 31.548 L
448.799 31.546 L
449.734 31.544 L
450.669 31.542 L
451.603 31.54 L
452.538 31.538 L
453.472 31.536 L
454.407 31.534 L
455.341 31.532 L
456.276 31.53 L
457.21 31.529 L
458.145 31.527 L
459.08 31.525 L
460.014 31.524 L
460.949 31.522 L
461.883 31.521 L
462.818 31.52 L
463.752 31.518 L
464.687 31.517 L
465.621 31.516 L
466.556 31.514 L
467.491 31.513 L
468.425 31.512 L
469.36 31.511 L
470.294 31.51 L
471.229 31.509 L
472.163 31.508 L
473.098 31.507 L
474.033 31.507 L
474.967 31.506 L
475.902 31.505 L
476.836 31.505 L
477.771 31.504 L
478.705 31.503 L
479.64 31.503 L
480.574 31.502 L
481.509 31.502 L
482.444 31.501 L
483.378 31.501 L
484.313 31.501 L
485.247 31.501 L
486.182 31.5 L
487.116 31.5 L
488.051 31.5 L
488.985 31.5 L
489.92 31.5 L
S
GR
GS
0.467 0.675 0.188 RC
1 LJ
0.5 LW
N
78.121 329.593 M
79.056 324.707 L
79.99 319.835 L
80.925 314.982 L
81.859 310.153 L
82.794 305.351 L
83.728 300.583 L
84.663 295.851 L
85.597 291.16 L
86.532 286.516 L
87.467 281.923 L
88.401 277.384 L
89.336 272.906 L
90.27 268.491 L
91.205 264.145 L
92.139 259.873 L
93.074 255.678 L
94.008 251.566 L
94.943 247.541 L
95.878 243.607 L
96.812 239.769 L
97.747 236.031 L
98.681 232.399 L
99.616 228.876 L
100.55 225.467 L
101.485 222.177 L
102.419 218.993 L
103.354 215.832 L
104.289 212.683 L
105.223 209.546 L
106.158 206.423 L
107.092 203.316 L
108.027 200.224 L
108.961 197.15 L
109.896 194.094 L
110.831 191.058 L
111.765 188.042 L
112.7 185.048 L
113.634 182.077 L
114.569 179.13 L
115.503 176.209 L
116.438 173.313 L
117.372 170.445 L
118.307 167.606 L
119.242 164.796 L
120.176 162.017 L
121.111 159.27 L
122.045 156.557 L
122.98 153.877 L
123.914 151.232 L
124.849 148.625 L
125.783 146.054 L
126.718 143.523 L
127.653 141.031 L
128.587 138.58 L
129.522 136.171 L
130.456 133.805 L
131.391 131.484 L
132.325 129.208 L
133.26 126.979 L
134.195 124.798 L
135.129 122.665 L
136.064 120.583 L
136.998 118.551 L
137.933 116.572 L
138.867 114.646 L
139.802 112.774 L
140.736 110.959 L
141.671 109.199 L
142.606 107.498 L
143.54 105.856 L
144.475 104.274 L
145.409 102.753 L
146.344 101.294 L
147.278 99.899 L
148.213 98.569 L
149.147 97.304 L
150.082 96.106 L
151.017 94.977 L
151.951 93.886 L
152.886 92.8 L
153.82 91.719 L
154.755 90.643 L
155.689 89.573 L
156.624 88.508 L
157.558 87.45 L
158.493 86.397 L
159.428 85.35 L
160.362 84.309 L
161.297 83.274 L
162.231 82.246 L
163.166 81.225 L
164.1 80.21 L
165.035 79.203 L
165.97 78.202 L
166.904 77.209 L
167.839 76.223 L
168.773 75.244 L
169.708 74.273 L
170.642 73.31 L
171.577 72.355 L
172.511 71.408 L
173.446 70.469 L
174.381 69.539 L
175.315 68.617 L
176.25 67.704 L
177.184 66.799 L
178.119 65.904 L
179.053 65.018 L
179.988 64.141 L
180.922 63.274 L
181.857 62.416 L
182.792 61.568 L
183.726 60.729 L
184.661 59.901 L
185.595 59.083 L
186.53 58.275 L
187.464 57.478 L
188.399 56.692 L
189.333 55.916 L
190.268 55.151 L
191.203 54.397 L
192.137 53.654 L
193.072 52.923 L
194.006 52.203 L
194.941 51.495 L
195.875 50.799 L
196.81 50.115 L
197.745 49.442 L
198.679 48.782 L
199.614 48.135 L
200.548 47.5 L
201.483 46.878 L
202.417 46.268 L
203.352 45.672 L
204.286 45.088 L
205.221 44.518 L
206.156 43.962 L
207.09 43.419 L
208.025 42.89 L
208.959 42.374 L
209.894 41.873 L
210.828 41.386 L
211.763 40.913 L
212.697 40.455 L
213.632 40.011 L
214.567 39.582 L
215.501 39.168 L
216.436 38.769 L
217.37 38.386 L
218.305 38.017 L
219.239 37.665 L
220.174 37.327 L
221.109 37.006 L
222.043 36.701 L
222.978 36.411 L
223.912 36.139 L
224.847 35.882 L
225.781 35.642 L
226.716 35.419 L
227.65 35.212 L
228.585 35.023 L
229.52 34.851 L
230.454 34.696 L
231.389 34.558 L
232.323 34.438 L
233.258 34.336 L
234.192 34.252 L
235.127 34.185 L
236.061 34.137 L
236.996 34.108 L
237.931 34.086 L
238.865 34.064 L
239.8 34.042 L
240.734 34.02 L
241.669 33.999 L
242.603 33.977 L
243.538 33.956 L
244.473 33.935 L
245.407 33.914 L
246.342 33.893 L
247.276 33.872 L
248.211 33.851 L
249.145 33.831 L
250.08 33.81 L
251.014 33.79 L
251.949 33.77 L
252.884 33.75 L
253.818 33.73 L
254.753 33.71 L
255.687 33.69 L
256.622 33.67 L
257.556 33.651 L
258.491 33.631 L
259.425 33.612 L
260.36 33.593 L
261.295 33.574 L
262.229 33.555 L
263.164 33.536 L
264.098 33.517 L
265.033 33.498 L
265.967 33.48 L
266.902 33.461 L
267.836 33.443 L
268.771 33.425 L
269.706 33.407 L
270.64 33.389 L
271.575 33.371 L
272.509 33.353 L
273.444 33.335 L
274.378 33.318 L
275.313 33.3 L
276.248 33.283 L
277.182 33.266 L
278.117 33.249 L
279.051 33.231 L
279.986 33.215 L
280.92 33.198 L
281.855 33.181 L
282.789 33.164 L
283.724 33.148 L
284.659 33.132 L
285.593 33.115 L
286.528 33.099 L
287.462 33.083 L
288.397 33.067 L
289.331 33.051 L
290.266 33.035 L
291.2 33.02 L
292.135 33.004 L
293.07 32.989 L
294.004 32.973 L
294.939 32.958 L
295.873 32.943 L
296.808 32.928 L
297.742 32.913 L
298.677 32.898 L
299.612 32.883 L
300.546 32.869 L
301.481 32.854 L
302.415 32.84 L
303.35 32.826 L
304.284 32.811 L
305.219 32.797 L
306.153 32.783 L
307.088 32.769 L
308.023 32.755 L
308.957 32.742 L
309.892 32.728 L
310.826 32.714 L
311.761 32.701 L
312.695 32.688 L
313.63 32.674 L
314.564 32.661 L
315.499 32.648 L
316.434 32.635 L
317.368 32.622 L
318.303 32.61 L
319.237 32.597 L
320.172 32.584 L
321.106 32.572 L
322.041 32.559 L
322.975 32.547 L
323.91 32.535 L
324.845 32.523 L
325.779 32.511 L
326.714 32.499 L
327.648 32.487 L
328.583 32.475 L
329.517 32.464 L
330.452 32.452 L
331.387 32.441 L
332.321 32.429 L
333.256 32.418 L
334.19 32.407 L
335.125 32.396 L
336.059 32.385 L
336.994 32.374 L
337.928 32.363 L
338.863 32.352 L
339.798 32.342 L
340.732 32.331 L
341.667 32.321 L
342.601 32.31 L
343.536 32.3 L
344.47 32.29 L
345.405 32.28 L
346.339 32.27 L
347.274 32.26 L
348.209 32.25 L
349.143 32.24 L
350.078 32.23 L
351.012 32.221 L
351.947 32.211 L
352.881 32.202 L
353.816 32.192 L
354.75 32.183 L
355.685 32.174 L
356.62 32.165 L
357.554 32.156 L
358.489 32.147 L
359.423 32.138 L
360.358 32.129 L
361.292 32.121 L
362.227 32.112 L
363.162 32.104 L
364.096 32.095 L
365.031 32.087 L
365.965 32.079 L
366.9 32.07 L
367.834 32.062 L
368.769 32.054 L
369.703 32.046 L
370.638 32.039 L
371.573 32.031 L
372.507 32.023 L
373.442 32.016 L
374.376 32.008 L
375.311 32.001 L
376.245 31.993 L
377.18 31.986 L
378.114 31.979 L
379.049 31.972 L
379.984 31.964 L
380.918 31.957 L
381.853 31.951 L
382.787 31.944 L
383.722 31.937 L
384.656 31.93 L
385.591 31.924 L
386.526 31.917 L
387.46 31.911 L
388.395 31.904 L
389.329 31.898 L
390.264 31.892 L
391.198 31.886 L
392.133 31.88 L
393.067 31.874 L
394.002 31.868 L
394.937 31.862 L
395.871 31.856 L
396.806 31.85 L
397.74 31.845 L
398.675 31.839 L
399.609 31.834 L
400.544 31.828 L
401.478 31.823 L
402.413 31.818 L
403.348 31.812 L
404.282 31.807 L
405.217 31.802 L
406.151 31.797 L
407.086 31.792 L
408.02 31.787 L
408.955 31.783 L
409.889 31.778 L
410.824 31.773 L
411.759 31.769 L
412.693 31.764 L
413.628 31.76 L
414.562 31.755 L
415.497 31.751 L
416.431 31.747 L
417.366 31.743 L
418.301 31.739 L
419.235 31.735 L
420.17 31.731 L
421.104 31.727 L
422.039 31.723 L
422.973 31.719 L
423.908 31.715 L
424.842 31.712 L
425.777 31.708 L
426.712 31.705 L
427.646 31.701 L
428.581 31.698 L
429.515 31.694 L
430.45 31.691 L
431.384 31.688 L
432.319 31.685 L
433.253 31.682 L
434.188 31.679 L
435.123 31.676 L
436.057 31.673 L
436.992 31.67 L
437.926 31.667 L
438.861 31.664 L
439.795 31.662 L
440.73 31.659 L
441.664 31.657 L
442.599 31.654 L
443.534 31.652 L
444.468 31.649 L
445.403 31.647 L
446.337 31.645 L
447.272 31.643 L
448.206 31.641 L
449.141 31.639 L
450.076 31.637 L
451.01 31.635 L
451.945 31.633 L
452.879 31.631 L
453.814 31.629 L
454.748 31.627 L
455.683 31.626 L
456.617 31.624 L
457.552 31.623 L
458.487 31.621 L
459.421 31.62 L
460.356 31.618 L
461.29 31.617 L
462.225 31.616 L
463.159 31.614 L
464.094 31.613 L
465.028 31.612 L
465.963 31.611 L
466.898 31.61 L
467.832 31.609 L
468.767 31.608 L
469.701 31.607 L
470.636 31.606 L
471.57 31.606 L
472.505 31.605 L
473.44 31.604 L
474.374 31.604 L
475.309 31.603 L
476.243 31.603 L
477.178 31.602 L
478.112 31.602 L
479.047 31.601 L
479.981 31.601 L
480.916 31.601 L
481.851 31.601 L
482.785 31.6 L
483.72 31.6 L
484.654 31.6 L
485.589 31.6 L
S
GR
GS
0.302 0.745 0.933 RC
[10 6] 0 setdash
2 LJ
0.5 LW
N
74.687 366.259 M
75.622 360.759 L
76.556 355.276 L
77.491 349.816 L
78.426 344.385 L
79.36 338.99 L
80.295 333.638 L
81.229 328.334 L
82.164 323.086 L
83.098 317.899 L
84.033 312.781 L
84.967 307.737 L
85.902 302.774 L
86.837 297.899 L
87.771 293.118 L
88.706 288.438 L
89.64 283.864 L
90.575 279.404 L
91.509 275.064 L
92.444 270.85 L
93.379 266.769 L
94.313 262.828 L
95.248 259.032 L
96.182 255.374 L
97.117 251.759 L
98.051 248.166 L
98.986 244.597 L
99.92 241.053 L
100.855 237.535 L
101.79 234.043 L
102.724 230.578 L
103.659 227.142 L
104.593 223.735 L
105.528 220.358 L
106.462 217.012 L
107.397 213.698 L
108.331 210.416 L
109.266 207.168 L
110.201 203.955 L
111.135 200.778 L
112.07 197.636 L
113.004 194.532 L
113.939 191.466 L
114.873 188.439 L
115.808 185.451 L
116.743 182.505 L
117.677 179.6 L
118.612 176.738 L
119.546 173.919 L
120.481 171.145 L
121.415 168.415 L
122.35 165.732 L
123.284 163.096 L
124.219 160.508 L
125.154 157.969 L
126.088 155.479 L
127.023 153.04 L
127.957 150.652 L
128.892 148.317 L
129.826 146.035 L
130.761 143.807 L
131.695 141.634 L
132.63 139.517 L
133.565 137.457 L
134.499 135.454 L
135.434 133.511 L
136.368 131.626 L
137.303 129.802 L
138.237 128.04 L
139.172 126.339 L
140.106 124.702 L
141.041 123.128 L
141.976 121.601 L
142.91 120.081 L
143.845 118.564 L
144.779 117.053 L
145.714 115.547 L
146.648 114.046 L
147.583 112.551 L
148.518 111.063 L
149.452 109.581 L
150.387 108.105 L
151.321 106.637 L
152.256 105.176 L
153.19 103.723 L
154.125 102.278 L
155.059 100.842 L
155.994 99.414 L
156.929 97.995 L
157.863 96.586 L
158.798 95.187 L
159.732 93.797 L
160.667 92.418 L
161.601 91.05 L
162.536 89.692 L
163.47 88.346 L
164.405 87.012 L
165.34 85.69 L
166.274 84.38 L
167.209 83.083 L
168.143 81.798 L
169.078 80.527 L
170.012 79.27 L
170.947 78.026 L
171.881 76.797 L
172.816 75.582 L
173.751 74.383 L
174.685 73.198 L
175.62 72.029 L
176.554 70.876 L
177.489 69.74 L
178.423 68.62 L
179.358 67.516 L
180.293 66.43 L
181.227 65.361 L
182.162 64.311 L
183.096 63.278 L
184.031 62.264 L
184.965 61.269 L
185.9 60.293 L
186.834 59.336 L
187.769 58.399 L
188.704 57.482 L
189.638 56.586 L
190.573 55.71 L
191.507 54.856 L
192.442 54.023 L
193.376 53.212 L
194.311 52.423 L
195.245 51.656 L
196.18 50.912 L
197.115 50.19 L
198.049 49.493 L
198.984 48.819 L
199.918 48.169 L
200.853 47.543 L
201.787 46.942 L
202.722 46.366 L
203.657 45.815 L
204.591 45.29 L
205.526 44.791 L
206.46 44.318 L
207.395 43.872 L
208.329 43.453 L
209.264 43.061 L
210.198 42.697 L
211.133 42.36 L
212.068 42.052 L
213.002 41.772 L
213.937 41.521 L
214.871 41.3 L
215.806 41.108 L
216.74 40.945 L
217.675 40.813 L
218.609 40.707 L
219.544 40.605 L
220.479 40.503 L
221.413 40.402 L
222.348 40.302 L
223.282 40.202 L
224.217 40.103 L
225.151 40.004 L
226.086 39.906 L
227.02 39.809 L
227.955 39.713 L
228.89 39.617 L
229.824 39.521 L
230.759 39.427 L
231.693 39.333 L
232.628 39.239 L
233.562 39.147 L
234.497 39.055 L
235.432 38.963 L
236.366 38.872 L
237.301 38.782 L
238.235 38.693 L
239.17 38.604 L
240.104 38.515 L
241.039 38.428 L
241.973 38.341 L
242.908 38.254 L
243.843 38.169 L
244.777 38.083 L
245.712 37.999 L
246.646 37.915 L
247.581 37.832 L
248.515 37.749 L
249.45 37.667 L
250.384 37.586 L
251.319 37.505 L
252.254 37.425 L
253.188 37.345 L
254.123 37.266 L
255.057 37.188 L
255.992 37.11 L
256.926 37.033 L
257.861 36.956 L
258.796 36.88 L
259.73 36.805 L
260.665 36.73 L
261.599 36.656 L
262.534 36.582 L
263.468 36.509 L
264.403 36.437 L
265.337 36.365 L
266.272 36.294 L
267.207 36.223 L
268.141 36.153 L
269.076 36.084 L
270.01 36.015 L
270.945 35.947 L
271.879 35.879 L
272.814 35.812 L
273.748 35.745 L
274.683 35.679 L
275.618 35.614 L
276.552 35.549 L
277.487 35.485 L
278.421 35.421 L
279.356 35.358 L
280.29 35.296 L
281.225 35.234 L
282.159 35.173 L
283.094 35.112 L
284.029 35.052 L
284.963 34.992 L
285.898 34.933 L
286.832 34.874 L
287.767 34.816 L
288.701 34.759 L
289.636 34.702 L
290.571 34.646 L
291.505 34.59 L
292.44 34.535 L
293.374 34.48 L
294.309 34.426 L
295.243 34.373 L
296.178 34.32 L
297.112 34.267 L
298.047 34.216 L
298.982 34.164 L
299.916 34.113 L
300.851 34.063 L
301.785 34.013 L
302.72 33.964 L
303.654 33.916 L
304.589 33.868 L
305.523 33.82 L
306.458 33.773 L
307.393 33.727 L
308.327 33.681 L
309.262 33.635 L
310.196 33.59 L
311.131 33.546 L
312.065 33.502 L
313 33.459 L
313.935 33.416 L
314.869 33.374 L
315.804 33.332 L
316.738 33.291 L
317.673 33.25 L
318.607 33.21 L
319.542 33.17 L
320.476 33.131 L
321.411 33.093 L
322.346 33.054 L
323.28 33.017 L
324.215 32.98 L
325.149 32.943 L
326.084 32.907 L
327.018 32.871 L
327.953 32.836 L
328.887 32.802 L
329.822 32.768 L
330.757 32.734 L
331.691 32.701 L
332.626 32.668 L
333.56 32.636 L
334.495 32.605 L
335.429 32.574 L
336.364 32.543 L
337.298 32.513 L
338.233 32.483 L
339.168 32.454 L
340.102 32.425 L
341.037 32.397 L
341.971 32.37 L
342.906 32.342 L
343.84 32.316 L
344.775 32.289 L
345.71 32.264 L
346.644 32.238 L
347.579 32.214 L
348.513 32.189 L
349.448 32.165 L
350.382 32.142 L
351.317 32.119 L
352.251 32.097 L
353.186 32.075 L
354.121 32.053 L
355.055 32.032 L
355.99 32.012 L
356.924 31.991 L
357.859 31.972 L
358.793 31.953 L
359.728 31.934 L
360.662 31.916 L
361.597 31.898 L
362.532 31.88 L
363.466 31.863 L
364.401 31.847 L
365.335 31.831 L
366.27 31.815 L
367.204 31.8 L
368.139 31.786 L
369.074 31.771 L
370.008 31.758 L
370.943 31.744 L
371.877 31.731 L
372.812 31.719 L
373.746 31.707 L
374.681 31.695 L
375.615 31.684 L
376.55 31.673 L
377.485 31.663 L
378.419 31.653 L
379.354 31.644 L
380.288 31.635 L
381.223 31.626 L
382.157 31.618 L
383.092 31.611 L
384.026 31.603 L
384.961 31.596 L
385.896 31.59 L
386.83 31.584 L
387.765 31.578 L
388.699 31.573 L
389.634 31.568 L
390.568 31.564 L
391.503 31.56 L
392.437 31.557 L
393.372 31.554 L
394.307 31.551 L
395.241 31.549 L
396.176 31.547 L
397.11 31.545 L
398.045 31.544 L
398.979 31.543 L
399.914 31.543 L
S
GR
GS
0.635 0.078 0.184 RC
[10 6] 0 setdash
2 LJ
0.5 LW
N
80.414 324.567 M
81.349 320.057 L
82.283 315.558 L
83.218 311.075 L
84.152 306.61 L
85.087 302.168 L
86.021 297.752 L
86.956 293.367 L
87.891 289.016 L
88.825 284.703 L
89.76 280.432 L
90.694 276.207 L
91.629 272.031 L
92.563 267.909 L
93.498 263.843 L
94.433 259.839 L
95.367 255.899 L
96.302 252.028 L
97.236 248.229 L
98.171 244.506 L
99.105 240.864 L
100.04 237.305 L
100.974 233.834 L
101.909 230.455 L
102.844 227.17 L
103.778 223.985 L
104.713 220.903 L
105.647 217.928 L
106.582 215.032 L
107.516 212.15 L
108.451 209.28 L
109.385 206.422 L
110.32 203.577 L
111.255 200.747 L
112.189 197.931 L
113.124 195.131 L
114.058 192.348 L
114.993 189.582 L
115.927 186.834 L
116.862 184.105 L
117.797 181.396 L
118.731 178.707 L
119.666 176.04 L
120.6 173.395 L
121.535 170.772 L
122.469 168.174 L
123.404 165.6 L
124.338 163.052 L
125.273 160.529 L
126.208 158.034 L
127.142 155.567 L
128.077 153.128 L
129.011 150.719 L
129.946 148.34 L
130.88 145.992 L
131.815 143.675 L
132.749 141.392 L
133.684 139.142 L
134.619 136.926 L
135.553 134.745 L
136.488 132.601 L
137.422 130.492 L
138.357 128.422 L
139.291 126.39 L
140.226 124.396 L
141.16 122.443 L
142.095 120.531 L
143.03 118.66 L
143.964 116.831 L
144.899 115.046 L
145.833 113.304 L
146.768 111.608 L
147.702 109.957 L
148.637 108.352 L
149.572 106.794 L
150.506 105.285 L
151.441 103.824 L
152.375 102.413 L
153.31 101.052 L
154.244 99.743 L
155.179 98.485 L
156.113 97.281 L
157.048 96.13 L
157.983 95.034 L
158.917 93.992 L
159.852 92.99 L
160.786 91.993 L
161.721 91 L
162.655 90.011 L
163.59 89.027 L
164.524 88.048 L
165.459 87.073 L
166.394 86.103 L
167.328 85.137 L
168.263 84.177 L
169.197 83.222 L
170.132 82.273 L
171.066 81.329 L
172.001 80.39 L
172.936 79.457 L
173.87 78.53 L
174.805 77.609 L
175.739 76.694 L
176.674 75.785 L
177.608 74.882 L
178.543 73.986 L
179.477 73.097 L
180.412 72.214 L
181.347 71.338 L
182.281 70.468 L
183.216 69.606 L
184.15 68.751 L
185.085 67.904 L
186.019 67.063 L
186.954 66.23 L
187.888 65.405 L
188.823 64.588 L
189.758 63.779 L
190.692 62.978 L
191.627 62.184 L
192.561 61.4 L
193.496 60.623 L
194.43 59.855 L
195.365 59.096 L
196.299 58.345 L
197.234 57.604 L
198.169 56.871 L
199.103 56.148 L
200.038 55.434 L
200.972 54.729 L
201.907 54.034 L
202.841 53.349 L
203.776 52.673 L
204.711 52.007 L
205.645 51.351 L
206.58 50.705 L
207.514 50.07 L
208.449 49.445 L
209.383 48.831 L
210.318 48.227 L
211.252 47.634 L
212.187 47.052 L
213.122 46.48 L
214.056 45.92 L
214.991 45.372 L
215.925 44.834 L
216.86 44.308 L
217.794 43.794 L
218.729 43.292 L
219.663 42.801 L
220.598 42.322 L
221.533 41.856 L
222.467 41.402 L
223.402 40.96 L
224.336 40.53 L
225.271 40.114 L
226.205 39.71 L
227.14 39.319 L
228.074 38.941 L
229.009 38.576 L
229.944 38.224 L
230.878 37.885 L
231.813 37.56 L
232.747 37.249 L
233.682 36.952 L
234.616 36.668 L
235.551 36.398 L
236.486 36.143 L
237.42 35.901 L
238.355 35.674 L
239.289 35.462 L
240.224 35.264 L
241.158 35.081 L
242.093 34.913 L
243.027 34.759 L
243.962 34.621 L
244.897 34.498 L
245.831 34.39 L
246.766 34.298 L
247.7 34.222 L
248.635 34.161 L
249.569 34.116 L
250.504 34.087 L
251.438 34.065 L
252.373 34.043 L
253.308 34.021 L
254.242 34 L
255.177 33.978 L
256.111 33.957 L
257.046 33.936 L
257.98 33.914 L
258.915 33.893 L
259.85 33.873 L
260.784 33.852 L
261.719 33.831 L
262.653 33.811 L
263.588 33.79 L
264.522 33.77 L
265.457 33.75 L
266.391 33.729 L
267.326 33.71 L
268.261 33.69 L
269.195 33.67 L
270.13 33.65 L
271.064 33.631 L
271.999 33.611 L
272.933 33.592 L
273.868 33.573 L
274.802 33.554 L
275.737 33.535 L
276.672 33.516 L
277.606 33.497 L
278.541 33.479 L
279.475 33.46 L
280.41 33.442 L
281.344 33.423 L
282.279 33.405 L
283.214 33.387 L
284.148 33.369 L
285.083 33.351 L
286.017 33.333 L
286.952 33.316 L
287.886 33.298 L
288.821 33.281 L
289.755 33.263 L
290.69 33.246 L
291.625 33.229 L
292.559 33.212 L
293.494 33.195 L
294.428 33.178 L
295.363 33.162 L
296.297 33.145 L
297.232 33.129 L
298.166 33.112 L
299.101 33.096 L
300.036 33.08 L
300.97 33.064 L
301.905 33.048 L
302.839 33.032 L
303.774 33.016 L
304.708 33.001 L
305.643 32.985 L
306.577 32.97 L
307.512 32.954 L
308.447 32.939 L
309.381 32.924 L
310.316 32.909 L
311.25 32.894 L
312.185 32.879 L
313.119 32.864 L
314.054 32.85 L
314.989 32.835 L
315.923 32.821 L
316.858 32.806 L
317.792 32.792 L
318.727 32.778 L
319.661 32.764 L
320.596 32.75 L
321.53 32.736 L
322.465 32.723 L
323.4 32.709 L
324.334 32.695 L
325.269 32.682 L
326.203 32.669 L
327.138 32.655 L
328.072 32.642 L
329.007 32.629 L
329.941 32.616 L
330.876 32.603 L
331.811 32.591 L
332.745 32.578 L
333.68 32.565 L
334.614 32.553 L
335.549 32.54 L
336.483 32.528 L
337.418 32.516 L
338.352 32.504 L
339.287 32.492 L
340.222 32.48 L
341.156 32.468 L
342.091 32.456 L
343.025 32.445 L
343.96 32.433 L
344.894 32.422 L
345.829 32.41 L
346.764 32.399 L
347.698 32.388 L
348.633 32.377 L
349.567 32.366 L
350.502 32.355 L
351.436 32.344 L
352.371 32.333 L
353.305 32.323 L
354.24 32.312 L
355.175 32.302 L
356.109 32.291 L
357.044 32.281 L
357.978 32.271 L
358.913 32.261 L
359.847 32.251 L
360.782 32.241 L
361.716 32.231 L
362.651 32.221 L
363.586 32.212 L
364.52 32.202 L
365.455 32.193 L
366.389 32.183 L
367.324 32.174 L
368.258 32.165 L
369.193 32.155 L
370.128 32.146 L
371.062 32.137 L
371.997 32.128 L
372.931 32.12 L
373.866 32.111 L
374.8 32.102 L
375.735 32.094 L
376.669 32.085 L
377.604 32.077 L
378.539 32.069 L
379.473 32.06 L
380.408 32.052 L
381.342 32.044 L
382.277 32.036 L
383.211 32.028 L
384.146 32.02 L
385.08 32.013 L
386.015 32.005 L
386.95 31.997 L
387.884 31.99 L
388.819 31.982 L
389.753 31.975 L
390.688 31.968 L
391.622 31.961 L
392.557 31.954 L
393.491 31.947 L
394.426 31.94 L
395.361 31.933 L
396.295 31.926 L
397.23 31.919 L
398.164 31.913 L
399.099 31.906 L
400.033 31.9 L
400.968 31.893 L
401.903 31.887 L
402.837 31.881 L
403.772 31.874 L
404.706 31.868 L
405.641 31.862 L
406.575 31.856 L
407.51 31.851 L
408.444 31.845 L
409.379 31.839 L
410.314 31.833 L
411.248 31.828 L
412.183 31.822 L
413.117 31.817 L
414.052 31.811 L
414.986 31.806 L
415.921 31.801 L
416.855 31.796 L
417.79 31.791 L
418.725 31.786 L
419.659 31.781 L
420.594 31.776 L
421.528 31.771 L
422.463 31.766 L
423.397 31.762 L
424.332 31.757 L
425.267 31.753 L
426.201 31.748 L
427.136 31.744 L
428.07 31.74 L
429.005 31.735 L
429.939 31.731 L
430.874 31.727 L
431.808 31.723 L
432.743 31.719 L
433.678 31.715 L
434.612 31.712 L
435.547 31.708 L
436.481 31.704 L
437.416 31.7 L
438.35 31.697 L
439.285 31.693 L
440.219 31.69 L
441.154 31.687 L
442.089 31.683 L
443.023 31.68 L
443.958 31.677 L
444.892 31.674 L
445.827 31.671 L
446.761 31.668 L
447.696 31.665 L
448.63 31.662 L
449.565 31.659 L
450.5 31.657 L
451.434 31.654 L
452.369 31.651 L
453.303 31.649 L
454.238 31.646 L
455.172 31.644 L
456.107 31.642 L
457.042 31.639 L
457.976 31.637 L
458.911 31.635 L
459.845 31.633 L
460.78 31.631 L
461.714 31.629 L
462.649 31.627 L
463.583 31.625 L
464.518 31.623 L
465.453 31.622 L
466.387 31.62 L
467.322 31.618 L
468.256 31.617 L
469.191 31.615 L
470.125 31.614 L
471.06 31.612 L
471.994 31.611 L
472.929 31.61 L
473.864 31.608 L
474.798 31.607 L
475.733 31.606 L
476.667 31.605 L
477.602 31.604 L
478.536 31.603 L
479.471 31.602 L
480.405 31.601 L
481.34 31.601 L
482.275 31.6 L
483.209 31.599 L
484.144 31.599 L
485.078 31.598 L
486.013 31.598 L
486.947 31.597 L
487.882 31.597 L
488.817 31.596 L
489.751 31.596 L
490.686 31.596 L
491.62 31.596 L
492.555 31.595 L
493.489 31.595 L
494.424 31.595 L
S
GR
GS
0 0.447 0.741 RC
[10 6] 0 setdash
2 LJ
0.5 LW
N
78.854 327.994 M
79.788 323.254 L
80.723 318.526 L
81.657 313.816 L
82.592 309.128 L
83.526 304.465 L
84.461 299.832 L
85.395 295.234 L
86.33 290.675 L
87.265 286.158 L
88.199 281.688 L
89.134 277.269 L
90.068 272.906 L
91.003 268.603 L
91.937 264.363 L
92.872 260.192 L
93.807 256.093 L
94.741 252.071 L
95.676 248.13 L
96.61 244.274 L
97.545 240.508 L
98.479 236.835 L
99.414 233.26 L
100.348 229.787 L
101.283 226.42 L
102.218 223.164 L
103.152 220.023 L
104.087 216.95 L
105.021 213.889 L
105.956 210.839 L
106.89 207.802 L
107.825 204.778 L
108.759 201.769 L
109.694 198.776 L
110.629 195.799 L
111.563 192.84 L
112.498 189.9 L
113.432 186.98 L
114.367 184.08 L
115.301 181.202 L
116.236 178.347 L
117.171 175.516 L
118.105 172.71 L
119.04 169.93 L
119.974 167.176 L
120.909 164.45 L
121.843 161.753 L
122.778 159.087 L
123.712 156.451 L
124.647 153.847 L
125.582 151.276 L
126.516 148.739 L
127.451 146.236 L
128.385 143.77 L
129.32 141.341 L
130.254 138.95 L
131.189 136.599 L
132.123 134.287 L
133.058 132.016 L
133.993 129.787 L
134.927 127.602 L
135.862 125.46 L
136.796 123.364 L
137.731 121.314 L
138.665 119.311 L
139.6 117.357 L
140.534 115.451 L
141.469 113.596 L
142.404 111.792 L
143.338 110.041 L
144.273 108.342 L
145.207 106.698 L
146.142 105.109 L
147.076 103.577 L
148.011 102.102 L
148.946 100.685 L
149.88 99.328 L
150.815 98.031 L
151.749 96.795 L
152.684 95.622 L
153.618 94.512 L
154.553 93.45 L
155.487 92.393 L
156.422 91.342 L
157.357 90.295 L
158.291 89.253 L
159.226 88.217 L
160.16 87.186 L
161.095 86.16 L
162.029 85.14 L
162.964 84.126 L
163.898 83.117 L
164.833 82.115 L
165.768 81.118 L
166.702 80.129 L
167.637 79.145 L
168.571 78.168 L
169.506 77.198 L
170.44 76.235 L
171.375 75.279 L
172.309 74.33 L
173.244 73.388 L
174.179 72.453 L
175.113 71.527 L
176.048 70.608 L
176.982 69.696 L
177.917 68.793 L
178.851 67.898 L
179.786 67.011 L
180.721 66.133 L
181.655 65.263 L
182.59 64.402 L
183.524 63.55 L
184.459 62.707 L
185.393 61.873 L
186.328 61.048 L
187.262 60.233 L
188.197 59.427 L
189.132 58.631 L
190.066 57.844 L
191.001 57.068 L
191.935 56.302 L
192.87 55.546 L
193.804 54.8 L
194.739 54.065 L
195.673 53.341 L
196.608 52.627 L
197.543 51.924 L
198.477 51.233 L
199.412 50.553 L
200.346 49.884 L
201.281 49.226 L
202.215 48.581 L
203.15 47.947 L
204.085 47.325 L
205.019 46.715 L
205.954 46.117 L
206.888 45.532 L
207.823 44.959 L
208.757 44.399 L
209.692 43.852 L
210.626 43.318 L
211.561 42.796 L
212.496 42.288 L
213.43 41.794 L
214.365 41.312 L
215.299 40.845 L
216.234 40.391 L
217.168 39.951 L
218.103 39.525 L
219.037 39.113 L
219.972 38.716 L
220.907 38.333 L
221.841 37.965 L
222.776 37.612 L
223.71 37.273 L
224.645 36.95 L
225.579 36.641 L
226.514 36.348 L
227.448 36.071 L
228.383 35.809 L
229.318 35.563 L
230.252 35.332 L
231.187 35.118 L
232.121 34.92 L
233.056 34.738 L
233.99 34.573 L
234.925 34.424 L
235.86 34.292 L
236.794 34.177 L
237.729 34.079 L
238.663 33.998 L
239.598 33.934 L
240.532 33.888 L
241.467 33.86 L
242.401 33.839 L
243.336 33.818 L
244.271 33.797 L
245.205 33.776 L
246.14 33.755 L
247.074 33.735 L
248.009 33.715 L
248.943 33.694 L
249.878 33.674 L
250.812 33.654 L
251.747 33.634 L
252.682 33.614 L
253.616 33.595 L
254.551 33.575 L
255.485 33.556 L
256.42 33.536 L
257.354 33.517 L
258.289 33.498 L
259.224 33.479 L
260.158 33.46 L
261.093 33.441 L
262.027 33.423 L
262.962 33.404 L
263.896 33.386 L
264.831 33.367 L
265.765 33.349 L
266.7 33.331 L
267.635 33.313 L
268.569 33.295 L
269.504 33.277 L
270.438 33.259 L
271.373 33.242 L
272.307 33.224 L
273.242 33.207 L
274.176 33.19 L
275.111 33.173 L
276.046 33.155 L
276.98 33.138 L
277.915 33.122 L
278.849 33.105 L
279.784 33.088 L
280.718 33.072 L
281.653 33.055 L
282.587 33.039 L
283.522 33.023 L
284.457 33.007 L
285.391 32.991 L
286.326 32.975 L
287.26 32.959 L
288.195 32.943 L
289.129 32.928 L
290.064 32.912 L
290.999 32.897 L
291.933 32.881 L
292.868 32.866 L
293.802 32.851 L
294.737 32.836 L
295.671 32.821 L
296.606 32.806 L
297.54 32.792 L
298.475 32.777 L
299.41 32.763 L
300.344 32.748 L
301.279 32.734 L
302.213 32.72 L
303.148 32.706 L
304.082 32.692 L
305.017 32.678 L
305.951 32.664 L
306.886 32.65 L
307.821 32.637 L
308.755 32.623 L
309.69 32.61 L
310.624 32.597 L
311.559 32.583 L
312.493 32.57 L
313.428 32.557 L
314.362 32.544 L
315.297 32.531 L
316.232 32.519 L
317.166 32.506 L
318.101 32.493 L
319.035 32.481 L
319.97 32.469 L
320.904 32.456 L
321.839 32.444 L
322.774 32.432 L
323.708 32.42 L
324.643 32.408 L
325.577 32.396 L
326.512 32.385 L
327.446 32.373 L
328.381 32.362 L
329.315 32.35 L
330.25 32.339 L
331.185 32.328 L
332.119 32.316 L
333.054 32.305 L
333.988 32.294 L
334.923 32.283 L
335.857 32.273 L
336.792 32.262 L
337.726 32.251 L
338.661 32.241 L
339.596 32.23 L
340.53 32.22 L
341.465 32.21 L
342.399 32.199 L
343.334 32.189 L
344.268 32.179 L
345.203 32.169 L
346.138 32.16 L
347.072 32.15 L
348.007 32.14 L
348.941 32.131 L
349.876 32.121 L
350.81 32.112 L
351.745 32.102 L
352.679 32.093 L
353.614 32.084 L
354.549 32.075 L
355.483 32.066 L
356.418 32.057 L
357.352 32.048 L
358.287 32.039 L
359.221 32.031 L
360.156 32.022 L
361.09 32.014 L
362.025 32.005 L
362.96 31.997 L
363.894 31.989 L
364.829 31.981 L
365.763 31.972 L
366.698 31.964 L
367.632 31.957 L
368.567 31.949 L
369.501 31.941 L
370.436 31.933 L
371.371 31.926 L
372.305 31.918 L
373.24 31.911 L
374.174 31.903 L
375.109 31.896 L
376.043 31.889 L
376.978 31.882 L
377.913 31.875 L
378.847 31.868 L
379.782 31.861 L
380.716 31.854 L
381.651 31.847 L
382.585 31.841 L
383.52 31.834 L
384.454 31.827 L
385.389 31.821 L
386.324 31.815 L
387.258 31.808 L
388.193 31.802 L
389.127 31.796 L
390.062 31.79 L
390.996 31.784 L
391.931 31.778 L
392.865 31.772 L
393.8 31.766 L
394.735 31.761 L
395.669 31.755 L
396.604 31.749 L
397.538 31.744 L
398.473 31.738 L
399.407 31.733 L
400.342 31.728 L
401.277 31.723 L
402.211 31.718 L
403.146 31.712 L
404.08 31.707 L
405.015 31.702 L
405.949 31.698 L
406.884 31.693 L
407.818 31.688 L
408.753 31.684 L
409.688 31.679 L
410.622 31.674 L
411.557 31.67 L
412.491 31.666 L
413.426 31.661 L
414.36 31.657 L
415.295 31.653 L
416.229 31.649 L
417.164 31.645 L
418.099 31.641 L
419.033 31.637 L
419.968 31.633 L
420.902 31.629 L
421.837 31.625 L
422.771 31.622 L
423.706 31.618 L
424.64 31.615 L
425.575 31.611 L
426.51 31.608 L
427.444 31.605 L
428.379 31.601 L
429.313 31.598 L
430.248 31.595 L
431.182 31.592 L
432.117 31.589 L
433.052 31.586 L
433.986 31.583 L
434.921 31.58 L
435.855 31.577 L
436.79 31.575 L
437.724 31.572 L
438.659 31.569 L
439.593 31.567 L
440.528 31.565 L
441.463 31.562 L
442.397 31.56 L
443.332 31.557 L
444.266 31.555 L
445.201 31.553 L
446.135 31.551 L
447.07 31.549 L
448.004 31.547 L
448.939 31.545 L
449.874 31.543 L
450.808 31.541 L
451.743 31.539 L
452.677 31.538 L
453.612 31.536 L
454.546 31.534 L
455.481 31.533 L
456.416 31.531 L
457.35 31.53 L
458.285 31.529 L
459.219 31.527 L
460.154 31.526 L
461.088 31.525 L
462.023 31.524 L
462.957 31.523 L
463.892 31.521 L
464.827 31.52 L
465.761 31.52 L
466.696 31.519 L
467.63 31.518 L
468.565 31.517 L
469.499 31.516 L
470.434 31.516 L
471.368 31.515 L
472.303 31.514 L
473.238 31.514 L
474.172 31.513 L
475.107 31.513 L
476.041 31.512 L
476.976 31.512 L
477.91 31.512 L
478.845 31.511 L
479.78 31.511 L
480.714 31.511 L
481.649 31.511 L
482.583 31.511 L
S
GR
GS
0.851 0.325 0.098 RC
[10 6] 0 setdash
2 LJ
0.5 LW
N
78.239 329.473 M
79.173 324.532 L
80.108 319.604 L
81.042 314.696 L
81.977 309.811 L
82.911 304.954 L
83.846 300.131 L
84.78 295.346 L
85.715 290.603 L
86.65 285.908 L
87.584 281.264 L
88.519 276.678 L
89.453 272.154 L
90.388 267.696 L
91.322 263.31 L
92.257 258.999 L
93.191 254.769 L
94.126 250.625 L
95.061 246.571 L
95.995 242.612 L
96.93 238.753 L
97.864 234.999 L
98.799 231.354 L
99.733 227.823 L
100.668 224.411 L
101.602 221.123 L
102.537 217.945 L
103.472 214.792 L
104.406 211.652 L
105.341 208.527 L
106.275 205.418 L
107.21 202.325 L
108.144 199.25 L
109.079 196.194 L
110.014 193.158 L
110.948 190.142 L
111.883 187.149 L
112.817 184.178 L
113.752 181.232 L
114.686 178.31 L
115.621 175.415 L
116.555 172.546 L
117.49 169.706 L
118.425 166.895 L
119.359 164.114 L
120.294 161.365 L
121.228 158.648 L
122.163 155.964 L
123.097 153.314 L
124.032 150.7 L
124.966 148.122 L
125.901 145.582 L
126.836 143.08 L
127.77 140.618 L
128.705 138.197 L
129.639 135.817 L
130.574 133.48 L
131.508 131.186 L
132.443 128.938 L
133.378 126.735 L
134.312 124.579 L
135.247 122.47 L
136.181 120.411 L
137.116 118.402 L
138.05 116.443 L
138.985 114.537 L
139.919 112.684 L
140.854 110.885 L
141.789 109.141 L
142.723 107.453 L
143.658 105.822 L
144.592 104.25 L
145.527 102.737 L
146.461 101.284 L
147.396 99.893 L
148.33 98.564 L
149.265 97.298 L
150.2 96.097 L
151.134 94.962 L
152.069 93.869 L
153.003 92.782 L
153.938 91.7 L
154.872 90.623 L
155.807 89.551 L
156.741 88.484 L
157.676 87.423 L
158.611 86.368 L
159.545 85.319 L
160.48 84.276 L
161.414 83.239 L
162.349 82.209 L
163.283 81.185 L
164.218 80.168 L
165.153 79.158 L
166.087 78.154 L
167.022 77.158 L
167.956 76.169 L
168.891 75.188 L
169.825 74.214 L
170.76 73.248 L
171.694 72.29 L
172.629 71.34 L
173.564 70.398 L
174.498 69.465 L
175.433 68.54 L
176.367 67.624 L
177.302 66.716 L
178.236 65.818 L
179.171 64.929 L
180.105 64.049 L
181.04 63.179 L
181.975 62.318 L
182.909 61.467 L
183.844 60.626 L
184.778 59.795 L
185.713 58.975 L
186.647 58.164 L
187.582 57.365 L
188.516 56.576 L
189.451 55.798 L
190.386 55.031 L
191.32 54.275 L
192.255 53.53 L
193.189 52.797 L
194.124 52.075 L
195.058 51.366 L
195.993 50.668 L
196.928 49.982 L
197.862 49.309 L
198.797 48.648 L
199.731 48 L
200.666 47.364 L
201.6 46.741 L
202.535 46.131 L
203.469 45.535 L
204.404 44.952 L
205.339 44.382 L
206.273 43.826 L
207.208 43.283 L
208.142 42.755 L
209.077 42.241 L
210.011 41.741 L
210.946 41.255 L
211.88 40.784 L
212.815 40.328 L
213.75 39.887 L
214.684 39.46 L
215.619 39.049 L
216.553 38.653 L
217.488 38.273 L
218.422 37.908 L
219.357 37.559 L
220.292 37.227 L
221.226 36.91 L
222.161 36.609 L
223.095 36.325 L
224.03 36.058 L
224.964 35.807 L
225.899 35.573 L
226.833 35.356 L
227.768 35.157 L
228.703 34.975 L
229.637 34.81 L
230.572 34.663 L
231.506 34.533 L
232.441 34.422 L
233.375 34.329 L
234.31 34.254 L
235.244 34.198 L
236.179 34.16 L
237.114 34.136 L
238.048 34.114 L
238.983 34.091 L
239.917 34.069 L
240.852 34.047 L
241.786 34.025 L
242.721 34.003 L
243.655 33.981 L
244.59 33.959 L
245.525 33.937 L
246.459 33.916 L
247.394 33.894 L
248.328 33.873 L
249.263 33.852 L
250.197 33.831 L
251.132 33.81 L
252.067 33.79 L
253.001 33.769 L
253.936 33.748 L
254.87 33.728 L
255.805 33.708 L
256.739 33.688 L
257.674 33.668 L
258.608 33.648 L
259.543 33.628 L
260.478 33.608 L
261.412 33.589 L
262.347 33.569 L
263.281 33.55 L
264.216 33.531 L
265.15 33.512 L
266.085 33.493 L
267.019 33.474 L
267.954 33.455 L
268.889 33.436 L
269.823 33.418 L
270.758 33.4 L
271.692 33.381 L
272.627 33.363 L
273.561 33.345 L
274.496 33.327 L
275.431 33.309 L
276.365 33.292 L
277.3 33.274 L
278.234 33.257 L
279.169 33.239 L
280.103 33.222 L
281.038 33.205 L
281.972 33.188 L
282.907 33.171 L
283.842 33.154 L
284.776 33.138 L
285.711 33.121 L
286.645 33.105 L
287.58 33.088 L
288.514 33.072 L
289.449 33.056 L
290.383 33.04 L
291.318 33.024 L
292.253 33.008 L
293.187 32.992 L
294.122 32.977 L
295.056 32.961 L
295.991 32.946 L
296.925 32.931 L
297.86 32.916 L
298.794 32.901 L
299.729 32.886 L
300.664 32.871 L
301.598 32.856 L
302.533 32.841 L
303.467 32.827 L
304.402 32.812 L
305.336 32.798 L
306.271 32.784 L
307.206 32.77 L
308.14 32.756 L
309.075 32.742 L
310.009 32.728 L
310.944 32.714 L
311.878 32.701 L
312.813 32.687 L
313.747 32.674 L
314.682 32.661 L
315.617 32.648 L
316.551 32.634 L
317.486 32.621 L
318.42 32.609 L
319.355 32.596 L
320.289 32.583 L
321.224 32.571 L
322.158 32.558 L
323.093 32.546 L
324.028 32.533 L
324.962 32.521 L
325.897 32.509 L
326.831 32.497 L
327.766 32.485 L
328.7 32.474 L
329.635 32.462 L
330.569 32.45 L
331.504 32.439 L
332.439 32.427 L
333.373 32.416 L
334.308 32.405 L
335.242 32.394 L
336.177 32.383 L
337.111 32.372 L
338.046 32.361 L
338.981 32.35 L
339.915 32.34 L
340.85 32.329 L
341.784 32.319 L
342.719 32.308 L
343.653 32.298 L
344.588 32.288 L
345.522 32.278 L
346.457 32.268 L
347.392 32.258 L
348.326 32.248 L
349.261 32.238 L
350.195 32.229 L
351.13 32.219 L
352.064 32.21 L
352.999 32.2 L
353.933 32.191 L
354.868 32.182 L
355.803 32.173 L
356.737 32.164 L
357.672 32.155 L
358.606 32.146 L
359.541 32.137 L
360.475 32.129 L
361.41 32.12 L
362.345 32.112 L
363.279 32.103 L
364.214 32.095 L
365.148 32.087 L
366.083 32.079 L
367.017 32.071 L
367.952 32.063 L
368.886 32.055 L
369.821 32.047 L
370.756 32.039 L
371.69 32.032 L
372.625 32.024 L
373.559 32.017 L
374.494 32.009 L
375.428 32.002 L
376.363 31.995 L
377.297 31.988 L
378.232 31.981 L
379.167 31.974 L
380.101 31.967 L
381.036 31.96 L
381.97 31.953 L
382.905 31.947 L
383.839 31.94 L
384.774 31.934 L
385.708 31.927 L
386.643 31.921 L
387.578 31.915 L
388.512 31.909 L
389.447 31.903 L
390.381 31.897 L
391.316 31.891 L
392.25 31.885 L
393.185 31.879 L
394.12 31.873 L
395.054 31.868 L
395.989 31.862 L
396.923 31.857 L
397.858 31.851 L
398.792 31.846 L
399.727 31.841 L
400.661 31.836 L
401.596 31.831 L
402.531 31.826 L
403.465 31.821 L
404.4 31.816 L
405.334 31.811 L
406.269 31.806 L
407.203 31.802 L
408.138 31.797 L
409.072 31.793 L
410.007 31.788 L
410.942 31.784 L
411.876 31.779 L
412.811 31.775 L
413.745 31.771 L
414.68 31.767 L
415.614 31.763 L
416.549 31.759 L
417.484 31.755 L
418.418 31.751 L
419.353 31.748 L
420.287 31.744 L
421.222 31.741 L
422.156 31.737 L
423.091 31.734 L
424.025 31.73 L
424.96 31.727 L
425.895 31.724 L
426.829 31.72 L
427.764 31.717 L
428.698 31.714 L
429.633 31.711 L
430.567 31.708 L
431.502 31.706 L
432.436 31.703 L
433.371 31.7 L
434.306 31.697 L
435.24 31.695 L
436.175 31.692 L
437.109 31.69 L
438.044 31.687 L
438.978 31.685 L
439.913 31.683 L
440.848 31.681 L
441.782 31.678 L
442.717 31.676 L
443.651 31.674 L
444.586 31.672 L
445.52 31.67 L
446.455 31.669 L
447.389 31.667 L
448.324 31.665 L
449.259 31.663 L
450.193 31.662 L
451.128 31.66 L
452.062 31.659 L
452.997 31.657 L
453.931 31.656 L
454.866 31.655 L
455.8 31.653 L
456.735 31.652 L
457.67 31.651 L
458.604 31.65 L
459.539 31.649 L
460.473 31.648 L
461.408 31.647 L
462.342 31.646 L
463.277 31.645 L
464.211 31.645 L
465.146 31.644 L
466.081 31.643 L
467.015 31.643 L
467.95 31.642 L
468.884 31.642 L
469.819 31.641 L
470.753 31.641 L
471.688 31.641 L
472.622 31.64 L
473.557 31.64 L
474.492 31.64 L
475.426 31.64 L
476.361 31.64 L
S
GR
GS
1 GC
N
499 366 M
499 218.5 L
327.5 218.5 L
327.5 366 L
cp
f
GR
GS
[1 0 0 1 364.5 228.25] CT
/Helvetica 13 F
GS
[1 0 0 1 0 0] CT
0 5 moveto 
1 -1 scale
(Base Run) t 
GR
GR
GS
0 0.447 0.741 RC
1 LJ
0.5 LW
N
331.5 228.25 M
361.5 228.25 L
S
GR
GS
[1 0 0 1 364.5 244.25] CT
/Helvetica 13 F
GS
[1 0 0 1 0 0] CT
0 5 moveto 
1 -1 scale
(All Frames) t 
GR
GR
GS
0.851 0.325 0.098 RC
1 LJ
0.5 LW
N
331.5 244.25 M
361.5 244.25 L
S
GR
GS
[1 0 0 1 364.5 260.25] CT
/Helvetica 13 F
GS
[1 0 0 1 0 0] CT
0 5 moveto 
1 -1 scale
(KF Only) t 
GR
GR
GS
0.929 0.694 0.125 RC
1 LJ
0.5 LW
N
331.5 260.25 M
361.5 260.25 L
S
GR
GS
[1 0 0 1 364.5 276.25] CT
/Helvetica 13 F
GS
[1 0 0 1 0 0] CT
0 5 moveto 
1 -1 scale
(GF, ARF Only) t 
GR
GR
GS
0.494 0.184 0.557 RC
1 LJ
0.5 LW
N
331.5 276.25 M
361.5 276.25 L
S
GR
GS
[1 0 0 1 364.5 292.25] CT
/Helvetica 13 F
GS
[1 0 0 1 0 0] CT
0 5 moveto 
1 -1 scale
(KF, GF, ARF Only) t 
GR
GR
GS
0.467 0.675 0.188 RC
1 LJ
0.5 LW
N
331.5 292.25 M
361.5 292.25 L
S
GR
GS
[1 0 0 1 364.5 308.25] CT
/Helvetica 13 F
GS
[1 0 0 1 0 0] CT
0 5 moveto 
1 -1 scale
(Part All Frames) t 
GR
GR
GS
0.302 0.745 0.933 RC
[10 6] 0 setdash
2 LJ
0.5 LW
N
331.5 308.25 M
361.5 308.25 L
S
GR
GS
[1 0 0 1 364.5 324.25] CT
/Helvetica 13 F
GS
[1 0 0 1 0 0] CT
0 5 moveto 
1 -1 scale
(Part KF Only) t 
GR
GR
GS
0.635 0.078 0.184 RC
[10 6] 0 setdash
2 LJ
0.5 LW
N
331.5 324.25 M
361.5 324.25 L
S
GR
GS
[1 0 0 1 364.5 340.25] CT
/Helvetica 13 F
GS
[1 0 0 1 0 0] CT
0 5 moveto 
1 -1 scale
(Part GF, ARF Only) t 
GR
GR
GS
0 0.447 0.741 RC
[10 6] 0 setdash
2 LJ
0.5 LW
N
331.5 340.25 M
361.5 340.25 L
S
GR
GS
[1 0 0 1 364.5 356.25] CT
/Helvetica 13 F
GS
[1 0 0 1 0 0] CT
0 5 moveto 
1 -1 scale
(Part KF, GF, ARF Only) t 
GR
GR
GS
0.851 0.325 0.098 RC
[10 6] 0 setdash
2 LJ
0.5 LW
N
331.5 356.25 M
361.5 356.25 L
S
GR
GS
0.149 GC
10.0 ML
0.5 LW
N
327.5 366 M
327.5 218.5 L
499 218.5 L
499 366 L
cp
S
GR
%%Trailer
%%Pages: 1
%%EOF
