%!PS-Adobe-3.0 EPSF-3.0
%%Creator: (MATLAB, The Mathworks, Inc. Version 9.11.0.1837725 \(R2021b\) Update 2. Operating System: Mac OS X)
%%Title: plots/pchip/Vlog_1080P-58ad.y4m-hevc-PSNRV.eps
%%CreationDate: 2022-02-03T19:14:55
%%Pages: (atend)
%%BoundingBox:    33   425   515   826
%%LanguageLevel: 3
%%EndComments
%%BeginProlog
%%BeginResource: procset (Apache XML Graphics Std ProcSet) 1.2 0
%%Version: 1.2 0
%%Copyright: (Copyright 2001-2003,2010 The Apache Software Foundation. License terms: http://www.apache.org/licenses/LICENSE-2.0)
/bd{bind def}bind def
/ld{load def}bd
/GR/grestore ld
/GS/gsave ld
/RM/rmoveto ld
/C/curveto ld
/t/show ld
/L/lineto ld
/ML/setmiterlimit ld
/CT/concat ld
/f/fill ld
/N/newpath ld
/S/stroke ld
/CC/setcmykcolor ld
/A/ashow ld
/cp/closepath ld
/RC/setrgbcolor ld
/LJ/setlinejoin ld
/GC/setgray ld
/LW/setlinewidth ld
/M/moveto ld
/re {4 2 roll M
1 index 0 rlineto
0 exch rlineto
neg 0 rlineto
cp } bd
/_ctm matrix def
/_tm matrix def
/BT { _ctm currentmatrix pop matrix _tm copy pop 0 0 moveto } bd
/ET { _ctm setmatrix } bd
/iTm { _ctm setmatrix _tm concat } bd
/Tm { _tm astore pop iTm 0 0 moveto } bd
/ux 0.0 def
/uy 0.0 def
/F {
  /Tp exch def
  /Tf exch def
  Tf findfont Tp scalefont setfont
  /cf Tf def  /cs Tp def
} bd
/ULS {currentpoint /uy exch def /ux exch def} bd
/ULE {
  /Tcx currentpoint pop def
  gsave
  newpath
  cf findfont cs scalefont dup
  /FontMatrix get 0 get /Ts exch def /FontInfo get dup
  /UnderlinePosition get Ts mul /To exch def
  /UnderlineThickness get Ts mul /Tt exch def
  ux uy To add moveto  Tcx uy To add lineto
  Tt setlinewidth stroke
  grestore
} bd
/OLE {
  /Tcx currentpoint pop def
  gsave
  newpath
  cf findfont cs scalefont dup
  /FontMatrix get 0 get /Ts exch def /FontInfo get dup
  /UnderlinePosition get Ts mul /To exch def
  /UnderlineThickness get Ts mul /Tt exch def
  ux uy To add cs add moveto Tcx uy To add cs add lineto
  Tt setlinewidth stroke
  grestore
} bd
/SOE {
  /Tcx currentpoint pop def
  gsave
  newpath
  cf findfont cs scalefont dup
  /FontMatrix get 0 get /Ts exch def /FontInfo get dup
  /UnderlinePosition get Ts mul /To exch def
  /UnderlineThickness get Ts mul /Tt exch def
  ux uy To add cs 10 mul 26 idiv add moveto Tcx uy To add cs 10 mul 26 idiv add lineto
  Tt setlinewidth stroke
  grestore
} bd
/QT {
/Y22 exch store
/X22 exch store
/Y21 exch store
/X21 exch store
currentpoint
/Y21 load 2 mul add 3 div exch
/X21 load 2 mul add 3 div exch
/X21 load 2 mul /X22 load add 3 div
/Y21 load 2 mul /Y22 load add 3 div
/X22 load /Y22 load curveto
} bd
/SSPD {
dup length /d exch dict def
{
/v exch def
/k exch def
currentpagedevice k known {
/cpdv currentpagedevice k get def
v cpdv ne {
/upd false def
/nullv v type /nulltype eq def
/nullcpdv cpdv type /nulltype eq def
nullv nullcpdv or
{
/upd true def
} {
/sametype v type cpdv type eq def
sametype {
v type /arraytype eq {
/vlen v length def
/cpdvlen cpdv length def
vlen cpdvlen eq {
0 1 vlen 1 sub {
/i exch def
/obj v i get def
/cpdobj cpdv i get def
obj cpdobj ne {
/upd true def
exit
} if
} for
} {
/upd true def
} ifelse
} {
v type /dicttype eq {
v {
/dv exch def
/dk exch def
/cpddv cpdv dk get def
dv cpddv ne {
/upd true def
exit
} if
} forall
} {
/upd true def
} ifelse
} ifelse
} if
} ifelse
upd true eq {
d k v put
} if
} if
} if
} forall
d length 0 gt {
d setpagedevice
} if
} bd
/RE { % /NewFontName [NewEncodingArray] /FontName RE -
  findfont dup length dict begin
  {
    1 index /FID ne
    {def} {pop pop} ifelse
  } forall
  /Encoding exch def
  /FontName 1 index def
  currentdict definefont pop
  end
} bind def
%%EndResource
%%BeginResource: procset (Apache XML Graphics EPS ProcSet) 1.0 0
%%Version: 1.0 0
%%Copyright: (Copyright 2002-2003 The Apache Software Foundation. License terms: http://www.apache.org/licenses/LICENSE-2.0)
/BeginEPSF { %def
/b4_Inc_state save def         % Save state for cleanup
/dict_count countdictstack def % Count objects on dict stack
/op_count count 1 sub def      % Count objects on operand stack
userdict begin                 % Push userdict on dict stack
/showpage { } def              % Redefine showpage, { } = null proc
0 setgray 0 setlinecap         % Prepare graphics state
1 setlinewidth 0 setlinejoin
10 setmiterlimit [ ] 0 setdash newpath
/languagelevel where           % If level not equal to 1 then
{pop languagelevel             % set strokeadjust and
1 ne                           % overprint to their defaults.
{false setstrokeadjust false setoverprint
} if
} if
} bd
/EndEPSF { %def
count op_count sub {pop} repeat            % Clean up stacks
countdictstack dict_count sub {end} repeat
b4_Inc_state restore
} bd
%%EndResource
%FOPBeginFontDict
%%IncludeResource: font Courier-Oblique
%%IncludeResource: font Courier-BoldOblique
%%IncludeResource: font Courier-Bold
%%IncludeResource: font ZapfDingbats
%%IncludeResource: font Symbol
%%IncludeResource: font Helvetica
%%IncludeResource: font Helvetica-Oblique
%%IncludeResource: font Helvetica-Bold
%%IncludeResource: font Helvetica-BoldOblique
%%IncludeResource: font Times-Roman
%%IncludeResource: font Times-Italic
%%IncludeResource: font Times-Bold
%%IncludeResource: font Times-BoldItalic
%%IncludeResource: font Courier
%FOPEndFontDict
%%BeginResource: encoding WinAnsiEncoding
/WinAnsiEncoding [
/.notdef /.notdef /.notdef /.notdef /.notdef
/.notdef /.notdef /.notdef /.notdef /.notdef
/.notdef /.notdef /.notdef /.notdef /.notdef
/.notdef /.notdef /.notdef /.notdef /.notdef
/.notdef /.notdef /.notdef /.notdef /.notdef
/.notdef /.notdef /.notdef /.notdef /.notdef
/.notdef /.notdef /space /exclam /quotedbl
/numbersign /dollar /percent /ampersand /quotesingle
/parenleft /parenright /asterisk /plus /comma
/hyphen /period /slash /zero /one
/two /three /four /five /six
/seven /eight /nine /colon /semicolon
/less /equal /greater /question /at
/A /B /C /D /E
/F /G /H /I /J
/K /L /M /N /O
/P /Q /R /S /T
/U /V /W /X /Y
/Z /bracketleft /backslash /bracketright /asciicircum
/underscore /quoteleft /a /b /c
/d /e /f /g /h
/i /j /k /l /m
/n /o /p /q /r
/s /t /u /v /w
/x /y /z /braceleft /bar
/braceright /asciitilde /bullet /Euro /bullet
/quotesinglbase /florin /quotedblbase /ellipsis /dagger
/daggerdbl /circumflex /perthousand /Scaron /guilsinglleft
/OE /bullet /Zcaron /bullet /bullet
/quoteleft /quoteright /quotedblleft /quotedblright /bullet
/endash /emdash /asciitilde /trademark /scaron
/guilsinglright /oe /bullet /zcaron /Ydieresis
/space /exclamdown /cent /sterling /currency
/yen /brokenbar /section /dieresis /copyright
/ordfeminine /guillemotleft /logicalnot /sfthyphen /registered
/macron /degree /plusminus /twosuperior /threesuperior
/acute /mu /paragraph /middot /cedilla
/onesuperior /ordmasculine /guillemotright /onequarter /onehalf
/threequarters /questiondown /Agrave /Aacute /Acircumflex
/Atilde /Adieresis /Aring /AE /Ccedilla
/Egrave /Eacute /Ecircumflex /Edieresis /Igrave
/Iacute /Icircumflex /Idieresis /Eth /Ntilde
/Ograve /Oacute /Ocircumflex /Otilde /Odieresis
/multiply /Oslash /Ugrave /Uacute /Ucircumflex
/Udieresis /Yacute /Thorn /germandbls /agrave
/aacute /acircumflex /atilde /adieresis /aring
/ae /ccedilla /egrave /eacute /ecircumflex
/edieresis /igrave /iacute /icircumflex /idieresis
/eth /ntilde /ograve /oacute /ocircumflex
/otilde /odieresis /divide /oslash /ugrave
/uacute /ucircumflex /udieresis /yacute /thorn
/ydieresis
] def
%%EndResource
%FOPBeginFontReencode
/Courier-Oblique findfont
dup length dict begin
  {1 index /FID ne {def} {pop pop} ifelse} forall
  /Encoding WinAnsiEncoding def
  currentdict
end
/Courier-Oblique exch definefont pop
/Courier-BoldOblique findfont
dup length dict begin
  {1 index /FID ne {def} {pop pop} ifelse} forall
  /Encoding WinAnsiEncoding def
  currentdict
end
/Courier-BoldOblique exch definefont pop
/Courier-Bold findfont
dup length dict begin
  {1 index /FID ne {def} {pop pop} ifelse} forall
  /Encoding WinAnsiEncoding def
  currentdict
end
/Courier-Bold exch definefont pop
/Helvetica findfont
dup length dict begin
  {1 index /FID ne {def} {pop pop} ifelse} forall
  /Encoding WinAnsiEncoding def
  currentdict
end
/Helvetica exch definefont pop
/Helvetica-Oblique findfont
dup length dict begin
  {1 index /FID ne {def} {pop pop} ifelse} forall
  /Encoding WinAnsiEncoding def
  currentdict
end
/Helvetica-Oblique exch definefont pop
/Helvetica-Bold findfont
dup length dict begin
  {1 index /FID ne {def} {pop pop} ifelse} forall
  /Encoding WinAnsiEncoding def
  currentdict
end
/Helvetica-Bold exch definefont pop
/Helvetica-BoldOblique findfont
dup length dict begin
  {1 index /FID ne {def} {pop pop} ifelse} forall
  /Encoding WinAnsiEncoding def
  currentdict
end
/Helvetica-BoldOblique exch definefont pop
/Times-Roman findfont
dup length dict begin
  {1 index /FID ne {def} {pop pop} ifelse} forall
  /Encoding WinAnsiEncoding def
  currentdict
end
/Times-Roman exch definefont pop
/Times-Italic findfont
dup length dict begin
  {1 index /FID ne {def} {pop pop} ifelse} forall
  /Encoding WinAnsiEncoding def
  currentdict
end
/Times-Italic exch definefont pop
/Times-Bold findfont
dup length dict begin
  {1 index /FID ne {def} {pop pop} ifelse} forall
  /Encoding WinAnsiEncoding def
  currentdict
end
/Times-Bold exch definefont pop
/Times-BoldItalic findfont
dup length dict begin
  {1 index /FID ne {def} {pop pop} ifelse} forall
  /Encoding WinAnsiEncoding def
  currentdict
end
/Times-BoldItalic exch definefont pop
/Courier findfont
dup length dict begin
  {1 index /FID ne {def} {pop pop} ifelse} forall
  /Encoding WinAnsiEncoding def
  currentdict
end
/Courier exch definefont pop
%FOPEndFontReencode
%%EndProlog
%%Page: 1 1
%%PageBoundingBox: 0 0 1120 840
%%BeginPageSetup
[1 0 0 -1 0 840] CT
%%EndPageSetup
GS
1 GC
N
0 0 1120 840 re
f
GR
GS
1 GC
N
73 374 M
507 374 L
507 31.5 L
73 31.5 L
cp
f
GR
GS
0.149 GC
2 setlinecap
1 LJ
0.5 LW
N
73 374 M
507 374 L
S
GR
GS
0.149 GC
2 setlinecap
1 LJ
0.5 LW
N
73 31.5 M
507 31.5 L
S
GR
GS
0.149 GC
2 setlinecap
1 LJ
0.5 LW
N
96.769 374 M
96.769 369.66 L
S
GR
GS
0.149 GC
2 setlinecap
1 LJ
0.5 LW
N
154.315 374 M
154.315 369.66 L
S
GR
GS
0.149 GC
2 setlinecap
1 LJ
0.5 LW
N
211.86 374 M
211.86 369.66 L
S
GR
GS
0.149 GC
2 setlinecap
1 LJ
0.5 LW
N
269.406 374 M
269.406 369.66 L
S
GR
GS
0.149 GC
2 setlinecap
1 LJ
0.5 LW
N
326.951 374 M
326.951 369.66 L
S
GR
GS
0.149 GC
2 setlinecap
1 LJ
0.5 LW
N
384.497 374 M
384.497 369.66 L
S
GR
GS
0.149 GC
2 setlinecap
1 LJ
0.5 LW
N
442.042 374 M
442.042 369.66 L
S
GR
GS
0.149 GC
2 setlinecap
1 LJ
0.5 LW
N
499.588 374 M
499.588 369.66 L
S
GR
GS
0.149 GC
2 setlinecap
1 LJ
0.5 LW
N
96.769 31.5 M
96.769 35.84 L
S
GR
GS
0.149 GC
2 setlinecap
1 LJ
0.5 LW
N
154.315 31.5 M
154.315 35.84 L
S
GR
GS
0.149 GC
2 setlinecap
1 LJ
0.5 LW
N
211.86 31.5 M
211.86 35.84 L
S
GR
GS
0.149 GC
2 setlinecap
1 LJ
0.5 LW
N
269.406 31.5 M
269.406 35.84 L
S
GR
GS
0.149 GC
2 setlinecap
1 LJ
0.5 LW
N
326.951 31.5 M
326.951 35.84 L
S
GR
GS
0.149 GC
2 setlinecap
1 LJ
0.5 LW
N
384.497 31.5 M
384.497 35.84 L
S
GR
GS
0.149 GC
2 setlinecap
1 LJ
0.5 LW
N
442.042 31.5 M
442.042 35.84 L
S
GR
GS
0.149 GC
2 setlinecap
1 LJ
0.5 LW
N
499.588 31.5 M
499.588 35.84 L
S
GR
GS
0.149 GC
2 setlinecap
1 LJ
0.5 LW
N
73.751 374 M
73.751 371.83 L
S
GR
GS
0.149 GC
2 setlinecap
1 LJ
0.5 LW
N
85.26 374 M
85.26 371.83 L
S
GR
GS
0.149 GC
2 setlinecap
1 LJ
0.5 LW
N
108.278 374 M
108.278 371.83 L
S
GR
GS
0.149 GC
2 setlinecap
1 LJ
0.5 LW
N
119.787 374 M
119.787 371.83 L
S
GR
GS
0.149 GC
2 setlinecap
1 LJ
0.5 LW
N
131.297 374 M
131.297 371.83 L
S
GR
GS
0.149 GC
2 setlinecap
1 LJ
0.5 LW
N
142.806 374 M
142.806 371.83 L
S
GR
GS
0.149 GC
2 setlinecap
1 LJ
0.5 LW
N
165.824 374 M
165.824 371.83 L
S
GR
GS
0.149 GC
2 setlinecap
1 LJ
0.5 LW
N
177.333 374 M
177.333 371.83 L
S
GR
GS
0.149 GC
2 setlinecap
1 LJ
0.5 LW
N
188.842 374 M
188.842 371.83 L
S
GR
GS
0.149 GC
2 setlinecap
1 LJ
0.5 LW
N
200.351 374 M
200.351 371.83 L
S
GR
GS
0.149 GC
2 setlinecap
1 LJ
0.5 LW
N
223.369 374 M
223.369 371.83 L
S
GR
GS
0.149 GC
2 setlinecap
1 LJ
0.5 LW
N
234.878 374 M
234.878 371.83 L
S
GR
GS
0.149 GC
2 setlinecap
1 LJ
0.5 LW
N
246.388 374 M
246.388 371.83 L
S
GR
GS
0.149 GC
2 setlinecap
1 LJ
0.5 LW
N
257.897 374 M
257.897 371.83 L
S
GR
GS
0.149 GC
2 setlinecap
1 LJ
0.5 LW
N
280.915 374 M
280.915 371.83 L
S
GR
GS
0.149 GC
2 setlinecap
1 LJ
0.5 LW
N
292.424 374 M
292.424 371.83 L
S
GR
GS
0.149 GC
2 setlinecap
1 LJ
0.5 LW
N
303.933 374 M
303.933 371.83 L
S
GR
GS
0.149 GC
2 setlinecap
1 LJ
0.5 LW
N
315.442 374 M
315.442 371.83 L
S
GR
GS
0.149 GC
2 setlinecap
1 LJ
0.5 LW
N
338.46 374 M
338.46 371.83 L
S
GR
GS
0.149 GC
2 setlinecap
1 LJ
0.5 LW
N
349.969 374 M
349.969 371.83 L
S
GR
GS
0.149 GC
2 setlinecap
1 LJ
0.5 LW
N
361.479 374 M
361.479 371.83 L
S
GR
GS
0.149 GC
2 setlinecap
1 LJ
0.5 LW
N
372.988 374 M
372.988 371.83 L
S
GR
GS
0.149 GC
2 setlinecap
1 LJ
0.5 LW
N
396.006 374 M
396.006 371.83 L
S
GR
GS
0.149 GC
2 setlinecap
1 LJ
0.5 LW
N
407.515 374 M
407.515 371.83 L
S
GR
GS
0.149 GC
2 setlinecap
1 LJ
0.5 LW
N
419.024 374 M
419.024 371.83 L
S
GR
GS
0.149 GC
2 setlinecap
1 LJ
0.5 LW
N
430.533 374 M
430.533 371.83 L
S
GR
GS
0.149 GC
2 setlinecap
1 LJ
0.5 LW
N
453.551 374 M
453.551 371.83 L
S
GR
GS
0.149 GC
2 setlinecap
1 LJ
0.5 LW
N
465.06 374 M
465.06 371.83 L
S
GR
GS
0.149 GC
2 setlinecap
1 LJ
0.5 LW
N
476.57 374 M
476.57 371.83 L
S
GR
GS
0.149 GC
2 setlinecap
1 LJ
0.5 LW
N
488.079 374 M
488.079 371.83 L
S
GR
GS
0.149 GC
2 setlinecap
1 LJ
0.5 LW
N
73.751 31.5 M
73.751 33.67 L
S
GR
GS
0.149 GC
2 setlinecap
1 LJ
0.5 LW
N
85.26 31.5 M
85.26 33.67 L
S
GR
GS
0.149 GC
2 setlinecap
1 LJ
0.5 LW
N
108.278 31.5 M
108.278 33.67 L
S
GR
GS
0.149 GC
2 setlinecap
1 LJ
0.5 LW
N
119.787 31.5 M
119.787 33.67 L
S
GR
GS
0.149 GC
2 setlinecap
1 LJ
0.5 LW
N
131.297 31.5 M
131.297 33.67 L
S
GR
GS
0.149 GC
2 setlinecap
1 LJ
0.5 LW
N
142.806 31.5 M
142.806 33.67 L
S
GR
GS
0.149 GC
2 setlinecap
1 LJ
0.5 LW
N
165.824 31.5 M
165.824 33.67 L
S
GR
GS
0.149 GC
2 setlinecap
1 LJ
0.5 LW
N
177.333 31.5 M
177.333 33.67 L
S
GR
GS
0.149 GC
2 setlinecap
1 LJ
0.5 LW
N
188.842 31.5 M
188.842 33.67 L
S
GR
GS
0.149 GC
2 setlinecap
1 LJ
0.5 LW
N
200.351 31.5 M
200.351 33.67 L
S
GR
GS
0.149 GC
2 setlinecap
1 LJ
0.5 LW
N
223.369 31.5 M
223.369 33.67 L
S
GR
GS
0.149 GC
2 setlinecap
1 LJ
0.5 LW
N
234.878 31.5 M
234.878 33.67 L
S
GR
GS
0.149 GC
2 setlinecap
1 LJ
0.5 LW
N
246.388 31.5 M
246.388 33.67 L
S
GR
GS
0.149 GC
2 setlinecap
1 LJ
0.5 LW
N
257.897 31.5 M
257.897 33.67 L
S
GR
GS
0.149 GC
2 setlinecap
1 LJ
0.5 LW
N
280.915 31.5 M
280.915 33.67 L
S
GR
GS
0.149 GC
2 setlinecap
1 LJ
0.5 LW
N
292.424 31.5 M
292.424 33.67 L
S
GR
GS
0.149 GC
2 setlinecap
1 LJ
0.5 LW
N
303.933 31.5 M
303.933 33.67 L
S
GR
GS
0.149 GC
2 setlinecap
1 LJ
0.5 LW
N
315.442 31.5 M
315.442 33.67 L
S
GR
GS
0.149 GC
2 setlinecap
1 LJ
0.5 LW
N
338.46 31.5 M
338.46 33.67 L
S
GR
GS
0.149 GC
2 setlinecap
1 LJ
0.5 LW
N
349.969 31.5 M
349.969 33.67 L
S
GR
GS
0.149 GC
2 setlinecap
1 LJ
0.5 LW
N
361.479 31.5 M
361.479 33.67 L
S
GR
GS
0.149 GC
2 setlinecap
1 LJ
0.5 LW
N
372.988 31.5 M
372.988 33.67 L
S
GR
GS
0.149 GC
2 setlinecap
1 LJ
0.5 LW
N
396.006 31.5 M
396.006 33.67 L
S
GR
GS
0.149 GC
2 setlinecap
1 LJ
0.5 LW
N
407.515 31.5 M
407.515 33.67 L
S
GR
GS
0.149 GC
2 setlinecap
1 LJ
0.5 LW
N
419.024 31.5 M
419.024 33.67 L
S
GR
GS
0.149 GC
2 setlinecap
1 LJ
0.5 LW
N
430.533 31.5 M
430.533 33.67 L
S
GR
GS
0.149 GC
2 setlinecap
1 LJ
0.5 LW
N
453.551 31.5 M
453.551 33.67 L
S
GR
GS
0.149 GC
2 setlinecap
1 LJ
0.5 LW
N
465.06 31.5 M
465.06 33.67 L
S
GR
GS
0.149 GC
2 setlinecap
1 LJ
0.5 LW
N
476.57 31.5 M
476.57 33.67 L
S
GR
GS
0.149 GC
2 setlinecap
1 LJ
0.5 LW
N
488.079 31.5 M
488.079 33.67 L
S
GR
GS
[1 0 0 1 96.76929 378.80005] CT
0.149 GC
/Helvetica 14 F
GS
[1 0 0 1 0 0] CT
-16 14 moveto 
1 -1 scale
(1000) t 
GR
GR
GS
[1 0 0 1 154.31479 378.80005] CT
0.149 GC
/Helvetica 14 F
GS
[1 0 0 1 0 0] CT
-16 14 moveto 
1 -1 scale
(2000) t 
GR
GR
GS
[1 0 0 1 211.86029 378.80005] CT
0.149 GC
/Helvetica 14 F
GS
[1 0 0 1 0 0] CT
-16 14 moveto 
1 -1 scale
(3000) t 
GR
GR
GS
[1 0 0 1 269.40579 378.80005] CT
0.149 GC
/Helvetica 14 F
GS
[1 0 0 1 0 0] CT
-16 14 moveto 
1 -1 scale
(4000) t 
GR
GR
GS
[1 0 0 1 326.95129 378.80005] CT
0.149 GC
/Helvetica 14 F
GS
[1 0 0 1 0 0] CT
-16 14 moveto 
1 -1 scale
(5000) t 
GR
GR
GS
[1 0 0 1 384.4968 378.80005] CT
0.149 GC
/Helvetica 14 F
GS
[1 0 0 1 0 0] CT
-16 14 moveto 
1 -1 scale
(6000) t 
GR
GR
GS
[1 0 0 1 442.04227 378.80005] CT
0.149 GC
/Helvetica 14 F
GS
[1 0 0 1 0 0] CT
-16 14 moveto 
1 -1 scale
(7000) t 
GR
GR
GS
[1 0 0 1 499.58777 378.80005] CT
0.149 GC
/Helvetica 14 F
GS
[1 0 0 1 0 0] CT
-16 14 moveto 
1 -1 scale
(8000) t 
GR
GR
GS
[1 0 0 1 290.00018 396.30008] CT
0.149 GC
/Helvetica 15.4 F
GS
[1 0 0 1 0 0] CT
-42 15 moveto 
1 -1 scale
(Bitrate\(kb/s\)) t 
GR
GR
GS
0.149 GC
2 setlinecap
1 LJ
0.5 LW
N
73 374 M
73 31.5 L
S
GR
GS
0.149 GC
2 setlinecap
1 LJ
0.5 LW
N
507 374 M
507 31.5 L
S
GR
GS
0.149 GC
2 setlinecap
1 LJ
0.5 LW
N
73 356.942 M
77.34 356.942 L
S
GR
GS
0.149 GC
2 setlinecap
1 LJ
0.5 LW
N
73 312.633 M
77.34 312.633 L
S
GR
GS
0.149 GC
2 setlinecap
1 LJ
0.5 LW
N
73 268.323 M
77.34 268.323 L
S
GR
GS
0.149 GC
2 setlinecap
1 LJ
0.5 LW
N
73 224.014 M
77.34 224.014 L
S
GR
GS
0.149 GC
2 setlinecap
1 LJ
0.5 LW
N
73 179.705 M
77.34 179.705 L
S
GR
GS
0.149 GC
2 setlinecap
1 LJ
0.5 LW
N
73 135.395 M
77.34 135.395 L
S
GR
GS
0.149 GC
2 setlinecap
1 LJ
0.5 LW
N
73 91.086 M
77.34 91.086 L
S
GR
GS
0.149 GC
2 setlinecap
1 LJ
0.5 LW
N
73 46.777 M
77.34 46.777 L
S
GR
GS
0.149 GC
2 setlinecap
1 LJ
0.5 LW
N
507 356.942 M
502.66 356.942 L
S
GR
GS
0.149 GC
2 setlinecap
1 LJ
0.5 LW
N
507 312.633 M
502.66 312.633 L
S
GR
GS
0.149 GC
2 setlinecap
1 LJ
0.5 LW
N
507 268.323 M
502.66 268.323 L
S
GR
GS
0.149 GC
2 setlinecap
1 LJ
0.5 LW
N
507 224.014 M
502.66 224.014 L
S
GR
GS
0.149 GC
2 setlinecap
1 LJ
0.5 LW
N
507 179.705 M
502.66 179.705 L
S
GR
GS
0.149 GC
2 setlinecap
1 LJ
0.5 LW
N
507 135.395 M
502.66 135.395 L
S
GR
GS
0.149 GC
2 setlinecap
1 LJ
0.5 LW
N
507 91.086 M
502.66 91.086 L
S
GR
GS
0.149 GC
2 setlinecap
1 LJ
0.5 LW
N
507 46.777 M
502.66 46.777 L
S
GR
GS
0.149 GC
2 setlinecap
1 LJ
0.5 LW
N
73 365.804 M
75.17 365.804 L
S
GR
GS
0.149 GC
2 setlinecap
1 LJ
0.5 LW
N
73 348.08 M
75.17 348.08 L
S
GR
GS
0.149 GC
2 setlinecap
1 LJ
0.5 LW
N
73 339.218 M
75.17 339.218 L
S
GR
GS
0.149 GC
2 setlinecap
1 LJ
0.5 LW
N
73 330.357 M
75.17 330.357 L
S
GR
GS
0.149 GC
2 setlinecap
1 LJ
0.5 LW
N
73 321.495 M
75.17 321.495 L
S
GR
GS
0.149 GC
2 setlinecap
1 LJ
0.5 LW
N
73 303.771 M
75.17 303.771 L
S
GR
GS
0.149 GC
2 setlinecap
1 LJ
0.5 LW
N
73 294.909 M
75.17 294.909 L
S
GR
GS
0.149 GC
2 setlinecap
1 LJ
0.5 LW
N
73 286.047 M
75.17 286.047 L
S
GR
GS
0.149 GC
2 setlinecap
1 LJ
0.5 LW
N
73 277.185 M
75.17 277.185 L
S
GR
GS
0.149 GC
2 setlinecap
1 LJ
0.5 LW
N
73 259.462 M
75.17 259.462 L
S
GR
GS
0.149 GC
2 setlinecap
1 LJ
0.5 LW
N
73 250.6 M
75.17 250.6 L
S
GR
GS
0.149 GC
2 setlinecap
1 LJ
0.5 LW
N
73 241.738 M
75.17 241.738 L
S
GR
GS
0.149 GC
2 setlinecap
1 LJ
0.5 LW
N
73 232.876 M
75.17 232.876 L
S
GR
GS
0.149 GC
2 setlinecap
1 LJ
0.5 LW
N
73 215.152 M
75.17 215.152 L
S
GR
GS
0.149 GC
2 setlinecap
1 LJ
0.5 LW
N
73 206.29 M
75.17 206.29 L
S
GR
GS
0.149 GC
2 setlinecap
1 LJ
0.5 LW
N
73 197.429 M
75.17 197.429 L
S
GR
GS
0.149 GC
2 setlinecap
1 LJ
0.5 LW
N
73 188.567 M
75.17 188.567 L
S
GR
GS
0.149 GC
2 setlinecap
1 LJ
0.5 LW
N
73 170.843 M
75.17 170.843 L
S
GR
GS
0.149 GC
2 setlinecap
1 LJ
0.5 LW
N
73 161.981 M
75.17 161.981 L
S
GR
GS
0.149 GC
2 setlinecap
1 LJ
0.5 LW
N
73 153.119 M
75.17 153.119 L
S
GR
GS
0.149 GC
2 setlinecap
1 LJ
0.5 LW
N
73 144.257 M
75.17 144.257 L
S
GR
GS
0.149 GC
2 setlinecap
1 LJ
0.5 LW
N
73 126.534 M
75.17 126.534 L
S
GR
GS
0.149 GC
2 setlinecap
1 LJ
0.5 LW
N
73 117.672 M
75.17 117.672 L
S
GR
GS
0.149 GC
2 setlinecap
1 LJ
0.5 LW
N
73 108.81 M
75.17 108.81 L
S
GR
GS
0.149 GC
2 setlinecap
1 LJ
0.5 LW
N
73 99.948 M
75.17 99.948 L
S
GR
GS
0.149 GC
2 setlinecap
1 LJ
0.5 LW
N
73 82.224 M
75.17 82.224 L
S
GR
GS
0.149 GC
2 setlinecap
1 LJ
0.5 LW
N
73 73.362 M
75.17 73.362 L
S
GR
GS
0.149 GC
2 setlinecap
1 LJ
0.5 LW
N
73 64.501 M
75.17 64.501 L
S
GR
GS
0.149 GC
2 setlinecap
1 LJ
0.5 LW
N
73 55.639 M
75.17 55.639 L
S
GR
GS
0.149 GC
2 setlinecap
1 LJ
0.5 LW
N
73 37.915 M
75.17 37.915 L
S
GR
GS
0.149 GC
2 setlinecap
1 LJ
0.5 LW
N
507 365.804 M
504.83 365.804 L
S
GR
GS
0.149 GC
2 setlinecap
1 LJ
0.5 LW
N
507 348.08 M
504.83 348.08 L
S
GR
GS
0.149 GC
2 setlinecap
1 LJ
0.5 LW
N
507 339.218 M
504.83 339.218 L
S
GR
GS
0.149 GC
2 setlinecap
1 LJ
0.5 LW
N
507 330.357 M
504.83 330.357 L
S
GR
GS
0.149 GC
2 setlinecap
1 LJ
0.5 LW
N
507 321.495 M
504.83 321.495 L
S
GR
GS
0.149 GC
2 setlinecap
1 LJ
0.5 LW
N
507 303.771 M
504.83 303.771 L
S
GR
GS
0.149 GC
2 setlinecap
1 LJ
0.5 LW
N
507 294.909 M
504.83 294.909 L
S
GR
GS
0.149 GC
2 setlinecap
1 LJ
0.5 LW
N
507 286.047 M
504.83 286.047 L
S
GR
GS
0.149 GC
2 setlinecap
1 LJ
0.5 LW
N
507 277.185 M
504.83 277.185 L
S
GR
GS
0.149 GC
2 setlinecap
1 LJ
0.5 LW
N
507 259.462 M
504.83 259.462 L
S
GR
GS
0.149 GC
2 setlinecap
1 LJ
0.5 LW
N
507 250.6 M
504.83 250.6 L
S
GR
GS
0.149 GC
2 setlinecap
1 LJ
0.5 LW
N
507 241.738 M
504.83 241.738 L
S
GR
GS
0.149 GC
2 setlinecap
1 LJ
0.5 LW
N
507 232.876 M
504.83 232.876 L
S
GR
GS
0.149 GC
2 setlinecap
1 LJ
0.5 LW
N
507 215.152 M
504.83 215.152 L
S
GR
GS
0.149 GC
2 setlinecap
1 LJ
0.5 LW
N
507 206.29 M
504.83 206.29 L
S
GR
GS
0.149 GC
2 setlinecap
1 LJ
0.5 LW
N
507 197.429 M
504.83 197.429 L
S
GR
GS
0.149 GC
2 setlinecap
1 LJ
0.5 LW
N
507 188.567 M
504.83 188.567 L
S
GR
GS
0.149 GC
2 setlinecap
1 LJ
0.5 LW
N
507 170.843 M
504.83 170.843 L
S
GR
GS
0.149 GC
2 setlinecap
1 LJ
0.5 LW
N
507 161.981 M
504.83 161.981 L
S
GR
GS
0.149 GC
2 setlinecap
1 LJ
0.5 LW
N
507 153.119 M
504.83 153.119 L
S
GR
GS
0.149 GC
2 setlinecap
1 LJ
0.5 LW
N
507 144.257 M
504.83 144.257 L
S
GR
GS
0.149 GC
2 setlinecap
1 LJ
0.5 LW
N
507 126.534 M
504.83 126.534 L
S
GR
GS
0.149 GC
2 setlinecap
1 LJ
0.5 LW
N
507 117.672 M
504.83 117.672 L
S
GR
GS
0.149 GC
2 setlinecap
1 LJ
0.5 LW
N
507 108.81 M
504.83 108.81 L
S
GR
GS
0.149 GC
2 setlinecap
1 LJ
0.5 LW
N
507 99.948 M
504.83 99.948 L
S
GR
GS
0.149 GC
2 setlinecap
1 LJ
0.5 LW
N
507 82.224 M
504.83 82.224 L
S
GR
GS
0.149 GC
2 setlinecap
1 LJ
0.5 LW
N
507 73.362 M
504.83 73.362 L
S
GR
GS
0.149 GC
2 setlinecap
1 LJ
0.5 LW
N
507 64.501 M
504.83 64.501 L
S
GR
GS
0.149 GC
2 setlinecap
1 LJ
0.5 LW
N
507 55.639 M
504.83 55.639 L
S
GR
GS
0.149 GC
2 setlinecap
1 LJ
0.5 LW
N
507 37.915 M
504.83 37.915 L
S
GR
GS
[1 0 0 1 68.2 356.94217] CT
0.149 GC
/Helvetica 14 F
GS
[1 0 0 1 0 0] CT
-16 5.5 moveto 
1 -1 scale
(42) t 
GR
GR
GS
[1 0 0 1 68.2 312.63284] CT
0.149 GC
/Helvetica 14 F
GS
[1 0 0 1 0 0] CT
-16 5.5 moveto 
1 -1 scale
(43) t 
GR
GR
GS
[1 0 0 1 68.2 268.32349] CT
0.149 GC
/Helvetica 14 F
GS
[1 0 0 1 0 0] CT
-16 5.5 moveto 
1 -1 scale
(44) t 
GR
GR
GS
[1 0 0 1 68.2 224.01411] CT
0.149 GC
/Helvetica 14 F
GS
[1 0 0 1 0 0] CT
-16 5.5 moveto 
1 -1 scale
(45) t 
GR
GR
GS
[1 0 0 1 68.2 179.70476] CT
0.149 GC
/Helvetica 14 F
GS
[1 0 0 1 0 0] CT
-16 5.5 moveto 
1 -1 scale
(46) t 
GR
GR
GS
[1 0 0 1 68.2 135.3954] CT
0.149 GC
/Helvetica 14 F
GS
[1 0 0 1 0 0] CT
-16 5.5 moveto 
1 -1 scale
(47) t 
GR
GR
GS
[1 0 0 1 68.2 91.08605] CT
0.149 GC
/Helvetica 14 F
GS
[1 0 0 1 0 0] CT
-16 5.5 moveto 
1 -1 scale
(48) t 
GR
GR
GS
[1 0 0 1 68.2 46.7767] CT
0.149 GC
/Helvetica 14 F
GS
[1 0 0 1 0 0] CT
-16 5.5 moveto 
1 -1 scale
(49) t 
GR
GR
GS
[0 -1 1 0 49.2 202.74988] CT
0.149 GC
/Helvetica 15.4 F
GS
[1 0 0 1 0 0] CT
-44 -4 moveto 
1 -1 scale
(PSNR V \(dB\)) t 
GR
GR
GS
[1 0 0 1 290.00027 29.57501] CT
/Helvetica-Bold 15.4 F
GS
[1 0 0 1 0 0] CT
-101.5 -4 moveto 
1 -1 scale
(Vlog_1080P-58ad.y4m-hevc) t 
GR
GR
GS
0 0.447 0.741 RC
1 LJ
0.5 LW
N
74.474 369.944 M
75.625 365.074 L
76.776 360.221 L
77.927 355.39 L
79.077 350.589 L
80.228 345.824 L
81.379 341.101 L
82.53 336.427 L
83.681 331.81 L
84.832 327.255 L
85.983 322.77 L
87.134 318.361 L
88.285 314.035 L
89.436 309.798 L
90.587 305.657 L
91.738 301.619 L
92.888 297.691 L
94.039 293.879 L
95.19 290.189 L
96.341 286.63 L
97.492 283.206 L
98.643 279.925 L
99.794 276.795 L
100.945 273.82 L
102.096 271.008 L
103.247 268.366 L
104.398 265.901 L
105.548 263.562 L
106.699 261.265 L
107.85 259.008 L
109.001 256.79 L
110.152 254.61 L
111.303 252.469 L
112.454 250.367 L
113.605 248.301 L
114.756 246.273 L
115.907 244.282 L
117.058 242.327 L
118.208 240.408 L
119.359 238.524 L
120.51 236.676 L
121.661 234.862 L
122.812 233.082 L
123.963 231.336 L
125.114 229.623 L
126.265 227.944 L
127.416 226.297 L
128.567 224.682 L
129.718 223.098 L
130.868 221.546 L
132.019 220.025 L
133.17 218.534 L
134.321 217.074 L
135.472 215.642 L
136.623 214.24 L
137.774 212.867 L
138.925 211.522 L
140.076 210.205 L
141.227 208.915 L
142.378 207.652 L
143.528 206.416 L
144.679 205.206 L
145.83 204.022 L
146.981 202.863 L
148.132 201.729 L
149.283 200.62 L
150.434 199.534 L
151.585 198.473 L
152.736 197.434 L
153.887 196.419 L
155.038 195.426 L
156.188 194.454 L
157.339 193.504 L
158.49 192.569 L
159.641 191.648 L
160.792 190.739 L
161.943 189.843 L
163.094 188.959 L
164.245 188.088 L
165.396 187.228 L
166.547 186.381 L
167.698 185.545 L
168.848 184.721 L
169.999 183.907 L
171.15 183.105 L
172.301 182.314 L
173.452 181.533 L
174.603 180.762 L
175.754 180.002 L
176.905 179.251 L
178.056 178.511 L
179.207 177.779 L
180.358 177.057 L
181.508 176.344 L
182.659 175.64 L
183.81 174.944 L
184.961 174.257 L
186.112 173.578 L
187.263 172.907 L
188.414 172.243 L
189.565 171.587 L
190.716 170.939 L
191.867 170.297 L
193.018 169.663 L
194.168 169.035 L
195.319 168.413 L
196.47 167.798 L
197.621 167.189 L
198.772 166.585 L
199.923 165.988 L
201.074 165.395 L
202.225 164.808 L
203.376 164.225 L
204.527 163.648 L
205.678 163.075 L
206.829 162.506 L
207.979 161.941 L
209.13 161.38 L
210.281 160.823 L
211.432 160.269 L
212.583 159.719 L
213.734 159.171 L
214.885 158.626 L
216.036 158.084 L
217.187 157.544 L
218.338 157.006 L
219.489 156.47 L
220.639 155.936 L
221.79 155.403 L
222.941 154.872 L
224.092 154.342 L
225.243 153.812 L
226.394 153.283 L
227.545 152.755 L
228.696 152.227 L
229.847 151.698 L
230.998 151.17 L
232.149 150.641 L
233.299 150.111 L
234.45 149.58 L
235.601 149.049 L
236.752 148.516 L
237.903 147.981 L
239.054 147.445 L
240.205 146.907 L
241.356 146.366 L
242.507 145.823 L
243.658 145.278 L
244.809 144.73 L
245.959 144.178 L
247.11 143.624 L
248.261 143.066 L
249.412 142.504 L
250.563 141.938 L
251.714 141.369 L
252.865 140.799 L
254.016 140.229 L
255.167 139.66 L
256.318 139.092 L
257.469 138.523 L
258.619 137.956 L
259.77 137.388 L
260.921 136.821 L
262.072 136.255 L
263.223 135.689 L
264.374 135.123 L
265.525 134.558 L
266.676 133.993 L
267.827 133.428 L
268.978 132.865 L
270.129 132.301 L
271.279 131.738 L
272.43 131.176 L
273.581 130.614 L
274.732 130.052 L
275.883 129.491 L
277.034 128.93 L
278.185 128.37 L
279.336 127.811 L
280.487 127.251 L
281.638 126.693 L
282.789 126.135 L
283.939 125.577 L
285.09 125.02 L
286.241 124.463 L
287.392 123.907 L
288.543 123.351 L
289.694 122.796 L
290.845 122.242 L
291.996 121.688 L
293.147 121.134 L
294.298 120.581 L
295.449 120.029 L
296.599 119.477 L
297.75 118.926 L
298.901 118.375 L
300.052 117.825 L
301.203 117.275 L
302.354 116.726 L
303.505 116.177 L
304.656 115.629 L
305.807 115.082 L
306.958 114.535 L
308.109 113.989 L
309.259 113.443 L
310.41 112.898 L
311.561 112.354 L
312.712 111.81 L
313.863 111.267 L
315.014 110.724 L
316.165 110.182 L
317.316 109.641 L
318.467 109.1 L
319.618 108.56 L
320.769 108.02 L
321.919 107.481 L
323.07 106.943 L
324.221 106.405 L
325.372 105.868 L
326.523 105.332 L
327.674 104.796 L
328.825 104.261 L
329.976 103.727 L
331.127 103.193 L
332.278 102.66 L
333.429 102.128 L
334.579 101.596 L
335.73 101.065 L
336.881 100.534 L
338.032 100.005 L
339.183 99.476 L
340.334 98.947 L
341.485 98.42 L
342.636 97.893 L
343.787 97.367 L
344.938 96.841 L
346.089 96.316 L
347.24 95.792 L
348.39 95.269 L
349.541 94.746 L
350.692 94.224 L
351.843 93.703 L
352.994 93.182 L
354.145 92.663 L
355.296 92.144 L
356.447 91.625 L
357.598 91.108 L
358.749 90.591 L
359.9 90.075 L
361.05 89.56 L
362.201 89.045 L
363.352 88.532 L
364.503 88.019 L
365.654 87.507 L
366.805 86.995 L
367.956 86.485 L
369.107 85.975 L
370.258 85.466 L
371.409 84.957 L
372.56 84.45 L
373.71 83.943 L
374.861 83.438 L
376.012 82.933 L
377.163 82.428 L
378.314 81.925 L
379.465 81.422 L
380.616 80.921 L
381.767 80.42 L
382.918 79.92 L
384.069 79.42 L
385.22 78.922 L
386.37 78.424 L
387.521 77.928 L
388.672 77.432 L
389.823 76.937 L
390.974 76.443 L
392.125 75.949 L
393.276 75.457 L
394.427 74.965 L
395.578 74.475 L
396.729 73.985 L
397.88 73.496 L
399.03 73.008 L
400.181 72.521 L
401.332 72.034 L
402.483 71.549 L
403.634 71.065 L
404.785 70.581 L
405.936 70.098 L
407.087 69.617 L
408.238 69.136 L
409.389 68.656 L
410.54 68.177 L
411.69 67.699 L
412.841 67.222 L
413.992 66.746 L
415.143 66.27 L
416.294 65.796 L
417.445 65.323 L
418.596 64.85 L
419.747 64.379 L
420.898 63.908 L
422.049 63.439 L
423.2 62.97 L
424.35 62.503 L
425.501 62.036 L
426.652 61.571 L
427.803 61.106 L
428.954 60.642 L
430.105 60.18 L
431.256 59.718 L
432.407 59.257 L
433.558 58.798 L
434.709 58.339 L
435.86 57.881 L
437.01 57.425 L
438.161 56.969 L
439.312 56.514 L
440.463 56.061 L
441.614 55.608 L
442.765 55.157 L
443.916 54.706 L
445.067 54.256 L
446.218 53.808 L
447.369 53.361 L
448.52 52.914 L
449.671 52.469 L
450.821 52.025 L
451.972 51.582 L
453.123 51.14 L
454.274 50.699 L
455.425 50.259 L
456.576 49.82 L
457.727 49.382 L
458.878 48.945 L
460.029 48.51 L
461.18 48.075 L
462.331 47.642 L
463.481 47.209 L
464.632 46.778 L
465.783 46.348 L
466.934 45.919 L
468.085 45.491 L
469.236 45.064 L
470.387 44.639 L
471.538 44.214 L
472.689 43.791 L
473.84 43.369 L
474.991 42.948 L
476.141 42.528 L
477.292 42.109 L
478.443 41.691 L
479.594 41.275 L
480.745 40.859 L
481.896 40.445 L
483.047 40.032 L
484.198 39.62 L
485.349 39.209 L
486.5 38.8 L
487.651 38.392 L
488.801 37.984 L
489.952 37.578 L
491.103 37.174 L
492.254 36.77 L
493.405 36.368 L
494.556 35.967 L
S
GR
GS
0.851 0.325 0.098 RC
1 LJ
0.5 LW
N
74.212 370.596 M
75.363 365.68 L
76.514 360.778 L
77.664 355.899 L
78.815 351.05 L
79.966 346.237 L
81.117 341.468 L
82.268 336.749 L
83.419 332.087 L
84.57 327.49 L
85.721 322.965 L
86.872 318.518 L
88.023 314.156 L
89.174 309.887 L
90.324 305.718 L
91.475 301.655 L
92.626 297.705 L
93.777 293.876 L
94.928 290.174 L
96.079 286.606 L
97.23 283.18 L
98.381 279.903 L
99.532 276.781 L
100.683 273.821 L
101.834 271.031 L
102.984 268.417 L
104.135 265.987 L
105.286 263.661 L
106.437 261.377 L
107.588 259.135 L
108.739 256.932 L
109.89 254.77 L
111.041 252.647 L
112.192 250.563 L
113.343 248.517 L
114.494 246.51 L
115.644 244.54 L
116.795 242.606 L
117.946 240.71 L
119.097 238.849 L
120.248 237.024 L
121.399 235.234 L
122.55 233.478 L
123.701 231.757 L
124.852 230.068 L
126.003 228.413 L
127.154 226.791 L
128.304 225.2 L
129.455 223.641 L
130.606 222.114 L
131.757 220.616 L
132.908 219.149 L
134.059 217.712 L
135.21 216.303 L
136.361 214.923 L
137.512 213.571 L
138.663 212.247 L
139.814 210.95 L
140.964 209.679 L
142.115 208.435 L
143.266 207.216 L
144.417 206.023 L
145.568 204.854 L
146.719 203.709 L
147.87 202.588 L
149.021 201.49 L
150.172 200.415 L
151.323 199.362 L
152.474 198.331 L
153.624 197.32 L
154.775 196.331 L
155.926 195.362 L
157.077 194.411 L
158.228 193.474 L
159.379 192.55 L
160.53 191.638 L
161.681 190.74 L
162.832 189.853 L
163.983 188.979 L
165.134 188.117 L
166.285 187.266 L
167.435 186.427 L
168.586 185.599 L
169.737 184.782 L
170.888 183.976 L
172.039 183.18 L
173.19 182.395 L
174.341 181.62 L
175.492 180.855 L
176.643 180.1 L
177.794 179.355 L
178.945 178.619 L
180.095 177.892 L
181.246 177.174 L
182.397 176.464 L
183.548 175.763 L
184.699 175.071 L
185.85 174.386 L
187.001 173.709 L
188.152 173.04 L
189.303 172.378 L
190.454 171.724 L
191.605 171.076 L
192.755 170.435 L
193.906 169.801 L
195.057 169.173 L
196.208 168.551 L
197.359 167.935 L
198.51 167.325 L
199.661 166.721 L
200.812 166.121 L
201.963 165.527 L
203.114 164.938 L
204.265 164.353 L
205.415 163.772 L
206.566 163.196 L
207.717 162.624 L
208.868 162.055 L
210.019 161.49 L
211.17 160.929 L
212.321 160.37 L
213.472 159.815 L
214.623 159.262 L
215.774 158.712 L
216.925 158.164 L
218.075 157.618 L
219.226 157.074 L
220.377 156.531 L
221.528 155.99 L
222.679 155.45 L
223.83 154.911 L
224.981 154.373 L
226.132 153.836 L
227.283 153.299 L
228.434 152.762 L
229.585 152.224 L
230.735 151.687 L
231.886 151.149 L
233.037 150.611 L
234.188 150.071 L
235.339 149.53 L
236.49 148.988 L
237.641 148.444 L
238.792 147.899 L
239.943 147.352 L
241.094 146.802 L
242.245 146.25 L
243.395 145.695 L
244.546 145.137 L
245.697 144.577 L
246.848 144.013 L
247.999 143.445 L
249.15 142.874 L
250.301 142.299 L
251.452 141.723 L
252.603 141.148 L
253.754 140.573 L
254.905 139.999 L
256.055 139.425 L
257.206 138.851 L
258.357 138.278 L
259.508 137.705 L
260.659 137.133 L
261.81 136.561 L
262.961 135.99 L
264.112 135.419 L
265.263 134.849 L
266.414 134.279 L
267.565 133.709 L
268.715 133.14 L
269.866 132.572 L
271.017 132.004 L
272.168 131.436 L
273.319 130.869 L
274.47 130.302 L
275.621 129.736 L
276.772 129.171 L
277.923 128.606 L
279.074 128.041 L
280.225 127.477 L
281.376 126.913 L
282.526 126.35 L
283.677 125.788 L
284.828 125.226 L
285.979 124.665 L
287.13 124.104 L
288.281 123.543 L
289.432 122.984 L
290.583 122.424 L
291.734 121.866 L
292.885 121.308 L
294.036 120.75 L
295.186 120.193 L
296.337 119.637 L
297.488 119.081 L
298.639 118.526 L
299.79 117.971 L
300.941 117.417 L
302.092 116.863 L
303.243 116.31 L
304.394 115.758 L
305.545 115.206 L
306.696 114.655 L
307.846 114.105 L
308.997 113.555 L
310.148 113.006 L
311.299 112.457 L
312.45 111.909 L
313.601 111.362 L
314.752 110.815 L
315.903 110.269 L
317.054 109.723 L
318.205 109.179 L
319.356 108.635 L
320.506 108.091 L
321.657 107.548 L
322.808 107.006 L
323.959 106.465 L
325.11 105.924 L
326.261 105.384 L
327.412 104.844 L
328.563 104.306 L
329.714 103.768 L
330.865 103.23 L
332.016 102.694 L
333.166 102.158 L
334.317 101.622 L
335.468 101.088 L
336.619 100.554 L
337.77 100.021 L
338.921 99.489 L
340.072 98.957 L
341.223 98.426 L
342.374 97.896 L
343.525 97.366 L
344.676 96.838 L
345.826 96.31 L
346.977 95.782 L
348.128 95.256 L
349.279 94.73 L
350.43 94.205 L
351.581 93.681 L
352.732 93.158 L
353.883 92.635 L
355.034 92.113 L
356.185 91.592 L
357.336 91.072 L
358.486 90.553 L
359.637 90.034 L
360.788 89.516 L
361.939 88.999 L
363.09 88.483 L
364.241 87.967 L
365.392 87.452 L
366.543 86.939 L
367.694 86.426 L
368.845 85.913 L
369.996 85.402 L
371.146 84.892 L
372.297 84.382 L
373.448 83.873 L
374.599 83.365 L
375.75 82.858 L
376.901 82.352 L
378.052 81.847 L
379.203 81.342 L
380.354 80.838 L
381.505 80.336 L
382.656 79.834 L
383.806 79.333 L
384.957 78.833 L
386.108 78.333 L
387.259 77.835 L
388.41 77.338 L
389.561 76.841 L
390.712 76.345 L
391.863 75.851 L
393.014 75.357 L
394.165 74.864 L
395.316 74.372 L
396.466 73.881 L
397.617 73.391 L
398.768 72.902 L
399.919 72.413 L
401.07 71.926 L
402.221 71.44 L
403.372 70.954 L
404.523 70.47 L
405.674 69.986 L
406.825 69.504 L
407.976 69.022 L
409.126 68.542 L
410.277 68.062 L
411.428 67.583 L
412.579 67.106 L
413.73 66.629 L
414.881 66.153 L
416.032 65.679 L
417.183 65.205 L
418.334 64.732 L
419.485 64.261 L
420.636 63.79 L
421.787 63.32 L
422.937 62.852 L
424.088 62.384 L
425.239 61.918 L
426.39 61.452 L
427.541 60.988 L
428.692 60.524 L
429.843 60.062 L
430.994 59.6 L
432.145 59.14 L
433.296 58.681 L
434.447 58.223 L
435.597 57.766 L
436.748 57.309 L
437.899 56.855 L
439.05 56.401 L
440.201 55.948 L
441.352 55.496 L
442.503 55.045 L
443.654 54.596 L
444.805 54.147 L
445.956 53.7 L
447.107 53.254 L
448.257 52.809 L
449.408 52.365 L
450.559 51.922 L
451.71 51.48 L
452.861 51.039 L
454.012 50.6 L
455.163 50.161 L
456.314 49.724 L
457.465 49.288 L
458.616 48.853 L
459.767 48.419 L
460.917 47.987 L
462.068 47.555 L
463.219 47.125 L
464.37 46.696 L
465.521 46.268 L
466.672 45.841 L
467.823 45.415 L
468.974 44.991 L
470.125 44.567 L
471.276 44.145 L
472.427 43.724 L
473.577 43.305 L
474.728 42.886 L
475.879 42.469 L
477.03 42.053 L
478.181 41.638 L
479.332 41.224 L
480.483 40.812 L
481.634 40.401 L
482.785 39.991 L
483.936 39.582 L
485.087 39.175 L
486.237 38.768 L
487.388 38.363 L
488.539 37.96 L
489.69 37.557 L
490.841 37.156 L
S
GR
GS
0.929 0.694 0.125 RC
1 LJ
0.5 LW
N
73 374 M
74.151 368.986 L
75.302 363.991 L
76.453 359.023 L
77.604 354.087 L
78.755 349.192 L
79.905 344.343 L
81.056 339.547 L
82.207 334.812 L
83.358 330.144 L
84.509 325.55 L
85.66 321.037 L
86.811 316.612 L
87.962 312.281 L
89.113 308.052 L
90.264 303.931 L
91.415 299.926 L
92.565 296.042 L
93.716 292.288 L
94.867 288.669 L
96.018 285.192 L
97.169 281.865 L
98.32 278.695 L
99.471 275.687 L
100.622 272.85 L
101.773 270.189 L
102.924 267.685 L
104.075 265.232 L
105.225 262.82 L
106.376 260.45 L
107.527 258.119 L
108.678 255.828 L
109.829 253.577 L
110.98 251.366 L
112.131 249.193 L
113.282 247.059 L
114.433 244.963 L
115.584 242.906 L
116.735 240.886 L
117.885 238.903 L
119.036 236.957 L
120.187 235.048 L
121.338 233.175 L
122.489 231.338 L
123.64 229.537 L
124.791 227.771 L
125.942 226.04 L
127.093 224.344 L
128.244 222.682 L
129.395 221.054 L
130.546 219.459 L
131.696 217.898 L
132.847 216.37 L
133.998 214.874 L
135.149 213.411 L
136.3 211.98 L
137.451 210.58 L
138.602 209.212 L
139.753 207.874 L
140.904 206.567 L
142.055 205.291 L
143.206 204.044 L
144.356 202.827 L
145.507 201.639 L
146.658 200.48 L
147.809 199.35 L
148.96 198.248 L
150.111 197.173 L
151.262 196.127 L
152.413 195.107 L
153.564 194.11 L
154.715 193.127 L
155.866 192.158 L
157.016 191.204 L
158.167 190.265 L
159.318 189.339 L
160.469 188.427 L
161.62 187.528 L
162.771 186.642 L
163.922 185.769 L
165.073 184.909 L
166.224 184.061 L
167.375 183.226 L
168.526 182.402 L
169.676 181.589 L
170.827 180.788 L
171.978 179.999 L
173.129 179.219 L
174.28 178.451 L
175.431 177.693 L
176.582 176.945 L
177.733 176.206 L
178.884 175.477 L
180.035 174.758 L
181.186 174.047 L
182.336 173.346 L
183.487 172.652 L
184.638 171.968 L
185.789 171.291 L
186.94 170.621 L
188.091 169.96 L
189.242 169.305 L
190.393 168.658 L
191.544 168.017 L
192.695 167.383 L
193.846 166.755 L
194.996 166.133 L
196.147 165.516 L
197.298 164.905 L
198.449 164.3 L
199.6 163.699 L
200.751 163.103 L
201.902 162.511 L
203.053 161.924 L
204.204 161.34 L
205.355 160.76 L
206.506 160.184 L
207.656 159.61 L
208.807 159.04 L
209.958 158.472 L
211.109 157.906 L
212.26 157.343 L
213.411 156.782 L
214.562 156.222 L
215.713 155.663 L
216.864 155.106 L
218.015 154.549 L
219.166 153.993 L
220.316 153.438 L
221.467 152.882 L
222.618 152.326 L
223.769 151.77 L
224.92 151.213 L
226.071 150.655 L
227.222 150.096 L
228.373 149.536 L
229.524 148.973 L
230.675 148.409 L
231.826 147.843 L
232.976 147.274 L
234.127 146.702 L
235.278 146.128 L
236.429 145.55 L
237.58 144.968 L
238.731 144.383 L
239.882 143.794 L
241.033 143.201 L
242.184 142.603 L
243.335 142.004 L
244.486 141.407 L
245.636 140.809 L
246.787 140.212 L
247.938 139.615 L
249.089 139.019 L
250.24 138.423 L
251.391 137.828 L
252.542 137.234 L
253.693 136.639 L
254.844 136.045 L
255.995 135.452 L
257.146 134.86 L
258.297 134.267 L
259.447 133.676 L
260.598 133.084 L
261.749 132.494 L
262.9 131.904 L
264.051 131.314 L
265.202 130.725 L
266.353 130.136 L
267.504 129.548 L
268.655 128.961 L
269.806 128.374 L
270.957 127.788 L
272.107 127.202 L
273.258 126.617 L
274.409 126.032 L
275.56 125.448 L
276.711 124.865 L
277.862 124.282 L
279.013 123.699 L
280.164 123.118 L
281.315 122.537 L
282.466 121.956 L
283.617 121.376 L
284.767 120.797 L
285.918 120.218 L
287.069 119.64 L
288.22 119.063 L
289.371 118.486 L
290.522 117.91 L
291.673 117.334 L
292.824 116.759 L
293.975 116.185 L
295.126 115.611 L
296.277 115.039 L
297.427 114.466 L
298.578 113.895 L
299.729 113.324 L
300.88 112.754 L
302.031 112.184 L
303.182 111.615 L
304.333 111.047 L
305.484 110.48 L
306.635 109.913 L
307.786 109.347 L
308.937 108.782 L
310.087 108.217 L
311.238 107.653 L
312.389 107.09 L
313.54 106.527 L
314.691 105.966 L
315.842 105.405 L
316.993 104.845 L
318.144 104.285 L
319.295 103.727 L
320.446 103.169 L
321.597 102.611 L
322.747 102.055 L
323.898 101.499 L
325.049 100.944 L
326.2 100.39 L
327.351 99.837 L
328.502 99.285 L
329.653 98.733 L
330.804 98.182 L
331.955 97.632 L
333.106 97.082 L
334.257 96.534 L
335.407 95.986 L
336.558 95.44 L
337.709 94.893 L
338.86 94.348 L
340.011 93.804 L
341.162 93.26 L
342.313 92.718 L
343.464 92.176 L
344.615 91.635 L
345.766 91.095 L
346.917 90.556 L
348.067 90.017 L
349.218 89.48 L
350.369 88.943 L
351.52 88.407 L
352.671 87.873 L
353.822 87.339 L
354.973 86.806 L
356.124 86.274 L
357.275 85.742 L
358.426 85.212 L
359.577 84.683 L
360.727 84.154 L
361.878 83.627 L
363.029 83.1 L
364.18 82.574 L
365.331 82.05 L
366.482 81.526 L
367.633 81.003 L
368.784 80.481 L
369.935 79.96 L
371.086 79.44 L
372.237 78.921 L
373.387 78.403 L
374.538 77.886 L
375.689 77.37 L
376.84 76.855 L
377.991 76.341 L
379.142 75.828 L
380.293 75.316 L
381.444 74.805 L
382.595 74.295 L
383.746 73.785 L
384.897 73.278 L
386.048 72.77 L
387.198 72.265 L
388.349 71.76 L
389.5 71.256 L
390.651 70.753 L
391.802 70.251 L
392.953 69.75 L
394.104 69.25 L
395.255 68.752 L
396.406 68.254 L
397.557 67.758 L
398.708 67.262 L
399.858 66.768 L
401.009 66.275 L
402.16 65.783 L
403.311 65.291 L
404.462 64.801 L
405.613 64.313 L
406.764 63.825 L
407.915 63.338 L
409.066 62.853 L
410.217 62.368 L
411.368 61.885 L
412.518 61.403 L
413.669 60.922 L
414.82 60.442 L
415.971 59.963 L
417.122 59.485 L
418.273 59.009 L
419.424 58.534 L
420.575 58.06 L
421.726 57.587 L
422.877 57.115 L
424.028 56.644 L
425.178 56.175 L
426.329 55.707 L
427.48 55.24 L
428.631 54.774 L
429.782 54.309 L
430.933 53.846 L
432.084 53.384 L
433.235 52.923 L
434.386 52.463 L
435.537 52.004 L
436.688 51.547 L
437.838 51.091 L
438.989 50.636 L
440.14 50.183 L
441.291 49.73 L
442.442 49.279 L
443.593 48.829 L
444.744 48.381 L
445.895 47.933 L
447.046 47.487 L
448.197 47.043 L
449.348 46.599 L
450.498 46.157 L
451.649 45.716 L
452.8 45.276 L
453.951 44.838 L
455.102 44.401 L
456.253 43.965 L
457.404 43.531 L
458.555 43.098 L
459.706 42.666 L
460.857 42.236 L
462.008 41.807 L
463.158 41.379 L
464.309 40.953 L
465.46 40.528 L
466.611 40.104 L
467.762 39.682 L
468.913 39.261 L
470.064 38.841 L
471.215 38.423 L
472.366 38.006 L
473.517 37.59 L
474.668 37.176 L
475.818 36.764 L
476.969 36.352 L
S
GR
GS
0.494 0.184 0.557 RC
1 LJ
0.5 LW
N
75.409 363.626 M
76.56 358.94 L
77.711 354.268 L
78.861 349.618 L
80.012 344.995 L
81.163 340.405 L
82.314 335.856 L
83.465 331.351 L
84.616 326.899 L
85.767 322.504 L
86.918 318.174 L
88.069 313.913 L
89.22 309.729 L
90.371 305.627 L
91.522 301.614 L
92.672 297.695 L
93.823 293.877 L
94.974 290.166 L
96.125 286.568 L
97.276 283.088 L
98.427 279.734 L
99.578 276.512 L
100.729 273.426 L
101.88 270.484 L
103.031 267.692 L
104.182 265.056 L
105.332 262.581 L
106.483 260.266 L
107.634 258.018 L
108.785 255.808 L
109.936 253.635 L
111.087 251.498 L
112.238 249.399 L
113.389 247.335 L
114.54 245.307 L
115.691 243.314 L
116.842 241.356 L
117.992 239.433 L
119.143 237.544 L
120.294 235.689 L
121.445 233.867 L
122.596 232.078 L
123.747 230.322 L
124.898 228.598 L
126.049 226.906 L
127.2 225.245 L
128.351 223.615 L
129.502 222.017 L
130.652 220.448 L
131.803 218.909 L
132.954 217.4 L
134.105 215.92 L
135.256 214.469 L
136.407 213.046 L
137.558 211.652 L
138.709 210.284 L
139.86 208.945 L
141.011 207.632 L
142.162 206.345 L
143.312 205.084 L
144.463 203.85 L
145.614 202.64 L
146.765 201.455 L
147.916 200.295 L
149.067 199.159 L
150.218 198.047 L
151.369 196.958 L
152.52 195.893 L
153.671 194.849 L
154.822 193.828 L
155.972 192.829 L
157.123 191.852 L
158.274 190.895 L
159.425 189.959 L
160.576 189.041 L
161.727 188.135 L
162.878 187.242 L
164.029 186.361 L
165.18 185.492 L
166.331 184.635 L
167.482 183.79 L
168.632 182.956 L
169.783 182.133 L
170.934 181.321 L
172.085 180.519 L
173.236 179.729 L
174.387 178.949 L
175.538 178.179 L
176.689 177.419 L
177.84 176.669 L
178.991 175.928 L
180.142 175.196 L
181.292 174.474 L
182.443 173.761 L
183.594 173.057 L
184.745 172.361 L
185.896 171.674 L
187.047 170.995 L
188.198 170.324 L
189.349 169.66 L
190.5 169.004 L
191.651 168.356 L
192.802 167.715 L
193.952 167.08 L
195.103 166.453 L
196.254 165.832 L
197.405 165.217 L
198.556 164.609 L
199.707 164.006 L
200.858 163.41 L
202.009 162.819 L
203.16 162.233 L
204.311 161.652 L
205.462 161.077 L
206.612 160.506 L
207.763 159.94 L
208.914 159.378 L
210.065 158.82 L
211.216 158.266 L
212.367 157.716 L
213.518 157.17 L
214.669 156.627 L
215.82 156.087 L
216.971 155.55 L
218.122 155.016 L
219.273 154.484 L
220.423 153.955 L
221.574 153.428 L
222.725 152.903 L
223.876 152.38 L
225.027 151.858 L
226.178 151.337 L
227.329 150.818 L
228.48 150.3 L
229.631 149.782 L
230.782 149.265 L
231.933 148.748 L
233.083 148.232 L
234.234 147.715 L
235.385 147.199 L
236.536 146.681 L
237.687 146.163 L
238.838 145.645 L
239.989 145.125 L
241.14 144.604 L
242.291 144.081 L
243.442 143.557 L
244.593 143.031 L
245.743 142.503 L
246.894 141.972 L
248.045 141.44 L
249.196 140.904 L
250.347 140.366 L
251.498 139.824 L
252.649 139.28 L
253.8 138.732 L
254.951 138.18 L
256.102 137.625 L
257.253 137.068 L
258.403 136.513 L
259.554 135.957 L
260.705 135.402 L
261.856 134.848 L
263.007 134.294 L
264.158 133.74 L
265.309 133.186 L
266.46 132.634 L
267.611 132.081 L
268.762 131.529 L
269.913 130.977 L
271.063 130.426 L
272.214 129.875 L
273.365 129.324 L
274.516 128.774 L
275.667 128.225 L
276.818 127.676 L
277.969 127.127 L
279.12 126.579 L
280.271 126.031 L
281.422 125.483 L
282.573 124.937 L
283.723 124.39 L
284.874 123.844 L
286.025 123.299 L
287.176 122.754 L
288.327 122.209 L
289.478 121.665 L
290.629 121.121 L
291.78 120.578 L
292.931 120.035 L
294.082 119.493 L
295.233 118.952 L
296.383 118.41 L
297.534 117.87 L
298.685 117.33 L
299.836 116.79 L
300.987 116.251 L
302.138 115.712 L
303.289 115.174 L
304.44 114.637 L
305.591 114.1 L
306.742 113.563 L
307.893 113.027 L
309.043 112.492 L
310.194 111.957 L
311.345 111.423 L
312.496 110.889 L
313.647 110.355 L
314.798 109.823 L
315.949 109.291 L
317.1 108.759 L
318.251 108.228 L
319.402 107.698 L
320.553 107.168 L
321.703 106.639 L
322.854 106.11 L
324.005 105.582 L
325.156 105.054 L
326.307 104.527 L
327.458 104.001 L
328.609 103.475 L
329.76 102.95 L
330.911 102.426 L
332.062 101.902 L
333.213 101.378 L
334.363 100.856 L
335.514 100.334 L
336.665 99.812 L
337.816 99.291 L
338.967 98.771 L
340.118 98.252 L
341.269 97.733 L
342.42 97.215 L
343.571 96.697 L
344.722 96.18 L
345.873 95.664 L
347.023 95.148 L
348.174 94.633 L
349.325 94.119 L
350.476 93.605 L
351.627 93.092 L
352.778 92.58 L
353.929 92.068 L
355.08 91.557 L
356.231 91.047 L
357.382 90.537 L
358.533 90.028 L
359.684 89.52 L
360.834 89.013 L
361.985 88.506 L
363.136 88 L
364.287 87.495 L
365.438 86.99 L
366.589 86.486 L
367.74 85.983 L
368.891 85.48 L
370.042 84.979 L
371.193 84.478 L
372.344 83.977 L
373.494 83.478 L
374.645 82.979 L
375.796 82.481 L
376.947 81.983 L
378.098 81.487 L
379.249 80.991 L
380.4 80.496 L
381.551 80.002 L
382.702 79.508 L
383.853 79.016 L
385.004 78.524 L
386.154 78.032 L
387.305 77.542 L
388.456 77.052 L
389.607 76.564 L
390.758 76.075 L
391.909 75.588 L
393.06 75.102 L
394.211 74.616 L
395.362 74.131 L
396.513 73.647 L
397.664 73.164 L
398.814 72.682 L
399.965 72.2 L
401.116 71.719 L
402.267 71.239 L
403.418 70.76 L
404.569 70.282 L
405.72 69.805 L
406.871 69.328 L
408.022 68.852 L
409.173 68.378 L
410.324 67.904 L
411.474 67.43 L
412.625 66.958 L
413.776 66.487 L
414.927 66.016 L
416.078 65.546 L
417.229 65.078 L
418.38 64.61 L
419.531 64.143 L
420.682 63.677 L
421.833 63.211 L
422.984 62.747 L
424.134 62.283 L
425.285 61.821 L
426.436 61.359 L
427.587 60.898 L
428.738 60.438 L
429.889 59.979 L
431.04 59.521 L
432.191 59.064 L
433.342 58.608 L
434.493 58.153 L
435.644 57.699 L
436.794 57.245 L
437.945 56.793 L
439.096 56.341 L
440.247 55.891 L
441.398 55.441 L
442.549 54.992 L
443.7 54.544 L
444.851 54.098 L
446.002 53.652 L
447.153 53.207 L
448.304 52.763 L
449.454 52.321 L
450.605 51.879 L
451.756 51.438 L
452.907 50.998 L
454.058 50.559 L
455.209 50.121 L
456.36 49.684 L
457.511 49.248 L
458.662 48.813 L
459.813 48.379 L
460.964 47.946 L
462.115 47.514 L
463.265 47.083 L
464.416 46.654 L
465.567 46.225 L
466.718 45.797 L
467.869 45.37 L
469.02 44.945 L
470.171 44.52 L
471.322 44.096 L
472.473 43.674 L
473.624 43.252 L
474.775 42.832 L
475.925 42.412 L
477.076 41.994 L
478.227 41.576 L
479.378 41.16 L
480.529 40.745 L
481.68 40.331 L
482.831 39.918 L
483.982 39.506 L
485.133 39.095 L
486.284 38.685 L
487.435 38.277 L
488.585 37.869 L
489.736 37.463 L
490.887 37.057 L
492.038 36.653 L
493.189 36.25 L
494.34 35.848 L
495.491 35.447 L
496.642 35.047 L
497.793 34.648 L
498.944 34.251 L
500.095 33.854 L
501.245 33.459 L
502.396 33.065 L
503.547 32.672 L
504.698 32.28 L
505.849 31.889 L
507 31.5 L
S
GR
GS
0.467 0.675 0.188 RC
[10 6] 0 setdash
2 LJ
0.5 LW
N
74.382 369.387 M
75.533 364.598 L
76.684 359.825 L
77.835 355.075 L
78.986 350.353 L
80.137 345.667 L
81.288 341.023 L
82.439 336.427 L
83.59 331.887 L
84.741 327.408 L
85.891 322.997 L
87.042 318.66 L
88.193 314.405 L
89.344 310.237 L
90.495 306.163 L
91.646 302.19 L
92.797 298.324 L
93.948 294.571 L
95.099 290.939 L
96.25 287.433 L
97.401 284.06 L
98.551 280.827 L
99.702 277.74 L
100.853 274.805 L
102.004 272.03 L
103.155 269.42 L
104.306 266.983 L
105.457 264.659 L
106.608 262.375 L
107.759 260.131 L
108.91 257.925 L
110.061 255.758 L
111.211 253.629 L
112.362 251.538 L
113.513 249.484 L
114.664 247.467 L
115.815 245.487 L
116.966 243.542 L
118.117 241.632 L
119.268 239.758 L
120.419 237.918 L
121.57 236.113 L
122.721 234.341 L
123.871 232.602 L
125.022 230.897 L
126.173 229.224 L
127.324 227.582 L
128.475 225.973 L
129.626 224.394 L
130.777 222.846 L
131.928 221.329 L
133.079 219.841 L
134.23 218.382 L
135.381 216.953 L
136.532 215.552 L
137.682 214.179 L
138.833 212.834 L
139.984 211.516 L
141.135 210.225 L
142.286 208.96 L
143.437 207.72 L
144.588 206.507 L
145.739 205.318 L
146.89 204.154 L
148.041 203.014 L
149.192 201.898 L
150.342 200.805 L
151.493 199.735 L
152.644 198.688 L
153.795 197.662 L
154.946 196.658 L
156.097 195.675 L
157.248 194.712 L
158.399 193.763 L
159.55 192.827 L
160.701 191.904 L
161.852 190.993 L
163.002 190.095 L
164.153 189.209 L
165.304 188.335 L
166.455 187.472 L
167.606 186.621 L
168.757 185.781 L
169.908 184.952 L
171.059 184.134 L
172.21 183.327 L
173.361 182.53 L
174.512 181.744 L
175.662 180.967 L
176.813 180.2 L
177.964 179.443 L
179.115 178.695 L
180.266 177.956 L
181.417 177.226 L
182.568 176.506 L
183.719 175.793 L
184.87 175.089 L
186.021 174.393 L
187.172 173.705 L
188.322 173.025 L
189.473 172.352 L
190.624 171.686 L
191.775 171.028 L
192.926 170.377 L
194.077 169.732 L
195.228 169.093 L
196.379 168.461 L
197.53 167.835 L
198.681 167.215 L
199.832 166.6 L
200.982 165.99 L
202.133 165.386 L
203.284 164.787 L
204.435 164.193 L
205.586 163.603 L
206.737 163.018 L
207.888 162.437 L
209.039 161.859 L
210.19 161.286 L
211.341 160.716 L
212.492 160.149 L
213.642 159.586 L
214.793 159.025 L
215.944 158.467 L
217.095 157.911 L
218.246 157.358 L
219.397 156.807 L
220.548 156.258 L
221.699 155.71 L
222.85 155.164 L
224.001 154.619 L
225.152 154.075 L
226.302 153.532 L
227.453 152.989 L
228.604 152.447 L
229.755 151.905 L
230.906 151.363 L
232.057 150.821 L
233.208 150.278 L
234.359 149.735 L
235.51 149.191 L
236.661 148.645 L
237.812 148.099 L
238.962 147.551 L
240.113 147.001 L
241.264 146.449 L
242.415 145.896 L
243.566 145.339 L
244.717 144.781 L
245.868 144.219 L
247.019 143.655 L
248.17 143.088 L
249.321 142.517 L
250.472 141.942 L
251.622 141.365 L
252.773 140.789 L
253.924 140.212 L
255.075 139.637 L
256.226 139.061 L
257.377 138.486 L
258.528 137.912 L
259.679 137.338 L
260.83 136.765 L
261.981 136.192 L
263.132 135.619 L
264.283 135.047 L
265.433 134.475 L
266.584 133.904 L
267.735 133.333 L
268.886 132.763 L
270.037 132.194 L
271.188 131.624 L
272.339 131.056 L
273.49 130.488 L
274.641 129.92 L
275.792 129.353 L
276.943 128.786 L
278.093 128.22 L
279.244 127.655 L
280.395 127.09 L
281.546 126.525 L
282.697 125.961 L
283.848 125.398 L
284.999 124.835 L
286.15 124.273 L
287.301 123.711 L
288.452 123.15 L
289.603 122.589 L
290.753 122.029 L
291.904 121.47 L
293.055 120.911 L
294.206 120.353 L
295.357 119.795 L
296.508 119.238 L
297.659 118.682 L
298.81 118.126 L
299.961 117.571 L
301.112 117.016 L
302.263 116.462 L
303.413 115.909 L
304.564 115.356 L
305.715 114.804 L
306.866 114.253 L
308.017 113.702 L
309.168 113.152 L
310.319 112.602 L
311.47 112.053 L
312.621 111.505 L
313.772 110.958 L
314.923 110.411 L
316.073 109.865 L
317.224 109.319 L
318.375 108.774 L
319.526 108.23 L
320.677 107.687 L
321.828 107.144 L
322.979 106.602 L
324.13 106.06 L
325.281 105.52 L
326.432 104.98 L
327.583 104.441 L
328.733 103.902 L
329.884 103.364 L
331.035 102.827 L
332.186 102.291 L
333.337 101.756 L
334.488 101.221 L
335.639 100.687 L
336.79 100.153 L
337.941 99.621 L
339.092 99.089 L
340.243 98.558 L
341.393 98.028 L
342.544 97.498 L
343.695 96.97 L
344.846 96.442 L
345.997 95.915 L
347.148 95.388 L
348.299 94.863 L
349.45 94.338 L
350.601 93.814 L
351.752 93.291 L
352.903 92.769 L
354.053 92.247 L
355.204 91.726 L
356.355 91.207 L
357.506 90.688 L
358.657 90.169 L
359.808 89.652 L
360.959 89.136 L
362.11 88.62 L
363.261 88.105 L
364.412 87.591 L
365.563 87.078 L
366.713 86.566 L
367.864 86.055 L
369.015 85.544 L
370.166 85.035 L
371.317 84.526 L
372.468 84.018 L
373.619 83.511 L
374.77 83.006 L
375.921 82.501 L
377.072 81.996 L
378.223 81.493 L
379.374 80.991 L
380.524 80.489 L
381.675 79.989 L
382.826 79.489 L
383.977 78.99 L
385.128 78.493 L
386.279 77.996 L
387.43 77.5 L
388.581 77.005 L
389.732 76.512 L
390.883 76.019 L
392.034 75.527 L
393.184 75.036 L
394.335 74.546 L
395.486 74.057 L
396.637 73.568 L
397.788 73.081 L
398.939 72.595 L
400.09 72.11 L
401.241 71.626 L
402.392 71.143 L
403.543 70.661 L
404.694 70.18 L
405.844 69.7 L
406.995 69.221 L
408.146 68.743 L
409.297 68.266 L
410.448 67.79 L
411.599 67.315 L
412.75 66.841 L
413.901 66.368 L
415.052 65.897 L
416.203 65.426 L
417.354 64.957 L
418.504 64.488 L
419.655 64.02 L
420.806 63.554 L
421.957 63.089 L
423.108 62.624 L
424.259 62.161 L
425.41 61.699 L
426.561 61.238 L
427.712 60.779 L
428.863 60.32 L
430.014 59.862 L
431.164 59.406 L
432.315 58.95 L
433.466 58.496 L
434.617 58.043 L
435.768 57.591 L
436.919 57.14 L
438.07 56.69 L
439.221 56.242 L
440.372 55.794 L
441.523 55.348 L
442.674 54.903 L
443.824 54.459 L
444.975 54.016 L
446.126 53.574 L
447.277 53.134 L
448.428 52.695 L
449.579 52.257 L
450.73 51.82 L
451.881 51.384 L
453.032 50.949 L
454.183 50.516 L
455.334 50.084 L
456.484 49.653 L
457.635 49.224 L
458.786 48.795 L
459.937 48.368 L
461.088 47.942 L
462.239 47.517 L
463.39 47.094 L
464.541 46.672 L
465.692 46.251 L
466.843 45.831 L
467.994 45.412 L
469.144 44.995 L
470.295 44.579 L
471.446 44.164 L
472.597 43.751 L
473.748 43.339 L
474.899 42.928 L
476.05 42.518 L
477.201 42.11 L
478.352 41.703 L
479.503 41.298 L
480.654 40.893 L
481.804 40.49 L
482.955 40.088 L
484.106 39.688 L
485.257 39.289 L
486.408 38.891 L
487.559 38.495 L
488.71 38.1 L
489.861 37.706 L
491.012 37.313 L
492.163 36.922 L
493.314 36.532 L
S
GR
GS
0.302 0.745 0.933 RC
[10 6] 0 setdash
2 LJ
0.5 LW
N
74.257 369.276 M
75.408 364.506 L
76.559 359.752 L
77.71 355.022 L
78.861 350.321 L
80.011 345.655 L
81.162 341.032 L
82.313 336.456 L
83.464 331.936 L
84.615 327.476 L
85.766 323.084 L
86.917 318.765 L
88.068 314.526 L
89.219 310.373 L
90.37 306.312 L
91.521 302.35 L
92.671 298.493 L
93.822 294.748 L
94.973 291.12 L
96.124 287.616 L
97.275 284.242 L
98.426 281.005 L
99.577 277.911 L
100.728 274.965 L
101.879 272.176 L
103.03 269.548 L
104.181 267.088 L
105.331 264.728 L
106.482 262.406 L
107.633 260.122 L
108.784 257.876 L
109.935 255.667 L
111.086 253.496 L
112.237 251.361 L
113.388 249.262 L
114.539 247.2 L
115.69 245.173 L
116.841 243.182 L
117.992 241.226 L
119.142 239.305 L
120.293 237.418 L
121.444 235.565 L
122.595 233.746 L
123.746 231.96 L
124.897 230.208 L
126.048 228.488 L
127.199 226.801 L
128.35 225.146 L
129.501 223.523 L
130.652 221.931 L
131.802 220.37 L
132.953 218.841 L
134.104 217.341 L
135.255 215.872 L
136.406 214.433 L
137.557 213.023 L
138.708 211.642 L
139.859 210.29 L
141.01 208.967 L
142.161 207.672 L
143.312 206.405 L
144.462 205.165 L
145.613 203.952 L
146.764 202.767 L
147.915 201.607 L
149.066 200.474 L
150.217 199.367 L
151.368 198.286 L
152.519 197.23 L
153.67 196.198 L
154.821 195.191 L
155.972 194.209 L
157.122 193.248 L
158.273 192.3 L
159.424 191.366 L
160.575 190.445 L
161.726 189.537 L
162.877 188.642 L
164.028 187.76 L
165.179 186.889 L
166.33 186.031 L
167.481 185.185 L
168.632 184.35 L
169.782 183.526 L
170.933 182.714 L
172.084 181.913 L
173.235 181.123 L
174.386 180.343 L
175.537 179.573 L
176.688 178.813 L
177.839 178.064 L
178.99 177.324 L
180.141 176.593 L
181.292 175.871 L
182.442 175.159 L
183.593 174.455 L
184.744 173.76 L
185.895 173.073 L
187.046 172.394 L
188.197 171.723 L
189.348 171.059 L
190.499 170.403 L
191.65 169.755 L
192.801 169.113 L
193.952 168.478 L
195.102 167.849 L
196.253 167.227 L
197.404 166.611 L
198.555 166 L
199.706 165.396 L
200.857 164.797 L
202.008 164.203 L
203.159 163.614 L
204.31 163.029 L
205.461 162.449 L
206.612 161.874 L
207.762 161.303 L
208.913 160.735 L
210.064 160.172 L
211.215 159.611 L
212.366 159.054 L
213.517 158.5 L
214.668 157.948 L
215.819 157.399 L
216.97 156.853 L
218.121 156.308 L
219.272 155.766 L
220.422 155.225 L
221.573 154.685 L
222.724 154.147 L
223.875 153.609 L
225.026 153.073 L
226.177 152.537 L
227.328 152.001 L
228.479 151.465 L
229.63 150.93 L
230.781 150.394 L
231.932 149.857 L
233.082 149.32 L
234.233 148.781 L
235.384 148.242 L
236.535 147.701 L
237.686 147.158 L
238.837 146.613 L
239.988 146.066 L
241.139 145.517 L
242.29 144.966 L
243.441 144.411 L
244.592 143.854 L
245.743 143.293 L
246.893 142.729 L
248.044 142.161 L
249.195 141.589 L
250.346 141.014 L
251.497 140.438 L
252.648 139.862 L
253.799 139.287 L
254.95 138.712 L
256.101 138.138 L
257.252 137.564 L
258.403 136.991 L
259.553 136.418 L
260.704 135.846 L
261.855 135.273 L
263.006 134.702 L
264.157 134.131 L
265.308 133.56 L
266.459 132.99 L
267.61 132.42 L
268.761 131.851 L
269.912 131.282 L
271.063 130.714 L
272.213 130.146 L
273.364 129.579 L
274.515 129.012 L
275.666 128.446 L
276.817 127.88 L
277.968 127.315 L
279.119 126.75 L
280.27 126.186 L
281.421 125.622 L
282.572 125.059 L
283.723 124.497 L
284.873 123.935 L
286.024 123.373 L
287.175 122.812 L
288.326 122.252 L
289.477 121.692 L
290.628 121.132 L
291.779 120.574 L
292.93 120.016 L
294.081 119.458 L
295.232 118.901 L
296.383 118.344 L
297.533 117.789 L
298.684 117.233 L
299.835 116.679 L
300.986 116.125 L
302.137 115.571 L
303.288 115.018 L
304.439 114.466 L
305.59 113.914 L
306.741 113.363 L
307.892 112.813 L
309.043 112.263 L
310.193 111.714 L
311.344 111.165 L
312.495 110.618 L
313.646 110.07 L
314.797 109.524 L
315.948 108.978 L
317.099 108.433 L
318.25 107.888 L
319.401 107.344 L
320.552 106.801 L
321.703 106.258 L
322.853 105.716 L
324.004 105.175 L
325.155 104.634 L
326.306 104.095 L
327.457 103.555 L
328.608 103.017 L
329.759 102.479 L
330.91 101.942 L
332.061 101.405 L
333.212 100.87 L
334.363 100.335 L
335.513 99.801 L
336.664 99.267 L
337.815 98.735 L
338.966 98.202 L
340.117 97.671 L
341.268 97.141 L
342.419 96.611 L
343.57 96.082 L
344.721 95.553 L
345.872 95.026 L
347.023 94.499 L
348.173 93.973 L
349.324 93.448 L
350.475 92.924 L
351.626 92.4 L
352.777 91.877 L
353.928 91.355 L
355.079 90.834 L
356.23 90.313 L
357.381 89.793 L
358.532 89.274 L
359.683 88.756 L
360.833 88.239 L
361.984 87.723 L
363.135 87.207 L
364.286 86.692 L
365.437 86.178 L
366.588 85.665 L
367.739 85.153 L
368.89 84.641 L
370.041 84.131 L
371.192 83.621 L
372.343 83.112 L
373.493 82.604 L
374.644 82.097 L
375.795 81.591 L
376.946 81.085 L
378.097 80.581 L
379.248 80.077 L
380.399 79.574 L
381.55 79.072 L
382.701 78.571 L
383.852 78.071 L
385.003 77.572 L
386.154 77.074 L
387.304 76.576 L
388.455 76.08 L
389.606 75.584 L
390.757 75.09 L
391.908 74.596 L
393.059 74.103 L
394.21 73.612 L
395.361 73.121 L
396.512 72.631 L
397.663 72.142 L
398.814 71.654 L
399.964 71.167 L
401.115 70.68 L
402.266 70.195 L
403.417 69.711 L
404.568 69.228 L
405.719 68.746 L
406.87 68.264 L
408.021 67.784 L
409.172 67.305 L
410.323 66.826 L
411.474 66.349 L
412.624 65.873 L
413.775 65.398 L
414.926 64.923 L
416.077 64.45 L
417.228 63.978 L
418.379 63.507 L
419.53 63.037 L
420.681 62.567 L
421.832 62.099 L
422.983 61.632 L
424.134 61.166 L
425.284 60.701 L
426.435 60.237 L
427.586 59.774 L
428.737 59.313 L
429.888 58.852 L
431.039 58.392 L
432.19 57.933 L
433.341 57.476 L
434.492 57.02 L
435.643 56.564 L
436.794 56.11 L
437.944 55.657 L
439.095 55.205 L
440.246 54.754 L
441.397 54.304 L
442.548 53.855 L
443.699 53.407 L
444.85 52.961 L
446.001 52.515 L
447.152 52.071 L
448.303 51.628 L
449.454 51.186 L
450.604 50.745 L
451.755 50.305 L
452.906 49.867 L
454.057 49.43 L
455.208 48.993 L
456.359 48.558 L
457.51 48.124 L
458.661 47.691 L
459.812 47.26 L
460.963 46.829 L
462.114 46.4 L
463.264 45.972 L
464.415 45.545 L
465.566 45.12 L
466.717 44.695 L
467.868 44.272 L
469.019 43.85 L
470.17 43.429 L
471.321 43.009 L
472.472 42.591 L
473.623 42.174 L
474.774 41.758 L
475.924 41.343 L
477.075 40.93 L
478.226 40.517 L
479.377 40.107 L
480.528 39.697 L
481.679 39.288 L
482.83 38.881 L
483.981 38.475 L
485.132 38.07 L
486.283 37.667 L
487.434 37.265 L
488.585 36.864 L
489.735 36.464 L
490.886 36.066 L
492.037 35.669 L
S
GR
GS
0.635 0.078 0.184 RC
[10 6] 0 setdash
2 LJ
0.5 LW
N
75.35 365.767 M
76.501 361.008 L
77.652 356.263 L
78.802 351.54 L
79.953 346.844 L
81.104 342.183 L
82.255 337.561 L
83.406 332.986 L
84.557 328.464 L
85.708 324.001 L
86.859 319.604 L
88.01 315.279 L
89.161 311.031 L
90.312 306.869 L
91.462 302.797 L
92.613 298.823 L
93.764 294.952 L
94.915 291.191 L
96.066 287.546 L
97.217 284.024 L
98.368 280.63 L
99.519 277.372 L
100.67 274.255 L
101.821 271.287 L
102.972 268.472 L
104.123 265.818 L
105.273 263.331 L
106.424 261.006 L
107.575 258.746 L
108.726 256.525 L
109.877 254.342 L
111.028 252.197 L
112.179 250.089 L
113.33 248.018 L
114.481 245.983 L
115.632 243.984 L
116.783 242.022 L
117.933 240.094 L
119.084 238.201 L
120.235 236.342 L
121.386 234.517 L
122.537 232.726 L
123.688 230.968 L
124.839 229.243 L
125.99 227.55 L
127.141 225.889 L
128.292 224.259 L
129.443 222.66 L
130.593 221.092 L
131.744 219.554 L
132.895 218.045 L
134.046 216.566 L
135.197 215.116 L
136.348 213.694 L
137.499 212.301 L
138.65 210.935 L
139.801 209.596 L
140.952 208.284 L
142.103 206.998 L
143.253 205.738 L
144.404 204.504 L
145.555 203.295 L
146.706 202.11 L
147.857 200.95 L
149.008 199.814 L
150.159 198.701 L
151.31 197.611 L
152.461 196.544 L
153.612 195.498 L
154.763 194.475 L
155.913 193.473 L
157.064 192.491 L
158.215 191.531 L
159.366 190.59 L
160.517 189.666 L
161.668 188.755 L
162.819 187.857 L
163.97 186.971 L
165.121 186.097 L
166.272 185.234 L
167.423 184.384 L
168.573 183.545 L
169.724 182.717 L
170.875 181.9 L
172.026 181.093 L
173.177 180.298 L
174.328 179.513 L
175.479 178.738 L
176.63 177.973 L
177.781 177.218 L
178.932 176.473 L
180.083 175.737 L
181.233 175.01 L
182.384 174.293 L
183.535 173.584 L
184.686 172.883 L
185.837 172.191 L
186.988 171.508 L
188.139 170.832 L
189.29 170.164 L
190.441 169.504 L
191.592 168.851 L
192.743 168.205 L
193.893 167.566 L
195.044 166.934 L
196.195 166.309 L
197.346 165.69 L
198.497 165.077 L
199.648 164.47 L
200.799 163.869 L
201.95 163.273 L
203.101 162.683 L
204.252 162.098 L
205.403 161.518 L
206.553 160.943 L
207.704 160.372 L
208.855 159.806 L
210.006 159.244 L
211.157 158.685 L
212.308 158.131 L
213.459 157.58 L
214.61 157.032 L
215.761 156.488 L
216.912 155.946 L
218.063 155.407 L
219.214 154.871 L
220.364 154.337 L
221.515 153.805 L
222.666 153.275 L
223.817 152.747 L
224.968 152.22 L
226.119 151.695 L
227.27 151.171 L
228.421 150.647 L
229.572 150.125 L
230.723 149.602 L
231.874 149.08 L
233.024 148.559 L
234.175 148.037 L
235.326 147.515 L
236.477 146.992 L
237.628 146.469 L
238.779 145.945 L
239.93 145.419 L
241.081 144.893 L
242.232 144.364 L
243.383 143.834 L
244.534 143.303 L
245.684 142.769 L
246.835 142.232 L
247.986 141.694 L
249.137 141.152 L
250.288 140.608 L
251.439 140.06 L
252.59 139.509 L
253.741 138.954 L
254.892 138.396 L
256.043 137.835 L
257.194 137.273 L
258.344 136.712 L
259.495 136.151 L
260.646 135.59 L
261.797 135.03 L
262.948 134.47 L
264.099 133.911 L
265.25 133.352 L
266.401 132.794 L
267.552 132.236 L
268.703 131.678 L
269.854 131.121 L
271.004 130.564 L
272.155 130.008 L
273.306 129.452 L
274.457 128.897 L
275.608 128.342 L
276.759 127.787 L
277.91 127.233 L
279.061 126.679 L
280.212 126.126 L
281.363 125.573 L
282.514 125.021 L
283.664 124.469 L
284.815 123.918 L
285.966 123.367 L
287.117 122.817 L
288.268 122.267 L
289.419 121.718 L
290.57 121.169 L
291.721 120.62 L
292.872 120.072 L
294.023 119.525 L
295.174 118.978 L
296.324 118.432 L
297.475 117.886 L
298.626 117.34 L
299.777 116.796 L
300.928 116.251 L
302.079 115.707 L
303.23 115.164 L
304.381 114.621 L
305.532 114.079 L
306.683 113.538 L
307.834 112.996 L
308.984 112.456 L
310.135 111.916 L
311.286 111.376 L
312.437 110.838 L
313.588 110.299 L
314.739 109.761 L
315.89 109.224 L
317.041 108.688 L
318.192 108.152 L
319.343 107.616 L
320.494 107.081 L
321.644 106.547 L
322.795 106.013 L
323.946 105.48 L
325.097 104.948 L
326.248 104.416 L
327.399 103.884 L
328.55 103.354 L
329.701 102.824 L
330.852 102.294 L
332.003 101.765 L
333.154 101.237 L
334.305 100.71 L
335.455 100.183 L
336.606 99.656 L
337.757 99.131 L
338.908 98.606 L
340.059 98.081 L
341.21 97.558 L
342.361 97.034 L
343.512 96.512 L
344.663 95.99 L
345.814 95.469 L
346.965 94.949 L
348.115 94.429 L
349.266 93.91 L
350.417 93.392 L
351.568 92.874 L
352.719 92.357 L
353.87 91.841 L
355.021 91.325 L
356.172 90.81 L
357.323 90.296 L
358.474 89.782 L
359.625 89.269 L
360.775 88.757 L
361.926 88.246 L
363.077 87.735 L
364.228 87.225 L
365.379 86.716 L
366.53 86.207 L
367.681 85.7 L
368.832 85.193 L
369.983 84.686 L
371.134 84.181 L
372.285 83.676 L
373.435 83.172 L
374.586 82.669 L
375.737 82.166 L
376.888 81.664 L
378.039 81.163 L
379.19 80.663 L
380.341 80.164 L
381.492 79.665 L
382.643 79.167 L
383.794 78.67 L
384.945 78.174 L
386.095 77.678 L
387.246 77.183 L
388.397 76.689 L
389.548 76.196 L
390.699 75.704 L
391.85 75.212 L
393.001 74.722 L
394.152 74.232 L
395.303 73.743 L
396.454 73.254 L
397.605 72.767 L
398.755 72.28 L
399.906 71.795 L
401.057 71.31 L
402.208 70.825 L
403.359 70.342 L
404.51 69.86 L
405.661 69.378 L
406.812 68.898 L
407.963 68.418 L
409.114 67.939 L
410.265 67.461 L
411.415 66.984 L
412.566 66.507 L
413.717 66.032 L
414.868 65.557 L
416.019 65.083 L
417.17 64.611 L
418.321 64.139 L
419.472 63.668 L
420.623 63.198 L
421.774 62.728 L
422.925 62.26 L
424.075 61.793 L
425.226 61.326 L
426.377 60.861 L
427.528 60.396 L
428.679 59.932 L
429.83 59.47 L
430.981 59.008 L
432.132 58.547 L
433.283 58.087 L
434.434 57.628 L
435.585 57.17 L
436.735 56.713 L
437.886 56.257 L
439.037 55.801 L
440.188 55.347 L
441.339 54.894 L
442.49 54.441 L
443.641 53.99 L
444.792 53.54 L
445.943 53.09 L
447.094 52.642 L
448.245 52.195 L
449.395 51.748 L
450.546 51.303 L
451.697 50.858 L
452.848 50.415 L
453.999 49.972 L
455.15 49.531 L
456.301 49.091 L
457.452 48.651 L
458.603 48.213 L
459.754 47.775 L
460.905 47.339 L
462.056 46.904 L
463.206 46.47 L
464.357 46.036 L
465.508 45.604 L
466.659 45.173 L
467.81 44.743 L
468.961 44.314 L
470.112 43.886 L
471.263 43.459 L
472.414 43.033 L
473.565 42.608 L
474.716 42.185 L
475.866 41.762 L
477.017 41.34 L
478.168 40.92 L
479.319 40.501 L
480.47 40.082 L
481.621 39.665 L
482.772 39.249 L
483.923 38.834 L
485.074 38.42 L
486.225 38.007 L
487.376 37.596 L
488.526 37.185 L
489.677 36.775 L
490.828 36.367 L
491.979 35.96 L
493.13 35.554 L
494.281 35.149 L
495.432 34.745 L
496.583 34.342 L
497.734 33.941 L
498.885 33.54 L
500.036 33.141 L
501.186 32.743 L
502.337 32.346 L
503.488 31.95 L
S
GR
GS
1 GC
N
499 366 M
499 250.5 L
344.5 250.5 L
344.5 366 L
cp
f
GR
GS
[1 0 0 1 381.5 260.25] CT
/Helvetica 13 F
GS
[1 0 0 1 0 0] CT
0 5 moveto 
1 -1 scale
(Base Run) t 
GR
GR
GS
0 0.447 0.741 RC
1 LJ
0.5 LW
N
348.5 260.25 M
378.5 260.25 L
S
GR
GS
[1 0 0 1 381.5 276.25] CT
/Helvetica 13 F
GS
[1 0 0 1 0 0] CT
0 5 moveto 
1 -1 scale
(I & B Frames) t 
GR
GR
GS
0.851 0.325 0.098 RC
1 LJ
0.5 LW
N
348.5 276.25 M
378.5 276.25 L
S
GR
GS
[1 0 0 1 381.5 292.25] CT
/Helvetica 13 F
GS
[1 0 0 1 0 0] CT
0 5 moveto 
1 -1 scale
(I Frames Only) t 
GR
GR
GS
0.929 0.694 0.125 RC
1 LJ
0.5 LW
N
348.5 292.25 M
378.5 292.25 L
S
GR
GS
[1 0 0 1 381.5 308.25] CT
/Helvetica 13 F
GS
[1 0 0 1 0 0] CT
0 5 moveto 
1 -1 scale
(B Frames Only) t 
GR
GR
GS
0.494 0.184 0.557 RC
1 LJ
0.5 LW
N
348.5 308.25 M
378.5 308.25 L
S
GR
GS
[1 0 0 1 381.5 324.25] CT
/Helvetica 13 F
GS
[1 0 0 1 0 0] CT
0 5 moveto 
1 -1 scale
(Part I & B Frames) t 
GR
GR
GS
0.467 0.675 0.188 RC
[10 6] 0 setdash
2 LJ
0.5 LW
N
348.5 324.25 M
378.5 324.25 L
S
GR
GS
[1 0 0 1 381.5 340.25] CT
/Helvetica 13 F
GS
[1 0 0 1 0 0] CT
0 5 moveto 
1 -1 scale
(Part I Frames Only) t 
GR
GR
GS
0.302 0.745 0.933 RC
[10 6] 0 setdash
2 LJ
0.5 LW
N
348.5 340.25 M
378.5 340.25 L
S
GR
GS
[1 0 0 1 381.5 356.25] CT
/Helvetica 13 F
GS
[1 0 0 1 0 0] CT
0 5 moveto 
1 -1 scale
(Part B Frames Only) t 
GR
GR
GS
0.635 0.078 0.184 RC
[10 6] 0 setdash
2 LJ
0.5 LW
N
348.5 356.25 M
378.5 356.25 L
S
GR
GS
0.149 GC
10.0 ML
0.5 LW
N
344.5 366 M
344.5 250.5 L
499 250.5 L
499 366 L
cp
S
GR
%%Trailer
%%Pages: 1
%%EOF
