%!PS-Adobe-3.0 EPSF-3.0
%%Creator: (MATLAB, The Mathworks, Inc. Version 9.11.0.1837725 \(R2021b\) Update 2. Operating System: Mac OS X)
%%Title: plots/pchip/Vlog_1080P-58ad.y4m-av1-APSNRY.eps
%%CreationDate: 2022-02-03T19:13:50
%%Pages: (atend)
%%BoundingBox:    33   425   508   826
%%LanguageLevel: 3
%%EndComments
%%BeginProlog
%%BeginResource: procset (Apache XML Graphics Std ProcSet) 1.2 0
%%Version: 1.2 0
%%Copyright: (Copyright 2001-2003,2010 The Apache Software Foundation. License terms: http://www.apache.org/licenses/LICENSE-2.0)
/bd{bind def}bind def
/ld{load def}bd
/GR/grestore ld
/GS/gsave ld
/RM/rmoveto ld
/C/curveto ld
/t/show ld
/L/lineto ld
/ML/setmiterlimit ld
/CT/concat ld
/f/fill ld
/N/newpath ld
/S/stroke ld
/CC/setcmykcolor ld
/A/ashow ld
/cp/closepath ld
/RC/setrgbcolor ld
/LJ/setlinejoin ld
/GC/setgray ld
/LW/setlinewidth ld
/M/moveto ld
/re {4 2 roll M
1 index 0 rlineto
0 exch rlineto
neg 0 rlineto
cp } bd
/_ctm matrix def
/_tm matrix def
/BT { _ctm currentmatrix pop matrix _tm copy pop 0 0 moveto } bd
/ET { _ctm setmatrix } bd
/iTm { _ctm setmatrix _tm concat } bd
/Tm { _tm astore pop iTm 0 0 moveto } bd
/ux 0.0 def
/uy 0.0 def
/F {
  /Tp exch def
  /Tf exch def
  Tf findfont Tp scalefont setfont
  /cf Tf def  /cs Tp def
} bd
/ULS {currentpoint /uy exch def /ux exch def} bd
/ULE {
  /Tcx currentpoint pop def
  gsave
  newpath
  cf findfont cs scalefont dup
  /FontMatrix get 0 get /Ts exch def /FontInfo get dup
  /UnderlinePosition get Ts mul /To exch def
  /UnderlineThickness get Ts mul /Tt exch def
  ux uy To add moveto  Tcx uy To add lineto
  Tt setlinewidth stroke
  grestore
} bd
/OLE {
  /Tcx currentpoint pop def
  gsave
  newpath
  cf findfont cs scalefont dup
  /FontMatrix get 0 get /Ts exch def /FontInfo get dup
  /UnderlinePosition get Ts mul /To exch def
  /UnderlineThickness get Ts mul /Tt exch def
  ux uy To add cs add moveto Tcx uy To add cs add lineto
  Tt setlinewidth stroke
  grestore
} bd
/SOE {
  /Tcx currentpoint pop def
  gsave
  newpath
  cf findfont cs scalefont dup
  /FontMatrix get 0 get /Ts exch def /FontInfo get dup
  /UnderlinePosition get Ts mul /To exch def
  /UnderlineThickness get Ts mul /Tt exch def
  ux uy To add cs 10 mul 26 idiv add moveto Tcx uy To add cs 10 mul 26 idiv add lineto
  Tt setlinewidth stroke
  grestore
} bd
/QT {
/Y22 exch store
/X22 exch store
/Y21 exch store
/X21 exch store
currentpoint
/Y21 load 2 mul add 3 div exch
/X21 load 2 mul add 3 div exch
/X21 load 2 mul /X22 load add 3 div
/Y21 load 2 mul /Y22 load add 3 div
/X22 load /Y22 load curveto
} bd
/SSPD {
dup length /d exch dict def
{
/v exch def
/k exch def
currentpagedevice k known {
/cpdv currentpagedevice k get def
v cpdv ne {
/upd false def
/nullv v type /nulltype eq def
/nullcpdv cpdv type /nulltype eq def
nullv nullcpdv or
{
/upd true def
} {
/sametype v type cpdv type eq def
sametype {
v type /arraytype eq {
/vlen v length def
/cpdvlen cpdv length def
vlen cpdvlen eq {
0 1 vlen 1 sub {
/i exch def
/obj v i get def
/cpdobj cpdv i get def
obj cpdobj ne {
/upd true def
exit
} if
} for
} {
/upd true def
} ifelse
} {
v type /dicttype eq {
v {
/dv exch def
/dk exch def
/cpddv cpdv dk get def
dv cpddv ne {
/upd true def
exit
} if
} forall
} {
/upd true def
} ifelse
} ifelse
} if
} ifelse
upd true eq {
d k v put
} if
} if
} if
} forall
d length 0 gt {
d setpagedevice
} if
} bd
/RE { % /NewFontName [NewEncodingArray] /FontName RE -
  findfont dup length dict begin
  {
    1 index /FID ne
    {def} {pop pop} ifelse
  } forall
  /Encoding exch def
  /FontName 1 index def
  currentdict definefont pop
  end
} bind def
%%EndResource
%%BeginResource: procset (Apache XML Graphics EPS ProcSet) 1.0 0
%%Version: 1.0 0
%%Copyright: (Copyright 2002-2003 The Apache Software Foundation. License terms: http://www.apache.org/licenses/LICENSE-2.0)
/BeginEPSF { %def
/b4_Inc_state save def         % Save state for cleanup
/dict_count countdictstack def % Count objects on dict stack
/op_count count 1 sub def      % Count objects on operand stack
userdict begin                 % Push userdict on dict stack
/showpage { } def              % Redefine showpage, { } = null proc
0 setgray 0 setlinecap         % Prepare graphics state
1 setlinewidth 0 setlinejoin
10 setmiterlimit [ ] 0 setdash newpath
/languagelevel where           % If level not equal to 1 then
{pop languagelevel             % set strokeadjust and
1 ne                           % overprint to their defaults.
{false setstrokeadjust false setoverprint
} if
} if
} bd
/EndEPSF { %def
count op_count sub {pop} repeat            % Clean up stacks
countdictstack dict_count sub {end} repeat
b4_Inc_state restore
} bd
%%EndResource
%FOPBeginFontDict
%%IncludeResource: font Courier-Oblique
%%IncludeResource: font Courier-BoldOblique
%%IncludeResource: font Courier-Bold
%%IncludeResource: font ZapfDingbats
%%IncludeResource: font Symbol
%%IncludeResource: font Helvetica
%%IncludeResource: font Helvetica-Oblique
%%IncludeResource: font Helvetica-Bold
%%IncludeResource: font Helvetica-BoldOblique
%%IncludeResource: font Times-Roman
%%IncludeResource: font Times-Italic
%%IncludeResource: font Times-Bold
%%IncludeResource: font Times-BoldItalic
%%IncludeResource: font Courier
%FOPEndFontDict
%%BeginResource: encoding WinAnsiEncoding
/WinAnsiEncoding [
/.notdef /.notdef /.notdef /.notdef /.notdef
/.notdef /.notdef /.notdef /.notdef /.notdef
/.notdef /.notdef /.notdef /.notdef /.notdef
/.notdef /.notdef /.notdef /.notdef /.notdef
/.notdef /.notdef /.notdef /.notdef /.notdef
/.notdef /.notdef /.notdef /.notdef /.notdef
/.notdef /.notdef /space /exclam /quotedbl
/numbersign /dollar /percent /ampersand /quotesingle
/parenleft /parenright /asterisk /plus /comma
/hyphen /period /slash /zero /one
/two /three /four /five /six
/seven /eight /nine /colon /semicolon
/less /equal /greater /question /at
/A /B /C /D /E
/F /G /H /I /J
/K /L /M /N /O
/P /Q /R /S /T
/U /V /W /X /Y
/Z /bracketleft /backslash /bracketright /asciicircum
/underscore /quoteleft /a /b /c
/d /e /f /g /h
/i /j /k /l /m
/n /o /p /q /r
/s /t /u /v /w
/x /y /z /braceleft /bar
/braceright /asciitilde /bullet /Euro /bullet
/quotesinglbase /florin /quotedblbase /ellipsis /dagger
/daggerdbl /circumflex /perthousand /Scaron /guilsinglleft
/OE /bullet /Zcaron /bullet /bullet
/quoteleft /quoteright /quotedblleft /quotedblright /bullet
/endash /emdash /asciitilde /trademark /scaron
/guilsinglright /oe /bullet /zcaron /Ydieresis
/space /exclamdown /cent /sterling /currency
/yen /brokenbar /section /dieresis /copyright
/ordfeminine /guillemotleft /logicalnot /sfthyphen /registered
/macron /degree /plusminus /twosuperior /threesuperior
/acute /mu /paragraph /middot /cedilla
/onesuperior /ordmasculine /guillemotright /onequarter /onehalf
/threequarters /questiondown /Agrave /Aacute /Acircumflex
/Atilde /Adieresis /Aring /AE /Ccedilla
/Egrave /Eacute /Ecircumflex /Edieresis /Igrave
/Iacute /Icircumflex /Idieresis /Eth /Ntilde
/Ograve /Oacute /Ocircumflex /Otilde /Odieresis
/multiply /Oslash /Ugrave /Uacute /Ucircumflex
/Udieresis /Yacute /Thorn /germandbls /agrave
/aacute /acircumflex /atilde /adieresis /aring
/ae /ccedilla /egrave /eacute /ecircumflex
/edieresis /igrave /iacute /icircumflex /idieresis
/eth /ntilde /ograve /oacute /ocircumflex
/otilde /odieresis /divide /oslash /ugrave
/uacute /ucircumflex /udieresis /yacute /thorn
/ydieresis
] def
%%EndResource
%FOPBeginFontReencode
/Courier-Oblique findfont
dup length dict begin
  {1 index /FID ne {def} {pop pop} ifelse} forall
  /Encoding WinAnsiEncoding def
  currentdict
end
/Courier-Oblique exch definefont pop
/Courier-BoldOblique findfont
dup length dict begin
  {1 index /FID ne {def} {pop pop} ifelse} forall
  /Encoding WinAnsiEncoding def
  currentdict
end
/Courier-BoldOblique exch definefont pop
/Courier-Bold findfont
dup length dict begin
  {1 index /FID ne {def} {pop pop} ifelse} forall
  /Encoding WinAnsiEncoding def
  currentdict
end
/Courier-Bold exch definefont pop
/Helvetica findfont
dup length dict begin
  {1 index /FID ne {def} {pop pop} ifelse} forall
  /Encoding WinAnsiEncoding def
  currentdict
end
/Helvetica exch definefont pop
/Helvetica-Oblique findfont
dup length dict begin
  {1 index /FID ne {def} {pop pop} ifelse} forall
  /Encoding WinAnsiEncoding def
  currentdict
end
/Helvetica-Oblique exch definefont pop
/Helvetica-Bold findfont
dup length dict begin
  {1 index /FID ne {def} {pop pop} ifelse} forall
  /Encoding WinAnsiEncoding def
  currentdict
end
/Helvetica-Bold exch definefont pop
/Helvetica-BoldOblique findfont
dup length dict begin
  {1 index /FID ne {def} {pop pop} ifelse} forall
  /Encoding WinAnsiEncoding def
  currentdict
end
/Helvetica-BoldOblique exch definefont pop
/Times-Roman findfont
dup length dict begin
  {1 index /FID ne {def} {pop pop} ifelse} forall
  /Encoding WinAnsiEncoding def
  currentdict
end
/Times-Roman exch definefont pop
/Times-Italic findfont
dup length dict begin
  {1 index /FID ne {def} {pop pop} ifelse} forall
  /Encoding WinAnsiEncoding def
  currentdict
end
/Times-Italic exch definefont pop
/Times-Bold findfont
dup length dict begin
  {1 index /FID ne {def} {pop pop} ifelse} forall
  /Encoding WinAnsiEncoding def
  currentdict
end
/Times-Bold exch definefont pop
/Times-BoldItalic findfont
dup length dict begin
  {1 index /FID ne {def} {pop pop} ifelse} forall
  /Encoding WinAnsiEncoding def
  currentdict
end
/Times-BoldItalic exch definefont pop
/Courier findfont
dup length dict begin
  {1 index /FID ne {def} {pop pop} ifelse} forall
  /Encoding WinAnsiEncoding def
  currentdict
end
/Courier exch definefont pop
%FOPEndFontReencode
%%EndProlog
%%Page: 1 1
%%PageBoundingBox: 0 0 1120 840
%%BeginPageSetup
[1 0 0 -1 0 840] CT
%%EndPageSetup
GS
1 GC
N
0 0 1120 840 re
f
GR
GS
1 GC
N
73 374 M
507 374 L
507 31.5 L
73 31.5 L
cp
f
GR
GS
0.149 GC
2 setlinecap
1 LJ
0.5 LW
N
73 374 M
507 374 L
S
GR
GS
0.149 GC
2 setlinecap
1 LJ
0.5 LW
N
73 31.5 M
507 31.5 L
S
GR
GS
0.149 GC
2 setlinecap
1 LJ
0.5 LW
N
94.338 374 M
94.338 369.66 L
S
GR
GS
0.149 GC
2 setlinecap
1 LJ
0.5 LW
N
141.066 374 M
141.066 369.66 L
S
GR
GS
0.149 GC
2 setlinecap
1 LJ
0.5 LW
N
187.794 374 M
187.794 369.66 L
S
GR
GS
0.149 GC
2 setlinecap
1 LJ
0.5 LW
N
234.522 374 M
234.522 369.66 L
S
GR
GS
0.149 GC
2 setlinecap
1 LJ
0.5 LW
N
281.25 374 M
281.25 369.66 L
S
GR
GS
0.149 GC
2 setlinecap
1 LJ
0.5 LW
N
327.978 374 M
327.978 369.66 L
S
GR
GS
0.149 GC
2 setlinecap
1 LJ
0.5 LW
N
374.706 374 M
374.706 369.66 L
S
GR
GS
0.149 GC
2 setlinecap
1 LJ
0.5 LW
N
421.434 374 M
421.434 369.66 L
S
GR
GS
0.149 GC
2 setlinecap
1 LJ
0.5 LW
N
468.161 374 M
468.161 369.66 L
S
GR
GS
0.149 GC
2 setlinecap
1 LJ
0.5 LW
N
94.338 31.5 M
94.338 35.84 L
S
GR
GS
0.149 GC
2 setlinecap
1 LJ
0.5 LW
N
141.066 31.5 M
141.066 35.84 L
S
GR
GS
0.149 GC
2 setlinecap
1 LJ
0.5 LW
N
187.794 31.5 M
187.794 35.84 L
S
GR
GS
0.149 GC
2 setlinecap
1 LJ
0.5 LW
N
234.522 31.5 M
234.522 35.84 L
S
GR
GS
0.149 GC
2 setlinecap
1 LJ
0.5 LW
N
281.25 31.5 M
281.25 35.84 L
S
GR
GS
0.149 GC
2 setlinecap
1 LJ
0.5 LW
N
327.978 31.5 M
327.978 35.84 L
S
GR
GS
0.149 GC
2 setlinecap
1 LJ
0.5 LW
N
374.706 31.5 M
374.706 35.84 L
S
GR
GS
0.149 GC
2 setlinecap
1 LJ
0.5 LW
N
421.434 31.5 M
421.434 35.84 L
S
GR
GS
0.149 GC
2 setlinecap
1 LJ
0.5 LW
N
468.161 31.5 M
468.161 35.84 L
S
GR
GS
0.149 GC
2 setlinecap
1 LJ
0.5 LW
N
75.647 374 M
75.647 371.83 L
S
GR
GS
0.149 GC
2 setlinecap
1 LJ
0.5 LW
N
84.992 374 M
84.992 371.83 L
S
GR
GS
0.149 GC
2 setlinecap
1 LJ
0.5 LW
N
103.683 374 M
103.683 371.83 L
S
GR
GS
0.149 GC
2 setlinecap
1 LJ
0.5 LW
N
113.029 374 M
113.029 371.83 L
S
GR
GS
0.149 GC
2 setlinecap
1 LJ
0.5 LW
N
122.375 374 M
122.375 371.83 L
S
GR
GS
0.149 GC
2 setlinecap
1 LJ
0.5 LW
N
131.72 374 M
131.72 371.83 L
S
GR
GS
0.149 GC
2 setlinecap
1 LJ
0.5 LW
N
150.411 374 M
150.411 371.83 L
S
GR
GS
0.149 GC
2 setlinecap
1 LJ
0.5 LW
N
159.757 374 M
159.757 371.83 L
S
GR
GS
0.149 GC
2 setlinecap
1 LJ
0.5 LW
N
169.103 374 M
169.103 371.83 L
S
GR
GS
0.149 GC
2 setlinecap
1 LJ
0.5 LW
N
178.448 374 M
178.448 371.83 L
S
GR
GS
0.149 GC
2 setlinecap
1 LJ
0.5 LW
N
197.139 374 M
197.139 371.83 L
S
GR
GS
0.149 GC
2 setlinecap
1 LJ
0.5 LW
N
206.485 374 M
206.485 371.83 L
S
GR
GS
0.149 GC
2 setlinecap
1 LJ
0.5 LW
N
215.831 374 M
215.831 371.83 L
S
GR
GS
0.149 GC
2 setlinecap
1 LJ
0.5 LW
N
225.176 374 M
225.176 371.83 L
S
GR
GS
0.149 GC
2 setlinecap
1 LJ
0.5 LW
N
243.867 374 M
243.867 371.83 L
S
GR
GS
0.149 GC
2 setlinecap
1 LJ
0.5 LW
N
253.213 374 M
253.213 371.83 L
S
GR
GS
0.149 GC
2 setlinecap
1 LJ
0.5 LW
N
262.558 374 M
262.558 371.83 L
S
GR
GS
0.149 GC
2 setlinecap
1 LJ
0.5 LW
N
271.904 374 M
271.904 371.83 L
S
GR
GS
0.149 GC
2 setlinecap
1 LJ
0.5 LW
N
290.595 374 M
290.595 371.83 L
S
GR
GS
0.149 GC
2 setlinecap
1 LJ
0.5 LW
N
299.941 374 M
299.941 371.83 L
S
GR
GS
0.149 GC
2 setlinecap
1 LJ
0.5 LW
N
309.286 374 M
309.286 371.83 L
S
GR
GS
0.149 GC
2 setlinecap
1 LJ
0.5 LW
N
318.632 374 M
318.632 371.83 L
S
GR
GS
0.149 GC
2 setlinecap
1 LJ
0.5 LW
N
337.323 374 M
337.323 371.83 L
S
GR
GS
0.149 GC
2 setlinecap
1 LJ
0.5 LW
N
346.669 374 M
346.669 371.83 L
S
GR
GS
0.149 GC
2 setlinecap
1 LJ
0.5 LW
N
356.014 374 M
356.014 371.83 L
S
GR
GS
0.149 GC
2 setlinecap
1 LJ
0.5 LW
N
365.36 374 M
365.36 371.83 L
S
GR
GS
0.149 GC
2 setlinecap
1 LJ
0.5 LW
N
384.051 374 M
384.051 371.83 L
S
GR
GS
0.149 GC
2 setlinecap
1 LJ
0.5 LW
N
393.397 374 M
393.397 371.83 L
S
GR
GS
0.149 GC
2 setlinecap
1 LJ
0.5 LW
N
402.742 374 M
402.742 371.83 L
S
GR
GS
0.149 GC
2 setlinecap
1 LJ
0.5 LW
N
412.088 374 M
412.088 371.83 L
S
GR
GS
0.149 GC
2 setlinecap
1 LJ
0.5 LW
N
430.779 374 M
430.779 371.83 L
S
GR
GS
0.149 GC
2 setlinecap
1 LJ
0.5 LW
N
440.125 374 M
440.125 371.83 L
S
GR
GS
0.149 GC
2 setlinecap
1 LJ
0.5 LW
N
449.47 374 M
449.47 371.83 L
S
GR
GS
0.149 GC
2 setlinecap
1 LJ
0.5 LW
N
458.816 374 M
458.816 371.83 L
S
GR
GS
0.149 GC
2 setlinecap
1 LJ
0.5 LW
N
477.507 374 M
477.507 371.83 L
S
GR
GS
0.149 GC
2 setlinecap
1 LJ
0.5 LW
N
486.853 374 M
486.853 371.83 L
S
GR
GS
0.149 GC
2 setlinecap
1 LJ
0.5 LW
N
496.198 374 M
496.198 371.83 L
S
GR
GS
0.149 GC
2 setlinecap
1 LJ
0.5 LW
N
505.544 374 M
505.544 371.83 L
S
GR
GS
0.149 GC
2 setlinecap
1 LJ
0.5 LW
N
75.647 31.5 M
75.647 33.67 L
S
GR
GS
0.149 GC
2 setlinecap
1 LJ
0.5 LW
N
84.992 31.5 M
84.992 33.67 L
S
GR
GS
0.149 GC
2 setlinecap
1 LJ
0.5 LW
N
103.683 31.5 M
103.683 33.67 L
S
GR
GS
0.149 GC
2 setlinecap
1 LJ
0.5 LW
N
113.029 31.5 M
113.029 33.67 L
S
GR
GS
0.149 GC
2 setlinecap
1 LJ
0.5 LW
N
122.375 31.5 M
122.375 33.67 L
S
GR
GS
0.149 GC
2 setlinecap
1 LJ
0.5 LW
N
131.72 31.5 M
131.72 33.67 L
S
GR
GS
0.149 GC
2 setlinecap
1 LJ
0.5 LW
N
150.411 31.5 M
150.411 33.67 L
S
GR
GS
0.149 GC
2 setlinecap
1 LJ
0.5 LW
N
159.757 31.5 M
159.757 33.67 L
S
GR
GS
0.149 GC
2 setlinecap
1 LJ
0.5 LW
N
169.103 31.5 M
169.103 33.67 L
S
GR
GS
0.149 GC
2 setlinecap
1 LJ
0.5 LW
N
178.448 31.5 M
178.448 33.67 L
S
GR
GS
0.149 GC
2 setlinecap
1 LJ
0.5 LW
N
197.139 31.5 M
197.139 33.67 L
S
GR
GS
0.149 GC
2 setlinecap
1 LJ
0.5 LW
N
206.485 31.5 M
206.485 33.67 L
S
GR
GS
0.149 GC
2 setlinecap
1 LJ
0.5 LW
N
215.831 31.5 M
215.831 33.67 L
S
GR
GS
0.149 GC
2 setlinecap
1 LJ
0.5 LW
N
225.176 31.5 M
225.176 33.67 L
S
GR
GS
0.149 GC
2 setlinecap
1 LJ
0.5 LW
N
243.867 31.5 M
243.867 33.67 L
S
GR
GS
0.149 GC
2 setlinecap
1 LJ
0.5 LW
N
253.213 31.5 M
253.213 33.67 L
S
GR
GS
0.149 GC
2 setlinecap
1 LJ
0.5 LW
N
262.558 31.5 M
262.558 33.67 L
S
GR
GS
0.149 GC
2 setlinecap
1 LJ
0.5 LW
N
271.904 31.5 M
271.904 33.67 L
S
GR
GS
0.149 GC
2 setlinecap
1 LJ
0.5 LW
N
290.595 31.5 M
290.595 33.67 L
S
GR
GS
0.149 GC
2 setlinecap
1 LJ
0.5 LW
N
299.941 31.5 M
299.941 33.67 L
S
GR
GS
0.149 GC
2 setlinecap
1 LJ
0.5 LW
N
309.286 31.5 M
309.286 33.67 L
S
GR
GS
0.149 GC
2 setlinecap
1 LJ
0.5 LW
N
318.632 31.5 M
318.632 33.67 L
S
GR
GS
0.149 GC
2 setlinecap
1 LJ
0.5 LW
N
337.323 31.5 M
337.323 33.67 L
S
GR
GS
0.149 GC
2 setlinecap
1 LJ
0.5 LW
N
346.669 31.5 M
346.669 33.67 L
S
GR
GS
0.149 GC
2 setlinecap
1 LJ
0.5 LW
N
356.014 31.5 M
356.014 33.67 L
S
GR
GS
0.149 GC
2 setlinecap
1 LJ
0.5 LW
N
365.36 31.5 M
365.36 33.67 L
S
GR
GS
0.149 GC
2 setlinecap
1 LJ
0.5 LW
N
384.051 31.5 M
384.051 33.67 L
S
GR
GS
0.149 GC
2 setlinecap
1 LJ
0.5 LW
N
393.397 31.5 M
393.397 33.67 L
S
GR
GS
0.149 GC
2 setlinecap
1 LJ
0.5 LW
N
402.742 31.5 M
402.742 33.67 L
S
GR
GS
0.149 GC
2 setlinecap
1 LJ
0.5 LW
N
412.088 31.5 M
412.088 33.67 L
S
GR
GS
0.149 GC
2 setlinecap
1 LJ
0.5 LW
N
430.779 31.5 M
430.779 33.67 L
S
GR
GS
0.149 GC
2 setlinecap
1 LJ
0.5 LW
N
440.125 31.5 M
440.125 33.67 L
S
GR
GS
0.149 GC
2 setlinecap
1 LJ
0.5 LW
N
449.47 31.5 M
449.47 33.67 L
S
GR
GS
0.149 GC
2 setlinecap
1 LJ
0.5 LW
N
458.816 31.5 M
458.816 33.67 L
S
GR
GS
0.149 GC
2 setlinecap
1 LJ
0.5 LW
N
477.507 31.5 M
477.507 33.67 L
S
GR
GS
0.149 GC
2 setlinecap
1 LJ
0.5 LW
N
486.853 31.5 M
486.853 33.67 L
S
GR
GS
0.149 GC
2 setlinecap
1 LJ
0.5 LW
N
496.198 31.5 M
496.198 33.67 L
S
GR
GS
0.149 GC
2 setlinecap
1 LJ
0.5 LW
N
505.544 31.5 M
505.544 33.67 L
S
GR
GS
[1 0 0 1 94.3378 378.79996] CT
0.149 GC
/Helvetica 14 F
GS
[1 0 0 1 0 0] CT
-16 14 moveto 
1 -1 scale
(1000) t 
GR
GR
GS
[1 0 0 1 141.06577 378.79996] CT
0.149 GC
/Helvetica 14 F
GS
[1 0 0 1 0 0] CT
-16 14 moveto 
1 -1 scale
(2000) t 
GR
GR
GS
[1 0 0 1 187.79372 378.79996] CT
0.149 GC
/Helvetica 14 F
GS
[1 0 0 1 0 0] CT
-16 14 moveto 
1 -1 scale
(3000) t 
GR
GR
GS
[1 0 0 1 234.52168 378.79996] CT
0.149 GC
/Helvetica 14 F
GS
[1 0 0 1 0 0] CT
-16 14 moveto 
1 -1 scale
(4000) t 
GR
GR
GS
[1 0 0 1 281.24963 378.79996] CT
0.149 GC
/Helvetica 14 F
GS
[1 0 0 1 0 0] CT
-16 14 moveto 
1 -1 scale
(5000) t 
GR
GR
GS
[1 0 0 1 327.9776 378.79996] CT
0.149 GC
/Helvetica 14 F
GS
[1 0 0 1 0 0] CT
-16 14 moveto 
1 -1 scale
(6000) t 
GR
GR
GS
[1 0 0 1 374.70557 378.79996] CT
0.149 GC
/Helvetica 14 F
GS
[1 0 0 1 0 0] CT
-16 14 moveto 
1 -1 scale
(7000) t 
GR
GR
GS
[1 0 0 1 421.43353 378.79996] CT
0.149 GC
/Helvetica 14 F
GS
[1 0 0 1 0 0] CT
-16 14 moveto 
1 -1 scale
(8000) t 
GR
GR
GS
[1 0 0 1 468.1615 378.79996] CT
0.149 GC
/Helvetica 14 F
GS
[1 0 0 1 0 0] CT
-16 14 moveto 
1 -1 scale
(9000) t 
GR
GR
GS
[1 0 0 1 290.00021 396.29999] CT
0.149 GC
/Helvetica 15.4 F
GS
[1 0 0 1 0 0] CT
-42 15 moveto 
1 -1 scale
(Bitrate\(kb/s\)) t 
GR
GR
GS
0.149 GC
2 setlinecap
1 LJ
0.5 LW
N
73 374 M
73 31.5 L
S
GR
GS
0.149 GC
2 setlinecap
1 LJ
0.5 LW
N
507 374 M
507 31.5 L
S
GR
GS
0.149 GC
2 setlinecap
1 LJ
0.5 LW
N
73 348.851 M
77.34 348.851 L
S
GR
GS
0.149 GC
2 setlinecap
1 LJ
0.5 LW
N
73 297.61 M
77.34 297.61 L
S
GR
GS
0.149 GC
2 setlinecap
1 LJ
0.5 LW
N
73 246.37 M
77.34 246.37 L
S
GR
GS
0.149 GC
2 setlinecap
1 LJ
0.5 LW
N
73 195.129 M
77.34 195.129 L
S
GR
GS
0.149 GC
2 setlinecap
1 LJ
0.5 LW
N
73 143.889 M
77.34 143.889 L
S
GR
GS
0.149 GC
2 setlinecap
1 LJ
0.5 LW
N
73 92.648 M
77.34 92.648 L
S
GR
GS
0.149 GC
2 setlinecap
1 LJ
0.5 LW
N
73 41.408 M
77.34 41.408 L
S
GR
GS
0.149 GC
2 setlinecap
1 LJ
0.5 LW
N
507 348.851 M
502.66 348.851 L
S
GR
GS
0.149 GC
2 setlinecap
1 LJ
0.5 LW
N
507 297.61 M
502.66 297.61 L
S
GR
GS
0.149 GC
2 setlinecap
1 LJ
0.5 LW
N
507 246.37 M
502.66 246.37 L
S
GR
GS
0.149 GC
2 setlinecap
1 LJ
0.5 LW
N
507 195.129 M
502.66 195.129 L
S
GR
GS
0.149 GC
2 setlinecap
1 LJ
0.5 LW
N
507 143.889 M
502.66 143.889 L
S
GR
GS
0.149 GC
2 setlinecap
1 LJ
0.5 LW
N
507 92.648 M
502.66 92.648 L
S
GR
GS
0.149 GC
2 setlinecap
1 LJ
0.5 LW
N
507 41.408 M
502.66 41.408 L
S
GR
GS
0.149 GC
2 setlinecap
1 LJ
0.5 LW
N
73 361.661 M
75.17 361.661 L
S
GR
GS
0.149 GC
2 setlinecap
1 LJ
0.5 LW
N
73 336.041 M
75.17 336.041 L
S
GR
GS
0.149 GC
2 setlinecap
1 LJ
0.5 LW
N
73 323.23 M
75.17 323.23 L
S
GR
GS
0.149 GC
2 setlinecap
1 LJ
0.5 LW
N
73 310.42 M
75.17 310.42 L
S
GR
GS
0.149 GC
2 setlinecap
1 LJ
0.5 LW
N
73 284.8 M
75.17 284.8 L
S
GR
GS
0.149 GC
2 setlinecap
1 LJ
0.5 LW
N
73 271.99 M
75.17 271.99 L
S
GR
GS
0.149 GC
2 setlinecap
1 LJ
0.5 LW
N
73 259.18 M
75.17 259.18 L
S
GR
GS
0.149 GC
2 setlinecap
1 LJ
0.5 LW
N
73 233.56 M
75.17 233.56 L
S
GR
GS
0.149 GC
2 setlinecap
1 LJ
0.5 LW
N
73 220.75 M
75.17 220.75 L
S
GR
GS
0.149 GC
2 setlinecap
1 LJ
0.5 LW
N
73 207.939 M
75.17 207.939 L
S
GR
GS
0.149 GC
2 setlinecap
1 LJ
0.5 LW
N
73 182.319 M
75.17 182.319 L
S
GR
GS
0.149 GC
2 setlinecap
1 LJ
0.5 LW
N
73 169.509 M
75.17 169.509 L
S
GR
GS
0.149 GC
2 setlinecap
1 LJ
0.5 LW
N
73 156.699 M
75.17 156.699 L
S
GR
GS
0.149 GC
2 setlinecap
1 LJ
0.5 LW
N
73 131.079 M
75.17 131.079 L
S
GR
GS
0.149 GC
2 setlinecap
1 LJ
0.5 LW
N
73 118.269 M
75.17 118.269 L
S
GR
GS
0.149 GC
2 setlinecap
1 LJ
0.5 LW
N
73 105.459 M
75.17 105.459 L
S
GR
GS
0.149 GC
2 setlinecap
1 LJ
0.5 LW
N
73 79.838 M
75.17 79.838 L
S
GR
GS
0.149 GC
2 setlinecap
1 LJ
0.5 LW
N
73 67.028 M
75.17 67.028 L
S
GR
GS
0.149 GC
2 setlinecap
1 LJ
0.5 LW
N
73 54.218 M
75.17 54.218 L
S
GR
GS
0.149 GC
2 setlinecap
1 LJ
0.5 LW
N
507 361.661 M
504.83 361.661 L
S
GR
GS
0.149 GC
2 setlinecap
1 LJ
0.5 LW
N
507 336.041 M
504.83 336.041 L
S
GR
GS
0.149 GC
2 setlinecap
1 LJ
0.5 LW
N
507 323.23 M
504.83 323.23 L
S
GR
GS
0.149 GC
2 setlinecap
1 LJ
0.5 LW
N
507 310.42 M
504.83 310.42 L
S
GR
GS
0.149 GC
2 setlinecap
1 LJ
0.5 LW
N
507 284.8 M
504.83 284.8 L
S
GR
GS
0.149 GC
2 setlinecap
1 LJ
0.5 LW
N
507 271.99 M
504.83 271.99 L
S
GR
GS
0.149 GC
2 setlinecap
1 LJ
0.5 LW
N
507 259.18 M
504.83 259.18 L
S
GR
GS
0.149 GC
2 setlinecap
1 LJ
0.5 LW
N
507 233.56 M
504.83 233.56 L
S
GR
GS
0.149 GC
2 setlinecap
1 LJ
0.5 LW
N
507 220.75 M
504.83 220.75 L
S
GR
GS
0.149 GC
2 setlinecap
1 LJ
0.5 LW
N
507 207.939 M
504.83 207.939 L
S
GR
GS
0.149 GC
2 setlinecap
1 LJ
0.5 LW
N
507 182.319 M
504.83 182.319 L
S
GR
GS
0.149 GC
2 setlinecap
1 LJ
0.5 LW
N
507 169.509 M
504.83 169.509 L
S
GR
GS
0.149 GC
2 setlinecap
1 LJ
0.5 LW
N
507 156.699 M
504.83 156.699 L
S
GR
GS
0.149 GC
2 setlinecap
1 LJ
0.5 LW
N
507 131.079 M
504.83 131.079 L
S
GR
GS
0.149 GC
2 setlinecap
1 LJ
0.5 LW
N
507 118.269 M
504.83 118.269 L
S
GR
GS
0.149 GC
2 setlinecap
1 LJ
0.5 LW
N
507 105.459 M
504.83 105.459 L
S
GR
GS
0.149 GC
2 setlinecap
1 LJ
0.5 LW
N
507 79.838 M
504.83 79.838 L
S
GR
GS
0.149 GC
2 setlinecap
1 LJ
0.5 LW
N
507 67.028 M
504.83 67.028 L
S
GR
GS
0.149 GC
2 setlinecap
1 LJ
0.5 LW
N
507 54.218 M
504.83 54.218 L
S
GR
GS
[1 0 0 1 68.2 348.85062] CT
0.149 GC
/Helvetica 14 F
GS
[1 0 0 1 0 0] CT
-16 5.5 moveto 
1 -1 scale
(34) t 
GR
GR
GS
[1 0 0 1 68.2 297.6102] CT
0.149 GC
/Helvetica 14 F
GS
[1 0 0 1 0 0] CT
-16 5.5 moveto 
1 -1 scale
(36) t 
GR
GR
GS
[1 0 0 1 68.2 246.36975] CT
0.149 GC
/Helvetica 14 F
GS
[1 0 0 1 0 0] CT
-16 5.5 moveto 
1 -1 scale
(38) t 
GR
GR
GS
[1 0 0 1 68.2 195.12932] CT
0.149 GC
/Helvetica 14 F
GS
[1 0 0 1 0 0] CT
-16 5.5 moveto 
1 -1 scale
(40) t 
GR
GR
GS
[1 0 0 1 68.2 143.88887] CT
0.149 GC
/Helvetica 14 F
GS
[1 0 0 1 0 0] CT
-16 5.5 moveto 
1 -1 scale
(42) t 
GR
GR
GS
[1 0 0 1 68.2 92.64844] CT
0.149 GC
/Helvetica 14 F
GS
[1 0 0 1 0 0] CT
-16 5.5 moveto 
1 -1 scale
(44) t 
GR
GR
GS
[1 0 0 1 68.2 41.408] CT
0.149 GC
/Helvetica 14 F
GS
[1 0 0 1 0 0] CT
-16 5.5 moveto 
1 -1 scale
(46) t 
GR
GR
GS
[0 -1 1 0 49.2 202.74979] CT
0.149 GC
/Helvetica 15.4 F
GS
[1 0 0 1 0 0] CT
-47 -4 moveto 
1 -1 scale
(APSNR Y\(dB\)) t 
GR
GR
GS
[1 0 0 1 290.00027 29.57503] CT
/Helvetica-Bold 15.4 F
GS
[1 0 0 1 0 0] CT
-96.5 -4 moveto 
1 -1 scale
(Vlog_1080P-58ad.y4m-av1) t 
GR
GR
GS
0 0.447 0.741 RC
1 LJ
0.5 LW
N
80.841 345.997 M
81.776 343.393 L
82.71 340.794 L
83.645 338.205 L
84.579 335.626 L
85.514 333.06 L
86.448 330.507 L
87.383 327.971 L
88.317 325.452 L
89.252 322.953 L
90.187 320.476 L
91.121 318.022 L
92.056 315.593 L
92.99 313.191 L
93.925 310.817 L
94.859 308.475 L
95.794 306.164 L
96.729 303.888 L
97.663 301.649 L
98.598 299.447 L
99.532 297.284 L
100.467 295.164 L
101.401 293.087 L
102.336 291.055 L
103.27 289.07 L
104.205 287.134 L
105.14 285.248 L
106.074 283.415 L
107.009 281.634 L
107.943 279.874 L
108.878 278.127 L
109.812 276.392 L
110.747 274.671 L
111.681 272.962 L
112.616 271.266 L
113.551 269.583 L
114.485 267.913 L
115.42 266.257 L
116.354 264.613 L
117.289 262.983 L
118.223 261.367 L
119.158 259.763 L
120.092 258.173 L
121.027 256.597 L
121.962 255.034 L
122.896 253.485 L
123.831 251.95 L
124.765 250.428 L
125.7 248.921 L
126.634 247.427 L
127.569 245.947 L
128.504 244.481 L
129.438 243.03 L
130.373 241.592 L
131.307 240.169 L
132.242 238.76 L
133.176 237.365 L
134.111 235.985 L
135.045 234.619 L
135.98 233.268 L
136.915 231.932 L
137.849 230.61 L
138.784 229.303 L
139.718 228.01 L
140.653 226.733 L
141.587 225.471 L
142.522 224.223 L
143.456 222.991 L
144.391 221.773 L
145.326 220.571 L
146.26 219.384 L
147.195 218.213 L
148.129 217.057 L
149.064 215.916 L
149.998 214.791 L
150.933 213.681 L
151.867 212.587 L
152.802 211.509 L
153.737 210.447 L
154.671 209.4 L
155.606 208.369 L
156.54 207.354 L
157.475 206.355 L
158.409 205.373 L
159.344 204.406 L
160.279 203.456 L
161.213 202.521 L
162.148 201.597 L
163.082 200.679 L
164.017 199.768 L
164.951 198.864 L
165.886 197.967 L
166.82 197.077 L
167.755 196.193 L
168.69 195.315 L
169.624 194.445 L
170.559 193.581 L
171.493 192.723 L
172.428 191.872 L
173.362 191.026 L
174.297 190.188 L
175.231 189.355 L
176.166 188.529 L
177.101 187.708 L
178.035 186.894 L
178.97 186.086 L
179.904 185.284 L
180.839 184.487 L
181.773 183.696 L
182.708 182.911 L
183.643 182.132 L
184.577 181.359 L
185.512 180.591 L
186.446 179.828 L
187.381 179.071 L
188.315 178.32 L
189.25 177.574 L
190.184 176.833 L
191.119 176.097 L
192.054 175.367 L
192.988 174.641 L
193.923 173.921 L
194.857 173.206 L
195.792 172.496 L
196.726 171.79 L
197.661 171.09 L
198.595 170.394 L
199.53 169.703 L
200.465 169.017 L
201.399 168.336 L
202.334 167.659 L
203.268 166.986 L
204.203 166.318 L
205.137 165.655 L
206.072 164.995 L
207.006 164.34 L
207.941 163.69 L
208.876 163.043 L
209.81 162.4 L
210.745 161.762 L
211.679 161.128 L
212.614 160.497 L
213.548 159.871 L
214.483 159.248 L
215.418 158.629 L
216.352 158.014 L
217.287 157.402 L
218.221 156.795 L
219.156 156.19 L
220.09 155.589 L
221.025 154.992 L
221.959 154.398 L
222.894 153.807 L
223.829 153.22 L
224.763 152.636 L
225.698 152.055 L
226.632 151.477 L
227.567 150.902 L
228.501 150.33 L
229.436 149.761 L
230.37 149.195 L
231.305 148.632 L
232.24 148.071 L
233.174 147.514 L
234.109 146.958 L
235.043 146.406 L
235.978 145.856 L
236.912 145.308 L
237.847 144.763 L
238.782 144.221 L
239.716 143.68 L
240.651 143.142 L
241.585 142.606 L
242.52 142.072 L
243.454 141.541 L
244.389 141.011 L
245.323 140.483 L
246.258 139.958 L
247.193 139.434 L
248.127 138.912 L
249.062 138.391 L
249.996 137.873 L
250.931 137.356 L
251.865 136.84 L
252.8 136.327 L
253.734 135.814 L
254.669 135.303 L
255.604 134.793 L
256.538 134.284 L
257.473 133.775 L
258.407 133.266 L
259.342 132.757 L
260.276 132.249 L
261.211 131.742 L
262.145 131.234 L
263.08 130.727 L
264.015 130.22 L
264.949 129.714 L
265.884 129.208 L
266.818 128.702 L
267.753 128.197 L
268.687 127.693 L
269.622 127.188 L
270.557 126.684 L
271.491 126.181 L
272.426 125.678 L
273.36 125.175 L
274.295 124.673 L
275.229 124.171 L
276.164 123.67 L
277.098 123.169 L
278.033 122.669 L
278.968 122.169 L
279.902 121.67 L
280.837 121.171 L
281.771 120.673 L
282.706 120.175 L
283.64 119.677 L
284.575 119.181 L
285.509 118.684 L
286.444 118.189 L
287.379 117.693 L
288.313 117.199 L
289.248 116.705 L
290.182 116.211 L
291.117 115.718 L
292.051 115.226 L
292.986 114.734 L
293.921 114.243 L
294.855 113.752 L
295.79 113.262 L
296.724 112.773 L
297.659 112.284 L
298.593 111.796 L
299.528 111.308 L
300.462 110.821 L
301.397 110.335 L
302.332 109.85 L
303.266 109.365 L
304.201 108.88 L
305.135 108.397 L
306.07 107.914 L
307.004 107.432 L
307.939 106.95 L
308.873 106.469 L
309.808 105.989 L
310.743 105.51 L
311.677 105.031 L
312.612 104.553 L
313.546 104.076 L
314.481 103.6 L
315.415 103.124 L
316.35 102.649 L
317.284 102.175 L
318.219 101.701 L
319.154 101.229 L
320.088 100.757 L
321.023 100.286 L
321.957 99.816 L
322.892 99.346 L
323.826 98.877 L
324.761 98.41 L
325.695 97.943 L
326.63 97.476 L
327.565 97.011 L
328.499 96.547 L
329.434 96.083 L
330.368 95.62 L
331.303 95.158 L
332.237 94.697 L
333.172 94.237 L
334.107 93.778 L
335.041 93.319 L
335.976 92.862 L
336.91 92.405 L
337.845 91.95 L
338.779 91.495 L
339.714 91.041 L
340.648 90.588 L
341.583 90.136 L
342.518 89.685 L
343.452 89.235 L
344.387 88.786 L
345.321 88.338 L
346.256 87.891 L
347.19 87.445 L
348.125 87 L
349.059 86.556 L
349.994 86.113 L
350.929 85.671 L
351.863 85.23 L
352.798 84.79 L
353.732 84.35 L
354.667 83.913 L
355.601 83.476 L
356.536 83.04 L
357.471 82.605 L
358.405 82.171 L
359.34 81.738 L
360.274 81.307 L
361.209 80.876 L
362.143 80.447 L
363.078 80.019 L
364.012 79.591 L
364.947 79.165 L
365.882 78.74 L
366.816 78.317 L
367.751 77.894 L
368.685 77.472 L
369.62 77.052 L
370.554 76.633 L
371.489 76.214 L
372.423 75.798 L
373.358 75.382 L
374.293 74.967 L
375.227 74.554 L
376.162 74.142 L
377.096 73.731 L
378.031 73.321 L
378.965 72.913 L
379.9 72.505 L
380.835 72.099 L
381.769 71.694 L
382.704 71.291 L
383.638 70.888 L
384.573 70.487 L
385.507 70.088 L
386.442 69.689 L
387.376 69.292 L
388.311 68.896 L
389.246 68.501 L
390.18 68.108 L
391.115 67.716 L
392.049 67.325 L
392.984 66.936 L
393.918 66.548 L
394.853 66.161 L
395.787 65.776 L
396.722 65.392 L
397.657 65.009 L
398.591 64.628 L
399.526 64.248 L
400.46 63.869 L
401.395 63.492 L
402.329 63.116 L
403.264 62.742 L
404.198 62.369 L
405.133 61.997 L
406.068 61.627 L
407.002 61.258 L
407.937 60.891 L
408.871 60.525 L
409.806 60.161 L
410.74 59.798 L
411.675 59.436 L
412.61 59.076 L
413.544 58.718 L
414.479 58.361 L
415.413 58.005 L
416.348 57.651 L
417.282 57.299 L
418.217 56.948 L
419.151 56.598 L
420.086 56.25 L
421.021 55.904 L
421.955 55.559 L
422.89 55.215 L
423.824 54.873 L
424.759 54.533 L
425.693 54.194 L
426.628 53.857 L
427.562 53.521 L
428.497 53.188 L
429.432 52.855 L
430.366 52.524 L
431.301 52.195 L
432.235 51.868 L
433.17 51.542 L
434.104 51.217 L
435.039 50.894 L
435.974 50.573 L
436.908 50.254 L
437.843 49.936 L
438.777 49.62 L
439.712 49.306 L
440.646 48.993 L
441.581 48.682 L
442.515 48.373 L
443.45 48.065 L
444.385 47.759 L
445.319 47.455 L
446.254 47.152 L
447.188 46.851 L
448.123 46.552 L
449.057 46.255 L
449.992 45.959 L
450.926 45.665 L
451.861 45.373 L
452.796 45.083 L
453.73 44.794 L
454.665 44.508 L
455.599 44.222 L
456.534 43.939 L
457.468 43.658 L
458.403 43.378 L
459.337 43.1 L
460.272 42.824 L
461.207 42.55 L
462.141 42.278 L
463.076 42.008 L
464.01 41.739 L
464.945 41.472 L
465.879 41.207 L
466.814 40.944 L
467.749 40.683 L
468.683 40.424 L
469.618 40.166 L
470.552 39.911 L
471.487 39.657 L
472.421 39.406 L
473.356 39.156 L
474.29 38.908 L
475.225 38.662 L
476.16 38.418 L
477.094 38.176 L
478.029 37.936 L
478.963 37.698 L
479.898 37.462 L
480.832 37.228 L
481.767 36.996 L
482.701 36.765 L
483.636 36.537 L
484.571 36.311 L
485.505 36.087 L
486.44 35.865 L
487.374 35.644 L
488.309 35.426 L
489.243 35.21 L
490.178 34.996 L
491.112 34.784 L
492.047 34.574 L
492.982 34.366 L
493.916 34.16 L
494.851 33.957 L
495.785 33.755 L
496.72 33.555 L
497.654 33.358 L
498.589 33.163 L
499.524 32.969 L
500.458 32.778 L
501.393 32.589 L
502.327 32.402 L
503.262 32.217 L
504.196 32.035 L
505.131 31.854 L
506.065 31.676 L
507 31.5 L
S
GR
GS
0.851 0.325 0.098 RC
1 LJ
0.5 LW
N
73 374 M
73.935 370.599 L
74.869 367.208 L
75.804 363.833 L
76.738 360.477 L
77.673 357.146 L
78.607 353.842 L
79.542 350.571 L
80.476 347.337 L
81.411 344.144 L
82.346 340.997 L
83.28 337.899 L
84.215 334.856 L
85.149 331.871 L
86.084 328.949 L
87.018 326.094 L
87.953 323.311 L
88.888 320.604 L
89.822 317.976 L
90.757 315.434 L
91.691 312.98 L
92.626 310.619 L
93.56 308.335 L
94.495 306.077 L
95.429 303.84 L
96.364 301.627 L
97.299 299.436 L
98.233 297.267 L
99.168 295.122 L
100.102 292.999 L
101.037 290.899 L
101.971 288.822 L
102.906 286.767 L
103.84 284.736 L
104.775 282.727 L
105.71 280.742 L
106.644 278.78 L
107.579 276.841 L
108.513 274.925 L
109.448 273.033 L
110.382 271.163 L
111.317 269.317 L
112.251 267.495 L
113.186 265.696 L
114.121 263.921 L
115.055 262.169 L
115.99 260.44 L
116.924 258.736 L
117.859 257.055 L
118.793 255.398 L
119.728 253.765 L
120.663 252.155 L
121.597 250.57 L
122.532 249.009 L
123.466 247.471 L
124.401 245.958 L
125.335 244.469 L
126.27 243.004 L
127.204 241.563 L
128.139 240.147 L
129.074 238.755 L
130.008 237.387 L
130.943 236.044 L
131.877 234.725 L
132.812 233.431 L
133.746 232.161 L
134.681 230.916 L
135.615 229.696 L
136.55 228.5 L
137.485 227.317 L
138.419 226.144 L
139.354 224.981 L
140.288 223.827 L
141.223 222.683 L
142.157 221.549 L
143.092 220.424 L
144.027 219.308 L
144.961 218.202 L
145.896 217.105 L
146.83 216.017 L
147.765 214.939 L
148.699 213.87 L
149.634 212.81 L
150.568 211.758 L
151.503 210.716 L
152.438 209.683 L
153.372 208.658 L
154.307 207.643 L
155.241 206.636 L
156.176 205.638 L
157.11 204.648 L
158.045 203.667 L
158.979 202.694 L
159.914 201.73 L
160.849 200.774 L
161.783 199.827 L
162.718 198.888 L
163.652 197.957 L
164.587 197.034 L
165.521 196.119 L
166.456 195.212 L
167.39 194.313 L
168.325 193.422 L
169.26 192.539 L
170.194 191.664 L
171.129 190.796 L
172.063 189.937 L
172.998 189.084 L
173.932 188.24 L
174.867 187.402 L
175.802 186.572 L
176.736 185.75 L
177.671 184.935 L
178.605 184.127 L
179.54 183.326 L
180.474 182.533 L
181.409 181.746 L
182.343 180.967 L
183.278 180.194 L
184.213 179.429 L
185.147 178.67 L
186.082 177.918 L
187.016 177.173 L
187.951 176.434 L
188.885 175.702 L
189.82 174.977 L
190.754 174.258 L
191.689 173.545 L
192.624 172.839 L
193.558 172.139 L
194.493 171.446 L
195.427 170.758 L
196.362 170.077 L
197.296 169.402 L
198.231 168.733 L
199.165 168.069 L
200.1 167.412 L
201.035 166.761 L
201.969 166.115 L
202.904 165.475 L
203.838 164.841 L
204.773 164.212 L
205.707 163.589 L
206.642 162.971 L
207.577 162.359 L
208.511 161.752 L
209.446 161.15 L
210.38 160.553 L
211.315 159.956 L
212.249 159.359 L
213.184 158.763 L
214.118 158.167 L
215.053 157.571 L
215.988 156.977 L
216.922 156.383 L
217.857 155.789 L
218.791 155.196 L
219.726 154.603 L
220.66 154.012 L
221.595 153.42 L
222.529 152.83 L
223.464 152.24 L
224.399 151.651 L
225.333 151.063 L
226.268 150.475 L
227.202 149.889 L
228.137 149.303 L
229.071 148.718 L
230.006 148.134 L
230.941 147.55 L
231.875 146.968 L
232.81 146.387 L
233.744 145.806 L
234.679 145.227 L
235.613 144.648 L
236.548 144.071 L
237.482 143.495 L
238.417 142.919 L
239.352 142.345 L
240.286 141.772 L
241.221 141.201 L
242.155 140.63 L
243.09 140.06 L
244.024 139.492 L
244.959 138.925 L
245.893 138.36 L
246.828 137.795 L
247.763 137.232 L
248.697 136.67 L
249.632 136.11 L
250.566 135.551 L
251.501 134.993 L
252.435 134.437 L
253.37 133.882 L
254.304 133.329 L
255.239 132.778 L
256.174 132.227 L
257.108 131.679 L
258.043 131.132 L
258.977 130.586 L
259.912 130.042 L
260.846 129.5 L
261.781 128.96 L
262.716 128.421 L
263.65 127.884 L
264.585 127.349 L
265.519 126.815 L
266.454 126.283 L
267.388 125.753 L
268.323 125.225 L
269.257 124.699 L
270.192 124.175 L
271.127 123.652 L
272.061 123.132 L
272.996 122.613 L
273.93 122.096 L
274.865 121.582 L
275.799 121.069 L
276.734 120.559 L
277.668 120.05 L
278.603 119.544 L
279.538 119.039 L
280.472 118.537 L
281.407 118.037 L
282.341 117.54 L
283.276 117.044 L
284.21 116.551 L
285.145 116.06 L
286.079 115.571 L
287.014 115.084 L
287.949 114.6 L
288.883 114.119 L
289.818 113.639 L
290.752 113.162 L
291.687 112.687 L
292.621 112.215 L
293.556 111.746 L
294.491 111.278 L
295.425 110.814 L
296.36 110.352 L
297.294 109.892 L
298.229 109.435 L
299.163 108.981 L
300.098 108.529 L
301.032 108.08 L
301.967 107.634 L
302.902 107.19 L
303.836 106.749 L
304.771 106.311 L
305.705 105.875 L
306.64 105.443 L
307.574 105.013 L
308.509 104.586 L
309.443 104.162 L
310.378 103.741 L
311.313 103.322 L
312.247 102.907 L
313.182 102.495 L
314.116 102.085 L
315.051 101.679 L
315.985 101.276 L
316.92 100.875 L
317.855 100.478 L
318.789 100.084 L
319.724 99.693 L
320.658 99.305 L
321.593 98.921 L
322.527 98.539 L
323.462 98.161 L
324.396 97.786 L
325.331 97.414 L
326.266 97.046 L
327.2 96.681 L
328.135 96.319 L
329.069 95.961 L
330.004 95.606 L
330.938 95.254 L
331.873 94.906 L
332.807 94.561 L
333.742 94.22 L
334.677 93.882 L
335.611 93.548 L
336.546 93.217 L
337.48 92.89 L
338.415 92.567 L
339.349 92.247 L
340.284 91.931 L
341.219 91.618 L
342.153 91.309 L
343.088 91.004 L
344.022 90.703 L
344.957 90.405 L
345.891 90.111 L
346.826 89.821 L
347.76 89.535 L
348.695 89.253 L
349.63 88.974 L
350.564 88.7 L
351.499 88.429 L
352.433 88.162 L
353.368 87.9 L
354.302 87.641 L
355.237 87.386 L
356.171 87.136 L
357.106 86.889 L
358.041 86.647 L
358.975 86.408 L
359.91 86.174 L
360.844 85.944 L
361.779 85.718 L
362.713 85.496 L
363.648 85.279 L
364.582 85.066 L
365.517 84.857 L
366.452 84.652 L
367.386 84.452 L
368.321 84.256 L
369.255 84.064 L
370.19 83.877 L
371.124 83.694 L
372.059 83.516 L
372.994 83.342 L
373.928 83.173 L
374.863 83.008 L
375.797 82.848 L
376.732 82.692 L
377.666 82.541 L
378.601 82.394 L
379.535 82.252 L
380.47 82.115 L
381.405 81.983 L
382.339 81.855 L
383.274 81.732 L
S
GR
GS
0.929 0.694 0.125 RC
1 LJ
0.5 LW
N
80.348 346.329 M
81.283 343.677 L
82.217 341.031 L
83.152 338.395 L
84.087 335.769 L
85.021 333.157 L
85.956 330.56 L
86.89 327.979 L
87.825 325.417 L
88.759 322.876 L
89.694 320.357 L
90.628 317.862 L
91.563 315.394 L
92.498 312.954 L
93.432 310.545 L
94.367 308.167 L
95.301 305.823 L
96.236 303.515 L
97.17 301.245 L
98.105 299.014 L
99.039 296.825 L
99.974 294.679 L
100.909 292.579 L
101.843 290.526 L
102.778 288.522 L
103.712 286.569 L
104.647 284.669 L
105.581 282.824 L
106.516 281.021 L
107.451 279.233 L
108.385 277.458 L
109.32 275.697 L
110.254 273.948 L
111.189 272.213 L
112.123 270.492 L
113.058 268.783 L
113.992 267.089 L
114.927 265.408 L
115.862 263.741 L
116.796 262.087 L
117.731 260.448 L
118.665 258.822 L
119.6 257.21 L
120.534 255.613 L
121.469 254.03 L
122.403 252.46 L
123.338 250.905 L
124.273 249.365 L
125.207 247.839 L
126.142 246.327 L
127.076 244.83 L
128.011 243.348 L
128.945 241.88 L
129.88 240.427 L
130.814 238.989 L
131.749 237.566 L
132.684 236.158 L
133.618 234.765 L
134.553 233.388 L
135.487 232.025 L
136.422 230.678 L
137.356 229.346 L
138.291 228.029 L
139.226 226.729 L
140.16 225.443 L
141.095 224.174 L
142.029 222.92 L
142.964 221.681 L
143.898 220.459 L
144.833 219.253 L
145.767 218.062 L
146.702 216.888 L
147.637 215.73 L
148.571 214.588 L
149.506 213.463 L
150.44 212.353 L
151.375 211.261 L
152.309 210.184 L
153.244 209.125 L
154.178 208.082 L
155.113 207.056 L
156.048 206.046 L
156.982 205.054 L
157.917 204.078 L
158.851 203.119 L
159.786 202.174 L
160.72 201.235 L
161.655 200.304 L
162.59 199.38 L
163.524 198.463 L
164.459 197.552 L
165.393 196.649 L
166.328 195.752 L
167.262 194.862 L
168.197 193.979 L
169.131 193.102 L
170.066 192.232 L
171.001 191.369 L
171.935 190.512 L
172.87 189.661 L
173.804 188.817 L
174.739 187.979 L
175.673 187.148 L
176.608 186.322 L
177.542 185.503 L
178.477 184.69 L
179.412 183.882 L
180.346 183.081 L
181.281 182.286 L
182.215 181.496 L
183.15 180.712 L
184.084 179.935 L
185.019 179.162 L
185.953 178.395 L
186.888 177.634 L
187.823 176.879 L
188.757 176.128 L
189.692 175.384 L
190.626 174.644 L
191.561 173.91 L
192.495 173.181 L
193.43 172.457 L
194.365 171.739 L
195.299 171.025 L
196.234 170.316 L
197.168 169.613 L
198.103 168.914 L
199.037 168.22 L
199.972 167.531 L
200.906 166.846 L
201.841 166.166 L
202.776 165.491 L
203.71 164.82 L
204.645 164.154 L
205.579 163.492 L
206.514 162.835 L
207.448 162.182 L
208.383 161.533 L
209.317 160.888 L
210.252 160.248 L
211.187 159.612 L
212.121 158.979 L
213.056 158.351 L
213.99 157.726 L
214.925 157.106 L
215.859 156.489 L
216.794 155.876 L
217.729 155.266 L
218.663 154.661 L
219.598 154.058 L
220.532 153.46 L
221.467 152.865 L
222.401 152.273 L
223.336 151.684 L
224.27 151.099 L
225.205 150.517 L
226.14 149.939 L
227.074 149.363 L
228.009 148.79 L
228.943 148.221 L
229.878 147.654 L
230.812 147.091 L
231.747 146.53 L
232.681 145.972 L
233.616 145.417 L
234.551 144.864 L
235.485 144.314 L
236.42 143.766 L
237.354 143.221 L
238.289 142.679 L
239.223 142.139 L
240.158 141.601 L
241.092 141.065 L
242.027 140.532 L
242.962 140.001 L
243.896 139.472 L
244.831 138.944 L
245.765 138.419 L
246.7 137.896 L
247.634 137.375 L
248.569 136.856 L
249.504 136.338 L
250.438 135.822 L
251.373 135.307 L
252.307 134.793 L
253.242 134.28 L
254.176 133.766 L
255.111 133.253 L
256.045 132.74 L
256.98 132.228 L
257.915 131.716 L
258.849 131.204 L
259.784 130.693 L
260.718 130.182 L
261.653 129.671 L
262.587 129.161 L
263.522 128.651 L
264.456 128.141 L
265.391 127.632 L
266.326 127.124 L
267.26 126.615 L
268.195 126.108 L
269.129 125.6 L
270.064 125.093 L
270.998 124.587 L
271.933 124.081 L
272.867 123.575 L
273.802 123.07 L
274.737 122.566 L
275.671 122.062 L
276.606 121.558 L
277.54 121.055 L
278.475 120.552 L
279.409 120.05 L
280.344 119.549 L
281.279 119.048 L
282.213 118.547 L
283.148 118.047 L
284.082 117.548 L
285.017 117.049 L
285.951 116.551 L
286.886 116.053 L
287.82 115.556 L
288.755 115.06 L
289.69 114.564 L
290.624 114.068 L
291.559 113.574 L
292.493 113.08 L
293.428 112.586 L
294.362 112.093 L
295.297 111.601 L
296.231 111.11 L
297.166 110.619 L
298.101 110.129 L
299.035 109.639 L
299.97 109.151 L
300.904 108.662 L
301.839 108.175 L
302.773 107.688 L
303.708 107.202 L
304.643 106.717 L
305.577 106.232 L
306.512 105.749 L
307.446 105.266 L
308.381 104.783 L
309.315 104.302 L
310.25 103.821 L
311.184 103.341 L
312.119 102.861 L
313.054 102.383 L
313.988 101.905 L
314.923 101.428 L
315.857 100.952 L
316.792 100.477 L
317.726 100.002 L
318.661 99.529 L
319.595 99.056 L
320.53 98.584 L
321.465 98.113 L
322.399 97.643 L
323.334 97.173 L
324.268 96.705 L
325.203 96.237 L
326.137 95.771 L
327.072 95.305 L
328.007 94.84 L
328.941 94.376 L
329.876 93.913 L
330.81 93.45 L
331.745 92.989 L
332.679 92.529 L
333.614 92.07 L
334.548 91.611 L
335.483 91.154 L
336.418 90.697 L
337.352 90.242 L
338.287 89.787 L
339.221 89.334 L
340.156 88.881 L
341.09 88.43 L
342.025 87.979 L
342.959 87.53 L
343.894 87.081 L
344.829 86.634 L
345.763 86.188 L
346.698 85.742 L
347.632 85.298 L
348.567 84.855 L
349.501 84.413 L
350.436 83.972 L
351.37 83.532 L
352.305 83.093 L
353.24 82.655 L
354.174 82.219 L
355.109 81.783 L
356.043 81.349 L
356.978 80.916 L
357.912 80.484 L
358.847 80.053 L
359.781 79.623 L
360.716 79.194 L
361.651 78.767 L
362.585 78.34 L
363.52 77.915 L
364.454 77.491 L
365.389 77.069 L
366.323 76.647 L
367.258 76.227 L
368.193 75.808 L
369.127 75.39 L
370.062 74.974 L
370.996 74.558 L
371.931 74.144 L
372.865 73.731 L
373.8 73.32 L
374.734 72.91 L
375.669 72.501 L
376.604 72.093 L
377.538 71.686 L
378.473 71.281 L
379.407 70.877 L
380.342 70.475 L
381.276 70.074 L
382.211 69.674 L
383.145 69.276 L
384.08 68.878 L
385.015 68.483 L
385.949 68.088 L
386.884 67.695 L
387.818 67.304 L
388.753 66.913 L
389.687 66.524 L
390.622 66.137 L
391.557 65.751 L
392.491 65.366 L
393.426 64.983 L
394.36 64.601 L
395.295 64.221 L
396.229 63.842 L
397.164 63.465 L
398.098 63.089 L
399.033 62.714 L
399.968 62.341 L
400.902 61.969 L
401.837 61.599 L
402.771 61.231 L
403.706 60.864 L
404.64 60.498 L
405.575 60.134 L
406.509 59.772 L
407.444 59.411 L
408.379 59.051 L
409.313 58.693 L
410.248 58.337 L
411.182 57.982 L
412.117 57.629 L
413.051 57.277 L
413.986 56.927 L
414.921 56.579 L
415.855 56.232 L
416.79 55.887 L
417.724 55.543 L
418.659 55.201 L
419.593 54.861 L
420.528 54.522 L
421.462 54.185 L
422.397 53.85 L
423.332 53.516 L
424.266 53.184 L
425.201 52.853 L
426.135 52.525 L
427.07 52.198 L
428.004 51.872 L
428.939 51.549 L
429.873 51.227 L
430.808 50.907 L
431.743 50.588 L
432.677 50.271 L
433.612 49.956 L
434.546 49.643 L
435.481 49.332 L
436.415 49.022 L
437.35 48.714 L
438.284 48.408 L
439.219 48.103 L
440.154 47.801 L
441.088 47.5 L
442.023 47.201 L
442.957 46.904 L
443.892 46.609 L
444.826 46.315 L
445.761 46.023 L
446.696 45.734 L
447.63 45.446 L
448.565 45.159 L
449.499 44.875 L
450.434 44.593 L
451.368 44.312 L
452.303 44.034 L
453.237 43.757 L
454.172 43.482 L
455.107 43.21 L
456.041 42.939 L
456.976 42.67 L
457.91 42.403 L
458.845 42.137 L
459.779 41.874 L
460.714 41.613 L
461.648 41.354 L
462.583 41.096 L
463.518 40.841 L
464.452 40.588 L
465.387 40.337 L
466.321 40.087 L
467.256 39.84 L
468.19 39.595 L
469.125 39.351 L
470.06 39.11 L
470.994 38.871 L
471.929 38.634 L
472.863 38.399 L
473.798 38.166 L
474.732 37.935 L
475.667 37.706 L
476.601 37.479 L
477.536 37.254 L
478.471 37.032 L
479.405 36.811 L
480.34 36.593 L
481.274 36.376 L
482.209 36.162 L
483.143 35.95 L
484.078 35.74 L
485.012 35.533 L
485.947 35.327 L
486.882 35.124 L
487.816 34.923 L
488.751 34.724 L
489.685 34.527 L
490.62 34.332 L
491.554 34.14 L
492.489 33.949 L
493.423 33.761 L
494.358 33.576 L
495.293 33.392 L
496.227 33.211 L
497.162 33.032 L
498.096 32.855 L
499.031 32.68 L
499.965 32.508 L
500.9 32.338 L
501.835 32.17 L
502.769 32.005 L
503.704 31.842 L
S
GR
GS
0.494 0.184 0.557 RC
1 LJ
0.5 LW
N
78.714 347.116 M
79.649 344.338 L
80.583 341.568 L
81.518 338.808 L
82.452 336.061 L
83.387 333.329 L
84.321 330.614 L
85.256 327.918 L
86.19 325.243 L
87.125 322.591 L
88.06 319.965 L
88.994 317.367 L
89.929 314.798 L
90.863 312.261 L
91.798 309.759 L
92.732 307.293 L
93.667 304.866 L
94.601 302.479 L
95.536 300.134 L
96.471 297.835 L
97.405 295.583 L
98.34 293.38 L
99.274 291.229 L
100.209 289.131 L
101.143 287.089 L
102.078 285.105 L
103.013 283.181 L
103.947 281.294 L
104.882 279.422 L
105.816 277.563 L
106.751 275.719 L
107.685 273.889 L
108.62 272.073 L
109.554 270.271 L
110.489 268.484 L
111.424 266.712 L
112.358 264.955 L
113.293 263.213 L
114.227 261.485 L
115.162 259.773 L
116.096 258.076 L
117.031 256.394 L
117.965 254.728 L
118.9 253.078 L
119.835 251.443 L
120.769 249.824 L
121.704 248.221 L
122.638 246.633 L
123.573 245.062 L
124.507 243.508 L
125.442 241.969 L
126.376 240.448 L
127.311 238.943 L
128.246 237.454 L
129.18 235.982 L
130.115 234.528 L
131.049 233.09 L
131.984 231.67 L
132.918 230.267 L
133.853 228.881 L
134.788 227.512 L
135.722 226.162 L
136.657 224.829 L
137.591 223.514 L
138.526 222.217 L
139.46 220.938 L
140.395 219.677 L
141.329 218.434 L
142.264 217.21 L
143.199 216.004 L
144.133 214.818 L
145.068 213.649 L
146.002 212.5 L
146.937 211.369 L
147.871 210.258 L
148.806 209.166 L
149.74 208.093 L
150.675 207.04 L
151.61 206.006 L
152.544 204.992 L
153.479 203.997 L
154.413 203.016 L
155.348 202.043 L
156.282 201.077 L
157.217 200.119 L
158.151 199.169 L
159.086 198.226 L
160.021 197.291 L
160.955 196.364 L
161.89 195.444 L
162.824 194.531 L
163.759 193.626 L
164.693 192.728 L
165.628 191.837 L
166.563 190.953 L
167.497 190.076 L
168.432 189.207 L
169.366 188.344 L
170.301 187.488 L
171.235 186.639 L
172.17 185.796 L
173.104 184.96 L
174.039 184.131 L
174.974 183.308 L
175.908 182.492 L
176.843 181.682 L
177.777 180.878 L
178.712 180.081 L
179.646 179.29 L
180.581 178.505 L
181.515 177.726 L
182.45 176.953 L
183.385 176.186 L
184.319 175.424 L
185.254 174.669 L
186.188 173.919 L
187.123 173.175 L
188.057 172.437 L
188.992 171.704 L
189.926 170.976 L
190.861 170.254 L
191.796 169.538 L
192.73 168.826 L
193.665 168.12 L
194.599 167.419 L
195.534 166.723 L
196.468 166.032 L
197.403 165.346 L
198.338 164.664 L
199.272 163.988 L
200.207 163.316 L
201.141 162.649 L
202.076 161.987 L
203.01 161.329 L
203.945 160.675 L
204.879 160.027 L
205.814 159.382 L
206.749 158.742 L
207.683 158.105 L
208.618 157.473 L
209.552 156.845 L
210.487 156.222 L
211.421 155.602 L
212.356 154.986 L
213.29 154.373 L
214.225 153.765 L
215.16 153.16 L
216.094 152.559 L
217.029 151.961 L
217.963 151.367 L
218.898 150.776 L
219.832 150.189 L
220.767 149.605 L
221.702 149.024 L
222.636 148.446 L
223.571 147.872 L
224.505 147.3 L
225.44 146.732 L
226.374 146.166 L
227.309 145.603 L
228.243 145.043 L
229.178 144.486 L
230.113 143.931 L
231.047 143.379 L
231.982 142.829 L
232.916 142.282 L
233.851 141.737 L
234.785 141.194 L
235.72 140.654 L
236.654 140.116 L
237.589 139.58 L
238.524 139.046 L
239.458 138.514 L
240.393 137.984 L
241.327 137.456 L
242.262 136.929 L
243.196 136.402 L
244.131 135.876 L
245.066 135.35 L
246 134.825 L
246.935 134.3 L
247.869 133.775 L
248.804 133.251 L
249.738 132.727 L
250.673 132.203 L
251.607 131.68 L
252.542 131.157 L
253.477 130.634 L
254.411 130.112 L
255.346 129.59 L
256.28 129.069 L
257.215 128.548 L
258.149 128.028 L
259.084 127.508 L
260.018 126.988 L
260.953 126.469 L
261.888 125.951 L
262.822 125.433 L
263.757 124.915 L
264.691 124.398 L
265.626 123.881 L
266.56 123.365 L
267.495 122.85 L
268.429 122.334 L
269.364 121.82 L
270.299 121.306 L
271.233 120.792 L
272.168 120.28 L
273.102 119.767 L
274.037 119.255 L
274.971 118.744 L
275.906 118.234 L
276.841 117.724 L
277.775 117.214 L
278.71 116.706 L
279.644 116.197 L
280.579 115.69 L
281.513 115.183 L
282.448 114.677 L
283.382 114.171 L
284.317 113.667 L
285.252 113.162 L
286.186 112.659 L
287.121 112.156 L
288.055 111.654 L
288.99 111.152 L
289.924 110.652 L
290.859 110.152 L
291.793 109.653 L
292.728 109.154 L
293.663 108.656 L
294.597 108.159 L
295.532 107.663 L
296.466 107.168 L
297.401 106.673 L
298.335 106.179 L
299.27 105.686 L
300.204 105.194 L
301.139 104.702 L
302.074 104.212 L
303.008 103.722 L
303.943 103.233 L
304.877 102.745 L
305.812 102.258 L
306.746 101.771 L
307.681 101.286 L
308.616 100.801 L
309.55 100.318 L
310.485 99.835 L
311.419 99.353 L
312.354 98.872 L
313.288 98.392 L
314.223 97.913 L
315.157 97.434 L
316.092 96.957 L
317.027 96.481 L
317.961 96.005 L
318.896 95.531 L
319.83 95.058 L
320.765 94.585 L
321.699 94.114 L
322.634 93.644 L
323.568 93.174 L
324.503 92.706 L
325.438 92.238 L
326.372 91.772 L
327.307 91.307 L
328.241 90.843 L
329.176 90.38 L
330.11 89.918 L
331.045 89.457 L
331.98 88.997 L
332.914 88.538 L
333.849 88.08 L
334.783 87.624 L
335.718 87.168 L
336.652 86.714 L
337.587 86.261 L
338.521 85.809 L
339.456 85.358 L
340.391 84.908 L
341.325 84.46 L
342.26 84.012 L
343.194 83.566 L
344.129 83.121 L
345.063 82.677 L
345.998 82.235 L
346.932 81.794 L
347.867 81.353 L
348.802 80.915 L
349.736 80.477 L
350.671 80.041 L
351.605 79.606 L
352.54 79.172 L
353.474 78.739 L
354.409 78.308 L
355.343 77.878 L
356.278 77.449 L
357.213 77.022 L
358.147 76.596 L
359.082 76.171 L
360.016 75.748 L
360.951 75.326 L
361.885 74.905 L
362.82 74.486 L
363.755 74.068 L
364.689 73.651 L
365.624 73.236 L
366.558 72.822 L
367.493 72.41 L
368.427 71.999 L
369.362 71.589 L
370.296 71.181 L
371.231 70.775 L
372.166 70.369 L
373.1 69.965 L
374.035 69.563 L
374.969 69.162 L
375.904 68.763 L
376.838 68.365 L
377.773 67.969 L
378.707 67.574 L
379.642 67.18 L
380.577 66.788 L
381.511 66.398 L
382.446 66.009 L
383.38 65.622 L
384.315 65.236 L
385.249 64.852 L
386.184 64.47 L
387.118 64.089 L
388.053 63.709 L
388.988 63.331 L
389.922 62.955 L
390.857 62.581 L
391.791 62.208 L
392.726 61.836 L
393.66 61.466 L
394.595 61.098 L
395.53 60.732 L
396.464 60.367 L
397.399 60.004 L
398.333 59.643 L
399.268 59.283 L
400.202 58.925 L
401.137 58.568 L
402.071 58.214 L
403.006 57.861 L
403.941 57.509 L
404.875 57.16 L
405.81 56.812 L
406.744 56.466 L
407.679 56.122 L
408.613 55.78 L
409.548 55.439 L
410.482 55.1 L
411.417 54.763 L
412.352 54.428 L
413.286 54.094 L
414.221 53.762 L
415.155 53.432 L
416.09 53.104 L
417.024 52.778 L
417.959 52.454 L
418.894 52.131 L
419.828 51.811 L
420.763 51.492 L
421.697 51.175 L
422.632 50.86 L
423.566 50.547 L
424.501 50.236 L
425.435 49.927 L
426.37 49.619 L
427.305 49.314 L
428.239 49.01 L
429.174 48.709 L
430.108 48.409 L
431.043 48.112 L
431.977 47.816 L
432.912 47.522 L
433.846 47.231 L
434.781 46.941 L
435.716 46.654 L
436.65 46.368 L
437.585 46.084 L
438.519 45.803 L
439.454 45.523 L
440.388 45.246 L
441.323 44.97 L
442.258 44.697 L
443.192 44.426 L
444.127 44.156 L
445.061 43.889 L
445.996 43.624 L
446.93 43.361 L
447.865 43.101 L
448.799 42.842 L
449.734 42.585 L
450.669 42.331 L
451.603 42.079 L
452.538 41.829 L
453.472 41.581 L
454.407 41.335 L
455.341 41.091 L
456.276 40.85 L
457.21 40.611 L
458.145 40.374 L
459.08 40.139 L
460.014 39.906 L
460.949 39.676 L
461.883 39.448 L
462.818 39.222 L
463.752 38.998 L
464.687 38.777 L
465.621 38.558 L
466.556 38.341 L
467.491 38.127 L
468.425 37.914 L
469.36 37.704 L
470.294 37.497 L
471.229 37.292 L
472.163 37.089 L
473.098 36.888 L
474.033 36.69 L
474.967 36.494 L
475.902 36.3 L
476.836 36.109 L
477.771 35.92 L
478.705 35.734 L
479.64 35.55 L
480.574 35.368 L
481.509 35.189 L
482.444 35.012 L
483.378 34.838 L
484.313 34.666 L
485.247 34.496 L
486.182 34.329 L
487.116 34.165 L
488.051 34.003 L
488.985 33.843 L
489.92 33.686 L
S
GR
GS
0.467 0.675 0.188 RC
1 LJ
0.5 LW
N
78.121 347.34 M
79.056 344.508 L
79.99 341.685 L
80.925 338.873 L
81.859 336.074 L
82.794 333.291 L
83.728 330.526 L
84.663 327.781 L
85.597 325.059 L
86.532 322.361 L
87.467 319.69 L
88.401 317.048 L
89.336 314.438 L
90.27 311.861 L
91.205 309.321 L
92.139 306.818 L
93.074 304.357 L
94.008 301.938 L
94.943 299.564 L
95.878 297.237 L
96.812 294.96 L
97.747 292.735 L
98.681 290.564 L
99.616 288.45 L
100.55 286.394 L
101.485 284.398 L
102.419 282.459 L
103.354 280.54 L
104.289 278.634 L
105.223 276.744 L
106.158 274.868 L
107.092 273.007 L
108.027 271.16 L
108.961 269.329 L
109.896 267.513 L
110.831 265.713 L
111.765 263.927 L
112.7 262.158 L
113.634 260.404 L
114.569 258.666 L
115.503 256.943 L
116.438 255.237 L
117.372 253.548 L
118.307 251.874 L
119.242 250.217 L
120.176 248.577 L
121.111 246.953 L
122.045 245.346 L
122.98 243.756 L
123.914 242.183 L
124.849 240.628 L
125.783 239.09 L
126.718 237.569 L
127.653 236.066 L
128.587 234.581 L
129.522 233.114 L
130.456 231.664 L
131.391 230.233 L
132.325 228.82 L
133.26 227.426 L
134.195 226.05 L
135.129 224.692 L
136.064 223.354 L
136.998 222.034 L
137.933 220.733 L
138.867 219.452 L
139.802 218.19 L
140.736 216.947 L
141.671 215.724 L
142.606 214.52 L
143.54 213.336 L
144.475 212.173 L
145.409 211.029 L
146.344 209.906 L
147.278 208.802 L
148.213 207.72 L
149.147 206.657 L
150.082 205.616 L
151.017 204.595 L
151.951 203.59 L
152.886 202.592 L
153.82 201.603 L
154.755 200.621 L
155.689 199.648 L
156.624 198.682 L
157.558 197.725 L
158.493 196.775 L
159.428 195.832 L
160.362 194.898 L
161.297 193.971 L
162.231 193.051 L
163.166 192.139 L
164.1 191.234 L
165.035 190.337 L
165.97 189.447 L
166.904 188.564 L
167.839 187.688 L
168.773 186.819 L
169.708 185.957 L
170.642 185.102 L
171.577 184.254 L
172.511 183.413 L
173.446 182.578 L
174.381 181.75 L
175.315 180.928 L
176.25 180.113 L
177.184 179.305 L
178.119 178.503 L
179.053 177.707 L
179.988 176.917 L
180.922 176.134 L
181.857 175.357 L
182.792 174.585 L
183.726 173.82 L
184.661 173.061 L
185.595 172.307 L
186.53 171.559 L
187.464 170.817 L
188.399 170.081 L
189.333 169.35 L
190.268 168.625 L
191.203 167.905 L
192.137 167.191 L
193.072 166.482 L
194.006 165.778 L
194.941 165.079 L
195.875 164.385 L
196.81 163.697 L
197.745 163.013 L
198.679 162.335 L
199.614 161.661 L
200.548 160.992 L
201.483 160.328 L
202.417 159.668 L
203.352 159.013 L
204.286 158.363 L
205.221 157.717 L
206.156 157.075 L
207.09 156.438 L
208.025 155.805 L
208.959 155.176 L
209.894 154.551 L
210.828 153.93 L
211.763 153.314 L
212.697 152.701 L
213.632 152.092 L
214.567 151.487 L
215.501 150.886 L
216.436 150.288 L
217.37 149.694 L
218.305 149.103 L
219.239 148.516 L
220.174 147.932 L
221.109 147.352 L
222.043 146.775 L
222.978 146.201 L
223.912 145.63 L
224.847 145.062 L
225.781 144.497 L
226.716 143.936 L
227.65 143.377 L
228.585 142.821 L
229.52 142.267 L
230.454 141.717 L
231.389 141.168 L
232.323 140.623 L
233.258 140.08 L
234.192 139.539 L
235.127 139.001 L
236.061 138.465 L
236.996 137.931 L
237.931 137.398 L
238.865 136.865 L
239.8 136.333 L
240.734 135.801 L
241.669 135.269 L
242.603 134.738 L
243.538 134.207 L
244.473 133.677 L
245.407 133.146 L
246.342 132.617 L
247.276 132.087 L
248.211 131.558 L
249.145 131.029 L
250.08 130.501 L
251.014 129.973 L
251.949 129.445 L
252.884 128.918 L
253.818 128.391 L
254.753 127.865 L
255.687 127.339 L
256.622 126.814 L
257.556 126.289 L
258.491 125.765 L
259.425 125.241 L
260.36 124.718 L
261.295 124.195 L
262.229 123.672 L
263.164 123.15 L
264.098 122.629 L
265.033 122.108 L
265.967 121.588 L
266.902 121.068 L
267.836 120.549 L
268.771 120.031 L
269.706 119.513 L
270.64 118.995 L
271.575 118.479 L
272.509 117.963 L
273.444 117.447 L
274.378 116.932 L
275.313 116.418 L
276.248 115.904 L
277.182 115.391 L
278.117 114.879 L
279.051 114.368 L
279.986 113.857 L
280.92 113.346 L
281.855 112.837 L
282.789 112.328 L
283.724 111.82 L
284.659 111.313 L
285.593 110.806 L
286.528 110.3 L
287.462 109.795 L
288.397 109.291 L
289.331 108.787 L
290.266 108.284 L
291.2 107.782 L
292.135 107.281 L
293.07 106.781 L
294.004 106.281 L
294.939 105.782 L
295.873 105.284 L
296.808 104.787 L
297.742 104.291 L
298.677 103.796 L
299.612 103.301 L
300.546 102.808 L
301.481 102.315 L
302.415 101.823 L
303.35 101.332 L
304.284 100.842 L
305.219 100.353 L
306.153 99.865 L
307.088 99.378 L
308.023 98.892 L
308.957 98.406 L
309.892 97.922 L
310.826 97.439 L
311.761 96.956 L
312.695 96.475 L
313.63 95.995 L
314.564 95.515 L
315.499 95.037 L
316.434 94.56 L
317.368 94.084 L
318.303 93.608 L
319.237 93.134 L
320.172 92.661 L
321.106 92.189 L
322.041 91.719 L
322.975 91.249 L
323.91 90.78 L
324.845 90.313 L
325.779 89.846 L
326.714 89.381 L
327.648 88.917 L
328.583 88.454 L
329.517 87.992 L
330.452 87.531 L
331.387 87.072 L
332.321 86.613 L
333.256 86.156 L
334.19 85.7 L
335.125 85.246 L
336.059 84.792 L
336.994 84.34 L
337.928 83.889 L
338.863 83.439 L
339.798 82.99 L
340.732 82.543 L
341.667 82.097 L
342.601 81.652 L
343.536 81.209 L
344.47 80.767 L
345.405 80.326 L
346.339 79.887 L
347.274 79.449 L
348.209 79.012 L
349.143 78.576 L
350.078 78.142 L
351.012 77.71 L
351.947 77.278 L
352.881 76.848 L
353.816 76.42 L
354.75 75.992 L
355.685 75.567 L
356.62 75.142 L
357.554 74.719 L
358.489 74.298 L
359.423 73.878 L
360.358 73.459 L
361.292 73.042 L
362.227 72.626 L
363.162 72.212 L
364.096 71.8 L
365.031 71.388 L
365.965 70.979 L
366.9 70.571 L
367.834 70.164 L
368.769 69.759 L
369.703 69.355 L
370.638 68.953 L
371.573 68.553 L
372.507 68.154 L
373.442 67.757 L
374.376 67.361 L
375.311 66.967 L
376.245 66.574 L
377.18 66.183 L
378.114 65.794 L
379.049 65.407 L
379.984 65.02 L
380.918 64.636 L
381.853 64.253 L
382.787 63.873 L
383.722 63.493 L
384.656 63.116 L
385.591 62.74 L
386.526 62.365 L
387.46 61.993 L
388.395 61.622 L
389.329 61.253 L
390.264 60.886 L
391.198 60.52 L
392.133 60.156 L
393.067 59.794 L
394.002 59.434 L
394.937 59.075 L
395.871 58.719 L
396.806 58.364 L
397.74 58.011 L
398.675 57.659 L
399.609 57.31 L
400.544 56.962 L
401.478 56.617 L
402.413 56.273 L
403.348 55.931 L
404.282 55.591 L
405.217 55.252 L
406.151 54.916 L
407.086 54.581 L
408.02 54.249 L
408.955 53.918 L
409.889 53.589 L
410.824 53.263 L
411.759 52.938 L
412.693 52.615 L
413.628 52.294 L
414.562 51.975 L
415.497 51.658 L
416.431 51.343 L
417.366 51.03 L
418.301 50.719 L
419.235 50.411 L
420.17 50.104 L
421.104 49.799 L
422.039 49.496 L
422.973 49.195 L
423.908 48.896 L
424.842 48.6 L
425.777 48.305 L
426.712 48.013 L
427.646 47.722 L
428.581 47.434 L
429.515 47.148 L
430.45 46.864 L
431.384 46.582 L
432.319 46.302 L
433.253 46.025 L
434.188 45.749 L
435.123 45.476 L
436.057 45.205 L
436.992 44.936 L
437.926 44.67 L
438.861 44.405 L
439.795 44.143 L
440.73 43.883 L
441.664 43.625 L
442.599 43.369 L
443.534 43.116 L
444.468 42.865 L
445.403 42.616 L
446.337 42.37 L
447.272 42.126 L
448.206 41.884 L
449.141 41.644 L
450.076 41.407 L
451.01 41.172 L
451.945 40.939 L
452.879 40.709 L
453.814 40.481 L
454.748 40.255 L
455.683 40.032 L
456.617 39.811 L
457.552 39.593 L
458.487 39.377 L
459.421 39.163 L
460.356 38.952 L
461.29 38.743 L
462.225 38.536 L
463.159 38.332 L
464.094 38.131 L
465.028 37.932 L
465.963 37.735 L
466.898 37.541 L
467.832 37.35 L
468.767 37.16 L
469.701 36.974 L
470.636 36.79 L
471.57 36.608 L
472.505 36.429 L
473.44 36.252 L
474.374 36.078 L
475.309 35.907 L
476.243 35.738 L
477.178 35.572 L
478.112 35.408 L
479.047 35.247 L
479.981 35.088 L
480.916 34.932 L
481.851 34.779 L
482.785 34.629 L
483.72 34.48 L
484.654 34.335 L
485.589 34.192 L
S
GR
GS
0.302 0.745 0.933 RC
[10 6] 0 setdash
2 LJ
0.5 LW
N
74.687 367.031 M
75.622 363.848 L
76.556 360.675 L
77.491 357.515 L
78.426 354.372 L
79.36 351.25 L
80.295 348.151 L
81.229 345.08 L
82.164 342.04 L
83.098 339.033 L
84.033 336.065 L
84.967 333.137 L
85.902 330.254 L
86.837 327.419 L
87.771 324.636 L
88.706 321.908 L
89.64 319.238 L
90.575 316.631 L
91.509 314.089 L
92.444 311.615 L
93.379 309.215 L
94.313 306.89 L
95.248 304.644 L
96.182 302.475 L
97.117 300.334 L
98.051 298.213 L
98.986 296.111 L
99.92 294.028 L
100.855 291.965 L
101.79 289.922 L
102.724 287.898 L
103.659 285.894 L
104.593 283.91 L
105.528 281.945 L
106.462 280.001 L
107.397 278.077 L
108.331 276.173 L
109.266 274.289 L
110.201 272.426 L
111.135 270.583 L
112.07 268.76 L
113.004 266.958 L
113.939 265.177 L
114.873 263.416 L
115.808 261.676 L
116.743 259.957 L
117.677 258.259 L
118.612 256.582 L
119.546 254.925 L
120.481 253.291 L
121.415 251.677 L
122.35 250.085 L
123.284 248.514 L
124.219 246.965 L
125.154 245.437 L
126.088 243.931 L
127.023 242.446 L
127.957 240.984 L
128.892 239.543 L
129.826 238.124 L
130.761 236.727 L
131.695 235.353 L
132.63 234 L
133.565 232.67 L
134.499 231.363 L
135.434 230.077 L
136.368 228.814 L
137.303 227.574 L
138.237 226.356 L
139.172 225.162 L
140.106 223.99 L
141.041 222.841 L
141.976 221.711 L
142.91 220.59 L
143.845 219.479 L
144.779 218.376 L
145.714 217.283 L
146.648 216.198 L
147.583 215.123 L
148.518 214.056 L
149.452 212.998 L
150.387 211.949 L
151.321 210.908 L
152.256 209.876 L
153.19 208.853 L
154.125 207.838 L
155.059 206.831 L
155.994 205.832 L
156.929 204.842 L
157.863 203.86 L
158.798 202.887 L
159.732 201.921 L
160.667 200.963 L
161.601 200.014 L
162.536 199.072 L
163.47 198.138 L
164.405 197.212 L
165.34 196.293 L
166.274 195.382 L
167.209 194.479 L
168.143 193.583 L
169.078 192.695 L
170.012 191.814 L
170.947 190.941 L
171.881 190.075 L
172.816 189.216 L
173.751 188.364 L
174.685 187.519 L
175.62 186.682 L
176.554 185.851 L
177.489 185.027 L
178.423 184.21 L
179.358 183.4 L
180.293 182.597 L
181.227 181.8 L
182.162 181.01 L
183.096 180.227 L
184.031 179.45 L
184.965 178.679 L
185.9 177.915 L
186.834 177.157 L
187.769 176.405 L
188.704 175.659 L
189.638 174.92 L
190.573 174.187 L
191.507 173.459 L
192.442 172.738 L
193.376 172.022 L
194.311 171.313 L
195.245 170.609 L
196.18 169.91 L
197.115 169.218 L
198.049 168.531 L
198.984 167.849 L
199.918 167.173 L
200.853 166.502 L
201.787 165.837 L
202.722 165.177 L
203.657 164.522 L
204.591 163.872 L
205.526 163.227 L
206.46 162.588 L
207.395 161.953 L
208.329 161.323 L
209.264 160.698 L
210.198 160.078 L
211.133 159.462 L
212.068 158.851 L
213.002 158.245 L
213.937 157.643 L
214.871 157.046 L
215.806 156.453 L
216.74 155.864 L
217.675 155.28 L
218.609 154.699 L
219.544 154.119 L
220.479 153.54 L
221.413 152.961 L
222.348 152.382 L
223.282 151.805 L
224.217 151.227 L
225.151 150.65 L
226.086 150.074 L
227.02 149.498 L
227.955 148.923 L
228.89 148.348 L
229.824 147.774 L
230.759 147.201 L
231.693 146.628 L
232.628 146.056 L
233.562 145.485 L
234.497 144.914 L
235.432 144.345 L
236.366 143.776 L
237.301 143.207 L
238.235 142.64 L
239.17 142.073 L
240.104 141.508 L
241.039 140.943 L
241.973 140.379 L
242.908 139.816 L
243.843 139.253 L
244.777 138.692 L
245.712 138.132 L
246.646 137.572 L
247.581 137.014 L
248.515 136.457 L
249.45 135.901 L
250.384 135.345 L
251.319 134.791 L
252.254 134.238 L
253.188 133.686 L
254.123 133.135 L
255.057 132.586 L
255.992 132.037 L
256.926 131.49 L
257.861 130.944 L
258.796 130.399 L
259.73 129.856 L
260.665 129.313 L
261.599 128.772 L
262.534 128.232 L
263.468 127.694 L
264.403 127.157 L
265.337 126.621 L
266.272 126.087 L
267.207 125.554 L
268.141 125.023 L
269.076 124.492 L
270.01 123.964 L
270.945 123.437 L
271.879 122.911 L
272.814 122.387 L
273.748 121.864 L
274.683 121.343 L
275.618 120.824 L
276.552 120.306 L
277.487 119.79 L
278.421 119.275 L
279.356 118.762 L
280.29 118.251 L
281.225 117.741 L
282.159 117.234 L
283.094 116.728 L
284.029 116.223 L
284.963 115.72 L
285.898 115.22 L
286.832 114.721 L
287.767 114.223 L
288.701 113.728 L
289.636 113.235 L
290.571 112.743 L
291.505 112.253 L
292.44 111.765 L
293.374 111.28 L
294.309 110.796 L
295.243 110.314 L
296.178 109.834 L
297.112 109.356 L
298.047 108.88 L
298.982 108.406 L
299.916 107.935 L
300.851 107.465 L
301.785 106.998 L
302.72 106.532 L
303.654 106.069 L
304.589 105.608 L
305.523 105.149 L
306.458 104.692 L
307.393 104.238 L
308.327 103.786 L
309.262 103.336 L
310.196 102.888 L
311.131 102.443 L
312.065 102 L
313 101.559 L
313.935 101.121 L
314.869 100.685 L
315.804 100.252 L
316.738 99.821 L
317.673 99.392 L
318.607 98.966 L
319.542 98.542 L
320.476 98.121 L
321.411 97.703 L
322.346 97.287 L
323.28 96.873 L
324.215 96.462 L
325.149 96.054 L
326.084 95.648 L
327.018 95.245 L
327.953 94.844 L
328.887 94.447 L
329.822 94.051 L
330.757 93.659 L
331.691 93.269 L
332.626 92.883 L
333.56 92.498 L
334.495 92.117 L
335.429 91.739 L
336.364 91.363 L
337.298 90.99 L
338.233 90.62 L
339.168 90.253 L
340.102 89.889 L
341.037 89.527 L
341.971 89.169 L
342.906 88.814 L
343.84 88.461 L
344.775 88.112 L
345.71 87.766 L
346.644 87.422 L
347.579 87.082 L
348.513 86.745 L
349.448 86.411 L
350.382 86.08 L
351.317 85.752 L
352.251 85.427 L
353.186 85.106 L
354.121 84.787 L
355.055 84.472 L
355.99 84.16 L
356.924 83.852 L
357.859 83.547 L
358.793 83.244 L
359.728 82.946 L
360.662 82.65 L
361.597 82.358 L
362.532 82.07 L
363.466 81.784 L
364.401 81.502 L
365.335 81.224 L
366.27 80.949 L
367.204 80.677 L
368.139 80.409 L
369.074 80.145 L
370.008 79.884 L
370.943 79.626 L
371.877 79.372 L
372.812 79.122 L
373.746 78.875 L
374.681 78.632 L
375.615 78.392 L
376.55 78.156 L
377.485 77.924 L
378.419 77.696 L
379.354 77.471 L
380.288 77.25 L
381.223 77.033 L
382.157 76.819 L
383.092 76.609 L
384.026 76.403 L
384.961 76.201 L
385.896 76.003 L
386.83 75.809 L
387.765 75.618 L
388.699 75.432 L
389.634 75.249 L
390.568 75.07 L
391.503 74.895 L
392.437 74.725 L
393.372 74.558 L
394.307 74.395 L
395.241 74.237 L
396.176 74.082 L
397.11 73.931 L
398.045 73.785 L
398.979 73.643 L
399.914 73.504 L
S
GR
GS
0.635 0.078 0.184 RC
[10 6] 0 setdash
2 LJ
0.5 LW
N
80.414 346.131 M
81.349 343.493 L
82.283 340.861 L
83.218 338.239 L
84.152 335.628 L
85.087 333.029 L
86.021 330.446 L
86.956 327.879 L
87.891 325.33 L
88.825 322.802 L
89.76 320.295 L
90.694 317.813 L
91.629 315.357 L
92.563 312.929 L
93.498 310.53 L
94.433 308.163 L
95.367 305.83 L
96.302 303.531 L
97.236 301.27 L
98.171 299.048 L
99.105 296.867 L
100.04 294.728 L
100.974 292.634 L
101.909 290.587 L
102.844 288.588 L
103.778 286.64 L
104.713 284.743 L
105.647 282.901 L
106.582 281.101 L
107.516 279.315 L
108.451 277.542 L
109.385 275.782 L
110.32 274.035 L
111.255 272.302 L
112.189 270.581 L
113.124 268.874 L
114.058 267.18 L
114.993 265.5 L
115.927 263.833 L
116.862 262.179 L
117.797 260.54 L
118.731 258.914 L
119.666 257.302 L
120.6 255.704 L
121.535 254.12 L
122.469 252.55 L
123.404 250.994 L
124.338 249.452 L
125.273 247.925 L
126.208 246.412 L
127.142 244.913 L
128.077 243.429 L
129.011 241.959 L
129.946 240.505 L
130.88 239.064 L
131.815 237.639 L
132.749 236.229 L
133.684 234.833 L
134.619 233.453 L
135.553 232.088 L
136.488 230.738 L
137.422 229.403 L
138.357 228.084 L
139.291 226.78 L
140.226 225.491 L
141.16 224.218 L
142.095 222.961 L
143.03 221.72 L
143.964 220.494 L
144.899 219.284 L
145.833 218.09 L
146.768 216.912 L
147.702 215.751 L
148.637 214.605 L
149.572 213.476 L
150.506 212.363 L
151.441 211.267 L
152.375 210.187 L
153.31 209.123 L
154.244 208.077 L
155.179 207.047 L
156.113 206.033 L
157.048 205.037 L
157.983 204.058 L
158.917 203.095 L
159.852 202.147 L
160.786 201.206 L
161.721 200.272 L
162.655 199.345 L
163.59 198.425 L
164.524 197.512 L
165.459 196.606 L
166.394 195.707 L
167.328 194.815 L
168.263 193.93 L
169.197 193.051 L
170.132 192.179 L
171.066 191.313 L
172.001 190.454 L
172.936 189.602 L
173.87 188.756 L
174.805 187.916 L
175.739 187.082 L
176.674 186.255 L
177.608 185.434 L
178.543 184.619 L
179.477 183.81 L
180.412 183.007 L
181.347 182.21 L
182.281 181.419 L
183.216 180.633 L
184.15 179.854 L
185.085 179.08 L
186.019 178.312 L
186.954 177.549 L
187.888 176.792 L
188.823 176.04 L
189.758 175.294 L
190.692 174.553 L
191.627 173.818 L
192.561 173.087 L
193.496 172.362 L
194.43 171.642 L
195.365 170.927 L
196.299 170.217 L
197.234 169.512 L
198.169 168.812 L
199.103 168.117 L
200.038 167.426 L
200.972 166.74 L
201.907 166.059 L
202.841 165.383 L
203.776 164.711 L
204.711 164.043 L
205.645 163.38 L
206.58 162.721 L
207.514 162.067 L
208.449 161.417 L
209.383 160.771 L
210.318 160.129 L
211.252 159.491 L
212.187 158.857 L
213.122 158.227 L
214.056 157.601 L
214.991 156.979 L
215.925 156.361 L
216.86 155.746 L
217.794 155.135 L
218.729 154.528 L
219.663 153.924 L
220.598 153.324 L
221.533 152.727 L
222.467 152.133 L
223.402 151.543 L
224.336 150.956 L
225.271 150.373 L
226.205 149.792 L
227.14 149.214 L
228.074 148.64 L
229.009 148.068 L
229.944 147.5 L
230.878 146.934 L
231.813 146.371 L
232.747 145.811 L
233.682 145.253 L
234.616 144.698 L
235.551 144.146 L
236.486 143.596 L
237.42 143.048 L
238.355 142.503 L
239.289 141.961 L
240.224 141.42 L
241.158 140.882 L
242.093 140.346 L
243.027 139.812 L
243.962 139.28 L
244.897 138.749 L
245.831 138.221 L
246.766 137.695 L
247.7 137.171 L
248.635 136.648 L
249.569 136.127 L
250.504 135.607 L
251.438 135.089 L
252.373 134.571 L
253.308 134.053 L
254.242 133.535 L
255.177 133.018 L
256.111 132.501 L
257.046 131.985 L
257.98 131.469 L
258.915 130.953 L
259.85 130.438 L
260.784 129.923 L
261.719 129.408 L
262.653 128.894 L
263.588 128.38 L
264.522 127.867 L
265.457 127.354 L
266.391 126.842 L
267.326 126.33 L
268.261 125.819 L
269.195 125.308 L
270.13 124.797 L
271.064 124.287 L
271.999 123.778 L
272.933 123.269 L
273.868 122.76 L
274.802 122.252 L
275.737 121.745 L
276.672 121.238 L
277.606 120.731 L
278.541 120.226 L
279.475 119.72 L
280.41 119.215 L
281.344 118.711 L
282.279 118.208 L
283.214 117.705 L
284.148 117.202 L
285.083 116.7 L
286.017 116.199 L
286.952 115.699 L
287.886 115.199 L
288.821 114.699 L
289.755 114.201 L
290.69 113.702 L
291.625 113.205 L
292.559 112.708 L
293.494 112.212 L
294.428 111.717 L
295.363 111.222 L
296.297 110.728 L
297.232 110.235 L
298.166 109.742 L
299.101 109.25 L
300.036 108.759 L
300.97 108.269 L
301.905 107.779 L
302.839 107.29 L
303.774 106.802 L
304.708 106.314 L
305.643 105.828 L
306.577 105.342 L
307.512 104.857 L
308.447 104.372 L
309.381 103.889 L
310.316 103.406 L
311.25 102.924 L
312.185 102.443 L
313.119 101.963 L
314.054 101.483 L
314.989 101.005 L
315.923 100.527 L
316.858 100.05 L
317.792 99.574 L
318.727 99.099 L
319.661 98.625 L
320.596 98.152 L
321.53 97.679 L
322.465 97.208 L
323.4 96.737 L
324.334 96.267 L
325.269 95.799 L
326.203 95.331 L
327.138 94.864 L
328.072 94.398 L
329.007 93.933 L
329.941 93.469 L
330.876 93.006 L
331.811 92.544 L
332.745 92.083 L
333.68 91.623 L
334.614 91.164 L
335.549 90.706 L
336.483 90.249 L
337.418 89.793 L
338.352 89.338 L
339.287 88.885 L
340.222 88.432 L
341.156 87.98 L
342.091 87.529 L
343.025 87.08 L
343.96 86.631 L
344.894 86.184 L
345.829 85.738 L
346.764 85.292 L
347.698 84.848 L
348.633 84.405 L
349.567 83.964 L
350.502 83.523 L
351.436 83.083 L
352.371 82.645 L
353.305 82.208 L
354.24 81.772 L
355.175 81.337 L
356.109 80.903 L
357.044 80.471 L
357.978 80.039 L
358.913 79.609 L
359.847 79.18 L
360.782 78.753 L
361.716 78.326 L
362.651 77.901 L
363.586 77.477 L
364.52 77.055 L
365.455 76.633 L
366.389 76.213 L
367.324 75.794 L
368.258 75.377 L
369.193 74.961 L
370.128 74.546 L
371.062 74.132 L
371.997 73.72 L
372.931 73.309 L
373.866 72.899 L
374.8 72.491 L
375.735 72.084 L
376.669 71.678 L
377.604 71.274 L
378.539 70.871 L
379.473 70.469 L
380.408 70.069 L
381.342 69.671 L
382.277 69.273 L
383.211 68.877 L
384.146 68.483 L
385.08 68.09 L
386.015 67.698 L
386.95 67.308 L
387.884 66.919 L
388.819 66.532 L
389.753 66.146 L
390.688 65.762 L
391.622 65.379 L
392.557 64.997 L
393.491 64.618 L
394.426 64.239 L
395.361 63.862 L
396.295 63.487 L
397.23 63.113 L
398.164 62.741 L
399.099 62.37 L
400.033 62.001 L
400.968 61.633 L
401.903 61.267 L
402.837 60.902 L
403.772 60.54 L
404.706 60.178 L
405.641 59.818 L
406.575 59.46 L
407.51 59.104 L
408.444 58.749 L
409.379 58.396 L
410.314 58.044 L
411.248 57.694 L
412.183 57.345 L
413.117 56.999 L
414.052 56.654 L
414.986 56.31 L
415.921 55.969 L
416.855 55.628 L
417.79 55.29 L
418.725 54.954 L
419.659 54.619 L
420.594 54.285 L
421.528 53.954 L
422.463 53.624 L
423.397 53.296 L
424.332 52.97 L
425.267 52.646 L
426.201 52.323 L
427.136 52.002 L
428.07 51.683 L
429.005 51.365 L
429.939 51.05 L
430.874 50.736 L
431.808 50.424 L
432.743 50.114 L
433.678 49.806 L
434.612 49.499 L
435.547 49.195 L
436.481 48.892 L
437.416 48.591 L
438.35 48.292 L
439.285 47.995 L
440.219 47.699 L
441.154 47.406 L
442.089 47.114 L
443.023 46.825 L
443.958 46.537 L
444.892 46.251 L
445.827 45.967 L
446.761 45.685 L
447.696 45.405 L
448.63 45.127 L
449.565 44.851 L
450.5 44.577 L
451.434 44.305 L
452.369 44.035 L
453.303 43.767 L
454.238 43.5 L
455.172 43.236 L
456.107 42.974 L
457.042 42.714 L
457.976 42.456 L
458.911 42.2 L
459.845 41.946 L
460.78 41.694 L
461.714 41.444 L
462.649 41.196 L
463.583 40.95 L
464.518 40.707 L
465.453 40.465 L
466.387 40.225 L
467.322 39.988 L
468.256 39.753 L
469.191 39.52 L
470.125 39.289 L
471.06 39.06 L
471.994 38.833 L
472.929 38.608 L
473.864 38.386 L
474.798 38.165 L
475.733 37.947 L
476.667 37.731 L
477.602 37.518 L
478.536 37.306 L
479.471 37.097 L
480.405 36.89 L
481.34 36.685 L
482.275 36.482 L
483.209 36.281 L
484.144 36.083 L
485.078 35.887 L
486.013 35.694 L
486.947 35.502 L
487.882 35.313 L
488.817 35.126 L
489.751 34.942 L
490.686 34.759 L
491.62 34.579 L
492.555 34.402 L
493.489 34.226 L
494.424 34.053 L
S
GR
GS
0 0.447 0.741 RC
[10 6] 0 setdash
2 LJ
0.5 LW
N
78.854 346.885 M
79.788 344.119 L
80.723 341.362 L
81.657 338.615 L
82.592 335.88 L
83.526 333.16 L
84.461 330.457 L
85.395 327.773 L
86.33 325.109 L
87.265 322.469 L
88.199 319.854 L
89.134 317.266 L
90.068 314.708 L
91.003 312.181 L
91.937 309.689 L
92.872 307.232 L
93.807 304.813 L
94.741 302.435 L
95.676 300.099 L
96.61 297.807 L
97.545 295.562 L
98.479 293.366 L
99.414 291.221 L
100.348 289.129 L
101.283 287.092 L
102.218 285.112 L
103.152 283.191 L
104.087 281.311 L
105.021 279.444 L
105.956 277.591 L
106.89 275.752 L
107.825 273.927 L
108.759 272.117 L
109.694 270.321 L
110.629 268.54 L
111.563 266.773 L
112.498 265.021 L
113.432 263.283 L
114.367 261.561 L
115.301 259.853 L
116.236 258.161 L
117.171 256.484 L
118.105 254.822 L
119.04 253.176 L
119.974 251.545 L
120.909 249.93 L
121.843 248.33 L
122.778 246.747 L
123.712 245.179 L
124.647 243.628 L
125.582 242.093 L
126.516 240.573 L
127.451 239.071 L
128.385 237.585 L
129.32 236.115 L
130.254 234.662 L
131.189 233.226 L
132.123 231.807 L
133.058 230.405 L
133.993 229.02 L
134.927 227.652 L
135.862 226.302 L
136.796 224.969 L
137.731 223.654 L
138.665 222.356 L
139.6 221.076 L
140.534 219.814 L
141.469 218.57 L
142.404 217.344 L
143.338 216.136 L
144.273 214.946 L
145.207 213.775 L
146.142 212.622 L
147.076 211.488 L
148.011 210.372 L
148.946 209.276 L
149.88 208.198 L
150.815 207.139 L
151.749 206.1 L
152.684 205.079 L
153.618 204.078 L
154.553 203.093 L
155.487 202.117 L
156.422 201.148 L
157.357 200.187 L
158.291 199.233 L
159.226 198.288 L
160.16 197.349 L
161.095 196.419 L
162.029 195.495 L
162.964 194.58 L
163.898 193.671 L
164.833 192.77 L
165.768 191.875 L
166.702 190.988 L
167.637 190.108 L
168.571 189.235 L
169.506 188.369 L
170.44 187.51 L
171.375 186.657 L
172.309 185.812 L
173.244 184.972 L
174.179 184.14 L
175.113 183.314 L
176.048 182.494 L
176.982 181.681 L
177.917 180.874 L
178.851 180.073 L
179.786 179.279 L
180.721 178.491 L
181.655 177.708 L
182.59 176.932 L
183.524 176.162 L
184.459 175.397 L
185.393 174.639 L
186.328 173.886 L
187.262 173.139 L
188.197 172.397 L
189.132 171.661 L
190.066 170.93 L
191.001 170.205 L
191.935 169.485 L
192.87 168.77 L
193.804 168.061 L
194.739 167.357 L
195.673 166.657 L
196.608 165.963 L
197.543 165.274 L
198.477 164.59 L
199.412 163.91 L
200.346 163.235 L
201.281 162.565 L
202.215 161.9 L
203.15 161.239 L
204.085 160.582 L
205.019 159.93 L
205.954 159.283 L
206.888 158.639 L
207.823 158 L
208.757 157.365 L
209.692 156.734 L
210.626 156.107 L
211.561 155.485 L
212.496 154.866 L
213.43 154.25 L
214.365 153.639 L
215.299 153.031 L
216.234 152.427 L
217.168 151.827 L
218.103 151.23 L
219.037 150.636 L
219.972 150.046 L
220.907 149.459 L
221.841 148.876 L
222.776 148.295 L
223.71 147.718 L
224.645 147.144 L
225.579 146.573 L
226.514 146.004 L
227.448 145.439 L
228.383 144.876 L
229.318 144.316 L
230.252 143.759 L
231.187 143.204 L
232.121 142.652 L
233.056 142.102 L
233.99 141.555 L
234.925 141.01 L
235.86 140.467 L
236.794 139.926 L
237.729 139.388 L
238.663 138.852 L
239.598 138.317 L
240.532 137.785 L
241.467 137.254 L
242.401 136.725 L
243.336 136.195 L
244.271 135.667 L
245.205 135.138 L
246.14 134.61 L
247.074 134.082 L
248.009 133.554 L
248.943 133.027 L
249.878 132.5 L
250.812 131.974 L
251.747 131.448 L
252.682 130.922 L
253.616 130.397 L
254.551 129.873 L
255.485 129.348 L
256.42 128.825 L
257.354 128.301 L
258.289 127.778 L
259.224 127.256 L
260.158 126.734 L
261.093 126.212 L
262.027 125.691 L
262.962 125.171 L
263.896 124.651 L
264.831 124.131 L
265.765 123.613 L
266.7 123.094 L
267.635 122.576 L
268.569 122.059 L
269.504 121.542 L
270.438 121.026 L
271.373 120.511 L
272.307 119.996 L
273.242 119.481 L
274.176 118.968 L
275.111 118.454 L
276.046 117.942 L
276.98 117.43 L
277.915 116.919 L
278.849 116.408 L
279.784 115.898 L
280.718 115.389 L
281.653 114.88 L
282.587 114.373 L
283.522 113.865 L
284.457 113.359 L
285.391 112.853 L
286.326 112.348 L
287.26 111.844 L
288.195 111.34 L
289.129 110.837 L
290.064 110.335 L
290.999 109.834 L
291.933 109.333 L
292.868 108.833 L
293.802 108.334 L
294.737 107.836 L
295.671 107.339 L
296.606 106.842 L
297.54 106.347 L
298.475 105.852 L
299.41 105.358 L
300.344 104.864 L
301.279 104.372 L
302.213 103.88 L
303.148 103.39 L
304.082 102.9 L
305.017 102.411 L
305.951 101.923 L
306.886 101.436 L
307.821 100.95 L
308.755 100.465 L
309.69 99.981 L
310.624 99.497 L
311.559 99.015 L
312.493 98.534 L
313.428 98.053 L
314.362 97.574 L
315.297 97.095 L
316.232 96.618 L
317.166 96.141 L
318.101 95.666 L
319.035 95.192 L
319.97 94.718 L
320.904 94.246 L
321.839 93.775 L
322.774 93.304 L
323.708 92.835 L
324.643 92.367 L
325.577 91.9 L
326.512 91.434 L
327.446 90.969 L
328.381 90.505 L
329.315 90.043 L
330.25 89.581 L
331.185 89.121 L
332.119 88.662 L
333.054 88.204 L
333.988 87.747 L
334.923 87.291 L
335.857 86.837 L
336.792 86.383 L
337.726 85.931 L
338.661 85.48 L
339.596 85.03 L
340.53 84.582 L
341.465 84.134 L
342.399 83.688 L
343.334 83.244 L
344.268 82.8 L
345.203 82.358 L
346.138 81.917 L
347.072 81.477 L
348.007 81.038 L
348.941 80.601 L
349.876 80.165 L
350.81 79.731 L
351.745 79.298 L
352.679 78.866 L
353.614 78.435 L
354.549 78.006 L
355.483 77.578 L
356.418 77.152 L
357.352 76.727 L
358.287 76.303 L
359.221 75.881 L
360.156 75.46 L
361.09 75.04 L
362.025 74.622 L
362.96 74.205 L
363.894 73.79 L
364.829 73.376 L
365.763 72.964 L
366.698 72.553 L
367.632 72.144 L
368.567 71.736 L
369.501 71.329 L
370.436 70.925 L
371.371 70.521 L
372.305 70.119 L
373.24 69.719 L
374.174 69.32 L
375.109 68.923 L
376.043 68.527 L
376.978 68.133 L
377.913 67.74 L
378.847 67.349 L
379.782 66.959 L
380.716 66.572 L
381.651 66.185 L
382.585 65.8 L
383.52 65.417 L
384.454 65.036 L
385.389 64.656 L
386.324 64.278 L
387.258 63.901 L
388.193 63.527 L
389.127 63.153 L
390.062 62.782 L
390.996 62.412 L
391.931 62.044 L
392.865 61.678 L
393.8 61.313 L
394.735 60.95 L
395.669 60.588 L
396.604 60.229 L
397.538 59.871 L
398.473 59.515 L
399.407 59.161 L
400.342 58.808 L
401.277 58.458 L
402.211 58.109 L
403.146 57.762 L
404.08 57.416 L
405.015 57.073 L
405.949 56.731 L
406.884 56.391 L
407.818 56.053 L
408.753 55.717 L
409.688 55.383 L
410.622 55.05 L
411.557 54.72 L
412.491 54.391 L
413.426 54.064 L
414.36 53.739 L
415.295 53.416 L
416.229 53.095 L
417.164 52.776 L
418.099 52.459 L
419.033 52.144 L
419.968 51.831 L
420.902 51.519 L
421.837 51.21 L
422.771 50.903 L
423.706 50.597 L
424.64 50.294 L
425.575 49.992 L
426.51 49.693 L
427.444 49.396 L
428.379 49.1 L
429.313 48.807 L
430.248 48.516 L
431.182 48.227 L
432.117 47.939 L
433.052 47.654 L
433.986 47.371 L
434.921 47.091 L
435.855 46.812 L
436.79 46.535 L
437.724 46.261 L
438.659 45.988 L
439.593 45.718 L
440.528 45.45 L
441.463 45.184 L
442.397 44.92 L
443.332 44.658 L
444.266 44.399 L
445.201 44.142 L
446.135 43.886 L
447.07 43.634 L
448.004 43.383 L
448.939 43.134 L
449.874 42.888 L
450.808 42.644 L
451.743 42.402 L
452.677 42.163 L
453.612 41.926 L
454.546 41.691 L
455.481 41.458 L
456.416 41.228 L
457.35 41 L
458.285 40.774 L
459.219 40.55 L
460.154 40.329 L
461.088 40.11 L
462.023 39.894 L
462.957 39.68 L
463.892 39.468 L
464.827 39.259 L
465.761 39.052 L
466.696 38.847 L
467.63 38.645 L
468.565 38.445 L
469.499 38.248 L
470.434 38.053 L
471.368 37.86 L
472.303 37.67 L
473.238 37.482 L
474.172 37.297 L
475.107 37.114 L
476.041 36.934 L
476.976 36.756 L
477.91 36.581 L
478.845 36.408 L
479.78 36.237 L
480.714 36.07 L
481.649 35.904 L
482.583 35.742 L
S
GR
GS
0.851 0.325 0.098 RC
[10 6] 0 setdash
2 LJ
0.5 LW
N
78.239 347.258 M
79.173 344.415 L
80.108 341.581 L
81.042 338.758 L
81.977 335.948 L
82.911 333.155 L
83.846 330.379 L
84.78 327.623 L
85.715 324.89 L
86.65 322.182 L
87.584 319.501 L
88.519 316.85 L
89.453 314.23 L
90.388 311.645 L
91.322 309.096 L
92.257 306.586 L
93.191 304.117 L
94.126 301.692 L
95.061 299.312 L
95.995 296.98 L
96.93 294.699 L
97.864 292.47 L
98.799 290.296 L
99.733 288.18 L
100.668 286.122 L
101.602 284.127 L
102.537 282.189 L
103.472 280.27 L
104.406 278.366 L
105.341 276.477 L
106.275 274.603 L
107.21 272.744 L
108.144 270.901 L
109.079 269.073 L
110.014 267.26 L
110.948 265.463 L
111.883 263.682 L
112.817 261.916 L
113.752 260.167 L
114.686 258.433 L
115.621 256.716 L
116.555 255.015 L
117.49 253.33 L
118.425 251.662 L
119.359 250.01 L
120.294 248.375 L
121.228 246.756 L
122.163 245.155 L
123.097 243.571 L
124.032 242.004 L
124.966 240.454 L
125.901 238.921 L
126.836 237.406 L
127.77 235.908 L
128.705 234.428 L
129.639 232.966 L
130.574 231.522 L
131.508 230.096 L
132.443 228.687 L
133.378 227.297 L
134.312 225.926 L
135.247 224.573 L
136.181 223.238 L
137.116 221.922 L
138.05 220.625 L
138.985 219.346 L
139.919 218.087 L
140.854 216.847 L
141.789 215.626 L
142.723 214.424 L
143.658 213.241 L
144.592 212.079 L
145.527 210.935 L
146.461 209.812 L
147.396 208.708 L
148.33 207.625 L
149.265 206.561 L
150.2 205.518 L
151.134 204.495 L
152.069 203.487 L
153.003 202.488 L
153.938 201.497 L
154.872 200.514 L
155.807 199.539 L
156.741 198.571 L
157.676 197.612 L
158.611 196.66 L
159.545 195.716 L
160.48 194.78 L
161.414 193.851 L
162.349 192.93 L
163.283 192.016 L
164.218 191.109 L
165.153 190.21 L
166.087 189.318 L
167.022 188.433 L
167.956 187.555 L
168.891 186.685 L
169.825 185.821 L
170.76 184.964 L
171.694 184.114 L
172.629 183.271 L
173.564 182.434 L
174.498 181.604 L
175.433 180.781 L
176.367 179.964 L
177.302 179.154 L
178.236 178.349 L
179.171 177.552 L
180.105 176.76 L
181.04 175.975 L
181.975 175.196 L
182.909 174.423 L
183.844 173.655 L
184.778 172.894 L
185.713 172.139 L
186.647 171.389 L
187.582 170.645 L
188.516 169.907 L
189.451 169.174 L
190.386 168.447 L
191.32 167.725 L
192.255 167.009 L
193.189 166.298 L
194.124 165.592 L
195.058 164.891 L
195.993 164.196 L
196.928 163.506 L
197.862 162.82 L
198.797 162.14 L
199.731 161.464 L
200.666 160.793 L
201.6 160.127 L
202.535 159.466 L
203.469 158.809 L
204.404 158.156 L
205.339 157.509 L
206.273 156.865 L
207.208 156.226 L
208.142 155.591 L
209.077 154.961 L
210.011 154.334 L
210.946 153.712 L
211.88 153.094 L
212.815 152.479 L
213.75 151.868 L
214.684 151.262 L
215.619 150.659 L
216.553 150.059 L
217.488 149.464 L
218.422 148.871 L
219.357 148.283 L
220.292 147.697 L
221.226 147.115 L
222.161 146.537 L
223.095 145.961 L
224.03 145.389 L
224.964 144.82 L
225.899 144.254 L
226.833 143.69 L
227.768 143.13 L
228.703 142.573 L
229.637 142.018 L
230.572 141.466 L
231.506 140.916 L
232.441 140.37 L
233.375 139.825 L
234.31 139.283 L
235.244 138.744 L
236.179 138.206 L
237.114 137.671 L
238.048 137.136 L
238.983 136.601 L
239.917 136.067 L
240.852 135.532 L
241.786 134.999 L
242.721 134.465 L
243.655 133.932 L
244.59 133.4 L
245.525 132.867 L
246.459 132.335 L
247.394 131.804 L
248.328 131.273 L
249.263 130.742 L
250.197 130.212 L
251.132 129.682 L
252.067 129.152 L
253.001 128.624 L
253.936 128.095 L
254.87 127.567 L
255.805 127.04 L
256.739 126.513 L
257.674 125.986 L
258.608 125.46 L
259.543 124.935 L
260.478 124.41 L
261.412 123.885 L
262.347 123.361 L
263.281 122.838 L
264.216 122.315 L
265.15 121.793 L
266.085 121.272 L
267.019 120.751 L
267.954 120.23 L
268.889 119.711 L
269.823 119.191 L
270.758 118.673 L
271.692 118.155 L
272.627 117.638 L
273.561 117.122 L
274.496 116.606 L
275.431 116.091 L
276.365 115.576 L
277.3 115.062 L
278.234 114.549 L
279.169 114.037 L
280.103 113.525 L
281.038 113.015 L
281.972 112.504 L
282.907 111.995 L
283.842 111.487 L
284.776 110.979 L
285.711 110.472 L
286.645 109.966 L
287.58 109.46 L
288.514 108.956 L
289.449 108.452 L
290.383 107.949 L
291.318 107.447 L
292.253 106.945 L
293.187 106.445 L
294.122 105.946 L
295.056 105.447 L
295.991 104.949 L
296.925 104.452 L
297.86 103.956 L
298.794 103.461 L
299.729 102.967 L
300.664 102.474 L
301.598 101.982 L
302.533 101.491 L
303.467 101.001 L
304.402 100.511 L
305.336 100.023 L
306.271 99.536 L
307.206 99.049 L
308.14 98.564 L
309.075 98.08 L
310.009 97.597 L
310.944 97.114 L
311.878 96.633 L
312.813 96.153 L
313.747 95.674 L
314.682 95.196 L
315.617 94.72 L
316.551 94.244 L
317.486 93.769 L
318.42 93.296 L
319.355 92.823 L
320.289 92.352 L
321.224 91.882 L
322.158 91.413 L
323.093 90.945 L
324.028 90.479 L
324.962 90.013 L
325.897 89.549 L
326.831 89.086 L
327.766 88.624 L
328.7 88.164 L
329.635 87.704 L
330.569 87.246 L
331.504 86.789 L
332.439 86.334 L
333.373 85.879 L
334.308 85.426 L
335.242 84.974 L
336.177 84.524 L
337.111 84.075 L
338.046 83.627 L
338.981 83.18 L
339.915 82.735 L
340.85 82.291 L
341.784 81.849 L
342.719 81.408 L
343.653 80.968 L
344.588 80.53 L
345.522 80.093 L
346.457 79.657 L
347.392 79.223 L
348.326 78.79 L
349.261 78.359 L
350.195 77.929 L
351.13 77.501 L
352.064 77.074 L
352.999 76.648 L
353.933 76.224 L
354.868 75.802 L
355.803 75.381 L
356.737 74.961 L
357.672 74.543 L
358.606 74.126 L
359.541 73.712 L
360.475 73.298 L
361.41 72.886 L
362.345 72.476 L
363.279 72.067 L
364.214 71.66 L
365.148 71.255 L
366.083 70.851 L
367.017 70.448 L
367.952 70.047 L
368.886 69.648 L
369.821 69.251 L
370.756 68.855 L
371.69 68.461 L
372.625 68.068 L
373.559 67.678 L
374.494 67.288 L
375.428 66.901 L
376.363 66.515 L
377.297 66.131 L
378.232 65.749 L
379.167 65.368 L
380.101 64.99 L
381.036 64.613 L
381.97 64.237 L
382.905 63.864 L
383.839 63.492 L
384.774 63.122 L
385.708 62.754 L
386.643 62.387 L
387.578 62.023 L
388.512 61.66 L
389.447 61.299 L
390.381 60.94 L
391.316 60.583 L
392.25 60.228 L
393.185 59.874 L
394.12 59.523 L
395.054 59.173 L
395.989 58.825 L
396.923 58.479 L
397.858 58.136 L
398.792 57.793 L
399.727 57.453 L
400.661 57.115 L
401.596 56.779 L
402.531 56.445 L
403.465 56.113 L
404.4 55.783 L
405.334 55.454 L
406.269 55.128 L
407.203 54.804 L
408.138 54.482 L
409.072 54.162 L
410.007 53.844 L
410.942 53.528 L
411.876 53.214 L
412.811 52.902 L
413.745 52.592 L
414.68 52.284 L
415.614 51.978 L
416.549 51.675 L
417.484 51.374 L
418.418 51.074 L
419.353 50.777 L
420.287 50.482 L
421.222 50.189 L
422.156 49.899 L
423.091 49.61 L
424.025 49.324 L
424.96 49.04 L
425.895 48.758 L
426.829 48.478 L
427.764 48.201 L
428.698 47.926 L
429.633 47.653 L
430.567 47.382 L
431.502 47.113 L
432.436 46.847 L
433.371 46.583 L
434.306 46.322 L
435.24 46.062 L
436.175 45.805 L
437.109 45.551 L
438.044 45.298 L
438.978 45.048 L
439.913 44.801 L
440.848 44.555 L
441.782 44.312 L
442.717 44.072 L
443.651 43.834 L
444.586 43.598 L
445.52 43.364 L
446.455 43.133 L
447.389 42.905 L
448.324 42.679 L
449.259 42.455 L
450.193 42.234 L
451.128 42.015 L
452.062 41.799 L
452.997 41.585 L
453.931 41.374 L
454.866 41.165 L
455.8 40.958 L
456.735 40.754 L
457.67 40.553 L
458.604 40.354 L
459.539 40.158 L
460.473 39.965 L
461.408 39.773 L
462.342 39.585 L
463.277 39.399 L
464.211 39.216 L
465.146 39.035 L
466.081 38.857 L
467.015 38.681 L
467.95 38.508 L
468.884 38.338 L
469.819 38.171 L
470.753 38.006 L
471.688 37.843 L
472.622 37.684 L
473.557 37.527 L
474.492 37.373 L
475.426 37.221 L
476.361 37.072 L
S
GR
GS
1 GC
N
499 366 M
499 218.5 L
327.5 218.5 L
327.5 366 L
cp
f
GR
GS
[1 0 0 1 364.5 228.25] CT
/Helvetica 13 F
GS
[1 0 0 1 0 0] CT
0 5 moveto 
1 -1 scale
(Base Run) t 
GR
GR
GS
0 0.447 0.741 RC
1 LJ
0.5 LW
N
331.5 228.25 M
361.5 228.25 L
S
GR
GS
[1 0 0 1 364.5 244.25] CT
/Helvetica 13 F
GS
[1 0 0 1 0 0] CT
0 5 moveto 
1 -1 scale
(All Frames) t 
GR
GR
GS
0.851 0.325 0.098 RC
1 LJ
0.5 LW
N
331.5 244.25 M
361.5 244.25 L
S
GR
GS
[1 0 0 1 364.5 260.25] CT
/Helvetica 13 F
GS
[1 0 0 1 0 0] CT
0 5 moveto 
1 -1 scale
(KF Only) t 
GR
GR
GS
0.929 0.694 0.125 RC
1 LJ
0.5 LW
N
331.5 260.25 M
361.5 260.25 L
S
GR
GS
[1 0 0 1 364.5 276.25] CT
/Helvetica 13 F
GS
[1 0 0 1 0 0] CT
0 5 moveto 
1 -1 scale
(GF, ARF Only) t 
GR
GR
GS
0.494 0.184 0.557 RC
1 LJ
0.5 LW
N
331.5 276.25 M
361.5 276.25 L
S
GR
GS
[1 0 0 1 364.5 292.25] CT
/Helvetica 13 F
GS
[1 0 0 1 0 0] CT
0 5 moveto 
1 -1 scale
(KF, GF, ARF Only) t 
GR
GR
GS
0.467 0.675 0.188 RC
1 LJ
0.5 LW
N
331.5 292.25 M
361.5 292.25 L
S
GR
GS
[1 0 0 1 364.5 308.25] CT
/Helvetica 13 F
GS
[1 0 0 1 0 0] CT
0 5 moveto 
1 -1 scale
(Part All Frames) t 
GR
GR
GS
0.302 0.745 0.933 RC
[10 6] 0 setdash
2 LJ
0.5 LW
N
331.5 308.25 M
361.5 308.25 L
S
GR
GS
[1 0 0 1 364.5 324.25] CT
/Helvetica 13 F
GS
[1 0 0 1 0 0] CT
0 5 moveto 
1 -1 scale
(Part KF Only) t 
GR
GR
GS
0.635 0.078 0.184 RC
[10 6] 0 setdash
2 LJ
0.5 LW
N
331.5 324.25 M
361.5 324.25 L
S
GR
GS
[1 0 0 1 364.5 340.25] CT
/Helvetica 13 F
GS
[1 0 0 1 0 0] CT
0 5 moveto 
1 -1 scale
(Part GF, ARF Only) t 
GR
GR
GS
0 0.447 0.741 RC
[10 6] 0 setdash
2 LJ
0.5 LW
N
331.5 340.25 M
361.5 340.25 L
S
GR
GS
[1 0 0 1 364.5 356.25] CT
/Helvetica 13 F
GS
[1 0 0 1 0 0] CT
0 5 moveto 
1 -1 scale
(Part KF, GF, ARF Only) t 
GR
GR
GS
0.851 0.325 0.098 RC
[10 6] 0 setdash
2 LJ
0.5 LW
N
331.5 356.25 M
361.5 356.25 L
S
GR
GS
0.149 GC
10.0 ML
0.5 LW
N
327.5 366 M
327.5 218.5 L
499 218.5 L
499 366 L
cp
S
GR
%%Trailer
%%Pages: 1
%%EOF
