%!PS-Adobe-3.0 EPSF-3.0
%%Creator: (MATLAB, The Mathworks, Inc. Version 9.11.0.1837725 \(R2021b\) Update 2. Operating System: Mac OS X)
%%Title: plots/pchip/Vlog_1080P-58ad.y4m-av1-APSNRV.eps
%%CreationDate: 2022-02-03T19:13:51
%%Pages: (atend)
%%BoundingBox:    33   425   508   826
%%LanguageLevel: 3
%%EndComments
%%BeginProlog
%%BeginResource: procset (Apache XML Graphics Std ProcSet) 1.2 0
%%Version: 1.2 0
%%Copyright: (Copyright 2001-2003,2010 The Apache Software Foundation. License terms: http://www.apache.org/licenses/LICENSE-2.0)
/bd{bind def}bind def
/ld{load def}bd
/GR/grestore ld
/GS/gsave ld
/RM/rmoveto ld
/C/curveto ld
/t/show ld
/L/lineto ld
/ML/setmiterlimit ld
/CT/concat ld
/f/fill ld
/N/newpath ld
/S/stroke ld
/CC/setcmykcolor ld
/A/ashow ld
/cp/closepath ld
/RC/setrgbcolor ld
/LJ/setlinejoin ld
/GC/setgray ld
/LW/setlinewidth ld
/M/moveto ld
/re {4 2 roll M
1 index 0 rlineto
0 exch rlineto
neg 0 rlineto
cp } bd
/_ctm matrix def
/_tm matrix def
/BT { _ctm currentmatrix pop matrix _tm copy pop 0 0 moveto } bd
/ET { _ctm setmatrix } bd
/iTm { _ctm setmatrix _tm concat } bd
/Tm { _tm astore pop iTm 0 0 moveto } bd
/ux 0.0 def
/uy 0.0 def
/F {
  /Tp exch def
  /Tf exch def
  Tf findfont Tp scalefont setfont
  /cf Tf def  /cs Tp def
} bd
/ULS {currentpoint /uy exch def /ux exch def} bd
/ULE {
  /Tcx currentpoint pop def
  gsave
  newpath
  cf findfont cs scalefont dup
  /FontMatrix get 0 get /Ts exch def /FontInfo get dup
  /UnderlinePosition get Ts mul /To exch def
  /UnderlineThickness get Ts mul /Tt exch def
  ux uy To add moveto  Tcx uy To add lineto
  Tt setlinewidth stroke
  grestore
} bd
/OLE {
  /Tcx currentpoint pop def
  gsave
  newpath
  cf findfont cs scalefont dup
  /FontMatrix get 0 get /Ts exch def /FontInfo get dup
  /UnderlinePosition get Ts mul /To exch def
  /UnderlineThickness get Ts mul /Tt exch def
  ux uy To add cs add moveto Tcx uy To add cs add lineto
  Tt setlinewidth stroke
  grestore
} bd
/SOE {
  /Tcx currentpoint pop def
  gsave
  newpath
  cf findfont cs scalefont dup
  /FontMatrix get 0 get /Ts exch def /FontInfo get dup
  /UnderlinePosition get Ts mul /To exch def
  /UnderlineThickness get Ts mul /Tt exch def
  ux uy To add cs 10 mul 26 idiv add moveto Tcx uy To add cs 10 mul 26 idiv add lineto
  Tt setlinewidth stroke
  grestore
} bd
/QT {
/Y22 exch store
/X22 exch store
/Y21 exch store
/X21 exch store
currentpoint
/Y21 load 2 mul add 3 div exch
/X21 load 2 mul add 3 div exch
/X21 load 2 mul /X22 load add 3 div
/Y21 load 2 mul /Y22 load add 3 div
/X22 load /Y22 load curveto
} bd
/SSPD {
dup length /d exch dict def
{
/v exch def
/k exch def
currentpagedevice k known {
/cpdv currentpagedevice k get def
v cpdv ne {
/upd false def
/nullv v type /nulltype eq def
/nullcpdv cpdv type /nulltype eq def
nullv nullcpdv or
{
/upd true def
} {
/sametype v type cpdv type eq def
sametype {
v type /arraytype eq {
/vlen v length def
/cpdvlen cpdv length def
vlen cpdvlen eq {
0 1 vlen 1 sub {
/i exch def
/obj v i get def
/cpdobj cpdv i get def
obj cpdobj ne {
/upd true def
exit
} if
} for
} {
/upd true def
} ifelse
} {
v type /dicttype eq {
v {
/dv exch def
/dk exch def
/cpddv cpdv dk get def
dv cpddv ne {
/upd true def
exit
} if
} forall
} {
/upd true def
} ifelse
} ifelse
} if
} ifelse
upd true eq {
d k v put
} if
} if
} if
} forall
d length 0 gt {
d setpagedevice
} if
} bd
/RE { % /NewFontName [NewEncodingArray] /FontName RE -
  findfont dup length dict begin
  {
    1 index /FID ne
    {def} {pop pop} ifelse
  } forall
  /Encoding exch def
  /FontName 1 index def
  currentdict definefont pop
  end
} bind def
%%EndResource
%%BeginResource: procset (Apache XML Graphics EPS ProcSet) 1.0 0
%%Version: 1.0 0
%%Copyright: (Copyright 2002-2003 The Apache Software Foundation. License terms: http://www.apache.org/licenses/LICENSE-2.0)
/BeginEPSF { %def
/b4_Inc_state save def         % Save state for cleanup
/dict_count countdictstack def % Count objects on dict stack
/op_count count 1 sub def      % Count objects on operand stack
userdict begin                 % Push userdict on dict stack
/showpage { } def              % Redefine showpage, { } = null proc
0 setgray 0 setlinecap         % Prepare graphics state
1 setlinewidth 0 setlinejoin
10 setmiterlimit [ ] 0 setdash newpath
/languagelevel where           % If level not equal to 1 then
{pop languagelevel             % set strokeadjust and
1 ne                           % overprint to their defaults.
{false setstrokeadjust false setoverprint
} if
} if
} bd
/EndEPSF { %def
count op_count sub {pop} repeat            % Clean up stacks
countdictstack dict_count sub {end} repeat
b4_Inc_state restore
} bd
%%EndResource
%FOPBeginFontDict
%%IncludeResource: font Courier-Oblique
%%IncludeResource: font Courier-BoldOblique
%%IncludeResource: font Courier-Bold
%%IncludeResource: font ZapfDingbats
%%IncludeResource: font Symbol
%%IncludeResource: font Helvetica
%%IncludeResource: font Helvetica-Oblique
%%IncludeResource: font Helvetica-Bold
%%IncludeResource: font Helvetica-BoldOblique
%%IncludeResource: font Times-Roman
%%IncludeResource: font Times-Italic
%%IncludeResource: font Times-Bold
%%IncludeResource: font Times-BoldItalic
%%IncludeResource: font Courier
%FOPEndFontDict
%%BeginResource: encoding WinAnsiEncoding
/WinAnsiEncoding [
/.notdef /.notdef /.notdef /.notdef /.notdef
/.notdef /.notdef /.notdef /.notdef /.notdef
/.notdef /.notdef /.notdef /.notdef /.notdef
/.notdef /.notdef /.notdef /.notdef /.notdef
/.notdef /.notdef /.notdef /.notdef /.notdef
/.notdef /.notdef /.notdef /.notdef /.notdef
/.notdef /.notdef /space /exclam /quotedbl
/numbersign /dollar /percent /ampersand /quotesingle
/parenleft /parenright /asterisk /plus /comma
/hyphen /period /slash /zero /one
/two /three /four /five /six
/seven /eight /nine /colon /semicolon
/less /equal /greater /question /at
/A /B /C /D /E
/F /G /H /I /J
/K /L /M /N /O
/P /Q /R /S /T
/U /V /W /X /Y
/Z /bracketleft /backslash /bracketright /asciicircum
/underscore /quoteleft /a /b /c
/d /e /f /g /h
/i /j /k /l /m
/n /o /p /q /r
/s /t /u /v /w
/x /y /z /braceleft /bar
/braceright /asciitilde /bullet /Euro /bullet
/quotesinglbase /florin /quotedblbase /ellipsis /dagger
/daggerdbl /circumflex /perthousand /Scaron /guilsinglleft
/OE /bullet /Zcaron /bullet /bullet
/quoteleft /quoteright /quotedblleft /quotedblright /bullet
/endash /emdash /asciitilde /trademark /scaron
/guilsinglright /oe /bullet /zcaron /Ydieresis
/space /exclamdown /cent /sterling /currency
/yen /brokenbar /section /dieresis /copyright
/ordfeminine /guillemotleft /logicalnot /sfthyphen /registered
/macron /degree /plusminus /twosuperior /threesuperior
/acute /mu /paragraph /middot /cedilla
/onesuperior /ordmasculine /guillemotright /onequarter /onehalf
/threequarters /questiondown /Agrave /Aacute /Acircumflex
/Atilde /Adieresis /Aring /AE /Ccedilla
/Egrave /Eacute /Ecircumflex /Edieresis /Igrave
/Iacute /Icircumflex /Idieresis /Eth /Ntilde
/Ograve /Oacute /Ocircumflex /Otilde /Odieresis
/multiply /Oslash /Ugrave /Uacute /Ucircumflex
/Udieresis /Yacute /Thorn /germandbls /agrave
/aacute /acircumflex /atilde /adieresis /aring
/ae /ccedilla /egrave /eacute /ecircumflex
/edieresis /igrave /iacute /icircumflex /idieresis
/eth /ntilde /ograve /oacute /ocircumflex
/otilde /odieresis /divide /oslash /ugrave
/uacute /ucircumflex /udieresis /yacute /thorn
/ydieresis
] def
%%EndResource
%FOPBeginFontReencode
/Courier-Oblique findfont
dup length dict begin
  {1 index /FID ne {def} {pop pop} ifelse} forall
  /Encoding WinAnsiEncoding def
  currentdict
end
/Courier-Oblique exch definefont pop
/Courier-BoldOblique findfont
dup length dict begin
  {1 index /FID ne {def} {pop pop} ifelse} forall
  /Encoding WinAnsiEncoding def
  currentdict
end
/Courier-BoldOblique exch definefont pop
/Courier-Bold findfont
dup length dict begin
  {1 index /FID ne {def} {pop pop} ifelse} forall
  /Encoding WinAnsiEncoding def
  currentdict
end
/Courier-Bold exch definefont pop
/Helvetica findfont
dup length dict begin
  {1 index /FID ne {def} {pop pop} ifelse} forall
  /Encoding WinAnsiEncoding def
  currentdict
end
/Helvetica exch definefont pop
/Helvetica-Oblique findfont
dup length dict begin
  {1 index /FID ne {def} {pop pop} ifelse} forall
  /Encoding WinAnsiEncoding def
  currentdict
end
/Helvetica-Oblique exch definefont pop
/Helvetica-Bold findfont
dup length dict begin
  {1 index /FID ne {def} {pop pop} ifelse} forall
  /Encoding WinAnsiEncoding def
  currentdict
end
/Helvetica-Bold exch definefont pop
/Helvetica-BoldOblique findfont
dup length dict begin
  {1 index /FID ne {def} {pop pop} ifelse} forall
  /Encoding WinAnsiEncoding def
  currentdict
end
/Helvetica-BoldOblique exch definefont pop
/Times-Roman findfont
dup length dict begin
  {1 index /FID ne {def} {pop pop} ifelse} forall
  /Encoding WinAnsiEncoding def
  currentdict
end
/Times-Roman exch definefont pop
/Times-Italic findfont
dup length dict begin
  {1 index /FID ne {def} {pop pop} ifelse} forall
  /Encoding WinAnsiEncoding def
  currentdict
end
/Times-Italic exch definefont pop
/Times-Bold findfont
dup length dict begin
  {1 index /FID ne {def} {pop pop} ifelse} forall
  /Encoding WinAnsiEncoding def
  currentdict
end
/Times-Bold exch definefont pop
/Times-BoldItalic findfont
dup length dict begin
  {1 index /FID ne {def} {pop pop} ifelse} forall
  /Encoding WinAnsiEncoding def
  currentdict
end
/Times-BoldItalic exch definefont pop
/Courier findfont
dup length dict begin
  {1 index /FID ne {def} {pop pop} ifelse} forall
  /Encoding WinAnsiEncoding def
  currentdict
end
/Courier exch definefont pop
%FOPEndFontReencode
%%EndProlog
%%Page: 1 1
%%PageBoundingBox: 0 0 1120 840
%%BeginPageSetup
[1 0 0 -1 0 840] CT
%%EndPageSetup
GS
1 GC
N
0 0 1120 840 re
f
GR
GS
1 GC
N
73 374 M
507 374 L
507 31.5 L
73 31.5 L
cp
f
GR
GS
0.149 GC
2 setlinecap
1 LJ
0.5 LW
N
73 374 M
507 374 L
S
GR
GS
0.149 GC
2 setlinecap
1 LJ
0.5 LW
N
73 31.5 M
507 31.5 L
S
GR
GS
0.149 GC
2 setlinecap
1 LJ
0.5 LW
N
94.338 374 M
94.338 369.66 L
S
GR
GS
0.149 GC
2 setlinecap
1 LJ
0.5 LW
N
141.066 374 M
141.066 369.66 L
S
GR
GS
0.149 GC
2 setlinecap
1 LJ
0.5 LW
N
187.794 374 M
187.794 369.66 L
S
GR
GS
0.149 GC
2 setlinecap
1 LJ
0.5 LW
N
234.522 374 M
234.522 369.66 L
S
GR
GS
0.149 GC
2 setlinecap
1 LJ
0.5 LW
N
281.25 374 M
281.25 369.66 L
S
GR
GS
0.149 GC
2 setlinecap
1 LJ
0.5 LW
N
327.978 374 M
327.978 369.66 L
S
GR
GS
0.149 GC
2 setlinecap
1 LJ
0.5 LW
N
374.706 374 M
374.706 369.66 L
S
GR
GS
0.149 GC
2 setlinecap
1 LJ
0.5 LW
N
421.434 374 M
421.434 369.66 L
S
GR
GS
0.149 GC
2 setlinecap
1 LJ
0.5 LW
N
468.161 374 M
468.161 369.66 L
S
GR
GS
0.149 GC
2 setlinecap
1 LJ
0.5 LW
N
94.338 31.5 M
94.338 35.84 L
S
GR
GS
0.149 GC
2 setlinecap
1 LJ
0.5 LW
N
141.066 31.5 M
141.066 35.84 L
S
GR
GS
0.149 GC
2 setlinecap
1 LJ
0.5 LW
N
187.794 31.5 M
187.794 35.84 L
S
GR
GS
0.149 GC
2 setlinecap
1 LJ
0.5 LW
N
234.522 31.5 M
234.522 35.84 L
S
GR
GS
0.149 GC
2 setlinecap
1 LJ
0.5 LW
N
281.25 31.5 M
281.25 35.84 L
S
GR
GS
0.149 GC
2 setlinecap
1 LJ
0.5 LW
N
327.978 31.5 M
327.978 35.84 L
S
GR
GS
0.149 GC
2 setlinecap
1 LJ
0.5 LW
N
374.706 31.5 M
374.706 35.84 L
S
GR
GS
0.149 GC
2 setlinecap
1 LJ
0.5 LW
N
421.434 31.5 M
421.434 35.84 L
S
GR
GS
0.149 GC
2 setlinecap
1 LJ
0.5 LW
N
468.161 31.5 M
468.161 35.84 L
S
GR
GS
0.149 GC
2 setlinecap
1 LJ
0.5 LW
N
75.647 374 M
75.647 371.83 L
S
GR
GS
0.149 GC
2 setlinecap
1 LJ
0.5 LW
N
84.992 374 M
84.992 371.83 L
S
GR
GS
0.149 GC
2 setlinecap
1 LJ
0.5 LW
N
103.683 374 M
103.683 371.83 L
S
GR
GS
0.149 GC
2 setlinecap
1 LJ
0.5 LW
N
113.029 374 M
113.029 371.83 L
S
GR
GS
0.149 GC
2 setlinecap
1 LJ
0.5 LW
N
122.375 374 M
122.375 371.83 L
S
GR
GS
0.149 GC
2 setlinecap
1 LJ
0.5 LW
N
131.72 374 M
131.72 371.83 L
S
GR
GS
0.149 GC
2 setlinecap
1 LJ
0.5 LW
N
150.411 374 M
150.411 371.83 L
S
GR
GS
0.149 GC
2 setlinecap
1 LJ
0.5 LW
N
159.757 374 M
159.757 371.83 L
S
GR
GS
0.149 GC
2 setlinecap
1 LJ
0.5 LW
N
169.103 374 M
169.103 371.83 L
S
GR
GS
0.149 GC
2 setlinecap
1 LJ
0.5 LW
N
178.448 374 M
178.448 371.83 L
S
GR
GS
0.149 GC
2 setlinecap
1 LJ
0.5 LW
N
197.139 374 M
197.139 371.83 L
S
GR
GS
0.149 GC
2 setlinecap
1 LJ
0.5 LW
N
206.485 374 M
206.485 371.83 L
S
GR
GS
0.149 GC
2 setlinecap
1 LJ
0.5 LW
N
215.831 374 M
215.831 371.83 L
S
GR
GS
0.149 GC
2 setlinecap
1 LJ
0.5 LW
N
225.176 374 M
225.176 371.83 L
S
GR
GS
0.149 GC
2 setlinecap
1 LJ
0.5 LW
N
243.867 374 M
243.867 371.83 L
S
GR
GS
0.149 GC
2 setlinecap
1 LJ
0.5 LW
N
253.213 374 M
253.213 371.83 L
S
GR
GS
0.149 GC
2 setlinecap
1 LJ
0.5 LW
N
262.558 374 M
262.558 371.83 L
S
GR
GS
0.149 GC
2 setlinecap
1 LJ
0.5 LW
N
271.904 374 M
271.904 371.83 L
S
GR
GS
0.149 GC
2 setlinecap
1 LJ
0.5 LW
N
290.595 374 M
290.595 371.83 L
S
GR
GS
0.149 GC
2 setlinecap
1 LJ
0.5 LW
N
299.941 374 M
299.941 371.83 L
S
GR
GS
0.149 GC
2 setlinecap
1 LJ
0.5 LW
N
309.286 374 M
309.286 371.83 L
S
GR
GS
0.149 GC
2 setlinecap
1 LJ
0.5 LW
N
318.632 374 M
318.632 371.83 L
S
GR
GS
0.149 GC
2 setlinecap
1 LJ
0.5 LW
N
337.323 374 M
337.323 371.83 L
S
GR
GS
0.149 GC
2 setlinecap
1 LJ
0.5 LW
N
346.669 374 M
346.669 371.83 L
S
GR
GS
0.149 GC
2 setlinecap
1 LJ
0.5 LW
N
356.014 374 M
356.014 371.83 L
S
GR
GS
0.149 GC
2 setlinecap
1 LJ
0.5 LW
N
365.36 374 M
365.36 371.83 L
S
GR
GS
0.149 GC
2 setlinecap
1 LJ
0.5 LW
N
384.051 374 M
384.051 371.83 L
S
GR
GS
0.149 GC
2 setlinecap
1 LJ
0.5 LW
N
393.397 374 M
393.397 371.83 L
S
GR
GS
0.149 GC
2 setlinecap
1 LJ
0.5 LW
N
402.742 374 M
402.742 371.83 L
S
GR
GS
0.149 GC
2 setlinecap
1 LJ
0.5 LW
N
412.088 374 M
412.088 371.83 L
S
GR
GS
0.149 GC
2 setlinecap
1 LJ
0.5 LW
N
430.779 374 M
430.779 371.83 L
S
GR
GS
0.149 GC
2 setlinecap
1 LJ
0.5 LW
N
440.125 374 M
440.125 371.83 L
S
GR
GS
0.149 GC
2 setlinecap
1 LJ
0.5 LW
N
449.47 374 M
449.47 371.83 L
S
GR
GS
0.149 GC
2 setlinecap
1 LJ
0.5 LW
N
458.816 374 M
458.816 371.83 L
S
GR
GS
0.149 GC
2 setlinecap
1 LJ
0.5 LW
N
477.507 374 M
477.507 371.83 L
S
GR
GS
0.149 GC
2 setlinecap
1 LJ
0.5 LW
N
486.853 374 M
486.853 371.83 L
S
GR
GS
0.149 GC
2 setlinecap
1 LJ
0.5 LW
N
496.198 374 M
496.198 371.83 L
S
GR
GS
0.149 GC
2 setlinecap
1 LJ
0.5 LW
N
505.544 374 M
505.544 371.83 L
S
GR
GS
0.149 GC
2 setlinecap
1 LJ
0.5 LW
N
75.647 31.5 M
75.647 33.67 L
S
GR
GS
0.149 GC
2 setlinecap
1 LJ
0.5 LW
N
84.992 31.5 M
84.992 33.67 L
S
GR
GS
0.149 GC
2 setlinecap
1 LJ
0.5 LW
N
103.683 31.5 M
103.683 33.67 L
S
GR
GS
0.149 GC
2 setlinecap
1 LJ
0.5 LW
N
113.029 31.5 M
113.029 33.67 L
S
GR
GS
0.149 GC
2 setlinecap
1 LJ
0.5 LW
N
122.375 31.5 M
122.375 33.67 L
S
GR
GS
0.149 GC
2 setlinecap
1 LJ
0.5 LW
N
131.72 31.5 M
131.72 33.67 L
S
GR
GS
0.149 GC
2 setlinecap
1 LJ
0.5 LW
N
150.411 31.5 M
150.411 33.67 L
S
GR
GS
0.149 GC
2 setlinecap
1 LJ
0.5 LW
N
159.757 31.5 M
159.757 33.67 L
S
GR
GS
0.149 GC
2 setlinecap
1 LJ
0.5 LW
N
169.103 31.5 M
169.103 33.67 L
S
GR
GS
0.149 GC
2 setlinecap
1 LJ
0.5 LW
N
178.448 31.5 M
178.448 33.67 L
S
GR
GS
0.149 GC
2 setlinecap
1 LJ
0.5 LW
N
197.139 31.5 M
197.139 33.67 L
S
GR
GS
0.149 GC
2 setlinecap
1 LJ
0.5 LW
N
206.485 31.5 M
206.485 33.67 L
S
GR
GS
0.149 GC
2 setlinecap
1 LJ
0.5 LW
N
215.831 31.5 M
215.831 33.67 L
S
GR
GS
0.149 GC
2 setlinecap
1 LJ
0.5 LW
N
225.176 31.5 M
225.176 33.67 L
S
GR
GS
0.149 GC
2 setlinecap
1 LJ
0.5 LW
N
243.867 31.5 M
243.867 33.67 L
S
GR
GS
0.149 GC
2 setlinecap
1 LJ
0.5 LW
N
253.213 31.5 M
253.213 33.67 L
S
GR
GS
0.149 GC
2 setlinecap
1 LJ
0.5 LW
N
262.558 31.5 M
262.558 33.67 L
S
GR
GS
0.149 GC
2 setlinecap
1 LJ
0.5 LW
N
271.904 31.5 M
271.904 33.67 L
S
GR
GS
0.149 GC
2 setlinecap
1 LJ
0.5 LW
N
290.595 31.5 M
290.595 33.67 L
S
GR
GS
0.149 GC
2 setlinecap
1 LJ
0.5 LW
N
299.941 31.5 M
299.941 33.67 L
S
GR
GS
0.149 GC
2 setlinecap
1 LJ
0.5 LW
N
309.286 31.5 M
309.286 33.67 L
S
GR
GS
0.149 GC
2 setlinecap
1 LJ
0.5 LW
N
318.632 31.5 M
318.632 33.67 L
S
GR
GS
0.149 GC
2 setlinecap
1 LJ
0.5 LW
N
337.323 31.5 M
337.323 33.67 L
S
GR
GS
0.149 GC
2 setlinecap
1 LJ
0.5 LW
N
346.669 31.5 M
346.669 33.67 L
S
GR
GS
0.149 GC
2 setlinecap
1 LJ
0.5 LW
N
356.014 31.5 M
356.014 33.67 L
S
GR
GS
0.149 GC
2 setlinecap
1 LJ
0.5 LW
N
365.36 31.5 M
365.36 33.67 L
S
GR
GS
0.149 GC
2 setlinecap
1 LJ
0.5 LW
N
384.051 31.5 M
384.051 33.67 L
S
GR
GS
0.149 GC
2 setlinecap
1 LJ
0.5 LW
N
393.397 31.5 M
393.397 33.67 L
S
GR
GS
0.149 GC
2 setlinecap
1 LJ
0.5 LW
N
402.742 31.5 M
402.742 33.67 L
S
GR
GS
0.149 GC
2 setlinecap
1 LJ
0.5 LW
N
412.088 31.5 M
412.088 33.67 L
S
GR
GS
0.149 GC
2 setlinecap
1 LJ
0.5 LW
N
430.779 31.5 M
430.779 33.67 L
S
GR
GS
0.149 GC
2 setlinecap
1 LJ
0.5 LW
N
440.125 31.5 M
440.125 33.67 L
S
GR
GS
0.149 GC
2 setlinecap
1 LJ
0.5 LW
N
449.47 31.5 M
449.47 33.67 L
S
GR
GS
0.149 GC
2 setlinecap
1 LJ
0.5 LW
N
458.816 31.5 M
458.816 33.67 L
S
GR
GS
0.149 GC
2 setlinecap
1 LJ
0.5 LW
N
477.507 31.5 M
477.507 33.67 L
S
GR
GS
0.149 GC
2 setlinecap
1 LJ
0.5 LW
N
486.853 31.5 M
486.853 33.67 L
S
GR
GS
0.149 GC
2 setlinecap
1 LJ
0.5 LW
N
496.198 31.5 M
496.198 33.67 L
S
GR
GS
0.149 GC
2 setlinecap
1 LJ
0.5 LW
N
505.544 31.5 M
505.544 33.67 L
S
GR
GS
[1 0 0 1 94.3378 378.80008] CT
0.149 GC
/Helvetica 14 F
GS
[1 0 0 1 0 0] CT
-16 14 moveto 
1 -1 scale
(1000) t 
GR
GR
GS
[1 0 0 1 141.06577 378.80008] CT
0.149 GC
/Helvetica 14 F
GS
[1 0 0 1 0 0] CT
-16 14 moveto 
1 -1 scale
(2000) t 
GR
GR
GS
[1 0 0 1 187.79372 378.80008] CT
0.149 GC
/Helvetica 14 F
GS
[1 0 0 1 0 0] CT
-16 14 moveto 
1 -1 scale
(3000) t 
GR
GR
GS
[1 0 0 1 234.52168 378.80008] CT
0.149 GC
/Helvetica 14 F
GS
[1 0 0 1 0 0] CT
-16 14 moveto 
1 -1 scale
(4000) t 
GR
GR
GS
[1 0 0 1 281.24963 378.80008] CT
0.149 GC
/Helvetica 14 F
GS
[1 0 0 1 0 0] CT
-16 14 moveto 
1 -1 scale
(5000) t 
GR
GR
GS
[1 0 0 1 327.9776 378.80008] CT
0.149 GC
/Helvetica 14 F
GS
[1 0 0 1 0 0] CT
-16 14 moveto 
1 -1 scale
(6000) t 
GR
GR
GS
[1 0 0 1 374.70557 378.80008] CT
0.149 GC
/Helvetica 14 F
GS
[1 0 0 1 0 0] CT
-16 14 moveto 
1 -1 scale
(7000) t 
GR
GR
GS
[1 0 0 1 421.43353 378.80008] CT
0.149 GC
/Helvetica 14 F
GS
[1 0 0 1 0 0] CT
-16 14 moveto 
1 -1 scale
(8000) t 
GR
GR
GS
[1 0 0 1 468.1615 378.80008] CT
0.149 GC
/Helvetica 14 F
GS
[1 0 0 1 0 0] CT
-16 14 moveto 
1 -1 scale
(9000) t 
GR
GR
GS
[1 0 0 1 290.00021 396.30002] CT
0.149 GC
/Helvetica 15.4 F
GS
[1 0 0 1 0 0] CT
-42 15 moveto 
1 -1 scale
(Bitrate\(kb/s\)) t 
GR
GR
GS
0.149 GC
2 setlinecap
1 LJ
0.5 LW
N
73 374 M
73 31.5 L
S
GR
GS
0.149 GC
2 setlinecap
1 LJ
0.5 LW
N
507 374 M
507 31.5 L
S
GR
GS
0.149 GC
2 setlinecap
1 LJ
0.5 LW
N
73 343.866 M
77.34 343.866 L
S
GR
GS
0.149 GC
2 setlinecap
1 LJ
0.5 LW
N
73 309.593 M
77.34 309.593 L
S
GR
GS
0.149 GC
2 setlinecap
1 LJ
0.5 LW
N
73 275.32 M
77.34 275.32 L
S
GR
GS
0.149 GC
2 setlinecap
1 LJ
0.5 LW
N
73 241.047 M
77.34 241.047 L
S
GR
GS
0.149 GC
2 setlinecap
1 LJ
0.5 LW
N
73 206.774 M
77.34 206.774 L
S
GR
GS
0.149 GC
2 setlinecap
1 LJ
0.5 LW
N
73 172.501 M
77.34 172.501 L
S
GR
GS
0.149 GC
2 setlinecap
1 LJ
0.5 LW
N
73 138.228 M
77.34 138.228 L
S
GR
GS
0.149 GC
2 setlinecap
1 LJ
0.5 LW
N
73 103.955 M
77.34 103.955 L
S
GR
GS
0.149 GC
2 setlinecap
1 LJ
0.5 LW
N
73 69.682 M
77.34 69.682 L
S
GR
GS
0.149 GC
2 setlinecap
1 LJ
0.5 LW
N
73 35.409 M
77.34 35.409 L
S
GR
GS
0.149 GC
2 setlinecap
1 LJ
0.5 LW
N
507 343.866 M
502.66 343.866 L
S
GR
GS
0.149 GC
2 setlinecap
1 LJ
0.5 LW
N
507 309.593 M
502.66 309.593 L
S
GR
GS
0.149 GC
2 setlinecap
1 LJ
0.5 LW
N
507 275.32 M
502.66 275.32 L
S
GR
GS
0.149 GC
2 setlinecap
1 LJ
0.5 LW
N
507 241.047 M
502.66 241.047 L
S
GR
GS
0.149 GC
2 setlinecap
1 LJ
0.5 LW
N
507 206.774 M
502.66 206.774 L
S
GR
GS
0.149 GC
2 setlinecap
1 LJ
0.5 LW
N
507 172.501 M
502.66 172.501 L
S
GR
GS
0.149 GC
2 setlinecap
1 LJ
0.5 LW
N
507 138.228 M
502.66 138.228 L
S
GR
GS
0.149 GC
2 setlinecap
1 LJ
0.5 LW
N
507 103.955 M
502.66 103.955 L
S
GR
GS
0.149 GC
2 setlinecap
1 LJ
0.5 LW
N
507 69.682 M
502.66 69.682 L
S
GR
GS
0.149 GC
2 setlinecap
1 LJ
0.5 LW
N
507 35.409 M
502.66 35.409 L
S
GR
GS
0.149 GC
2 setlinecap
1 LJ
0.5 LW
N
73 371.284 M
75.17 371.284 L
S
GR
GS
0.149 GC
2 setlinecap
1 LJ
0.5 LW
N
73 364.429 M
75.17 364.429 L
S
GR
GS
0.149 GC
2 setlinecap
1 LJ
0.5 LW
N
73 357.575 M
75.17 357.575 L
S
GR
GS
0.149 GC
2 setlinecap
1 LJ
0.5 LW
N
73 350.72 M
75.17 350.72 L
S
GR
GS
0.149 GC
2 setlinecap
1 LJ
0.5 LW
N
73 337.011 M
75.17 337.011 L
S
GR
GS
0.149 GC
2 setlinecap
1 LJ
0.5 LW
N
73 330.156 M
75.17 330.156 L
S
GR
GS
0.149 GC
2 setlinecap
1 LJ
0.5 LW
N
73 323.302 M
75.17 323.302 L
S
GR
GS
0.149 GC
2 setlinecap
1 LJ
0.5 LW
N
73 316.447 M
75.17 316.447 L
S
GR
GS
0.149 GC
2 setlinecap
1 LJ
0.5 LW
N
73 302.738 M
75.17 302.738 L
S
GR
GS
0.149 GC
2 setlinecap
1 LJ
0.5 LW
N
73 295.883 M
75.17 295.883 L
S
GR
GS
0.149 GC
2 setlinecap
1 LJ
0.5 LW
N
73 289.029 M
75.17 289.029 L
S
GR
GS
0.149 GC
2 setlinecap
1 LJ
0.5 LW
N
73 282.174 M
75.17 282.174 L
S
GR
GS
0.149 GC
2 setlinecap
1 LJ
0.5 LW
N
73 268.465 M
75.17 268.465 L
S
GR
GS
0.149 GC
2 setlinecap
1 LJ
0.5 LW
N
73 261.611 M
75.17 261.611 L
S
GR
GS
0.149 GC
2 setlinecap
1 LJ
0.5 LW
N
73 254.756 M
75.17 254.756 L
S
GR
GS
0.149 GC
2 setlinecap
1 LJ
0.5 LW
N
73 247.901 M
75.17 247.901 L
S
GR
GS
0.149 GC
2 setlinecap
1 LJ
0.5 LW
N
73 234.192 M
75.17 234.192 L
S
GR
GS
0.149 GC
2 setlinecap
1 LJ
0.5 LW
N
73 227.338 M
75.17 227.338 L
S
GR
GS
0.149 GC
2 setlinecap
1 LJ
0.5 LW
N
73 220.483 M
75.17 220.483 L
S
GR
GS
0.149 GC
2 setlinecap
1 LJ
0.5 LW
N
73 213.628 M
75.17 213.628 L
S
GR
GS
0.149 GC
2 setlinecap
1 LJ
0.5 LW
N
73 199.919 M
75.17 199.919 L
S
GR
GS
0.149 GC
2 setlinecap
1 LJ
0.5 LW
N
73 193.065 M
75.17 193.065 L
S
GR
GS
0.149 GC
2 setlinecap
1 LJ
0.5 LW
N
73 186.21 M
75.17 186.21 L
S
GR
GS
0.149 GC
2 setlinecap
1 LJ
0.5 LW
N
73 179.355 M
75.17 179.355 L
S
GR
GS
0.149 GC
2 setlinecap
1 LJ
0.5 LW
N
73 165.646 M
75.17 165.646 L
S
GR
GS
0.149 GC
2 setlinecap
1 LJ
0.5 LW
N
73 158.792 M
75.17 158.792 L
S
GR
GS
0.149 GC
2 setlinecap
1 LJ
0.5 LW
N
73 151.937 M
75.17 151.937 L
S
GR
GS
0.149 GC
2 setlinecap
1 LJ
0.5 LW
N
73 145.082 M
75.17 145.082 L
S
GR
GS
0.149 GC
2 setlinecap
1 LJ
0.5 LW
N
73 131.373 M
75.17 131.373 L
S
GR
GS
0.149 GC
2 setlinecap
1 LJ
0.5 LW
N
73 124.519 M
75.17 124.519 L
S
GR
GS
0.149 GC
2 setlinecap
1 LJ
0.5 LW
N
73 117.664 M
75.17 117.664 L
S
GR
GS
0.149 GC
2 setlinecap
1 LJ
0.5 LW
N
73 110.81 M
75.17 110.81 L
S
GR
GS
0.149 GC
2 setlinecap
1 LJ
0.5 LW
N
73 97.1 M
75.17 97.1 L
S
GR
GS
0.149 GC
2 setlinecap
1 LJ
0.5 LW
N
73 90.246 M
75.17 90.246 L
S
GR
GS
0.149 GC
2 setlinecap
1 LJ
0.5 LW
N
73 83.391 M
75.17 83.391 L
S
GR
GS
0.149 GC
2 setlinecap
1 LJ
0.5 LW
N
73 76.537 M
75.17 76.537 L
S
GR
GS
0.149 GC
2 setlinecap
1 LJ
0.5 LW
N
73 62.827 M
75.17 62.827 L
S
GR
GS
0.149 GC
2 setlinecap
1 LJ
0.5 LW
N
73 55.973 M
75.17 55.973 L
S
GR
GS
0.149 GC
2 setlinecap
1 LJ
0.5 LW
N
73 49.118 M
75.17 49.118 L
S
GR
GS
0.149 GC
2 setlinecap
1 LJ
0.5 LW
N
73 42.264 M
75.17 42.264 L
S
GR
GS
0.149 GC
2 setlinecap
1 LJ
0.5 LW
N
507 371.284 M
504.83 371.284 L
S
GR
GS
0.149 GC
2 setlinecap
1 LJ
0.5 LW
N
507 364.429 M
504.83 364.429 L
S
GR
GS
0.149 GC
2 setlinecap
1 LJ
0.5 LW
N
507 357.575 M
504.83 357.575 L
S
GR
GS
0.149 GC
2 setlinecap
1 LJ
0.5 LW
N
507 350.72 M
504.83 350.72 L
S
GR
GS
0.149 GC
2 setlinecap
1 LJ
0.5 LW
N
507 337.011 M
504.83 337.011 L
S
GR
GS
0.149 GC
2 setlinecap
1 LJ
0.5 LW
N
507 330.156 M
504.83 330.156 L
S
GR
GS
0.149 GC
2 setlinecap
1 LJ
0.5 LW
N
507 323.302 M
504.83 323.302 L
S
GR
GS
0.149 GC
2 setlinecap
1 LJ
0.5 LW
N
507 316.447 M
504.83 316.447 L
S
GR
GS
0.149 GC
2 setlinecap
1 LJ
0.5 LW
N
507 302.738 M
504.83 302.738 L
S
GR
GS
0.149 GC
2 setlinecap
1 LJ
0.5 LW
N
507 295.883 M
504.83 295.883 L
S
GR
GS
0.149 GC
2 setlinecap
1 LJ
0.5 LW
N
507 289.029 M
504.83 289.029 L
S
GR
GS
0.149 GC
2 setlinecap
1 LJ
0.5 LW
N
507 282.174 M
504.83 282.174 L
S
GR
GS
0.149 GC
2 setlinecap
1 LJ
0.5 LW
N
507 268.465 M
504.83 268.465 L
S
GR
GS
0.149 GC
2 setlinecap
1 LJ
0.5 LW
N
507 261.611 M
504.83 261.611 L
S
GR
GS
0.149 GC
2 setlinecap
1 LJ
0.5 LW
N
507 254.756 M
504.83 254.756 L
S
GR
GS
0.149 GC
2 setlinecap
1 LJ
0.5 LW
N
507 247.901 M
504.83 247.901 L
S
GR
GS
0.149 GC
2 setlinecap
1 LJ
0.5 LW
N
507 234.192 M
504.83 234.192 L
S
GR
GS
0.149 GC
2 setlinecap
1 LJ
0.5 LW
N
507 227.338 M
504.83 227.338 L
S
GR
GS
0.149 GC
2 setlinecap
1 LJ
0.5 LW
N
507 220.483 M
504.83 220.483 L
S
GR
GS
0.149 GC
2 setlinecap
1 LJ
0.5 LW
N
507 213.628 M
504.83 213.628 L
S
GR
GS
0.149 GC
2 setlinecap
1 LJ
0.5 LW
N
507 199.919 M
504.83 199.919 L
S
GR
GS
0.149 GC
2 setlinecap
1 LJ
0.5 LW
N
507 193.065 M
504.83 193.065 L
S
GR
GS
0.149 GC
2 setlinecap
1 LJ
0.5 LW
N
507 186.21 M
504.83 186.21 L
S
GR
GS
0.149 GC
2 setlinecap
1 LJ
0.5 LW
N
507 179.355 M
504.83 179.355 L
S
GR
GS
0.149 GC
2 setlinecap
1 LJ
0.5 LW
N
507 165.646 M
504.83 165.646 L
S
GR
GS
0.149 GC
2 setlinecap
1 LJ
0.5 LW
N
507 158.792 M
504.83 158.792 L
S
GR
GS
0.149 GC
2 setlinecap
1 LJ
0.5 LW
N
507 151.937 M
504.83 151.937 L
S
GR
GS
0.149 GC
2 setlinecap
1 LJ
0.5 LW
N
507 145.082 M
504.83 145.082 L
S
GR
GS
0.149 GC
2 setlinecap
1 LJ
0.5 LW
N
507 131.373 M
504.83 131.373 L
S
GR
GS
0.149 GC
2 setlinecap
1 LJ
0.5 LW
N
507 124.519 M
504.83 124.519 L
S
GR
GS
0.149 GC
2 setlinecap
1 LJ
0.5 LW
N
507 117.664 M
504.83 117.664 L
S
GR
GS
0.149 GC
2 setlinecap
1 LJ
0.5 LW
N
507 110.81 M
504.83 110.81 L
S
GR
GS
0.149 GC
2 setlinecap
1 LJ
0.5 LW
N
507 97.1 M
504.83 97.1 L
S
GR
GS
0.149 GC
2 setlinecap
1 LJ
0.5 LW
N
507 90.246 M
504.83 90.246 L
S
GR
GS
0.149 GC
2 setlinecap
1 LJ
0.5 LW
N
507 83.391 M
504.83 83.391 L
S
GR
GS
0.149 GC
2 setlinecap
1 LJ
0.5 LW
N
507 76.537 M
504.83 76.537 L
S
GR
GS
0.149 GC
2 setlinecap
1 LJ
0.5 LW
N
507 62.827 M
504.83 62.827 L
S
GR
GS
0.149 GC
2 setlinecap
1 LJ
0.5 LW
N
507 55.973 M
504.83 55.973 L
S
GR
GS
0.149 GC
2 setlinecap
1 LJ
0.5 LW
N
507 49.118 M
504.83 49.118 L
S
GR
GS
0.149 GC
2 setlinecap
1 LJ
0.5 LW
N
507 42.264 M
504.83 42.264 L
S
GR
GS
[1 0 0 1 68.2 343.86569] CT
0.149 GC
/Helvetica 14 F
GS
[1 0 0 1 0 0] CT
-16 5.5 moveto 
1 -1 scale
(42) t 
GR
GR
GS
[1 0 0 1 68.2 309.59271] CT
0.149 GC
/Helvetica 14 F
GS
[1 0 0 1 0 0] CT
-16 5.5 moveto 
1 -1 scale
(43) t 
GR
GR
GS
[1 0 0 1 68.2 275.31976] CT
0.149 GC
/Helvetica 14 F
GS
[1 0 0 1 0 0] CT
-16 5.5 moveto 
1 -1 scale
(44) t 
GR
GR
GS
[1 0 0 1 68.2 241.04678] CT
0.149 GC
/Helvetica 14 F
GS
[1 0 0 1 0 0] CT
-16 5.5 moveto 
1 -1 scale
(45) t 
GR
GR
GS
[1 0 0 1 68.2 206.77382] CT
0.149 GC
/Helvetica 14 F
GS
[1 0 0 1 0 0] CT
-16 5.5 moveto 
1 -1 scale
(46) t 
GR
GR
GS
[1 0 0 1 68.2 172.50084] CT
0.149 GC
/Helvetica 14 F
GS
[1 0 0 1 0 0] CT
-16 5.5 moveto 
1 -1 scale
(47) t 
GR
GR
GS
[1 0 0 1 68.2 138.22787] CT
0.149 GC
/Helvetica 14 F
GS
[1 0 0 1 0 0] CT
-16 5.5 moveto 
1 -1 scale
(48) t 
GR
GR
GS
[1 0 0 1 68.2 103.9549] CT
0.149 GC
/Helvetica 14 F
GS
[1 0 0 1 0 0] CT
-16 5.5 moveto 
1 -1 scale
(49) t 
GR
GR
GS
[1 0 0 1 68.2 69.68194] CT
0.149 GC
/Helvetica 14 F
GS
[1 0 0 1 0 0] CT
-16 5.5 moveto 
1 -1 scale
(50) t 
GR
GR
GS
[1 0 0 1 68.2 35.40897] CT
0.149 GC
/Helvetica 14 F
GS
[1 0 0 1 0 0] CT
-16 5.5 moveto 
1 -1 scale
(51) t 
GR
GR
GS
[0 -1 1 0 49.2 202.74986] CT
0.149 GC
/Helvetica 15.4 F
GS
[1 0 0 1 0 0] CT
-49.5 -4 moveto 
1 -1 scale
(APSNR-V \(dB\)) t 
GR
GR
GS
[1 0 0 1 290.00027 29.57491] CT
/Helvetica-Bold 15.4 F
GS
[1 0 0 1 0 0] CT
-96.5 -4 moveto 
1 -1 scale
(Vlog_1080P-58ad.y4m-av1) t 
GR
GR
GS
0 0.447 0.741 RC
1 LJ
0.5 LW
N
80.841 343.709 M
81.776 341.431 L
82.71 339.16 L
83.645 336.896 L
84.579 334.64 L
85.514 332.395 L
86.448 330.161 L
87.383 327.939 L
88.317 325.732 L
89.252 323.539 L
90.187 321.363 L
91.121 319.204 L
92.056 317.064 L
92.99 314.945 L
93.925 312.846 L
94.859 310.77 L
95.794 308.718 L
96.729 306.691 L
97.663 304.691 L
98.598 302.718 L
99.532 300.773 L
100.467 298.859 L
101.401 296.976 L
102.336 295.126 L
103.27 293.31 L
104.205 291.529 L
105.14 289.784 L
106.074 288.077 L
107.009 286.407 L
107.943 284.752 L
108.878 283.107 L
109.812 281.472 L
110.747 279.847 L
111.681 278.233 L
112.616 276.628 L
113.551 275.033 L
114.485 273.448 L
115.42 271.874 L
116.354 270.311 L
117.289 268.757 L
118.223 267.214 L
119.158 265.682 L
120.092 264.16 L
121.027 262.65 L
121.962 261.15 L
122.896 259.661 L
123.831 258.182 L
124.765 256.715 L
125.7 255.259 L
126.634 253.814 L
127.569 252.38 L
128.504 250.958 L
129.438 249.547 L
130.373 248.147 L
131.307 246.759 L
132.242 245.382 L
133.176 244.017 L
134.111 242.664 L
135.045 241.323 L
135.98 239.994 L
136.915 238.676 L
137.849 237.37 L
138.784 236.077 L
139.718 234.796 L
140.653 233.527 L
141.587 232.27 L
142.522 231.025 L
143.456 229.794 L
144.391 228.574 L
145.326 227.367 L
146.26 226.173 L
147.195 224.992 L
148.129 223.823 L
149.064 222.667 L
149.998 221.524 L
150.933 220.395 L
151.867 219.278 L
152.802 218.174 L
153.737 217.084 L
154.671 216.007 L
155.606 214.943 L
156.54 213.893 L
157.475 212.856 L
158.409 211.833 L
159.344 210.823 L
160.279 209.828 L
161.213 208.845 L
162.148 207.871 L
163.082 206.902 L
164.017 205.938 L
164.951 204.98 L
165.886 204.026 L
166.82 203.078 L
167.755 202.136 L
168.69 201.198 L
169.624 200.266 L
170.559 199.338 L
171.493 198.416 L
172.428 197.499 L
173.362 196.587 L
174.297 195.681 L
175.231 194.779 L
176.166 193.882 L
177.101 192.991 L
178.035 192.105 L
178.97 191.223 L
179.904 190.347 L
180.839 189.475 L
181.773 188.609 L
182.708 187.747 L
183.643 186.89 L
184.577 186.039 L
185.512 185.192 L
186.446 184.35 L
187.381 183.513 L
188.315 182.68 L
189.25 181.853 L
190.184 181.03 L
191.119 180.212 L
192.054 179.399 L
192.988 178.591 L
193.923 177.787 L
194.857 176.989 L
195.792 176.195 L
196.726 175.405 L
197.661 174.62 L
198.595 173.84 L
199.53 173.065 L
200.465 172.294 L
201.399 171.527 L
202.334 170.766 L
203.268 170.009 L
204.203 169.256 L
205.137 168.508 L
206.072 167.764 L
207.006 167.025 L
207.941 166.291 L
208.876 165.561 L
209.81 164.835 L
210.745 164.114 L
211.679 163.397 L
212.614 162.685 L
213.548 161.976 L
214.483 161.273 L
215.418 160.573 L
216.352 159.878 L
217.287 159.188 L
218.221 158.501 L
219.156 157.819 L
220.09 157.141 L
221.025 156.467 L
221.959 155.798 L
222.894 155.133 L
223.829 154.472 L
224.763 153.815 L
225.698 153.162 L
226.632 152.513 L
227.567 151.869 L
228.501 151.228 L
229.436 150.592 L
230.37 149.96 L
231.305 149.332 L
232.24 148.707 L
233.174 148.087 L
234.109 147.471 L
235.043 146.859 L
235.978 146.251 L
236.912 145.646 L
237.847 145.046 L
238.782 144.449 L
239.716 143.857 L
240.651 143.268 L
241.585 142.683 L
242.52 142.102 L
243.454 141.525 L
244.389 140.952 L
245.323 140.382 L
246.258 139.816 L
247.193 139.254 L
248.127 138.696 L
249.062 138.141 L
249.996 137.59 L
250.931 137.043 L
251.865 136.499 L
252.8 135.959 L
253.734 135.423 L
254.669 134.89 L
255.604 134.361 L
256.538 133.831 L
257.473 133.302 L
258.407 132.774 L
259.342 132.245 L
260.276 131.717 L
261.211 131.19 L
262.145 130.662 L
263.08 130.135 L
264.015 129.608 L
264.949 129.082 L
265.884 128.556 L
266.818 128.03 L
267.753 127.505 L
268.687 126.98 L
269.622 126.455 L
270.557 125.931 L
271.491 125.407 L
272.426 124.884 L
273.36 124.361 L
274.295 123.838 L
275.229 123.316 L
276.164 122.795 L
277.098 122.273 L
278.033 121.753 L
278.968 121.233 L
279.902 120.713 L
280.837 120.194 L
281.771 119.675 L
282.706 119.157 L
283.64 118.639 L
284.575 118.122 L
285.509 117.606 L
286.444 117.09 L
287.379 116.574 L
288.313 116.06 L
289.248 115.545 L
290.182 115.032 L
291.117 114.519 L
292.051 114.006 L
292.986 113.494 L
293.921 112.983 L
294.855 112.473 L
295.79 111.963 L
296.724 111.454 L
297.659 110.945 L
298.593 110.437 L
299.528 109.93 L
300.462 109.424 L
301.397 108.918 L
302.332 108.413 L
303.266 107.909 L
304.201 107.405 L
305.135 106.902 L
306.07 106.4 L
307.004 105.899 L
307.939 105.398 L
308.873 104.898 L
309.808 104.399 L
310.743 103.901 L
311.677 103.404 L
312.612 102.907 L
313.546 102.411 L
314.481 101.916 L
315.415 101.422 L
316.35 100.929 L
317.284 100.437 L
318.219 99.945 L
319.154 99.455 L
320.088 98.965 L
321.023 98.476 L
321.957 97.988 L
322.892 97.501 L
323.826 97.015 L
324.761 96.53 L
325.695 96.046 L
326.63 95.563 L
327.565 95.081 L
328.499 94.599 L
329.434 94.119 L
330.368 93.64 L
331.303 93.162 L
332.237 92.684 L
333.172 92.208 L
334.107 91.733 L
335.041 91.259 L
335.976 90.786 L
336.91 90.314 L
337.845 89.843 L
338.779 89.373 L
339.714 88.904 L
340.648 88.436 L
341.583 87.97 L
342.518 87.504 L
343.452 87.04 L
344.387 86.576 L
345.321 86.114 L
346.256 85.653 L
347.19 85.194 L
348.125 84.735 L
349.059 84.277 L
349.994 83.821 L
350.929 83.366 L
351.863 82.912 L
352.798 82.46 L
353.732 82.008 L
354.667 81.558 L
355.601 81.109 L
356.536 80.661 L
357.471 80.215 L
358.405 79.77 L
359.34 79.326 L
360.274 78.883 L
361.209 78.442 L
362.143 78.002 L
363.078 77.564 L
364.012 77.126 L
364.947 76.69 L
365.882 76.256 L
366.816 75.822 L
367.751 75.39 L
368.685 74.96 L
369.62 74.531 L
370.554 74.103 L
371.489 73.676 L
372.423 73.252 L
373.358 72.828 L
374.293 72.406 L
375.227 71.985 L
376.162 71.566 L
377.096 71.148 L
378.031 70.732 L
378.965 70.317 L
379.9 69.904 L
380.835 69.492 L
381.769 69.082 L
382.704 68.673 L
383.638 68.265 L
384.573 67.86 L
385.507 67.456 L
386.442 67.053 L
387.376 66.652 L
388.311 66.252 L
389.246 65.854 L
390.18 65.458 L
391.115 65.063 L
392.049 64.67 L
392.984 64.278 L
393.918 63.888 L
394.853 63.5 L
395.787 63.113 L
396.722 62.728 L
397.657 62.345 L
398.591 61.963 L
399.526 61.583 L
400.46 61.205 L
401.395 60.828 L
402.329 60.453 L
403.264 60.08 L
404.198 59.709 L
405.133 59.339 L
406.068 58.971 L
407.002 58.605 L
407.937 58.24 L
408.871 57.878 L
409.806 57.517 L
410.74 57.158 L
411.675 56.8 L
412.61 56.445 L
413.544 56.091 L
414.479 55.739 L
415.413 55.389 L
416.348 55.041 L
417.282 54.695 L
418.217 54.35 L
419.151 54.008 L
420.086 53.667 L
421.021 53.328 L
421.955 52.991 L
422.89 52.656 L
423.824 52.323 L
424.759 51.992 L
425.693 51.663 L
426.628 51.336 L
427.562 51.01 L
428.497 50.687 L
429.432 50.366 L
430.366 50.046 L
431.301 49.729 L
432.235 49.414 L
433.17 49.1 L
434.104 48.789 L
435.039 48.48 L
435.974 48.172 L
436.908 47.867 L
437.843 47.564 L
438.777 47.263 L
439.712 46.964 L
440.646 46.667 L
441.581 46.372 L
442.515 46.08 L
443.45 45.789 L
444.385 45.501 L
445.319 45.214 L
446.254 44.93 L
447.188 44.648 L
448.123 44.368 L
449.057 44.09 L
449.992 43.815 L
450.926 43.542 L
451.861 43.27 L
452.796 43.001 L
453.73 42.735 L
454.665 42.47 L
455.599 42.208 L
456.534 41.948 L
457.468 41.69 L
458.403 41.435 L
459.337 41.182 L
460.272 40.931 L
461.207 40.682 L
462.141 40.436 L
463.076 40.192 L
464.01 39.95 L
464.945 39.711 L
465.879 39.474 L
466.814 39.239 L
467.749 39.007 L
468.683 38.777 L
469.618 38.549 L
470.552 38.324 L
471.487 38.101 L
472.421 37.881 L
473.356 37.663 L
474.29 37.447 L
475.225 37.234 L
476.16 37.023 L
477.094 36.815 L
478.029 36.609 L
478.963 36.406 L
479.898 36.205 L
480.832 36.007 L
481.767 35.811 L
482.701 35.618 L
483.636 35.427 L
484.571 35.238 L
485.505 35.053 L
486.44 34.869 L
487.374 34.689 L
488.309 34.511 L
489.243 34.335 L
490.178 34.162 L
491.112 33.992 L
492.047 33.824 L
492.982 33.659 L
493.916 33.496 L
494.851 33.336 L
495.785 33.179 L
496.72 33.024 L
497.654 32.872 L
498.589 32.723 L
499.524 32.576 L
500.458 32.432 L
501.393 32.291 L
502.327 32.152 L
503.262 32.016 L
504.196 31.883 L
505.131 31.753 L
506.065 31.625 L
507 31.5 L
S
GR
GS
0.851 0.325 0.098 RC
1 LJ
0.5 LW
N
73 374 M
73.935 370.833 L
74.869 367.677 L
75.804 364.534 L
76.738 361.41 L
77.673 358.308 L
78.607 355.231 L
79.542 352.184 L
80.476 349.17 L
81.411 346.193 L
82.346 343.257 L
83.28 340.366 L
84.215 337.523 L
85.149 334.733 L
86.084 331.999 L
87.018 329.325 L
87.953 326.715 L
88.888 324.172 L
89.822 321.702 L
90.757 319.306 L
91.691 316.989 L
92.626 314.756 L
93.56 312.591 L
94.495 310.452 L
95.429 308.334 L
96.364 306.239 L
97.299 304.167 L
98.233 302.116 L
99.168 300.087 L
100.102 298.081 L
101.037 296.096 L
101.971 294.133 L
102.906 292.192 L
103.84 290.273 L
104.775 288.375 L
105.71 286.498 L
106.644 284.643 L
107.579 282.809 L
108.513 280.997 L
109.448 279.205 L
110.382 277.435 L
111.317 275.686 L
112.251 273.957 L
113.186 272.249 L
114.121 270.562 L
115.055 268.896 L
115.99 267.25 L
116.924 265.625 L
117.859 264.02 L
118.793 262.435 L
119.728 260.87 L
120.663 259.326 L
121.597 257.802 L
122.532 256.297 L
123.466 254.813 L
124.401 253.348 L
125.335 251.903 L
126.27 250.478 L
127.204 249.072 L
128.139 247.686 L
129.074 246.319 L
130.008 244.971 L
130.943 243.643 L
131.877 242.334 L
132.812 241.043 L
133.746 239.772 L
134.681 238.52 L
135.615 237.286 L
136.55 236.071 L
137.485 234.867 L
138.419 233.672 L
139.354 232.487 L
140.288 231.311 L
141.223 230.145 L
142.157 228.987 L
143.092 227.838 L
144.027 226.699 L
144.961 225.568 L
145.896 224.446 L
146.83 223.333 L
147.765 222.229 L
148.699 221.133 L
149.634 220.045 L
150.568 218.966 L
151.503 217.896 L
152.438 216.834 L
153.372 215.78 L
154.307 214.734 L
155.241 213.696 L
156.176 212.667 L
157.11 211.645 L
158.045 210.631 L
158.979 209.626 L
159.914 208.627 L
160.849 207.637 L
161.783 206.654 L
162.718 205.679 L
163.652 204.711 L
164.587 203.75 L
165.521 202.797 L
166.456 201.851 L
167.39 200.913 L
168.325 199.981 L
169.26 199.057 L
170.194 198.139 L
171.129 197.229 L
172.063 196.325 L
172.998 195.428 L
173.932 194.538 L
174.867 193.654 L
175.802 192.777 L
176.736 191.906 L
177.671 191.042 L
178.605 190.184 L
179.54 189.332 L
180.474 188.487 L
181.409 187.648 L
182.343 186.814 L
183.278 185.987 L
184.213 185.166 L
185.147 184.35 L
186.082 183.541 L
187.016 182.737 L
187.951 181.938 L
188.885 181.145 L
189.82 180.358 L
190.754 179.576 L
191.689 178.8 L
192.624 178.029 L
193.558 177.263 L
194.493 176.502 L
195.427 175.746 L
196.362 174.995 L
197.296 174.249 L
198.231 173.508 L
199.165 172.772 L
200.1 172.04 L
201.035 171.313 L
201.969 170.591 L
202.904 169.873 L
203.838 169.16 L
204.773 168.451 L
205.707 167.746 L
206.642 167.046 L
207.577 166.349 L
208.511 165.657 L
209.446 164.969 L
210.38 164.284 L
211.315 163.599 L
212.249 162.915 L
213.184 162.232 L
214.118 161.55 L
215.053 160.868 L
215.988 160.187 L
216.922 159.507 L
217.857 158.828 L
218.791 158.149 L
219.726 157.471 L
220.66 156.794 L
221.595 156.118 L
222.529 155.443 L
223.464 154.769 L
224.399 154.095 L
225.333 153.423 L
226.268 152.751 L
227.202 152.081 L
228.137 151.411 L
229.071 150.743 L
230.006 150.075 L
230.941 149.409 L
231.875 148.743 L
232.81 148.079 L
233.744 147.416 L
234.679 146.753 L
235.613 146.093 L
236.548 145.433 L
237.482 144.774 L
238.417 144.117 L
239.352 143.46 L
240.286 142.805 L
241.221 142.152 L
242.155 141.499 L
243.09 140.848 L
244.024 140.198 L
244.959 139.55 L
245.893 138.902 L
246.828 138.257 L
247.763 137.612 L
248.697 136.969 L
249.632 136.327 L
250.566 135.687 L
251.501 135.049 L
252.435 134.411 L
253.37 133.776 L
254.304 133.141 L
255.239 132.509 L
256.174 131.878 L
257.108 131.248 L
258.043 130.62 L
258.977 129.994 L
259.912 129.369 L
260.846 128.746 L
261.781 128.124 L
262.716 127.505 L
263.65 126.887 L
264.585 126.27 L
265.519 125.656 L
266.454 125.043 L
267.388 124.432 L
268.323 123.823 L
269.257 123.216 L
270.192 122.61 L
271.127 122.006 L
272.061 121.405 L
272.996 120.805 L
273.93 120.207 L
274.865 119.611 L
275.799 119.016 L
276.734 118.424 L
277.668 117.834 L
278.603 117.246 L
279.538 116.66 L
280.472 116.076 L
281.407 115.494 L
282.341 114.914 L
283.276 114.336 L
284.21 113.76 L
285.145 113.187 L
286.079 112.615 L
287.014 112.046 L
287.949 111.479 L
288.883 110.914 L
289.818 110.352 L
290.752 109.791 L
291.687 109.233 L
292.621 108.678 L
293.556 108.124 L
294.491 107.573 L
295.425 107.024 L
296.36 106.478 L
297.294 105.934 L
298.229 105.392 L
299.163 104.853 L
300.098 104.316 L
301.032 103.782 L
301.967 103.25 L
302.902 102.721 L
303.836 102.194 L
304.771 101.67 L
305.705 101.148 L
306.64 100.629 L
307.574 100.112 L
308.509 99.598 L
309.443 99.087 L
310.378 98.579 L
311.313 98.073 L
312.247 97.569 L
313.182 97.069 L
314.116 96.571 L
315.051 96.076 L
315.985 95.583 L
316.92 95.094 L
317.855 94.607 L
318.789 94.123 L
319.724 93.642 L
320.658 93.164 L
321.593 92.688 L
322.527 92.216 L
323.462 91.746 L
324.396 91.28 L
325.331 90.816 L
326.266 90.355 L
327.2 89.898 L
328.135 89.443 L
329.069 88.991 L
330.004 88.543 L
330.938 88.097 L
331.873 87.655 L
332.807 87.215 L
333.742 86.779 L
334.677 86.346 L
335.611 85.916 L
336.546 85.489 L
337.48 85.065 L
338.415 84.645 L
339.349 84.228 L
340.284 83.814 L
341.219 83.403 L
342.153 82.996 L
343.088 82.592 L
344.022 82.191 L
344.957 81.794 L
345.891 81.4 L
346.826 81.01 L
347.76 80.622 L
348.695 80.239 L
349.63 79.858 L
350.564 79.482 L
351.499 79.108 L
352.433 78.738 L
353.368 78.372 L
354.302 78.009 L
355.237 77.65 L
356.171 77.294 L
357.106 76.942 L
358.041 76.594 L
358.975 76.249 L
359.91 75.908 L
360.844 75.57 L
361.779 75.236 L
362.713 74.906 L
363.648 74.58 L
364.582 74.257 L
365.517 73.938 L
366.452 73.623 L
367.386 73.312 L
368.321 73.004 L
369.255 72.701 L
370.19 72.401 L
371.124 72.105 L
372.059 71.813 L
372.994 71.525 L
373.928 71.241 L
374.863 70.961 L
375.797 70.684 L
376.732 70.412 L
377.666 70.144 L
378.601 69.88 L
379.535 69.62 L
380.47 69.363 L
381.405 69.111 L
382.339 68.863 L
383.274 68.62 L
S
GR
GS
0.929 0.694 0.125 RC
1 LJ
0.5 LW
N
80.348 346.302 M
81.283 343.878 L
82.217 341.461 L
83.152 339.052 L
84.087 336.653 L
85.021 334.265 L
85.956 331.89 L
86.89 329.53 L
87.825 327.185 L
88.759 324.858 L
89.694 322.55 L
90.628 320.262 L
91.563 317.996 L
92.498 315.754 L
93.432 313.536 L
94.367 311.345 L
95.301 309.182 L
96.236 307.048 L
97.17 304.945 L
98.105 302.875 L
99.039 300.839 L
99.974 298.838 L
100.909 296.874 L
101.843 294.948 L
102.778 293.062 L
103.712 291.218 L
104.647 289.417 L
105.581 287.66 L
106.516 285.939 L
107.451 284.23 L
108.385 282.533 L
109.32 280.848 L
110.254 279.175 L
111.189 277.513 L
112.123 275.864 L
113.058 274.227 L
113.992 272.602 L
114.927 270.989 L
115.862 269.389 L
116.796 267.8 L
117.731 266.224 L
118.665 264.66 L
119.6 263.108 L
120.534 261.569 L
121.469 260.042 L
122.403 258.528 L
123.338 257.025 L
124.273 255.536 L
125.207 254.059 L
126.142 252.594 L
127.076 251.142 L
128.011 249.703 L
128.945 248.276 L
129.88 246.862 L
130.814 245.461 L
131.749 244.073 L
132.684 242.697 L
133.618 241.334 L
134.553 239.984 L
135.487 238.647 L
136.422 237.323 L
137.356 236.012 L
138.291 234.714 L
139.226 233.429 L
140.16 232.157 L
141.095 230.898 L
142.029 229.653 L
142.964 228.42 L
143.898 227.201 L
144.833 225.995 L
145.767 224.802 L
146.702 223.623 L
147.637 222.457 L
148.571 221.305 L
149.506 220.165 L
150.44 219.04 L
151.375 217.928 L
152.309 216.829 L
153.244 215.744 L
154.178 214.673 L
155.113 213.615 L
156.048 212.571 L
156.982 211.54 L
157.917 210.524 L
158.851 209.521 L
159.786 208.529 L
160.72 207.542 L
161.655 206.561 L
162.59 205.585 L
163.524 204.615 L
164.459 203.65 L
165.393 202.691 L
166.328 201.737 L
167.262 200.789 L
168.197 199.846 L
169.131 198.909 L
170.066 197.976 L
171.001 197.05 L
171.935 196.128 L
172.87 195.212 L
173.804 194.301 L
174.739 193.396 L
175.673 192.495 L
176.608 191.6 L
177.542 190.71 L
178.477 189.826 L
179.412 188.946 L
180.346 188.072 L
181.281 187.203 L
182.215 186.339 L
183.15 185.481 L
184.084 184.627 L
185.019 183.778 L
185.953 182.935 L
186.888 182.096 L
187.823 181.263 L
188.757 180.434 L
189.692 179.611 L
190.626 178.792 L
191.561 177.979 L
192.495 177.171 L
193.43 176.367 L
194.365 175.568 L
195.299 174.774 L
196.234 173.985 L
197.168 173.201 L
198.103 172.422 L
199.037 171.648 L
199.972 170.878 L
200.906 170.113 L
201.841 169.353 L
202.776 168.598 L
203.71 167.847 L
204.645 167.101 L
205.579 166.36 L
206.514 165.623 L
207.448 164.892 L
208.383 164.164 L
209.317 163.442 L
210.252 162.724 L
211.187 162.01 L
212.121 161.301 L
213.056 160.597 L
213.99 159.897 L
214.925 159.202 L
215.859 158.511 L
216.794 157.825 L
217.729 157.143 L
218.663 156.466 L
219.598 155.793 L
220.532 155.124 L
221.467 154.46 L
222.401 153.8 L
223.336 153.144 L
224.27 152.493 L
225.205 151.846 L
226.14 151.204 L
227.074 150.566 L
228.009 149.932 L
228.943 149.302 L
229.878 148.676 L
230.812 148.055 L
231.747 147.438 L
232.681 146.825 L
233.616 146.216 L
234.551 145.611 L
235.485 145.011 L
236.42 144.414 L
237.354 143.822 L
238.289 143.234 L
239.223 142.649 L
240.158 142.069 L
241.092 141.493 L
242.027 140.92 L
242.962 140.352 L
243.896 139.788 L
244.831 139.227 L
245.765 138.671 L
246.7 138.118 L
247.634 137.57 L
248.569 137.025 L
249.504 136.484 L
250.438 135.947 L
251.373 135.413 L
252.307 134.879 L
253.242 134.347 L
254.176 133.814 L
255.111 133.281 L
256.045 132.749 L
256.98 132.217 L
257.915 131.686 L
258.849 131.155 L
259.784 130.624 L
260.718 130.093 L
261.653 129.563 L
262.587 129.033 L
263.522 128.504 L
264.456 127.975 L
265.391 127.446 L
266.326 126.917 L
267.26 126.389 L
268.195 125.862 L
269.129 125.335 L
270.064 124.808 L
270.998 124.282 L
271.933 123.756 L
272.867 123.231 L
273.802 122.706 L
274.737 122.181 L
275.671 121.658 L
276.606 121.134 L
277.54 120.611 L
278.475 120.089 L
279.409 119.567 L
280.344 119.046 L
281.279 118.525 L
282.213 118.005 L
283.148 117.485 L
284.082 116.966 L
285.017 116.447 L
285.951 115.93 L
286.886 115.412 L
287.82 114.896 L
288.755 114.38 L
289.69 113.864 L
290.624 113.349 L
291.559 112.835 L
292.493 112.322 L
293.428 111.809 L
294.362 111.297 L
295.297 110.785 L
296.231 110.275 L
297.166 109.765 L
298.101 109.256 L
299.035 108.747 L
299.97 108.239 L
300.904 107.732 L
301.839 107.226 L
302.773 106.72 L
303.708 106.216 L
304.643 105.712 L
305.577 105.208 L
306.512 104.706 L
307.446 104.205 L
308.381 103.704 L
309.315 103.204 L
310.25 102.705 L
311.184 102.207 L
312.119 101.71 L
313.054 101.213 L
313.988 100.718 L
314.923 100.223 L
315.857 99.729 L
316.792 99.236 L
317.726 98.744 L
318.661 98.254 L
319.595 97.764 L
320.53 97.274 L
321.465 96.786 L
322.399 96.299 L
323.334 95.813 L
324.268 95.328 L
325.203 94.844 L
326.137 94.361 L
327.072 93.879 L
328.007 93.397 L
328.941 92.917 L
329.876 92.438 L
330.81 91.96 L
331.745 91.484 L
332.679 91.008 L
333.614 90.533 L
334.548 90.059 L
335.483 89.587 L
336.418 89.116 L
337.352 88.645 L
338.287 88.176 L
339.221 87.708 L
340.156 87.242 L
341.09 86.776 L
342.025 86.311 L
342.959 85.848 L
343.894 85.386 L
344.829 84.925 L
345.763 84.465 L
346.698 84.007 L
347.632 83.55 L
348.567 83.094 L
349.501 82.639 L
350.436 82.186 L
351.37 81.734 L
352.305 81.283 L
353.24 80.833 L
354.174 80.385 L
355.109 79.938 L
356.043 79.492 L
356.978 79.048 L
357.912 78.605 L
358.847 78.163 L
359.781 77.723 L
360.716 77.284 L
361.651 76.846 L
362.585 76.41 L
363.52 75.976 L
364.454 75.542 L
365.389 75.11 L
366.323 74.68 L
367.258 74.251 L
368.193 73.823 L
369.127 73.397 L
370.062 72.972 L
370.996 72.549 L
371.931 72.127 L
372.865 71.707 L
373.8 71.288 L
374.734 70.871 L
375.669 70.456 L
376.604 70.041 L
377.538 69.629 L
378.473 69.218 L
379.407 68.808 L
380.342 68.4 L
381.276 67.994 L
382.211 67.589 L
383.145 67.186 L
384.08 66.785 L
385.015 66.385 L
385.949 65.986 L
386.884 65.59 L
387.818 65.195 L
388.753 64.801 L
389.687 64.41 L
390.622 64.02 L
391.557 63.632 L
392.491 63.245 L
393.426 62.86 L
394.36 62.477 L
395.295 62.095 L
396.229 61.716 L
397.164 61.338 L
398.098 60.962 L
399.033 60.587 L
399.968 60.215 L
400.902 59.844 L
401.837 59.475 L
402.771 59.107 L
403.706 58.742 L
404.64 58.378 L
405.575 58.017 L
406.509 57.657 L
407.444 57.298 L
408.379 56.942 L
409.313 56.588 L
410.248 56.235 L
411.182 55.885 L
412.117 55.536 L
413.051 55.189 L
413.986 54.845 L
414.921 54.502 L
415.855 54.161 L
416.79 53.822 L
417.724 53.485 L
418.659 53.149 L
419.593 52.816 L
420.528 52.485 L
421.462 52.156 L
422.397 51.829 L
423.332 51.504 L
424.266 51.181 L
425.201 50.86 L
426.135 50.541 L
427.07 50.224 L
428.004 49.909 L
428.939 49.596 L
429.873 49.286 L
430.808 48.977 L
431.743 48.67 L
432.677 48.366 L
433.612 48.064 L
434.546 47.764 L
435.481 47.466 L
436.415 47.17 L
437.35 46.876 L
438.284 46.585 L
439.219 46.295 L
440.154 46.008 L
441.088 45.723 L
442.023 45.441 L
442.957 45.16 L
443.892 44.882 L
444.826 44.606 L
445.761 44.332 L
446.696 44.061 L
447.63 43.791 L
448.565 43.524 L
449.499 43.26 L
450.434 42.997 L
451.368 42.737 L
452.303 42.48 L
453.237 42.224 L
454.172 41.971 L
455.107 41.72 L
456.041 41.472 L
456.976 41.226 L
457.91 40.982 L
458.845 40.741 L
459.779 40.502 L
460.714 40.266 L
461.648 40.032 L
462.583 39.8 L
463.518 39.571 L
464.452 39.345 L
465.387 39.12 L
466.321 38.898 L
467.256 38.679 L
468.19 38.462 L
469.125 38.248 L
470.06 38.036 L
470.994 37.827 L
471.929 37.62 L
472.863 37.416 L
473.798 37.214 L
474.732 37.015 L
475.667 36.818 L
476.601 36.624 L
477.536 36.433 L
478.471 36.244 L
479.405 36.057 L
480.34 35.874 L
481.274 35.693 L
482.209 35.514 L
483.143 35.338 L
484.078 35.165 L
485.012 34.995 L
485.947 34.827 L
486.882 34.662 L
487.816 34.499 L
488.751 34.34 L
489.685 34.182 L
490.62 34.028 L
491.554 33.876 L
492.489 33.728 L
493.423 33.581 L
494.358 33.438 L
495.293 33.297 L
496.227 33.159 L
497.162 33.024 L
498.096 32.892 L
499.031 32.763 L
499.965 32.636 L
500.9 32.512 L
501.835 32.391 L
502.769 32.273 L
503.704 32.158 L
S
GR
GS
0.494 0.184 0.557 RC
1 LJ
0.5 LW
N
78.714 347.264 M
79.649 344.736 L
80.583 342.217 L
81.518 339.706 L
82.452 337.207 L
83.387 334.721 L
84.321 332.249 L
85.256 329.794 L
86.19 327.356 L
87.125 324.938 L
88.06 322.541 L
88.994 320.168 L
89.929 317.818 L
90.863 315.496 L
91.798 313.201 L
92.732 310.936 L
93.667 308.702 L
94.601 306.502 L
95.536 304.336 L
96.471 302.207 L
97.405 300.116 L
98.34 298.065 L
99.274 296.055 L
100.209 294.089 L
101.143 292.168 L
102.078 290.293 L
103.013 288.466 L
103.947 286.671 L
104.882 284.888 L
105.816 283.118 L
106.751 281.36 L
107.685 279.616 L
108.62 277.884 L
109.554 276.165 L
110.489 274.459 L
111.424 272.766 L
112.358 271.086 L
113.293 269.42 L
114.227 267.766 L
115.162 266.126 L
116.096 264.499 L
117.031 262.886 L
117.965 261.286 L
118.9 259.699 L
119.835 258.126 L
120.769 256.567 L
121.704 255.022 L
122.638 253.49 L
123.573 251.972 L
124.507 250.468 L
125.442 248.978 L
126.376 247.503 L
127.311 246.041 L
128.246 244.593 L
129.18 243.16 L
130.115 241.74 L
131.049 240.336 L
131.984 238.945 L
132.918 237.569 L
133.853 236.208 L
134.788 234.861 L
135.722 233.529 L
136.657 232.212 L
137.591 230.909 L
138.526 229.621 L
139.46 228.348 L
140.395 227.09 L
141.329 225.847 L
142.264 224.62 L
143.199 223.407 L
144.133 222.21 L
145.068 221.027 L
146.002 219.861 L
146.937 218.709 L
147.871 217.573 L
148.806 216.453 L
149.74 215.348 L
150.675 214.259 L
151.61 213.186 L
152.544 212.128 L
153.479 211.086 L
154.413 210.055 L
155.348 209.03 L
156.282 208.011 L
157.217 206.998 L
158.151 205.991 L
159.086 204.99 L
160.021 203.995 L
160.955 203.007 L
161.89 202.024 L
162.824 201.048 L
163.759 200.077 L
164.693 199.112 L
165.628 198.154 L
166.563 197.201 L
167.497 196.254 L
168.432 195.313 L
169.366 194.377 L
170.301 193.448 L
171.235 192.524 L
172.17 191.606 L
173.104 190.694 L
174.039 189.788 L
174.974 188.887 L
175.908 187.992 L
176.843 187.102 L
177.777 186.219 L
178.712 185.341 L
179.646 184.468 L
180.581 183.601 L
181.515 182.739 L
182.45 181.883 L
183.385 181.033 L
184.319 180.188 L
185.254 179.348 L
186.188 178.514 L
187.123 177.686 L
188.057 176.862 L
188.992 176.044 L
189.926 175.232 L
190.861 174.424 L
191.796 173.622 L
192.73 172.825 L
193.665 172.034 L
194.599 171.248 L
195.534 170.466 L
196.468 169.69 L
197.403 168.92 L
198.338 168.154 L
199.272 167.393 L
200.207 166.638 L
201.141 165.888 L
202.076 165.142 L
203.01 164.402 L
203.945 163.666 L
204.879 162.936 L
205.814 162.211 L
206.749 161.49 L
207.683 160.774 L
208.618 160.064 L
209.552 159.358 L
210.487 158.657 L
211.421 157.96 L
212.356 157.269 L
213.29 156.582 L
214.225 155.9 L
215.16 155.223 L
216.094 154.55 L
217.029 153.883 L
217.963 153.219 L
218.898 152.561 L
219.832 151.907 L
220.767 151.257 L
221.702 150.612 L
222.636 149.972 L
223.571 149.336 L
224.505 148.705 L
225.44 148.078 L
226.374 147.456 L
227.309 146.838 L
228.243 146.224 L
229.178 145.615 L
230.113 145.01 L
231.047 144.409 L
231.982 143.813 L
232.916 143.221 L
233.851 142.634 L
234.785 142.05 L
235.72 141.471 L
236.654 140.896 L
237.589 140.325 L
238.524 139.758 L
239.458 139.196 L
240.393 138.637 L
241.327 138.083 L
242.262 137.532 L
243.196 136.981 L
244.131 136.431 L
245.066 135.88 L
246 135.331 L
246.935 134.781 L
247.869 134.232 L
248.804 133.683 L
249.738 133.134 L
250.673 132.586 L
251.607 132.038 L
252.542 131.49 L
253.477 130.943 L
254.411 130.396 L
255.346 129.85 L
256.28 129.304 L
257.215 128.758 L
258.149 128.213 L
259.084 127.668 L
260.018 127.124 L
260.953 126.58 L
261.888 126.036 L
262.822 125.493 L
263.757 124.951 L
264.691 124.409 L
265.626 123.867 L
266.56 123.326 L
267.495 122.786 L
268.429 122.246 L
269.364 121.707 L
270.299 121.168 L
271.233 120.629 L
272.168 120.092 L
273.102 119.555 L
274.037 119.018 L
274.971 118.482 L
275.906 117.947 L
276.841 117.413 L
277.775 116.879 L
278.71 116.345 L
279.644 115.813 L
280.579 115.281 L
281.513 114.749 L
282.448 114.219 L
283.382 113.689 L
284.317 113.16 L
285.252 112.631 L
286.186 112.104 L
287.121 111.577 L
288.055 111.05 L
288.99 110.525 L
289.924 110 L
290.859 109.476 L
291.793 108.953 L
292.728 108.431 L
293.663 107.91 L
294.597 107.389 L
295.532 106.869 L
296.466 106.35 L
297.401 105.832 L
298.335 105.315 L
299.27 104.799 L
300.204 104.284 L
301.139 103.769 L
302.074 103.256 L
303.008 102.743 L
303.943 102.231 L
304.877 101.721 L
305.812 101.211 L
306.746 100.702 L
307.681 100.194 L
308.616 99.687 L
309.55 99.182 L
310.485 98.677 L
311.419 98.173 L
312.354 97.67 L
313.288 97.168 L
314.223 96.668 L
315.157 96.168 L
316.092 95.67 L
317.027 95.172 L
317.961 94.676 L
318.896 94.181 L
319.83 93.687 L
320.765 93.194 L
321.699 92.702 L
322.634 92.211 L
323.568 91.722 L
324.503 91.233 L
325.438 90.746 L
326.372 90.26 L
327.307 89.775 L
328.241 89.292 L
329.176 88.81 L
330.11 88.328 L
331.045 87.849 L
331.98 87.37 L
332.914 86.893 L
333.849 86.417 L
334.783 85.942 L
335.718 85.469 L
336.652 84.996 L
337.587 84.525 L
338.521 84.056 L
339.456 83.588 L
340.391 83.121 L
341.325 82.656 L
342.26 82.192 L
343.194 81.729 L
344.129 81.268 L
345.063 80.808 L
345.998 80.349 L
346.932 79.892 L
347.867 79.437 L
348.802 78.982 L
349.736 78.53 L
350.671 78.079 L
351.605 77.629 L
352.54 77.181 L
353.474 76.734 L
354.409 76.289 L
355.343 75.845 L
356.278 75.403 L
357.213 74.962 L
358.147 74.523 L
359.082 74.085 L
360.016 73.65 L
360.951 73.215 L
361.885 72.782 L
362.82 72.351 L
363.755 71.922 L
364.689 71.494 L
365.624 71.067 L
366.558 70.643 L
367.493 70.22 L
368.427 69.799 L
369.362 69.379 L
370.296 68.961 L
371.231 68.545 L
372.166 68.13 L
373.1 67.717 L
374.035 67.306 L
374.969 66.897 L
375.904 66.49 L
376.838 66.084 L
377.773 65.68 L
378.707 65.277 L
379.642 64.877 L
380.577 64.478 L
381.511 64.082 L
382.446 63.687 L
383.38 63.293 L
384.315 62.902 L
385.249 62.513 L
386.184 62.125 L
387.118 61.739 L
388.053 61.356 L
388.988 60.974 L
389.922 60.594 L
390.857 60.216 L
391.791 59.84 L
392.726 59.465 L
393.66 59.093 L
394.595 58.723 L
395.53 58.355 L
396.464 57.988 L
397.399 57.624 L
398.333 57.262 L
399.268 56.902 L
400.202 56.544 L
401.137 56.187 L
402.071 55.833 L
403.006 55.481 L
403.941 55.131 L
404.875 54.783 L
405.81 54.437 L
406.744 54.094 L
407.679 53.752 L
408.613 53.413 L
409.548 53.075 L
410.482 52.74 L
411.417 52.407 L
412.352 52.076 L
413.286 51.747 L
414.221 51.421 L
415.155 51.097 L
416.09 50.775 L
417.024 50.455 L
417.959 50.137 L
418.894 49.822 L
419.828 49.509 L
420.763 49.198 L
421.697 48.889 L
422.632 48.583 L
423.566 48.279 L
424.501 47.977 L
425.435 47.678 L
426.37 47.381 L
427.305 47.086 L
428.239 46.793 L
429.174 46.503 L
430.108 46.216 L
431.043 45.93 L
431.977 45.648 L
432.912 45.367 L
433.846 45.089 L
434.781 44.813 L
435.716 44.54 L
436.65 44.269 L
437.585 44.001 L
438.519 43.735 L
439.454 43.472 L
440.388 43.211 L
441.323 42.952 L
442.258 42.697 L
443.192 42.443 L
444.127 42.192 L
445.061 41.944 L
445.996 41.698 L
446.93 41.455 L
447.865 41.215 L
448.799 40.976 L
449.734 40.741 L
450.669 40.508 L
451.603 40.278 L
452.538 40.05 L
453.472 39.825 L
454.407 39.603 L
455.341 39.383 L
456.276 39.166 L
457.21 38.952 L
458.145 38.74 L
459.08 38.531 L
460.014 38.325 L
460.949 38.121 L
461.883 37.921 L
462.818 37.723 L
463.752 37.527 L
464.687 37.335 L
465.621 37.145 L
466.556 36.958 L
467.491 36.774 L
468.425 36.592 L
469.36 36.414 L
470.294 36.238 L
471.229 36.065 L
472.163 35.895 L
473.098 35.728 L
474.033 35.563 L
474.967 35.402 L
475.902 35.243 L
476.836 35.088 L
477.771 34.935 L
478.705 34.785 L
479.64 34.638 L
480.574 34.494 L
481.509 34.353 L
482.444 34.215 L
483.378 34.08 L
484.313 33.948 L
485.247 33.819 L
486.182 33.693 L
487.116 33.569 L
488.051 33.449 L
488.985 33.332 L
489.92 33.218 L
S
GR
GS
0.467 0.675 0.188 RC
1 LJ
0.5 LW
N
78.121 349.308 M
79.056 346.594 L
79.99 343.889 L
80.925 341.194 L
81.859 338.512 L
82.794 335.845 L
83.728 333.195 L
84.663 330.564 L
85.597 327.955 L
86.532 325.369 L
87.467 322.809 L
88.401 320.277 L
89.336 317.774 L
90.27 315.304 L
91.205 312.869 L
92.139 310.469 L
93.074 308.109 L
94.008 305.789 L
94.943 303.512 L
95.878 301.281 L
96.812 299.096 L
97.747 296.961 L
98.681 294.878 L
99.616 292.848 L
100.55 290.874 L
101.485 288.958 L
102.419 287.096 L
103.354 285.255 L
104.289 283.432 L
105.223 281.624 L
106.158 279.834 L
107.092 278.06 L
108.027 276.303 L
108.961 274.561 L
109.896 272.837 L
110.831 271.129 L
111.765 269.437 L
112.7 267.761 L
113.634 266.101 L
114.569 264.457 L
115.503 262.83 L
116.438 261.218 L
117.372 259.622 L
118.307 258.042 L
119.242 256.478 L
120.176 254.929 L
121.111 253.396 L
122.045 251.879 L
122.98 250.377 L
123.914 248.891 L
124.849 247.419 L
125.783 245.964 L
126.718 244.523 L
127.653 243.098 L
128.587 241.687 L
129.522 240.292 L
130.456 238.912 L
131.391 237.547 L
132.325 236.196 L
133.26 234.86 L
134.195 233.539 L
135.129 232.233 L
136.064 230.941 L
136.998 229.664 L
137.933 228.402 L
138.867 227.153 L
139.802 225.919 L
140.736 224.7 L
141.671 223.494 L
142.606 222.303 L
143.54 221.126 L
144.475 219.963 L
145.409 218.813 L
146.344 217.678 L
147.278 216.557 L
148.213 215.449 L
149.147 214.355 L
150.082 213.275 L
151.017 212.208 L
151.951 211.151 L
152.886 210.1 L
153.82 209.055 L
154.755 208.015 L
155.689 206.982 L
156.624 205.954 L
157.558 204.932 L
158.493 203.916 L
159.428 202.905 L
160.362 201.9 L
161.297 200.901 L
162.231 199.908 L
163.166 198.921 L
164.1 197.939 L
165.035 196.963 L
165.97 195.993 L
166.904 195.028 L
167.839 194.069 L
168.773 193.116 L
169.708 192.168 L
170.642 191.226 L
171.577 190.29 L
172.511 189.36 L
173.446 188.435 L
174.381 187.515 L
175.315 186.602 L
176.25 185.694 L
177.184 184.791 L
178.119 183.894 L
179.053 183.003 L
179.988 182.117 L
180.922 181.237 L
181.857 180.363 L
182.792 179.494 L
183.726 178.631 L
184.661 177.773 L
185.595 176.921 L
186.53 176.074 L
187.464 175.233 L
188.399 174.397 L
189.333 173.567 L
190.268 172.742 L
191.203 171.923 L
192.137 171.109 L
193.072 170.301 L
194.006 169.498 L
194.941 168.701 L
195.875 167.909 L
196.81 167.122 L
197.745 166.341 L
198.679 165.566 L
199.614 164.796 L
200.548 164.031 L
201.483 163.272 L
202.417 162.518 L
203.352 161.769 L
204.286 161.026 L
205.221 160.288 L
206.156 159.556 L
207.09 158.829 L
208.025 158.107 L
208.959 157.39 L
209.894 156.679 L
210.828 155.974 L
211.763 155.273 L
212.697 154.578 L
213.632 153.888 L
214.567 153.204 L
215.501 152.524 L
216.436 151.85 L
217.37 151.182 L
218.305 150.518 L
219.239 149.86 L
220.174 149.207 L
221.109 148.559 L
222.043 147.917 L
222.978 147.279 L
223.912 146.647 L
224.847 146.02 L
225.781 145.398 L
226.716 144.782 L
227.65 144.171 L
228.585 143.564 L
229.52 142.963 L
230.454 142.367 L
231.389 141.777 L
232.323 141.191 L
233.258 140.611 L
234.192 140.035 L
235.127 139.465 L
236.061 138.9 L
236.996 138.34 L
237.931 137.782 L
238.865 137.224 L
239.8 136.667 L
240.734 136.11 L
241.669 135.553 L
242.603 134.996 L
243.538 134.44 L
244.473 133.883 L
245.407 133.328 L
246.342 132.772 L
247.276 132.217 L
248.211 131.662 L
249.145 131.107 L
250.08 130.553 L
251.014 130 L
251.949 129.446 L
252.884 128.893 L
253.818 128.34 L
254.753 127.788 L
255.687 127.236 L
256.622 126.685 L
257.556 126.134 L
258.491 125.584 L
259.425 125.034 L
260.36 124.484 L
261.295 123.935 L
262.229 123.387 L
263.164 122.838 L
264.098 122.291 L
265.033 121.744 L
265.967 121.198 L
266.902 120.652 L
267.836 120.107 L
268.771 119.562 L
269.706 119.018 L
270.64 118.475 L
271.575 117.932 L
272.509 117.39 L
273.444 116.848 L
274.378 116.307 L
275.313 115.767 L
276.248 115.228 L
277.182 114.689 L
278.117 114.151 L
279.051 113.613 L
279.986 113.077 L
280.92 112.541 L
281.855 112.006 L
282.789 111.471 L
283.724 110.938 L
284.659 110.405 L
285.593 109.873 L
286.528 109.341 L
287.462 108.811 L
288.397 108.282 L
289.331 107.753 L
290.266 107.225 L
291.2 106.698 L
292.135 106.172 L
293.07 105.647 L
294.004 105.123 L
294.939 104.599 L
295.873 104.077 L
296.808 103.555 L
297.742 103.035 L
298.677 102.515 L
299.612 101.997 L
300.546 101.479 L
301.481 100.963 L
302.415 100.447 L
303.35 99.932 L
304.284 99.419 L
305.219 98.906 L
306.153 98.395 L
307.088 97.885 L
308.023 97.375 L
308.957 96.867 L
309.892 96.36 L
310.826 95.854 L
311.761 95.35 L
312.695 94.846 L
313.63 94.343 L
314.564 93.842 L
315.499 93.342 L
316.434 92.843 L
317.368 92.345 L
318.303 91.849 L
319.237 91.354 L
320.172 90.86 L
321.106 90.367 L
322.041 89.875 L
322.975 89.385 L
323.91 88.896 L
324.845 88.408 L
325.779 87.922 L
326.714 87.437 L
327.648 86.953 L
328.583 86.471 L
329.517 85.99 L
330.452 85.51 L
331.387 85.032 L
332.321 84.555 L
333.256 84.08 L
334.19 83.606 L
335.125 83.133 L
336.059 82.662 L
336.994 82.192 L
337.928 81.724 L
338.863 81.257 L
339.798 80.792 L
340.732 80.328 L
341.667 79.866 L
342.601 79.405 L
343.536 78.946 L
344.47 78.488 L
345.405 78.032 L
346.339 77.577 L
347.274 77.124 L
348.209 76.673 L
349.143 76.223 L
350.078 75.775 L
351.012 75.329 L
351.947 74.884 L
352.881 74.44 L
353.816 73.999 L
354.75 73.559 L
355.685 73.121 L
356.62 72.684 L
357.554 72.249 L
358.489 71.816 L
359.423 71.385 L
360.358 70.955 L
361.292 70.528 L
362.227 70.101 L
363.162 69.677 L
364.096 69.255 L
365.031 68.834 L
365.965 68.415 L
366.9 67.998 L
367.834 67.583 L
368.769 67.17 L
369.703 66.758 L
370.638 66.349 L
371.573 65.941 L
372.507 65.535 L
373.442 65.131 L
374.376 64.729 L
375.311 64.329 L
376.245 63.931 L
377.18 63.535 L
378.114 63.141 L
379.049 62.749 L
379.984 62.359 L
380.918 61.97 L
381.853 61.584 L
382.787 61.2 L
383.722 60.818 L
384.656 60.438 L
385.591 60.06 L
386.526 59.684 L
387.46 59.311 L
388.395 58.939 L
389.329 58.569 L
390.264 58.202 L
391.198 57.837 L
392.133 57.473 L
393.067 57.112 L
394.002 56.754 L
394.937 56.397 L
395.871 56.043 L
396.806 55.69 L
397.74 55.34 L
398.675 54.993 L
399.609 54.647 L
400.544 54.304 L
401.478 53.963 L
402.413 53.624 L
403.348 53.288 L
404.282 52.953 L
405.217 52.622 L
406.151 52.292 L
407.086 51.965 L
408.02 51.64 L
408.955 51.318 L
409.889 50.998 L
410.824 50.68 L
411.759 50.365 L
412.693 50.052 L
413.628 49.741 L
414.562 49.433 L
415.497 49.128 L
416.431 48.825 L
417.366 48.524 L
418.301 48.226 L
419.235 47.93 L
420.17 47.637 L
421.104 47.346 L
422.039 47.058 L
422.973 46.772 L
423.908 46.489 L
424.842 46.209 L
425.777 45.931 L
426.712 45.656 L
427.646 45.383 L
428.581 45.113 L
429.515 44.845 L
430.45 44.58 L
431.384 44.318 L
432.319 44.059 L
433.253 43.802 L
434.188 43.548 L
435.123 43.296 L
436.057 43.047 L
436.992 42.801 L
437.926 42.558 L
438.861 42.317 L
439.795 42.079 L
440.73 41.844 L
441.664 41.612 L
442.599 41.382 L
443.534 41.156 L
444.468 40.932 L
445.403 40.711 L
446.337 40.492 L
447.272 40.277 L
448.206 40.064 L
449.141 39.854 L
450.076 39.648 L
451.01 39.444 L
451.945 39.243 L
452.879 39.044 L
453.814 38.849 L
454.748 38.657 L
455.683 38.468 L
456.617 38.281 L
457.552 38.098 L
458.487 37.918 L
459.421 37.74 L
460.356 37.566 L
461.29 37.395 L
462.225 37.227 L
463.159 37.061 L
464.094 36.899 L
465.028 36.74 L
465.963 36.584 L
466.898 36.431 L
467.832 36.281 L
468.767 36.134 L
469.701 35.991 L
470.636 35.85 L
471.57 35.713 L
472.505 35.579 L
473.44 35.448 L
474.374 35.32 L
475.309 35.196 L
476.243 35.074 L
477.178 34.956 L
478.112 34.841 L
479.047 34.73 L
479.981 34.622 L
480.916 34.516 L
481.851 34.415 L
482.785 34.316 L
483.72 34.221 L
484.654 34.129 L
485.589 34.04 L
S
GR
GS
0.302 0.745 0.933 RC
[10 6] 0 setdash
2 LJ
0.5 LW
N
74.687 365.357 M
75.622 362.443 L
76.556 359.539 L
77.491 356.647 L
78.426 353.77 L
79.36 350.911 L
80.295 348.073 L
81.229 345.258 L
82.164 342.47 L
83.098 339.712 L
84.033 336.986 L
84.967 334.295 L
85.902 331.642 L
86.837 329.03 L
87.771 326.461 L
88.706 323.939 L
89.64 321.467 L
90.575 319.047 L
91.509 316.682 L
92.444 314.375 L
93.379 312.129 L
94.313 309.947 L
95.248 307.832 L
96.182 305.78 L
97.117 303.755 L
98.051 301.747 L
98.986 299.758 L
99.92 297.787 L
100.855 295.834 L
101.79 293.9 L
102.724 291.983 L
103.659 290.084 L
104.593 288.204 L
105.528 286.342 L
106.462 284.498 L
107.397 282.672 L
108.331 280.864 L
109.266 279.074 L
110.201 277.303 L
111.135 275.549 L
112.07 273.813 L
113.004 272.096 L
113.939 270.397 L
114.873 268.715 L
115.808 267.052 L
116.743 265.407 L
117.677 263.78 L
118.612 262.17 L
119.546 260.579 L
120.481 259.006 L
121.415 257.451 L
122.35 255.914 L
123.284 254.395 L
124.219 252.893 L
125.154 251.41 L
126.088 249.945 L
127.023 248.498 L
127.957 247.068 L
128.892 245.657 L
129.826 244.264 L
130.761 242.888 L
131.695 241.531 L
132.63 240.191 L
133.565 238.869 L
134.499 237.566 L
135.434 236.28 L
136.368 235.012 L
137.303 233.762 L
138.237 232.53 L
139.172 231.315 L
140.106 230.119 L
141.041 228.94 L
141.976 227.777 L
142.91 226.622 L
143.845 225.476 L
144.779 224.338 L
145.714 223.209 L
146.648 222.087 L
147.583 220.974 L
148.518 219.869 L
149.452 218.772 L
150.387 217.684 L
151.321 216.603 L
152.256 215.53 L
153.19 214.465 L
154.125 213.407 L
155.059 212.358 L
155.994 211.316 L
156.929 210.282 L
157.863 209.255 L
158.798 208.236 L
159.732 207.224 L
160.667 206.219 L
161.601 205.222 L
162.536 204.232 L
163.47 203.25 L
164.405 202.274 L
165.34 201.306 L
166.274 200.344 L
167.209 199.39 L
168.143 198.443 L
169.078 197.502 L
170.012 196.568 L
170.947 195.641 L
171.881 194.721 L
172.816 193.807 L
173.751 192.9 L
174.685 191.999 L
175.62 191.105 L
176.554 190.217 L
177.489 189.335 L
178.423 188.46 L
179.358 187.591 L
180.293 186.728 L
181.227 185.871 L
182.162 185.02 L
183.096 184.176 L
184.031 183.337 L
184.965 182.504 L
185.9 181.677 L
186.834 180.855 L
187.769 180.039 L
188.704 179.229 L
189.638 178.424 L
190.573 177.625 L
191.507 176.832 L
192.442 176.044 L
193.376 175.261 L
194.311 174.483 L
195.245 173.711 L
196.18 172.943 L
197.115 172.181 L
198.049 171.424 L
198.984 170.672 L
199.918 169.925 L
200.853 169.183 L
201.787 168.445 L
202.722 167.712 L
203.657 166.984 L
204.591 166.261 L
205.526 165.542 L
206.46 164.828 L
207.395 164.118 L
208.329 163.412 L
209.264 162.711 L
210.198 162.014 L
211.133 161.322 L
212.068 160.633 L
213.002 159.949 L
213.937 159.269 L
214.871 158.592 L
215.806 157.92 L
216.74 157.251 L
217.675 156.587 L
218.609 155.925 L
219.544 155.265 L
220.479 154.605 L
221.413 153.946 L
222.348 153.287 L
223.282 152.629 L
224.217 151.972 L
225.151 151.315 L
226.086 150.66 L
227.02 150.005 L
227.955 149.35 L
228.89 148.697 L
229.824 148.044 L
230.759 147.392 L
231.693 146.74 L
232.628 146.09 L
233.562 145.441 L
234.497 144.792 L
235.432 144.144 L
236.366 143.497 L
237.301 142.851 L
238.235 142.206 L
239.17 141.562 L
240.104 140.919 L
241.039 140.277 L
241.973 139.636 L
242.908 138.995 L
243.843 138.356 L
244.777 137.718 L
245.712 137.081 L
246.646 136.445 L
247.581 135.811 L
248.515 135.177 L
249.45 134.544 L
250.384 133.913 L
251.319 133.283 L
252.254 132.654 L
253.188 132.026 L
254.123 131.399 L
255.057 130.774 L
255.992 130.149 L
256.926 129.527 L
257.861 128.905 L
258.796 128.285 L
259.73 127.666 L
260.665 127.048 L
261.599 126.432 L
262.534 125.817 L
263.468 125.203 L
264.403 124.591 L
265.337 123.98 L
266.272 123.371 L
267.207 122.763 L
268.141 122.156 L
269.076 121.551 L
270.01 120.948 L
270.945 120.346 L
271.879 119.746 L
272.814 119.147 L
273.748 118.55 L
274.683 117.954 L
275.618 117.36 L
276.552 116.767 L
277.487 116.177 L
278.421 115.587 L
279.356 115 L
280.29 114.414 L
281.225 113.83 L
282.159 113.247 L
283.094 112.667 L
284.029 112.088 L
284.963 111.511 L
285.898 110.935 L
286.832 110.362 L
287.767 109.79 L
288.701 109.22 L
289.636 108.652 L
290.571 108.086 L
291.505 107.522 L
292.44 106.959 L
293.374 106.399 L
294.309 105.84 L
295.243 105.283 L
296.178 104.729 L
297.112 104.176 L
298.047 103.626 L
298.982 103.077 L
299.916 102.53 L
300.851 101.986 L
301.785 101.443 L
302.72 100.903 L
303.654 100.365 L
304.589 99.828 L
305.523 99.295 L
306.458 98.763 L
307.393 98.233 L
308.327 97.705 L
309.262 97.18 L
310.196 96.657 L
311.131 96.136 L
312.065 95.618 L
313 95.101 L
313.935 94.587 L
314.869 94.075 L
315.804 93.566 L
316.738 93.059 L
317.673 92.554 L
318.607 92.052 L
319.542 91.552 L
320.476 91.054 L
321.411 90.559 L
322.346 90.066 L
323.28 89.576 L
324.215 89.088 L
325.149 88.603 L
326.084 88.12 L
327.018 87.64 L
327.953 87.162 L
328.887 86.687 L
329.822 86.214 L
330.757 85.744 L
331.691 85.277 L
332.626 84.812 L
333.56 84.35 L
334.495 83.89 L
335.429 83.434 L
336.364 82.979 L
337.298 82.528 L
338.233 82.079 L
339.168 81.633 L
340.102 81.19 L
341.037 80.75 L
341.971 80.312 L
342.906 79.877 L
343.84 79.445 L
344.775 79.016 L
345.71 78.59 L
346.644 78.166 L
347.579 77.746 L
348.513 77.328 L
349.448 76.913 L
350.382 76.501 L
351.317 76.093 L
352.251 75.687 L
353.186 75.284 L
354.121 74.884 L
355.055 74.487 L
355.99 74.093 L
356.924 73.702 L
357.859 73.315 L
358.793 72.93 L
359.728 72.549 L
360.662 72.17 L
361.597 71.795 L
362.532 71.423 L
363.466 71.054 L
364.401 70.688 L
365.335 70.326 L
366.27 69.967 L
367.204 69.611 L
368.139 69.258 L
369.074 68.908 L
370.008 68.562 L
370.943 68.219 L
371.877 67.88 L
372.812 67.543 L
373.746 67.211 L
374.681 66.881 L
375.615 66.555 L
376.55 66.232 L
377.485 65.913 L
378.419 65.597 L
379.354 65.285 L
380.288 64.976 L
381.223 64.671 L
382.157 64.368 L
383.092 64.07 L
384.026 63.775 L
384.961 63.484 L
385.896 63.196 L
386.83 62.912 L
387.765 62.632 L
388.699 62.355 L
389.634 62.082 L
390.568 61.812 L
391.503 61.546 L
392.437 61.284 L
393.372 61.026 L
394.307 60.771 L
395.241 60.52 L
396.176 60.273 L
397.11 60.029 L
398.045 59.789 L
398.979 59.553 L
399.914 59.321 L
S
GR
GS
0.635 0.078 0.184 RC
[10 6] 0 setdash
2 LJ
0.5 LW
N
80.414 345.703 M
81.349 343.357 L
82.283 341.019 L
83.218 338.688 L
84.152 336.367 L
85.087 334.056 L
86.021 331.757 L
86.956 329.471 L
87.891 327.201 L
88.825 324.946 L
89.76 322.708 L
90.694 320.489 L
91.629 318.29 L
92.563 316.112 L
93.498 313.957 L
94.433 311.826 L
95.367 309.719 L
96.302 307.64 L
97.236 305.588 L
98.171 303.565 L
99.105 301.573 L
100.04 299.613 L
100.974 297.686 L
101.909 295.793 L
102.844 293.937 L
103.778 292.117 L
104.713 290.336 L
105.647 288.594 L
106.582 286.885 L
107.516 285.186 L
108.451 283.497 L
109.385 281.819 L
110.32 280.151 L
111.255 278.493 L
112.189 276.846 L
113.124 275.21 L
114.058 273.584 L
114.993 271.969 L
115.927 270.365 L
116.862 268.772 L
117.797 267.19 L
118.731 265.619 L
119.666 264.06 L
120.6 262.511 L
121.535 260.974 L
122.469 259.449 L
123.404 257.935 L
124.338 256.432 L
125.273 254.942 L
126.208 253.463 L
127.142 251.996 L
128.077 250.54 L
129.011 249.097 L
129.946 247.666 L
130.88 246.247 L
131.815 244.841 L
132.749 243.447 L
133.684 242.065 L
134.619 240.696 L
135.553 239.339 L
136.488 237.995 L
137.422 236.664 L
138.357 235.345 L
139.291 234.04 L
140.226 232.748 L
141.16 231.468 L
142.095 230.202 L
143.03 228.949 L
143.964 227.71 L
144.899 226.484 L
145.833 225.271 L
146.768 224.072 L
147.702 222.887 L
148.637 221.715 L
149.572 220.557 L
150.506 219.413 L
151.441 218.284 L
152.375 217.168 L
153.31 216.066 L
154.244 214.979 L
155.179 213.906 L
156.113 212.847 L
157.048 211.803 L
157.983 210.774 L
158.917 209.759 L
159.852 208.756 L
160.786 207.758 L
161.721 206.767 L
162.655 205.781 L
163.59 204.8 L
164.524 203.825 L
165.459 202.856 L
166.394 201.892 L
167.328 200.934 L
168.263 199.982 L
169.197 199.034 L
170.132 198.093 L
171.066 197.156 L
172.001 196.225 L
172.936 195.3 L
173.87 194.38 L
174.805 193.465 L
175.739 192.556 L
176.674 191.652 L
177.608 190.753 L
178.543 189.86 L
179.477 188.972 L
180.412 188.089 L
181.347 187.211 L
182.281 186.339 L
183.216 185.472 L
184.15 184.61 L
185.085 183.753 L
186.019 182.901 L
186.954 182.054 L
187.888 181.213 L
188.823 180.376 L
189.758 179.545 L
190.692 178.718 L
191.627 177.897 L
192.561 177.081 L
193.496 176.269 L
194.43 175.463 L
195.365 174.661 L
196.299 173.865 L
197.234 173.073 L
198.169 172.286 L
199.103 171.504 L
200.038 170.727 L
200.972 169.955 L
201.907 169.187 L
202.841 168.424 L
203.776 167.666 L
204.711 166.913 L
205.645 166.164 L
206.58 165.421 L
207.514 164.681 L
208.449 163.947 L
209.383 163.217 L
210.318 162.492 L
211.252 161.771 L
212.187 161.055 L
213.122 160.344 L
214.056 159.636 L
214.991 158.934 L
215.925 158.236 L
216.86 157.543 L
217.794 156.854 L
218.729 156.169 L
219.663 155.489 L
220.598 154.813 L
221.533 154.142 L
222.467 153.475 L
223.402 152.812 L
224.336 152.154 L
225.271 151.5 L
226.205 150.85 L
227.14 150.204 L
228.074 149.563 L
229.009 148.926 L
229.944 148.293 L
230.878 147.665 L
231.813 147.04 L
232.747 146.42 L
233.682 145.804 L
234.616 145.191 L
235.551 144.583 L
236.486 143.979 L
237.42 143.38 L
238.355 142.784 L
239.289 142.192 L
240.224 141.604 L
241.158 141.02 L
242.093 140.44 L
243.027 139.864 L
243.962 139.292 L
244.897 138.724 L
245.831 138.159 L
246.766 137.599 L
247.7 137.042 L
248.635 136.489 L
249.569 135.94 L
250.504 135.395 L
251.438 134.851 L
252.373 134.308 L
253.308 133.765 L
254.242 133.222 L
255.177 132.68 L
256.111 132.138 L
257.046 131.596 L
257.98 131.055 L
258.915 130.514 L
259.85 129.973 L
260.784 129.433 L
261.719 128.893 L
262.653 128.354 L
263.588 127.815 L
264.522 127.276 L
265.457 126.738 L
266.391 126.2 L
267.326 125.663 L
268.261 125.126 L
269.195 124.589 L
270.13 124.053 L
271.064 123.518 L
271.999 122.983 L
272.933 122.449 L
273.868 121.915 L
274.802 121.381 L
275.737 120.848 L
276.672 120.316 L
277.606 119.784 L
278.541 119.253 L
279.475 118.722 L
280.41 118.192 L
281.344 117.663 L
282.279 117.134 L
283.214 116.606 L
284.148 116.079 L
285.083 115.551 L
286.017 115.025 L
286.952 114.5 L
287.886 113.975 L
288.821 113.45 L
289.755 112.927 L
290.69 112.404 L
291.625 111.882 L
292.559 111.36 L
293.494 110.839 L
294.428 110.32 L
295.363 109.8 L
296.297 109.282 L
297.232 108.764 L
298.166 108.247 L
299.101 107.731 L
300.036 107.215 L
300.97 106.701 L
301.905 106.187 L
302.839 105.674 L
303.774 105.162 L
304.708 104.651 L
305.643 104.141 L
306.577 103.631 L
307.512 103.123 L
308.447 102.615 L
309.381 102.108 L
310.316 101.602 L
311.25 101.097 L
312.185 100.593 L
313.119 100.09 L
314.054 99.588 L
314.989 99.087 L
315.923 98.587 L
316.858 98.087 L
317.792 97.589 L
318.727 97.092 L
319.661 96.596 L
320.596 96.101 L
321.53 95.606 L
322.465 95.113 L
323.4 94.621 L
324.334 94.13 L
325.269 93.64 L
326.203 93.151 L
327.138 92.663 L
328.072 92.177 L
329.007 91.691 L
329.941 91.207 L
330.876 90.724 L
331.811 90.241 L
332.745 89.76 L
333.68 89.281 L
334.614 88.802 L
335.549 88.324 L
336.483 87.848 L
337.418 87.373 L
338.352 86.899 L
339.287 86.427 L
340.222 85.955 L
341.156 85.485 L
342.091 85.016 L
343.025 84.548 L
343.96 84.082 L
344.894 83.617 L
345.829 83.153 L
346.764 82.691 L
347.698 82.23 L
348.633 81.77 L
349.567 81.311 L
350.502 80.854 L
351.436 80.398 L
352.371 79.944 L
353.305 79.491 L
354.24 79.039 L
355.175 78.589 L
356.109 78.14 L
357.044 77.692 L
357.978 77.246 L
358.913 76.802 L
359.847 76.359 L
360.782 75.917 L
361.716 75.477 L
362.651 75.038 L
363.586 74.601 L
364.52 74.165 L
365.455 73.731 L
366.389 73.298 L
367.324 72.867 L
368.258 72.437 L
369.193 72.009 L
370.128 71.582 L
371.062 71.157 L
371.997 70.734 L
372.931 70.312 L
373.866 69.892 L
374.8 69.473 L
375.735 69.056 L
376.669 68.641 L
377.604 68.227 L
378.539 67.815 L
379.473 67.404 L
380.408 66.996 L
381.342 66.589 L
382.277 66.183 L
383.211 65.779 L
384.146 65.377 L
385.08 64.977 L
386.015 64.579 L
386.95 64.182 L
387.884 63.787 L
388.819 63.394 L
389.753 63.002 L
390.688 62.612 L
391.622 62.224 L
392.557 61.838 L
393.491 61.454 L
394.426 61.071 L
395.361 60.69 L
396.295 60.312 L
397.23 59.935 L
398.164 59.56 L
399.099 59.186 L
400.033 58.815 L
400.968 58.445 L
401.903 58.078 L
402.837 57.712 L
403.772 57.348 L
404.706 56.986 L
405.641 56.627 L
406.575 56.269 L
407.51 55.913 L
408.444 55.559 L
409.379 55.207 L
410.314 54.857 L
411.248 54.509 L
412.183 54.163 L
413.117 53.819 L
414.052 53.477 L
414.986 53.137 L
415.921 52.799 L
416.855 52.463 L
417.79 52.129 L
418.725 51.798 L
419.659 51.468 L
420.594 51.141 L
421.528 50.815 L
422.463 50.492 L
423.397 50.171 L
424.332 49.852 L
425.267 49.535 L
426.201 49.221 L
427.136 48.908 L
428.07 48.598 L
429.005 48.29 L
429.939 47.984 L
430.874 47.68 L
431.808 47.379 L
432.743 47.08 L
433.678 46.783 L
434.612 46.488 L
435.547 46.196 L
436.481 45.906 L
437.416 45.618 L
438.35 45.332 L
439.285 45.049 L
440.219 44.768 L
441.154 44.489 L
442.089 44.213 L
443.023 43.939 L
443.958 43.667 L
444.892 43.398 L
445.827 43.131 L
446.761 42.867 L
447.696 42.605 L
448.63 42.345 L
449.565 42.088 L
450.5 41.833 L
451.434 41.581 L
452.369 41.331 L
453.303 41.084 L
454.238 40.839 L
455.172 40.596 L
456.107 40.356 L
457.042 40.119 L
457.976 39.883 L
458.911 39.651 L
459.845 39.421 L
460.78 39.194 L
461.714 38.969 L
462.649 38.746 L
463.583 38.526 L
464.518 38.309 L
465.453 38.095 L
466.387 37.883 L
467.322 37.673 L
468.256 37.467 L
469.191 37.262 L
470.125 37.061 L
471.06 36.862 L
471.994 36.666 L
472.929 36.472 L
473.864 36.282 L
474.798 36.093 L
475.733 35.908 L
476.667 35.725 L
477.602 35.545 L
478.536 35.368 L
479.471 35.193 L
480.405 35.021 L
481.34 34.852 L
482.275 34.686 L
483.209 34.523 L
484.144 34.362 L
485.078 34.204 L
486.013 34.049 L
486.947 33.897 L
487.882 33.747 L
488.817 33.601 L
489.751 33.457 L
490.686 33.316 L
491.62 33.178 L
492.555 33.043 L
493.489 32.911 L
494.424 32.781 L
S
GR
GS
0 0.447 0.741 RC
[10 6] 0 setdash
2 LJ
0.5 LW
N
78.854 347.718 M
79.788 345.129 L
80.723 342.549 L
81.657 339.978 L
82.592 337.418 L
83.526 334.872 L
84.461 332.341 L
85.395 329.827 L
86.33 327.332 L
87.265 324.858 L
88.199 322.406 L
89.134 319.978 L
90.068 317.577 L
91.003 315.204 L
91.937 312.861 L
92.872 310.549 L
93.807 308.271 L
94.741 306.029 L
95.676 303.824 L
96.61 301.658 L
97.545 299.533 L
98.479 297.451 L
99.414 295.413 L
100.348 293.422 L
101.283 291.479 L
102.218 289.587 L
103.152 287.747 L
104.087 285.942 L
105.021 284.151 L
105.956 282.375 L
106.89 280.613 L
107.825 278.865 L
108.759 277.131 L
109.694 275.412 L
110.629 273.707 L
111.563 272.016 L
112.498 270.339 L
113.432 268.676 L
114.367 267.028 L
115.301 265.394 L
116.236 263.774 L
117.171 262.168 L
118.105 260.577 L
119.04 259 L
119.974 257.437 L
120.909 255.888 L
121.843 254.354 L
122.778 252.834 L
123.712 251.328 L
124.647 249.837 L
125.582 248.36 L
126.516 246.897 L
127.451 245.448 L
128.385 244.014 L
129.32 242.594 L
130.254 241.188 L
131.189 239.797 L
132.123 238.419 L
133.058 237.057 L
133.993 235.708 L
134.927 234.374 L
135.862 233.054 L
136.796 231.748 L
137.731 230.457 L
138.665 229.18 L
139.6 227.918 L
140.534 226.67 L
141.469 225.436 L
142.404 224.216 L
143.338 223.011 L
144.273 221.821 L
145.207 220.644 L
146.142 219.482 L
147.076 218.334 L
148.011 217.201 L
148.946 216.082 L
149.88 214.978 L
150.815 213.887 L
151.749 212.812 L
152.684 211.75 L
153.618 210.703 L
154.553 209.668 L
155.487 208.639 L
156.422 207.617 L
157.357 206.6 L
158.291 205.589 L
159.226 204.584 L
160.16 203.585 L
161.095 202.592 L
162.029 201.605 L
162.964 200.624 L
163.898 199.648 L
164.833 198.679 L
165.768 197.715 L
166.702 196.757 L
167.637 195.804 L
168.571 194.858 L
169.506 193.917 L
170.44 192.982 L
171.375 192.053 L
172.309 191.129 L
173.244 190.211 L
174.179 189.298 L
175.113 188.392 L
176.048 187.49 L
176.982 186.595 L
177.917 185.705 L
178.851 184.82 L
179.786 183.941 L
180.721 183.068 L
181.655 182.2 L
182.59 181.337 L
183.524 180.48 L
184.459 179.628 L
185.393 178.782 L
186.328 177.941 L
187.262 177.106 L
188.197 176.275 L
189.132 175.451 L
190.066 174.631 L
191.001 173.817 L
191.935 173.008 L
192.87 172.204 L
193.804 171.406 L
194.739 170.612 L
195.673 169.824 L
196.608 169.042 L
197.543 168.264 L
198.477 167.491 L
199.412 166.724 L
200.346 165.962 L
201.281 165.204 L
202.215 164.452 L
203.15 163.705 L
204.085 162.963 L
205.019 162.226 L
205.954 161.494 L
206.888 160.767 L
207.823 160.044 L
208.757 159.327 L
209.692 158.615 L
210.626 157.907 L
211.561 157.205 L
212.496 156.507 L
213.43 155.814 L
214.365 155.126 L
215.299 154.443 L
216.234 153.764 L
217.168 153.091 L
218.103 152.422 L
219.037 151.758 L
219.972 151.098 L
220.907 150.443 L
221.841 149.793 L
222.776 149.148 L
223.71 148.507 L
224.645 147.87 L
225.579 147.239 L
226.514 146.612 L
227.448 145.989 L
228.383 145.371 L
229.318 144.757 L
230.252 144.148 L
231.187 143.544 L
232.121 142.944 L
233.056 142.348 L
233.99 141.757 L
234.925 141.17 L
235.86 140.588 L
236.794 140.01 L
237.729 139.436 L
238.663 138.866 L
239.598 138.301 L
240.532 137.74 L
241.467 137.184 L
242.401 136.629 L
243.336 136.075 L
244.271 135.521 L
245.205 134.967 L
246.14 134.414 L
247.074 133.861 L
248.009 133.308 L
248.943 132.755 L
249.878 132.203 L
250.812 131.651 L
251.747 131.1 L
252.682 130.549 L
253.616 129.999 L
254.551 129.448 L
255.485 128.898 L
256.42 128.349 L
257.354 127.8 L
258.289 127.252 L
259.224 126.704 L
260.158 126.156 L
261.093 125.609 L
262.027 125.062 L
262.962 124.516 L
263.896 123.971 L
264.831 123.426 L
265.765 122.881 L
266.7 122.337 L
267.635 121.794 L
268.569 121.251 L
269.504 120.709 L
270.438 120.167 L
271.373 119.626 L
272.307 119.085 L
273.242 118.546 L
274.176 118.007 L
275.111 117.468 L
276.046 116.93 L
276.98 116.393 L
277.915 115.856 L
278.849 115.321 L
279.784 114.785 L
280.718 114.251 L
281.653 113.717 L
282.587 113.184 L
283.522 112.652 L
284.457 112.121 L
285.391 111.59 L
286.326 111.06 L
287.26 110.531 L
288.195 110.003 L
289.129 109.475 L
290.064 108.949 L
290.999 108.423 L
291.933 107.898 L
292.868 107.374 L
293.802 106.851 L
294.737 106.329 L
295.671 105.807 L
296.606 105.286 L
297.54 104.767 L
298.475 104.248 L
299.41 103.731 L
300.344 103.214 L
301.279 102.698 L
302.213 102.183 L
303.148 101.669 L
304.082 101.156 L
305.017 100.644 L
305.951 100.134 L
306.886 99.624 L
307.821 99.115 L
308.755 98.607 L
309.69 98.101 L
310.624 97.595 L
311.559 97.09 L
312.493 96.587 L
313.428 96.085 L
314.362 95.584 L
315.297 95.083 L
316.232 94.585 L
317.166 94.087 L
318.101 93.59 L
319.035 93.095 L
319.97 92.6 L
320.904 92.107 L
321.839 91.616 L
322.774 91.125 L
323.708 90.636 L
324.643 90.147 L
325.577 89.66 L
326.512 89.175 L
327.446 88.69 L
328.381 88.207 L
329.315 87.726 L
330.25 87.245 L
331.185 86.766 L
332.119 86.288 L
333.054 85.812 L
333.988 85.336 L
334.923 84.863 L
335.857 84.39 L
336.792 83.919 L
337.726 83.45 L
338.661 82.982 L
339.596 82.515 L
340.53 82.049 L
341.465 81.586 L
342.399 81.123 L
343.334 80.662 L
344.268 80.203 L
345.203 79.745 L
346.138 79.288 L
347.072 78.833 L
348.007 78.379 L
348.941 77.928 L
349.876 77.477 L
350.81 77.028 L
351.745 76.581 L
352.679 76.135 L
353.614 75.691 L
354.549 75.248 L
355.483 74.808 L
356.418 74.368 L
357.352 73.93 L
358.287 73.494 L
359.221 73.06 L
360.156 72.627 L
361.09 72.196 L
362.025 71.767 L
362.96 71.339 L
363.894 70.913 L
364.829 70.489 L
365.763 70.067 L
366.698 69.646 L
367.632 69.227 L
368.567 68.81 L
369.501 68.394 L
370.436 67.98 L
371.371 67.569 L
372.305 67.159 L
373.24 66.75 L
374.174 66.344 L
375.109 65.939 L
376.043 65.537 L
376.978 65.136 L
377.913 64.737 L
378.847 64.34 L
379.782 63.945 L
380.716 63.551 L
381.651 63.16 L
382.585 62.771 L
383.52 62.383 L
384.454 61.998 L
385.389 61.614 L
386.324 61.233 L
387.258 60.853 L
388.193 60.476 L
389.127 60.1 L
390.062 59.727 L
390.996 59.355 L
391.931 58.985 L
392.865 58.618 L
393.8 58.253 L
394.735 57.89 L
395.669 57.528 L
396.604 57.169 L
397.538 56.812 L
398.473 56.458 L
399.407 56.105 L
400.342 55.754 L
401.277 55.406 L
402.211 55.06 L
403.146 54.716 L
404.08 54.374 L
405.015 54.034 L
405.949 53.697 L
406.884 53.362 L
407.818 53.029 L
408.753 52.698 L
409.688 52.37 L
410.622 52.043 L
411.557 51.719 L
412.491 51.398 L
413.426 51.079 L
414.36 50.761 L
415.295 50.447 L
416.229 50.134 L
417.164 49.824 L
418.099 49.517 L
419.033 49.212 L
419.968 48.909 L
420.902 48.608 L
421.837 48.31 L
422.771 48.014 L
423.706 47.721 L
424.64 47.43 L
425.575 47.142 L
426.51 46.856 L
427.444 46.573 L
428.379 46.292 L
429.313 46.013 L
430.248 45.737 L
431.182 45.464 L
432.117 45.193 L
433.052 44.924 L
433.986 44.659 L
434.921 44.395 L
435.855 44.135 L
436.79 43.877 L
437.724 43.621 L
438.659 43.368 L
439.593 43.118 L
440.528 42.87 L
441.463 42.625 L
442.397 42.383 L
443.332 42.143 L
444.266 41.906 L
445.201 41.671 L
446.135 41.44 L
447.07 41.211 L
448.004 40.984 L
448.939 40.761 L
449.874 40.54 L
450.808 40.322 L
451.743 40.107 L
452.677 39.894 L
453.612 39.684 L
454.546 39.477 L
455.481 39.273 L
456.416 39.072 L
457.35 38.873 L
458.285 38.678 L
459.219 38.485 L
460.154 38.295 L
461.088 38.108 L
462.023 37.924 L
462.957 37.742 L
463.892 37.564 L
464.827 37.389 L
465.761 37.216 L
466.696 37.046 L
467.63 36.88 L
468.565 36.716 L
469.499 36.555 L
470.434 36.397 L
471.368 36.243 L
472.303 36.091 L
473.238 35.942 L
474.172 35.797 L
475.107 35.654 L
476.041 35.514 L
476.976 35.378 L
477.91 35.244 L
478.845 35.114 L
479.78 34.987 L
480.714 34.862 L
481.649 34.741 L
482.583 34.623 L
S
GR
GS
0.851 0.325 0.098 RC
[10 6] 0 setdash
2 LJ
0.5 LW
N
78.239 348.942 M
79.173 346.324 L
80.108 343.714 L
81.042 341.113 L
81.977 338.525 L
82.911 335.951 L
83.846 333.393 L
84.78 330.852 L
85.715 328.331 L
86.65 325.831 L
87.584 323.354 L
88.519 320.903 L
89.453 318.479 L
90.388 316.083 L
91.322 313.719 L
92.257 311.387 L
93.191 309.089 L
94.126 306.828 L
95.061 304.605 L
95.995 302.423 L
96.93 300.282 L
97.864 298.186 L
98.799 296.135 L
99.733 294.132 L
100.668 292.178 L
101.602 290.276 L
102.537 288.421 L
103.472 286.584 L
104.406 284.762 L
105.341 282.954 L
106.275 281.16 L
107.21 279.38 L
108.144 277.615 L
109.079 275.863 L
110.014 274.127 L
110.948 272.405 L
111.883 270.697 L
112.817 269.004 L
113.752 267.325 L
114.686 265.66 L
115.621 264.011 L
116.555 262.375 L
117.49 260.755 L
118.425 259.149 L
119.359 257.557 L
120.294 255.98 L
121.228 254.418 L
122.163 252.871 L
123.097 251.338 L
124.032 249.82 L
124.966 248.317 L
125.901 246.829 L
126.836 245.355 L
127.77 243.896 L
128.705 242.453 L
129.639 241.024 L
130.574 239.61 L
131.508 238.211 L
132.443 236.827 L
133.378 235.458 L
134.312 234.104 L
135.247 232.765 L
136.181 231.441 L
137.116 230.132 L
138.05 228.838 L
138.985 227.56 L
139.919 226.297 L
140.854 225.049 L
141.789 223.816 L
142.723 222.598 L
143.658 221.396 L
144.592 220.209 L
145.527 219.037 L
146.461 217.881 L
147.396 216.74 L
148.33 215.614 L
149.265 214.504 L
150.2 213.409 L
151.134 212.33 L
152.069 211.263 L
153.003 210.202 L
153.938 209.147 L
154.872 208.098 L
155.807 207.055 L
156.741 206.019 L
157.676 204.988 L
158.611 203.963 L
159.545 202.945 L
160.48 201.932 L
161.414 200.926 L
162.349 199.925 L
163.283 198.931 L
164.218 197.942 L
165.153 196.959 L
166.087 195.983 L
167.022 195.012 L
167.956 194.047 L
168.891 193.088 L
169.825 192.135 L
170.76 191.188 L
171.694 190.246 L
172.629 189.311 L
173.564 188.381 L
174.498 187.457 L
175.433 186.539 L
176.367 185.627 L
177.302 184.72 L
178.236 183.819 L
179.171 182.924 L
180.105 182.035 L
181.04 181.152 L
181.975 180.274 L
182.909 179.402 L
183.844 178.535 L
184.778 177.675 L
185.713 176.82 L
186.647 175.97 L
187.582 175.127 L
188.516 174.288 L
189.451 173.456 L
190.386 172.629 L
191.32 171.808 L
192.255 170.992 L
193.189 170.182 L
194.124 169.377 L
195.058 168.578 L
195.993 167.785 L
196.928 166.996 L
197.862 166.214 L
198.797 165.437 L
199.731 164.665 L
200.666 163.899 L
201.6 163.138 L
202.535 162.383 L
203.469 161.633 L
204.404 160.889 L
205.339 160.149 L
206.273 159.416 L
207.208 158.687 L
208.142 157.965 L
209.077 157.247 L
210.011 156.534 L
210.946 155.828 L
211.88 155.126 L
212.815 154.429 L
213.75 153.738 L
214.684 153.052 L
215.619 152.372 L
216.553 151.696 L
217.488 151.026 L
218.422 150.361 L
219.357 149.702 L
220.292 149.047 L
221.226 148.398 L
222.161 147.753 L
223.095 147.114 L
224.03 146.48 L
224.964 145.852 L
225.899 145.228 L
226.833 144.609 L
227.768 143.996 L
228.703 143.387 L
229.637 142.784 L
230.572 142.185 L
231.506 141.592 L
232.441 141.004 L
233.375 140.42 L
234.31 139.842 L
235.244 139.268 L
236.179 138.7 L
237.114 138.135 L
238.048 137.571 L
238.983 137.007 L
239.917 136.444 L
240.852 135.88 L
241.786 135.317 L
242.721 134.754 L
243.655 134.192 L
244.59 133.63 L
245.525 133.068 L
246.459 132.506 L
247.394 131.945 L
248.328 131.385 L
249.263 130.824 L
250.197 130.264 L
251.132 129.705 L
252.067 129.146 L
253.001 128.587 L
253.936 128.029 L
254.87 127.471 L
255.805 126.913 L
256.739 126.356 L
257.674 125.8 L
258.608 125.244 L
259.543 124.689 L
260.478 124.134 L
261.412 123.58 L
262.347 123.026 L
263.281 122.473 L
264.216 121.921 L
265.15 121.369 L
266.085 120.817 L
267.019 120.266 L
267.954 119.716 L
268.889 119.167 L
269.823 118.618 L
270.758 118.07 L
271.692 117.523 L
272.627 116.976 L
273.561 116.43 L
274.496 115.884 L
275.431 115.34 L
276.365 114.796 L
277.3 114.253 L
278.234 113.71 L
279.169 113.169 L
280.103 112.628 L
281.038 112.088 L
281.972 111.549 L
282.907 111.01 L
283.842 110.473 L
284.776 109.936 L
285.711 109.401 L
286.645 108.866 L
287.58 108.332 L
288.514 107.799 L
289.449 107.266 L
290.383 106.735 L
291.318 106.205 L
292.253 105.675 L
293.187 105.147 L
294.122 104.62 L
295.056 104.093 L
295.991 103.568 L
296.925 103.043 L
297.86 102.52 L
298.794 101.998 L
299.729 101.476 L
300.664 100.956 L
301.598 100.437 L
302.533 99.919 L
303.467 99.402 L
304.402 98.886 L
305.336 98.371 L
306.271 97.858 L
307.206 97.345 L
308.14 96.834 L
309.075 96.324 L
310.009 95.815 L
310.944 95.307 L
311.878 94.8 L
312.813 94.295 L
313.747 93.791 L
314.682 93.288 L
315.617 92.787 L
316.551 92.286 L
317.486 91.787 L
318.42 91.29 L
319.355 90.793 L
320.289 90.298 L
321.224 89.805 L
322.158 89.312 L
323.093 88.821 L
324.028 88.331 L
324.962 87.843 L
325.897 87.356 L
326.831 86.871 L
327.766 86.387 L
328.7 85.904 L
329.635 85.423 L
330.569 84.943 L
331.504 84.465 L
332.439 83.988 L
333.373 83.513 L
334.308 83.039 L
335.242 82.567 L
336.177 82.096 L
337.111 81.627 L
338.046 81.16 L
338.981 80.694 L
339.915 80.229 L
340.85 79.767 L
341.784 79.305 L
342.719 78.846 L
343.653 78.388 L
344.588 77.931 L
345.522 77.477 L
346.457 77.024 L
347.392 76.572 L
348.326 76.123 L
349.261 75.675 L
350.195 75.228 L
351.13 74.784 L
352.064 74.341 L
352.999 73.9 L
353.933 73.461 L
354.868 73.024 L
355.803 72.588 L
356.737 72.154 L
357.672 71.722 L
358.606 71.292 L
359.541 70.864 L
360.475 70.437 L
361.41 70.013 L
362.345 69.59 L
363.279 69.169 L
364.214 68.75 L
365.148 68.333 L
366.083 67.918 L
367.017 67.505 L
367.952 67.094 L
368.886 66.684 L
369.821 66.277 L
370.756 65.872 L
371.69 65.468 L
372.625 65.067 L
373.559 64.668 L
374.494 64.271 L
375.428 63.876 L
376.363 63.482 L
377.297 63.092 L
378.232 62.703 L
379.167 62.316 L
380.101 61.931 L
381.036 61.549 L
381.97 61.168 L
382.905 60.79 L
383.839 60.414 L
384.774 60.04 L
385.708 59.668 L
386.643 59.298 L
387.578 58.931 L
388.512 58.566 L
389.447 58.203 L
390.381 57.842 L
391.316 57.484 L
392.25 57.128 L
393.185 56.774 L
394.12 56.423 L
395.054 56.073 L
395.989 55.727 L
396.923 55.382 L
397.858 55.04 L
398.792 54.7 L
399.727 54.363 L
400.661 54.028 L
401.596 53.695 L
402.531 53.365 L
403.465 53.037 L
404.4 52.711 L
405.334 52.389 L
406.269 52.068 L
407.203 51.75 L
408.138 51.434 L
409.072 51.121 L
410.007 50.811 L
410.942 50.503 L
411.876 50.197 L
412.811 49.895 L
413.745 49.594 L
414.68 49.296 L
415.614 49.001 L
416.549 48.709 L
417.484 48.418 L
418.418 48.131 L
419.353 47.846 L
420.287 47.564 L
421.222 47.285 L
422.156 47.008 L
423.091 46.734 L
424.025 46.463 L
424.96 46.194 L
425.895 45.928 L
426.829 45.665 L
427.764 45.404 L
428.698 45.146 L
429.633 44.891 L
430.567 44.639 L
431.502 44.39 L
432.436 44.143 L
433.371 43.9 L
434.306 43.659 L
435.24 43.421 L
436.175 43.185 L
437.109 42.953 L
438.044 42.723 L
438.978 42.497 L
439.913 42.273 L
440.848 42.052 L
441.782 41.834 L
442.717 41.62 L
443.651 41.408 L
444.586 41.199 L
445.52 40.993 L
446.455 40.79 L
447.389 40.59 L
448.324 40.393 L
449.259 40.199 L
450.193 40.008 L
451.128 39.82 L
452.062 39.635 L
452.997 39.453 L
453.931 39.275 L
454.866 39.099 L
455.8 38.927 L
456.735 38.757 L
457.67 38.591 L
458.604 38.428 L
459.539 38.268 L
460.473 38.112 L
461.408 37.958 L
462.342 37.808 L
463.277 37.661 L
464.211 37.517 L
465.146 37.377 L
466.081 37.239 L
467.015 37.105 L
467.95 36.974 L
468.884 36.847 L
469.819 36.723 L
470.753 36.602 L
471.688 36.484 L
472.622 36.37 L
473.557 36.259 L
474.492 36.152 L
475.426 36.047 L
476.361 35.947 L
S
GR
GS
1 GC
N
499 366 M
499 218.5 L
327.5 218.5 L
327.5 366 L
cp
f
GR
GS
[1 0 0 1 364.5 228.25] CT
/Helvetica 13 F
GS
[1 0 0 1 0 0] CT
0 5 moveto 
1 -1 scale
(Base Run) t 
GR
GR
GS
0 0.447 0.741 RC
1 LJ
0.5 LW
N
331.5 228.25 M
361.5 228.25 L
S
GR
GS
[1 0 0 1 364.5 244.25] CT
/Helvetica 13 F
GS
[1 0 0 1 0 0] CT
0 5 moveto 
1 -1 scale
(All Frames) t 
GR
GR
GS
0.851 0.325 0.098 RC
1 LJ
0.5 LW
N
331.5 244.25 M
361.5 244.25 L
S
GR
GS
[1 0 0 1 364.5 260.25] CT
/Helvetica 13 F
GS
[1 0 0 1 0 0] CT
0 5 moveto 
1 -1 scale
(KF Only) t 
GR
GR
GS
0.929 0.694 0.125 RC
1 LJ
0.5 LW
N
331.5 260.25 M
361.5 260.25 L
S
GR
GS
[1 0 0 1 364.5 276.25] CT
/Helvetica 13 F
GS
[1 0 0 1 0 0] CT
0 5 moveto 
1 -1 scale
(GF, ARF Only) t 
GR
GR
GS
0.494 0.184 0.557 RC
1 LJ
0.5 LW
N
331.5 276.25 M
361.5 276.25 L
S
GR
GS
[1 0 0 1 364.5 292.25] CT
/Helvetica 13 F
GS
[1 0 0 1 0 0] CT
0 5 moveto 
1 -1 scale
(KF, GF, ARF Only) t 
GR
GR
GS
0.467 0.675 0.188 RC
1 LJ
0.5 LW
N
331.5 292.25 M
361.5 292.25 L
S
GR
GS
[1 0 0 1 364.5 308.25] CT
/Helvetica 13 F
GS
[1 0 0 1 0 0] CT
0 5 moveto 
1 -1 scale
(Part All Frames) t 
GR
GR
GS
0.302 0.745 0.933 RC
[10 6] 0 setdash
2 LJ
0.5 LW
N
331.5 308.25 M
361.5 308.25 L
S
GR
GS
[1 0 0 1 364.5 324.25] CT
/Helvetica 13 F
GS
[1 0 0 1 0 0] CT
0 5 moveto 
1 -1 scale
(Part KF Only) t 
GR
GR
GS
0.635 0.078 0.184 RC
[10 6] 0 setdash
2 LJ
0.5 LW
N
331.5 324.25 M
361.5 324.25 L
S
GR
GS
[1 0 0 1 364.5 340.25] CT
/Helvetica 13 F
GS
[1 0 0 1 0 0] CT
0 5 moveto 
1 -1 scale
(Part GF, ARF Only) t 
GR
GR
GS
0 0.447 0.741 RC
[10 6] 0 setdash
2 LJ
0.5 LW
N
331.5 340.25 M
361.5 340.25 L
S
GR
GS
[1 0 0 1 364.5 356.25] CT
/Helvetica 13 F
GS
[1 0 0 1 0 0] CT
0 5 moveto 
1 -1 scale
(Part KF, GF, ARF Only) t 
GR
GR
GS
0.851 0.325 0.098 RC
[10 6] 0 setdash
2 LJ
0.5 LW
N
331.5 356.25 M
361.5 356.25 L
S
GR
GS
0.149 GC
10.0 ML
0.5 LW
N
327.5 366 M
327.5 218.5 L
499 218.5 L
499 366 L
cp
S
GR
%%Trailer
%%Pages: 1
%%EOF
