%!PS-Adobe-3.0 EPSF-3.0
%%Creator: (MATLAB, The Mathworks, Inc. Version 9.11.0.1837725 \(R2021b\) Update 2. Operating System: Mac OS X)
%%Title: plots/pchip/Vlog_1080P-58ad.y4m-hevc-nVMAF.eps
%%CreationDate: 2022-02-03T19:14:58
%%Pages: (atend)
%%BoundingBox:    33   425   515   826
%%LanguageLevel: 3
%%EndComments
%%BeginProlog
%%BeginResource: procset (Apache XML Graphics Std ProcSet) 1.2 0
%%Version: 1.2 0
%%Copyright: (Copyright 2001-2003,2010 The Apache Software Foundation. License terms: http://www.apache.org/licenses/LICENSE-2.0)
/bd{bind def}bind def
/ld{load def}bd
/GR/grestore ld
/GS/gsave ld
/RM/rmoveto ld
/C/curveto ld
/t/show ld
/L/lineto ld
/ML/setmiterlimit ld
/CT/concat ld
/f/fill ld
/N/newpath ld
/S/stroke ld
/CC/setcmykcolor ld
/A/ashow ld
/cp/closepath ld
/RC/setrgbcolor ld
/LJ/setlinejoin ld
/GC/setgray ld
/LW/setlinewidth ld
/M/moveto ld
/re {4 2 roll M
1 index 0 rlineto
0 exch rlineto
neg 0 rlineto
cp } bd
/_ctm matrix def
/_tm matrix def
/BT { _ctm currentmatrix pop matrix _tm copy pop 0 0 moveto } bd
/ET { _ctm setmatrix } bd
/iTm { _ctm setmatrix _tm concat } bd
/Tm { _tm astore pop iTm 0 0 moveto } bd
/ux 0.0 def
/uy 0.0 def
/F {
  /Tp exch def
  /Tf exch def
  Tf findfont Tp scalefont setfont
  /cf Tf def  /cs Tp def
} bd
/ULS {currentpoint /uy exch def /ux exch def} bd
/ULE {
  /Tcx currentpoint pop def
  gsave
  newpath
  cf findfont cs scalefont dup
  /FontMatrix get 0 get /Ts exch def /FontInfo get dup
  /UnderlinePosition get Ts mul /To exch def
  /UnderlineThickness get Ts mul /Tt exch def
  ux uy To add moveto  Tcx uy To add lineto
  Tt setlinewidth stroke
  grestore
} bd
/OLE {
  /Tcx currentpoint pop def
  gsave
  newpath
  cf findfont cs scalefont dup
  /FontMatrix get 0 get /Ts exch def /FontInfo get dup
  /UnderlinePosition get Ts mul /To exch def
  /UnderlineThickness get Ts mul /Tt exch def
  ux uy To add cs add moveto Tcx uy To add cs add lineto
  Tt setlinewidth stroke
  grestore
} bd
/SOE {
  /Tcx currentpoint pop def
  gsave
  newpath
  cf findfont cs scalefont dup
  /FontMatrix get 0 get /Ts exch def /FontInfo get dup
  /UnderlinePosition get Ts mul /To exch def
  /UnderlineThickness get Ts mul /Tt exch def
  ux uy To add cs 10 mul 26 idiv add moveto Tcx uy To add cs 10 mul 26 idiv add lineto
  Tt setlinewidth stroke
  grestore
} bd
/QT {
/Y22 exch store
/X22 exch store
/Y21 exch store
/X21 exch store
currentpoint
/Y21 load 2 mul add 3 div exch
/X21 load 2 mul add 3 div exch
/X21 load 2 mul /X22 load add 3 div
/Y21 load 2 mul /Y22 load add 3 div
/X22 load /Y22 load curveto
} bd
/SSPD {
dup length /d exch dict def
{
/v exch def
/k exch def
currentpagedevice k known {
/cpdv currentpagedevice k get def
v cpdv ne {
/upd false def
/nullv v type /nulltype eq def
/nullcpdv cpdv type /nulltype eq def
nullv nullcpdv or
{
/upd true def
} {
/sametype v type cpdv type eq def
sametype {
v type /arraytype eq {
/vlen v length def
/cpdvlen cpdv length def
vlen cpdvlen eq {
0 1 vlen 1 sub {
/i exch def
/obj v i get def
/cpdobj cpdv i get def
obj cpdobj ne {
/upd true def
exit
} if
} for
} {
/upd true def
} ifelse
} {
v type /dicttype eq {
v {
/dv exch def
/dk exch def
/cpddv cpdv dk get def
dv cpddv ne {
/upd true def
exit
} if
} forall
} {
/upd true def
} ifelse
} ifelse
} if
} ifelse
upd true eq {
d k v put
} if
} if
} if
} forall
d length 0 gt {
d setpagedevice
} if
} bd
/RE { % /NewFontName [NewEncodingArray] /FontName RE -
  findfont dup length dict begin
  {
    1 index /FID ne
    {def} {pop pop} ifelse
  } forall
  /Encoding exch def
  /FontName 1 index def
  currentdict definefont pop
  end
} bind def
%%EndResource
%%BeginResource: procset (Apache XML Graphics EPS ProcSet) 1.0 0
%%Version: 1.0 0
%%Copyright: (Copyright 2002-2003 The Apache Software Foundation. License terms: http://www.apache.org/licenses/LICENSE-2.0)
/BeginEPSF { %def
/b4_Inc_state save def         % Save state for cleanup
/dict_count countdictstack def % Count objects on dict stack
/op_count count 1 sub def      % Count objects on operand stack
userdict begin                 % Push userdict on dict stack
/showpage { } def              % Redefine showpage, { } = null proc
0 setgray 0 setlinecap         % Prepare graphics state
1 setlinewidth 0 setlinejoin
10 setmiterlimit [ ] 0 setdash newpath
/languagelevel where           % If level not equal to 1 then
{pop languagelevel             % set strokeadjust and
1 ne                           % overprint to their defaults.
{false setstrokeadjust false setoverprint
} if
} if
} bd
/EndEPSF { %def
count op_count sub {pop} repeat            % Clean up stacks
countdictstack dict_count sub {end} repeat
b4_Inc_state restore
} bd
%%EndResource
%FOPBeginFontDict
%%IncludeResource: font Courier-Oblique
%%IncludeResource: font Courier-BoldOblique
%%IncludeResource: font Courier-Bold
%%IncludeResource: font ZapfDingbats
%%IncludeResource: font Symbol
%%IncludeResource: font Helvetica
%%IncludeResource: font Helvetica-Oblique
%%IncludeResource: font Helvetica-Bold
%%IncludeResource: font Helvetica-BoldOblique
%%IncludeResource: font Times-Roman
%%IncludeResource: font Times-Italic
%%IncludeResource: font Times-Bold
%%IncludeResource: font Times-BoldItalic
%%IncludeResource: font Courier
%FOPEndFontDict
%%BeginResource: encoding WinAnsiEncoding
/WinAnsiEncoding [
/.notdef /.notdef /.notdef /.notdef /.notdef
/.notdef /.notdef /.notdef /.notdef /.notdef
/.notdef /.notdef /.notdef /.notdef /.notdef
/.notdef /.notdef /.notdef /.notdef /.notdef
/.notdef /.notdef /.notdef /.notdef /.notdef
/.notdef /.notdef /.notdef /.notdef /.notdef
/.notdef /.notdef /space /exclam /quotedbl
/numbersign /dollar /percent /ampersand /quotesingle
/parenleft /parenright /asterisk /plus /comma
/hyphen /period /slash /zero /one
/two /three /four /five /six
/seven /eight /nine /colon /semicolon
/less /equal /greater /question /at
/A /B /C /D /E
/F /G /H /I /J
/K /L /M /N /O
/P /Q /R /S /T
/U /V /W /X /Y
/Z /bracketleft /backslash /bracketright /asciicircum
/underscore /quoteleft /a /b /c
/d /e /f /g /h
/i /j /k /l /m
/n /o /p /q /r
/s /t /u /v /w
/x /y /z /braceleft /bar
/braceright /asciitilde /bullet /Euro /bullet
/quotesinglbase /florin /quotedblbase /ellipsis /dagger
/daggerdbl /circumflex /perthousand /Scaron /guilsinglleft
/OE /bullet /Zcaron /bullet /bullet
/quoteleft /quoteright /quotedblleft /quotedblright /bullet
/endash /emdash /asciitilde /trademark /scaron
/guilsinglright /oe /bullet /zcaron /Ydieresis
/space /exclamdown /cent /sterling /currency
/yen /brokenbar /section /dieresis /copyright
/ordfeminine /guillemotleft /logicalnot /sfthyphen /registered
/macron /degree /plusminus /twosuperior /threesuperior
/acute /mu /paragraph /middot /cedilla
/onesuperior /ordmasculine /guillemotright /onequarter /onehalf
/threequarters /questiondown /Agrave /Aacute /Acircumflex
/Atilde /Adieresis /Aring /AE /Ccedilla
/Egrave /Eacute /Ecircumflex /Edieresis /Igrave
/Iacute /Icircumflex /Idieresis /Eth /Ntilde
/Ograve /Oacute /Ocircumflex /Otilde /Odieresis
/multiply /Oslash /Ugrave /Uacute /Ucircumflex
/Udieresis /Yacute /Thorn /germandbls /agrave
/aacute /acircumflex /atilde /adieresis /aring
/ae /ccedilla /egrave /eacute /ecircumflex
/edieresis /igrave /iacute /icircumflex /idieresis
/eth /ntilde /ograve /oacute /ocircumflex
/otilde /odieresis /divide /oslash /ugrave
/uacute /ucircumflex /udieresis /yacute /thorn
/ydieresis
] def
%%EndResource
%FOPBeginFontReencode
/Courier-Oblique findfont
dup length dict begin
  {1 index /FID ne {def} {pop pop} ifelse} forall
  /Encoding WinAnsiEncoding def
  currentdict
end
/Courier-Oblique exch definefont pop
/Courier-BoldOblique findfont
dup length dict begin
  {1 index /FID ne {def} {pop pop} ifelse} forall
  /Encoding WinAnsiEncoding def
  currentdict
end
/Courier-BoldOblique exch definefont pop
/Courier-Bold findfont
dup length dict begin
  {1 index /FID ne {def} {pop pop} ifelse} forall
  /Encoding WinAnsiEncoding def
  currentdict
end
/Courier-Bold exch definefont pop
/Helvetica findfont
dup length dict begin
  {1 index /FID ne {def} {pop pop} ifelse} forall
  /Encoding WinAnsiEncoding def
  currentdict
end
/Helvetica exch definefont pop
/Helvetica-Oblique findfont
dup length dict begin
  {1 index /FID ne {def} {pop pop} ifelse} forall
  /Encoding WinAnsiEncoding def
  currentdict
end
/Helvetica-Oblique exch definefont pop
/Helvetica-Bold findfont
dup length dict begin
  {1 index /FID ne {def} {pop pop} ifelse} forall
  /Encoding WinAnsiEncoding def
  currentdict
end
/Helvetica-Bold exch definefont pop
/Helvetica-BoldOblique findfont
dup length dict begin
  {1 index /FID ne {def} {pop pop} ifelse} forall
  /Encoding WinAnsiEncoding def
  currentdict
end
/Helvetica-BoldOblique exch definefont pop
/Times-Roman findfont
dup length dict begin
  {1 index /FID ne {def} {pop pop} ifelse} forall
  /Encoding WinAnsiEncoding def
  currentdict
end
/Times-Roman exch definefont pop
/Times-Italic findfont
dup length dict begin
  {1 index /FID ne {def} {pop pop} ifelse} forall
  /Encoding WinAnsiEncoding def
  currentdict
end
/Times-Italic exch definefont pop
/Times-Bold findfont
dup length dict begin
  {1 index /FID ne {def} {pop pop} ifelse} forall
  /Encoding WinAnsiEncoding def
  currentdict
end
/Times-Bold exch definefont pop
/Times-BoldItalic findfont
dup length dict begin
  {1 index /FID ne {def} {pop pop} ifelse} forall
  /Encoding WinAnsiEncoding def
  currentdict
end
/Times-BoldItalic exch definefont pop
/Courier findfont
dup length dict begin
  {1 index /FID ne {def} {pop pop} ifelse} forall
  /Encoding WinAnsiEncoding def
  currentdict
end
/Courier exch definefont pop
%FOPEndFontReencode
%%EndProlog
%%Page: 1 1
%%PageBoundingBox: 0 0 1120 840
%%BeginPageSetup
[1 0 0 -1 0 840] CT
%%EndPageSetup
GS
1 GC
N
0 0 1120 840 re
f
GR
GS
1 GC
N
73 374 M
507 374 L
507 31.5 L
73 31.5 L
cp
f
GR
GS
0.149 GC
2 setlinecap
1 LJ
0.5 LW
N
73 374 M
507 374 L
S
GR
GS
0.149 GC
2 setlinecap
1 LJ
0.5 LW
N
73 31.5 M
507 31.5 L
S
GR
GS
0.149 GC
2 setlinecap
1 LJ
0.5 LW
N
96.769 374 M
96.769 369.66 L
S
GR
GS
0.149 GC
2 setlinecap
1 LJ
0.5 LW
N
154.315 374 M
154.315 369.66 L
S
GR
GS
0.149 GC
2 setlinecap
1 LJ
0.5 LW
N
211.86 374 M
211.86 369.66 L
S
GR
GS
0.149 GC
2 setlinecap
1 LJ
0.5 LW
N
269.406 374 M
269.406 369.66 L
S
GR
GS
0.149 GC
2 setlinecap
1 LJ
0.5 LW
N
326.951 374 M
326.951 369.66 L
S
GR
GS
0.149 GC
2 setlinecap
1 LJ
0.5 LW
N
384.497 374 M
384.497 369.66 L
S
GR
GS
0.149 GC
2 setlinecap
1 LJ
0.5 LW
N
442.042 374 M
442.042 369.66 L
S
GR
GS
0.149 GC
2 setlinecap
1 LJ
0.5 LW
N
499.588 374 M
499.588 369.66 L
S
GR
GS
0.149 GC
2 setlinecap
1 LJ
0.5 LW
N
96.769 31.5 M
96.769 35.84 L
S
GR
GS
0.149 GC
2 setlinecap
1 LJ
0.5 LW
N
154.315 31.5 M
154.315 35.84 L
S
GR
GS
0.149 GC
2 setlinecap
1 LJ
0.5 LW
N
211.86 31.5 M
211.86 35.84 L
S
GR
GS
0.149 GC
2 setlinecap
1 LJ
0.5 LW
N
269.406 31.5 M
269.406 35.84 L
S
GR
GS
0.149 GC
2 setlinecap
1 LJ
0.5 LW
N
326.951 31.5 M
326.951 35.84 L
S
GR
GS
0.149 GC
2 setlinecap
1 LJ
0.5 LW
N
384.497 31.5 M
384.497 35.84 L
S
GR
GS
0.149 GC
2 setlinecap
1 LJ
0.5 LW
N
442.042 31.5 M
442.042 35.84 L
S
GR
GS
0.149 GC
2 setlinecap
1 LJ
0.5 LW
N
499.588 31.5 M
499.588 35.84 L
S
GR
GS
0.149 GC
2 setlinecap
1 LJ
0.5 LW
N
73.751 374 M
73.751 371.83 L
S
GR
GS
0.149 GC
2 setlinecap
1 LJ
0.5 LW
N
85.26 374 M
85.26 371.83 L
S
GR
GS
0.149 GC
2 setlinecap
1 LJ
0.5 LW
N
108.278 374 M
108.278 371.83 L
S
GR
GS
0.149 GC
2 setlinecap
1 LJ
0.5 LW
N
119.787 374 M
119.787 371.83 L
S
GR
GS
0.149 GC
2 setlinecap
1 LJ
0.5 LW
N
131.297 374 M
131.297 371.83 L
S
GR
GS
0.149 GC
2 setlinecap
1 LJ
0.5 LW
N
142.806 374 M
142.806 371.83 L
S
GR
GS
0.149 GC
2 setlinecap
1 LJ
0.5 LW
N
165.824 374 M
165.824 371.83 L
S
GR
GS
0.149 GC
2 setlinecap
1 LJ
0.5 LW
N
177.333 374 M
177.333 371.83 L
S
GR
GS
0.149 GC
2 setlinecap
1 LJ
0.5 LW
N
188.842 374 M
188.842 371.83 L
S
GR
GS
0.149 GC
2 setlinecap
1 LJ
0.5 LW
N
200.351 374 M
200.351 371.83 L
S
GR
GS
0.149 GC
2 setlinecap
1 LJ
0.5 LW
N
223.369 374 M
223.369 371.83 L
S
GR
GS
0.149 GC
2 setlinecap
1 LJ
0.5 LW
N
234.878 374 M
234.878 371.83 L
S
GR
GS
0.149 GC
2 setlinecap
1 LJ
0.5 LW
N
246.388 374 M
246.388 371.83 L
S
GR
GS
0.149 GC
2 setlinecap
1 LJ
0.5 LW
N
257.897 374 M
257.897 371.83 L
S
GR
GS
0.149 GC
2 setlinecap
1 LJ
0.5 LW
N
280.915 374 M
280.915 371.83 L
S
GR
GS
0.149 GC
2 setlinecap
1 LJ
0.5 LW
N
292.424 374 M
292.424 371.83 L
S
GR
GS
0.149 GC
2 setlinecap
1 LJ
0.5 LW
N
303.933 374 M
303.933 371.83 L
S
GR
GS
0.149 GC
2 setlinecap
1 LJ
0.5 LW
N
315.442 374 M
315.442 371.83 L
S
GR
GS
0.149 GC
2 setlinecap
1 LJ
0.5 LW
N
338.46 374 M
338.46 371.83 L
S
GR
GS
0.149 GC
2 setlinecap
1 LJ
0.5 LW
N
349.969 374 M
349.969 371.83 L
S
GR
GS
0.149 GC
2 setlinecap
1 LJ
0.5 LW
N
361.479 374 M
361.479 371.83 L
S
GR
GS
0.149 GC
2 setlinecap
1 LJ
0.5 LW
N
372.988 374 M
372.988 371.83 L
S
GR
GS
0.149 GC
2 setlinecap
1 LJ
0.5 LW
N
396.006 374 M
396.006 371.83 L
S
GR
GS
0.149 GC
2 setlinecap
1 LJ
0.5 LW
N
407.515 374 M
407.515 371.83 L
S
GR
GS
0.149 GC
2 setlinecap
1 LJ
0.5 LW
N
419.024 374 M
419.024 371.83 L
S
GR
GS
0.149 GC
2 setlinecap
1 LJ
0.5 LW
N
430.533 374 M
430.533 371.83 L
S
GR
GS
0.149 GC
2 setlinecap
1 LJ
0.5 LW
N
453.551 374 M
453.551 371.83 L
S
GR
GS
0.149 GC
2 setlinecap
1 LJ
0.5 LW
N
465.06 374 M
465.06 371.83 L
S
GR
GS
0.149 GC
2 setlinecap
1 LJ
0.5 LW
N
476.57 374 M
476.57 371.83 L
S
GR
GS
0.149 GC
2 setlinecap
1 LJ
0.5 LW
N
488.079 374 M
488.079 371.83 L
S
GR
GS
0.149 GC
2 setlinecap
1 LJ
0.5 LW
N
73.751 31.5 M
73.751 33.67 L
S
GR
GS
0.149 GC
2 setlinecap
1 LJ
0.5 LW
N
85.26 31.5 M
85.26 33.67 L
S
GR
GS
0.149 GC
2 setlinecap
1 LJ
0.5 LW
N
108.278 31.5 M
108.278 33.67 L
S
GR
GS
0.149 GC
2 setlinecap
1 LJ
0.5 LW
N
119.787 31.5 M
119.787 33.67 L
S
GR
GS
0.149 GC
2 setlinecap
1 LJ
0.5 LW
N
131.297 31.5 M
131.297 33.67 L
S
GR
GS
0.149 GC
2 setlinecap
1 LJ
0.5 LW
N
142.806 31.5 M
142.806 33.67 L
S
GR
GS
0.149 GC
2 setlinecap
1 LJ
0.5 LW
N
165.824 31.5 M
165.824 33.67 L
S
GR
GS
0.149 GC
2 setlinecap
1 LJ
0.5 LW
N
177.333 31.5 M
177.333 33.67 L
S
GR
GS
0.149 GC
2 setlinecap
1 LJ
0.5 LW
N
188.842 31.5 M
188.842 33.67 L
S
GR
GS
0.149 GC
2 setlinecap
1 LJ
0.5 LW
N
200.351 31.5 M
200.351 33.67 L
S
GR
GS
0.149 GC
2 setlinecap
1 LJ
0.5 LW
N
223.369 31.5 M
223.369 33.67 L
S
GR
GS
0.149 GC
2 setlinecap
1 LJ
0.5 LW
N
234.878 31.5 M
234.878 33.67 L
S
GR
GS
0.149 GC
2 setlinecap
1 LJ
0.5 LW
N
246.388 31.5 M
246.388 33.67 L
S
GR
GS
0.149 GC
2 setlinecap
1 LJ
0.5 LW
N
257.897 31.5 M
257.897 33.67 L
S
GR
GS
0.149 GC
2 setlinecap
1 LJ
0.5 LW
N
280.915 31.5 M
280.915 33.67 L
S
GR
GS
0.149 GC
2 setlinecap
1 LJ
0.5 LW
N
292.424 31.5 M
292.424 33.67 L
S
GR
GS
0.149 GC
2 setlinecap
1 LJ
0.5 LW
N
303.933 31.5 M
303.933 33.67 L
S
GR
GS
0.149 GC
2 setlinecap
1 LJ
0.5 LW
N
315.442 31.5 M
315.442 33.67 L
S
GR
GS
0.149 GC
2 setlinecap
1 LJ
0.5 LW
N
338.46 31.5 M
338.46 33.67 L
S
GR
GS
0.149 GC
2 setlinecap
1 LJ
0.5 LW
N
349.969 31.5 M
349.969 33.67 L
S
GR
GS
0.149 GC
2 setlinecap
1 LJ
0.5 LW
N
361.479 31.5 M
361.479 33.67 L
S
GR
GS
0.149 GC
2 setlinecap
1 LJ
0.5 LW
N
372.988 31.5 M
372.988 33.67 L
S
GR
GS
0.149 GC
2 setlinecap
1 LJ
0.5 LW
N
396.006 31.5 M
396.006 33.67 L
S
GR
GS
0.149 GC
2 setlinecap
1 LJ
0.5 LW
N
407.515 31.5 M
407.515 33.67 L
S
GR
GS
0.149 GC
2 setlinecap
1 LJ
0.5 LW
N
419.024 31.5 M
419.024 33.67 L
S
GR
GS
0.149 GC
2 setlinecap
1 LJ
0.5 LW
N
430.533 31.5 M
430.533 33.67 L
S
GR
GS
0.149 GC
2 setlinecap
1 LJ
0.5 LW
N
453.551 31.5 M
453.551 33.67 L
S
GR
GS
0.149 GC
2 setlinecap
1 LJ
0.5 LW
N
465.06 31.5 M
465.06 33.67 L
S
GR
GS
0.149 GC
2 setlinecap
1 LJ
0.5 LW
N
476.57 31.5 M
476.57 33.67 L
S
GR
GS
0.149 GC
2 setlinecap
1 LJ
0.5 LW
N
488.079 31.5 M
488.079 33.67 L
S
GR
GS
[1 0 0 1 96.76929 378.80002] CT
0.149 GC
/Helvetica 14 F
GS
[1 0 0 1 0 0] CT
-16 14 moveto 
1 -1 scale
(1000) t 
GR
GR
GS
[1 0 0 1 154.31479 378.80002] CT
0.149 GC
/Helvetica 14 F
GS
[1 0 0 1 0 0] CT
-16 14 moveto 
1 -1 scale
(2000) t 
GR
GR
GS
[1 0 0 1 211.86029 378.80002] CT
0.149 GC
/Helvetica 14 F
GS
[1 0 0 1 0 0] CT
-16 14 moveto 
1 -1 scale
(3000) t 
GR
GR
GS
[1 0 0 1 269.40579 378.80002] CT
0.149 GC
/Helvetica 14 F
GS
[1 0 0 1 0 0] CT
-16 14 moveto 
1 -1 scale
(4000) t 
GR
GR
GS
[1 0 0 1 326.95129 378.80002] CT
0.149 GC
/Helvetica 14 F
GS
[1 0 0 1 0 0] CT
-16 14 moveto 
1 -1 scale
(5000) t 
GR
GR
GS
[1 0 0 1 384.4968 378.80002] CT
0.149 GC
/Helvetica 14 F
GS
[1 0 0 1 0 0] CT
-16 14 moveto 
1 -1 scale
(6000) t 
GR
GR
GS
[1 0 0 1 442.04227 378.80002] CT
0.149 GC
/Helvetica 14 F
GS
[1 0 0 1 0 0] CT
-16 14 moveto 
1 -1 scale
(7000) t 
GR
GR
GS
[1 0 0 1 499.58777 378.80002] CT
0.149 GC
/Helvetica 14 F
GS
[1 0 0 1 0 0] CT
-16 14 moveto 
1 -1 scale
(8000) t 
GR
GR
GS
[1 0 0 1 290.00018 396.30002] CT
0.149 GC
/Helvetica 15.4 F
GS
[1 0 0 1 0 0] CT
-42 15 moveto 
1 -1 scale
(Bitrate\(kb/s\)) t 
GR
GR
GS
0.149 GC
2 setlinecap
1 LJ
0.5 LW
N
73 374 M
73 31.5 L
S
GR
GS
0.149 GC
2 setlinecap
1 LJ
0.5 LW
N
507 374 M
507 31.5 L
S
GR
GS
0.149 GC
2 setlinecap
1 LJ
0.5 LW
N
73 368.945 M
77.34 368.945 L
S
GR
GS
0.149 GC
2 setlinecap
1 LJ
0.5 LW
N
73 312.57 M
77.34 312.57 L
S
GR
GS
0.149 GC
2 setlinecap
1 LJ
0.5 LW
N
73 256.194 M
77.34 256.194 L
S
GR
GS
0.149 GC
2 setlinecap
1 LJ
0.5 LW
N
73 199.818 M
77.34 199.818 L
S
GR
GS
0.149 GC
2 setlinecap
1 LJ
0.5 LW
N
73 143.443 M
77.34 143.443 L
S
GR
GS
0.149 GC
2 setlinecap
1 LJ
0.5 LW
N
73 87.067 M
77.34 87.067 L
S
GR
GS
0.149 GC
2 setlinecap
1 LJ
0.5 LW
N
507 368.945 M
502.66 368.945 L
S
GR
GS
0.149 GC
2 setlinecap
1 LJ
0.5 LW
N
507 312.57 M
502.66 312.57 L
S
GR
GS
0.149 GC
2 setlinecap
1 LJ
0.5 LW
N
507 256.194 M
502.66 256.194 L
S
GR
GS
0.149 GC
2 setlinecap
1 LJ
0.5 LW
N
507 199.818 M
502.66 199.818 L
S
GR
GS
0.149 GC
2 setlinecap
1 LJ
0.5 LW
N
507 143.443 M
502.66 143.443 L
S
GR
GS
0.149 GC
2 setlinecap
1 LJ
0.5 LW
N
507 87.067 M
502.66 87.067 L
S
GR
GS
0.149 GC
2 setlinecap
1 LJ
0.5 LW
N
73 357.67 M
75.17 357.67 L
S
GR
GS
0.149 GC
2 setlinecap
1 LJ
0.5 LW
N
73 346.395 M
75.17 346.395 L
S
GR
GS
0.149 GC
2 setlinecap
1 LJ
0.5 LW
N
73 335.12 M
75.17 335.12 L
S
GR
GS
0.149 GC
2 setlinecap
1 LJ
0.5 LW
N
73 323.845 M
75.17 323.845 L
S
GR
GS
0.149 GC
2 setlinecap
1 LJ
0.5 LW
N
73 301.295 M
75.17 301.295 L
S
GR
GS
0.149 GC
2 setlinecap
1 LJ
0.5 LW
N
73 290.02 M
75.17 290.02 L
S
GR
GS
0.149 GC
2 setlinecap
1 LJ
0.5 LW
N
73 278.744 M
75.17 278.744 L
S
GR
GS
0.149 GC
2 setlinecap
1 LJ
0.5 LW
N
73 267.469 M
75.17 267.469 L
S
GR
GS
0.149 GC
2 setlinecap
1 LJ
0.5 LW
N
73 244.919 M
75.17 244.919 L
S
GR
GS
0.149 GC
2 setlinecap
1 LJ
0.5 LW
N
73 233.644 M
75.17 233.644 L
S
GR
GS
0.149 GC
2 setlinecap
1 LJ
0.5 LW
N
73 222.369 M
75.17 222.369 L
S
GR
GS
0.149 GC
2 setlinecap
1 LJ
0.5 LW
N
73 211.094 M
75.17 211.094 L
S
GR
GS
0.149 GC
2 setlinecap
1 LJ
0.5 LW
N
73 188.543 M
75.17 188.543 L
S
GR
GS
0.149 GC
2 setlinecap
1 LJ
0.5 LW
N
73 177.268 M
75.17 177.268 L
S
GR
GS
0.149 GC
2 setlinecap
1 LJ
0.5 LW
N
73 165.993 M
75.17 165.993 L
S
GR
GS
0.149 GC
2 setlinecap
1 LJ
0.5 LW
N
73 154.718 M
75.17 154.718 L
S
GR
GS
0.149 GC
2 setlinecap
1 LJ
0.5 LW
N
73 132.168 M
75.17 132.168 L
S
GR
GS
0.149 GC
2 setlinecap
1 LJ
0.5 LW
N
73 120.893 M
75.17 120.893 L
S
GR
GS
0.149 GC
2 setlinecap
1 LJ
0.5 LW
N
73 109.618 M
75.17 109.618 L
S
GR
GS
0.149 GC
2 setlinecap
1 LJ
0.5 LW
N
73 98.342 M
75.17 98.342 L
S
GR
GS
0.149 GC
2 setlinecap
1 LJ
0.5 LW
N
73 75.792 M
75.17 75.792 L
S
GR
GS
0.149 GC
2 setlinecap
1 LJ
0.5 LW
N
73 64.517 M
75.17 64.517 L
S
GR
GS
0.149 GC
2 setlinecap
1 LJ
0.5 LW
N
73 53.242 M
75.17 53.242 L
S
GR
GS
0.149 GC
2 setlinecap
1 LJ
0.5 LW
N
73 41.967 M
75.17 41.967 L
S
GR
GS
0.149 GC
2 setlinecap
1 LJ
0.5 LW
N
507 357.67 M
504.83 357.67 L
S
GR
GS
0.149 GC
2 setlinecap
1 LJ
0.5 LW
N
507 346.395 M
504.83 346.395 L
S
GR
GS
0.149 GC
2 setlinecap
1 LJ
0.5 LW
N
507 335.12 M
504.83 335.12 L
S
GR
GS
0.149 GC
2 setlinecap
1 LJ
0.5 LW
N
507 323.845 M
504.83 323.845 L
S
GR
GS
0.149 GC
2 setlinecap
1 LJ
0.5 LW
N
507 301.295 M
504.83 301.295 L
S
GR
GS
0.149 GC
2 setlinecap
1 LJ
0.5 LW
N
507 290.02 M
504.83 290.02 L
S
GR
GS
0.149 GC
2 setlinecap
1 LJ
0.5 LW
N
507 278.744 M
504.83 278.744 L
S
GR
GS
0.149 GC
2 setlinecap
1 LJ
0.5 LW
N
507 267.469 M
504.83 267.469 L
S
GR
GS
0.149 GC
2 setlinecap
1 LJ
0.5 LW
N
507 244.919 M
504.83 244.919 L
S
GR
GS
0.149 GC
2 setlinecap
1 LJ
0.5 LW
N
507 233.644 M
504.83 233.644 L
S
GR
GS
0.149 GC
2 setlinecap
1 LJ
0.5 LW
N
507 222.369 M
504.83 222.369 L
S
GR
GS
0.149 GC
2 setlinecap
1 LJ
0.5 LW
N
507 211.094 M
504.83 211.094 L
S
GR
GS
0.149 GC
2 setlinecap
1 LJ
0.5 LW
N
507 188.543 M
504.83 188.543 L
S
GR
GS
0.149 GC
2 setlinecap
1 LJ
0.5 LW
N
507 177.268 M
504.83 177.268 L
S
GR
GS
0.149 GC
2 setlinecap
1 LJ
0.5 LW
N
507 165.993 M
504.83 165.993 L
S
GR
GS
0.149 GC
2 setlinecap
1 LJ
0.5 LW
N
507 154.718 M
504.83 154.718 L
S
GR
GS
0.149 GC
2 setlinecap
1 LJ
0.5 LW
N
507 132.168 M
504.83 132.168 L
S
GR
GS
0.149 GC
2 setlinecap
1 LJ
0.5 LW
N
507 120.893 M
504.83 120.893 L
S
GR
GS
0.149 GC
2 setlinecap
1 LJ
0.5 LW
N
507 109.618 M
504.83 109.618 L
S
GR
GS
0.149 GC
2 setlinecap
1 LJ
0.5 LW
N
507 98.342 M
504.83 98.342 L
S
GR
GS
0.149 GC
2 setlinecap
1 LJ
0.5 LW
N
507 75.792 M
504.83 75.792 L
S
GR
GS
0.149 GC
2 setlinecap
1 LJ
0.5 LW
N
507 64.517 M
504.83 64.517 L
S
GR
GS
0.149 GC
2 setlinecap
1 LJ
0.5 LW
N
507 53.242 M
504.83 53.242 L
S
GR
GS
0.149 GC
2 setlinecap
1 LJ
0.5 LW
N
507 41.967 M
504.83 41.967 L
S
GR
GS
[1 0 0 1 68.2 368.94537] CT
0.149 GC
/Helvetica 14 F
GS
[1 0 0 1 0 0] CT
-16 5.5 moveto 
1 -1 scale
(40) t 
GR
GR
GS
[1 0 0 1 68.2 312.56976] CT
0.149 GC
/Helvetica 14 F
GS
[1 0 0 1 0 0] CT
-16 5.5 moveto 
1 -1 scale
(50) t 
GR
GR
GS
[1 0 0 1 68.2 256.19412] CT
0.149 GC
/Helvetica 14 F
GS
[1 0 0 1 0 0] CT
-16 5.5 moveto 
1 -1 scale
(60) t 
GR
GR
GS
[1 0 0 1 68.2 199.8185] CT
0.149 GC
/Helvetica 14 F
GS
[1 0 0 1 0 0] CT
-16 5.5 moveto 
1 -1 scale
(70) t 
GR
GR
GS
[1 0 0 1 68.2 143.44287] CT
0.149 GC
/Helvetica 14 F
GS
[1 0 0 1 0 0] CT
-16 5.5 moveto 
1 -1 scale
(80) t 
GR
GR
GS
[1 0 0 1 68.2 87.06725] CT
0.149 GC
/Helvetica 14 F
GS
[1 0 0 1 0 0] CT
-16 5.5 moveto 
1 -1 scale
(90) t 
GR
GR
GS
[0 -1 1 0 49.2 202.74985] CT
0.149 GC
/Helvetica 15.4 F
GS
[1 0 0 1 0 0] CT
-40 -4 moveto 
1 -1 scale
(VMAF-NEG) t 
GR
GR
GS
[1 0 0 1 290.00027 29.57497] CT
/Helvetica-Bold 15.4 F
GS
[1 0 0 1 0 0] CT
-101.5 -4 moveto 
1 -1 scale
(Vlog_1080P-58ad.y4m-hevc) t 
GR
GR
GS
0 0.447 0.741 RC
1 LJ
0.5 LW
N
74.474 370.246 M
75.625 365.511 L
76.776 360.797 L
77.927 356.109 L
79.077 351.448 L
80.228 346.819 L
81.379 342.223 L
82.53 337.665 L
83.681 333.148 L
84.832 328.673 L
85.983 324.246 L
87.134 319.868 L
88.285 315.542 L
89.436 311.273 L
90.587 307.062 L
91.738 302.913 L
92.888 298.83 L
94.039 294.814 L
95.19 290.87 L
96.341 287 L
97.492 283.207 L
98.643 279.496 L
99.794 275.867 L
100.945 272.326 L
102.096 268.874 L
103.247 265.515 L
104.398 262.252 L
105.548 259.057 L
106.699 255.884 L
107.85 252.733 L
109.001 249.604 L
110.152 246.497 L
111.303 243.415 L
112.454 240.356 L
113.605 237.323 L
114.756 234.314 L
115.907 231.332 L
117.058 228.377 L
118.208 225.449 L
119.359 222.549 L
120.51 219.678 L
121.661 216.836 L
122.812 214.024 L
123.963 211.243 L
125.114 208.493 L
126.265 205.776 L
127.416 203.09 L
128.567 200.438 L
129.718 197.82 L
130.868 195.236 L
132.019 192.688 L
133.17 190.175 L
134.321 187.699 L
135.472 185.26 L
136.623 182.858 L
137.774 180.495 L
138.925 178.171 L
140.076 175.887 L
141.227 173.643 L
142.378 171.44 L
143.528 169.279 L
144.679 167.16 L
145.83 165.084 L
146.981 163.052 L
148.132 161.063 L
149.283 159.12 L
150.434 157.222 L
151.585 155.371 L
152.736 153.566 L
153.887 151.808 L
155.038 150.099 L
156.188 148.438 L
157.339 146.825 L
158.49 145.225 L
159.641 143.628 L
160.792 142.035 L
161.943 140.445 L
163.094 138.86 L
164.245 137.278 L
165.396 135.702 L
166.547 134.13 L
167.698 132.564 L
168.848 131.003 L
169.999 129.449 L
171.15 127.901 L
172.301 126.36 L
173.452 124.825 L
174.603 123.299 L
175.754 121.78 L
176.905 120.269 L
178.056 118.767 L
179.207 117.273 L
180.358 115.789 L
181.508 114.315 L
182.659 112.85 L
183.81 111.395 L
184.961 109.951 L
186.112 108.518 L
187.263 107.096 L
188.414 105.685 L
189.565 104.287 L
190.716 102.901 L
191.867 101.527 L
193.018 100.167 L
194.168 98.819 L
195.319 97.486 L
196.47 96.166 L
197.621 94.861 L
198.772 93.57 L
199.923 92.295 L
201.074 91.034 L
202.225 89.79 L
203.376 88.562 L
204.527 87.35 L
205.678 86.154 L
206.829 84.976 L
207.979 83.816 L
209.13 82.673 L
210.281 81.548 L
211.432 80.442 L
212.583 79.354 L
213.734 78.286 L
214.885 77.237 L
216.036 76.208 L
217.187 75.199 L
218.338 74.211 L
219.489 73.244 L
220.639 72.298 L
221.79 71.373 L
222.941 70.471 L
224.092 69.59 L
225.243 68.733 L
226.394 67.898 L
227.545 67.086 L
228.696 66.299 L
229.847 65.535 L
230.998 64.795 L
232.149 64.081 L
233.299 63.391 L
234.45 62.726 L
235.601 62.088 L
236.752 61.475 L
237.903 60.889 L
239.054 60.329 L
240.205 59.797 L
241.356 59.292 L
242.507 58.815 L
243.658 58.366 L
244.809 57.945 L
245.959 57.553 L
247.11 57.191 L
248.261 56.858 L
249.412 56.554 L
250.563 56.281 L
251.714 56.036 L
252.865 55.798 L
254.016 55.561 L
255.167 55.326 L
256.318 55.091 L
257.469 54.858 L
258.619 54.626 L
259.77 54.395 L
260.921 54.165 L
262.072 53.937 L
263.223 53.71 L
264.374 53.484 L
265.525 53.259 L
266.676 53.035 L
267.827 52.813 L
268.978 52.592 L
270.129 52.372 L
271.279 52.153 L
272.43 51.936 L
273.581 51.719 L
274.732 51.504 L
275.883 51.29 L
277.034 51.078 L
278.185 50.866 L
279.336 50.656 L
280.487 50.447 L
281.638 50.239 L
282.789 50.032 L
283.939 49.827 L
285.09 49.622 L
286.241 49.419 L
287.392 49.217 L
288.543 49.017 L
289.694 48.817 L
290.845 48.619 L
291.996 48.422 L
293.147 48.226 L
294.298 48.031 L
295.449 47.838 L
296.599 47.645 L
297.75 47.454 L
298.901 47.264 L
300.052 47.075 L
301.203 46.888 L
302.354 46.701 L
303.505 46.516 L
304.656 46.332 L
305.807 46.149 L
306.958 45.967 L
308.109 45.787 L
309.259 45.608 L
310.41 45.429 L
311.561 45.252 L
312.712 45.077 L
313.863 44.902 L
315.014 44.729 L
316.165 44.556 L
317.316 44.385 L
318.467 44.215 L
319.618 44.047 L
320.769 43.879 L
321.919 43.713 L
323.07 43.547 L
324.221 43.383 L
325.372 43.22 L
326.523 43.059 L
327.674 42.898 L
328.825 42.739 L
329.976 42.58 L
331.127 42.423 L
332.278 42.267 L
333.429 42.113 L
334.579 41.959 L
335.73 41.807 L
336.881 41.655 L
338.032 41.505 L
339.183 41.356 L
340.334 41.209 L
341.485 41.062 L
342.636 40.916 L
343.787 40.772 L
344.938 40.629 L
346.089 40.487 L
347.24 40.346 L
348.39 40.206 L
349.541 40.068 L
350.692 39.93 L
351.843 39.794 L
352.994 39.659 L
354.145 39.525 L
355.296 39.392 L
356.447 39.26 L
357.598 39.13 L
358.749 39 L
359.9 38.872 L
361.05 38.745 L
362.201 38.619 L
363.352 38.494 L
364.503 38.37 L
365.654 38.248 L
366.805 38.126 L
367.956 38.006 L
369.107 37.887 L
370.258 37.769 L
371.409 37.652 L
372.56 37.536 L
373.71 37.421 L
374.861 37.308 L
376.012 37.195 L
377.163 37.084 L
378.314 36.974 L
379.465 36.865 L
380.616 36.757 L
381.767 36.65 L
382.918 36.545 L
384.069 36.44 L
385.22 36.337 L
386.37 36.234 L
387.521 36.133 L
388.672 36.033 L
389.823 35.934 L
390.974 35.837 L
392.125 35.74 L
393.276 35.644 L
394.427 35.55 L
395.578 35.456 L
396.729 35.364 L
397.88 35.273 L
399.03 35.183 L
400.181 35.094 L
401.332 35.006 L
402.483 34.92 L
403.634 34.834 L
404.785 34.75 L
405.936 34.666 L
407.087 34.584 L
408.238 34.503 L
409.389 34.423 L
410.54 34.344 L
411.69 34.266 L
412.841 34.189 L
413.992 34.114 L
415.143 34.039 L
416.294 33.966 L
417.445 33.894 L
418.596 33.822 L
419.747 33.752 L
420.898 33.683 L
422.049 33.615 L
423.2 33.548 L
424.35 33.482 L
425.501 33.418 L
426.652 33.354 L
427.803 33.292 L
428.954 33.23 L
430.105 33.17 L
431.256 33.111 L
432.407 33.053 L
433.558 32.996 L
434.709 32.94 L
435.86 32.885 L
437.01 32.831 L
438.161 32.778 L
439.312 32.726 L
440.463 32.676 L
441.614 32.626 L
442.765 32.578 L
443.916 32.531 L
445.067 32.484 L
446.218 32.439 L
447.369 32.395 L
448.52 32.352 L
449.671 32.31 L
450.821 32.269 L
451.972 32.229 L
453.123 32.19 L
454.274 32.153 L
455.425 32.116 L
456.576 32.081 L
457.727 32.046 L
458.878 32.013 L
460.029 31.98 L
461.18 31.949 L
462.331 31.919 L
463.481 31.89 L
464.632 31.862 L
465.783 31.835 L
466.934 31.809 L
468.085 31.784 L
469.236 31.76 L
470.387 31.737 L
471.538 31.715 L
472.689 31.694 L
473.84 31.675 L
474.991 31.656 L
476.141 31.639 L
477.292 31.622 L
478.443 31.607 L
479.594 31.592 L
480.745 31.579 L
481.896 31.567 L
483.047 31.555 L
484.198 31.545 L
485.349 31.536 L
486.5 31.528 L
487.651 31.521 L
488.801 31.515 L
489.952 31.51 L
491.103 31.506 L
492.254 31.503 L
493.405 31.501 L
494.556 31.5 L
S
GR
GS
0.851 0.325 0.098 RC
1 LJ
0.5 LW
N
74.212 371.71 M
75.363 366.938 L
76.514 362.188 L
77.664 357.464 L
78.815 352.768 L
79.966 348.103 L
81.117 343.473 L
82.268 338.88 L
83.419 334.329 L
84.57 329.822 L
85.721 325.362 L
86.872 320.953 L
88.023 316.597 L
89.174 312.298 L
90.324 308.059 L
91.475 303.884 L
92.626 299.775 L
93.777 295.735 L
94.928 291.768 L
96.079 287.877 L
97.23 284.065 L
98.381 280.336 L
99.532 276.692 L
100.683 273.136 L
101.834 269.672 L
102.984 266.303 L
104.135 263.032 L
105.286 259.817 L
106.437 256.623 L
107.588 253.451 L
108.739 250.302 L
109.89 247.177 L
111.041 244.075 L
112.192 240.999 L
113.343 237.947 L
114.494 234.922 L
115.644 231.923 L
116.795 228.952 L
117.946 226.008 L
119.097 223.093 L
120.248 220.207 L
121.399 217.352 L
122.55 214.526 L
123.701 211.732 L
124.852 208.97 L
126.003 206.24 L
127.154 203.543 L
128.304 200.88 L
129.455 198.251 L
130.606 195.657 L
131.757 193.099 L
132.908 190.577 L
134.059 188.092 L
135.21 185.645 L
136.361 183.235 L
137.512 180.865 L
138.663 178.534 L
139.814 176.244 L
140.964 173.994 L
142.115 171.785 L
143.266 169.619 L
144.417 167.496 L
145.568 165.415 L
146.719 163.379 L
147.87 161.388 L
149.021 159.441 L
150.172 157.541 L
151.323 155.687 L
152.474 153.881 L
153.624 152.122 L
154.775 150.412 L
155.926 148.751 L
157.077 147.131 L
158.228 145.517 L
159.379 143.906 L
160.53 142.298 L
161.681 140.695 L
162.832 139.095 L
163.983 137.5 L
165.134 135.91 L
166.285 134.325 L
167.435 132.746 L
168.586 131.172 L
169.737 129.605 L
170.888 128.045 L
172.039 126.491 L
173.19 124.945 L
174.341 123.406 L
175.492 121.876 L
176.643 120.354 L
177.794 118.841 L
178.945 117.336 L
180.095 115.842 L
181.246 114.357 L
182.397 112.882 L
183.548 111.417 L
184.699 109.964 L
185.85 108.522 L
187.001 107.091 L
188.152 105.672 L
189.303 104.266 L
190.454 102.872 L
191.605 101.491 L
192.755 100.123 L
193.906 98.769 L
195.057 97.429 L
196.208 96.104 L
197.359 94.793 L
198.51 93.497 L
199.661 92.217 L
200.812 90.953 L
201.963 89.704 L
203.114 88.473 L
204.265 87.258 L
205.415 86.06 L
206.566 84.88 L
207.717 83.717 L
208.868 82.573 L
210.019 81.448 L
211.17 80.341 L
212.321 79.254 L
213.472 78.187 L
214.623 77.139 L
215.774 76.112 L
216.925 75.106 L
218.075 74.12 L
219.226 73.156 L
220.377 72.214 L
221.528 71.294 L
222.679 70.397 L
223.83 69.522 L
224.981 68.671 L
226.132 67.843 L
227.283 67.039 L
228.434 66.259 L
229.585 65.504 L
230.735 64.774 L
231.886 64.069 L
233.037 63.389 L
234.188 62.736 L
235.339 62.109 L
236.49 61.509 L
237.641 60.936 L
238.792 60.39 L
239.943 59.872 L
241.094 59.382 L
242.245 58.921 L
243.395 58.488 L
244.546 58.085 L
245.697 57.711 L
246.848 57.367 L
247.999 57.054 L
249.15 56.771 L
250.301 56.517 L
251.452 56.273 L
252.603 56.03 L
253.754 55.788 L
254.905 55.548 L
256.055 55.309 L
257.206 55.071 L
258.357 54.834 L
259.508 54.599 L
260.659 54.364 L
261.81 54.131 L
262.961 53.9 L
264.112 53.669 L
265.263 53.44 L
266.414 53.212 L
267.565 52.985 L
268.715 52.76 L
269.866 52.536 L
271.017 52.313 L
272.168 52.091 L
273.319 51.87 L
274.47 51.651 L
275.621 51.433 L
276.772 51.216 L
277.923 51.001 L
279.074 50.786 L
280.225 50.573 L
281.376 50.362 L
282.526 50.151 L
283.677 49.942 L
284.828 49.733 L
285.979 49.526 L
287.13 49.321 L
288.281 49.116 L
289.432 48.913 L
290.583 48.711 L
291.734 48.51 L
292.885 48.311 L
294.036 48.112 L
295.186 47.915 L
296.337 47.719 L
297.488 47.525 L
298.639 47.331 L
299.79 47.139 L
300.941 46.948 L
302.092 46.758 L
303.243 46.57 L
304.394 46.382 L
305.545 46.196 L
306.696 46.011 L
307.846 45.828 L
308.997 45.645 L
310.148 45.464 L
311.299 45.284 L
312.45 45.105 L
313.601 44.928 L
314.752 44.751 L
315.903 44.576 L
317.054 44.402 L
318.205 44.229 L
319.356 44.058 L
320.506 43.887 L
321.657 43.718 L
322.808 43.55 L
323.959 43.383 L
325.11 43.218 L
326.261 43.053 L
327.412 42.89 L
328.563 42.728 L
329.714 42.567 L
330.865 42.408 L
332.016 42.25 L
333.166 42.092 L
334.317 41.936 L
335.468 41.782 L
336.619 41.628 L
337.77 41.476 L
338.921 41.325 L
340.072 41.174 L
341.223 41.026 L
342.374 40.878 L
343.525 40.732 L
344.676 40.586 L
345.826 40.442 L
346.977 40.299 L
348.128 40.158 L
349.279 40.017 L
350.43 39.878 L
351.581 39.74 L
352.732 39.603 L
353.883 39.467 L
355.034 39.332 L
356.185 39.199 L
357.336 39.067 L
358.486 38.936 L
359.637 38.806 L
360.788 38.677 L
361.939 38.55 L
363.09 38.423 L
364.241 38.298 L
365.392 38.174 L
366.543 38.051 L
367.694 37.93 L
368.845 37.809 L
369.996 37.69 L
371.146 37.572 L
372.297 37.455 L
373.448 37.339 L
374.599 37.224 L
375.75 37.111 L
376.901 36.998 L
378.052 36.887 L
379.203 36.777 L
380.354 36.668 L
381.505 36.561 L
382.656 36.454 L
383.806 36.349 L
384.957 36.245 L
386.108 36.142 L
387.259 36.04 L
388.41 35.939 L
389.561 35.839 L
390.712 35.741 L
391.863 35.644 L
393.014 35.548 L
394.165 35.453 L
395.316 35.359 L
396.466 35.266 L
397.617 35.175 L
398.768 35.084 L
399.919 34.995 L
401.07 34.907 L
402.221 34.82 L
403.372 34.734 L
404.523 34.65 L
405.674 34.566 L
406.825 34.484 L
407.976 34.403 L
409.126 34.323 L
410.277 34.244 L
411.428 34.166 L
412.579 34.089 L
413.73 34.014 L
414.881 33.939 L
416.032 33.866 L
417.183 33.794 L
418.334 33.723 L
419.485 33.653 L
420.636 33.585 L
421.787 33.517 L
422.937 33.451 L
424.088 33.385 L
425.239 33.321 L
426.39 33.258 L
427.541 33.196 L
428.692 33.135 L
429.843 33.076 L
430.994 33.017 L
432.145 32.96 L
433.296 32.903 L
434.447 32.848 L
435.597 32.794 L
436.748 32.741 L
437.899 32.689 L
439.05 32.639 L
440.201 32.589 L
441.352 32.541 L
442.503 32.493 L
443.654 32.447 L
444.805 32.402 L
445.956 32.358 L
447.107 32.315 L
448.257 32.273 L
449.408 32.233 L
450.559 32.193 L
451.71 32.155 L
452.861 32.117 L
454.012 32.081 L
455.163 32.046 L
456.314 32.012 L
457.465 31.979 L
458.616 31.947 L
459.767 31.916 L
460.917 31.887 L
462.068 31.858 L
463.219 31.831 L
464.37 31.805 L
465.521 31.779 L
466.672 31.755 L
467.823 31.732 L
468.974 31.71 L
470.125 31.69 L
471.276 31.67 L
472.427 31.651 L
473.577 31.634 L
474.728 31.617 L
475.879 31.602 L
477.03 31.588 L
478.181 31.574 L
479.332 31.562 L
480.483 31.551 L
481.634 31.541 L
482.785 31.533 L
483.936 31.525 L
485.087 31.518 L
486.237 31.513 L
487.388 31.508 L
488.539 31.505 L
489.69 31.503 L
490.841 31.501 L
S
GR
GS
0.929 0.694 0.125 RC
1 LJ
0.5 LW
N
73 374 M
74.151 369.081 L
75.302 364.187 L
76.453 359.32 L
77.604 354.483 L
78.755 349.68 L
79.905 344.915 L
81.056 340.189 L
82.207 335.508 L
83.358 330.873 L
84.509 326.288 L
85.66 321.757 L
86.811 317.282 L
87.962 312.868 L
89.113 308.517 L
90.264 304.232 L
91.415 300.017 L
92.565 295.874 L
93.716 291.809 L
94.867 287.822 L
96.018 283.919 L
97.169 280.102 L
98.32 276.373 L
99.471 272.738 L
100.622 269.198 L
101.773 265.758 L
102.924 262.404 L
104.075 259.079 L
105.225 255.775 L
106.376 252.496 L
107.527 249.24 L
108.678 246.01 L
109.829 242.805 L
110.98 239.627 L
112.131 236.476 L
113.282 233.352 L
114.433 230.258 L
115.584 227.192 L
116.735 224.157 L
117.885 221.153 L
119.036 218.18 L
120.187 215.24 L
121.338 212.333 L
122.489 209.46 L
123.64 206.621 L
124.791 203.818 L
125.942 201.051 L
127.093 198.321 L
128.244 195.628 L
129.395 192.974 L
130.546 190.359 L
131.696 187.784 L
132.847 185.249 L
133.998 182.756 L
135.149 180.305 L
136.3 177.896 L
137.451 175.532 L
138.602 173.211 L
139.753 170.936 L
140.904 168.706 L
142.055 166.523 L
143.206 164.388 L
144.356 162.3 L
145.507 160.261 L
146.658 158.272 L
147.809 156.333 L
148.96 154.446 L
150.111 152.61 L
151.262 150.826 L
152.413 149.096 L
153.564 147.395 L
154.715 145.697 L
155.866 144.002 L
157.016 142.311 L
158.167 140.624 L
159.318 138.94 L
160.469 137.262 L
161.62 135.589 L
162.771 133.921 L
163.922 132.26 L
165.073 130.604 L
166.224 128.956 L
167.375 127.315 L
168.526 125.682 L
169.676 124.057 L
170.827 122.44 L
171.978 120.833 L
173.129 119.235 L
174.28 117.646 L
175.431 116.068 L
176.582 114.501 L
177.733 112.944 L
178.884 111.4 L
180.035 109.867 L
181.186 108.346 L
182.336 106.839 L
183.487 105.344 L
184.638 103.863 L
185.789 102.397 L
186.94 100.944 L
188.091 99.507 L
189.242 98.085 L
190.393 96.679 L
191.544 95.289 L
192.695 93.915 L
193.846 92.559 L
194.996 91.22 L
196.147 89.898 L
197.298 88.596 L
198.449 87.311 L
199.6 86.046 L
200.751 84.801 L
201.902 83.576 L
203.053 82.371 L
204.204 81.186 L
205.355 80.023 L
206.506 78.882 L
207.656 77.763 L
208.807 76.666 L
209.958 75.593 L
211.109 74.542 L
212.26 73.516 L
213.411 72.514 L
214.562 71.536 L
215.713 70.583 L
216.864 69.656 L
218.015 68.755 L
219.166 67.88 L
220.316 67.032 L
221.467 66.211 L
222.618 65.418 L
223.769 64.653 L
224.92 63.916 L
226.071 63.208 L
227.222 62.529 L
228.373 61.88 L
229.524 61.261 L
230.675 60.673 L
231.826 60.116 L
232.976 59.59 L
234.127 59.096 L
235.278 58.634 L
236.429 58.205 L
237.58 57.809 L
238.731 57.447 L
239.882 57.118 L
241.033 56.824 L
242.184 56.563 L
243.335 56.311 L
244.486 56.061 L
245.636 55.811 L
246.787 55.563 L
247.938 55.317 L
249.089 55.072 L
250.24 54.828 L
251.391 54.585 L
252.542 54.344 L
253.693 54.104 L
254.844 53.866 L
255.995 53.629 L
257.146 53.393 L
258.297 53.158 L
259.447 52.925 L
260.598 52.693 L
261.749 52.463 L
262.9 52.234 L
264.051 52.006 L
265.202 51.779 L
266.353 51.554 L
267.504 51.33 L
268.655 51.108 L
269.806 50.887 L
270.957 50.667 L
272.107 50.449 L
273.258 50.231 L
274.409 50.015 L
275.56 49.801 L
276.711 49.588 L
277.862 49.376 L
279.013 49.165 L
280.164 48.956 L
281.315 48.748 L
282.466 48.541 L
283.617 48.336 L
284.767 48.132 L
285.918 47.929 L
287.069 47.728 L
288.22 47.528 L
289.371 47.329 L
290.522 47.132 L
291.673 46.936 L
292.824 46.741 L
293.975 46.547 L
295.126 46.355 L
296.277 46.164 L
297.427 45.975 L
298.578 45.786 L
299.729 45.599 L
300.88 45.413 L
302.031 45.229 L
303.182 45.046 L
304.333 44.864 L
305.484 44.683 L
306.635 44.504 L
307.786 44.326 L
308.937 44.149 L
310.087 43.974 L
311.238 43.8 L
312.389 43.627 L
313.54 43.456 L
314.691 43.285 L
315.842 43.116 L
316.993 42.949 L
318.144 42.782 L
319.295 42.617 L
320.446 42.453 L
321.597 42.291 L
322.747 42.129 L
323.898 41.969 L
325.049 41.81 L
326.2 41.653 L
327.351 41.497 L
328.502 41.342 L
329.653 41.188 L
330.804 41.036 L
331.955 40.884 L
333.106 40.734 L
334.257 40.586 L
335.407 40.438 L
336.558 40.292 L
337.709 40.148 L
338.86 40.004 L
340.011 39.862 L
341.162 39.721 L
342.313 39.581 L
343.464 39.442 L
344.615 39.305 L
345.766 39.169 L
346.917 39.034 L
348.067 38.9 L
349.218 38.768 L
350.369 38.637 L
351.52 38.507 L
352.671 38.379 L
353.822 38.251 L
354.973 38.125 L
356.124 38 L
357.275 37.877 L
358.426 37.754 L
359.577 37.633 L
360.727 37.513 L
361.878 37.395 L
363.029 37.277 L
364.18 37.161 L
365.331 37.046 L
366.482 36.932 L
367.633 36.82 L
368.784 36.709 L
369.935 36.599 L
371.086 36.49 L
372.237 36.382 L
373.387 36.276 L
374.538 36.171 L
375.689 36.067 L
376.84 35.964 L
377.991 35.863 L
379.142 35.762 L
380.293 35.663 L
381.444 35.566 L
382.595 35.469 L
383.746 35.374 L
384.897 35.279 L
386.048 35.187 L
387.198 35.095 L
388.349 35.004 L
389.5 34.915 L
390.651 34.827 L
391.802 34.74 L
392.953 34.654 L
394.104 34.57 L
395.255 34.486 L
396.406 34.404 L
397.557 34.323 L
398.708 34.244 L
399.858 34.165 L
401.009 34.088 L
402.16 34.012 L
403.311 33.937 L
404.462 33.863 L
405.613 33.791 L
406.764 33.719 L
407.915 33.649 L
409.066 33.58 L
410.217 33.512 L
411.368 33.446 L
412.518 33.38 L
413.669 33.316 L
414.82 33.253 L
415.971 33.191 L
417.122 33.131 L
418.273 33.071 L
419.424 33.013 L
420.575 32.956 L
421.726 32.9 L
422.877 32.845 L
424.028 32.791 L
425.178 32.739 L
426.329 32.688 L
427.48 32.638 L
428.631 32.589 L
429.782 32.541 L
430.933 32.494 L
432.084 32.449 L
433.235 32.405 L
434.386 32.362 L
435.537 32.32 L
436.688 32.279 L
437.838 32.239 L
438.989 32.201 L
440.14 32.164 L
441.291 32.128 L
442.442 32.093 L
443.593 32.059 L
444.744 32.026 L
445.895 31.995 L
447.046 31.964 L
448.197 31.935 L
449.348 31.907 L
450.498 31.88 L
451.649 31.854 L
452.8 31.83 L
453.951 31.806 L
455.102 31.784 L
456.253 31.763 L
457.404 31.743 L
458.555 31.724 L
459.706 31.706 L
460.857 31.689 L
462.008 31.674 L
463.158 31.66 L
464.309 31.646 L
465.46 31.634 L
466.611 31.623 L
467.762 31.614 L
468.913 31.605 L
470.064 31.597 L
471.215 31.591 L
472.366 31.586 L
473.517 31.581 L
474.668 31.578 L
475.818 31.576 L
476.969 31.576 L
S
GR
GS
0.494 0.184 0.557 RC
1 LJ
0.5 LW
N
75.409 365 M
76.56 360.342 L
77.711 355.706 L
78.861 351.093 L
80.012 346.507 L
81.163 341.951 L
82.314 337.428 L
83.465 332.941 L
84.616 328.493 L
85.767 324.087 L
86.918 319.725 L
88.069 315.412 L
89.22 311.149 L
90.371 306.94 L
91.522 302.788 L
92.672 298.695 L
93.823 294.666 L
94.974 290.702 L
96.125 286.807 L
97.276 282.984 L
98.427 279.235 L
99.578 275.564 L
100.729 271.974 L
101.88 268.467 L
103.031 265.048 L
104.182 261.717 L
105.332 258.48 L
106.483 255.333 L
107.634 252.223 L
108.785 249.134 L
109.936 246.066 L
111.087 243.02 L
112.238 239.996 L
113.389 236.995 L
114.54 234.018 L
115.691 231.065 L
116.842 228.138 L
117.992 225.235 L
119.143 222.359 L
120.294 219.51 L
121.445 216.687 L
122.596 213.893 L
123.747 211.128 L
124.898 208.391 L
126.049 205.685 L
127.2 203.009 L
128.351 200.364 L
129.502 197.75 L
130.652 195.169 L
131.803 192.621 L
132.954 190.107 L
134.105 187.626 L
135.256 185.18 L
136.407 182.77 L
137.558 180.395 L
138.709 178.058 L
139.86 175.757 L
141.011 173.494 L
142.162 171.27 L
143.312 169.084 L
144.463 166.939 L
145.614 164.833 L
146.765 162.769 L
147.916 160.746 L
149.067 158.765 L
150.218 156.827 L
151.369 154.932 L
152.52 153.081 L
153.671 151.275 L
154.822 149.514 L
155.972 147.799 L
157.123 146.13 L
158.274 144.509 L
159.425 142.935 L
160.576 141.393 L
161.727 139.854 L
162.878 138.319 L
164.029 136.786 L
165.18 135.258 L
166.331 133.733 L
167.482 132.212 L
168.632 130.696 L
169.783 129.185 L
170.934 127.679 L
172.085 126.178 L
173.236 124.683 L
174.387 123.195 L
175.538 121.713 L
176.689 120.238 L
177.84 118.77 L
178.991 117.309 L
180.142 115.857 L
181.292 114.412 L
182.443 112.976 L
183.594 111.549 L
184.745 110.131 L
185.896 108.722 L
187.047 107.323 L
188.198 105.934 L
189.349 104.556 L
190.5 103.188 L
191.651 101.832 L
192.802 100.487 L
193.952 99.153 L
195.103 97.832 L
196.254 96.523 L
197.405 95.226 L
198.556 93.943 L
199.707 92.673 L
200.858 91.417 L
202.009 90.175 L
203.16 88.947 L
204.311 87.733 L
205.462 86.535 L
206.612 85.352 L
207.763 84.185 L
208.914 83.033 L
210.065 81.898 L
211.216 80.78 L
212.367 79.678 L
213.518 78.594 L
214.669 77.527 L
215.82 76.478 L
216.971 75.448 L
218.122 74.436 L
219.273 73.443 L
220.423 72.469 L
221.574 71.514 L
222.725 70.58 L
223.876 69.666 L
225.027 68.772 L
226.178 67.899 L
227.329 67.047 L
228.48 66.217 L
229.631 65.408 L
230.782 64.622 L
231.933 63.858 L
233.083 63.117 L
234.234 62.399 L
235.385 61.705 L
236.536 61.034 L
237.687 60.388 L
238.838 59.766 L
239.989 59.168 L
241.14 58.596 L
242.291 58.049 L
243.442 57.528 L
244.593 57.033 L
245.743 56.564 L
246.894 56.122 L
248.045 55.707 L
249.196 55.32 L
250.347 54.96 L
251.498 54.628 L
252.649 54.324 L
253.8 54.049 L
254.951 53.803 L
256.102 53.585 L
257.253 53.376 L
258.403 53.167 L
259.554 52.96 L
260.705 52.753 L
261.856 52.548 L
263.007 52.343 L
264.158 52.14 L
265.309 51.938 L
266.46 51.737 L
267.611 51.537 L
268.762 51.338 L
269.913 51.14 L
271.063 50.943 L
272.214 50.747 L
273.365 50.552 L
274.516 50.359 L
275.667 50.166 L
276.818 49.974 L
277.969 49.784 L
279.12 49.594 L
280.271 49.406 L
281.422 49.219 L
282.573 49.032 L
283.723 48.847 L
284.874 48.663 L
286.025 48.48 L
287.176 48.298 L
288.327 48.117 L
289.478 47.937 L
290.629 47.758 L
291.78 47.58 L
292.931 47.403 L
294.082 47.227 L
295.233 47.052 L
296.383 46.879 L
297.534 46.706 L
298.685 46.534 L
299.836 46.364 L
300.987 46.194 L
302.138 46.026 L
303.289 45.858 L
304.44 45.692 L
305.591 45.526 L
306.742 45.362 L
307.893 45.198 L
309.043 45.036 L
310.194 44.875 L
311.345 44.714 L
312.496 44.555 L
313.647 44.397 L
314.798 44.24 L
315.949 44.083 L
317.1 43.928 L
318.251 43.774 L
319.402 43.621 L
320.553 43.469 L
321.703 43.318 L
322.854 43.168 L
324.005 43.018 L
325.156 42.87 L
326.307 42.723 L
327.458 42.577 L
328.609 42.432 L
329.76 42.288 L
330.911 42.145 L
332.062 42.003 L
333.213 41.862 L
334.363 41.722 L
335.514 41.583 L
336.665 41.445 L
337.816 41.308 L
338.967 41.172 L
340.118 41.037 L
341.269 40.903 L
342.42 40.77 L
343.571 40.638 L
344.722 40.507 L
345.873 40.377 L
347.023 40.248 L
348.174 40.12 L
349.325 39.993 L
350.476 39.867 L
351.627 39.742 L
352.778 39.618 L
353.929 39.495 L
355.08 39.373 L
356.231 39.252 L
357.382 39.132 L
358.533 39.013 L
359.684 38.895 L
360.834 38.778 L
361.985 38.661 L
363.136 38.546 L
364.287 38.432 L
365.438 38.319 L
366.589 38.206 L
367.74 38.095 L
368.891 37.985 L
370.042 37.875 L
371.193 37.767 L
372.344 37.66 L
373.494 37.553 L
374.645 37.448 L
375.796 37.343 L
376.947 37.24 L
378.098 37.137 L
379.249 37.036 L
380.4 36.935 L
381.551 36.835 L
382.702 36.737 L
383.853 36.639 L
385.004 36.542 L
386.154 36.446 L
387.305 36.351 L
388.456 36.257 L
389.607 36.164 L
390.758 36.072 L
391.909 35.981 L
393.06 35.891 L
394.211 35.802 L
395.362 35.714 L
396.513 35.626 L
397.664 35.54 L
398.814 35.455 L
399.965 35.37 L
401.116 35.287 L
402.267 35.204 L
403.418 35.123 L
404.569 35.042 L
405.72 34.962 L
406.871 34.883 L
408.022 34.806 L
409.173 34.729 L
410.324 34.653 L
411.474 34.578 L
412.625 34.504 L
413.776 34.43 L
414.927 34.358 L
416.078 34.287 L
417.229 34.216 L
418.38 34.147 L
419.531 34.078 L
420.682 34.011 L
421.833 33.944 L
422.984 33.878 L
424.134 33.814 L
425.285 33.75 L
426.436 33.687 L
427.587 33.625 L
428.738 33.563 L
429.889 33.503 L
431.04 33.444 L
432.191 33.385 L
433.342 33.328 L
434.493 33.271 L
435.644 33.216 L
436.794 33.161 L
437.945 33.107 L
439.096 33.054 L
440.247 33.002 L
441.398 32.951 L
442.549 32.901 L
443.7 32.851 L
444.851 32.803 L
446.002 32.755 L
447.153 32.709 L
448.304 32.663 L
449.454 32.618 L
450.605 32.574 L
451.756 32.531 L
452.907 32.489 L
454.058 32.448 L
455.209 32.408 L
456.36 32.368 L
457.511 32.33 L
458.662 32.292 L
459.813 32.255 L
460.964 32.219 L
462.115 32.184 L
463.265 32.15 L
464.416 32.117 L
465.567 32.085 L
466.718 32.053 L
467.869 32.023 L
469.02 31.993 L
470.171 31.964 L
471.322 31.936 L
472.473 31.909 L
473.624 31.883 L
474.775 31.858 L
475.925 31.833 L
477.076 31.81 L
478.227 31.787 L
479.378 31.765 L
480.529 31.744 L
481.68 31.724 L
482.831 31.705 L
483.982 31.687 L
485.133 31.669 L
486.284 31.653 L
487.435 31.637 L
488.585 31.622 L
489.736 31.608 L
490.887 31.595 L
492.038 31.583 L
493.189 31.571 L
494.34 31.561 L
495.491 31.551 L
496.642 31.542 L
497.793 31.534 L
498.944 31.527 L
500.095 31.521 L
501.245 31.515 L
502.396 31.511 L
503.547 31.507 L
504.698 31.504 L
505.849 31.502 L
507 31.501 L
S
GR
GS
0.467 0.675 0.188 RC
[10 6] 0 setdash
2 LJ
0.5 LW
N
74.382 371.346 M
75.533 366.581 L
76.684 361.839 L
77.835 357.121 L
78.986 352.431 L
80.137 347.773 L
81.288 343.149 L
82.439 338.564 L
83.59 334.019 L
84.741 329.518 L
85.891 325.064 L
87.042 320.66 L
88.193 316.31 L
89.344 312.017 L
90.495 307.783 L
91.646 303.613 L
92.797 299.508 L
93.948 295.473 L
95.099 291.51 L
96.25 287.623 L
97.401 283.814 L
98.551 280.088 L
99.702 276.446 L
100.853 272.893 L
102.004 269.431 L
103.155 266.063 L
104.306 262.793 L
105.457 259.587 L
106.608 256.403 L
107.759 253.24 L
108.91 250.101 L
110.061 246.985 L
111.211 243.893 L
112.362 240.826 L
113.513 237.785 L
114.664 234.769 L
115.815 231.78 L
116.966 228.818 L
118.117 225.884 L
119.268 222.979 L
120.419 220.102 L
121.57 217.255 L
122.721 214.439 L
123.871 211.654 L
125.022 208.9 L
126.173 206.179 L
127.324 203.49 L
128.475 200.835 L
129.626 198.214 L
130.777 195.628 L
131.928 193.077 L
133.079 190.562 L
134.23 188.084 L
135.381 185.643 L
136.532 183.24 L
137.682 180.875 L
138.833 178.549 L
139.984 176.263 L
141.135 174.018 L
142.286 171.813 L
143.437 169.651 L
144.588 167.53 L
145.739 165.452 L
146.89 163.418 L
148.041 161.428 L
149.192 159.482 L
150.342 157.582 L
151.493 155.728 L
152.644 153.921 L
153.795 152.161 L
154.946 150.448 L
156.097 148.784 L
157.248 147.165 L
158.399 145.556 L
159.55 143.95 L
160.701 142.347 L
161.852 140.748 L
163.002 139.152 L
164.153 137.561 L
165.304 135.975 L
166.455 134.394 L
167.606 132.818 L
168.757 131.248 L
169.908 129.683 L
171.059 128.126 L
172.21 126.575 L
173.361 125.031 L
174.512 123.495 L
175.662 121.966 L
176.813 120.446 L
177.964 118.935 L
179.115 117.432 L
180.266 115.938 L
181.417 114.454 L
182.568 112.98 L
183.719 111.517 L
184.87 110.064 L
186.021 108.622 L
187.172 107.191 L
188.322 105.772 L
189.473 104.365 L
190.624 102.971 L
191.775 101.589 L
192.926 100.22 L
194.077 98.865 L
195.228 97.524 L
196.379 96.197 L
197.53 94.884 L
198.681 93.587 L
199.832 92.304 L
200.982 91.037 L
202.133 89.786 L
203.284 88.552 L
204.435 87.334 L
205.586 86.133 L
206.737 84.949 L
207.888 83.783 L
209.039 82.635 L
210.19 81.506 L
211.341 80.395 L
212.492 79.303 L
213.642 78.231 L
214.793 77.179 L
215.944 76.147 L
217.095 75.135 L
218.246 74.144 L
219.397 73.174 L
220.548 72.226 L
221.699 71.3 L
222.85 70.396 L
224.001 69.515 L
225.152 68.657 L
226.302 67.822 L
227.453 67.01 L
228.604 66.223 L
229.755 65.46 L
230.906 64.722 L
232.057 64.009 L
233.208 63.322 L
234.359 62.66 L
235.51 62.024 L
236.661 61.415 L
237.812 60.832 L
238.962 60.277 L
240.113 59.75 L
241.264 59.25 L
242.415 58.779 L
243.566 58.336 L
244.717 57.922 L
245.868 57.537 L
247.019 57.183 L
248.17 56.858 L
249.321 56.563 L
250.472 56.299 L
251.622 56.058 L
252.773 55.818 L
253.924 55.58 L
255.075 55.343 L
256.226 55.107 L
257.377 54.873 L
258.528 54.64 L
259.679 54.408 L
260.83 54.177 L
261.981 53.947 L
263.132 53.719 L
264.283 53.492 L
265.433 53.266 L
266.584 53.041 L
267.735 52.818 L
268.886 52.595 L
270.037 52.374 L
271.188 52.154 L
272.339 51.936 L
273.49 51.718 L
274.641 51.502 L
275.792 51.287 L
276.943 51.074 L
278.093 50.861 L
279.244 50.65 L
280.395 50.44 L
281.546 50.231 L
282.697 50.023 L
283.848 49.817 L
284.999 49.612 L
286.15 49.408 L
287.301 49.205 L
288.452 49.003 L
289.603 48.803 L
290.753 48.604 L
291.904 48.406 L
293.055 48.209 L
294.206 48.013 L
295.357 47.819 L
296.508 47.626 L
297.659 47.434 L
298.81 47.243 L
299.961 47.053 L
301.112 46.865 L
302.263 46.678 L
303.413 46.492 L
304.564 46.307 L
305.715 46.123 L
306.866 45.941 L
308.017 45.76 L
309.168 45.58 L
310.319 45.401 L
311.47 45.223 L
312.621 45.047 L
313.772 44.872 L
314.923 44.697 L
316.073 44.525 L
317.224 44.353 L
318.375 44.182 L
319.526 44.013 L
320.677 43.845 L
321.828 43.678 L
322.979 43.512 L
324.13 43.347 L
325.281 43.184 L
326.432 43.022 L
327.583 42.861 L
328.733 42.701 L
329.884 42.542 L
331.035 42.384 L
332.186 42.228 L
333.337 42.073 L
334.488 41.919 L
335.639 41.766 L
336.79 41.614 L
337.941 41.464 L
339.092 41.314 L
340.243 41.166 L
341.393 41.019 L
342.544 40.873 L
343.695 40.729 L
344.846 40.585 L
345.997 40.443 L
347.148 40.301 L
348.299 40.161 L
349.45 40.023 L
350.601 39.885 L
351.752 39.748 L
352.903 39.613 L
354.053 39.479 L
355.204 39.346 L
356.355 39.214 L
357.506 39.083 L
358.657 38.953 L
359.808 38.825 L
360.959 38.697 L
362.11 38.571 L
363.261 38.446 L
364.412 38.322 L
365.563 38.199 L
366.713 38.078 L
367.864 37.957 L
369.015 37.838 L
370.166 37.72 L
371.317 37.603 L
372.468 37.487 L
373.619 37.372 L
374.77 37.259 L
375.921 37.146 L
377.072 37.035 L
378.223 36.925 L
379.374 36.816 L
380.524 36.708 L
381.675 36.601 L
382.826 36.495 L
383.977 36.391 L
385.128 36.288 L
386.279 36.185 L
387.43 36.084 L
388.581 35.984 L
389.732 35.885 L
390.883 35.788 L
392.034 35.691 L
393.184 35.596 L
394.335 35.501 L
395.486 35.408 L
396.637 35.316 L
397.788 35.225 L
398.939 35.135 L
400.09 35.047 L
401.241 34.959 L
402.392 34.872 L
403.543 34.787 L
404.694 34.703 L
405.844 34.62 L
406.995 34.538 L
408.146 34.457 L
409.297 34.377 L
410.448 34.298 L
411.599 34.221 L
412.75 34.144 L
413.901 34.069 L
415.052 33.995 L
416.203 33.922 L
417.354 33.85 L
418.504 33.779 L
419.655 33.709 L
420.806 33.64 L
421.957 33.573 L
423.108 33.506 L
424.259 33.441 L
425.41 33.376 L
426.561 33.313 L
427.712 33.251 L
428.863 33.19 L
430.014 33.13 L
431.164 33.071 L
432.315 33.014 L
433.466 32.957 L
434.617 32.902 L
435.768 32.847 L
436.919 32.794 L
438.07 32.742 L
439.221 32.69 L
440.372 32.64 L
441.523 32.591 L
442.674 32.543 L
443.824 32.497 L
444.975 32.451 L
446.126 32.406 L
447.277 32.363 L
448.428 32.32 L
449.579 32.279 L
450.73 32.239 L
451.881 32.199 L
453.032 32.161 L
454.183 32.124 L
455.334 32.088 L
456.484 32.053 L
457.635 32.02 L
458.786 31.987 L
459.937 31.955 L
461.088 31.925 L
462.239 31.895 L
463.39 31.867 L
464.541 31.839 L
465.692 31.813 L
466.843 31.788 L
467.994 31.763 L
469.144 31.74 L
470.295 31.718 L
471.446 31.697 L
472.597 31.677 L
473.748 31.659 L
474.899 31.641 L
476.05 31.624 L
477.201 31.608 L
478.352 31.594 L
479.503 31.58 L
480.654 31.568 L
481.804 31.556 L
482.955 31.546 L
484.106 31.537 L
485.257 31.528 L
486.408 31.521 L
487.559 31.515 L
488.71 31.51 L
489.861 31.506 L
491.012 31.503 L
492.163 31.501 L
493.314 31.5 L
S
GR
GS
0.302 0.745 0.933 RC
[10 6] 0 setdash
2 LJ
0.5 LW
N
74.257 371.804 M
75.408 366.99 L
76.559 362.198 L
77.71 357.432 L
78.861 352.694 L
80.011 347.989 L
81.162 343.319 L
82.313 338.687 L
83.464 334.097 L
84.615 329.552 L
85.766 325.055 L
86.917 320.609 L
88.068 316.218 L
89.219 311.884 L
90.37 307.612 L
91.521 303.404 L
92.671 299.264 L
93.822 295.194 L
94.973 291.198 L
96.124 287.28 L
97.275 283.442 L
98.426 279.687 L
99.577 276.019 L
100.728 272.442 L
101.879 268.957 L
103.03 265.57 L
104.181 262.282 L
105.331 259.052 L
106.482 255.844 L
107.633 252.659 L
108.784 249.497 L
109.935 246.358 L
111.086 243.244 L
112.237 240.156 L
113.388 237.093 L
114.539 234.056 L
115.69 231.047 L
116.841 228.065 L
117.992 225.111 L
119.142 222.187 L
120.293 219.293 L
121.444 216.428 L
122.595 213.595 L
123.746 210.793 L
124.897 208.024 L
126.048 205.287 L
127.199 202.584 L
128.35 199.915 L
129.501 197.282 L
130.652 194.683 L
131.802 192.121 L
132.953 189.596 L
134.104 187.108 L
135.255 184.658 L
136.406 182.247 L
137.557 179.876 L
138.708 177.544 L
139.859 175.254 L
141.01 173.004 L
142.161 170.797 L
143.312 168.633 L
144.462 166.511 L
145.613 164.434 L
146.764 162.401 L
147.915 160.414 L
149.066 158.473 L
150.217 156.578 L
151.368 154.73 L
152.519 152.93 L
153.67 151.179 L
154.821 149.477 L
155.972 147.825 L
157.122 146.21 L
158.273 144.6 L
159.424 142.993 L
160.575 141.39 L
161.726 139.79 L
162.877 138.196 L
164.028 136.605 L
165.179 135.02 L
166.33 133.44 L
167.481 131.866 L
168.632 130.298 L
169.782 128.736 L
170.933 127.181 L
172.084 125.633 L
173.235 124.093 L
174.386 122.56 L
175.537 121.036 L
176.688 119.52 L
177.839 118.013 L
178.99 116.515 L
180.141 115.027 L
181.292 113.549 L
182.442 112.081 L
183.593 110.623 L
184.744 109.177 L
185.895 107.742 L
187.046 106.318 L
188.197 104.907 L
189.348 103.507 L
190.499 102.121 L
191.65 100.747 L
192.801 99.387 L
193.952 98.041 L
195.102 96.709 L
196.253 95.391 L
197.404 94.088 L
198.555 92.8 L
199.706 91.528 L
200.857 90.271 L
202.008 89.031 L
203.159 87.807 L
204.31 86.6 L
205.461 85.41 L
206.612 84.238 L
207.762 83.084 L
208.913 81.948 L
210.064 80.831 L
211.215 79.732 L
212.366 78.653 L
213.517 77.594 L
214.668 76.555 L
215.819 75.536 L
216.97 74.538 L
218.121 73.56 L
219.272 72.605 L
220.422 71.671 L
221.573 70.759 L
222.724 69.869 L
223.875 69.003 L
225.026 68.159 L
226.177 67.339 L
227.328 66.543 L
228.479 65.771 L
229.63 65.024 L
230.781 64.302 L
231.932 63.605 L
233.082 62.933 L
234.233 62.287 L
235.384 61.668 L
236.535 61.075 L
237.686 60.51 L
238.837 59.971 L
239.988 59.461 L
241.139 58.978 L
242.29 58.524 L
243.441 58.098 L
244.592 57.702 L
245.743 57.335 L
246.893 56.998 L
248.044 56.691 L
249.195 56.414 L
250.346 56.167 L
251.497 55.926 L
252.648 55.687 L
253.799 55.449 L
254.95 55.212 L
256.101 54.977 L
257.252 54.742 L
258.403 54.509 L
259.553 54.277 L
260.704 54.047 L
261.855 53.817 L
263.006 53.589 L
264.157 53.362 L
265.308 53.137 L
266.459 52.912 L
267.61 52.689 L
268.761 52.467 L
269.912 52.246 L
271.063 52.027 L
272.213 51.808 L
273.364 51.591 L
274.515 51.375 L
275.666 51.161 L
276.817 50.947 L
277.968 50.735 L
279.119 50.524 L
280.27 50.314 L
281.421 50.106 L
282.572 49.898 L
283.723 49.692 L
284.873 49.487 L
286.024 49.284 L
287.175 49.081 L
288.326 48.88 L
289.477 48.68 L
290.628 48.481 L
291.779 48.283 L
292.93 48.087 L
294.081 47.892 L
295.232 47.698 L
296.383 47.505 L
297.533 47.313 L
298.684 47.123 L
299.835 46.934 L
300.986 46.746 L
302.137 46.559 L
303.288 46.373 L
304.439 46.189 L
305.59 46.006 L
306.741 45.824 L
307.892 45.643 L
309.043 45.463 L
310.193 45.285 L
311.344 45.108 L
312.495 44.932 L
313.646 44.757 L
314.797 44.583 L
315.948 44.411 L
317.099 44.239 L
318.25 44.069 L
319.401 43.9 L
320.552 43.733 L
321.703 43.566 L
322.853 43.401 L
324.004 43.237 L
325.155 43.074 L
326.306 42.912 L
327.457 42.751 L
328.608 42.592 L
329.759 42.434 L
330.91 42.277 L
332.061 42.121 L
333.212 41.966 L
334.363 41.813 L
335.513 41.66 L
336.664 41.509 L
337.815 41.359 L
338.966 41.21 L
340.117 41.062 L
341.268 40.916 L
342.419 40.771 L
343.57 40.627 L
344.721 40.484 L
345.872 40.342 L
347.023 40.201 L
348.173 40.062 L
349.324 39.923 L
350.475 39.786 L
351.626 39.65 L
352.777 39.515 L
353.928 39.382 L
355.079 39.249 L
356.23 39.118 L
357.381 38.988 L
358.532 38.859 L
359.683 38.731 L
360.833 38.604 L
361.984 38.479 L
363.135 38.354 L
364.286 38.231 L
365.437 38.109 L
366.588 37.988 L
367.739 37.868 L
368.89 37.749 L
370.041 37.632 L
371.192 37.515 L
372.343 37.4 L
373.493 37.286 L
374.644 37.173 L
375.795 37.062 L
376.946 36.951 L
378.097 36.841 L
379.248 36.733 L
380.399 36.626 L
381.55 36.52 L
382.701 36.415 L
383.852 36.311 L
385.003 36.209 L
386.154 36.107 L
387.304 36.007 L
388.455 35.907 L
389.606 35.809 L
390.757 35.712 L
391.908 35.616 L
393.059 35.522 L
394.21 35.428 L
395.361 35.336 L
396.512 35.244 L
397.663 35.154 L
398.814 35.065 L
399.964 34.977 L
401.115 34.89 L
402.266 34.805 L
403.417 34.72 L
404.568 34.637 L
405.719 34.554 L
406.87 34.473 L
408.021 34.393 L
409.172 34.314 L
410.323 34.236 L
411.474 34.16 L
412.624 34.084 L
413.775 34.009 L
414.926 33.936 L
416.077 33.864 L
417.228 33.793 L
418.379 33.723 L
419.53 33.654 L
420.681 33.586 L
421.832 33.519 L
422.983 33.453 L
424.134 33.389 L
425.284 33.326 L
426.435 33.263 L
427.586 33.202 L
428.737 33.142 L
429.888 33.083 L
431.039 33.025 L
432.19 32.968 L
433.341 32.913 L
434.492 32.858 L
435.643 32.805 L
436.794 32.752 L
437.944 32.701 L
439.095 32.651 L
440.246 32.602 L
441.397 32.554 L
442.548 32.507 L
443.699 32.461 L
444.85 32.416 L
446.001 32.373 L
447.152 32.33 L
448.303 32.289 L
449.454 32.248 L
450.604 32.209 L
451.755 32.171 L
452.906 32.134 L
454.057 32.098 L
455.208 32.063 L
456.359 32.029 L
457.51 31.996 L
458.661 31.964 L
459.812 31.934 L
460.963 31.904 L
462.114 31.876 L
463.264 31.848 L
464.415 31.822 L
465.566 31.797 L
466.717 31.773 L
467.868 31.75 L
469.019 31.728 L
470.17 31.707 L
471.321 31.687 L
472.472 31.668 L
473.623 31.65 L
474.774 31.633 L
475.924 31.618 L
477.075 31.603 L
478.226 31.59 L
479.377 31.577 L
480.528 31.566 L
481.679 31.556 L
482.83 31.547 L
483.981 31.539 L
485.132 31.531 L
486.283 31.525 L
487.434 31.52 L
488.585 31.516 L
489.735 31.514 L
490.886 31.512 L
492.037 31.511 L
S
GR
GS
0.635 0.078 0.184 RC
[10 6] 0 setdash
2 LJ
0.5 LW
N
75.35 364.018 M
76.501 359.343 L
77.652 354.689 L
78.802 350.059 L
79.953 345.457 L
81.104 340.884 L
82.255 336.345 L
83.406 331.842 L
84.557 327.378 L
85.708 322.957 L
86.859 318.581 L
88.01 314.254 L
89.161 309.978 L
90.312 305.757 L
91.462 301.593 L
92.613 297.491 L
93.764 293.452 L
94.915 289.48 L
96.066 285.578 L
97.217 281.748 L
98.368 277.995 L
99.519 274.321 L
100.67 270.729 L
101.821 267.222 L
102.972 263.804 L
104.123 260.477 L
105.273 257.244 L
106.424 254.102 L
107.575 250.997 L
108.726 247.912 L
109.877 244.849 L
111.028 241.809 L
112.179 238.792 L
113.33 235.798 L
114.481 232.829 L
115.632 229.884 L
116.783 226.965 L
117.933 224.072 L
119.084 221.205 L
120.235 218.365 L
121.386 215.554 L
122.537 212.77 L
123.688 210.015 L
124.839 207.29 L
125.99 204.595 L
127.141 201.931 L
128.292 199.298 L
129.443 196.696 L
130.593 194.127 L
131.744 191.591 L
132.895 189.089 L
134.046 186.62 L
135.197 184.187 L
136.348 181.788 L
137.499 179.426 L
138.65 177.1 L
139.801 174.811 L
140.952 172.56 L
142.103 170.347 L
143.253 168.173 L
144.404 166.038 L
145.555 163.943 L
146.706 161.889 L
147.857 159.876 L
149.008 157.905 L
150.159 155.976 L
151.31 154.09 L
152.461 152.247 L
153.612 150.449 L
154.763 148.695 L
155.913 146.987 L
157.064 145.324 L
158.215 143.708 L
159.366 142.138 L
160.517 140.6 L
161.668 139.065 L
162.819 137.532 L
163.97 136.003 L
165.121 134.477 L
166.272 132.955 L
167.423 131.437 L
168.573 129.924 L
169.724 128.415 L
170.875 126.912 L
172.026 125.414 L
173.177 123.922 L
174.328 122.436 L
175.479 120.956 L
176.63 119.484 L
177.781 118.018 L
178.932 116.56 L
180.083 115.11 L
181.233 113.668 L
182.384 112.234 L
183.535 110.809 L
184.686 109.393 L
185.837 107.987 L
186.988 106.59 L
188.139 105.204 L
189.29 103.828 L
190.441 102.462 L
191.592 101.108 L
192.743 99.765 L
193.893 98.434 L
195.044 97.115 L
196.195 95.808 L
197.346 94.514 L
198.497 93.233 L
199.648 91.966 L
200.799 90.712 L
201.95 89.472 L
203.101 88.247 L
204.252 87.036 L
205.403 85.841 L
206.553 84.66 L
207.704 83.496 L
208.855 82.347 L
210.006 81.215 L
211.157 80.099 L
212.308 79.001 L
213.459 77.92 L
214.61 76.856 L
215.761 75.81 L
216.912 74.783 L
218.063 73.775 L
219.214 72.785 L
220.364 71.815 L
221.515 70.864 L
222.666 69.933 L
223.817 69.023 L
224.968 68.133 L
226.119 67.264 L
227.27 66.417 L
228.421 65.591 L
229.572 64.787 L
230.723 64.005 L
231.874 63.246 L
233.024 62.51 L
234.175 61.797 L
235.326 61.108 L
236.477 60.442 L
237.628 59.801 L
238.779 59.184 L
239.93 58.593 L
241.081 58.026 L
242.232 57.485 L
243.383 56.97 L
244.534 56.482 L
245.684 56.02 L
246.835 55.584 L
247.986 55.176 L
249.137 54.795 L
250.288 54.443 L
251.439 54.118 L
252.59 53.822 L
253.741 53.555 L
254.892 53.317 L
256.043 53.105 L
257.194 52.896 L
258.344 52.689 L
259.495 52.483 L
260.646 52.278 L
261.797 52.074 L
262.948 51.871 L
264.099 51.67 L
265.25 51.469 L
266.401 51.269 L
267.552 51.071 L
268.703 50.873 L
269.854 50.677 L
271.004 50.481 L
272.155 50.287 L
273.306 50.094 L
274.457 49.902 L
275.608 49.711 L
276.759 49.521 L
277.91 49.332 L
279.061 49.144 L
280.212 48.957 L
281.363 48.771 L
282.514 48.587 L
283.664 48.403 L
284.815 48.22 L
285.966 48.039 L
287.117 47.858 L
288.268 47.679 L
289.419 47.501 L
290.57 47.323 L
291.721 47.147 L
292.872 46.972 L
294.023 46.798 L
295.174 46.625 L
296.324 46.453 L
297.475 46.282 L
298.626 46.112 L
299.777 45.943 L
300.928 45.775 L
302.079 45.608 L
303.23 45.442 L
304.381 45.277 L
305.532 45.114 L
306.683 44.951 L
307.834 44.789 L
308.984 44.629 L
310.135 44.469 L
311.286 44.311 L
312.437 44.153 L
313.588 43.997 L
314.739 43.841 L
315.89 43.687 L
317.041 43.534 L
318.192 43.381 L
319.343 43.23 L
320.494 43.08 L
321.644 42.93 L
322.795 42.782 L
323.946 42.635 L
325.097 42.489 L
326.248 42.343 L
327.399 42.199 L
328.55 42.056 L
329.701 41.914 L
330.852 41.773 L
332.003 41.633 L
333.154 41.494 L
334.305 41.355 L
335.455 41.218 L
336.606 41.082 L
337.757 40.947 L
338.908 40.813 L
340.059 40.68 L
341.21 40.548 L
342.361 40.417 L
343.512 40.287 L
344.663 40.158 L
345.814 40.03 L
346.965 39.903 L
348.115 39.777 L
349.266 39.652 L
350.417 39.528 L
351.568 39.405 L
352.719 39.283 L
353.87 39.162 L
355.021 39.042 L
356.172 38.923 L
357.323 38.805 L
358.474 38.688 L
359.625 38.572 L
360.775 38.457 L
361.926 38.343 L
363.077 38.229 L
364.228 38.117 L
365.379 38.006 L
366.53 37.896 L
367.681 37.787 L
368.832 37.679 L
369.983 37.571 L
371.134 37.465 L
372.285 37.36 L
373.435 37.256 L
374.586 37.152 L
375.737 37.05 L
376.888 36.949 L
378.039 36.848 L
379.19 36.749 L
380.341 36.65 L
381.492 36.553 L
382.643 36.456 L
383.794 36.361 L
384.945 36.266 L
386.095 36.173 L
387.246 36.08 L
388.397 35.988 L
389.548 35.898 L
390.699 35.808 L
391.85 35.719 L
393.001 35.631 L
394.152 35.544 L
395.303 35.458 L
396.454 35.373 L
397.605 35.289 L
398.755 35.206 L
399.906 35.124 L
401.057 35.043 L
402.208 34.963 L
403.359 34.883 L
404.51 34.805 L
405.661 34.728 L
406.812 34.651 L
407.963 34.576 L
409.114 34.501 L
410.265 34.428 L
411.415 34.355 L
412.566 34.283 L
413.717 34.213 L
414.868 34.143 L
416.019 34.074 L
417.17 34.006 L
418.321 33.939 L
419.472 33.873 L
420.623 33.808 L
421.774 33.743 L
422.925 33.68 L
424.075 33.618 L
425.226 33.556 L
426.377 33.496 L
427.528 33.436 L
428.679 33.378 L
429.83 33.32 L
430.981 33.263 L
432.132 33.207 L
433.283 33.152 L
434.434 33.098 L
435.585 33.045 L
436.735 32.993 L
437.886 32.942 L
439.037 32.891 L
440.188 32.842 L
441.339 32.793 L
442.49 32.746 L
443.641 32.699 L
444.792 32.653 L
445.943 32.608 L
447.094 32.564 L
448.245 32.521 L
449.395 32.479 L
450.546 32.438 L
451.697 32.397 L
452.848 32.358 L
453.999 32.319 L
455.15 32.282 L
456.301 32.245 L
457.452 32.209 L
458.603 32.174 L
459.754 32.14 L
460.905 32.107 L
462.056 32.075 L
463.206 32.043 L
464.357 32.013 L
465.508 31.983 L
466.659 31.955 L
467.81 31.927 L
468.961 31.9 L
470.112 31.874 L
471.263 31.849 L
472.414 31.824 L
473.565 31.801 L
474.716 31.779 L
475.866 31.757 L
477.017 31.736 L
478.168 31.716 L
479.319 31.697 L
480.47 31.679 L
481.621 31.662 L
482.772 31.646 L
483.923 31.63 L
485.074 31.616 L
486.225 31.602 L
487.376 31.589 L
488.526 31.577 L
489.677 31.566 L
490.828 31.556 L
491.979 31.547 L
493.13 31.538 L
494.281 31.53 L
495.432 31.524 L
496.583 31.518 L
497.734 31.513 L
498.885 31.509 L
500.036 31.505 L
501.186 31.503 L
502.337 31.501 L
503.488 31.5 L
S
GR
GS
1 GC
N
499 366 M
499 250.5 L
344.5 250.5 L
344.5 366 L
cp
f
GR
GS
[1 0 0 1 381.5 260.25] CT
/Helvetica 13 F
GS
[1 0 0 1 0 0] CT
0 5 moveto 
1 -1 scale
(Base Run) t 
GR
GR
GS
0 0.447 0.741 RC
1 LJ
0.5 LW
N
348.5 260.25 M
378.5 260.25 L
S
GR
GS
[1 0 0 1 381.5 276.25] CT
/Helvetica 13 F
GS
[1 0 0 1 0 0] CT
0 5 moveto 
1 -1 scale
(I & B Frames) t 
GR
GR
GS
0.851 0.325 0.098 RC
1 LJ
0.5 LW
N
348.5 276.25 M
378.5 276.25 L
S
GR
GS
[1 0 0 1 381.5 292.25] CT
/Helvetica 13 F
GS
[1 0 0 1 0 0] CT
0 5 moveto 
1 -1 scale
(I Frames Only) t 
GR
GR
GS
0.929 0.694 0.125 RC
1 LJ
0.5 LW
N
348.5 292.25 M
378.5 292.25 L
S
GR
GS
[1 0 0 1 381.5 308.25] CT
/Helvetica 13 F
GS
[1 0 0 1 0 0] CT
0 5 moveto 
1 -1 scale
(B Frames Only) t 
GR
GR
GS
0.494 0.184 0.557 RC
1 LJ
0.5 LW
N
348.5 308.25 M
378.5 308.25 L
S
GR
GS
[1 0 0 1 381.5 324.25] CT
/Helvetica 13 F
GS
[1 0 0 1 0 0] CT
0 5 moveto 
1 -1 scale
(Part I & B Frames) t 
GR
GR
GS
0.467 0.675 0.188 RC
[10 6] 0 setdash
2 LJ
0.5 LW
N
348.5 324.25 M
378.5 324.25 L
S
GR
GS
[1 0 0 1 381.5 340.25] CT
/Helvetica 13 F
GS
[1 0 0 1 0 0] CT
0 5 moveto 
1 -1 scale
(Part I Frames Only) t 
GR
GR
GS
0.302 0.745 0.933 RC
[10 6] 0 setdash
2 LJ
0.5 LW
N
348.5 340.25 M
378.5 340.25 L
S
GR
GS
[1 0 0 1 381.5 356.25] CT
/Helvetica 13 F
GS
[1 0 0 1 0 0] CT
0 5 moveto 
1 -1 scale
(Part B Frames Only) t 
GR
GR
GS
0.635 0.078 0.184 RC
[10 6] 0 setdash
2 LJ
0.5 LW
N
348.5 356.25 M
378.5 356.25 L
S
GR
GS
0.149 GC
10.0 ML
0.5 LW
N
344.5 366 M
344.5 250.5 L
499 250.5 L
499 366 L
cp
S
GR
%%Trailer
%%Pages: 1
%%EOF
