%!PS-Adobe-3.0 EPSF-3.0
%%Creator: (MATLAB, The Mathworks, Inc. Version 9.11.0.1837725 \(R2021b\) Update 2. Operating System: Mac OS X)
%%Title: plots/pchip/Vlog_1080P-58ad.y4m-hevc-PSNRY.eps
%%CreationDate: 2022-02-03T19:14:54
%%Pages: (atend)
%%BoundingBox:    33   425   515   826
%%LanguageLevel: 3
%%EndComments
%%BeginProlog
%%BeginResource: procset (Apache XML Graphics Std ProcSet) 1.2 0
%%Version: 1.2 0
%%Copyright: (Copyright 2001-2003,2010 The Apache Software Foundation. License terms: http://www.apache.org/licenses/LICENSE-2.0)
/bd{bind def}bind def
/ld{load def}bd
/GR/grestore ld
/GS/gsave ld
/RM/rmoveto ld
/C/curveto ld
/t/show ld
/L/lineto ld
/ML/setmiterlimit ld
/CT/concat ld
/f/fill ld
/N/newpath ld
/S/stroke ld
/CC/setcmykcolor ld
/A/ashow ld
/cp/closepath ld
/RC/setrgbcolor ld
/LJ/setlinejoin ld
/GC/setgray ld
/LW/setlinewidth ld
/M/moveto ld
/re {4 2 roll M
1 index 0 rlineto
0 exch rlineto
neg 0 rlineto
cp } bd
/_ctm matrix def
/_tm matrix def
/BT { _ctm currentmatrix pop matrix _tm copy pop 0 0 moveto } bd
/ET { _ctm setmatrix } bd
/iTm { _ctm setmatrix _tm concat } bd
/Tm { _tm astore pop iTm 0 0 moveto } bd
/ux 0.0 def
/uy 0.0 def
/F {
  /Tp exch def
  /Tf exch def
  Tf findfont Tp scalefont setfont
  /cf Tf def  /cs Tp def
} bd
/ULS {currentpoint /uy exch def /ux exch def} bd
/ULE {
  /Tcx currentpoint pop def
  gsave
  newpath
  cf findfont cs scalefont dup
  /FontMatrix get 0 get /Ts exch def /FontInfo get dup
  /UnderlinePosition get Ts mul /To exch def
  /UnderlineThickness get Ts mul /Tt exch def
  ux uy To add moveto  Tcx uy To add lineto
  Tt setlinewidth stroke
  grestore
} bd
/OLE {
  /Tcx currentpoint pop def
  gsave
  newpath
  cf findfont cs scalefont dup
  /FontMatrix get 0 get /Ts exch def /FontInfo get dup
  /UnderlinePosition get Ts mul /To exch def
  /UnderlineThickness get Ts mul /Tt exch def
  ux uy To add cs add moveto Tcx uy To add cs add lineto
  Tt setlinewidth stroke
  grestore
} bd
/SOE {
  /Tcx currentpoint pop def
  gsave
  newpath
  cf findfont cs scalefont dup
  /FontMatrix get 0 get /Ts exch def /FontInfo get dup
  /UnderlinePosition get Ts mul /To exch def
  /UnderlineThickness get Ts mul /Tt exch def
  ux uy To add cs 10 mul 26 idiv add moveto Tcx uy To add cs 10 mul 26 idiv add lineto
  Tt setlinewidth stroke
  grestore
} bd
/QT {
/Y22 exch store
/X22 exch store
/Y21 exch store
/X21 exch store
currentpoint
/Y21 load 2 mul add 3 div exch
/X21 load 2 mul add 3 div exch
/X21 load 2 mul /X22 load add 3 div
/Y21 load 2 mul /Y22 load add 3 div
/X22 load /Y22 load curveto
} bd
/SSPD {
dup length /d exch dict def
{
/v exch def
/k exch def
currentpagedevice k known {
/cpdv currentpagedevice k get def
v cpdv ne {
/upd false def
/nullv v type /nulltype eq def
/nullcpdv cpdv type /nulltype eq def
nullv nullcpdv or
{
/upd true def
} {
/sametype v type cpdv type eq def
sametype {
v type /arraytype eq {
/vlen v length def
/cpdvlen cpdv length def
vlen cpdvlen eq {
0 1 vlen 1 sub {
/i exch def
/obj v i get def
/cpdobj cpdv i get def
obj cpdobj ne {
/upd true def
exit
} if
} for
} {
/upd true def
} ifelse
} {
v type /dicttype eq {
v {
/dv exch def
/dk exch def
/cpddv cpdv dk get def
dv cpddv ne {
/upd true def
exit
} if
} forall
} {
/upd true def
} ifelse
} ifelse
} if
} ifelse
upd true eq {
d k v put
} if
} if
} if
} forall
d length 0 gt {
d setpagedevice
} if
} bd
/RE { % /NewFontName [NewEncodingArray] /FontName RE -
  findfont dup length dict begin
  {
    1 index /FID ne
    {def} {pop pop} ifelse
  } forall
  /Encoding exch def
  /FontName 1 index def
  currentdict definefont pop
  end
} bind def
%%EndResource
%%BeginResource: procset (Apache XML Graphics EPS ProcSet) 1.0 0
%%Version: 1.0 0
%%Copyright: (Copyright 2002-2003 The Apache Software Foundation. License terms: http://www.apache.org/licenses/LICENSE-2.0)
/BeginEPSF { %def
/b4_Inc_state save def         % Save state for cleanup
/dict_count countdictstack def % Count objects on dict stack
/op_count count 1 sub def      % Count objects on operand stack
userdict begin                 % Push userdict on dict stack
/showpage { } def              % Redefine showpage, { } = null proc
0 setgray 0 setlinecap         % Prepare graphics state
1 setlinewidth 0 setlinejoin
10 setmiterlimit [ ] 0 setdash newpath
/languagelevel where           % If level not equal to 1 then
{pop languagelevel             % set strokeadjust and
1 ne                           % overprint to their defaults.
{false setstrokeadjust false setoverprint
} if
} if
} bd
/EndEPSF { %def
count op_count sub {pop} repeat            % Clean up stacks
countdictstack dict_count sub {end} repeat
b4_Inc_state restore
} bd
%%EndResource
%FOPBeginFontDict
%%IncludeResource: font Courier-Oblique
%%IncludeResource: font Courier-BoldOblique
%%IncludeResource: font Courier-Bold
%%IncludeResource: font ZapfDingbats
%%IncludeResource: font Symbol
%%IncludeResource: font Helvetica
%%IncludeResource: font Helvetica-Oblique
%%IncludeResource: font Helvetica-Bold
%%IncludeResource: font Helvetica-BoldOblique
%%IncludeResource: font Times-Roman
%%IncludeResource: font Times-Italic
%%IncludeResource: font Times-Bold
%%IncludeResource: font Times-BoldItalic
%%IncludeResource: font Courier
%FOPEndFontDict
%%BeginResource: encoding WinAnsiEncoding
/WinAnsiEncoding [
/.notdef /.notdef /.notdef /.notdef /.notdef
/.notdef /.notdef /.notdef /.notdef /.notdef
/.notdef /.notdef /.notdef /.notdef /.notdef
/.notdef /.notdef /.notdef /.notdef /.notdef
/.notdef /.notdef /.notdef /.notdef /.notdef
/.notdef /.notdef /.notdef /.notdef /.notdef
/.notdef /.notdef /space /exclam /quotedbl
/numbersign /dollar /percent /ampersand /quotesingle
/parenleft /parenright /asterisk /plus /comma
/hyphen /period /slash /zero /one
/two /three /four /five /six
/seven /eight /nine /colon /semicolon
/less /equal /greater /question /at
/A /B /C /D /E
/F /G /H /I /J
/K /L /M /N /O
/P /Q /R /S /T
/U /V /W /X /Y
/Z /bracketleft /backslash /bracketright /asciicircum
/underscore /quoteleft /a /b /c
/d /e /f /g /h
/i /j /k /l /m
/n /o /p /q /r
/s /t /u /v /w
/x /y /z /braceleft /bar
/braceright /asciitilde /bullet /Euro /bullet
/quotesinglbase /florin /quotedblbase /ellipsis /dagger
/daggerdbl /circumflex /perthousand /Scaron /guilsinglleft
/OE /bullet /Zcaron /bullet /bullet
/quoteleft /quoteright /quotedblleft /quotedblright /bullet
/endash /emdash /asciitilde /trademark /scaron
/guilsinglright /oe /bullet /zcaron /Ydieresis
/space /exclamdown /cent /sterling /currency
/yen /brokenbar /section /dieresis /copyright
/ordfeminine /guillemotleft /logicalnot /sfthyphen /registered
/macron /degree /plusminus /twosuperior /threesuperior
/acute /mu /paragraph /middot /cedilla
/onesuperior /ordmasculine /guillemotright /onequarter /onehalf
/threequarters /questiondown /Agrave /Aacute /Acircumflex
/Atilde /Adieresis /Aring /AE /Ccedilla
/Egrave /Eacute /Ecircumflex /Edieresis /Igrave
/Iacute /Icircumflex /Idieresis /Eth /Ntilde
/Ograve /Oacute /Ocircumflex /Otilde /Odieresis
/multiply /Oslash /Ugrave /Uacute /Ucircumflex
/Udieresis /Yacute /Thorn /germandbls /agrave
/aacute /acircumflex /atilde /adieresis /aring
/ae /ccedilla /egrave /eacute /ecircumflex
/edieresis /igrave /iacute /icircumflex /idieresis
/eth /ntilde /ograve /oacute /ocircumflex
/otilde /odieresis /divide /oslash /ugrave
/uacute /ucircumflex /udieresis /yacute /thorn
/ydieresis
] def
%%EndResource
%FOPBeginFontReencode
/Courier-Oblique findfont
dup length dict begin
  {1 index /FID ne {def} {pop pop} ifelse} forall
  /Encoding WinAnsiEncoding def
  currentdict
end
/Courier-Oblique exch definefont pop
/Courier-BoldOblique findfont
dup length dict begin
  {1 index /FID ne {def} {pop pop} ifelse} forall
  /Encoding WinAnsiEncoding def
  currentdict
end
/Courier-BoldOblique exch definefont pop
/Courier-Bold findfont
dup length dict begin
  {1 index /FID ne {def} {pop pop} ifelse} forall
  /Encoding WinAnsiEncoding def
  currentdict
end
/Courier-Bold exch definefont pop
/Helvetica findfont
dup length dict begin
  {1 index /FID ne {def} {pop pop} ifelse} forall
  /Encoding WinAnsiEncoding def
  currentdict
end
/Helvetica exch definefont pop
/Helvetica-Oblique findfont
dup length dict begin
  {1 index /FID ne {def} {pop pop} ifelse} forall
  /Encoding WinAnsiEncoding def
  currentdict
end
/Helvetica-Oblique exch definefont pop
/Helvetica-Bold findfont
dup length dict begin
  {1 index /FID ne {def} {pop pop} ifelse} forall
  /Encoding WinAnsiEncoding def
  currentdict
end
/Helvetica-Bold exch definefont pop
/Helvetica-BoldOblique findfont
dup length dict begin
  {1 index /FID ne {def} {pop pop} ifelse} forall
  /Encoding WinAnsiEncoding def
  currentdict
end
/Helvetica-BoldOblique exch definefont pop
/Times-Roman findfont
dup length dict begin
  {1 index /FID ne {def} {pop pop} ifelse} forall
  /Encoding WinAnsiEncoding def
  currentdict
end
/Times-Roman exch definefont pop
/Times-Italic findfont
dup length dict begin
  {1 index /FID ne {def} {pop pop} ifelse} forall
  /Encoding WinAnsiEncoding def
  currentdict
end
/Times-Italic exch definefont pop
/Times-Bold findfont
dup length dict begin
  {1 index /FID ne {def} {pop pop} ifelse} forall
  /Encoding WinAnsiEncoding def
  currentdict
end
/Times-Bold exch definefont pop
/Times-BoldItalic findfont
dup length dict begin
  {1 index /FID ne {def} {pop pop} ifelse} forall
  /Encoding WinAnsiEncoding def
  currentdict
end
/Times-BoldItalic exch definefont pop
/Courier findfont
dup length dict begin
  {1 index /FID ne {def} {pop pop} ifelse} forall
  /Encoding WinAnsiEncoding def
  currentdict
end
/Courier exch definefont pop
%FOPEndFontReencode
%%EndProlog
%%Page: 1 1
%%PageBoundingBox: 0 0 1120 840
%%BeginPageSetup
[1 0 0 -1 0 840] CT
%%EndPageSetup
GS
1 GC
N
0 0 1120 840 re
f
GR
GS
1 GC
N
73 374 M
507 374 L
507 31.5 L
73 31.5 L
cp
f
GR
GS
0.149 GC
2 setlinecap
1 LJ
0.5 LW
N
73 374 M
507 374 L
S
GR
GS
0.149 GC
2 setlinecap
1 LJ
0.5 LW
N
73 31.5 M
507 31.5 L
S
GR
GS
0.149 GC
2 setlinecap
1 LJ
0.5 LW
N
96.769 374 M
96.769 369.66 L
S
GR
GS
0.149 GC
2 setlinecap
1 LJ
0.5 LW
N
154.315 374 M
154.315 369.66 L
S
GR
GS
0.149 GC
2 setlinecap
1 LJ
0.5 LW
N
211.86 374 M
211.86 369.66 L
S
GR
GS
0.149 GC
2 setlinecap
1 LJ
0.5 LW
N
269.406 374 M
269.406 369.66 L
S
GR
GS
0.149 GC
2 setlinecap
1 LJ
0.5 LW
N
326.951 374 M
326.951 369.66 L
S
GR
GS
0.149 GC
2 setlinecap
1 LJ
0.5 LW
N
384.497 374 M
384.497 369.66 L
S
GR
GS
0.149 GC
2 setlinecap
1 LJ
0.5 LW
N
442.042 374 M
442.042 369.66 L
S
GR
GS
0.149 GC
2 setlinecap
1 LJ
0.5 LW
N
499.588 374 M
499.588 369.66 L
S
GR
GS
0.149 GC
2 setlinecap
1 LJ
0.5 LW
N
96.769 31.5 M
96.769 35.84 L
S
GR
GS
0.149 GC
2 setlinecap
1 LJ
0.5 LW
N
154.315 31.5 M
154.315 35.84 L
S
GR
GS
0.149 GC
2 setlinecap
1 LJ
0.5 LW
N
211.86 31.5 M
211.86 35.84 L
S
GR
GS
0.149 GC
2 setlinecap
1 LJ
0.5 LW
N
269.406 31.5 M
269.406 35.84 L
S
GR
GS
0.149 GC
2 setlinecap
1 LJ
0.5 LW
N
326.951 31.5 M
326.951 35.84 L
S
GR
GS
0.149 GC
2 setlinecap
1 LJ
0.5 LW
N
384.497 31.5 M
384.497 35.84 L
S
GR
GS
0.149 GC
2 setlinecap
1 LJ
0.5 LW
N
442.042 31.5 M
442.042 35.84 L
S
GR
GS
0.149 GC
2 setlinecap
1 LJ
0.5 LW
N
499.588 31.5 M
499.588 35.84 L
S
GR
GS
0.149 GC
2 setlinecap
1 LJ
0.5 LW
N
73.751 374 M
73.751 371.83 L
S
GR
GS
0.149 GC
2 setlinecap
1 LJ
0.5 LW
N
85.26 374 M
85.26 371.83 L
S
GR
GS
0.149 GC
2 setlinecap
1 LJ
0.5 LW
N
108.278 374 M
108.278 371.83 L
S
GR
GS
0.149 GC
2 setlinecap
1 LJ
0.5 LW
N
119.787 374 M
119.787 371.83 L
S
GR
GS
0.149 GC
2 setlinecap
1 LJ
0.5 LW
N
131.297 374 M
131.297 371.83 L
S
GR
GS
0.149 GC
2 setlinecap
1 LJ
0.5 LW
N
142.806 374 M
142.806 371.83 L
S
GR
GS
0.149 GC
2 setlinecap
1 LJ
0.5 LW
N
165.824 374 M
165.824 371.83 L
S
GR
GS
0.149 GC
2 setlinecap
1 LJ
0.5 LW
N
177.333 374 M
177.333 371.83 L
S
GR
GS
0.149 GC
2 setlinecap
1 LJ
0.5 LW
N
188.842 374 M
188.842 371.83 L
S
GR
GS
0.149 GC
2 setlinecap
1 LJ
0.5 LW
N
200.351 374 M
200.351 371.83 L
S
GR
GS
0.149 GC
2 setlinecap
1 LJ
0.5 LW
N
223.369 374 M
223.369 371.83 L
S
GR
GS
0.149 GC
2 setlinecap
1 LJ
0.5 LW
N
234.878 374 M
234.878 371.83 L
S
GR
GS
0.149 GC
2 setlinecap
1 LJ
0.5 LW
N
246.388 374 M
246.388 371.83 L
S
GR
GS
0.149 GC
2 setlinecap
1 LJ
0.5 LW
N
257.897 374 M
257.897 371.83 L
S
GR
GS
0.149 GC
2 setlinecap
1 LJ
0.5 LW
N
280.915 374 M
280.915 371.83 L
S
GR
GS
0.149 GC
2 setlinecap
1 LJ
0.5 LW
N
292.424 374 M
292.424 371.83 L
S
GR
GS
0.149 GC
2 setlinecap
1 LJ
0.5 LW
N
303.933 374 M
303.933 371.83 L
S
GR
GS
0.149 GC
2 setlinecap
1 LJ
0.5 LW
N
315.442 374 M
315.442 371.83 L
S
GR
GS
0.149 GC
2 setlinecap
1 LJ
0.5 LW
N
338.46 374 M
338.46 371.83 L
S
GR
GS
0.149 GC
2 setlinecap
1 LJ
0.5 LW
N
349.969 374 M
349.969 371.83 L
S
GR
GS
0.149 GC
2 setlinecap
1 LJ
0.5 LW
N
361.479 374 M
361.479 371.83 L
S
GR
GS
0.149 GC
2 setlinecap
1 LJ
0.5 LW
N
372.988 374 M
372.988 371.83 L
S
GR
GS
0.149 GC
2 setlinecap
1 LJ
0.5 LW
N
396.006 374 M
396.006 371.83 L
S
GR
GS
0.149 GC
2 setlinecap
1 LJ
0.5 LW
N
407.515 374 M
407.515 371.83 L
S
GR
GS
0.149 GC
2 setlinecap
1 LJ
0.5 LW
N
419.024 374 M
419.024 371.83 L
S
GR
GS
0.149 GC
2 setlinecap
1 LJ
0.5 LW
N
430.533 374 M
430.533 371.83 L
S
GR
GS
0.149 GC
2 setlinecap
1 LJ
0.5 LW
N
453.551 374 M
453.551 371.83 L
S
GR
GS
0.149 GC
2 setlinecap
1 LJ
0.5 LW
N
465.06 374 M
465.06 371.83 L
S
GR
GS
0.149 GC
2 setlinecap
1 LJ
0.5 LW
N
476.57 374 M
476.57 371.83 L
S
GR
GS
0.149 GC
2 setlinecap
1 LJ
0.5 LW
N
488.079 374 M
488.079 371.83 L
S
GR
GS
0.149 GC
2 setlinecap
1 LJ
0.5 LW
N
73.751 31.5 M
73.751 33.67 L
S
GR
GS
0.149 GC
2 setlinecap
1 LJ
0.5 LW
N
85.26 31.5 M
85.26 33.67 L
S
GR
GS
0.149 GC
2 setlinecap
1 LJ
0.5 LW
N
108.278 31.5 M
108.278 33.67 L
S
GR
GS
0.149 GC
2 setlinecap
1 LJ
0.5 LW
N
119.787 31.5 M
119.787 33.67 L
S
GR
GS
0.149 GC
2 setlinecap
1 LJ
0.5 LW
N
131.297 31.5 M
131.297 33.67 L
S
GR
GS
0.149 GC
2 setlinecap
1 LJ
0.5 LW
N
142.806 31.5 M
142.806 33.67 L
S
GR
GS
0.149 GC
2 setlinecap
1 LJ
0.5 LW
N
165.824 31.5 M
165.824 33.67 L
S
GR
GS
0.149 GC
2 setlinecap
1 LJ
0.5 LW
N
177.333 31.5 M
177.333 33.67 L
S
GR
GS
0.149 GC
2 setlinecap
1 LJ
0.5 LW
N
188.842 31.5 M
188.842 33.67 L
S
GR
GS
0.149 GC
2 setlinecap
1 LJ
0.5 LW
N
200.351 31.5 M
200.351 33.67 L
S
GR
GS
0.149 GC
2 setlinecap
1 LJ
0.5 LW
N
223.369 31.5 M
223.369 33.67 L
S
GR
GS
0.149 GC
2 setlinecap
1 LJ
0.5 LW
N
234.878 31.5 M
234.878 33.67 L
S
GR
GS
0.149 GC
2 setlinecap
1 LJ
0.5 LW
N
246.388 31.5 M
246.388 33.67 L
S
GR
GS
0.149 GC
2 setlinecap
1 LJ
0.5 LW
N
257.897 31.5 M
257.897 33.67 L
S
GR
GS
0.149 GC
2 setlinecap
1 LJ
0.5 LW
N
280.915 31.5 M
280.915 33.67 L
S
GR
GS
0.149 GC
2 setlinecap
1 LJ
0.5 LW
N
292.424 31.5 M
292.424 33.67 L
S
GR
GS
0.149 GC
2 setlinecap
1 LJ
0.5 LW
N
303.933 31.5 M
303.933 33.67 L
S
GR
GS
0.149 GC
2 setlinecap
1 LJ
0.5 LW
N
315.442 31.5 M
315.442 33.67 L
S
GR
GS
0.149 GC
2 setlinecap
1 LJ
0.5 LW
N
338.46 31.5 M
338.46 33.67 L
S
GR
GS
0.149 GC
2 setlinecap
1 LJ
0.5 LW
N
349.969 31.5 M
349.969 33.67 L
S
GR
GS
0.149 GC
2 setlinecap
1 LJ
0.5 LW
N
361.479 31.5 M
361.479 33.67 L
S
GR
GS
0.149 GC
2 setlinecap
1 LJ
0.5 LW
N
372.988 31.5 M
372.988 33.67 L
S
GR
GS
0.149 GC
2 setlinecap
1 LJ
0.5 LW
N
396.006 31.5 M
396.006 33.67 L
S
GR
GS
0.149 GC
2 setlinecap
1 LJ
0.5 LW
N
407.515 31.5 M
407.515 33.67 L
S
GR
GS
0.149 GC
2 setlinecap
1 LJ
0.5 LW
N
419.024 31.5 M
419.024 33.67 L
S
GR
GS
0.149 GC
2 setlinecap
1 LJ
0.5 LW
N
430.533 31.5 M
430.533 33.67 L
S
GR
GS
0.149 GC
2 setlinecap
1 LJ
0.5 LW
N
453.551 31.5 M
453.551 33.67 L
S
GR
GS
0.149 GC
2 setlinecap
1 LJ
0.5 LW
N
465.06 31.5 M
465.06 33.67 L
S
GR
GS
0.149 GC
2 setlinecap
1 LJ
0.5 LW
N
476.57 31.5 M
476.57 33.67 L
S
GR
GS
0.149 GC
2 setlinecap
1 LJ
0.5 LW
N
488.079 31.5 M
488.079 33.67 L
S
GR
GS
[1 0 0 1 96.76929 378.79996] CT
0.149 GC
/Helvetica 14 F
GS
[1 0 0 1 0 0] CT
-16 14 moveto 
1 -1 scale
(1000) t 
GR
GR
GS
[1 0 0 1 154.31479 378.79996] CT
0.149 GC
/Helvetica 14 F
GS
[1 0 0 1 0 0] CT
-16 14 moveto 
1 -1 scale
(2000) t 
GR
GR
GS
[1 0 0 1 211.86029 378.79996] CT
0.149 GC
/Helvetica 14 F
GS
[1 0 0 1 0 0] CT
-16 14 moveto 
1 -1 scale
(3000) t 
GR
GR
GS
[1 0 0 1 269.40579 378.79996] CT
0.149 GC
/Helvetica 14 F
GS
[1 0 0 1 0 0] CT
-16 14 moveto 
1 -1 scale
(4000) t 
GR
GR
GS
[1 0 0 1 326.95129 378.79996] CT
0.149 GC
/Helvetica 14 F
GS
[1 0 0 1 0 0] CT
-16 14 moveto 
1 -1 scale
(5000) t 
GR
GR
GS
[1 0 0 1 384.4968 378.79996] CT
0.149 GC
/Helvetica 14 F
GS
[1 0 0 1 0 0] CT
-16 14 moveto 
1 -1 scale
(6000) t 
GR
GR
GS
[1 0 0 1 442.04227 378.79996] CT
0.149 GC
/Helvetica 14 F
GS
[1 0 0 1 0 0] CT
-16 14 moveto 
1 -1 scale
(7000) t 
GR
GR
GS
[1 0 0 1 499.58777 378.79996] CT
0.149 GC
/Helvetica 14 F
GS
[1 0 0 1 0 0] CT
-16 14 moveto 
1 -1 scale
(8000) t 
GR
GR
GS
[1 0 0 1 290.00018 396.29999] CT
0.149 GC
/Helvetica 15.4 F
GS
[1 0 0 1 0 0] CT
-42 15 moveto 
1 -1 scale
(Bitrate\(kb/s\)) t 
GR
GR
GS
0.149 GC
2 setlinecap
1 LJ
0.5 LW
N
73 374 M
73 31.5 L
S
GR
GS
0.149 GC
2 setlinecap
1 LJ
0.5 LW
N
507 374 M
507 31.5 L
S
GR
GS
0.149 GC
2 setlinecap
1 LJ
0.5 LW
N
73 335.718 M
77.34 335.718 L
S
GR
GS
0.149 GC
2 setlinecap
1 LJ
0.5 LW
N
73 276.299 M
77.34 276.299 L
S
GR
GS
0.149 GC
2 setlinecap
1 LJ
0.5 LW
N
73 216.88 M
77.34 216.88 L
S
GR
GS
0.149 GC
2 setlinecap
1 LJ
0.5 LW
N
73 157.461 M
77.34 157.461 L
S
GR
GS
0.149 GC
2 setlinecap
1 LJ
0.5 LW
N
73 98.042 M
77.34 98.042 L
S
GR
GS
0.149 GC
2 setlinecap
1 LJ
0.5 LW
N
73 38.624 M
77.34 38.624 L
S
GR
GS
0.149 GC
2 setlinecap
1 LJ
0.5 LW
N
507 335.718 M
502.66 335.718 L
S
GR
GS
0.149 GC
2 setlinecap
1 LJ
0.5 LW
N
507 276.299 M
502.66 276.299 L
S
GR
GS
0.149 GC
2 setlinecap
1 LJ
0.5 LW
N
507 216.88 M
502.66 216.88 L
S
GR
GS
0.149 GC
2 setlinecap
1 LJ
0.5 LW
N
507 157.461 M
502.66 157.461 L
S
GR
GS
0.149 GC
2 setlinecap
1 LJ
0.5 LW
N
507 98.042 M
502.66 98.042 L
S
GR
GS
0.149 GC
2 setlinecap
1 LJ
0.5 LW
N
507 38.624 M
502.66 38.624 L
S
GR
GS
0.149 GC
2 setlinecap
1 LJ
0.5 LW
N
73 365.428 M
75.17 365.428 L
S
GR
GS
0.149 GC
2 setlinecap
1 LJ
0.5 LW
N
73 350.573 M
75.17 350.573 L
S
GR
GS
0.149 GC
2 setlinecap
1 LJ
0.5 LW
N
73 320.864 M
75.17 320.864 L
S
GR
GS
0.149 GC
2 setlinecap
1 LJ
0.5 LW
N
73 306.009 M
75.17 306.009 L
S
GR
GS
0.149 GC
2 setlinecap
1 LJ
0.5 LW
N
73 291.154 M
75.17 291.154 L
S
GR
GS
0.149 GC
2 setlinecap
1 LJ
0.5 LW
N
73 261.445 M
75.17 261.445 L
S
GR
GS
0.149 GC
2 setlinecap
1 LJ
0.5 LW
N
73 246.59 M
75.17 246.59 L
S
GR
GS
0.149 GC
2 setlinecap
1 LJ
0.5 LW
N
73 231.735 M
75.17 231.735 L
S
GR
GS
0.149 GC
2 setlinecap
1 LJ
0.5 LW
N
73 202.026 M
75.17 202.026 L
S
GR
GS
0.149 GC
2 setlinecap
1 LJ
0.5 LW
N
73 187.171 M
75.17 187.171 L
S
GR
GS
0.149 GC
2 setlinecap
1 LJ
0.5 LW
N
73 172.316 M
75.17 172.316 L
S
GR
GS
0.149 GC
2 setlinecap
1 LJ
0.5 LW
N
73 142.607 M
75.17 142.607 L
S
GR
GS
0.149 GC
2 setlinecap
1 LJ
0.5 LW
N
73 127.752 M
75.17 127.752 L
S
GR
GS
0.149 GC
2 setlinecap
1 LJ
0.5 LW
N
73 112.897 M
75.17 112.897 L
S
GR
GS
0.149 GC
2 setlinecap
1 LJ
0.5 LW
N
73 83.188 M
75.17 83.188 L
S
GR
GS
0.149 GC
2 setlinecap
1 LJ
0.5 LW
N
73 68.333 M
75.17 68.333 L
S
GR
GS
0.149 GC
2 setlinecap
1 LJ
0.5 LW
N
73 53.478 M
75.17 53.478 L
S
GR
GS
0.149 GC
2 setlinecap
1 LJ
0.5 LW
N
507 365.428 M
504.83 365.428 L
S
GR
GS
0.149 GC
2 setlinecap
1 LJ
0.5 LW
N
507 350.573 M
504.83 350.573 L
S
GR
GS
0.149 GC
2 setlinecap
1 LJ
0.5 LW
N
507 320.864 M
504.83 320.864 L
S
GR
GS
0.149 GC
2 setlinecap
1 LJ
0.5 LW
N
507 306.009 M
504.83 306.009 L
S
GR
GS
0.149 GC
2 setlinecap
1 LJ
0.5 LW
N
507 291.154 M
504.83 291.154 L
S
GR
GS
0.149 GC
2 setlinecap
1 LJ
0.5 LW
N
507 261.445 M
504.83 261.445 L
S
GR
GS
0.149 GC
2 setlinecap
1 LJ
0.5 LW
N
507 246.59 M
504.83 246.59 L
S
GR
GS
0.149 GC
2 setlinecap
1 LJ
0.5 LW
N
507 231.735 M
504.83 231.735 L
S
GR
GS
0.149 GC
2 setlinecap
1 LJ
0.5 LW
N
507 202.026 M
504.83 202.026 L
S
GR
GS
0.149 GC
2 setlinecap
1 LJ
0.5 LW
N
507 187.171 M
504.83 187.171 L
S
GR
GS
0.149 GC
2 setlinecap
1 LJ
0.5 LW
N
507 172.316 M
504.83 172.316 L
S
GR
GS
0.149 GC
2 setlinecap
1 LJ
0.5 LW
N
507 142.607 M
504.83 142.607 L
S
GR
GS
0.149 GC
2 setlinecap
1 LJ
0.5 LW
N
507 127.752 M
504.83 127.752 L
S
GR
GS
0.149 GC
2 setlinecap
1 LJ
0.5 LW
N
507 112.897 M
504.83 112.897 L
S
GR
GS
0.149 GC
2 setlinecap
1 LJ
0.5 LW
N
507 83.188 M
504.83 83.188 L
S
GR
GS
0.149 GC
2 setlinecap
1 LJ
0.5 LW
N
507 68.333 M
504.83 68.333 L
S
GR
GS
0.149 GC
2 setlinecap
1 LJ
0.5 LW
N
507 53.478 M
504.83 53.478 L
S
GR
GS
[1 0 0 1 68.2 335.71826] CT
0.149 GC
/Helvetica 14 F
GS
[1 0 0 1 0 0] CT
-16 5.5 moveto 
1 -1 scale
(34) t 
GR
GR
GS
[1 0 0 1 68.2 276.29932] CT
0.149 GC
/Helvetica 14 F
GS
[1 0 0 1 0 0] CT
-16 5.5 moveto 
1 -1 scale
(36) t 
GR
GR
GS
[1 0 0 1 68.2 216.88037] CT
0.149 GC
/Helvetica 14 F
GS
[1 0 0 1 0 0] CT
-16 5.5 moveto 
1 -1 scale
(38) t 
GR
GR
GS
[1 0 0 1 68.2 157.46143] CT
0.149 GC
/Helvetica 14 F
GS
[1 0 0 1 0 0] CT
-16 5.5 moveto 
1 -1 scale
(40) t 
GR
GR
GS
[1 0 0 1 68.2 98.0425] CT
0.149 GC
/Helvetica 14 F
GS
[1 0 0 1 0 0] CT
-16 5.5 moveto 
1 -1 scale
(42) t 
GR
GR
GS
[1 0 0 1 68.2 38.62355] CT
0.149 GC
/Helvetica 14 F
GS
[1 0 0 1 0 0] CT
-16 5.5 moveto 
1 -1 scale
(44) t 
GR
GR
GS
[0 -1 1 0 49.2 202.74983] CT
0.149 GC
/Helvetica 15.4 F
GS
[1 0 0 1 0 0] CT
-42 -4 moveto 
1 -1 scale
(PSNR Y\(dB\)) t 
GR
GR
GS
[1 0 0 1 290.00027 29.57508] CT
/Helvetica-Bold 15.4 F
GS
[1 0 0 1 0 0] CT
-101.5 -4 moveto 
1 -1 scale
(Vlog_1080P-58ad.y4m-hevc) t 
GR
GR
GS
0 0.447 0.741 RC
1 LJ
0.5 LW
N
74.474 371.106 M
75.625 367.393 L
76.776 363.697 L
77.927 360.021 L
79.077 356.367 L
80.228 352.739 L
81.379 349.139 L
82.53 345.571 L
83.681 342.036 L
84.832 338.539 L
85.983 335.081 L
87.134 331.665 L
88.285 328.295 L
89.436 324.974 L
90.587 321.703 L
91.738 318.486 L
92.888 315.326 L
94.039 312.226 L
95.19 309.188 L
96.341 306.215 L
97.492 303.31 L
98.643 300.476 L
99.794 297.716 L
100.945 295.032 L
102.096 292.428 L
103.247 289.906 L
104.398 287.469 L
105.548 285.096 L
106.699 282.75 L
107.85 280.43 L
109.001 278.136 L
110.152 275.868 L
111.303 273.626 L
112.454 271.41 L
113.605 269.219 L
114.756 267.054 L
115.907 264.914 L
117.058 262.8 L
118.208 260.711 L
119.359 258.647 L
120.51 256.608 L
121.661 254.594 L
122.812 252.605 L
123.963 250.64 L
125.114 248.7 L
126.265 246.785 L
127.416 244.893 L
128.567 243.026 L
129.718 241.183 L
130.868 239.364 L
132.019 237.569 L
133.17 235.798 L
134.321 234.05 L
135.472 232.326 L
136.623 230.625 L
137.774 228.948 L
138.925 227.293 L
140.076 225.662 L
141.227 224.054 L
142.378 222.469 L
143.528 220.906 L
144.679 219.367 L
145.83 217.849 L
146.981 216.354 L
148.132 214.882 L
149.283 213.431 L
150.434 212.003 L
151.585 210.597 L
152.736 209.212 L
153.887 207.849 L
155.038 206.508 L
156.188 205.189 L
157.339 203.89 L
158.49 202.602 L
159.641 201.323 L
160.792 200.052 L
161.943 198.79 L
163.094 197.536 L
164.245 196.29 L
165.396 195.052 L
166.547 193.823 L
167.698 192.602 L
168.848 191.389 L
169.999 190.184 L
171.15 188.988 L
172.301 187.8 L
173.452 186.62 L
174.603 185.448 L
175.754 184.285 L
176.905 183.13 L
178.056 181.983 L
179.207 180.844 L
180.358 179.713 L
181.508 178.591 L
182.659 177.477 L
183.81 176.371 L
184.961 175.273 L
186.112 174.184 L
187.263 173.103 L
188.414 172.03 L
189.565 170.965 L
190.716 169.908 L
191.867 168.859 L
193.018 167.819 L
194.168 166.786 L
195.319 165.762 L
196.47 164.746 L
197.621 163.738 L
198.772 162.739 L
199.923 161.747 L
201.074 160.764 L
202.225 159.788 L
203.376 158.821 L
204.527 157.862 L
205.678 156.911 L
206.829 155.968 L
207.979 155.033 L
209.13 154.107 L
210.281 153.188 L
211.432 152.278 L
212.583 151.375 L
213.734 150.481 L
214.885 149.594 L
216.036 148.716 L
217.187 147.846 L
218.338 146.984 L
219.489 146.13 L
220.639 145.284 L
221.79 144.446 L
222.941 143.616 L
224.092 142.794 L
225.243 141.98 L
226.394 141.175 L
227.545 140.377 L
228.696 139.587 L
229.847 138.805 L
230.998 138.031 L
232.149 137.266 L
233.299 136.508 L
234.45 135.758 L
235.601 135.016 L
236.752 134.282 L
237.903 133.557 L
239.054 132.839 L
240.205 132.129 L
241.356 131.427 L
242.507 130.733 L
243.658 130.047 L
244.809 129.369 L
245.959 128.698 L
247.11 128.036 L
248.261 127.382 L
249.412 126.735 L
250.563 126.097 L
251.714 125.466 L
252.865 124.836 L
254.016 124.207 L
255.167 123.578 L
256.318 122.949 L
257.469 122.321 L
258.619 121.692 L
259.77 121.064 L
260.921 120.437 L
262.072 119.809 L
263.223 119.182 L
264.374 118.556 L
265.525 117.93 L
266.676 117.304 L
267.827 116.679 L
268.978 116.055 L
270.129 115.431 L
271.279 114.807 L
272.43 114.184 L
273.581 113.562 L
274.732 112.94 L
275.883 112.319 L
277.034 111.699 L
278.185 111.079 L
279.336 110.461 L
280.487 109.842 L
281.638 109.225 L
282.789 108.609 L
283.939 107.993 L
285.09 107.378 L
286.241 106.764 L
287.392 106.151 L
288.543 105.539 L
289.694 104.928 L
290.845 104.317 L
291.996 103.708 L
293.147 103.1 L
294.298 102.493 L
295.449 101.887 L
296.599 101.282 L
297.75 100.678 L
298.901 100.075 L
300.052 99.474 L
301.203 98.873 L
302.354 98.274 L
303.505 97.676 L
304.656 97.08 L
305.807 96.484 L
306.958 95.89 L
308.109 95.298 L
309.259 94.706 L
310.41 94.116 L
311.561 93.528 L
312.712 92.941 L
313.863 92.355 L
315.014 91.771 L
316.165 91.188 L
317.316 90.607 L
318.467 90.028 L
319.618 89.45 L
320.769 88.874 L
321.919 88.299 L
323.07 87.726 L
324.221 87.155 L
325.372 86.585 L
326.523 86.017 L
327.674 85.451 L
328.825 84.886 L
329.976 84.324 L
331.127 83.763 L
332.278 83.204 L
333.429 82.647 L
334.579 82.092 L
335.73 81.539 L
336.881 80.988 L
338.032 80.438 L
339.183 79.891 L
340.334 79.346 L
341.485 78.803 L
342.636 78.261 L
343.787 77.722 L
344.938 77.185 L
346.089 76.651 L
347.24 76.118 L
348.39 75.588 L
349.541 75.059 L
350.692 74.534 L
351.843 74.01 L
352.994 73.488 L
354.145 72.969 L
355.296 72.453 L
356.447 71.938 L
357.598 71.426 L
358.749 70.917 L
359.9 70.41 L
361.05 69.905 L
362.201 69.403 L
363.352 68.903 L
364.503 68.406 L
365.654 67.911 L
366.805 67.419 L
367.956 66.93 L
369.107 66.443 L
370.258 65.959 L
371.409 65.478 L
372.56 64.999 L
373.71 64.523 L
374.861 64.05 L
376.012 63.579 L
377.163 63.112 L
378.314 62.647 L
379.465 62.185 L
380.616 61.726 L
381.767 61.27 L
382.918 60.816 L
384.069 60.366 L
385.22 59.919 L
386.37 59.474 L
387.521 59.033 L
388.672 58.595 L
389.823 58.16 L
390.974 57.727 L
392.125 57.299 L
393.276 56.873 L
394.427 56.45 L
395.578 56.03 L
396.729 55.614 L
397.88 55.201 L
399.03 54.791 L
400.181 54.385 L
401.332 53.982 L
402.483 53.582 L
403.634 53.186 L
404.785 52.793 L
405.936 52.403 L
407.087 52.017 L
408.238 51.634 L
409.389 51.255 L
410.54 50.879 L
411.69 50.507 L
412.841 50.138 L
413.992 49.773 L
415.143 49.411 L
416.294 49.054 L
417.445 48.7 L
418.596 48.349 L
419.747 48.002 L
420.898 47.659 L
422.049 47.32 L
423.2 46.984 L
424.35 46.652 L
425.501 46.325 L
426.652 46.001 L
427.803 45.68 L
428.954 45.364 L
430.105 45.052 L
431.256 44.743 L
432.407 44.439 L
433.558 44.139 L
434.709 43.842 L
435.86 43.55 L
437.01 43.261 L
438.161 42.977 L
439.312 42.697 L
440.463 42.421 L
441.614 42.149 L
442.765 41.882 L
443.916 41.619 L
445.067 41.359 L
446.218 41.105 L
447.369 40.854 L
448.52 40.608 L
449.671 40.366 L
450.821 40.128 L
451.972 39.895 L
453.123 39.666 L
454.274 39.442 L
455.425 39.222 L
456.576 39.007 L
457.727 38.796 L
458.878 38.59 L
460.029 38.388 L
461.18 38.191 L
462.331 37.998 L
463.481 37.81 L
464.632 37.627 L
465.783 37.449 L
466.934 37.275 L
468.085 37.105 L
469.236 36.941 L
470.387 36.781 L
471.538 36.627 L
472.689 36.476 L
473.84 36.331 L
474.991 36.191 L
476.141 36.056 L
477.292 35.925 L
478.443 35.8 L
479.594 35.679 L
480.745 35.564 L
481.896 35.453 L
483.047 35.348 L
484.198 35.247 L
485.349 35.152 L
486.5 35.062 L
487.651 34.977 L
488.801 34.897 L
489.952 34.822 L
491.103 34.753 L
492.254 34.689 L
493.405 34.629 L
494.556 34.576 L
S
GR
GS
0.851 0.325 0.098 RC
1 LJ
0.5 LW
N
74.212 372.083 M
75.363 368.332 L
76.514 364.599 L
77.664 360.885 L
78.815 357.194 L
79.966 353.53 L
81.117 349.894 L
82.268 346.291 L
83.419 342.722 L
84.57 339.191 L
85.721 335.701 L
86.872 332.254 L
88.023 328.854 L
89.174 325.504 L
90.324 322.207 L
91.475 318.965 L
92.626 315.781 L
93.777 312.659 L
94.928 309.602 L
96.079 306.611 L
97.23 303.691 L
98.381 300.845 L
99.532 298.074 L
100.683 295.383 L
101.834 292.774 L
102.984 290.249 L
104.135 287.813 L
105.286 285.432 L
106.437 283.077 L
107.588 280.75 L
108.739 278.449 L
109.89 276.176 L
111.041 273.928 L
112.192 271.708 L
113.343 269.513 L
114.494 267.345 L
115.644 265.203 L
116.795 263.087 L
117.946 260.996 L
119.097 258.932 L
120.248 256.892 L
121.399 254.878 L
122.55 252.889 L
123.701 250.925 L
124.852 248.986 L
126.003 247.072 L
127.154 245.182 L
128.304 243.317 L
129.455 241.476 L
130.606 239.659 L
131.757 237.867 L
132.908 236.098 L
134.059 234.353 L
135.21 232.631 L
136.361 230.933 L
137.512 229.258 L
138.663 227.607 L
139.814 225.978 L
140.964 224.373 L
142.115 222.79 L
143.266 221.229 L
144.417 219.691 L
145.568 218.176 L
146.719 216.682 L
147.87 215.211 L
149.021 213.762 L
150.172 212.334 L
151.323 210.928 L
152.474 209.543 L
153.624 208.179 L
154.775 206.837 L
155.926 205.516 L
157.077 204.213 L
158.228 202.919 L
159.379 201.634 L
160.53 200.357 L
161.681 199.088 L
162.832 197.827 L
163.983 196.575 L
165.134 195.331 L
166.285 194.095 L
167.435 192.867 L
168.586 191.648 L
169.737 190.436 L
170.888 189.234 L
172.039 188.039 L
173.19 186.853 L
174.341 185.674 L
175.492 184.505 L
176.643 183.343 L
177.794 182.189 L
178.945 181.044 L
180.095 179.907 L
181.246 178.779 L
182.397 177.658 L
183.548 176.546 L
184.699 175.442 L
185.85 174.346 L
187.001 173.259 L
188.152 172.179 L
189.303 171.108 L
190.454 170.045 L
191.605 168.991 L
192.755 167.944 L
193.906 166.906 L
195.057 165.876 L
196.208 164.855 L
197.359 163.841 L
198.51 162.836 L
199.661 161.839 L
200.812 160.85 L
201.963 159.87 L
203.114 158.897 L
204.265 157.933 L
205.415 156.977 L
206.566 156.029 L
207.717 155.09 L
208.868 154.159 L
210.019 153.236 L
211.17 152.321 L
212.321 151.414 L
213.472 150.516 L
214.623 149.625 L
215.774 148.743 L
216.925 147.87 L
218.075 147.004 L
219.226 146.147 L
220.377 145.297 L
221.528 144.456 L
222.679 143.624 L
223.83 142.799 L
224.981 141.982 L
226.132 141.174 L
227.283 140.374 L
228.434 139.583 L
229.585 138.799 L
230.735 138.023 L
231.886 137.256 L
233.037 136.497 L
234.188 135.746 L
235.339 135.004 L
236.49 134.269 L
237.641 133.543 L
238.792 132.825 L
239.943 132.115 L
241.094 131.413 L
242.245 130.72 L
243.395 130.034 L
244.546 129.357 L
245.697 128.688 L
246.848 128.027 L
247.999 127.375 L
249.15 126.73 L
250.301 126.093 L
251.452 125.459 L
252.603 124.825 L
253.754 124.191 L
254.905 123.557 L
256.055 122.924 L
257.206 122.291 L
258.357 121.658 L
259.508 121.026 L
260.659 120.393 L
261.81 119.762 L
262.961 119.13 L
264.112 118.5 L
265.263 117.869 L
266.414 117.239 L
267.565 116.61 L
268.715 115.981 L
269.866 115.353 L
271.017 114.725 L
272.168 114.098 L
273.319 113.472 L
274.47 112.846 L
275.621 112.221 L
276.772 111.596 L
277.923 110.973 L
279.074 110.35 L
280.225 109.728 L
281.376 109.107 L
282.526 108.486 L
283.677 107.867 L
284.828 107.248 L
285.979 106.631 L
287.13 106.014 L
288.281 105.398 L
289.432 104.783 L
290.583 104.169 L
291.734 103.557 L
292.885 102.945 L
294.036 102.334 L
295.186 101.725 L
296.337 101.117 L
297.488 100.509 L
298.639 99.904 L
299.79 99.299 L
300.941 98.695 L
302.092 98.093 L
303.243 97.492 L
304.394 96.893 L
305.545 96.294 L
306.696 95.697 L
307.846 95.102 L
308.997 94.508 L
310.148 93.915 L
311.299 93.324 L
312.45 92.734 L
313.601 92.146 L
314.752 91.56 L
315.903 90.975 L
317.054 90.391 L
318.205 89.809 L
319.356 89.229 L
320.506 88.651 L
321.657 88.074 L
322.808 87.499 L
323.959 86.926 L
325.11 86.354 L
326.261 85.784 L
327.412 85.216 L
328.563 84.65 L
329.714 84.086 L
330.865 83.524 L
332.016 82.963 L
333.166 82.405 L
334.317 81.849 L
335.468 81.294 L
336.619 80.741 L
337.77 80.191 L
338.921 79.643 L
340.072 79.097 L
341.223 78.552 L
342.374 78.01 L
343.525 77.471 L
344.676 76.933 L
345.826 76.398 L
346.977 75.865 L
348.128 75.334 L
349.279 74.805 L
350.43 74.279 L
351.581 73.755 L
352.732 73.234 L
353.883 72.714 L
355.034 72.198 L
356.185 71.684 L
357.336 71.172 L
358.486 70.663 L
359.637 70.156 L
360.788 69.652 L
361.939 69.15 L
363.09 68.651 L
364.241 68.155 L
365.392 67.661 L
366.543 67.17 L
367.694 66.682 L
368.845 66.196 L
369.996 65.713 L
371.146 65.233 L
372.297 64.756 L
373.448 64.281 L
374.599 63.809 L
375.75 63.341 L
376.901 62.875 L
378.052 62.412 L
379.203 61.952 L
380.354 61.495 L
381.505 61.041 L
382.656 60.59 L
383.806 60.142 L
384.957 59.697 L
386.108 59.256 L
387.259 58.817 L
388.41 58.382 L
389.561 57.949 L
390.712 57.52 L
391.863 57.094 L
393.014 56.672 L
394.165 56.252 L
395.316 55.836 L
396.466 55.424 L
397.617 55.014 L
398.768 54.608 L
399.919 54.206 L
401.07 53.807 L
402.221 53.411 L
403.372 53.019 L
404.523 52.63 L
405.674 52.245 L
406.825 51.863 L
407.976 51.485 L
409.126 51.111 L
410.277 50.74 L
411.428 50.373 L
412.579 50.009 L
413.73 49.65 L
414.881 49.294 L
416.032 48.941 L
417.183 48.593 L
418.334 48.248 L
419.485 47.907 L
420.636 47.57 L
421.787 47.237 L
422.937 46.908 L
424.088 46.583 L
425.239 46.261 L
426.39 45.944 L
427.541 45.631 L
428.692 45.321 L
429.843 45.016 L
430.994 44.715 L
432.145 44.418 L
433.296 44.125 L
434.447 43.836 L
435.597 43.551 L
436.748 43.271 L
437.899 42.995 L
439.05 42.723 L
440.201 42.455 L
441.352 42.192 L
442.503 41.933 L
443.654 41.678 L
444.805 41.428 L
445.956 41.182 L
447.107 40.941 L
448.257 40.704 L
449.408 40.471 L
450.559 40.243 L
451.71 40.02 L
452.861 39.801 L
454.012 39.587 L
455.163 39.377 L
456.314 39.172 L
457.465 38.972 L
458.616 38.776 L
459.767 38.585 L
460.917 38.399 L
462.068 38.217 L
463.219 38.04 L
464.37 37.869 L
465.521 37.701 L
466.672 37.539 L
467.823 37.382 L
468.974 37.229 L
470.125 37.082 L
471.276 36.939 L
472.427 36.802 L
473.577 36.669 L
474.728 36.542 L
475.879 36.419 L
477.03 36.302 L
478.181 36.19 L
479.332 36.083 L
480.483 35.981 L
481.634 35.884 L
482.785 35.792 L
483.936 35.706 L
485.087 35.625 L
486.237 35.549 L
487.388 35.479 L
488.539 35.413 L
489.69 35.354 L
490.841 35.299 L
S
GR
GS
0.929 0.694 0.125 RC
1 LJ
0.5 LW
N
73 374 M
74.151 370.151 L
75.302 366.32 L
76.453 362.512 L
77.604 358.728 L
78.755 354.972 L
79.905 351.247 L
81.056 347.556 L
82.207 343.902 L
83.358 340.288 L
84.509 336.716 L
85.66 333.191 L
86.811 329.714 L
87.962 326.289 L
89.113 322.919 L
90.264 319.607 L
91.415 316.356 L
92.565 313.168 L
93.716 310.048 L
94.867 306.997 L
96.018 304.02 L
97.169 301.118 L
98.32 298.295 L
99.471 295.553 L
100.622 292.897 L
101.773 290.329 L
102.924 287.839 L
104.075 285.382 L
105.225 282.953 L
106.376 280.551 L
107.527 278.177 L
108.678 275.831 L
109.829 273.512 L
110.98 271.22 L
112.131 268.956 L
113.282 266.719 L
114.433 264.509 L
115.584 262.326 L
116.735 260.169 L
117.885 258.039 L
119.036 255.936 L
120.187 253.86 L
121.338 251.809 L
122.489 249.785 L
123.64 247.788 L
124.791 245.816 L
125.942 243.87 L
127.093 241.95 L
128.244 240.056 L
129.395 238.188 L
130.546 236.345 L
131.696 234.527 L
132.847 232.735 L
133.998 230.968 L
135.149 229.226 L
136.3 227.509 L
137.451 225.817 L
138.602 224.15 L
139.753 222.508 L
140.904 220.89 L
142.055 219.296 L
143.206 217.727 L
144.356 216.182 L
145.507 214.662 L
146.658 213.165 L
147.809 211.693 L
148.96 210.244 L
150.111 208.819 L
151.262 207.418 L
152.413 206.04 L
153.564 204.679 L
154.715 203.326 L
155.866 201.983 L
157.016 200.648 L
158.167 199.322 L
159.318 198.005 L
160.469 196.696 L
161.62 195.397 L
162.771 194.106 L
163.922 192.825 L
165.073 191.552 L
166.224 190.288 L
167.375 189.032 L
168.526 187.786 L
169.676 186.549 L
170.827 185.32 L
171.978 184.101 L
173.129 182.89 L
174.28 181.689 L
175.431 180.496 L
176.582 179.312 L
177.733 178.137 L
178.884 176.972 L
180.035 175.815 L
181.186 174.667 L
182.336 173.528 L
183.487 172.398 L
184.638 171.277 L
185.789 170.165 L
186.94 169.063 L
188.091 167.969 L
189.242 166.884 L
190.393 165.808 L
191.544 164.742 L
192.695 163.684 L
193.846 162.636 L
194.996 161.596 L
196.147 160.566 L
197.298 159.545 L
198.449 158.533 L
199.6 157.53 L
200.751 156.536 L
201.902 155.551 L
203.053 154.575 L
204.204 153.609 L
205.355 152.652 L
206.506 151.704 L
207.656 150.765 L
208.807 149.835 L
209.958 148.914 L
211.109 148.003 L
212.26 147.101 L
213.411 146.208 L
214.562 145.324 L
215.713 144.45 L
216.864 143.584 L
218.015 142.728 L
219.166 141.882 L
220.316 141.044 L
221.467 140.216 L
222.618 139.397 L
223.769 138.587 L
224.92 137.787 L
226.071 136.996 L
227.222 136.214 L
228.373 135.442 L
229.524 134.679 L
230.675 133.925 L
231.826 133.18 L
232.976 132.445 L
234.127 131.72 L
235.278 131.003 L
236.429 130.297 L
237.58 129.599 L
238.731 128.911 L
239.882 128.232 L
241.033 127.563 L
242.184 126.902 L
243.335 126.244 L
244.486 125.586 L
245.636 124.928 L
246.787 124.271 L
247.938 123.613 L
249.089 122.956 L
250.24 122.3 L
251.391 121.643 L
252.542 120.987 L
253.693 120.331 L
254.844 119.676 L
255.995 119.021 L
257.146 118.366 L
258.297 117.713 L
259.447 117.059 L
260.598 116.406 L
261.749 115.754 L
262.9 115.102 L
264.051 114.451 L
265.202 113.801 L
266.353 113.151 L
267.504 112.502 L
268.655 111.854 L
269.806 111.207 L
270.957 110.56 L
272.107 109.915 L
273.258 109.27 L
274.409 108.626 L
275.56 107.983 L
276.711 107.341 L
277.862 106.7 L
279.013 106.06 L
280.164 105.42 L
281.315 104.783 L
282.466 104.146 L
283.617 103.51 L
284.767 102.875 L
285.918 102.242 L
287.069 101.61 L
288.22 100.979 L
289.371 100.349 L
290.522 99.721 L
291.673 99.094 L
292.824 98.468 L
293.975 97.844 L
295.126 97.221 L
296.277 96.6 L
297.427 95.98 L
298.578 95.361 L
299.729 94.745 L
300.88 94.129 L
302.031 93.516 L
303.182 92.903 L
304.333 92.293 L
305.484 91.684 L
306.635 91.077 L
307.786 90.472 L
308.937 89.868 L
310.087 89.266 L
311.238 88.666 L
312.389 88.068 L
313.54 87.472 L
314.691 86.878 L
315.842 86.285 L
316.993 85.695 L
318.144 85.106 L
319.295 84.52 L
320.446 83.936 L
321.597 83.353 L
322.747 82.773 L
323.898 82.195 L
325.049 81.619 L
326.2 81.046 L
327.351 80.474 L
328.502 79.905 L
329.653 79.338 L
330.804 78.773 L
331.955 78.211 L
333.106 77.651 L
334.257 77.094 L
335.407 76.539 L
336.558 75.986 L
337.709 75.436 L
338.86 74.888 L
340.011 74.343 L
341.162 73.801 L
342.313 73.261 L
343.464 72.724 L
344.615 72.189 L
345.766 71.657 L
346.917 71.128 L
348.067 70.601 L
349.218 70.078 L
350.369 69.557 L
351.52 69.039 L
352.671 68.523 L
353.822 68.011 L
354.973 67.502 L
356.124 66.995 L
357.275 66.492 L
358.426 65.991 L
359.577 65.494 L
360.727 64.999 L
361.878 64.508 L
363.029 64.02 L
364.18 63.535 L
365.331 63.053 L
366.482 62.574 L
367.633 62.099 L
368.784 61.626 L
369.935 61.158 L
371.086 60.692 L
372.237 60.23 L
373.387 59.771 L
374.538 59.315 L
375.689 58.863 L
376.84 58.415 L
377.991 57.97 L
379.142 57.528 L
380.293 57.09 L
381.444 56.656 L
382.595 56.225 L
383.746 55.798 L
384.897 55.374 L
386.048 54.955 L
387.198 54.539 L
388.349 54.126 L
389.5 53.718 L
390.651 53.313 L
391.802 52.912 L
392.953 52.515 L
394.104 52.122 L
395.255 51.733 L
396.406 51.347 L
397.557 50.966 L
398.708 50.589 L
399.858 50.215 L
401.009 49.846 L
402.16 49.481 L
403.311 49.12 L
404.462 48.763 L
405.613 48.411 L
406.764 48.062 L
407.915 47.718 L
409.066 47.378 L
410.217 47.043 L
411.368 46.711 L
412.518 46.384 L
413.669 46.062 L
414.82 45.744 L
415.971 45.43 L
417.122 45.121 L
418.273 44.816 L
419.424 44.516 L
420.575 44.22 L
421.726 43.929 L
422.877 43.643 L
424.028 43.361 L
425.178 43.084 L
426.329 42.812 L
427.48 42.544 L
428.631 42.281 L
429.782 42.023 L
430.933 41.77 L
432.084 41.521 L
433.235 41.278 L
434.386 41.039 L
435.537 40.805 L
436.688 40.576 L
437.838 40.353 L
438.989 40.134 L
440.14 39.92 L
441.291 39.711 L
442.442 39.508 L
443.593 39.309 L
444.744 39.116 L
445.895 38.928 L
447.046 38.745 L
448.197 38.568 L
449.348 38.395 L
450.498 38.228 L
451.649 38.067 L
452.8 37.91 L
453.951 37.759 L
455.102 37.614 L
456.253 37.474 L
457.404 37.339 L
458.555 37.21 L
459.706 37.086 L
460.857 36.968 L
462.008 36.856 L
463.158 36.749 L
464.309 36.648 L
465.46 36.553 L
466.611 36.463 L
467.762 36.379 L
468.913 36.301 L
470.064 36.228 L
471.215 36.162 L
472.366 36.101 L
473.517 36.046 L
474.668 35.997 L
475.818 35.954 L
476.969 35.917 L
S
GR
GS
0.494 0.184 0.557 RC
1 LJ
0.5 LW
N
75.409 367.114 M
76.56 363.494 L
77.711 359.891 L
78.861 356.307 L
80.012 352.744 L
81.163 349.205 L
82.314 345.693 L
83.465 342.211 L
84.616 338.76 L
85.767 335.345 L
86.918 331.967 L
88.069 328.629 L
89.22 325.334 L
90.371 322.085 L
91.522 318.884 L
92.672 315.734 L
93.823 312.637 L
94.974 309.596 L
96.125 306.614 L
97.276 303.694 L
98.427 300.838 L
99.578 298.048 L
100.729 295.328 L
101.88 292.68 L
103.031 290.107 L
104.182 287.612 L
105.332 285.197 L
106.483 282.86 L
107.634 280.562 L
108.785 278.29 L
109.936 276.042 L
111.087 273.82 L
112.238 271.622 L
113.389 269.45 L
114.54 267.302 L
115.691 265.179 L
116.842 263.08 L
117.992 261.005 L
119.143 258.955 L
120.294 256.929 L
121.445 254.927 L
122.596 252.95 L
123.747 250.995 L
124.898 249.065 L
126.049 247.158 L
127.2 245.274 L
128.351 243.414 L
129.502 241.577 L
130.652 239.762 L
131.803 237.971 L
132.954 236.203 L
134.105 234.457 L
135.256 232.735 L
136.407 231.034 L
137.558 229.356 L
138.709 227.7 L
139.86 226.066 L
141.011 224.454 L
142.162 222.864 L
143.312 221.296 L
144.463 219.749 L
145.614 218.224 L
146.765 216.721 L
147.916 215.238 L
149.067 213.777 L
150.218 212.337 L
151.369 210.918 L
152.52 209.519 L
153.671 208.141 L
154.822 206.784 L
155.972 205.447 L
157.123 204.131 L
158.274 202.834 L
159.425 201.558 L
160.576 200.298 L
161.727 199.045 L
162.878 197.8 L
164.029 196.563 L
165.18 195.334 L
166.331 194.113 L
167.482 192.899 L
168.632 191.693 L
169.783 190.495 L
170.934 189.305 L
172.085 188.122 L
173.236 186.948 L
174.387 185.781 L
175.538 184.622 L
176.689 183.47 L
177.84 182.326 L
178.991 181.191 L
180.142 180.063 L
181.292 178.942 L
182.443 177.83 L
183.594 176.725 L
184.745 175.628 L
185.896 174.539 L
187.047 173.458 L
188.198 172.384 L
189.349 171.318 L
190.5 170.26 L
191.651 169.21 L
192.802 168.167 L
193.952 167.132 L
195.103 166.106 L
196.254 165.086 L
197.405 164.075 L
198.556 163.071 L
199.707 162.076 L
200.858 161.087 L
202.009 160.107 L
203.16 159.135 L
204.311 158.17 L
205.462 157.213 L
206.612 156.264 L
207.763 155.323 L
208.914 154.389 L
210.065 153.463 L
211.216 152.545 L
212.367 151.635 L
213.518 150.732 L
214.669 149.838 L
215.82 148.951 L
216.971 148.072 L
218.122 147.2 L
219.273 146.337 L
220.423 145.481 L
221.574 144.633 L
222.725 143.793 L
223.876 142.96 L
225.027 142.136 L
226.178 141.319 L
227.329 140.509 L
228.48 139.708 L
229.631 138.915 L
230.782 138.129 L
231.933 137.351 L
233.083 136.581 L
234.234 135.818 L
235.385 135.064 L
236.536 134.317 L
237.687 133.578 L
238.838 132.846 L
239.989 132.123 L
241.14 131.407 L
242.291 130.699 L
243.442 129.999 L
244.593 129.307 L
245.743 128.622 L
246.894 127.945 L
248.045 127.276 L
249.196 126.615 L
250.347 125.961 L
251.498 125.316 L
252.649 124.678 L
253.8 124.047 L
254.951 123.425 L
256.102 122.81 L
257.253 122.197 L
258.403 121.585 L
259.554 120.972 L
260.705 120.36 L
261.856 119.748 L
263.007 119.136 L
264.158 118.524 L
265.309 117.913 L
266.46 117.302 L
267.611 116.691 L
268.762 116.081 L
269.913 115.471 L
271.063 114.861 L
272.214 114.252 L
273.365 113.644 L
274.516 113.036 L
275.667 112.428 L
276.818 111.821 L
277.969 111.214 L
279.12 110.608 L
280.271 110.003 L
281.422 109.398 L
282.573 108.794 L
283.723 108.19 L
284.874 107.587 L
286.025 106.985 L
287.176 106.384 L
288.327 105.783 L
289.478 105.183 L
290.629 104.584 L
291.78 103.986 L
292.931 103.389 L
294.082 102.792 L
295.233 102.196 L
296.383 101.601 L
297.534 101.007 L
298.685 100.415 L
299.836 99.823 L
300.987 99.232 L
302.138 98.642 L
303.289 98.053 L
304.44 97.465 L
305.591 96.878 L
306.742 96.293 L
307.893 95.708 L
309.043 95.125 L
310.194 94.542 L
311.345 93.962 L
312.496 93.382 L
313.647 92.803 L
314.798 92.226 L
315.949 91.65 L
317.1 91.075 L
318.251 90.502 L
319.402 89.93 L
320.553 89.36 L
321.703 88.79 L
322.854 88.223 L
324.005 87.656 L
325.156 87.091 L
326.307 86.528 L
327.458 85.966 L
328.609 85.406 L
329.76 84.847 L
330.911 84.29 L
332.062 83.735 L
333.213 83.181 L
334.363 82.629 L
335.514 82.078 L
336.665 81.529 L
337.816 80.982 L
338.967 80.437 L
340.118 79.893 L
341.269 79.351 L
342.42 78.811 L
343.571 78.273 L
344.722 77.737 L
345.873 77.202 L
347.023 76.67 L
348.174 76.139 L
349.325 75.61 L
350.476 75.083 L
351.627 74.559 L
352.778 74.036 L
353.929 73.515 L
355.08 72.997 L
356.231 72.48 L
357.382 71.966 L
358.533 71.453 L
359.684 70.943 L
360.834 70.435 L
361.985 69.929 L
363.136 69.426 L
364.287 68.925 L
365.438 68.426 L
366.589 67.929 L
367.74 67.434 L
368.891 66.942 L
370.042 66.452 L
371.193 65.965 L
372.344 65.48 L
373.494 64.997 L
374.645 64.517 L
375.796 64.04 L
376.947 63.564 L
378.098 63.092 L
379.249 62.622 L
380.4 62.154 L
381.551 61.689 L
382.702 61.227 L
383.853 60.767 L
385.004 60.31 L
386.154 59.855 L
387.305 59.404 L
388.456 58.955 L
389.607 58.508 L
390.758 58.065 L
391.909 57.624 L
393.06 57.186 L
394.211 56.751 L
395.362 56.319 L
396.513 55.889 L
397.664 55.463 L
398.814 55.039 L
399.965 54.619 L
401.116 54.201 L
402.267 53.786 L
403.418 53.375 L
404.569 52.966 L
405.72 52.561 L
406.871 52.158 L
408.022 51.759 L
409.173 51.362 L
410.324 50.969 L
411.474 50.579 L
412.625 50.193 L
413.776 49.809 L
414.927 49.429 L
416.078 49.052 L
417.229 48.678 L
418.38 48.307 L
419.531 47.94 L
420.682 47.577 L
421.833 47.216 L
422.984 46.859 L
424.134 46.506 L
425.285 46.156 L
426.436 45.809 L
427.587 45.466 L
428.738 45.126 L
429.889 44.79 L
431.04 44.457 L
432.191 44.128 L
433.342 43.803 L
434.493 43.481 L
435.644 43.163 L
436.794 42.848 L
437.945 42.538 L
439.096 42.23 L
440.247 41.927 L
441.398 41.628 L
442.549 41.332 L
443.7 41.04 L
444.851 40.752 L
446.002 40.467 L
447.153 40.187 L
448.304 39.91 L
449.454 39.638 L
450.605 39.369 L
451.756 39.104 L
452.907 38.843 L
454.058 38.587 L
455.209 38.334 L
456.36 38.085 L
457.511 37.841 L
458.662 37.6 L
459.813 37.364 L
460.964 37.132 L
462.115 36.904 L
463.265 36.68 L
464.416 36.46 L
465.567 36.245 L
466.718 36.033 L
467.869 35.827 L
469.02 35.624 L
470.171 35.426 L
471.322 35.232 L
472.473 35.042 L
473.624 34.857 L
474.775 34.676 L
475.925 34.5 L
477.076 34.328 L
478.227 34.161 L
479.378 33.998 L
480.529 33.84 L
481.68 33.686 L
482.831 33.537 L
483.982 33.392 L
485.133 33.252 L
486.284 33.117 L
487.435 32.986 L
488.585 32.86 L
489.736 32.739 L
490.887 32.622 L
492.038 32.51 L
493.189 32.403 L
494.34 32.301 L
495.491 32.204 L
496.642 32.111 L
497.793 32.024 L
498.944 31.941 L
500.095 31.863 L
501.245 31.79 L
502.396 31.722 L
503.547 31.659 L
504.698 31.601 L
505.849 31.548 L
507 31.5 L
S
GR
GS
0.467 0.675 0.188 RC
[10 6] 0 setdash
2 LJ
0.5 LW
N
74.382 371.333 M
75.533 367.612 L
76.684 363.908 L
77.835 360.223 L
78.986 356.562 L
80.137 352.926 L
81.288 349.319 L
82.439 345.743 L
83.59 342.201 L
84.741 338.697 L
85.891 335.232 L
87.042 331.811 L
88.193 328.435 L
89.344 325.107 L
90.495 321.831 L
91.646 318.61 L
92.797 315.446 L
93.948 312.341 L
95.099 309.3 L
96.25 306.324 L
97.401 303.417 L
98.551 300.582 L
99.702 297.821 L
100.853 295.137 L
102.004 292.534 L
103.155 290.013 L
104.306 287.579 L
105.457 285.204 L
106.608 282.855 L
107.759 280.533 L
108.91 278.238 L
110.061 275.968 L
111.211 273.725 L
112.362 271.507 L
113.513 269.315 L
114.664 267.149 L
115.815 265.009 L
116.966 262.893 L
118.117 260.804 L
119.268 258.739 L
120.419 256.7 L
121.57 254.685 L
122.721 252.695 L
123.871 250.731 L
125.022 248.79 L
126.173 246.875 L
127.324 244.983 L
128.475 243.116 L
129.626 241.273 L
130.777 239.454 L
131.928 237.659 L
133.079 235.888 L
134.23 234.141 L
135.381 232.417 L
136.532 230.716 L
137.682 229.039 L
138.833 227.385 L
139.984 225.754 L
141.135 224.146 L
142.286 222.561 L
143.437 220.999 L
144.588 219.459 L
145.739 217.942 L
146.89 216.447 L
148.041 214.975 L
149.192 213.525 L
150.342 212.096 L
151.493 210.69 L
152.644 209.305 L
153.795 207.942 L
154.946 206.601 L
156.097 205.281 L
157.248 203.981 L
158.399 202.692 L
159.55 201.411 L
160.701 200.138 L
161.852 198.873 L
163.002 197.617 L
164.153 196.369 L
165.304 195.129 L
166.455 193.898 L
167.606 192.675 L
168.757 191.46 L
169.908 190.253 L
171.059 189.055 L
172.21 187.865 L
173.361 186.683 L
174.512 185.509 L
175.662 184.344 L
176.813 183.187 L
177.964 182.038 L
179.115 180.897 L
180.266 179.765 L
181.417 178.641 L
182.568 177.525 L
183.719 176.417 L
184.87 175.318 L
186.021 174.227 L
187.172 173.143 L
188.322 172.069 L
189.473 171.002 L
190.624 169.943 L
191.775 168.893 L
192.926 167.851 L
194.077 166.817 L
195.228 165.792 L
196.379 164.774 L
197.53 163.765 L
198.681 162.764 L
199.832 161.771 L
200.982 160.786 L
202.133 159.809 L
203.284 158.841 L
204.435 157.88 L
205.586 156.928 L
206.737 155.984 L
207.888 155.048 L
209.039 154.121 L
210.19 153.201 L
211.341 152.29 L
212.492 151.386 L
213.642 150.491 L
214.793 149.604 L
215.944 148.725 L
217.095 147.854 L
218.246 146.991 L
219.397 146.137 L
220.548 145.29 L
221.699 144.452 L
222.85 143.622 L
224.001 142.799 L
225.152 141.985 L
226.302 141.179 L
227.453 140.381 L
228.604 139.591 L
229.755 138.81 L
230.906 138.036 L
232.057 137.27 L
233.208 136.513 L
234.359 135.763 L
235.51 135.022 L
236.661 134.288 L
237.812 133.563 L
238.962 132.846 L
240.113 132.136 L
241.264 131.435 L
242.415 130.742 L
243.566 130.057 L
244.717 129.38 L
245.868 128.711 L
247.019 128.05 L
248.17 127.397 L
249.321 126.752 L
250.472 126.115 L
251.622 125.483 L
252.773 124.852 L
253.924 124.222 L
255.075 123.591 L
256.226 122.961 L
257.377 122.331 L
258.528 121.701 L
259.679 121.072 L
260.83 120.443 L
261.981 119.814 L
263.132 119.186 L
264.283 118.559 L
265.433 117.931 L
266.584 117.304 L
267.735 116.678 L
268.886 116.052 L
270.037 115.427 L
271.188 114.802 L
272.339 114.178 L
273.49 113.555 L
274.641 112.932 L
275.792 112.309 L
276.943 111.688 L
278.093 111.067 L
279.244 110.447 L
280.395 109.828 L
281.546 109.209 L
282.697 108.592 L
283.848 107.975 L
284.999 107.359 L
286.15 106.744 L
287.301 106.13 L
288.452 105.517 L
289.603 104.905 L
290.753 104.293 L
291.904 103.683 L
293.055 103.074 L
294.206 102.466 L
295.357 101.859 L
296.508 101.253 L
297.659 100.648 L
298.81 100.045 L
299.961 99.442 L
301.112 98.841 L
302.263 98.241 L
303.413 97.642 L
304.564 97.045 L
305.715 96.449 L
306.866 95.854 L
308.017 95.261 L
309.168 94.668 L
310.319 94.078 L
311.47 93.489 L
312.621 92.901 L
313.772 92.315 L
314.923 91.73 L
316.073 91.147 L
317.224 90.565 L
318.375 89.985 L
319.526 89.407 L
320.677 88.83 L
321.828 88.255 L
322.979 87.681 L
324.13 87.109 L
325.281 86.539 L
326.432 85.971 L
327.583 85.404 L
328.733 84.84 L
329.884 84.277 L
331.035 83.716 L
332.186 83.156 L
333.337 82.599 L
334.488 82.044 L
335.639 81.49 L
336.79 80.939 L
337.941 80.39 L
339.092 79.842 L
340.243 79.297 L
341.393 78.754 L
342.544 78.212 L
343.695 77.673 L
344.846 77.136 L
345.997 76.602 L
347.148 76.069 L
348.299 75.539 L
349.45 75.011 L
350.601 74.485 L
351.752 73.962 L
352.903 73.44 L
354.053 72.922 L
355.204 72.405 L
356.355 71.891 L
357.506 71.379 L
358.657 70.87 L
359.808 70.363 L
360.959 69.859 L
362.11 69.357 L
363.261 68.858 L
364.412 68.362 L
365.563 67.868 L
366.713 67.376 L
367.864 66.887 L
369.015 66.401 L
370.166 65.918 L
371.317 65.437 L
372.468 64.959 L
373.619 64.484 L
374.77 64.012 L
375.921 63.542 L
377.072 63.075 L
378.223 62.611 L
379.374 62.15 L
380.524 61.692 L
381.675 61.237 L
382.826 60.785 L
383.977 60.336 L
385.128 59.89 L
386.279 59.446 L
387.43 59.006 L
388.581 58.569 L
389.732 58.135 L
390.883 57.704 L
392.034 57.277 L
393.184 56.852 L
394.335 56.431 L
395.486 56.013 L
396.637 55.598 L
397.788 55.187 L
398.939 54.779 L
400.09 54.374 L
401.241 53.972 L
402.392 53.574 L
403.543 53.18 L
404.694 52.788 L
405.844 52.4 L
406.995 52.016 L
408.146 51.635 L
409.297 51.258 L
410.448 50.884 L
411.599 50.514 L
412.75 50.148 L
413.901 49.785 L
415.052 49.425 L
416.203 49.07 L
417.354 48.718 L
418.504 48.37 L
419.655 48.025 L
420.806 47.684 L
421.957 47.348 L
423.108 47.014 L
424.259 46.685 L
425.41 46.36 L
426.561 46.038 L
427.712 45.721 L
428.863 45.407 L
430.014 45.098 L
431.164 44.792 L
432.315 44.491 L
433.466 44.193 L
434.617 43.9 L
435.768 43.61 L
436.919 43.325 L
438.07 43.044 L
439.221 42.767 L
440.372 42.494 L
441.523 42.225 L
442.674 41.961 L
443.824 41.701 L
444.975 41.445 L
446.126 41.194 L
447.277 40.947 L
448.428 40.704 L
449.579 40.466 L
450.73 40.232 L
451.881 40.002 L
453.032 39.777 L
454.183 39.557 L
455.334 39.341 L
456.484 39.129 L
457.635 38.922 L
458.786 38.72 L
459.937 38.522 L
461.088 38.329 L
462.239 38.141 L
463.39 37.957 L
464.541 37.778 L
465.692 37.604 L
466.843 37.434 L
467.994 37.269 L
469.144 37.11 L
470.295 36.954 L
471.446 36.804 L
472.597 36.659 L
473.748 36.518 L
474.899 36.383 L
476.05 36.252 L
477.201 36.126 L
478.352 36.006 L
479.503 35.89 L
480.654 35.78 L
481.804 35.674 L
482.955 35.574 L
484.106 35.479 L
485.257 35.389 L
486.408 35.304 L
487.559 35.224 L
488.71 35.15 L
489.861 35.081 L
491.012 35.017 L
492.163 34.958 L
493.314 34.905 L
S
GR
GS
0.302 0.745 0.933 RC
[10 6] 0 setdash
2 LJ
0.5 LW
N
74.257 371.552 M
75.408 367.815 L
76.559 364.095 L
77.71 360.396 L
78.861 356.719 L
80.011 353.068 L
81.162 349.446 L
82.313 345.856 L
83.464 342.3 L
84.615 338.782 L
85.766 335.304 L
86.917 331.87 L
88.068 328.482 L
89.219 325.142 L
90.37 321.855 L
91.521 318.622 L
92.671 315.447 L
93.822 312.333 L
94.973 309.282 L
96.124 306.297 L
97.275 303.382 L
98.426 300.539 L
99.577 297.771 L
100.728 295.081 L
101.879 292.471 L
103.03 289.946 L
104.181 287.507 L
105.331 285.122 L
106.482 282.765 L
107.633 280.434 L
108.784 278.13 L
109.935 275.852 L
111.086 273.6 L
112.237 271.374 L
113.388 269.175 L
114.539 267.001 L
115.69 264.853 L
116.841 262.73 L
117.992 260.633 L
119.142 258.562 L
120.293 256.516 L
121.444 254.494 L
122.595 252.498 L
123.746 250.527 L
124.897 248.581 L
126.048 246.659 L
127.199 244.762 L
128.35 242.89 L
129.501 241.041 L
130.652 239.217 L
131.802 237.417 L
132.953 235.641 L
134.104 233.889 L
135.255 232.161 L
136.406 230.456 L
137.557 228.775 L
138.708 227.117 L
139.859 225.483 L
141.01 223.872 L
142.161 222.283 L
143.312 220.718 L
144.462 219.175 L
145.613 217.656 L
146.764 216.158 L
147.915 214.684 L
149.066 213.231 L
150.217 211.801 L
151.368 210.393 L
152.519 209.006 L
153.67 207.642 L
154.821 206.3 L
155.972 204.979 L
157.122 203.676 L
158.273 202.382 L
159.424 201.096 L
160.575 199.818 L
161.726 198.549 L
162.877 197.288 L
164.028 196.036 L
165.179 194.792 L
166.33 193.556 L
167.481 192.329 L
168.632 191.109 L
169.782 189.899 L
170.933 188.696 L
172.084 187.502 L
173.235 186.316 L
174.386 185.139 L
175.537 183.969 L
176.688 182.808 L
177.839 181.656 L
178.99 180.511 L
180.141 179.375 L
181.292 178.247 L
182.442 177.128 L
183.593 176.017 L
184.744 174.914 L
185.895 173.819 L
187.046 172.733 L
188.197 171.655 L
189.348 170.585 L
190.499 169.523 L
191.65 168.47 L
192.801 167.425 L
193.952 166.389 L
195.102 165.36 L
196.253 164.34 L
197.404 163.328 L
198.555 162.324 L
199.706 161.329 L
200.857 160.342 L
202.008 159.363 L
203.159 158.392 L
204.31 157.43 L
205.461 156.476 L
206.612 155.53 L
207.762 154.592 L
208.913 153.663 L
210.064 152.741 L
211.215 151.828 L
212.366 150.924 L
213.517 150.027 L
214.668 149.139 L
215.819 148.258 L
216.97 147.387 L
218.121 146.523 L
219.272 145.667 L
220.422 144.82 L
221.573 143.981 L
222.724 143.15 L
223.875 142.328 L
225.026 141.513 L
226.177 140.707 L
227.328 139.909 L
228.479 139.119 L
229.63 138.337 L
230.781 137.564 L
231.932 136.798 L
233.082 136.041 L
234.233 135.292 L
235.384 134.551 L
236.535 133.819 L
237.686 133.094 L
238.837 132.378 L
239.988 131.67 L
241.139 130.97 L
242.29 130.278 L
243.441 129.594 L
244.592 128.919 L
245.743 128.252 L
246.893 127.592 L
248.044 126.941 L
249.195 126.298 L
250.346 125.663 L
251.497 125.03 L
252.648 124.396 L
253.799 123.763 L
254.95 123.13 L
256.101 122.498 L
257.252 121.865 L
258.403 121.233 L
259.553 120.602 L
260.704 119.97 L
261.855 119.339 L
263.006 118.709 L
264.157 118.079 L
265.308 117.449 L
266.459 116.82 L
267.61 116.191 L
268.761 115.563 L
269.912 114.936 L
271.063 114.309 L
272.213 113.683 L
273.364 113.057 L
274.515 112.432 L
275.666 111.807 L
276.817 111.184 L
277.968 110.561 L
279.119 109.939 L
280.27 109.317 L
281.421 108.697 L
282.572 108.077 L
283.723 107.458 L
284.873 106.841 L
286.024 106.223 L
287.175 105.607 L
288.326 104.992 L
289.477 104.378 L
290.628 103.765 L
291.779 103.153 L
292.93 102.542 L
294.081 101.932 L
295.232 101.323 L
296.383 100.715 L
297.533 100.109 L
298.684 99.504 L
299.835 98.9 L
300.986 98.297 L
302.137 97.695 L
303.288 97.095 L
304.439 96.496 L
305.59 95.898 L
306.741 95.302 L
307.892 94.707 L
309.043 94.113 L
310.193 93.521 L
311.344 92.931 L
312.495 92.342 L
313.646 91.754 L
314.797 91.168 L
315.948 90.583 L
317.099 90 L
318.25 89.419 L
319.401 88.839 L
320.552 88.261 L
321.703 87.685 L
322.853 87.111 L
324.004 86.538 L
325.155 85.967 L
326.306 85.397 L
327.457 84.83 L
328.608 84.264 L
329.759 83.7 L
330.91 83.138 L
332.061 82.578 L
333.212 82.02 L
334.363 81.464 L
335.513 80.91 L
336.664 80.358 L
337.815 79.808 L
338.966 79.26 L
340.117 78.714 L
341.268 78.17 L
342.419 77.629 L
343.57 77.089 L
344.721 76.552 L
345.872 76.017 L
347.023 75.484 L
348.173 74.953 L
349.324 74.425 L
350.475 73.899 L
351.626 73.376 L
352.777 72.854 L
353.928 72.335 L
355.079 71.819 L
356.23 71.305 L
357.381 70.793 L
358.532 70.284 L
359.683 69.778 L
360.833 69.274 L
361.984 68.772 L
363.135 68.273 L
364.286 67.777 L
365.437 67.284 L
366.588 66.793 L
367.739 66.304 L
368.89 65.819 L
370.041 65.336 L
371.192 64.856 L
372.343 64.379 L
373.493 63.904 L
374.644 63.433 L
375.795 62.964 L
376.946 62.498 L
378.097 62.035 L
379.248 61.575 L
380.399 61.118 L
381.55 60.664 L
382.701 60.213 L
383.852 59.765 L
385.003 59.32 L
386.154 58.878 L
387.304 58.44 L
388.455 58.004 L
389.606 57.572 L
390.757 57.142 L
391.908 56.716 L
393.059 56.293 L
394.21 55.874 L
395.361 55.458 L
396.512 55.045 L
397.663 54.635 L
398.814 54.229 L
399.964 53.826 L
401.115 53.427 L
402.266 53.031 L
403.417 52.638 L
404.568 52.249 L
405.719 51.864 L
406.87 51.482 L
408.021 51.104 L
409.172 50.729 L
410.323 50.358 L
411.474 49.99 L
412.624 49.626 L
413.775 49.266 L
414.926 48.91 L
416.077 48.557 L
417.228 48.208 L
418.379 47.863 L
419.53 47.521 L
420.681 47.184 L
421.832 46.85 L
422.983 46.52 L
424.134 46.194 L
425.284 45.873 L
426.435 45.555 L
427.586 45.241 L
428.737 44.931 L
429.888 44.625 L
431.039 44.323 L
432.19 44.025 L
433.341 43.731 L
434.492 43.442 L
435.643 43.157 L
436.794 42.876 L
437.944 42.599 L
439.095 42.326 L
440.246 42.058 L
441.397 41.793 L
442.548 41.534 L
443.699 41.278 L
444.85 41.027 L
446.001 40.78 L
447.152 40.538 L
448.303 40.3 L
449.454 40.067 L
450.604 39.838 L
451.755 39.613 L
452.906 39.394 L
454.057 39.178 L
455.208 38.968 L
456.359 38.761 L
457.51 38.56 L
458.661 38.363 L
459.812 38.171 L
460.963 37.984 L
462.114 37.801 L
463.264 37.623 L
464.415 37.45 L
465.566 37.282 L
466.717 37.118 L
467.868 36.96 L
469.019 36.806 L
470.17 36.657 L
471.321 36.514 L
472.472 36.375 L
473.623 36.241 L
474.774 36.112 L
475.924 35.988 L
477.075 35.87 L
478.226 35.756 L
479.377 35.647 L
480.528 35.544 L
481.679 35.446 L
482.83 35.353 L
483.981 35.265 L
485.132 35.182 L
486.283 35.105 L
487.434 35.033 L
488.585 34.966 L
489.735 34.905 L
490.886 34.849 L
492.037 34.798 L
S
GR
GS
0.635 0.078 0.184 RC
[10 6] 0 setdash
2 LJ
0.5 LW
N
75.35 367.778 M
76.501 364.126 L
77.652 360.491 L
78.802 356.874 L
79.953 353.279 L
81.104 349.709 L
82.255 346.165 L
83.406 342.652 L
84.557 339.172 L
85.708 335.727 L
86.859 332.32 L
88.01 328.953 L
89.161 325.631 L
90.312 322.355 L
91.462 319.128 L
92.613 315.952 L
93.764 312.832 L
94.915 309.768 L
96.066 306.765 L
97.217 303.824 L
98.368 300.949 L
99.519 298.142 L
100.67 295.406 L
101.821 292.744 L
102.972 290.158 L
104.123 287.651 L
105.273 285.227 L
106.424 282.882 L
107.575 280.574 L
108.726 278.292 L
109.877 276.036 L
111.028 273.805 L
112.179 271.6 L
113.33 269.42 L
114.481 267.265 L
115.632 265.135 L
116.783 263.03 L
117.933 260.95 L
119.084 258.894 L
120.235 256.863 L
121.386 254.856 L
122.537 252.874 L
123.688 250.915 L
124.839 248.981 L
125.99 247.07 L
127.141 245.183 L
128.292 243.319 L
129.443 241.479 L
130.593 239.662 L
131.744 237.868 L
132.895 236.098 L
134.046 234.35 L
135.197 232.625 L
136.348 230.922 L
137.499 229.242 L
138.65 227.585 L
139.801 225.949 L
140.952 224.336 L
142.103 222.745 L
143.253 221.175 L
144.404 219.627 L
145.555 218.101 L
146.706 216.597 L
147.857 215.113 L
149.008 213.651 L
150.159 212.21 L
151.31 210.789 L
152.461 209.39 L
153.612 208.011 L
154.763 206.653 L
155.913 205.315 L
157.064 203.997 L
158.215 202.699 L
159.366 201.422 L
160.517 200.16 L
161.668 198.906 L
162.819 197.659 L
163.97 196.421 L
165.121 195.191 L
166.272 193.968 L
167.423 192.753 L
168.573 191.546 L
169.724 190.347 L
170.875 189.156 L
172.026 187.973 L
173.177 186.798 L
174.328 185.63 L
175.479 184.47 L
176.63 183.318 L
177.781 182.175 L
178.932 181.038 L
180.083 179.91 L
181.233 178.79 L
182.384 177.677 L
183.535 176.572 L
184.686 175.475 L
185.837 174.386 L
186.988 173.305 L
188.139 172.231 L
189.29 171.166 L
190.441 170.108 L
191.592 169.058 L
192.743 168.016 L
193.893 166.981 L
195.044 165.955 L
196.195 164.936 L
197.346 163.925 L
198.497 162.922 L
199.648 161.927 L
200.799 160.939 L
201.95 159.96 L
203.101 158.988 L
204.252 158.023 L
205.403 157.067 L
206.553 156.119 L
207.704 155.178 L
208.855 154.245 L
210.006 153.32 L
211.157 152.402 L
212.308 151.493 L
213.459 150.591 L
214.61 149.697 L
215.761 148.81 L
216.912 147.932 L
218.063 147.061 L
219.214 146.198 L
220.364 145.343 L
221.515 144.495 L
222.666 143.656 L
223.817 142.824 L
224.968 142 L
226.119 141.183 L
227.27 140.374 L
228.421 139.573 L
229.572 138.78 L
230.723 137.995 L
231.874 137.217 L
233.024 136.447 L
234.175 135.685 L
235.326 134.93 L
236.477 134.183 L
237.628 133.444 L
238.779 132.713 L
239.93 131.989 L
241.081 131.273 L
242.232 130.565 L
243.383 129.865 L
244.534 129.172 L
245.684 128.487 L
246.835 127.81 L
247.986 127.14 L
249.137 126.478 L
250.288 125.824 L
251.439 125.177 L
252.59 124.539 L
253.741 123.907 L
254.892 123.284 L
256.043 122.667 L
257.194 122.051 L
258.344 121.436 L
259.495 120.82 L
260.646 120.205 L
261.797 119.59 L
262.948 118.975 L
264.099 118.361 L
265.25 117.747 L
266.401 117.133 L
267.552 116.52 L
268.703 115.907 L
269.854 115.295 L
271.004 114.683 L
272.155 114.071 L
273.306 113.46 L
274.457 112.849 L
275.608 112.239 L
276.759 111.629 L
277.91 111.021 L
279.061 110.412 L
280.212 109.804 L
281.363 109.197 L
282.514 108.591 L
283.664 107.985 L
284.815 107.38 L
285.966 106.776 L
287.117 106.172 L
288.268 105.57 L
289.419 104.968 L
290.57 104.367 L
291.721 103.766 L
292.872 103.167 L
294.023 102.569 L
295.174 101.971 L
296.324 101.374 L
297.475 100.779 L
298.626 100.184 L
299.777 99.591 L
300.928 98.998 L
302.079 98.406 L
303.23 97.816 L
304.381 97.227 L
305.532 96.638 L
306.683 96.051 L
307.834 95.465 L
308.984 94.881 L
310.135 94.297 L
311.286 93.715 L
312.437 93.134 L
313.588 92.554 L
314.739 91.976 L
315.89 91.399 L
317.041 90.823 L
318.192 90.249 L
319.343 89.676 L
320.494 89.105 L
321.644 88.535 L
322.795 87.966 L
323.946 87.399 L
325.097 86.834 L
326.248 86.27 L
327.399 85.707 L
328.55 85.147 L
329.701 84.588 L
330.852 84.03 L
332.003 83.474 L
333.154 82.92 L
334.305 82.367 L
335.455 81.817 L
336.606 81.268 L
337.757 80.72 L
338.908 80.175 L
340.059 79.631 L
341.21 79.089 L
342.361 78.55 L
343.512 78.011 L
344.663 77.475 L
345.814 76.941 L
346.965 76.409 L
348.115 75.879 L
349.266 75.35 L
350.417 74.824 L
351.568 74.3 L
352.719 73.778 L
353.87 73.258 L
355.021 72.74 L
356.172 72.224 L
357.323 71.711 L
358.474 71.199 L
359.625 70.69 L
360.775 70.183 L
361.926 69.678 L
363.077 69.176 L
364.228 68.676 L
365.379 68.178 L
366.53 67.683 L
367.681 67.19 L
368.832 66.699 L
369.983 66.211 L
371.134 65.725 L
372.285 65.242 L
373.435 64.761 L
374.586 64.282 L
375.737 63.807 L
376.888 63.333 L
378.039 62.863 L
379.19 62.394 L
380.341 61.929 L
381.492 61.466 L
382.643 61.006 L
383.794 60.549 L
384.945 60.094 L
386.095 59.642 L
387.246 59.193 L
388.397 58.746 L
389.548 58.303 L
390.699 57.862 L
391.85 57.424 L
393.001 56.989 L
394.152 56.557 L
395.303 56.127 L
396.454 55.701 L
397.605 55.278 L
398.755 54.857 L
399.906 54.44 L
401.057 54.026 L
402.208 53.615 L
403.359 53.207 L
404.51 52.802 L
405.661 52.4 L
406.812 52.001 L
407.963 51.605 L
409.114 51.213 L
410.265 50.824 L
411.415 50.438 L
412.566 50.055 L
413.717 49.676 L
414.868 49.3 L
416.019 48.927 L
417.17 48.558 L
418.321 48.192 L
419.472 47.83 L
420.623 47.471 L
421.774 47.115 L
422.925 46.763 L
424.075 46.414 L
425.226 46.069 L
426.377 45.727 L
427.528 45.389 L
428.679 45.055 L
429.83 44.724 L
430.981 44.397 L
432.132 44.073 L
433.283 43.754 L
434.434 43.437 L
435.585 43.125 L
436.735 42.817 L
437.886 42.512 L
439.037 42.211 L
440.188 41.913 L
441.339 41.62 L
442.49 41.33 L
443.641 41.045 L
444.792 40.763 L
445.943 40.485 L
447.094 40.211 L
448.245 39.942 L
449.395 39.676 L
450.546 39.414 L
451.697 39.156 L
452.848 38.902 L
453.999 38.653 L
455.15 38.407 L
456.301 38.166 L
457.452 37.929 L
458.603 37.696 L
459.754 37.467 L
460.905 37.243 L
462.056 37.022 L
463.206 36.806 L
464.357 36.595 L
465.508 36.387 L
466.659 36.184 L
467.81 35.986 L
468.961 35.792 L
470.112 35.602 L
471.263 35.416 L
472.414 35.235 L
473.565 35.059 L
474.716 34.887 L
475.866 34.72 L
477.017 34.557 L
478.168 34.399 L
479.319 34.245 L
480.47 34.096 L
481.621 33.952 L
482.772 33.812 L
483.923 33.677 L
485.074 33.547 L
486.225 33.421 L
487.376 33.301 L
488.526 33.185 L
489.677 33.074 L
490.828 32.967 L
491.979 32.866 L
493.13 32.769 L
494.281 32.678 L
495.432 32.591 L
496.583 32.509 L
497.734 32.432 L
498.885 32.36 L
500.036 32.294 L
501.186 32.232 L
502.337 32.175 L
503.488 32.124 L
S
GR
GS
1 GC
N
499 366 M
499 250.5 L
344.5 250.5 L
344.5 366 L
cp
f
GR
GS
[1 0 0 1 381.5 260.25] CT
/Helvetica 13 F
GS
[1 0 0 1 0 0] CT
0 5 moveto 
1 -1 scale
(Base Run) t 
GR
GR
GS
0 0.447 0.741 RC
1 LJ
0.5 LW
N
348.5 260.25 M
378.5 260.25 L
S
GR
GS
[1 0 0 1 381.5 276.25] CT
/Helvetica 13 F
GS
[1 0 0 1 0 0] CT
0 5 moveto 
1 -1 scale
(I & B Frames) t 
GR
GR
GS
0.851 0.325 0.098 RC
1 LJ
0.5 LW
N
348.5 276.25 M
378.5 276.25 L
S
GR
GS
[1 0 0 1 381.5 292.25] CT
/Helvetica 13 F
GS
[1 0 0 1 0 0] CT
0 5 moveto 
1 -1 scale
(I Frames Only) t 
GR
GR
GS
0.929 0.694 0.125 RC
1 LJ
0.5 LW
N
348.5 292.25 M
378.5 292.25 L
S
GR
GS
[1 0 0 1 381.5 308.25] CT
/Helvetica 13 F
GS
[1 0 0 1 0 0] CT
0 5 moveto 
1 -1 scale
(B Frames Only) t 
GR
GR
GS
0.494 0.184 0.557 RC
1 LJ
0.5 LW
N
348.5 308.25 M
378.5 308.25 L
S
GR
GS
[1 0 0 1 381.5 324.25] CT
/Helvetica 13 F
GS
[1 0 0 1 0 0] CT
0 5 moveto 
1 -1 scale
(Part I & B Frames) t 
GR
GR
GS
0.467 0.675 0.188 RC
[10 6] 0 setdash
2 LJ
0.5 LW
N
348.5 324.25 M
378.5 324.25 L
S
GR
GS
[1 0 0 1 381.5 340.25] CT
/Helvetica 13 F
GS
[1 0 0 1 0 0] CT
0 5 moveto 
1 -1 scale
(Part I Frames Only) t 
GR
GR
GS
0.302 0.745 0.933 RC
[10 6] 0 setdash
2 LJ
0.5 LW
N
348.5 340.25 M
378.5 340.25 L
S
GR
GS
[1 0 0 1 381.5 356.25] CT
/Helvetica 13 F
GS
[1 0 0 1 0 0] CT
0 5 moveto 
1 -1 scale
(Part B Frames Only) t 
GR
GR
GS
0.635 0.078 0.184 RC
[10 6] 0 setdash
2 LJ
0.5 LW
N
348.5 356.25 M
378.5 356.25 L
S
GR
GS
0.149 GC
10.0 ML
0.5 LW
N
344.5 366 M
344.5 250.5 L
499 250.5 L
499 366 L
cp
S
GR
%%Trailer
%%Pages: 1
%%EOF
