%!PS-Adobe-3.0 EPSF-3.0
%%Creator: (MATLAB, The Mathworks, Inc. Version 9.11.0.1837725 \(R2021b\) Update 2. Operating System: Mac OS X)
%%Title: plots/pchip/Vlog_1080P-58ad.y4m-hevc-VMAF.eps
%%CreationDate: 2022-02-03T19:14:57
%%Pages: (atend)
%%BoundingBox:    34   425   515   826
%%LanguageLevel: 3
%%EndComments
%%BeginProlog
%%BeginResource: procset (Apache XML Graphics Std ProcSet) 1.2 0
%%Version: 1.2 0
%%Copyright: (Copyright 2001-2003,2010 The Apache Software Foundation. License terms: http://www.apache.org/licenses/LICENSE-2.0)
/bd{bind def}bind def
/ld{load def}bd
/GR/grestore ld
/GS/gsave ld
/RM/rmoveto ld
/C/curveto ld
/t/show ld
/L/lineto ld
/ML/setmiterlimit ld
/CT/concat ld
/f/fill ld
/N/newpath ld
/S/stroke ld
/CC/setcmykcolor ld
/A/ashow ld
/cp/closepath ld
/RC/setrgbcolor ld
/LJ/setlinejoin ld
/GC/setgray ld
/LW/setlinewidth ld
/M/moveto ld
/re {4 2 roll M
1 index 0 rlineto
0 exch rlineto
neg 0 rlineto
cp } bd
/_ctm matrix def
/_tm matrix def
/BT { _ctm currentmatrix pop matrix _tm copy pop 0 0 moveto } bd
/ET { _ctm setmatrix } bd
/iTm { _ctm setmatrix _tm concat } bd
/Tm { _tm astore pop iTm 0 0 moveto } bd
/ux 0.0 def
/uy 0.0 def
/F {
  /Tp exch def
  /Tf exch def
  Tf findfont Tp scalefont setfont
  /cf Tf def  /cs Tp def
} bd
/ULS {currentpoint /uy exch def /ux exch def} bd
/ULE {
  /Tcx currentpoint pop def
  gsave
  newpath
  cf findfont cs scalefont dup
  /FontMatrix get 0 get /Ts exch def /FontInfo get dup
  /UnderlinePosition get Ts mul /To exch def
  /UnderlineThickness get Ts mul /Tt exch def
  ux uy To add moveto  Tcx uy To add lineto
  Tt setlinewidth stroke
  grestore
} bd
/OLE {
  /Tcx currentpoint pop def
  gsave
  newpath
  cf findfont cs scalefont dup
  /FontMatrix get 0 get /Ts exch def /FontInfo get dup
  /UnderlinePosition get Ts mul /To exch def
  /UnderlineThickness get Ts mul /Tt exch def
  ux uy To add cs add moveto Tcx uy To add cs add lineto
  Tt setlinewidth stroke
  grestore
} bd
/SOE {
  /Tcx currentpoint pop def
  gsave
  newpath
  cf findfont cs scalefont dup
  /FontMatrix get 0 get /Ts exch def /FontInfo get dup
  /UnderlinePosition get Ts mul /To exch def
  /UnderlineThickness get Ts mul /Tt exch def
  ux uy To add cs 10 mul 26 idiv add moveto Tcx uy To add cs 10 mul 26 idiv add lineto
  Tt setlinewidth stroke
  grestore
} bd
/QT {
/Y22 exch store
/X22 exch store
/Y21 exch store
/X21 exch store
currentpoint
/Y21 load 2 mul add 3 div exch
/X21 load 2 mul add 3 div exch
/X21 load 2 mul /X22 load add 3 div
/Y21 load 2 mul /Y22 load add 3 div
/X22 load /Y22 load curveto
} bd
/SSPD {
dup length /d exch dict def
{
/v exch def
/k exch def
currentpagedevice k known {
/cpdv currentpagedevice k get def
v cpdv ne {
/upd false def
/nullv v type /nulltype eq def
/nullcpdv cpdv type /nulltype eq def
nullv nullcpdv or
{
/upd true def
} {
/sametype v type cpdv type eq def
sametype {
v type /arraytype eq {
/vlen v length def
/cpdvlen cpdv length def
vlen cpdvlen eq {
0 1 vlen 1 sub {
/i exch def
/obj v i get def
/cpdobj cpdv i get def
obj cpdobj ne {
/upd true def
exit
} if
} for
} {
/upd true def
} ifelse
} {
v type /dicttype eq {
v {
/dv exch def
/dk exch def
/cpddv cpdv dk get def
dv cpddv ne {
/upd true def
exit
} if
} forall
} {
/upd true def
} ifelse
} ifelse
} if
} ifelse
upd true eq {
d k v put
} if
} if
} if
} forall
d length 0 gt {
d setpagedevice
} if
} bd
/RE { % /NewFontName [NewEncodingArray] /FontName RE -
  findfont dup length dict begin
  {
    1 index /FID ne
    {def} {pop pop} ifelse
  } forall
  /Encoding exch def
  /FontName 1 index def
  currentdict definefont pop
  end
} bind def
%%EndResource
%%BeginResource: procset (Apache XML Graphics EPS ProcSet) 1.0 0
%%Version: 1.0 0
%%Copyright: (Copyright 2002-2003 The Apache Software Foundation. License terms: http://www.apache.org/licenses/LICENSE-2.0)
/BeginEPSF { %def
/b4_Inc_state save def         % Save state for cleanup
/dict_count countdictstack def % Count objects on dict stack
/op_count count 1 sub def      % Count objects on operand stack
userdict begin                 % Push userdict on dict stack
/showpage { } def              % Redefine showpage, { } = null proc
0 setgray 0 setlinecap         % Prepare graphics state
1 setlinewidth 0 setlinejoin
10 setmiterlimit [ ] 0 setdash newpath
/languagelevel where           % If level not equal to 1 then
{pop languagelevel             % set strokeadjust and
1 ne                           % overprint to their defaults.
{false setstrokeadjust false setoverprint
} if
} if
} bd
/EndEPSF { %def
count op_count sub {pop} repeat            % Clean up stacks
countdictstack dict_count sub {end} repeat
b4_Inc_state restore
} bd
%%EndResource
%FOPBeginFontDict
%%IncludeResource: font Courier-Oblique
%%IncludeResource: font Courier-BoldOblique
%%IncludeResource: font Courier-Bold
%%IncludeResource: font ZapfDingbats
%%IncludeResource: font Symbol
%%IncludeResource: font Helvetica
%%IncludeResource: font Helvetica-Oblique
%%IncludeResource: font Helvetica-Bold
%%IncludeResource: font Helvetica-BoldOblique
%%IncludeResource: font Times-Roman
%%IncludeResource: font Times-Italic
%%IncludeResource: font Times-Bold
%%IncludeResource: font Times-BoldItalic
%%IncludeResource: font Courier
%FOPEndFontDict
%%BeginResource: encoding WinAnsiEncoding
/WinAnsiEncoding [
/.notdef /.notdef /.notdef /.notdef /.notdef
/.notdef /.notdef /.notdef /.notdef /.notdef
/.notdef /.notdef /.notdef /.notdef /.notdef
/.notdef /.notdef /.notdef /.notdef /.notdef
/.notdef /.notdef /.notdef /.notdef /.notdef
/.notdef /.notdef /.notdef /.notdef /.notdef
/.notdef /.notdef /space /exclam /quotedbl
/numbersign /dollar /percent /ampersand /quotesingle
/parenleft /parenright /asterisk /plus /comma
/hyphen /period /slash /zero /one
/two /three /four /five /six
/seven /eight /nine /colon /semicolon
/less /equal /greater /question /at
/A /B /C /D /E
/F /G /H /I /J
/K /L /M /N /O
/P /Q /R /S /T
/U /V /W /X /Y
/Z /bracketleft /backslash /bracketright /asciicircum
/underscore /quoteleft /a /b /c
/d /e /f /g /h
/i /j /k /l /m
/n /o /p /q /r
/s /t /u /v /w
/x /y /z /braceleft /bar
/braceright /asciitilde /bullet /Euro /bullet
/quotesinglbase /florin /quotedblbase /ellipsis /dagger
/daggerdbl /circumflex /perthousand /Scaron /guilsinglleft
/OE /bullet /Zcaron /bullet /bullet
/quoteleft /quoteright /quotedblleft /quotedblright /bullet
/endash /emdash /asciitilde /trademark /scaron
/guilsinglright /oe /bullet /zcaron /Ydieresis
/space /exclamdown /cent /sterling /currency
/yen /brokenbar /section /dieresis /copyright
/ordfeminine /guillemotleft /logicalnot /sfthyphen /registered
/macron /degree /plusminus /twosuperior /threesuperior
/acute /mu /paragraph /middot /cedilla
/onesuperior /ordmasculine /guillemotright /onequarter /onehalf
/threequarters /questiondown /Agrave /Aacute /Acircumflex
/Atilde /Adieresis /Aring /AE /Ccedilla
/Egrave /Eacute /Ecircumflex /Edieresis /Igrave
/Iacute /Icircumflex /Idieresis /Eth /Ntilde
/Ograve /Oacute /Ocircumflex /Otilde /Odieresis
/multiply /Oslash /Ugrave /Uacute /Ucircumflex
/Udieresis /Yacute /Thorn /germandbls /agrave
/aacute /acircumflex /atilde /adieresis /aring
/ae /ccedilla /egrave /eacute /ecircumflex
/edieresis /igrave /iacute /icircumflex /idieresis
/eth /ntilde /ograve /oacute /ocircumflex
/otilde /odieresis /divide /oslash /ugrave
/uacute /ucircumflex /udieresis /yacute /thorn
/ydieresis
] def
%%EndResource
%FOPBeginFontReencode
/Courier-Oblique findfont
dup length dict begin
  {1 index /FID ne {def} {pop pop} ifelse} forall
  /Encoding WinAnsiEncoding def
  currentdict
end
/Courier-Oblique exch definefont pop
/Courier-BoldOblique findfont
dup length dict begin
  {1 index /FID ne {def} {pop pop} ifelse} forall
  /Encoding WinAnsiEncoding def
  currentdict
end
/Courier-BoldOblique exch definefont pop
/Courier-Bold findfont
dup length dict begin
  {1 index /FID ne {def} {pop pop} ifelse} forall
  /Encoding WinAnsiEncoding def
  currentdict
end
/Courier-Bold exch definefont pop
/Helvetica findfont
dup length dict begin
  {1 index /FID ne {def} {pop pop} ifelse} forall
  /Encoding WinAnsiEncoding def
  currentdict
end
/Helvetica exch definefont pop
/Helvetica-Oblique findfont
dup length dict begin
  {1 index /FID ne {def} {pop pop} ifelse} forall
  /Encoding WinAnsiEncoding def
  currentdict
end
/Helvetica-Oblique exch definefont pop
/Helvetica-Bold findfont
dup length dict begin
  {1 index /FID ne {def} {pop pop} ifelse} forall
  /Encoding WinAnsiEncoding def
  currentdict
end
/Helvetica-Bold exch definefont pop
/Helvetica-BoldOblique findfont
dup length dict begin
  {1 index /FID ne {def} {pop pop} ifelse} forall
  /Encoding WinAnsiEncoding def
  currentdict
end
/Helvetica-BoldOblique exch definefont pop
/Times-Roman findfont
dup length dict begin
  {1 index /FID ne {def} {pop pop} ifelse} forall
  /Encoding WinAnsiEncoding def
  currentdict
end
/Times-Roman exch definefont pop
/Times-Italic findfont
dup length dict begin
  {1 index /FID ne {def} {pop pop} ifelse} forall
  /Encoding WinAnsiEncoding def
  currentdict
end
/Times-Italic exch definefont pop
/Times-Bold findfont
dup length dict begin
  {1 index /FID ne {def} {pop pop} ifelse} forall
  /Encoding WinAnsiEncoding def
  currentdict
end
/Times-Bold exch definefont pop
/Times-BoldItalic findfont
dup length dict begin
  {1 index /FID ne {def} {pop pop} ifelse} forall
  /Encoding WinAnsiEncoding def
  currentdict
end
/Times-BoldItalic exch definefont pop
/Courier findfont
dup length dict begin
  {1 index /FID ne {def} {pop pop} ifelse} forall
  /Encoding WinAnsiEncoding def
  currentdict
end
/Courier exch definefont pop
%FOPEndFontReencode
%%EndProlog
%%Page: 1 1
%%PageBoundingBox: 0 0 1120 840
%%BeginPageSetup
[1 0 0 -1 0 840] CT
%%EndPageSetup
GS
1 GC
N
0 0 1120 840 re
f
GR
GS
1 GC
N
73 374 M
507 374 L
507 31.5 L
73 31.5 L
cp
f
GR
GS
0.149 GC
2 setlinecap
1 LJ
0.5 LW
N
73 374 M
507 374 L
S
GR
GS
0.149 GC
2 setlinecap
1 LJ
0.5 LW
N
73 31.5 M
507 31.5 L
S
GR
GS
0.149 GC
2 setlinecap
1 LJ
0.5 LW
N
96.769 374 M
96.769 369.66 L
S
GR
GS
0.149 GC
2 setlinecap
1 LJ
0.5 LW
N
154.315 374 M
154.315 369.66 L
S
GR
GS
0.149 GC
2 setlinecap
1 LJ
0.5 LW
N
211.86 374 M
211.86 369.66 L
S
GR
GS
0.149 GC
2 setlinecap
1 LJ
0.5 LW
N
269.406 374 M
269.406 369.66 L
S
GR
GS
0.149 GC
2 setlinecap
1 LJ
0.5 LW
N
326.951 374 M
326.951 369.66 L
S
GR
GS
0.149 GC
2 setlinecap
1 LJ
0.5 LW
N
384.497 374 M
384.497 369.66 L
S
GR
GS
0.149 GC
2 setlinecap
1 LJ
0.5 LW
N
442.042 374 M
442.042 369.66 L
S
GR
GS
0.149 GC
2 setlinecap
1 LJ
0.5 LW
N
499.588 374 M
499.588 369.66 L
S
GR
GS
0.149 GC
2 setlinecap
1 LJ
0.5 LW
N
96.769 31.5 M
96.769 35.84 L
S
GR
GS
0.149 GC
2 setlinecap
1 LJ
0.5 LW
N
154.315 31.5 M
154.315 35.84 L
S
GR
GS
0.149 GC
2 setlinecap
1 LJ
0.5 LW
N
211.86 31.5 M
211.86 35.84 L
S
GR
GS
0.149 GC
2 setlinecap
1 LJ
0.5 LW
N
269.406 31.5 M
269.406 35.84 L
S
GR
GS
0.149 GC
2 setlinecap
1 LJ
0.5 LW
N
326.951 31.5 M
326.951 35.84 L
S
GR
GS
0.149 GC
2 setlinecap
1 LJ
0.5 LW
N
384.497 31.5 M
384.497 35.84 L
S
GR
GS
0.149 GC
2 setlinecap
1 LJ
0.5 LW
N
442.042 31.5 M
442.042 35.84 L
S
GR
GS
0.149 GC
2 setlinecap
1 LJ
0.5 LW
N
499.588 31.5 M
499.588 35.84 L
S
GR
GS
0.149 GC
2 setlinecap
1 LJ
0.5 LW
N
73.751 374 M
73.751 371.83 L
S
GR
GS
0.149 GC
2 setlinecap
1 LJ
0.5 LW
N
85.26 374 M
85.26 371.83 L
S
GR
GS
0.149 GC
2 setlinecap
1 LJ
0.5 LW
N
108.278 374 M
108.278 371.83 L
S
GR
GS
0.149 GC
2 setlinecap
1 LJ
0.5 LW
N
119.787 374 M
119.787 371.83 L
S
GR
GS
0.149 GC
2 setlinecap
1 LJ
0.5 LW
N
131.297 374 M
131.297 371.83 L
S
GR
GS
0.149 GC
2 setlinecap
1 LJ
0.5 LW
N
142.806 374 M
142.806 371.83 L
S
GR
GS
0.149 GC
2 setlinecap
1 LJ
0.5 LW
N
165.824 374 M
165.824 371.83 L
S
GR
GS
0.149 GC
2 setlinecap
1 LJ
0.5 LW
N
177.333 374 M
177.333 371.83 L
S
GR
GS
0.149 GC
2 setlinecap
1 LJ
0.5 LW
N
188.842 374 M
188.842 371.83 L
S
GR
GS
0.149 GC
2 setlinecap
1 LJ
0.5 LW
N
200.351 374 M
200.351 371.83 L
S
GR
GS
0.149 GC
2 setlinecap
1 LJ
0.5 LW
N
223.369 374 M
223.369 371.83 L
S
GR
GS
0.149 GC
2 setlinecap
1 LJ
0.5 LW
N
234.878 374 M
234.878 371.83 L
S
GR
GS
0.149 GC
2 setlinecap
1 LJ
0.5 LW
N
246.388 374 M
246.388 371.83 L
S
GR
GS
0.149 GC
2 setlinecap
1 LJ
0.5 LW
N
257.897 374 M
257.897 371.83 L
S
GR
GS
0.149 GC
2 setlinecap
1 LJ
0.5 LW
N
280.915 374 M
280.915 371.83 L
S
GR
GS
0.149 GC
2 setlinecap
1 LJ
0.5 LW
N
292.424 374 M
292.424 371.83 L
S
GR
GS
0.149 GC
2 setlinecap
1 LJ
0.5 LW
N
303.933 374 M
303.933 371.83 L
S
GR
GS
0.149 GC
2 setlinecap
1 LJ
0.5 LW
N
315.442 374 M
315.442 371.83 L
S
GR
GS
0.149 GC
2 setlinecap
1 LJ
0.5 LW
N
338.46 374 M
338.46 371.83 L
S
GR
GS
0.149 GC
2 setlinecap
1 LJ
0.5 LW
N
349.969 374 M
349.969 371.83 L
S
GR
GS
0.149 GC
2 setlinecap
1 LJ
0.5 LW
N
361.479 374 M
361.479 371.83 L
S
GR
GS
0.149 GC
2 setlinecap
1 LJ
0.5 LW
N
372.988 374 M
372.988 371.83 L
S
GR
GS
0.149 GC
2 setlinecap
1 LJ
0.5 LW
N
396.006 374 M
396.006 371.83 L
S
GR
GS
0.149 GC
2 setlinecap
1 LJ
0.5 LW
N
407.515 374 M
407.515 371.83 L
S
GR
GS
0.149 GC
2 setlinecap
1 LJ
0.5 LW
N
419.024 374 M
419.024 371.83 L
S
GR
GS
0.149 GC
2 setlinecap
1 LJ
0.5 LW
N
430.533 374 M
430.533 371.83 L
S
GR
GS
0.149 GC
2 setlinecap
1 LJ
0.5 LW
N
453.551 374 M
453.551 371.83 L
S
GR
GS
0.149 GC
2 setlinecap
1 LJ
0.5 LW
N
465.06 374 M
465.06 371.83 L
S
GR
GS
0.149 GC
2 setlinecap
1 LJ
0.5 LW
N
476.57 374 M
476.57 371.83 L
S
GR
GS
0.149 GC
2 setlinecap
1 LJ
0.5 LW
N
488.079 374 M
488.079 371.83 L
S
GR
GS
0.149 GC
2 setlinecap
1 LJ
0.5 LW
N
73.751 31.5 M
73.751 33.67 L
S
GR
GS
0.149 GC
2 setlinecap
1 LJ
0.5 LW
N
85.26 31.5 M
85.26 33.67 L
S
GR
GS
0.149 GC
2 setlinecap
1 LJ
0.5 LW
N
108.278 31.5 M
108.278 33.67 L
S
GR
GS
0.149 GC
2 setlinecap
1 LJ
0.5 LW
N
119.787 31.5 M
119.787 33.67 L
S
GR
GS
0.149 GC
2 setlinecap
1 LJ
0.5 LW
N
131.297 31.5 M
131.297 33.67 L
S
GR
GS
0.149 GC
2 setlinecap
1 LJ
0.5 LW
N
142.806 31.5 M
142.806 33.67 L
S
GR
GS
0.149 GC
2 setlinecap
1 LJ
0.5 LW
N
165.824 31.5 M
165.824 33.67 L
S
GR
GS
0.149 GC
2 setlinecap
1 LJ
0.5 LW
N
177.333 31.5 M
177.333 33.67 L
S
GR
GS
0.149 GC
2 setlinecap
1 LJ
0.5 LW
N
188.842 31.5 M
188.842 33.67 L
S
GR
GS
0.149 GC
2 setlinecap
1 LJ
0.5 LW
N
200.351 31.5 M
200.351 33.67 L
S
GR
GS
0.149 GC
2 setlinecap
1 LJ
0.5 LW
N
223.369 31.5 M
223.369 33.67 L
S
GR
GS
0.149 GC
2 setlinecap
1 LJ
0.5 LW
N
234.878 31.5 M
234.878 33.67 L
S
GR
GS
0.149 GC
2 setlinecap
1 LJ
0.5 LW
N
246.388 31.5 M
246.388 33.67 L
S
GR
GS
0.149 GC
2 setlinecap
1 LJ
0.5 LW
N
257.897 31.5 M
257.897 33.67 L
S
GR
GS
0.149 GC
2 setlinecap
1 LJ
0.5 LW
N
280.915 31.5 M
280.915 33.67 L
S
GR
GS
0.149 GC
2 setlinecap
1 LJ
0.5 LW
N
292.424 31.5 M
292.424 33.67 L
S
GR
GS
0.149 GC
2 setlinecap
1 LJ
0.5 LW
N
303.933 31.5 M
303.933 33.67 L
S
GR
GS
0.149 GC
2 setlinecap
1 LJ
0.5 LW
N
315.442 31.5 M
315.442 33.67 L
S
GR
GS
0.149 GC
2 setlinecap
1 LJ
0.5 LW
N
338.46 31.5 M
338.46 33.67 L
S
GR
GS
0.149 GC
2 setlinecap
1 LJ
0.5 LW
N
349.969 31.5 M
349.969 33.67 L
S
GR
GS
0.149 GC
2 setlinecap
1 LJ
0.5 LW
N
361.479 31.5 M
361.479 33.67 L
S
GR
GS
0.149 GC
2 setlinecap
1 LJ
0.5 LW
N
372.988 31.5 M
372.988 33.67 L
S
GR
GS
0.149 GC
2 setlinecap
1 LJ
0.5 LW
N
396.006 31.5 M
396.006 33.67 L
S
GR
GS
0.149 GC
2 setlinecap
1 LJ
0.5 LW
N
407.515 31.5 M
407.515 33.67 L
S
GR
GS
0.149 GC
2 setlinecap
1 LJ
0.5 LW
N
419.024 31.5 M
419.024 33.67 L
S
GR
GS
0.149 GC
2 setlinecap
1 LJ
0.5 LW
N
430.533 31.5 M
430.533 33.67 L
S
GR
GS
0.149 GC
2 setlinecap
1 LJ
0.5 LW
N
453.551 31.5 M
453.551 33.67 L
S
GR
GS
0.149 GC
2 setlinecap
1 LJ
0.5 LW
N
465.06 31.5 M
465.06 33.67 L
S
GR
GS
0.149 GC
2 setlinecap
1 LJ
0.5 LW
N
476.57 31.5 M
476.57 33.67 L
S
GR
GS
0.149 GC
2 setlinecap
1 LJ
0.5 LW
N
488.079 31.5 M
488.079 33.67 L
S
GR
GS
[1 0 0 1 96.76929 378.79999] CT
0.149 GC
/Helvetica 14 F
GS
[1 0 0 1 0 0] CT
-16 14 moveto 
1 -1 scale
(1000) t 
GR
GR
GS
[1 0 0 1 154.31479 378.79999] CT
0.149 GC
/Helvetica 14 F
GS
[1 0 0 1 0 0] CT
-16 14 moveto 
1 -1 scale
(2000) t 
GR
GR
GS
[1 0 0 1 211.86029 378.79999] CT
0.149 GC
/Helvetica 14 F
GS
[1 0 0 1 0 0] CT
-16 14 moveto 
1 -1 scale
(3000) t 
GR
GR
GS
[1 0 0 1 269.40579 378.79999] CT
0.149 GC
/Helvetica 14 F
GS
[1 0 0 1 0 0] CT
-16 14 moveto 
1 -1 scale
(4000) t 
GR
GR
GS
[1 0 0 1 326.95129 378.79999] CT
0.149 GC
/Helvetica 14 F
GS
[1 0 0 1 0 0] CT
-16 14 moveto 
1 -1 scale
(5000) t 
GR
GR
GS
[1 0 0 1 384.4968 378.79999] CT
0.149 GC
/Helvetica 14 F
GS
[1 0 0 1 0 0] CT
-16 14 moveto 
1 -1 scale
(6000) t 
GR
GR
GS
[1 0 0 1 442.04227 378.79999] CT
0.149 GC
/Helvetica 14 F
GS
[1 0 0 1 0 0] CT
-16 14 moveto 
1 -1 scale
(7000) t 
GR
GR
GS
[1 0 0 1 499.58777 378.79999] CT
0.149 GC
/Helvetica 14 F
GS
[1 0 0 1 0 0] CT
-16 14 moveto 
1 -1 scale
(8000) t 
GR
GR
GS
[1 0 0 1 290.00018 396.29999] CT
0.149 GC
/Helvetica 15.4 F
GS
[1 0 0 1 0 0] CT
-42 15 moveto 
1 -1 scale
(Bitrate\(kb/s\)) t 
GR
GR
GS
0.149 GC
2 setlinecap
1 LJ
0.5 LW
N
73 374 M
73 31.5 L
S
GR
GS
0.149 GC
2 setlinecap
1 LJ
0.5 LW
N
507 374 M
507 31.5 L
S
GR
GS
0.149 GC
2 setlinecap
1 LJ
0.5 LW
N
73 347.906 M
77.34 347.906 L
S
GR
GS
0.149 GC
2 setlinecap
1 LJ
0.5 LW
N
73 319.074 M
77.34 319.074 L
S
GR
GS
0.149 GC
2 setlinecap
1 LJ
0.5 LW
N
73 290.241 M
77.34 290.241 L
S
GR
GS
0.149 GC
2 setlinecap
1 LJ
0.5 LW
N
73 261.409 M
77.34 261.409 L
S
GR
GS
0.149 GC
2 setlinecap
1 LJ
0.5 LW
N
73 232.576 M
77.34 232.576 L
S
GR
GS
0.149 GC
2 setlinecap
1 LJ
0.5 LW
N
73 203.744 M
77.34 203.744 L
S
GR
GS
0.149 GC
2 setlinecap
1 LJ
0.5 LW
N
73 174.911 M
77.34 174.911 L
S
GR
GS
0.149 GC
2 setlinecap
1 LJ
0.5 LW
N
73 146.079 M
77.34 146.079 L
S
GR
GS
0.149 GC
2 setlinecap
1 LJ
0.5 LW
N
73 117.246 M
77.34 117.246 L
S
GR
GS
0.149 GC
2 setlinecap
1 LJ
0.5 LW
N
73 88.414 M
77.34 88.414 L
S
GR
GS
0.149 GC
2 setlinecap
1 LJ
0.5 LW
N
73 59.581 M
77.34 59.581 L
S
GR
GS
0.149 GC
2 setlinecap
1 LJ
0.5 LW
N
507 347.906 M
502.66 347.906 L
S
GR
GS
0.149 GC
2 setlinecap
1 LJ
0.5 LW
N
507 319.074 M
502.66 319.074 L
S
GR
GS
0.149 GC
2 setlinecap
1 LJ
0.5 LW
N
507 290.241 M
502.66 290.241 L
S
GR
GS
0.149 GC
2 setlinecap
1 LJ
0.5 LW
N
507 261.409 M
502.66 261.409 L
S
GR
GS
0.149 GC
2 setlinecap
1 LJ
0.5 LW
N
507 232.576 M
502.66 232.576 L
S
GR
GS
0.149 GC
2 setlinecap
1 LJ
0.5 LW
N
507 203.744 M
502.66 203.744 L
S
GR
GS
0.149 GC
2 setlinecap
1 LJ
0.5 LW
N
507 174.911 M
502.66 174.911 L
S
GR
GS
0.149 GC
2 setlinecap
1 LJ
0.5 LW
N
507 146.079 M
502.66 146.079 L
S
GR
GS
0.149 GC
2 setlinecap
1 LJ
0.5 LW
N
507 117.246 M
502.66 117.246 L
S
GR
GS
0.149 GC
2 setlinecap
1 LJ
0.5 LW
N
507 88.414 M
502.66 88.414 L
S
GR
GS
0.149 GC
2 setlinecap
1 LJ
0.5 LW
N
507 59.581 M
502.66 59.581 L
S
GR
GS
0.149 GC
2 setlinecap
1 LJ
0.5 LW
N
73 370.972 M
75.17 370.972 L
S
GR
GS
0.149 GC
2 setlinecap
1 LJ
0.5 LW
N
73 365.205 M
75.17 365.205 L
S
GR
GS
0.149 GC
2 setlinecap
1 LJ
0.5 LW
N
73 359.439 M
75.17 359.439 L
S
GR
GS
0.149 GC
2 setlinecap
1 LJ
0.5 LW
N
73 353.672 M
75.17 353.672 L
S
GR
GS
0.149 GC
2 setlinecap
1 LJ
0.5 LW
N
73 342.139 M
75.17 342.139 L
S
GR
GS
0.149 GC
2 setlinecap
1 LJ
0.5 LW
N
73 336.373 M
75.17 336.373 L
S
GR
GS
0.149 GC
2 setlinecap
1 LJ
0.5 LW
N
73 330.607 M
75.17 330.607 L
S
GR
GS
0.149 GC
2 setlinecap
1 LJ
0.5 LW
N
73 324.84 M
75.17 324.84 L
S
GR
GS
0.149 GC
2 setlinecap
1 LJ
0.5 LW
N
73 313.307 M
75.17 313.307 L
S
GR
GS
0.149 GC
2 setlinecap
1 LJ
0.5 LW
N
73 307.541 M
75.17 307.541 L
S
GR
GS
0.149 GC
2 setlinecap
1 LJ
0.5 LW
N
73 301.774 M
75.17 301.774 L
S
GR
GS
0.149 GC
2 setlinecap
1 LJ
0.5 LW
N
73 296.008 M
75.17 296.008 L
S
GR
GS
0.149 GC
2 setlinecap
1 LJ
0.5 LW
N
73 284.475 M
75.17 284.475 L
S
GR
GS
0.149 GC
2 setlinecap
1 LJ
0.5 LW
N
73 278.708 M
75.17 278.708 L
S
GR
GS
0.149 GC
2 setlinecap
1 LJ
0.5 LW
N
73 272.942 M
75.17 272.942 L
S
GR
GS
0.149 GC
2 setlinecap
1 LJ
0.5 LW
N
73 267.175 M
75.17 267.175 L
S
GR
GS
0.149 GC
2 setlinecap
1 LJ
0.5 LW
N
73 255.642 M
75.17 255.642 L
S
GR
GS
0.149 GC
2 setlinecap
1 LJ
0.5 LW
N
73 249.876 M
75.17 249.876 L
S
GR
GS
0.149 GC
2 setlinecap
1 LJ
0.5 LW
N
73 244.109 M
75.17 244.109 L
S
GR
GS
0.149 GC
2 setlinecap
1 LJ
0.5 LW
N
73 238.343 M
75.17 238.343 L
S
GR
GS
0.149 GC
2 setlinecap
1 LJ
0.5 LW
N
73 226.81 M
75.17 226.81 L
S
GR
GS
0.149 GC
2 setlinecap
1 LJ
0.5 LW
N
73 221.043 M
75.17 221.043 L
S
GR
GS
0.149 GC
2 setlinecap
1 LJ
0.5 LW
N
73 215.277 M
75.17 215.277 L
S
GR
GS
0.149 GC
2 setlinecap
1 LJ
0.5 LW
N
73 209.51 M
75.17 209.51 L
S
GR
GS
0.149 GC
2 setlinecap
1 LJ
0.5 LW
N
73 197.977 M
75.17 197.977 L
S
GR
GS
0.149 GC
2 setlinecap
1 LJ
0.5 LW
N
73 192.211 M
75.17 192.211 L
S
GR
GS
0.149 GC
2 setlinecap
1 LJ
0.5 LW
N
73 186.444 M
75.17 186.444 L
S
GR
GS
0.149 GC
2 setlinecap
1 LJ
0.5 LW
N
73 180.678 M
75.17 180.678 L
S
GR
GS
0.149 GC
2 setlinecap
1 LJ
0.5 LW
N
73 169.145 M
75.17 169.145 L
S
GR
GS
0.149 GC
2 setlinecap
1 LJ
0.5 LW
N
73 163.378 M
75.17 163.378 L
S
GR
GS
0.149 GC
2 setlinecap
1 LJ
0.5 LW
N
73 157.612 M
75.17 157.612 L
S
GR
GS
0.149 GC
2 setlinecap
1 LJ
0.5 LW
N
73 151.845 M
75.17 151.845 L
S
GR
GS
0.149 GC
2 setlinecap
1 LJ
0.5 LW
N
73 140.312 M
75.17 140.312 L
S
GR
GS
0.149 GC
2 setlinecap
1 LJ
0.5 LW
N
73 134.546 M
75.17 134.546 L
S
GR
GS
0.149 GC
2 setlinecap
1 LJ
0.5 LW
N
73 128.779 M
75.17 128.779 L
S
GR
GS
0.149 GC
2 setlinecap
1 LJ
0.5 LW
N
73 123.013 M
75.17 123.013 L
S
GR
GS
0.149 GC
2 setlinecap
1 LJ
0.5 LW
N
73 111.48 M
75.17 111.48 L
S
GR
GS
0.149 GC
2 setlinecap
1 LJ
0.5 LW
N
73 105.713 M
75.17 105.713 L
S
GR
GS
0.149 GC
2 setlinecap
1 LJ
0.5 LW
N
73 99.947 M
75.17 99.947 L
S
GR
GS
0.149 GC
2 setlinecap
1 LJ
0.5 LW
N
73 94.18 M
75.17 94.18 L
S
GR
GS
0.149 GC
2 setlinecap
1 LJ
0.5 LW
N
73 82.647 M
75.17 82.647 L
S
GR
GS
0.149 GC
2 setlinecap
1 LJ
0.5 LW
N
73 76.881 M
75.17 76.881 L
S
GR
GS
0.149 GC
2 setlinecap
1 LJ
0.5 LW
N
73 71.114 M
75.17 71.114 L
S
GR
GS
0.149 GC
2 setlinecap
1 LJ
0.5 LW
N
73 65.348 M
75.17 65.348 L
S
GR
GS
0.149 GC
2 setlinecap
1 LJ
0.5 LW
N
73 53.815 M
75.17 53.815 L
S
GR
GS
0.149 GC
2 setlinecap
1 LJ
0.5 LW
N
73 48.048 M
75.17 48.048 L
S
GR
GS
0.149 GC
2 setlinecap
1 LJ
0.5 LW
N
73 42.282 M
75.17 42.282 L
S
GR
GS
0.149 GC
2 setlinecap
1 LJ
0.5 LW
N
73 36.515 M
75.17 36.515 L
S
GR
GS
0.149 GC
2 setlinecap
1 LJ
0.5 LW
N
507 370.972 M
504.83 370.972 L
S
GR
GS
0.149 GC
2 setlinecap
1 LJ
0.5 LW
N
507 365.205 M
504.83 365.205 L
S
GR
GS
0.149 GC
2 setlinecap
1 LJ
0.5 LW
N
507 359.439 M
504.83 359.439 L
S
GR
GS
0.149 GC
2 setlinecap
1 LJ
0.5 LW
N
507 353.672 M
504.83 353.672 L
S
GR
GS
0.149 GC
2 setlinecap
1 LJ
0.5 LW
N
507 342.139 M
504.83 342.139 L
S
GR
GS
0.149 GC
2 setlinecap
1 LJ
0.5 LW
N
507 336.373 M
504.83 336.373 L
S
GR
GS
0.149 GC
2 setlinecap
1 LJ
0.5 LW
N
507 330.607 M
504.83 330.607 L
S
GR
GS
0.149 GC
2 setlinecap
1 LJ
0.5 LW
N
507 324.84 M
504.83 324.84 L
S
GR
GS
0.149 GC
2 setlinecap
1 LJ
0.5 LW
N
507 313.307 M
504.83 313.307 L
S
GR
GS
0.149 GC
2 setlinecap
1 LJ
0.5 LW
N
507 307.541 M
504.83 307.541 L
S
GR
GS
0.149 GC
2 setlinecap
1 LJ
0.5 LW
N
507 301.774 M
504.83 301.774 L
S
GR
GS
0.149 GC
2 setlinecap
1 LJ
0.5 LW
N
507 296.008 M
504.83 296.008 L
S
GR
GS
0.149 GC
2 setlinecap
1 LJ
0.5 LW
N
507 284.475 M
504.83 284.475 L
S
GR
GS
0.149 GC
2 setlinecap
1 LJ
0.5 LW
N
507 278.708 M
504.83 278.708 L
S
GR
GS
0.149 GC
2 setlinecap
1 LJ
0.5 LW
N
507 272.942 M
504.83 272.942 L
S
GR
GS
0.149 GC
2 setlinecap
1 LJ
0.5 LW
N
507 267.175 M
504.83 267.175 L
S
GR
GS
0.149 GC
2 setlinecap
1 LJ
0.5 LW
N
507 255.642 M
504.83 255.642 L
S
GR
GS
0.149 GC
2 setlinecap
1 LJ
0.5 LW
N
507 249.876 M
504.83 249.876 L
S
GR
GS
0.149 GC
2 setlinecap
1 LJ
0.5 LW
N
507 244.109 M
504.83 244.109 L
S
GR
GS
0.149 GC
2 setlinecap
1 LJ
0.5 LW
N
507 238.343 M
504.83 238.343 L
S
GR
GS
0.149 GC
2 setlinecap
1 LJ
0.5 LW
N
507 226.81 M
504.83 226.81 L
S
GR
GS
0.149 GC
2 setlinecap
1 LJ
0.5 LW
N
507 221.043 M
504.83 221.043 L
S
GR
GS
0.149 GC
2 setlinecap
1 LJ
0.5 LW
N
507 215.277 M
504.83 215.277 L
S
GR
GS
0.149 GC
2 setlinecap
1 LJ
0.5 LW
N
507 209.51 M
504.83 209.51 L
S
GR
GS
0.149 GC
2 setlinecap
1 LJ
0.5 LW
N
507 197.977 M
504.83 197.977 L
S
GR
GS
0.149 GC
2 setlinecap
1 LJ
0.5 LW
N
507 192.211 M
504.83 192.211 L
S
GR
GS
0.149 GC
2 setlinecap
1 LJ
0.5 LW
N
507 186.444 M
504.83 186.444 L
S
GR
GS
0.149 GC
2 setlinecap
1 LJ
0.5 LW
N
507 180.678 M
504.83 180.678 L
S
GR
GS
0.149 GC
2 setlinecap
1 LJ
0.5 LW
N
507 169.145 M
504.83 169.145 L
S
GR
GS
0.149 GC
2 setlinecap
1 LJ
0.5 LW
N
507 163.378 M
504.83 163.378 L
S
GR
GS
0.149 GC
2 setlinecap
1 LJ
0.5 LW
N
507 157.612 M
504.83 157.612 L
S
GR
GS
0.149 GC
2 setlinecap
1 LJ
0.5 LW
N
507 151.845 M
504.83 151.845 L
S
GR
GS
0.149 GC
2 setlinecap
1 LJ
0.5 LW
N
507 140.312 M
504.83 140.312 L
S
GR
GS
0.149 GC
2 setlinecap
1 LJ
0.5 LW
N
507 134.546 M
504.83 134.546 L
S
GR
GS
0.149 GC
2 setlinecap
1 LJ
0.5 LW
N
507 128.779 M
504.83 128.779 L
S
GR
GS
0.149 GC
2 setlinecap
1 LJ
0.5 LW
N
507 123.013 M
504.83 123.013 L
S
GR
GS
0.149 GC
2 setlinecap
1 LJ
0.5 LW
N
507 111.48 M
504.83 111.48 L
S
GR
GS
0.149 GC
2 setlinecap
1 LJ
0.5 LW
N
507 105.713 M
504.83 105.713 L
S
GR
GS
0.149 GC
2 setlinecap
1 LJ
0.5 LW
N
507 99.947 M
504.83 99.947 L
S
GR
GS
0.149 GC
2 setlinecap
1 LJ
0.5 LW
N
507 94.18 M
504.83 94.18 L
S
GR
GS
0.149 GC
2 setlinecap
1 LJ
0.5 LW
N
507 82.647 M
504.83 82.647 L
S
GR
GS
0.149 GC
2 setlinecap
1 LJ
0.5 LW
N
507 76.881 M
504.83 76.881 L
S
GR
GS
0.149 GC
2 setlinecap
1 LJ
0.5 LW
N
507 71.114 M
504.83 71.114 L
S
GR
GS
0.149 GC
2 setlinecap
1 LJ
0.5 LW
N
507 65.348 M
504.83 65.348 L
S
GR
GS
0.149 GC
2 setlinecap
1 LJ
0.5 LW
N
507 53.815 M
504.83 53.815 L
S
GR
GS
0.149 GC
2 setlinecap
1 LJ
0.5 LW
N
507 48.048 M
504.83 48.048 L
S
GR
GS
0.149 GC
2 setlinecap
1 LJ
0.5 LW
N
507 42.282 M
504.83 42.282 L
S
GR
GS
0.149 GC
2 setlinecap
1 LJ
0.5 LW
N
507 36.515 M
504.83 36.515 L
S
GR
GS
[1 0 0 1 68.2 347.90598] CT
0.149 GC
/Helvetica 14 F
GS
[1 0 0 1 0 0] CT
-16 5.5 moveto 
1 -1 scale
(45) t 
GR
GR
GS
[1 0 0 1 68.2 319.07352] CT
0.149 GC
/Helvetica 14 F
GS
[1 0 0 1 0 0] CT
-16 5.5 moveto 
1 -1 scale
(50) t 
GR
GR
GS
[1 0 0 1 68.2 290.24103] CT
0.149 GC
/Helvetica 14 F
GS
[1 0 0 1 0 0] CT
-16 5.5 moveto 
1 -1 scale
(55) t 
GR
GR
GS
[1 0 0 1 68.2 261.40857] CT
0.149 GC
/Helvetica 14 F
GS
[1 0 0 1 0 0] CT
-16 5.5 moveto 
1 -1 scale
(60) t 
GR
GR
GS
[1 0 0 1 68.2 232.5761] CT
0.149 GC
/Helvetica 14 F
GS
[1 0 0 1 0 0] CT
-16 5.5 moveto 
1 -1 scale
(65) t 
GR
GR
GS
[1 0 0 1 68.2 203.74362] CT
0.149 GC
/Helvetica 14 F
GS
[1 0 0 1 0 0] CT
-16 5.5 moveto 
1 -1 scale
(70) t 
GR
GR
GS
[1 0 0 1 68.2 174.91115] CT
0.149 GC
/Helvetica 14 F
GS
[1 0 0 1 0 0] CT
-16 5.5 moveto 
1 -1 scale
(75) t 
GR
GR
GS
[1 0 0 1 68.2 146.07869] CT
0.149 GC
/Helvetica 14 F
GS
[1 0 0 1 0 0] CT
-16 5.5 moveto 
1 -1 scale
(80) t 
GR
GR
GS
[1 0 0 1 68.2 117.24621] CT
0.149 GC
/Helvetica 14 F
GS
[1 0 0 1 0 0] CT
-16 5.5 moveto 
1 -1 scale
(85) t 
GR
GR
GS
[1 0 0 1 68.2 88.41374] CT
0.149 GC
/Helvetica 14 F
GS
[1 0 0 1 0 0] CT
-16 5.5 moveto 
1 -1 scale
(90) t 
GR
GR
GS
[1 0 0 1 68.2 59.58127] CT
0.149 GC
/Helvetica 14 F
GS
[1 0 0 1 0 0] CT
-16 5.5 moveto 
1 -1 scale
(95) t 
GR
GR
GS
[0 -1 1 0 49.2 202.74983] CT
0.149 GC
/Helvetica 15.4 F
GS
[1 0 0 1 0 0] CT
-21 -4 moveto 
1 -1 scale
(VMAF) t 
GR
GR
GS
[1 0 0 1 290.00027 29.57501] CT
/Helvetica-Bold 15.4 F
GS
[1 0 0 1 0 0] CT
-101.5 -4 moveto 
1 -1 scale
(Vlog_1080P-58ad.y4m-hevc) t 
GR
GR
GS
0 0.447 0.741 RC
1 LJ
0.5 LW
N
74.474 370.164 M
75.625 365.147 L
76.776 360.153 L
77.927 355.185 L
79.077 350.248 L
80.228 345.344 L
81.379 340.477 L
82.53 335.65 L
83.681 330.867 L
84.832 326.131 L
85.983 321.447 L
87.134 316.816 L
88.285 312.243 L
89.436 307.731 L
90.587 303.284 L
91.738 298.904 L
92.888 294.596 L
94.039 290.363 L
95.19 286.209 L
96.341 282.136 L
97.492 278.148 L
98.643 274.249 L
99.794 270.443 L
100.945 266.732 L
102.096 263.12 L
103.247 259.61 L
104.398 256.206 L
105.548 252.878 L
106.699 249.572 L
107.85 246.289 L
109.001 243.028 L
110.152 239.792 L
111.303 236.581 L
112.454 233.395 L
113.605 230.236 L
114.756 227.103 L
115.907 223.999 L
117.058 220.923 L
118.208 217.876 L
119.359 214.859 L
120.51 211.873 L
121.661 208.918 L
122.812 205.996 L
123.963 203.107 L
125.114 200.251 L
126.265 197.431 L
127.416 194.645 L
128.567 191.895 L
129.718 189.182 L
130.868 186.507 L
132.019 183.87 L
133.17 181.272 L
134.321 178.713 L
135.472 176.196 L
136.623 173.719 L
137.774 171.284 L
138.925 168.893 L
140.076 166.544 L
141.227 164.24 L
142.378 161.981 L
143.528 159.768 L
144.679 157.601 L
145.83 155.481 L
146.981 153.409 L
148.132 151.387 L
149.283 149.413 L
150.434 147.49 L
151.585 145.618 L
152.736 143.797 L
153.887 142.029 L
155.038 140.314 L
156.188 138.653 L
157.339 137.045 L
158.49 135.451 L
159.641 133.86 L
160.792 132.273 L
161.943 130.688 L
163.094 129.108 L
164.245 127.532 L
165.396 125.961 L
166.547 124.395 L
167.698 122.834 L
168.848 121.279 L
169.999 119.73 L
171.15 118.188 L
172.301 116.653 L
173.452 115.124 L
174.603 113.604 L
175.754 112.091 L
176.905 110.587 L
178.056 109.091 L
179.207 107.605 L
180.358 106.128 L
181.508 104.66 L
182.659 103.203 L
183.81 101.757 L
184.961 100.321 L
186.112 98.897 L
187.263 97.484 L
188.414 96.084 L
189.565 94.695 L
190.716 93.32 L
191.867 91.957 L
193.018 90.609 L
194.168 89.273 L
195.319 87.953 L
196.47 86.646 L
197.621 85.355 L
198.772 84.079 L
199.923 82.819 L
201.074 81.575 L
202.225 80.347 L
203.376 79.136 L
204.527 77.942 L
205.678 76.766 L
206.829 75.608 L
207.979 74.467 L
209.13 73.346 L
210.281 72.244 L
211.432 71.16 L
212.583 70.097 L
213.734 69.054 L
214.885 68.031 L
216.036 67.029 L
217.187 66.048 L
218.338 65.089 L
219.489 64.152 L
220.639 63.237 L
221.79 62.345 L
222.941 61.476 L
224.092 60.63 L
225.243 59.808 L
226.394 59.01 L
227.545 58.237 L
228.696 57.488 L
229.847 56.765 L
230.998 56.067 L
232.149 55.396 L
233.299 54.751 L
234.45 54.132 L
235.601 53.541 L
236.752 52.977 L
237.903 52.44 L
239.054 51.932 L
240.205 51.453 L
241.356 51.002 L
242.507 50.581 L
243.658 50.19 L
244.809 49.828 L
245.959 49.497 L
247.11 49.197 L
248.261 48.927 L
249.412 48.69 L
250.563 48.484 L
251.714 48.308 L
252.865 48.138 L
254.016 47.97 L
255.167 47.803 L
256.318 47.636 L
257.469 47.471 L
258.619 47.306 L
259.77 47.143 L
260.921 46.98 L
262.072 46.818 L
263.223 46.657 L
264.374 46.498 L
265.525 46.339 L
266.676 46.181 L
267.827 46.024 L
268.978 45.868 L
270.129 45.712 L
271.279 45.558 L
272.43 45.405 L
273.581 45.252 L
274.732 45.101 L
275.883 44.951 L
277.034 44.801 L
278.185 44.652 L
279.336 44.505 L
280.487 44.358 L
281.638 44.212 L
282.789 44.067 L
283.939 43.923 L
285.09 43.78 L
286.241 43.638 L
287.392 43.496 L
288.543 43.356 L
289.694 43.216 L
290.845 43.078 L
291.996 42.94 L
293.147 42.803 L
294.298 42.667 L
295.449 42.532 L
296.599 42.398 L
297.75 42.265 L
298.901 42.133 L
300.052 42.002 L
301.203 41.871 L
302.354 41.742 L
303.505 41.613 L
304.656 41.485 L
305.807 41.358 L
306.958 41.232 L
308.109 41.107 L
309.259 40.983 L
310.41 40.859 L
311.561 40.737 L
312.712 40.615 L
313.863 40.495 L
315.014 40.375 L
316.165 40.256 L
317.316 40.138 L
318.467 40.021 L
319.618 39.904 L
320.769 39.789 L
321.919 39.674 L
323.07 39.56 L
324.221 39.448 L
325.372 39.336 L
326.523 39.224 L
327.674 39.114 L
328.825 39.005 L
329.976 38.896 L
331.127 38.789 L
332.278 38.682 L
333.429 38.576 L
334.579 38.471 L
335.73 38.366 L
336.881 38.263 L
338.032 38.16 L
339.183 38.059 L
340.334 37.958 L
341.485 37.858 L
342.636 37.758 L
343.787 37.66 L
344.938 37.563 L
346.089 37.466 L
347.24 37.37 L
348.39 37.275 L
349.541 37.181 L
350.692 37.088 L
351.843 36.995 L
352.994 36.903 L
354.145 36.813 L
355.296 36.723 L
356.447 36.633 L
357.598 36.545 L
358.749 36.457 L
359.9 36.371 L
361.05 36.285 L
362.201 36.2 L
363.352 36.116 L
364.503 36.032 L
365.654 35.949 L
366.805 35.868 L
367.956 35.787 L
369.107 35.706 L
370.258 35.627 L
371.409 35.548 L
372.56 35.471 L
373.71 35.394 L
374.861 35.318 L
376.012 35.242 L
377.163 35.168 L
378.314 35.094 L
379.465 35.021 L
380.616 34.949 L
381.767 34.877 L
382.918 34.807 L
384.069 34.737 L
385.22 34.668 L
386.37 34.6 L
387.521 34.532 L
388.672 34.466 L
389.823 34.4 L
390.974 34.335 L
392.125 34.27 L
393.276 34.207 L
394.427 34.144 L
395.578 34.082 L
396.729 34.021 L
397.88 33.961 L
399.03 33.901 L
400.181 33.842 L
401.332 33.784 L
402.483 33.727 L
403.634 33.67 L
404.785 33.614 L
405.936 33.559 L
407.087 33.505 L
408.238 33.452 L
409.389 33.399 L
410.54 33.347 L
411.69 33.296 L
412.841 33.245 L
413.992 33.196 L
415.143 33.147 L
416.294 33.098 L
417.445 33.051 L
418.596 33.004 L
419.747 32.958 L
420.898 32.913 L
422.049 32.869 L
423.2 32.825 L
424.35 32.782 L
425.501 32.74 L
426.652 32.698 L
427.803 32.657 L
428.954 32.617 L
430.105 32.578 L
431.256 32.539 L
432.407 32.502 L
433.558 32.464 L
434.709 32.428 L
435.86 32.392 L
437.01 32.357 L
438.161 32.323 L
439.312 32.29 L
440.463 32.257 L
441.614 32.225 L
442.765 32.194 L
443.916 32.163 L
445.067 32.133 L
446.218 32.104 L
447.369 32.075 L
448.52 32.048 L
449.671 32.021 L
450.821 31.994 L
451.972 31.969 L
453.123 31.944 L
454.274 31.919 L
455.425 31.896 L
456.576 31.873 L
457.727 31.851 L
458.878 31.83 L
460.029 31.809 L
461.18 31.789 L
462.331 31.769 L
463.481 31.751 L
464.632 31.733 L
465.783 31.715 L
466.934 31.699 L
468.085 31.683 L
469.236 31.668 L
470.387 31.653 L
471.538 31.639 L
472.689 31.626 L
473.84 31.614 L
474.991 31.602 L
476.141 31.591 L
477.292 31.58 L
478.443 31.571 L
479.594 31.561 L
480.745 31.553 L
481.896 31.545 L
483.047 31.538 L
484.198 31.532 L
485.349 31.526 L
486.5 31.521 L
487.651 31.516 L
488.801 31.513 L
489.952 31.509 L
491.103 31.507 L
492.254 31.505 L
493.405 31.504 L
494.556 31.503 L
S
GR
GS
0.851 0.325 0.098 RC
1 LJ
0.5 LW
N
74.212 371.864 M
75.363 366.808 L
76.514 361.775 L
77.664 356.768 L
78.815 351.792 L
79.966 346.85 L
81.117 341.945 L
82.268 337.081 L
83.419 332.262 L
84.57 327.491 L
85.721 322.771 L
86.872 318.106 L
88.023 313.5 L
89.174 308.956 L
90.324 304.477 L
91.475 300.068 L
92.626 295.731 L
93.777 291.471 L
94.928 287.29 L
96.079 283.193 L
97.23 279.182 L
98.381 275.262 L
99.532 271.435 L
100.683 267.706 L
101.834 264.078 L
102.984 260.555 L
104.135 257.139 L
105.286 253.783 L
106.437 250.45 L
107.588 247.139 L
108.739 243.852 L
109.89 240.59 L
111.041 237.353 L
112.192 234.141 L
113.343 230.956 L
114.494 227.799 L
115.644 224.67 L
116.795 221.57 L
117.946 218.499 L
119.097 215.459 L
120.248 212.451 L
121.399 209.474 L
122.55 206.53 L
123.701 203.62 L
124.852 200.744 L
126.003 197.903 L
127.154 195.098 L
128.304 192.33 L
129.455 189.598 L
130.606 186.906 L
131.757 184.251 L
132.908 181.637 L
134.059 179.063 L
135.21 176.53 L
136.361 174.039 L
137.512 171.591 L
138.663 169.187 L
139.814 166.826 L
140.964 164.511 L
142.115 162.241 L
143.266 160.018 L
144.417 157.842 L
145.568 155.714 L
146.719 153.635 L
147.87 151.606 L
149.021 149.627 L
150.172 147.699 L
151.323 145.823 L
152.474 144 L
153.624 142.23 L
154.775 140.514 L
155.926 138.853 L
157.077 137.237 L
158.228 135.628 L
159.379 134.023 L
160.53 132.42 L
161.681 130.821 L
162.832 129.227 L
163.983 127.637 L
165.134 126.051 L
166.285 124.472 L
167.435 122.897 L
168.586 121.329 L
169.737 119.767 L
170.888 118.212 L
172.039 116.664 L
173.19 115.124 L
174.341 113.592 L
175.492 112.068 L
176.643 110.552 L
177.794 109.046 L
178.945 107.549 L
180.095 106.061 L
181.246 104.584 L
182.397 103.118 L
183.548 101.662 L
184.699 100.218 L
185.85 98.785 L
187.001 97.364 L
188.152 95.956 L
189.303 94.56 L
190.454 93.178 L
191.605 91.809 L
192.755 90.454 L
193.906 89.113 L
195.057 87.787 L
196.208 86.476 L
197.359 85.18 L
198.51 83.9 L
199.661 82.637 L
200.812 81.389 L
201.963 80.159 L
203.114 78.946 L
204.265 77.751 L
205.415 76.573 L
206.566 75.414 L
207.717 74.274 L
208.868 73.153 L
210.019 72.051 L
211.17 70.97 L
212.321 69.908 L
213.472 68.867 L
214.623 67.848 L
215.774 66.849 L
216.925 65.873 L
218.075 64.918 L
219.226 63.986 L
220.377 63.077 L
221.528 62.191 L
222.679 61.329 L
223.83 60.491 L
224.981 59.677 L
226.132 58.888 L
227.283 58.125 L
228.434 57.386 L
229.585 56.674 L
230.735 55.988 L
231.886 55.328 L
233.037 54.695 L
234.188 54.09 L
235.339 53.513 L
236.49 52.964 L
237.641 52.443 L
238.792 51.951 L
239.943 51.488 L
241.094 51.055 L
242.245 50.652 L
243.395 50.28 L
244.546 49.938 L
245.697 49.627 L
246.848 49.348 L
247.999 49.101 L
249.15 48.886 L
250.301 48.702 L
251.452 48.528 L
252.603 48.354 L
253.754 48.182 L
254.905 48.011 L
256.055 47.84 L
257.206 47.671 L
258.357 47.502 L
259.508 47.335 L
260.659 47.168 L
261.81 47.003 L
262.961 46.838 L
264.112 46.675 L
265.263 46.512 L
266.414 46.351 L
267.565 46.19 L
268.715 46.03 L
269.866 45.871 L
271.017 45.714 L
272.168 45.557 L
273.319 45.401 L
274.47 45.246 L
275.621 45.092 L
276.772 44.939 L
277.923 44.787 L
279.074 44.636 L
280.225 44.486 L
281.376 44.337 L
282.526 44.189 L
283.677 44.041 L
284.828 43.895 L
285.979 43.75 L
287.13 43.605 L
288.281 43.462 L
289.432 43.319 L
290.583 43.178 L
291.734 43.037 L
292.885 42.897 L
294.036 42.758 L
295.186 42.62 L
296.337 42.483 L
297.488 42.347 L
298.639 42.212 L
299.79 42.078 L
300.941 41.945 L
302.092 41.813 L
303.243 41.681 L
304.394 41.551 L
305.545 41.421 L
306.696 41.292 L
307.846 41.165 L
308.997 41.038 L
310.148 40.912 L
311.299 40.787 L
312.45 40.663 L
313.601 40.54 L
314.752 40.417 L
315.903 40.296 L
317.054 40.176 L
318.205 40.056 L
319.356 39.937 L
320.506 39.82 L
321.657 39.703 L
322.808 39.587 L
323.959 39.472 L
325.11 39.358 L
326.261 39.244 L
327.412 39.132 L
328.563 39.02 L
329.714 38.91 L
330.865 38.8 L
332.016 38.691 L
333.166 38.583 L
334.317 38.476 L
335.468 38.37 L
336.619 38.265 L
337.77 38.16 L
338.921 38.057 L
340.072 37.954 L
341.223 37.852 L
342.374 37.751 L
343.525 37.651 L
344.676 37.552 L
345.826 37.454 L
346.977 37.356 L
348.128 37.259 L
349.279 37.164 L
350.43 37.069 L
351.581 36.975 L
352.732 36.882 L
353.883 36.789 L
355.034 36.698 L
356.185 36.607 L
357.336 36.518 L
358.486 36.429 L
359.637 36.341 L
360.788 36.253 L
361.939 36.167 L
363.09 36.082 L
364.241 35.997 L
365.392 35.913 L
366.543 35.83 L
367.694 35.748 L
368.845 35.667 L
369.996 35.586 L
371.146 35.507 L
372.297 35.428 L
373.448 35.35 L
374.599 35.273 L
375.75 35.196 L
376.901 35.121 L
378.052 35.046 L
379.203 34.972 L
380.354 34.899 L
381.505 34.827 L
382.656 34.756 L
383.806 34.685 L
384.957 34.616 L
386.108 34.547 L
387.259 34.479 L
388.41 34.411 L
389.561 34.345 L
390.712 34.279 L
391.863 34.214 L
393.014 34.15 L
394.165 34.087 L
395.316 34.025 L
396.466 33.963 L
397.617 33.902 L
398.768 33.842 L
399.919 33.783 L
401.07 33.725 L
402.221 33.667 L
403.372 33.61 L
404.523 33.554 L
405.674 33.499 L
406.825 33.444 L
407.976 33.391 L
409.126 33.338 L
410.277 33.286 L
411.428 33.234 L
412.579 33.184 L
413.73 33.134 L
414.881 33.085 L
416.032 33.037 L
417.183 32.989 L
418.334 32.943 L
419.485 32.897 L
420.636 32.852 L
421.787 32.807 L
422.937 32.764 L
424.088 32.721 L
425.239 32.679 L
426.39 32.638 L
427.541 32.597 L
428.692 32.557 L
429.843 32.518 L
430.994 32.48 L
432.145 32.443 L
433.296 32.406 L
434.447 32.37 L
435.597 32.335 L
436.748 32.3 L
437.899 32.267 L
439.05 32.234 L
440.201 32.202 L
441.352 32.17 L
442.503 32.139 L
443.654 32.11 L
444.805 32.08 L
445.956 32.052 L
447.107 32.024 L
448.257 31.997 L
449.408 31.971 L
450.559 31.945 L
451.71 31.92 L
452.861 31.896 L
454.012 31.873 L
455.163 31.85 L
456.314 31.828 L
457.465 31.807 L
458.616 31.787 L
459.767 31.767 L
460.917 31.748 L
462.068 31.73 L
463.219 31.712 L
464.37 31.695 L
465.521 31.679 L
466.672 31.664 L
467.823 31.649 L
468.974 31.635 L
470.125 31.622 L
471.276 31.609 L
472.427 31.597 L
473.577 31.586 L
474.728 31.576 L
475.879 31.566 L
477.03 31.557 L
478.181 31.548 L
479.332 31.541 L
480.483 31.534 L
481.634 31.528 L
482.785 31.522 L
483.936 31.517 L
485.087 31.513 L
486.237 31.509 L
487.388 31.507 L
488.539 31.504 L
489.69 31.503 L
490.841 31.502 L
S
GR
GS
0.929 0.694 0.125 RC
1 LJ
0.5 LW
N
73 374 M
74.151 368.795 L
75.302 363.616 L
76.453 358.466 L
77.604 353.349 L
78.755 348.268 L
79.905 343.227 L
81.056 338.23 L
82.207 333.28 L
83.358 328.381 L
84.509 323.536 L
85.66 318.75 L
86.811 314.025 L
87.962 309.365 L
89.113 304.774 L
90.264 300.256 L
91.415 295.814 L
92.565 291.452 L
93.716 287.173 L
94.867 282.981 L
96.018 278.88 L
97.169 274.873 L
98.32 270.963 L
99.471 267.156 L
100.622 263.453 L
101.773 259.859 L
102.924 256.36 L
104.075 252.89 L
105.225 249.443 L
106.376 246.02 L
107.527 242.622 L
108.678 239.25 L
109.829 235.904 L
110.98 232.586 L
112.131 229.296 L
113.282 226.036 L
114.433 222.806 L
115.584 219.607 L
116.735 216.441 L
117.885 213.307 L
119.036 210.207 L
120.187 207.142 L
121.338 204.112 L
122.489 201.12 L
123.64 198.164 L
124.791 195.247 L
125.942 192.369 L
127.093 189.532 L
128.244 186.735 L
129.395 183.981 L
130.546 181.269 L
131.696 178.601 L
132.847 175.977 L
133.998 173.4 L
135.149 170.868 L
136.3 168.384 L
137.451 165.949 L
138.602 163.562 L
139.753 161.225 L
140.904 158.94 L
142.055 156.706 L
143.206 154.525 L
144.356 152.398 L
145.507 150.325 L
146.658 148.307 L
147.809 146.346 L
148.96 144.442 L
150.111 142.597 L
151.262 140.81 L
152.413 139.083 L
153.564 137.39 L
154.715 135.699 L
155.866 134.011 L
157.016 132.327 L
158.167 130.646 L
159.318 128.971 L
160.469 127.3 L
161.62 125.634 L
162.771 123.974 L
163.922 122.321 L
165.073 120.674 L
166.224 119.034 L
167.375 117.402 L
168.526 115.778 L
169.676 114.162 L
170.827 112.555 L
171.978 110.957 L
173.129 109.37 L
174.28 107.792 L
175.431 106.225 L
176.582 104.669 L
177.733 103.125 L
178.884 101.593 L
180.035 100.073 L
181.186 98.566 L
182.336 97.073 L
183.487 95.593 L
184.638 94.127 L
185.789 92.677 L
186.94 91.241 L
188.091 89.821 L
189.242 88.416 L
190.393 87.029 L
191.544 85.658 L
192.695 84.304 L
193.846 82.968 L
194.996 81.651 L
196.147 80.352 L
197.298 79.072 L
198.449 77.812 L
199.6 76.572 L
200.751 75.352 L
201.902 74.154 L
203.053 72.976 L
204.204 71.82 L
205.355 70.687 L
206.506 69.576 L
207.656 68.488 L
208.807 67.424 L
209.958 66.384 L
211.109 65.368 L
212.26 64.378 L
213.411 63.412 L
214.562 62.473 L
215.713 61.559 L
216.864 60.672 L
218.015 59.813 L
219.166 58.981 L
220.316 58.176 L
221.467 57.401 L
222.618 56.654 L
223.769 55.937 L
224.92 55.249 L
226.071 54.592 L
227.222 53.965 L
228.373 53.369 L
229.524 52.805 L
230.675 52.273 L
231.826 51.774 L
232.976 51.307 L
234.127 50.874 L
235.278 50.474 L
236.429 50.109 L
237.58 49.778 L
238.731 49.483 L
239.882 49.223 L
241.033 48.999 L
242.184 48.809 L
243.335 48.629 L
244.486 48.45 L
245.636 48.272 L
246.787 48.095 L
247.938 47.919 L
249.089 47.744 L
250.24 47.57 L
251.391 47.398 L
252.542 47.226 L
253.693 47.055 L
254.844 46.886 L
255.995 46.717 L
257.146 46.55 L
258.297 46.383 L
259.447 46.218 L
260.598 46.053 L
261.749 45.89 L
262.9 45.727 L
264.051 45.566 L
265.202 45.406 L
266.353 45.247 L
267.504 45.088 L
268.655 44.931 L
269.806 44.775 L
270.957 44.62 L
272.107 44.465 L
273.258 44.312 L
274.409 44.16 L
275.56 44.009 L
276.711 43.859 L
277.862 43.71 L
279.013 43.562 L
280.164 43.414 L
281.315 43.268 L
282.466 43.123 L
283.617 42.979 L
284.767 42.836 L
285.918 42.694 L
287.069 42.553 L
288.22 42.413 L
289.371 42.274 L
290.522 42.135 L
291.673 41.998 L
292.824 41.862 L
293.975 41.727 L
295.126 41.593 L
296.277 41.459 L
297.427 41.327 L
298.578 41.196 L
299.729 41.066 L
300.88 40.936 L
302.031 40.808 L
303.182 40.681 L
304.333 40.554 L
305.484 40.429 L
306.635 40.304 L
307.786 40.181 L
308.937 40.058 L
310.087 39.937 L
311.238 39.816 L
312.389 39.696 L
313.54 39.578 L
314.691 39.46 L
315.842 39.343 L
316.993 39.227 L
318.144 39.112 L
319.295 38.998 L
320.446 38.885 L
321.597 38.773 L
322.747 38.662 L
323.898 38.552 L
325.049 38.443 L
326.2 38.334 L
327.351 38.227 L
328.502 38.121 L
329.653 38.015 L
330.804 37.91 L
331.955 37.807 L
333.106 37.704 L
334.257 37.602 L
335.407 37.501 L
336.558 37.401 L
337.709 37.302 L
338.86 37.204 L
340.011 37.107 L
341.162 37.011 L
342.313 36.915 L
343.464 36.821 L
344.615 36.727 L
345.766 36.635 L
346.917 36.543 L
348.067 36.452 L
349.218 36.362 L
350.369 36.273 L
351.52 36.185 L
352.671 36.098 L
353.822 36.011 L
354.973 35.926 L
356.124 35.841 L
357.275 35.757 L
358.426 35.675 L
359.577 35.593 L
360.727 35.512 L
361.878 35.432 L
363.029 35.352 L
364.18 35.274 L
365.331 35.196 L
366.482 35.12 L
367.633 35.044 L
368.784 34.969 L
369.935 34.895 L
371.086 34.822 L
372.237 34.75 L
373.387 34.678 L
374.538 34.608 L
375.689 34.538 L
376.84 34.469 L
377.991 34.401 L
379.142 34.334 L
380.293 34.268 L
381.444 34.203 L
382.595 34.138 L
383.746 34.074 L
384.897 34.012 L
386.048 33.95 L
387.198 33.888 L
388.349 33.828 L
389.5 33.769 L
390.651 33.71 L
391.802 33.652 L
392.953 33.595 L
394.104 33.539 L
395.255 33.484 L
396.406 33.429 L
397.557 33.376 L
398.708 33.323 L
399.858 33.271 L
401.009 33.22 L
402.16 33.17 L
403.311 33.12 L
404.462 33.071 L
405.613 33.024 L
406.764 32.976 L
407.915 32.93 L
409.066 32.885 L
410.217 32.84 L
411.368 32.796 L
412.518 32.753 L
413.669 32.711 L
414.82 32.67 L
415.971 32.629 L
417.122 32.59 L
418.273 32.551 L
419.424 32.512 L
420.575 32.475 L
421.726 32.438 L
422.877 32.403 L
424.028 32.368 L
425.178 32.333 L
426.329 32.3 L
427.48 32.267 L
428.631 32.235 L
429.782 32.204 L
430.933 32.174 L
432.084 32.145 L
433.235 32.116 L
434.386 32.088 L
435.537 32.061 L
436.688 32.034 L
437.838 32.009 L
438.989 31.984 L
440.14 31.959 L
441.291 31.936 L
442.442 31.914 L
443.593 31.892 L
444.744 31.871 L
445.895 31.85 L
447.046 31.831 L
448.197 31.812 L
449.348 31.794 L
450.498 31.777 L
451.649 31.76 L
452.8 31.744 L
453.951 31.729 L
455.102 31.715 L
456.253 31.701 L
457.404 31.688 L
458.555 31.676 L
459.706 31.665 L
460.857 31.654 L
462.008 31.644 L
463.158 31.635 L
464.309 31.627 L
465.46 31.619 L
466.611 31.612 L
467.762 31.606 L
468.913 31.6 L
470.064 31.596 L
471.215 31.591 L
472.366 31.588 L
473.517 31.585 L
474.668 31.584 L
475.818 31.582 L
476.969 31.582 L
S
GR
GS
0.494 0.184 0.557 RC
1 LJ
0.5 LW
N
75.409 364.678 M
76.56 359.746 L
77.711 354.836 L
78.861 349.952 L
80.012 345.096 L
81.163 340.273 L
82.314 335.485 L
83.465 330.736 L
84.616 326.028 L
85.767 321.367 L
86.918 316.753 L
88.069 312.192 L
89.22 307.686 L
90.371 303.239 L
91.522 298.854 L
92.672 294.534 L
93.823 290.282 L
94.974 286.102 L
96.125 281.998 L
97.276 277.971 L
98.427 274.027 L
99.578 270.168 L
100.729 266.397 L
101.88 262.717 L
103.031 259.133 L
104.182 255.647 L
105.332 252.263 L
106.483 248.978 L
107.634 245.732 L
108.785 242.507 L
109.936 239.304 L
111.087 236.122 L
112.238 232.964 L
113.389 229.829 L
114.54 226.719 L
115.691 223.634 L
116.842 220.575 L
117.992 217.543 L
119.143 214.538 L
120.294 211.562 L
121.445 208.615 L
122.596 205.697 L
123.747 202.811 L
124.898 199.955 L
126.049 197.132 L
127.2 194.341 L
128.351 191.584 L
129.502 188.861 L
130.652 186.174 L
131.803 183.522 L
132.954 180.907 L
134.105 178.329 L
135.256 175.79 L
136.407 173.289 L
137.558 170.828 L
138.709 168.408 L
139.86 166.028 L
141.011 163.691 L
142.162 161.396 L
143.312 159.144 L
144.463 156.937 L
145.614 154.775 L
146.765 152.658 L
147.916 150.588 L
149.067 148.565 L
150.218 146.59 L
151.369 144.664 L
152.52 142.787 L
153.671 140.961 L
154.822 139.185 L
155.972 137.461 L
157.123 135.79 L
158.274 134.172 L
159.425 132.608 L
160.576 131.081 L
161.727 129.557 L
162.878 128.036 L
164.029 126.518 L
165.18 125.005 L
166.331 123.495 L
167.482 121.99 L
168.632 120.489 L
169.783 118.994 L
170.934 117.504 L
172.085 116.019 L
173.236 114.541 L
174.387 113.07 L
175.538 111.605 L
176.689 110.147 L
177.84 108.697 L
178.991 107.254 L
180.142 105.82 L
181.292 104.394 L
182.443 102.977 L
183.594 101.569 L
184.745 100.17 L
185.896 98.782 L
187.047 97.403 L
188.198 96.035 L
189.349 94.678 L
190.5 93.332 L
191.651 91.998 L
192.802 90.675 L
193.952 89.365 L
195.103 88.067 L
196.254 86.782 L
197.405 85.511 L
198.556 84.252 L
199.707 83.008 L
200.858 81.778 L
202.009 80.562 L
203.16 79.362 L
204.311 78.176 L
205.462 77.006 L
206.612 75.852 L
207.763 74.715 L
208.914 73.593 L
210.065 72.489 L
211.216 71.402 L
212.367 70.333 L
213.518 69.281 L
214.669 68.248 L
215.82 67.234 L
216.971 66.238 L
218.122 65.262 L
219.273 64.305 L
220.423 63.368 L
221.574 62.452 L
222.725 61.556 L
223.876 60.681 L
225.027 59.828 L
226.178 58.996 L
227.329 58.186 L
228.48 57.399 L
229.631 56.634 L
230.782 55.892 L
231.933 55.173 L
233.083 54.478 L
234.234 53.807 L
235.385 53.161 L
236.536 52.539 L
237.687 51.942 L
238.838 51.371 L
239.989 50.825 L
241.14 50.306 L
242.291 49.812 L
243.442 49.346 L
244.593 48.906 L
245.743 48.494 L
246.894 48.11 L
248.045 47.753 L
249.196 47.425 L
250.347 47.126 L
251.498 46.856 L
252.649 46.615 L
253.8 46.404 L
254.951 46.223 L
256.102 46.072 L
257.253 45.928 L
258.403 45.786 L
259.554 45.644 L
260.705 45.503 L
261.856 45.362 L
263.007 45.223 L
264.158 45.084 L
265.309 44.946 L
266.46 44.809 L
267.611 44.673 L
268.762 44.537 L
269.913 44.403 L
271.063 44.269 L
272.214 44.136 L
273.365 44.003 L
274.516 43.872 L
275.667 43.741 L
276.818 43.611 L
277.969 43.482 L
279.12 43.353 L
280.271 43.225 L
281.422 43.099 L
282.573 42.972 L
283.723 42.847 L
284.874 42.723 L
286.025 42.599 L
287.176 42.476 L
288.327 42.353 L
289.478 42.232 L
290.629 42.111 L
291.78 41.991 L
292.931 41.872 L
294.082 41.754 L
295.233 41.636 L
296.383 41.519 L
297.534 41.403 L
298.685 41.288 L
299.836 41.173 L
300.987 41.059 L
302.138 40.946 L
303.289 40.833 L
304.44 40.722 L
305.591 40.611 L
306.742 40.501 L
307.893 40.391 L
309.043 40.283 L
310.194 40.175 L
311.345 40.068 L
312.496 39.961 L
313.647 39.856 L
314.798 39.751 L
315.949 39.646 L
317.1 39.543 L
318.251 39.44 L
319.402 39.338 L
320.553 39.237 L
321.703 39.136 L
322.854 39.036 L
324.005 38.937 L
325.156 38.839 L
326.307 38.741 L
327.458 38.644 L
328.609 38.548 L
329.76 38.453 L
330.911 38.358 L
332.062 38.264 L
333.213 38.171 L
334.363 38.078 L
335.514 37.986 L
336.665 37.895 L
337.816 37.804 L
338.967 37.715 L
340.118 37.626 L
341.269 37.537 L
342.42 37.45 L
343.571 37.363 L
344.722 37.276 L
345.873 37.191 L
347.023 37.106 L
348.174 37.022 L
349.325 36.938 L
350.476 36.856 L
351.627 36.774 L
352.778 36.692 L
353.929 36.612 L
355.08 36.532 L
356.231 36.452 L
357.382 36.374 L
358.533 36.296 L
359.684 36.219 L
360.834 36.142 L
361.985 36.066 L
363.136 35.991 L
364.287 35.916 L
365.438 35.843 L
366.589 35.769 L
367.74 35.697 L
368.891 35.625 L
370.042 35.554 L
371.193 35.484 L
372.344 35.414 L
373.494 35.345 L
374.645 35.276 L
375.796 35.208 L
376.947 35.141 L
378.098 35.075 L
379.249 35.009 L
380.4 34.944 L
381.551 34.879 L
382.702 34.816 L
383.853 34.752 L
385.004 34.69 L
386.154 34.628 L
387.305 34.567 L
388.456 34.506 L
389.607 34.446 L
390.758 34.387 L
391.909 34.329 L
393.06 34.271 L
394.211 34.213 L
395.362 34.157 L
396.513 34.101 L
397.664 34.045 L
398.814 33.99 L
399.965 33.936 L
401.116 33.883 L
402.267 33.83 L
403.418 33.778 L
404.569 33.726 L
405.72 33.675 L
406.871 33.625 L
408.022 33.575 L
409.173 33.526 L
410.324 33.478 L
411.474 33.43 L
412.625 33.383 L
413.776 33.336 L
414.927 33.29 L
416.078 33.245 L
417.229 33.2 L
418.38 33.156 L
419.531 33.113 L
420.682 33.07 L
421.833 33.028 L
422.984 32.986 L
424.134 32.945 L
425.285 32.904 L
426.436 32.865 L
427.587 32.825 L
428.738 32.787 L
429.889 32.749 L
431.04 32.711 L
432.191 32.675 L
433.342 32.638 L
434.493 32.603 L
435.644 32.568 L
436.794 32.533 L
437.945 32.499 L
439.096 32.466 L
440.247 32.434 L
441.398 32.402 L
442.549 32.37 L
443.7 32.339 L
444.851 32.309 L
446.002 32.279 L
447.153 32.25 L
448.304 32.221 L
449.454 32.193 L
450.605 32.166 L
451.756 32.139 L
452.907 32.113 L
454.058 32.087 L
455.209 32.062 L
456.36 32.038 L
457.511 32.014 L
458.662 31.99 L
459.813 31.968 L
460.964 31.945 L
462.115 31.924 L
463.265 31.902 L
464.416 31.882 L
465.567 31.862 L
466.718 31.842 L
467.869 31.824 L
469.02 31.805 L
470.171 31.787 L
471.322 31.77 L
472.473 31.754 L
473.624 31.737 L
474.775 31.722 L
475.925 31.707 L
477.076 31.692 L
478.227 31.678 L
479.378 31.665 L
480.529 31.652 L
481.68 31.64 L
482.831 31.628 L
483.982 31.617 L
485.133 31.606 L
486.284 31.596 L
487.435 31.586 L
488.585 31.577 L
489.736 31.569 L
490.887 31.561 L
492.038 31.553 L
493.189 31.546 L
494.34 31.54 L
495.491 31.534 L
496.642 31.529 L
497.793 31.524 L
498.944 31.519 L
500.095 31.516 L
501.245 31.512 L
502.396 31.51 L
503.547 31.507 L
504.698 31.506 L
505.849 31.504 L
507 31.504 L
S
GR
GS
0.467 0.675 0.188 RC
[10 6] 0 setdash
2 LJ
0.5 LW
N
74.382 371.201 M
75.533 366.163 L
76.684 361.149 L
77.835 356.161 L
78.986 351.203 L
80.137 346.279 L
81.288 341.392 L
82.439 336.546 L
83.59 331.743 L
84.741 326.989 L
85.891 322.285 L
87.042 317.637 L
88.193 313.046 L
89.344 308.517 L
90.495 304.053 L
91.646 299.657 L
92.797 295.334 L
93.948 291.086 L
95.099 286.918 L
96.25 282.831 L
97.401 278.831 L
98.551 274.921 L
99.702 271.103 L
100.853 267.382 L
102.004 263.761 L
103.155 260.243 L
104.306 256.832 L
105.457 253.491 L
106.608 250.171 L
107.759 246.874 L
108.91 243.601 L
110.061 240.353 L
111.211 237.129 L
112.362 233.931 L
113.513 230.76 L
114.664 227.616 L
115.815 224.5 L
116.966 221.413 L
118.117 218.356 L
119.268 215.329 L
120.419 212.333 L
121.57 209.368 L
122.721 206.436 L
123.871 203.538 L
125.022 200.673 L
126.173 197.843 L
127.324 195.049 L
128.475 192.291 L
129.626 189.57 L
130.777 186.886 L
131.928 184.241 L
133.079 181.636 L
134.23 179.07 L
135.381 176.545 L
136.532 174.061 L
137.682 171.62 L
138.833 169.221 L
139.984 166.866 L
141.135 164.556 L
142.286 162.29 L
143.437 160.071 L
144.588 157.898 L
145.739 155.773 L
146.89 153.696 L
148.041 151.667 L
149.192 149.689 L
150.342 147.76 L
151.493 145.883 L
152.644 144.058 L
153.795 142.285 L
154.946 140.565 L
156.097 138.9 L
157.248 137.284 L
158.399 135.68 L
159.55 134.078 L
160.701 132.479 L
161.852 130.883 L
163.002 129.292 L
164.153 127.705 L
165.304 126.123 L
166.455 124.545 L
167.606 122.973 L
168.757 121.407 L
169.908 119.847 L
171.059 118.293 L
172.21 116.747 L
173.361 115.208 L
174.512 113.676 L
175.662 112.152 L
176.813 110.637 L
177.964 109.131 L
179.115 107.634 L
180.266 106.146 L
181.417 104.668 L
182.568 103.201 L
183.719 101.744 L
184.87 100.298 L
186.021 98.864 L
187.172 97.441 L
188.322 96.031 L
189.473 94.633 L
190.624 93.249 L
191.775 91.877 L
192.926 90.519 L
194.077 89.175 L
195.228 87.846 L
196.379 86.531 L
197.53 85.232 L
198.681 83.948 L
199.832 82.68 L
200.982 81.429 L
202.133 80.194 L
203.284 78.976 L
204.435 77.776 L
205.586 76.593 L
206.737 75.429 L
207.888 74.283 L
209.039 73.156 L
210.19 72.049 L
211.341 70.961 L
212.492 69.893 L
213.642 68.846 L
214.793 67.819 L
215.944 66.814 L
217.095 65.83 L
218.246 64.869 L
219.397 63.929 L
220.548 63.012 L
221.699 62.119 L
222.85 61.249 L
224.001 60.402 L
225.152 59.58 L
226.302 58.783 L
227.453 58.01 L
228.604 57.263 L
229.755 56.541 L
230.906 55.846 L
232.057 55.177 L
233.208 54.534 L
234.359 53.919 L
235.51 53.332 L
236.661 52.773 L
237.812 52.242 L
238.962 51.739 L
240.113 51.266 L
241.264 50.822 L
242.415 50.408 L
243.566 50.025 L
244.717 49.671 L
245.868 49.349 L
247.019 49.058 L
248.17 48.799 L
249.321 48.572 L
250.472 48.378 L
251.622 48.207 L
252.773 48.038 L
253.924 47.869 L
255.075 47.702 L
256.226 47.536 L
257.377 47.37 L
258.528 47.206 L
259.679 47.043 L
260.83 46.88 L
261.981 46.719 L
263.132 46.558 L
264.283 46.398 L
265.433 46.24 L
266.584 46.082 L
267.735 45.925 L
268.886 45.769 L
270.037 45.614 L
271.188 45.46 L
272.339 45.307 L
273.49 45.155 L
274.641 45.004 L
275.792 44.853 L
276.943 44.704 L
278.093 44.556 L
279.244 44.408 L
280.395 44.262 L
281.546 44.116 L
282.697 43.971 L
283.848 43.827 L
284.999 43.685 L
286.15 43.543 L
287.301 43.402 L
288.452 43.261 L
289.603 43.122 L
290.753 42.984 L
291.904 42.847 L
293.055 42.71 L
294.206 42.575 L
295.357 42.44 L
296.508 42.306 L
297.659 42.173 L
298.81 42.041 L
299.961 41.91 L
301.112 41.78 L
302.263 41.651 L
303.413 41.522 L
304.564 41.395 L
305.715 41.268 L
306.866 41.143 L
308.017 41.018 L
309.168 40.894 L
310.319 40.771 L
311.47 40.649 L
312.621 40.528 L
313.772 40.407 L
314.923 40.288 L
316.073 40.169 L
317.224 40.052 L
318.375 39.935 L
319.526 39.819 L
320.677 39.704 L
321.828 39.589 L
322.979 39.476 L
324.13 39.364 L
325.281 39.252 L
326.432 39.141 L
327.583 39.031 L
328.733 38.922 L
329.884 38.814 L
331.035 38.707 L
332.186 38.601 L
333.337 38.495 L
334.488 38.39 L
335.639 38.286 L
336.79 38.183 L
337.941 38.081 L
339.092 37.98 L
340.243 37.879 L
341.393 37.78 L
342.544 37.681 L
343.695 37.583 L
344.846 37.486 L
345.997 37.39 L
347.148 37.295 L
348.299 37.2 L
349.45 37.106 L
350.601 37.013 L
351.752 36.921 L
352.903 36.83 L
354.053 36.74 L
355.204 36.65 L
356.355 36.562 L
357.506 36.474 L
358.657 36.387 L
359.808 36.3 L
360.959 36.215 L
362.11 36.13 L
363.261 36.047 L
364.412 35.964 L
365.563 35.882 L
366.713 35.8 L
367.864 35.72 L
369.015 35.64 L
370.166 35.561 L
371.317 35.483 L
372.468 35.406 L
373.619 35.329 L
374.77 35.254 L
375.921 35.179 L
377.072 35.105 L
378.223 35.032 L
379.374 34.959 L
380.524 34.887 L
381.675 34.817 L
382.826 34.747 L
383.977 34.677 L
385.128 34.609 L
386.279 34.541 L
387.43 34.474 L
388.581 34.408 L
389.732 34.343 L
390.883 34.278 L
392.034 34.215 L
393.184 34.152 L
394.335 34.089 L
395.486 34.028 L
396.637 33.967 L
397.788 33.908 L
398.939 33.848 L
400.09 33.79 L
401.241 33.733 L
402.392 33.676 L
403.543 33.62 L
404.694 33.565 L
405.844 33.51 L
406.995 33.457 L
408.146 33.404 L
409.297 33.351 L
410.448 33.3 L
411.599 33.249 L
412.75 33.199 L
413.901 33.15 L
415.052 33.102 L
416.203 33.054 L
417.354 33.007 L
418.504 32.961 L
419.655 32.916 L
420.806 32.871 L
421.957 32.827 L
423.108 32.784 L
424.259 32.742 L
425.41 32.7 L
426.561 32.659 L
427.712 32.619 L
428.863 32.58 L
430.014 32.541 L
431.164 32.503 L
432.315 32.466 L
433.466 32.429 L
434.617 32.393 L
435.768 32.358 L
436.919 32.324 L
438.07 32.29 L
439.221 32.257 L
440.372 32.225 L
441.523 32.194 L
442.674 32.163 L
443.824 32.133 L
444.975 32.104 L
446.126 32.075 L
447.277 32.047 L
448.428 32.02 L
449.579 31.994 L
450.73 31.968 L
451.881 31.943 L
453.032 31.918 L
454.183 31.895 L
455.334 31.872 L
456.484 31.85 L
457.635 31.828 L
458.786 31.807 L
459.937 31.787 L
461.088 31.768 L
462.239 31.749 L
463.39 31.731 L
464.541 31.714 L
465.692 31.697 L
466.843 31.681 L
467.994 31.666 L
469.144 31.651 L
470.295 31.637 L
471.446 31.624 L
472.597 31.611 L
473.748 31.6 L
474.899 31.588 L
476.05 31.578 L
477.201 31.568 L
478.352 31.559 L
479.503 31.55 L
480.654 31.542 L
481.804 31.535 L
482.955 31.529 L
484.106 31.523 L
485.257 31.518 L
486.408 31.513 L
487.559 31.509 L
488.71 31.506 L
489.861 31.504 L
491.012 31.502 L
492.163 31.501 L
493.314 31.5 L
S
GR
GS
0.302 0.745 0.933 RC
[10 6] 0 setdash
2 LJ
0.5 LW
N
74.257 371.869 M
75.408 366.764 L
76.559 361.682 L
77.71 356.628 L
78.861 351.605 L
80.011 346.616 L
81.162 341.665 L
82.313 336.756 L
83.464 331.892 L
84.615 327.077 L
85.766 322.314 L
86.917 317.608 L
88.068 312.961 L
89.219 308.377 L
90.37 303.86 L
91.521 299.414 L
92.671 295.041 L
93.822 290.747 L
94.973 286.533 L
96.124 282.404 L
97.275 278.364 L
98.426 274.416 L
99.577 270.563 L
100.728 266.809 L
101.879 263.159 L
103.03 259.614 L
104.181 256.18 L
105.331 252.809 L
106.482 249.46 L
107.633 246.135 L
108.784 242.833 L
109.935 239.557 L
111.086 236.306 L
112.237 233.081 L
113.388 229.883 L
114.539 226.714 L
115.69 223.573 L
116.841 220.461 L
117.992 217.38 L
119.142 214.329 L
120.293 211.311 L
121.444 208.325 L
122.595 205.372 L
123.746 202.454 L
124.897 199.57 L
126.048 196.722 L
127.199 193.91 L
128.35 191.136 L
129.501 188.399 L
130.652 185.702 L
131.802 183.043 L
132.953 180.426 L
134.104 177.849 L
135.255 175.314 L
136.406 172.822 L
137.557 170.373 L
138.708 167.968 L
139.859 165.609 L
141.01 163.295 L
142.161 161.027 L
143.312 158.807 L
144.462 156.635 L
145.613 154.512 L
146.764 152.438 L
147.915 150.415 L
149.066 148.443 L
150.217 146.523 L
151.368 144.656 L
152.519 142.842 L
153.67 141.082 L
154.821 139.378 L
155.972 137.729 L
157.122 136.122 L
158.273 134.52 L
159.424 132.921 L
160.575 131.326 L
161.726 129.735 L
162.877 128.148 L
164.028 126.566 L
165.179 124.989 L
166.33 123.418 L
167.481 121.852 L
168.632 120.293 L
169.782 118.74 L
170.933 117.194 L
172.084 115.656 L
173.235 114.125 L
174.386 112.602 L
175.537 111.088 L
176.688 109.582 L
177.839 108.086 L
178.99 106.599 L
180.141 105.122 L
181.292 103.655 L
182.442 102.199 L
183.593 100.754 L
184.744 99.32 L
185.895 97.898 L
187.046 96.489 L
188.197 95.091 L
189.348 93.707 L
190.499 92.336 L
191.65 90.978 L
192.801 89.634 L
193.952 88.305 L
195.102 86.99 L
196.253 85.69 L
197.404 84.406 L
198.555 83.138 L
199.706 81.885 L
200.857 80.65 L
202.008 79.431 L
203.159 78.229 L
204.31 77.046 L
205.461 75.88 L
206.612 74.732 L
207.762 73.603 L
208.913 72.494 L
210.064 71.404 L
211.215 70.333 L
212.366 69.283 L
213.517 68.254 L
214.668 67.245 L
215.819 66.258 L
216.97 65.292 L
218.121 64.349 L
219.272 63.428 L
220.422 62.53 L
221.573 61.655 L
222.724 60.803 L
223.875 59.976 L
225.026 59.172 L
226.177 58.394 L
227.328 57.64 L
228.479 56.912 L
229.63 56.209 L
230.781 55.533 L
231.932 54.883 L
233.082 54.26 L
234.233 53.664 L
235.384 53.096 L
236.535 52.555 L
237.686 52.043 L
238.837 51.56 L
239.988 51.106 L
241.139 50.681 L
242.29 50.286 L
243.441 49.922 L
244.592 49.587 L
245.743 49.284 L
246.893 49.012 L
248.044 48.772 L
249.195 48.563 L
250.346 48.385 L
251.497 48.214 L
252.648 48.044 L
253.799 47.876 L
254.95 47.708 L
256.101 47.541 L
257.252 47.375 L
258.403 47.21 L
259.553 47.046 L
260.704 46.883 L
261.855 46.721 L
263.006 46.559 L
264.157 46.399 L
265.308 46.24 L
266.459 46.082 L
267.61 45.924 L
268.761 45.768 L
269.912 45.612 L
271.063 45.458 L
272.213 45.304 L
273.364 45.152 L
274.515 45 L
275.666 44.849 L
276.817 44.699 L
277.968 44.55 L
279.119 44.402 L
280.27 44.255 L
281.421 44.109 L
282.572 43.964 L
283.723 43.82 L
284.873 43.676 L
286.024 43.534 L
287.175 43.393 L
288.326 43.252 L
289.477 43.112 L
290.628 42.974 L
291.779 42.836 L
292.93 42.699 L
294.081 42.563 L
295.232 42.428 L
296.383 42.294 L
297.533 42.16 L
298.684 42.028 L
299.835 41.897 L
300.986 41.766 L
302.137 41.637 L
303.288 41.508 L
304.439 41.38 L
305.59 41.253 L
306.741 41.127 L
307.892 41.002 L
309.043 40.878 L
310.193 40.755 L
311.344 40.632 L
312.495 40.511 L
313.646 40.39 L
314.797 40.27 L
315.948 40.151 L
317.099 40.033 L
318.25 39.916 L
319.401 39.8 L
320.552 39.685 L
321.703 39.57 L
322.853 39.456 L
324.004 39.344 L
325.155 39.232 L
326.306 39.121 L
327.457 39.011 L
328.608 38.902 L
329.759 38.793 L
330.91 38.686 L
332.061 38.579 L
333.212 38.473 L
334.363 38.369 L
335.513 38.265 L
336.664 38.161 L
337.815 38.059 L
338.966 37.958 L
340.117 37.857 L
341.268 37.757 L
342.419 37.658 L
343.57 37.56 L
344.721 37.463 L
345.872 37.367 L
347.023 37.271 L
348.173 37.177 L
349.324 37.083 L
350.475 36.99 L
351.626 36.898 L
352.777 36.806 L
353.928 36.716 L
355.079 36.626 L
356.23 36.538 L
357.381 36.45 L
358.532 36.363 L
359.683 36.276 L
360.833 36.191 L
361.984 36.106 L
363.135 36.023 L
364.286 35.94 L
365.437 35.857 L
366.588 35.776 L
367.739 35.696 L
368.89 35.616 L
370.041 35.537 L
371.192 35.459 L
372.343 35.382 L
373.493 35.305 L
374.644 35.23 L
375.795 35.155 L
376.946 35.081 L
378.097 35.008 L
379.248 34.935 L
380.399 34.864 L
381.55 34.793 L
382.701 34.723 L
383.852 34.654 L
385.003 34.586 L
386.154 34.518 L
387.304 34.451 L
388.455 34.385 L
389.606 34.32 L
390.757 34.256 L
391.908 34.192 L
393.059 34.129 L
394.21 34.067 L
395.361 34.006 L
396.512 33.946 L
397.663 33.886 L
398.814 33.827 L
399.964 33.769 L
401.115 33.712 L
402.266 33.655 L
403.417 33.599 L
404.568 33.544 L
405.719 33.49 L
406.87 33.437 L
408.021 33.384 L
409.172 33.332 L
410.323 33.281 L
411.474 33.231 L
412.624 33.181 L
413.775 33.132 L
414.926 33.084 L
416.077 33.037 L
417.228 32.99 L
418.379 32.944 L
419.53 32.899 L
420.681 32.855 L
421.832 32.811 L
422.983 32.768 L
424.134 32.726 L
425.284 32.685 L
426.435 32.644 L
427.586 32.605 L
428.737 32.565 L
429.888 32.527 L
431.039 32.489 L
432.19 32.453 L
433.341 32.417 L
434.492 32.381 L
435.643 32.346 L
436.794 32.313 L
437.944 32.279 L
439.095 32.247 L
440.246 32.215 L
441.397 32.184 L
442.548 32.154 L
443.699 32.124 L
444.85 32.095 L
446.001 32.067 L
447.152 32.04 L
448.303 32.013 L
449.454 31.987 L
450.604 31.962 L
451.755 31.937 L
452.906 31.914 L
454.057 31.891 L
455.208 31.868 L
456.359 31.846 L
457.51 31.825 L
458.661 31.805 L
459.812 31.786 L
460.963 31.767 L
462.114 31.749 L
463.264 31.731 L
464.415 31.714 L
465.566 31.698 L
466.717 31.683 L
467.868 31.668 L
469.019 31.654 L
470.17 31.641 L
471.321 31.628 L
472.472 31.616 L
473.623 31.605 L
474.774 31.594 L
475.924 31.585 L
477.075 31.575 L
478.226 31.567 L
479.377 31.559 L
480.528 31.552 L
481.679 31.545 L
482.83 31.54 L
483.981 31.534 L
485.132 31.53 L
486.283 31.526 L
487.434 31.523 L
488.585 31.521 L
489.735 31.519 L
490.886 31.518 L
492.037 31.517 L
S
GR
GS
0.635 0.078 0.184 RC
[10 6] 0 setdash
2 LJ
0.5 LW
N
75.35 363.336 M
76.501 358.389 L
77.652 353.463 L
78.802 348.563 L
79.953 343.693 L
81.104 338.854 L
82.255 334.052 L
83.406 329.288 L
84.557 324.567 L
85.708 319.892 L
86.859 315.266 L
88.01 310.693 L
89.161 306.177 L
90.312 301.719 L
91.462 297.325 L
92.613 292.996 L
93.764 288.738 L
94.915 284.552 L
96.066 280.443 L
97.217 276.414 L
98.368 272.468 L
99.519 268.609 L
100.67 264.84 L
101.821 261.164 L
102.972 257.585 L
104.123 254.106 L
105.273 250.73 L
106.424 247.455 L
107.575 244.217 L
108.726 241.001 L
109.877 237.807 L
111.028 234.637 L
112.179 231.489 L
113.33 228.367 L
114.481 225.269 L
115.632 222.197 L
116.783 219.152 L
117.933 216.135 L
119.084 213.145 L
120.235 210.184 L
121.386 207.252 L
122.537 204.351 L
123.688 201.48 L
124.839 198.641 L
125.99 195.834 L
127.141 193.061 L
128.292 190.321 L
129.443 187.615 L
130.593 184.945 L
131.744 182.311 L
132.895 179.713 L
134.046 177.153 L
135.197 174.63 L
136.348 172.147 L
137.499 169.703 L
138.65 167.299 L
139.801 164.936 L
140.952 162.615 L
142.103 160.336 L
143.253 158.1 L
144.404 155.908 L
145.555 153.76 L
146.706 151.658 L
147.857 149.601 L
149.008 147.591 L
150.159 145.629 L
151.31 143.715 L
152.461 141.849 L
153.612 140.033 L
154.763 138.267 L
155.913 136.552 L
157.064 134.889 L
158.215 133.279 L
159.366 131.721 L
160.517 130.198 L
161.668 128.678 L
162.819 127.162 L
163.97 125.648 L
165.121 124.139 L
166.272 122.633 L
167.423 121.131 L
168.573 119.634 L
169.724 118.142 L
170.875 116.656 L
172.026 115.175 L
173.177 113.7 L
174.328 112.231 L
175.479 110.77 L
176.63 109.315 L
177.781 107.868 L
178.932 106.428 L
180.083 104.996 L
181.233 103.573 L
182.384 102.159 L
183.535 100.754 L
184.686 99.358 L
185.837 97.972 L
186.988 96.596 L
188.139 95.23 L
189.29 93.876 L
190.441 92.532 L
191.592 91.2 L
192.743 89.88 L
193.893 88.572 L
195.044 87.277 L
196.195 85.994 L
197.346 84.725 L
198.497 83.47 L
199.648 82.228 L
200.799 81 L
201.95 79.787 L
203.101 78.589 L
204.252 77.406 L
205.403 76.239 L
206.553 75.088 L
207.704 73.953 L
208.855 72.835 L
210.006 71.734 L
211.157 70.65 L
212.308 69.584 L
213.459 68.535 L
214.61 67.506 L
215.761 66.495 L
216.912 65.502 L
218.063 64.53 L
219.214 63.577 L
220.364 62.644 L
221.515 61.732 L
222.666 60.84 L
223.817 59.969 L
224.968 59.12 L
226.119 58.293 L
227.27 57.488 L
228.421 56.705 L
229.572 55.945 L
230.723 55.208 L
231.874 54.495 L
233.024 53.806 L
234.175 53.14 L
235.326 52.5 L
236.477 51.884 L
237.628 51.293 L
238.779 50.728 L
239.93 50.189 L
241.081 49.676 L
242.232 49.19 L
243.383 48.731 L
244.534 48.299 L
245.684 47.894 L
246.835 47.518 L
247.986 47.17 L
249.137 46.85 L
250.288 46.56 L
251.439 46.299 L
252.59 46.067 L
253.741 45.866 L
254.892 45.695 L
256.043 45.55 L
257.194 45.409 L
258.344 45.27 L
259.495 45.131 L
260.646 44.992 L
261.797 44.855 L
262.948 44.718 L
264.099 44.583 L
265.25 44.448 L
266.401 44.313 L
267.552 44.18 L
268.703 44.047 L
269.854 43.915 L
271.004 43.784 L
272.155 43.654 L
273.306 43.525 L
274.457 43.396 L
275.608 43.268 L
276.759 43.141 L
277.91 43.014 L
279.061 42.889 L
280.212 42.764 L
281.363 42.64 L
282.514 42.517 L
283.664 42.394 L
284.815 42.272 L
285.966 42.151 L
287.117 42.031 L
288.268 41.912 L
289.419 41.793 L
290.57 41.675 L
291.721 41.558 L
292.872 41.441 L
294.023 41.326 L
295.174 41.211 L
296.324 41.097 L
297.475 40.983 L
298.626 40.871 L
299.777 40.759 L
300.928 40.648 L
302.079 40.537 L
303.23 40.428 L
304.381 40.319 L
305.532 40.211 L
306.683 40.103 L
307.834 39.997 L
308.984 39.891 L
310.135 39.786 L
311.286 39.681 L
312.437 39.577 L
313.588 39.474 L
314.739 39.372 L
315.89 39.271 L
317.041 39.17 L
318.192 39.07 L
319.343 38.97 L
320.494 38.872 L
321.644 38.774 L
322.795 38.677 L
323.946 38.58 L
325.097 38.485 L
326.248 38.39 L
327.399 38.295 L
328.55 38.202 L
329.701 38.109 L
330.852 38.017 L
332.003 37.926 L
333.154 37.835 L
334.305 37.745 L
335.455 37.656 L
336.606 37.567 L
337.757 37.479 L
338.908 37.392 L
340.059 37.305 L
341.21 37.22 L
342.361 37.135 L
343.512 37.05 L
344.663 36.967 L
345.814 36.884 L
346.965 36.801 L
348.115 36.72 L
349.266 36.639 L
350.417 36.559 L
351.568 36.479 L
352.719 36.4 L
353.87 36.322 L
355.021 36.245 L
356.172 36.168 L
357.323 36.092 L
358.474 36.017 L
359.625 35.942 L
360.775 35.868 L
361.926 35.794 L
363.077 35.722 L
364.228 35.65 L
365.379 35.578 L
366.53 35.508 L
367.681 35.438 L
368.832 35.368 L
369.983 35.3 L
371.134 35.232 L
372.285 35.164 L
373.435 35.098 L
374.586 35.032 L
375.737 34.966 L
376.888 34.902 L
378.039 34.838 L
379.19 34.774 L
380.341 34.712 L
381.492 34.65 L
382.643 34.588 L
383.794 34.527 L
384.945 34.467 L
386.095 34.408 L
387.246 34.349 L
388.397 34.291 L
389.548 34.233 L
390.699 34.177 L
391.85 34.12 L
393.001 34.065 L
394.152 34.01 L
395.303 33.956 L
396.454 33.902 L
397.605 33.849 L
398.755 33.796 L
399.906 33.745 L
401.057 33.694 L
402.208 33.643 L
403.359 33.593 L
404.51 33.544 L
405.661 33.495 L
406.812 33.447 L
407.963 33.4 L
409.114 33.353 L
410.265 33.307 L
411.415 33.261 L
412.566 33.216 L
413.717 33.172 L
414.868 33.128 L
416.019 33.085 L
417.17 33.043 L
418.321 33.001 L
419.472 32.96 L
420.623 32.919 L
421.774 32.879 L
422.925 32.84 L
424.075 32.801 L
425.226 32.763 L
426.377 32.725 L
427.528 32.688 L
428.679 32.652 L
429.83 32.616 L
430.981 32.581 L
432.132 32.546 L
433.283 32.512 L
434.434 32.479 L
435.585 32.446 L
436.735 32.414 L
437.886 32.382 L
439.037 32.351 L
440.188 32.32 L
441.339 32.29 L
442.49 32.261 L
443.641 32.232 L
444.792 32.204 L
445.943 32.177 L
447.094 32.15 L
448.245 32.123 L
449.395 32.097 L
450.546 32.072 L
451.697 32.047 L
452.848 32.023 L
453.999 31.999 L
455.15 31.976 L
456.301 31.954 L
457.452 31.932 L
458.603 31.911 L
459.754 31.89 L
460.905 31.87 L
462.056 31.85 L
463.206 31.831 L
464.357 31.813 L
465.508 31.795 L
466.659 31.777 L
467.81 31.76 L
468.961 31.744 L
470.112 31.728 L
471.263 31.713 L
472.414 31.698 L
473.565 31.684 L
474.716 31.67 L
475.866 31.657 L
477.017 31.645 L
478.168 31.633 L
479.319 31.622 L
480.47 31.611 L
481.621 31.6 L
482.772 31.59 L
483.923 31.581 L
485.074 31.572 L
486.225 31.564 L
487.376 31.556 L
488.526 31.549 L
489.677 31.543 L
490.828 31.536 L
491.979 31.531 L
493.13 31.526 L
494.281 31.521 L
495.432 31.517 L
496.583 31.514 L
497.734 31.511 L
498.885 31.508 L
500.036 31.506 L
501.186 31.505 L
502.337 31.504 L
503.488 31.503 L
S
GR
GS
1 GC
N
499 366 M
499 250.5 L
344.5 250.5 L
344.5 366 L
cp
f
GR
GS
[1 0 0 1 381.5 260.25] CT
/Helvetica 13 F
GS
[1 0 0 1 0 0] CT
0 5 moveto 
1 -1 scale
(Base Run) t 
GR
GR
GS
0 0.447 0.741 RC
1 LJ
0.5 LW
N
348.5 260.25 M
378.5 260.25 L
S
GR
GS
[1 0 0 1 381.5 276.25] CT
/Helvetica 13 F
GS
[1 0 0 1 0 0] CT
0 5 moveto 
1 -1 scale
(I & B Frames) t 
GR
GR
GS
0.851 0.325 0.098 RC
1 LJ
0.5 LW
N
348.5 276.25 M
378.5 276.25 L
S
GR
GS
[1 0 0 1 381.5 292.25] CT
/Helvetica 13 F
GS
[1 0 0 1 0 0] CT
0 5 moveto 
1 -1 scale
(I Frames Only) t 
GR
GR
GS
0.929 0.694 0.125 RC
1 LJ
0.5 LW
N
348.5 292.25 M
378.5 292.25 L
S
GR
GS
[1 0 0 1 381.5 308.25] CT
/Helvetica 13 F
GS
[1 0 0 1 0 0] CT
0 5 moveto 
1 -1 scale
(B Frames Only) t 
GR
GR
GS
0.494 0.184 0.557 RC
1 LJ
0.5 LW
N
348.5 308.25 M
378.5 308.25 L
S
GR
GS
[1 0 0 1 381.5 324.25] CT
/Helvetica 13 F
GS
[1 0 0 1 0 0] CT
0 5 moveto 
1 -1 scale
(Part I & B Frames) t 
GR
GR
GS
0.467 0.675 0.188 RC
[10 6] 0 setdash
2 LJ
0.5 LW
N
348.5 324.25 M
378.5 324.25 L
S
GR
GS
[1 0 0 1 381.5 340.25] CT
/Helvetica 13 F
GS
[1 0 0 1 0 0] CT
0 5 moveto 
1 -1 scale
(Part I Frames Only) t 
GR
GR
GS
0.302 0.745 0.933 RC
[10 6] 0 setdash
2 LJ
0.5 LW
N
348.5 340.25 M
378.5 340.25 L
S
GR
GS
[1 0 0 1 381.5 356.25] CT
/Helvetica 13 F
GS
[1 0 0 1 0 0] CT
0 5 moveto 
1 -1 scale
(Part B Frames Only) t 
GR
GR
GS
0.635 0.078 0.184 RC
[10 6] 0 setdash
2 LJ
0.5 LW
N
348.5 356.25 M
378.5 356.25 L
S
GR
GS
0.149 GC
10.0 ML
0.5 LW
N
344.5 366 M
344.5 250.5 L
499 250.5 L
499 366 L
cp
S
GR
%%Trailer
%%Pages: 1
%%EOF
