%!PS-Adobe-3.0 EPSF-3.0
%%Creator: (MATLAB, The Mathworks, Inc. Version 9.11.0.1837725 \(R2021b\) Update 2. Operating System: Mac OS X)
%%Title: plots/pchip/Vlog_1080P-58ad.y4m-av1-SSIM.eps
%%CreationDate: 2022-02-03T19:13:47
%%Pages: (atend)
%%BoundingBox:    33   425   508   826
%%LanguageLevel: 3
%%EndComments
%%BeginProlog
%%BeginResource: procset (Apache XML Graphics Std ProcSet) 1.2 0
%%Version: 1.2 0
%%Copyright: (Copyright 2001-2003,2010 The Apache Software Foundation. License terms: http://www.apache.org/licenses/LICENSE-2.0)
/bd{bind def}bind def
/ld{load def}bd
/GR/grestore ld
/GS/gsave ld
/RM/rmoveto ld
/C/curveto ld
/t/show ld
/L/lineto ld
/ML/setmiterlimit ld
/CT/concat ld
/f/fill ld
/N/newpath ld
/S/stroke ld
/CC/setcmykcolor ld
/A/ashow ld
/cp/closepath ld
/RC/setrgbcolor ld
/LJ/setlinejoin ld
/GC/setgray ld
/LW/setlinewidth ld
/M/moveto ld
/re {4 2 roll M
1 index 0 rlineto
0 exch rlineto
neg 0 rlineto
cp } bd
/_ctm matrix def
/_tm matrix def
/BT { _ctm currentmatrix pop matrix _tm copy pop 0 0 moveto } bd
/ET { _ctm setmatrix } bd
/iTm { _ctm setmatrix _tm concat } bd
/Tm { _tm astore pop iTm 0 0 moveto } bd
/ux 0.0 def
/uy 0.0 def
/F {
  /Tp exch def
  /Tf exch def
  Tf findfont Tp scalefont setfont
  /cf Tf def  /cs Tp def
} bd
/ULS {currentpoint /uy exch def /ux exch def} bd
/ULE {
  /Tcx currentpoint pop def
  gsave
  newpath
  cf findfont cs scalefont dup
  /FontMatrix get 0 get /Ts exch def /FontInfo get dup
  /UnderlinePosition get Ts mul /To exch def
  /UnderlineThickness get Ts mul /Tt exch def
  ux uy To add moveto  Tcx uy To add lineto
  Tt setlinewidth stroke
  grestore
} bd
/OLE {
  /Tcx currentpoint pop def
  gsave
  newpath
  cf findfont cs scalefont dup
  /FontMatrix get 0 get /Ts exch def /FontInfo get dup
  /UnderlinePosition get Ts mul /To exch def
  /UnderlineThickness get Ts mul /Tt exch def
  ux uy To add cs add moveto Tcx uy To add cs add lineto
  Tt setlinewidth stroke
  grestore
} bd
/SOE {
  /Tcx currentpoint pop def
  gsave
  newpath
  cf findfont cs scalefont dup
  /FontMatrix get 0 get /Ts exch def /FontInfo get dup
  /UnderlinePosition get Ts mul /To exch def
  /UnderlineThickness get Ts mul /Tt exch def
  ux uy To add cs 10 mul 26 idiv add moveto Tcx uy To add cs 10 mul 26 idiv add lineto
  Tt setlinewidth stroke
  grestore
} bd
/QT {
/Y22 exch store
/X22 exch store
/Y21 exch store
/X21 exch store
currentpoint
/Y21 load 2 mul add 3 div exch
/X21 load 2 mul add 3 div exch
/X21 load 2 mul /X22 load add 3 div
/Y21 load 2 mul /Y22 load add 3 div
/X22 load /Y22 load curveto
} bd
/SSPD {
dup length /d exch dict def
{
/v exch def
/k exch def
currentpagedevice k known {
/cpdv currentpagedevice k get def
v cpdv ne {
/upd false def
/nullv v type /nulltype eq def
/nullcpdv cpdv type /nulltype eq def
nullv nullcpdv or
{
/upd true def
} {
/sametype v type cpdv type eq def
sametype {
v type /arraytype eq {
/vlen v length def
/cpdvlen cpdv length def
vlen cpdvlen eq {
0 1 vlen 1 sub {
/i exch def
/obj v i get def
/cpdobj cpdv i get def
obj cpdobj ne {
/upd true def
exit
} if
} for
} {
/upd true def
} ifelse
} {
v type /dicttype eq {
v {
/dv exch def
/dk exch def
/cpddv cpdv dk get def
dv cpddv ne {
/upd true def
exit
} if
} forall
} {
/upd true def
} ifelse
} ifelse
} if
} ifelse
upd true eq {
d k v put
} if
} if
} if
} forall
d length 0 gt {
d setpagedevice
} if
} bd
/RE { % /NewFontName [NewEncodingArray] /FontName RE -
  findfont dup length dict begin
  {
    1 index /FID ne
    {def} {pop pop} ifelse
  } forall
  /Encoding exch def
  /FontName 1 index def
  currentdict definefont pop
  end
} bind def
%%EndResource
%%BeginResource: procset (Apache XML Graphics EPS ProcSet) 1.0 0
%%Version: 1.0 0
%%Copyright: (Copyright 2002-2003 The Apache Software Foundation. License terms: http://www.apache.org/licenses/LICENSE-2.0)
/BeginEPSF { %def
/b4_Inc_state save def         % Save state for cleanup
/dict_count countdictstack def % Count objects on dict stack
/op_count count 1 sub def      % Count objects on operand stack
userdict begin                 % Push userdict on dict stack
/showpage { } def              % Redefine showpage, { } = null proc
0 setgray 0 setlinecap         % Prepare graphics state
1 setlinewidth 0 setlinejoin
10 setmiterlimit [ ] 0 setdash newpath
/languagelevel where           % If level not equal to 1 then
{pop languagelevel             % set strokeadjust and
1 ne                           % overprint to their defaults.
{false setstrokeadjust false setoverprint
} if
} if
} bd
/EndEPSF { %def
count op_count sub {pop} repeat            % Clean up stacks
countdictstack dict_count sub {end} repeat
b4_Inc_state restore
} bd
%%EndResource
%FOPBeginFontDict
%%IncludeResource: font Courier-Oblique
%%IncludeResource: font Courier-BoldOblique
%%IncludeResource: font Courier-Bold
%%IncludeResource: font ZapfDingbats
%%IncludeResource: font Symbol
%%IncludeResource: font Helvetica
%%IncludeResource: font Helvetica-Oblique
%%IncludeResource: font Helvetica-Bold
%%IncludeResource: font Helvetica-BoldOblique
%%IncludeResource: font Times-Roman
%%IncludeResource: font Times-Italic
%%IncludeResource: font Times-Bold
%%IncludeResource: font Times-BoldItalic
%%IncludeResource: font Courier
%FOPEndFontDict
%%BeginResource: encoding WinAnsiEncoding
/WinAnsiEncoding [
/.notdef /.notdef /.notdef /.notdef /.notdef
/.notdef /.notdef /.notdef /.notdef /.notdef
/.notdef /.notdef /.notdef /.notdef /.notdef
/.notdef /.notdef /.notdef /.notdef /.notdef
/.notdef /.notdef /.notdef /.notdef /.notdef
/.notdef /.notdef /.notdef /.notdef /.notdef
/.notdef /.notdef /space /exclam /quotedbl
/numbersign /dollar /percent /ampersand /quotesingle
/parenleft /parenright /asterisk /plus /comma
/hyphen /period /slash /zero /one
/two /three /four /five /six
/seven /eight /nine /colon /semicolon
/less /equal /greater /question /at
/A /B /C /D /E
/F /G /H /I /J
/K /L /M /N /O
/P /Q /R /S /T
/U /V /W /X /Y
/Z /bracketleft /backslash /bracketright /asciicircum
/underscore /quoteleft /a /b /c
/d /e /f /g /h
/i /j /k /l /m
/n /o /p /q /r
/s /t /u /v /w
/x /y /z /braceleft /bar
/braceright /asciitilde /bullet /Euro /bullet
/quotesinglbase /florin /quotedblbase /ellipsis /dagger
/daggerdbl /circumflex /perthousand /Scaron /guilsinglleft
/OE /bullet /Zcaron /bullet /bullet
/quoteleft /quoteright /quotedblleft /quotedblright /bullet
/endash /emdash /asciitilde /trademark /scaron
/guilsinglright /oe /bullet /zcaron /Ydieresis
/space /exclamdown /cent /sterling /currency
/yen /brokenbar /section /dieresis /copyright
/ordfeminine /guillemotleft /logicalnot /sfthyphen /registered
/macron /degree /plusminus /twosuperior /threesuperior
/acute /mu /paragraph /middot /cedilla
/onesuperior /ordmasculine /guillemotright /onequarter /onehalf
/threequarters /questiondown /Agrave /Aacute /Acircumflex
/Atilde /Adieresis /Aring /AE /Ccedilla
/Egrave /Eacute /Ecircumflex /Edieresis /Igrave
/Iacute /Icircumflex /Idieresis /Eth /Ntilde
/Ograve /Oacute /Ocircumflex /Otilde /Odieresis
/multiply /Oslash /Ugrave /Uacute /Ucircumflex
/Udieresis /Yacute /Thorn /germandbls /agrave
/aacute /acircumflex /atilde /adieresis /aring
/ae /ccedilla /egrave /eacute /ecircumflex
/edieresis /igrave /iacute /icircumflex /idieresis
/eth /ntilde /ograve /oacute /ocircumflex
/otilde /odieresis /divide /oslash /ugrave
/uacute /ucircumflex /udieresis /yacute /thorn
/ydieresis
] def
%%EndResource
%FOPBeginFontReencode
/Courier-Oblique findfont
dup length dict begin
  {1 index /FID ne {def} {pop pop} ifelse} forall
  /Encoding WinAnsiEncoding def
  currentdict
end
/Courier-Oblique exch definefont pop
/Courier-BoldOblique findfont
dup length dict begin
  {1 index /FID ne {def} {pop pop} ifelse} forall
  /Encoding WinAnsiEncoding def
  currentdict
end
/Courier-BoldOblique exch definefont pop
/Courier-Bold findfont
dup length dict begin
  {1 index /FID ne {def} {pop pop} ifelse} forall
  /Encoding WinAnsiEncoding def
  currentdict
end
/Courier-Bold exch definefont pop
/Helvetica findfont
dup length dict begin
  {1 index /FID ne {def} {pop pop} ifelse} forall
  /Encoding WinAnsiEncoding def
  currentdict
end
/Helvetica exch definefont pop
/Helvetica-Oblique findfont
dup length dict begin
  {1 index /FID ne {def} {pop pop} ifelse} forall
  /Encoding WinAnsiEncoding def
  currentdict
end
/Helvetica-Oblique exch definefont pop
/Helvetica-Bold findfont
dup length dict begin
  {1 index /FID ne {def} {pop pop} ifelse} forall
  /Encoding WinAnsiEncoding def
  currentdict
end
/Helvetica-Bold exch definefont pop
/Helvetica-BoldOblique findfont
dup length dict begin
  {1 index /FID ne {def} {pop pop} ifelse} forall
  /Encoding WinAnsiEncoding def
  currentdict
end
/Helvetica-BoldOblique exch definefont pop
/Times-Roman findfont
dup length dict begin
  {1 index /FID ne {def} {pop pop} ifelse} forall
  /Encoding WinAnsiEncoding def
  currentdict
end
/Times-Roman exch definefont pop
/Times-Italic findfont
dup length dict begin
  {1 index /FID ne {def} {pop pop} ifelse} forall
  /Encoding WinAnsiEncoding def
  currentdict
end
/Times-Italic exch definefont pop
/Times-Bold findfont
dup length dict begin
  {1 index /FID ne {def} {pop pop} ifelse} forall
  /Encoding WinAnsiEncoding def
  currentdict
end
/Times-Bold exch definefont pop
/Times-BoldItalic findfont
dup length dict begin
  {1 index /FID ne {def} {pop pop} ifelse} forall
  /Encoding WinAnsiEncoding def
  currentdict
end
/Times-BoldItalic exch definefont pop
/Courier findfont
dup length dict begin
  {1 index /FID ne {def} {pop pop} ifelse} forall
  /Encoding WinAnsiEncoding def
  currentdict
end
/Courier exch definefont pop
%FOPEndFontReencode
%%EndProlog
%%Page: 1 1
%%PageBoundingBox: 0 0 1120 840
%%BeginPageSetup
[1 0 0 -1 0 840] CT
%%EndPageSetup
GS
1 GC
N
0 0 1120 840 re
f
GR
GS
1 GC
N
73 374 M
507 374 L
507 31.5 L
73 31.5 L
cp
f
GR
GS
0.149 GC
2 setlinecap
1 LJ
0.5 LW
N
73 374 M
507 374 L
S
GR
GS
0.149 GC
2 setlinecap
1 LJ
0.5 LW
N
73 31.5 M
507 31.5 L
S
GR
GS
0.149 GC
2 setlinecap
1 LJ
0.5 LW
N
94.338 374 M
94.338 369.66 L
S
GR
GS
0.149 GC
2 setlinecap
1 LJ
0.5 LW
N
141.066 374 M
141.066 369.66 L
S
GR
GS
0.149 GC
2 setlinecap
1 LJ
0.5 LW
N
187.794 374 M
187.794 369.66 L
S
GR
GS
0.149 GC
2 setlinecap
1 LJ
0.5 LW
N
234.522 374 M
234.522 369.66 L
S
GR
GS
0.149 GC
2 setlinecap
1 LJ
0.5 LW
N
281.25 374 M
281.25 369.66 L
S
GR
GS
0.149 GC
2 setlinecap
1 LJ
0.5 LW
N
327.978 374 M
327.978 369.66 L
S
GR
GS
0.149 GC
2 setlinecap
1 LJ
0.5 LW
N
374.706 374 M
374.706 369.66 L
S
GR
GS
0.149 GC
2 setlinecap
1 LJ
0.5 LW
N
421.434 374 M
421.434 369.66 L
S
GR
GS
0.149 GC
2 setlinecap
1 LJ
0.5 LW
N
468.161 374 M
468.161 369.66 L
S
GR
GS
0.149 GC
2 setlinecap
1 LJ
0.5 LW
N
94.338 31.5 M
94.338 35.84 L
S
GR
GS
0.149 GC
2 setlinecap
1 LJ
0.5 LW
N
141.066 31.5 M
141.066 35.84 L
S
GR
GS
0.149 GC
2 setlinecap
1 LJ
0.5 LW
N
187.794 31.5 M
187.794 35.84 L
S
GR
GS
0.149 GC
2 setlinecap
1 LJ
0.5 LW
N
234.522 31.5 M
234.522 35.84 L
S
GR
GS
0.149 GC
2 setlinecap
1 LJ
0.5 LW
N
281.25 31.5 M
281.25 35.84 L
S
GR
GS
0.149 GC
2 setlinecap
1 LJ
0.5 LW
N
327.978 31.5 M
327.978 35.84 L
S
GR
GS
0.149 GC
2 setlinecap
1 LJ
0.5 LW
N
374.706 31.5 M
374.706 35.84 L
S
GR
GS
0.149 GC
2 setlinecap
1 LJ
0.5 LW
N
421.434 31.5 M
421.434 35.84 L
S
GR
GS
0.149 GC
2 setlinecap
1 LJ
0.5 LW
N
468.161 31.5 M
468.161 35.84 L
S
GR
GS
0.149 GC
2 setlinecap
1 LJ
0.5 LW
N
75.647 374 M
75.647 371.83 L
S
GR
GS
0.149 GC
2 setlinecap
1 LJ
0.5 LW
N
84.992 374 M
84.992 371.83 L
S
GR
GS
0.149 GC
2 setlinecap
1 LJ
0.5 LW
N
103.683 374 M
103.683 371.83 L
S
GR
GS
0.149 GC
2 setlinecap
1 LJ
0.5 LW
N
113.029 374 M
113.029 371.83 L
S
GR
GS
0.149 GC
2 setlinecap
1 LJ
0.5 LW
N
122.375 374 M
122.375 371.83 L
S
GR
GS
0.149 GC
2 setlinecap
1 LJ
0.5 LW
N
131.72 374 M
131.72 371.83 L
S
GR
GS
0.149 GC
2 setlinecap
1 LJ
0.5 LW
N
150.411 374 M
150.411 371.83 L
S
GR
GS
0.149 GC
2 setlinecap
1 LJ
0.5 LW
N
159.757 374 M
159.757 371.83 L
S
GR
GS
0.149 GC
2 setlinecap
1 LJ
0.5 LW
N
169.103 374 M
169.103 371.83 L
S
GR
GS
0.149 GC
2 setlinecap
1 LJ
0.5 LW
N
178.448 374 M
178.448 371.83 L
S
GR
GS
0.149 GC
2 setlinecap
1 LJ
0.5 LW
N
197.139 374 M
197.139 371.83 L
S
GR
GS
0.149 GC
2 setlinecap
1 LJ
0.5 LW
N
206.485 374 M
206.485 371.83 L
S
GR
GS
0.149 GC
2 setlinecap
1 LJ
0.5 LW
N
215.831 374 M
215.831 371.83 L
S
GR
GS
0.149 GC
2 setlinecap
1 LJ
0.5 LW
N
225.176 374 M
225.176 371.83 L
S
GR
GS
0.149 GC
2 setlinecap
1 LJ
0.5 LW
N
243.867 374 M
243.867 371.83 L
S
GR
GS
0.149 GC
2 setlinecap
1 LJ
0.5 LW
N
253.213 374 M
253.213 371.83 L
S
GR
GS
0.149 GC
2 setlinecap
1 LJ
0.5 LW
N
262.558 374 M
262.558 371.83 L
S
GR
GS
0.149 GC
2 setlinecap
1 LJ
0.5 LW
N
271.904 374 M
271.904 371.83 L
S
GR
GS
0.149 GC
2 setlinecap
1 LJ
0.5 LW
N
290.595 374 M
290.595 371.83 L
S
GR
GS
0.149 GC
2 setlinecap
1 LJ
0.5 LW
N
299.941 374 M
299.941 371.83 L
S
GR
GS
0.149 GC
2 setlinecap
1 LJ
0.5 LW
N
309.286 374 M
309.286 371.83 L
S
GR
GS
0.149 GC
2 setlinecap
1 LJ
0.5 LW
N
318.632 374 M
318.632 371.83 L
S
GR
GS
0.149 GC
2 setlinecap
1 LJ
0.5 LW
N
337.323 374 M
337.323 371.83 L
S
GR
GS
0.149 GC
2 setlinecap
1 LJ
0.5 LW
N
346.669 374 M
346.669 371.83 L
S
GR
GS
0.149 GC
2 setlinecap
1 LJ
0.5 LW
N
356.014 374 M
356.014 371.83 L
S
GR
GS
0.149 GC
2 setlinecap
1 LJ
0.5 LW
N
365.36 374 M
365.36 371.83 L
S
GR
GS
0.149 GC
2 setlinecap
1 LJ
0.5 LW
N
384.051 374 M
384.051 371.83 L
S
GR
GS
0.149 GC
2 setlinecap
1 LJ
0.5 LW
N
393.397 374 M
393.397 371.83 L
S
GR
GS
0.149 GC
2 setlinecap
1 LJ
0.5 LW
N
402.742 374 M
402.742 371.83 L
S
GR
GS
0.149 GC
2 setlinecap
1 LJ
0.5 LW
N
412.088 374 M
412.088 371.83 L
S
GR
GS
0.149 GC
2 setlinecap
1 LJ
0.5 LW
N
430.779 374 M
430.779 371.83 L
S
GR
GS
0.149 GC
2 setlinecap
1 LJ
0.5 LW
N
440.125 374 M
440.125 371.83 L
S
GR
GS
0.149 GC
2 setlinecap
1 LJ
0.5 LW
N
449.47 374 M
449.47 371.83 L
S
GR
GS
0.149 GC
2 setlinecap
1 LJ
0.5 LW
N
458.816 374 M
458.816 371.83 L
S
GR
GS
0.149 GC
2 setlinecap
1 LJ
0.5 LW
N
477.507 374 M
477.507 371.83 L
S
GR
GS
0.149 GC
2 setlinecap
1 LJ
0.5 LW
N
486.853 374 M
486.853 371.83 L
S
GR
GS
0.149 GC
2 setlinecap
1 LJ
0.5 LW
N
496.198 374 M
496.198 371.83 L
S
GR
GS
0.149 GC
2 setlinecap
1 LJ
0.5 LW
N
505.544 374 M
505.544 371.83 L
S
GR
GS
0.149 GC
2 setlinecap
1 LJ
0.5 LW
N
75.647 31.5 M
75.647 33.67 L
S
GR
GS
0.149 GC
2 setlinecap
1 LJ
0.5 LW
N
84.992 31.5 M
84.992 33.67 L
S
GR
GS
0.149 GC
2 setlinecap
1 LJ
0.5 LW
N
103.683 31.5 M
103.683 33.67 L
S
GR
GS
0.149 GC
2 setlinecap
1 LJ
0.5 LW
N
113.029 31.5 M
113.029 33.67 L
S
GR
GS
0.149 GC
2 setlinecap
1 LJ
0.5 LW
N
122.375 31.5 M
122.375 33.67 L
S
GR
GS
0.149 GC
2 setlinecap
1 LJ
0.5 LW
N
131.72 31.5 M
131.72 33.67 L
S
GR
GS
0.149 GC
2 setlinecap
1 LJ
0.5 LW
N
150.411 31.5 M
150.411 33.67 L
S
GR
GS
0.149 GC
2 setlinecap
1 LJ
0.5 LW
N
159.757 31.5 M
159.757 33.67 L
S
GR
GS
0.149 GC
2 setlinecap
1 LJ
0.5 LW
N
169.103 31.5 M
169.103 33.67 L
S
GR
GS
0.149 GC
2 setlinecap
1 LJ
0.5 LW
N
178.448 31.5 M
178.448 33.67 L
S
GR
GS
0.149 GC
2 setlinecap
1 LJ
0.5 LW
N
197.139 31.5 M
197.139 33.67 L
S
GR
GS
0.149 GC
2 setlinecap
1 LJ
0.5 LW
N
206.485 31.5 M
206.485 33.67 L
S
GR
GS
0.149 GC
2 setlinecap
1 LJ
0.5 LW
N
215.831 31.5 M
215.831 33.67 L
S
GR
GS
0.149 GC
2 setlinecap
1 LJ
0.5 LW
N
225.176 31.5 M
225.176 33.67 L
S
GR
GS
0.149 GC
2 setlinecap
1 LJ
0.5 LW
N
243.867 31.5 M
243.867 33.67 L
S
GR
GS
0.149 GC
2 setlinecap
1 LJ
0.5 LW
N
253.213 31.5 M
253.213 33.67 L
S
GR
GS
0.149 GC
2 setlinecap
1 LJ
0.5 LW
N
262.558 31.5 M
262.558 33.67 L
S
GR
GS
0.149 GC
2 setlinecap
1 LJ
0.5 LW
N
271.904 31.5 M
271.904 33.67 L
S
GR
GS
0.149 GC
2 setlinecap
1 LJ
0.5 LW
N
290.595 31.5 M
290.595 33.67 L
S
GR
GS
0.149 GC
2 setlinecap
1 LJ
0.5 LW
N
299.941 31.5 M
299.941 33.67 L
S
GR
GS
0.149 GC
2 setlinecap
1 LJ
0.5 LW
N
309.286 31.5 M
309.286 33.67 L
S
GR
GS
0.149 GC
2 setlinecap
1 LJ
0.5 LW
N
318.632 31.5 M
318.632 33.67 L
S
GR
GS
0.149 GC
2 setlinecap
1 LJ
0.5 LW
N
337.323 31.5 M
337.323 33.67 L
S
GR
GS
0.149 GC
2 setlinecap
1 LJ
0.5 LW
N
346.669 31.5 M
346.669 33.67 L
S
GR
GS
0.149 GC
2 setlinecap
1 LJ
0.5 LW
N
356.014 31.5 M
356.014 33.67 L
S
GR
GS
0.149 GC
2 setlinecap
1 LJ
0.5 LW
N
365.36 31.5 M
365.36 33.67 L
S
GR
GS
0.149 GC
2 setlinecap
1 LJ
0.5 LW
N
384.051 31.5 M
384.051 33.67 L
S
GR
GS
0.149 GC
2 setlinecap
1 LJ
0.5 LW
N
393.397 31.5 M
393.397 33.67 L
S
GR
GS
0.149 GC
2 setlinecap
1 LJ
0.5 LW
N
402.742 31.5 M
402.742 33.67 L
S
GR
GS
0.149 GC
2 setlinecap
1 LJ
0.5 LW
N
412.088 31.5 M
412.088 33.67 L
S
GR
GS
0.149 GC
2 setlinecap
1 LJ
0.5 LW
N
430.779 31.5 M
430.779 33.67 L
S
GR
GS
0.149 GC
2 setlinecap
1 LJ
0.5 LW
N
440.125 31.5 M
440.125 33.67 L
S
GR
GS
0.149 GC
2 setlinecap
1 LJ
0.5 LW
N
449.47 31.5 M
449.47 33.67 L
S
GR
GS
0.149 GC
2 setlinecap
1 LJ
0.5 LW
N
458.816 31.5 M
458.816 33.67 L
S
GR
GS
0.149 GC
2 setlinecap
1 LJ
0.5 LW
N
477.507 31.5 M
477.507 33.67 L
S
GR
GS
0.149 GC
2 setlinecap
1 LJ
0.5 LW
N
486.853 31.5 M
486.853 33.67 L
S
GR
GS
0.149 GC
2 setlinecap
1 LJ
0.5 LW
N
496.198 31.5 M
496.198 33.67 L
S
GR
GS
0.149 GC
2 setlinecap
1 LJ
0.5 LW
N
505.544 31.5 M
505.544 33.67 L
S
GR
GS
[1 0 0 1 94.3378 378.79999] CT
0.149 GC
/Helvetica 14 F
GS
[1 0 0 1 0 0] CT
-16 14 moveto 
1 -1 scale
(1000) t 
GR
GR
GS
[1 0 0 1 141.06577 378.79999] CT
0.149 GC
/Helvetica 14 F
GS
[1 0 0 1 0 0] CT
-16 14 moveto 
1 -1 scale
(2000) t 
GR
GR
GS
[1 0 0 1 187.79372 378.79999] CT
0.149 GC
/Helvetica 14 F
GS
[1 0 0 1 0 0] CT
-16 14 moveto 
1 -1 scale
(3000) t 
GR
GR
GS
[1 0 0 1 234.52168 378.79999] CT
0.149 GC
/Helvetica 14 F
GS
[1 0 0 1 0 0] CT
-16 14 moveto 
1 -1 scale
(4000) t 
GR
GR
GS
[1 0 0 1 281.24963 378.79999] CT
0.149 GC
/Helvetica 14 F
GS
[1 0 0 1 0 0] CT
-16 14 moveto 
1 -1 scale
(5000) t 
GR
GR
GS
[1 0 0 1 327.9776 378.79999] CT
0.149 GC
/Helvetica 14 F
GS
[1 0 0 1 0 0] CT
-16 14 moveto 
1 -1 scale
(6000) t 
GR
GR
GS
[1 0 0 1 374.70557 378.79999] CT
0.149 GC
/Helvetica 14 F
GS
[1 0 0 1 0 0] CT
-16 14 moveto 
1 -1 scale
(7000) t 
GR
GR
GS
[1 0 0 1 421.43353 378.79999] CT
0.149 GC
/Helvetica 14 F
GS
[1 0 0 1 0 0] CT
-16 14 moveto 
1 -1 scale
(8000) t 
GR
GR
GS
[1 0 0 1 468.1615 378.79999] CT
0.149 GC
/Helvetica 14 F
GS
[1 0 0 1 0 0] CT
-16 14 moveto 
1 -1 scale
(9000) t 
GR
GR
GS
[1 0 0 1 290.00021 396.29999] CT
0.149 GC
/Helvetica 15.4 F
GS
[1 0 0 1 0 0] CT
-42 15 moveto 
1 -1 scale
(Bitrate\(kb/s\)) t 
GR
GR
GS
0.149 GC
2 setlinecap
1 LJ
0.5 LW
N
73 374 M
73 31.5 L
S
GR
GS
0.149 GC
2 setlinecap
1 LJ
0.5 LW
N
507 374 M
507 31.5 L
S
GR
GS
0.149 GC
2 setlinecap
1 LJ
0.5 LW
N
73 358.491 M
77.34 358.491 L
S
GR
GS
0.149 GC
2 setlinecap
1 LJ
0.5 LW
N
73 316.512 M
77.34 316.512 L
S
GR
GS
0.149 GC
2 setlinecap
1 LJ
0.5 LW
N
73 274.534 M
77.34 274.534 L
S
GR
GS
0.149 GC
2 setlinecap
1 LJ
0.5 LW
N
73 232.555 M
77.34 232.555 L
S
GR
GS
0.149 GC
2 setlinecap
1 LJ
0.5 LW
N
73 190.577 M
77.34 190.577 L
S
GR
GS
0.149 GC
2 setlinecap
1 LJ
0.5 LW
N
73 148.598 M
77.34 148.598 L
S
GR
GS
0.149 GC
2 setlinecap
1 LJ
0.5 LW
N
73 106.62 M
77.34 106.62 L
S
GR
GS
0.149 GC
2 setlinecap
1 LJ
0.5 LW
N
73 64.641 M
77.34 64.641 L
S
GR
GS
0.149 GC
2 setlinecap
1 LJ
0.5 LW
N
507 358.491 M
502.66 358.491 L
S
GR
GS
0.149 GC
2 setlinecap
1 LJ
0.5 LW
N
507 316.512 M
502.66 316.512 L
S
GR
GS
0.149 GC
2 setlinecap
1 LJ
0.5 LW
N
507 274.534 M
502.66 274.534 L
S
GR
GS
0.149 GC
2 setlinecap
1 LJ
0.5 LW
N
507 232.555 M
502.66 232.555 L
S
GR
GS
0.149 GC
2 setlinecap
1 LJ
0.5 LW
N
507 190.577 M
502.66 190.577 L
S
GR
GS
0.149 GC
2 setlinecap
1 LJ
0.5 LW
N
507 148.598 M
502.66 148.598 L
S
GR
GS
0.149 GC
2 setlinecap
1 LJ
0.5 LW
N
507 106.62 M
502.66 106.62 L
S
GR
GS
0.149 GC
2 setlinecap
1 LJ
0.5 LW
N
507 64.641 M
502.66 64.641 L
S
GR
GS
0.149 GC
2 setlinecap
1 LJ
0.5 LW
N
73 368.985 M
75.17 368.985 L
S
GR
GS
0.149 GC
2 setlinecap
1 LJ
0.5 LW
N
73 347.996 M
75.17 347.996 L
S
GR
GS
0.149 GC
2 setlinecap
1 LJ
0.5 LW
N
73 337.501 M
75.17 337.501 L
S
GR
GS
0.149 GC
2 setlinecap
1 LJ
0.5 LW
N
73 327.007 M
75.17 327.007 L
S
GR
GS
0.149 GC
2 setlinecap
1 LJ
0.5 LW
N
73 306.018 M
75.17 306.018 L
S
GR
GS
0.149 GC
2 setlinecap
1 LJ
0.5 LW
N
73 295.523 M
75.17 295.523 L
S
GR
GS
0.149 GC
2 setlinecap
1 LJ
0.5 LW
N
73 285.028 M
75.17 285.028 L
S
GR
GS
0.149 GC
2 setlinecap
1 LJ
0.5 LW
N
73 264.039 M
75.17 264.039 L
S
GR
GS
0.149 GC
2 setlinecap
1 LJ
0.5 LW
N
73 253.544 M
75.17 253.544 L
S
GR
GS
0.149 GC
2 setlinecap
1 LJ
0.5 LW
N
73 243.05 M
75.17 243.05 L
S
GR
GS
0.149 GC
2 setlinecap
1 LJ
0.5 LW
N
73 222.061 M
75.17 222.061 L
S
GR
GS
0.149 GC
2 setlinecap
1 LJ
0.5 LW
N
73 211.566 M
75.17 211.566 L
S
GR
GS
0.149 GC
2 setlinecap
1 LJ
0.5 LW
N
73 201.071 M
75.17 201.071 L
S
GR
GS
0.149 GC
2 setlinecap
1 LJ
0.5 LW
N
73 180.082 M
75.17 180.082 L
S
GR
GS
0.149 GC
2 setlinecap
1 LJ
0.5 LW
N
73 169.587 M
75.17 169.587 L
S
GR
GS
0.149 GC
2 setlinecap
1 LJ
0.5 LW
N
73 159.093 M
75.17 159.093 L
S
GR
GS
0.149 GC
2 setlinecap
1 LJ
0.5 LW
N
73 138.104 M
75.17 138.104 L
S
GR
GS
0.149 GC
2 setlinecap
1 LJ
0.5 LW
N
73 127.609 M
75.17 127.609 L
S
GR
GS
0.149 GC
2 setlinecap
1 LJ
0.5 LW
N
73 117.114 M
75.17 117.114 L
S
GR
GS
0.149 GC
2 setlinecap
1 LJ
0.5 LW
N
73 96.125 M
75.17 96.125 L
S
GR
GS
0.149 GC
2 setlinecap
1 LJ
0.5 LW
N
73 85.631 M
75.17 85.631 L
S
GR
GS
0.149 GC
2 setlinecap
1 LJ
0.5 LW
N
73 75.136 M
75.17 75.136 L
S
GR
GS
0.149 GC
2 setlinecap
1 LJ
0.5 LW
N
73 54.147 M
75.17 54.147 L
S
GR
GS
0.149 GC
2 setlinecap
1 LJ
0.5 LW
N
73 43.652 M
75.17 43.652 L
S
GR
GS
0.149 GC
2 setlinecap
1 LJ
0.5 LW
N
73 33.157 M
75.17 33.157 L
S
GR
GS
0.149 GC
2 setlinecap
1 LJ
0.5 LW
N
507 368.985 M
504.83 368.985 L
S
GR
GS
0.149 GC
2 setlinecap
1 LJ
0.5 LW
N
507 347.996 M
504.83 347.996 L
S
GR
GS
0.149 GC
2 setlinecap
1 LJ
0.5 LW
N
507 337.501 M
504.83 337.501 L
S
GR
GS
0.149 GC
2 setlinecap
1 LJ
0.5 LW
N
507 327.007 M
504.83 327.007 L
S
GR
GS
0.149 GC
2 setlinecap
1 LJ
0.5 LW
N
507 306.018 M
504.83 306.018 L
S
GR
GS
0.149 GC
2 setlinecap
1 LJ
0.5 LW
N
507 295.523 M
504.83 295.523 L
S
GR
GS
0.149 GC
2 setlinecap
1 LJ
0.5 LW
N
507 285.028 M
504.83 285.028 L
S
GR
GS
0.149 GC
2 setlinecap
1 LJ
0.5 LW
N
507 264.039 M
504.83 264.039 L
S
GR
GS
0.149 GC
2 setlinecap
1 LJ
0.5 LW
N
507 253.544 M
504.83 253.544 L
S
GR
GS
0.149 GC
2 setlinecap
1 LJ
0.5 LW
N
507 243.05 M
504.83 243.05 L
S
GR
GS
0.149 GC
2 setlinecap
1 LJ
0.5 LW
N
507 222.061 M
504.83 222.061 L
S
GR
GS
0.149 GC
2 setlinecap
1 LJ
0.5 LW
N
507 211.566 M
504.83 211.566 L
S
GR
GS
0.149 GC
2 setlinecap
1 LJ
0.5 LW
N
507 201.071 M
504.83 201.071 L
S
GR
GS
0.149 GC
2 setlinecap
1 LJ
0.5 LW
N
507 180.082 M
504.83 180.082 L
S
GR
GS
0.149 GC
2 setlinecap
1 LJ
0.5 LW
N
507 169.587 M
504.83 169.587 L
S
GR
GS
0.149 GC
2 setlinecap
1 LJ
0.5 LW
N
507 159.093 M
504.83 159.093 L
S
GR
GS
0.149 GC
2 setlinecap
1 LJ
0.5 LW
N
507 138.104 M
504.83 138.104 L
S
GR
GS
0.149 GC
2 setlinecap
1 LJ
0.5 LW
N
507 127.609 M
504.83 127.609 L
S
GR
GS
0.149 GC
2 setlinecap
1 LJ
0.5 LW
N
507 117.114 M
504.83 117.114 L
S
GR
GS
0.149 GC
2 setlinecap
1 LJ
0.5 LW
N
507 96.125 M
504.83 96.125 L
S
GR
GS
0.149 GC
2 setlinecap
1 LJ
0.5 LW
N
507 85.631 M
504.83 85.631 L
S
GR
GS
0.149 GC
2 setlinecap
1 LJ
0.5 LW
N
507 75.136 M
504.83 75.136 L
S
GR
GS
0.149 GC
2 setlinecap
1 LJ
0.5 LW
N
507 54.147 M
504.83 54.147 L
S
GR
GS
0.149 GC
2 setlinecap
1 LJ
0.5 LW
N
507 43.652 M
504.83 43.652 L
S
GR
GS
0.149 GC
2 setlinecap
1 LJ
0.5 LW
N
507 33.157 M
504.83 33.157 L
S
GR
GS
[1 0 0 1 68.2 358.4906] CT
0.149 GC
/Helvetica 14 F
GS
[1 0 0 1 0 0] CT
-16 5.5 moveto 
1 -1 scale
(12) t 
GR
GR
GS
[1 0 0 1 68.2 316.51212] CT
0.149 GC
/Helvetica 14 F
GS
[1 0 0 1 0 0] CT
-16 5.5 moveto 
1 -1 scale
(14) t 
GR
GR
GS
[1 0 0 1 68.2 274.53366] CT
0.149 GC
/Helvetica 14 F
GS
[1 0 0 1 0 0] CT
-16 5.5 moveto 
1 -1 scale
(16) t 
GR
GR
GS
[1 0 0 1 68.2 232.55519] CT
0.149 GC
/Helvetica 14 F
GS
[1 0 0 1 0 0] CT
-16 5.5 moveto 
1 -1 scale
(18) t 
GR
GR
GS
[1 0 0 1 68.2 190.57674] CT
0.149 GC
/Helvetica 14 F
GS
[1 0 0 1 0 0] CT
-16 5.5 moveto 
1 -1 scale
(20) t 
GR
GR
GS
[1 0 0 1 68.2 148.59827] CT
0.149 GC
/Helvetica 14 F
GS
[1 0 0 1 0 0] CT
-16 5.5 moveto 
1 -1 scale
(22) t 
GR
GR
GS
[1 0 0 1 68.2 106.6198] CT
0.149 GC
/Helvetica 14 F
GS
[1 0 0 1 0 0] CT
-16 5.5 moveto 
1 -1 scale
(24) t 
GR
GR
GS
[1 0 0 1 68.2 64.64133] CT
0.149 GC
/Helvetica 14 F
GS
[1 0 0 1 0 0] CT
-16 5.5 moveto 
1 -1 scale
(26) t 
GR
GR
GS
[0 -1 1 0 49.2 202.74985] CT
0.149 GC
/Helvetica 15.4 F
GS
[1 0 0 1 0 0] CT
-35 -4 moveto 
1 -1 scale
(SSIM \(dB\)) t 
GR
GR
GS
[1 0 0 1 290.00027 29.57502] CT
/Helvetica-Bold 15.4 F
GS
[1 0 0 1 0 0] CT
-96.5 -4 moveto 
1 -1 scale
(Vlog_1080P-58ad.y4m-av1) t 
GR
GR
GS
0 0.447 0.741 RC
1 LJ
0.5 LW
N
80.841 353.681 M
81.776 351.671 L
82.71 349.666 L
83.645 347.668 L
84.579 345.677 L
85.514 343.695 L
86.448 341.721 L
87.383 339.758 L
88.317 337.806 L
89.252 335.865 L
90.187 333.938 L
91.121 332.024 L
92.056 330.126 L
92.99 328.242 L
93.925 326.376 L
94.859 324.527 L
95.794 322.696 L
96.729 320.885 L
97.663 319.094 L
98.598 317.325 L
99.532 315.577 L
100.467 313.853 L
101.401 312.153 L
102.336 310.477 L
103.27 308.828 L
104.205 307.205 L
105.14 305.61 L
106.074 304.043 L
107.009 302.505 L
107.943 300.979 L
108.878 299.461 L
109.812 297.951 L
110.747 296.449 L
111.681 294.956 L
112.616 293.471 L
113.551 291.994 L
114.485 290.526 L
115.42 289.066 L
116.354 287.614 L
117.289 286.171 L
118.223 284.737 L
119.158 283.311 L
120.092 281.895 L
121.027 280.486 L
121.962 279.087 L
122.896 277.697 L
123.831 276.315 L
124.765 274.943 L
125.7 273.579 L
126.634 272.225 L
127.569 270.879 L
128.504 269.543 L
129.438 268.217 L
130.373 266.899 L
131.307 265.591 L
132.242 264.292 L
133.176 263.003 L
134.111 261.724 L
135.045 260.454 L
135.98 259.193 L
136.915 257.942 L
137.849 256.702 L
138.784 255.47 L
139.718 254.249 L
140.653 253.038 L
141.587 251.836 L
142.522 250.645 L
143.456 249.464 L
144.391 248.293 L
145.326 247.132 L
146.26 245.981 L
147.195 244.84 L
148.129 243.71 L
149.064 242.591 L
149.998 241.482 L
150.933 240.383 L
151.867 239.295 L
152.802 238.217 L
153.737 237.151 L
154.671 236.095 L
155.606 235.049 L
156.54 234.015 L
157.475 232.992 L
158.409 231.979 L
159.344 230.978 L
160.279 229.987 L
161.213 229.008 L
162.148 228.035 L
163.082 227.067 L
164.017 226.104 L
164.951 225.146 L
165.886 224.192 L
166.82 223.244 L
167.755 222.3 L
168.69 221.361 L
169.624 220.426 L
170.559 219.496 L
171.493 218.571 L
172.428 217.651 L
173.362 216.735 L
174.297 215.824 L
175.231 214.918 L
176.166 214.016 L
177.101 213.119 L
178.035 212.226 L
178.97 211.337 L
179.904 210.454 L
180.839 209.574 L
181.773 208.7 L
182.708 207.829 L
183.643 206.963 L
184.577 206.101 L
185.512 205.244 L
186.446 204.391 L
187.381 203.543 L
188.315 202.699 L
189.25 201.859 L
190.184 201.023 L
191.119 200.192 L
192.054 199.364 L
192.988 198.541 L
193.923 197.723 L
194.857 196.908 L
195.792 196.097 L
196.726 195.291 L
197.661 194.489 L
198.595 193.691 L
199.53 192.897 L
200.465 192.107 L
201.399 191.321 L
202.334 190.539 L
203.268 189.761 L
204.203 188.987 L
205.137 188.216 L
206.072 187.45 L
207.006 186.688 L
207.941 185.93 L
208.876 185.175 L
209.81 184.424 L
210.745 183.677 L
211.679 182.934 L
212.614 182.195 L
213.548 181.459 L
214.483 180.728 L
215.418 180 L
216.352 179.275 L
217.287 178.554 L
218.221 177.837 L
219.156 177.124 L
220.09 176.414 L
221.025 175.708 L
221.959 175.005 L
222.894 174.306 L
223.829 173.61 L
224.763 172.918 L
225.698 172.23 L
226.632 171.545 L
227.567 170.863 L
228.501 170.185 L
229.436 169.51 L
230.37 168.839 L
231.305 168.171 L
232.24 167.506 L
233.174 166.845 L
234.109 166.186 L
235.043 165.532 L
235.978 164.88 L
236.912 164.232 L
237.847 163.587 L
238.782 162.945 L
239.716 162.306 L
240.651 161.671 L
241.585 161.038 L
242.52 160.409 L
243.454 159.783 L
244.389 159.16 L
245.323 158.54 L
246.258 157.923 L
247.193 157.309 L
248.127 156.698 L
249.062 156.09 L
249.996 155.485 L
250.931 154.883 L
251.865 154.284 L
252.8 153.688 L
253.734 153.094 L
254.669 152.504 L
255.604 151.915 L
256.538 151.328 L
257.473 150.741 L
258.407 150.154 L
259.342 149.567 L
260.276 148.981 L
261.211 148.396 L
262.145 147.81 L
263.08 147.226 L
264.015 146.641 L
264.949 146.057 L
265.884 145.474 L
266.818 144.891 L
267.753 144.308 L
268.687 143.726 L
269.622 143.145 L
270.557 142.564 L
271.491 141.983 L
272.426 141.403 L
273.36 140.823 L
274.295 140.244 L
275.229 139.666 L
276.164 139.087 L
277.098 138.51 L
278.033 137.933 L
278.968 137.357 L
279.902 136.781 L
280.837 136.205 L
281.771 135.631 L
282.706 135.057 L
283.64 134.483 L
284.575 133.91 L
285.509 133.338 L
286.444 132.766 L
287.379 132.195 L
288.313 131.625 L
289.248 131.055 L
290.182 130.486 L
291.117 129.917 L
292.051 129.349 L
292.986 128.782 L
293.921 128.215 L
294.855 127.65 L
295.79 127.084 L
296.724 126.52 L
297.659 125.956 L
298.593 125.393 L
299.528 124.831 L
300.462 124.269 L
301.397 123.708 L
302.332 123.148 L
303.266 122.589 L
304.201 122.03 L
305.135 121.472 L
306.07 120.915 L
307.004 120.359 L
307.939 119.803 L
308.873 119.248 L
309.808 118.694 L
310.743 118.141 L
311.677 117.589 L
312.612 117.037 L
313.546 116.486 L
314.481 115.937 L
315.415 115.388 L
316.35 114.839 L
317.284 114.292 L
318.219 113.746 L
319.154 113.2 L
320.088 112.655 L
321.023 112.112 L
321.957 111.569 L
322.892 111.027 L
323.826 110.485 L
324.761 109.945 L
325.695 109.406 L
326.63 108.868 L
327.565 108.33 L
328.499 107.794 L
329.434 107.258 L
330.368 106.724 L
331.303 106.19 L
332.237 105.658 L
333.172 105.126 L
334.107 104.596 L
335.041 104.066 L
335.976 103.537 L
336.91 103.01 L
337.845 102.483 L
338.779 101.958 L
339.714 101.433 L
340.648 100.91 L
341.583 100.387 L
342.518 99.866 L
343.452 99.346 L
344.387 98.827 L
345.321 98.309 L
346.256 97.792 L
347.19 97.276 L
348.125 96.761 L
349.059 96.247 L
349.994 95.735 L
350.929 95.223 L
351.863 94.713 L
352.798 94.204 L
353.732 93.696 L
354.667 93.189 L
355.601 92.683 L
356.536 92.178 L
357.471 91.675 L
358.405 91.173 L
359.34 90.672 L
360.274 90.172 L
361.209 89.674 L
362.143 89.176 L
363.078 88.68 L
364.012 88.185 L
364.947 87.692 L
365.882 87.199 L
366.816 86.708 L
367.751 86.218 L
368.685 85.729 L
369.62 85.242 L
370.554 84.756 L
371.489 84.271 L
372.423 83.788 L
373.358 83.305 L
374.293 82.825 L
375.227 82.345 L
376.162 81.867 L
377.096 81.39 L
378.031 80.914 L
378.965 80.44 L
379.9 79.967 L
380.835 79.496 L
381.769 79.026 L
382.704 78.557 L
383.638 78.09 L
384.573 77.624 L
385.507 77.159 L
386.442 76.696 L
387.376 76.234 L
388.311 75.774 L
389.246 75.315 L
390.18 74.858 L
391.115 74.402 L
392.049 73.947 L
392.984 73.494 L
393.918 73.043 L
394.853 72.593 L
395.787 72.144 L
396.722 71.697 L
397.657 71.251 L
398.591 70.807 L
399.526 70.365 L
400.46 69.923 L
401.395 69.484 L
402.329 69.046 L
403.264 68.609 L
404.198 68.174 L
405.133 67.741 L
406.068 67.309 L
407.002 66.879 L
407.937 66.45 L
408.871 66.023 L
409.806 65.598 L
410.74 65.174 L
411.675 64.752 L
412.61 64.331 L
413.544 63.912 L
414.479 63.495 L
415.413 63.079 L
416.348 62.665 L
417.282 62.252 L
418.217 61.842 L
419.151 61.433 L
420.086 61.025 L
421.021 60.619 L
421.955 60.215 L
422.89 59.813 L
423.824 59.412 L
424.759 59.014 L
425.693 58.616 L
426.628 58.221 L
427.562 57.827 L
428.497 57.435 L
429.432 57.045 L
430.366 56.656 L
431.301 56.27 L
432.235 55.885 L
433.17 55.502 L
434.104 55.12 L
435.039 54.741 L
435.974 54.363 L
436.908 53.987 L
437.843 53.613 L
438.777 53.241 L
439.712 52.87 L
440.646 52.502 L
441.581 52.135 L
442.515 51.77 L
443.45 51.407 L
444.385 51.046 L
445.319 50.686 L
446.254 50.329 L
447.188 49.973 L
448.123 49.62 L
449.057 49.268 L
449.992 48.918 L
450.926 48.57 L
451.861 48.224 L
452.796 47.88 L
453.73 47.538 L
454.665 47.198 L
455.599 46.86 L
456.534 46.524 L
457.468 46.19 L
458.403 45.858 L
459.337 45.527 L
460.272 45.199 L
461.207 44.873 L
462.141 44.549 L
463.076 44.226 L
464.01 43.906 L
464.945 43.588 L
465.879 43.272 L
466.814 42.958 L
467.749 42.646 L
468.683 42.336 L
469.618 42.028 L
470.552 41.723 L
471.487 41.419 L
472.421 41.117 L
473.356 40.818 L
474.29 40.521 L
475.225 40.225 L
476.16 39.932 L
477.094 39.641 L
478.029 39.352 L
478.963 39.066 L
479.898 38.781 L
480.832 38.499 L
481.767 38.218 L
482.701 37.94 L
483.636 37.665 L
484.571 37.391 L
485.505 37.119 L
486.44 36.85 L
487.374 36.583 L
488.309 36.318 L
489.243 36.056 L
490.178 35.795 L
491.112 35.537 L
492.047 35.281 L
492.982 35.028 L
493.916 34.777 L
494.851 34.527 L
495.785 34.281 L
496.72 34.036 L
497.654 33.794 L
498.589 33.554 L
499.524 33.317 L
500.458 33.081 L
501.393 32.848 L
502.327 32.618 L
503.262 32.389 L
504.196 32.164 L
505.131 31.94 L
506.065 31.719 L
507 31.5 L
S
GR
GS
0.851 0.325 0.098 RC
1 LJ
0.5 LW
N
73 374 M
73.935 371.493 L
74.869 368.995 L
75.804 366.507 L
76.738 364.032 L
77.673 361.573 L
78.607 359.131 L
79.542 356.708 L
80.476 354.308 L
81.411 351.931 L
82.346 349.581 L
83.28 347.258 L
84.215 344.967 L
85.149 342.708 L
86.084 340.484 L
87.018 338.297 L
87.953 336.15 L
88.888 334.044 L
89.822 331.981 L
90.757 329.965 L
91.691 327.997 L
92.626 326.079 L
93.56 324.203 L
94.495 322.343 L
95.429 320.498 L
96.364 318.667 L
97.299 316.851 L
98.233 315.05 L
99.168 313.263 L
100.102 311.491 L
101.037 309.734 L
101.971 307.992 L
102.906 306.264 L
103.84 304.551 L
104.775 302.853 L
105.71 301.17 L
106.644 299.501 L
107.579 297.847 L
108.513 296.209 L
109.448 294.585 L
110.382 292.976 L
111.317 291.382 L
112.251 289.802 L
113.186 288.238 L
114.121 286.689 L
115.055 285.154 L
115.99 283.635 L
116.924 282.131 L
117.859 280.641 L
118.793 279.167 L
119.728 277.708 L
120.663 276.264 L
121.597 274.835 L
122.532 273.42 L
123.466 272.022 L
124.401 270.638 L
125.335 269.269 L
126.27 267.916 L
127.204 266.577 L
128.139 265.254 L
129.074 263.946 L
130.008 262.654 L
130.943 261.376 L
131.877 260.114 L
132.812 258.867 L
133.746 257.636 L
134.681 256.419 L
135.615 255.218 L
136.55 254.032 L
137.485 252.855 L
138.419 251.685 L
139.354 250.522 L
140.288 249.365 L
141.223 248.216 L
142.157 247.073 L
143.092 245.937 L
144.027 244.808 L
144.961 243.685 L
145.896 242.569 L
146.83 241.46 L
147.765 240.358 L
148.699 239.263 L
149.634 238.174 L
150.568 237.092 L
151.503 236.016 L
152.438 234.947 L
153.372 233.885 L
154.307 232.829 L
155.241 231.78 L
156.176 230.737 L
157.11 229.701 L
158.045 228.671 L
158.979 227.648 L
159.914 226.631 L
160.849 225.621 L
161.783 224.617 L
162.718 223.62 L
163.652 222.628 L
164.587 221.644 L
165.521 220.665 L
166.456 219.693 L
167.39 218.728 L
168.325 217.768 L
169.26 216.815 L
170.194 215.868 L
171.129 214.928 L
172.063 213.993 L
172.998 213.065 L
173.932 212.143 L
174.867 211.227 L
175.802 210.317 L
176.736 209.414 L
177.671 208.516 L
178.605 207.625 L
179.54 206.739 L
180.474 205.86 L
181.409 204.987 L
182.343 204.119 L
183.278 203.258 L
184.213 202.403 L
185.147 201.553 L
186.082 200.71 L
187.016 199.872 L
187.951 199.041 L
188.885 198.215 L
189.82 197.395 L
190.754 196.581 L
191.689 195.772 L
192.624 194.97 L
193.558 194.173 L
194.493 193.382 L
195.427 192.597 L
196.362 191.818 L
197.296 191.044 L
198.231 190.276 L
199.165 189.513 L
200.1 188.756 L
201.035 188.005 L
201.969 187.26 L
202.904 186.52 L
203.838 185.785 L
204.773 185.056 L
205.707 184.333 L
206.642 183.615 L
207.577 182.903 L
208.511 182.196 L
209.446 181.494 L
210.38 180.797 L
211.315 180.101 L
212.249 179.405 L
213.184 178.709 L
214.118 178.015 L
215.053 177.321 L
215.988 176.628 L
216.922 175.936 L
217.857 175.245 L
218.791 174.554 L
219.726 173.864 L
220.66 173.176 L
221.595 172.488 L
222.529 171.8 L
223.464 171.114 L
224.399 170.429 L
225.333 169.744 L
226.268 169.061 L
227.202 168.379 L
228.137 167.697 L
229.071 167.017 L
230.006 166.338 L
230.941 165.659 L
231.875 164.982 L
232.81 164.306 L
233.744 163.631 L
234.679 162.957 L
235.613 162.285 L
236.548 161.613 L
237.482 160.943 L
238.417 160.274 L
239.352 159.606 L
240.286 158.94 L
241.221 158.274 L
242.155 157.61 L
243.09 156.948 L
244.024 156.286 L
244.959 155.626 L
245.893 154.968 L
246.828 154.311 L
247.763 153.655 L
248.697 153 L
249.632 152.348 L
250.566 151.696 L
251.501 151.046 L
252.435 150.398 L
253.37 149.751 L
254.304 149.106 L
255.239 148.462 L
256.174 147.82 L
257.108 147.179 L
258.043 146.54 L
258.977 145.903 L
259.912 145.267 L
260.846 144.633 L
261.781 144.001 L
262.716 143.371 L
263.65 142.742 L
264.585 142.115 L
265.519 141.49 L
266.454 140.866 L
267.388 140.245 L
268.323 139.625 L
269.257 139.007 L
270.192 138.391 L
271.127 137.777 L
272.061 137.165 L
272.996 136.554 L
273.93 135.946 L
274.865 135.34 L
275.799 134.736 L
276.734 134.133 L
277.668 133.533 L
278.603 132.935 L
279.538 132.339 L
280.472 131.745 L
281.407 131.153 L
282.341 130.563 L
283.276 129.975 L
284.21 129.39 L
285.145 128.806 L
286.079 128.225 L
287.014 127.647 L
287.949 127.07 L
288.883 126.496 L
289.818 125.924 L
290.752 125.354 L
291.687 124.786 L
292.621 124.221 L
293.556 123.659 L
294.491 123.098 L
295.425 122.541 L
296.36 121.985 L
297.294 121.432 L
298.229 120.882 L
299.163 120.333 L
300.098 119.788 L
301.032 119.245 L
301.967 118.704 L
302.902 118.166 L
303.836 117.631 L
304.771 117.098 L
305.705 116.568 L
306.64 116.041 L
307.574 115.516 L
308.509 114.994 L
309.443 114.474 L
310.378 113.957 L
311.313 113.443 L
312.247 112.932 L
313.182 112.423 L
314.116 111.918 L
315.051 111.415 L
315.985 110.915 L
316.92 110.418 L
317.855 109.923 L
318.789 109.432 L
319.724 108.943 L
320.658 108.458 L
321.593 107.975 L
322.527 107.495 L
323.462 107.019 L
324.396 106.545 L
325.331 106.074 L
326.266 105.606 L
327.2 105.142 L
328.135 104.68 L
329.069 104.222 L
330.004 103.767 L
330.938 103.315 L
331.873 102.866 L
332.807 102.42 L
333.742 101.977 L
334.677 101.538 L
335.611 101.102 L
336.546 100.669 L
337.48 100.24 L
338.415 99.813 L
339.349 99.39 L
340.284 98.971 L
341.219 98.554 L
342.153 98.142 L
343.088 97.732 L
344.022 97.326 L
344.957 96.923 L
345.891 96.524 L
346.826 96.129 L
347.76 95.736 L
348.695 95.348 L
349.63 94.962 L
350.564 94.581 L
351.499 94.203 L
352.433 93.828 L
353.368 93.457 L
354.302 93.09 L
355.237 92.727 L
356.171 92.367 L
357.106 92.011 L
358.041 91.658 L
358.975 91.309 L
359.91 90.964 L
360.844 90.623 L
361.779 90.285 L
362.713 89.952 L
363.648 89.622 L
364.582 89.296 L
365.517 88.974 L
366.452 88.655 L
367.386 88.341 L
368.321 88.031 L
369.255 87.724 L
370.19 87.422 L
371.124 87.123 L
372.059 86.828 L
372.994 86.538 L
373.928 86.251 L
374.863 85.969 L
375.797 85.69 L
376.732 85.416 L
377.666 85.146 L
378.601 84.88 L
379.535 84.618 L
380.47 84.36 L
381.405 84.107 L
382.339 83.857 L
383.274 83.612 L
S
GR
GS
0.929 0.694 0.125 RC
1 LJ
0.5 LW
N
80.348 354.428 M
81.283 352.397 L
82.217 350.371 L
83.152 348.352 L
84.087 346.341 L
85.021 344.338 L
85.956 342.345 L
86.89 340.362 L
87.825 338.39 L
88.759 336.431 L
89.694 334.485 L
90.628 332.553 L
91.563 330.637 L
92.498 328.736 L
93.432 326.853 L
94.367 324.988 L
95.301 323.141 L
96.236 321.314 L
97.17 319.509 L
98.105 317.725 L
99.039 315.963 L
99.974 314.225 L
100.909 312.512 L
101.843 310.825 L
102.778 309.163 L
103.712 307.53 L
104.647 305.924 L
105.581 304.348 L
106.516 302.795 L
107.451 301.251 L
108.385 299.714 L
109.32 298.186 L
110.254 296.667 L
111.189 295.155 L
112.123 293.652 L
113.058 292.158 L
113.992 290.672 L
114.927 289.194 L
115.862 287.726 L
116.796 286.266 L
117.731 284.814 L
118.665 283.372 L
119.6 281.939 L
120.534 280.514 L
121.469 279.099 L
122.403 277.692 L
123.338 276.295 L
124.273 274.907 L
125.207 273.528 L
126.142 272.159 L
127.076 270.799 L
128.011 269.449 L
128.945 268.108 L
129.88 266.777 L
130.814 265.455 L
131.749 264.144 L
132.684 262.842 L
133.618 261.55 L
134.553 260.268 L
135.487 258.995 L
136.422 257.733 L
137.356 256.482 L
138.291 255.24 L
139.226 254.008 L
140.16 252.787 L
141.095 251.577 L
142.029 250.376 L
142.964 249.187 L
143.898 248.008 L
144.833 246.839 L
145.767 245.681 L
146.702 244.534 L
147.637 243.398 L
148.571 242.273 L
149.506 241.159 L
150.44 240.055 L
151.375 238.963 L
152.309 237.882 L
153.244 236.813 L
154.178 235.754 L
155.113 234.707 L
156.048 233.672 L
156.982 232.647 L
157.917 231.635 L
158.851 230.634 L
159.786 229.642 L
160.72 228.655 L
161.655 227.673 L
162.59 226.695 L
163.524 225.723 L
164.459 224.755 L
165.393 223.792 L
166.328 222.835 L
167.262 221.881 L
168.197 220.933 L
169.131 219.989 L
170.066 219.051 L
171.001 218.116 L
171.935 217.187 L
172.87 216.262 L
173.804 215.342 L
174.739 214.427 L
175.673 213.516 L
176.608 212.61 L
177.542 211.709 L
178.477 210.812 L
179.412 209.919 L
180.346 209.032 L
181.281 208.148 L
182.215 207.27 L
183.15 206.395 L
184.084 205.526 L
185.019 204.66 L
185.953 203.8 L
186.888 202.943 L
187.823 202.091 L
188.757 201.244 L
189.692 200.4 L
190.626 199.562 L
191.561 198.727 L
192.495 197.897 L
193.43 197.071 L
194.365 196.25 L
195.299 195.432 L
196.234 194.619 L
197.168 193.811 L
198.103 193.006 L
199.037 192.206 L
199.972 191.41 L
200.906 190.618 L
201.841 189.83 L
202.776 189.046 L
203.71 188.267 L
204.645 187.491 L
205.579 186.72 L
206.514 185.953 L
207.448 185.189 L
208.383 184.43 L
209.317 183.675 L
210.252 182.924 L
211.187 182.176 L
212.121 181.433 L
213.056 180.694 L
213.99 179.958 L
214.925 179.227 L
215.859 178.499 L
216.794 177.776 L
217.729 177.056 L
218.663 176.34 L
219.598 175.628 L
220.532 174.919 L
221.467 174.215 L
222.401 173.514 L
223.336 172.817 L
224.27 172.123 L
225.205 171.434 L
226.14 170.748 L
227.074 170.066 L
228.009 169.387 L
228.943 168.712 L
229.878 168.041 L
230.812 167.373 L
231.747 166.709 L
232.681 166.048 L
233.616 165.392 L
234.551 164.738 L
235.485 164.088 L
236.42 163.442 L
237.354 162.799 L
238.289 162.16 L
239.223 161.524 L
240.158 160.891 L
241.092 160.262 L
242.027 159.636 L
242.962 159.014 L
243.896 158.395 L
244.831 157.78 L
245.765 157.167 L
246.7 156.559 L
247.634 155.953 L
248.569 155.351 L
249.504 154.752 L
250.438 154.156 L
251.373 153.563 L
252.307 152.97 L
253.242 152.378 L
254.176 151.787 L
255.111 151.196 L
256.045 150.605 L
256.98 150.015 L
257.915 149.425 L
258.849 148.835 L
259.784 148.246 L
260.718 147.657 L
261.653 147.069 L
262.587 146.481 L
263.522 145.894 L
264.456 145.307 L
265.391 144.721 L
266.326 144.135 L
267.26 143.549 L
268.195 142.964 L
269.129 142.38 L
270.064 141.796 L
270.998 141.213 L
271.933 140.63 L
272.867 140.047 L
273.802 139.466 L
274.737 138.884 L
275.671 138.304 L
276.606 137.724 L
277.54 137.144 L
278.475 136.565 L
279.409 135.987 L
280.344 135.409 L
281.279 134.832 L
282.213 134.256 L
283.148 133.68 L
284.082 133.105 L
285.017 132.53 L
285.951 131.956 L
286.886 131.383 L
287.82 130.81 L
288.755 130.238 L
289.69 129.667 L
290.624 129.096 L
291.559 128.526 L
292.493 127.957 L
293.428 127.389 L
294.362 126.821 L
295.297 126.254 L
296.231 125.688 L
297.166 125.122 L
298.101 124.558 L
299.035 123.994 L
299.97 123.43 L
300.904 122.868 L
301.839 122.306 L
302.773 121.745 L
303.708 121.185 L
304.643 120.626 L
305.577 120.068 L
306.512 119.51 L
307.446 118.953 L
308.381 118.397 L
309.315 117.842 L
310.25 117.288 L
311.184 116.735 L
312.119 116.182 L
313.054 115.631 L
313.988 115.08 L
314.923 114.53 L
315.857 113.981 L
316.792 113.433 L
317.726 112.886 L
318.661 112.34 L
319.595 111.795 L
320.53 111.251 L
321.465 110.708 L
322.399 110.165 L
323.334 109.624 L
324.268 109.084 L
325.203 108.544 L
326.137 108.006 L
327.072 107.468 L
328.007 106.932 L
328.941 106.397 L
329.876 105.862 L
330.81 105.329 L
331.745 104.797 L
332.679 104.266 L
333.614 103.735 L
334.548 103.206 L
335.483 102.678 L
336.418 102.152 L
337.352 101.626 L
338.287 101.101 L
339.221 100.577 L
340.156 100.055 L
341.09 99.534 L
342.025 99.013 L
342.959 98.494 L
343.894 97.976 L
344.829 97.459 L
345.763 96.944 L
346.698 96.429 L
347.632 95.916 L
348.567 95.404 L
349.501 94.893 L
350.436 94.383 L
351.37 93.875 L
352.305 93.368 L
353.24 92.862 L
354.174 92.357 L
355.109 91.853 L
356.043 91.351 L
356.978 90.85 L
357.912 90.35 L
358.847 89.852 L
359.781 89.354 L
360.716 88.858 L
361.651 88.364 L
362.585 87.87 L
363.52 87.378 L
364.454 86.888 L
365.389 86.398 L
366.323 85.91 L
367.258 85.424 L
368.193 84.938 L
369.127 84.454 L
370.062 83.972 L
370.996 83.491 L
371.931 83.011 L
372.865 82.533 L
373.8 82.056 L
374.734 81.58 L
375.669 81.106 L
376.604 80.633 L
377.538 80.162 L
378.473 79.692 L
379.407 79.223 L
380.342 78.756 L
381.276 78.291 L
382.211 77.827 L
383.145 77.364 L
384.08 76.903 L
385.015 76.444 L
385.949 75.986 L
386.884 75.529 L
387.818 75.074 L
388.753 74.621 L
389.687 74.169 L
390.622 73.719 L
391.557 73.27 L
392.491 72.823 L
393.426 72.377 L
394.36 71.933 L
395.295 71.49 L
396.229 71.049 L
397.164 70.61 L
398.098 70.172 L
399.033 69.736 L
399.968 69.302 L
400.902 68.869 L
401.837 68.438 L
402.771 68.008 L
403.706 67.581 L
404.64 67.154 L
405.575 66.73 L
406.509 66.307 L
407.444 65.886 L
408.379 65.467 L
409.313 65.049 L
410.248 64.633 L
411.182 64.219 L
412.117 63.806 L
413.051 63.395 L
413.986 62.986 L
414.921 62.579 L
415.855 62.173 L
416.79 61.77 L
417.724 61.368 L
418.659 60.967 L
419.593 60.569 L
420.528 60.172 L
421.462 59.778 L
422.397 59.385 L
423.332 58.994 L
424.266 58.604 L
425.201 58.217 L
426.135 57.831 L
427.07 57.447 L
428.004 57.066 L
428.939 56.686 L
429.873 56.308 L
430.808 55.931 L
431.743 55.557 L
432.677 55.185 L
433.612 54.814 L
434.546 54.446 L
435.481 54.079 L
436.415 53.714 L
437.35 53.352 L
438.284 52.991 L
439.219 52.632 L
440.154 52.275 L
441.088 51.92 L
442.023 51.567 L
442.957 51.216 L
443.892 50.868 L
444.826 50.521 L
445.761 50.176 L
446.696 49.833 L
447.63 49.492 L
448.565 49.154 L
449.499 48.817 L
450.434 48.482 L
451.368 48.15 L
452.303 47.819 L
453.237 47.491 L
454.172 47.165 L
455.107 46.84 L
456.041 46.518 L
456.976 46.198 L
457.91 45.881 L
458.845 45.565 L
459.779 45.251 L
460.714 44.94 L
461.648 44.631 L
462.583 44.324 L
463.518 44.019 L
464.452 43.716 L
465.387 43.415 L
466.321 43.117 L
467.256 42.821 L
468.19 42.527 L
469.125 42.235 L
470.06 41.946 L
470.994 41.659 L
471.929 41.374 L
472.863 41.091 L
473.798 40.81 L
474.732 40.532 L
475.667 40.256 L
476.601 39.983 L
477.536 39.711 L
478.471 39.442 L
479.405 39.175 L
480.34 38.911 L
481.274 38.649 L
482.209 38.389 L
483.143 38.132 L
484.078 37.877 L
485.012 37.624 L
485.947 37.374 L
486.882 37.126 L
487.816 36.88 L
488.751 36.637 L
489.685 36.396 L
490.62 36.158 L
491.554 35.922 L
492.489 35.688 L
493.423 35.457 L
494.358 35.228 L
495.293 35.002 L
496.227 34.778 L
497.162 34.557 L
498.096 34.338 L
499.031 34.122 L
499.965 33.908 L
500.9 33.696 L
501.835 33.487 L
502.769 33.281 L
503.704 33.077 L
S
GR
GS
0.494 0.184 0.557 RC
1 LJ
0.5 LW
N
78.714 356.185 M
79.649 354.048 L
80.583 351.917 L
81.518 349.794 L
82.452 347.68 L
83.387 345.575 L
84.321 343.482 L
85.256 341.4 L
86.19 339.331 L
87.125 337.277 L
88.06 335.237 L
88.994 333.214 L
89.929 331.208 L
90.863 329.221 L
91.798 327.253 L
92.732 325.306 L
93.667 323.38 L
94.601 321.478 L
95.536 319.599 L
96.471 317.745 L
97.405 315.917 L
98.34 314.117 L
99.274 312.345 L
100.209 310.602 L
101.143 308.889 L
102.078 307.208 L
103.013 305.56 L
103.947 303.933 L
104.882 302.314 L
105.816 300.705 L
106.751 299.104 L
107.685 297.513 L
108.62 295.93 L
109.554 294.357 L
110.489 292.793 L
111.424 291.239 L
112.358 289.694 L
113.293 288.159 L
114.227 286.633 L
115.162 285.117 L
116.096 283.612 L
117.031 282.116 L
117.965 280.63 L
118.9 279.154 L
119.835 277.688 L
120.769 276.233 L
121.704 274.788 L
122.638 273.353 L
123.573 271.929 L
124.507 270.516 L
125.442 269.113 L
126.376 267.721 L
127.311 266.34 L
128.246 264.97 L
129.18 263.611 L
130.115 262.263 L
131.049 260.927 L
131.984 259.601 L
132.918 258.288 L
133.853 256.985 L
134.788 255.694 L
135.722 254.415 L
136.657 253.148 L
137.591 251.892 L
138.526 250.649 L
139.46 249.417 L
140.395 248.198 L
141.329 246.99 L
142.264 245.795 L
143.199 244.613 L
144.133 243.442 L
145.068 242.285 L
146.002 241.14 L
146.937 240.007 L
147.871 238.888 L
148.806 237.781 L
149.74 236.687 L
150.675 235.606 L
151.61 234.539 L
152.544 233.484 L
153.479 232.443 L
154.413 231.411 L
155.348 230.384 L
156.282 229.363 L
157.217 228.348 L
158.151 227.338 L
159.086 226.334 L
160.021 225.334 L
160.955 224.341 L
161.89 223.353 L
162.824 222.37 L
163.759 221.392 L
164.693 220.42 L
165.628 219.453 L
166.563 218.492 L
167.497 217.535 L
168.432 216.584 L
169.366 215.639 L
170.301 214.698 L
171.235 213.762 L
172.17 212.832 L
173.104 211.907 L
174.039 210.987 L
174.974 210.071 L
175.908 209.161 L
176.843 208.256 L
177.777 207.356 L
178.712 206.461 L
179.646 205.571 L
180.581 204.686 L
181.515 203.805 L
182.45 202.93 L
183.385 202.059 L
184.319 201.193 L
185.254 200.332 L
186.188 199.476 L
187.123 198.625 L
188.057 197.778 L
188.992 196.936 L
189.926 196.098 L
190.861 195.266 L
191.796 194.438 L
192.73 193.614 L
193.665 192.795 L
194.599 191.981 L
195.534 191.171 L
196.468 190.365 L
197.403 189.564 L
198.338 188.768 L
199.272 187.976 L
200.207 187.188 L
201.141 186.405 L
202.076 185.626 L
203.01 184.852 L
203.945 184.081 L
204.879 183.316 L
205.814 182.554 L
206.749 181.796 L
207.683 181.043 L
208.618 180.294 L
209.552 179.549 L
210.487 178.808 L
211.421 178.072 L
212.356 177.339 L
213.29 176.611 L
214.225 175.886 L
215.16 175.166 L
216.094 174.449 L
217.029 173.737 L
217.963 173.028 L
218.898 172.324 L
219.832 171.623 L
220.767 170.926 L
221.702 170.233 L
222.636 169.544 L
223.571 168.858 L
224.505 168.177 L
225.44 167.499 L
226.374 166.824 L
227.309 166.154 L
228.243 165.487 L
229.178 164.824 L
230.113 164.164 L
231.047 163.508 L
231.982 162.856 L
232.916 162.207 L
233.851 161.562 L
234.785 160.92 L
235.72 160.282 L
236.654 159.647 L
237.589 159.016 L
238.524 158.388 L
239.458 157.763 L
240.393 157.142 L
241.327 156.524 L
242.262 155.908 L
243.196 155.294 L
244.131 154.679 L
245.066 154.065 L
246 153.452 L
246.935 152.839 L
247.869 152.226 L
248.804 151.614 L
249.738 151.002 L
250.673 150.391 L
251.607 149.78 L
252.542 149.169 L
253.477 148.559 L
254.411 147.95 L
255.346 147.341 L
256.28 146.732 L
257.215 146.125 L
258.149 145.517 L
259.084 144.91 L
260.018 144.304 L
260.953 143.698 L
261.888 143.093 L
262.822 142.488 L
263.757 141.884 L
264.691 141.28 L
265.626 140.677 L
266.56 140.075 L
267.495 139.473 L
268.429 138.872 L
269.364 138.271 L
270.299 137.671 L
271.233 137.072 L
272.168 136.474 L
273.102 135.876 L
274.037 135.278 L
274.971 134.682 L
275.906 134.086 L
276.841 133.49 L
277.775 132.896 L
278.71 132.302 L
279.644 131.709 L
280.579 131.117 L
281.513 130.525 L
282.448 129.934 L
283.382 129.344 L
284.317 128.754 L
285.252 128.166 L
286.186 127.578 L
287.121 126.991 L
288.055 126.405 L
288.99 125.819 L
289.924 125.234 L
290.859 124.651 L
291.793 124.068 L
292.728 123.485 L
293.663 122.904 L
294.597 122.324 L
295.532 121.744 L
296.466 121.165 L
297.401 120.588 L
298.335 120.011 L
299.27 119.435 L
300.204 118.859 L
301.139 118.285 L
302.074 117.712 L
303.008 117.14 L
303.943 116.568 L
304.877 115.998 L
305.812 115.428 L
306.746 114.86 L
307.681 114.292 L
308.616 113.725 L
309.55 113.16 L
310.485 112.595 L
311.419 112.032 L
312.354 111.469 L
313.288 110.908 L
314.223 110.347 L
315.157 109.788 L
316.092 109.229 L
317.027 108.672 L
317.961 108.116 L
318.896 107.561 L
319.83 107.007 L
320.765 106.454 L
321.699 105.902 L
322.634 105.351 L
323.568 104.801 L
324.503 104.253 L
325.438 103.706 L
326.372 103.159 L
327.307 102.614 L
328.241 102.07 L
329.176 101.528 L
330.11 100.986 L
331.045 100.446 L
331.98 99.907 L
332.914 99.369 L
333.849 98.832 L
334.783 98.297 L
335.718 97.762 L
336.652 97.229 L
337.587 96.698 L
338.521 96.167 L
339.456 95.638 L
340.391 95.11 L
341.325 94.584 L
342.26 94.058 L
343.194 93.534 L
344.129 93.012 L
345.063 92.49 L
345.998 91.97 L
346.932 91.451 L
347.867 90.934 L
348.802 90.418 L
349.736 89.903 L
350.671 89.39 L
351.605 88.878 L
352.54 88.368 L
353.474 87.859 L
354.409 87.351 L
355.343 86.845 L
356.278 86.34 L
357.213 85.837 L
358.147 85.335 L
359.082 84.834 L
360.016 84.335 L
360.951 83.837 L
361.885 83.341 L
362.82 82.847 L
363.755 82.354 L
364.689 81.862 L
365.624 81.372 L
366.558 80.883 L
367.493 80.396 L
368.427 79.911 L
369.362 79.427 L
370.296 78.945 L
371.231 78.464 L
372.166 77.984 L
373.1 77.507 L
374.035 77.031 L
374.969 76.556 L
375.904 76.083 L
376.838 75.612 L
377.773 75.143 L
378.707 74.675 L
379.642 74.208 L
380.577 73.743 L
381.511 73.28 L
382.446 72.819 L
383.38 72.359 L
384.315 71.901 L
385.249 71.445 L
386.184 70.99 L
387.118 70.538 L
388.053 70.086 L
388.988 69.637 L
389.922 69.189 L
390.857 68.743 L
391.791 68.299 L
392.726 67.857 L
393.66 67.416 L
394.595 66.977 L
395.53 66.54 L
396.464 66.105 L
397.399 65.671 L
398.333 65.24 L
399.268 64.81 L
400.202 64.382 L
401.137 63.956 L
402.071 63.531 L
403.006 63.109 L
403.941 62.688 L
404.875 62.269 L
405.81 61.853 L
406.744 61.438 L
407.679 61.025 L
408.613 60.613 L
409.548 60.204 L
410.482 59.797 L
411.417 59.392 L
412.352 58.988 L
413.286 58.587 L
414.221 58.187 L
415.155 57.79 L
416.09 57.394 L
417.024 57.001 L
417.959 56.609 L
418.894 56.22 L
419.828 55.832 L
420.763 55.447 L
421.697 55.063 L
422.632 54.682 L
423.566 54.302 L
424.501 53.925 L
425.435 53.55 L
426.37 53.177 L
427.305 52.806 L
428.239 52.437 L
429.174 52.07 L
430.108 51.705 L
431.043 51.342 L
431.977 50.982 L
432.912 50.623 L
433.846 50.267 L
434.781 49.913 L
435.716 49.561 L
436.65 49.211 L
437.585 48.864 L
438.519 48.518 L
439.454 48.175 L
440.388 47.834 L
441.323 47.495 L
442.258 47.159 L
443.192 46.824 L
444.127 46.492 L
445.061 46.162 L
445.996 45.835 L
446.93 45.509 L
447.865 45.186 L
448.799 44.865 L
449.734 44.547 L
450.669 44.231 L
451.603 43.917 L
452.538 43.605 L
453.472 43.296 L
454.407 42.989 L
455.341 42.685 L
456.276 42.383 L
457.21 42.083 L
458.145 41.785 L
459.08 41.49 L
460.014 41.197 L
460.949 40.907 L
461.883 40.619 L
462.818 40.334 L
463.752 40.051 L
464.687 39.77 L
465.621 39.492 L
466.556 39.216 L
467.491 38.943 L
468.425 38.672 L
469.36 38.404 L
470.294 38.138 L
471.229 37.874 L
472.163 37.613 L
473.098 37.355 L
474.033 37.099 L
474.967 36.846 L
475.902 36.595 L
476.836 36.347 L
477.771 36.101 L
478.705 35.858 L
479.64 35.617 L
480.574 35.379 L
481.509 35.144 L
482.444 34.911 L
483.378 34.681 L
484.313 34.453 L
485.247 34.228 L
486.182 34.006 L
487.116 33.786 L
488.051 33.569 L
488.985 33.354 L
489.92 33.143 L
S
GR
GS
0.467 0.675 0.188 RC
1 LJ
0.5 LW
N
78.121 357.03 M
79.056 354.857 L
79.99 352.69 L
80.925 350.532 L
81.859 348.382 L
82.794 346.243 L
83.728 344.115 L
84.663 342 L
85.597 339.898 L
86.532 337.811 L
87.467 335.741 L
88.401 333.687 L
89.336 331.651 L
90.27 329.635 L
91.205 327.64 L
92.139 325.666 L
93.074 323.715 L
94.008 321.788 L
94.943 319.886 L
95.878 318.01 L
96.812 316.162 L
97.747 314.342 L
98.681 312.552 L
99.616 310.793 L
100.55 309.065 L
101.485 307.371 L
102.419 305.707 L
103.354 304.055 L
104.289 302.412 L
105.223 300.779 L
106.158 299.155 L
107.092 297.54 L
108.027 295.935 L
108.961 294.34 L
109.896 292.754 L
110.831 291.178 L
111.765 289.613 L
112.7 288.057 L
113.634 286.511 L
114.569 284.976 L
115.503 283.451 L
116.438 281.936 L
117.372 280.432 L
118.307 278.938 L
119.242 277.455 L
120.176 275.983 L
121.111 274.522 L
122.045 273.072 L
122.98 271.632 L
123.914 270.204 L
124.849 268.787 L
125.783 267.382 L
126.718 265.988 L
127.653 264.605 L
128.587 263.234 L
129.522 261.875 L
130.456 260.527 L
131.391 259.192 L
132.325 257.868 L
133.26 256.556 L
134.195 255.257 L
135.129 253.97 L
136.064 252.695 L
136.998 251.433 L
137.933 250.183 L
138.867 248.946 L
139.802 247.721 L
140.736 246.509 L
141.671 245.31 L
142.606 244.125 L
143.54 242.952 L
144.475 241.792 L
145.409 240.646 L
146.344 239.513 L
147.278 238.394 L
148.213 237.288 L
149.147 236.195 L
150.082 235.117 L
151.017 234.052 L
151.951 232.997 L
152.886 231.948 L
153.82 230.905 L
154.755 229.867 L
155.689 228.835 L
156.624 227.808 L
157.558 226.787 L
158.493 225.771 L
159.428 224.761 L
160.362 223.756 L
161.297 222.757 L
162.231 221.763 L
163.166 220.774 L
164.1 219.791 L
165.035 218.814 L
165.97 217.841 L
166.904 216.874 L
167.839 215.913 L
168.773 214.956 L
169.708 214.005 L
170.642 213.059 L
171.577 212.119 L
172.511 211.183 L
173.446 210.253 L
174.381 209.328 L
175.315 208.408 L
176.25 207.494 L
177.184 206.584 L
178.119 205.679 L
179.053 204.78 L
179.988 203.886 L
180.922 202.996 L
181.857 202.112 L
182.792 201.233 L
183.726 200.359 L
184.661 199.489 L
185.595 198.625 L
186.53 197.765 L
187.464 196.911 L
188.399 196.061 L
189.333 195.216 L
190.268 194.376 L
191.203 193.541 L
192.137 192.711 L
193.072 191.885 L
194.006 191.064 L
194.941 190.248 L
195.875 189.437 L
196.81 188.63 L
197.745 187.828 L
198.679 187.031 L
199.614 186.238 L
200.548 185.45 L
201.483 184.667 L
202.417 183.888 L
203.352 183.114 L
204.286 182.344 L
205.221 181.579 L
206.156 180.818 L
207.09 180.062 L
208.025 179.31 L
208.959 178.563 L
209.894 177.82 L
210.828 177.082 L
211.763 176.348 L
212.697 175.618 L
213.632 174.893 L
214.567 174.172 L
215.501 173.455 L
216.436 172.743 L
217.37 172.035 L
218.305 171.331 L
219.239 170.631 L
220.174 169.936 L
221.109 169.244 L
222.043 168.557 L
222.978 167.874 L
223.912 167.196 L
224.847 166.521 L
225.781 165.85 L
226.716 165.184 L
227.65 164.521 L
228.585 163.863 L
229.52 163.209 L
230.454 162.558 L
231.389 161.912 L
232.323 161.269 L
233.258 160.631 L
234.192 159.996 L
235.127 159.366 L
236.061 158.739 L
236.996 158.116 L
237.931 157.495 L
238.865 156.874 L
239.8 156.253 L
240.734 155.633 L
241.669 155.014 L
242.603 154.394 L
243.538 153.776 L
244.473 153.157 L
245.407 152.539 L
246.342 151.922 L
247.276 151.305 L
248.211 150.688 L
249.145 150.072 L
250.08 149.456 L
251.014 148.841 L
251.949 148.227 L
252.884 147.612 L
253.818 146.999 L
254.753 146.386 L
255.687 145.773 L
256.622 145.161 L
257.556 144.55 L
258.491 143.939 L
259.425 143.329 L
260.36 142.719 L
261.295 142.11 L
262.229 141.501 L
263.164 140.893 L
264.098 140.286 L
265.033 139.679 L
265.967 139.073 L
266.902 138.468 L
267.836 137.863 L
268.771 137.259 L
269.706 136.656 L
270.64 136.053 L
271.575 135.451 L
272.509 134.85 L
273.444 134.249 L
274.378 133.649 L
275.313 133.05 L
276.248 132.452 L
277.182 131.854 L
278.117 131.258 L
279.051 130.661 L
279.986 130.066 L
280.92 129.472 L
281.855 128.878 L
282.789 128.285 L
283.724 127.693 L
284.659 127.102 L
285.593 126.511 L
286.528 125.922 L
287.462 125.333 L
288.397 124.745 L
289.331 124.158 L
290.266 123.572 L
291.2 122.987 L
292.135 122.403 L
293.07 121.82 L
294.004 121.237 L
294.939 120.656 L
295.873 120.075 L
296.808 119.496 L
297.742 118.917 L
298.677 118.339 L
299.612 117.763 L
300.546 117.187 L
301.481 116.612 L
302.415 116.038 L
303.35 115.466 L
304.284 114.894 L
305.219 114.324 L
306.153 113.754 L
307.088 113.185 L
308.023 112.618 L
308.957 112.052 L
309.892 111.486 L
310.826 110.922 L
311.761 110.359 L
312.695 109.797 L
313.63 109.236 L
314.564 108.676 L
315.499 108.118 L
316.434 107.56 L
317.368 107.004 L
318.303 106.449 L
319.237 105.895 L
320.172 105.342 L
321.106 104.791 L
322.041 104.24 L
322.975 103.691 L
323.91 103.143 L
324.845 102.597 L
325.779 102.051 L
326.714 101.507 L
327.648 100.964 L
328.583 100.422 L
329.517 99.882 L
330.452 99.343 L
331.387 98.805 L
332.321 98.269 L
333.256 97.733 L
334.19 97.2 L
335.125 96.667 L
336.059 96.136 L
336.994 95.606 L
337.928 95.078 L
338.863 94.551 L
339.798 94.025 L
340.732 93.501 L
341.667 92.978 L
342.601 92.456 L
343.536 91.936 L
344.47 91.418 L
345.405 90.9 L
346.339 90.385 L
347.274 89.87 L
348.209 89.358 L
349.143 88.846 L
350.078 88.336 L
351.012 87.828 L
351.947 87.321 L
352.881 86.816 L
353.816 86.312 L
354.75 85.81 L
355.685 85.309 L
356.62 84.81 L
357.554 84.312 L
358.489 83.816 L
359.423 83.322 L
360.358 82.829 L
361.292 82.338 L
362.227 81.848 L
363.162 81.36 L
364.096 80.874 L
365.031 80.389 L
365.965 79.906 L
366.9 79.424 L
367.834 78.944 L
368.769 78.466 L
369.703 77.99 L
370.638 77.515 L
371.573 77.042 L
372.507 76.571 L
373.442 76.101 L
374.376 75.633 L
375.311 75.167 L
376.245 74.703 L
377.18 74.24 L
378.114 73.779 L
379.049 73.32 L
379.984 72.863 L
380.918 72.407 L
381.853 71.953 L
382.787 71.502 L
383.722 71.051 L
384.656 70.603 L
385.591 70.157 L
386.526 69.712 L
387.46 69.27 L
388.395 68.829 L
389.329 68.39 L
390.264 67.953 L
391.198 67.518 L
392.133 67.085 L
393.067 66.653 L
394.002 66.224 L
394.937 65.797 L
395.871 65.371 L
396.806 64.948 L
397.74 64.526 L
398.675 64.106 L
399.609 63.689 L
400.544 63.273 L
401.478 62.86 L
402.413 62.448 L
403.348 62.038 L
404.282 61.631 L
405.217 61.225 L
406.151 60.822 L
407.086 60.421 L
408.02 60.021 L
408.955 59.624 L
409.889 59.229 L
410.824 58.836 L
411.759 58.445 L
412.693 58.056 L
413.628 57.67 L
414.562 57.285 L
415.497 56.903 L
416.431 56.522 L
417.366 56.144 L
418.301 55.768 L
419.235 55.395 L
420.17 55.023 L
421.104 54.654 L
422.039 54.287 L
422.973 53.922 L
423.908 53.559 L
424.842 53.199 L
425.777 52.84 L
426.712 52.484 L
427.646 52.131 L
428.581 51.779 L
429.515 51.43 L
430.45 51.083 L
431.384 50.739 L
432.319 50.397 L
433.253 50.057 L
434.188 49.719 L
435.123 49.384 L
436.057 49.051 L
436.992 48.721 L
437.926 48.393 L
438.861 48.067 L
439.795 47.744 L
440.73 47.423 L
441.664 47.104 L
442.599 46.788 L
443.534 46.474 L
444.468 46.163 L
445.403 45.854 L
446.337 45.548 L
447.272 45.244 L
448.206 44.942 L
449.141 44.643 L
450.076 44.347 L
451.01 44.053 L
451.945 43.762 L
452.879 43.473 L
453.814 43.186 L
454.748 42.903 L
455.683 42.621 L
456.617 42.342 L
457.552 42.066 L
458.487 41.793 L
459.421 41.522 L
460.356 41.253 L
461.29 40.987 L
462.225 40.724 L
463.159 40.464 L
464.094 40.206 L
465.028 39.951 L
465.963 39.698 L
466.898 39.448 L
467.832 39.201 L
468.767 38.956 L
469.701 38.714 L
470.636 38.475 L
471.57 38.238 L
472.505 38.004 L
473.44 37.773 L
474.374 37.545 L
475.309 37.319 L
476.243 37.097 L
477.178 36.877 L
478.112 36.659 L
479.047 36.445 L
479.981 36.233 L
480.916 36.024 L
481.851 35.818 L
482.785 35.615 L
483.72 35.414 L
484.654 35.217 L
485.589 35.022 L
S
GR
GS
0.302 0.745 0.933 RC
[10 6] 0 setdash
2 LJ
0.5 LW
N
74.687 369.126 M
75.622 366.75 L
76.556 364.381 L
77.491 362.022 L
78.426 359.674 L
79.36 357.339 L
80.295 355.019 L
81.229 352.716 L
82.164 350.432 L
83.098 348.167 L
84.033 345.925 L
84.967 343.707 L
85.902 341.514 L
86.837 339.349 L
87.771 337.212 L
88.706 335.107 L
89.64 333.035 L
90.575 330.997 L
91.509 328.995 L
92.444 327.031 L
93.379 325.108 L
94.313 323.225 L
95.248 321.387 L
96.182 319.59 L
97.117 317.811 L
98.051 316.045 L
98.986 314.291 L
99.92 312.551 L
100.855 310.823 L
101.79 309.108 L
102.724 307.407 L
103.659 305.718 L
104.593 304.043 L
105.528 302.38 L
106.462 300.73 L
107.397 299.094 L
108.331 297.471 L
109.266 295.86 L
110.201 294.263 L
111.135 292.68 L
112.07 291.109 L
113.004 289.552 L
113.939 288.008 L
114.873 286.477 L
115.808 284.959 L
116.743 283.455 L
117.677 281.964 L
118.612 280.487 L
119.546 279.023 L
120.481 277.572 L
121.415 276.135 L
122.35 274.712 L
123.284 273.301 L
124.219 271.905 L
125.154 270.522 L
126.088 269.152 L
127.023 267.796 L
127.957 266.454 L
128.892 265.126 L
129.826 263.811 L
130.761 262.509 L
131.695 261.222 L
132.63 259.948 L
133.565 258.688 L
134.499 257.442 L
135.434 256.21 L
136.368 254.991 L
137.303 253.787 L
138.237 252.596 L
139.172 251.419 L
140.106 250.256 L
141.041 249.107 L
141.976 247.97 L
142.91 246.84 L
143.845 245.716 L
144.779 244.598 L
145.714 243.487 L
146.648 242.382 L
147.583 241.284 L
148.518 240.192 L
149.452 239.107 L
150.387 238.027 L
151.321 236.954 L
152.256 235.887 L
153.19 234.827 L
154.125 233.772 L
155.059 232.724 L
155.994 231.682 L
156.929 230.646 L
157.863 229.617 L
158.798 228.593 L
159.732 227.575 L
160.667 226.564 L
161.601 225.558 L
162.536 224.558 L
163.47 223.565 L
164.405 222.577 L
165.34 221.595 L
166.274 220.619 L
167.209 219.649 L
168.143 218.685 L
169.078 217.726 L
170.012 216.774 L
170.947 215.827 L
171.881 214.885 L
172.816 213.95 L
173.751 213.02 L
174.685 212.096 L
175.62 211.178 L
176.554 210.265 L
177.489 209.357 L
178.423 208.456 L
179.358 207.56 L
180.293 206.669 L
181.227 205.784 L
182.162 204.904 L
183.096 204.03 L
184.031 203.161 L
184.965 202.298 L
185.9 201.439 L
186.834 200.587 L
187.769 199.739 L
188.704 198.897 L
189.638 198.06 L
190.573 197.229 L
191.507 196.402 L
192.442 195.581 L
193.376 194.765 L
194.311 193.954 L
195.245 193.148 L
196.18 192.348 L
197.115 191.552 L
198.049 190.762 L
198.984 189.976 L
199.918 189.196 L
200.853 188.42 L
201.787 187.65 L
202.722 186.884 L
203.657 186.123 L
204.591 185.367 L
205.526 184.616 L
206.46 183.87 L
207.395 183.129 L
208.329 182.392 L
209.264 181.66 L
210.198 180.933 L
211.133 180.211 L
212.068 179.493 L
213.002 178.78 L
213.937 178.071 L
214.871 177.368 L
215.806 176.668 L
216.74 175.974 L
217.675 175.283 L
218.609 174.597 L
219.544 173.912 L
220.479 173.227 L
221.413 172.543 L
222.348 171.86 L
223.282 171.178 L
224.217 170.496 L
225.151 169.815 L
226.086 169.134 L
227.02 168.455 L
227.955 167.776 L
228.89 167.098 L
229.824 166.421 L
230.759 165.745 L
231.693 165.069 L
232.628 164.395 L
233.562 163.721 L
234.497 163.048 L
235.432 162.376 L
236.366 161.705 L
237.301 161.035 L
238.235 160.366 L
239.17 159.698 L
240.104 159.031 L
241.039 158.365 L
241.973 157.7 L
242.908 157.036 L
243.843 156.373 L
244.777 155.711 L
245.712 155.05 L
246.646 154.39 L
247.581 153.732 L
248.515 153.074 L
249.45 152.418 L
250.384 151.763 L
251.319 151.109 L
252.254 150.456 L
253.188 149.804 L
254.123 149.154 L
255.057 148.505 L
255.992 147.857 L
256.926 147.211 L
257.861 146.566 L
258.796 145.922 L
259.73 145.279 L
260.665 144.638 L
261.599 143.998 L
262.534 143.359 L
263.468 142.722 L
264.403 142.087 L
265.337 141.452 L
266.272 140.819 L
267.207 140.188 L
268.141 139.558 L
269.076 138.93 L
270.01 138.303 L
270.945 137.677 L
271.879 137.054 L
272.814 136.431 L
273.748 135.81 L
274.683 135.191 L
275.618 134.574 L
276.552 133.958 L
277.487 133.344 L
278.421 132.731 L
279.356 132.12 L
280.29 131.511 L
281.225 130.903 L
282.159 130.297 L
283.094 129.693 L
284.029 129.09 L
284.963 128.49 L
285.898 127.891 L
286.832 127.294 L
287.767 126.698 L
288.701 126.105 L
289.636 125.513 L
290.571 124.923 L
291.505 124.336 L
292.44 123.75 L
293.374 123.165 L
294.309 122.583 L
295.243 122.003 L
296.178 121.425 L
297.112 120.848 L
298.047 120.274 L
298.982 119.702 L
299.916 119.131 L
300.851 118.563 L
301.785 117.997 L
302.72 117.432 L
303.654 116.87 L
304.589 116.31 L
305.523 115.752 L
306.458 115.197 L
307.393 114.643 L
308.327 114.092 L
309.262 113.542 L
310.196 112.995 L
311.131 112.45 L
312.065 111.908 L
313 111.367 L
313.935 110.829 L
314.869 110.293 L
315.804 109.759 L
316.738 109.228 L
317.673 108.699 L
318.607 108.173 L
319.542 107.648 L
320.476 107.126 L
321.411 106.607 L
322.346 106.09 L
323.28 105.575 L
324.215 105.063 L
325.149 104.553 L
326.084 104.045 L
327.018 103.541 L
327.953 103.038 L
328.887 102.538 L
329.822 102.041 L
330.757 101.546 L
331.691 101.054 L
332.626 100.564 L
333.56 100.077 L
334.495 99.593 L
335.429 99.111 L
336.364 98.632 L
337.298 98.155 L
338.233 97.681 L
339.168 97.21 L
340.102 96.741 L
341.037 96.276 L
341.971 95.813 L
342.906 95.352 L
343.84 94.895 L
344.775 94.44 L
345.71 93.988 L
346.644 93.539 L
347.579 93.093 L
348.513 92.649 L
349.448 92.209 L
350.382 91.771 L
351.317 91.336 L
352.251 90.904 L
353.186 90.475 L
354.121 90.049 L
355.055 89.626 L
355.99 89.206 L
356.924 88.789 L
357.859 88.375 L
358.793 87.964 L
359.728 87.556 L
360.662 87.151 L
361.597 86.75 L
362.532 86.351 L
363.466 85.955 L
364.401 85.563 L
365.335 85.173 L
366.27 84.787 L
367.204 84.404 L
368.139 84.024 L
369.074 83.647 L
370.008 83.274 L
370.943 82.903 L
371.877 82.536 L
372.812 82.173 L
373.746 81.812 L
374.681 81.455 L
375.615 81.101 L
376.55 80.751 L
377.485 80.404 L
378.419 80.06 L
379.354 79.719 L
380.288 79.382 L
381.223 79.049 L
382.157 78.718 L
383.092 78.392 L
384.026 78.068 L
384.961 77.749 L
385.896 77.432 L
386.83 77.119 L
387.765 76.81 L
388.699 76.504 L
389.634 76.202 L
390.568 75.903 L
391.503 75.608 L
392.437 75.317 L
393.372 75.029 L
394.307 74.745 L
395.241 74.464 L
396.176 74.187 L
397.11 73.914 L
398.045 73.645 L
398.979 73.379 L
399.914 73.117 L
S
GR
GS
0.635 0.078 0.184 RC
[10 6] 0 setdash
2 LJ
0.5 LW
N
80.414 354.216 M
81.349 352.188 L
82.283 350.167 L
83.218 348.152 L
84.152 346.145 L
85.087 344.146 L
86.021 342.157 L
86.956 340.178 L
87.891 338.21 L
88.825 336.255 L
89.76 334.313 L
90.694 332.385 L
91.629 330.471 L
92.563 328.574 L
93.498 326.694 L
94.433 324.832 L
95.367 322.988 L
96.302 321.165 L
97.236 319.361 L
98.171 317.58 L
99.105 315.821 L
100.04 314.085 L
100.974 312.374 L
101.909 310.688 L
102.844 309.028 L
103.778 307.396 L
104.713 305.792 L
105.647 304.216 L
106.582 302.664 L
107.516 301.121 L
108.451 299.586 L
109.385 298.059 L
110.32 296.54 L
111.255 295.029 L
112.189 293.527 L
113.124 292.033 L
114.058 290.547 L
114.993 289.071 L
115.927 287.602 L
116.862 286.143 L
117.797 284.692 L
118.731 283.25 L
119.666 281.817 L
120.6 280.393 L
121.535 278.977 L
122.469 277.571 L
123.404 276.174 L
124.338 274.786 L
125.273 273.407 L
126.208 272.038 L
127.142 270.678 L
128.077 269.327 L
129.011 267.986 L
129.946 266.655 L
130.88 265.333 L
131.815 264.02 L
132.749 262.718 L
133.684 261.425 L
134.619 260.142 L
135.553 258.87 L
136.488 257.607 L
137.422 256.354 L
138.357 255.111 L
139.291 253.879 L
140.226 252.656 L
141.16 251.445 L
142.095 250.243 L
143.03 249.052 L
143.964 247.871 L
144.899 246.701 L
145.833 245.542 L
146.768 244.393 L
147.702 243.255 L
148.637 242.128 L
149.572 241.012 L
150.506 239.907 L
151.441 238.812 L
152.375 237.729 L
153.31 236.657 L
154.244 235.596 L
155.179 234.547 L
156.113 233.509 L
157.048 232.482 L
157.983 231.467 L
158.917 230.463 L
159.852 229.468 L
160.786 228.479 L
161.721 227.495 L
162.655 226.515 L
163.59 225.541 L
164.524 224.571 L
165.459 223.607 L
166.394 222.647 L
167.328 221.692 L
168.263 220.742 L
169.197 219.797 L
170.132 218.857 L
171.066 217.921 L
172.001 216.99 L
172.936 216.064 L
173.87 215.143 L
174.805 214.226 L
175.739 213.314 L
176.674 212.407 L
177.608 211.504 L
178.543 210.606 L
179.477 209.713 L
180.412 208.824 L
181.347 207.94 L
182.281 207.06 L
183.216 206.185 L
184.15 205.314 L
185.085 204.448 L
186.019 203.586 L
186.954 202.729 L
187.888 201.876 L
188.823 201.027 L
189.758 200.183 L
190.692 199.343 L
191.627 198.508 L
192.561 197.677 L
193.496 196.85 L
194.43 196.028 L
195.365 195.21 L
196.299 194.396 L
197.234 193.586 L
198.169 192.781 L
199.103 191.979 L
200.038 191.182 L
200.972 190.389 L
201.907 189.601 L
202.841 188.816 L
203.776 188.035 L
204.711 187.259 L
205.645 186.486 L
206.58 185.718 L
207.514 184.953 L
208.449 184.193 L
209.383 183.437 L
210.318 182.684 L
211.252 181.935 L
212.187 181.191 L
213.122 180.45 L
214.056 179.713 L
214.991 178.98 L
215.925 178.251 L
216.86 177.526 L
217.794 176.804 L
218.729 176.086 L
219.663 175.372 L
220.598 174.662 L
221.533 173.955 L
222.467 173.252 L
223.402 172.553 L
224.336 171.858 L
225.271 171.166 L
226.205 170.478 L
227.14 169.793 L
228.074 169.112 L
229.009 168.434 L
229.944 167.76 L
230.878 167.09 L
231.813 166.423 L
232.747 165.759 L
233.682 165.099 L
234.616 164.443 L
235.551 163.79 L
236.486 163.14 L
237.42 162.493 L
238.355 161.85 L
239.289 161.211 L
240.224 160.574 L
241.158 159.941 L
242.093 159.312 L
243.027 158.685 L
243.962 158.062 L
244.897 157.442 L
245.831 156.825 L
246.766 156.212 L
247.7 155.601 L
248.635 154.994 L
249.569 154.39 L
250.504 153.789 L
251.438 153.189 L
252.373 152.59 L
253.308 151.991 L
254.242 151.393 L
255.177 150.795 L
256.111 150.198 L
257.046 149.601 L
257.98 149.004 L
258.915 148.408 L
259.85 147.813 L
260.784 147.218 L
261.719 146.623 L
262.653 146.029 L
263.588 145.435 L
264.522 144.842 L
265.457 144.249 L
266.391 143.657 L
267.326 143.066 L
268.261 142.475 L
269.195 141.884 L
270.13 141.294 L
271.064 140.705 L
271.999 140.116 L
272.933 139.527 L
273.868 138.94 L
274.802 138.353 L
275.737 137.766 L
276.672 137.18 L
277.606 136.595 L
278.541 136.01 L
279.475 135.426 L
280.41 134.843 L
281.344 134.26 L
282.279 133.678 L
283.214 133.097 L
284.148 132.516 L
285.083 131.936 L
286.017 131.357 L
286.952 130.778 L
287.886 130.2 L
288.821 129.623 L
289.755 129.047 L
290.69 128.471 L
291.625 127.896 L
292.559 127.322 L
293.494 126.748 L
294.428 126.175 L
295.363 125.603 L
296.297 125.032 L
297.232 124.462 L
298.166 123.892 L
299.101 123.323 L
300.036 122.755 L
300.97 122.188 L
301.905 121.622 L
302.839 121.057 L
303.774 120.492 L
304.708 119.928 L
305.643 119.365 L
306.577 118.803 L
307.512 118.242 L
308.447 117.682 L
309.381 117.122 L
310.316 116.564 L
311.25 116.006 L
312.185 115.45 L
313.119 114.894 L
314.054 114.339 L
314.989 113.785 L
315.923 113.233 L
316.858 112.681 L
317.792 112.13 L
318.727 111.58 L
319.661 111.031 L
320.596 110.483 L
321.53 109.936 L
322.465 109.39 L
323.4 108.845 L
324.334 108.301 L
325.269 107.758 L
326.203 107.216 L
327.138 106.676 L
328.072 106.136 L
329.007 105.597 L
329.941 105.06 L
330.876 104.523 L
331.811 103.988 L
332.745 103.454 L
333.68 102.92 L
334.614 102.388 L
335.549 101.858 L
336.483 101.328 L
337.418 100.799 L
338.352 100.272 L
339.287 99.745 L
340.222 99.22 L
341.156 98.696 L
342.091 98.173 L
343.025 97.652 L
343.96 97.131 L
344.894 96.612 L
345.829 96.094 L
346.764 95.577 L
347.698 95.062 L
348.633 94.547 L
349.567 94.034 L
350.502 93.523 L
351.436 93.012 L
352.371 92.503 L
353.305 91.995 L
354.24 91.488 L
355.175 90.983 L
356.109 90.479 L
357.044 89.976 L
357.978 89.475 L
358.913 88.975 L
359.847 88.476 L
360.782 87.978 L
361.716 87.482 L
362.651 86.988 L
363.586 86.494 L
364.52 86.002 L
365.455 85.512 L
366.389 85.023 L
367.324 84.535 L
368.258 84.049 L
369.193 83.564 L
370.128 83.08 L
371.062 82.598 L
371.997 82.118 L
372.931 81.638 L
373.866 81.161 L
374.8 80.685 L
375.735 80.21 L
376.669 79.737 L
377.604 79.265 L
378.539 78.795 L
379.473 78.326 L
380.408 77.859 L
381.342 77.393 L
382.277 76.929 L
383.211 76.466 L
384.146 76.005 L
385.08 75.546 L
386.015 75.088 L
386.95 74.632 L
387.884 74.177 L
388.819 73.724 L
389.753 73.272 L
390.688 72.822 L
391.622 72.374 L
392.557 71.927 L
393.491 71.482 L
394.426 71.039 L
395.361 70.597 L
396.295 70.157 L
397.23 69.718 L
398.164 69.282 L
399.099 68.847 L
400.033 68.413 L
400.968 67.981 L
401.903 67.551 L
402.837 67.123 L
403.772 66.697 L
404.706 66.272 L
405.641 65.849 L
406.575 65.428 L
407.51 65.008 L
408.444 64.59 L
409.379 64.174 L
410.314 63.76 L
411.248 63.348 L
412.183 62.937 L
413.117 62.528 L
414.052 62.121 L
414.986 61.716 L
415.921 61.312 L
416.855 60.911 L
417.79 60.511 L
418.725 60.113 L
419.659 59.718 L
420.594 59.323 L
421.528 58.931 L
422.463 58.541 L
423.397 58.153 L
424.332 57.766 L
425.267 57.381 L
426.201 56.999 L
427.136 56.618 L
428.07 56.239 L
429.005 55.862 L
429.939 55.487 L
430.874 55.115 L
431.808 54.744 L
432.743 54.375 L
433.678 54.008 L
434.612 53.643 L
435.547 53.28 L
436.481 52.919 L
437.416 52.56 L
438.35 52.203 L
439.285 51.848 L
440.219 51.495 L
441.154 51.144 L
442.089 50.795 L
443.023 50.449 L
443.958 50.104 L
444.892 49.762 L
445.827 49.421 L
446.761 49.083 L
447.696 48.747 L
448.63 48.413 L
449.565 48.081 L
450.5 47.751 L
451.434 47.423 L
452.369 47.098 L
453.303 46.774 L
454.238 46.453 L
455.172 46.134 L
456.107 45.817 L
457.042 45.503 L
457.976 45.19 L
458.911 44.88 L
459.845 44.572 L
460.78 44.266 L
461.714 43.963 L
462.649 43.661 L
463.583 43.362 L
464.518 43.065 L
465.453 42.771 L
466.387 42.479 L
467.322 42.189 L
468.256 41.901 L
469.191 41.616 L
470.125 41.333 L
471.06 41.052 L
471.994 40.773 L
472.929 40.497 L
473.864 40.223 L
474.798 39.952 L
475.733 39.683 L
476.667 39.416 L
477.602 39.152 L
478.536 38.89 L
479.471 38.631 L
480.405 38.373 L
481.34 38.119 L
482.275 37.866 L
483.209 37.616 L
484.144 37.369 L
485.078 37.124 L
486.013 36.881 L
486.947 36.641 L
487.882 36.403 L
488.817 36.168 L
489.751 35.935 L
490.686 35.705 L
491.62 35.477 L
492.555 35.252 L
493.489 35.03 L
494.424 34.809 L
S
GR
GS
0 0.447 0.741 RC
[10 6] 0 setdash
2 LJ
0.5 LW
N
78.854 355.831 M
79.788 353.711 L
80.723 351.597 L
81.657 349.491 L
82.592 347.394 L
83.526 345.306 L
84.461 343.228 L
85.395 341.163 L
86.33 339.11 L
87.265 337.071 L
88.199 335.046 L
89.134 333.038 L
90.068 331.047 L
91.003 329.074 L
91.937 327.12 L
92.872 325.186 L
93.807 323.273 L
94.741 321.383 L
95.676 319.516 L
96.61 317.673 L
97.545 315.857 L
98.479 314.066 L
99.414 312.304 L
100.348 310.57 L
101.283 308.865 L
102.218 307.192 L
103.152 305.551 L
104.087 303.931 L
105.021 302.32 L
105.956 300.718 L
106.89 299.125 L
107.825 297.54 L
108.759 295.965 L
109.694 294.399 L
110.629 292.842 L
111.563 291.294 L
112.498 289.756 L
113.432 288.227 L
114.367 286.708 L
115.301 285.198 L
116.236 283.698 L
117.171 282.207 L
118.105 280.727 L
119.04 279.256 L
119.974 277.795 L
120.909 276.345 L
121.843 274.904 L
122.778 273.474 L
123.712 272.055 L
124.647 270.645 L
125.582 269.246 L
126.516 267.858 L
127.451 266.48 L
128.385 265.113 L
129.32 263.757 L
130.254 262.412 L
131.189 261.078 L
132.123 259.755 L
133.058 258.443 L
133.993 257.142 L
134.927 255.853 L
135.862 254.575 L
136.796 253.308 L
137.731 252.053 L
138.665 250.81 L
139.6 249.578 L
140.534 248.358 L
141.469 247.151 L
142.404 245.955 L
143.338 244.771 L
144.273 243.599 L
145.207 242.439 L
146.142 241.292 L
147.076 240.157 L
148.011 239.035 L
148.946 237.925 L
149.88 236.827 L
150.815 235.743 L
151.749 234.671 L
152.684 233.612 L
153.618 232.566 L
154.553 231.531 L
155.487 230.502 L
156.422 229.478 L
157.357 228.459 L
158.291 227.446 L
159.226 226.439 L
160.16 225.437 L
161.095 224.44 L
162.029 223.448 L
162.964 222.462 L
163.898 221.482 L
164.833 220.506 L
165.768 219.536 L
166.702 218.571 L
167.637 217.611 L
168.571 216.657 L
169.506 215.707 L
170.44 214.763 L
171.375 213.824 L
172.309 212.89 L
173.244 211.961 L
174.179 211.037 L
175.113 210.118 L
176.048 209.204 L
176.982 208.296 L
177.917 207.392 L
178.851 206.493 L
179.786 205.599 L
180.721 204.709 L
181.655 203.825 L
182.59 202.946 L
183.524 202.071 L
184.459 201.201 L
185.393 200.336 L
186.328 199.476 L
187.262 198.62 L
188.197 197.769 L
189.132 196.923 L
190.066 196.082 L
191.001 195.245 L
191.935 194.412 L
192.87 193.585 L
193.804 192.762 L
194.739 191.943 L
195.673 191.129 L
196.608 190.319 L
197.543 189.514 L
198.477 188.713 L
199.412 187.917 L
200.346 187.125 L
201.281 186.338 L
202.215 185.554 L
203.15 184.776 L
204.085 184.001 L
205.019 183.231 L
205.954 182.465 L
206.888 181.703 L
207.823 180.946 L
208.757 180.192 L
209.692 179.443 L
210.626 178.698 L
211.561 177.957 L
212.496 177.22 L
213.43 176.487 L
214.365 175.759 L
215.299 175.034 L
216.234 174.313 L
217.168 173.596 L
218.103 172.884 L
219.037 172.175 L
219.972 171.47 L
220.907 170.769 L
221.841 170.072 L
222.776 169.378 L
223.71 168.689 L
224.645 168.003 L
225.579 167.321 L
226.514 166.643 L
227.448 165.968 L
228.383 165.297 L
229.318 164.63 L
230.252 163.966 L
231.187 163.306 L
232.121 162.65 L
233.056 161.997 L
233.99 161.348 L
234.925 160.703 L
235.86 160.06 L
236.794 159.422 L
237.729 158.787 L
238.663 158.155 L
239.598 157.526 L
240.532 156.902 L
241.467 156.28 L
242.401 155.66 L
243.336 155.04 L
244.271 154.421 L
245.205 153.803 L
246.14 153.184 L
247.074 152.567 L
248.009 151.949 L
248.943 151.332 L
249.878 150.716 L
250.812 150.1 L
251.747 149.484 L
252.682 148.869 L
253.616 148.255 L
254.551 147.641 L
255.485 147.027 L
256.42 146.415 L
257.354 145.802 L
258.289 145.19 L
259.224 144.579 L
260.158 143.968 L
261.093 143.358 L
262.027 142.749 L
262.962 142.14 L
263.896 141.532 L
264.831 140.924 L
265.765 140.317 L
266.7 139.71 L
267.635 139.104 L
268.569 138.499 L
269.504 137.895 L
270.438 137.291 L
271.373 136.688 L
272.307 136.085 L
273.242 135.483 L
274.176 134.882 L
275.111 134.282 L
276.046 133.682 L
276.98 133.083 L
277.915 132.485 L
278.849 131.887 L
279.784 131.291 L
280.718 130.695 L
281.653 130.1 L
282.587 129.505 L
283.522 128.912 L
284.457 128.319 L
285.391 127.727 L
286.326 127.136 L
287.26 126.545 L
288.195 125.956 L
289.129 125.367 L
290.064 124.779 L
290.999 124.192 L
291.933 123.606 L
292.868 123.021 L
293.802 122.437 L
294.737 121.853 L
295.671 121.271 L
296.606 120.689 L
297.54 120.109 L
298.475 119.529 L
299.41 118.95 L
300.344 118.372 L
301.279 117.796 L
302.213 117.22 L
303.148 116.645 L
304.082 116.071 L
305.017 115.498 L
305.951 114.926 L
306.886 114.355 L
307.821 113.785 L
308.755 113.216 L
309.69 112.649 L
310.624 112.082 L
311.559 111.516 L
312.493 110.951 L
313.428 110.388 L
314.362 109.826 L
315.297 109.264 L
316.232 108.704 L
317.166 108.145 L
318.101 107.587 L
319.035 107.03 L
319.97 106.474 L
320.904 105.919 L
321.839 105.366 L
322.774 104.814 L
323.708 104.263 L
324.643 103.713 L
325.577 103.164 L
326.512 102.617 L
327.446 102.07 L
328.381 101.525 L
329.315 100.981 L
330.25 100.439 L
331.185 99.897 L
332.119 99.357 L
333.054 98.818 L
333.988 98.281 L
334.923 97.745 L
335.857 97.21 L
336.792 96.676 L
337.726 96.144 L
338.661 95.613 L
339.596 95.083 L
340.53 94.555 L
341.465 94.028 L
342.399 93.502 L
343.334 92.978 L
344.268 92.455 L
345.203 91.933 L
346.138 91.413 L
347.072 90.894 L
348.007 90.377 L
348.941 89.861 L
349.876 89.346 L
350.81 88.833 L
351.745 88.322 L
352.679 87.812 L
353.614 87.303 L
354.549 86.796 L
355.483 86.29 L
356.418 85.786 L
357.352 85.283 L
358.287 84.782 L
359.221 84.282 L
360.156 83.784 L
361.09 83.287 L
362.025 82.792 L
362.96 82.298 L
363.894 81.806 L
364.829 81.316 L
365.763 80.827 L
366.698 80.34 L
367.632 79.854 L
368.567 79.37 L
369.501 78.888 L
370.436 78.407 L
371.371 77.928 L
372.305 77.45 L
373.24 76.974 L
374.174 76.5 L
375.109 76.027 L
376.043 75.557 L
376.978 75.087 L
377.913 74.62 L
378.847 74.154 L
379.782 73.69 L
380.716 73.228 L
381.651 72.767 L
382.585 72.308 L
383.52 71.851 L
384.454 71.396 L
385.389 70.942 L
386.324 70.49 L
387.258 70.04 L
388.193 69.592 L
389.127 69.146 L
390.062 68.701 L
390.996 68.258 L
391.931 67.817 L
392.865 67.378 L
393.8 66.941 L
394.735 66.505 L
395.669 66.072 L
396.604 65.64 L
397.538 65.21 L
398.473 64.782 L
399.407 64.356 L
400.342 63.932 L
401.277 63.51 L
402.211 63.09 L
403.146 62.672 L
404.08 62.255 L
405.015 61.841 L
405.949 61.428 L
406.884 61.018 L
407.818 60.609 L
408.753 60.203 L
409.688 59.799 L
410.622 59.396 L
411.557 58.996 L
412.491 58.597 L
413.426 58.201 L
414.36 57.807 L
415.295 57.414 L
416.229 57.024 L
417.164 56.636 L
418.099 56.25 L
419.033 55.866 L
419.968 55.484 L
420.902 55.104 L
421.837 54.727 L
422.771 54.351 L
423.706 53.978 L
424.64 53.607 L
425.575 53.237 L
426.51 52.871 L
427.444 52.506 L
428.379 52.143 L
429.313 51.783 L
430.248 51.425 L
431.182 51.069 L
432.117 50.715 L
433.052 50.363 L
433.986 50.014 L
434.921 49.667 L
435.855 49.322 L
436.79 48.98 L
437.724 48.64 L
438.659 48.302 L
439.593 47.966 L
440.528 47.633 L
441.463 47.301 L
442.397 46.973 L
443.332 46.646 L
444.266 46.322 L
445.201 46 L
446.135 45.681 L
447.07 45.364 L
448.004 45.049 L
448.939 44.737 L
449.874 44.427 L
450.808 44.119 L
451.743 43.814 L
452.677 43.512 L
453.612 43.211 L
454.546 42.913 L
455.481 42.618 L
456.416 42.325 L
457.35 42.035 L
458.285 41.746 L
459.219 41.461 L
460.154 41.178 L
461.088 40.897 L
462.023 40.619 L
462.957 40.344 L
463.892 40.071 L
464.827 39.8 L
465.761 39.532 L
466.696 39.267 L
467.63 39.004 L
468.565 38.744 L
469.499 38.486 L
470.434 38.231 L
471.368 37.978 L
472.303 37.728 L
473.238 37.481 L
474.172 37.236 L
475.107 36.994 L
476.041 36.755 L
476.976 36.518 L
477.91 36.284 L
478.845 36.052 L
479.78 35.823 L
480.714 35.597 L
481.649 35.374 L
482.583 35.153 L
S
GR
GS
0.851 0.325 0.098 RC
[10 6] 0 setdash
2 LJ
0.5 LW
N
78.239 357 M
79.173 354.827 L
80.108 352.661 L
81.042 350.503 L
81.977 348.354 L
82.911 346.215 L
83.846 344.087 L
84.78 341.972 L
85.715 339.871 L
86.65 337.784 L
87.584 335.713 L
88.519 333.66 L
89.453 331.625 L
90.388 329.609 L
91.322 327.614 L
92.257 325.64 L
93.191 323.689 L
94.126 321.763 L
95.061 319.861 L
95.995 317.986 L
96.93 316.138 L
97.864 314.319 L
98.799 312.529 L
99.733 310.771 L
100.668 309.044 L
101.602 307.351 L
102.537 305.687 L
103.472 304.036 L
104.406 302.394 L
105.341 300.762 L
106.275 299.139 L
107.21 297.525 L
108.144 295.921 L
109.079 294.327 L
110.014 292.742 L
110.948 291.168 L
111.883 289.603 L
112.817 288.049 L
113.752 286.504 L
114.686 284.97 L
115.621 283.446 L
116.555 281.933 L
117.49 280.43 L
118.425 278.938 L
119.359 277.456 L
120.294 275.985 L
121.228 274.525 L
122.163 273.076 L
123.097 271.638 L
124.032 270.211 L
124.966 268.796 L
125.901 267.391 L
126.836 265.998 L
127.77 264.616 L
128.705 263.246 L
129.639 261.888 L
130.574 260.541 L
131.508 259.206 L
132.443 257.883 L
133.378 256.572 L
134.312 255.273 L
135.247 253.986 L
136.181 252.711 L
137.116 251.449 L
138.05 250.199 L
138.985 248.961 L
139.919 247.736 L
140.854 246.524 L
141.789 245.324 L
142.723 244.138 L
143.658 242.964 L
144.592 241.803 L
145.527 240.656 L
146.461 239.521 L
147.396 238.4 L
148.33 237.292 L
149.265 236.198 L
150.2 235.117 L
151.134 234.05 L
152.069 232.993 L
153.003 231.943 L
153.938 230.897 L
154.872 229.858 L
155.807 228.824 L
156.741 227.796 L
157.676 226.773 L
158.611 225.756 L
159.545 224.744 L
160.48 223.738 L
161.414 222.738 L
162.349 221.743 L
163.283 220.753 L
164.218 219.769 L
165.153 218.79 L
166.087 217.816 L
167.022 216.848 L
167.956 215.886 L
168.891 214.928 L
169.825 213.976 L
170.76 213.029 L
171.694 212.088 L
172.629 211.151 L
173.564 210.22 L
174.498 209.294 L
175.433 208.374 L
176.367 207.458 L
177.302 206.548 L
178.236 205.642 L
179.171 204.742 L
180.105 203.847 L
181.04 202.957 L
181.975 202.071 L
182.909 201.191 L
183.844 200.316 L
184.778 199.446 L
185.713 198.581 L
186.647 197.721 L
187.582 196.865 L
188.516 196.015 L
189.451 195.169 L
190.386 194.328 L
191.32 193.492 L
192.255 192.661 L
193.189 191.834 L
194.124 191.013 L
195.058 190.196 L
195.993 189.383 L
196.928 188.576 L
197.862 187.773 L
198.797 186.974 L
199.731 186.181 L
200.666 185.392 L
201.6 184.607 L
202.535 183.827 L
203.469 183.052 L
204.404 182.281 L
205.339 181.514 L
206.273 180.752 L
207.208 179.995 L
208.142 179.242 L
209.077 178.493 L
210.011 177.749 L
210.946 177.009 L
211.88 176.273 L
212.815 175.542 L
213.75 174.815 L
214.684 174.092 L
215.619 173.374 L
216.553 172.66 L
217.488 171.95 L
218.422 171.244 L
219.357 170.542 L
220.292 169.845 L
221.226 169.151 L
222.161 168.462 L
223.095 167.777 L
224.03 167.096 L
224.964 166.419 L
225.899 165.746 L
226.833 165.077 L
227.768 164.412 L
228.703 163.751 L
229.637 163.094 L
230.572 162.44 L
231.506 161.791 L
232.441 161.146 L
233.375 160.504 L
234.31 159.866 L
235.244 159.232 L
236.179 158.602 L
237.114 157.975 L
238.048 157.348 L
238.983 156.722 L
239.917 156.096 L
240.852 155.47 L
241.786 154.845 L
242.721 154.221 L
243.655 153.597 L
244.59 152.973 L
245.525 152.35 L
246.459 151.727 L
247.394 151.105 L
248.328 150.483 L
249.263 149.862 L
250.197 149.241 L
251.132 148.621 L
252.067 148.002 L
253.001 147.383 L
253.936 146.764 L
254.87 146.146 L
255.805 145.529 L
256.739 144.912 L
257.674 144.296 L
258.608 143.68 L
259.543 143.066 L
260.478 142.451 L
261.412 141.838 L
262.347 141.225 L
263.281 140.612 L
264.216 140 L
265.15 139.389 L
266.085 138.779 L
267.019 138.169 L
267.954 137.561 L
268.889 136.952 L
269.823 136.345 L
270.758 135.738 L
271.692 135.132 L
272.627 134.527 L
273.561 133.922 L
274.496 133.319 L
275.431 132.716 L
276.365 132.113 L
277.3 131.512 L
278.234 130.912 L
279.169 130.312 L
280.103 129.713 L
281.038 129.115 L
281.972 128.518 L
282.907 127.921 L
283.842 127.326 L
284.776 126.731 L
285.711 126.138 L
286.645 125.545 L
287.58 124.953 L
288.514 124.362 L
289.449 123.772 L
290.383 123.183 L
291.318 122.595 L
292.253 122.008 L
293.187 121.421 L
294.122 120.836 L
295.056 120.252 L
295.991 119.669 L
296.925 119.086 L
297.86 118.505 L
298.794 117.925 L
299.729 117.346 L
300.664 116.768 L
301.598 116.191 L
302.533 115.615 L
303.467 115.04 L
304.402 114.466 L
305.336 113.893 L
306.271 113.321 L
307.206 112.751 L
308.14 112.181 L
309.075 111.613 L
310.009 111.046 L
310.944 110.48 L
311.878 109.915 L
312.813 109.351 L
313.747 108.789 L
314.682 108.228 L
315.617 107.668 L
316.551 107.109 L
317.486 106.551 L
318.42 105.995 L
319.355 105.439 L
320.289 104.886 L
321.224 104.333 L
322.158 103.781 L
323.093 103.231 L
324.028 102.682 L
324.962 102.135 L
325.897 101.589 L
326.831 101.044 L
327.766 100.5 L
328.7 99.958 L
329.635 99.417 L
330.569 98.877 L
331.504 98.339 L
332.439 97.802 L
333.373 97.267 L
334.308 96.733 L
335.242 96.2 L
336.177 95.669 L
337.111 95.139 L
338.046 94.611 L
338.981 94.084 L
339.915 93.559 L
340.85 93.035 L
341.784 92.512 L
342.719 91.991 L
343.653 91.472 L
344.588 90.954 L
345.522 90.437 L
346.457 89.922 L
347.392 89.409 L
348.326 88.897 L
349.261 88.386 L
350.195 87.877 L
351.13 87.37 L
352.064 86.864 L
352.999 86.36 L
353.933 85.858 L
354.868 85.357 L
355.803 84.858 L
356.737 84.36 L
357.672 83.864 L
358.606 83.37 L
359.541 82.877 L
360.475 82.386 L
361.41 81.897 L
362.345 81.409 L
363.279 80.923 L
364.214 80.439 L
365.148 79.956 L
366.083 79.475 L
367.017 78.996 L
367.952 78.519 L
368.886 78.043 L
369.821 77.57 L
370.756 77.098 L
371.69 76.627 L
372.625 76.159 L
373.559 75.692 L
374.494 75.227 L
375.428 74.764 L
376.363 74.303 L
377.297 73.844 L
378.232 73.386 L
379.167 72.931 L
380.101 72.477 L
381.036 72.025 L
381.97 71.575 L
382.905 71.127 L
383.839 70.681 L
384.774 70.236 L
385.708 69.794 L
386.643 69.354 L
387.578 68.915 L
388.512 68.479 L
389.447 68.044 L
390.381 67.612 L
391.316 67.181 L
392.25 66.752 L
393.185 66.326 L
394.12 65.901 L
395.054 65.479 L
395.989 65.058 L
396.923 64.64 L
397.858 64.224 L
398.792 63.809 L
399.727 63.397 L
400.661 62.987 L
401.596 62.579 L
402.531 62.173 L
403.465 61.769 L
404.4 61.367 L
405.334 60.968 L
406.269 60.57 L
407.203 60.175 L
408.138 59.782 L
409.072 59.391 L
410.007 59.002 L
410.942 58.616 L
411.876 58.231 L
412.811 57.849 L
413.745 57.469 L
414.68 57.091 L
415.614 56.716 L
416.549 56.343 L
417.484 55.972 L
418.418 55.603 L
419.353 55.237 L
420.287 54.873 L
421.222 54.511 L
422.156 54.151 L
423.091 53.794 L
424.025 53.439 L
424.96 53.087 L
425.895 52.736 L
426.829 52.389 L
427.764 52.043 L
428.698 51.7 L
429.633 51.359 L
430.567 51.021 L
431.502 50.685 L
432.436 50.352 L
433.371 50.021 L
434.306 49.692 L
435.24 49.366 L
436.175 49.042 L
437.109 48.721 L
438.044 48.402 L
438.978 48.086 L
439.913 47.772 L
440.848 47.461 L
441.782 47.152 L
442.717 46.845 L
443.651 46.542 L
444.586 46.241 L
445.52 45.942 L
446.455 45.646 L
447.389 45.352 L
448.324 45.061 L
449.259 44.773 L
450.193 44.487 L
451.128 44.204 L
452.062 43.924 L
452.997 43.646 L
453.931 43.37 L
454.866 43.098 L
455.8 42.828 L
456.735 42.561 L
457.67 42.296 L
458.604 42.034 L
459.539 41.775 L
460.473 41.518 L
461.408 41.265 L
462.342 41.013 L
463.277 40.765 L
464.211 40.52 L
465.146 40.277 L
466.081 40.037 L
467.015 39.799 L
467.95 39.565 L
468.884 39.333 L
469.819 39.104 L
470.753 38.878 L
471.688 38.655 L
472.622 38.434 L
473.557 38.217 L
474.492 38.002 L
475.426 37.79 L
476.361 37.581 L
S
GR
GS
1 GC
N
499 366 M
499 218.5 L
327.5 218.5 L
327.5 366 L
cp
f
GR
GS
[1 0 0 1 364.5 228.25] CT
/Helvetica 13 F
GS
[1 0 0 1 0 0] CT
0 5 moveto 
1 -1 scale
(Base Run) t 
GR
GR
GS
0 0.447 0.741 RC
1 LJ
0.5 LW
N
331.5 228.25 M
361.5 228.25 L
S
GR
GS
[1 0 0 1 364.5 244.25] CT
/Helvetica 13 F
GS
[1 0 0 1 0 0] CT
0 5 moveto 
1 -1 scale
(All Frames) t 
GR
GR
GS
0.851 0.325 0.098 RC
1 LJ
0.5 LW
N
331.5 244.25 M
361.5 244.25 L
S
GR
GS
[1 0 0 1 364.5 260.25] CT
/Helvetica 13 F
GS
[1 0 0 1 0 0] CT
0 5 moveto 
1 -1 scale
(KF Only) t 
GR
GR
GS
0.929 0.694 0.125 RC
1 LJ
0.5 LW
N
331.5 260.25 M
361.5 260.25 L
S
GR
GS
[1 0 0 1 364.5 276.25] CT
/Helvetica 13 F
GS
[1 0 0 1 0 0] CT
0 5 moveto 
1 -1 scale
(GF, ARF Only) t 
GR
GR
GS
0.494 0.184 0.557 RC
1 LJ
0.5 LW
N
331.5 276.25 M
361.5 276.25 L
S
GR
GS
[1 0 0 1 364.5 292.25] CT
/Helvetica 13 F
GS
[1 0 0 1 0 0] CT
0 5 moveto 
1 -1 scale
(KF, GF, ARF Only) t 
GR
GR
GS
0.467 0.675 0.188 RC
1 LJ
0.5 LW
N
331.5 292.25 M
361.5 292.25 L
S
GR
GS
[1 0 0 1 364.5 308.25] CT
/Helvetica 13 F
GS
[1 0 0 1 0 0] CT
0 5 moveto 
1 -1 scale
(Part All Frames) t 
GR
GR
GS
0.302 0.745 0.933 RC
[10 6] 0 setdash
2 LJ
0.5 LW
N
331.5 308.25 M
361.5 308.25 L
S
GR
GS
[1 0 0 1 364.5 324.25] CT
/Helvetica 13 F
GS
[1 0 0 1 0 0] CT
0 5 moveto 
1 -1 scale
(Part KF Only) t 
GR
GR
GS
0.635 0.078 0.184 RC
[10 6] 0 setdash
2 LJ
0.5 LW
N
331.5 324.25 M
361.5 324.25 L
S
GR
GS
[1 0 0 1 364.5 340.25] CT
/Helvetica 13 F
GS
[1 0 0 1 0 0] CT
0 5 moveto 
1 -1 scale
(Part GF, ARF Only) t 
GR
GR
GS
0 0.447 0.741 RC
[10 6] 0 setdash
2 LJ
0.5 LW
N
331.5 340.25 M
361.5 340.25 L
S
GR
GS
[1 0 0 1 364.5 356.25] CT
/Helvetica 13 F
GS
[1 0 0 1 0 0] CT
0 5 moveto 
1 -1 scale
(Part KF, GF, ARF Only) t 
GR
GR
GS
0.851 0.325 0.098 RC
[10 6] 0 setdash
2 LJ
0.5 LW
N
331.5 356.25 M
361.5 356.25 L
S
GR
GS
0.149 GC
10.0 ML
0.5 LW
N
327.5 366 M
327.5 218.5 L
499 218.5 L
499 366 L
cp
S
GR
%%Trailer
%%Pages: 1
%%EOF
