%!PS-Adobe-3.0 EPSF-3.0
%%Creator: (MATLAB, The Mathworks, Inc. Version 9.11.0.1837725 \(R2021b\) Update 2. Operating System: Mac OS X)
%%Title: plots/pchip/Vlog_1080P-58ad.y4m-hevc-MS_SSIM.eps
%%CreationDate: 2022-02-03T19:14:57
%%Pages: (atend)
%%BoundingBox:    33   425   515   826
%%LanguageLevel: 3
%%EndComments
%%BeginProlog
%%BeginResource: procset (Apache XML Graphics Std ProcSet) 1.2 0
%%Version: 1.2 0
%%Copyright: (Copyright 2001-2003,2010 The Apache Software Foundation. License terms: http://www.apache.org/licenses/LICENSE-2.0)
/bd{bind def}bind def
/ld{load def}bd
/GR/grestore ld
/GS/gsave ld
/RM/rmoveto ld
/C/curveto ld
/t/show ld
/L/lineto ld
/ML/setmiterlimit ld
/CT/concat ld
/f/fill ld
/N/newpath ld
/S/stroke ld
/CC/setcmykcolor ld
/A/ashow ld
/cp/closepath ld
/RC/setrgbcolor ld
/LJ/setlinejoin ld
/GC/setgray ld
/LW/setlinewidth ld
/M/moveto ld
/re {4 2 roll M
1 index 0 rlineto
0 exch rlineto
neg 0 rlineto
cp } bd
/_ctm matrix def
/_tm matrix def
/BT { _ctm currentmatrix pop matrix _tm copy pop 0 0 moveto } bd
/ET { _ctm setmatrix } bd
/iTm { _ctm setmatrix _tm concat } bd
/Tm { _tm astore pop iTm 0 0 moveto } bd
/ux 0.0 def
/uy 0.0 def
/F {
  /Tp exch def
  /Tf exch def
  Tf findfont Tp scalefont setfont
  /cf Tf def  /cs Tp def
} bd
/ULS {currentpoint /uy exch def /ux exch def} bd
/ULE {
  /Tcx currentpoint pop def
  gsave
  newpath
  cf findfont cs scalefont dup
  /FontMatrix get 0 get /Ts exch def /FontInfo get dup
  /UnderlinePosition get Ts mul /To exch def
  /UnderlineThickness get Ts mul /Tt exch def
  ux uy To add moveto  Tcx uy To add lineto
  Tt setlinewidth stroke
  grestore
} bd
/OLE {
  /Tcx currentpoint pop def
  gsave
  newpath
  cf findfont cs scalefont dup
  /FontMatrix get 0 get /Ts exch def /FontInfo get dup
  /UnderlinePosition get Ts mul /To exch def
  /UnderlineThickness get Ts mul /Tt exch def
  ux uy To add cs add moveto Tcx uy To add cs add lineto
  Tt setlinewidth stroke
  grestore
} bd
/SOE {
  /Tcx currentpoint pop def
  gsave
  newpath
  cf findfont cs scalefont dup
  /FontMatrix get 0 get /Ts exch def /FontInfo get dup
  /UnderlinePosition get Ts mul /To exch def
  /UnderlineThickness get Ts mul /Tt exch def
  ux uy To add cs 10 mul 26 idiv add moveto Tcx uy To add cs 10 mul 26 idiv add lineto
  Tt setlinewidth stroke
  grestore
} bd
/QT {
/Y22 exch store
/X22 exch store
/Y21 exch store
/X21 exch store
currentpoint
/Y21 load 2 mul add 3 div exch
/X21 load 2 mul add 3 div exch
/X21 load 2 mul /X22 load add 3 div
/Y21 load 2 mul /Y22 load add 3 div
/X22 load /Y22 load curveto
} bd
/SSPD {
dup length /d exch dict def
{
/v exch def
/k exch def
currentpagedevice k known {
/cpdv currentpagedevice k get def
v cpdv ne {
/upd false def
/nullv v type /nulltype eq def
/nullcpdv cpdv type /nulltype eq def
nullv nullcpdv or
{
/upd true def
} {
/sametype v type cpdv type eq def
sametype {
v type /arraytype eq {
/vlen v length def
/cpdvlen cpdv length def
vlen cpdvlen eq {
0 1 vlen 1 sub {
/i exch def
/obj v i get def
/cpdobj cpdv i get def
obj cpdobj ne {
/upd true def
exit
} if
} for
} {
/upd true def
} ifelse
} {
v type /dicttype eq {
v {
/dv exch def
/dk exch def
/cpddv cpdv dk get def
dv cpddv ne {
/upd true def
exit
} if
} forall
} {
/upd true def
} ifelse
} ifelse
} if
} ifelse
upd true eq {
d k v put
} if
} if
} if
} forall
d length 0 gt {
d setpagedevice
} if
} bd
/RE { % /NewFontName [NewEncodingArray] /FontName RE -
  findfont dup length dict begin
  {
    1 index /FID ne
    {def} {pop pop} ifelse
  } forall
  /Encoding exch def
  /FontName 1 index def
  currentdict definefont pop
  end
} bind def
%%EndResource
%%BeginResource: procset (Apache XML Graphics EPS ProcSet) 1.0 0
%%Version: 1.0 0
%%Copyright: (Copyright 2002-2003 The Apache Software Foundation. License terms: http://www.apache.org/licenses/LICENSE-2.0)
/BeginEPSF { %def
/b4_Inc_state save def         % Save state for cleanup
/dict_count countdictstack def % Count objects on dict stack
/op_count count 1 sub def      % Count objects on operand stack
userdict begin                 % Push userdict on dict stack
/showpage { } def              % Redefine showpage, { } = null proc
0 setgray 0 setlinecap         % Prepare graphics state
1 setlinewidth 0 setlinejoin
10 setmiterlimit [ ] 0 setdash newpath
/languagelevel where           % If level not equal to 1 then
{pop languagelevel             % set strokeadjust and
1 ne                           % overprint to their defaults.
{false setstrokeadjust false setoverprint
} if
} if
} bd
/EndEPSF { %def
count op_count sub {pop} repeat            % Clean up stacks
countdictstack dict_count sub {end} repeat
b4_Inc_state restore
} bd
%%EndResource
%FOPBeginFontDict
%%IncludeResource: font Courier-Oblique
%%IncludeResource: font Courier-BoldOblique
%%IncludeResource: font Courier-Bold
%%IncludeResource: font ZapfDingbats
%%IncludeResource: font Symbol
%%IncludeResource: font Helvetica
%%IncludeResource: font Helvetica-Oblique
%%IncludeResource: font Helvetica-Bold
%%IncludeResource: font Helvetica-BoldOblique
%%IncludeResource: font Times-Roman
%%IncludeResource: font Times-Italic
%%IncludeResource: font Times-Bold
%%IncludeResource: font Times-BoldItalic
%%IncludeResource: font Courier
%FOPEndFontDict
%%BeginResource: encoding WinAnsiEncoding
/WinAnsiEncoding [
/.notdef /.notdef /.notdef /.notdef /.notdef
/.notdef /.notdef /.notdef /.notdef /.notdef
/.notdef /.notdef /.notdef /.notdef /.notdef
/.notdef /.notdef /.notdef /.notdef /.notdef
/.notdef /.notdef /.notdef /.notdef /.notdef
/.notdef /.notdef /.notdef /.notdef /.notdef
/.notdef /.notdef /space /exclam /quotedbl
/numbersign /dollar /percent /ampersand /quotesingle
/parenleft /parenright /asterisk /plus /comma
/hyphen /period /slash /zero /one
/two /three /four /five /six
/seven /eight /nine /colon /semicolon
/less /equal /greater /question /at
/A /B /C /D /E
/F /G /H /I /J
/K /L /M /N /O
/P /Q /R /S /T
/U /V /W /X /Y
/Z /bracketleft /backslash /bracketright /asciicircum
/underscore /quoteleft /a /b /c
/d /e /f /g /h
/i /j /k /l /m
/n /o /p /q /r
/s /t /u /v /w
/x /y /z /braceleft /bar
/braceright /asciitilde /bullet /Euro /bullet
/quotesinglbase /florin /quotedblbase /ellipsis /dagger
/daggerdbl /circumflex /perthousand /Scaron /guilsinglleft
/OE /bullet /Zcaron /bullet /bullet
/quoteleft /quoteright /quotedblleft /quotedblright /bullet
/endash /emdash /asciitilde /trademark /scaron
/guilsinglright /oe /bullet /zcaron /Ydieresis
/space /exclamdown /cent /sterling /currency
/yen /brokenbar /section /dieresis /copyright
/ordfeminine /guillemotleft /logicalnot /sfthyphen /registered
/macron /degree /plusminus /twosuperior /threesuperior
/acute /mu /paragraph /middot /cedilla
/onesuperior /ordmasculine /guillemotright /onequarter /onehalf
/threequarters /questiondown /Agrave /Aacute /Acircumflex
/Atilde /Adieresis /Aring /AE /Ccedilla
/Egrave /Eacute /Ecircumflex /Edieresis /Igrave
/Iacute /Icircumflex /Idieresis /Eth /Ntilde
/Ograve /Oacute /Ocircumflex /Otilde /Odieresis
/multiply /Oslash /Ugrave /Uacute /Ucircumflex
/Udieresis /Yacute /Thorn /germandbls /agrave
/aacute /acircumflex /atilde /adieresis /aring
/ae /ccedilla /egrave /eacute /ecircumflex
/edieresis /igrave /iacute /icircumflex /idieresis
/eth /ntilde /ograve /oacute /ocircumflex
/otilde /odieresis /divide /oslash /ugrave
/uacute /ucircumflex /udieresis /yacute /thorn
/ydieresis
] def
%%EndResource
%FOPBeginFontReencode
/Courier-Oblique findfont
dup length dict begin
  {1 index /FID ne {def} {pop pop} ifelse} forall
  /Encoding WinAnsiEncoding def
  currentdict
end
/Courier-Oblique exch definefont pop
/Courier-BoldOblique findfont
dup length dict begin
  {1 index /FID ne {def} {pop pop} ifelse} forall
  /Encoding WinAnsiEncoding def
  currentdict
end
/Courier-BoldOblique exch definefont pop
/Courier-Bold findfont
dup length dict begin
  {1 index /FID ne {def} {pop pop} ifelse} forall
  /Encoding WinAnsiEncoding def
  currentdict
end
/Courier-Bold exch definefont pop
/Helvetica findfont
dup length dict begin
  {1 index /FID ne {def} {pop pop} ifelse} forall
  /Encoding WinAnsiEncoding def
  currentdict
end
/Helvetica exch definefont pop
/Helvetica-Oblique findfont
dup length dict begin
  {1 index /FID ne {def} {pop pop} ifelse} forall
  /Encoding WinAnsiEncoding def
  currentdict
end
/Helvetica-Oblique exch definefont pop
/Helvetica-Bold findfont
dup length dict begin
  {1 index /FID ne {def} {pop pop} ifelse} forall
  /Encoding WinAnsiEncoding def
  currentdict
end
/Helvetica-Bold exch definefont pop
/Helvetica-BoldOblique findfont
dup length dict begin
  {1 index /FID ne {def} {pop pop} ifelse} forall
  /Encoding WinAnsiEncoding def
  currentdict
end
/Helvetica-BoldOblique exch definefont pop
/Times-Roman findfont
dup length dict begin
  {1 index /FID ne {def} {pop pop} ifelse} forall
  /Encoding WinAnsiEncoding def
  currentdict
end
/Times-Roman exch definefont pop
/Times-Italic findfont
dup length dict begin
  {1 index /FID ne {def} {pop pop} ifelse} forall
  /Encoding WinAnsiEncoding def
  currentdict
end
/Times-Italic exch definefont pop
/Times-Bold findfont
dup length dict begin
  {1 index /FID ne {def} {pop pop} ifelse} forall
  /Encoding WinAnsiEncoding def
  currentdict
end
/Times-Bold exch definefont pop
/Times-BoldItalic findfont
dup length dict begin
  {1 index /FID ne {def} {pop pop} ifelse} forall
  /Encoding WinAnsiEncoding def
  currentdict
end
/Times-BoldItalic exch definefont pop
/Courier findfont
dup length dict begin
  {1 index /FID ne {def} {pop pop} ifelse} forall
  /Encoding WinAnsiEncoding def
  currentdict
end
/Courier exch definefont pop
%FOPEndFontReencode
%%EndProlog
%%Page: 1 1
%%PageBoundingBox: 0 0 1120 840
%%BeginPageSetup
[1 0 0 -1 0 840] CT
%%EndPageSetup
GS
1 GC
N
0 0 1120 840 re
f
GR
GS
1 GC
N
73 374 M
507 374 L
507 31.5 L
73 31.5 L
cp
f
GR
GS
0.149 GC
2 setlinecap
1 LJ
0.5 LW
N
73 374 M
507 374 L
S
GR
GS
0.149 GC
2 setlinecap
1 LJ
0.5 LW
N
73 31.5 M
507 31.5 L
S
GR
GS
0.149 GC
2 setlinecap
1 LJ
0.5 LW
N
96.769 374 M
96.769 369.66 L
S
GR
GS
0.149 GC
2 setlinecap
1 LJ
0.5 LW
N
154.315 374 M
154.315 369.66 L
S
GR
GS
0.149 GC
2 setlinecap
1 LJ
0.5 LW
N
211.86 374 M
211.86 369.66 L
S
GR
GS
0.149 GC
2 setlinecap
1 LJ
0.5 LW
N
269.406 374 M
269.406 369.66 L
S
GR
GS
0.149 GC
2 setlinecap
1 LJ
0.5 LW
N
326.951 374 M
326.951 369.66 L
S
GR
GS
0.149 GC
2 setlinecap
1 LJ
0.5 LW
N
384.497 374 M
384.497 369.66 L
S
GR
GS
0.149 GC
2 setlinecap
1 LJ
0.5 LW
N
442.042 374 M
442.042 369.66 L
S
GR
GS
0.149 GC
2 setlinecap
1 LJ
0.5 LW
N
499.588 374 M
499.588 369.66 L
S
GR
GS
0.149 GC
2 setlinecap
1 LJ
0.5 LW
N
96.769 31.5 M
96.769 35.84 L
S
GR
GS
0.149 GC
2 setlinecap
1 LJ
0.5 LW
N
154.315 31.5 M
154.315 35.84 L
S
GR
GS
0.149 GC
2 setlinecap
1 LJ
0.5 LW
N
211.86 31.5 M
211.86 35.84 L
S
GR
GS
0.149 GC
2 setlinecap
1 LJ
0.5 LW
N
269.406 31.5 M
269.406 35.84 L
S
GR
GS
0.149 GC
2 setlinecap
1 LJ
0.5 LW
N
326.951 31.5 M
326.951 35.84 L
S
GR
GS
0.149 GC
2 setlinecap
1 LJ
0.5 LW
N
384.497 31.5 M
384.497 35.84 L
S
GR
GS
0.149 GC
2 setlinecap
1 LJ
0.5 LW
N
442.042 31.5 M
442.042 35.84 L
S
GR
GS
0.149 GC
2 setlinecap
1 LJ
0.5 LW
N
499.588 31.5 M
499.588 35.84 L
S
GR
GS
0.149 GC
2 setlinecap
1 LJ
0.5 LW
N
73.751 374 M
73.751 371.83 L
S
GR
GS
0.149 GC
2 setlinecap
1 LJ
0.5 LW
N
85.26 374 M
85.26 371.83 L
S
GR
GS
0.149 GC
2 setlinecap
1 LJ
0.5 LW
N
108.278 374 M
108.278 371.83 L
S
GR
GS
0.149 GC
2 setlinecap
1 LJ
0.5 LW
N
119.787 374 M
119.787 371.83 L
S
GR
GS
0.149 GC
2 setlinecap
1 LJ
0.5 LW
N
131.297 374 M
131.297 371.83 L
S
GR
GS
0.149 GC
2 setlinecap
1 LJ
0.5 LW
N
142.806 374 M
142.806 371.83 L
S
GR
GS
0.149 GC
2 setlinecap
1 LJ
0.5 LW
N
165.824 374 M
165.824 371.83 L
S
GR
GS
0.149 GC
2 setlinecap
1 LJ
0.5 LW
N
177.333 374 M
177.333 371.83 L
S
GR
GS
0.149 GC
2 setlinecap
1 LJ
0.5 LW
N
188.842 374 M
188.842 371.83 L
S
GR
GS
0.149 GC
2 setlinecap
1 LJ
0.5 LW
N
200.351 374 M
200.351 371.83 L
S
GR
GS
0.149 GC
2 setlinecap
1 LJ
0.5 LW
N
223.369 374 M
223.369 371.83 L
S
GR
GS
0.149 GC
2 setlinecap
1 LJ
0.5 LW
N
234.878 374 M
234.878 371.83 L
S
GR
GS
0.149 GC
2 setlinecap
1 LJ
0.5 LW
N
246.388 374 M
246.388 371.83 L
S
GR
GS
0.149 GC
2 setlinecap
1 LJ
0.5 LW
N
257.897 374 M
257.897 371.83 L
S
GR
GS
0.149 GC
2 setlinecap
1 LJ
0.5 LW
N
280.915 374 M
280.915 371.83 L
S
GR
GS
0.149 GC
2 setlinecap
1 LJ
0.5 LW
N
292.424 374 M
292.424 371.83 L
S
GR
GS
0.149 GC
2 setlinecap
1 LJ
0.5 LW
N
303.933 374 M
303.933 371.83 L
S
GR
GS
0.149 GC
2 setlinecap
1 LJ
0.5 LW
N
315.442 374 M
315.442 371.83 L
S
GR
GS
0.149 GC
2 setlinecap
1 LJ
0.5 LW
N
338.46 374 M
338.46 371.83 L
S
GR
GS
0.149 GC
2 setlinecap
1 LJ
0.5 LW
N
349.969 374 M
349.969 371.83 L
S
GR
GS
0.149 GC
2 setlinecap
1 LJ
0.5 LW
N
361.479 374 M
361.479 371.83 L
S
GR
GS
0.149 GC
2 setlinecap
1 LJ
0.5 LW
N
372.988 374 M
372.988 371.83 L
S
GR
GS
0.149 GC
2 setlinecap
1 LJ
0.5 LW
N
396.006 374 M
396.006 371.83 L
S
GR
GS
0.149 GC
2 setlinecap
1 LJ
0.5 LW
N
407.515 374 M
407.515 371.83 L
S
GR
GS
0.149 GC
2 setlinecap
1 LJ
0.5 LW
N
419.024 374 M
419.024 371.83 L
S
GR
GS
0.149 GC
2 setlinecap
1 LJ
0.5 LW
N
430.533 374 M
430.533 371.83 L
S
GR
GS
0.149 GC
2 setlinecap
1 LJ
0.5 LW
N
453.551 374 M
453.551 371.83 L
S
GR
GS
0.149 GC
2 setlinecap
1 LJ
0.5 LW
N
465.06 374 M
465.06 371.83 L
S
GR
GS
0.149 GC
2 setlinecap
1 LJ
0.5 LW
N
476.57 374 M
476.57 371.83 L
S
GR
GS
0.149 GC
2 setlinecap
1 LJ
0.5 LW
N
488.079 374 M
488.079 371.83 L
S
GR
GS
0.149 GC
2 setlinecap
1 LJ
0.5 LW
N
73.751 31.5 M
73.751 33.67 L
S
GR
GS
0.149 GC
2 setlinecap
1 LJ
0.5 LW
N
85.26 31.5 M
85.26 33.67 L
S
GR
GS
0.149 GC
2 setlinecap
1 LJ
0.5 LW
N
108.278 31.5 M
108.278 33.67 L
S
GR
GS
0.149 GC
2 setlinecap
1 LJ
0.5 LW
N
119.787 31.5 M
119.787 33.67 L
S
GR
GS
0.149 GC
2 setlinecap
1 LJ
0.5 LW
N
131.297 31.5 M
131.297 33.67 L
S
GR
GS
0.149 GC
2 setlinecap
1 LJ
0.5 LW
N
142.806 31.5 M
142.806 33.67 L
S
GR
GS
0.149 GC
2 setlinecap
1 LJ
0.5 LW
N
165.824 31.5 M
165.824 33.67 L
S
GR
GS
0.149 GC
2 setlinecap
1 LJ
0.5 LW
N
177.333 31.5 M
177.333 33.67 L
S
GR
GS
0.149 GC
2 setlinecap
1 LJ
0.5 LW
N
188.842 31.5 M
188.842 33.67 L
S
GR
GS
0.149 GC
2 setlinecap
1 LJ
0.5 LW
N
200.351 31.5 M
200.351 33.67 L
S
GR
GS
0.149 GC
2 setlinecap
1 LJ
0.5 LW
N
223.369 31.5 M
223.369 33.67 L
S
GR
GS
0.149 GC
2 setlinecap
1 LJ
0.5 LW
N
234.878 31.5 M
234.878 33.67 L
S
GR
GS
0.149 GC
2 setlinecap
1 LJ
0.5 LW
N
246.388 31.5 M
246.388 33.67 L
S
GR
GS
0.149 GC
2 setlinecap
1 LJ
0.5 LW
N
257.897 31.5 M
257.897 33.67 L
S
GR
GS
0.149 GC
2 setlinecap
1 LJ
0.5 LW
N
280.915 31.5 M
280.915 33.67 L
S
GR
GS
0.149 GC
2 setlinecap
1 LJ
0.5 LW
N
292.424 31.5 M
292.424 33.67 L
S
GR
GS
0.149 GC
2 setlinecap
1 LJ
0.5 LW
N
303.933 31.5 M
303.933 33.67 L
S
GR
GS
0.149 GC
2 setlinecap
1 LJ
0.5 LW
N
315.442 31.5 M
315.442 33.67 L
S
GR
GS
0.149 GC
2 setlinecap
1 LJ
0.5 LW
N
338.46 31.5 M
338.46 33.67 L
S
GR
GS
0.149 GC
2 setlinecap
1 LJ
0.5 LW
N
349.969 31.5 M
349.969 33.67 L
S
GR
GS
0.149 GC
2 setlinecap
1 LJ
0.5 LW
N
361.479 31.5 M
361.479 33.67 L
S
GR
GS
0.149 GC
2 setlinecap
1 LJ
0.5 LW
N
372.988 31.5 M
372.988 33.67 L
S
GR
GS
0.149 GC
2 setlinecap
1 LJ
0.5 LW
N
396.006 31.5 M
396.006 33.67 L
S
GR
GS
0.149 GC
2 setlinecap
1 LJ
0.5 LW
N
407.515 31.5 M
407.515 33.67 L
S
GR
GS
0.149 GC
2 setlinecap
1 LJ
0.5 LW
N
419.024 31.5 M
419.024 33.67 L
S
GR
GS
0.149 GC
2 setlinecap
1 LJ
0.5 LW
N
430.533 31.5 M
430.533 33.67 L
S
GR
GS
0.149 GC
2 setlinecap
1 LJ
0.5 LW
N
453.551 31.5 M
453.551 33.67 L
S
GR
GS
0.149 GC
2 setlinecap
1 LJ
0.5 LW
N
465.06 31.5 M
465.06 33.67 L
S
GR
GS
0.149 GC
2 setlinecap
1 LJ
0.5 LW
N
476.57 31.5 M
476.57 33.67 L
S
GR
GS
0.149 GC
2 setlinecap
1 LJ
0.5 LW
N
488.079 31.5 M
488.079 33.67 L
S
GR
GS
[1 0 0 1 96.76929 378.80002] CT
0.149 GC
/Helvetica 14 F
GS
[1 0 0 1 0 0] CT
-16 14 moveto 
1 -1 scale
(1000) t 
GR
GR
GS
[1 0 0 1 154.31479 378.80002] CT
0.149 GC
/Helvetica 14 F
GS
[1 0 0 1 0 0] CT
-16 14 moveto 
1 -1 scale
(2000) t 
GR
GR
GS
[1 0 0 1 211.86029 378.80002] CT
0.149 GC
/Helvetica 14 F
GS
[1 0 0 1 0 0] CT
-16 14 moveto 
1 -1 scale
(3000) t 
GR
GR
GS
[1 0 0 1 269.40579 378.80002] CT
0.149 GC
/Helvetica 14 F
GS
[1 0 0 1 0 0] CT
-16 14 moveto 
1 -1 scale
(4000) t 
GR
GR
GS
[1 0 0 1 326.95129 378.80002] CT
0.149 GC
/Helvetica 14 F
GS
[1 0 0 1 0 0] CT
-16 14 moveto 
1 -1 scale
(5000) t 
GR
GR
GS
[1 0 0 1 384.4968 378.80002] CT
0.149 GC
/Helvetica 14 F
GS
[1 0 0 1 0 0] CT
-16 14 moveto 
1 -1 scale
(6000) t 
GR
GR
GS
[1 0 0 1 442.04227 378.80002] CT
0.149 GC
/Helvetica 14 F
GS
[1 0 0 1 0 0] CT
-16 14 moveto 
1 -1 scale
(7000) t 
GR
GR
GS
[1 0 0 1 499.58777 378.80002] CT
0.149 GC
/Helvetica 14 F
GS
[1 0 0 1 0 0] CT
-16 14 moveto 
1 -1 scale
(8000) t 
GR
GR
GS
[1 0 0 1 290.00018 396.30002] CT
0.149 GC
/Helvetica 15.4 F
GS
[1 0 0 1 0 0] CT
-42 15 moveto 
1 -1 scale
(Bitrate\(kb/s\)) t 
GR
GR
GS
0.149 GC
2 setlinecap
1 LJ
0.5 LW
N
73 374 M
73 31.5 L
S
GR
GS
0.149 GC
2 setlinecap
1 LJ
0.5 LW
N
507 374 M
507 31.5 L
S
GR
GS
0.149 GC
2 setlinecap
1 LJ
0.5 LW
N
73 340.605 M
77.34 340.605 L
S
GR
GS
0.149 GC
2 setlinecap
1 LJ
0.5 LW
N
73 281.388 M
77.34 281.388 L
S
GR
GS
0.149 GC
2 setlinecap
1 LJ
0.5 LW
N
73 222.171 M
77.34 222.171 L
S
GR
GS
0.149 GC
2 setlinecap
1 LJ
0.5 LW
N
73 162.954 M
77.34 162.954 L
S
GR
GS
0.149 GC
2 setlinecap
1 LJ
0.5 LW
N
73 103.737 M
77.34 103.737 L
S
GR
GS
0.149 GC
2 setlinecap
1 LJ
0.5 LW
N
73 44.52 M
77.34 44.52 L
S
GR
GS
0.149 GC
2 setlinecap
1 LJ
0.5 LW
N
507 340.605 M
502.66 340.605 L
S
GR
GS
0.149 GC
2 setlinecap
1 LJ
0.5 LW
N
507 281.388 M
502.66 281.388 L
S
GR
GS
0.149 GC
2 setlinecap
1 LJ
0.5 LW
N
507 222.171 M
502.66 222.171 L
S
GR
GS
0.149 GC
2 setlinecap
1 LJ
0.5 LW
N
507 162.954 M
502.66 162.954 L
S
GR
GS
0.149 GC
2 setlinecap
1 LJ
0.5 LW
N
507 103.737 M
502.66 103.737 L
S
GR
GS
0.149 GC
2 setlinecap
1 LJ
0.5 LW
N
507 44.52 M
502.66 44.52 L
S
GR
GS
0.149 GC
2 setlinecap
1 LJ
0.5 LW
N
73 370.214 M
75.17 370.214 L
S
GR
GS
0.149 GC
2 setlinecap
1 LJ
0.5 LW
N
73 355.409 M
75.17 355.409 L
S
GR
GS
0.149 GC
2 setlinecap
1 LJ
0.5 LW
N
73 325.801 M
75.17 325.801 L
S
GR
GS
0.149 GC
2 setlinecap
1 LJ
0.5 LW
N
73 310.997 M
75.17 310.997 L
S
GR
GS
0.149 GC
2 setlinecap
1 LJ
0.5 LW
N
73 296.192 M
75.17 296.192 L
S
GR
GS
0.149 GC
2 setlinecap
1 LJ
0.5 LW
N
73 266.584 M
75.17 266.584 L
S
GR
GS
0.149 GC
2 setlinecap
1 LJ
0.5 LW
N
73 251.78 M
75.17 251.78 L
S
GR
GS
0.149 GC
2 setlinecap
1 LJ
0.5 LW
N
73 236.975 M
75.17 236.975 L
S
GR
GS
0.149 GC
2 setlinecap
1 LJ
0.5 LW
N
73 207.367 M
75.17 207.367 L
S
GR
GS
0.149 GC
2 setlinecap
1 LJ
0.5 LW
N
73 192.563 M
75.17 192.563 L
S
GR
GS
0.149 GC
2 setlinecap
1 LJ
0.5 LW
N
73 177.758 M
75.17 177.758 L
S
GR
GS
0.149 GC
2 setlinecap
1 LJ
0.5 LW
N
73 148.15 M
75.17 148.15 L
S
GR
GS
0.149 GC
2 setlinecap
1 LJ
0.5 LW
N
73 133.346 M
75.17 133.346 L
S
GR
GS
0.149 GC
2 setlinecap
1 LJ
0.5 LW
N
73 118.541 M
75.17 118.541 L
S
GR
GS
0.149 GC
2 setlinecap
1 LJ
0.5 LW
N
73 88.933 M
75.17 88.933 L
S
GR
GS
0.149 GC
2 setlinecap
1 LJ
0.5 LW
N
73 74.129 M
75.17 74.129 L
S
GR
GS
0.149 GC
2 setlinecap
1 LJ
0.5 LW
N
73 59.324 M
75.17 59.324 L
S
GR
GS
0.149 GC
2 setlinecap
1 LJ
0.5 LW
N
507 370.214 M
504.83 370.214 L
S
GR
GS
0.149 GC
2 setlinecap
1 LJ
0.5 LW
N
507 355.409 M
504.83 355.409 L
S
GR
GS
0.149 GC
2 setlinecap
1 LJ
0.5 LW
N
507 325.801 M
504.83 325.801 L
S
GR
GS
0.149 GC
2 setlinecap
1 LJ
0.5 LW
N
507 310.997 M
504.83 310.997 L
S
GR
GS
0.149 GC
2 setlinecap
1 LJ
0.5 LW
N
507 296.192 M
504.83 296.192 L
S
GR
GS
0.149 GC
2 setlinecap
1 LJ
0.5 LW
N
507 266.584 M
504.83 266.584 L
S
GR
GS
0.149 GC
2 setlinecap
1 LJ
0.5 LW
N
507 251.78 M
504.83 251.78 L
S
GR
GS
0.149 GC
2 setlinecap
1 LJ
0.5 LW
N
507 236.975 M
504.83 236.975 L
S
GR
GS
0.149 GC
2 setlinecap
1 LJ
0.5 LW
N
507 207.367 M
504.83 207.367 L
S
GR
GS
0.149 GC
2 setlinecap
1 LJ
0.5 LW
N
507 192.563 M
504.83 192.563 L
S
GR
GS
0.149 GC
2 setlinecap
1 LJ
0.5 LW
N
507 177.758 M
504.83 177.758 L
S
GR
GS
0.149 GC
2 setlinecap
1 LJ
0.5 LW
N
507 148.15 M
504.83 148.15 L
S
GR
GS
0.149 GC
2 setlinecap
1 LJ
0.5 LW
N
507 133.346 M
504.83 133.346 L
S
GR
GS
0.149 GC
2 setlinecap
1 LJ
0.5 LW
N
507 118.541 M
504.83 118.541 L
S
GR
GS
0.149 GC
2 setlinecap
1 LJ
0.5 LW
N
507 88.933 M
504.83 88.933 L
S
GR
GS
0.149 GC
2 setlinecap
1 LJ
0.5 LW
N
507 74.129 M
504.83 74.129 L
S
GR
GS
0.149 GC
2 setlinecap
1 LJ
0.5 LW
N
507 59.324 M
504.83 59.324 L
S
GR
GS
[1 0 0 1 68.2 340.60507] CT
0.149 GC
/Helvetica 14 F
GS
[1 0 0 1 0 0] CT
-16 5.5 moveto 
1 -1 scale
(12) t 
GR
GR
GS
[1 0 0 1 68.2 281.38806] CT
0.149 GC
/Helvetica 14 F
GS
[1 0 0 1 0 0] CT
-16 5.5 moveto 
1 -1 scale
(14) t 
GR
GR
GS
[1 0 0 1 68.2 222.17107] CT
0.149 GC
/Helvetica 14 F
GS
[1 0 0 1 0 0] CT
-16 5.5 moveto 
1 -1 scale
(16) t 
GR
GR
GS
[1 0 0 1 68.2 162.95407] CT
0.149 GC
/Helvetica 14 F
GS
[1 0 0 1 0 0] CT
-16 5.5 moveto 
1 -1 scale
(18) t 
GR
GR
GS
[1 0 0 1 68.2 103.73707] CT
0.149 GC
/Helvetica 14 F
GS
[1 0 0 1 0 0] CT
-16 5.5 moveto 
1 -1 scale
(20) t 
GR
GR
GS
[1 0 0 1 68.2 44.52007] CT
0.149 GC
/Helvetica 14 F
GS
[1 0 0 1 0 0] CT
-16 5.5 moveto 
1 -1 scale
(22) t 
GR
GR
GS
[0 -1 1 0 49.2 202.74982] CT
0.149 GC
/Helvetica 15.4 F
GS
[1 0 0 1 0 0] CT
-49.5 -4 moveto 
1 -1 scale
(MS-SSIM \(dB\)) t 
GR
GR
GS
[1 0 0 1 290.00027 29.57497] CT
/Helvetica-Bold 15.4 F
GS
[1 0 0 1 0 0] CT
-101.5 -4 moveto 
1 -1 scale
(Vlog_1080P-58ad.y4m-hevc) t 
GR
GR
GS
0 0.447 0.741 RC
1 LJ
0.5 LW
N
74.474 371.024 M
75.625 367.888 L
76.776 364.768 L
77.927 361.663 L
79.077 358.577 L
80.228 355.511 L
81.379 352.467 L
82.53 349.446 L
83.681 346.451 L
84.832 343.484 L
85.983 340.547 L
87.134 337.641 L
88.285 334.768 L
89.436 331.931 L
90.587 329.13 L
91.738 326.369 L
92.888 323.649 L
94.039 320.971 L
95.19 318.338 L
96.341 315.752 L
97.492 313.214 L
98.643 310.727 L
99.794 308.292 L
100.945 305.911 L
102.096 303.587 L
103.247 301.32 L
104.398 299.113 L
105.548 296.952 L
106.699 294.811 L
107.85 292.691 L
109.001 290.59 L
110.152 288.509 L
111.303 286.448 L
112.454 284.407 L
113.605 282.386 L
114.756 280.385 L
115.907 278.404 L
117.058 276.442 L
118.208 274.5 L
119.359 272.578 L
120.51 270.675 L
121.661 268.792 L
122.812 266.928 L
123.963 265.084 L
125.114 263.259 L
126.265 261.454 L
127.416 259.668 L
128.567 257.901 L
129.718 256.154 L
130.868 254.426 L
132.019 252.717 L
133.17 251.027 L
134.321 249.357 L
135.472 247.705 L
136.623 246.073 L
137.774 244.459 L
138.925 242.865 L
140.076 241.289 L
141.227 239.732 L
142.378 238.194 L
143.528 236.675 L
144.679 235.175 L
145.83 233.693 L
146.981 232.23 L
148.132 230.785 L
149.283 229.359 L
150.434 227.952 L
151.585 226.563 L
152.736 225.193 L
153.887 223.841 L
155.038 222.507 L
156.188 221.192 L
157.339 219.895 L
158.49 218.607 L
159.641 217.327 L
160.792 216.054 L
161.943 214.788 L
163.094 213.529 L
164.245 212.278 L
165.396 211.034 L
166.547 209.798 L
167.698 208.569 L
168.848 207.347 L
169.999 206.132 L
171.15 204.924 L
172.301 203.724 L
173.452 202.532 L
174.603 201.346 L
175.754 200.168 L
176.905 198.997 L
178.056 197.834 L
179.207 196.677 L
180.358 195.529 L
181.508 194.387 L
182.659 193.253 L
183.81 192.126 L
184.961 191.006 L
186.112 189.894 L
187.263 188.789 L
188.414 187.691 L
189.565 186.601 L
190.716 185.518 L
191.867 184.442 L
193.018 183.374 L
194.168 182.313 L
195.319 181.259 L
196.47 180.213 L
197.621 179.174 L
198.772 178.142 L
199.923 177.118 L
201.074 176.101 L
202.225 175.091 L
203.376 174.089 L
204.527 173.094 L
205.678 172.106 L
206.829 171.126 L
207.979 170.153 L
209.13 169.188 L
210.281 168.229 L
211.432 167.279 L
212.583 166.335 L
213.734 165.399 L
214.885 164.47 L
216.036 163.549 L
217.187 162.635 L
218.338 161.728 L
219.489 160.829 L
220.639 159.937 L
221.79 159.052 L
222.941 158.175 L
224.092 157.305 L
225.243 156.443 L
226.394 155.588 L
227.545 154.74 L
228.696 153.9 L
229.847 153.067 L
230.998 152.241 L
232.149 151.423 L
233.299 150.612 L
234.45 149.809 L
235.601 149.013 L
236.752 148.224 L
237.903 147.443 L
239.054 146.669 L
240.205 145.903 L
241.356 145.144 L
242.507 144.392 L
243.658 143.648 L
244.809 142.911 L
245.959 142.182 L
247.11 141.459 L
248.261 140.745 L
249.412 140.038 L
250.563 139.338 L
251.714 138.645 L
252.865 137.954 L
254.016 137.263 L
255.167 136.572 L
256.318 135.882 L
257.469 135.193 L
258.619 134.504 L
259.77 133.815 L
260.921 133.127 L
262.072 132.44 L
263.223 131.753 L
264.374 131.066 L
265.525 130.381 L
266.676 129.696 L
267.827 129.011 L
268.978 128.327 L
270.129 127.644 L
271.279 126.962 L
272.43 126.281 L
273.581 125.6 L
274.732 124.92 L
275.883 124.241 L
277.034 123.562 L
278.185 122.885 L
279.336 122.208 L
280.487 121.532 L
281.638 120.858 L
282.789 120.184 L
283.939 119.511 L
285.09 118.839 L
286.241 118.168 L
287.392 117.498 L
288.543 116.829 L
289.694 116.162 L
290.845 115.495 L
291.996 114.829 L
293.147 114.165 L
294.298 113.502 L
295.449 112.84 L
296.599 112.179 L
297.75 111.519 L
298.901 110.86 L
300.052 110.203 L
301.203 109.547 L
302.354 108.893 L
303.505 108.24 L
304.656 107.588 L
305.807 106.937 L
306.958 106.288 L
308.109 105.64 L
309.259 104.994 L
310.41 104.349 L
311.561 103.706 L
312.712 103.064 L
313.863 102.424 L
315.014 101.785 L
316.165 101.148 L
317.316 100.512 L
318.467 99.878 L
319.618 99.246 L
320.769 98.615 L
321.919 97.986 L
323.07 97.359 L
324.221 96.733 L
325.372 96.11 L
326.523 95.488 L
327.674 94.867 L
328.825 94.249 L
329.976 93.632 L
331.127 93.017 L
332.278 92.404 L
333.429 91.793 L
334.579 91.184 L
335.73 90.577 L
336.881 89.972 L
338.032 89.368 L
339.183 88.767 L
340.334 88.168 L
341.485 87.571 L
342.636 86.975 L
343.787 86.382 L
344.938 85.791 L
346.089 85.203 L
347.24 84.616 L
348.39 84.031 L
349.541 83.449 L
350.692 82.869 L
351.843 82.291 L
352.994 81.716 L
354.145 81.142 L
355.296 80.571 L
356.447 80.003 L
357.598 79.436 L
358.749 78.872 L
359.9 78.311 L
361.05 77.752 L
362.201 77.195 L
363.352 76.641 L
364.503 76.089 L
365.654 75.54 L
366.805 74.993 L
367.956 74.449 L
369.107 73.907 L
370.258 73.368 L
371.409 72.831 L
372.56 72.297 L
373.71 71.766 L
374.861 71.238 L
376.012 70.712 L
377.163 70.189 L
378.314 69.668 L
379.465 69.151 L
380.616 68.636 L
381.767 68.124 L
382.918 67.615 L
384.069 67.108 L
385.22 66.605 L
386.37 66.104 L
387.521 65.607 L
388.672 65.112 L
389.823 64.62 L
390.974 64.131 L
392.125 63.645 L
393.276 63.162 L
394.427 62.683 L
395.578 62.206 L
396.729 61.732 L
397.88 61.262 L
399.03 60.794 L
400.181 60.33 L
401.332 59.869 L
402.483 59.411 L
403.634 58.956 L
404.785 58.505 L
405.936 58.056 L
407.087 57.612 L
408.238 57.17 L
409.389 56.732 L
410.54 56.297 L
411.69 55.865 L
412.841 55.437 L
413.992 55.012 L
415.143 54.591 L
416.294 54.173 L
417.445 53.758 L
418.596 53.347 L
419.747 52.94 L
420.898 52.536 L
422.049 52.135 L
423.2 51.739 L
424.35 51.345 L
425.501 50.956 L
426.652 50.57 L
427.803 50.188 L
428.954 49.809 L
430.105 49.434 L
431.256 49.063 L
432.407 48.696 L
433.558 48.332 L
434.709 47.973 L
435.86 47.617 L
437.01 47.264 L
438.161 46.916 L
439.312 46.572 L
440.463 46.231 L
441.614 45.895 L
442.765 45.562 L
443.916 45.234 L
445.067 44.909 L
446.218 44.588 L
447.369 44.272 L
448.52 43.959 L
449.671 43.651 L
450.821 43.346 L
451.972 43.046 L
453.123 42.75 L
454.274 42.458 L
455.425 42.17 L
456.576 41.887 L
457.727 41.607 L
458.878 41.332 L
460.029 41.062 L
461.18 40.795 L
462.331 40.533 L
463.481 40.275 L
464.632 40.022 L
465.783 39.773 L
466.934 39.528 L
468.085 39.288 L
469.236 39.052 L
470.387 38.82 L
471.538 38.593 L
472.689 38.371 L
473.84 38.153 L
474.991 37.94 L
476.141 37.731 L
477.292 37.527 L
478.443 37.328 L
479.594 37.133 L
480.745 36.943 L
481.896 36.757 L
483.047 36.577 L
484.198 36.4 L
485.349 36.229 L
486.5 36.063 L
487.651 35.901 L
488.801 35.744 L
489.952 35.592 L
491.103 35.445 L
492.254 35.302 L
493.405 35.165 L
494.556 35.032 L
S
GR
GS
0.851 0.325 0.098 RC
1 LJ
0.5 LW
N
74.212 371.884 M
75.363 368.72 L
76.514 365.57 L
77.664 362.437 L
78.815 359.323 L
79.966 356.228 L
81.117 353.157 L
82.268 350.109 L
83.419 347.088 L
84.57 344.096 L
85.721 341.133 L
86.872 338.204 L
88.023 335.308 L
89.174 332.449 L
90.324 329.627 L
91.475 326.847 L
92.626 324.108 L
93.777 321.413 L
94.928 318.765 L
96.079 316.165 L
97.23 313.615 L
98.381 311.117 L
99.532 308.673 L
100.683 306.286 L
101.834 303.956 L
102.984 301.687 L
104.135 299.479 L
105.286 297.311 L
106.437 295.163 L
107.588 293.037 L
108.739 290.931 L
109.89 288.845 L
111.041 286.781 L
112.192 284.737 L
113.343 282.713 L
114.494 280.71 L
115.644 278.727 L
116.795 276.764 L
117.946 274.821 L
119.097 272.899 L
120.248 270.996 L
121.399 269.114 L
122.55 267.251 L
123.701 265.408 L
124.852 263.585 L
126.003 261.781 L
127.154 259.998 L
128.304 258.233 L
129.455 256.488 L
130.606 254.763 L
131.757 253.057 L
132.908 251.37 L
134.059 249.702 L
135.21 248.053 L
136.361 246.423 L
137.512 244.812 L
138.663 243.221 L
139.814 241.647 L
140.964 240.093 L
142.115 238.557 L
143.266 237.04 L
144.417 235.542 L
145.568 234.062 L
146.719 232.6 L
147.87 231.157 L
149.021 229.731 L
150.172 228.324 L
151.323 226.935 L
152.474 225.565 L
153.624 224.212 L
154.775 222.877 L
155.926 221.559 L
157.077 220.258 L
158.228 218.964 L
159.379 217.678 L
160.53 216.399 L
161.681 215.127 L
162.832 213.862 L
163.983 212.605 L
165.134 211.355 L
166.285 210.112 L
167.435 208.876 L
168.586 207.647 L
169.737 206.426 L
170.888 205.212 L
172.039 204.006 L
173.19 202.806 L
174.341 201.614 L
175.492 200.429 L
176.643 199.252 L
177.794 198.082 L
178.945 196.919 L
180.095 195.763 L
181.246 194.615 L
182.397 193.474 L
183.548 192.34 L
184.699 191.214 L
185.85 190.095 L
187.001 188.983 L
188.152 187.879 L
189.303 186.782 L
190.454 185.693 L
191.605 184.611 L
192.755 183.536 L
193.906 182.469 L
195.057 181.409 L
196.208 180.356 L
197.359 179.311 L
198.51 178.273 L
199.661 177.243 L
200.812 176.22 L
201.963 175.204 L
203.114 174.196 L
204.265 173.195 L
205.415 172.202 L
206.566 171.216 L
207.717 170.238 L
208.868 169.267 L
210.019 168.304 L
211.17 167.348 L
212.321 166.399 L
213.472 165.458 L
214.623 164.525 L
215.774 163.599 L
216.925 162.68 L
218.075 161.769 L
219.226 160.866 L
220.377 159.97 L
221.528 159.082 L
222.679 158.201 L
223.83 157.327 L
224.981 156.462 L
226.132 155.603 L
227.283 154.753 L
228.434 153.909 L
229.585 153.074 L
230.735 152.246 L
231.886 151.425 L
233.037 150.613 L
234.188 149.807 L
235.339 149.01 L
236.49 148.22 L
237.641 147.437 L
238.792 146.662 L
239.943 145.895 L
241.094 145.135 L
242.245 144.383 L
243.395 143.639 L
244.546 142.902 L
245.697 142.173 L
246.848 141.452 L
247.999 140.738 L
249.15 140.032 L
250.301 139.333 L
251.452 138.637 L
252.603 137.941 L
253.754 137.245 L
254.905 136.55 L
256.055 135.855 L
257.206 135.161 L
258.357 134.468 L
259.508 133.774 L
260.659 133.082 L
261.81 132.39 L
262.961 131.698 L
264.112 131.008 L
265.263 130.317 L
266.414 129.628 L
267.565 128.939 L
268.715 128.251 L
269.866 127.564 L
271.017 126.877 L
272.168 126.191 L
273.319 125.506 L
274.47 124.822 L
275.621 124.139 L
276.772 123.456 L
277.923 122.775 L
279.074 122.094 L
280.225 121.414 L
281.376 120.736 L
282.526 120.058 L
283.677 119.381 L
284.828 118.705 L
285.979 118.031 L
287.13 117.357 L
288.281 116.684 L
289.432 116.013 L
290.583 115.342 L
291.734 114.673 L
292.885 114.005 L
294.036 113.339 L
295.186 112.673 L
296.337 112.009 L
297.488 111.346 L
298.639 110.684 L
299.79 110.023 L
300.941 109.364 L
302.092 108.707 L
303.243 108.05 L
304.394 107.395 L
305.545 106.742 L
306.696 106.09 L
307.846 105.439 L
308.997 104.79 L
310.148 104.142 L
311.299 103.496 L
312.45 102.852 L
313.601 102.209 L
314.752 101.567 L
315.903 100.928 L
317.054 100.29 L
318.205 99.653 L
319.356 99.019 L
320.506 98.386 L
321.657 97.754 L
322.808 97.125 L
323.959 96.497 L
325.11 95.871 L
326.261 95.247 L
327.412 94.625 L
328.563 94.005 L
329.714 93.386 L
330.865 92.769 L
332.016 92.155 L
333.166 91.542 L
334.317 90.932 L
335.468 90.323 L
336.619 89.716 L
337.77 89.112 L
338.921 88.509 L
340.072 87.909 L
341.223 87.31 L
342.374 86.714 L
343.525 86.12 L
344.676 85.528 L
345.826 84.939 L
346.977 84.351 L
348.128 83.766 L
349.279 83.183 L
350.43 82.603 L
351.581 82.024 L
352.732 81.449 L
353.883 80.875 L
355.034 80.304 L
356.185 79.735 L
357.336 79.169 L
358.486 78.605 L
359.637 78.043 L
360.788 77.484 L
361.939 76.928 L
363.09 76.374 L
364.241 75.823 L
365.392 75.274 L
366.543 74.728 L
367.694 74.184 L
368.845 73.644 L
369.996 73.105 L
371.146 72.57 L
372.297 72.037 L
373.448 71.507 L
374.599 70.98 L
375.75 70.455 L
376.901 69.934 L
378.052 69.415 L
379.203 68.899 L
380.354 68.386 L
381.505 67.876 L
382.656 67.368 L
383.806 66.864 L
384.957 66.363 L
386.108 65.864 L
387.259 65.369 L
388.41 64.876 L
389.561 64.387 L
390.712 63.901 L
391.863 63.418 L
393.014 62.938 L
394.165 62.461 L
395.316 61.987 L
396.466 61.516 L
397.617 61.049 L
398.768 60.585 L
399.919 60.124 L
401.07 59.667 L
402.221 59.212 L
403.372 58.761 L
404.523 58.314 L
405.674 57.869 L
406.825 57.429 L
407.976 56.991 L
409.126 56.557 L
410.277 56.127 L
411.428 55.699 L
412.579 55.276 L
413.73 54.856 L
414.881 54.439 L
416.032 54.026 L
417.183 53.617 L
418.334 53.211 L
419.485 52.809 L
420.636 52.411 L
421.787 52.016 L
422.937 51.625 L
424.088 51.237 L
425.239 50.854 L
426.39 50.474 L
427.541 50.098 L
428.692 49.725 L
429.843 49.357 L
430.994 48.992 L
432.145 48.631 L
433.296 48.275 L
434.447 47.922 L
435.597 47.573 L
436.748 47.228 L
437.899 46.887 L
439.05 46.55 L
440.201 46.217 L
441.352 45.888 L
442.503 45.563 L
443.654 45.242 L
444.805 44.926 L
445.956 44.613 L
447.107 44.305 L
448.257 44.001 L
449.408 43.701 L
450.559 43.405 L
451.71 43.114 L
452.861 42.827 L
454.012 42.544 L
455.163 42.265 L
456.314 41.991 L
457.465 41.722 L
458.616 41.456 L
459.767 41.195 L
460.917 40.939 L
462.068 40.686 L
463.219 40.439 L
464.37 40.196 L
465.521 39.957 L
466.672 39.723 L
467.823 39.494 L
468.974 39.269 L
470.125 39.048 L
471.276 38.833 L
472.427 38.622 L
473.577 38.415 L
474.728 38.214 L
475.879 38.017 L
477.03 37.825 L
478.181 37.637 L
479.332 37.455 L
480.483 37.277 L
481.634 37.104 L
482.785 36.936 L
483.936 36.773 L
485.087 36.615 L
486.237 36.461 L
487.388 36.313 L
488.539 36.169 L
489.69 36.031 L
490.841 35.897 L
S
GR
GS
0.929 0.694 0.125 RC
1 LJ
0.5 LW
N
73 374 M
74.151 370.754 L
75.302 367.524 L
76.453 364.312 L
77.604 361.119 L
78.755 357.948 L
79.905 354.801 L
81.056 351.679 L
82.207 348.586 L
83.358 345.522 L
84.509 342.49 L
85.66 339.491 L
86.811 336.529 L
87.962 333.604 L
89.113 330.719 L
90.264 327.876 L
91.415 325.076 L
92.565 322.323 L
93.716 319.617 L
94.867 316.961 L
96.018 314.356 L
97.169 311.806 L
98.32 309.311 L
99.471 306.874 L
100.622 304.497 L
101.773 302.182 L
102.924 299.922 L
104.075 297.686 L
105.225 295.473 L
106.376 293.28 L
107.527 291.109 L
108.678 288.959 L
109.829 286.83 L
110.98 284.722 L
112.131 282.635 L
113.282 280.57 L
114.433 278.525 L
115.584 276.501 L
116.735 274.499 L
117.885 272.517 L
119.036 270.556 L
120.187 268.616 L
121.338 266.697 L
122.489 264.798 L
123.64 262.92 L
124.791 261.063 L
125.942 259.227 L
127.093 257.411 L
128.244 255.615 L
129.395 253.841 L
130.546 252.086 L
131.696 250.352 L
132.847 248.639 L
133.998 246.946 L
135.149 245.273 L
136.3 243.62 L
137.451 241.988 L
138.602 240.376 L
139.753 238.784 L
140.904 237.212 L
142.055 235.66 L
143.206 234.129 L
144.356 232.617 L
145.507 231.125 L
146.658 229.654 L
147.809 228.202 L
148.96 226.77 L
150.111 225.357 L
151.262 223.965 L
152.413 222.592 L
153.564 221.233 L
154.715 219.882 L
155.866 218.539 L
157.016 217.203 L
158.167 215.875 L
159.318 214.554 L
160.469 213.241 L
161.62 211.936 L
162.771 210.639 L
163.922 209.349 L
165.073 208.067 L
166.224 206.793 L
167.375 205.526 L
168.526 204.267 L
169.676 203.017 L
170.827 201.774 L
171.978 200.538 L
173.129 199.311 L
174.28 198.092 L
175.431 196.88 L
176.582 195.676 L
177.733 194.481 L
178.884 193.293 L
180.035 192.113 L
181.186 190.941 L
182.336 189.777 L
183.487 188.621 L
184.638 187.473 L
185.789 186.334 L
186.94 185.202 L
188.091 184.078 L
189.242 182.963 L
190.393 181.855 L
191.544 180.756 L
192.695 179.665 L
193.846 178.581 L
194.996 177.507 L
196.147 176.44 L
197.298 175.381 L
198.449 174.331 L
199.6 173.289 L
200.751 172.255 L
201.902 171.23 L
203.053 170.212 L
204.204 169.203 L
205.355 168.203 L
206.506 167.21 L
207.656 166.227 L
208.807 165.251 L
209.958 164.284 L
211.109 163.325 L
212.26 162.375 L
213.411 161.433 L
214.562 160.499 L
215.713 159.574 L
216.864 158.658 L
218.015 157.749 L
219.166 156.85 L
220.316 155.959 L
221.467 155.076 L
222.618 154.202 L
223.769 153.337 L
224.92 152.48 L
226.071 151.632 L
227.222 150.793 L
228.373 149.962 L
229.524 149.14 L
230.675 148.326 L
231.826 147.521 L
232.976 146.725 L
234.127 145.938 L
235.278 145.159 L
236.429 144.389 L
237.58 143.628 L
238.731 142.876 L
239.882 142.132 L
241.033 141.398 L
242.184 140.672 L
243.335 139.948 L
244.486 139.224 L
245.636 138.501 L
246.787 137.778 L
247.938 137.056 L
249.089 136.334 L
250.24 135.613 L
251.391 134.892 L
252.542 134.172 L
253.693 133.452 L
254.844 132.734 L
255.995 132.015 L
257.146 131.298 L
258.297 130.581 L
259.447 129.865 L
260.598 129.149 L
261.749 128.435 L
262.9 127.721 L
264.051 127.008 L
265.202 126.296 L
266.353 125.584 L
267.504 124.874 L
268.655 124.164 L
269.806 123.456 L
270.957 122.748 L
272.107 122.042 L
273.258 121.336 L
274.409 120.632 L
275.56 119.928 L
276.711 119.226 L
277.862 118.525 L
279.013 117.825 L
280.164 117.126 L
281.315 116.428 L
282.466 115.732 L
283.617 115.037 L
284.767 114.343 L
285.918 113.651 L
287.069 112.959 L
288.22 112.27 L
289.371 111.581 L
290.522 110.894 L
291.673 110.208 L
292.824 109.524 L
293.975 108.842 L
295.126 108.161 L
296.277 107.481 L
297.427 106.803 L
298.578 106.127 L
299.729 105.452 L
300.88 104.779 L
302.031 104.107 L
303.182 103.437 L
304.333 102.769 L
305.484 102.103 L
306.635 101.438 L
307.786 100.775 L
308.937 100.114 L
310.087 99.455 L
311.238 98.798 L
312.389 98.143 L
313.54 97.489 L
314.691 96.838 L
315.842 96.188 L
316.993 95.541 L
318.144 94.895 L
319.295 94.252 L
320.446 93.61 L
321.597 92.971 L
322.747 92.334 L
323.898 91.699 L
325.049 91.066 L
326.2 90.436 L
327.351 89.807 L
328.502 89.181 L
329.653 88.557 L
330.804 87.936 L
331.955 87.317 L
333.106 86.7 L
334.257 86.085 L
335.407 85.473 L
336.558 84.864 L
337.709 84.257 L
338.86 83.652 L
340.011 83.05 L
341.162 82.45 L
342.313 81.853 L
343.464 81.259 L
344.615 80.667 L
345.766 80.078 L
346.917 79.491 L
348.067 78.907 L
349.218 78.326 L
350.369 77.748 L
351.52 77.172 L
352.671 76.599 L
353.822 76.029 L
354.973 75.462 L
356.124 74.897 L
357.275 74.336 L
358.426 73.778 L
359.577 73.222 L
360.727 72.669 L
361.878 72.12 L
363.029 71.573 L
364.18 71.03 L
365.331 70.489 L
366.482 69.952 L
367.633 69.418 L
368.784 68.886 L
369.935 68.358 L
371.086 67.834 L
372.237 67.312 L
373.387 66.794 L
374.538 66.279 L
375.689 65.767 L
376.84 65.259 L
377.991 64.754 L
379.142 64.252 L
380.293 63.754 L
381.444 63.26 L
382.595 62.768 L
383.746 62.28 L
384.897 61.796 L
386.048 61.315 L
387.198 60.838 L
388.349 60.364 L
389.5 59.894 L
390.651 59.428 L
391.802 58.965 L
392.953 58.506 L
394.104 58.051 L
395.255 57.599 L
396.406 57.151 L
397.557 56.707 L
398.708 56.267 L
399.858 55.831 L
401.009 55.398 L
402.16 54.969 L
403.311 54.545 L
404.462 54.124 L
405.613 53.707 L
406.764 53.294 L
407.915 52.885 L
409.066 52.48 L
410.217 52.08 L
411.368 51.683 L
412.518 51.291 L
413.669 50.902 L
414.82 50.518 L
415.971 50.138 L
417.122 49.762 L
418.273 49.391 L
419.424 49.024 L
420.575 48.661 L
421.726 48.302 L
422.877 47.948 L
424.028 47.598 L
425.178 47.252 L
426.329 46.911 L
427.48 46.575 L
428.631 46.242 L
429.782 45.915 L
430.933 45.592 L
432.084 45.273 L
433.235 44.959 L
434.386 44.65 L
435.537 44.345 L
436.688 44.045 L
437.838 43.75 L
438.989 43.459 L
440.14 43.173 L
441.291 42.892 L
442.442 42.615 L
443.593 42.344 L
444.744 42.077 L
445.895 41.815 L
447.046 41.558 L
448.197 41.306 L
449.348 41.059 L
450.498 40.816 L
451.649 40.579 L
452.8 40.347 L
453.951 40.12 L
455.102 39.898 L
456.253 39.681 L
457.404 39.469 L
458.555 39.262 L
459.706 39.061 L
460.857 38.864 L
462.008 38.673 L
463.158 38.487 L
464.309 38.306 L
465.46 38.131 L
466.611 37.961 L
467.762 37.796 L
468.913 37.637 L
470.064 37.483 L
471.215 37.334 L
472.366 37.191 L
473.517 37.054 L
474.668 36.922 L
475.818 36.795 L
476.969 36.674 L
S
GR
GS
0.494 0.184 0.557 RC
1 LJ
0.5 LW
N
75.409 367.661 M
76.56 364.589 L
77.711 361.531 L
78.861 358.489 L
80.012 355.464 L
81.163 352.458 L
82.314 349.473 L
83.465 346.511 L
84.616 343.573 L
85.767 340.662 L
86.918 337.779 L
88.069 334.925 L
89.22 332.104 L
90.371 329.316 L
91.522 326.564 L
92.672 323.848 L
93.823 321.172 L
94.974 318.536 L
96.125 315.943 L
97.276 313.394 L
98.427 310.891 L
99.578 308.436 L
100.729 306.031 L
101.88 303.678 L
103.031 301.377 L
104.182 299.132 L
105.332 296.944 L
106.483 294.812 L
107.634 292.709 L
108.785 290.625 L
109.936 288.56 L
111.087 286.515 L
112.238 284.489 L
113.389 282.483 L
114.54 280.496 L
115.691 278.528 L
116.842 276.579 L
117.992 274.65 L
119.143 272.739 L
120.294 270.848 L
121.445 268.975 L
122.596 267.122 L
123.747 265.287 L
124.898 263.471 L
126.049 261.674 L
127.2 259.895 L
128.351 258.135 L
129.502 256.394 L
130.652 254.671 L
131.803 252.967 L
132.954 251.281 L
134.105 249.613 L
135.256 247.964 L
136.407 246.333 L
137.558 244.72 L
138.709 243.125 L
139.86 241.548 L
141.011 239.989 L
142.162 238.448 L
143.312 236.925 L
144.463 235.42 L
145.614 233.933 L
146.765 232.463 L
147.916 231.012 L
149.067 229.577 L
150.218 228.161 L
151.369 226.761 L
152.52 225.38 L
153.671 224.015 L
154.822 222.668 L
155.972 221.338 L
157.123 220.026 L
158.274 218.731 L
159.425 217.452 L
160.576 216.188 L
161.727 214.93 L
162.878 213.679 L
164.029 212.434 L
165.18 211.197 L
166.331 209.966 L
167.482 208.743 L
168.632 207.526 L
169.783 206.316 L
170.934 205.113 L
172.085 203.916 L
173.236 202.727 L
174.387 201.544 L
175.538 200.368 L
176.689 199.199 L
177.84 198.037 L
178.991 196.882 L
180.142 195.734 L
181.292 194.593 L
182.443 193.458 L
183.594 192.331 L
184.745 191.21 L
185.896 190.097 L
187.047 188.99 L
188.198 187.891 L
189.349 186.798 L
190.5 185.712 L
191.651 184.634 L
192.802 183.562 L
193.952 182.497 L
195.103 181.439 L
196.254 180.389 L
197.405 179.345 L
198.556 178.308 L
199.707 177.279 L
200.858 176.256 L
202.009 175.24 L
203.16 174.232 L
204.311 173.23 L
205.462 172.236 L
206.612 171.249 L
207.763 170.269 L
208.914 169.295 L
210.065 168.329 L
211.216 167.37 L
212.367 166.419 L
213.518 165.474 L
214.669 164.536 L
215.82 163.606 L
216.971 162.683 L
218.122 161.767 L
219.273 160.858 L
220.423 159.956 L
221.574 159.061 L
222.725 158.174 L
223.876 157.293 L
225.027 156.42 L
226.178 155.554 L
227.329 154.696 L
228.48 153.844 L
229.631 153 L
230.782 152.163 L
231.933 151.333 L
233.083 150.511 L
234.234 149.696 L
235.385 148.888 L
236.536 148.087 L
237.687 147.293 L
238.838 146.507 L
239.989 145.728 L
241.14 144.957 L
242.291 144.192 L
243.442 143.436 L
244.593 142.686 L
245.743 141.944 L
246.894 141.209 L
248.045 140.481 L
249.196 139.761 L
250.347 139.048 L
251.498 138.342 L
252.649 137.644 L
253.8 136.953 L
254.951 136.27 L
256.102 135.593 L
257.253 134.919 L
258.403 134.245 L
259.554 133.571 L
260.705 132.898 L
261.856 132.226 L
263.007 131.553 L
264.158 130.881 L
265.309 130.21 L
266.46 129.539 L
267.611 128.869 L
268.762 128.199 L
269.913 127.53 L
271.063 126.861 L
272.214 126.193 L
273.365 125.525 L
274.516 124.858 L
275.667 124.192 L
276.818 123.526 L
277.969 122.862 L
279.12 122.197 L
280.271 121.534 L
281.422 120.871 L
282.573 120.209 L
283.723 119.548 L
284.874 118.888 L
286.025 118.229 L
287.176 117.57 L
288.327 116.912 L
289.478 116.256 L
290.629 115.6 L
291.78 114.945 L
292.931 114.291 L
294.082 113.638 L
295.233 112.986 L
296.383 112.335 L
297.534 111.685 L
298.685 111.036 L
299.836 110.388 L
300.987 109.742 L
302.138 109.096 L
303.289 108.452 L
304.44 107.808 L
305.591 107.166 L
306.742 106.526 L
307.893 105.886 L
309.043 105.248 L
310.194 104.61 L
311.345 103.974 L
312.496 103.34 L
313.647 102.707 L
314.798 102.075 L
315.949 101.444 L
317.1 100.815 L
318.251 100.188 L
319.402 99.561 L
320.553 98.936 L
321.703 98.313 L
322.854 97.691 L
324.005 97.071 L
325.156 96.452 L
326.307 95.835 L
327.458 95.219 L
328.609 94.605 L
329.76 93.992 L
330.911 93.381 L
332.062 92.772 L
333.213 92.165 L
334.363 91.559 L
335.514 90.955 L
336.665 90.352 L
337.816 89.751 L
338.967 89.153 L
340.118 88.555 L
341.269 87.96 L
342.42 87.367 L
343.571 86.775 L
344.722 86.185 L
345.873 85.597 L
347.023 85.012 L
348.174 84.428 L
349.325 83.845 L
350.476 83.265 L
351.627 82.687 L
352.778 82.111 L
353.929 81.537 L
355.08 80.965 L
356.231 80.395 L
357.382 79.828 L
358.533 79.262 L
359.684 78.699 L
360.834 78.137 L
361.985 77.578 L
363.136 77.021 L
364.287 76.466 L
365.438 75.914 L
366.589 75.363 L
367.74 74.815 L
368.891 74.27 L
370.042 73.726 L
371.193 73.185 L
372.344 72.647 L
373.494 72.111 L
374.645 71.577 L
375.796 71.045 L
376.947 70.516 L
378.098 69.99 L
379.249 69.466 L
380.4 68.944 L
381.551 68.425 L
382.702 67.909 L
383.853 67.395 L
385.004 66.883 L
386.154 66.375 L
387.305 65.869 L
388.456 65.365 L
389.607 64.864 L
390.758 64.366 L
391.909 63.871 L
393.06 63.378 L
394.211 62.888 L
395.362 62.401 L
396.513 61.917 L
397.664 61.435 L
398.814 60.957 L
399.965 60.481 L
401.116 60.008 L
402.267 59.538 L
403.418 59.071 L
404.569 58.606 L
405.72 58.145 L
406.871 57.687 L
408.022 57.231 L
409.173 56.779 L
410.324 56.33 L
411.474 55.884 L
412.625 55.44 L
413.776 55 L
414.927 54.563 L
416.078 54.13 L
417.229 53.699 L
418.38 53.271 L
419.531 52.847 L
420.682 52.426 L
421.833 52.008 L
422.984 51.594 L
424.134 51.182 L
425.285 50.774 L
426.436 50.37 L
427.587 49.968 L
428.738 49.57 L
429.889 49.176 L
431.04 48.785 L
432.191 48.397 L
433.342 48.013 L
434.493 47.632 L
435.644 47.254 L
436.794 46.88 L
437.945 46.51 L
439.096 46.143 L
440.247 45.78 L
441.398 45.42 L
442.549 45.064 L
443.7 44.712 L
444.851 44.363 L
446.002 44.018 L
447.153 43.676 L
448.304 43.338 L
449.454 43.004 L
450.605 42.674 L
451.756 42.347 L
452.907 42.025 L
454.058 41.706 L
455.209 41.391 L
456.36 41.079 L
457.511 40.772 L
458.662 40.468 L
459.813 40.169 L
460.964 39.873 L
462.115 39.581 L
463.265 39.294 L
464.416 39.01 L
465.567 38.73 L
466.718 38.454 L
467.869 38.183 L
469.02 37.915 L
470.171 37.652 L
471.322 37.392 L
472.473 37.137 L
473.624 36.886 L
474.775 36.639 L
475.925 36.396 L
477.076 36.157 L
478.227 35.923 L
479.378 35.693 L
480.529 35.467 L
481.68 35.246 L
482.831 35.028 L
483.982 34.816 L
485.133 34.607 L
486.284 34.403 L
487.435 34.203 L
488.585 34.008 L
489.736 33.817 L
490.887 33.631 L
492.038 33.449 L
493.189 33.271 L
494.34 33.098 L
495.491 32.93 L
496.642 32.766 L
497.793 32.607 L
498.944 32.452 L
500.095 32.302 L
501.245 32.157 L
502.396 32.016 L
503.547 31.88 L
504.698 31.749 L
505.849 31.622 L
507 31.5 L
S
GR
GS
0.467 0.675 0.188 RC
[10 6] 0 setdash
2 LJ
0.5 LW
N
74.382 371.129 M
75.533 367.986 L
76.684 364.858 L
77.835 361.747 L
78.986 358.653 L
80.137 355.58 L
81.288 352.529 L
82.439 349.502 L
83.59 346.5 L
84.741 343.527 L
85.891 340.584 L
87.042 337.672 L
88.193 334.794 L
89.344 331.951 L
90.495 329.146 L
91.646 326.381 L
92.797 323.657 L
93.948 320.976 L
95.099 318.34 L
96.25 315.752 L
97.401 313.212 L
98.551 310.724 L
99.702 308.289 L
100.853 305.908 L
102.004 303.584 L
103.155 301.32 L
104.306 299.115 L
105.457 296.954 L
106.608 294.813 L
107.759 292.692 L
108.91 290.592 L
110.061 288.511 L
111.211 286.451 L
112.362 284.411 L
113.513 282.391 L
114.664 280.391 L
115.815 278.411 L
116.966 276.451 L
118.117 274.511 L
119.268 272.591 L
120.419 270.69 L
121.57 268.809 L
122.721 266.948 L
123.871 265.106 L
125.022 263.284 L
126.173 261.481 L
127.324 259.697 L
128.475 257.933 L
129.626 256.189 L
130.777 254.463 L
131.928 252.757 L
133.079 251.07 L
134.23 249.402 L
135.381 247.754 L
136.532 246.124 L
137.682 244.513 L
138.833 242.921 L
139.984 241.348 L
141.135 239.793 L
142.286 238.258 L
143.437 236.741 L
144.588 235.243 L
145.739 233.763 L
146.89 232.302 L
148.041 230.859 L
149.192 229.435 L
150.342 228.029 L
151.493 226.642 L
152.644 225.273 L
153.795 223.922 L
154.946 222.589 L
156.097 221.274 L
157.248 219.976 L
158.399 218.688 L
159.55 217.406 L
160.701 216.132 L
161.852 214.865 L
163.002 213.605 L
164.153 212.353 L
165.304 211.108 L
166.455 209.87 L
167.606 208.639 L
168.757 207.416 L
169.908 206.2 L
171.059 204.991 L
172.21 203.789 L
173.361 202.595 L
174.512 201.408 L
175.662 200.228 L
176.813 199.056 L
177.964 197.891 L
179.115 196.733 L
180.266 195.582 L
181.417 194.439 L
182.568 193.303 L
183.719 192.175 L
184.87 191.053 L
186.021 189.94 L
187.172 188.833 L
188.322 187.734 L
189.473 186.642 L
190.624 185.557 L
191.775 184.48 L
192.926 183.41 L
194.077 182.347 L
195.228 181.292 L
196.379 180.244 L
197.53 179.204 L
198.681 178.171 L
199.832 177.145 L
200.982 176.127 L
202.133 175.115 L
203.284 174.112 L
204.435 173.116 L
205.586 172.127 L
206.737 171.145 L
207.888 170.171 L
209.039 169.204 L
210.19 168.245 L
211.341 167.293 L
212.492 166.349 L
213.642 165.411 L
214.793 164.482 L
215.944 163.559 L
217.095 162.645 L
218.246 161.737 L
219.397 160.837 L
220.548 159.944 L
221.699 159.059 L
222.85 158.182 L
224.001 157.311 L
225.152 156.448 L
226.302 155.593 L
227.453 154.745 L
228.604 153.904 L
229.755 153.071 L
230.906 152.246 L
232.057 151.428 L
233.208 150.617 L
234.359 149.814 L
235.51 149.018 L
236.661 148.23 L
237.812 147.449 L
238.962 146.676 L
240.113 145.91 L
241.264 145.152 L
242.415 144.401 L
243.566 143.658 L
244.717 142.922 L
245.868 142.194 L
247.019 141.473 L
248.17 140.76 L
249.321 140.054 L
250.472 139.356 L
251.622 138.663 L
252.773 137.971 L
253.924 137.279 L
255.075 136.587 L
256.226 135.896 L
257.377 135.206 L
258.528 134.516 L
259.679 133.827 L
260.83 133.138 L
261.981 132.449 L
263.132 131.762 L
264.283 131.074 L
265.433 130.388 L
266.584 129.702 L
267.735 129.017 L
268.886 128.332 L
270.037 127.648 L
271.188 126.965 L
272.339 126.283 L
273.49 125.601 L
274.641 124.921 L
275.792 124.241 L
276.943 123.562 L
278.093 122.883 L
279.244 122.206 L
280.395 121.53 L
281.546 120.854 L
282.697 120.179 L
283.848 119.506 L
284.999 118.833 L
286.15 118.162 L
287.301 117.491 L
288.452 116.822 L
289.603 116.153 L
290.753 115.486 L
291.904 114.82 L
293.055 114.155 L
294.206 113.491 L
295.357 112.829 L
296.508 112.167 L
297.659 111.507 L
298.81 110.848 L
299.961 110.19 L
301.112 109.534 L
302.263 108.879 L
303.413 108.226 L
304.564 107.573 L
305.715 106.922 L
306.866 106.273 L
308.017 105.625 L
309.168 104.978 L
310.319 104.333 L
311.47 103.69 L
312.621 103.047 L
313.772 102.407 L
314.923 101.768 L
316.073 101.131 L
317.224 100.495 L
318.375 99.861 L
319.526 99.228 L
320.677 98.597 L
321.828 97.968 L
322.979 97.341 L
324.13 96.715 L
325.281 96.091 L
326.432 95.469 L
327.583 94.849 L
328.733 94.23 L
329.884 93.614 L
331.035 92.999 L
332.186 92.386 L
333.337 91.775 L
334.488 91.166 L
335.639 90.559 L
336.79 89.954 L
337.941 89.351 L
339.092 88.75 L
340.243 88.151 L
341.393 87.554 L
342.544 86.959 L
343.695 86.367 L
344.846 85.776 L
345.997 85.188 L
347.148 84.601 L
348.299 84.017 L
349.45 83.435 L
350.601 82.856 L
351.752 82.279 L
352.903 81.704 L
354.053 81.131 L
355.204 80.56 L
356.355 79.992 L
357.506 79.427 L
358.657 78.863 L
359.808 78.303 L
360.959 77.744 L
362.11 77.188 L
363.261 76.635 L
364.412 76.084 L
365.563 75.535 L
366.713 74.99 L
367.864 74.446 L
369.015 73.906 L
370.166 73.368 L
371.317 72.832 L
372.468 72.299 L
373.619 71.769 L
374.77 71.242 L
375.921 70.717 L
377.072 70.195 L
378.223 69.676 L
379.374 69.16 L
380.524 68.646 L
381.675 68.136 L
382.826 67.628 L
383.977 67.123 L
385.128 66.621 L
386.279 66.121 L
387.43 65.625 L
388.581 65.132 L
389.732 64.642 L
390.883 64.155 L
392.034 63.67 L
393.184 63.189 L
394.335 62.711 L
395.486 62.236 L
396.637 61.764 L
397.788 61.296 L
398.939 60.83 L
400.09 60.368 L
401.241 59.908 L
402.392 59.453 L
403.543 59 L
404.694 58.55 L
405.844 58.104 L
406.995 57.661 L
408.146 57.222 L
409.297 56.786 L
410.448 56.353 L
411.599 55.924 L
412.75 55.498 L
413.901 55.076 L
415.052 54.657 L
416.203 54.241 L
417.354 53.829 L
418.504 53.421 L
419.655 53.016 L
420.806 52.614 L
421.957 52.217 L
423.108 51.823 L
424.259 51.432 L
425.41 51.045 L
426.561 50.662 L
427.712 50.283 L
428.863 49.907 L
430.014 49.536 L
431.164 49.167 L
432.315 48.803 L
433.466 48.443 L
434.617 48.086 L
435.768 47.733 L
436.919 47.384 L
438.07 47.039 L
439.221 46.698 L
440.372 46.361 L
441.523 46.028 L
442.674 45.699 L
443.824 45.374 L
444.975 45.053 L
446.126 44.736 L
447.277 44.423 L
448.428 44.114 L
449.579 43.809 L
450.73 43.509 L
451.881 43.212 L
453.032 42.92 L
454.183 42.632 L
455.334 42.348 L
456.484 42.069 L
457.635 41.794 L
458.786 41.523 L
459.937 41.256 L
461.088 40.994 L
462.239 40.736 L
463.39 40.482 L
464.541 40.233 L
465.692 39.989 L
466.843 39.748 L
467.994 39.513 L
469.144 39.282 L
470.295 39.055 L
471.446 38.833 L
472.597 38.615 L
473.748 38.402 L
474.899 38.194 L
476.05 37.99 L
477.201 37.791 L
478.352 37.596 L
479.503 37.407 L
480.654 37.222 L
481.804 37.041 L
482.955 36.866 L
484.106 36.695 L
485.257 36.529 L
486.408 36.368 L
487.559 36.212 L
488.71 36.06 L
489.861 35.914 L
491.012 35.772 L
492.163 35.635 L
493.314 35.504 L
S
GR
GS
0.302 0.745 0.933 RC
[10 6] 0 setdash
2 LJ
0.5 LW
N
74.257 371.5 M
75.408 368.345 L
76.559 365.204 L
77.71 362.081 L
78.861 358.975 L
80.011 355.89 L
81.162 352.828 L
82.313 349.789 L
83.464 346.777 L
84.615 343.793 L
85.766 340.838 L
86.917 337.916 L
88.068 335.028 L
89.219 332.175 L
90.37 329.361 L
91.521 326.586 L
92.671 323.852 L
93.822 321.163 L
94.973 318.518 L
96.124 315.922 L
97.275 313.374 L
98.426 310.878 L
99.577 308.436 L
100.728 306.048 L
101.879 303.718 L
103.03 301.447 L
104.181 299.237 L
105.331 297.066 L
106.482 294.916 L
107.633 292.786 L
108.784 290.677 L
109.935 288.588 L
111.086 286.519 L
112.237 284.47 L
113.388 282.442 L
114.539 280.433 L
115.69 278.445 L
116.841 276.477 L
117.992 274.528 L
119.142 272.6 L
120.293 270.691 L
121.444 268.803 L
122.595 266.934 L
123.746 265.084 L
124.897 263.255 L
126.048 261.445 L
127.199 259.654 L
128.35 257.883 L
129.501 256.132 L
130.652 254.4 L
131.802 252.687 L
132.953 250.994 L
134.104 249.32 L
135.255 247.665 L
136.406 246.029 L
137.557 244.413 L
138.708 242.815 L
139.859 241.237 L
141.01 239.678 L
142.161 238.137 L
143.312 236.615 L
144.462 235.113 L
145.613 233.629 L
146.764 232.163 L
147.915 230.717 L
149.066 229.289 L
150.217 227.88 L
151.368 226.489 L
152.519 225.116 L
153.67 223.762 L
154.821 222.427 L
155.972 221.11 L
157.122 219.808 L
158.273 218.514 L
159.424 217.227 L
160.575 215.947 L
161.726 214.675 L
162.877 213.41 L
164.028 212.152 L
165.179 210.902 L
166.33 209.659 L
167.481 208.423 L
168.632 207.195 L
169.782 205.974 L
170.933 204.76 L
172.084 203.554 L
173.235 202.355 L
174.386 201.163 L
175.537 199.979 L
176.688 198.802 L
177.839 197.632 L
178.99 196.47 L
180.141 195.315 L
181.292 194.168 L
182.442 193.028 L
183.593 191.895 L
184.744 190.77 L
185.895 189.652 L
187.046 188.541 L
188.197 187.438 L
189.348 186.342 L
190.499 185.254 L
191.65 184.173 L
192.801 183.1 L
193.952 182.034 L
195.102 180.975 L
196.253 179.924 L
197.404 178.88 L
198.555 177.844 L
199.706 176.815 L
200.857 175.793 L
202.008 174.779 L
203.159 173.773 L
204.31 172.774 L
205.461 171.782 L
206.612 170.798 L
207.762 169.821 L
208.913 168.852 L
210.064 167.89 L
211.215 166.936 L
212.366 165.989 L
213.517 165.05 L
214.668 164.118 L
215.819 163.194 L
216.97 162.277 L
218.121 161.368 L
219.272 160.466 L
220.422 159.572 L
221.573 158.686 L
222.724 157.806 L
223.875 156.935 L
225.026 156.071 L
226.177 155.214 L
227.328 154.365 L
228.479 153.524 L
229.63 152.69 L
230.781 151.863 L
231.932 151.045 L
233.082 150.233 L
234.233 149.43 L
235.384 148.634 L
236.535 147.845 L
237.686 147.064 L
238.837 146.291 L
239.988 145.525 L
241.139 144.767 L
242.29 144.017 L
243.441 143.274 L
244.592 142.538 L
245.743 141.81 L
246.893 141.09 L
248.044 140.378 L
249.195 139.673 L
250.346 138.975 L
251.497 138.279 L
252.648 137.584 L
253.799 136.889 L
254.95 136.194 L
256.101 135.5 L
257.252 134.806 L
258.403 134.113 L
259.553 133.42 L
260.704 132.728 L
261.855 132.037 L
263.006 131.346 L
264.157 130.656 L
265.308 129.966 L
266.459 129.277 L
267.61 128.589 L
268.761 127.901 L
269.912 127.214 L
271.063 126.528 L
272.213 125.843 L
273.364 125.158 L
274.515 124.474 L
275.666 123.791 L
276.817 123.109 L
277.968 122.428 L
279.119 121.748 L
280.27 121.069 L
281.421 120.39 L
282.572 119.713 L
283.723 119.037 L
284.873 118.361 L
286.024 117.687 L
287.175 117.014 L
288.326 116.341 L
289.477 115.67 L
290.628 115.001 L
291.779 114.332 L
292.93 113.664 L
294.081 112.998 L
295.232 112.333 L
296.383 111.669 L
297.533 111.006 L
298.684 110.344 L
299.835 109.684 L
300.986 109.026 L
302.137 108.368 L
303.288 107.712 L
304.439 107.058 L
305.59 106.404 L
306.741 105.753 L
307.892 105.102 L
309.043 104.453 L
310.193 103.806 L
311.344 103.16 L
312.495 102.516 L
313.646 101.873 L
314.797 101.232 L
315.948 100.593 L
317.099 99.955 L
318.25 99.319 L
319.401 98.684 L
320.552 98.052 L
321.703 97.421 L
322.853 96.791 L
324.004 96.164 L
325.155 95.538 L
326.306 94.914 L
327.457 94.292 L
328.608 93.672 L
329.759 93.054 L
330.91 92.437 L
332.061 91.823 L
333.212 91.21 L
334.363 90.6 L
335.513 89.991 L
336.664 89.385 L
337.815 88.78 L
338.966 88.178 L
340.117 87.578 L
341.268 86.979 L
342.419 86.383 L
343.57 85.789 L
344.721 85.198 L
345.872 84.608 L
347.023 84.021 L
348.173 83.436 L
349.324 82.853 L
350.475 82.272 L
351.626 81.694 L
352.777 81.118 L
353.928 80.544 L
355.079 79.973 L
356.23 79.404 L
357.381 78.838 L
358.532 78.274 L
359.683 77.713 L
360.833 77.153 L
361.984 76.597 L
363.135 76.043 L
364.286 75.492 L
365.437 74.943 L
366.588 74.396 L
367.739 73.853 L
368.89 73.312 L
370.041 72.773 L
371.192 72.238 L
372.343 71.705 L
373.493 71.175 L
374.644 70.647 L
375.795 70.122 L
376.946 69.601 L
378.097 69.082 L
379.248 68.565 L
380.399 68.052 L
381.55 67.541 L
382.701 67.034 L
383.852 66.529 L
385.003 66.027 L
386.154 65.529 L
387.304 65.033 L
388.455 64.54 L
389.606 64.051 L
390.757 63.564 L
391.908 63.08 L
393.059 62.6 L
394.21 62.123 L
395.361 61.648 L
396.512 61.177 L
397.663 60.71 L
398.814 60.245 L
399.964 59.784 L
401.115 59.326 L
402.266 58.871 L
403.417 58.419 L
404.568 57.971 L
405.719 57.526 L
406.87 57.085 L
408.021 56.647 L
409.172 56.212 L
410.323 55.781 L
411.474 55.353 L
412.624 54.929 L
413.775 54.508 L
414.926 54.091 L
416.077 53.678 L
417.228 53.268 L
418.379 52.861 L
419.53 52.458 L
420.681 52.059 L
421.832 51.663 L
422.983 51.271 L
424.134 50.883 L
425.284 50.499 L
426.435 50.118 L
427.586 49.741 L
428.737 49.368 L
429.888 48.999 L
431.039 48.633 L
432.19 48.272 L
433.341 47.914 L
434.492 47.56 L
435.643 47.21 L
436.794 46.864 L
437.944 46.522 L
439.095 46.184 L
440.246 45.85 L
441.397 45.52 L
442.548 45.194 L
443.699 44.873 L
444.85 44.555 L
446.001 44.241 L
447.152 43.932 L
448.303 43.627 L
449.454 43.326 L
450.604 43.029 L
451.755 42.736 L
452.906 42.448 L
454.057 42.164 L
455.208 41.884 L
456.359 41.609 L
457.51 41.337 L
458.661 41.071 L
459.812 40.809 L
460.963 40.551 L
462.114 40.297 L
463.264 40.048 L
464.415 39.804 L
465.566 39.564 L
466.717 39.328 L
467.868 39.097 L
469.019 38.871 L
470.17 38.649 L
471.321 38.432 L
472.472 38.219 L
473.623 38.012 L
474.774 37.808 L
475.924 37.61 L
477.075 37.416 L
478.226 37.227 L
479.377 37.043 L
480.528 36.864 L
481.679 36.689 L
482.83 36.519 L
483.981 36.354 L
485.132 36.194 L
486.283 36.039 L
487.434 35.889 L
488.585 35.744 L
489.735 35.603 L
490.886 35.468 L
492.037 35.338 L
S
GR
GS
0.635 0.078 0.184 RC
[10 6] 0 setdash
2 LJ
0.5 LW
N
75.35 368.092 M
76.501 364.993 L
77.652 361.909 L
78.802 358.841 L
79.953 355.789 L
81.104 352.758 L
82.255 349.748 L
83.406 346.76 L
84.557 343.798 L
85.708 340.863 L
86.859 337.956 L
88.01 335.081 L
89.161 332.237 L
90.312 329.428 L
91.462 326.655 L
92.613 323.919 L
93.764 321.224 L
94.915 318.571 L
96.066 315.961 L
97.217 313.396 L
98.368 310.879 L
99.519 308.411 L
100.67 305.994 L
101.821 303.63 L
102.972 301.32 L
104.123 299.067 L
105.273 296.873 L
106.424 294.735 L
107.575 292.626 L
108.726 290.537 L
109.877 288.467 L
111.028 286.418 L
112.179 284.388 L
113.33 282.379 L
114.481 280.389 L
115.632 278.419 L
116.783 276.468 L
117.933 274.537 L
119.084 272.625 L
120.235 270.733 L
121.386 268.86 L
122.537 267.006 L
123.688 265.171 L
124.839 263.355 L
125.99 261.559 L
127.141 259.781 L
128.292 258.022 L
129.443 256.282 L
130.593 254.56 L
131.744 252.858 L
132.895 251.173 L
134.046 249.508 L
135.197 247.86 L
136.348 246.231 L
137.499 244.62 L
138.65 243.028 L
139.801 241.453 L
140.952 239.896 L
142.103 238.358 L
143.253 236.837 L
144.404 235.334 L
145.555 233.849 L
146.706 232.382 L
147.857 230.932 L
149.008 229.499 L
150.159 228.084 L
151.31 226.687 L
152.461 225.306 L
153.612 223.943 L
154.763 222.597 L
155.913 221.268 L
157.064 219.956 L
158.215 218.661 L
159.366 217.383 L
160.517 216.118 L
161.668 214.859 L
162.819 213.608 L
163.97 212.364 L
165.121 211.126 L
166.272 209.896 L
167.423 208.672 L
168.573 207.456 L
169.724 206.246 L
170.875 205.043 L
172.026 203.847 L
173.177 202.658 L
174.328 201.476 L
175.479 200.301 L
176.63 199.132 L
177.781 197.971 L
178.932 196.817 L
180.083 195.669 L
181.233 194.529 L
182.384 193.395 L
183.535 192.269 L
184.686 191.149 L
185.837 190.037 L
186.988 188.931 L
188.139 187.833 L
189.29 186.741 L
190.441 185.656 L
191.592 184.579 L
192.743 183.508 L
193.893 182.445 L
195.044 181.388 L
196.195 180.338 L
197.346 179.296 L
198.497 178.26 L
199.648 177.232 L
200.799 176.21 L
201.95 175.196 L
203.101 174.188 L
204.252 173.188 L
205.403 172.195 L
206.553 171.208 L
207.704 170.229 L
208.855 169.257 L
210.006 168.292 L
211.157 167.334 L
212.308 166.383 L
213.459 165.439 L
214.61 164.503 L
215.761 163.573 L
216.912 162.651 L
218.063 161.735 L
219.214 160.827 L
220.364 159.925 L
221.515 159.031 L
222.666 158.144 L
223.817 157.264 L
224.968 156.392 L
226.119 155.526 L
227.27 154.668 L
228.421 153.816 L
229.572 152.972 L
230.723 152.135 L
231.874 151.305 L
233.024 150.482 L
234.175 149.667 L
235.326 148.858 L
236.477 148.057 L
237.628 147.263 L
238.779 146.476 L
239.93 145.696 L
241.081 144.924 L
242.232 144.158 L
243.383 143.4 L
244.534 142.649 L
245.684 141.906 L
246.835 141.169 L
247.986 140.44 L
249.137 139.718 L
250.288 139.003 L
251.439 138.295 L
252.59 137.595 L
253.741 136.902 L
254.892 136.216 L
256.043 135.536 L
257.194 134.857 L
258.344 134.179 L
259.495 133.501 L
260.646 132.824 L
261.797 132.147 L
262.948 131.471 L
264.099 130.795 L
265.25 130.12 L
266.401 129.445 L
267.552 128.77 L
268.703 128.097 L
269.854 127.423 L
271.004 126.751 L
272.155 126.079 L
273.306 125.408 L
274.457 124.737 L
275.608 124.067 L
276.759 123.398 L
277.91 122.729 L
279.061 122.062 L
280.212 121.395 L
281.363 120.728 L
282.514 120.063 L
283.664 119.398 L
284.815 118.735 L
285.966 118.072 L
287.117 117.41 L
288.268 116.749 L
289.419 116.089 L
290.57 115.43 L
291.721 114.772 L
292.872 114.115 L
294.023 113.459 L
295.174 112.804 L
296.324 112.15 L
297.475 111.497 L
298.626 110.845 L
299.777 110.194 L
300.928 109.545 L
302.079 108.896 L
303.23 108.249 L
304.381 107.603 L
305.532 106.958 L
306.683 106.315 L
307.834 105.673 L
308.984 105.032 L
310.135 104.392 L
311.286 103.754 L
312.437 103.117 L
313.588 102.481 L
314.739 101.847 L
315.89 101.214 L
317.041 100.583 L
318.192 99.953 L
319.343 99.324 L
320.494 98.697 L
321.644 98.072 L
322.795 97.448 L
323.946 96.825 L
325.097 96.205 L
326.248 95.585 L
327.399 94.968 L
328.55 94.352 L
329.701 93.737 L
330.852 93.125 L
332.003 92.514 L
333.154 91.905 L
334.305 91.297 L
335.455 90.691 L
336.606 90.087 L
337.757 89.485 L
338.908 88.885 L
340.059 88.286 L
341.21 87.69 L
342.361 87.095 L
343.512 86.502 L
344.663 85.911 L
345.814 85.322 L
346.965 84.735 L
348.115 84.15 L
349.266 83.567 L
350.417 82.986 L
351.568 82.407 L
352.719 81.83 L
353.87 81.255 L
355.021 80.683 L
356.172 80.112 L
357.323 79.544 L
358.474 78.977 L
359.625 78.413 L
360.775 77.851 L
361.926 77.292 L
363.077 76.734 L
364.228 76.179 L
365.379 75.626 L
366.53 75.076 L
367.681 74.527 L
368.832 73.982 L
369.983 73.438 L
371.134 72.897 L
372.285 72.358 L
373.435 71.822 L
374.586 71.288 L
375.737 70.757 L
376.888 70.228 L
378.039 69.702 L
379.19 69.178 L
380.341 68.657 L
381.492 68.138 L
382.643 67.622 L
383.794 67.109 L
384.945 66.598 L
386.095 66.09 L
387.246 65.584 L
388.397 65.081 L
389.548 64.581 L
390.699 64.084 L
391.85 63.59 L
393.001 63.098 L
394.152 62.609 L
395.303 62.123 L
396.454 61.64 L
397.605 61.159 L
398.755 60.682 L
399.906 60.207 L
401.057 59.735 L
402.208 59.267 L
403.359 58.801 L
404.51 58.338 L
405.661 57.878 L
406.812 57.421 L
407.963 56.968 L
409.114 56.517 L
410.265 56.069 L
411.415 55.625 L
412.566 55.184 L
413.717 54.746 L
414.868 54.311 L
416.019 53.879 L
417.17 53.45 L
418.321 53.025 L
419.472 52.603 L
420.623 52.184 L
421.774 51.768 L
422.925 51.356 L
424.075 50.947 L
425.226 50.542 L
426.377 50.14 L
427.528 49.741 L
428.679 49.345 L
429.83 48.954 L
430.981 48.565 L
432.132 48.18 L
433.283 47.799 L
434.434 47.421 L
435.585 47.046 L
436.735 46.676 L
437.886 46.308 L
439.037 45.945 L
440.188 45.585 L
441.339 45.228 L
442.49 44.875 L
443.641 44.526 L
444.792 44.181 L
445.943 43.839 L
447.094 43.502 L
448.245 43.167 L
449.395 42.837 L
450.546 42.511 L
451.697 42.188 L
452.848 41.869 L
453.999 41.554 L
455.15 41.243 L
456.301 40.936 L
457.452 40.633 L
458.603 40.333 L
459.754 40.038 L
460.905 39.747 L
462.056 39.459 L
463.206 39.176 L
464.357 38.897 L
465.508 38.622 L
466.659 38.351 L
467.81 38.084 L
468.961 37.821 L
470.112 37.562 L
471.263 37.308 L
472.414 37.057 L
473.565 36.811 L
474.716 36.57 L
475.866 36.332 L
477.017 36.099 L
478.168 35.87 L
479.319 35.645 L
480.47 35.425 L
481.621 35.209 L
482.772 34.997 L
483.923 34.79 L
485.074 34.587 L
486.225 34.389 L
487.376 34.195 L
488.526 34.006 L
489.677 33.821 L
490.828 33.64 L
491.979 33.464 L
493.13 33.293 L
494.281 33.126 L
495.432 32.964 L
496.583 32.807 L
497.734 32.654 L
498.885 32.506 L
500.036 32.363 L
501.186 32.224 L
502.337 32.09 L
503.488 31.961 L
S
GR
GS
1 GC
N
499 366 M
499 250.5 L
344.5 250.5 L
344.5 366 L
cp
f
GR
GS
[1 0 0 1 381.5 260.25] CT
/Helvetica 13 F
GS
[1 0 0 1 0 0] CT
0 5 moveto 
1 -1 scale
(Base Run) t 
GR
GR
GS
0 0.447 0.741 RC
1 LJ
0.5 LW
N
348.5 260.25 M
378.5 260.25 L
S
GR
GS
[1 0 0 1 381.5 276.25] CT
/Helvetica 13 F
GS
[1 0 0 1 0 0] CT
0 5 moveto 
1 -1 scale
(I & B Frames) t 
GR
GR
GS
0.851 0.325 0.098 RC
1 LJ
0.5 LW
N
348.5 276.25 M
378.5 276.25 L
S
GR
GS
[1 0 0 1 381.5 292.25] CT
/Helvetica 13 F
GS
[1 0 0 1 0 0] CT
0 5 moveto 
1 -1 scale
(I Frames Only) t 
GR
GR
GS
0.929 0.694 0.125 RC
1 LJ
0.5 LW
N
348.5 292.25 M
378.5 292.25 L
S
GR
GS
[1 0 0 1 381.5 308.25] CT
/Helvetica 13 F
GS
[1 0 0 1 0 0] CT
0 5 moveto 
1 -1 scale
(B Frames Only) t 
GR
GR
GS
0.494 0.184 0.557 RC
1 LJ
0.5 LW
N
348.5 308.25 M
378.5 308.25 L
S
GR
GS
[1 0 0 1 381.5 324.25] CT
/Helvetica 13 F
GS
[1 0 0 1 0 0] CT
0 5 moveto 
1 -1 scale
(Part I & B Frames) t 
GR
GR
GS
0.467 0.675 0.188 RC
[10 6] 0 setdash
2 LJ
0.5 LW
N
348.5 324.25 M
378.5 324.25 L
S
GR
GS
[1 0 0 1 381.5 340.25] CT
/Helvetica 13 F
GS
[1 0 0 1 0 0] CT
0 5 moveto 
1 -1 scale
(Part I Frames Only) t 
GR
GR
GS
0.302 0.745 0.933 RC
[10 6] 0 setdash
2 LJ
0.5 LW
N
348.5 340.25 M
378.5 340.25 L
S
GR
GS
[1 0 0 1 381.5 356.25] CT
/Helvetica 13 F
GS
[1 0 0 1 0 0] CT
0 5 moveto 
1 -1 scale
(Part B Frames Only) t 
GR
GR
GS
0.635 0.078 0.184 RC
[10 6] 0 setdash
2 LJ
0.5 LW
N
348.5 356.25 M
378.5 356.25 L
S
GR
GS
0.149 GC
10.0 ML
0.5 LW
N
344.5 366 M
344.5 250.5 L
499 250.5 L
499 366 L
cp
S
GR
%%Trailer
%%Pages: 1
%%EOF
