%!PS-Adobe-3.0 EPSF-3.0
%%Creator: (MATLAB, The Mathworks, Inc. Version 9.11.0.1837725 \(R2021b\) Update 2. Operating System: Mac OS X)
%%Title: plots/pchip/Vlog_1080P-58ad.y4m-hevc-PSNR_HVSY.eps
%%CreationDate: 2022-02-03T19:14:58
%%Pages: (atend)
%%BoundingBox:    33   425   515   826
%%LanguageLevel: 3
%%EndComments
%%BeginProlog
%%BeginResource: procset (Apache XML Graphics Std ProcSet) 1.2 0
%%Version: 1.2 0
%%Copyright: (Copyright 2001-2003,2010 The Apache Software Foundation. License terms: http://www.apache.org/licenses/LICENSE-2.0)
/bd{bind def}bind def
/ld{load def}bd
/GR/grestore ld
/GS/gsave ld
/RM/rmoveto ld
/C/curveto ld
/t/show ld
/L/lineto ld
/ML/setmiterlimit ld
/CT/concat ld
/f/fill ld
/N/newpath ld
/S/stroke ld
/CC/setcmykcolor ld
/A/ashow ld
/cp/closepath ld
/RC/setrgbcolor ld
/LJ/setlinejoin ld
/GC/setgray ld
/LW/setlinewidth ld
/M/moveto ld
/re {4 2 roll M
1 index 0 rlineto
0 exch rlineto
neg 0 rlineto
cp } bd
/_ctm matrix def
/_tm matrix def
/BT { _ctm currentmatrix pop matrix _tm copy pop 0 0 moveto } bd
/ET { _ctm setmatrix } bd
/iTm { _ctm setmatrix _tm concat } bd
/Tm { _tm astore pop iTm 0 0 moveto } bd
/ux 0.0 def
/uy 0.0 def
/F {
  /Tp exch def
  /Tf exch def
  Tf findfont Tp scalefont setfont
  /cf Tf def  /cs Tp def
} bd
/ULS {currentpoint /uy exch def /ux exch def} bd
/ULE {
  /Tcx currentpoint pop def
  gsave
  newpath
  cf findfont cs scalefont dup
  /FontMatrix get 0 get /Ts exch def /FontInfo get dup
  /UnderlinePosition get Ts mul /To exch def
  /UnderlineThickness get Ts mul /Tt exch def
  ux uy To add moveto  Tcx uy To add lineto
  Tt setlinewidth stroke
  grestore
} bd
/OLE {
  /Tcx currentpoint pop def
  gsave
  newpath
  cf findfont cs scalefont dup
  /FontMatrix get 0 get /Ts exch def /FontInfo get dup
  /UnderlinePosition get Ts mul /To exch def
  /UnderlineThickness get Ts mul /Tt exch def
  ux uy To add cs add moveto Tcx uy To add cs add lineto
  Tt setlinewidth stroke
  grestore
} bd
/SOE {
  /Tcx currentpoint pop def
  gsave
  newpath
  cf findfont cs scalefont dup
  /FontMatrix get 0 get /Ts exch def /FontInfo get dup
  /UnderlinePosition get Ts mul /To exch def
  /UnderlineThickness get Ts mul /Tt exch def
  ux uy To add cs 10 mul 26 idiv add moveto Tcx uy To add cs 10 mul 26 idiv add lineto
  Tt setlinewidth stroke
  grestore
} bd
/QT {
/Y22 exch store
/X22 exch store
/Y21 exch store
/X21 exch store
currentpoint
/Y21 load 2 mul add 3 div exch
/X21 load 2 mul add 3 div exch
/X21 load 2 mul /X22 load add 3 div
/Y21 load 2 mul /Y22 load add 3 div
/X22 load /Y22 load curveto
} bd
/SSPD {
dup length /d exch dict def
{
/v exch def
/k exch def
currentpagedevice k known {
/cpdv currentpagedevice k get def
v cpdv ne {
/upd false def
/nullv v type /nulltype eq def
/nullcpdv cpdv type /nulltype eq def
nullv nullcpdv or
{
/upd true def
} {
/sametype v type cpdv type eq def
sametype {
v type /arraytype eq {
/vlen v length def
/cpdvlen cpdv length def
vlen cpdvlen eq {
0 1 vlen 1 sub {
/i exch def
/obj v i get def
/cpdobj cpdv i get def
obj cpdobj ne {
/upd true def
exit
} if
} for
} {
/upd true def
} ifelse
} {
v type /dicttype eq {
v {
/dv exch def
/dk exch def
/cpddv cpdv dk get def
dv cpddv ne {
/upd true def
exit
} if
} forall
} {
/upd true def
} ifelse
} ifelse
} if
} ifelse
upd true eq {
d k v put
} if
} if
} if
} forall
d length 0 gt {
d setpagedevice
} if
} bd
/RE { % /NewFontName [NewEncodingArray] /FontName RE -
  findfont dup length dict begin
  {
    1 index /FID ne
    {def} {pop pop} ifelse
  } forall
  /Encoding exch def
  /FontName 1 index def
  currentdict definefont pop
  end
} bind def
%%EndResource
%%BeginResource: procset (Apache XML Graphics EPS ProcSet) 1.0 0
%%Version: 1.0 0
%%Copyright: (Copyright 2002-2003 The Apache Software Foundation. License terms: http://www.apache.org/licenses/LICENSE-2.0)
/BeginEPSF { %def
/b4_Inc_state save def         % Save state for cleanup
/dict_count countdictstack def % Count objects on dict stack
/op_count count 1 sub def      % Count objects on operand stack
userdict begin                 % Push userdict on dict stack
/showpage { } def              % Redefine showpage, { } = null proc
0 setgray 0 setlinecap         % Prepare graphics state
1 setlinewidth 0 setlinejoin
10 setmiterlimit [ ] 0 setdash newpath
/languagelevel where           % If level not equal to 1 then
{pop languagelevel             % set strokeadjust and
1 ne                           % overprint to their defaults.
{false setstrokeadjust false setoverprint
} if
} if
} bd
/EndEPSF { %def
count op_count sub {pop} repeat            % Clean up stacks
countdictstack dict_count sub {end} repeat
b4_Inc_state restore
} bd
%%EndResource
%FOPBeginFontDict
%%IncludeResource: font Courier-Oblique
%%IncludeResource: font Courier-BoldOblique
%%IncludeResource: font Courier-Bold
%%IncludeResource: font ZapfDingbats
%%IncludeResource: font Symbol
%%IncludeResource: font Helvetica
%%IncludeResource: font Helvetica-Oblique
%%IncludeResource: font Helvetica-Bold
%%IncludeResource: font Helvetica-BoldOblique
%%IncludeResource: font Times-Roman
%%IncludeResource: font Times-Italic
%%IncludeResource: font Times-Bold
%%IncludeResource: font Times-BoldItalic
%%IncludeResource: font Courier
%FOPEndFontDict
%%BeginResource: encoding WinAnsiEncoding
/WinAnsiEncoding [
/.notdef /.notdef /.notdef /.notdef /.notdef
/.notdef /.notdef /.notdef /.notdef /.notdef
/.notdef /.notdef /.notdef /.notdef /.notdef
/.notdef /.notdef /.notdef /.notdef /.notdef
/.notdef /.notdef /.notdef /.notdef /.notdef
/.notdef /.notdef /.notdef /.notdef /.notdef
/.notdef /.notdef /space /exclam /quotedbl
/numbersign /dollar /percent /ampersand /quotesingle
/parenleft /parenright /asterisk /plus /comma
/hyphen /period /slash /zero /one
/two /three /four /five /six
/seven /eight /nine /colon /semicolon
/less /equal /greater /question /at
/A /B /C /D /E
/F /G /H /I /J
/K /L /M /N /O
/P /Q /R /S /T
/U /V /W /X /Y
/Z /bracketleft /backslash /bracketright /asciicircum
/underscore /quoteleft /a /b /c
/d /e /f /g /h
/i /j /k /l /m
/n /o /p /q /r
/s /t /u /v /w
/x /y /z /braceleft /bar
/braceright /asciitilde /bullet /Euro /bullet
/quotesinglbase /florin /quotedblbase /ellipsis /dagger
/daggerdbl /circumflex /perthousand /Scaron /guilsinglleft
/OE /bullet /Zcaron /bullet /bullet
/quoteleft /quoteright /quotedblleft /quotedblright /bullet
/endash /emdash /asciitilde /trademark /scaron
/guilsinglright /oe /bullet /zcaron /Ydieresis
/space /exclamdown /cent /sterling /currency
/yen /brokenbar /section /dieresis /copyright
/ordfeminine /guillemotleft /logicalnot /sfthyphen /registered
/macron /degree /plusminus /twosuperior /threesuperior
/acute /mu /paragraph /middot /cedilla
/onesuperior /ordmasculine /guillemotright /onequarter /onehalf
/threequarters /questiondown /Agrave /Aacute /Acircumflex
/Atilde /Adieresis /Aring /AE /Ccedilla
/Egrave /Eacute /Ecircumflex /Edieresis /Igrave
/Iacute /Icircumflex /Idieresis /Eth /Ntilde
/Ograve /Oacute /Ocircumflex /Otilde /Odieresis
/multiply /Oslash /Ugrave /Uacute /Ucircumflex
/Udieresis /Yacute /Thorn /germandbls /agrave
/aacute /acircumflex /atilde /adieresis /aring
/ae /ccedilla /egrave /eacute /ecircumflex
/edieresis /igrave /iacute /icircumflex /idieresis
/eth /ntilde /ograve /oacute /ocircumflex
/otilde /odieresis /divide /oslash /ugrave
/uacute /ucircumflex /udieresis /yacute /thorn
/ydieresis
] def
%%EndResource
%FOPBeginFontReencode
/Courier-Oblique findfont
dup length dict begin
  {1 index /FID ne {def} {pop pop} ifelse} forall
  /Encoding WinAnsiEncoding def
  currentdict
end
/Courier-Oblique exch definefont pop
/Courier-BoldOblique findfont
dup length dict begin
  {1 index /FID ne {def} {pop pop} ifelse} forall
  /Encoding WinAnsiEncoding def
  currentdict
end
/Courier-BoldOblique exch definefont pop
/Courier-Bold findfont
dup length dict begin
  {1 index /FID ne {def} {pop pop} ifelse} forall
  /Encoding WinAnsiEncoding def
  currentdict
end
/Courier-Bold exch definefont pop
/Helvetica findfont
dup length dict begin
  {1 index /FID ne {def} {pop pop} ifelse} forall
  /Encoding WinAnsiEncoding def
  currentdict
end
/Helvetica exch definefont pop
/Helvetica-Oblique findfont
dup length dict begin
  {1 index /FID ne {def} {pop pop} ifelse} forall
  /Encoding WinAnsiEncoding def
  currentdict
end
/Helvetica-Oblique exch definefont pop
/Helvetica-Bold findfont
dup length dict begin
  {1 index /FID ne {def} {pop pop} ifelse} forall
  /Encoding WinAnsiEncoding def
  currentdict
end
/Helvetica-Bold exch definefont pop
/Helvetica-BoldOblique findfont
dup length dict begin
  {1 index /FID ne {def} {pop pop} ifelse} forall
  /Encoding WinAnsiEncoding def
  currentdict
end
/Helvetica-BoldOblique exch definefont pop
/Times-Roman findfont
dup length dict begin
  {1 index /FID ne {def} {pop pop} ifelse} forall
  /Encoding WinAnsiEncoding def
  currentdict
end
/Times-Roman exch definefont pop
/Times-Italic findfont
dup length dict begin
  {1 index /FID ne {def} {pop pop} ifelse} forall
  /Encoding WinAnsiEncoding def
  currentdict
end
/Times-Italic exch definefont pop
/Times-Bold findfont
dup length dict begin
  {1 index /FID ne {def} {pop pop} ifelse} forall
  /Encoding WinAnsiEncoding def
  currentdict
end
/Times-Bold exch definefont pop
/Times-BoldItalic findfont
dup length dict begin
  {1 index /FID ne {def} {pop pop} ifelse} forall
  /Encoding WinAnsiEncoding def
  currentdict
end
/Times-BoldItalic exch definefont pop
/Courier findfont
dup length dict begin
  {1 index /FID ne {def} {pop pop} ifelse} forall
  /Encoding WinAnsiEncoding def
  currentdict
end
/Courier exch definefont pop
%FOPEndFontReencode
%%EndProlog
%%Page: 1 1
%%PageBoundingBox: 0 0 1120 840
%%BeginPageSetup
[1 0 0 -1 0 840] CT
%%EndPageSetup
GS
1 GC
N
0 0 1120 840 re
f
GR
GS
1 GC
N
73 374 M
507 374 L
507 31.5 L
73 31.5 L
cp
f
GR
GS
0.149 GC
2 setlinecap
1 LJ
0.5 LW
N
73 374 M
507 374 L
S
GR
GS
0.149 GC
2 setlinecap
1 LJ
0.5 LW
N
73 31.5 M
507 31.5 L
S
GR
GS
0.149 GC
2 setlinecap
1 LJ
0.5 LW
N
96.769 374 M
96.769 369.66 L
S
GR
GS
0.149 GC
2 setlinecap
1 LJ
0.5 LW
N
154.315 374 M
154.315 369.66 L
S
GR
GS
0.149 GC
2 setlinecap
1 LJ
0.5 LW
N
211.86 374 M
211.86 369.66 L
S
GR
GS
0.149 GC
2 setlinecap
1 LJ
0.5 LW
N
269.406 374 M
269.406 369.66 L
S
GR
GS
0.149 GC
2 setlinecap
1 LJ
0.5 LW
N
326.951 374 M
326.951 369.66 L
S
GR
GS
0.149 GC
2 setlinecap
1 LJ
0.5 LW
N
384.497 374 M
384.497 369.66 L
S
GR
GS
0.149 GC
2 setlinecap
1 LJ
0.5 LW
N
442.042 374 M
442.042 369.66 L
S
GR
GS
0.149 GC
2 setlinecap
1 LJ
0.5 LW
N
499.588 374 M
499.588 369.66 L
S
GR
GS
0.149 GC
2 setlinecap
1 LJ
0.5 LW
N
96.769 31.5 M
96.769 35.84 L
S
GR
GS
0.149 GC
2 setlinecap
1 LJ
0.5 LW
N
154.315 31.5 M
154.315 35.84 L
S
GR
GS
0.149 GC
2 setlinecap
1 LJ
0.5 LW
N
211.86 31.5 M
211.86 35.84 L
S
GR
GS
0.149 GC
2 setlinecap
1 LJ
0.5 LW
N
269.406 31.5 M
269.406 35.84 L
S
GR
GS
0.149 GC
2 setlinecap
1 LJ
0.5 LW
N
326.951 31.5 M
326.951 35.84 L
S
GR
GS
0.149 GC
2 setlinecap
1 LJ
0.5 LW
N
384.497 31.5 M
384.497 35.84 L
S
GR
GS
0.149 GC
2 setlinecap
1 LJ
0.5 LW
N
442.042 31.5 M
442.042 35.84 L
S
GR
GS
0.149 GC
2 setlinecap
1 LJ
0.5 LW
N
499.588 31.5 M
499.588 35.84 L
S
GR
GS
0.149 GC
2 setlinecap
1 LJ
0.5 LW
N
73.751 374 M
73.751 371.83 L
S
GR
GS
0.149 GC
2 setlinecap
1 LJ
0.5 LW
N
85.26 374 M
85.26 371.83 L
S
GR
GS
0.149 GC
2 setlinecap
1 LJ
0.5 LW
N
108.278 374 M
108.278 371.83 L
S
GR
GS
0.149 GC
2 setlinecap
1 LJ
0.5 LW
N
119.787 374 M
119.787 371.83 L
S
GR
GS
0.149 GC
2 setlinecap
1 LJ
0.5 LW
N
131.297 374 M
131.297 371.83 L
S
GR
GS
0.149 GC
2 setlinecap
1 LJ
0.5 LW
N
142.806 374 M
142.806 371.83 L
S
GR
GS
0.149 GC
2 setlinecap
1 LJ
0.5 LW
N
165.824 374 M
165.824 371.83 L
S
GR
GS
0.149 GC
2 setlinecap
1 LJ
0.5 LW
N
177.333 374 M
177.333 371.83 L
S
GR
GS
0.149 GC
2 setlinecap
1 LJ
0.5 LW
N
188.842 374 M
188.842 371.83 L
S
GR
GS
0.149 GC
2 setlinecap
1 LJ
0.5 LW
N
200.351 374 M
200.351 371.83 L
S
GR
GS
0.149 GC
2 setlinecap
1 LJ
0.5 LW
N
223.369 374 M
223.369 371.83 L
S
GR
GS
0.149 GC
2 setlinecap
1 LJ
0.5 LW
N
234.878 374 M
234.878 371.83 L
S
GR
GS
0.149 GC
2 setlinecap
1 LJ
0.5 LW
N
246.388 374 M
246.388 371.83 L
S
GR
GS
0.149 GC
2 setlinecap
1 LJ
0.5 LW
N
257.897 374 M
257.897 371.83 L
S
GR
GS
0.149 GC
2 setlinecap
1 LJ
0.5 LW
N
280.915 374 M
280.915 371.83 L
S
GR
GS
0.149 GC
2 setlinecap
1 LJ
0.5 LW
N
292.424 374 M
292.424 371.83 L
S
GR
GS
0.149 GC
2 setlinecap
1 LJ
0.5 LW
N
303.933 374 M
303.933 371.83 L
S
GR
GS
0.149 GC
2 setlinecap
1 LJ
0.5 LW
N
315.442 374 M
315.442 371.83 L
S
GR
GS
0.149 GC
2 setlinecap
1 LJ
0.5 LW
N
338.46 374 M
338.46 371.83 L
S
GR
GS
0.149 GC
2 setlinecap
1 LJ
0.5 LW
N
349.969 374 M
349.969 371.83 L
S
GR
GS
0.149 GC
2 setlinecap
1 LJ
0.5 LW
N
361.479 374 M
361.479 371.83 L
S
GR
GS
0.149 GC
2 setlinecap
1 LJ
0.5 LW
N
372.988 374 M
372.988 371.83 L
S
GR
GS
0.149 GC
2 setlinecap
1 LJ
0.5 LW
N
396.006 374 M
396.006 371.83 L
S
GR
GS
0.149 GC
2 setlinecap
1 LJ
0.5 LW
N
407.515 374 M
407.515 371.83 L
S
GR
GS
0.149 GC
2 setlinecap
1 LJ
0.5 LW
N
419.024 374 M
419.024 371.83 L
S
GR
GS
0.149 GC
2 setlinecap
1 LJ
0.5 LW
N
430.533 374 M
430.533 371.83 L
S
GR
GS
0.149 GC
2 setlinecap
1 LJ
0.5 LW
N
453.551 374 M
453.551 371.83 L
S
GR
GS
0.149 GC
2 setlinecap
1 LJ
0.5 LW
N
465.06 374 M
465.06 371.83 L
S
GR
GS
0.149 GC
2 setlinecap
1 LJ
0.5 LW
N
476.57 374 M
476.57 371.83 L
S
GR
GS
0.149 GC
2 setlinecap
1 LJ
0.5 LW
N
488.079 374 M
488.079 371.83 L
S
GR
GS
0.149 GC
2 setlinecap
1 LJ
0.5 LW
N
73.751 31.5 M
73.751 33.67 L
S
GR
GS
0.149 GC
2 setlinecap
1 LJ
0.5 LW
N
85.26 31.5 M
85.26 33.67 L
S
GR
GS
0.149 GC
2 setlinecap
1 LJ
0.5 LW
N
108.278 31.5 M
108.278 33.67 L
S
GR
GS
0.149 GC
2 setlinecap
1 LJ
0.5 LW
N
119.787 31.5 M
119.787 33.67 L
S
GR
GS
0.149 GC
2 setlinecap
1 LJ
0.5 LW
N
131.297 31.5 M
131.297 33.67 L
S
GR
GS
0.149 GC
2 setlinecap
1 LJ
0.5 LW
N
142.806 31.5 M
142.806 33.67 L
S
GR
GS
0.149 GC
2 setlinecap
1 LJ
0.5 LW
N
165.824 31.5 M
165.824 33.67 L
S
GR
GS
0.149 GC
2 setlinecap
1 LJ
0.5 LW
N
177.333 31.5 M
177.333 33.67 L
S
GR
GS
0.149 GC
2 setlinecap
1 LJ
0.5 LW
N
188.842 31.5 M
188.842 33.67 L
S
GR
GS
0.149 GC
2 setlinecap
1 LJ
0.5 LW
N
200.351 31.5 M
200.351 33.67 L
S
GR
GS
0.149 GC
2 setlinecap
1 LJ
0.5 LW
N
223.369 31.5 M
223.369 33.67 L
S
GR
GS
0.149 GC
2 setlinecap
1 LJ
0.5 LW
N
234.878 31.5 M
234.878 33.67 L
S
GR
GS
0.149 GC
2 setlinecap
1 LJ
0.5 LW
N
246.388 31.5 M
246.388 33.67 L
S
GR
GS
0.149 GC
2 setlinecap
1 LJ
0.5 LW
N
257.897 31.5 M
257.897 33.67 L
S
GR
GS
0.149 GC
2 setlinecap
1 LJ
0.5 LW
N
280.915 31.5 M
280.915 33.67 L
S
GR
GS
0.149 GC
2 setlinecap
1 LJ
0.5 LW
N
292.424 31.5 M
292.424 33.67 L
S
GR
GS
0.149 GC
2 setlinecap
1 LJ
0.5 LW
N
303.933 31.5 M
303.933 33.67 L
S
GR
GS
0.149 GC
2 setlinecap
1 LJ
0.5 LW
N
315.442 31.5 M
315.442 33.67 L
S
GR
GS
0.149 GC
2 setlinecap
1 LJ
0.5 LW
N
338.46 31.5 M
338.46 33.67 L
S
GR
GS
0.149 GC
2 setlinecap
1 LJ
0.5 LW
N
349.969 31.5 M
349.969 33.67 L
S
GR
GS
0.149 GC
2 setlinecap
1 LJ
0.5 LW
N
361.479 31.5 M
361.479 33.67 L
S
GR
GS
0.149 GC
2 setlinecap
1 LJ
0.5 LW
N
372.988 31.5 M
372.988 33.67 L
S
GR
GS
0.149 GC
2 setlinecap
1 LJ
0.5 LW
N
396.006 31.5 M
396.006 33.67 L
S
GR
GS
0.149 GC
2 setlinecap
1 LJ
0.5 LW
N
407.515 31.5 M
407.515 33.67 L
S
GR
GS
0.149 GC
2 setlinecap
1 LJ
0.5 LW
N
419.024 31.5 M
419.024 33.67 L
S
GR
GS
0.149 GC
2 setlinecap
1 LJ
0.5 LW
N
430.533 31.5 M
430.533 33.67 L
S
GR
GS
0.149 GC
2 setlinecap
1 LJ
0.5 LW
N
453.551 31.5 M
453.551 33.67 L
S
GR
GS
0.149 GC
2 setlinecap
1 LJ
0.5 LW
N
465.06 31.5 M
465.06 33.67 L
S
GR
GS
0.149 GC
2 setlinecap
1 LJ
0.5 LW
N
476.57 31.5 M
476.57 33.67 L
S
GR
GS
0.149 GC
2 setlinecap
1 LJ
0.5 LW
N
488.079 31.5 M
488.079 33.67 L
S
GR
GS
[1 0 0 1 96.76929 378.79999] CT
0.149 GC
/Helvetica 14 F
GS
[1 0 0 1 0 0] CT
-16 14 moveto 
1 -1 scale
(1000) t 
GR
GR
GS
[1 0 0 1 154.31479 378.79999] CT
0.149 GC
/Helvetica 14 F
GS
[1 0 0 1 0 0] CT
-16 14 moveto 
1 -1 scale
(2000) t 
GR
GR
GS
[1 0 0 1 211.86029 378.79999] CT
0.149 GC
/Helvetica 14 F
GS
[1 0 0 1 0 0] CT
-16 14 moveto 
1 -1 scale
(3000) t 
GR
GR
GS
[1 0 0 1 269.40579 378.79999] CT
0.149 GC
/Helvetica 14 F
GS
[1 0 0 1 0 0] CT
-16 14 moveto 
1 -1 scale
(4000) t 
GR
GR
GS
[1 0 0 1 326.95129 378.79999] CT
0.149 GC
/Helvetica 14 F
GS
[1 0 0 1 0 0] CT
-16 14 moveto 
1 -1 scale
(5000) t 
GR
GR
GS
[1 0 0 1 384.4968 378.79999] CT
0.149 GC
/Helvetica 14 F
GS
[1 0 0 1 0 0] CT
-16 14 moveto 
1 -1 scale
(6000) t 
GR
GR
GS
[1 0 0 1 442.04227 378.79999] CT
0.149 GC
/Helvetica 14 F
GS
[1 0 0 1 0 0] CT
-16 14 moveto 
1 -1 scale
(7000) t 
GR
GR
GS
[1 0 0 1 499.58777 378.79999] CT
0.149 GC
/Helvetica 14 F
GS
[1 0 0 1 0 0] CT
-16 14 moveto 
1 -1 scale
(8000) t 
GR
GR
GS
[1 0 0 1 290.00018 396.29999] CT
0.149 GC
/Helvetica 15.4 F
GS
[1 0 0 1 0 0] CT
-42 15 moveto 
1 -1 scale
(Bitrate\(kb/s\)) t 
GR
GR
GS
0.149 GC
2 setlinecap
1 LJ
0.5 LW
N
73 374 M
73 31.5 L
S
GR
GS
0.149 GC
2 setlinecap
1 LJ
0.5 LW
N
507 374 M
507 31.5 L
S
GR
GS
0.149 GC
2 setlinecap
1 LJ
0.5 LW
N
73 367.412 M
77.34 367.412 L
S
GR
GS
0.149 GC
2 setlinecap
1 LJ
0.5 LW
N
73 319.191 M
77.34 319.191 L
S
GR
GS
0.149 GC
2 setlinecap
1 LJ
0.5 LW
N
73 270.97 M
77.34 270.97 L
S
GR
GS
0.149 GC
2 setlinecap
1 LJ
0.5 LW
N
73 222.749 M
77.34 222.749 L
S
GR
GS
0.149 GC
2 setlinecap
1 LJ
0.5 LW
N
73 174.528 M
77.34 174.528 L
S
GR
GS
0.149 GC
2 setlinecap
1 LJ
0.5 LW
N
73 126.307 M
77.34 126.307 L
S
GR
GS
0.149 GC
2 setlinecap
1 LJ
0.5 LW
N
73 78.086 M
77.34 78.086 L
S
GR
GS
0.149 GC
2 setlinecap
1 LJ
0.5 LW
N
507 367.412 M
502.66 367.412 L
S
GR
GS
0.149 GC
2 setlinecap
1 LJ
0.5 LW
N
507 319.191 M
502.66 319.191 L
S
GR
GS
0.149 GC
2 setlinecap
1 LJ
0.5 LW
N
507 270.97 M
502.66 270.97 L
S
GR
GS
0.149 GC
2 setlinecap
1 LJ
0.5 LW
N
507 222.749 M
502.66 222.749 L
S
GR
GS
0.149 GC
2 setlinecap
1 LJ
0.5 LW
N
507 174.528 M
502.66 174.528 L
S
GR
GS
0.149 GC
2 setlinecap
1 LJ
0.5 LW
N
507 126.307 M
502.66 126.307 L
S
GR
GS
0.149 GC
2 setlinecap
1 LJ
0.5 LW
N
507 78.086 M
502.66 78.086 L
S
GR
GS
0.149 GC
2 setlinecap
1 LJ
0.5 LW
N
73 355.357 M
75.17 355.357 L
S
GR
GS
0.149 GC
2 setlinecap
1 LJ
0.5 LW
N
73 343.301 M
75.17 343.301 L
S
GR
GS
0.149 GC
2 setlinecap
1 LJ
0.5 LW
N
73 331.246 M
75.17 331.246 L
S
GR
GS
0.149 GC
2 setlinecap
1 LJ
0.5 LW
N
73 307.136 M
75.17 307.136 L
S
GR
GS
0.149 GC
2 setlinecap
1 LJ
0.5 LW
N
73 295.08 M
75.17 295.08 L
S
GR
GS
0.149 GC
2 setlinecap
1 LJ
0.5 LW
N
73 283.025 M
75.17 283.025 L
S
GR
GS
0.149 GC
2 setlinecap
1 LJ
0.5 LW
N
73 258.915 M
75.17 258.915 L
S
GR
GS
0.149 GC
2 setlinecap
1 LJ
0.5 LW
N
73 246.859 M
75.17 246.859 L
S
GR
GS
0.149 GC
2 setlinecap
1 LJ
0.5 LW
N
73 234.804 M
75.17 234.804 L
S
GR
GS
0.149 GC
2 setlinecap
1 LJ
0.5 LW
N
73 210.694 M
75.17 210.694 L
S
GR
GS
0.149 GC
2 setlinecap
1 LJ
0.5 LW
N
73 198.638 M
75.17 198.638 L
S
GR
GS
0.149 GC
2 setlinecap
1 LJ
0.5 LW
N
73 186.583 M
75.17 186.583 L
S
GR
GS
0.149 GC
2 setlinecap
1 LJ
0.5 LW
N
73 162.473 M
75.17 162.473 L
S
GR
GS
0.149 GC
2 setlinecap
1 LJ
0.5 LW
N
73 150.417 M
75.17 150.417 L
S
GR
GS
0.149 GC
2 setlinecap
1 LJ
0.5 LW
N
73 138.362 M
75.17 138.362 L
S
GR
GS
0.149 GC
2 setlinecap
1 LJ
0.5 LW
N
73 114.252 M
75.17 114.252 L
S
GR
GS
0.149 GC
2 setlinecap
1 LJ
0.5 LW
N
73 102.196 M
75.17 102.196 L
S
GR
GS
0.149 GC
2 setlinecap
1 LJ
0.5 LW
N
73 90.141 M
75.17 90.141 L
S
GR
GS
0.149 GC
2 setlinecap
1 LJ
0.5 LW
N
73 66.031 M
75.17 66.031 L
S
GR
GS
0.149 GC
2 setlinecap
1 LJ
0.5 LW
N
73 53.975 M
75.17 53.975 L
S
GR
GS
0.149 GC
2 setlinecap
1 LJ
0.5 LW
N
73 41.92 M
75.17 41.92 L
S
GR
GS
0.149 GC
2 setlinecap
1 LJ
0.5 LW
N
507 355.357 M
504.83 355.357 L
S
GR
GS
0.149 GC
2 setlinecap
1 LJ
0.5 LW
N
507 343.301 M
504.83 343.301 L
S
GR
GS
0.149 GC
2 setlinecap
1 LJ
0.5 LW
N
507 331.246 M
504.83 331.246 L
S
GR
GS
0.149 GC
2 setlinecap
1 LJ
0.5 LW
N
507 307.136 M
504.83 307.136 L
S
GR
GS
0.149 GC
2 setlinecap
1 LJ
0.5 LW
N
507 295.08 M
504.83 295.08 L
S
GR
GS
0.149 GC
2 setlinecap
1 LJ
0.5 LW
N
507 283.025 M
504.83 283.025 L
S
GR
GS
0.149 GC
2 setlinecap
1 LJ
0.5 LW
N
507 258.915 M
504.83 258.915 L
S
GR
GS
0.149 GC
2 setlinecap
1 LJ
0.5 LW
N
507 246.859 M
504.83 246.859 L
S
GR
GS
0.149 GC
2 setlinecap
1 LJ
0.5 LW
N
507 234.804 M
504.83 234.804 L
S
GR
GS
0.149 GC
2 setlinecap
1 LJ
0.5 LW
N
507 210.694 M
504.83 210.694 L
S
GR
GS
0.149 GC
2 setlinecap
1 LJ
0.5 LW
N
507 198.638 M
504.83 198.638 L
S
GR
GS
0.149 GC
2 setlinecap
1 LJ
0.5 LW
N
507 186.583 M
504.83 186.583 L
S
GR
GS
0.149 GC
2 setlinecap
1 LJ
0.5 LW
N
507 162.473 M
504.83 162.473 L
S
GR
GS
0.149 GC
2 setlinecap
1 LJ
0.5 LW
N
507 150.417 M
504.83 150.417 L
S
GR
GS
0.149 GC
2 setlinecap
1 LJ
0.5 LW
N
507 138.362 M
504.83 138.362 L
S
GR
GS
0.149 GC
2 setlinecap
1 LJ
0.5 LW
N
507 114.252 M
504.83 114.252 L
S
GR
GS
0.149 GC
2 setlinecap
1 LJ
0.5 LW
N
507 102.196 M
504.83 102.196 L
S
GR
GS
0.149 GC
2 setlinecap
1 LJ
0.5 LW
N
507 90.141 M
504.83 90.141 L
S
GR
GS
0.149 GC
2 setlinecap
1 LJ
0.5 LW
N
507 66.031 M
504.83 66.031 L
S
GR
GS
0.149 GC
2 setlinecap
1 LJ
0.5 LW
N
507 53.975 M
504.83 53.975 L
S
GR
GS
0.149 GC
2 setlinecap
1 LJ
0.5 LW
N
507 41.92 M
504.83 41.92 L
S
GR
GS
[1 0 0 1 68.2 367.41183] CT
0.149 GC
/Helvetica 14 F
GS
[1 0 0 1 0 0] CT
-16 5.5 moveto 
1 -1 scale
(28) t 
GR
GR
GS
[1 0 0 1 68.2 319.19083] CT
0.149 GC
/Helvetica 14 F
GS
[1 0 0 1 0 0] CT
-16 5.5 moveto 
1 -1 scale
(30) t 
GR
GR
GS
[1 0 0 1 68.2 270.96985] CT
0.149 GC
/Helvetica 14 F
GS
[1 0 0 1 0 0] CT
-16 5.5 moveto 
1 -1 scale
(32) t 
GR
GR
GS
[1 0 0 1 68.2 222.74884] CT
0.149 GC
/Helvetica 14 F
GS
[1 0 0 1 0 0] CT
-16 5.5 moveto 
1 -1 scale
(34) t 
GR
GR
GS
[1 0 0 1 68.2 174.52785] CT
0.149 GC
/Helvetica 14 F
GS
[1 0 0 1 0 0] CT
-16 5.5 moveto 
1 -1 scale
(36) t 
GR
GR
GS
[1 0 0 1 68.2 126.30685] CT
0.149 GC
/Helvetica 14 F
GS
[1 0 0 1 0 0] CT
-16 5.5 moveto 
1 -1 scale
(38) t 
GR
GR
GS
[1 0 0 1 68.2 78.08585] CT
0.149 GC
/Helvetica 14 F
GS
[1 0 0 1 0 0] CT
-16 5.5 moveto 
1 -1 scale
(40) t 
GR
GR
GS
[0 -1 1 0 49.2 202.74977] CT
0.149 GC
/Helvetica 15.4 F
GS
[1 0 0 1 0 0] CT
-62.5 -4 moveto 
1 -1 scale
(PSNR-HVS Y \(dB\)) t 
GR
GR
GS
[1 0 0 1 290.00027 29.57496] CT
/Helvetica-Bold 15.4 F
GS
[1 0 0 1 0 0] CT
-101.5 -4 moveto 
1 -1 scale
(Vlog_1080P-58ad.y4m-hevc) t 
GR
GR
GS
0 0.447 0.741 RC
1 LJ
0.5 LW
N
74.474 371.384 M
75.625 368.289 L
76.776 365.208 L
77.927 362.144 L
79.077 359.097 L
80.228 356.07 L
81.379 353.065 L
82.53 350.083 L
83.681 347.127 L
84.832 344.199 L
85.983 341.3 L
87.134 338.432 L
88.285 335.597 L
89.436 332.798 L
90.587 330.035 L
91.738 327.311 L
92.888 324.628 L
94.039 321.988 L
95.19 319.392 L
96.341 316.842 L
97.492 314.341 L
98.643 311.89 L
99.794 309.491 L
100.945 307.146 L
102.096 304.857 L
103.247 302.626 L
104.398 300.454 L
105.548 298.328 L
106.699 296.223 L
107.85 294.14 L
109.001 292.077 L
110.152 290.034 L
111.303 288.012 L
112.454 286.011 L
113.605 284.029 L
114.756 282.068 L
115.907 280.127 L
117.058 278.206 L
118.208 276.305 L
119.359 274.423 L
120.51 272.561 L
121.661 270.719 L
122.812 268.896 L
123.963 267.092 L
125.114 265.307 L
126.265 263.542 L
127.416 261.795 L
128.567 260.067 L
129.718 258.358 L
130.868 256.667 L
132.019 254.995 L
133.17 253.341 L
134.321 251.706 L
135.472 250.088 L
136.623 248.489 L
137.774 246.908 L
138.925 245.344 L
140.076 243.798 L
141.227 242.27 L
142.378 240.759 L
143.528 239.266 L
144.679 237.789 L
145.83 236.33 L
146.981 234.888 L
148.132 233.463 L
149.283 232.055 L
150.434 230.663 L
151.585 229.288 L
152.736 227.929 L
153.887 226.587 L
155.038 225.261 L
156.188 223.951 L
157.339 222.657 L
158.49 221.372 L
159.641 220.093 L
160.792 218.821 L
161.943 217.556 L
163.094 216.298 L
164.245 215.046 L
165.396 213.802 L
166.547 212.564 L
167.698 211.333 L
168.848 210.109 L
169.999 208.891 L
171.15 207.681 L
172.301 206.477 L
173.452 205.281 L
174.603 204.091 L
175.754 202.908 L
176.905 201.732 L
178.056 200.563 L
179.207 199.401 L
180.358 198.246 L
181.508 197.098 L
182.659 195.957 L
183.81 194.822 L
184.961 193.695 L
186.112 192.575 L
187.263 191.462 L
188.414 190.356 L
189.565 189.256 L
190.716 188.164 L
191.867 187.079 L
193.018 186.001 L
194.168 184.93 L
195.319 183.867 L
196.47 182.81 L
197.621 181.76 L
198.772 180.718 L
199.923 179.682 L
201.074 178.654 L
202.225 177.633 L
203.376 176.619 L
204.527 175.612 L
205.678 174.613 L
206.829 173.62 L
207.979 172.635 L
209.13 171.657 L
210.281 170.687 L
211.432 169.723 L
212.583 168.767 L
213.734 167.818 L
214.885 166.876 L
216.036 165.942 L
217.187 165.014 L
218.338 164.095 L
219.489 163.182 L
220.639 162.277 L
221.79 161.379 L
222.941 160.488 L
224.092 159.605 L
225.243 158.729 L
226.394 157.861 L
227.545 156.999 L
228.696 156.146 L
229.847 155.299 L
230.998 154.46 L
232.149 153.629 L
233.299 152.805 L
234.45 151.988 L
235.601 151.179 L
236.752 150.377 L
237.903 149.583 L
239.054 148.796 L
240.205 148.017 L
241.356 147.246 L
242.507 146.481 L
243.658 145.725 L
244.809 144.975 L
245.959 144.234 L
247.11 143.5 L
248.261 142.773 L
249.412 142.054 L
250.563 141.343 L
251.714 140.639 L
252.865 139.936 L
254.016 139.234 L
255.167 138.533 L
256.318 137.831 L
257.469 137.131 L
258.619 136.431 L
259.77 135.731 L
260.921 135.032 L
262.072 134.333 L
263.223 133.635 L
264.374 132.938 L
265.525 132.241 L
266.676 131.545 L
267.827 130.85 L
268.978 130.156 L
270.129 129.462 L
271.279 128.768 L
272.43 128.076 L
273.581 127.384 L
274.732 126.694 L
275.883 126.004 L
277.034 125.315 L
278.185 124.626 L
279.336 123.939 L
280.487 123.253 L
281.638 122.567 L
282.789 121.883 L
283.939 121.199 L
285.09 120.517 L
286.241 119.835 L
287.392 119.155 L
288.543 118.475 L
289.694 117.797 L
290.845 117.12 L
291.996 116.444 L
293.147 115.769 L
294.298 115.095 L
295.449 114.422 L
296.599 113.751 L
297.75 113.081 L
298.901 112.412 L
300.052 111.744 L
301.203 111.078 L
302.354 110.413 L
303.505 109.75 L
304.656 109.087 L
305.807 108.427 L
306.958 107.767 L
308.109 107.109 L
309.259 106.453 L
310.41 105.798 L
311.561 105.144 L
312.712 104.492 L
313.863 103.841 L
315.014 103.192 L
316.165 102.545 L
317.316 101.899 L
318.467 101.255 L
319.618 100.613 L
320.769 99.972 L
321.919 99.333 L
323.07 98.695 L
324.221 98.06 L
325.372 97.426 L
326.523 96.793 L
327.674 96.163 L
328.825 95.534 L
329.976 94.908 L
331.127 94.283 L
332.278 93.66 L
333.429 93.039 L
334.579 92.419 L
335.73 91.802 L
336.881 91.187 L
338.032 90.574 L
339.183 89.962 L
340.334 89.353 L
341.485 88.746 L
342.636 88.141 L
343.787 87.538 L
344.938 86.937 L
346.089 86.338 L
347.24 85.742 L
348.39 85.147 L
349.541 84.555 L
350.692 83.965 L
351.843 83.377 L
352.994 82.792 L
354.145 82.208 L
355.296 81.628 L
356.447 81.049 L
357.598 80.473 L
358.749 79.899 L
359.9 79.328 L
361.05 78.758 L
362.201 78.192 L
363.352 77.628 L
364.503 77.066 L
365.654 76.507 L
366.805 75.95 L
367.956 75.396 L
369.107 74.845 L
370.258 74.296 L
371.409 73.749 L
372.56 73.206 L
373.71 72.665 L
374.861 72.126 L
376.012 71.591 L
377.163 71.058 L
378.314 70.527 L
379.465 70 L
380.616 69.475 L
381.767 68.953 L
382.918 68.434 L
384.069 67.918 L
385.22 67.405 L
386.37 66.894 L
387.521 66.387 L
388.672 65.882 L
389.823 65.38 L
390.974 64.882 L
392.125 64.386 L
393.276 63.893 L
394.427 63.404 L
395.578 62.917 L
396.729 62.434 L
397.88 61.953 L
399.03 61.476 L
400.181 61.002 L
401.332 60.531 L
402.483 60.063 L
403.634 59.598 L
404.785 59.137 L
405.936 58.679 L
407.087 58.224 L
408.238 57.772 L
409.389 57.324 L
410.54 56.879 L
411.69 56.438 L
412.841 56 L
413.992 55.565 L
415.143 55.134 L
416.294 54.706 L
417.445 54.281 L
418.596 53.86 L
419.747 53.443 L
420.898 53.029 L
422.049 52.619 L
423.2 52.212 L
424.35 51.809 L
425.501 51.409 L
426.652 51.013 L
427.803 50.621 L
428.954 50.232 L
430.105 49.847 L
431.256 49.466 L
432.407 49.089 L
433.558 48.715 L
434.709 48.345 L
435.86 47.979 L
437.01 47.617 L
438.161 47.259 L
439.312 46.904 L
440.463 46.553 L
441.614 46.207 L
442.765 45.864 L
443.916 45.525 L
445.067 45.19 L
446.218 44.859 L
447.369 44.533 L
448.52 44.21 L
449.671 43.891 L
450.821 43.577 L
451.972 43.266 L
453.123 42.96 L
454.274 42.657 L
455.425 42.359 L
456.576 42.066 L
457.727 41.776 L
458.878 41.49 L
460.029 41.209 L
461.18 40.932 L
462.331 40.66 L
463.481 40.392 L
464.632 40.128 L
465.783 39.868 L
466.934 39.613 L
468.085 39.362 L
469.236 39.116 L
470.387 38.874 L
471.538 38.637 L
472.689 38.404 L
473.84 38.175 L
474.991 37.951 L
476.141 37.732 L
477.292 37.517 L
478.443 37.307 L
479.594 37.102 L
480.745 36.901 L
481.896 36.705 L
483.047 36.513 L
484.198 36.326 L
485.349 36.144 L
486.5 35.967 L
487.651 35.794 L
488.801 35.627 L
489.952 35.464 L
491.103 35.306 L
492.254 35.152 L
493.405 35.004 L
494.556 34.86 L
S
GR
GS
0.851 0.325 0.098 RC
1 LJ
0.5 LW
N
74.212 372.214 M
75.363 369.091 L
76.514 365.982 L
77.664 362.89 L
78.815 359.816 L
79.966 356.762 L
81.117 353.731 L
82.268 350.723 L
83.419 347.742 L
84.57 344.789 L
85.721 341.866 L
86.872 338.975 L
88.023 336.118 L
89.174 333.298 L
90.324 330.515 L
91.475 327.772 L
92.626 325.071 L
93.777 322.415 L
94.928 319.804 L
96.079 317.241 L
97.23 314.727 L
98.381 312.266 L
99.532 309.859 L
100.683 307.507 L
101.834 305.213 L
102.984 302.979 L
104.135 300.806 L
105.286 298.673 L
106.437 296.562 L
107.588 294.472 L
108.739 292.404 L
109.89 290.357 L
111.041 288.33 L
112.192 286.325 L
113.343 284.341 L
114.494 282.377 L
115.644 280.434 L
116.795 278.511 L
117.946 276.608 L
119.097 274.726 L
120.248 272.863 L
121.399 271.02 L
122.55 269.197 L
123.701 267.394 L
124.852 265.61 L
126.003 263.845 L
127.154 262.099 L
128.304 260.373 L
129.455 258.665 L
130.606 256.976 L
131.757 255.305 L
132.908 253.653 L
134.059 252.019 L
135.21 250.404 L
136.361 248.806 L
137.512 247.227 L
138.663 245.665 L
139.814 244.121 L
140.964 242.594 L
142.115 241.084 L
143.266 239.592 L
144.417 238.117 L
145.568 236.659 L
146.719 235.217 L
147.87 233.793 L
149.021 232.384 L
150.172 230.992 L
151.323 229.617 L
152.474 228.257 L
153.624 226.914 L
154.775 225.586 L
155.926 224.274 L
157.077 222.976 L
158.228 221.685 L
159.379 220.401 L
160.53 219.123 L
161.681 217.853 L
162.832 216.589 L
163.983 215.331 L
165.134 214.081 L
166.285 212.838 L
167.435 211.601 L
168.586 210.371 L
169.737 209.148 L
170.888 207.931 L
172.039 206.722 L
173.19 205.519 L
174.341 204.324 L
175.492 203.135 L
176.643 201.953 L
177.794 200.778 L
178.945 199.611 L
180.095 198.45 L
181.246 197.296 L
182.397 196.149 L
183.548 195.009 L
184.699 193.876 L
185.85 192.75 L
187.001 191.631 L
188.152 190.519 L
189.303 189.414 L
190.454 188.317 L
191.605 187.226 L
192.755 186.143 L
193.906 185.067 L
195.057 183.997 L
196.208 182.935 L
197.359 181.881 L
198.51 180.833 L
199.661 179.793 L
200.812 178.759 L
201.963 177.733 L
203.114 176.715 L
204.265 175.703 L
205.415 174.699 L
206.566 173.702 L
207.717 172.712 L
208.868 171.73 L
210.019 170.755 L
211.17 169.788 L
212.321 168.827 L
213.472 167.874 L
214.623 166.929 L
215.774 165.991 L
216.925 165.06 L
218.075 164.137 L
219.226 163.221 L
220.377 162.313 L
221.528 161.412 L
222.679 160.518 L
223.83 159.632 L
224.981 158.754 L
226.132 157.883 L
227.283 157.02 L
228.434 156.164 L
229.585 155.316 L
230.735 154.475 L
231.886 153.642 L
233.037 152.816 L
234.188 151.999 L
235.339 151.188 L
236.49 150.386 L
237.641 149.591 L
238.792 148.804 L
239.943 148.024 L
241.094 147.253 L
242.245 146.488 L
243.395 145.732 L
244.546 144.984 L
245.697 144.243 L
246.848 143.51 L
247.999 142.784 L
249.15 142.067 L
250.301 141.357 L
251.452 140.65 L
252.603 139.942 L
253.754 139.236 L
254.905 138.529 L
256.055 137.824 L
257.206 137.119 L
258.357 136.414 L
259.508 135.71 L
260.659 135.006 L
261.81 134.303 L
262.961 133.601 L
264.112 132.899 L
265.263 132.198 L
266.414 131.498 L
267.565 130.798 L
268.715 130.1 L
269.866 129.402 L
271.017 128.704 L
272.168 128.008 L
273.319 127.312 L
274.47 126.617 L
275.621 125.923 L
276.772 125.23 L
277.923 124.538 L
279.074 123.847 L
280.225 123.156 L
281.376 122.467 L
282.526 121.779 L
283.677 121.091 L
284.828 120.405 L
285.979 119.72 L
287.13 119.036 L
288.281 118.353 L
289.432 117.671 L
290.583 116.99 L
291.734 116.311 L
292.885 115.632 L
294.036 114.955 L
295.186 114.279 L
296.337 113.605 L
297.488 112.931 L
298.639 112.259 L
299.79 111.589 L
300.941 110.919 L
302.092 110.251 L
303.243 109.585 L
304.394 108.919 L
305.545 108.256 L
306.696 107.593 L
307.846 106.933 L
308.997 106.273 L
310.148 105.616 L
311.299 104.959 L
312.45 104.305 L
313.601 103.652 L
314.752 103 L
315.903 102.351 L
317.054 101.702 L
318.205 101.056 L
319.356 100.411 L
320.506 99.768 L
321.657 99.127 L
322.808 98.487 L
323.959 97.85 L
325.11 97.214 L
326.261 96.58 L
327.412 95.947 L
328.563 95.317 L
329.714 94.689 L
330.865 94.062 L
332.016 93.437 L
333.166 92.815 L
334.317 92.194 L
335.468 91.576 L
336.619 90.959 L
337.77 90.344 L
338.921 89.732 L
340.072 89.122 L
341.223 88.513 L
342.374 87.907 L
343.525 87.303 L
344.676 86.702 L
345.826 86.102 L
346.977 85.505 L
348.128 84.91 L
349.279 84.317 L
350.43 83.727 L
351.581 83.138 L
352.732 82.553 L
353.883 81.969 L
355.034 81.388 L
356.185 80.809 L
357.336 80.233 L
358.486 79.659 L
359.637 79.088 L
360.788 78.519 L
361.939 77.953 L
363.09 77.389 L
364.241 76.828 L
365.392 76.269 L
366.543 75.713 L
367.694 75.16 L
368.845 74.609 L
369.996 74.061 L
371.146 73.516 L
372.297 72.973 L
373.448 72.433 L
374.599 71.896 L
375.75 71.362 L
376.901 70.83 L
378.052 70.301 L
379.203 69.775 L
380.354 69.252 L
381.505 68.732 L
382.656 68.215 L
383.806 67.701 L
384.957 67.189 L
386.108 66.681 L
387.259 66.175 L
388.41 65.673 L
389.561 65.174 L
390.712 64.678 L
391.863 64.184 L
393.014 63.694 L
394.165 63.207 L
395.316 62.724 L
396.466 62.243 L
397.617 61.766 L
398.768 61.292 L
399.919 60.821 L
401.07 60.353 L
402.221 59.889 L
403.372 59.428 L
404.523 58.97 L
405.674 58.515 L
406.825 58.064 L
407.976 57.617 L
409.126 57.173 L
410.277 56.732 L
411.428 56.295 L
412.579 55.861 L
413.73 55.43 L
414.881 55.004 L
416.032 54.58 L
417.183 54.161 L
418.334 53.745 L
419.485 53.332 L
420.636 52.924 L
421.787 52.518 L
422.937 52.117 L
424.088 51.719 L
425.239 51.325 L
426.39 50.935 L
427.541 50.548 L
428.692 50.166 L
429.843 49.787 L
430.994 49.412 L
432.145 49.04 L
433.296 48.673 L
434.447 48.31 L
435.597 47.95 L
436.748 47.595 L
437.899 47.243 L
439.05 46.895 L
440.201 46.552 L
441.352 46.212 L
442.503 45.877 L
443.654 45.545 L
444.805 45.218 L
445.956 44.895 L
447.107 44.576 L
448.257 44.261 L
449.408 43.95 L
450.559 43.644 L
451.71 43.341 L
452.861 43.043 L
454.012 42.75 L
455.163 42.46 L
456.314 42.175 L
457.465 41.894 L
458.616 41.618 L
459.767 41.346 L
460.917 41.078 L
462.068 40.815 L
463.219 40.557 L
464.37 40.302 L
465.521 40.053 L
466.672 39.807 L
467.823 39.567 L
468.974 39.33 L
470.125 39.099 L
471.276 38.872 L
472.427 38.65 L
473.577 38.432 L
474.728 38.219 L
475.879 38.011 L
477.03 37.807 L
478.181 37.608 L
479.332 37.414 L
480.483 37.225 L
481.634 37.04 L
482.785 36.861 L
483.936 36.686 L
485.087 36.516 L
486.237 36.351 L
487.388 36.191 L
488.539 36.036 L
489.69 35.885 L
490.841 35.74 L
S
GR
GS
0.929 0.694 0.125 RC
1 LJ
0.5 LW
N
73 374 M
74.151 370.798 L
75.302 367.611 L
76.453 364.442 L
77.604 361.292 L
78.755 358.164 L
79.905 355.06 L
81.056 351.981 L
82.207 348.929 L
83.358 345.907 L
84.509 342.916 L
85.66 339.959 L
86.811 337.037 L
87.962 334.153 L
89.113 331.308 L
90.264 328.504 L
91.415 325.744 L
92.565 323.029 L
93.716 320.361 L
94.867 317.743 L
96.018 315.177 L
97.169 312.663 L
98.32 310.205 L
99.471 307.804 L
100.622 305.463 L
101.773 303.183 L
102.924 300.958 L
104.075 298.758 L
105.225 296.58 L
106.376 294.425 L
107.527 292.291 L
108.678 290.179 L
109.829 288.088 L
110.98 286.02 L
112.131 283.972 L
113.282 281.946 L
114.433 279.94 L
115.584 277.956 L
116.735 275.993 L
117.885 274.051 L
119.036 272.129 L
120.187 270.228 L
121.338 268.347 L
122.489 266.487 L
123.64 264.647 L
124.791 262.827 L
125.942 261.028 L
127.093 259.248 L
128.244 257.488 L
129.395 255.747 L
130.546 254.026 L
131.696 252.325 L
132.847 250.643 L
133.998 248.98 L
135.149 247.336 L
136.3 245.712 L
137.451 244.106 L
138.602 242.519 L
139.753 240.951 L
140.904 239.401 L
142.055 237.87 L
143.206 236.357 L
144.356 234.862 L
145.507 233.385 L
146.658 231.926 L
147.809 230.486 L
148.96 229.063 L
150.111 227.657 L
151.262 226.269 L
152.413 224.899 L
153.564 223.541 L
154.715 222.19 L
155.866 220.846 L
157.016 219.509 L
158.167 218.179 L
159.318 216.857 L
160.469 215.541 L
161.62 214.233 L
162.771 212.932 L
163.922 211.638 L
165.073 210.351 L
166.224 209.072 L
167.375 207.8 L
168.526 206.535 L
169.676 205.277 L
170.827 204.027 L
171.978 202.785 L
173.129 201.55 L
174.28 200.322 L
175.431 199.102 L
176.582 197.889 L
177.733 196.684 L
178.884 195.486 L
180.035 194.296 L
181.186 193.114 L
182.336 191.939 L
183.487 190.773 L
184.638 189.613 L
185.789 188.462 L
186.94 187.318 L
188.091 186.182 L
189.242 185.054 L
190.393 183.934 L
191.544 182.822 L
192.695 181.718 L
193.846 180.621 L
194.996 179.533 L
196.147 178.452 L
197.298 177.38 L
198.449 176.316 L
199.6 175.259 L
200.751 174.211 L
201.902 173.171 L
203.053 172.139 L
204.204 171.116 L
205.355 170.1 L
206.506 169.093 L
207.656 168.094 L
208.807 167.104 L
209.958 166.121 L
211.109 165.148 L
212.26 164.182 L
213.411 163.225 L
214.562 162.277 L
215.713 161.336 L
216.864 160.405 L
218.015 159.482 L
219.166 158.567 L
220.316 157.661 L
221.467 156.764 L
222.618 155.875 L
223.769 154.995 L
224.92 154.124 L
226.071 153.261 L
227.222 152.407 L
228.373 151.562 L
229.524 150.726 L
230.675 149.899 L
231.826 149.08 L
232.976 148.27 L
234.127 147.469 L
235.278 146.678 L
236.429 145.895 L
237.58 145.121 L
238.731 144.356 L
239.882 143.6 L
241.033 142.854 L
242.184 142.116 L
243.335 141.38 L
244.486 140.645 L
245.636 139.91 L
246.787 139.176 L
247.938 138.442 L
249.089 137.709 L
250.24 136.976 L
251.391 136.244 L
252.542 135.513 L
253.693 134.782 L
254.844 134.052 L
255.995 133.322 L
257.146 132.593 L
258.297 131.865 L
259.447 131.137 L
260.598 130.411 L
261.749 129.685 L
262.9 128.959 L
264.051 128.235 L
265.202 127.512 L
266.353 126.789 L
267.504 126.068 L
268.655 125.347 L
269.806 124.628 L
270.957 123.909 L
272.107 123.191 L
273.258 122.475 L
274.409 121.759 L
275.56 121.045 L
276.711 120.332 L
277.862 119.619 L
279.013 118.909 L
280.164 118.199 L
281.315 117.49 L
282.466 116.783 L
283.617 116.077 L
284.767 115.372 L
285.918 114.669 L
287.069 113.967 L
288.22 113.266 L
289.371 112.567 L
290.522 111.869 L
291.673 111.173 L
292.824 110.478 L
293.975 109.785 L
295.126 109.093 L
296.277 108.403 L
297.427 107.714 L
298.578 107.027 L
299.729 106.342 L
300.88 105.658 L
302.031 104.976 L
303.182 104.296 L
304.333 103.617 L
305.484 102.94 L
306.635 102.265 L
307.786 101.592 L
308.937 100.92 L
310.087 100.251 L
311.238 99.583 L
312.389 98.917 L
313.54 98.253 L
314.691 97.591 L
315.842 96.932 L
316.993 96.274 L
318.144 95.618 L
319.295 94.964 L
320.446 94.313 L
321.597 93.663 L
322.747 93.016 L
323.898 92.37 L
325.049 91.727 L
326.2 91.087 L
327.351 90.448 L
328.502 89.812 L
329.653 89.178 L
330.804 88.546 L
331.955 87.917 L
333.106 87.29 L
334.257 86.665 L
335.407 86.043 L
336.558 85.423 L
337.709 84.806 L
338.86 84.191 L
340.011 83.579 L
341.162 82.969 L
342.313 82.362 L
343.464 81.758 L
344.615 81.156 L
345.766 80.556 L
346.917 79.96 L
348.067 79.366 L
349.218 78.775 L
350.369 78.187 L
351.52 77.601 L
352.671 77.018 L
353.822 76.438 L
354.973 75.861 L
356.124 75.287 L
357.275 74.716 L
358.426 74.147 L
359.577 73.582 L
360.727 73.019 L
361.878 72.46 L
363.029 71.904 L
364.18 71.35 L
365.331 70.8 L
366.482 70.253 L
367.633 69.709 L
368.784 69.168 L
369.935 68.63 L
371.086 68.096 L
372.237 67.565 L
373.387 67.037 L
374.538 66.512 L
375.689 65.991 L
376.84 65.473 L
377.991 64.958 L
379.142 64.447 L
380.293 63.939 L
381.444 63.434 L
382.595 62.933 L
383.746 62.436 L
384.897 61.942 L
386.048 61.451 L
387.198 60.965 L
388.349 60.481 L
389.5 60.002 L
390.651 59.526 L
391.802 59.053 L
392.953 58.585 L
394.104 58.12 L
395.255 57.659 L
396.406 57.201 L
397.557 56.747 L
398.708 56.298 L
399.858 55.852 L
401.009 55.41 L
402.16 54.972 L
403.311 54.537 L
404.462 54.107 L
405.613 53.681 L
406.764 53.258 L
407.915 52.84 L
409.066 52.426 L
410.217 52.015 L
411.368 51.609 L
412.518 51.207 L
413.669 50.81 L
414.82 50.416 L
415.971 50.027 L
417.122 49.641 L
418.273 49.26 L
419.424 48.884 L
420.575 48.511 L
421.726 48.143 L
422.877 47.78 L
424.028 47.42 L
425.178 47.065 L
426.329 46.715 L
427.48 46.369 L
428.631 46.027 L
429.782 45.69 L
430.933 45.358 L
432.084 45.03 L
433.235 44.706 L
434.386 44.388 L
435.537 44.074 L
436.688 43.764 L
437.838 43.459 L
438.989 43.159 L
440.14 42.864 L
441.291 42.573 L
442.442 42.288 L
443.593 42.007 L
444.744 41.731 L
445.895 41.459 L
447.046 41.193 L
448.197 40.931 L
449.348 40.675 L
450.498 40.423 L
451.649 40.177 L
452.8 39.935 L
453.951 39.699 L
455.102 39.467 L
456.253 39.241 L
457.404 39.02 L
458.555 38.804 L
459.706 38.593 L
460.857 38.387 L
462.008 38.187 L
463.158 37.991 L
464.309 37.801 L
465.46 37.617 L
466.611 37.437 L
467.762 37.263 L
468.913 37.094 L
470.064 36.931 L
471.215 36.773 L
472.366 36.621 L
473.517 36.474 L
474.668 36.333 L
475.818 36.197 L
476.969 36.066 L
S
GR
GS
0.494 0.184 0.557 RC
1 LJ
0.5 LW
N
75.409 368.14 M
76.56 365.113 L
77.711 362.1 L
78.861 359.102 L
80.012 356.121 L
81.163 353.159 L
82.314 350.218 L
83.465 347.3 L
84.616 344.405 L
85.767 341.537 L
86.918 338.696 L
88.069 335.885 L
89.22 333.106 L
90.371 330.359 L
91.522 327.648 L
92.672 324.973 L
93.823 322.337 L
94.974 319.741 L
96.125 317.187 L
97.276 314.677 L
98.427 312.213 L
99.578 309.796 L
100.729 307.428 L
101.88 305.111 L
103.031 302.847 L
104.182 300.637 L
105.332 298.484 L
106.483 296.387 L
107.634 294.318 L
108.785 292.269 L
109.936 290.241 L
111.087 288.232 L
112.238 286.243 L
113.389 284.273 L
114.54 282.324 L
115.691 280.393 L
116.842 278.483 L
117.992 276.591 L
119.143 274.718 L
120.294 272.865 L
121.445 271.03 L
122.596 269.214 L
123.747 267.417 L
124.898 265.638 L
126.049 263.878 L
127.2 262.136 L
128.351 260.413 L
129.502 258.707 L
130.652 257.02 L
131.803 255.35 L
132.954 253.698 L
134.105 252.064 L
135.256 250.447 L
136.407 248.848 L
137.558 247.266 L
138.709 245.701 L
139.86 244.153 L
141.011 242.622 L
142.162 241.108 L
143.312 239.611 L
144.463 238.13 L
145.614 236.666 L
146.765 235.219 L
147.916 233.787 L
149.067 232.372 L
150.218 230.973 L
151.369 229.59 L
152.52 228.222 L
153.671 226.871 L
154.822 225.535 L
155.972 224.214 L
157.123 222.909 L
158.274 221.619 L
159.425 220.344 L
160.576 219.081 L
161.727 217.825 L
162.878 216.575 L
164.029 215.331 L
165.18 214.094 L
166.331 212.863 L
167.482 211.638 L
168.632 210.42 L
169.783 209.208 L
170.934 208.002 L
172.085 206.803 L
173.236 205.611 L
174.387 204.425 L
175.538 203.245 L
176.689 202.072 L
177.84 200.906 L
178.991 199.746 L
180.142 198.592 L
181.292 197.445 L
182.443 196.305 L
183.594 195.171 L
184.745 194.044 L
185.896 192.923 L
187.047 191.81 L
188.198 190.702 L
189.349 189.602 L
190.5 188.508 L
191.651 187.421 L
192.802 186.34 L
193.952 185.267 L
195.103 184.2 L
196.254 183.139 L
197.405 182.086 L
198.556 181.039 L
199.707 180 L
200.858 178.967 L
202.009 177.941 L
203.16 176.921 L
204.311 175.909 L
205.462 174.903 L
206.612 173.905 L
207.763 172.913 L
208.914 171.928 L
210.065 170.951 L
211.216 169.98 L
212.367 169.016 L
213.518 168.059 L
214.669 167.109 L
215.82 166.166 L
216.971 165.231 L
218.122 164.302 L
219.273 163.38 L
220.423 162.466 L
221.574 161.559 L
222.725 160.658 L
223.876 159.765 L
225.027 158.879 L
226.178 158 L
227.329 157.129 L
228.48 156.264 L
229.631 155.407 L
230.782 154.557 L
231.933 153.714 L
233.083 152.879 L
234.234 152.051 L
235.385 151.23 L
236.536 150.416 L
237.687 149.61 L
238.838 148.811 L
239.989 148.02 L
241.14 147.235 L
242.291 146.459 L
243.442 145.689 L
244.593 144.927 L
245.743 144.173 L
246.894 143.426 L
248.045 142.686 L
249.196 141.954 L
250.347 141.229 L
251.498 140.512 L
252.649 139.803 L
253.8 139.1 L
254.951 138.406 L
256.102 137.719 L
257.253 137.034 L
258.403 136.349 L
259.554 135.665 L
260.705 134.981 L
261.856 134.297 L
263.007 133.614 L
264.158 132.932 L
265.309 132.25 L
266.46 131.568 L
267.611 130.887 L
268.762 130.207 L
269.913 129.527 L
271.063 128.848 L
272.214 128.169 L
273.365 127.491 L
274.516 126.814 L
275.667 126.137 L
276.818 125.461 L
277.969 124.786 L
279.12 124.111 L
280.271 123.438 L
281.422 122.765 L
282.573 122.092 L
283.723 121.421 L
284.874 120.75 L
286.025 120.081 L
287.176 119.412 L
288.327 118.744 L
289.478 118.077 L
290.629 117.411 L
291.78 116.746 L
292.931 116.082 L
294.082 115.418 L
295.233 114.756 L
296.383 114.095 L
297.534 113.435 L
298.685 112.776 L
299.836 112.118 L
300.987 111.462 L
302.138 110.806 L
303.289 110.152 L
304.44 109.498 L
305.591 108.846 L
306.742 108.196 L
307.893 107.546 L
309.043 106.898 L
310.194 106.251 L
311.345 105.605 L
312.496 104.96 L
313.647 104.317 L
314.798 103.675 L
315.949 103.035 L
317.1 102.396 L
318.251 101.759 L
319.402 101.123 L
320.553 100.488 L
321.703 99.855 L
322.854 99.223 L
324.005 98.593 L
325.156 97.964 L
326.307 97.337 L
327.458 96.712 L
328.609 96.088 L
329.76 95.466 L
330.911 94.845 L
332.062 94.226 L
333.213 93.609 L
334.363 92.993 L
335.514 92.38 L
336.665 91.768 L
337.816 91.157 L
338.967 90.549 L
340.118 89.942 L
341.269 89.337 L
342.42 88.734 L
343.571 88.133 L
344.722 87.534 L
345.873 86.936 L
347.023 86.341 L
348.174 85.747 L
349.325 85.156 L
350.476 84.566 L
351.627 83.978 L
352.778 83.393 L
353.929 82.809 L
355.08 82.228 L
356.231 81.649 L
357.382 81.071 L
358.533 80.496 L
359.684 79.923 L
360.834 79.352 L
361.985 78.784 L
363.136 78.217 L
364.287 77.653 L
365.438 77.091 L
366.589 76.531 L
367.74 75.974 L
368.891 75.419 L
370.042 74.866 L
371.193 74.316 L
372.344 73.768 L
373.494 73.222 L
374.645 72.679 L
375.796 72.138 L
376.947 71.6 L
378.098 71.064 L
379.249 70.53 L
380.4 69.999 L
381.551 69.471 L
382.702 68.945 L
383.853 68.422 L
385.004 67.901 L
386.154 67.383 L
387.305 66.867 L
388.456 66.355 L
389.607 65.845 L
390.758 65.337 L
391.909 64.832 L
393.06 64.33 L
394.211 63.831 L
395.362 63.335 L
396.513 62.841 L
397.664 62.35 L
398.814 61.862 L
399.965 61.377 L
401.116 60.894 L
402.267 60.415 L
403.418 59.939 L
404.569 59.465 L
405.72 58.994 L
406.871 58.527 L
408.022 58.062 L
409.173 57.6 L
410.324 57.142 L
411.474 56.686 L
412.625 56.233 L
413.776 55.784 L
414.927 55.338 L
416.078 54.895 L
417.229 54.454 L
418.38 54.018 L
419.531 53.584 L
420.682 53.153 L
421.833 52.726 L
422.984 52.302 L
424.134 51.882 L
425.285 51.464 L
426.436 51.05 L
427.587 50.639 L
428.738 50.232 L
429.889 49.828 L
431.04 49.427 L
432.191 49.03 L
433.342 48.636 L
434.493 48.246 L
435.644 47.859 L
436.794 47.476 L
437.945 47.096 L
439.096 46.72 L
440.247 46.347 L
441.398 45.978 L
442.549 45.612 L
443.7 45.25 L
444.851 44.892 L
446.002 44.537 L
447.153 44.186 L
448.304 43.839 L
449.454 43.495 L
450.605 43.156 L
451.756 42.819 L
452.907 42.487 L
454.058 42.159 L
455.209 41.834 L
456.36 41.513 L
457.511 41.196 L
458.662 40.883 L
459.813 40.574 L
460.964 40.268 L
462.115 39.967 L
463.265 39.67 L
464.416 39.376 L
465.567 39.087 L
466.718 38.801 L
467.869 38.52 L
469.02 38.243 L
470.171 37.969 L
471.322 37.7 L
472.473 37.435 L
473.624 37.174 L
474.775 36.918 L
475.925 36.665 L
477.076 36.417 L
478.227 36.173 L
479.378 35.933 L
480.529 35.697 L
481.68 35.466 L
482.831 35.239 L
483.982 35.016 L
485.133 34.798 L
486.284 34.584 L
487.435 34.374 L
488.585 34.169 L
489.736 33.968 L
490.887 33.772 L
492.038 33.58 L
493.189 33.392 L
494.34 33.209 L
495.491 33.031 L
496.642 32.857 L
497.793 32.688 L
498.944 32.523 L
500.095 32.363 L
501.245 32.207 L
502.396 32.057 L
503.547 31.91 L
504.698 31.769 L
505.849 31.632 L
507 31.5 L
S
GR
GS
0.467 0.675 0.188 RC
[10 6] 0 setdash
2 LJ
0.5 LW
N
74.382 371.618 M
75.533 368.517 L
76.684 365.43 L
77.835 362.359 L
78.986 359.307 L
80.137 356.274 L
81.288 353.263 L
82.439 350.276 L
83.59 347.315 L
84.741 344.381 L
85.891 341.477 L
87.042 338.605 L
88.193 335.765 L
89.344 332.961 L
90.495 330.195 L
91.646 327.467 L
92.797 324.78 L
93.948 322.137 L
95.099 319.538 L
96.25 316.986 L
97.401 314.483 L
98.551 312.03 L
99.702 309.63 L
100.853 307.285 L
102.004 304.996 L
103.155 302.765 L
104.306 300.594 L
105.457 298.467 L
106.608 296.36 L
107.759 294.274 L
108.91 292.21 L
110.061 290.165 L
111.211 288.142 L
112.362 286.139 L
113.513 284.156 L
114.664 282.194 L
115.815 280.252 L
116.966 278.33 L
118.117 276.427 L
119.268 274.545 L
120.419 272.682 L
121.57 270.839 L
122.721 269.015 L
123.871 267.211 L
125.022 265.425 L
126.173 263.659 L
127.324 261.912 L
128.475 260.184 L
129.626 258.474 L
130.777 256.783 L
131.928 255.111 L
133.079 253.456 L
134.23 251.821 L
135.381 250.203 L
136.532 248.603 L
137.682 247.022 L
138.833 245.458 L
139.984 243.912 L
141.135 242.383 L
142.286 240.872 L
143.437 239.378 L
144.588 237.901 L
145.739 236.442 L
146.89 234.999 L
148.041 233.574 L
149.192 232.165 L
150.342 230.773 L
151.493 229.397 L
152.644 228.038 L
153.795 226.695 L
154.946 225.368 L
156.097 224.057 L
157.248 222.762 L
158.399 221.474 L
159.55 220.194 L
160.701 218.919 L
161.852 217.652 L
163.002 216.392 L
164.153 215.138 L
165.304 213.891 L
166.455 212.651 L
167.606 211.418 L
168.757 210.192 L
169.908 208.972 L
171.059 207.76 L
172.21 206.554 L
173.361 205.355 L
174.512 204.163 L
175.662 202.978 L
176.813 201.8 L
177.964 200.629 L
179.115 199.465 L
180.266 198.308 L
181.417 197.157 L
182.568 196.014 L
183.719 194.878 L
184.87 193.748 L
186.021 192.626 L
187.172 191.511 L
188.322 190.403 L
189.473 189.302 L
190.624 188.208 L
191.775 187.121 L
192.926 186.041 L
194.077 184.968 L
195.228 183.902 L
196.379 182.844 L
197.53 181.792 L
198.681 180.748 L
199.832 179.711 L
200.982 178.681 L
202.133 177.658 L
203.284 176.643 L
204.435 175.635 L
205.586 174.634 L
206.737 173.64 L
207.888 172.653 L
209.039 171.674 L
210.19 170.702 L
211.341 169.737 L
212.492 168.78 L
213.642 167.83 L
214.793 166.887 L
215.944 165.951 L
217.095 165.023 L
218.246 164.102 L
219.397 163.189 L
220.548 162.283 L
221.699 161.385 L
222.85 160.493 L
224.001 159.61 L
225.152 158.733 L
226.302 157.864 L
227.453 157.003 L
228.604 156.149 L
229.755 155.302 L
230.906 154.463 L
232.057 153.632 L
233.208 152.808 L
234.359 151.991 L
235.51 151.182 L
236.661 150.381 L
237.812 149.587 L
238.962 148.801 L
240.113 148.023 L
241.264 147.252 L
242.415 146.488 L
243.566 145.732 L
244.717 144.984 L
245.868 144.244 L
247.019 143.511 L
248.17 142.786 L
249.321 142.068 L
250.472 141.358 L
251.622 140.654 L
252.773 139.951 L
253.924 139.247 L
255.075 138.545 L
256.226 137.842 L
257.377 137.141 L
258.528 136.439 L
259.679 135.739 L
260.83 135.039 L
261.981 134.339 L
263.132 133.64 L
264.283 132.942 L
265.433 132.244 L
266.584 131.547 L
267.735 130.851 L
268.886 130.155 L
270.037 129.46 L
271.188 128.766 L
272.339 128.073 L
273.49 127.38 L
274.641 126.689 L
275.792 125.998 L
276.943 125.308 L
278.093 124.619 L
279.244 123.93 L
280.395 123.243 L
281.546 122.557 L
282.697 121.871 L
283.848 121.187 L
284.999 120.504 L
286.15 119.821 L
287.301 119.14 L
288.452 118.46 L
289.603 117.781 L
290.753 117.103 L
291.904 116.426 L
293.055 115.751 L
294.206 115.076 L
295.357 114.403 L
296.508 113.731 L
297.659 113.06 L
298.81 112.391 L
299.961 111.722 L
301.112 111.056 L
302.263 110.39 L
303.413 109.726 L
304.564 109.063 L
305.715 108.402 L
306.866 107.742 L
308.017 107.083 L
309.168 106.427 L
310.319 105.771 L
311.47 105.117 L
312.621 104.465 L
313.772 103.814 L
314.923 103.164 L
316.073 102.517 L
317.224 101.87 L
318.375 101.226 L
319.526 100.583 L
320.677 99.942 L
321.828 99.303 L
322.979 98.665 L
324.13 98.029 L
325.281 97.395 L
326.432 96.763 L
327.583 96.132 L
328.733 95.503 L
329.884 94.877 L
331.035 94.252 L
332.186 93.629 L
333.337 93.008 L
334.488 92.388 L
335.639 91.771 L
336.79 91.156 L
337.941 90.543 L
339.092 89.932 L
340.243 89.323 L
341.393 88.716 L
342.544 88.111 L
343.695 87.508 L
344.846 86.907 L
345.997 86.309 L
347.148 85.712 L
348.299 85.118 L
349.45 84.526 L
350.601 83.937 L
351.752 83.349 L
352.903 82.764 L
354.053 82.182 L
355.204 81.601 L
356.355 81.023 L
357.506 80.448 L
358.657 79.874 L
359.808 79.304 L
360.959 78.735 L
362.11 78.169 L
363.261 77.606 L
364.412 77.045 L
365.563 76.487 L
366.713 75.931 L
367.864 75.377 L
369.015 74.827 L
370.166 74.279 L
371.317 73.733 L
372.468 73.191 L
373.619 72.651 L
374.77 72.113 L
375.921 71.579 L
377.072 71.047 L
378.223 70.518 L
379.374 69.991 L
380.524 69.468 L
381.675 68.947 L
382.826 68.429 L
383.977 67.915 L
385.128 67.402 L
386.279 66.893 L
387.43 66.387 L
388.581 65.884 L
389.732 65.384 L
390.883 64.887 L
392.034 64.393 L
393.184 63.901 L
394.335 63.413 L
395.486 62.929 L
396.637 62.447 L
397.788 61.968 L
398.939 61.493 L
400.09 61.02 L
401.241 60.551 L
402.392 60.085 L
403.543 59.622 L
404.694 59.163 L
405.844 58.707 L
406.995 58.254 L
408.146 57.805 L
409.297 57.359 L
410.448 56.916 L
411.599 56.477 L
412.75 56.041 L
413.901 55.608 L
415.052 55.179 L
416.203 54.754 L
417.354 54.332 L
418.504 53.913 L
419.655 53.498 L
420.806 53.087 L
421.957 52.679 L
423.108 52.275 L
424.259 51.875 L
425.41 51.478 L
426.561 51.085 L
427.712 50.695 L
428.863 50.31 L
430.014 49.928 L
431.164 49.549 L
432.315 49.175 L
433.466 48.804 L
434.617 48.438 L
435.768 48.075 L
436.919 47.716 L
438.07 47.361 L
439.221 47.009 L
440.372 46.662 L
441.523 46.319 L
442.674 45.979 L
443.824 45.644 L
444.975 45.313 L
446.126 44.985 L
447.277 44.662 L
448.428 44.343 L
449.579 44.028 L
450.73 43.717 L
451.881 43.411 L
453.032 43.108 L
454.183 42.81 L
455.334 42.516 L
456.484 42.226 L
457.635 41.94 L
458.786 41.659 L
459.937 41.382 L
461.088 41.109 L
462.239 40.841 L
463.39 40.577 L
464.541 40.318 L
465.692 40.063 L
466.843 39.812 L
467.994 39.566 L
469.144 39.324 L
470.295 39.087 L
471.446 38.854 L
472.597 38.626 L
473.748 38.402 L
474.899 38.183 L
476.05 37.969 L
477.201 37.759 L
478.352 37.554 L
479.503 37.354 L
480.654 37.158 L
481.804 36.967 L
482.955 36.781 L
484.106 36.599 L
485.257 36.423 L
486.408 36.251 L
487.559 36.084 L
488.71 35.922 L
489.861 35.764 L
491.012 35.612 L
492.163 35.464 L
493.314 35.322 L
S
GR
GS
0.302 0.745 0.933 RC
[10 6] 0 setdash
2 LJ
0.5 LW
N
74.257 371.914 M
75.408 368.798 L
76.559 365.695 L
77.71 362.61 L
78.861 359.542 L
80.011 356.494 L
81.162 353.469 L
82.313 350.468 L
83.464 347.493 L
84.615 344.545 L
85.766 341.628 L
86.917 338.742 L
88.068 335.89 L
89.219 333.074 L
90.37 330.295 L
91.521 327.556 L
92.671 324.858 L
93.822 322.204 L
94.973 319.595 L
96.124 317.033 L
97.275 314.521 L
98.426 312.059 L
99.577 309.651 L
100.728 307.298 L
101.879 305.001 L
103.03 302.764 L
104.181 300.587 L
105.331 298.451 L
106.482 296.335 L
107.633 294.241 L
108.784 292.168 L
109.935 290.115 L
111.086 288.084 L
112.237 286.073 L
113.388 284.083 L
114.539 282.113 L
115.69 280.163 L
116.841 278.234 L
117.992 276.324 L
119.142 274.435 L
120.293 272.566 L
121.444 270.716 L
122.595 268.886 L
123.746 267.075 L
124.897 265.284 L
126.048 263.512 L
127.199 261.759 L
128.35 260.025 L
129.501 258.31 L
130.652 256.613 L
131.802 254.936 L
132.953 253.277 L
134.104 251.636 L
135.255 250.014 L
136.406 248.409 L
137.557 246.823 L
138.708 245.255 L
139.859 243.705 L
141.01 242.172 L
142.161 240.657 L
143.312 239.159 L
144.462 237.679 L
145.613 236.215 L
146.764 234.769 L
147.915 233.34 L
149.066 231.928 L
150.217 230.533 L
151.368 229.154 L
152.519 227.791 L
153.67 226.445 L
154.821 225.116 L
155.972 223.802 L
157.122 222.502 L
158.273 221.209 L
159.424 219.923 L
160.575 218.643 L
161.726 217.371 L
162.877 216.105 L
164.028 214.846 L
165.179 213.594 L
166.33 212.349 L
167.481 211.111 L
168.632 209.879 L
169.782 208.654 L
170.933 207.437 L
172.084 206.226 L
173.235 205.022 L
174.386 203.825 L
175.537 202.635 L
176.688 201.452 L
177.839 200.277 L
178.99 199.108 L
180.141 197.946 L
181.292 196.791 L
182.442 195.643 L
183.593 194.502 L
184.744 193.368 L
185.895 192.242 L
187.046 191.122 L
188.197 190.01 L
189.348 188.904 L
190.499 187.806 L
191.65 186.715 L
192.801 185.631 L
193.952 184.555 L
195.102 183.485 L
196.253 182.423 L
197.404 181.368 L
198.555 180.32 L
199.706 179.279 L
200.857 178.246 L
202.008 177.22 L
203.159 176.201 L
204.31 175.19 L
205.461 174.186 L
206.612 173.189 L
207.762 172.199 L
208.913 171.217 L
210.064 170.242 L
211.215 169.275 L
212.366 168.315 L
213.517 167.362 L
214.668 166.417 L
215.819 165.479 L
216.97 164.549 L
218.121 163.626 L
219.272 162.71 L
220.422 161.802 L
221.573 160.902 L
222.724 160.009 L
223.875 159.124 L
225.026 158.246 L
226.177 157.375 L
227.328 156.513 L
228.479 155.657 L
229.63 154.81 L
230.781 153.97 L
231.932 153.137 L
233.082 152.313 L
234.233 151.496 L
235.384 150.686 L
236.535 149.884 L
237.686 149.09 L
238.837 148.304 L
239.988 147.525 L
241.139 146.754 L
242.29 145.991 L
243.441 145.235 L
244.592 144.488 L
245.743 143.748 L
246.893 143.016 L
248.044 142.291 L
249.195 141.575 L
250.346 140.865 L
251.497 140.158 L
252.648 139.451 L
253.799 138.745 L
254.95 138.039 L
256.101 137.333 L
257.252 136.628 L
258.403 135.924 L
259.553 135.22 L
260.704 134.517 L
261.855 133.814 L
263.006 133.112 L
264.157 132.41 L
265.308 131.71 L
266.459 131.009 L
267.61 130.31 L
268.761 129.611 L
269.912 128.913 L
271.063 128.216 L
272.213 127.52 L
273.364 126.824 L
274.515 126.13 L
275.666 125.436 L
276.817 124.743 L
277.968 124.051 L
279.119 123.36 L
280.27 122.67 L
281.421 121.98 L
282.572 121.292 L
283.723 120.605 L
284.873 119.919 L
286.024 119.234 L
287.175 118.55 L
288.326 117.867 L
289.477 117.185 L
290.628 116.505 L
291.779 115.825 L
292.93 115.147 L
294.081 114.47 L
295.232 113.794 L
296.383 113.12 L
297.533 112.446 L
298.684 111.774 L
299.835 111.104 L
300.986 110.434 L
302.137 109.766 L
303.288 109.1 L
304.439 108.435 L
305.59 107.771 L
306.741 107.109 L
307.892 106.448 L
309.043 105.789 L
310.193 105.131 L
311.344 104.475 L
312.495 103.82 L
313.646 103.167 L
314.797 102.516 L
315.948 101.866 L
317.099 101.218 L
318.25 100.572 L
319.401 99.927 L
320.552 99.284 L
321.703 98.642 L
322.853 98.003 L
324.004 97.365 L
325.155 96.729 L
326.306 96.095 L
327.457 95.463 L
328.608 94.832 L
329.759 94.204 L
330.91 93.577 L
332.061 92.953 L
333.212 92.33 L
334.363 91.709 L
335.513 91.091 L
336.664 90.474 L
337.815 89.859 L
338.966 89.247 L
340.117 88.636 L
341.268 88.028 L
342.419 87.422 L
343.57 86.818 L
344.721 86.216 L
345.872 85.616 L
347.023 85.019 L
348.173 84.424 L
349.324 83.831 L
350.475 83.24 L
351.626 82.652 L
352.777 82.066 L
353.928 81.483 L
355.079 80.901 L
356.23 80.323 L
357.381 79.746 L
358.532 79.172 L
359.683 78.601 L
360.833 78.032 L
361.984 77.465 L
363.135 76.901 L
364.286 76.34 L
365.437 75.781 L
366.588 75.225 L
367.739 74.671 L
368.89 74.12 L
370.041 73.572 L
371.192 73.027 L
372.343 72.484 L
373.493 71.944 L
374.644 71.406 L
375.795 70.872 L
376.946 70.34 L
378.097 69.811 L
379.248 69.285 L
380.399 68.761 L
381.55 68.241 L
382.701 67.723 L
383.852 67.209 L
385.003 66.697 L
386.154 66.189 L
387.304 65.683 L
388.455 65.18 L
389.606 64.681 L
390.757 64.184 L
391.908 63.691 L
393.059 63.201 L
394.21 62.713 L
395.361 62.229 L
396.512 61.748 L
397.663 61.271 L
398.814 60.796 L
399.964 60.325 L
401.115 59.857 L
402.266 59.392 L
403.417 58.931 L
404.568 58.473 L
405.719 58.018 L
406.87 57.567 L
408.021 57.119 L
409.172 56.674 L
410.323 56.233 L
411.474 55.796 L
412.624 55.362 L
413.775 54.931 L
414.926 54.504 L
416.077 54.08 L
417.228 53.66 L
418.379 53.244 L
419.53 52.831 L
420.681 52.422 L
421.832 52.016 L
422.983 51.614 L
424.134 51.216 L
425.284 50.822 L
426.435 50.431 L
427.586 50.044 L
428.737 49.661 L
429.888 49.282 L
431.039 48.906 L
432.19 48.535 L
433.341 48.167 L
434.492 47.803 L
435.643 47.443 L
436.794 47.087 L
437.944 46.735 L
439.095 46.387 L
440.246 46.043 L
441.397 45.703 L
442.548 45.367 L
443.699 45.035 L
444.85 44.707 L
446.001 44.384 L
447.152 44.064 L
448.303 43.749 L
449.454 43.438 L
450.604 43.131 L
451.755 42.828 L
452.906 42.529 L
454.057 42.235 L
455.208 41.945 L
456.359 41.66 L
457.51 41.378 L
458.661 41.101 L
459.812 40.829 L
460.963 40.561 L
462.114 40.297 L
463.264 40.038 L
464.415 39.783 L
465.566 39.533 L
466.717 39.287 L
467.868 39.046 L
469.019 38.809 L
470.17 38.577 L
471.321 38.349 L
472.472 38.126 L
473.623 37.908 L
474.774 37.695 L
475.924 37.486 L
477.075 37.282 L
478.226 37.082 L
479.377 36.887 L
480.528 36.698 L
481.679 36.512 L
482.83 36.332 L
483.981 36.157 L
485.132 35.986 L
486.283 35.821 L
487.434 35.66 L
488.585 35.504 L
489.735 35.353 L
490.886 35.207 L
492.037 35.066 L
S
GR
GS
0.635 0.078 0.184 RC
[10 6] 0 setdash
2 LJ
0.5 LW
N
75.35 368.569 M
76.501 365.516 L
77.652 362.477 L
78.802 359.453 L
79.953 356.446 L
81.104 353.458 L
82.255 350.492 L
83.406 347.548 L
84.557 344.629 L
85.708 341.736 L
86.859 338.872 L
88.01 336.038 L
89.161 333.236 L
90.312 330.468 L
91.462 327.735 L
92.613 325.04 L
93.764 322.385 L
94.915 319.77 L
96.066 317.198 L
97.217 314.672 L
98.368 312.192 L
99.519 309.76 L
100.67 307.379 L
101.821 305.05 L
102.972 302.775 L
104.123 300.556 L
105.273 298.394 L
106.424 296.289 L
107.575 294.212 L
108.726 292.156 L
109.877 290.12 L
111.028 288.104 L
112.179 286.109 L
113.33 284.134 L
114.481 282.178 L
115.632 280.243 L
116.783 278.327 L
117.933 276.431 L
119.084 274.554 L
120.235 272.697 L
121.386 270.858 L
122.537 269.039 L
123.688 267.239 L
124.839 265.457 L
125.99 263.695 L
127.141 261.95 L
128.292 260.224 L
129.443 258.517 L
130.593 256.828 L
131.744 255.156 L
132.895 253.503 L
134.046 251.867 L
135.197 250.25 L
136.348 248.649 L
137.499 247.066 L
138.65 245.5 L
139.801 243.952 L
140.952 242.42 L
142.103 240.906 L
143.253 239.408 L
144.404 237.927 L
145.555 236.462 L
146.706 235.014 L
147.857 233.582 L
149.008 232.166 L
150.159 230.766 L
151.31 229.382 L
152.461 228.013 L
153.612 226.661 L
154.763 225.323 L
155.913 224.002 L
157.064 222.695 L
158.215 221.404 L
159.366 220.127 L
160.517 218.862 L
161.668 217.604 L
162.819 216.352 L
163.97 215.107 L
165.121 213.868 L
166.272 212.636 L
167.423 211.41 L
168.573 210.19 L
169.724 208.977 L
170.875 207.77 L
172.026 206.57 L
173.177 205.377 L
174.328 204.19 L
175.479 203.009 L
176.63 201.835 L
177.781 200.668 L
178.932 199.507 L
180.083 198.353 L
181.233 197.206 L
182.384 196.065 L
183.535 194.931 L
184.686 193.803 L
185.837 192.682 L
186.988 191.568 L
188.139 190.46 L
189.29 189.36 L
190.441 188.265 L
191.592 187.178 L
192.743 186.097 L
193.893 185.024 L
195.044 183.957 L
196.195 182.896 L
197.346 181.843 L
198.497 180.796 L
199.648 179.756 L
200.799 178.723 L
201.95 177.697 L
203.101 176.678 L
204.252 175.665 L
205.403 174.66 L
206.553 173.661 L
207.704 172.67 L
208.855 171.685 L
210.006 170.707 L
211.157 169.736 L
212.308 168.772 L
213.459 167.815 L
214.61 166.866 L
215.761 165.923 L
216.912 164.987 L
218.063 164.058 L
219.214 163.136 L
220.364 162.222 L
221.515 161.314 L
222.666 160.413 L
223.817 159.52 L
224.968 158.633 L
226.119 157.754 L
227.27 156.882 L
228.421 156.017 L
229.572 155.16 L
230.723 154.309 L
231.874 153.466 L
233.024 152.63 L
234.175 151.801 L
235.326 150.979 L
236.477 150.164 L
237.628 149.357 L
238.779 148.557 L
239.93 147.765 L
241.081 146.979 L
242.232 146.201 L
243.383 145.431 L
244.534 144.667 L
245.684 143.911 L
246.835 143.163 L
247.986 142.421 L
249.137 141.688 L
250.288 140.961 L
251.439 140.242 L
252.59 139.53 L
253.741 138.826 L
254.892 138.13 L
256.043 137.439 L
257.194 136.75 L
258.344 136.061 L
259.495 135.373 L
260.646 134.685 L
261.797 133.998 L
262.948 133.311 L
264.099 132.625 L
265.25 131.939 L
266.401 131.254 L
267.552 130.569 L
268.703 129.885 L
269.854 129.201 L
271.004 128.518 L
272.155 127.836 L
273.306 127.154 L
274.457 126.474 L
275.608 125.793 L
276.759 125.114 L
277.91 124.435 L
279.061 123.757 L
280.212 123.08 L
281.363 122.404 L
282.514 121.728 L
283.664 121.054 L
284.815 120.38 L
285.966 119.707 L
287.117 119.035 L
288.268 118.364 L
289.419 117.694 L
290.57 117.025 L
291.721 116.357 L
292.872 115.69 L
294.023 115.023 L
295.174 114.358 L
296.324 113.695 L
297.475 113.032 L
298.626 112.37 L
299.777 111.709 L
300.928 111.05 L
302.079 110.392 L
303.23 109.735 L
304.381 109.079 L
305.532 108.424 L
306.683 107.771 L
307.834 107.119 L
308.984 106.468 L
310.135 105.819 L
311.286 105.171 L
312.437 104.524 L
313.588 103.879 L
314.739 103.235 L
315.89 102.592 L
317.041 101.951 L
318.192 101.311 L
319.343 100.673 L
320.494 100.037 L
321.644 99.402 L
322.795 98.768 L
323.946 98.136 L
325.097 97.506 L
326.248 96.877 L
327.399 96.25 L
328.55 95.624 L
329.701 95 L
330.852 94.378 L
332.003 93.758 L
333.154 93.139 L
334.305 92.522 L
335.455 91.907 L
336.606 91.294 L
337.757 90.682 L
338.908 90.072 L
340.059 89.464 L
341.21 88.858 L
342.361 88.254 L
343.512 87.652 L
344.663 87.052 L
345.814 86.453 L
346.965 85.857 L
348.115 85.263 L
349.266 84.67 L
350.417 84.08 L
351.568 83.492 L
352.719 82.905 L
353.87 82.321 L
355.021 81.739 L
356.172 81.16 L
357.323 80.582 L
358.474 80.006 L
359.625 79.433 L
360.775 78.862 L
361.926 78.293 L
363.077 77.727 L
364.228 77.162 L
365.379 76.6 L
366.53 76.041 L
367.681 75.483 L
368.832 74.928 L
369.983 74.376 L
371.134 73.826 L
372.285 73.278 L
373.435 72.732 L
374.586 72.19 L
375.737 71.649 L
376.888 71.111 L
378.039 70.576 L
379.19 70.043 L
380.341 69.513 L
381.492 68.985 L
382.643 68.46 L
383.794 67.938 L
384.945 67.418 L
386.095 66.901 L
387.246 66.386 L
388.397 65.875 L
389.548 65.366 L
390.699 64.859 L
391.85 64.356 L
393.001 63.855 L
394.152 63.357 L
395.303 62.862 L
396.454 62.37 L
397.605 61.881 L
398.755 61.395 L
399.906 60.911 L
401.057 60.43 L
402.208 59.953 L
403.359 59.478 L
404.51 59.007 L
405.661 58.538 L
406.812 58.072 L
407.963 57.61 L
409.114 57.15 L
410.265 56.694 L
411.415 56.241 L
412.566 55.791 L
413.717 55.344 L
414.868 54.9 L
416.019 54.459 L
417.17 54.022 L
418.321 53.588 L
419.472 53.157 L
420.623 52.729 L
421.774 52.305 L
422.925 51.884 L
424.075 51.466 L
425.226 51.052 L
426.377 50.641 L
427.528 50.234 L
428.679 49.83 L
429.83 49.429 L
430.981 49.032 L
432.132 48.638 L
433.283 48.248 L
434.434 47.861 L
435.585 47.478 L
436.735 47.099 L
437.886 46.723 L
439.037 46.35 L
440.188 45.982 L
441.339 45.617 L
442.49 45.255 L
443.641 44.897 L
444.792 44.543 L
445.943 44.193 L
447.094 43.847 L
448.245 43.504 L
449.395 43.165 L
450.546 42.83 L
451.697 42.498 L
452.848 42.171 L
453.999 41.847 L
455.15 41.527 L
456.301 41.212 L
457.452 40.9 L
458.603 40.592 L
459.754 40.288 L
460.905 39.988 L
462.056 39.692 L
463.206 39.4 L
464.357 39.112 L
465.508 38.828 L
466.659 38.549 L
467.81 38.273 L
468.961 38.002 L
470.112 37.734 L
471.263 37.471 L
472.414 37.212 L
473.565 36.958 L
474.716 36.707 L
475.866 36.461 L
477.017 36.219 L
478.168 35.982 L
479.319 35.748 L
480.47 35.519 L
481.621 35.295 L
482.772 35.074 L
483.923 34.859 L
485.074 34.647 L
486.225 34.44 L
487.376 34.238 L
488.526 34.04 L
489.677 33.846 L
490.828 33.657 L
491.979 33.473 L
493.13 33.293 L
494.281 33.118 L
495.432 32.947 L
496.583 32.781 L
497.734 32.62 L
498.885 32.463 L
500.036 32.311 L
501.186 32.164 L
502.337 32.021 L
503.488 31.883 L
S
GR
GS
1 GC
N
499 366 M
499 250.5 L
344.5 250.5 L
344.5 366 L
cp
f
GR
GS
[1 0 0 1 381.5 260.25] CT
/Helvetica 13 F
GS
[1 0 0 1 0 0] CT
0 5 moveto 
1 -1 scale
(Base Run) t 
GR
GR
GS
0 0.447 0.741 RC
1 LJ
0.5 LW
N
348.5 260.25 M
378.5 260.25 L
S
GR
GS
[1 0 0 1 381.5 276.25] CT
/Helvetica 13 F
GS
[1 0 0 1 0 0] CT
0 5 moveto 
1 -1 scale
(I & B Frames) t 
GR
GR
GS
0.851 0.325 0.098 RC
1 LJ
0.5 LW
N
348.5 276.25 M
378.5 276.25 L
S
GR
GS
[1 0 0 1 381.5 292.25] CT
/Helvetica 13 F
GS
[1 0 0 1 0 0] CT
0 5 moveto 
1 -1 scale
(I Frames Only) t 
GR
GR
GS
0.929 0.694 0.125 RC
1 LJ
0.5 LW
N
348.5 292.25 M
378.5 292.25 L
S
GR
GS
[1 0 0 1 381.5 308.25] CT
/Helvetica 13 F
GS
[1 0 0 1 0 0] CT
0 5 moveto 
1 -1 scale
(B Frames Only) t 
GR
GR
GS
0.494 0.184 0.557 RC
1 LJ
0.5 LW
N
348.5 308.25 M
378.5 308.25 L
S
GR
GS
[1 0 0 1 381.5 324.25] CT
/Helvetica 13 F
GS
[1 0 0 1 0 0] CT
0 5 moveto 
1 -1 scale
(Part I & B Frames) t 
GR
GR
GS
0.467 0.675 0.188 RC
[10 6] 0 setdash
2 LJ
0.5 LW
N
348.5 324.25 M
378.5 324.25 L
S
GR
GS
[1 0 0 1 381.5 340.25] CT
/Helvetica 13 F
GS
[1 0 0 1 0 0] CT
0 5 moveto 
1 -1 scale
(Part I Frames Only) t 
GR
GR
GS
0.302 0.745 0.933 RC
[10 6] 0 setdash
2 LJ
0.5 LW
N
348.5 340.25 M
378.5 340.25 L
S
GR
GS
[1 0 0 1 381.5 356.25] CT
/Helvetica 13 F
GS
[1 0 0 1 0 0] CT
0 5 moveto 
1 -1 scale
(Part B Frames Only) t 
GR
GR
GS
0.635 0.078 0.184 RC
[10 6] 0 setdash
2 LJ
0.5 LW
N
348.5 356.25 M
378.5 356.25 L
S
GR
GS
0.149 GC
10.0 ML
0.5 LW
N
344.5 366 M
344.5 250.5 L
499 250.5 L
499 366 L
cp
S
GR
%%Trailer
%%Pages: 1
%%EOF
