%!PS-Adobe-3.0 EPSF-3.0
%%Creator: (MATLAB, The Mathworks, Inc. Version 9.11.0.1837725 \(R2021b\) Update 2. Operating System: Mac OS X)
%%Title: plots/pchip/Skater227_1920x1080_30fps.y4m-hevc-MS_SSIM.eps
%%CreationDate: 2022-02-03T19:14:41
%%Pages: (atend)
%%BoundingBox:    33   425   508   826
%%LanguageLevel: 3
%%EndComments
%%BeginProlog
%%BeginResource: procset (Apache XML Graphics Std ProcSet) 1.2 0
%%Version: 1.2 0
%%Copyright: (Copyright 2001-2003,2010 The Apache Software Foundation. License terms: http://www.apache.org/licenses/LICENSE-2.0)
/bd{bind def}bind def
/ld{load def}bd
/GR/grestore ld
/GS/gsave ld
/RM/rmoveto ld
/C/curveto ld
/t/show ld
/L/lineto ld
/ML/setmiterlimit ld
/CT/concat ld
/f/fill ld
/N/newpath ld
/S/stroke ld
/CC/setcmykcolor ld
/A/ashow ld
/cp/closepath ld
/RC/setrgbcolor ld
/LJ/setlinejoin ld
/GC/setgray ld
/LW/setlinewidth ld
/M/moveto ld
/re {4 2 roll M
1 index 0 rlineto
0 exch rlineto
neg 0 rlineto
cp } bd
/_ctm matrix def
/_tm matrix def
/BT { _ctm currentmatrix pop matrix _tm copy pop 0 0 moveto } bd
/ET { _ctm setmatrix } bd
/iTm { _ctm setmatrix _tm concat } bd
/Tm { _tm astore pop iTm 0 0 moveto } bd
/ux 0.0 def
/uy 0.0 def
/F {
  /Tp exch def
  /Tf exch def
  Tf findfont Tp scalefont setfont
  /cf Tf def  /cs Tp def
} bd
/ULS {currentpoint /uy exch def /ux exch def} bd
/ULE {
  /Tcx currentpoint pop def
  gsave
  newpath
  cf findfont cs scalefont dup
  /FontMatrix get 0 get /Ts exch def /FontInfo get dup
  /UnderlinePosition get Ts mul /To exch def
  /UnderlineThickness get Ts mul /Tt exch def
  ux uy To add moveto  Tcx uy To add lineto
  Tt setlinewidth stroke
  grestore
} bd
/OLE {
  /Tcx currentpoint pop def
  gsave
  newpath
  cf findfont cs scalefont dup
  /FontMatrix get 0 get /Ts exch def /FontInfo get dup
  /UnderlinePosition get Ts mul /To exch def
  /UnderlineThickness get Ts mul /Tt exch def
  ux uy To add cs add moveto Tcx uy To add cs add lineto
  Tt setlinewidth stroke
  grestore
} bd
/SOE {
  /Tcx currentpoint pop def
  gsave
  newpath
  cf findfont cs scalefont dup
  /FontMatrix get 0 get /Ts exch def /FontInfo get dup
  /UnderlinePosition get Ts mul /To exch def
  /UnderlineThickness get Ts mul /Tt exch def
  ux uy To add cs 10 mul 26 idiv add moveto Tcx uy To add cs 10 mul 26 idiv add lineto
  Tt setlinewidth stroke
  grestore
} bd
/QT {
/Y22 exch store
/X22 exch store
/Y21 exch store
/X21 exch store
currentpoint
/Y21 load 2 mul add 3 div exch
/X21 load 2 mul add 3 div exch
/X21 load 2 mul /X22 load add 3 div
/Y21 load 2 mul /Y22 load add 3 div
/X22 load /Y22 load curveto
} bd
/SSPD {
dup length /d exch dict def
{
/v exch def
/k exch def
currentpagedevice k known {
/cpdv currentpagedevice k get def
v cpdv ne {
/upd false def
/nullv v type /nulltype eq def
/nullcpdv cpdv type /nulltype eq def
nullv nullcpdv or
{
/upd true def
} {
/sametype v type cpdv type eq def
sametype {
v type /arraytype eq {
/vlen v length def
/cpdvlen cpdv length def
vlen cpdvlen eq {
0 1 vlen 1 sub {
/i exch def
/obj v i get def
/cpdobj cpdv i get def
obj cpdobj ne {
/upd true def
exit
} if
} for
} {
/upd true def
} ifelse
} {
v type /dicttype eq {
v {
/dv exch def
/dk exch def
/cpddv cpdv dk get def
dv cpddv ne {
/upd true def
exit
} if
} forall
} {
/upd true def
} ifelse
} ifelse
} if
} ifelse
upd true eq {
d k v put
} if
} if
} if
} forall
d length 0 gt {
d setpagedevice
} if
} bd
/RE { % /NewFontName [NewEncodingArray] /FontName RE -
  findfont dup length dict begin
  {
    1 index /FID ne
    {def} {pop pop} ifelse
  } forall
  /Encoding exch def
  /FontName 1 index def
  currentdict definefont pop
  end
} bind def
%%EndResource
%%BeginResource: procset (Apache XML Graphics EPS ProcSet) 1.0 0
%%Version: 1.0 0
%%Copyright: (Copyright 2002-2003 The Apache Software Foundation. License terms: http://www.apache.org/licenses/LICENSE-2.0)
/BeginEPSF { %def
/b4_Inc_state save def         % Save state for cleanup
/dict_count countdictstack def % Count objects on dict stack
/op_count count 1 sub def      % Count objects on operand stack
userdict begin                 % Push userdict on dict stack
/showpage { } def              % Redefine showpage, { } = null proc
0 setgray 0 setlinecap         % Prepare graphics state
1 setlinewidth 0 setlinejoin
10 setmiterlimit [ ] 0 setdash newpath
/languagelevel where           % If level not equal to 1 then
{pop languagelevel             % set strokeadjust and
1 ne                           % overprint to their defaults.
{false setstrokeadjust false setoverprint
} if
} if
} bd
/EndEPSF { %def
count op_count sub {pop} repeat            % Clean up stacks
countdictstack dict_count sub {end} repeat
b4_Inc_state restore
} bd
%%EndResource
%FOPBeginFontDict
%%IncludeResource: font Courier-Oblique
%%IncludeResource: font Courier-BoldOblique
%%IncludeResource: font Courier-Bold
%%IncludeResource: font ZapfDingbats
%%IncludeResource: font Symbol
%%IncludeResource: font Helvetica
%%IncludeResource: font Helvetica-Oblique
%%IncludeResource: font Helvetica-Bold
%%IncludeResource: font Helvetica-BoldOblique
%%IncludeResource: font Times-Roman
%%IncludeResource: font Times-Italic
%%IncludeResource: font Times-Bold
%%IncludeResource: font Times-BoldItalic
%%IncludeResource: font Courier
%FOPEndFontDict
%%BeginResource: encoding WinAnsiEncoding
/WinAnsiEncoding [
/.notdef /.notdef /.notdef /.notdef /.notdef
/.notdef /.notdef /.notdef /.notdef /.notdef
/.notdef /.notdef /.notdef /.notdef /.notdef
/.notdef /.notdef /.notdef /.notdef /.notdef
/.notdef /.notdef /.notdef /.notdef /.notdef
/.notdef /.notdef /.notdef /.notdef /.notdef
/.notdef /.notdef /space /exclam /quotedbl
/numbersign /dollar /percent /ampersand /quotesingle
/parenleft /parenright /asterisk /plus /comma
/hyphen /period /slash /zero /one
/two /three /four /five /six
/seven /eight /nine /colon /semicolon
/less /equal /greater /question /at
/A /B /C /D /E
/F /G /H /I /J
/K /L /M /N /O
/P /Q /R /S /T
/U /V /W /X /Y
/Z /bracketleft /backslash /bracketright /asciicircum
/underscore /quoteleft /a /b /c
/d /e /f /g /h
/i /j /k /l /m
/n /o /p /q /r
/s /t /u /v /w
/x /y /z /braceleft /bar
/braceright /asciitilde /bullet /Euro /bullet
/quotesinglbase /florin /quotedblbase /ellipsis /dagger
/daggerdbl /circumflex /perthousand /Scaron /guilsinglleft
/OE /bullet /Zcaron /bullet /bullet
/quoteleft /quoteright /quotedblleft /quotedblright /bullet
/endash /emdash /asciitilde /trademark /scaron
/guilsinglright /oe /bullet /zcaron /Ydieresis
/space /exclamdown /cent /sterling /currency
/yen /brokenbar /section /dieresis /copyright
/ordfeminine /guillemotleft /logicalnot /sfthyphen /registered
/macron /degree /plusminus /twosuperior /threesuperior
/acute /mu /paragraph /middot /cedilla
/onesuperior /ordmasculine /guillemotright /onequarter /onehalf
/threequarters /questiondown /Agrave /Aacute /Acircumflex
/Atilde /Adieresis /Aring /AE /Ccedilla
/Egrave /Eacute /Ecircumflex /Edieresis /Igrave
/Iacute /Icircumflex /Idieresis /Eth /Ntilde
/Ograve /Oacute /Ocircumflex /Otilde /Odieresis
/multiply /Oslash /Ugrave /Uacute /Ucircumflex
/Udieresis /Yacute /Thorn /germandbls /agrave
/aacute /acircumflex /atilde /adieresis /aring
/ae /ccedilla /egrave /eacute /ecircumflex
/edieresis /igrave /iacute /icircumflex /idieresis
/eth /ntilde /ograve /oacute /ocircumflex
/otilde /odieresis /divide /oslash /ugrave
/uacute /ucircumflex /udieresis /yacute /thorn
/ydieresis
] def
%%EndResource
%FOPBeginFontReencode
/Courier-Oblique findfont
dup length dict begin
  {1 index /FID ne {def} {pop pop} ifelse} forall
  /Encoding WinAnsiEncoding def
  currentdict
end
/Courier-Oblique exch definefont pop
/Courier-BoldOblique findfont
dup length dict begin
  {1 index /FID ne {def} {pop pop} ifelse} forall
  /Encoding WinAnsiEncoding def
  currentdict
end
/Courier-BoldOblique exch definefont pop
/Courier-Bold findfont
dup length dict begin
  {1 index /FID ne {def} {pop pop} ifelse} forall
  /Encoding WinAnsiEncoding def
  currentdict
end
/Courier-Bold exch definefont pop
/Helvetica findfont
dup length dict begin
  {1 index /FID ne {def} {pop pop} ifelse} forall
  /Encoding WinAnsiEncoding def
  currentdict
end
/Helvetica exch definefont pop
/Helvetica-Oblique findfont
dup length dict begin
  {1 index /FID ne {def} {pop pop} ifelse} forall
  /Encoding WinAnsiEncoding def
  currentdict
end
/Helvetica-Oblique exch definefont pop
/Helvetica-Bold findfont
dup length dict begin
  {1 index /FID ne {def} {pop pop} ifelse} forall
  /Encoding WinAnsiEncoding def
  currentdict
end
/Helvetica-Bold exch definefont pop
/Helvetica-BoldOblique findfont
dup length dict begin
  {1 index /FID ne {def} {pop pop} ifelse} forall
  /Encoding WinAnsiEncoding def
  currentdict
end
/Helvetica-BoldOblique exch definefont pop
/Times-Roman findfont
dup length dict begin
  {1 index /FID ne {def} {pop pop} ifelse} forall
  /Encoding WinAnsiEncoding def
  currentdict
end
/Times-Roman exch definefont pop
/Times-Italic findfont
dup length dict begin
  {1 index /FID ne {def} {pop pop} ifelse} forall
  /Encoding WinAnsiEncoding def
  currentdict
end
/Times-Italic exch definefont pop
/Times-Bold findfont
dup length dict begin
  {1 index /FID ne {def} {pop pop} ifelse} forall
  /Encoding WinAnsiEncoding def
  currentdict
end
/Times-Bold exch definefont pop
/Times-BoldItalic findfont
dup length dict begin
  {1 index /FID ne {def} {pop pop} ifelse} forall
  /Encoding WinAnsiEncoding def
  currentdict
end
/Times-BoldItalic exch definefont pop
/Courier findfont
dup length dict begin
  {1 index /FID ne {def} {pop pop} ifelse} forall
  /Encoding WinAnsiEncoding def
  currentdict
end
/Courier exch definefont pop
%FOPEndFontReencode
%%EndProlog
%%Page: 1 1
%%PageBoundingBox: 0 0 1120 840
%%BeginPageSetup
[1 0 0 -1 0 840] CT
%%EndPageSetup
GS
1 GC
N
0 0 1120 840 re
f
GR
GS
1 GC
N
73 374 M
507 374 L
507 31.5 L
73 31.5 L
cp
f
GR
GS
0.149 GC
2 setlinecap
1 LJ
0.5 LW
N
73 374 M
507 374 L
S
GR
GS
0.149 GC
2 setlinecap
1 LJ
0.5 LW
N
73 31.5 M
507 31.5 L
S
GR
GS
0.149 GC
2 setlinecap
1 LJ
0.5 LW
N
142.165 374 M
142.165 369.66 L
S
GR
GS
0.149 GC
2 setlinecap
1 LJ
0.5 LW
N
239.404 374 M
239.404 369.66 L
S
GR
GS
0.149 GC
2 setlinecap
1 LJ
0.5 LW
N
336.644 374 M
336.644 369.66 L
S
GR
GS
0.149 GC
2 setlinecap
1 LJ
0.5 LW
N
433.883 374 M
433.883 369.66 L
S
GR
GS
0.149 GC
2 setlinecap
1 LJ
0.5 LW
N
142.165 31.5 M
142.165 35.84 L
S
GR
GS
0.149 GC
2 setlinecap
1 LJ
0.5 LW
N
239.404 31.5 M
239.404 35.84 L
S
GR
GS
0.149 GC
2 setlinecap
1 LJ
0.5 LW
N
336.644 31.5 M
336.644 35.84 L
S
GR
GS
0.149 GC
2 setlinecap
1 LJ
0.5 LW
N
433.883 31.5 M
433.883 35.84 L
S
GR
GS
0.149 GC
2 setlinecap
1 LJ
0.5 LW
N
83.821 374 M
83.821 371.83 L
S
GR
GS
0.149 GC
2 setlinecap
1 LJ
0.5 LW
N
103.269 374 M
103.269 371.83 L
S
GR
GS
0.149 GC
2 setlinecap
1 LJ
0.5 LW
N
122.717 374 M
122.717 371.83 L
S
GR
GS
0.149 GC
2 setlinecap
1 LJ
0.5 LW
N
161.613 374 M
161.613 371.83 L
S
GR
GS
0.149 GC
2 setlinecap
1 LJ
0.5 LW
N
181.061 374 M
181.061 371.83 L
S
GR
GS
0.149 GC
2 setlinecap
1 LJ
0.5 LW
N
200.508 374 M
200.508 371.83 L
S
GR
GS
0.149 GC
2 setlinecap
1 LJ
0.5 LW
N
219.956 374 M
219.956 371.83 L
S
GR
GS
0.149 GC
2 setlinecap
1 LJ
0.5 LW
N
258.852 374 M
258.852 371.83 L
S
GR
GS
0.149 GC
2 setlinecap
1 LJ
0.5 LW
N
278.3 374 M
278.3 371.83 L
S
GR
GS
0.149 GC
2 setlinecap
1 LJ
0.5 LW
N
297.748 374 M
297.748 371.83 L
S
GR
GS
0.149 GC
2 setlinecap
1 LJ
0.5 LW
N
317.196 374 M
317.196 371.83 L
S
GR
GS
0.149 GC
2 setlinecap
1 LJ
0.5 LW
N
356.092 374 M
356.092 371.83 L
S
GR
GS
0.149 GC
2 setlinecap
1 LJ
0.5 LW
N
375.539 374 M
375.539 371.83 L
S
GR
GS
0.149 GC
2 setlinecap
1 LJ
0.5 LW
N
394.987 374 M
394.987 371.83 L
S
GR
GS
0.149 GC
2 setlinecap
1 LJ
0.5 LW
N
414.435 374 M
414.435 371.83 L
S
GR
GS
0.149 GC
2 setlinecap
1 LJ
0.5 LW
N
453.331 374 M
453.331 371.83 L
S
GR
GS
0.149 GC
2 setlinecap
1 LJ
0.5 LW
N
472.779 374 M
472.779 371.83 L
S
GR
GS
0.149 GC
2 setlinecap
1 LJ
0.5 LW
N
492.227 374 M
492.227 371.83 L
S
GR
GS
0.149 GC
2 setlinecap
1 LJ
0.5 LW
N
83.821 31.5 M
83.821 33.67 L
S
GR
GS
0.149 GC
2 setlinecap
1 LJ
0.5 LW
N
103.269 31.5 M
103.269 33.67 L
S
GR
GS
0.149 GC
2 setlinecap
1 LJ
0.5 LW
N
122.717 31.5 M
122.717 33.67 L
S
GR
GS
0.149 GC
2 setlinecap
1 LJ
0.5 LW
N
161.613 31.5 M
161.613 33.67 L
S
GR
GS
0.149 GC
2 setlinecap
1 LJ
0.5 LW
N
181.061 31.5 M
181.061 33.67 L
S
GR
GS
0.149 GC
2 setlinecap
1 LJ
0.5 LW
N
200.508 31.5 M
200.508 33.67 L
S
GR
GS
0.149 GC
2 setlinecap
1 LJ
0.5 LW
N
219.956 31.5 M
219.956 33.67 L
S
GR
GS
0.149 GC
2 setlinecap
1 LJ
0.5 LW
N
258.852 31.5 M
258.852 33.67 L
S
GR
GS
0.149 GC
2 setlinecap
1 LJ
0.5 LW
N
278.3 31.5 M
278.3 33.67 L
S
GR
GS
0.149 GC
2 setlinecap
1 LJ
0.5 LW
N
297.748 31.5 M
297.748 33.67 L
S
GR
GS
0.149 GC
2 setlinecap
1 LJ
0.5 LW
N
317.196 31.5 M
317.196 33.67 L
S
GR
GS
0.149 GC
2 setlinecap
1 LJ
0.5 LW
N
356.092 31.5 M
356.092 33.67 L
S
GR
GS
0.149 GC
2 setlinecap
1 LJ
0.5 LW
N
375.539 31.5 M
375.539 33.67 L
S
GR
GS
0.149 GC
2 setlinecap
1 LJ
0.5 LW
N
394.987 31.5 M
394.987 33.67 L
S
GR
GS
0.149 GC
2 setlinecap
1 LJ
0.5 LW
N
414.435 31.5 M
414.435 33.67 L
S
GR
GS
0.149 GC
2 setlinecap
1 LJ
0.5 LW
N
453.331 31.5 M
453.331 33.67 L
S
GR
GS
0.149 GC
2 setlinecap
1 LJ
0.5 LW
N
472.779 31.5 M
472.779 33.67 L
S
GR
GS
0.149 GC
2 setlinecap
1 LJ
0.5 LW
N
492.227 31.5 M
492.227 33.67 L
S
GR
GS
[1 0 0 1 142.16483 378.79999] CT
0.149 GC
/Helvetica 14 F
GS
[1 0 0 1 0 0] CT
-12 14 moveto 
1 -1 scale
(500) t 
GR
GR
GS
[1 0 0 1 239.40425 378.79999] CT
0.149 GC
/Helvetica 14 F
GS
[1 0 0 1 0 0] CT
-16 14 moveto 
1 -1 scale
(1000) t 
GR
GR
GS
[1 0 0 1 336.64371 378.79999] CT
0.149 GC
/Helvetica 14 F
GS
[1 0 0 1 0 0] CT
-16 14 moveto 
1 -1 scale
(1500) t 
GR
GR
GS
[1 0 0 1 433.88312 378.79999] CT
0.149 GC
/Helvetica 14 F
GS
[1 0 0 1 0 0] CT
-16 14 moveto 
1 -1 scale
(2000) t 
GR
GR
GS
[1 0 0 1 290.00021 396.29999] CT
0.149 GC
/Helvetica 15.4 F
GS
[1 0 0 1 0 0] CT
-42 15 moveto 
1 -1 scale
(Bitrate\(kb/s\)) t 
GR
GR
GS
0.149 GC
2 setlinecap
1 LJ
0.5 LW
N
73 374 M
73 31.5 L
S
GR
GS
0.149 GC
2 setlinecap
1 LJ
0.5 LW
N
507 374 M
507 31.5 L
S
GR
GS
0.149 GC
2 setlinecap
1 LJ
0.5 LW
N
73 346.659 M
77.34 346.659 L
S
GR
GS
0.149 GC
2 setlinecap
1 LJ
0.5 LW
N
73 312.16 M
77.34 312.16 L
S
GR
GS
0.149 GC
2 setlinecap
1 LJ
0.5 LW
N
73 277.66 M
77.34 277.66 L
S
GR
GS
0.149 GC
2 setlinecap
1 LJ
0.5 LW
N
73 243.161 M
77.34 243.161 L
S
GR
GS
0.149 GC
2 setlinecap
1 LJ
0.5 LW
N
73 208.661 M
77.34 208.661 L
S
GR
GS
0.149 GC
2 setlinecap
1 LJ
0.5 LW
N
73 174.162 M
77.34 174.162 L
S
GR
GS
0.149 GC
2 setlinecap
1 LJ
0.5 LW
N
73 139.663 M
77.34 139.663 L
S
GR
GS
0.149 GC
2 setlinecap
1 LJ
0.5 LW
N
73 105.163 M
77.34 105.163 L
S
GR
GS
0.149 GC
2 setlinecap
1 LJ
0.5 LW
N
73 70.664 M
77.34 70.664 L
S
GR
GS
0.149 GC
2 setlinecap
1 LJ
0.5 LW
N
73 36.164 M
77.34 36.164 L
S
GR
GS
0.149 GC
2 setlinecap
1 LJ
0.5 LW
N
507 346.659 M
502.66 346.659 L
S
GR
GS
0.149 GC
2 setlinecap
1 LJ
0.5 LW
N
507 312.16 M
502.66 312.16 L
S
GR
GS
0.149 GC
2 setlinecap
1 LJ
0.5 LW
N
507 277.66 M
502.66 277.66 L
S
GR
GS
0.149 GC
2 setlinecap
1 LJ
0.5 LW
N
507 243.161 M
502.66 243.161 L
S
GR
GS
0.149 GC
2 setlinecap
1 LJ
0.5 LW
N
507 208.661 M
502.66 208.661 L
S
GR
GS
0.149 GC
2 setlinecap
1 LJ
0.5 LW
N
507 174.162 M
502.66 174.162 L
S
GR
GS
0.149 GC
2 setlinecap
1 LJ
0.5 LW
N
507 139.663 M
502.66 139.663 L
S
GR
GS
0.149 GC
2 setlinecap
1 LJ
0.5 LW
N
507 105.163 M
502.66 105.163 L
S
GR
GS
0.149 GC
2 setlinecap
1 LJ
0.5 LW
N
507 70.664 M
502.66 70.664 L
S
GR
GS
0.149 GC
2 setlinecap
1 LJ
0.5 LW
N
507 36.164 M
502.66 36.164 L
S
GR
GS
0.149 GC
2 setlinecap
1 LJ
0.5 LW
N
73 367.359 M
75.17 367.359 L
S
GR
GS
0.149 GC
2 setlinecap
1 LJ
0.5 LW
N
73 360.459 M
75.17 360.459 L
S
GR
GS
0.149 GC
2 setlinecap
1 LJ
0.5 LW
N
73 353.559 M
75.17 353.559 L
S
GR
GS
0.149 GC
2 setlinecap
1 LJ
0.5 LW
N
73 339.759 M
75.17 339.759 L
S
GR
GS
0.149 GC
2 setlinecap
1 LJ
0.5 LW
N
73 332.859 M
75.17 332.859 L
S
GR
GS
0.149 GC
2 setlinecap
1 LJ
0.5 LW
N
73 325.96 M
75.17 325.96 L
S
GR
GS
0.149 GC
2 setlinecap
1 LJ
0.5 LW
N
73 319.06 M
75.17 319.06 L
S
GR
GS
0.149 GC
2 setlinecap
1 LJ
0.5 LW
N
73 305.26 M
75.17 305.26 L
S
GR
GS
0.149 GC
2 setlinecap
1 LJ
0.5 LW
N
73 298.36 M
75.17 298.36 L
S
GR
GS
0.149 GC
2 setlinecap
1 LJ
0.5 LW
N
73 291.46 M
75.17 291.46 L
S
GR
GS
0.149 GC
2 setlinecap
1 LJ
0.5 LW
N
73 284.56 M
75.17 284.56 L
S
GR
GS
0.149 GC
2 setlinecap
1 LJ
0.5 LW
N
73 270.76 M
75.17 270.76 L
S
GR
GS
0.149 GC
2 setlinecap
1 LJ
0.5 LW
N
73 263.861 M
75.17 263.861 L
S
GR
GS
0.149 GC
2 setlinecap
1 LJ
0.5 LW
N
73 256.961 M
75.17 256.961 L
S
GR
GS
0.149 GC
2 setlinecap
1 LJ
0.5 LW
N
73 250.061 M
75.17 250.061 L
S
GR
GS
0.149 GC
2 setlinecap
1 LJ
0.5 LW
N
73 236.261 M
75.17 236.261 L
S
GR
GS
0.149 GC
2 setlinecap
1 LJ
0.5 LW
N
73 229.361 M
75.17 229.361 L
S
GR
GS
0.149 GC
2 setlinecap
1 LJ
0.5 LW
N
73 222.461 M
75.17 222.461 L
S
GR
GS
0.149 GC
2 setlinecap
1 LJ
0.5 LW
N
73 215.561 M
75.17 215.561 L
S
GR
GS
0.149 GC
2 setlinecap
1 LJ
0.5 LW
N
73 201.762 M
75.17 201.762 L
S
GR
GS
0.149 GC
2 setlinecap
1 LJ
0.5 LW
N
73 194.862 M
75.17 194.862 L
S
GR
GS
0.149 GC
2 setlinecap
1 LJ
0.5 LW
N
73 187.962 M
75.17 187.962 L
S
GR
GS
0.149 GC
2 setlinecap
1 LJ
0.5 LW
N
73 181.062 M
75.17 181.062 L
S
GR
GS
0.149 GC
2 setlinecap
1 LJ
0.5 LW
N
73 167.262 M
75.17 167.262 L
S
GR
GS
0.149 GC
2 setlinecap
1 LJ
0.5 LW
N
73 160.362 M
75.17 160.362 L
S
GR
GS
0.149 GC
2 setlinecap
1 LJ
0.5 LW
N
73 153.462 M
75.17 153.462 L
S
GR
GS
0.149 GC
2 setlinecap
1 LJ
0.5 LW
N
73 146.563 M
75.17 146.563 L
S
GR
GS
0.149 GC
2 setlinecap
1 LJ
0.5 LW
N
73 132.763 M
75.17 132.763 L
S
GR
GS
0.149 GC
2 setlinecap
1 LJ
0.5 LW
N
73 125.863 M
75.17 125.863 L
S
GR
GS
0.149 GC
2 setlinecap
1 LJ
0.5 LW
N
73 118.963 M
75.17 118.963 L
S
GR
GS
0.149 GC
2 setlinecap
1 LJ
0.5 LW
N
73 112.063 M
75.17 112.063 L
S
GR
GS
0.149 GC
2 setlinecap
1 LJ
0.5 LW
N
73 98.263 M
75.17 98.263 L
S
GR
GS
0.149 GC
2 setlinecap
1 LJ
0.5 LW
N
73 91.363 M
75.17 91.363 L
S
GR
GS
0.149 GC
2 setlinecap
1 LJ
0.5 LW
N
73 84.463 M
75.17 84.463 L
S
GR
GS
0.149 GC
2 setlinecap
1 LJ
0.5 LW
N
73 77.564 M
75.17 77.564 L
S
GR
GS
0.149 GC
2 setlinecap
1 LJ
0.5 LW
N
73 63.764 M
75.17 63.764 L
S
GR
GS
0.149 GC
2 setlinecap
1 LJ
0.5 LW
N
73 56.864 M
75.17 56.864 L
S
GR
GS
0.149 GC
2 setlinecap
1 LJ
0.5 LW
N
73 49.964 M
75.17 49.964 L
S
GR
GS
0.149 GC
2 setlinecap
1 LJ
0.5 LW
N
73 43.064 M
75.17 43.064 L
S
GR
GS
0.149 GC
2 setlinecap
1 LJ
0.5 LW
N
507 367.359 M
504.83 367.359 L
S
GR
GS
0.149 GC
2 setlinecap
1 LJ
0.5 LW
N
507 360.459 M
504.83 360.459 L
S
GR
GS
0.149 GC
2 setlinecap
1 LJ
0.5 LW
N
507 353.559 M
504.83 353.559 L
S
GR
GS
0.149 GC
2 setlinecap
1 LJ
0.5 LW
N
507 339.759 M
504.83 339.759 L
S
GR
GS
0.149 GC
2 setlinecap
1 LJ
0.5 LW
N
507 332.859 M
504.83 332.859 L
S
GR
GS
0.149 GC
2 setlinecap
1 LJ
0.5 LW
N
507 325.96 M
504.83 325.96 L
S
GR
GS
0.149 GC
2 setlinecap
1 LJ
0.5 LW
N
507 319.06 M
504.83 319.06 L
S
GR
GS
0.149 GC
2 setlinecap
1 LJ
0.5 LW
N
507 305.26 M
504.83 305.26 L
S
GR
GS
0.149 GC
2 setlinecap
1 LJ
0.5 LW
N
507 298.36 M
504.83 298.36 L
S
GR
GS
0.149 GC
2 setlinecap
1 LJ
0.5 LW
N
507 291.46 M
504.83 291.46 L
S
GR
GS
0.149 GC
2 setlinecap
1 LJ
0.5 LW
N
507 284.56 M
504.83 284.56 L
S
GR
GS
0.149 GC
2 setlinecap
1 LJ
0.5 LW
N
507 270.76 M
504.83 270.76 L
S
GR
GS
0.149 GC
2 setlinecap
1 LJ
0.5 LW
N
507 263.861 M
504.83 263.861 L
S
GR
GS
0.149 GC
2 setlinecap
1 LJ
0.5 LW
N
507 256.961 M
504.83 256.961 L
S
GR
GS
0.149 GC
2 setlinecap
1 LJ
0.5 LW
N
507 250.061 M
504.83 250.061 L
S
GR
GS
0.149 GC
2 setlinecap
1 LJ
0.5 LW
N
507 236.261 M
504.83 236.261 L
S
GR
GS
0.149 GC
2 setlinecap
1 LJ
0.5 LW
N
507 229.361 M
504.83 229.361 L
S
GR
GS
0.149 GC
2 setlinecap
1 LJ
0.5 LW
N
507 222.461 M
504.83 222.461 L
S
GR
GS
0.149 GC
2 setlinecap
1 LJ
0.5 LW
N
507 215.561 M
504.83 215.561 L
S
GR
GS
0.149 GC
2 setlinecap
1 LJ
0.5 LW
N
507 201.762 M
504.83 201.762 L
S
GR
GS
0.149 GC
2 setlinecap
1 LJ
0.5 LW
N
507 194.862 M
504.83 194.862 L
S
GR
GS
0.149 GC
2 setlinecap
1 LJ
0.5 LW
N
507 187.962 M
504.83 187.962 L
S
GR
GS
0.149 GC
2 setlinecap
1 LJ
0.5 LW
N
507 181.062 M
504.83 181.062 L
S
GR
GS
0.149 GC
2 setlinecap
1 LJ
0.5 LW
N
507 167.262 M
504.83 167.262 L
S
GR
GS
0.149 GC
2 setlinecap
1 LJ
0.5 LW
N
507 160.362 M
504.83 160.362 L
S
GR
GS
0.149 GC
2 setlinecap
1 LJ
0.5 LW
N
507 153.462 M
504.83 153.462 L
S
GR
GS
0.149 GC
2 setlinecap
1 LJ
0.5 LW
N
507 146.563 M
504.83 146.563 L
S
GR
GS
0.149 GC
2 setlinecap
1 LJ
0.5 LW
N
507 132.763 M
504.83 132.763 L
S
GR
GS
0.149 GC
2 setlinecap
1 LJ
0.5 LW
N
507 125.863 M
504.83 125.863 L
S
GR
GS
0.149 GC
2 setlinecap
1 LJ
0.5 LW
N
507 118.963 M
504.83 118.963 L
S
GR
GS
0.149 GC
2 setlinecap
1 LJ
0.5 LW
N
507 112.063 M
504.83 112.063 L
S
GR
GS
0.149 GC
2 setlinecap
1 LJ
0.5 LW
N
507 98.263 M
504.83 98.263 L
S
GR
GS
0.149 GC
2 setlinecap
1 LJ
0.5 LW
N
507 91.363 M
504.83 91.363 L
S
GR
GS
0.149 GC
2 setlinecap
1 LJ
0.5 LW
N
507 84.463 M
504.83 84.463 L
S
GR
GS
0.149 GC
2 setlinecap
1 LJ
0.5 LW
N
507 77.564 M
504.83 77.564 L
S
GR
GS
0.149 GC
2 setlinecap
1 LJ
0.5 LW
N
507 63.764 M
504.83 63.764 L
S
GR
GS
0.149 GC
2 setlinecap
1 LJ
0.5 LW
N
507 56.864 M
504.83 56.864 L
S
GR
GS
0.149 GC
2 setlinecap
1 LJ
0.5 LW
N
507 49.964 M
504.83 49.964 L
S
GR
GS
0.149 GC
2 setlinecap
1 LJ
0.5 LW
N
507 43.064 M
504.83 43.064 L
S
GR
GS
[1 0 0 1 68.2 346.65921] CT
0.149 GC
/Helvetica 14 F
GS
[1 0 0 1 0 0] CT
-16 5.5 moveto 
1 -1 scale
(15) t 
GR
GR
GS
[1 0 0 1 68.2 312.15976] CT
0.149 GC
/Helvetica 14 F
GS
[1 0 0 1 0 0] CT
-16 5.5 moveto 
1 -1 scale
(16) t 
GR
GR
GS
[1 0 0 1 68.2 277.66034] CT
0.149 GC
/Helvetica 14 F
GS
[1 0 0 1 0 0] CT
-16 5.5 moveto 
1 -1 scale
(17) t 
GR
GR
GS
[1 0 0 1 68.2 243.16089] CT
0.149 GC
/Helvetica 14 F
GS
[1 0 0 1 0 0] CT
-16 5.5 moveto 
1 -1 scale
(18) t 
GR
GR
GS
[1 0 0 1 68.2 208.66145] CT
0.149 GC
/Helvetica 14 F
GS
[1 0 0 1 0 0] CT
-16 5.5 moveto 
1 -1 scale
(19) t 
GR
GR
GS
[1 0 0 1 68.2 174.16203] CT
0.149 GC
/Helvetica 14 F
GS
[1 0 0 1 0 0] CT
-16 5.5 moveto 
1 -1 scale
(20) t 
GR
GR
GS
[1 0 0 1 68.2 139.6626] CT
0.149 GC
/Helvetica 14 F
GS
[1 0 0 1 0 0] CT
-16 5.5 moveto 
1 -1 scale
(21) t 
GR
GR
GS
[1 0 0 1 68.2 105.16315] CT
0.149 GC
/Helvetica 14 F
GS
[1 0 0 1 0 0] CT
-16 5.5 moveto 
1 -1 scale
(22) t 
GR
GR
GS
[1 0 0 1 68.2 70.66372] CT
0.149 GC
/Helvetica 14 F
GS
[1 0 0 1 0 0] CT
-16 5.5 moveto 
1 -1 scale
(23) t 
GR
GR
GS
[1 0 0 1 68.2 36.16429] CT
0.149 GC
/Helvetica 14 F
GS
[1 0 0 1 0 0] CT
-16 5.5 moveto 
1 -1 scale
(24) t 
GR
GR
GS
[0 -1 1 0 49.2 202.74983] CT
0.149 GC
/Helvetica 15.4 F
GS
[1 0 0 1 0 0] CT
-49.5 -4 moveto 
1 -1 scale
(MS-SSIM \(dB\)) t 
GR
GR
GS
[1 0 0 1 290.00031 29.57503] CT
/Helvetica-Bold 15.4 F
GS
[1 0 0 1 0 0] CT
-141 -4 moveto 
1 -1 scale
(Skater227_1920x1080_30fps.y4m-hevc) t 
GR
GR
GS
0 0.447 0.741 RC
1 LJ
0.5 LW
N
73.651 372.079 M
77.541 357.068 L
81.43 342.527 L
85.32 328.785 L
89.209 316.173 L
93.099 305.019 L
96.988 295.425 L
100.878 286.46 L
104.768 277.971 L
108.657 269.942 L
112.547 262.359 L
116.436 255.206 L
120.326 248.47 L
124.215 242.133 L
128.105 236.183 L
131.995 230.602 L
135.884 225.378 L
139.774 220.468 L
143.663 215.71 L
147.553 211.078 L
151.442 206.569 L
155.332 202.183 L
159.222 197.917 L
163.111 193.77 L
167.001 189.741 L
170.89 185.827 L
174.78 182.028 L
178.67 178.341 L
182.559 174.765 L
186.449 171.298 L
190.338 167.939 L
194.228 164.686 L
198.117 161.538 L
202.007 158.492 L
205.897 155.548 L
209.786 152.703 L
213.676 149.956 L
217.565 147.305 L
221.455 144.749 L
225.344 142.287 L
229.234 139.915 L
233.124 137.614 L
237.013 135.318 L
240.903 133.026 L
244.792 130.738 L
248.682 128.455 L
252.571 126.179 L
256.461 123.909 L
260.351 121.647 L
264.24 119.395 L
268.13 117.152 L
272.019 114.921 L
275.909 112.701 L
279.799 110.495 L
283.688 108.302 L
287.578 106.125 L
291.467 103.964 L
295.357 101.819 L
299.246 99.693 L
303.136 97.586 L
307.026 95.498 L
310.915 93.432 L
314.805 91.388 L
318.694 89.367 L
322.584 87.369 L
326.473 85.397 L
330.363 83.451 L
334.253 81.531 L
338.142 79.64 L
342.032 77.777 L
345.921 75.945 L
349.811 74.143 L
353.701 72.373 L
357.59 70.636 L
361.48 68.934 L
365.369 67.266 L
369.259 65.634 L
373.148 64.038 L
377.038 62.481 L
380.928 60.963 L
384.817 59.484 L
388.707 58.047 L
392.596 56.651 L
396.486 55.298 L
400.375 53.989 L
404.265 52.725 L
408.155 51.507 L
412.044 50.336 L
415.934 49.212 L
419.823 48.137 L
423.713 47.112 L
427.602 46.138 L
431.492 45.216 L
435.382 44.347 L
439.271 43.531 L
443.161 42.77 L
447.05 42.065 L
450.94 41.417 L
454.83 40.827 L
458.719 40.295 L
462.609 39.823 L
466.498 39.412 L
470.388 39.062 L
474.277 38.776 L
478.167 38.553 L
S
GR
GS
0.851 0.325 0.098 RC
1 LJ
0.5 LW
N
74.737 366.696 M
78.626 352.323 L
82.516 338.37 L
86.405 325.125 L
90.295 312.874 L
94.185 301.906 L
98.074 292.428 L
101.964 283.665 L
105.853 275.334 L
109.743 267.426 L
113.632 259.931 L
117.522 252.838 L
121.412 246.136 L
125.301 239.817 L
129.191 233.87 L
133.08 228.284 L
136.97 223.05 L
140.859 218.157 L
144.749 213.516 L
148.639 208.997 L
152.528 204.597 L
156.418 200.315 L
160.307 196.148 L
164.197 192.095 L
168.087 188.154 L
171.976 184.323 L
175.866 180.601 L
179.755 176.985 L
183.645 173.475 L
187.534 170.067 L
191.424 166.761 L
195.314 163.554 L
199.203 160.446 L
203.093 157.433 L
206.982 154.515 L
210.872 151.689 L
214.761 148.954 L
218.651 146.308 L
222.541 143.749 L
226.43 141.275 L
230.32 138.886 L
234.209 136.578 L
238.099 134.349 L
241.988 132.149 L
245.878 129.951 L
249.768 127.756 L
253.657 125.566 L
257.547 123.381 L
261.436 121.202 L
265.326 119.029 L
269.216 116.864 L
273.105 114.708 L
276.995 112.561 L
280.884 110.425 L
284.774 108.299 L
288.663 106.186 L
292.553 104.086 L
296.443 101.999 L
300.332 99.927 L
304.222 97.871 L
308.111 95.831 L
312.001 93.808 L
315.89 91.803 L
319.78 89.817 L
323.67 87.851 L
327.559 85.906 L
331.449 83.982 L
335.338 82.081 L
339.228 80.203 L
343.117 78.35 L
347.007 76.521 L
350.897 74.718 L
354.786 72.942 L
358.676 71.194 L
362.565 69.474 L
366.455 67.784 L
370.345 66.124 L
374.234 64.495 L
378.124 62.898 L
382.013 61.334 L
385.903 59.803 L
389.792 58.308 L
393.682 56.848 L
397.572 55.424 L
401.461 54.037 L
405.351 52.688 L
409.24 51.379 L
413.13 50.109 L
417.019 48.879 L
420.909 47.692 L
424.799 46.547 L
428.688 45.445 L
432.578 44.387 L
436.467 43.374 L
440.357 42.407 L
444.247 41.487 L
448.136 40.615 L
452.026 39.791 L
455.915 39.016 L
459.805 38.292 L
463.694 37.619 L
467.584 36.997 L
471.474 36.429 L
475.363 35.914 L
479.253 35.454 L
483.142 35.049 L
487.032 34.701 L
490.921 34.41 L
494.811 34.176 L
498.701 34.002 L
S
GR
GS
0.929 0.694 0.125 RC
1 LJ
0.5 LW
N
73 374 M
76.89 358.413 L
80.779 343.325 L
84.669 329.129 L
88.558 316.218 L
92.448 304.986 L
96.337 295.384 L
100.227 286.386 L
104.117 277.903 L
108.006 269.911 L
111.896 262.386 L
115.785 255.306 L
119.675 248.647 L
123.565 242.384 L
127.454 236.495 L
131.344 230.955 L
135.233 225.742 L
139.123 220.799 L
143.012 215.993 L
146.902 211.311 L
150.792 206.752 L
154.681 202.315 L
158.571 197.999 L
162.46 193.803 L
166.35 189.725 L
170.239 185.764 L
174.129 181.919 L
178.019 178.189 L
181.908 174.573 L
185.798 171.069 L
189.687 167.676 L
193.577 164.393 L
197.466 161.219 L
201.356 158.153 L
205.246 155.193 L
209.135 152.338 L
213.025 149.587 L
216.914 146.94 L
220.804 144.394 L
224.694 141.948 L
228.583 139.595 L
232.473 137.262 L
236.362 134.931 L
240.252 132.604 L
244.141 130.282 L
248.031 127.965 L
251.921 125.655 L
255.81 123.353 L
259.7 121.06 L
263.589 118.777 L
267.479 116.504 L
271.368 114.244 L
275.258 111.997 L
279.148 109.764 L
283.037 107.546 L
286.927 105.344 L
290.816 103.16 L
294.706 100.994 L
298.595 98.847 L
302.485 96.721 L
306.375 94.615 L
310.264 92.533 L
314.154 90.474 L
318.043 88.44 L
321.933 86.431 L
325.823 84.449 L
329.712 82.494 L
333.602 80.569 L
337.491 78.673 L
341.381 76.808 L
345.27 74.975 L
349.16 73.175 L
353.05 71.409 L
356.939 69.678 L
360.829 67.983 L
364.718 66.325 L
368.608 64.706 L
372.497 63.125 L
376.387 61.585 L
380.277 60.087 L
384.166 58.63 L
388.056 57.217 L
391.945 55.849 L
395.835 54.526 L
399.724 53.25 L
403.614 52.021 L
407.504 50.841 L
411.393 49.711 L
415.283 48.631 L
419.172 47.603 L
423.062 46.628 L
426.952 45.707 L
430.841 44.841 L
434.731 44.031 L
438.62 43.278 L
442.51 42.583 L
446.399 41.947 L
450.289 41.372 L
454.179 40.857 L
458.068 40.405 L
461.958 40.017 L
465.847 39.692 L
469.737 39.433 L
473.626 39.241 L
S
GR
GS
0.494 0.184 0.557 RC
1 LJ
0.5 LW
N
75.257 363.694 M
79.146 349.86 L
83.036 336.414 L
86.926 323.61 L
90.815 311.702 L
94.705 300.944 L
98.594 291.564 L
102.484 282.95 L
106.374 274.735 L
110.263 266.914 L
114.153 259.478 L
118.042 252.422 L
121.932 245.738 L
125.821 239.419 L
129.711 233.458 L
133.601 227.848 L
137.49 222.582 L
141.38 217.653 L
145.269 213.025 L
149.159 208.539 L
153.048 204.167 L
156.938 199.909 L
160.828 195.762 L
164.717 191.725 L
168.607 187.797 L
172.496 183.975 L
176.386 180.259 L
180.275 176.646 L
184.165 173.135 L
188.055 169.725 L
191.944 166.413 L
195.834 163.198 L
199.723 160.079 L
203.613 157.053 L
207.503 154.12 L
211.392 151.277 L
215.282 148.523 L
219.171 145.857 L
223.061 143.276 L
226.95 140.78 L
230.84 138.366 L
234.73 136.033 L
238.619 133.779 L
242.509 131.598 L
246.398 129.436 L
250.288 127.276 L
254.177 125.12 L
258.067 122.967 L
261.957 120.82 L
265.846 118.678 L
269.736 116.543 L
273.625 114.415 L
277.515 112.296 L
281.405 110.185 L
285.294 108.085 L
289.184 105.995 L
293.073 103.917 L
296.963 101.851 L
300.852 99.798 L
304.742 97.76 L
308.632 95.736 L
312.521 93.728 L
316.411 91.736 L
320.3 89.762 L
324.19 87.806 L
328.079 85.868 L
331.969 83.951 L
335.859 82.054 L
339.748 80.179 L
343.638 78.326 L
347.527 76.495 L
351.417 74.689 L
355.306 72.908 L
359.196 71.152 L
363.086 69.422 L
366.975 67.72 L
370.865 66.046 L
374.754 64.4 L
378.644 62.784 L
382.534 61.199 L
386.423 59.645 L
390.313 58.123 L
394.202 56.634 L
398.092 55.179 L
401.981 53.759 L
405.871 52.374 L
409.761 51.025 L
413.65 49.713 L
417.54 48.439 L
421.429 47.204 L
425.319 46.009 L
429.208 44.854 L
433.098 43.74 L
436.988 42.668 L
440.877 41.639 L
444.767 40.654 L
448.656 39.713 L
452.546 38.817 L
456.436 37.968 L
460.325 37.165 L
464.215 36.411 L
468.104 35.705 L
471.994 35.048 L
475.883 34.442 L
479.773 33.887 L
483.663 33.383 L
487.552 32.933 L
491.442 32.536 L
495.331 32.193 L
499.221 31.906 L
503.11 31.675 L
507 31.5 L
S
GR
GS
0.467 0.675 0.188 RC
[10 6] 0 setdash
2 LJ
0.5 LW
N
73.382 372.81 M
77.271 357.691 L
81.161 343.057 L
85.05 329.233 L
88.94 316.543 L
92.83 305.311 L
96.719 295.6 L
100.609 286.486 L
104.498 277.845 L
108.388 269.666 L
112.277 261.94 L
116.167 254.658 L
120.057 247.809 L
123.946 241.385 L
127.836 235.376 L
131.725 229.772 L
135.615 224.564 L
139.504 219.664 L
143.394 214.905 L
147.284 210.282 L
151.173 205.791 L
155.063 201.43 L
158.952 197.197 L
162.842 193.089 L
166.732 189.105 L
170.621 185.241 L
174.511 181.496 L
178.4 177.866 L
182.29 174.35 L
186.179 170.946 L
190.069 167.65 L
193.959 164.461 L
197.848 161.376 L
201.738 158.393 L
205.627 155.51 L
209.517 152.723 L
213.406 150.031 L
217.296 147.432 L
221.186 144.922 L
225.075 142.5 L
228.965 140.159 L
232.854 137.839 L
236.744 135.521 L
240.633 133.208 L
244.523 130.9 L
248.413 128.598 L
252.302 126.304 L
256.192 124.017 L
260.081 121.74 L
263.971 119.474 L
267.861 117.218 L
271.75 114.975 L
275.64 112.745 L
279.529 110.529 L
283.419 108.329 L
287.308 106.145 L
291.198 103.978 L
295.088 101.83 L
298.977 99.701 L
302.867 97.592 L
306.756 95.504 L
310.646 93.439 L
314.535 91.398 L
318.425 89.381 L
322.315 87.389 L
326.204 85.423 L
330.094 83.485 L
333.983 81.575 L
337.873 79.695 L
341.762 77.845 L
345.652 76.026 L
349.542 74.24 L
353.431 72.487 L
357.321 70.769 L
361.21 69.087 L
365.1 67.44 L
368.99 65.831 L
372.879 64.261 L
376.769 62.73 L
380.658 61.24 L
384.548 59.791 L
388.437 58.384 L
392.327 57.021 L
396.217 55.703 L
400.106 54.43 L
403.996 53.204 L
407.885 52.025 L
411.775 50.895 L
415.664 49.814 L
419.554 48.784 L
423.444 47.806 L
427.333 46.88 L
431.223 46.007 L
435.112 45.19 L
439.002 44.428 L
442.892 43.722 L
446.781 43.074 L
450.671 42.485 L
454.56 41.955 L
458.45 41.486 L
462.339 41.079 L
466.229 40.734 L
470.119 40.453 L
474.008 40.237 L
S
GR
GS
0.302 0.745 0.933 RC
[10 6] 0 setdash
2 LJ
0.5 LW
N
73.176 372.655 M
77.066 357.53 L
80.955 342.881 L
84.845 329.055 L
88.734 316.401 L
92.624 305.266 L
96.513 295.7 L
100.403 286.743 L
104.293 278.271 L
108.182 270.267 L
112.072 262.714 L
115.961 255.592 L
119.851 248.885 L
123.74 242.575 L
127.63 236.644 L
131.52 231.074 L
135.409 225.848 L
139.299 220.919 L
143.188 216.136 L
147.078 211.479 L
150.967 206.945 L
154.857 202.534 L
158.747 198.244 L
162.636 194.073 L
166.526 190.02 L
170.415 186.083 L
174.305 182.262 L
178.195 178.554 L
182.084 174.958 L
185.974 171.474 L
189.863 168.099 L
193.753 164.831 L
197.642 161.67 L
201.532 158.614 L
205.422 155.662 L
209.311 152.812 L
213.201 150.063 L
217.09 147.413 L
220.98 144.861 L
224.869 142.405 L
228.759 140.044 L
232.649 137.722 L
236.538 135.402 L
240.428 133.087 L
244.317 130.775 L
248.207 128.469 L
252.096 126.17 L
255.986 123.879 L
259.876 121.596 L
263.765 119.322 L
267.655 117.06 L
271.544 114.809 L
275.434 112.571 L
279.324 110.346 L
283.213 108.137 L
287.103 105.943 L
290.992 103.766 L
294.882 101.607 L
298.771 99.466 L
302.661 97.346 L
306.551 95.246 L
310.44 93.169 L
314.33 91.114 L
318.219 89.084 L
322.109 87.078 L
325.998 85.098 L
329.888 83.145 L
333.778 81.221 L
337.667 79.325 L
341.557 77.46 L
345.446 75.625 L
349.336 73.823 L
353.225 72.054 L
357.115 70.319 L
361.005 68.62 L
364.894 66.956 L
368.784 65.33 L
372.673 63.742 L
376.563 62.193 L
380.453 60.685 L
384.342 59.218 L
388.232 57.793 L
392.121 56.412 L
396.011 55.075 L
399.9 53.784 L
403.79 52.539 L
407.68 51.341 L
411.569 50.192 L
415.459 49.092 L
419.348 48.043 L
423.238 47.045 L
427.127 46.1 L
431.017 45.209 L
434.907 44.372 L
438.796 43.591 L
442.686 42.866 L
446.575 42.199 L
450.465 41.591 L
454.354 41.043 L
458.244 40.555 L
462.134 40.129 L
466.023 39.766 L
469.913 39.466 L
473.802 39.232 L
477.692 39.063 L
S
GR
GS
0.635 0.078 0.184 RC
[10 6] 0 setdash
2 LJ
0.5 LW
N
73.826 370.761 M
77.716 355.987 L
81.605 341.663 L
85.495 328.102 L
89.384 315.615 L
93.274 304.515 L
97.164 294.937 L
101.053 285.993 L
104.943 277.502 L
108.832 269.453 L
112.722 261.836 L
116.611 254.639 L
120.501 247.853 L
124.391 241.467 L
128.28 235.47 L
132.17 229.851 L
136.059 224.601 L
139.949 219.697 L
143.839 214.978 L
147.728 210.385 L
151.618 205.916 L
155.507 201.57 L
159.397 197.345 L
163.286 193.239 L
167.176 189.25 L
171.066 185.376 L
174.955 181.615 L
178.845 177.965 L
182.734 174.424 L
186.624 170.991 L
190.513 167.664 L
194.403 164.439 L
198.293 161.317 L
202.182 158.294 L
206.072 155.37 L
209.961 152.541 L
213.851 149.806 L
217.741 147.163 L
221.63 144.611 L
225.52 142.146 L
229.409 139.768 L
233.299 137.474 L
237.188 135.214 L
241.078 132.956 L
244.968 130.701 L
248.857 128.451 L
252.747 126.206 L
256.636 123.967 L
260.526 121.736 L
264.415 119.512 L
268.305 117.298 L
272.195 115.094 L
276.084 112.9 L
279.974 110.719 L
283.863 108.55 L
287.753 106.395 L
291.642 104.255 L
295.532 102.13 L
299.422 100.021 L
303.311 97.93 L
307.201 95.858 L
311.09 93.805 L
314.98 91.772 L
318.87 89.76 L
322.759 87.77 L
326.649 85.804 L
330.538 83.861 L
334.428 81.943 L
338.317 80.051 L
342.207 78.186 L
346.097 76.348 L
349.986 74.539 L
353.876 72.76 L
357.765 71.011 L
361.655 69.294 L
365.544 67.609 L
369.434 65.957 L
373.324 64.34 L
377.213 62.757 L
381.103 61.211 L
384.992 59.701 L
388.882 58.23 L
392.771 56.798 L
396.661 55.405 L
400.551 54.053 L
404.44 52.743 L
408.33 51.475 L
412.219 50.251 L
416.109 49.072 L
419.999 47.937 L
423.888 46.849 L
427.778 45.809 L
431.667 44.817 L
435.557 43.873 L
439.446 42.98 L
443.336 42.138 L
447.226 41.348 L
451.115 40.61 L
455.005 39.927 L
458.894 39.298 L
462.784 38.725 L
466.673 38.208 L
470.563 37.749 L
474.453 37.348 L
478.342 37.007 L
482.232 36.726 L
486.121 36.506 L
S
GR
GS
1 GC
N
499 366 M
499 250.5 L
344.5 250.5 L
344.5 366 L
cp
f
GR
GS
[1 0 0 1 381.5 260.25] CT
/Helvetica 13 F
GS
[1 0 0 1 0 0] CT
0 5 moveto 
1 -1 scale
(Base Run) t 
GR
GR
GS
0 0.447 0.741 RC
1 LJ
0.5 LW
N
348.5 260.25 M
378.5 260.25 L
S
GR
GS
[1 0 0 1 381.5 276.25] CT
/Helvetica 13 F
GS
[1 0 0 1 0 0] CT
0 5 moveto 
1 -1 scale
(I & B Frames) t 
GR
GR
GS
0.851 0.325 0.098 RC
1 LJ
0.5 LW
N
348.5 276.25 M
378.5 276.25 L
S
GR
GS
[1 0 0 1 381.5 292.25] CT
/Helvetica 13 F
GS
[1 0 0 1 0 0] CT
0 5 moveto 
1 -1 scale
(I Frames Only) t 
GR
GR
GS
0.929 0.694 0.125 RC
1 LJ
0.5 LW
N
348.5 292.25 M
378.5 292.25 L
S
GR
GS
[1 0 0 1 381.5 308.25] CT
/Helvetica 13 F
GS
[1 0 0 1 0 0] CT
0 5 moveto 
1 -1 scale
(B Frames Only) t 
GR
GR
GS
0.494 0.184 0.557 RC
1 LJ
0.5 LW
N
348.5 308.25 M
378.5 308.25 L
S
GR
GS
[1 0 0 1 381.5 324.25] CT
/Helvetica 13 F
GS
[1 0 0 1 0 0] CT
0 5 moveto 
1 -1 scale
(Part I & B Frames) t 
GR
GR
GS
0.467 0.675 0.188 RC
[10 6] 0 setdash
2 LJ
0.5 LW
N
348.5 324.25 M
378.5 324.25 L
S
GR
GS
[1 0 0 1 381.5 340.25] CT
/Helvetica 13 F
GS
[1 0 0 1 0 0] CT
0 5 moveto 
1 -1 scale
(Part I Frames Only) t 
GR
GR
GS
0.302 0.745 0.933 RC
[10 6] 0 setdash
2 LJ
0.5 LW
N
348.5 340.25 M
378.5 340.25 L
S
GR
GS
[1 0 0 1 381.5 356.25] CT
/Helvetica 13 F
GS
[1 0 0 1 0 0] CT
0 5 moveto 
1 -1 scale
(Part B Frames Only) t 
GR
GR
GS
0.635 0.078 0.184 RC
[10 6] 0 setdash
2 LJ
0.5 LW
N
348.5 356.25 M
378.5 356.25 L
S
GR
GS
0.149 GC
10.0 ML
0.5 LW
N
344.5 366 M
344.5 250.5 L
499 250.5 L
499 366 L
cp
S
GR
%%Trailer
%%Pages: 1
%%EOF
