%!PS-Adobe-3.0 EPSF-3.0
%%Creator: (MATLAB, The Mathworks, Inc. Version 9.11.0.1837725 \(R2021b\) Update 2. Operating System: Mac OS X)
%%Title: plots/pchip/Skater227_1920x1080_30fps.y4m-av1-PSNRU.eps
%%CreationDate: 2022-02-03T19:13:32
%%Pages: (atend)
%%BoundingBox:    33   425   521   826
%%LanguageLevel: 3
%%EndComments
%%BeginProlog
%%BeginResource: procset (Apache XML Graphics Std ProcSet) 1.2 0
%%Version: 1.2 0
%%Copyright: (Copyright 2001-2003,2010 The Apache Software Foundation. License terms: http://www.apache.org/licenses/LICENSE-2.0)
/bd{bind def}bind def
/ld{load def}bd
/GR/grestore ld
/GS/gsave ld
/RM/rmoveto ld
/C/curveto ld
/t/show ld
/L/lineto ld
/ML/setmiterlimit ld
/CT/concat ld
/f/fill ld
/N/newpath ld
/S/stroke ld
/CC/setcmykcolor ld
/A/ashow ld
/cp/closepath ld
/RC/setrgbcolor ld
/LJ/setlinejoin ld
/GC/setgray ld
/LW/setlinewidth ld
/M/moveto ld
/re {4 2 roll M
1 index 0 rlineto
0 exch rlineto
neg 0 rlineto
cp } bd
/_ctm matrix def
/_tm matrix def
/BT { _ctm currentmatrix pop matrix _tm copy pop 0 0 moveto } bd
/ET { _ctm setmatrix } bd
/iTm { _ctm setmatrix _tm concat } bd
/Tm { _tm astore pop iTm 0 0 moveto } bd
/ux 0.0 def
/uy 0.0 def
/F {
  /Tp exch def
  /Tf exch def
  Tf findfont Tp scalefont setfont
  /cf Tf def  /cs Tp def
} bd
/ULS {currentpoint /uy exch def /ux exch def} bd
/ULE {
  /Tcx currentpoint pop def
  gsave
  newpath
  cf findfont cs scalefont dup
  /FontMatrix get 0 get /Ts exch def /FontInfo get dup
  /UnderlinePosition get Ts mul /To exch def
  /UnderlineThickness get Ts mul /Tt exch def
  ux uy To add moveto  Tcx uy To add lineto
  Tt setlinewidth stroke
  grestore
} bd
/OLE {
  /Tcx currentpoint pop def
  gsave
  newpath
  cf findfont cs scalefont dup
  /FontMatrix get 0 get /Ts exch def /FontInfo get dup
  /UnderlinePosition get Ts mul /To exch def
  /UnderlineThickness get Ts mul /Tt exch def
  ux uy To add cs add moveto Tcx uy To add cs add lineto
  Tt setlinewidth stroke
  grestore
} bd
/SOE {
  /Tcx currentpoint pop def
  gsave
  newpath
  cf findfont cs scalefont dup
  /FontMatrix get 0 get /Ts exch def /FontInfo get dup
  /UnderlinePosition get Ts mul /To exch def
  /UnderlineThickness get Ts mul /Tt exch def
  ux uy To add cs 10 mul 26 idiv add moveto Tcx uy To add cs 10 mul 26 idiv add lineto
  Tt setlinewidth stroke
  grestore
} bd
/QT {
/Y22 exch store
/X22 exch store
/Y21 exch store
/X21 exch store
currentpoint
/Y21 load 2 mul add 3 div exch
/X21 load 2 mul add 3 div exch
/X21 load 2 mul /X22 load add 3 div
/Y21 load 2 mul /Y22 load add 3 div
/X22 load /Y22 load curveto
} bd
/SSPD {
dup length /d exch dict def
{
/v exch def
/k exch def
currentpagedevice k known {
/cpdv currentpagedevice k get def
v cpdv ne {
/upd false def
/nullv v type /nulltype eq def
/nullcpdv cpdv type /nulltype eq def
nullv nullcpdv or
{
/upd true def
} {
/sametype v type cpdv type eq def
sametype {
v type /arraytype eq {
/vlen v length def
/cpdvlen cpdv length def
vlen cpdvlen eq {
0 1 vlen 1 sub {
/i exch def
/obj v i get def
/cpdobj cpdv i get def
obj cpdobj ne {
/upd true def
exit
} if
} for
} {
/upd true def
} ifelse
} {
v type /dicttype eq {
v {
/dv exch def
/dk exch def
/cpddv cpdv dk get def
dv cpddv ne {
/upd true def
exit
} if
} forall
} {
/upd true def
} ifelse
} ifelse
} if
} ifelse
upd true eq {
d k v put
} if
} if
} if
} forall
d length 0 gt {
d setpagedevice
} if
} bd
/RE { % /NewFontName [NewEncodingArray] /FontName RE -
  findfont dup length dict begin
  {
    1 index /FID ne
    {def} {pop pop} ifelse
  } forall
  /Encoding exch def
  /FontName 1 index def
  currentdict definefont pop
  end
} bind def
%%EndResource
%%BeginResource: procset (Apache XML Graphics EPS ProcSet) 1.0 0
%%Version: 1.0 0
%%Copyright: (Copyright 2002-2003 The Apache Software Foundation. License terms: http://www.apache.org/licenses/LICENSE-2.0)
/BeginEPSF { %def
/b4_Inc_state save def         % Save state for cleanup
/dict_count countdictstack def % Count objects on dict stack
/op_count count 1 sub def      % Count objects on operand stack
userdict begin                 % Push userdict on dict stack
/showpage { } def              % Redefine showpage, { } = null proc
0 setgray 0 setlinecap         % Prepare graphics state
1 setlinewidth 0 setlinejoin
10 setmiterlimit [ ] 0 setdash newpath
/languagelevel where           % If level not equal to 1 then
{pop languagelevel             % set strokeadjust and
1 ne                           % overprint to their defaults.
{false setstrokeadjust false setoverprint
} if
} if
} bd
/EndEPSF { %def
count op_count sub {pop} repeat            % Clean up stacks
countdictstack dict_count sub {end} repeat
b4_Inc_state restore
} bd
%%EndResource
%FOPBeginFontDict
%%IncludeResource: font Courier-Oblique
%%IncludeResource: font Courier-BoldOblique
%%IncludeResource: font Courier-Bold
%%IncludeResource: font ZapfDingbats
%%IncludeResource: font Symbol
%%IncludeResource: font Helvetica
%%IncludeResource: font Helvetica-Oblique
%%IncludeResource: font Helvetica-Bold
%%IncludeResource: font Helvetica-BoldOblique
%%IncludeResource: font Times-Roman
%%IncludeResource: font Times-Italic
%%IncludeResource: font Times-Bold
%%IncludeResource: font Times-BoldItalic
%%IncludeResource: font Courier
%FOPEndFontDict
%%BeginResource: encoding WinAnsiEncoding
/WinAnsiEncoding [
/.notdef /.notdef /.notdef /.notdef /.notdef
/.notdef /.notdef /.notdef /.notdef /.notdef
/.notdef /.notdef /.notdef /.notdef /.notdef
/.notdef /.notdef /.notdef /.notdef /.notdef
/.notdef /.notdef /.notdef /.notdef /.notdef
/.notdef /.notdef /.notdef /.notdef /.notdef
/.notdef /.notdef /space /exclam /quotedbl
/numbersign /dollar /percent /ampersand /quotesingle
/parenleft /parenright /asterisk /plus /comma
/hyphen /period /slash /zero /one
/two /three /four /five /six
/seven /eight /nine /colon /semicolon
/less /equal /greater /question /at
/A /B /C /D /E
/F /G /H /I /J
/K /L /M /N /O
/P /Q /R /S /T
/U /V /W /X /Y
/Z /bracketleft /backslash /bracketright /asciicircum
/underscore /quoteleft /a /b /c
/d /e /f /g /h
/i /j /k /l /m
/n /o /p /q /r
/s /t /u /v /w
/x /y /z /braceleft /bar
/braceright /asciitilde /bullet /Euro /bullet
/quotesinglbase /florin /quotedblbase /ellipsis /dagger
/daggerdbl /circumflex /perthousand /Scaron /guilsinglleft
/OE /bullet /Zcaron /bullet /bullet
/quoteleft /quoteright /quotedblleft /quotedblright /bullet
/endash /emdash /asciitilde /trademark /scaron
/guilsinglright /oe /bullet /zcaron /Ydieresis
/space /exclamdown /cent /sterling /currency
/yen /brokenbar /section /dieresis /copyright
/ordfeminine /guillemotleft /logicalnot /sfthyphen /registered
/macron /degree /plusminus /twosuperior /threesuperior
/acute /mu /paragraph /middot /cedilla
/onesuperior /ordmasculine /guillemotright /onequarter /onehalf
/threequarters /questiondown /Agrave /Aacute /Acircumflex
/Atilde /Adieresis /Aring /AE /Ccedilla
/Egrave /Eacute /Ecircumflex /Edieresis /Igrave
/Iacute /Icircumflex /Idieresis /Eth /Ntilde
/Ograve /Oacute /Ocircumflex /Otilde /Odieresis
/multiply /Oslash /Ugrave /Uacute /Ucircumflex
/Udieresis /Yacute /Thorn /germandbls /agrave
/aacute /acircumflex /atilde /adieresis /aring
/ae /ccedilla /egrave /eacute /ecircumflex
/edieresis /igrave /iacute /icircumflex /idieresis
/eth /ntilde /ograve /oacute /ocircumflex
/otilde /odieresis /divide /oslash /ugrave
/uacute /ucircumflex /udieresis /yacute /thorn
/ydieresis
] def
%%EndResource
%FOPBeginFontReencode
/Courier-Oblique findfont
dup length dict begin
  {1 index /FID ne {def} {pop pop} ifelse} forall
  /Encoding WinAnsiEncoding def
  currentdict
end
/Courier-Oblique exch definefont pop
/Courier-BoldOblique findfont
dup length dict begin
  {1 index /FID ne {def} {pop pop} ifelse} forall
  /Encoding WinAnsiEncoding def
  currentdict
end
/Courier-BoldOblique exch definefont pop
/Courier-Bold findfont
dup length dict begin
  {1 index /FID ne {def} {pop pop} ifelse} forall
  /Encoding WinAnsiEncoding def
  currentdict
end
/Courier-Bold exch definefont pop
/Helvetica findfont
dup length dict begin
  {1 index /FID ne {def} {pop pop} ifelse} forall
  /Encoding WinAnsiEncoding def
  currentdict
end
/Helvetica exch definefont pop
/Helvetica-Oblique findfont
dup length dict begin
  {1 index /FID ne {def} {pop pop} ifelse} forall
  /Encoding WinAnsiEncoding def
  currentdict
end
/Helvetica-Oblique exch definefont pop
/Helvetica-Bold findfont
dup length dict begin
  {1 index /FID ne {def} {pop pop} ifelse} forall
  /Encoding WinAnsiEncoding def
  currentdict
end
/Helvetica-Bold exch definefont pop
/Helvetica-BoldOblique findfont
dup length dict begin
  {1 index /FID ne {def} {pop pop} ifelse} forall
  /Encoding WinAnsiEncoding def
  currentdict
end
/Helvetica-BoldOblique exch definefont pop
/Times-Roman findfont
dup length dict begin
  {1 index /FID ne {def} {pop pop} ifelse} forall
  /Encoding WinAnsiEncoding def
  currentdict
end
/Times-Roman exch definefont pop
/Times-Italic findfont
dup length dict begin
  {1 index /FID ne {def} {pop pop} ifelse} forall
  /Encoding WinAnsiEncoding def
  currentdict
end
/Times-Italic exch definefont pop
/Times-Bold findfont
dup length dict begin
  {1 index /FID ne {def} {pop pop} ifelse} forall
  /Encoding WinAnsiEncoding def
  currentdict
end
/Times-Bold exch definefont pop
/Times-BoldItalic findfont
dup length dict begin
  {1 index /FID ne {def} {pop pop} ifelse} forall
  /Encoding WinAnsiEncoding def
  currentdict
end
/Times-BoldItalic exch definefont pop
/Courier findfont
dup length dict begin
  {1 index /FID ne {def} {pop pop} ifelse} forall
  /Encoding WinAnsiEncoding def
  currentdict
end
/Courier exch definefont pop
%FOPEndFontReencode
%%EndProlog
%%Page: 1 1
%%PageBoundingBox: 0 0 1120 840
%%BeginPageSetup
[1 0 0 -1 0 840] CT
%%EndPageSetup
GS
1 GC
N
0 0 1120 840 re
f
GR
GS
1 GC
N
73 374 M
507 374 L
507 31.5 L
73 31.5 L
cp
f
GR
GS
0.149 GC
2 setlinecap
1 LJ
0.5 LW
N
73 374 M
507 374 L
S
GR
GS
0.149 GC
2 setlinecap
1 LJ
0.5 LW
N
73 31.5 M
507 31.5 L
S
GR
GS
0.149 GC
2 setlinecap
1 LJ
0.5 LW
N
134.976 374 M
134.976 369.66 L
S
GR
GS
0.149 GC
2 setlinecap
1 LJ
0.5 LW
N
227.53 374 M
227.53 369.66 L
S
GR
GS
0.149 GC
2 setlinecap
1 LJ
0.5 LW
N
320.084 374 M
320.084 369.66 L
S
GR
GS
0.149 GC
2 setlinecap
1 LJ
0.5 LW
N
412.638 374 M
412.638 369.66 L
S
GR
GS
0.149 GC
2 setlinecap
1 LJ
0.5 LW
N
505.192 374 M
505.192 369.66 L
S
GR
GS
0.149 GC
2 setlinecap
1 LJ
0.5 LW
N
134.976 31.5 M
134.976 35.84 L
S
GR
GS
0.149 GC
2 setlinecap
1 LJ
0.5 LW
N
227.53 31.5 M
227.53 35.84 L
S
GR
GS
0.149 GC
2 setlinecap
1 LJ
0.5 LW
N
320.084 31.5 M
320.084 35.84 L
S
GR
GS
0.149 GC
2 setlinecap
1 LJ
0.5 LW
N
412.638 31.5 M
412.638 35.84 L
S
GR
GS
0.149 GC
2 setlinecap
1 LJ
0.5 LW
N
505.192 31.5 M
505.192 35.84 L
S
GR
GS
0.149 GC
2 setlinecap
1 LJ
0.5 LW
N
79.444 374 M
79.444 371.83 L
S
GR
GS
0.149 GC
2 setlinecap
1 LJ
0.5 LW
N
97.955 374 M
97.955 371.83 L
S
GR
GS
0.149 GC
2 setlinecap
1 LJ
0.5 LW
N
116.465 374 M
116.465 371.83 L
S
GR
GS
0.149 GC
2 setlinecap
1 LJ
0.5 LW
N
153.487 374 M
153.487 371.83 L
S
GR
GS
0.149 GC
2 setlinecap
1 LJ
0.5 LW
N
171.998 374 M
171.998 371.83 L
S
GR
GS
0.149 GC
2 setlinecap
1 LJ
0.5 LW
N
190.509 374 M
190.509 371.83 L
S
GR
GS
0.149 GC
2 setlinecap
1 LJ
0.5 LW
N
209.019 374 M
209.019 371.83 L
S
GR
GS
0.149 GC
2 setlinecap
1 LJ
0.5 LW
N
246.041 374 M
246.041 371.83 L
S
GR
GS
0.149 GC
2 setlinecap
1 LJ
0.5 LW
N
264.552 374 M
264.552 371.83 L
S
GR
GS
0.149 GC
2 setlinecap
1 LJ
0.5 LW
N
283.063 374 M
283.063 371.83 L
S
GR
GS
0.149 GC
2 setlinecap
1 LJ
0.5 LW
N
301.573 374 M
301.573 371.83 L
S
GR
GS
0.149 GC
2 setlinecap
1 LJ
0.5 LW
N
338.595 374 M
338.595 371.83 L
S
GR
GS
0.149 GC
2 setlinecap
1 LJ
0.5 LW
N
357.106 374 M
357.106 371.83 L
S
GR
GS
0.149 GC
2 setlinecap
1 LJ
0.5 LW
N
375.616 374 M
375.616 371.83 L
S
GR
GS
0.149 GC
2 setlinecap
1 LJ
0.5 LW
N
394.127 374 M
394.127 371.83 L
S
GR
GS
0.149 GC
2 setlinecap
1 LJ
0.5 LW
N
431.149 374 M
431.149 371.83 L
S
GR
GS
0.149 GC
2 setlinecap
1 LJ
0.5 LW
N
449.66 374 M
449.66 371.83 L
S
GR
GS
0.149 GC
2 setlinecap
1 LJ
0.5 LW
N
468.17 374 M
468.17 371.83 L
S
GR
GS
0.149 GC
2 setlinecap
1 LJ
0.5 LW
N
486.681 374 M
486.681 371.83 L
S
GR
GS
0.149 GC
2 setlinecap
1 LJ
0.5 LW
N
79.444 31.5 M
79.444 33.67 L
S
GR
GS
0.149 GC
2 setlinecap
1 LJ
0.5 LW
N
97.955 31.5 M
97.955 33.67 L
S
GR
GS
0.149 GC
2 setlinecap
1 LJ
0.5 LW
N
116.465 31.5 M
116.465 33.67 L
S
GR
GS
0.149 GC
2 setlinecap
1 LJ
0.5 LW
N
153.487 31.5 M
153.487 33.67 L
S
GR
GS
0.149 GC
2 setlinecap
1 LJ
0.5 LW
N
171.998 31.5 M
171.998 33.67 L
S
GR
GS
0.149 GC
2 setlinecap
1 LJ
0.5 LW
N
190.509 31.5 M
190.509 33.67 L
S
GR
GS
0.149 GC
2 setlinecap
1 LJ
0.5 LW
N
209.019 31.5 M
209.019 33.67 L
S
GR
GS
0.149 GC
2 setlinecap
1 LJ
0.5 LW
N
246.041 31.5 M
246.041 33.67 L
S
GR
GS
0.149 GC
2 setlinecap
1 LJ
0.5 LW
N
264.552 31.5 M
264.552 33.67 L
S
GR
GS
0.149 GC
2 setlinecap
1 LJ
0.5 LW
N
283.063 31.5 M
283.063 33.67 L
S
GR
GS
0.149 GC
2 setlinecap
1 LJ
0.5 LW
N
301.573 31.5 M
301.573 33.67 L
S
GR
GS
0.149 GC
2 setlinecap
1 LJ
0.5 LW
N
338.595 31.5 M
338.595 33.67 L
S
GR
GS
0.149 GC
2 setlinecap
1 LJ
0.5 LW
N
357.106 31.5 M
357.106 33.67 L
S
GR
GS
0.149 GC
2 setlinecap
1 LJ
0.5 LW
N
375.616 31.5 M
375.616 33.67 L
S
GR
GS
0.149 GC
2 setlinecap
1 LJ
0.5 LW
N
394.127 31.5 M
394.127 33.67 L
S
GR
GS
0.149 GC
2 setlinecap
1 LJ
0.5 LW
N
431.149 31.5 M
431.149 33.67 L
S
GR
GS
0.149 GC
2 setlinecap
1 LJ
0.5 LW
N
449.66 31.5 M
449.66 33.67 L
S
GR
GS
0.149 GC
2 setlinecap
1 LJ
0.5 LW
N
468.17 31.5 M
468.17 33.67 L
S
GR
GS
0.149 GC
2 setlinecap
1 LJ
0.5 LW
N
486.681 31.5 M
486.681 33.67 L
S
GR
GS
[1 0 0 1 134.97626 378.79999] CT
0.149 GC
/Helvetica 14 F
GS
[1 0 0 1 0 0] CT
-12 14 moveto 
1 -1 scale
(500) t 
GR
GR
GS
[1 0 0 1 227.53017 378.79999] CT
0.149 GC
/Helvetica 14 F
GS
[1 0 0 1 0 0] CT
-16 14 moveto 
1 -1 scale
(1000) t 
GR
GR
GS
[1 0 0 1 320.08408 378.79999] CT
0.149 GC
/Helvetica 14 F
GS
[1 0 0 1 0 0] CT
-16 14 moveto 
1 -1 scale
(1500) t 
GR
GR
GS
[1 0 0 1 412.63797 378.79999] CT
0.149 GC
/Helvetica 14 F
GS
[1 0 0 1 0 0] CT
-16 14 moveto 
1 -1 scale
(2000) t 
GR
GR
GS
[1 0 0 1 505.19186 378.79999] CT
0.149 GC
/Helvetica 14 F
GS
[1 0 0 1 0 0] CT
-16 14 moveto 
1 -1 scale
(2500) t 
GR
GR
GS
[1 0 0 1 290.00021 396.29993] CT
0.149 GC
/Helvetica 15.4 F
GS
[1 0 0 1 0 0] CT
-42 15 moveto 
1 -1 scale
(Bitrate\(kb/s\)) t 
GR
GR
GS
0.149 GC
2 setlinecap
1 LJ
0.5 LW
N
73 374 M
73 31.5 L
S
GR
GS
0.149 GC
2 setlinecap
1 LJ
0.5 LW
N
507 374 M
507 31.5 L
S
GR
GS
0.149 GC
2 setlinecap
1 LJ
0.5 LW
N
73 348.307 M
77.34 348.307 L
S
GR
GS
0.149 GC
2 setlinecap
1 LJ
0.5 LW
N
73 310.217 M
77.34 310.217 L
S
GR
GS
0.149 GC
2 setlinecap
1 LJ
0.5 LW
N
73 272.127 M
77.34 272.127 L
S
GR
GS
0.149 GC
2 setlinecap
1 LJ
0.5 LW
N
73 234.037 M
77.34 234.037 L
S
GR
GS
0.149 GC
2 setlinecap
1 LJ
0.5 LW
N
73 195.948 M
77.34 195.948 L
S
GR
GS
0.149 GC
2 setlinecap
1 LJ
0.5 LW
N
73 157.858 M
77.34 157.858 L
S
GR
GS
0.149 GC
2 setlinecap
1 LJ
0.5 LW
N
73 119.768 M
77.34 119.768 L
S
GR
GS
0.149 GC
2 setlinecap
1 LJ
0.5 LW
N
73 81.678 M
77.34 81.678 L
S
GR
GS
0.149 GC
2 setlinecap
1 LJ
0.5 LW
N
73 43.588 M
77.34 43.588 L
S
GR
GS
0.149 GC
2 setlinecap
1 LJ
0.5 LW
N
507 348.307 M
502.66 348.307 L
S
GR
GS
0.149 GC
2 setlinecap
1 LJ
0.5 LW
N
507 310.217 M
502.66 310.217 L
S
GR
GS
0.149 GC
2 setlinecap
1 LJ
0.5 LW
N
507 272.127 M
502.66 272.127 L
S
GR
GS
0.149 GC
2 setlinecap
1 LJ
0.5 LW
N
507 234.037 M
502.66 234.037 L
S
GR
GS
0.149 GC
2 setlinecap
1 LJ
0.5 LW
N
507 195.948 M
502.66 195.948 L
S
GR
GS
0.149 GC
2 setlinecap
1 LJ
0.5 LW
N
507 157.858 M
502.66 157.858 L
S
GR
GS
0.149 GC
2 setlinecap
1 LJ
0.5 LW
N
507 119.768 M
502.66 119.768 L
S
GR
GS
0.149 GC
2 setlinecap
1 LJ
0.5 LW
N
507 81.678 M
502.66 81.678 L
S
GR
GS
0.149 GC
2 setlinecap
1 LJ
0.5 LW
N
507 43.588 M
502.66 43.588 L
S
GR
GS
0.149 GC
2 setlinecap
1 LJ
0.5 LW
N
73 371.161 M
75.17 371.161 L
S
GR
GS
0.149 GC
2 setlinecap
1 LJ
0.5 LW
N
73 363.543 M
75.17 363.543 L
S
GR
GS
0.149 GC
2 setlinecap
1 LJ
0.5 LW
N
73 355.925 M
75.17 355.925 L
S
GR
GS
0.149 GC
2 setlinecap
1 LJ
0.5 LW
N
73 340.689 M
75.17 340.689 L
S
GR
GS
0.149 GC
2 setlinecap
1 LJ
0.5 LW
N
73 333.071 M
75.17 333.071 L
S
GR
GS
0.149 GC
2 setlinecap
1 LJ
0.5 LW
N
73 325.453 M
75.17 325.453 L
S
GR
GS
0.149 GC
2 setlinecap
1 LJ
0.5 LW
N
73 317.835 M
75.17 317.835 L
S
GR
GS
0.149 GC
2 setlinecap
1 LJ
0.5 LW
N
73 302.599 M
75.17 302.599 L
S
GR
GS
0.149 GC
2 setlinecap
1 LJ
0.5 LW
N
73 294.981 M
75.17 294.981 L
S
GR
GS
0.149 GC
2 setlinecap
1 LJ
0.5 LW
N
73 287.363 M
75.17 287.363 L
S
GR
GS
0.149 GC
2 setlinecap
1 LJ
0.5 LW
N
73 279.745 M
75.17 279.745 L
S
GR
GS
0.149 GC
2 setlinecap
1 LJ
0.5 LW
N
73 264.509 M
75.17 264.509 L
S
GR
GS
0.149 GC
2 setlinecap
1 LJ
0.5 LW
N
73 256.891 M
75.17 256.891 L
S
GR
GS
0.149 GC
2 setlinecap
1 LJ
0.5 LW
N
73 249.273 M
75.17 249.273 L
S
GR
GS
0.149 GC
2 setlinecap
1 LJ
0.5 LW
N
73 241.655 M
75.17 241.655 L
S
GR
GS
0.149 GC
2 setlinecap
1 LJ
0.5 LW
N
73 226.419 M
75.17 226.419 L
S
GR
GS
0.149 GC
2 setlinecap
1 LJ
0.5 LW
N
73 218.801 M
75.17 218.801 L
S
GR
GS
0.149 GC
2 setlinecap
1 LJ
0.5 LW
N
73 211.184 M
75.17 211.184 L
S
GR
GS
0.149 GC
2 setlinecap
1 LJ
0.5 LW
N
73 203.566 M
75.17 203.566 L
S
GR
GS
0.149 GC
2 setlinecap
1 LJ
0.5 LW
N
73 188.33 M
75.17 188.33 L
S
GR
GS
0.149 GC
2 setlinecap
1 LJ
0.5 LW
N
73 180.712 M
75.17 180.712 L
S
GR
GS
0.149 GC
2 setlinecap
1 LJ
0.5 LW
N
73 173.094 M
75.17 173.094 L
S
GR
GS
0.149 GC
2 setlinecap
1 LJ
0.5 LW
N
73 165.476 M
75.17 165.476 L
S
GR
GS
0.149 GC
2 setlinecap
1 LJ
0.5 LW
N
73 150.24 M
75.17 150.24 L
S
GR
GS
0.149 GC
2 setlinecap
1 LJ
0.5 LW
N
73 142.622 M
75.17 142.622 L
S
GR
GS
0.149 GC
2 setlinecap
1 LJ
0.5 LW
N
73 135.004 M
75.17 135.004 L
S
GR
GS
0.149 GC
2 setlinecap
1 LJ
0.5 LW
N
73 127.386 M
75.17 127.386 L
S
GR
GS
0.149 GC
2 setlinecap
1 LJ
0.5 LW
N
73 112.15 M
75.17 112.15 L
S
GR
GS
0.149 GC
2 setlinecap
1 LJ
0.5 LW
N
73 104.532 M
75.17 104.532 L
S
GR
GS
0.149 GC
2 setlinecap
1 LJ
0.5 LW
N
73 96.914 M
75.17 96.914 L
S
GR
GS
0.149 GC
2 setlinecap
1 LJ
0.5 LW
N
73 89.296 M
75.17 89.296 L
S
GR
GS
0.149 GC
2 setlinecap
1 LJ
0.5 LW
N
73 74.06 M
75.17 74.06 L
S
GR
GS
0.149 GC
2 setlinecap
1 LJ
0.5 LW
N
73 66.442 M
75.17 66.442 L
S
GR
GS
0.149 GC
2 setlinecap
1 LJ
0.5 LW
N
73 58.824 M
75.17 58.824 L
S
GR
GS
0.149 GC
2 setlinecap
1 LJ
0.5 LW
N
73 51.206 M
75.17 51.206 L
S
GR
GS
0.149 GC
2 setlinecap
1 LJ
0.5 LW
N
73 35.97 M
75.17 35.97 L
S
GR
GS
0.149 GC
2 setlinecap
1 LJ
0.5 LW
N
507 371.161 M
504.83 371.161 L
S
GR
GS
0.149 GC
2 setlinecap
1 LJ
0.5 LW
N
507 363.543 M
504.83 363.543 L
S
GR
GS
0.149 GC
2 setlinecap
1 LJ
0.5 LW
N
507 355.925 M
504.83 355.925 L
S
GR
GS
0.149 GC
2 setlinecap
1 LJ
0.5 LW
N
507 340.689 M
504.83 340.689 L
S
GR
GS
0.149 GC
2 setlinecap
1 LJ
0.5 LW
N
507 333.071 M
504.83 333.071 L
S
GR
GS
0.149 GC
2 setlinecap
1 LJ
0.5 LW
N
507 325.453 M
504.83 325.453 L
S
GR
GS
0.149 GC
2 setlinecap
1 LJ
0.5 LW
N
507 317.835 M
504.83 317.835 L
S
GR
GS
0.149 GC
2 setlinecap
1 LJ
0.5 LW
N
507 302.599 M
504.83 302.599 L
S
GR
GS
0.149 GC
2 setlinecap
1 LJ
0.5 LW
N
507 294.981 M
504.83 294.981 L
S
GR
GS
0.149 GC
2 setlinecap
1 LJ
0.5 LW
N
507 287.363 M
504.83 287.363 L
S
GR
GS
0.149 GC
2 setlinecap
1 LJ
0.5 LW
N
507 279.745 M
504.83 279.745 L
S
GR
GS
0.149 GC
2 setlinecap
1 LJ
0.5 LW
N
507 264.509 M
504.83 264.509 L
S
GR
GS
0.149 GC
2 setlinecap
1 LJ
0.5 LW
N
507 256.891 M
504.83 256.891 L
S
GR
GS
0.149 GC
2 setlinecap
1 LJ
0.5 LW
N
507 249.273 M
504.83 249.273 L
S
GR
GS
0.149 GC
2 setlinecap
1 LJ
0.5 LW
N
507 241.655 M
504.83 241.655 L
S
GR
GS
0.149 GC
2 setlinecap
1 LJ
0.5 LW
N
507 226.419 M
504.83 226.419 L
S
GR
GS
0.149 GC
2 setlinecap
1 LJ
0.5 LW
N
507 218.801 M
504.83 218.801 L
S
GR
GS
0.149 GC
2 setlinecap
1 LJ
0.5 LW
N
507 211.184 M
504.83 211.184 L
S
GR
GS
0.149 GC
2 setlinecap
1 LJ
0.5 LW
N
507 203.566 M
504.83 203.566 L
S
GR
GS
0.149 GC
2 setlinecap
1 LJ
0.5 LW
N
507 188.33 M
504.83 188.33 L
S
GR
GS
0.149 GC
2 setlinecap
1 LJ
0.5 LW
N
507 180.712 M
504.83 180.712 L
S
GR
GS
0.149 GC
2 setlinecap
1 LJ
0.5 LW
N
507 173.094 M
504.83 173.094 L
S
GR
GS
0.149 GC
2 setlinecap
1 LJ
0.5 LW
N
507 165.476 M
504.83 165.476 L
S
GR
GS
0.149 GC
2 setlinecap
1 LJ
0.5 LW
N
507 150.24 M
504.83 150.24 L
S
GR
GS
0.149 GC
2 setlinecap
1 LJ
0.5 LW
N
507 142.622 M
504.83 142.622 L
S
GR
GS
0.149 GC
2 setlinecap
1 LJ
0.5 LW
N
507 135.004 M
504.83 135.004 L
S
GR
GS
0.149 GC
2 setlinecap
1 LJ
0.5 LW
N
507 127.386 M
504.83 127.386 L
S
GR
GS
0.149 GC
2 setlinecap
1 LJ
0.5 LW
N
507 112.15 M
504.83 112.15 L
S
GR
GS
0.149 GC
2 setlinecap
1 LJ
0.5 LW
N
507 104.532 M
504.83 104.532 L
S
GR
GS
0.149 GC
2 setlinecap
1 LJ
0.5 LW
N
507 96.914 M
504.83 96.914 L
S
GR
GS
0.149 GC
2 setlinecap
1 LJ
0.5 LW
N
507 89.296 M
504.83 89.296 L
S
GR
GS
0.149 GC
2 setlinecap
1 LJ
0.5 LW
N
507 74.06 M
504.83 74.06 L
S
GR
GS
0.149 GC
2 setlinecap
1 LJ
0.5 LW
N
507 66.442 M
504.83 66.442 L
S
GR
GS
0.149 GC
2 setlinecap
1 LJ
0.5 LW
N
507 58.824 M
504.83 58.824 L
S
GR
GS
0.149 GC
2 setlinecap
1 LJ
0.5 LW
N
507 51.206 M
504.83 51.206 L
S
GR
GS
0.149 GC
2 setlinecap
1 LJ
0.5 LW
N
507 35.97 M
504.83 35.97 L
S
GR
GS
[1 0 0 1 68.2 348.30682] CT
0.149 GC
/Helvetica 14 F
GS
[1 0 0 1 0 0] CT
-16 5.5 moveto 
1 -1 scale
(47) t 
GR
GR
GS
[1 0 0 1 68.2 310.21704] CT
0.149 GC
/Helvetica 14 F
GS
[1 0 0 1 0 0] CT
-16 5.5 moveto 
1 -1 scale
(48) t 
GR
GR
GS
[1 0 0 1 68.2 272.12723] CT
0.149 GC
/Helvetica 14 F
GS
[1 0 0 1 0 0] CT
-16 5.5 moveto 
1 -1 scale
(49) t 
GR
GR
GS
[1 0 0 1 68.2 234.03743] CT
0.149 GC
/Helvetica 14 F
GS
[1 0 0 1 0 0] CT
-16 5.5 moveto 
1 -1 scale
(50) t 
GR
GR
GS
[1 0 0 1 68.2 195.94762] CT
0.149 GC
/Helvetica 14 F
GS
[1 0 0 1 0 0] CT
-16 5.5 moveto 
1 -1 scale
(51) t 
GR
GR
GS
[1 0 0 1 68.2 157.85782] CT
0.149 GC
/Helvetica 14 F
GS
[1 0 0 1 0 0] CT
-16 5.5 moveto 
1 -1 scale
(52) t 
GR
GR
GS
[1 0 0 1 68.2 119.76801] CT
0.149 GC
/Helvetica 14 F
GS
[1 0 0 1 0 0] CT
-16 5.5 moveto 
1 -1 scale
(53) t 
GR
GR
GS
[1 0 0 1 68.2 81.67822] CT
0.149 GC
/Helvetica 14 F
GS
[1 0 0 1 0 0] CT
-16 5.5 moveto 
1 -1 scale
(54) t 
GR
GR
GS
[1 0 0 1 68.2 43.58841] CT
0.149 GC
/Helvetica 14 F
GS
[1 0 0 1 0 0] CT
-16 5.5 moveto 
1 -1 scale
(55) t 
GR
GR
GS
[0 -1 1 0 49.2 202.74974] CT
0.149 GC
/Helvetica 15.4 F
GS
[1 0 0 1 0 0] CT
-42.5 -4 moveto 
1 -1 scale
(PSNR U\(dB\)) t 
GR
GR
GS
[1 0 0 1 290.00031 29.575] CT
/Helvetica-Bold 15.4 F
GS
[1 0 0 1 0 0] CT
-136.5 -4 moveto 
1 -1 scale
(Skater227_1920x1080_30fps.y4m-av1) t 
GR
GR
GS
0 0.447 0.741 RC
1 LJ
0.5 LW
N
77.55 336.431 M
81.252 324.003 L
84.954 311.833 L
88.656 300.117 L
92.359 289.052 L
96.061 278.834 L
99.763 269.66 L
103.465 261.627 L
107.167 254.07 L
110.869 246.821 L
114.571 239.875 L
118.274 233.227 L
121.976 226.871 L
125.678 220.803 L
129.38 215.018 L
133.082 209.511 L
136.784 204.277 L
140.487 199.31 L
144.189 194.606 L
147.891 190.16 L
151.593 185.967 L
155.295 182.014 L
158.997 178.188 L
162.699 174.451 L
166.402 170.802 L
170.104 167.241 L
173.806 163.768 L
177.508 160.381 L
181.21 157.08 L
184.912 153.866 L
188.615 150.738 L
192.317 147.695 L
196.019 144.736 L
199.721 141.863 L
203.423 139.073 L
207.125 136.367 L
210.828 133.745 L
214.53 131.205 L
218.232 128.748 L
221.934 126.373 L
225.636 124.08 L
229.338 121.868 L
233.04 119.737 L
236.743 117.686 L
240.445 115.716 L
244.147 113.825 L
247.849 112.014 L
251.551 110.275 L
255.253 108.554 L
258.956 106.834 L
262.658 105.118 L
266.36 103.405 L
270.062 101.696 L
273.764 99.992 L
277.466 98.293 L
281.168 96.601 L
284.871 94.916 L
288.573 93.238 L
292.275 91.568 L
295.977 89.907 L
299.679 88.256 L
303.381 86.615 L
307.084 84.985 L
310.786 83.366 L
314.488 81.76 L
318.19 80.166 L
321.892 78.586 L
325.594 77.02 L
329.297 75.469 L
332.999 73.933 L
336.701 72.414 L
340.403 70.911 L
344.105 69.426 L
347.807 67.959 L
351.509 66.511 L
355.212 65.083 L
358.914 63.674 L
362.616 62.287 L
366.318 60.921 L
370.02 59.577 L
373.722 58.256 L
377.425 56.958 L
381.127 55.685 L
384.829 54.436 L
388.531 53.213 L
392.233 52.016 L
395.935 50.845 L
399.637 49.703 L
403.34 48.588 L
407.042 47.502 L
410.744 46.446 L
414.446 45.42 L
418.148 44.424 L
421.85 43.46 L
425.553 42.528 L
429.255 41.629 L
432.957 40.764 L
436.659 39.932 L
440.361 39.136 L
444.063 38.374 L
447.766 37.649 L
451.468 36.961 L
455.17 36.31 L
458.872 35.697 L
462.574 35.123 L
466.276 34.588 L
469.978 34.094 L
473.681 33.64 L
477.383 33.228 L
481.085 32.857 L
484.787 32.53 L
488.489 32.246 L
492.191 32.006 L
495.894 31.811 L
499.596 31.661 L
503.298 31.557 L
507 31.5 L
S
GR
GS
0.851 0.325 0.098 RC
1 LJ
0.5 LW
N
73.317 359.553 M
77.019 343.628 L
80.721 328.149 L
84.423 313.516 L
88.125 300.131 L
91.828 288.395 L
95.53 278.594 L
99.232 269.675 L
102.934 261.268 L
106.636 253.348 L
110.338 245.892 L
114.041 238.876 L
117.743 232.275 L
121.445 226.067 L
125.147 220.227 L
128.849 214.731 L
132.551 209.556 L
136.253 204.677 L
139.956 200.067 L
143.658 195.613 L
147.36 191.273 L
151.062 187.047 L
154.764 182.935 L
158.466 178.936 L
162.169 175.052 L
165.871 171.28 L
169.573 167.622 L
173.275 164.078 L
176.977 160.647 L
180.679 157.329 L
184.381 154.125 L
188.084 151.034 L
191.786 148.056 L
195.488 145.19 L
199.19 142.438 L
202.892 139.799 L
206.594 137.272 L
210.297 134.858 L
213.999 132.557 L
217.701 130.369 L
221.403 128.293 L
225.105 126.292 L
228.807 124.297 L
232.509 122.305 L
236.212 120.32 L
239.914 118.34 L
243.616 116.368 L
247.318 114.404 L
251.02 112.449 L
254.722 110.504 L
258.425 108.571 L
262.127 106.65 L
265.829 104.741 L
269.531 102.848 L
273.233 100.969 L
276.935 99.107 L
280.638 97.261 L
284.34 95.434 L
288.042 93.626 L
291.744 91.838 L
295.446 90.072 L
299.148 88.327 L
302.85 86.605 L
306.553 84.908 L
310.255 83.235 L
313.957 81.589 L
317.659 79.969 L
321.361 78.378 L
325.063 76.815 L
328.766 75.283 L
332.468 73.781 L
336.17 72.312 L
339.872 70.875 L
343.574 69.472 L
347.276 68.105 L
350.978 66.773 L
354.681 65.478 L
358.383 64.221 L
362.085 63.003 L
365.787 61.825 L
369.489 60.687 L
373.191 59.592 L
376.894 58.539 L
380.596 57.53 L
384.298 56.566 L
388 55.648 L
391.702 54.776 L
395.404 53.952 L
399.107 53.177 L
402.809 52.452 L
406.511 51.777 L
410.213 51.154 L
413.915 50.584 L
417.617 50.068 L
421.319 49.606 L
425.022 49.2 L
428.724 48.85 L
432.426 48.558 L
436.128 48.325 L
439.83 48.151 L
443.532 48.038 L
447.235 47.987 L
S
GR
GS
0.929 0.694 0.125 RC
1 LJ
0.5 LW
N
77.007 342.81 M
80.709 329.461 L
84.411 316.399 L
88.113 303.866 L
91.815 292.105 L
95.517 281.357 L
99.219 271.866 L
102.922 263.659 L
106.624 255.924 L
110.326 248.543 L
114.028 241.508 L
117.73 234.807 L
121.432 228.431 L
125.135 222.37 L
128.837 216.613 L
132.539 211.15 L
136.241 205.972 L
139.943 201.067 L
143.645 196.427 L
147.348 192.041 L
151.05 187.899 L
154.752 183.96 L
158.454 180.12 L
162.156 176.372 L
165.858 172.716 L
169.56 169.151 L
173.263 165.676 L
176.965 162.291 L
180.667 158.995 L
184.369 155.787 L
188.071 152.667 L
191.773 149.633 L
195.476 146.687 L
199.178 143.826 L
202.88 141.051 L
206.582 138.359 L
210.284 135.752 L
213.986 133.228 L
217.688 130.787 L
221.391 128.428 L
225.093 126.15 L
228.795 123.953 L
232.497 121.836 L
236.199 119.798 L
239.901 117.839 L
243.604 115.958 L
247.306 114.155 L
251.008 112.394 L
254.71 110.634 L
258.412 108.877 L
262.114 107.122 L
265.816 105.371 L
269.519 103.625 L
273.221 101.883 L
276.923 100.147 L
280.625 98.417 L
284.327 96.694 L
288.029 94.98 L
291.732 93.273 L
295.434 91.576 L
299.136 89.889 L
302.838 88.212 L
306.54 86.547 L
310.242 84.894 L
313.945 83.253 L
317.647 81.626 L
321.349 80.013 L
325.051 78.414 L
328.753 76.832 L
332.455 75.265 L
336.157 73.715 L
339.86 72.183 L
343.562 70.67 L
347.264 69.175 L
350.966 67.7 L
354.668 66.246 L
358.37 64.813 L
362.073 63.401 L
365.775 62.012 L
369.477 60.647 L
373.179 59.305 L
376.881 57.988 L
380.583 56.696 L
384.285 55.431 L
387.988 54.192 L
391.69 52.981 L
395.392 51.798 L
399.094 50.643 L
402.796 49.519 L
406.498 48.424 L
410.201 47.361 L
413.903 46.329 L
417.605 45.33 L
421.307 44.364 L
425.009 43.432 L
428.711 42.534 L
432.413 41.671 L
436.116 40.845 L
439.818 40.055 L
443.52 39.302 L
447.222 38.587 L
450.924 37.911 L
454.626 37.274 L
458.329 36.678 L
462.031 36.123 L
465.733 35.608 L
469.435 35.137 L
473.137 34.708 L
476.839 34.323 L
480.542 33.982 L
484.244 33.686 L
487.946 33.436 L
491.648 33.233 L
495.35 33.076 L
499.052 32.968 L
502.754 32.908 L
S
GR
GS
0.494 0.184 0.557 RC
1 LJ
0.5 LW
N
74.852 358.337 M
78.554 344.602 L
82.257 331.186 L
85.959 318.342 L
89.661 306.322 L
93.363 295.378 L
97.065 285.763 L
100.767 277.136 L
104.469 268.862 L
108.172 260.936 L
111.874 253.356 L
115.576 246.121 L
119.278 239.228 L
122.98 232.676 L
126.682 226.461 L
130.385 220.583 L
134.087 215.039 L
137.789 209.828 L
141.491 204.946 L
145.193 200.393 L
148.895 196.112 L
152.597 191.951 L
156.3 187.899 L
160.002 183.955 L
163.704 180.117 L
167.406 176.384 L
171.108 172.756 L
174.81 169.23 L
178.513 165.806 L
182.215 162.483 L
185.917 159.259 L
189.619 156.134 L
193.321 153.105 L
197.023 150.172 L
200.726 147.334 L
204.428 144.589 L
208.13 141.937 L
211.832 139.375 L
215.534 136.904 L
219.236 134.521 L
222.938 132.225 L
226.641 130.016 L
230.343 127.893 L
234.045 125.853 L
237.747 123.895 L
241.449 122.004 L
245.151 120.121 L
248.854 118.24 L
252.556 116.363 L
256.258 114.489 L
259.96 112.62 L
263.662 110.756 L
267.364 108.898 L
271.066 107.048 L
274.769 105.205 L
278.471 103.371 L
282.173 101.546 L
285.875 99.731 L
289.577 97.927 L
293.279 96.135 L
296.982 94.354 L
300.684 92.588 L
304.386 90.835 L
308.088 89.096 L
311.79 87.374 L
315.492 85.667 L
319.195 83.978 L
322.897 82.306 L
326.599 80.653 L
330.301 79.019 L
334.003 77.406 L
337.705 75.813 L
341.407 74.242 L
345.11 72.693 L
348.812 71.168 L
352.514 69.666 L
356.216 68.19 L
359.918 66.739 L
363.62 65.314 L
367.323 63.916 L
371.025 62.546 L
374.727 61.205 L
378.429 59.892 L
382.131 58.611 L
385.833 57.36 L
389.535 56.141 L
393.238 54.954 L
396.94 53.8 L
400.642 52.681 L
404.344 51.596 L
408.046 50.547 L
411.748 49.534 L
415.451 48.559 L
419.153 47.621 L
422.855 46.722 L
426.557 45.862 L
430.259 45.043 L
433.961 44.264 L
437.664 43.527 L
441.366 42.833 L
445.068 42.182 L
448.77 41.575 L
452.472 41.013 L
456.174 40.497 L
459.876 40.027 L
463.579 39.604 L
467.281 39.229 L
470.983 38.902 L
474.685 38.625 L
478.387 38.399 L
482.089 38.223 L
485.792 38.099 L
489.494 38.028 L
S
GR
GS
0.467 0.675 0.188 RC
1 LJ
0.5 LW
N
73.716 372.443 M
77.418 356.499 L
81.12 340.955 L
84.822 326.21 L
88.525 312.664 L
92.227 300.717 L
95.929 290.743 L
99.631 281.881 L
103.333 273.529 L
107.035 265.659 L
110.738 258.245 L
114.44 251.26 L
118.142 244.677 L
121.844 238.47 L
125.546 232.612 L
129.248 227.076 L
132.95 221.836 L
136.653 216.866 L
140.355 212.138 L
144.057 207.622 L
147.759 203.235 L
151.461 198.947 L
155.163 194.759 L
158.866 190.671 L
162.568 186.683 L
166.27 182.795 L
169.972 179.007 L
173.674 175.32 L
177.376 171.733 L
181.078 168.247 L
184.781 164.861 L
188.483 161.576 L
192.185 158.392 L
195.887 155.309 L
199.589 152.327 L
203.291 149.446 L
206.994 146.666 L
210.696 143.988 L
214.398 141.41 L
218.1 138.935 L
221.802 136.561 L
225.504 134.289 L
229.206 132.119 L
232.909 130.05 L
236.611 128.059 L
240.313 126.075 L
244.015 124.095 L
247.717 122.119 L
251.419 120.148 L
255.122 118.183 L
258.824 116.224 L
262.526 114.273 L
266.228 112.33 L
269.93 110.397 L
273.632 108.473 L
277.335 106.56 L
281.037 104.658 L
284.739 102.769 L
288.441 100.893 L
292.143 99.031 L
295.845 97.184 L
299.547 95.352 L
303.25 93.536 L
306.952 91.738 L
310.654 89.958 L
314.356 88.196 L
318.058 86.454 L
321.76 84.733 L
325.463 83.032 L
329.165 81.354 L
332.867 79.698 L
336.569 78.067 L
340.271 76.459 L
343.973 74.877 L
347.676 73.321 L
351.378 71.792 L
355.08 70.29 L
358.782 68.817 L
362.484 67.373 L
366.186 65.959 L
369.888 64.576 L
373.591 63.225 L
377.293 61.907 L
380.995 60.621 L
384.697 59.37 L
388.399 58.154 L
392.101 56.974 L
395.804 55.83 L
399.506 54.723 L
403.208 53.655 L
406.91 52.625 L
410.612 51.635 L
414.314 50.686 L
418.016 49.779 L
421.719 48.913 L
425.421 48.091 L
429.123 47.312 L
432.825 46.578 L
436.527 45.89 L
440.229 45.247 L
443.932 44.652 L
447.634 44.105 L
451.336 43.606 L
455.038 43.157 L
458.74 42.758 L
462.442 42.41 L
466.144 42.114 L
469.847 41.87 L
473.549 41.681 L
477.251 41.545 L
480.953 41.465 L
S
GR
GS
0.302 0.745 0.933 RC
[10 6] 0 setdash
2 LJ
0.5 LW
N
73 360.621 M
76.702 345.23 L
80.404 330.27 L
84.106 316.102 L
87.809 303.084 L
91.511 291.578 L
95.213 281.811 L
98.915 272.81 L
102.617 264.285 L
106.319 256.218 L
110.022 248.593 L
113.724 241.391 L
117.426 234.594 L
121.128 228.187 L
124.83 222.15 L
128.532 216.466 L
132.234 211.118 L
135.937 206.089 L
139.639 201.348 L
143.341 196.756 L
147.043 192.279 L
150.745 187.917 L
154.447 183.672 L
158.15 179.543 L
161.852 175.532 L
165.554 171.638 L
169.256 167.863 L
172.958 164.207 L
176.66 160.67 L
180.363 157.254 L
184.065 153.958 L
187.767 150.784 L
191.469 147.732 L
195.171 144.802 L
198.873 141.996 L
202.575 139.313 L
206.278 136.754 L
209.98 134.32 L
213.682 132.012 L
217.384 129.83 L
221.086 127.766 L
224.788 125.729 L
228.491 123.697 L
232.193 121.672 L
235.895 119.654 L
239.597 117.644 L
243.299 115.643 L
247.001 113.653 L
250.704 111.674 L
254.406 109.707 L
258.108 107.753 L
261.81 105.814 L
265.512 103.89 L
269.214 101.982 L
272.916 100.092 L
276.619 98.22 L
280.321 96.367 L
284.023 94.535 L
287.725 92.724 L
291.427 90.935 L
295.129 89.17 L
298.832 87.429 L
302.534 85.714 L
306.236 84.025 L
309.938 82.363 L
313.64 80.73 L
317.342 79.126 L
321.044 77.552 L
324.747 76.01 L
328.449 74.5 L
332.151 73.024 L
335.853 71.583 L
339.555 70.176 L
343.257 68.806 L
346.96 67.474 L
350.662 66.18 L
354.364 64.926 L
358.066 63.712 L
361.768 62.54 L
365.47 61.41 L
369.172 60.323 L
372.875 59.282 L
376.577 58.285 L
380.279 57.336 L
383.981 56.433 L
387.683 55.58 L
391.385 54.776 L
395.088 54.022 L
398.79 53.32 L
402.492 52.671 L
406.194 52.075 L
409.896 51.534 L
413.598 51.049 L
417.301 50.62 L
421.003 50.249 L
424.705 49.936 L
428.407 49.683 L
432.109 49.491 L
435.811 49.36 L
439.513 49.292 L
S
GR
GS
0.635 0.078 0.184 RC
[10 6] 0 setdash
2 LJ
0.5 LW
N
76.948 342.318 M
80.65 329.074 L
84.352 316.118 L
88.055 303.686 L
91.757 292.015 L
95.459 281.341 L
99.161 271.902 L
102.863 263.743 L
106.565 256.068 L
110.268 248.751 L
113.97 241.78 L
117.672 235.143 L
121.374 228.829 L
125.076 222.826 L
128.778 217.122 L
132.48 211.705 L
136.183 206.564 L
139.885 201.687 L
143.587 197.061 L
147.289 192.676 L
150.991 188.519 L
154.693 184.548 L
158.396 180.67 L
162.098 176.88 L
165.8 173.177 L
169.502 169.561 L
173.204 166.033 L
176.906 162.592 L
180.608 159.238 L
184.311 155.972 L
188.013 152.792 L
191.715 149.699 L
195.417 146.693 L
199.119 143.773 L
202.821 140.94 L
206.524 138.193 L
210.226 135.533 L
213.928 132.959 L
217.63 130.471 L
221.332 128.069 L
225.034 125.753 L
228.736 123.523 L
232.439 121.378 L
236.141 119.32 L
239.843 117.346 L
243.545 115.459 L
247.247 113.655 L
250.949 111.886 L
254.652 110.119 L
258.354 108.355 L
262.056 106.595 L
265.758 104.84 L
269.46 103.089 L
273.162 101.344 L
276.865 99.606 L
280.567 97.874 L
284.269 96.151 L
287.971 94.436 L
291.673 92.73 L
295.375 91.034 L
299.077 89.348 L
302.78 87.674 L
306.482 86.012 L
310.184 84.362 L
313.886 82.725 L
317.588 81.103 L
321.29 79.495 L
324.993 77.903 L
328.695 76.326 L
332.397 74.766 L
336.099 73.224 L
339.801 71.699 L
343.503 70.194 L
347.206 68.708 L
350.908 67.242 L
354.61 65.796 L
358.312 64.372 L
362.014 62.971 L
365.716 61.592 L
369.418 60.237 L
373.121 58.906 L
376.823 57.6 L
380.525 56.319 L
384.227 55.065 L
387.929 53.838 L
391.631 52.638 L
395.334 51.467 L
399.036 50.324 L
402.738 49.212 L
406.44 48.13 L
410.142 47.078 L
413.844 46.059 L
417.546 45.072 L
421.249 44.118 L
424.951 43.198 L
428.653 42.312 L
432.355 41.462 L
436.057 40.647 L
439.759 39.869 L
443.462 39.128 L
447.164 38.425 L
450.866 37.761 L
454.568 37.136 L
458.27 36.551 L
461.972 36.006 L
465.674 35.503 L
469.377 35.042 L
473.079 34.623 L
476.781 34.248 L
480.483 33.917 L
484.185 33.63 L
487.887 33.389 L
491.59 33.194 L
495.292 33.046 L
498.994 32.946 L
502.696 32.893 L
S
GR
GS
0 0.447 0.741 RC
[10 6] 0 setdash
2 LJ
0.5 LW
N
75.312 354.775 M
79.014 341.038 L
82.716 327.612 L
86.418 314.743 L
90.12 302.675 L
93.822 291.653 L
97.524 281.922 L
101.227 273.236 L
104.929 264.891 L
108.631 256.879 L
112.333 249.2 L
116.035 241.859 L
119.737 234.857 L
123.44 228.198 L
127.142 221.884 L
130.844 215.917 L
134.546 210.301 L
138.248 205.036 L
141.95 200.128 L
145.652 195.576 L
149.355 191.361 L
153.057 187.301 L
156.759 183.357 L
160.461 179.527 L
164.163 175.809 L
167.865 172.201 L
171.568 168.7 L
175.27 165.306 L
178.972 162.014 L
182.674 158.824 L
186.376 155.733 L
190.078 152.739 L
193.781 149.841 L
197.483 147.035 L
201.185 144.32 L
204.887 141.694 L
208.589 139.154 L
212.291 136.699 L
215.993 134.326 L
219.696 132.033 L
223.398 129.818 L
227.1 127.68 L
230.802 125.615 L
234.504 123.622 L
238.206 121.699 L
241.909 119.841 L
245.611 118.003 L
249.313 116.166 L
253.015 114.33 L
256.717 112.497 L
260.419 110.668 L
264.121 108.842 L
267.824 107.022 L
271.526 105.207 L
275.228 103.399 L
278.93 101.598 L
282.632 99.804 L
286.334 98.02 L
290.037 96.245 L
293.739 94.48 L
297.441 92.727 L
301.143 90.985 L
304.845 89.256 L
308.547 87.54 L
312.249 85.839 L
315.952 84.152 L
319.654 82.481 L
323.356 80.827 L
327.058 79.189 L
330.76 77.57 L
334.462 75.97 L
338.165 74.389 L
341.867 72.828 L
345.569 71.289 L
349.271 69.771 L
352.973 68.276 L
356.675 66.804 L
360.378 65.357 L
364.08 63.934 L
367.782 62.537 L
371.484 61.167 L
375.186 59.824 L
378.888 58.509 L
382.59 57.223 L
386.293 55.966 L
389.995 54.74 L
393.697 53.544 L
397.399 52.381 L
401.101 51.25 L
404.803 50.153 L
408.506 49.09 L
412.208 48.062 L
415.91 47.069 L
419.612 46.113 L
423.314 45.195 L
427.016 44.314 L
430.719 43.472 L
434.421 42.67 L
438.123 41.908 L
441.825 41.188 L
445.527 40.509 L
449.229 39.873 L
452.931 39.28 L
456.634 38.732 L
460.336 38.228 L
464.038 37.771 L
467.74 37.359 L
471.442 36.996 L
475.144 36.68 L
478.847 36.413 L
482.549 36.195 L
486.251 36.028 L
489.953 35.912 L
493.655 35.849 L
S
GR
GS
0.851 0.325 0.098 RC
[10 6] 0 setdash
2 LJ
0.5 LW
N
73.769 374 M
77.471 358.358 L
81.173 343.099 L
84.875 328.582 L
88.577 315.165 L
92.279 303.208 L
95.982 293.061 L
99.684 284.042 L
103.386 275.494 L
107.088 267.397 L
110.79 259.733 L
114.492 252.485 L
118.194 245.634 L
121.897 239.162 L
125.599 233.05 L
129.301 227.28 L
133.003 221.835 L
136.705 216.696 L
140.407 211.844 L
144.11 207.261 L
147.812 202.853 L
151.514 198.552 L
155.216 194.36 L
158.918 190.275 L
162.62 186.296 L
166.322 182.424 L
170.025 178.657 L
173.727 174.994 L
177.429 171.435 L
181.131 167.98 L
184.833 164.627 L
188.535 161.377 L
192.238 158.228 L
195.94 155.179 L
199.642 152.231 L
203.344 149.382 L
207.046 146.632 L
210.748 143.98 L
214.451 141.426 L
218.153 138.968 L
221.855 136.607 L
225.557 134.341 L
229.259 132.17 L
232.961 130.093 L
236.663 128.1 L
240.366 126.12 L
244.068 124.143 L
247.77 122.17 L
251.472 120.201 L
255.174 118.237 L
258.876 116.279 L
262.579 114.329 L
266.281 112.385 L
269.983 110.45 L
273.685 108.525 L
277.387 106.609 L
281.089 104.705 L
284.791 102.812 L
288.494 100.932 L
292.196 99.065 L
295.898 97.212 L
299.6 95.375 L
303.302 93.553 L
307.004 91.748 L
310.707 89.961 L
314.409 88.192 L
318.111 86.442 L
321.813 84.712 L
325.515 83.003 L
329.217 81.315 L
332.919 79.65 L
336.622 78.008 L
340.324 76.39 L
344.026 74.797 L
347.728 73.23 L
351.43 71.689 L
355.132 70.176 L
358.835 68.691 L
362.537 67.235 L
366.239 65.809 L
369.941 64.413 L
373.643 63.049 L
377.345 61.717 L
381.048 60.419 L
384.75 59.154 L
388.452 57.924 L
392.154 56.73 L
395.856 55.572 L
399.558 54.451 L
403.26 53.368 L
406.963 52.325 L
410.665 51.321 L
414.367 50.357 L
418.069 49.435 L
421.771 48.555 L
425.473 47.718 L
429.176 46.924 L
432.878 46.176 L
436.58 45.472 L
440.282 44.815 L
443.984 44.206 L
447.686 43.644 L
451.388 43.13 L
455.091 42.667 L
458.793 42.254 L
462.495 41.891 L
466.197 41.582 L
469.899 41.324 L
473.601 41.121 L
477.304 40.972 L
481.006 40.878 L
484.708 40.84 L
S
GR
GS
1 GC
N
499 366 M
499 218.5 L
327.5 218.5 L
327.5 366 L
cp
f
GR
GS
[1 0 0 1 364.5 228.25] CT
/Helvetica 13 F
GS
[1 0 0 1 0 0] CT
0 5 moveto 
1 -1 scale
(Base Run) t 
GR
GR
GS
0 0.447 0.741 RC
1 LJ
0.5 LW
N
331.5 228.25 M
361.5 228.25 L
S
GR
GS
[1 0 0 1 364.5 244.25] CT
/Helvetica 13 F
GS
[1 0 0 1 0 0] CT
0 5 moveto 
1 -1 scale
(All Frames) t 
GR
GR
GS
0.851 0.325 0.098 RC
1 LJ
0.5 LW
N
331.5 244.25 M
361.5 244.25 L
S
GR
GS
[1 0 0 1 364.5 260.25] CT
/Helvetica 13 F
GS
[1 0 0 1 0 0] CT
0 5 moveto 
1 -1 scale
(KF Only) t 
GR
GR
GS
0.929 0.694 0.125 RC
1 LJ
0.5 LW
N
331.5 260.25 M
361.5 260.25 L
S
GR
GS
[1 0 0 1 364.5 276.25] CT
/Helvetica 13 F
GS
[1 0 0 1 0 0] CT
0 5 moveto 
1 -1 scale
(GF, ARF Only) t 
GR
GR
GS
0.494 0.184 0.557 RC
1 LJ
0.5 LW
N
331.5 276.25 M
361.5 276.25 L
S
GR
GS
[1 0 0 1 364.5 292.25] CT
/Helvetica 13 F
GS
[1 0 0 1 0 0] CT
0 5 moveto 
1 -1 scale
(KF, GF, ARF Only) t 
GR
GR
GS
0.467 0.675 0.188 RC
1 LJ
0.5 LW
N
331.5 292.25 M
361.5 292.25 L
S
GR
GS
[1 0 0 1 364.5 308.25] CT
/Helvetica 13 F
GS
[1 0 0 1 0 0] CT
0 5 moveto 
1 -1 scale
(Part All Frames) t 
GR
GR
GS
0.302 0.745 0.933 RC
[10 6] 0 setdash
2 LJ
0.5 LW
N
331.5 308.25 M
361.5 308.25 L
S
GR
GS
[1 0 0 1 364.5 324.25] CT
/Helvetica 13 F
GS
[1 0 0 1 0 0] CT
0 5 moveto 
1 -1 scale
(Part KF Only) t 
GR
GR
GS
0.635 0.078 0.184 RC
[10 6] 0 setdash
2 LJ
0.5 LW
N
331.5 324.25 M
361.5 324.25 L
S
GR
GS
[1 0 0 1 364.5 340.25] CT
/Helvetica 13 F
GS
[1 0 0 1 0 0] CT
0 5 moveto 
1 -1 scale
(Part GF, ARF Only) t 
GR
GR
GS
0 0.447 0.741 RC
[10 6] 0 setdash
2 LJ
0.5 LW
N
331.5 340.25 M
361.5 340.25 L
S
GR
GS
[1 0 0 1 364.5 356.25] CT
/Helvetica 13 F
GS
[1 0 0 1 0 0] CT
0 5 moveto 
1 -1 scale
(Part KF, GF, ARF Only) t 
GR
GR
GS
0.851 0.325 0.098 RC
[10 6] 0 setdash
2 LJ
0.5 LW
N
331.5 356.25 M
361.5 356.25 L
S
GR
GS
0.149 GC
10.0 ML
0.5 LW
N
327.5 366 M
327.5 218.5 L
499 218.5 L
499 366 L
cp
S
GR
%%Trailer
%%Pages: 1
%%EOF
