%!PS-Adobe-3.0 EPSF-3.0
%%Creator: (MATLAB, The Mathworks, Inc. Version 9.11.0.1837725 \(R2021b\) Update 2. Operating System: Mac OS X)
%%Title: plots/pchip/Skater227_1920x1080_30fps.y4m-av1-APSNRV.eps
%%CreationDate: 2022-02-03T19:13:38
%%Pages: (atend)
%%BoundingBox:    33   425   521   826
%%LanguageLevel: 3
%%EndComments
%%BeginProlog
%%BeginResource: procset (Apache XML Graphics Std ProcSet) 1.2 0
%%Version: 1.2 0
%%Copyright: (Copyright 2001-2003,2010 The Apache Software Foundation. License terms: http://www.apache.org/licenses/LICENSE-2.0)
/bd{bind def}bind def
/ld{load def}bd
/GR/grestore ld
/GS/gsave ld
/RM/rmoveto ld
/C/curveto ld
/t/show ld
/L/lineto ld
/ML/setmiterlimit ld
/CT/concat ld
/f/fill ld
/N/newpath ld
/S/stroke ld
/CC/setcmykcolor ld
/A/ashow ld
/cp/closepath ld
/RC/setrgbcolor ld
/LJ/setlinejoin ld
/GC/setgray ld
/LW/setlinewidth ld
/M/moveto ld
/re {4 2 roll M
1 index 0 rlineto
0 exch rlineto
neg 0 rlineto
cp } bd
/_ctm matrix def
/_tm matrix def
/BT { _ctm currentmatrix pop matrix _tm copy pop 0 0 moveto } bd
/ET { _ctm setmatrix } bd
/iTm { _ctm setmatrix _tm concat } bd
/Tm { _tm astore pop iTm 0 0 moveto } bd
/ux 0.0 def
/uy 0.0 def
/F {
  /Tp exch def
  /Tf exch def
  Tf findfont Tp scalefont setfont
  /cf Tf def  /cs Tp def
} bd
/ULS {currentpoint /uy exch def /ux exch def} bd
/ULE {
  /Tcx currentpoint pop def
  gsave
  newpath
  cf findfont cs scalefont dup
  /FontMatrix get 0 get /Ts exch def /FontInfo get dup
  /UnderlinePosition get Ts mul /To exch def
  /UnderlineThickness get Ts mul /Tt exch def
  ux uy To add moveto  Tcx uy To add lineto
  Tt setlinewidth stroke
  grestore
} bd
/OLE {
  /Tcx currentpoint pop def
  gsave
  newpath
  cf findfont cs scalefont dup
  /FontMatrix get 0 get /Ts exch def /FontInfo get dup
  /UnderlinePosition get Ts mul /To exch def
  /UnderlineThickness get Ts mul /Tt exch def
  ux uy To add cs add moveto Tcx uy To add cs add lineto
  Tt setlinewidth stroke
  grestore
} bd
/SOE {
  /Tcx currentpoint pop def
  gsave
  newpath
  cf findfont cs scalefont dup
  /FontMatrix get 0 get /Ts exch def /FontInfo get dup
  /UnderlinePosition get Ts mul /To exch def
  /UnderlineThickness get Ts mul /Tt exch def
  ux uy To add cs 10 mul 26 idiv add moveto Tcx uy To add cs 10 mul 26 idiv add lineto
  Tt setlinewidth stroke
  grestore
} bd
/QT {
/Y22 exch store
/X22 exch store
/Y21 exch store
/X21 exch store
currentpoint
/Y21 load 2 mul add 3 div exch
/X21 load 2 mul add 3 div exch
/X21 load 2 mul /X22 load add 3 div
/Y21 load 2 mul /Y22 load add 3 div
/X22 load /Y22 load curveto
} bd
/SSPD {
dup length /d exch dict def
{
/v exch def
/k exch def
currentpagedevice k known {
/cpdv currentpagedevice k get def
v cpdv ne {
/upd false def
/nullv v type /nulltype eq def
/nullcpdv cpdv type /nulltype eq def
nullv nullcpdv or
{
/upd true def
} {
/sametype v type cpdv type eq def
sametype {
v type /arraytype eq {
/vlen v length def
/cpdvlen cpdv length def
vlen cpdvlen eq {
0 1 vlen 1 sub {
/i exch def
/obj v i get def
/cpdobj cpdv i get def
obj cpdobj ne {
/upd true def
exit
} if
} for
} {
/upd true def
} ifelse
} {
v type /dicttype eq {
v {
/dv exch def
/dk exch def
/cpddv cpdv dk get def
dv cpddv ne {
/upd true def
exit
} if
} forall
} {
/upd true def
} ifelse
} ifelse
} if
} ifelse
upd true eq {
d k v put
} if
} if
} if
} forall
d length 0 gt {
d setpagedevice
} if
} bd
/RE { % /NewFontName [NewEncodingArray] /FontName RE -
  findfont dup length dict begin
  {
    1 index /FID ne
    {def} {pop pop} ifelse
  } forall
  /Encoding exch def
  /FontName 1 index def
  currentdict definefont pop
  end
} bind def
%%EndResource
%%BeginResource: procset (Apache XML Graphics EPS ProcSet) 1.0 0
%%Version: 1.0 0
%%Copyright: (Copyright 2002-2003 The Apache Software Foundation. License terms: http://www.apache.org/licenses/LICENSE-2.0)
/BeginEPSF { %def
/b4_Inc_state save def         % Save state for cleanup
/dict_count countdictstack def % Count objects on dict stack
/op_count count 1 sub def      % Count objects on operand stack
userdict begin                 % Push userdict on dict stack
/showpage { } def              % Redefine showpage, { } = null proc
0 setgray 0 setlinecap         % Prepare graphics state
1 setlinewidth 0 setlinejoin
10 setmiterlimit [ ] 0 setdash newpath
/languagelevel where           % If level not equal to 1 then
{pop languagelevel             % set strokeadjust and
1 ne                           % overprint to their defaults.
{false setstrokeadjust false setoverprint
} if
} if
} bd
/EndEPSF { %def
count op_count sub {pop} repeat            % Clean up stacks
countdictstack dict_count sub {end} repeat
b4_Inc_state restore
} bd
%%EndResource
%FOPBeginFontDict
%%IncludeResource: font Courier-Oblique
%%IncludeResource: font Courier-BoldOblique
%%IncludeResource: font Courier-Bold
%%IncludeResource: font ZapfDingbats
%%IncludeResource: font Symbol
%%IncludeResource: font Helvetica
%%IncludeResource: font Helvetica-Oblique
%%IncludeResource: font Helvetica-Bold
%%IncludeResource: font Helvetica-BoldOblique
%%IncludeResource: font Times-Roman
%%IncludeResource: font Times-Italic
%%IncludeResource: font Times-Bold
%%IncludeResource: font Times-BoldItalic
%%IncludeResource: font Courier
%FOPEndFontDict
%%BeginResource: encoding WinAnsiEncoding
/WinAnsiEncoding [
/.notdef /.notdef /.notdef /.notdef /.notdef
/.notdef /.notdef /.notdef /.notdef /.notdef
/.notdef /.notdef /.notdef /.notdef /.notdef
/.notdef /.notdef /.notdef /.notdef /.notdef
/.notdef /.notdef /.notdef /.notdef /.notdef
/.notdef /.notdef /.notdef /.notdef /.notdef
/.notdef /.notdef /space /exclam /quotedbl
/numbersign /dollar /percent /ampersand /quotesingle
/parenleft /parenright /asterisk /plus /comma
/hyphen /period /slash /zero /one
/two /three /four /five /six
/seven /eight /nine /colon /semicolon
/less /equal /greater /question /at
/A /B /C /D /E
/F /G /H /I /J
/K /L /M /N /O
/P /Q /R /S /T
/U /V /W /X /Y
/Z /bracketleft /backslash /bracketright /asciicircum
/underscore /quoteleft /a /b /c
/d /e /f /g /h
/i /j /k /l /m
/n /o /p /q /r
/s /t /u /v /w
/x /y /z /braceleft /bar
/braceright /asciitilde /bullet /Euro /bullet
/quotesinglbase /florin /quotedblbase /ellipsis /dagger
/daggerdbl /circumflex /perthousand /Scaron /guilsinglleft
/OE /bullet /Zcaron /bullet /bullet
/quoteleft /quoteright /quotedblleft /quotedblright /bullet
/endash /emdash /asciitilde /trademark /scaron
/guilsinglright /oe /bullet /zcaron /Ydieresis
/space /exclamdown /cent /sterling /currency
/yen /brokenbar /section /dieresis /copyright
/ordfeminine /guillemotleft /logicalnot /sfthyphen /registered
/macron /degree /plusminus /twosuperior /threesuperior
/acute /mu /paragraph /middot /cedilla
/onesuperior /ordmasculine /guillemotright /onequarter /onehalf
/threequarters /questiondown /Agrave /Aacute /Acircumflex
/Atilde /Adieresis /Aring /AE /Ccedilla
/Egrave /Eacute /Ecircumflex /Edieresis /Igrave
/Iacute /Icircumflex /Idieresis /Eth /Ntilde
/Ograve /Oacute /Ocircumflex /Otilde /Odieresis
/multiply /Oslash /Ugrave /Uacute /Ucircumflex
/Udieresis /Yacute /Thorn /germandbls /agrave
/aacute /acircumflex /atilde /adieresis /aring
/ae /ccedilla /egrave /eacute /ecircumflex
/edieresis /igrave /iacute /icircumflex /idieresis
/eth /ntilde /ograve /oacute /ocircumflex
/otilde /odieresis /divide /oslash /ugrave
/uacute /ucircumflex /udieresis /yacute /thorn
/ydieresis
] def
%%EndResource
%FOPBeginFontReencode
/Courier-Oblique findfont
dup length dict begin
  {1 index /FID ne {def} {pop pop} ifelse} forall
  /Encoding WinAnsiEncoding def
  currentdict
end
/Courier-Oblique exch definefont pop
/Courier-BoldOblique findfont
dup length dict begin
  {1 index /FID ne {def} {pop pop} ifelse} forall
  /Encoding WinAnsiEncoding def
  currentdict
end
/Courier-BoldOblique exch definefont pop
/Courier-Bold findfont
dup length dict begin
  {1 index /FID ne {def} {pop pop} ifelse} forall
  /Encoding WinAnsiEncoding def
  currentdict
end
/Courier-Bold exch definefont pop
/Helvetica findfont
dup length dict begin
  {1 index /FID ne {def} {pop pop} ifelse} forall
  /Encoding WinAnsiEncoding def
  currentdict
end
/Helvetica exch definefont pop
/Helvetica-Oblique findfont
dup length dict begin
  {1 index /FID ne {def} {pop pop} ifelse} forall
  /Encoding WinAnsiEncoding def
  currentdict
end
/Helvetica-Oblique exch definefont pop
/Helvetica-Bold findfont
dup length dict begin
  {1 index /FID ne {def} {pop pop} ifelse} forall
  /Encoding WinAnsiEncoding def
  currentdict
end
/Helvetica-Bold exch definefont pop
/Helvetica-BoldOblique findfont
dup length dict begin
  {1 index /FID ne {def} {pop pop} ifelse} forall
  /Encoding WinAnsiEncoding def
  currentdict
end
/Helvetica-BoldOblique exch definefont pop
/Times-Roman findfont
dup length dict begin
  {1 index /FID ne {def} {pop pop} ifelse} forall
  /Encoding WinAnsiEncoding def
  currentdict
end
/Times-Roman exch definefont pop
/Times-Italic findfont
dup length dict begin
  {1 index /FID ne {def} {pop pop} ifelse} forall
  /Encoding WinAnsiEncoding def
  currentdict
end
/Times-Italic exch definefont pop
/Times-Bold findfont
dup length dict begin
  {1 index /FID ne {def} {pop pop} ifelse} forall
  /Encoding WinAnsiEncoding def
  currentdict
end
/Times-Bold exch definefont pop
/Times-BoldItalic findfont
dup length dict begin
  {1 index /FID ne {def} {pop pop} ifelse} forall
  /Encoding WinAnsiEncoding def
  currentdict
end
/Times-BoldItalic exch definefont pop
/Courier findfont
dup length dict begin
  {1 index /FID ne {def} {pop pop} ifelse} forall
  /Encoding WinAnsiEncoding def
  currentdict
end
/Courier exch definefont pop
%FOPEndFontReencode
%%EndProlog
%%Page: 1 1
%%PageBoundingBox: 0 0 1120 840
%%BeginPageSetup
[1 0 0 -1 0 840] CT
%%EndPageSetup
GS
1 GC
N
0 0 1120 840 re
f
GR
GS
1 GC
N
73 374 M
507 374 L
507 31.5 L
73 31.5 L
cp
f
GR
GS
0.149 GC
2 setlinecap
1 LJ
0.5 LW
N
73 374 M
507 374 L
S
GR
GS
0.149 GC
2 setlinecap
1 LJ
0.5 LW
N
73 31.5 M
507 31.5 L
S
GR
GS
0.149 GC
2 setlinecap
1 LJ
0.5 LW
N
134.976 374 M
134.976 369.66 L
S
GR
GS
0.149 GC
2 setlinecap
1 LJ
0.5 LW
N
227.53 374 M
227.53 369.66 L
S
GR
GS
0.149 GC
2 setlinecap
1 LJ
0.5 LW
N
320.084 374 M
320.084 369.66 L
S
GR
GS
0.149 GC
2 setlinecap
1 LJ
0.5 LW
N
412.638 374 M
412.638 369.66 L
S
GR
GS
0.149 GC
2 setlinecap
1 LJ
0.5 LW
N
505.192 374 M
505.192 369.66 L
S
GR
GS
0.149 GC
2 setlinecap
1 LJ
0.5 LW
N
134.976 31.5 M
134.976 35.84 L
S
GR
GS
0.149 GC
2 setlinecap
1 LJ
0.5 LW
N
227.53 31.5 M
227.53 35.84 L
S
GR
GS
0.149 GC
2 setlinecap
1 LJ
0.5 LW
N
320.084 31.5 M
320.084 35.84 L
S
GR
GS
0.149 GC
2 setlinecap
1 LJ
0.5 LW
N
412.638 31.5 M
412.638 35.84 L
S
GR
GS
0.149 GC
2 setlinecap
1 LJ
0.5 LW
N
505.192 31.5 M
505.192 35.84 L
S
GR
GS
0.149 GC
2 setlinecap
1 LJ
0.5 LW
N
79.444 374 M
79.444 371.83 L
S
GR
GS
0.149 GC
2 setlinecap
1 LJ
0.5 LW
N
97.955 374 M
97.955 371.83 L
S
GR
GS
0.149 GC
2 setlinecap
1 LJ
0.5 LW
N
116.465 374 M
116.465 371.83 L
S
GR
GS
0.149 GC
2 setlinecap
1 LJ
0.5 LW
N
153.487 374 M
153.487 371.83 L
S
GR
GS
0.149 GC
2 setlinecap
1 LJ
0.5 LW
N
171.998 374 M
171.998 371.83 L
S
GR
GS
0.149 GC
2 setlinecap
1 LJ
0.5 LW
N
190.509 374 M
190.509 371.83 L
S
GR
GS
0.149 GC
2 setlinecap
1 LJ
0.5 LW
N
209.019 374 M
209.019 371.83 L
S
GR
GS
0.149 GC
2 setlinecap
1 LJ
0.5 LW
N
246.041 374 M
246.041 371.83 L
S
GR
GS
0.149 GC
2 setlinecap
1 LJ
0.5 LW
N
264.552 374 M
264.552 371.83 L
S
GR
GS
0.149 GC
2 setlinecap
1 LJ
0.5 LW
N
283.063 374 M
283.063 371.83 L
S
GR
GS
0.149 GC
2 setlinecap
1 LJ
0.5 LW
N
301.573 374 M
301.573 371.83 L
S
GR
GS
0.149 GC
2 setlinecap
1 LJ
0.5 LW
N
338.595 374 M
338.595 371.83 L
S
GR
GS
0.149 GC
2 setlinecap
1 LJ
0.5 LW
N
357.106 374 M
357.106 371.83 L
S
GR
GS
0.149 GC
2 setlinecap
1 LJ
0.5 LW
N
375.616 374 M
375.616 371.83 L
S
GR
GS
0.149 GC
2 setlinecap
1 LJ
0.5 LW
N
394.127 374 M
394.127 371.83 L
S
GR
GS
0.149 GC
2 setlinecap
1 LJ
0.5 LW
N
431.149 374 M
431.149 371.83 L
S
GR
GS
0.149 GC
2 setlinecap
1 LJ
0.5 LW
N
449.66 374 M
449.66 371.83 L
S
GR
GS
0.149 GC
2 setlinecap
1 LJ
0.5 LW
N
468.17 374 M
468.17 371.83 L
S
GR
GS
0.149 GC
2 setlinecap
1 LJ
0.5 LW
N
486.681 374 M
486.681 371.83 L
S
GR
GS
0.149 GC
2 setlinecap
1 LJ
0.5 LW
N
79.444 31.5 M
79.444 33.67 L
S
GR
GS
0.149 GC
2 setlinecap
1 LJ
0.5 LW
N
97.955 31.5 M
97.955 33.67 L
S
GR
GS
0.149 GC
2 setlinecap
1 LJ
0.5 LW
N
116.465 31.5 M
116.465 33.67 L
S
GR
GS
0.149 GC
2 setlinecap
1 LJ
0.5 LW
N
153.487 31.5 M
153.487 33.67 L
S
GR
GS
0.149 GC
2 setlinecap
1 LJ
0.5 LW
N
171.998 31.5 M
171.998 33.67 L
S
GR
GS
0.149 GC
2 setlinecap
1 LJ
0.5 LW
N
190.509 31.5 M
190.509 33.67 L
S
GR
GS
0.149 GC
2 setlinecap
1 LJ
0.5 LW
N
209.019 31.5 M
209.019 33.67 L
S
GR
GS
0.149 GC
2 setlinecap
1 LJ
0.5 LW
N
246.041 31.5 M
246.041 33.67 L
S
GR
GS
0.149 GC
2 setlinecap
1 LJ
0.5 LW
N
264.552 31.5 M
264.552 33.67 L
S
GR
GS
0.149 GC
2 setlinecap
1 LJ
0.5 LW
N
283.063 31.5 M
283.063 33.67 L
S
GR
GS
0.149 GC
2 setlinecap
1 LJ
0.5 LW
N
301.573 31.5 M
301.573 33.67 L
S
GR
GS
0.149 GC
2 setlinecap
1 LJ
0.5 LW
N
338.595 31.5 M
338.595 33.67 L
S
GR
GS
0.149 GC
2 setlinecap
1 LJ
0.5 LW
N
357.106 31.5 M
357.106 33.67 L
S
GR
GS
0.149 GC
2 setlinecap
1 LJ
0.5 LW
N
375.616 31.5 M
375.616 33.67 L
S
GR
GS
0.149 GC
2 setlinecap
1 LJ
0.5 LW
N
394.127 31.5 M
394.127 33.67 L
S
GR
GS
0.149 GC
2 setlinecap
1 LJ
0.5 LW
N
431.149 31.5 M
431.149 33.67 L
S
GR
GS
0.149 GC
2 setlinecap
1 LJ
0.5 LW
N
449.66 31.5 M
449.66 33.67 L
S
GR
GS
0.149 GC
2 setlinecap
1 LJ
0.5 LW
N
468.17 31.5 M
468.17 33.67 L
S
GR
GS
0.149 GC
2 setlinecap
1 LJ
0.5 LW
N
486.681 31.5 M
486.681 33.67 L
S
GR
GS
[1 0 0 1 134.97626 378.80011] CT
0.149 GC
/Helvetica 14 F
GS
[1 0 0 1 0 0] CT
-12 14 moveto 
1 -1 scale
(500) t 
GR
GR
GS
[1 0 0 1 227.53017 378.80011] CT
0.149 GC
/Helvetica 14 F
GS
[1 0 0 1 0 0] CT
-16 14 moveto 
1 -1 scale
(1000) t 
GR
GR
GS
[1 0 0 1 320.08408 378.80011] CT
0.149 GC
/Helvetica 14 F
GS
[1 0 0 1 0 0] CT
-16 14 moveto 
1 -1 scale
(1500) t 
GR
GR
GS
[1 0 0 1 412.63797 378.80011] CT
0.149 GC
/Helvetica 14 F
GS
[1 0 0 1 0 0] CT
-16 14 moveto 
1 -1 scale
(2000) t 
GR
GR
GS
[1 0 0 1 505.19186 378.80011] CT
0.149 GC
/Helvetica 14 F
GS
[1 0 0 1 0 0] CT
-16 14 moveto 
1 -1 scale
(2500) t 
GR
GR
GS
[1 0 0 1 290.00021 396.30014] CT
0.149 GC
/Helvetica 15.4 F
GS
[1 0 0 1 0 0] CT
-42 15 moveto 
1 -1 scale
(Bitrate\(kb/s\)) t 
GR
GR
GS
0.149 GC
2 setlinecap
1 LJ
0.5 LW
N
73 374 M
73 31.5 L
S
GR
GS
0.149 GC
2 setlinecap
1 LJ
0.5 LW
N
507 374 M
507 31.5 L
S
GR
GS
0.149 GC
2 setlinecap
1 LJ
0.5 LW
N
73 338.165 M
77.34 338.165 L
S
GR
GS
0.149 GC
2 setlinecap
1 LJ
0.5 LW
N
73 298.412 M
77.34 298.412 L
S
GR
GS
0.149 GC
2 setlinecap
1 LJ
0.5 LW
N
73 258.66 M
77.34 258.66 L
S
GR
GS
0.149 GC
2 setlinecap
1 LJ
0.5 LW
N
73 218.907 M
77.34 218.907 L
S
GR
GS
0.149 GC
2 setlinecap
1 LJ
0.5 LW
N
73 179.154 M
77.34 179.154 L
S
GR
GS
0.149 GC
2 setlinecap
1 LJ
0.5 LW
N
73 139.401 M
77.34 139.401 L
S
GR
GS
0.149 GC
2 setlinecap
1 LJ
0.5 LW
N
73 99.648 M
77.34 99.648 L
S
GR
GS
0.149 GC
2 setlinecap
1 LJ
0.5 LW
N
73 59.895 M
77.34 59.895 L
S
GR
GS
0.149 GC
2 setlinecap
1 LJ
0.5 LW
N
507 338.165 M
502.66 338.165 L
S
GR
GS
0.149 GC
2 setlinecap
1 LJ
0.5 LW
N
507 298.412 M
502.66 298.412 L
S
GR
GS
0.149 GC
2 setlinecap
1 LJ
0.5 LW
N
507 258.66 M
502.66 258.66 L
S
GR
GS
0.149 GC
2 setlinecap
1 LJ
0.5 LW
N
507 218.907 M
502.66 218.907 L
S
GR
GS
0.149 GC
2 setlinecap
1 LJ
0.5 LW
N
507 179.154 M
502.66 179.154 L
S
GR
GS
0.149 GC
2 setlinecap
1 LJ
0.5 LW
N
507 139.401 M
502.66 139.401 L
S
GR
GS
0.149 GC
2 setlinecap
1 LJ
0.5 LW
N
507 99.648 M
502.66 99.648 L
S
GR
GS
0.149 GC
2 setlinecap
1 LJ
0.5 LW
N
507 59.895 M
502.66 59.895 L
S
GR
GS
0.149 GC
2 setlinecap
1 LJ
0.5 LW
N
73 369.968 M
75.17 369.968 L
S
GR
GS
0.149 GC
2 setlinecap
1 LJ
0.5 LW
N
73 362.017 M
75.17 362.017 L
S
GR
GS
0.149 GC
2 setlinecap
1 LJ
0.5 LW
N
73 354.067 M
75.17 354.067 L
S
GR
GS
0.149 GC
2 setlinecap
1 LJ
0.5 LW
N
73 346.116 M
75.17 346.116 L
S
GR
GS
0.149 GC
2 setlinecap
1 LJ
0.5 LW
N
73 330.215 M
75.17 330.215 L
S
GR
GS
0.149 GC
2 setlinecap
1 LJ
0.5 LW
N
73 322.264 M
75.17 322.264 L
S
GR
GS
0.149 GC
2 setlinecap
1 LJ
0.5 LW
N
73 314.314 M
75.17 314.314 L
S
GR
GS
0.149 GC
2 setlinecap
1 LJ
0.5 LW
N
73 306.363 M
75.17 306.363 L
S
GR
GS
0.149 GC
2 setlinecap
1 LJ
0.5 LW
N
73 290.462 M
75.17 290.462 L
S
GR
GS
0.149 GC
2 setlinecap
1 LJ
0.5 LW
N
73 282.511 M
75.17 282.511 L
S
GR
GS
0.149 GC
2 setlinecap
1 LJ
0.5 LW
N
73 274.561 M
75.17 274.561 L
S
GR
GS
0.149 GC
2 setlinecap
1 LJ
0.5 LW
N
73 266.61 M
75.17 266.61 L
S
GR
GS
0.149 GC
2 setlinecap
1 LJ
0.5 LW
N
73 250.709 M
75.17 250.709 L
S
GR
GS
0.149 GC
2 setlinecap
1 LJ
0.5 LW
N
73 242.758 M
75.17 242.758 L
S
GR
GS
0.149 GC
2 setlinecap
1 LJ
0.5 LW
N
73 234.808 M
75.17 234.808 L
S
GR
GS
0.149 GC
2 setlinecap
1 LJ
0.5 LW
N
73 226.857 M
75.17 226.857 L
S
GR
GS
0.149 GC
2 setlinecap
1 LJ
0.5 LW
N
73 210.956 M
75.17 210.956 L
S
GR
GS
0.149 GC
2 setlinecap
1 LJ
0.5 LW
N
73 203.005 M
75.17 203.005 L
S
GR
GS
0.149 GC
2 setlinecap
1 LJ
0.5 LW
N
73 195.055 M
75.17 195.055 L
S
GR
GS
0.149 GC
2 setlinecap
1 LJ
0.5 LW
N
73 187.104 M
75.17 187.104 L
S
GR
GS
0.149 GC
2 setlinecap
1 LJ
0.5 LW
N
73 171.203 M
75.17 171.203 L
S
GR
GS
0.149 GC
2 setlinecap
1 LJ
0.5 LW
N
73 163.252 M
75.17 163.252 L
S
GR
GS
0.149 GC
2 setlinecap
1 LJ
0.5 LW
N
73 155.302 M
75.17 155.302 L
S
GR
GS
0.149 GC
2 setlinecap
1 LJ
0.5 LW
N
73 147.351 M
75.17 147.351 L
S
GR
GS
0.149 GC
2 setlinecap
1 LJ
0.5 LW
N
73 131.45 M
75.17 131.45 L
S
GR
GS
0.149 GC
2 setlinecap
1 LJ
0.5 LW
N
73 123.5 M
75.17 123.5 L
S
GR
GS
0.149 GC
2 setlinecap
1 LJ
0.5 LW
N
73 115.549 M
75.17 115.549 L
S
GR
GS
0.149 GC
2 setlinecap
1 LJ
0.5 LW
N
73 107.598 M
75.17 107.598 L
S
GR
GS
0.149 GC
2 setlinecap
1 LJ
0.5 LW
N
73 91.697 M
75.17 91.697 L
S
GR
GS
0.149 GC
2 setlinecap
1 LJ
0.5 LW
N
73 83.747 M
75.17 83.747 L
S
GR
GS
0.149 GC
2 setlinecap
1 LJ
0.5 LW
N
73 75.796 M
75.17 75.796 L
S
GR
GS
0.149 GC
2 setlinecap
1 LJ
0.5 LW
N
73 67.846 M
75.17 67.846 L
S
GR
GS
0.149 GC
2 setlinecap
1 LJ
0.5 LW
N
73 51.944 M
75.17 51.944 L
S
GR
GS
0.149 GC
2 setlinecap
1 LJ
0.5 LW
N
73 43.994 M
75.17 43.994 L
S
GR
GS
0.149 GC
2 setlinecap
1 LJ
0.5 LW
N
73 36.043 M
75.17 36.043 L
S
GR
GS
0.149 GC
2 setlinecap
1 LJ
0.5 LW
N
507 369.968 M
504.83 369.968 L
S
GR
GS
0.149 GC
2 setlinecap
1 LJ
0.5 LW
N
507 362.017 M
504.83 362.017 L
S
GR
GS
0.149 GC
2 setlinecap
1 LJ
0.5 LW
N
507 354.067 M
504.83 354.067 L
S
GR
GS
0.149 GC
2 setlinecap
1 LJ
0.5 LW
N
507 346.116 M
504.83 346.116 L
S
GR
GS
0.149 GC
2 setlinecap
1 LJ
0.5 LW
N
507 330.215 M
504.83 330.215 L
S
GR
GS
0.149 GC
2 setlinecap
1 LJ
0.5 LW
N
507 322.264 M
504.83 322.264 L
S
GR
GS
0.149 GC
2 setlinecap
1 LJ
0.5 LW
N
507 314.314 M
504.83 314.314 L
S
GR
GS
0.149 GC
2 setlinecap
1 LJ
0.5 LW
N
507 306.363 M
504.83 306.363 L
S
GR
GS
0.149 GC
2 setlinecap
1 LJ
0.5 LW
N
507 290.462 M
504.83 290.462 L
S
GR
GS
0.149 GC
2 setlinecap
1 LJ
0.5 LW
N
507 282.511 M
504.83 282.511 L
S
GR
GS
0.149 GC
2 setlinecap
1 LJ
0.5 LW
N
507 274.561 M
504.83 274.561 L
S
GR
GS
0.149 GC
2 setlinecap
1 LJ
0.5 LW
N
507 266.61 M
504.83 266.61 L
S
GR
GS
0.149 GC
2 setlinecap
1 LJ
0.5 LW
N
507 250.709 M
504.83 250.709 L
S
GR
GS
0.149 GC
2 setlinecap
1 LJ
0.5 LW
N
507 242.758 M
504.83 242.758 L
S
GR
GS
0.149 GC
2 setlinecap
1 LJ
0.5 LW
N
507 234.808 M
504.83 234.808 L
S
GR
GS
0.149 GC
2 setlinecap
1 LJ
0.5 LW
N
507 226.857 M
504.83 226.857 L
S
GR
GS
0.149 GC
2 setlinecap
1 LJ
0.5 LW
N
507 210.956 M
504.83 210.956 L
S
GR
GS
0.149 GC
2 setlinecap
1 LJ
0.5 LW
N
507 203.005 M
504.83 203.005 L
S
GR
GS
0.149 GC
2 setlinecap
1 LJ
0.5 LW
N
507 195.055 M
504.83 195.055 L
S
GR
GS
0.149 GC
2 setlinecap
1 LJ
0.5 LW
N
507 187.104 M
504.83 187.104 L
S
GR
GS
0.149 GC
2 setlinecap
1 LJ
0.5 LW
N
507 171.203 M
504.83 171.203 L
S
GR
GS
0.149 GC
2 setlinecap
1 LJ
0.5 LW
N
507 163.252 M
504.83 163.252 L
S
GR
GS
0.149 GC
2 setlinecap
1 LJ
0.5 LW
N
507 155.302 M
504.83 155.302 L
S
GR
GS
0.149 GC
2 setlinecap
1 LJ
0.5 LW
N
507 147.351 M
504.83 147.351 L
S
GR
GS
0.149 GC
2 setlinecap
1 LJ
0.5 LW
N
507 131.45 M
504.83 131.45 L
S
GR
GS
0.149 GC
2 setlinecap
1 LJ
0.5 LW
N
507 123.5 M
504.83 123.5 L
S
GR
GS
0.149 GC
2 setlinecap
1 LJ
0.5 LW
N
507 115.549 M
504.83 115.549 L
S
GR
GS
0.149 GC
2 setlinecap
1 LJ
0.5 LW
N
507 107.598 M
504.83 107.598 L
S
GR
GS
0.149 GC
2 setlinecap
1 LJ
0.5 LW
N
507 91.697 M
504.83 91.697 L
S
GR
GS
0.149 GC
2 setlinecap
1 LJ
0.5 LW
N
507 83.747 M
504.83 83.747 L
S
GR
GS
0.149 GC
2 setlinecap
1 LJ
0.5 LW
N
507 75.796 M
504.83 75.796 L
S
GR
GS
0.149 GC
2 setlinecap
1 LJ
0.5 LW
N
507 67.846 M
504.83 67.846 L
S
GR
GS
0.149 GC
2 setlinecap
1 LJ
0.5 LW
N
507 51.944 M
504.83 51.944 L
S
GR
GS
0.149 GC
2 setlinecap
1 LJ
0.5 LW
N
507 43.994 M
504.83 43.994 L
S
GR
GS
0.149 GC
2 setlinecap
1 LJ
0.5 LW
N
507 36.043 M
504.83 36.043 L
S
GR
GS
[1 0 0 1 68.2 338.16537] CT
0.149 GC
/Helvetica 14 F
GS
[1 0 0 1 0 0] CT
-16 5.5 moveto 
1 -1 scale
(48) t 
GR
GR
GS
[1 0 0 1 68.2 298.41245] CT
0.149 GC
/Helvetica 14 F
GS
[1 0 0 1 0 0] CT
-16 5.5 moveto 
1 -1 scale
(49) t 
GR
GR
GS
[1 0 0 1 68.2 258.65955] CT
0.149 GC
/Helvetica 14 F
GS
[1 0 0 1 0 0] CT
-16 5.5 moveto 
1 -1 scale
(50) t 
GR
GR
GS
[1 0 0 1 68.2 218.90662] CT
0.149 GC
/Helvetica 14 F
GS
[1 0 0 1 0 0] CT
-16 5.5 moveto 
1 -1 scale
(51) t 
GR
GR
GS
[1 0 0 1 68.2 179.1537] CT
0.149 GC
/Helvetica 14 F
GS
[1 0 0 1 0 0] CT
-16 5.5 moveto 
1 -1 scale
(52) t 
GR
GR
GS
[1 0 0 1 68.2 139.40079] CT
0.149 GC
/Helvetica 14 F
GS
[1 0 0 1 0 0] CT
-16 5.5 moveto 
1 -1 scale
(53) t 
GR
GR
GS
[1 0 0 1 68.2 99.64787] CT
0.149 GC
/Helvetica 14 F
GS
[1 0 0 1 0 0] CT
-16 5.5 moveto 
1 -1 scale
(54) t 
GR
GR
GS
[1 0 0 1 68.2 59.89495] CT
0.149 GC
/Helvetica 14 F
GS
[1 0 0 1 0 0] CT
-16 5.5 moveto 
1 -1 scale
(55) t 
GR
GR
GS
[0 -1 1 0 49.2 202.74986] CT
0.149 GC
/Helvetica 15.4 F
GS
[1 0 0 1 0 0] CT
-49.5 -4 moveto 
1 -1 scale
(APSNR-V \(dB\)) t 
GR
GR
GS
[1 0 0 1 290.00031 29.57498] CT
/Helvetica-Bold 15.4 F
GS
[1 0 0 1 0 0] CT
-136.5 -4 moveto 
1 -1 scale
(Skater227_1920x1080_30fps.y4m-av1) t 
GR
GR
GS
0 0.447 0.741 RC
1 LJ
0.5 LW
N
77.55 336.848 M
81.252 323.939 L
84.954 311.3 L
88.656 299.151 L
92.359 287.711 L
96.061 277.203 L
99.763 267.846 L
103.465 259.754 L
107.167 252.197 L
110.869 244.988 L
114.571 238.114 L
118.274 231.562 L
121.976 225.321 L
125.678 219.378 L
129.38 213.722 L
133.082 208.34 L
136.784 203.219 L
140.487 198.348 L
144.189 193.715 L
147.891 189.307 L
151.593 185.112 L
155.295 181.113 L
158.997 177.219 L
162.699 173.402 L
166.402 169.663 L
170.104 166.003 L
173.806 162.422 L
177.508 158.921 L
181.21 155.502 L
184.912 152.165 L
188.615 148.911 L
192.317 145.741 L
196.019 142.656 L
199.721 139.656 L
203.423 136.743 L
207.125 133.918 L
210.828 131.18 L
214.53 128.532 L
218.232 125.974 L
221.934 123.507 L
225.636 121.131 L
229.338 118.849 L
233.04 116.66 L
236.743 114.565 L
240.445 112.565 L
244.147 110.662 L
247.849 108.856 L
251.551 107.141 L
255.253 105.448 L
258.956 103.759 L
262.658 102.076 L
266.36 100.398 L
270.062 98.726 L
273.764 97.061 L
277.466 95.403 L
281.168 93.754 L
284.871 92.112 L
288.573 90.48 L
292.275 88.858 L
295.977 87.246 L
299.679 85.645 L
303.381 84.055 L
307.084 82.478 L
310.786 80.913 L
314.488 79.361 L
318.19 77.824 L
321.892 76.3 L
325.594 74.792 L
329.297 73.299 L
332.999 71.822 L
336.701 70.363 L
340.403 68.92 L
344.105 67.496 L
347.807 66.09 L
351.509 64.703 L
355.212 63.336 L
358.914 61.989 L
362.616 60.663 L
366.318 59.358 L
370.02 58.076 L
373.722 56.816 L
377.425 55.579 L
381.127 54.367 L
384.829 53.178 L
388.531 52.015 L
392.233 50.877 L
395.935 49.766 L
399.637 48.681 L
403.34 47.623 L
407.042 46.594 L
410.744 45.593 L
414.446 44.621 L
418.148 43.678 L
421.85 42.766 L
425.553 41.885 L
429.255 41.036 L
432.957 40.218 L
436.659 39.433 L
440.361 38.681 L
444.063 37.963 L
447.766 37.28 L
451.468 36.631 L
455.17 36.018 L
458.872 35.442 L
462.574 34.901 L
466.276 34.399 L
469.978 33.934 L
473.681 33.507 L
477.383 33.12 L
481.085 32.773 L
484.787 32.465 L
488.489 32.199 L
492.191 31.974 L
495.894 31.791 L
499.596 31.651 L
503.298 31.553 L
507 31.5 L
S
GR
GS
0.851 0.325 0.098 RC
1 LJ
0.5 LW
N
73.317 356.072 M
77.019 340.787 L
80.721 325.923 L
84.423 311.833 L
88.125 298.866 L
91.828 287.372 L
95.53 277.6 L
99.232 268.606 L
102.934 260.067 L
106.636 251.972 L
110.338 244.308 L
114.041 237.064 L
117.743 230.229 L
121.445 223.79 L
125.147 217.737 L
128.849 212.057 L
132.551 206.739 L
136.253 201.771 L
139.956 197.136 L
143.658 192.685 L
147.36 188.356 L
151.062 184.148 L
154.764 180.061 L
158.466 176.095 L
162.169 172.247 L
165.871 168.518 L
169.573 164.907 L
173.275 161.413 L
176.977 158.034 L
180.679 154.771 L
184.381 151.623 L
188.084 148.588 L
191.786 145.667 L
195.488 142.857 L
199.19 140.159 L
202.892 137.572 L
206.594 135.094 L
210.297 132.725 L
213.999 130.465 L
217.701 128.312 L
221.403 126.266 L
225.105 124.291 L
228.807 122.321 L
232.509 120.356 L
236.212 118.395 L
239.914 116.441 L
243.616 114.494 L
247.318 112.555 L
251.02 110.625 L
254.722 108.706 L
258.425 106.797 L
262.127 104.901 L
265.829 103.018 L
269.531 101.148 L
273.233 99.294 L
276.935 97.456 L
280.638 95.634 L
284.34 93.831 L
288.042 92.046 L
291.744 90.281 L
295.446 88.538 L
299.148 86.815 L
302.85 85.116 L
306.553 83.441 L
310.255 81.79 L
313.957 80.165 L
317.659 78.567 L
321.361 76.996 L
325.063 75.454 L
328.766 73.941 L
332.468 72.459 L
336.17 71.009 L
339.872 69.591 L
343.574 68.207 L
347.276 66.857 L
350.978 65.543 L
354.681 64.265 L
358.383 63.024 L
362.085 61.822 L
365.787 60.659 L
369.489 59.537 L
373.191 58.455 L
376.894 57.416 L
380.596 56.421 L
384.298 55.469 L
388 54.563 L
391.702 53.703 L
395.404 52.89 L
399.107 52.125 L
402.809 51.409 L
406.511 50.743 L
410.213 50.129 L
413.915 49.566 L
417.617 49.056 L
421.319 48.601 L
425.022 48.2 L
428.724 47.855 L
432.426 47.567 L
436.128 47.337 L
439.83 47.165 L
443.532 47.054 L
447.235 47.003 L
S
GR
GS
0.929 0.694 0.125 RC
1 LJ
0.5 LW
N
77.007 341.443 M
80.709 328.17 L
84.411 315.182 L
88.113 302.709 L
91.815 290.978 L
95.517 280.22 L
99.219 270.664 L
102.922 262.334 L
106.624 254.444 L
110.326 246.888 L
114.028 239.659 L
117.73 232.755 L
121.432 226.171 L
125.135 219.901 L
128.837 213.943 L
132.539 208.292 L
136.241 202.943 L
139.943 197.893 L
143.645 193.135 L
147.348 188.668 L
151.05 184.485 L
154.752 180.541 L
158.454 176.706 L
162.156 172.969 L
165.858 169.329 L
169.56 165.785 L
173.263 162.336 L
176.965 158.981 L
180.667 155.719 L
184.369 152.549 L
188.071 149.47 L
191.773 146.48 L
195.476 143.58 L
199.178 140.768 L
202.88 138.042 L
206.582 135.402 L
210.284 132.847 L
213.986 130.376 L
217.688 127.988 L
221.391 125.681 L
225.093 123.455 L
228.795 121.308 L
232.497 119.24 L
236.199 117.25 L
239.901 115.336 L
243.604 113.498 L
247.306 111.734 L
251.008 110.011 L
254.71 108.29 L
258.412 106.571 L
262.114 104.856 L
265.816 103.144 L
269.519 101.437 L
273.221 99.736 L
276.923 98.04 L
280.625 96.35 L
284.327 94.668 L
288.029 92.994 L
291.732 91.328 L
295.434 89.672 L
299.136 88.026 L
302.838 86.39 L
306.54 84.765 L
310.242 83.153 L
313.945 81.553 L
317.647 79.967 L
321.349 78.394 L
325.051 76.836 L
328.753 75.294 L
332.455 73.768 L
336.157 72.258 L
339.86 70.766 L
343.562 69.292 L
347.264 67.836 L
350.966 66.4 L
354.668 64.984 L
358.37 63.589 L
362.073 62.215 L
365.775 60.864 L
369.477 59.535 L
373.179 58.229 L
376.881 56.948 L
380.583 55.692 L
384.285 54.461 L
387.988 53.256 L
391.69 52.078 L
395.392 50.928 L
399.094 49.806 L
402.796 48.712 L
406.498 47.649 L
410.201 46.615 L
413.903 45.613 L
417.605 44.642 L
421.307 43.703 L
425.009 42.797 L
428.711 41.925 L
432.413 41.087 L
436.116 40.284 L
439.818 39.517 L
443.52 38.786 L
447.222 38.092 L
450.924 37.435 L
454.626 36.817 L
458.329 36.238 L
462.031 35.699 L
465.733 35.2 L
469.435 34.742 L
473.137 34.326 L
476.839 33.952 L
480.542 33.621 L
484.244 33.334 L
487.946 33.092 L
491.648 32.894 L
495.35 32.743 L
499.052 32.637 L
502.754 32.579 L
S
GR
GS
0.494 0.184 0.557 RC
1 LJ
0.5 LW
N
74.852 366.782 M
78.554 351.043 L
82.257 335.677 L
85.959 321.036 L
89.661 307.469 L
93.363 295.329 L
97.065 284.965 L
100.767 275.928 L
104.469 267.354 L
108.172 259.225 L
111.874 251.525 L
115.576 244.239 L
119.278 237.352 L
122.98 230.847 L
126.682 224.709 L
130.385 218.924 L
134.087 213.474 L
137.789 208.346 L
141.491 203.522 L
145.193 198.988 L
148.895 194.689 L
152.597 190.506 L
156.3 186.431 L
160.002 182.462 L
163.704 178.599 L
167.406 174.841 L
171.108 171.187 L
174.81 167.636 L
178.513 164.188 L
182.215 160.841 L
185.917 157.594 L
189.619 154.448 L
193.321 151.4 L
197.023 148.45 L
200.726 145.597 L
204.428 142.84 L
208.13 140.178 L
211.832 137.611 L
215.534 135.137 L
219.236 132.756 L
222.938 130.466 L
226.641 128.267 L
230.343 126.159 L
234.045 124.139 L
237.747 122.207 L
241.449 120.347 L
245.151 118.496 L
248.854 116.648 L
252.556 114.804 L
256.258 112.966 L
259.96 111.133 L
263.662 109.306 L
267.364 107.486 L
271.066 105.674 L
274.769 103.871 L
278.471 102.076 L
282.173 100.292 L
285.875 98.519 L
289.577 96.756 L
293.279 95.006 L
296.982 93.269 L
300.684 91.546 L
304.386 89.837 L
308.088 88.142 L
311.79 86.464 L
315.492 84.802 L
319.195 83.157 L
322.897 81.53 L
326.599 79.922 L
330.301 78.334 L
334.003 76.765 L
337.705 75.217 L
341.407 73.691 L
345.11 72.187 L
348.812 70.707 L
352.514 69.249 L
356.216 67.817 L
359.918 66.409 L
363.62 65.028 L
367.323 63.673 L
371.025 62.345 L
374.727 61.046 L
378.429 59.775 L
382.131 58.534 L
385.833 57.323 L
389.535 56.144 L
393.238 54.996 L
396.94 53.88 L
400.642 52.798 L
404.344 51.749 L
408.046 50.735 L
411.748 49.757 L
415.451 48.814 L
419.153 47.909 L
422.855 47.04 L
426.557 46.211 L
430.259 45.42 L
433.961 44.668 L
437.664 43.958 L
441.366 43.288 L
445.068 42.66 L
448.77 42.075 L
452.472 41.533 L
456.174 41.036 L
459.876 40.583 L
463.579 40.175 L
467.281 39.814 L
470.983 39.5 L
474.685 39.233 L
478.387 39.015 L
482.089 38.846 L
485.792 38.727 L
489.494 38.658 L
S
GR
GS
0.467 0.675 0.188 RC
1 LJ
0.5 LW
N
73.716 374 M
77.418 357.306 L
81.12 341.031 L
84.822 325.611 L
88.525 311.481 L
92.227 299.08 L
95.929 288.815 L
99.631 279.743 L
103.333 271.203 L
107.035 263.168 L
110.738 255.611 L
114.44 248.504 L
118.142 241.82 L
121.844 235.533 L
125.546 229.614 L
129.248 224.036 L
132.95 218.772 L
136.653 213.795 L
140.355 209.077 L
144.057 204.587 L
147.759 200.235 L
151.461 195.987 L
155.163 191.845 L
158.866 187.807 L
162.568 183.873 L
166.27 180.044 L
169.972 176.318 L
173.674 172.696 L
177.376 169.176 L
181.078 165.759 L
184.781 162.444 L
188.483 159.231 L
192.185 156.12 L
195.887 153.11 L
199.589 150.201 L
203.291 147.392 L
206.994 144.684 L
210.696 142.075 L
214.398 139.566 L
218.1 137.156 L
221.802 134.845 L
225.504 132.632 L
229.206 130.518 L
232.909 128.501 L
236.611 126.558 L
240.313 124.623 L
244.015 122.691 L
247.717 120.764 L
251.419 118.841 L
255.122 116.925 L
258.824 115.016 L
262.526 113.114 L
266.228 111.221 L
269.93 109.336 L
273.632 107.462 L
277.335 105.598 L
281.037 103.746 L
284.739 101.906 L
288.441 100.079 L
292.143 98.265 L
295.845 96.467 L
299.547 94.683 L
303.25 92.916 L
306.952 91.166 L
310.654 89.433 L
314.356 87.719 L
318.058 86.024 L
321.76 84.349 L
325.463 82.695 L
329.165 81.062 L
332.867 79.452 L
336.569 77.865 L
340.271 76.301 L
343.973 74.763 L
347.676 73.25 L
351.378 71.763 L
355.08 70.303 L
358.782 68.871 L
362.484 67.468 L
366.186 66.094 L
369.888 64.75 L
373.591 63.437 L
377.293 62.155 L
380.995 60.906 L
384.697 59.691 L
388.399 58.509 L
392.101 57.362 L
395.804 56.251 L
399.506 55.176 L
403.208 54.139 L
406.91 53.139 L
410.612 52.178 L
414.314 51.256 L
418.016 50.375 L
421.719 49.534 L
425.421 48.736 L
429.123 47.98 L
432.825 47.267 L
436.527 46.599 L
440.229 45.975 L
443.932 45.398 L
447.634 44.866 L
451.336 44.382 L
455.038 43.946 L
458.74 43.559 L
462.442 43.222 L
466.144 42.934 L
469.847 42.698 L
473.549 42.514 L
477.251 42.383 L
480.953 42.305 L
S
GR
GS
0.302 0.745 0.933 RC
[10 6] 0 setdash
2 LJ
0.5 LW
N
73 362.675 M
76.702 346.49 L
80.404 330.763 L
84.106 315.895 L
87.809 302.289 L
91.511 290.346 L
95.213 280.323 L
98.915 271.134 L
102.617 262.458 L
106.319 254.272 L
110.022 246.556 L
113.724 239.288 L
117.426 232.448 L
121.128 226.013 L
124.83 219.963 L
128.532 214.277 L
132.234 208.934 L
135.937 203.912 L
139.639 199.179 L
143.341 194.596 L
147.043 190.131 L
150.745 185.784 L
154.447 181.555 L
158.15 177.445 L
161.852 173.454 L
165.554 169.583 L
169.256 165.832 L
172.958 162.201 L
176.66 158.692 L
180.363 155.305 L
184.065 152.04 L
187.767 148.897 L
191.469 145.877 L
195.171 142.981 L
198.873 140.21 L
202.575 137.562 L
206.278 135.04 L
209.98 132.643 L
213.682 130.373 L
217.384 128.228 L
221.086 126.202 L
224.788 124.204 L
228.491 122.211 L
232.193 120.226 L
235.895 118.248 L
239.597 116.279 L
243.299 114.32 L
247.001 112.371 L
250.704 110.434 L
254.406 108.51 L
258.108 106.599 L
261.81 104.703 L
265.512 102.822 L
269.214 100.957 L
272.916 99.11 L
276.619 97.281 L
280.321 95.472 L
284.023 93.683 L
287.725 91.915 L
291.427 90.17 L
295.129 88.447 L
298.832 86.749 L
302.534 85.076 L
306.236 83.429 L
309.938 81.809 L
313.64 80.217 L
317.342 78.654 L
321.044 77.121 L
324.747 75.619 L
328.449 74.149 L
332.151 72.711 L
335.853 71.308 L
339.555 69.939 L
343.257 68.606 L
346.96 67.309 L
350.662 66.05 L
354.364 64.83 L
358.066 63.65 L
361.768 62.509 L
365.47 61.411 L
369.172 60.355 L
372.875 59.342 L
376.577 58.374 L
380.279 57.451 L
383.981 56.575 L
387.683 55.745 L
391.385 54.964 L
395.088 54.233 L
398.79 53.551 L
402.492 52.92 L
406.194 52.342 L
409.896 51.817 L
413.598 51.346 L
417.301 50.929 L
421.003 50.569 L
424.705 50.266 L
428.407 50.021 L
432.109 49.834 L
435.811 49.707 L
439.513 49.641 L
S
GR
GS
0.635 0.078 0.184 RC
[10 6] 0 setdash
2 LJ
0.5 LW
N
76.948 340.407 M
80.65 327.418 L
84.352 314.709 L
88.055 302.5 L
91.757 291.012 L
95.459 280.466 L
99.161 271.081 L
102.863 262.897 L
106.565 255.165 L
110.268 247.771 L
113.97 240.707 L
117.672 233.963 L
121.374 227.532 L
125.076 221.407 L
128.778 215.579 L
132.48 210.041 L
136.183 204.784 L
139.885 199.801 L
143.587 195.083 L
147.289 190.624 L
150.991 186.413 L
154.693 182.407 L
158.396 178.496 L
162.098 174.672 L
165.8 170.937 L
169.502 167.29 L
173.204 163.732 L
176.906 160.262 L
180.608 156.88 L
184.311 153.588 L
188.013 150.383 L
191.715 147.268 L
195.417 144.241 L
199.119 141.304 L
202.821 138.455 L
206.524 135.696 L
210.226 133.025 L
213.928 130.444 L
217.63 127.952 L
221.332 125.55 L
225.034 123.237 L
228.736 121.013 L
232.439 118.88 L
236.141 116.836 L
239.843 114.881 L
243.545 113.016 L
247.247 111.241 L
250.949 109.502 L
254.652 107.767 L
258.354 106.035 L
262.056 104.308 L
265.758 102.587 L
269.46 100.871 L
273.162 99.162 L
276.865 97.46 L
280.567 95.766 L
284.269 94.081 L
287.971 92.405 L
291.673 90.738 L
295.375 89.082 L
299.077 87.437 L
302.78 85.804 L
306.482 84.182 L
310.184 82.574 L
313.886 80.98 L
317.588 79.4 L
321.29 77.835 L
324.993 76.285 L
328.695 74.751 L
332.397 73.235 L
336.099 71.735 L
339.801 70.254 L
343.503 68.792 L
347.206 67.349 L
350.908 65.926 L
354.61 64.524 L
358.312 63.143 L
362.014 61.784 L
365.716 60.447 L
369.418 59.134 L
373.121 57.845 L
376.823 56.58 L
380.525 55.34 L
384.227 54.126 L
387.929 52.939 L
391.631 51.778 L
395.334 50.646 L
399.036 49.542 L
402.738 48.466 L
406.44 47.42 L
410.142 46.405 L
413.844 45.421 L
417.546 44.468 L
421.249 43.547 L
424.951 42.659 L
428.653 41.804 L
432.355 40.984 L
436.057 40.199 L
439.759 39.448 L
443.462 38.734 L
447.164 38.057 L
450.866 37.417 L
454.568 36.815 L
458.27 36.251 L
461.972 35.727 L
465.674 35.242 L
469.377 34.798 L
473.079 34.396 L
476.781 34.035 L
480.483 33.716 L
484.185 33.441 L
487.887 33.209 L
491.59 33.022 L
495.292 32.879 L
498.994 32.783 L
502.696 32.732 L
S
GR
GS
0 0.447 0.741 RC
[10 6] 0 setdash
2 LJ
0.5 LW
N
75.312 359.95 M
79.014 344.669 L
82.716 329.74 L
86.418 315.5 L
90.12 302.281 L
93.822 290.418 L
97.524 280.246 L
101.227 271.463 L
104.929 263.151 L
108.631 255.275 L
112.333 247.818 L
116.035 240.762 L
119.737 234.089 L
123.44 227.781 L
127.142 221.82 L
130.844 216.188 L
134.546 210.866 L
138.248 205.837 L
141.95 201.083 L
145.652 196.585 L
149.355 192.312 L
153.057 188.159 L
156.759 184.103 L
160.461 180.145 L
164.163 176.284 L
167.865 172.521 L
171.568 168.855 L
175.27 165.287 L
178.972 161.815 L
182.674 158.44 L
186.376 155.161 L
190.078 151.979 L
193.781 148.893 L
197.483 145.902 L
201.185 143.008 L
204.887 140.21 L
208.589 137.506 L
212.291 134.898 L
215.993 132.386 L
219.696 129.968 L
223.398 127.645 L
227.1 125.417 L
230.802 123.283 L
234.504 121.243 L
238.206 119.297 L
241.909 117.443 L
245.611 115.617 L
249.313 113.796 L
253.015 111.978 L
256.717 110.166 L
260.419 108.36 L
264.121 106.56 L
267.824 104.767 L
271.526 102.982 L
275.228 101.206 L
278.93 99.439 L
282.632 97.682 L
286.334 95.935 L
290.037 94.2 L
293.739 92.476 L
297.441 90.766 L
301.143 89.068 L
304.845 87.385 L
308.547 85.716 L
312.249 84.063 L
315.952 82.426 L
319.654 80.806 L
323.356 79.203 L
327.058 77.619 L
330.76 76.053 L
334.462 74.507 L
338.165 72.981 L
341.867 71.476 L
345.569 69.993 L
349.271 68.532 L
352.973 67.094 L
356.675 65.68 L
360.378 64.29 L
364.08 62.925 L
367.782 61.586 L
371.484 60.274 L
375.186 58.988 L
378.888 57.731 L
382.59 56.502 L
386.293 55.302 L
389.995 54.132 L
393.697 52.993 L
397.399 51.884 L
401.101 50.808 L
404.803 49.765 L
408.506 48.755 L
412.208 47.779 L
415.91 46.838 L
419.612 45.932 L
423.314 45.062 L
427.016 44.229 L
430.719 43.433 L
434.421 42.676 L
438.123 41.957 L
441.825 41.279 L
445.527 40.64 L
449.229 40.042 L
452.931 39.486 L
456.634 38.972 L
460.336 38.501 L
464.038 38.074 L
467.74 37.691 L
471.442 37.354 L
475.144 37.062 L
478.847 36.816 L
482.549 36.618 L
486.251 36.468 L
489.953 36.366 L
493.655 36.313 L
S
GR
GS
0.851 0.325 0.098 RC
[10 6] 0 setdash
2 LJ
0.5 LW
N
73.769 373.879 M
77.471 358.037 L
81.173 342.583 L
84.875 327.883 L
88.577 314.301 L
92.279 302.204 L
95.982 291.95 L
99.684 282.837 L
103.386 274.194 L
107.088 266.004 L
110.79 258.251 L
114.492 250.919 L
118.194 243.99 L
121.897 237.449 L
125.599 231.279 L
129.301 225.464 L
133.003 219.987 L
136.705 214.832 L
140.407 209.983 L
144.11 205.422 L
147.812 201.046 L
151.514 196.784 L
155.216 192.633 L
158.918 188.592 L
162.62 184.661 L
166.322 180.839 L
170.025 177.125 L
173.727 173.517 L
177.429 170.015 L
181.131 166.617 L
184.833 163.323 L
188.535 160.132 L
192.238 157.043 L
195.94 154.054 L
199.642 151.164 L
203.344 148.373 L
207.046 145.68 L
210.748 143.083 L
214.451 140.583 L
218.153 138.176 L
221.855 135.863 L
225.557 133.643 L
229.259 131.514 L
232.961 129.476 L
236.663 127.517 L
240.366 125.572 L
244.068 123.63 L
247.77 121.691 L
251.472 119.756 L
255.174 117.827 L
258.876 115.904 L
262.579 113.987 L
266.281 112.078 L
269.983 110.178 L
273.685 108.286 L
277.387 106.405 L
281.089 104.534 L
284.791 102.675 L
288.494 100.829 L
292.196 98.996 L
295.898 97.176 L
299.6 95.372 L
303.302 93.583 L
307.004 91.811 L
310.707 90.056 L
314.409 88.319 L
318.111 86.6 L
321.813 84.902 L
325.515 83.224 L
329.217 81.567 L
332.919 79.932 L
336.622 78.32 L
340.324 76.732 L
344.026 75.169 L
347.728 73.63 L
351.43 72.118 L
355.132 70.632 L
358.835 69.175 L
362.537 67.746 L
366.239 66.346 L
369.941 64.976 L
373.643 63.637 L
377.345 62.33 L
381.048 61.056 L
384.75 59.814 L
388.452 58.607 L
392.154 57.435 L
395.856 56.299 L
399.558 55.199 L
403.26 54.137 L
406.963 53.112 L
410.665 52.127 L
414.367 51.182 L
418.069 50.277 L
421.771 49.413 L
425.473 48.592 L
429.176 47.813 L
432.878 47.079 L
436.58 46.389 L
440.282 45.744 L
443.984 45.146 L
447.686 44.595 L
451.388 44.091 L
455.091 43.636 L
458.793 43.231 L
462.495 42.875 L
466.197 42.571 L
469.899 42.319 L
473.601 42.119 L
477.304 41.973 L
481.006 41.881 L
484.708 41.844 L
S
GR
GS
1 GC
N
499 366 M
499 218.5 L
327.5 218.5 L
327.5 366 L
cp
f
GR
GS
[1 0 0 1 364.5 228.25] CT
/Helvetica 13 F
GS
[1 0 0 1 0 0] CT
0 5 moveto 
1 -1 scale
(Base Run) t 
GR
GR
GS
0 0.447 0.741 RC
1 LJ
0.5 LW
N
331.5 228.25 M
361.5 228.25 L
S
GR
GS
[1 0 0 1 364.5 244.25] CT
/Helvetica 13 F
GS
[1 0 0 1 0 0] CT
0 5 moveto 
1 -1 scale
(All Frames) t 
GR
GR
GS
0.851 0.325 0.098 RC
1 LJ
0.5 LW
N
331.5 244.25 M
361.5 244.25 L
S
GR
GS
[1 0 0 1 364.5 260.25] CT
/Helvetica 13 F
GS
[1 0 0 1 0 0] CT
0 5 moveto 
1 -1 scale
(KF Only) t 
GR
GR
GS
0.929 0.694 0.125 RC
1 LJ
0.5 LW
N
331.5 260.25 M
361.5 260.25 L
S
GR
GS
[1 0 0 1 364.5 276.25] CT
/Helvetica 13 F
GS
[1 0 0 1 0 0] CT
0 5 moveto 
1 -1 scale
(GF, ARF Only) t 
GR
GR
GS
0.494 0.184 0.557 RC
1 LJ
0.5 LW
N
331.5 276.25 M
361.5 276.25 L
S
GR
GS
[1 0 0 1 364.5 292.25] CT
/Helvetica 13 F
GS
[1 0 0 1 0 0] CT
0 5 moveto 
1 -1 scale
(KF, GF, ARF Only) t 
GR
GR
GS
0.467 0.675 0.188 RC
1 LJ
0.5 LW
N
331.5 292.25 M
361.5 292.25 L
S
GR
GS
[1 0 0 1 364.5 308.25] CT
/Helvetica 13 F
GS
[1 0 0 1 0 0] CT
0 5 moveto 
1 -1 scale
(Part All Frames) t 
GR
GR
GS
0.302 0.745 0.933 RC
[10 6] 0 setdash
2 LJ
0.5 LW
N
331.5 308.25 M
361.5 308.25 L
S
GR
GS
[1 0 0 1 364.5 324.25] CT
/Helvetica 13 F
GS
[1 0 0 1 0 0] CT
0 5 moveto 
1 -1 scale
(Part KF Only) t 
GR
GR
GS
0.635 0.078 0.184 RC
[10 6] 0 setdash
2 LJ
0.5 LW
N
331.5 324.25 M
361.5 324.25 L
S
GR
GS
[1 0 0 1 364.5 340.25] CT
/Helvetica 13 F
GS
[1 0 0 1 0 0] CT
0 5 moveto 
1 -1 scale
(Part GF, ARF Only) t 
GR
GR
GS
0 0.447 0.741 RC
[10 6] 0 setdash
2 LJ
0.5 LW
N
331.5 340.25 M
361.5 340.25 L
S
GR
GS
[1 0 0 1 364.5 356.25] CT
/Helvetica 13 F
GS
[1 0 0 1 0 0] CT
0 5 moveto 
1 -1 scale
(Part KF, GF, ARF Only) t 
GR
GR
GS
0.851 0.325 0.098 RC
[10 6] 0 setdash
2 LJ
0.5 LW
N
331.5 356.25 M
361.5 356.25 L
S
GR
GS
0.149 GC
10.0 ML
0.5 LW
N
327.5 366 M
327.5 218.5 L
499 218.5 L
499 366 L
cp
S
GR
%%Trailer
%%Pages: 1
%%EOF
