%!PS-Adobe-3.0 EPSF-3.0
%%Creator: (MATLAB, The Mathworks, Inc. Version 9.11.0.1837725 \(R2021b\) Update 2. Operating System: Mac OS X)
%%Title: plots/pchip/Skater227_1920x1080_30fps.y4m-hevc-PSNR_HVSY.eps
%%CreationDate: 2022-02-03T19:14:44
%%Pages: (atend)
%%BoundingBox:    33   425   508   826
%%LanguageLevel: 3
%%EndComments
%%BeginProlog
%%BeginResource: procset (Apache XML Graphics Std ProcSet) 1.2 0
%%Version: 1.2 0
%%Copyright: (Copyright 2001-2003,2010 The Apache Software Foundation. License terms: http://www.apache.org/licenses/LICENSE-2.0)
/bd{bind def}bind def
/ld{load def}bd
/GR/grestore ld
/GS/gsave ld
/RM/rmoveto ld
/C/curveto ld
/t/show ld
/L/lineto ld
/ML/setmiterlimit ld
/CT/concat ld
/f/fill ld
/N/newpath ld
/S/stroke ld
/CC/setcmykcolor ld
/A/ashow ld
/cp/closepath ld
/RC/setrgbcolor ld
/LJ/setlinejoin ld
/GC/setgray ld
/LW/setlinewidth ld
/M/moveto ld
/re {4 2 roll M
1 index 0 rlineto
0 exch rlineto
neg 0 rlineto
cp } bd
/_ctm matrix def
/_tm matrix def
/BT { _ctm currentmatrix pop matrix _tm copy pop 0 0 moveto } bd
/ET { _ctm setmatrix } bd
/iTm { _ctm setmatrix _tm concat } bd
/Tm { _tm astore pop iTm 0 0 moveto } bd
/ux 0.0 def
/uy 0.0 def
/F {
  /Tp exch def
  /Tf exch def
  Tf findfont Tp scalefont setfont
  /cf Tf def  /cs Tp def
} bd
/ULS {currentpoint /uy exch def /ux exch def} bd
/ULE {
  /Tcx currentpoint pop def
  gsave
  newpath
  cf findfont cs scalefont dup
  /FontMatrix get 0 get /Ts exch def /FontInfo get dup
  /UnderlinePosition get Ts mul /To exch def
  /UnderlineThickness get Ts mul /Tt exch def
  ux uy To add moveto  Tcx uy To add lineto
  Tt setlinewidth stroke
  grestore
} bd
/OLE {
  /Tcx currentpoint pop def
  gsave
  newpath
  cf findfont cs scalefont dup
  /FontMatrix get 0 get /Ts exch def /FontInfo get dup
  /UnderlinePosition get Ts mul /To exch def
  /UnderlineThickness get Ts mul /Tt exch def
  ux uy To add cs add moveto Tcx uy To add cs add lineto
  Tt setlinewidth stroke
  grestore
} bd
/SOE {
  /Tcx currentpoint pop def
  gsave
  newpath
  cf findfont cs scalefont dup
  /FontMatrix get 0 get /Ts exch def /FontInfo get dup
  /UnderlinePosition get Ts mul /To exch def
  /UnderlineThickness get Ts mul /Tt exch def
  ux uy To add cs 10 mul 26 idiv add moveto Tcx uy To add cs 10 mul 26 idiv add lineto
  Tt setlinewidth stroke
  grestore
} bd
/QT {
/Y22 exch store
/X22 exch store
/Y21 exch store
/X21 exch store
currentpoint
/Y21 load 2 mul add 3 div exch
/X21 load 2 mul add 3 div exch
/X21 load 2 mul /X22 load add 3 div
/Y21 load 2 mul /Y22 load add 3 div
/X22 load /Y22 load curveto
} bd
/SSPD {
dup length /d exch dict def
{
/v exch def
/k exch def
currentpagedevice k known {
/cpdv currentpagedevice k get def
v cpdv ne {
/upd false def
/nullv v type /nulltype eq def
/nullcpdv cpdv type /nulltype eq def
nullv nullcpdv or
{
/upd true def
} {
/sametype v type cpdv type eq def
sametype {
v type /arraytype eq {
/vlen v length def
/cpdvlen cpdv length def
vlen cpdvlen eq {
0 1 vlen 1 sub {
/i exch def
/obj v i get def
/cpdobj cpdv i get def
obj cpdobj ne {
/upd true def
exit
} if
} for
} {
/upd true def
} ifelse
} {
v type /dicttype eq {
v {
/dv exch def
/dk exch def
/cpddv cpdv dk get def
dv cpddv ne {
/upd true def
exit
} if
} forall
} {
/upd true def
} ifelse
} ifelse
} if
} ifelse
upd true eq {
d k v put
} if
} if
} if
} forall
d length 0 gt {
d setpagedevice
} if
} bd
/RE { % /NewFontName [NewEncodingArray] /FontName RE -
  findfont dup length dict begin
  {
    1 index /FID ne
    {def} {pop pop} ifelse
  } forall
  /Encoding exch def
  /FontName 1 index def
  currentdict definefont pop
  end
} bind def
%%EndResource
%%BeginResource: procset (Apache XML Graphics EPS ProcSet) 1.0 0
%%Version: 1.0 0
%%Copyright: (Copyright 2002-2003 The Apache Software Foundation. License terms: http://www.apache.org/licenses/LICENSE-2.0)
/BeginEPSF { %def
/b4_Inc_state save def         % Save state for cleanup
/dict_count countdictstack def % Count objects on dict stack
/op_count count 1 sub def      % Count objects on operand stack
userdict begin                 % Push userdict on dict stack
/showpage { } def              % Redefine showpage, { } = null proc
0 setgray 0 setlinecap         % Prepare graphics state
1 setlinewidth 0 setlinejoin
10 setmiterlimit [ ] 0 setdash newpath
/languagelevel where           % If level not equal to 1 then
{pop languagelevel             % set strokeadjust and
1 ne                           % overprint to their defaults.
{false setstrokeadjust false setoverprint
} if
} if
} bd
/EndEPSF { %def
count op_count sub {pop} repeat            % Clean up stacks
countdictstack dict_count sub {end} repeat
b4_Inc_state restore
} bd
%%EndResource
%FOPBeginFontDict
%%IncludeResource: font Courier-Oblique
%%IncludeResource: font Courier-BoldOblique
%%IncludeResource: font Courier-Bold
%%IncludeResource: font ZapfDingbats
%%IncludeResource: font Symbol
%%IncludeResource: font Helvetica
%%IncludeResource: font Helvetica-Oblique
%%IncludeResource: font Helvetica-Bold
%%IncludeResource: font Helvetica-BoldOblique
%%IncludeResource: font Times-Roman
%%IncludeResource: font Times-Italic
%%IncludeResource: font Times-Bold
%%IncludeResource: font Times-BoldItalic
%%IncludeResource: font Courier
%FOPEndFontDict
%%BeginResource: encoding WinAnsiEncoding
/WinAnsiEncoding [
/.notdef /.notdef /.notdef /.notdef /.notdef
/.notdef /.notdef /.notdef /.notdef /.notdef
/.notdef /.notdef /.notdef /.notdef /.notdef
/.notdef /.notdef /.notdef /.notdef /.notdef
/.notdef /.notdef /.notdef /.notdef /.notdef
/.notdef /.notdef /.notdef /.notdef /.notdef
/.notdef /.notdef /space /exclam /quotedbl
/numbersign /dollar /percent /ampersand /quotesingle
/parenleft /parenright /asterisk /plus /comma
/hyphen /period /slash /zero /one
/two /three /four /five /six
/seven /eight /nine /colon /semicolon
/less /equal /greater /question /at
/A /B /C /D /E
/F /G /H /I /J
/K /L /M /N /O
/P /Q /R /S /T
/U /V /W /X /Y
/Z /bracketleft /backslash /bracketright /asciicircum
/underscore /quoteleft /a /b /c
/d /e /f /g /h
/i /j /k /l /m
/n /o /p /q /r
/s /t /u /v /w
/x /y /z /braceleft /bar
/braceright /asciitilde /bullet /Euro /bullet
/quotesinglbase /florin /quotedblbase /ellipsis /dagger
/daggerdbl /circumflex /perthousand /Scaron /guilsinglleft
/OE /bullet /Zcaron /bullet /bullet
/quoteleft /quoteright /quotedblleft /quotedblright /bullet
/endash /emdash /asciitilde /trademark /scaron
/guilsinglright /oe /bullet /zcaron /Ydieresis
/space /exclamdown /cent /sterling /currency
/yen /brokenbar /section /dieresis /copyright
/ordfeminine /guillemotleft /logicalnot /sfthyphen /registered
/macron /degree /plusminus /twosuperior /threesuperior
/acute /mu /paragraph /middot /cedilla
/onesuperior /ordmasculine /guillemotright /onequarter /onehalf
/threequarters /questiondown /Agrave /Aacute /Acircumflex
/Atilde /Adieresis /Aring /AE /Ccedilla
/Egrave /Eacute /Ecircumflex /Edieresis /Igrave
/Iacute /Icircumflex /Idieresis /Eth /Ntilde
/Ograve /Oacute /Ocircumflex /Otilde /Odieresis
/multiply /Oslash /Ugrave /Uacute /Ucircumflex
/Udieresis /Yacute /Thorn /germandbls /agrave
/aacute /acircumflex /atilde /adieresis /aring
/ae /ccedilla /egrave /eacute /ecircumflex
/edieresis /igrave /iacute /icircumflex /idieresis
/eth /ntilde /ograve /oacute /ocircumflex
/otilde /odieresis /divide /oslash /ugrave
/uacute /ucircumflex /udieresis /yacute /thorn
/ydieresis
] def
%%EndResource
%FOPBeginFontReencode
/Courier-Oblique findfont
dup length dict begin
  {1 index /FID ne {def} {pop pop} ifelse} forall
  /Encoding WinAnsiEncoding def
  currentdict
end
/Courier-Oblique exch definefont pop
/Courier-BoldOblique findfont
dup length dict begin
  {1 index /FID ne {def} {pop pop} ifelse} forall
  /Encoding WinAnsiEncoding def
  currentdict
end
/Courier-BoldOblique exch definefont pop
/Courier-Bold findfont
dup length dict begin
  {1 index /FID ne {def} {pop pop} ifelse} forall
  /Encoding WinAnsiEncoding def
  currentdict
end
/Courier-Bold exch definefont pop
/Helvetica findfont
dup length dict begin
  {1 index /FID ne {def} {pop pop} ifelse} forall
  /Encoding WinAnsiEncoding def
  currentdict
end
/Helvetica exch definefont pop
/Helvetica-Oblique findfont
dup length dict begin
  {1 index /FID ne {def} {pop pop} ifelse} forall
  /Encoding WinAnsiEncoding def
  currentdict
end
/Helvetica-Oblique exch definefont pop
/Helvetica-Bold findfont
dup length dict begin
  {1 index /FID ne {def} {pop pop} ifelse} forall
  /Encoding WinAnsiEncoding def
  currentdict
end
/Helvetica-Bold exch definefont pop
/Helvetica-BoldOblique findfont
dup length dict begin
  {1 index /FID ne {def} {pop pop} ifelse} forall
  /Encoding WinAnsiEncoding def
  currentdict
end
/Helvetica-BoldOblique exch definefont pop
/Times-Roman findfont
dup length dict begin
  {1 index /FID ne {def} {pop pop} ifelse} forall
  /Encoding WinAnsiEncoding def
  currentdict
end
/Times-Roman exch definefont pop
/Times-Italic findfont
dup length dict begin
  {1 index /FID ne {def} {pop pop} ifelse} forall
  /Encoding WinAnsiEncoding def
  currentdict
end
/Times-Italic exch definefont pop
/Times-Bold findfont
dup length dict begin
  {1 index /FID ne {def} {pop pop} ifelse} forall
  /Encoding WinAnsiEncoding def
  currentdict
end
/Times-Bold exch definefont pop
/Times-BoldItalic findfont
dup length dict begin
  {1 index /FID ne {def} {pop pop} ifelse} forall
  /Encoding WinAnsiEncoding def
  currentdict
end
/Times-BoldItalic exch definefont pop
/Courier findfont
dup length dict begin
  {1 index /FID ne {def} {pop pop} ifelse} forall
  /Encoding WinAnsiEncoding def
  currentdict
end
/Courier exch definefont pop
%FOPEndFontReencode
%%EndProlog
%%Page: 1 1
%%PageBoundingBox: 0 0 1120 840
%%BeginPageSetup
[1 0 0 -1 0 840] CT
%%EndPageSetup
GS
1 GC
N
0 0 1120 840 re
f
GR
GS
1 GC
N
73 374 M
507 374 L
507 31.5 L
73 31.5 L
cp
f
GR
GS
0.149 GC
2 setlinecap
1 LJ
0.5 LW
N
73 374 M
507 374 L
S
GR
GS
0.149 GC
2 setlinecap
1 LJ
0.5 LW
N
73 31.5 M
507 31.5 L
S
GR
GS
0.149 GC
2 setlinecap
1 LJ
0.5 LW
N
142.165 374 M
142.165 369.66 L
S
GR
GS
0.149 GC
2 setlinecap
1 LJ
0.5 LW
N
239.404 374 M
239.404 369.66 L
S
GR
GS
0.149 GC
2 setlinecap
1 LJ
0.5 LW
N
336.644 374 M
336.644 369.66 L
S
GR
GS
0.149 GC
2 setlinecap
1 LJ
0.5 LW
N
433.883 374 M
433.883 369.66 L
S
GR
GS
0.149 GC
2 setlinecap
1 LJ
0.5 LW
N
142.165 31.5 M
142.165 35.84 L
S
GR
GS
0.149 GC
2 setlinecap
1 LJ
0.5 LW
N
239.404 31.5 M
239.404 35.84 L
S
GR
GS
0.149 GC
2 setlinecap
1 LJ
0.5 LW
N
336.644 31.5 M
336.644 35.84 L
S
GR
GS
0.149 GC
2 setlinecap
1 LJ
0.5 LW
N
433.883 31.5 M
433.883 35.84 L
S
GR
GS
0.149 GC
2 setlinecap
1 LJ
0.5 LW
N
83.821 374 M
83.821 371.83 L
S
GR
GS
0.149 GC
2 setlinecap
1 LJ
0.5 LW
N
103.269 374 M
103.269 371.83 L
S
GR
GS
0.149 GC
2 setlinecap
1 LJ
0.5 LW
N
122.717 374 M
122.717 371.83 L
S
GR
GS
0.149 GC
2 setlinecap
1 LJ
0.5 LW
N
161.613 374 M
161.613 371.83 L
S
GR
GS
0.149 GC
2 setlinecap
1 LJ
0.5 LW
N
181.061 374 M
181.061 371.83 L
S
GR
GS
0.149 GC
2 setlinecap
1 LJ
0.5 LW
N
200.508 374 M
200.508 371.83 L
S
GR
GS
0.149 GC
2 setlinecap
1 LJ
0.5 LW
N
219.956 374 M
219.956 371.83 L
S
GR
GS
0.149 GC
2 setlinecap
1 LJ
0.5 LW
N
258.852 374 M
258.852 371.83 L
S
GR
GS
0.149 GC
2 setlinecap
1 LJ
0.5 LW
N
278.3 374 M
278.3 371.83 L
S
GR
GS
0.149 GC
2 setlinecap
1 LJ
0.5 LW
N
297.748 374 M
297.748 371.83 L
S
GR
GS
0.149 GC
2 setlinecap
1 LJ
0.5 LW
N
317.196 374 M
317.196 371.83 L
S
GR
GS
0.149 GC
2 setlinecap
1 LJ
0.5 LW
N
356.092 374 M
356.092 371.83 L
S
GR
GS
0.149 GC
2 setlinecap
1 LJ
0.5 LW
N
375.539 374 M
375.539 371.83 L
S
GR
GS
0.149 GC
2 setlinecap
1 LJ
0.5 LW
N
394.987 374 M
394.987 371.83 L
S
GR
GS
0.149 GC
2 setlinecap
1 LJ
0.5 LW
N
414.435 374 M
414.435 371.83 L
S
GR
GS
0.149 GC
2 setlinecap
1 LJ
0.5 LW
N
453.331 374 M
453.331 371.83 L
S
GR
GS
0.149 GC
2 setlinecap
1 LJ
0.5 LW
N
472.779 374 M
472.779 371.83 L
S
GR
GS
0.149 GC
2 setlinecap
1 LJ
0.5 LW
N
492.227 374 M
492.227 371.83 L
S
GR
GS
0.149 GC
2 setlinecap
1 LJ
0.5 LW
N
83.821 31.5 M
83.821 33.67 L
S
GR
GS
0.149 GC
2 setlinecap
1 LJ
0.5 LW
N
103.269 31.5 M
103.269 33.67 L
S
GR
GS
0.149 GC
2 setlinecap
1 LJ
0.5 LW
N
122.717 31.5 M
122.717 33.67 L
S
GR
GS
0.149 GC
2 setlinecap
1 LJ
0.5 LW
N
161.613 31.5 M
161.613 33.67 L
S
GR
GS
0.149 GC
2 setlinecap
1 LJ
0.5 LW
N
181.061 31.5 M
181.061 33.67 L
S
GR
GS
0.149 GC
2 setlinecap
1 LJ
0.5 LW
N
200.508 31.5 M
200.508 33.67 L
S
GR
GS
0.149 GC
2 setlinecap
1 LJ
0.5 LW
N
219.956 31.5 M
219.956 33.67 L
S
GR
GS
0.149 GC
2 setlinecap
1 LJ
0.5 LW
N
258.852 31.5 M
258.852 33.67 L
S
GR
GS
0.149 GC
2 setlinecap
1 LJ
0.5 LW
N
278.3 31.5 M
278.3 33.67 L
S
GR
GS
0.149 GC
2 setlinecap
1 LJ
0.5 LW
N
297.748 31.5 M
297.748 33.67 L
S
GR
GS
0.149 GC
2 setlinecap
1 LJ
0.5 LW
N
317.196 31.5 M
317.196 33.67 L
S
GR
GS
0.149 GC
2 setlinecap
1 LJ
0.5 LW
N
356.092 31.5 M
356.092 33.67 L
S
GR
GS
0.149 GC
2 setlinecap
1 LJ
0.5 LW
N
375.539 31.5 M
375.539 33.67 L
S
GR
GS
0.149 GC
2 setlinecap
1 LJ
0.5 LW
N
394.987 31.5 M
394.987 33.67 L
S
GR
GS
0.149 GC
2 setlinecap
1 LJ
0.5 LW
N
414.435 31.5 M
414.435 33.67 L
S
GR
GS
0.149 GC
2 setlinecap
1 LJ
0.5 LW
N
453.331 31.5 M
453.331 33.67 L
S
GR
GS
0.149 GC
2 setlinecap
1 LJ
0.5 LW
N
472.779 31.5 M
472.779 33.67 L
S
GR
GS
0.149 GC
2 setlinecap
1 LJ
0.5 LW
N
492.227 31.5 M
492.227 33.67 L
S
GR
GS
[1 0 0 1 142.16483 378.80002] CT
0.149 GC
/Helvetica 14 F
GS
[1 0 0 1 0 0] CT
-12 14 moveto 
1 -1 scale
(500) t 
GR
GR
GS
[1 0 0 1 239.40425 378.80002] CT
0.149 GC
/Helvetica 14 F
GS
[1 0 0 1 0 0] CT
-16 14 moveto 
1 -1 scale
(1000) t 
GR
GR
GS
[1 0 0 1 336.64371 378.80002] CT
0.149 GC
/Helvetica 14 F
GS
[1 0 0 1 0 0] CT
-16 14 moveto 
1 -1 scale
(1500) t 
GR
GR
GS
[1 0 0 1 433.88312 378.80002] CT
0.149 GC
/Helvetica 14 F
GS
[1 0 0 1 0 0] CT
-16 14 moveto 
1 -1 scale
(2000) t 
GR
GR
GS
[1 0 0 1 290.00021 396.29996] CT
0.149 GC
/Helvetica 15.4 F
GS
[1 0 0 1 0 0] CT
-42 15 moveto 
1 -1 scale
(Bitrate\(kb/s\)) t 
GR
GR
GS
0.149 GC
2 setlinecap
1 LJ
0.5 LW
N
73 374 M
73 31.5 L
S
GR
GS
0.149 GC
2 setlinecap
1 LJ
0.5 LW
N
507 374 M
507 31.5 L
S
GR
GS
0.149 GC
2 setlinecap
1 LJ
0.5 LW
N
73 336.486 M
77.34 336.486 L
S
GR
GS
0.149 GC
2 setlinecap
1 LJ
0.5 LW
N
73 283.004 M
77.34 283.004 L
S
GR
GS
0.149 GC
2 setlinecap
1 LJ
0.5 LW
N
73 229.522 M
77.34 229.522 L
S
GR
GS
0.149 GC
2 setlinecap
1 LJ
0.5 LW
N
73 176.04 M
77.34 176.04 L
S
GR
GS
0.149 GC
2 setlinecap
1 LJ
0.5 LW
N
73 122.558 M
77.34 122.558 L
S
GR
GS
0.149 GC
2 setlinecap
1 LJ
0.5 LW
N
73 69.076 M
77.34 69.076 L
S
GR
GS
0.149 GC
2 setlinecap
1 LJ
0.5 LW
N
507 336.486 M
502.66 336.486 L
S
GR
GS
0.149 GC
2 setlinecap
1 LJ
0.5 LW
N
507 283.004 M
502.66 283.004 L
S
GR
GS
0.149 GC
2 setlinecap
1 LJ
0.5 LW
N
507 229.522 M
502.66 229.522 L
S
GR
GS
0.149 GC
2 setlinecap
1 LJ
0.5 LW
N
507 176.04 M
502.66 176.04 L
S
GR
GS
0.149 GC
2 setlinecap
1 LJ
0.5 LW
N
507 122.558 M
502.66 122.558 L
S
GR
GS
0.149 GC
2 setlinecap
1 LJ
0.5 LW
N
507 69.076 M
502.66 69.076 L
S
GR
GS
0.149 GC
2 setlinecap
1 LJ
0.5 LW
N
73 363.227 M
75.17 363.227 L
S
GR
GS
0.149 GC
2 setlinecap
1 LJ
0.5 LW
N
73 349.857 M
75.17 349.857 L
S
GR
GS
0.149 GC
2 setlinecap
1 LJ
0.5 LW
N
73 323.116 M
75.17 323.116 L
S
GR
GS
0.149 GC
2 setlinecap
1 LJ
0.5 LW
N
73 309.745 M
75.17 309.745 L
S
GR
GS
0.149 GC
2 setlinecap
1 LJ
0.5 LW
N
73 296.375 M
75.17 296.375 L
S
GR
GS
0.149 GC
2 setlinecap
1 LJ
0.5 LW
N
73 269.634 M
75.17 269.634 L
S
GR
GS
0.149 GC
2 setlinecap
1 LJ
0.5 LW
N
73 256.263 M
75.17 256.263 L
S
GR
GS
0.149 GC
2 setlinecap
1 LJ
0.5 LW
N
73 242.893 M
75.17 242.893 L
S
GR
GS
0.149 GC
2 setlinecap
1 LJ
0.5 LW
N
73 216.152 M
75.17 216.152 L
S
GR
GS
0.149 GC
2 setlinecap
1 LJ
0.5 LW
N
73 202.781 M
75.17 202.781 L
S
GR
GS
0.149 GC
2 setlinecap
1 LJ
0.5 LW
N
73 189.411 M
75.17 189.411 L
S
GR
GS
0.149 GC
2 setlinecap
1 LJ
0.5 LW
N
73 162.67 M
75.17 162.67 L
S
GR
GS
0.149 GC
2 setlinecap
1 LJ
0.5 LW
N
73 149.299 M
75.17 149.299 L
S
GR
GS
0.149 GC
2 setlinecap
1 LJ
0.5 LW
N
73 135.929 M
75.17 135.929 L
S
GR
GS
0.149 GC
2 setlinecap
1 LJ
0.5 LW
N
73 109.188 M
75.17 109.188 L
S
GR
GS
0.149 GC
2 setlinecap
1 LJ
0.5 LW
N
73 95.817 M
75.17 95.817 L
S
GR
GS
0.149 GC
2 setlinecap
1 LJ
0.5 LW
N
73 82.447 M
75.17 82.447 L
S
GR
GS
0.149 GC
2 setlinecap
1 LJ
0.5 LW
N
73 55.706 M
75.17 55.706 L
S
GR
GS
0.149 GC
2 setlinecap
1 LJ
0.5 LW
N
73 42.335 M
75.17 42.335 L
S
GR
GS
0.149 GC
2 setlinecap
1 LJ
0.5 LW
N
507 363.227 M
504.83 363.227 L
S
GR
GS
0.149 GC
2 setlinecap
1 LJ
0.5 LW
N
507 349.857 M
504.83 349.857 L
S
GR
GS
0.149 GC
2 setlinecap
1 LJ
0.5 LW
N
507 323.116 M
504.83 323.116 L
S
GR
GS
0.149 GC
2 setlinecap
1 LJ
0.5 LW
N
507 309.745 M
504.83 309.745 L
S
GR
GS
0.149 GC
2 setlinecap
1 LJ
0.5 LW
N
507 296.375 M
504.83 296.375 L
S
GR
GS
0.149 GC
2 setlinecap
1 LJ
0.5 LW
N
507 269.634 M
504.83 269.634 L
S
GR
GS
0.149 GC
2 setlinecap
1 LJ
0.5 LW
N
507 256.263 M
504.83 256.263 L
S
GR
GS
0.149 GC
2 setlinecap
1 LJ
0.5 LW
N
507 242.893 M
504.83 242.893 L
S
GR
GS
0.149 GC
2 setlinecap
1 LJ
0.5 LW
N
507 216.152 M
504.83 216.152 L
S
GR
GS
0.149 GC
2 setlinecap
1 LJ
0.5 LW
N
507 202.781 M
504.83 202.781 L
S
GR
GS
0.149 GC
2 setlinecap
1 LJ
0.5 LW
N
507 189.411 M
504.83 189.411 L
S
GR
GS
0.149 GC
2 setlinecap
1 LJ
0.5 LW
N
507 162.67 M
504.83 162.67 L
S
GR
GS
0.149 GC
2 setlinecap
1 LJ
0.5 LW
N
507 149.299 M
504.83 149.299 L
S
GR
GS
0.149 GC
2 setlinecap
1 LJ
0.5 LW
N
507 135.929 M
504.83 135.929 L
S
GR
GS
0.149 GC
2 setlinecap
1 LJ
0.5 LW
N
507 109.188 M
504.83 109.188 L
S
GR
GS
0.149 GC
2 setlinecap
1 LJ
0.5 LW
N
507 95.817 M
504.83 95.817 L
S
GR
GS
0.149 GC
2 setlinecap
1 LJ
0.5 LW
N
507 82.447 M
504.83 82.447 L
S
GR
GS
0.149 GC
2 setlinecap
1 LJ
0.5 LW
N
507 55.706 M
504.83 55.706 L
S
GR
GS
0.149 GC
2 setlinecap
1 LJ
0.5 LW
N
507 42.335 M
504.83 42.335 L
S
GR
GS
[1 0 0 1 68.2 336.48618] CT
0.149 GC
/Helvetica 14 F
GS
[1 0 0 1 0 0] CT
-16 5.5 moveto 
1 -1 scale
(34) t 
GR
GR
GS
[1 0 0 1 68.2 283.00421] CT
0.149 GC
/Helvetica 14 F
GS
[1 0 0 1 0 0] CT
-16 5.5 moveto 
1 -1 scale
(36) t 
GR
GR
GS
[1 0 0 1 68.2 229.52225] CT
0.149 GC
/Helvetica 14 F
GS
[1 0 0 1 0 0] CT
-16 5.5 moveto 
1 -1 scale
(38) t 
GR
GR
GS
[1 0 0 1 68.2 176.04028] CT
0.149 GC
/Helvetica 14 F
GS
[1 0 0 1 0 0] CT
-16 5.5 moveto 
1 -1 scale
(40) t 
GR
GR
GS
[1 0 0 1 68.2 122.55833] CT
0.149 GC
/Helvetica 14 F
GS
[1 0 0 1 0 0] CT
-16 5.5 moveto 
1 -1 scale
(42) t 
GR
GR
GS
[1 0 0 1 68.2 69.07636] CT
0.149 GC
/Helvetica 14 F
GS
[1 0 0 1 0 0] CT
-16 5.5 moveto 
1 -1 scale
(44) t 
GR
GR
GS
[0 -1 1 0 49.2 202.74985] CT
0.149 GC
/Helvetica 15.4 F
GS
[1 0 0 1 0 0] CT
-62.5 -4 moveto 
1 -1 scale
(PSNR-HVS Y \(dB\)) t 
GR
GR
GS
[1 0 0 1 290.00031 29.575] CT
/Helvetica-Bold 15.4 F
GS
[1 0 0 1 0 0] CT
-141 -4 moveto 
1 -1 scale
(Skater227_1920x1080_30fps.y4m-hevc) t 
GR
GR
GS
0 0.447 0.741 RC
1 LJ
0.5 LW
N
73.651 372.913 M
77.541 357.601 L
81.43 342.773 L
85.32 328.782 L
89.209 315.977 L
93.099 304.71 L
96.988 295.091 L
100.878 286.131 L
104.768 277.666 L
108.657 269.677 L
112.547 262.148 L
116.436 255.059 L
120.326 248.393 L
124.215 242.132 L
128.105 236.258 L
131.995 230.752 L
135.884 225.597 L
139.774 220.75 L
143.663 216.058 L
147.553 211.494 L
151.442 207.058 L
155.332 202.745 L
159.222 198.555 L
163.111 194.485 L
167.001 190.533 L
170.89 186.696 L
174.78 182.973 L
178.67 179.361 L
182.559 175.857 L
186.449 172.46 L
190.338 169.168 L
194.228 165.978 L
198.117 162.888 L
202.007 159.895 L
205.897 156.998 L
209.786 154.195 L
213.676 151.482 L
217.565 148.858 L
221.455 146.321 L
225.344 143.868 L
229.234 141.497 L
233.124 139.189 L
237.013 136.887 L
240.903 134.589 L
244.792 132.295 L
248.682 130.008 L
252.571 127.727 L
256.461 125.453 L
260.351 123.188 L
264.24 120.933 L
268.13 118.687 L
272.019 116.453 L
275.909 114.231 L
279.799 112.023 L
283.688 109.828 L
287.578 107.648 L
291.467 105.485 L
295.357 103.338 L
299.246 101.209 L
303.136 99.098 L
307.026 97.008 L
310.915 94.938 L
314.805 92.889 L
318.694 90.863 L
322.584 88.86 L
326.473 86.882 L
330.363 84.929 L
334.253 83.002 L
338.142 81.102 L
342.032 79.231 L
345.921 77.388 L
349.811 75.576 L
353.701 73.794 L
357.59 72.044 L
361.48 70.327 L
365.369 68.643 L
369.259 66.994 L
373.148 65.381 L
377.038 63.804 L
380.928 62.264 L
384.817 60.763 L
388.707 59.301 L
392.596 57.88 L
396.486 56.499 L
400.375 55.161 L
404.265 53.866 L
408.155 52.614 L
412.044 51.408 L
415.934 50.247 L
419.823 49.133 L
423.713 48.067 L
427.602 47.049 L
431.492 46.081 L
435.382 45.163 L
439.271 44.297 L
443.161 43.483 L
447.05 42.723 L
450.94 42.017 L
454.83 41.366 L
458.719 40.77 L
462.609 40.232 L
466.498 39.753 L
470.388 39.331 L
474.277 38.97 L
478.167 38.669 L
S
GR
GS
0.851 0.325 0.098 RC
1 LJ
0.5 LW
N
74.737 366.922 M
78.626 352.365 L
82.516 338.238 L
86.405 324.843 L
90.295 312.481 L
94.185 301.457 L
98.074 291.99 L
101.964 283.267 L
105.853 274.993 L
109.743 267.154 L
113.632 259.737 L
117.522 252.73 L
121.412 246.119 L
125.301 239.891 L
129.191 234.035 L
133.08 228.536 L
136.97 223.383 L
140.859 218.562 L
144.749 213.986 L
148.639 209.536 L
152.528 205.207 L
156.418 200.996 L
160.307 196.902 L
164.197 192.923 L
168.087 189.055 L
171.976 185.298 L
175.866 181.648 L
179.755 178.103 L
183.645 174.662 L
187.534 171.321 L
191.424 168.079 L
195.314 164.934 L
199.203 161.882 L
203.093 158.923 L
206.982 156.053 L
210.872 153.27 L
214.761 150.573 L
218.651 147.959 L
222.541 145.425 L
226.43 142.97 L
230.32 140.591 L
234.209 138.286 L
238.099 136.051 L
241.988 133.843 L
245.878 131.638 L
249.768 129.436 L
253.657 127.24 L
257.547 125.049 L
261.436 122.864 L
265.326 120.687 L
269.216 118.518 L
273.105 116.357 L
276.995 114.206 L
280.884 112.066 L
284.774 109.937 L
288.663 107.82 L
292.553 105.716 L
296.443 103.626 L
300.332 101.55 L
304.222 99.49 L
308.111 97.446 L
312.001 95.419 L
315.89 93.41 L
319.78 91.419 L
323.67 89.448 L
327.559 87.497 L
331.449 85.567 L
335.338 83.659 L
339.228 81.774 L
343.117 79.912 L
347.007 78.074 L
350.897 76.262 L
354.786 74.476 L
358.676 72.716 L
362.565 70.984 L
366.455 69.281 L
370.345 67.607 L
374.234 65.962 L
378.124 64.349 L
382.013 62.767 L
385.903 61.218 L
389.792 59.702 L
393.682 58.22 L
397.572 56.773 L
401.461 55.362 L
405.351 53.987 L
409.24 52.65 L
413.13 51.351 L
417.019 50.091 L
420.909 48.87 L
424.799 47.691 L
428.688 46.552 L
432.578 45.457 L
436.467 44.404 L
440.357 43.395 L
444.247 42.43 L
448.136 41.512 L
452.026 40.639 L
455.915 39.814 L
459.805 39.037 L
463.694 38.308 L
467.584 37.629 L
471.474 37.001 L
475.363 36.423 L
479.253 35.898 L
483.142 35.426 L
487.032 35.007 L
490.921 34.642 L
494.811 34.333 L
498.701 34.081 L
S
GR
GS
0.929 0.694 0.125 RC
1 LJ
0.5 LW
N
73 374 M
76.89 358.29 L
80.779 343.085 L
84.669 328.792 L
88.558 315.816 L
92.448 304.563 L
96.337 294.984 L
100.227 286.021 L
104.117 277.581 L
108.006 269.639 L
111.896 262.17 L
115.785 255.15 L
119.675 248.554 L
123.565 242.356 L
127.454 236.532 L
131.344 231.057 L
135.233 225.905 L
139.123 221.022 L
143.012 216.279 L
146.902 211.663 L
150.792 207.174 L
154.681 202.807 L
158.571 198.563 L
162.46 194.44 L
166.35 190.434 L
170.239 186.546 L
174.129 182.772 L
178.019 179.112 L
181.908 175.562 L
185.798 172.123 L
189.687 168.791 L
193.577 165.564 L
197.466 162.443 L
201.356 159.423 L
205.246 156.504 L
209.135 153.684 L
213.025 150.96 L
216.914 148.332 L
220.804 145.798 L
224.694 143.355 L
228.583 140.995 L
232.473 138.654 L
236.362 136.317 L
240.252 133.984 L
244.141 131.656 L
248.031 129.334 L
251.921 127.02 L
255.81 124.714 L
259.7 122.417 L
263.589 120.131 L
267.479 117.855 L
271.368 115.592 L
275.258 113.342 L
279.148 111.106 L
283.037 108.885 L
286.927 106.68 L
290.816 104.493 L
294.706 102.324 L
298.595 100.173 L
302.485 98.043 L
306.375 95.934 L
310.264 93.847 L
314.154 91.783 L
318.043 89.743 L
321.933 87.728 L
325.823 85.74 L
329.712 83.778 L
333.602 81.844 L
337.491 79.939 L
341.381 78.064 L
345.27 76.221 L
349.16 74.409 L
353.05 72.63 L
356.939 70.885 L
360.829 69.175 L
364.718 67.5 L
368.608 65.863 L
372.497 64.264 L
376.387 62.703 L
380.277 61.183 L
384.166 59.703 L
388.056 58.265 L
391.945 56.87 L
395.835 55.518 L
399.724 54.212 L
403.614 52.951 L
407.504 51.737 L
411.393 50.571 L
415.283 49.454 L
419.172 48.386 L
423.062 47.369 L
426.952 46.404 L
430.841 45.491 L
434.731 44.633 L
438.62 43.828 L
442.51 43.08 L
446.399 42.388 L
450.289 41.754 L
454.179 41.179 L
458.068 40.663 L
461.958 40.208 L
465.847 39.814 L
469.737 39.483 L
473.626 39.216 L
S
GR
GS
0.494 0.184 0.557 RC
1 LJ
0.5 LW
N
75.257 363.795 M
79.146 349.754 L
83.036 336.111 L
86.926 323.135 L
90.815 311.095 L
94.705 300.26 L
98.594 290.874 L
102.484 282.289 L
106.374 274.122 L
110.263 266.361 L
114.153 258.998 L
118.042 252.023 L
121.932 245.426 L
125.821 239.197 L
129.711 233.327 L
133.601 227.806 L
137.49 222.625 L
141.38 217.773 L
145.269 213.215 L
149.159 208.799 L
153.048 204.5 L
156.938 200.317 L
160.828 196.247 L
164.717 192.288 L
168.607 188.438 L
172.496 184.695 L
176.386 181.056 L
180.275 177.52 L
184.165 174.085 L
188.055 170.748 L
191.944 167.507 L
195.834 164.36 L
199.723 161.306 L
203.613 158.341 L
207.503 155.464 L
211.392 152.673 L
215.282 149.965 L
219.171 147.339 L
223.061 144.792 L
226.95 142.323 L
230.84 139.929 L
234.73 137.608 L
238.619 135.357 L
242.509 133.172 L
246.398 131.004 L
250.288 128.839 L
254.177 126.677 L
258.067 124.521 L
261.957 122.37 L
265.846 120.225 L
269.736 118.087 L
273.625 115.956 L
277.515 113.835 L
281.405 111.722 L
285.294 109.62 L
289.184 107.529 L
293.073 105.449 L
296.963 103.382 L
300.852 101.327 L
304.742 99.287 L
308.632 97.261 L
312.521 95.251 L
316.411 93.257 L
320.3 91.28 L
324.19 89.321 L
328.079 87.381 L
331.969 85.459 L
335.859 83.558 L
339.748 81.678 L
343.638 79.819 L
347.527 77.983 L
351.417 76.17 L
355.306 74.381 L
359.196 72.617 L
363.086 70.878 L
366.975 69.165 L
370.865 67.479 L
374.754 65.822 L
378.644 64.192 L
382.534 62.592 L
386.423 61.023 L
390.313 59.484 L
394.202 57.977 L
398.092 56.502 L
401.981 55.06 L
405.871 53.652 L
409.761 52.28 L
413.65 50.942 L
417.54 49.641 L
421.429 48.377 L
425.319 47.151 L
429.208 45.963 L
433.098 44.815 L
436.988 43.706 L
440.877 42.639 L
444.767 41.614 L
448.656 40.63 L
452.546 39.69 L
456.436 38.794 L
460.325 37.943 L
464.215 37.138 L
468.104 36.378 L
471.994 35.666 L
475.883 35.001 L
479.773 34.385 L
483.663 33.819 L
487.552 33.303 L
491.442 32.837 L
495.331 32.423 L
499.221 32.062 L
503.11 31.754 L
507 31.5 L
S
GR
GS
0.467 0.675 0.188 RC
[10 6] 0 setdash
2 LJ
0.5 LW
N
73.382 373.543 M
77.271 358.148 L
81.161 343.253 L
85.05 329.205 L
88.94 316.346 L
92.83 305.024 L
96.719 295.308 L
100.609 286.22 L
104.498 277.625 L
108.388 269.51 L
112.277 261.86 L
116.167 254.662 L
120.057 247.902 L
123.946 241.568 L
127.836 235.645 L
131.725 230.12 L
135.615 224.979 L
139.504 220.136 L
143.394 215.437 L
147.284 210.875 L
151.173 206.446 L
155.063 202.149 L
158.952 197.98 L
162.842 193.937 L
166.732 190.016 L
170.621 186.215 L
174.511 182.53 L
178.4 178.96 L
182.29 175.501 L
186.179 172.151 L
190.069 168.906 L
193.959 165.764 L
197.848 162.722 L
201.738 159.777 L
205.627 156.926 L
209.517 154.167 L
213.406 151.496 L
217.296 148.911 L
221.186 146.409 L
225.075 143.988 L
228.965 141.639 L
232.854 139.31 L
236.744 136.984 L
240.633 134.664 L
244.523 132.349 L
248.413 130.041 L
252.302 127.74 L
256.192 125.448 L
260.081 123.166 L
263.971 120.894 L
267.861 118.633 L
271.75 116.385 L
275.64 114.151 L
279.529 111.93 L
283.419 109.725 L
287.308 107.536 L
291.198 105.365 L
295.088 103.211 L
298.977 101.077 L
302.867 98.963 L
306.756 96.869 L
310.646 94.798 L
314.535 92.749 L
318.425 90.725 L
322.315 88.725 L
326.204 86.751 L
330.094 84.804 L
333.983 82.884 L
337.873 80.993 L
341.762 79.132 L
345.652 77.301 L
349.542 75.502 L
353.431 73.735 L
357.321 72.002 L
361.21 70.303 L
365.1 68.639 L
368.99 67.012 L
372.879 65.421 L
376.769 63.869 L
380.658 62.356 L
384.548 60.884 L
388.437 59.452 L
392.327 58.062 L
396.217 56.715 L
400.106 55.412 L
403.996 54.154 L
407.885 52.942 L
411.775 51.777 L
415.664 50.659 L
419.554 49.59 L
423.444 48.57 L
427.333 47.601 L
431.223 46.684 L
435.112 45.819 L
439.002 45.008 L
442.892 44.251 L
446.781 43.549 L
450.671 42.904 L
454.56 42.316 L
458.45 41.786 L
462.339 41.316 L
466.229 40.905 L
470.119 40.556 L
474.008 40.269 L
S
GR
GS
0.302 0.745 0.933 RC
[10 6] 0 setdash
2 LJ
0.5 LW
N
73.176 373.253 M
77.066 357.856 L
80.955 342.948 L
84.845 328.896 L
88.734 316.069 L
92.624 304.833 L
96.513 295.244 L
100.403 286.288 L
104.293 277.833 L
108.182 269.859 L
112.072 262.348 L
115.961 255.278 L
119.851 248.629 L
123.74 242.383 L
127.63 236.519 L
131.52 231.016 L
135.409 225.856 L
139.299 220.991 L
143.188 216.277 L
147.078 211.691 L
150.967 207.234 L
154.857 202.901 L
158.747 198.691 L
162.636 194.601 L
166.526 190.631 L
170.415 186.777 L
174.305 183.037 L
178.195 179.41 L
182.084 175.893 L
185.974 172.484 L
189.863 169.18 L
193.753 165.98 L
197.642 162.882 L
201.532 159.883 L
205.422 156.982 L
209.311 154.175 L
213.201 151.462 L
217.09 148.839 L
220.98 146.305 L
224.869 143.858 L
228.759 141.494 L
232.649 139.166 L
236.538 136.841 L
240.428 134.521 L
244.317 132.205 L
248.207 129.896 L
252.096 127.594 L
255.986 125.3 L
259.876 123.015 L
263.765 120.74 L
267.655 118.476 L
271.544 116.223 L
275.434 113.984 L
279.324 111.758 L
283.213 109.548 L
287.103 107.352 L
290.992 105.174 L
294.882 103.013 L
298.771 100.871 L
302.661 98.748 L
306.551 96.646 L
310.44 94.565 L
314.33 92.507 L
318.219 90.472 L
322.109 88.462 L
325.998 86.477 L
329.888 84.518 L
333.778 82.586 L
337.667 80.682 L
341.557 78.807 L
345.446 76.963 L
349.336 75.15 L
353.225 73.368 L
357.115 71.62 L
361.005 69.905 L
364.894 68.225 L
368.784 66.581 L
372.673 64.974 L
376.563 63.405 L
380.453 61.874 L
384.342 60.383 L
388.232 58.932 L
392.121 57.523 L
396.011 56.157 L
399.9 54.834 L
403.79 53.555 L
407.68 52.322 L
411.569 51.135 L
415.459 49.996 L
419.348 48.905 L
423.238 47.862 L
427.127 46.87 L
431.017 45.93 L
434.907 45.041 L
438.796 44.205 L
442.686 43.424 L
446.575 42.697 L
450.465 42.026 L
454.354 41.412 L
458.244 40.856 L
462.134 40.358 L
466.023 39.921 L
469.913 39.544 L
473.802 39.228 L
477.692 38.976 L
S
GR
GS
0.635 0.078 0.184 RC
[10 6] 0 setdash
2 LJ
0.5 LW
N
73.826 371.959 M
77.716 356.77 L
81.605 342.05 L
85.495 328.143 L
89.384 315.391 L
93.274 304.135 L
97.164 294.527 L
101.053 285.604 L
104.943 277.164 L
108.832 269.191 L
112.722 261.67 L
116.611 254.583 L
120.501 247.913 L
124.391 241.645 L
128.28 235.762 L
132.17 230.248 L
136.059 225.085 L
139.949 220.249 L
143.839 215.593 L
147.728 211.064 L
151.618 206.661 L
155.507 202.381 L
159.397 198.223 L
163.286 194.183 L
167.176 190.259 L
171.066 186.45 L
174.955 182.752 L
178.845 179.164 L
182.734 175.682 L
186.624 172.306 L
190.513 169.032 L
194.403 165.858 L
198.293 162.781 L
202.182 159.8 L
206.072 156.913 L
209.961 154.116 L
213.851 151.407 L
217.741 148.784 L
221.63 146.245 L
225.52 143.788 L
229.409 141.41 L
233.299 139.108 L
237.188 136.837 L
241.078 134.569 L
244.968 132.305 L
248.857 130.046 L
252.747 127.793 L
256.636 125.546 L
260.526 123.307 L
264.415 121.077 L
268.305 118.856 L
272.195 116.645 L
276.084 114.445 L
279.974 112.257 L
283.863 110.083 L
287.753 107.921 L
291.642 105.775 L
295.532 103.644 L
299.422 101.529 L
303.311 99.432 L
307.201 97.353 L
311.09 95.293 L
314.98 93.253 L
318.87 91.233 L
322.759 89.235 L
326.649 87.26 L
330.538 85.308 L
334.428 83.381 L
338.317 81.479 L
342.207 79.602 L
346.097 77.753 L
349.986 75.932 L
353.876 74.139 L
357.765 72.376 L
361.655 70.643 L
365.544 68.942 L
369.434 67.273 L
373.324 65.637 L
377.213 64.035 L
381.103 62.468 L
384.992 60.936 L
388.882 59.442 L
392.771 57.984 L
396.661 56.566 L
400.551 55.186 L
404.44 53.847 L
408.33 52.548 L
412.219 51.292 L
416.109 50.078 L
419.999 48.908 L
423.888 47.783 L
427.778 46.703 L
431.667 45.669 L
435.557 44.683 L
439.446 43.744 L
443.336 42.855 L
447.226 42.015 L
451.115 41.226 L
455.005 40.489 L
458.894 39.804 L
462.784 39.173 L
466.673 38.596 L
470.563 38.073 L
474.453 37.607 L
478.342 37.198 L
482.232 36.846 L
486.121 36.554 L
S
GR
GS
1 GC
N
499 366 M
499 250.5 L
344.5 250.5 L
344.5 366 L
cp
f
GR
GS
[1 0 0 1 381.5 260.25] CT
/Helvetica 13 F
GS
[1 0 0 1 0 0] CT
0 5 moveto 
1 -1 scale
(Base Run) t 
GR
GR
GS
0 0.447 0.741 RC
1 LJ
0.5 LW
N
348.5 260.25 M
378.5 260.25 L
S
GR
GS
[1 0 0 1 381.5 276.25] CT
/Helvetica 13 F
GS
[1 0 0 1 0 0] CT
0 5 moveto 
1 -1 scale
(I & B Frames) t 
GR
GR
GS
0.851 0.325 0.098 RC
1 LJ
0.5 LW
N
348.5 276.25 M
378.5 276.25 L
S
GR
GS
[1 0 0 1 381.5 292.25] CT
/Helvetica 13 F
GS
[1 0 0 1 0 0] CT
0 5 moveto 
1 -1 scale
(I Frames Only) t 
GR
GR
GS
0.929 0.694 0.125 RC
1 LJ
0.5 LW
N
348.5 292.25 M
378.5 292.25 L
S
GR
GS
[1 0 0 1 381.5 308.25] CT
/Helvetica 13 F
GS
[1 0 0 1 0 0] CT
0 5 moveto 
1 -1 scale
(B Frames Only) t 
GR
GR
GS
0.494 0.184 0.557 RC
1 LJ
0.5 LW
N
348.5 308.25 M
378.5 308.25 L
S
GR
GS
[1 0 0 1 381.5 324.25] CT
/Helvetica 13 F
GS
[1 0 0 1 0 0] CT
0 5 moveto 
1 -1 scale
(Part I & B Frames) t 
GR
GR
GS
0.467 0.675 0.188 RC
[10 6] 0 setdash
2 LJ
0.5 LW
N
348.5 324.25 M
378.5 324.25 L
S
GR
GS
[1 0 0 1 381.5 340.25] CT
/Helvetica 13 F
GS
[1 0 0 1 0 0] CT
0 5 moveto 
1 -1 scale
(Part I Frames Only) t 
GR
GR
GS
0.302 0.745 0.933 RC
[10 6] 0 setdash
2 LJ
0.5 LW
N
348.5 340.25 M
378.5 340.25 L
S
GR
GS
[1 0 0 1 381.5 356.25] CT
/Helvetica 13 F
GS
[1 0 0 1 0 0] CT
0 5 moveto 
1 -1 scale
(Part B Frames Only) t 
GR
GR
GS
0.635 0.078 0.184 RC
[10 6] 0 setdash
2 LJ
0.5 LW
N
348.5 356.25 M
378.5 356.25 L
S
GR
GS
0.149 GC
10.0 ML
0.5 LW
N
344.5 366 M
344.5 250.5 L
499 250.5 L
499 366 L
cp
S
GR
%%Trailer
%%Pages: 1
%%EOF
