%!PS-Adobe-3.0 EPSF-3.0
%%Creator: (MATLAB, The Mathworks, Inc. Version 9.11.0.1837725 \(R2021b\) Update 2. Operating System: Mac OS X)
%%Title: plots/pchip/Skater227_1920x1080_30fps.y4m-hevc-PSNRV.eps
%%CreationDate: 2022-02-03T19:14:40
%%Pages: (atend)
%%BoundingBox:    33   425   508   826
%%LanguageLevel: 3
%%EndComments
%%BeginProlog
%%BeginResource: procset (Apache XML Graphics Std ProcSet) 1.2 0
%%Version: 1.2 0
%%Copyright: (Copyright 2001-2003,2010 The Apache Software Foundation. License terms: http://www.apache.org/licenses/LICENSE-2.0)
/bd{bind def}bind def
/ld{load def}bd
/GR/grestore ld
/GS/gsave ld
/RM/rmoveto ld
/C/curveto ld
/t/show ld
/L/lineto ld
/ML/setmiterlimit ld
/CT/concat ld
/f/fill ld
/N/newpath ld
/S/stroke ld
/CC/setcmykcolor ld
/A/ashow ld
/cp/closepath ld
/RC/setrgbcolor ld
/LJ/setlinejoin ld
/GC/setgray ld
/LW/setlinewidth ld
/M/moveto ld
/re {4 2 roll M
1 index 0 rlineto
0 exch rlineto
neg 0 rlineto
cp } bd
/_ctm matrix def
/_tm matrix def
/BT { _ctm currentmatrix pop matrix _tm copy pop 0 0 moveto } bd
/ET { _ctm setmatrix } bd
/iTm { _ctm setmatrix _tm concat } bd
/Tm { _tm astore pop iTm 0 0 moveto } bd
/ux 0.0 def
/uy 0.0 def
/F {
  /Tp exch def
  /Tf exch def
  Tf findfont Tp scalefont setfont
  /cf Tf def  /cs Tp def
} bd
/ULS {currentpoint /uy exch def /ux exch def} bd
/ULE {
  /Tcx currentpoint pop def
  gsave
  newpath
  cf findfont cs scalefont dup
  /FontMatrix get 0 get /Ts exch def /FontInfo get dup
  /UnderlinePosition get Ts mul /To exch def
  /UnderlineThickness get Ts mul /Tt exch def
  ux uy To add moveto  Tcx uy To add lineto
  Tt setlinewidth stroke
  grestore
} bd
/OLE {
  /Tcx currentpoint pop def
  gsave
  newpath
  cf findfont cs scalefont dup
  /FontMatrix get 0 get /Ts exch def /FontInfo get dup
  /UnderlinePosition get Ts mul /To exch def
  /UnderlineThickness get Ts mul /Tt exch def
  ux uy To add cs add moveto Tcx uy To add cs add lineto
  Tt setlinewidth stroke
  grestore
} bd
/SOE {
  /Tcx currentpoint pop def
  gsave
  newpath
  cf findfont cs scalefont dup
  /FontMatrix get 0 get /Ts exch def /FontInfo get dup
  /UnderlinePosition get Ts mul /To exch def
  /UnderlineThickness get Ts mul /Tt exch def
  ux uy To add cs 10 mul 26 idiv add moveto Tcx uy To add cs 10 mul 26 idiv add lineto
  Tt setlinewidth stroke
  grestore
} bd
/QT {
/Y22 exch store
/X22 exch store
/Y21 exch store
/X21 exch store
currentpoint
/Y21 load 2 mul add 3 div exch
/X21 load 2 mul add 3 div exch
/X21 load 2 mul /X22 load add 3 div
/Y21 load 2 mul /Y22 load add 3 div
/X22 load /Y22 load curveto
} bd
/SSPD {
dup length /d exch dict def
{
/v exch def
/k exch def
currentpagedevice k known {
/cpdv currentpagedevice k get def
v cpdv ne {
/upd false def
/nullv v type /nulltype eq def
/nullcpdv cpdv type /nulltype eq def
nullv nullcpdv or
{
/upd true def
} {
/sametype v type cpdv type eq def
sametype {
v type /arraytype eq {
/vlen v length def
/cpdvlen cpdv length def
vlen cpdvlen eq {
0 1 vlen 1 sub {
/i exch def
/obj v i get def
/cpdobj cpdv i get def
obj cpdobj ne {
/upd true def
exit
} if
} for
} {
/upd true def
} ifelse
} {
v type /dicttype eq {
v {
/dv exch def
/dk exch def
/cpddv cpdv dk get def
dv cpddv ne {
/upd true def
exit
} if
} forall
} {
/upd true def
} ifelse
} ifelse
} if
} ifelse
upd true eq {
d k v put
} if
} if
} if
} forall
d length 0 gt {
d setpagedevice
} if
} bd
/RE { % /NewFontName [NewEncodingArray] /FontName RE -
  findfont dup length dict begin
  {
    1 index /FID ne
    {def} {pop pop} ifelse
  } forall
  /Encoding exch def
  /FontName 1 index def
  currentdict definefont pop
  end
} bind def
%%EndResource
%%BeginResource: procset (Apache XML Graphics EPS ProcSet) 1.0 0
%%Version: 1.0 0
%%Copyright: (Copyright 2002-2003 The Apache Software Foundation. License terms: http://www.apache.org/licenses/LICENSE-2.0)
/BeginEPSF { %def
/b4_Inc_state save def         % Save state for cleanup
/dict_count countdictstack def % Count objects on dict stack
/op_count count 1 sub def      % Count objects on operand stack
userdict begin                 % Push userdict on dict stack
/showpage { } def              % Redefine showpage, { } = null proc
0 setgray 0 setlinecap         % Prepare graphics state
1 setlinewidth 0 setlinejoin
10 setmiterlimit [ ] 0 setdash newpath
/languagelevel where           % If level not equal to 1 then
{pop languagelevel             % set strokeadjust and
1 ne                           % overprint to their defaults.
{false setstrokeadjust false setoverprint
} if
} if
} bd
/EndEPSF { %def
count op_count sub {pop} repeat            % Clean up stacks
countdictstack dict_count sub {end} repeat
b4_Inc_state restore
} bd
%%EndResource
%FOPBeginFontDict
%%IncludeResource: font Courier-Oblique
%%IncludeResource: font Courier-BoldOblique
%%IncludeResource: font Courier-Bold
%%IncludeResource: font ZapfDingbats
%%IncludeResource: font Symbol
%%IncludeResource: font Helvetica
%%IncludeResource: font Helvetica-Oblique
%%IncludeResource: font Helvetica-Bold
%%IncludeResource: font Helvetica-BoldOblique
%%IncludeResource: font Times-Roman
%%IncludeResource: font Times-Italic
%%IncludeResource: font Times-Bold
%%IncludeResource: font Times-BoldItalic
%%IncludeResource: font Courier
%FOPEndFontDict
%%BeginResource: encoding WinAnsiEncoding
/WinAnsiEncoding [
/.notdef /.notdef /.notdef /.notdef /.notdef
/.notdef /.notdef /.notdef /.notdef /.notdef
/.notdef /.notdef /.notdef /.notdef /.notdef
/.notdef /.notdef /.notdef /.notdef /.notdef
/.notdef /.notdef /.notdef /.notdef /.notdef
/.notdef /.notdef /.notdef /.notdef /.notdef
/.notdef /.notdef /space /exclam /quotedbl
/numbersign /dollar /percent /ampersand /quotesingle
/parenleft /parenright /asterisk /plus /comma
/hyphen /period /slash /zero /one
/two /three /four /five /six
/seven /eight /nine /colon /semicolon
/less /equal /greater /question /at
/A /B /C /D /E
/F /G /H /I /J
/K /L /M /N /O
/P /Q /R /S /T
/U /V /W /X /Y
/Z /bracketleft /backslash /bracketright /asciicircum
/underscore /quoteleft /a /b /c
/d /e /f /g /h
/i /j /k /l /m
/n /o /p /q /r
/s /t /u /v /w
/x /y /z /braceleft /bar
/braceright /asciitilde /bullet /Euro /bullet
/quotesinglbase /florin /quotedblbase /ellipsis /dagger
/daggerdbl /circumflex /perthousand /Scaron /guilsinglleft
/OE /bullet /Zcaron /bullet /bullet
/quoteleft /quoteright /quotedblleft /quotedblright /bullet
/endash /emdash /asciitilde /trademark /scaron
/guilsinglright /oe /bullet /zcaron /Ydieresis
/space /exclamdown /cent /sterling /currency
/yen /brokenbar /section /dieresis /copyright
/ordfeminine /guillemotleft /logicalnot /sfthyphen /registered
/macron /degree /plusminus /twosuperior /threesuperior
/acute /mu /paragraph /middot /cedilla
/onesuperior /ordmasculine /guillemotright /onequarter /onehalf
/threequarters /questiondown /Agrave /Aacute /Acircumflex
/Atilde /Adieresis /Aring /AE /Ccedilla
/Egrave /Eacute /Ecircumflex /Edieresis /Igrave
/Iacute /Icircumflex /Idieresis /Eth /Ntilde
/Ograve /Oacute /Ocircumflex /Otilde /Odieresis
/multiply /Oslash /Ugrave /Uacute /Ucircumflex
/Udieresis /Yacute /Thorn /germandbls /agrave
/aacute /acircumflex /atilde /adieresis /aring
/ae /ccedilla /egrave /eacute /ecircumflex
/edieresis /igrave /iacute /icircumflex /idieresis
/eth /ntilde /ograve /oacute /ocircumflex
/otilde /odieresis /divide /oslash /ugrave
/uacute /ucircumflex /udieresis /yacute /thorn
/ydieresis
] def
%%EndResource
%FOPBeginFontReencode
/Courier-Oblique findfont
dup length dict begin
  {1 index /FID ne {def} {pop pop} ifelse} forall
  /Encoding WinAnsiEncoding def
  currentdict
end
/Courier-Oblique exch definefont pop
/Courier-BoldOblique findfont
dup length dict begin
  {1 index /FID ne {def} {pop pop} ifelse} forall
  /Encoding WinAnsiEncoding def
  currentdict
end
/Courier-BoldOblique exch definefont pop
/Courier-Bold findfont
dup length dict begin
  {1 index /FID ne {def} {pop pop} ifelse} forall
  /Encoding WinAnsiEncoding def
  currentdict
end
/Courier-Bold exch definefont pop
/Helvetica findfont
dup length dict begin
  {1 index /FID ne {def} {pop pop} ifelse} forall
  /Encoding WinAnsiEncoding def
  currentdict
end
/Helvetica exch definefont pop
/Helvetica-Oblique findfont
dup length dict begin
  {1 index /FID ne {def} {pop pop} ifelse} forall
  /Encoding WinAnsiEncoding def
  currentdict
end
/Helvetica-Oblique exch definefont pop
/Helvetica-Bold findfont
dup length dict begin
  {1 index /FID ne {def} {pop pop} ifelse} forall
  /Encoding WinAnsiEncoding def
  currentdict
end
/Helvetica-Bold exch definefont pop
/Helvetica-BoldOblique findfont
dup length dict begin
  {1 index /FID ne {def} {pop pop} ifelse} forall
  /Encoding WinAnsiEncoding def
  currentdict
end
/Helvetica-BoldOblique exch definefont pop
/Times-Roman findfont
dup length dict begin
  {1 index /FID ne {def} {pop pop} ifelse} forall
  /Encoding WinAnsiEncoding def
  currentdict
end
/Times-Roman exch definefont pop
/Times-Italic findfont
dup length dict begin
  {1 index /FID ne {def} {pop pop} ifelse} forall
  /Encoding WinAnsiEncoding def
  currentdict
end
/Times-Italic exch definefont pop
/Times-Bold findfont
dup length dict begin
  {1 index /FID ne {def} {pop pop} ifelse} forall
  /Encoding WinAnsiEncoding def
  currentdict
end
/Times-Bold exch definefont pop
/Times-BoldItalic findfont
dup length dict begin
  {1 index /FID ne {def} {pop pop} ifelse} forall
  /Encoding WinAnsiEncoding def
  currentdict
end
/Times-BoldItalic exch definefont pop
/Courier findfont
dup length dict begin
  {1 index /FID ne {def} {pop pop} ifelse} forall
  /Encoding WinAnsiEncoding def
  currentdict
end
/Courier exch definefont pop
%FOPEndFontReencode
%%EndProlog
%%Page: 1 1
%%PageBoundingBox: 0 0 1120 840
%%BeginPageSetup
[1 0 0 -1 0 840] CT
%%EndPageSetup
GS
1 GC
N
0 0 1120 840 re
f
GR
GS
1 GC
N
73 374 M
507 374 L
507 31.5 L
73 31.5 L
cp
f
GR
GS
0.149 GC
2 setlinecap
1 LJ
0.5 LW
N
73 374 M
507 374 L
S
GR
GS
0.149 GC
2 setlinecap
1 LJ
0.5 LW
N
73 31.5 M
507 31.5 L
S
GR
GS
0.149 GC
2 setlinecap
1 LJ
0.5 LW
N
142.165 374 M
142.165 369.66 L
S
GR
GS
0.149 GC
2 setlinecap
1 LJ
0.5 LW
N
239.404 374 M
239.404 369.66 L
S
GR
GS
0.149 GC
2 setlinecap
1 LJ
0.5 LW
N
336.644 374 M
336.644 369.66 L
S
GR
GS
0.149 GC
2 setlinecap
1 LJ
0.5 LW
N
433.883 374 M
433.883 369.66 L
S
GR
GS
0.149 GC
2 setlinecap
1 LJ
0.5 LW
N
142.165 31.5 M
142.165 35.84 L
S
GR
GS
0.149 GC
2 setlinecap
1 LJ
0.5 LW
N
239.404 31.5 M
239.404 35.84 L
S
GR
GS
0.149 GC
2 setlinecap
1 LJ
0.5 LW
N
336.644 31.5 M
336.644 35.84 L
S
GR
GS
0.149 GC
2 setlinecap
1 LJ
0.5 LW
N
433.883 31.5 M
433.883 35.84 L
S
GR
GS
0.149 GC
2 setlinecap
1 LJ
0.5 LW
N
83.821 374 M
83.821 371.83 L
S
GR
GS
0.149 GC
2 setlinecap
1 LJ
0.5 LW
N
103.269 374 M
103.269 371.83 L
S
GR
GS
0.149 GC
2 setlinecap
1 LJ
0.5 LW
N
122.717 374 M
122.717 371.83 L
S
GR
GS
0.149 GC
2 setlinecap
1 LJ
0.5 LW
N
161.613 374 M
161.613 371.83 L
S
GR
GS
0.149 GC
2 setlinecap
1 LJ
0.5 LW
N
181.061 374 M
181.061 371.83 L
S
GR
GS
0.149 GC
2 setlinecap
1 LJ
0.5 LW
N
200.508 374 M
200.508 371.83 L
S
GR
GS
0.149 GC
2 setlinecap
1 LJ
0.5 LW
N
219.956 374 M
219.956 371.83 L
S
GR
GS
0.149 GC
2 setlinecap
1 LJ
0.5 LW
N
258.852 374 M
258.852 371.83 L
S
GR
GS
0.149 GC
2 setlinecap
1 LJ
0.5 LW
N
278.3 374 M
278.3 371.83 L
S
GR
GS
0.149 GC
2 setlinecap
1 LJ
0.5 LW
N
297.748 374 M
297.748 371.83 L
S
GR
GS
0.149 GC
2 setlinecap
1 LJ
0.5 LW
N
317.196 374 M
317.196 371.83 L
S
GR
GS
0.149 GC
2 setlinecap
1 LJ
0.5 LW
N
356.092 374 M
356.092 371.83 L
S
GR
GS
0.149 GC
2 setlinecap
1 LJ
0.5 LW
N
375.539 374 M
375.539 371.83 L
S
GR
GS
0.149 GC
2 setlinecap
1 LJ
0.5 LW
N
394.987 374 M
394.987 371.83 L
S
GR
GS
0.149 GC
2 setlinecap
1 LJ
0.5 LW
N
414.435 374 M
414.435 371.83 L
S
GR
GS
0.149 GC
2 setlinecap
1 LJ
0.5 LW
N
453.331 374 M
453.331 371.83 L
S
GR
GS
0.149 GC
2 setlinecap
1 LJ
0.5 LW
N
472.779 374 M
472.779 371.83 L
S
GR
GS
0.149 GC
2 setlinecap
1 LJ
0.5 LW
N
492.227 374 M
492.227 371.83 L
S
GR
GS
0.149 GC
2 setlinecap
1 LJ
0.5 LW
N
83.821 31.5 M
83.821 33.67 L
S
GR
GS
0.149 GC
2 setlinecap
1 LJ
0.5 LW
N
103.269 31.5 M
103.269 33.67 L
S
GR
GS
0.149 GC
2 setlinecap
1 LJ
0.5 LW
N
122.717 31.5 M
122.717 33.67 L
S
GR
GS
0.149 GC
2 setlinecap
1 LJ
0.5 LW
N
161.613 31.5 M
161.613 33.67 L
S
GR
GS
0.149 GC
2 setlinecap
1 LJ
0.5 LW
N
181.061 31.5 M
181.061 33.67 L
S
GR
GS
0.149 GC
2 setlinecap
1 LJ
0.5 LW
N
200.508 31.5 M
200.508 33.67 L
S
GR
GS
0.149 GC
2 setlinecap
1 LJ
0.5 LW
N
219.956 31.5 M
219.956 33.67 L
S
GR
GS
0.149 GC
2 setlinecap
1 LJ
0.5 LW
N
258.852 31.5 M
258.852 33.67 L
S
GR
GS
0.149 GC
2 setlinecap
1 LJ
0.5 LW
N
278.3 31.5 M
278.3 33.67 L
S
GR
GS
0.149 GC
2 setlinecap
1 LJ
0.5 LW
N
297.748 31.5 M
297.748 33.67 L
S
GR
GS
0.149 GC
2 setlinecap
1 LJ
0.5 LW
N
317.196 31.5 M
317.196 33.67 L
S
GR
GS
0.149 GC
2 setlinecap
1 LJ
0.5 LW
N
356.092 31.5 M
356.092 33.67 L
S
GR
GS
0.149 GC
2 setlinecap
1 LJ
0.5 LW
N
375.539 31.5 M
375.539 33.67 L
S
GR
GS
0.149 GC
2 setlinecap
1 LJ
0.5 LW
N
394.987 31.5 M
394.987 33.67 L
S
GR
GS
0.149 GC
2 setlinecap
1 LJ
0.5 LW
N
414.435 31.5 M
414.435 33.67 L
S
GR
GS
0.149 GC
2 setlinecap
1 LJ
0.5 LW
N
453.331 31.5 M
453.331 33.67 L
S
GR
GS
0.149 GC
2 setlinecap
1 LJ
0.5 LW
N
472.779 31.5 M
472.779 33.67 L
S
GR
GS
0.149 GC
2 setlinecap
1 LJ
0.5 LW
N
492.227 31.5 M
492.227 33.67 L
S
GR
GS
[1 0 0 1 142.16483 378.80002] CT
0.149 GC
/Helvetica 14 F
GS
[1 0 0 1 0 0] CT
-12 14 moveto 
1 -1 scale
(500) t 
GR
GR
GS
[1 0 0 1 239.40425 378.80002] CT
0.149 GC
/Helvetica 14 F
GS
[1 0 0 1 0 0] CT
-16 14 moveto 
1 -1 scale
(1000) t 
GR
GR
GS
[1 0 0 1 336.64371 378.80002] CT
0.149 GC
/Helvetica 14 F
GS
[1 0 0 1 0 0] CT
-16 14 moveto 
1 -1 scale
(1500) t 
GR
GR
GS
[1 0 0 1 433.88312 378.80002] CT
0.149 GC
/Helvetica 14 F
GS
[1 0 0 1 0 0] CT
-16 14 moveto 
1 -1 scale
(2000) t 
GR
GR
GS
[1 0 0 1 290.00021 396.30008] CT
0.149 GC
/Helvetica 15.4 F
GS
[1 0 0 1 0 0] CT
-42 15 moveto 
1 -1 scale
(Bitrate\(kb/s\)) t 
GR
GR
GS
0.149 GC
2 setlinecap
1 LJ
0.5 LW
N
73 374 M
73 31.5 L
S
GR
GS
0.149 GC
2 setlinecap
1 LJ
0.5 LW
N
507 374 M
507 31.5 L
S
GR
GS
0.149 GC
2 setlinecap
1 LJ
0.5 LW
N
73 360.188 M
77.34 360.188 L
S
GR
GS
0.149 GC
2 setlinecap
1 LJ
0.5 LW
N
73 314.727 M
77.34 314.727 L
S
GR
GS
0.149 GC
2 setlinecap
1 LJ
0.5 LW
N
73 269.265 M
77.34 269.265 L
S
GR
GS
0.149 GC
2 setlinecap
1 LJ
0.5 LW
N
73 223.803 M
77.34 223.803 L
S
GR
GS
0.149 GC
2 setlinecap
1 LJ
0.5 LW
N
73 178.342 M
77.34 178.342 L
S
GR
GS
0.149 GC
2 setlinecap
1 LJ
0.5 LW
N
73 132.88 M
77.34 132.88 L
S
GR
GS
0.149 GC
2 setlinecap
1 LJ
0.5 LW
N
73 87.418 M
77.34 87.418 L
S
GR
GS
0.149 GC
2 setlinecap
1 LJ
0.5 LW
N
73 41.957 M
77.34 41.957 L
S
GR
GS
0.149 GC
2 setlinecap
1 LJ
0.5 LW
N
507 360.188 M
502.66 360.188 L
S
GR
GS
0.149 GC
2 setlinecap
1 LJ
0.5 LW
N
507 314.727 M
502.66 314.727 L
S
GR
GS
0.149 GC
2 setlinecap
1 LJ
0.5 LW
N
507 269.265 M
502.66 269.265 L
S
GR
GS
0.149 GC
2 setlinecap
1 LJ
0.5 LW
N
507 223.803 M
502.66 223.803 L
S
GR
GS
0.149 GC
2 setlinecap
1 LJ
0.5 LW
N
507 178.342 M
502.66 178.342 L
S
GR
GS
0.149 GC
2 setlinecap
1 LJ
0.5 LW
N
507 132.88 M
502.66 132.88 L
S
GR
GS
0.149 GC
2 setlinecap
1 LJ
0.5 LW
N
507 87.418 M
502.66 87.418 L
S
GR
GS
0.149 GC
2 setlinecap
1 LJ
0.5 LW
N
507 41.957 M
502.66 41.957 L
S
GR
GS
0.149 GC
2 setlinecap
1 LJ
0.5 LW
N
73 369.281 M
75.17 369.281 L
S
GR
GS
0.149 GC
2 setlinecap
1 LJ
0.5 LW
N
73 351.096 M
75.17 351.096 L
S
GR
GS
0.149 GC
2 setlinecap
1 LJ
0.5 LW
N
73 342.003 M
75.17 342.003 L
S
GR
GS
0.149 GC
2 setlinecap
1 LJ
0.5 LW
N
73 332.911 M
75.17 332.911 L
S
GR
GS
0.149 GC
2 setlinecap
1 LJ
0.5 LW
N
73 323.819 M
75.17 323.819 L
S
GR
GS
0.149 GC
2 setlinecap
1 LJ
0.5 LW
N
73 305.634 M
75.17 305.634 L
S
GR
GS
0.149 GC
2 setlinecap
1 LJ
0.5 LW
N
73 296.542 M
75.17 296.542 L
S
GR
GS
0.149 GC
2 setlinecap
1 LJ
0.5 LW
N
73 287.45 M
75.17 287.45 L
S
GR
GS
0.149 GC
2 setlinecap
1 LJ
0.5 LW
N
73 278.357 M
75.17 278.357 L
S
GR
GS
0.149 GC
2 setlinecap
1 LJ
0.5 LW
N
73 260.173 M
75.17 260.173 L
S
GR
GS
0.149 GC
2 setlinecap
1 LJ
0.5 LW
N
73 251.08 M
75.17 251.08 L
S
GR
GS
0.149 GC
2 setlinecap
1 LJ
0.5 LW
N
73 241.988 M
75.17 241.988 L
S
GR
GS
0.149 GC
2 setlinecap
1 LJ
0.5 LW
N
73 232.896 M
75.17 232.896 L
S
GR
GS
0.149 GC
2 setlinecap
1 LJ
0.5 LW
N
73 214.711 M
75.17 214.711 L
S
GR
GS
0.149 GC
2 setlinecap
1 LJ
0.5 LW
N
73 205.619 M
75.17 205.619 L
S
GR
GS
0.149 GC
2 setlinecap
1 LJ
0.5 LW
N
73 196.526 M
75.17 196.526 L
S
GR
GS
0.149 GC
2 setlinecap
1 LJ
0.5 LW
N
73 187.434 M
75.17 187.434 L
S
GR
GS
0.149 GC
2 setlinecap
1 LJ
0.5 LW
N
73 169.249 M
75.17 169.249 L
S
GR
GS
0.149 GC
2 setlinecap
1 LJ
0.5 LW
N
73 160.157 M
75.17 160.157 L
S
GR
GS
0.149 GC
2 setlinecap
1 LJ
0.5 LW
N
73 151.065 M
75.17 151.065 L
S
GR
GS
0.149 GC
2 setlinecap
1 LJ
0.5 LW
N
73 141.972 M
75.17 141.972 L
S
GR
GS
0.149 GC
2 setlinecap
1 LJ
0.5 LW
N
73 123.788 M
75.17 123.788 L
S
GR
GS
0.149 GC
2 setlinecap
1 LJ
0.5 LW
N
73 114.695 M
75.17 114.695 L
S
GR
GS
0.149 GC
2 setlinecap
1 LJ
0.5 LW
N
73 105.603 M
75.17 105.603 L
S
GR
GS
0.149 GC
2 setlinecap
1 LJ
0.5 LW
N
73 96.511 M
75.17 96.511 L
S
GR
GS
0.149 GC
2 setlinecap
1 LJ
0.5 LW
N
73 78.326 M
75.17 78.326 L
S
GR
GS
0.149 GC
2 setlinecap
1 LJ
0.5 LW
N
73 69.234 M
75.17 69.234 L
S
GR
GS
0.149 GC
2 setlinecap
1 LJ
0.5 LW
N
73 60.142 M
75.17 60.142 L
S
GR
GS
0.149 GC
2 setlinecap
1 LJ
0.5 LW
N
73 51.049 M
75.17 51.049 L
S
GR
GS
0.149 GC
2 setlinecap
1 LJ
0.5 LW
N
73 32.865 M
75.17 32.865 L
S
GR
GS
0.149 GC
2 setlinecap
1 LJ
0.5 LW
N
507 369.281 M
504.83 369.281 L
S
GR
GS
0.149 GC
2 setlinecap
1 LJ
0.5 LW
N
507 351.096 M
504.83 351.096 L
S
GR
GS
0.149 GC
2 setlinecap
1 LJ
0.5 LW
N
507 342.003 M
504.83 342.003 L
S
GR
GS
0.149 GC
2 setlinecap
1 LJ
0.5 LW
N
507 332.911 M
504.83 332.911 L
S
GR
GS
0.149 GC
2 setlinecap
1 LJ
0.5 LW
N
507 323.819 M
504.83 323.819 L
S
GR
GS
0.149 GC
2 setlinecap
1 LJ
0.5 LW
N
507 305.634 M
504.83 305.634 L
S
GR
GS
0.149 GC
2 setlinecap
1 LJ
0.5 LW
N
507 296.542 M
504.83 296.542 L
S
GR
GS
0.149 GC
2 setlinecap
1 LJ
0.5 LW
N
507 287.45 M
504.83 287.45 L
S
GR
GS
0.149 GC
2 setlinecap
1 LJ
0.5 LW
N
507 278.357 M
504.83 278.357 L
S
GR
GS
0.149 GC
2 setlinecap
1 LJ
0.5 LW
N
507 260.173 M
504.83 260.173 L
S
GR
GS
0.149 GC
2 setlinecap
1 LJ
0.5 LW
N
507 251.08 M
504.83 251.08 L
S
GR
GS
0.149 GC
2 setlinecap
1 LJ
0.5 LW
N
507 241.988 M
504.83 241.988 L
S
GR
GS
0.149 GC
2 setlinecap
1 LJ
0.5 LW
N
507 232.896 M
504.83 232.896 L
S
GR
GS
0.149 GC
2 setlinecap
1 LJ
0.5 LW
N
507 214.711 M
504.83 214.711 L
S
GR
GS
0.149 GC
2 setlinecap
1 LJ
0.5 LW
N
507 205.619 M
504.83 205.619 L
S
GR
GS
0.149 GC
2 setlinecap
1 LJ
0.5 LW
N
507 196.526 M
504.83 196.526 L
S
GR
GS
0.149 GC
2 setlinecap
1 LJ
0.5 LW
N
507 187.434 M
504.83 187.434 L
S
GR
GS
0.149 GC
2 setlinecap
1 LJ
0.5 LW
N
507 169.249 M
504.83 169.249 L
S
GR
GS
0.149 GC
2 setlinecap
1 LJ
0.5 LW
N
507 160.157 M
504.83 160.157 L
S
GR
GS
0.149 GC
2 setlinecap
1 LJ
0.5 LW
N
507 151.065 M
504.83 151.065 L
S
GR
GS
0.149 GC
2 setlinecap
1 LJ
0.5 LW
N
507 141.972 M
504.83 141.972 L
S
GR
GS
0.149 GC
2 setlinecap
1 LJ
0.5 LW
N
507 123.788 M
504.83 123.788 L
S
GR
GS
0.149 GC
2 setlinecap
1 LJ
0.5 LW
N
507 114.695 M
504.83 114.695 L
S
GR
GS
0.149 GC
2 setlinecap
1 LJ
0.5 LW
N
507 105.603 M
504.83 105.603 L
S
GR
GS
0.149 GC
2 setlinecap
1 LJ
0.5 LW
N
507 96.511 M
504.83 96.511 L
S
GR
GS
0.149 GC
2 setlinecap
1 LJ
0.5 LW
N
507 78.326 M
504.83 78.326 L
S
GR
GS
0.149 GC
2 setlinecap
1 LJ
0.5 LW
N
507 69.234 M
504.83 69.234 L
S
GR
GS
0.149 GC
2 setlinecap
1 LJ
0.5 LW
N
507 60.142 M
504.83 60.142 L
S
GR
GS
0.149 GC
2 setlinecap
1 LJ
0.5 LW
N
507 51.049 M
504.83 51.049 L
S
GR
GS
0.149 GC
2 setlinecap
1 LJ
0.5 LW
N
507 32.865 M
504.83 32.865 L
S
GR
GS
[1 0 0 1 68.2 360.18817] CT
0.149 GC
/Helvetica 14 F
GS
[1 0 0 1 0 0] CT
-16 5.5 moveto 
1 -1 scale
(47) t 
GR
GR
GS
[1 0 0 1 68.2 314.72656] CT
0.149 GC
/Helvetica 14 F
GS
[1 0 0 1 0 0] CT
-16 5.5 moveto 
1 -1 scale
(48) t 
GR
GR
GS
[1 0 0 1 68.2 269.26495] CT
0.149 GC
/Helvetica 14 F
GS
[1 0 0 1 0 0] CT
-16 5.5 moveto 
1 -1 scale
(49) t 
GR
GR
GS
[1 0 0 1 68.2 223.80333] CT
0.149 GC
/Helvetica 14 F
GS
[1 0 0 1 0 0] CT
-16 5.5 moveto 
1 -1 scale
(50) t 
GR
GR
GS
[1 0 0 1 68.2 178.34171] CT
0.149 GC
/Helvetica 14 F
GS
[1 0 0 1 0 0] CT
-16 5.5 moveto 
1 -1 scale
(51) t 
GR
GR
GS
[1 0 0 1 68.2 132.8801] CT
0.149 GC
/Helvetica 14 F
GS
[1 0 0 1 0 0] CT
-16 5.5 moveto 
1 -1 scale
(52) t 
GR
GR
GS
[1 0 0 1 68.2 87.41848] CT
0.149 GC
/Helvetica 14 F
GS
[1 0 0 1 0 0] CT
-16 5.5 moveto 
1 -1 scale
(53) t 
GR
GR
GS
[1 0 0 1 68.2 41.95686] CT
0.149 GC
/Helvetica 14 F
GS
[1 0 0 1 0 0] CT
-16 5.5 moveto 
1 -1 scale
(54) t 
GR
GR
GS
[0 -1 1 0 49.2 202.74986] CT
0.149 GC
/Helvetica 15.4 F
GS
[1 0 0 1 0 0] CT
-44 -4 moveto 
1 -1 scale
(PSNR V \(dB\)) t 
GR
GR
GS
[1 0 0 1 290.00031 29.57503] CT
/Helvetica-Bold 15.4 F
GS
[1 0 0 1 0 0] CT
-141 -4 moveto 
1 -1 scale
(Skater227_1920x1080_30fps.y4m-hevc) t 
GR
GR
GS
0 0.447 0.741 RC
1 LJ
0.5 LW
N
73.651 371.665 M
77.541 355.642 L
81.43 340.125 L
85.32 325.485 L
89.209 312.088 L
93.099 300.305 L
96.988 290.238 L
100.878 280.818 L
104.768 271.88 L
108.657 263.422 L
112.547 255.443 L
116.436 247.939 L
120.326 240.91 L
124.215 234.352 L
128.105 228.263 L
131.995 222.642 L
135.884 217.485 L
139.774 212.753 L
143.663 208.216 L
147.553 203.833 L
151.442 199.601 L
155.332 195.513 L
159.222 191.565 L
163.111 187.752 L
167.001 184.07 L
170.89 180.513 L
174.78 177.077 L
178.67 173.756 L
182.559 170.546 L
186.449 167.442 L
190.338 164.438 L
194.228 161.531 L
198.117 158.715 L
202.007 155.986 L
205.897 153.338 L
209.786 150.767 L
213.676 148.267 L
217.565 145.834 L
221.455 143.463 L
225.344 141.15 L
229.234 138.888 L
233.124 136.664 L
237.013 134.446 L
240.903 132.233 L
244.792 130.026 L
248.682 127.824 L
252.571 125.63 L
256.461 123.443 L
260.351 121.265 L
264.24 119.097 L
268.13 116.938 L
272.019 114.791 L
275.909 112.656 L
279.799 110.533 L
283.688 108.424 L
287.578 106.329 L
291.467 104.249 L
295.357 102.185 L
299.246 100.137 L
303.136 98.107 L
307.026 96.095 L
310.915 94.103 L
314.805 92.13 L
318.694 90.177 L
322.584 88.247 L
326.473 86.338 L
330.363 84.453 L
334.253 82.591 L
338.142 80.754 L
342.032 78.943 L
345.921 77.158 L
349.811 75.4 L
353.701 73.669 L
357.59 71.968 L
361.48 70.296 L
365.369 68.654 L
369.259 67.043 L
373.148 65.465 L
377.038 63.918 L
380.928 62.406 L
384.817 60.928 L
388.707 59.484 L
392.596 58.077 L
396.486 56.706 L
400.375 55.373 L
404.265 54.078 L
408.155 52.822 L
412.044 51.606 L
415.934 50.431 L
419.823 49.297 L
423.713 48.206 L
427.602 47.158 L
431.492 46.154 L
435.382 45.194 L
439.271 44.28 L
443.161 43.412 L
447.05 42.591 L
450.94 41.818 L
454.83 41.094 L
458.719 40.419 L
462.609 39.795 L
466.498 39.222 L
470.388 38.701 L
474.277 38.232 L
478.167 37.817 L
S
GR
GS
0.851 0.325 0.098 RC
1 LJ
0.5 LW
N
74.737 356.724 M
78.626 343.06 L
82.516 329.786 L
86.405 317.148 L
90.295 305.391 L
94.185 294.764 L
98.074 285.443 L
101.964 276.722 L
105.853 268.361 L
109.743 260.367 L
113.632 252.748 L
117.522 245.511 L
121.412 238.663 L
125.301 232.21 L
129.191 226.161 L
133.08 220.521 L
136.97 215.299 L
140.859 210.501 L
144.749 206.021 L
148.639 201.678 L
152.528 197.467 L
156.418 193.385 L
160.307 189.428 L
164.197 185.594 L
168.087 181.878 L
171.976 178.278 L
175.866 174.79 L
179.755 171.41 L
183.645 168.136 L
187.534 164.964 L
191.424 161.89 L
195.314 158.911 L
199.203 156.025 L
203.093 153.227 L
206.982 150.513 L
210.872 147.882 L
214.761 145.329 L
218.651 142.851 L
222.541 140.445 L
226.43 138.107 L
230.32 135.833 L
234.209 133.622 L
238.099 131.467 L
241.988 129.334 L
245.878 127.205 L
249.768 125.079 L
253.657 122.958 L
257.547 120.843 L
261.436 118.734 L
265.326 116.632 L
269.216 114.538 L
273.105 112.453 L
276.995 110.377 L
280.884 108.312 L
284.774 106.257 L
288.663 104.214 L
292.553 102.183 L
296.443 100.166 L
300.332 98.163 L
304.222 96.174 L
308.111 94.201 L
312.001 92.244 L
315.89 90.305 L
319.78 88.383 L
323.67 86.479 L
327.559 84.596 L
331.449 82.732 L
335.338 80.888 L
339.228 79.067 L
343.117 77.268 L
347.007 75.492 L
350.897 73.74 L
354.786 72.013 L
358.676 70.311 L
362.565 68.635 L
366.455 66.987 L
370.345 65.366 L
374.234 63.773 L
378.124 62.21 L
382.013 60.677 L
385.903 59.175 L
389.792 57.704 L
393.682 56.265 L
397.572 54.86 L
401.461 53.488 L
405.351 52.151 L
409.24 50.85 L
413.13 49.584 L
417.019 48.356 L
420.909 47.165 L
424.799 46.012 L
428.688 44.899 L
432.578 43.825 L
436.467 42.793 L
440.357 41.802 L
444.247 40.853 L
448.136 39.947 L
452.026 39.084 L
455.915 38.267 L
459.805 37.494 L
463.694 36.768 L
467.584 36.089 L
471.474 35.457 L
475.363 34.873 L
479.253 34.339 L
483.142 33.854 L
487.032 33.42 L
490.921 33.037 L
494.811 32.707 L
498.701 32.429 L
S
GR
GS
0.929 0.694 0.125 RC
1 LJ
0.5 LW
N
73 374 M
76.89 360.328 L
80.779 347.047 L
84.669 334.4 L
88.558 322.629 L
92.448 311.976 L
96.337 302.382 L
100.227 293.15 L
104.117 284.254 L
108.006 275.713 L
111.896 267.545 L
115.785 259.77 L
119.675 252.405 L
123.565 245.469 L
127.454 238.981 L
131.344 232.96 L
135.233 227.424 L
139.123 222.318 L
143.012 217.38 L
146.902 212.583 L
150.792 207.925 L
154.681 203.404 L
158.571 199.017 L
162.46 194.764 L
166.35 190.64 L
170.239 186.645 L
174.129 182.775 L
178.019 179.029 L
181.908 175.405 L
185.798 171.9 L
189.687 168.512 L
193.577 165.24 L
197.466 162.08 L
201.356 159.031 L
205.246 156.09 L
209.135 153.255 L
213.025 150.524 L
216.914 147.896 L
220.804 145.367 L
224.694 142.935 L
228.583 140.592 L
232.473 138.268 L
236.362 135.946 L
240.252 133.627 L
244.141 131.312 L
248.031 129.003 L
251.921 126.7 L
255.81 124.405 L
259.7 122.118 L
263.589 119.842 L
267.479 117.575 L
271.368 115.321 L
275.258 113.08 L
279.148 110.852 L
283.037 108.64 L
286.927 106.444 L
290.816 104.265 L
294.706 102.105 L
298.595 99.964 L
302.485 97.843 L
306.375 95.744 L
310.264 93.668 L
314.154 91.616 L
318.043 89.588 L
321.933 87.587 L
325.823 85.612 L
329.712 83.666 L
333.602 81.748 L
337.491 79.861 L
341.381 78.005 L
345.27 76.182 L
349.16 74.393 L
353.05 72.637 L
356.939 70.918 L
360.829 69.235 L
364.718 67.59 L
368.608 65.984 L
372.497 64.419 L
376.387 62.894 L
380.277 61.411 L
384.166 59.972 L
388.056 58.577 L
391.945 57.227 L
395.835 55.924 L
399.724 54.669 L
403.614 53.462 L
407.504 52.305 L
411.393 51.198 L
415.283 50.144 L
419.172 49.143 L
423.062 48.196 L
426.952 47.303 L
430.841 46.468 L
434.731 45.689 L
438.62 44.969 L
442.51 44.309 L
446.399 43.709 L
450.289 43.171 L
454.179 42.695 L
458.068 42.283 L
461.958 41.937 L
465.847 41.656 L
469.737 41.442 L
473.626 41.297 L
S
GR
GS
0.494 0.184 0.557 RC
1 LJ
0.5 LW
N
75.257 361.366 M
79.146 347.221 L
83.036 333.466 L
86.926 320.343 L
90.815 308.094 L
94.705 296.962 L
98.594 287.163 L
102.484 278.054 L
106.374 269.279 L
110.263 260.856 L
114.153 252.804 L
118.042 245.141 L
121.932 237.884 L
125.821 231.053 L
129.711 224.665 L
133.601 218.739 L
137.49 213.293 L
141.38 208.344 L
145.269 203.861 L
149.159 199.572 L
153.048 195.429 L
156.938 191.427 L
160.828 187.562 L
164.717 183.829 L
168.607 180.224 L
172.496 176.742 L
176.386 173.378 L
180.275 170.127 L
184.165 166.985 L
188.055 163.948 L
191.944 161.01 L
195.834 158.166 L
199.723 155.413 L
203.613 152.745 L
207.503 150.159 L
211.392 147.648 L
215.282 145.209 L
219.171 142.836 L
223.061 140.526 L
226.95 138.273 L
230.84 136.073 L
234.73 133.921 L
238.619 131.813 L
242.509 129.741 L
246.398 127.68 L
250.288 125.622 L
254.177 123.569 L
258.067 121.521 L
261.957 119.479 L
265.846 117.443 L
269.736 115.414 L
273.625 113.393 L
277.515 111.38 L
281.405 109.376 L
285.294 107.381 L
289.184 105.398 L
293.073 103.425 L
296.963 101.464 L
300.852 99.515 L
304.742 97.579 L
308.632 95.657 L
312.521 93.75 L
316.411 91.857 L
320.3 89.98 L
324.19 88.12 L
328.079 86.277 L
331.969 84.451 L
335.859 82.644 L
339.748 80.856 L
343.638 79.087 L
347.527 77.339 L
351.417 75.612 L
355.306 73.907 L
359.196 72.224 L
363.086 70.565 L
366.975 68.929 L
370.865 67.317 L
374.754 65.731 L
378.644 64.17 L
382.534 62.636 L
386.423 61.129 L
390.313 59.649 L
394.202 58.198 L
398.092 56.777 L
401.981 55.385 L
405.871 54.023 L
409.761 52.693 L
413.65 51.394 L
417.54 50.127 L
421.429 48.894 L
425.319 47.695 L
429.208 46.53 L
433.098 45.401 L
436.988 44.307 L
440.877 43.249 L
444.767 42.229 L
448.656 41.246 L
452.546 40.302 L
456.436 39.397 L
460.325 38.532 L
464.215 37.707 L
468.104 36.924 L
471.994 36.182 L
475.883 35.483 L
479.773 34.827 L
483.663 34.215 L
487.552 33.647 L
491.442 33.125 L
495.331 32.648 L
499.221 32.218 L
503.11 31.835 L
507 31.5 L
S
GR
GS
0.467 0.675 0.188 RC
[10 6] 0 setdash
2 LJ
0.5 LW
N
73.382 368.654 M
77.271 353.241 L
81.161 338.329 L
85.05 324.266 L
88.94 311.397 L
92.83 300.069 L
96.719 290.349 L
100.609 281.249 L
104.498 272.634 L
108.388 264.495 L
112.277 256.823 L
116.167 249.607 L
120.057 242.839 L
123.946 236.509 L
127.836 230.607 L
131.725 225.124 L
135.615 220.051 L
139.504 215.297 L
143.394 210.694 L
147.284 206.231 L
151.173 201.908 L
155.063 197.719 L
158.952 193.661 L
162.842 189.73 L
166.732 185.924 L
170.621 182.239 L
174.511 178.671 L
178.4 175.217 L
182.29 171.873 L
186.179 168.636 L
190.069 165.502 L
193.959 162.468 L
197.848 159.53 L
201.738 156.685 L
205.627 153.929 L
209.517 151.259 L
213.406 148.672 L
217.296 146.163 L
221.186 143.729 L
225.075 141.367 L
228.965 139.07 L
232.854 136.791 L
236.744 134.515 L
240.633 132.244 L
244.523 129.979 L
248.413 127.721 L
252.302 125.47 L
256.192 123.228 L
260.081 120.996 L
263.971 118.773 L
267.861 116.562 L
271.75 114.364 L
275.64 112.178 L
279.529 110.006 L
283.419 107.85 L
287.308 105.709 L
291.198 103.584 L
295.088 101.478 L
298.977 99.39 L
302.867 97.321 L
306.756 95.273 L
310.646 93.246 L
314.535 91.242 L
318.425 89.26 L
322.315 87.302 L
326.204 85.37 L
330.094 83.463 L
333.983 81.583 L
337.873 79.73 L
341.762 77.906 L
345.652 76.112 L
349.542 74.348 L
353.431 72.615 L
357.321 70.914 L
361.21 69.247 L
365.1 67.613 L
368.99 66.015 L
372.879 64.452 L
376.769 62.926 L
380.658 61.437 L
384.548 59.988 L
388.437 58.577 L
392.327 57.207 L
396.217 55.879 L
400.106 54.592 L
403.996 53.349 L
407.885 52.149 L
411.775 50.995 L
415.664 49.886 L
419.554 48.824 L
423.444 47.81 L
427.333 46.844 L
431.223 45.928 L
435.112 45.063 L
439.002 44.248 L
442.892 43.486 L
446.781 42.776 L
450.671 42.121 L
454.56 41.521 L
458.45 40.977 L
462.339 40.489 L
466.229 40.059 L
470.119 39.687 L
474.008 39.375 L
S
GR
GS
0.302 0.745 0.933 RC
[10 6] 0 setdash
2 LJ
0.5 LW
N
73.176 371.839 M
77.066 357.226 L
80.955 343.059 L
84.845 329.632 L
88.734 317.244 L
92.624 306.193 L
96.513 296.505 L
100.403 287.311 L
104.293 278.523 L
108.182 270.149 L
112.072 262.195 L
115.961 254.669 L
119.851 247.579 L
123.74 240.932 L
127.63 234.736 L
131.52 228.999 L
135.409 223.727 L
139.299 218.881 L
143.188 214.22 L
147.078 209.71 L
150.967 205.345 L
154.857 201.121 L
158.747 197.035 L
162.636 193.082 L
166.526 189.259 L
170.415 185.561 L
174.305 181.984 L
178.195 178.524 L
182.084 175.177 L
185.974 171.939 L
189.863 168.806 L
193.753 165.774 L
197.642 162.839 L
201.532 159.997 L
205.422 157.243 L
209.311 154.574 L
213.201 151.986 L
217.09 149.474 L
220.98 147.035 L
224.869 144.664 L
228.759 142.357 L
232.649 140.077 L
236.538 137.801 L
240.428 135.529 L
244.317 133.263 L
248.207 131.004 L
252.096 128.752 L
255.986 126.508 L
259.876 124.273 L
263.765 122.048 L
267.655 119.834 L
271.544 117.631 L
275.434 115.441 L
279.324 113.265 L
283.213 111.103 L
287.103 108.957 L
290.992 106.826 L
294.882 104.713 L
298.771 102.618 L
302.661 100.541 L
306.551 98.484 L
310.44 96.448 L
314.33 94.433 L
318.219 92.44 L
322.109 90.471 L
325.998 88.526 L
329.888 86.605 L
333.778 84.711 L
337.667 82.843 L
341.557 81.004 L
345.446 79.192 L
349.336 77.41 L
353.225 75.659 L
357.115 73.938 L
361.005 72.25 L
364.894 70.594 L
368.784 68.973 L
372.673 67.386 L
376.563 65.835 L
380.453 64.32 L
384.342 62.842 L
388.232 61.403 L
392.121 60.003 L
396.011 58.643 L
399.9 57.324 L
403.79 56.047 L
407.68 54.812 L
411.569 53.621 L
415.459 52.475 L
419.348 51.373 L
423.238 50.318 L
427.127 49.31 L
431.017 48.35 L
434.907 47.439 L
438.796 46.578 L
442.686 45.767 L
446.575 45.008 L
450.465 44.301 L
454.354 43.648 L
458.244 43.048 L
462.134 42.504 L
466.023 42.016 L
469.913 41.584 L
473.802 41.21 L
477.692 40.895 L
S
GR
GS
0.635 0.078 0.184 RC
[10 6] 0 setdash
2 LJ
0.5 LW
N
73.826 368.714 M
77.716 353.101 L
81.605 337.97 L
85.495 323.666 L
89.384 310.536 L
93.274 298.926 L
97.164 288.981 L
101.053 279.688 L
104.943 270.854 L
108.832 262.479 L
112.722 254.561 L
116.611 247.101 L
120.501 240.099 L
124.391 233.554 L
128.28 227.467 L
132.17 221.836 L
136.059 216.663 L
139.949 211.933 L
143.839 207.432 L
147.728 203.082 L
151.618 198.879 L
155.507 194.817 L
159.397 190.892 L
163.286 187.099 L
167.176 183.434 L
171.066 179.893 L
174.955 176.47 L
178.845 173.161 L
182.734 169.962 L
186.624 166.867 L
190.513 163.873 L
194.403 160.975 L
198.293 158.167 L
202.182 155.447 L
206.072 152.807 L
209.961 150.246 L
213.851 147.757 L
217.741 145.336 L
221.63 142.979 L
225.52 140.68 L
229.409 138.436 L
233.299 136.242 L
237.188 134.067 L
241.078 131.897 L
244.968 129.731 L
248.857 127.57 L
252.747 125.416 L
256.636 123.269 L
260.526 121.129 L
264.415 118.997 L
268.305 116.875 L
272.195 114.763 L
276.084 112.662 L
279.974 110.572 L
283.863 108.495 L
287.753 106.43 L
291.642 104.38 L
295.532 102.344 L
299.422 100.323 L
303.311 98.319 L
307.201 96.331 L
311.09 94.361 L
314.98 92.41 L
318.87 90.478 L
322.759 88.566 L
326.649 86.674 L
330.538 84.804 L
334.428 82.957 L
338.317 81.132 L
342.207 79.331 L
346.097 77.555 L
349.986 75.805 L
353.876 74.08 L
357.765 72.382 L
361.655 70.712 L
365.544 69.071 L
369.434 67.458 L
373.324 65.876 L
377.213 64.324 L
381.103 62.804 L
384.992 61.316 L
388.882 59.861 L
392.771 58.44 L
396.661 57.054 L
400.551 55.703 L
404.44 54.388 L
408.33 53.11 L
412.219 51.87 L
416.109 50.668 L
419.999 49.505 L
423.888 48.383 L
427.778 47.301 L
431.667 46.26 L
435.557 45.262 L
439.446 44.307 L
443.336 43.395 L
447.226 42.529 L
451.115 41.707 L
455.005 40.932 L
458.894 40.204 L
462.784 39.523 L
466.673 38.891 L
470.563 38.308 L
474.453 37.775 L
478.342 37.292 L
482.232 36.861 L
486.121 36.483 L
S
GR
GS
1 GC
N
499 366 M
499 250.5 L
344.5 250.5 L
344.5 366 L
cp
f
GR
GS
[1 0 0 1 381.5 260.25] CT
/Helvetica 13 F
GS
[1 0 0 1 0 0] CT
0 5 moveto 
1 -1 scale
(Base Run) t 
GR
GR
GS
0 0.447 0.741 RC
1 LJ
0.5 LW
N
348.5 260.25 M
378.5 260.25 L
S
GR
GS
[1 0 0 1 381.5 276.25] CT
/Helvetica 13 F
GS
[1 0 0 1 0 0] CT
0 5 moveto 
1 -1 scale
(I & B Frames) t 
GR
GR
GS
0.851 0.325 0.098 RC
1 LJ
0.5 LW
N
348.5 276.25 M
378.5 276.25 L
S
GR
GS
[1 0 0 1 381.5 292.25] CT
/Helvetica 13 F
GS
[1 0 0 1 0 0] CT
0 5 moveto 
1 -1 scale
(I Frames Only) t 
GR
GR
GS
0.929 0.694 0.125 RC
1 LJ
0.5 LW
N
348.5 292.25 M
378.5 292.25 L
S
GR
GS
[1 0 0 1 381.5 308.25] CT
/Helvetica 13 F
GS
[1 0 0 1 0 0] CT
0 5 moveto 
1 -1 scale
(B Frames Only) t 
GR
GR
GS
0.494 0.184 0.557 RC
1 LJ
0.5 LW
N
348.5 308.25 M
378.5 308.25 L
S
GR
GS
[1 0 0 1 381.5 324.25] CT
/Helvetica 13 F
GS
[1 0 0 1 0 0] CT
0 5 moveto 
1 -1 scale
(Part I & B Frames) t 
GR
GR
GS
0.467 0.675 0.188 RC
[10 6] 0 setdash
2 LJ
0.5 LW
N
348.5 324.25 M
378.5 324.25 L
S
GR
GS
[1 0 0 1 381.5 340.25] CT
/Helvetica 13 F
GS
[1 0 0 1 0 0] CT
0 5 moveto 
1 -1 scale
(Part I Frames Only) t 
GR
GR
GS
0.302 0.745 0.933 RC
[10 6] 0 setdash
2 LJ
0.5 LW
N
348.5 340.25 M
378.5 340.25 L
S
GR
GS
[1 0 0 1 381.5 356.25] CT
/Helvetica 13 F
GS
[1 0 0 1 0 0] CT
0 5 moveto 
1 -1 scale
(Part B Frames Only) t 
GR
GR
GS
0.635 0.078 0.184 RC
[10 6] 0 setdash
2 LJ
0.5 LW
N
348.5 356.25 M
378.5 356.25 L
S
GR
GS
0.149 GC
10.0 ML
0.5 LW
N
344.5 366 M
344.5 250.5 L
499 250.5 L
499 366 L
cp
S
GR
%%Trailer
%%Pages: 1
%%EOF
