%!PS-Adobe-3.0 EPSF-3.0
%%Creator: (MATLAB, The Mathworks, Inc. Version 9.11.0.1837725 \(R2021b\) Update 2. Operating System: Mac OS X)
%%Title: plots/pchip/Skater227_1920x1080_30fps.y4m-av1-SSIM.eps
%%CreationDate: 2022-02-03T19:13:33
%%Pages: (atend)
%%BoundingBox:    33   425   521   826
%%LanguageLevel: 3
%%EndComments
%%BeginProlog
%%BeginResource: procset (Apache XML Graphics Std ProcSet) 1.2 0
%%Version: 1.2 0
%%Copyright: (Copyright 2001-2003,2010 The Apache Software Foundation. License terms: http://www.apache.org/licenses/LICENSE-2.0)
/bd{bind def}bind def
/ld{load def}bd
/GR/grestore ld
/GS/gsave ld
/RM/rmoveto ld
/C/curveto ld
/t/show ld
/L/lineto ld
/ML/setmiterlimit ld
/CT/concat ld
/f/fill ld
/N/newpath ld
/S/stroke ld
/CC/setcmykcolor ld
/A/ashow ld
/cp/closepath ld
/RC/setrgbcolor ld
/LJ/setlinejoin ld
/GC/setgray ld
/LW/setlinewidth ld
/M/moveto ld
/re {4 2 roll M
1 index 0 rlineto
0 exch rlineto
neg 0 rlineto
cp } bd
/_ctm matrix def
/_tm matrix def
/BT { _ctm currentmatrix pop matrix _tm copy pop 0 0 moveto } bd
/ET { _ctm setmatrix } bd
/iTm { _ctm setmatrix _tm concat } bd
/Tm { _tm astore pop iTm 0 0 moveto } bd
/ux 0.0 def
/uy 0.0 def
/F {
  /Tp exch def
  /Tf exch def
  Tf findfont Tp scalefont setfont
  /cf Tf def  /cs Tp def
} bd
/ULS {currentpoint /uy exch def /ux exch def} bd
/ULE {
  /Tcx currentpoint pop def
  gsave
  newpath
  cf findfont cs scalefont dup
  /FontMatrix get 0 get /Ts exch def /FontInfo get dup
  /UnderlinePosition get Ts mul /To exch def
  /UnderlineThickness get Ts mul /Tt exch def
  ux uy To add moveto  Tcx uy To add lineto
  Tt setlinewidth stroke
  grestore
} bd
/OLE {
  /Tcx currentpoint pop def
  gsave
  newpath
  cf findfont cs scalefont dup
  /FontMatrix get 0 get /Ts exch def /FontInfo get dup
  /UnderlinePosition get Ts mul /To exch def
  /UnderlineThickness get Ts mul /Tt exch def
  ux uy To add cs add moveto Tcx uy To add cs add lineto
  Tt setlinewidth stroke
  grestore
} bd
/SOE {
  /Tcx currentpoint pop def
  gsave
  newpath
  cf findfont cs scalefont dup
  /FontMatrix get 0 get /Ts exch def /FontInfo get dup
  /UnderlinePosition get Ts mul /To exch def
  /UnderlineThickness get Ts mul /Tt exch def
  ux uy To add cs 10 mul 26 idiv add moveto Tcx uy To add cs 10 mul 26 idiv add lineto
  Tt setlinewidth stroke
  grestore
} bd
/QT {
/Y22 exch store
/X22 exch store
/Y21 exch store
/X21 exch store
currentpoint
/Y21 load 2 mul add 3 div exch
/X21 load 2 mul add 3 div exch
/X21 load 2 mul /X22 load add 3 div
/Y21 load 2 mul /Y22 load add 3 div
/X22 load /Y22 load curveto
} bd
/SSPD {
dup length /d exch dict def
{
/v exch def
/k exch def
currentpagedevice k known {
/cpdv currentpagedevice k get def
v cpdv ne {
/upd false def
/nullv v type /nulltype eq def
/nullcpdv cpdv type /nulltype eq def
nullv nullcpdv or
{
/upd true def
} {
/sametype v type cpdv type eq def
sametype {
v type /arraytype eq {
/vlen v length def
/cpdvlen cpdv length def
vlen cpdvlen eq {
0 1 vlen 1 sub {
/i exch def
/obj v i get def
/cpdobj cpdv i get def
obj cpdobj ne {
/upd true def
exit
} if
} for
} {
/upd true def
} ifelse
} {
v type /dicttype eq {
v {
/dv exch def
/dk exch def
/cpddv cpdv dk get def
dv cpddv ne {
/upd true def
exit
} if
} forall
} {
/upd true def
} ifelse
} ifelse
} if
} ifelse
upd true eq {
d k v put
} if
} if
} if
} forall
d length 0 gt {
d setpagedevice
} if
} bd
/RE { % /NewFontName [NewEncodingArray] /FontName RE -
  findfont dup length dict begin
  {
    1 index /FID ne
    {def} {pop pop} ifelse
  } forall
  /Encoding exch def
  /FontName 1 index def
  currentdict definefont pop
  end
} bind def
%%EndResource
%%BeginResource: procset (Apache XML Graphics EPS ProcSet) 1.0 0
%%Version: 1.0 0
%%Copyright: (Copyright 2002-2003 The Apache Software Foundation. License terms: http://www.apache.org/licenses/LICENSE-2.0)
/BeginEPSF { %def
/b4_Inc_state save def         % Save state for cleanup
/dict_count countdictstack def % Count objects on dict stack
/op_count count 1 sub def      % Count objects on operand stack
userdict begin                 % Push userdict on dict stack
/showpage { } def              % Redefine showpage, { } = null proc
0 setgray 0 setlinecap         % Prepare graphics state
1 setlinewidth 0 setlinejoin
10 setmiterlimit [ ] 0 setdash newpath
/languagelevel where           % If level not equal to 1 then
{pop languagelevel             % set strokeadjust and
1 ne                           % overprint to their defaults.
{false setstrokeadjust false setoverprint
} if
} if
} bd
/EndEPSF { %def
count op_count sub {pop} repeat            % Clean up stacks
countdictstack dict_count sub {end} repeat
b4_Inc_state restore
} bd
%%EndResource
%FOPBeginFontDict
%%IncludeResource: font Courier-Oblique
%%IncludeResource: font Courier-BoldOblique
%%IncludeResource: font Courier-Bold
%%IncludeResource: font ZapfDingbats
%%IncludeResource: font Symbol
%%IncludeResource: font Helvetica
%%IncludeResource: font Helvetica-Oblique
%%IncludeResource: font Helvetica-Bold
%%IncludeResource: font Helvetica-BoldOblique
%%IncludeResource: font Times-Roman
%%IncludeResource: font Times-Italic
%%IncludeResource: font Times-Bold
%%IncludeResource: font Times-BoldItalic
%%IncludeResource: font Courier
%FOPEndFontDict
%%BeginResource: encoding WinAnsiEncoding
/WinAnsiEncoding [
/.notdef /.notdef /.notdef /.notdef /.notdef
/.notdef /.notdef /.notdef /.notdef /.notdef
/.notdef /.notdef /.notdef /.notdef /.notdef
/.notdef /.notdef /.notdef /.notdef /.notdef
/.notdef /.notdef /.notdef /.notdef /.notdef
/.notdef /.notdef /.notdef /.notdef /.notdef
/.notdef /.notdef /space /exclam /quotedbl
/numbersign /dollar /percent /ampersand /quotesingle
/parenleft /parenright /asterisk /plus /comma
/hyphen /period /slash /zero /one
/two /three /four /five /six
/seven /eight /nine /colon /semicolon
/less /equal /greater /question /at
/A /B /C /D /E
/F /G /H /I /J
/K /L /M /N /O
/P /Q /R /S /T
/U /V /W /X /Y
/Z /bracketleft /backslash /bracketright /asciicircum
/underscore /quoteleft /a /b /c
/d /e /f /g /h
/i /j /k /l /m
/n /o /p /q /r
/s /t /u /v /w
/x /y /z /braceleft /bar
/braceright /asciitilde /bullet /Euro /bullet
/quotesinglbase /florin /quotedblbase /ellipsis /dagger
/daggerdbl /circumflex /perthousand /Scaron /guilsinglleft
/OE /bullet /Zcaron /bullet /bullet
/quoteleft /quoteright /quotedblleft /quotedblright /bullet
/endash /emdash /asciitilde /trademark /scaron
/guilsinglright /oe /bullet /zcaron /Ydieresis
/space /exclamdown /cent /sterling /currency
/yen /brokenbar /section /dieresis /copyright
/ordfeminine /guillemotleft /logicalnot /sfthyphen /registered
/macron /degree /plusminus /twosuperior /threesuperior
/acute /mu /paragraph /middot /cedilla
/onesuperior /ordmasculine /guillemotright /onequarter /onehalf
/threequarters /questiondown /Agrave /Aacute /Acircumflex
/Atilde /Adieresis /Aring /AE /Ccedilla
/Egrave /Eacute /Ecircumflex /Edieresis /Igrave
/Iacute /Icircumflex /Idieresis /Eth /Ntilde
/Ograve /Oacute /Ocircumflex /Otilde /Odieresis
/multiply /Oslash /Ugrave /Uacute /Ucircumflex
/Udieresis /Yacute /Thorn /germandbls /agrave
/aacute /acircumflex /atilde /adieresis /aring
/ae /ccedilla /egrave /eacute /ecircumflex
/edieresis /igrave /iacute /icircumflex /idieresis
/eth /ntilde /ograve /oacute /ocircumflex
/otilde /odieresis /divide /oslash /ugrave
/uacute /ucircumflex /udieresis /yacute /thorn
/ydieresis
] def
%%EndResource
%FOPBeginFontReencode
/Courier-Oblique findfont
dup length dict begin
  {1 index /FID ne {def} {pop pop} ifelse} forall
  /Encoding WinAnsiEncoding def
  currentdict
end
/Courier-Oblique exch definefont pop
/Courier-BoldOblique findfont
dup length dict begin
  {1 index /FID ne {def} {pop pop} ifelse} forall
  /Encoding WinAnsiEncoding def
  currentdict
end
/Courier-BoldOblique exch definefont pop
/Courier-Bold findfont
dup length dict begin
  {1 index /FID ne {def} {pop pop} ifelse} forall
  /Encoding WinAnsiEncoding def
  currentdict
end
/Courier-Bold exch definefont pop
/Helvetica findfont
dup length dict begin
  {1 index /FID ne {def} {pop pop} ifelse} forall
  /Encoding WinAnsiEncoding def
  currentdict
end
/Helvetica exch definefont pop
/Helvetica-Oblique findfont
dup length dict begin
  {1 index /FID ne {def} {pop pop} ifelse} forall
  /Encoding WinAnsiEncoding def
  currentdict
end
/Helvetica-Oblique exch definefont pop
/Helvetica-Bold findfont
dup length dict begin
  {1 index /FID ne {def} {pop pop} ifelse} forall
  /Encoding WinAnsiEncoding def
  currentdict
end
/Helvetica-Bold exch definefont pop
/Helvetica-BoldOblique findfont
dup length dict begin
  {1 index /FID ne {def} {pop pop} ifelse} forall
  /Encoding WinAnsiEncoding def
  currentdict
end
/Helvetica-BoldOblique exch definefont pop
/Times-Roman findfont
dup length dict begin
  {1 index /FID ne {def} {pop pop} ifelse} forall
  /Encoding WinAnsiEncoding def
  currentdict
end
/Times-Roman exch definefont pop
/Times-Italic findfont
dup length dict begin
  {1 index /FID ne {def} {pop pop} ifelse} forall
  /Encoding WinAnsiEncoding def
  currentdict
end
/Times-Italic exch definefont pop
/Times-Bold findfont
dup length dict begin
  {1 index /FID ne {def} {pop pop} ifelse} forall
  /Encoding WinAnsiEncoding def
  currentdict
end
/Times-Bold exch definefont pop
/Times-BoldItalic findfont
dup length dict begin
  {1 index /FID ne {def} {pop pop} ifelse} forall
  /Encoding WinAnsiEncoding def
  currentdict
end
/Times-BoldItalic exch definefont pop
/Courier findfont
dup length dict begin
  {1 index /FID ne {def} {pop pop} ifelse} forall
  /Encoding WinAnsiEncoding def
  currentdict
end
/Courier exch definefont pop
%FOPEndFontReencode
%%EndProlog
%%Page: 1 1
%%PageBoundingBox: 0 0 1120 840
%%BeginPageSetup
[1 0 0 -1 0 840] CT
%%EndPageSetup
GS
1 GC
N
0 0 1120 840 re
f
GR
GS
1 GC
N
73 374 M
507 374 L
507 31.5 L
73 31.5 L
cp
f
GR
GS
0.149 GC
2 setlinecap
1 LJ
0.5 LW
N
73 374 M
507 374 L
S
GR
GS
0.149 GC
2 setlinecap
1 LJ
0.5 LW
N
73 31.5 M
507 31.5 L
S
GR
GS
0.149 GC
2 setlinecap
1 LJ
0.5 LW
N
134.976 374 M
134.976 369.66 L
S
GR
GS
0.149 GC
2 setlinecap
1 LJ
0.5 LW
N
227.53 374 M
227.53 369.66 L
S
GR
GS
0.149 GC
2 setlinecap
1 LJ
0.5 LW
N
320.084 374 M
320.084 369.66 L
S
GR
GS
0.149 GC
2 setlinecap
1 LJ
0.5 LW
N
412.638 374 M
412.638 369.66 L
S
GR
GS
0.149 GC
2 setlinecap
1 LJ
0.5 LW
N
505.192 374 M
505.192 369.66 L
S
GR
GS
0.149 GC
2 setlinecap
1 LJ
0.5 LW
N
134.976 31.5 M
134.976 35.84 L
S
GR
GS
0.149 GC
2 setlinecap
1 LJ
0.5 LW
N
227.53 31.5 M
227.53 35.84 L
S
GR
GS
0.149 GC
2 setlinecap
1 LJ
0.5 LW
N
320.084 31.5 M
320.084 35.84 L
S
GR
GS
0.149 GC
2 setlinecap
1 LJ
0.5 LW
N
412.638 31.5 M
412.638 35.84 L
S
GR
GS
0.149 GC
2 setlinecap
1 LJ
0.5 LW
N
505.192 31.5 M
505.192 35.84 L
S
GR
GS
0.149 GC
2 setlinecap
1 LJ
0.5 LW
N
79.444 374 M
79.444 371.83 L
S
GR
GS
0.149 GC
2 setlinecap
1 LJ
0.5 LW
N
97.955 374 M
97.955 371.83 L
S
GR
GS
0.149 GC
2 setlinecap
1 LJ
0.5 LW
N
116.465 374 M
116.465 371.83 L
S
GR
GS
0.149 GC
2 setlinecap
1 LJ
0.5 LW
N
153.487 374 M
153.487 371.83 L
S
GR
GS
0.149 GC
2 setlinecap
1 LJ
0.5 LW
N
171.998 374 M
171.998 371.83 L
S
GR
GS
0.149 GC
2 setlinecap
1 LJ
0.5 LW
N
190.509 374 M
190.509 371.83 L
S
GR
GS
0.149 GC
2 setlinecap
1 LJ
0.5 LW
N
209.019 374 M
209.019 371.83 L
S
GR
GS
0.149 GC
2 setlinecap
1 LJ
0.5 LW
N
246.041 374 M
246.041 371.83 L
S
GR
GS
0.149 GC
2 setlinecap
1 LJ
0.5 LW
N
264.552 374 M
264.552 371.83 L
S
GR
GS
0.149 GC
2 setlinecap
1 LJ
0.5 LW
N
283.063 374 M
283.063 371.83 L
S
GR
GS
0.149 GC
2 setlinecap
1 LJ
0.5 LW
N
301.573 374 M
301.573 371.83 L
S
GR
GS
0.149 GC
2 setlinecap
1 LJ
0.5 LW
N
338.595 374 M
338.595 371.83 L
S
GR
GS
0.149 GC
2 setlinecap
1 LJ
0.5 LW
N
357.106 374 M
357.106 371.83 L
S
GR
GS
0.149 GC
2 setlinecap
1 LJ
0.5 LW
N
375.616 374 M
375.616 371.83 L
S
GR
GS
0.149 GC
2 setlinecap
1 LJ
0.5 LW
N
394.127 374 M
394.127 371.83 L
S
GR
GS
0.149 GC
2 setlinecap
1 LJ
0.5 LW
N
431.149 374 M
431.149 371.83 L
S
GR
GS
0.149 GC
2 setlinecap
1 LJ
0.5 LW
N
449.66 374 M
449.66 371.83 L
S
GR
GS
0.149 GC
2 setlinecap
1 LJ
0.5 LW
N
468.17 374 M
468.17 371.83 L
S
GR
GS
0.149 GC
2 setlinecap
1 LJ
0.5 LW
N
486.681 374 M
486.681 371.83 L
S
GR
GS
0.149 GC
2 setlinecap
1 LJ
0.5 LW
N
79.444 31.5 M
79.444 33.67 L
S
GR
GS
0.149 GC
2 setlinecap
1 LJ
0.5 LW
N
97.955 31.5 M
97.955 33.67 L
S
GR
GS
0.149 GC
2 setlinecap
1 LJ
0.5 LW
N
116.465 31.5 M
116.465 33.67 L
S
GR
GS
0.149 GC
2 setlinecap
1 LJ
0.5 LW
N
153.487 31.5 M
153.487 33.67 L
S
GR
GS
0.149 GC
2 setlinecap
1 LJ
0.5 LW
N
171.998 31.5 M
171.998 33.67 L
S
GR
GS
0.149 GC
2 setlinecap
1 LJ
0.5 LW
N
190.509 31.5 M
190.509 33.67 L
S
GR
GS
0.149 GC
2 setlinecap
1 LJ
0.5 LW
N
209.019 31.5 M
209.019 33.67 L
S
GR
GS
0.149 GC
2 setlinecap
1 LJ
0.5 LW
N
246.041 31.5 M
246.041 33.67 L
S
GR
GS
0.149 GC
2 setlinecap
1 LJ
0.5 LW
N
264.552 31.5 M
264.552 33.67 L
S
GR
GS
0.149 GC
2 setlinecap
1 LJ
0.5 LW
N
283.063 31.5 M
283.063 33.67 L
S
GR
GS
0.149 GC
2 setlinecap
1 LJ
0.5 LW
N
301.573 31.5 M
301.573 33.67 L
S
GR
GS
0.149 GC
2 setlinecap
1 LJ
0.5 LW
N
338.595 31.5 M
338.595 33.67 L
S
GR
GS
0.149 GC
2 setlinecap
1 LJ
0.5 LW
N
357.106 31.5 M
357.106 33.67 L
S
GR
GS
0.149 GC
2 setlinecap
1 LJ
0.5 LW
N
375.616 31.5 M
375.616 33.67 L
S
GR
GS
0.149 GC
2 setlinecap
1 LJ
0.5 LW
N
394.127 31.5 M
394.127 33.67 L
S
GR
GS
0.149 GC
2 setlinecap
1 LJ
0.5 LW
N
431.149 31.5 M
431.149 33.67 L
S
GR
GS
0.149 GC
2 setlinecap
1 LJ
0.5 LW
N
449.66 31.5 M
449.66 33.67 L
S
GR
GS
0.149 GC
2 setlinecap
1 LJ
0.5 LW
N
468.17 31.5 M
468.17 33.67 L
S
GR
GS
0.149 GC
2 setlinecap
1 LJ
0.5 LW
N
486.681 31.5 M
486.681 33.67 L
S
GR
GS
[1 0 0 1 134.97626 378.80002] CT
0.149 GC
/Helvetica 14 F
GS
[1 0 0 1 0 0] CT
-12 14 moveto 
1 -1 scale
(500) t 
GR
GR
GS
[1 0 0 1 227.53017 378.80002] CT
0.149 GC
/Helvetica 14 F
GS
[1 0 0 1 0 0] CT
-16 14 moveto 
1 -1 scale
(1000) t 
GR
GR
GS
[1 0 0 1 320.08408 378.80002] CT
0.149 GC
/Helvetica 14 F
GS
[1 0 0 1 0 0] CT
-16 14 moveto 
1 -1 scale
(1500) t 
GR
GR
GS
[1 0 0 1 412.63797 378.80002] CT
0.149 GC
/Helvetica 14 F
GS
[1 0 0 1 0 0] CT
-16 14 moveto 
1 -1 scale
(2000) t 
GR
GR
GS
[1 0 0 1 505.19186 378.80002] CT
0.149 GC
/Helvetica 14 F
GS
[1 0 0 1 0 0] CT
-16 14 moveto 
1 -1 scale
(2500) t 
GR
GR
GS
[1 0 0 1 290.00021 396.30002] CT
0.149 GC
/Helvetica 15.4 F
GS
[1 0 0 1 0 0] CT
-42 15 moveto 
1 -1 scale
(Bitrate\(kb/s\)) t 
GR
GR
GS
0.149 GC
2 setlinecap
1 LJ
0.5 LW
N
73 374 M
73 31.5 L
S
GR
GS
0.149 GC
2 setlinecap
1 LJ
0.5 LW
N
507 374 M
507 31.5 L
S
GR
GS
0.149 GC
2 setlinecap
1 LJ
0.5 LW
N
73 362.952 M
77.34 362.952 L
S
GR
GS
0.149 GC
2 setlinecap
1 LJ
0.5 LW
N
73 329.392 M
77.34 329.392 L
S
GR
GS
0.149 GC
2 setlinecap
1 LJ
0.5 LW
N
73 295.832 M
77.34 295.832 L
S
GR
GS
0.149 GC
2 setlinecap
1 LJ
0.5 LW
N
73 262.272 M
77.34 262.272 L
S
GR
GS
0.149 GC
2 setlinecap
1 LJ
0.5 LW
N
73 228.711 M
77.34 228.711 L
S
GR
GS
0.149 GC
2 setlinecap
1 LJ
0.5 LW
N
73 195.151 M
77.34 195.151 L
S
GR
GS
0.149 GC
2 setlinecap
1 LJ
0.5 LW
N
73 161.591 M
77.34 161.591 L
S
GR
GS
0.149 GC
2 setlinecap
1 LJ
0.5 LW
N
73 128.031 M
77.34 128.031 L
S
GR
GS
0.149 GC
2 setlinecap
1 LJ
0.5 LW
N
73 94.47 M
77.34 94.47 L
S
GR
GS
0.149 GC
2 setlinecap
1 LJ
0.5 LW
N
73 60.91 M
77.34 60.91 L
S
GR
GS
0.149 GC
2 setlinecap
1 LJ
0.5 LW
N
507 362.952 M
502.66 362.952 L
S
GR
GS
0.149 GC
2 setlinecap
1 LJ
0.5 LW
N
507 329.392 M
502.66 329.392 L
S
GR
GS
0.149 GC
2 setlinecap
1 LJ
0.5 LW
N
507 295.832 M
502.66 295.832 L
S
GR
GS
0.149 GC
2 setlinecap
1 LJ
0.5 LW
N
507 262.272 M
502.66 262.272 L
S
GR
GS
0.149 GC
2 setlinecap
1 LJ
0.5 LW
N
507 228.711 M
502.66 228.711 L
S
GR
GS
0.149 GC
2 setlinecap
1 LJ
0.5 LW
N
507 195.151 M
502.66 195.151 L
S
GR
GS
0.149 GC
2 setlinecap
1 LJ
0.5 LW
N
507 161.591 M
502.66 161.591 L
S
GR
GS
0.149 GC
2 setlinecap
1 LJ
0.5 LW
N
507 128.031 M
502.66 128.031 L
S
GR
GS
0.149 GC
2 setlinecap
1 LJ
0.5 LW
N
507 94.47 M
502.66 94.47 L
S
GR
GS
0.149 GC
2 setlinecap
1 LJ
0.5 LW
N
507 60.91 M
502.66 60.91 L
S
GR
GS
0.149 GC
2 setlinecap
1 LJ
0.5 LW
N
73 369.664 M
75.17 369.664 L
S
GR
GS
0.149 GC
2 setlinecap
1 LJ
0.5 LW
N
73 356.24 M
75.17 356.24 L
S
GR
GS
0.149 GC
2 setlinecap
1 LJ
0.5 LW
N
73 349.528 M
75.17 349.528 L
S
GR
GS
0.149 GC
2 setlinecap
1 LJ
0.5 LW
N
73 342.816 M
75.17 342.816 L
S
GR
GS
0.149 GC
2 setlinecap
1 LJ
0.5 LW
N
73 336.104 M
75.17 336.104 L
S
GR
GS
0.149 GC
2 setlinecap
1 LJ
0.5 LW
N
73 322.68 M
75.17 322.68 L
S
GR
GS
0.149 GC
2 setlinecap
1 LJ
0.5 LW
N
73 315.968 M
75.17 315.968 L
S
GR
GS
0.149 GC
2 setlinecap
1 LJ
0.5 LW
N
73 309.256 M
75.17 309.256 L
S
GR
GS
0.149 GC
2 setlinecap
1 LJ
0.5 LW
N
73 302.544 M
75.17 302.544 L
S
GR
GS
0.149 GC
2 setlinecap
1 LJ
0.5 LW
N
73 289.12 M
75.17 289.12 L
S
GR
GS
0.149 GC
2 setlinecap
1 LJ
0.5 LW
N
73 282.408 M
75.17 282.408 L
S
GR
GS
0.149 GC
2 setlinecap
1 LJ
0.5 LW
N
73 275.696 M
75.17 275.696 L
S
GR
GS
0.149 GC
2 setlinecap
1 LJ
0.5 LW
N
73 268.984 M
75.17 268.984 L
S
GR
GS
0.149 GC
2 setlinecap
1 LJ
0.5 LW
N
73 255.56 M
75.17 255.56 L
S
GR
GS
0.149 GC
2 setlinecap
1 LJ
0.5 LW
N
73 248.848 M
75.17 248.848 L
S
GR
GS
0.149 GC
2 setlinecap
1 LJ
0.5 LW
N
73 242.136 M
75.17 242.136 L
S
GR
GS
0.149 GC
2 setlinecap
1 LJ
0.5 LW
N
73 235.424 M
75.17 235.424 L
S
GR
GS
0.149 GC
2 setlinecap
1 LJ
0.5 LW
N
73 221.999 M
75.17 221.999 L
S
GR
GS
0.149 GC
2 setlinecap
1 LJ
0.5 LW
N
73 215.287 M
75.17 215.287 L
S
GR
GS
0.149 GC
2 setlinecap
1 LJ
0.5 LW
N
73 208.575 M
75.17 208.575 L
S
GR
GS
0.149 GC
2 setlinecap
1 LJ
0.5 LW
N
73 201.863 M
75.17 201.863 L
S
GR
GS
0.149 GC
2 setlinecap
1 LJ
0.5 LW
N
73 188.439 M
75.17 188.439 L
S
GR
GS
0.149 GC
2 setlinecap
1 LJ
0.5 LW
N
73 181.727 M
75.17 181.727 L
S
GR
GS
0.149 GC
2 setlinecap
1 LJ
0.5 LW
N
73 175.015 M
75.17 175.015 L
S
GR
GS
0.149 GC
2 setlinecap
1 LJ
0.5 LW
N
73 168.303 M
75.17 168.303 L
S
GR
GS
0.149 GC
2 setlinecap
1 LJ
0.5 LW
N
73 154.879 M
75.17 154.879 L
S
GR
GS
0.149 GC
2 setlinecap
1 LJ
0.5 LW
N
73 148.167 M
75.17 148.167 L
S
GR
GS
0.149 GC
2 setlinecap
1 LJ
0.5 LW
N
73 141.455 M
75.17 141.455 L
S
GR
GS
0.149 GC
2 setlinecap
1 LJ
0.5 LW
N
73 134.743 M
75.17 134.743 L
S
GR
GS
0.149 GC
2 setlinecap
1 LJ
0.5 LW
N
73 121.319 M
75.17 121.319 L
S
GR
GS
0.149 GC
2 setlinecap
1 LJ
0.5 LW
N
73 114.607 M
75.17 114.607 L
S
GR
GS
0.149 GC
2 setlinecap
1 LJ
0.5 LW
N
73 107.895 M
75.17 107.895 L
S
GR
GS
0.149 GC
2 setlinecap
1 LJ
0.5 LW
N
73 101.183 M
75.17 101.183 L
S
GR
GS
0.149 GC
2 setlinecap
1 LJ
0.5 LW
N
73 87.758 M
75.17 87.758 L
S
GR
GS
0.149 GC
2 setlinecap
1 LJ
0.5 LW
N
73 81.046 M
75.17 81.046 L
S
GR
GS
0.149 GC
2 setlinecap
1 LJ
0.5 LW
N
73 74.334 M
75.17 74.334 L
S
GR
GS
0.149 GC
2 setlinecap
1 LJ
0.5 LW
N
73 67.622 M
75.17 67.622 L
S
GR
GS
0.149 GC
2 setlinecap
1 LJ
0.5 LW
N
73 54.198 M
75.17 54.198 L
S
GR
GS
0.149 GC
2 setlinecap
1 LJ
0.5 LW
N
73 47.486 M
75.17 47.486 L
S
GR
GS
0.149 GC
2 setlinecap
1 LJ
0.5 LW
N
73 40.774 M
75.17 40.774 L
S
GR
GS
0.149 GC
2 setlinecap
1 LJ
0.5 LW
N
73 34.062 M
75.17 34.062 L
S
GR
GS
0.149 GC
2 setlinecap
1 LJ
0.5 LW
N
507 369.664 M
504.83 369.664 L
S
GR
GS
0.149 GC
2 setlinecap
1 LJ
0.5 LW
N
507 356.24 M
504.83 356.24 L
S
GR
GS
0.149 GC
2 setlinecap
1 LJ
0.5 LW
N
507 349.528 M
504.83 349.528 L
S
GR
GS
0.149 GC
2 setlinecap
1 LJ
0.5 LW
N
507 342.816 M
504.83 342.816 L
S
GR
GS
0.149 GC
2 setlinecap
1 LJ
0.5 LW
N
507 336.104 M
504.83 336.104 L
S
GR
GS
0.149 GC
2 setlinecap
1 LJ
0.5 LW
N
507 322.68 M
504.83 322.68 L
S
GR
GS
0.149 GC
2 setlinecap
1 LJ
0.5 LW
N
507 315.968 M
504.83 315.968 L
S
GR
GS
0.149 GC
2 setlinecap
1 LJ
0.5 LW
N
507 309.256 M
504.83 309.256 L
S
GR
GS
0.149 GC
2 setlinecap
1 LJ
0.5 LW
N
507 302.544 M
504.83 302.544 L
S
GR
GS
0.149 GC
2 setlinecap
1 LJ
0.5 LW
N
507 289.12 M
504.83 289.12 L
S
GR
GS
0.149 GC
2 setlinecap
1 LJ
0.5 LW
N
507 282.408 M
504.83 282.408 L
S
GR
GS
0.149 GC
2 setlinecap
1 LJ
0.5 LW
N
507 275.696 M
504.83 275.696 L
S
GR
GS
0.149 GC
2 setlinecap
1 LJ
0.5 LW
N
507 268.984 M
504.83 268.984 L
S
GR
GS
0.149 GC
2 setlinecap
1 LJ
0.5 LW
N
507 255.56 M
504.83 255.56 L
S
GR
GS
0.149 GC
2 setlinecap
1 LJ
0.5 LW
N
507 248.848 M
504.83 248.848 L
S
GR
GS
0.149 GC
2 setlinecap
1 LJ
0.5 LW
N
507 242.136 M
504.83 242.136 L
S
GR
GS
0.149 GC
2 setlinecap
1 LJ
0.5 LW
N
507 235.424 M
504.83 235.424 L
S
GR
GS
0.149 GC
2 setlinecap
1 LJ
0.5 LW
N
507 221.999 M
504.83 221.999 L
S
GR
GS
0.149 GC
2 setlinecap
1 LJ
0.5 LW
N
507 215.287 M
504.83 215.287 L
S
GR
GS
0.149 GC
2 setlinecap
1 LJ
0.5 LW
N
507 208.575 M
504.83 208.575 L
S
GR
GS
0.149 GC
2 setlinecap
1 LJ
0.5 LW
N
507 201.863 M
504.83 201.863 L
S
GR
GS
0.149 GC
2 setlinecap
1 LJ
0.5 LW
N
507 188.439 M
504.83 188.439 L
S
GR
GS
0.149 GC
2 setlinecap
1 LJ
0.5 LW
N
507 181.727 M
504.83 181.727 L
S
GR
GS
0.149 GC
2 setlinecap
1 LJ
0.5 LW
N
507 175.015 M
504.83 175.015 L
S
GR
GS
0.149 GC
2 setlinecap
1 LJ
0.5 LW
N
507 168.303 M
504.83 168.303 L
S
GR
GS
0.149 GC
2 setlinecap
1 LJ
0.5 LW
N
507 154.879 M
504.83 154.879 L
S
GR
GS
0.149 GC
2 setlinecap
1 LJ
0.5 LW
N
507 148.167 M
504.83 148.167 L
S
GR
GS
0.149 GC
2 setlinecap
1 LJ
0.5 LW
N
507 141.455 M
504.83 141.455 L
S
GR
GS
0.149 GC
2 setlinecap
1 LJ
0.5 LW
N
507 134.743 M
504.83 134.743 L
S
GR
GS
0.149 GC
2 setlinecap
1 LJ
0.5 LW
N
507 121.319 M
504.83 121.319 L
S
GR
GS
0.149 GC
2 setlinecap
1 LJ
0.5 LW
N
507 114.607 M
504.83 114.607 L
S
GR
GS
0.149 GC
2 setlinecap
1 LJ
0.5 LW
N
507 107.895 M
504.83 107.895 L
S
GR
GS
0.149 GC
2 setlinecap
1 LJ
0.5 LW
N
507 101.183 M
504.83 101.183 L
S
GR
GS
0.149 GC
2 setlinecap
1 LJ
0.5 LW
N
507 87.758 M
504.83 87.758 L
S
GR
GS
0.149 GC
2 setlinecap
1 LJ
0.5 LW
N
507 81.046 M
504.83 81.046 L
S
GR
GS
0.149 GC
2 setlinecap
1 LJ
0.5 LW
N
507 74.334 M
504.83 74.334 L
S
GR
GS
0.149 GC
2 setlinecap
1 LJ
0.5 LW
N
507 67.622 M
504.83 67.622 L
S
GR
GS
0.149 GC
2 setlinecap
1 LJ
0.5 LW
N
507 54.198 M
504.83 54.198 L
S
GR
GS
0.149 GC
2 setlinecap
1 LJ
0.5 LW
N
507 47.486 M
504.83 47.486 L
S
GR
GS
0.149 GC
2 setlinecap
1 LJ
0.5 LW
N
507 40.774 M
504.83 40.774 L
S
GR
GS
0.149 GC
2 setlinecap
1 LJ
0.5 LW
N
507 34.062 M
504.83 34.062 L
S
GR
GS
[1 0 0 1 68.2 362.95242] CT
0.149 GC
/Helvetica 14 F
GS
[1 0 0 1 0 0] CT
-16 5.5 moveto 
1 -1 scale
(16) t 
GR
GR
GS
[1 0 0 1 68.2 329.39218] CT
0.149 GC
/Helvetica 14 F
GS
[1 0 0 1 0 0] CT
-16 5.5 moveto 
1 -1 scale
(17) t 
GR
GR
GS
[1 0 0 1 68.2 295.83194] CT
0.149 GC
/Helvetica 14 F
GS
[1 0 0 1 0 0] CT
-16 5.5 moveto 
1 -1 scale
(18) t 
GR
GR
GS
[1 0 0 1 68.2 262.2717] CT
0.149 GC
/Helvetica 14 F
GS
[1 0 0 1 0 0] CT
-16 5.5 moveto 
1 -1 scale
(19) t 
GR
GR
GS
[1 0 0 1 68.2 228.71144] CT
0.149 GC
/Helvetica 14 F
GS
[1 0 0 1 0 0] CT
-16 5.5 moveto 
1 -1 scale
(20) t 
GR
GR
GS
[1 0 0 1 68.2 195.1512] CT
0.149 GC
/Helvetica 14 F
GS
[1 0 0 1 0 0] CT
-16 5.5 moveto 
1 -1 scale
(21) t 
GR
GR
GS
[1 0 0 1 68.2 161.59094] CT
0.149 GC
/Helvetica 14 F
GS
[1 0 0 1 0 0] CT
-16 5.5 moveto 
1 -1 scale
(22) t 
GR
GR
GS
[1 0 0 1 68.2 128.0307] CT
0.149 GC
/Helvetica 14 F
GS
[1 0 0 1 0 0] CT
-16 5.5 moveto 
1 -1 scale
(23) t 
GR
GR
GS
[1 0 0 1 68.2 94.47044] CT
0.149 GC
/Helvetica 14 F
GS
[1 0 0 1 0 0] CT
-16 5.5 moveto 
1 -1 scale
(24) t 
GR
GR
GS
[1 0 0 1 68.2 60.9102] CT
0.149 GC
/Helvetica 14 F
GS
[1 0 0 1 0 0] CT
-16 5.5 moveto 
1 -1 scale
(25) t 
GR
GR
GS
[0 -1 1 0 49.2 202.74982] CT
0.149 GC
/Helvetica 15.4 F
GS
[1 0 0 1 0 0] CT
-35 -4 moveto 
1 -1 scale
(SSIM \(dB\)) t 
GR
GR
GS
[1 0 0 1 290.00031 29.57497] CT
/Helvetica-Bold 15.4 F
GS
[1 0 0 1 0 0] CT
-136.5 -4 moveto 
1 -1 scale
(Skater227_1920x1080_30fps.y4m-av1) t 
GR
GR
GS
0 0.447 0.741 RC
1 LJ
0.5 LW
N
77.55 356.645 M
81.252 345.935 L
84.954 335.439 L
88.656 325.297 L
92.359 315.646 L
96.061 306.625 L
99.763 298.373 L
103.465 290.961 L
107.167 283.927 L
110.869 277.152 L
114.571 270.631 L
118.274 264.357 L
121.976 258.322 L
125.678 252.522 L
129.38 246.948 L
133.082 241.596 L
136.784 236.457 L
140.487 231.526 L
144.189 226.797 L
147.891 222.262 L
151.593 217.916 L
155.295 213.747 L
158.997 209.679 L
162.699 205.687 L
166.402 201.771 L
170.104 197.931 L
173.806 194.168 L
177.508 190.481 L
181.21 186.871 L
184.912 183.338 L
188.615 179.882 L
192.317 176.504 L
196.019 173.202 L
199.721 169.979 L
203.423 166.832 L
207.125 163.764 L
210.828 160.774 L
214.53 157.862 L
218.232 155.028 L
221.934 152.273 L
225.636 149.597 L
229.338 146.999 L
233.04 144.481 L
236.743 142.041 L
240.445 139.681 L
244.147 137.4 L
247.849 135.199 L
251.551 133.072 L
255.253 130.963 L
258.956 128.857 L
262.658 126.755 L
266.36 124.657 L
270.062 122.565 L
273.764 120.479 L
277.466 118.399 L
281.168 116.327 L
284.871 114.264 L
288.573 112.208 L
292.275 110.163 L
295.977 108.127 L
299.679 106.103 L
303.381 104.09 L
307.084 102.089 L
310.786 100.101 L
314.488 98.127 L
318.19 96.168 L
321.892 94.223 L
325.594 92.294 L
329.297 90.382 L
332.999 88.486 L
336.701 86.609 L
340.403 84.75 L
344.105 82.91 L
347.807 81.09 L
351.509 79.29 L
355.212 77.512 L
358.914 75.756 L
362.616 74.023 L
366.318 72.313 L
370.02 70.627 L
373.722 68.966 L
377.425 67.33 L
381.127 65.72 L
384.829 64.137 L
388.531 62.582 L
392.233 61.055 L
395.935 59.557 L
399.637 58.089 L
403.34 56.65 L
407.042 55.243 L
410.744 53.868 L
414.446 52.524 L
418.148 51.214 L
421.85 49.938 L
425.553 48.696 L
429.255 47.49 L
432.957 46.319 L
436.659 45.185 L
440.361 44.088 L
444.063 43.029 L
447.766 42.008 L
451.468 41.027 L
455.17 40.086 L
458.872 39.185 L
462.574 38.326 L
466.276 37.509 L
469.978 36.735 L
473.681 36.005 L
477.383 35.318 L
481.085 34.677 L
484.787 34.081 L
488.489 33.531 L
492.191 33.028 L
495.894 32.573 L
499.596 32.166 L
503.298 31.808 L
507 31.5 L
S
GR
GS
0.851 0.325 0.098 RC
1 LJ
0.5 LW
N
73.317 372.116 M
77.019 359.584 L
80.721 347.38 L
84.423 335.73 L
88.125 324.862 L
91.828 315.001 L
95.53 306.31 L
99.232 298.185 L
102.934 290.418 L
106.636 282.998 L
110.338 275.914 L
114.041 269.155 L
117.743 262.711 L
121.445 256.57 L
125.147 250.722 L
128.849 245.156 L
132.551 239.861 L
136.253 234.825 L
139.956 230.036 L
143.658 225.391 L
147.36 220.849 L
151.062 216.412 L
154.764 212.079 L
158.466 207.85 L
162.169 203.724 L
165.871 199.703 L
169.573 195.785 L
173.275 191.971 L
176.977 188.26 L
180.679 184.654 L
184.381 181.15 L
188.084 177.751 L
191.786 174.455 L
195.488 171.262 L
199.19 168.173 L
202.892 165.187 L
206.594 162.304 L
210.297 159.525 L
213.999 156.849 L
217.701 154.276 L
221.403 151.806 L
225.105 149.405 L
228.807 147.01 L
232.509 144.62 L
236.212 142.235 L
239.914 139.858 L
243.616 137.488 L
247.318 135.127 L
251.02 132.777 L
254.722 130.437 L
258.425 128.109 L
262.127 125.795 L
265.829 123.495 L
269.531 121.21 L
273.233 118.941 L
276.935 116.69 L
280.638 114.457 L
284.34 112.243 L
288.042 110.05 L
291.744 107.878 L
295.446 105.729 L
299.148 103.604 L
302.85 101.503 L
306.553 99.428 L
310.255 97.379 L
313.957 95.358 L
317.659 93.366 L
321.361 91.404 L
325.063 89.473 L
328.766 87.574 L
332.468 85.707 L
336.17 83.875 L
339.872 82.078 L
343.574 80.317 L
347.276 78.592 L
350.978 76.907 L
354.681 75.26 L
358.383 73.654 L
362.085 72.088 L
365.787 70.566 L
369.489 69.086 L
373.191 67.652 L
376.894 66.262 L
380.596 64.919 L
384.298 63.624 L
388 62.377 L
391.702 61.18 L
395.404 60.034 L
399.107 58.94 L
402.809 57.898 L
406.511 56.91 L
410.213 55.977 L
413.915 55.1 L
417.617 54.28 L
421.319 53.517 L
425.022 52.814 L
428.724 52.171 L
432.426 51.589 L
436.128 51.07 L
439.83 50.613 L
443.532 50.221 L
447.235 49.894 L
S
GR
GS
0.929 0.694 0.125 RC
1 LJ
0.5 LW
N
77.007 358.289 M
80.709 347.189 L
84.411 336.319 L
88.113 325.838 L
91.815 315.903 L
95.517 306.672 L
99.219 298.302 L
102.922 290.814 L
106.624 283.684 L
110.326 276.834 L
114.028 270.257 L
117.73 263.943 L
121.432 257.885 L
125.135 252.074 L
128.837 246.501 L
132.539 241.158 L
136.241 236.037 L
139.943 231.13 L
143.645 226.427 L
147.348 221.92 L
151.05 217.602 L
154.752 213.44 L
158.454 209.363 L
162.156 205.365 L
165.858 201.445 L
169.56 197.605 L
173.263 193.844 L
176.965 190.162 L
180.667 186.559 L
184.369 183.035 L
188.071 179.591 L
191.773 176.225 L
195.476 172.939 L
199.178 169.732 L
202.88 166.604 L
206.582 163.556 L
210.284 160.586 L
213.986 157.697 L
217.688 154.886 L
221.391 152.155 L
225.093 149.503 L
228.795 146.931 L
232.497 144.438 L
236.199 142.025 L
239.901 139.691 L
243.604 137.437 L
247.306 135.262 L
251.008 133.131 L
254.71 131.004 L
258.412 128.88 L
262.114 126.761 L
265.816 124.647 L
269.519 122.538 L
273.221 120.437 L
276.923 118.343 L
280.625 116.256 L
284.327 114.179 L
288.029 112.11 L
291.732 110.052 L
295.434 108.005 L
299.136 105.969 L
302.838 103.945 L
306.54 101.935 L
310.242 99.938 L
313.945 97.955 L
317.647 95.987 L
321.349 94.035 L
325.051 92.1 L
328.753 90.181 L
332.455 88.281 L
336.157 86.399 L
339.86 84.536 L
343.562 82.693 L
347.264 80.871 L
350.966 79.07 L
354.668 77.292 L
358.37 75.536 L
362.073 73.803 L
365.775 72.095 L
369.477 70.411 L
373.179 68.754 L
376.881 67.122 L
380.583 65.518 L
384.285 63.941 L
387.988 62.392 L
391.69 60.873 L
395.392 59.384 L
399.094 57.925 L
402.796 56.497 L
406.498 55.101 L
410.201 53.738 L
413.903 52.408 L
417.605 51.112 L
421.307 49.851 L
425.009 48.625 L
428.711 47.436 L
432.413 46.283 L
436.116 45.168 L
439.818 44.091 L
443.52 43.053 L
447.222 42.055 L
450.924 41.097 L
454.626 40.181 L
458.329 39.305 L
462.031 38.473 L
465.733 37.684 L
469.435 36.938 L
473.137 36.237 L
476.839 35.582 L
480.542 34.972 L
484.244 34.41 L
487.946 33.894 L
491.648 33.427 L
495.35 33.008 L
499.052 32.639 L
502.754 32.321 L
S
GR
GS
0.494 0.184 0.557 RC
1 LJ
0.5 LW
N
74.852 365.518 M
78.554 353.536 L
82.257 341.828 L
85.959 330.592 L
89.661 320.03 L
93.363 310.34 L
97.065 301.723 L
100.767 293.926 L
104.469 286.458 L
108.172 279.309 L
111.874 272.467 L
115.576 265.923 L
119.278 259.666 L
122.98 253.685 L
126.682 247.97 L
130.385 242.511 L
134.087 237.296 L
137.789 232.315 L
141.491 227.558 L
145.193 223.014 L
148.895 218.646 L
152.597 214.372 L
156.3 210.188 L
160.002 206.092 L
163.704 202.085 L
167.406 198.166 L
171.108 194.336 L
174.81 190.593 L
178.513 186.937 L
182.215 183.369 L
185.917 179.888 L
189.619 176.493 L
193.321 173.185 L
197.023 169.962 L
200.726 166.826 L
204.428 163.775 L
208.13 160.81 L
211.832 157.93 L
215.534 155.134 L
219.236 152.423 L
222.938 149.796 L
226.641 147.254 L
230.343 144.794 L
234.045 142.419 L
237.747 140.126 L
241.449 137.902 L
245.151 135.686 L
248.854 133.473 L
252.556 131.266 L
256.258 129.063 L
259.96 126.866 L
263.662 124.677 L
267.364 122.494 L
271.066 120.32 L
274.769 118.155 L
278.471 116 L
282.173 113.855 L
285.875 111.722 L
289.577 109.601 L
293.279 107.492 L
296.982 105.398 L
300.684 103.317 L
304.386 101.252 L
308.088 99.203 L
311.79 97.171 L
315.492 95.156 L
319.195 93.159 L
322.897 91.181 L
326.599 89.223 L
330.301 87.286 L
334.003 85.369 L
337.705 83.475 L
341.407 81.604 L
345.11 79.756 L
348.812 77.933 L
352.514 76.135 L
356.216 74.362 L
359.918 72.617 L
363.62 70.898 L
367.323 69.208 L
371.025 67.547 L
374.727 65.916 L
378.429 64.315 L
382.131 62.745 L
385.833 61.207 L
389.535 59.702 L
393.238 58.231 L
396.94 56.794 L
400.642 55.392 L
404.344 54.026 L
408.046 52.696 L
411.748 51.404 L
415.451 50.15 L
419.153 48.935 L
422.855 47.759 L
426.557 46.624 L
430.259 45.531 L
433.961 44.479 L
437.664 43.47 L
441.366 42.504 L
445.068 41.583 L
448.77 40.706 L
452.472 39.876 L
456.174 39.092 L
459.876 38.355 L
463.579 37.666 L
467.281 37.027 L
470.983 36.437 L
474.685 35.897 L
478.387 35.408 L
482.089 34.972 L
485.792 34.588 L
489.494 34.257 L
S
GR
GS
0.467 0.675 0.188 RC
1 LJ
0.5 LW
N
73.716 369.855 M
77.418 357.247 L
81.12 344.944 L
84.822 333.18 L
88.525 322.192 L
92.227 312.217 L
95.929 303.474 L
99.631 295.45 L
103.333 287.786 L
107.035 280.47 L
110.738 273.488 L
114.44 266.827 L
118.142 260.474 L
121.844 254.416 L
125.546 248.641 L
129.248 243.134 L
132.95 237.884 L
136.653 232.876 L
140.355 228.098 L
144.057 223.533 L
147.759 219.095 L
151.461 214.752 L
155.163 210.503 L
158.866 206.348 L
162.568 202.288 L
166.27 198.32 L
169.972 194.446 L
173.674 190.665 L
177.376 186.977 L
181.078 183.38 L
184.781 179.876 L
188.483 176.463 L
192.185 173.141 L
195.887 169.91 L
199.589 166.77 L
203.291 163.72 L
206.994 160.76 L
210.696 157.89 L
214.398 155.109 L
218.1 152.416 L
221.802 149.813 L
225.504 147.297 L
229.206 144.87 L
232.909 142.53 L
236.611 140.256 L
240.313 137.99 L
244.015 135.727 L
247.717 133.468 L
251.419 131.215 L
255.122 128.969 L
258.824 126.729 L
262.526 124.497 L
266.228 122.274 L
269.93 120.06 L
273.632 117.856 L
277.335 115.664 L
281.037 113.483 L
284.739 111.315 L
288.441 109.161 L
292.143 107.021 L
295.845 104.896 L
299.547 102.787 L
303.25 100.695 L
306.952 98.621 L
310.654 96.565 L
314.356 94.528 L
318.058 92.512 L
321.76 90.516 L
325.463 88.542 L
329.165 86.591 L
332.867 84.662 L
336.569 82.759 L
340.271 80.88 L
343.973 79.026 L
347.676 77.2 L
351.378 75.401 L
355.08 73.63 L
358.782 71.888 L
362.484 70.176 L
366.186 68.494 L
369.888 66.845 L
373.591 65.227 L
377.293 63.643 L
380.995 62.092 L
384.697 60.577 L
388.399 59.097 L
392.101 57.653 L
395.804 56.247 L
399.506 54.879 L
403.208 53.549 L
406.91 52.259 L
410.612 51.01 L
414.314 49.802 L
418.016 48.636 L
421.719 47.513 L
425.421 46.434 L
429.123 45.399 L
432.825 44.41 L
436.527 43.467 L
440.229 42.571 L
443.932 41.723 L
447.634 40.923 L
451.336 40.173 L
455.038 39.474 L
458.74 38.825 L
462.442 38.228 L
466.144 37.684 L
469.847 37.194 L
473.549 36.758 L
477.251 36.377 L
480.953 36.052 L
S
GR
GS
0.302 0.745 0.933 RC
[10 6] 0 setdash
2 LJ
0.5 LW
N
73 374 M
76.702 361.254 L
80.404 348.848 L
84.106 337.021 L
87.809 326.012 L
91.511 316.062 L
95.213 307.323 L
98.915 299.149 L
102.617 291.349 L
106.319 283.908 L
110.022 276.814 L
113.724 270.055 L
117.426 263.616 L
121.128 257.485 L
124.83 251.649 L
128.532 246.094 L
132.234 240.809 L
135.937 235.78 L
139.639 230.985 L
143.341 226.322 L
147.043 221.765 L
150.745 217.315 L
154.447 212.97 L
158.15 208.732 L
161.852 204.599 L
165.554 200.572 L
169.256 196.652 L
172.958 192.836 L
176.66 189.127 L
180.363 185.523 L
184.065 182.024 L
187.767 178.631 L
191.469 175.344 L
195.171 172.161 L
198.873 169.084 L
202.575 166.112 L
206.278 163.244 L
209.98 160.482 L
213.682 157.825 L
217.384 155.272 L
221.086 152.816 L
224.788 150.384 L
228.491 147.956 L
232.193 145.534 L
235.895 143.119 L
239.597 140.712 L
243.299 138.314 L
247.001 135.926 L
250.704 133.549 L
254.406 131.185 L
258.108 128.834 L
261.81 126.497 L
265.512 124.176 L
269.214 121.871 L
272.916 119.585 L
276.619 117.317 L
280.321 115.069 L
284.023 112.841 L
287.725 110.636 L
291.427 108.454 L
295.129 106.296 L
298.832 104.163 L
302.534 102.057 L
306.236 99.978 L
309.938 97.927 L
313.64 95.906 L
317.342 93.916 L
321.044 91.957 L
324.747 90.032 L
328.449 88.14 L
332.151 86.283 L
335.853 84.462 L
339.555 82.678 L
343.257 80.933 L
346.96 79.227 L
350.662 77.561 L
354.364 75.936 L
358.066 74.354 L
361.768 72.816 L
365.47 71.322 L
369.172 69.875 L
372.875 68.474 L
376.577 67.121 L
380.279 65.816 L
383.981 64.562 L
387.683 63.36 L
391.385 62.209 L
395.088 61.112 L
398.79 60.069 L
402.492 59.082 L
406.194 58.151 L
409.896 57.278 L
413.598 56.463 L
417.301 55.709 L
421.003 55.015 L
424.705 54.383 L
428.407 53.814 L
432.109 53.31 L
435.811 52.87 L
439.513 52.497 L
S
GR
GS
0.635 0.078 0.184 RC
[10 6] 0 setdash
2 LJ
0.5 LW
N
76.948 358.338 M
80.65 347.277 L
84.352 336.446 L
88.055 325.999 L
91.757 316.091 L
95.459 306.873 L
99.161 298.5 L
102.863 291.001 L
106.565 283.861 L
110.268 276.999 L
113.97 270.407 L
117.672 264.077 L
121.374 258.001 L
125.076 252.172 L
128.778 246.58 L
132.48 241.219 L
136.183 236.08 L
139.885 231.155 L
143.587 226.438 L
147.289 221.918 L
150.991 217.59 L
154.693 213.419 L
158.396 209.332 L
162.098 205.324 L
165.8 201.395 L
169.502 197.546 L
173.204 193.776 L
176.906 190.085 L
180.608 186.475 L
184.311 182.944 L
188.013 179.492 L
191.715 176.121 L
195.417 172.829 L
199.119 169.618 L
202.821 166.486 L
206.524 163.435 L
210.226 160.463 L
213.928 157.572 L
217.63 154.762 L
221.332 152.031 L
225.034 149.381 L
228.736 146.812 L
232.439 144.324 L
236.141 141.916 L
239.843 139.588 L
243.545 137.342 L
247.247 135.176 L
250.949 133.042 L
254.652 130.912 L
258.354 128.786 L
262.056 126.664 L
265.758 124.547 L
269.46 122.436 L
273.162 120.332 L
276.865 118.236 L
280.567 116.147 L
284.269 114.067 L
287.971 111.997 L
291.673 109.937 L
295.375 107.887 L
299.077 105.85 L
302.78 103.825 L
306.482 101.812 L
310.184 99.814 L
313.886 97.83 L
317.588 95.861 L
321.29 93.909 L
324.993 91.972 L
328.695 90.054 L
332.397 88.153 L
336.099 86.271 L
339.801 84.408 L
343.503 82.566 L
347.206 80.744 L
350.908 78.944 L
354.61 77.166 L
358.312 75.412 L
362.014 73.681 L
365.716 71.974 L
369.418 70.293 L
373.121 68.637 L
376.823 67.009 L
380.525 65.407 L
384.227 63.833 L
387.929 62.288 L
391.631 60.773 L
395.334 59.288 L
399.036 57.833 L
402.738 56.41 L
406.44 55.019 L
410.142 53.661 L
413.844 52.337 L
417.546 51.048 L
421.249 49.793 L
424.951 48.574 L
428.653 47.392 L
432.355 46.247 L
436.057 45.14 L
439.759 44.072 L
443.462 43.043 L
447.164 42.054 L
450.866 41.105 L
454.568 40.199 L
458.27 39.334 L
461.972 38.513 L
465.674 37.735 L
469.377 37.002 L
473.079 36.313 L
476.781 35.67 L
480.483 35.074 L
484.185 34.525 L
487.887 34.024 L
491.59 33.572 L
495.292 33.168 L
498.994 32.815 L
502.696 32.513 L
S
GR
GS
0 0.447 0.741 RC
[10 6] 0 setdash
2 LJ
0.5 LW
N
75.312 363.569 M
79.014 351.859 L
82.716 340.41 L
86.418 329.406 L
90.12 319.034 L
93.822 309.481 L
97.524 300.932 L
101.227 293.218 L
104.929 285.825 L
108.631 278.737 L
112.333 271.944 L
116.035 265.436 L
119.737 259.206 L
123.44 253.243 L
127.142 247.539 L
130.844 242.084 L
134.546 236.87 L
138.248 231.888 L
141.95 227.128 L
145.652 222.581 L
149.355 218.227 L
153.057 213.978 L
156.759 209.816 L
160.461 205.742 L
164.163 201.754 L
167.865 197.854 L
171.568 194.039 L
175.27 190.311 L
178.972 186.669 L
182.674 183.112 L
186.376 179.641 L
190.078 176.255 L
193.781 172.954 L
197.483 169.738 L
201.185 166.606 L
204.887 163.558 L
208.589 160.595 L
212.291 157.715 L
215.993 154.918 L
219.696 152.205 L
223.398 149.575 L
227.1 147.027 L
230.802 144.562 L
234.504 142.179 L
238.206 139.879 L
241.909 137.657 L
245.611 135.461 L
249.313 133.269 L
253.015 131.08 L
256.717 128.897 L
260.419 126.719 L
264.121 124.547 L
267.824 122.382 L
271.526 120.226 L
275.228 118.078 L
278.93 115.939 L
282.632 113.81 L
286.334 111.693 L
290.037 109.586 L
293.739 107.493 L
297.441 105.412 L
301.143 103.345 L
304.845 101.293 L
308.547 99.256 L
312.249 97.235 L
315.952 95.231 L
319.654 93.245 L
323.356 91.277 L
327.058 89.328 L
330.76 87.398 L
334.462 85.49 L
338.165 83.603 L
341.867 81.738 L
345.569 79.895 L
349.271 78.077 L
352.973 76.282 L
356.675 74.513 L
360.378 72.769 L
364.08 71.052 L
367.782 69.363 L
371.484 67.701 L
375.186 66.069 L
378.888 64.465 L
382.59 62.892 L
386.293 61.351 L
389.995 59.841 L
393.697 58.363 L
397.399 56.919 L
401.101 55.509 L
404.803 54.134 L
408.506 52.794 L
412.208 51.491 L
415.91 50.225 L
419.612 48.996 L
423.314 47.806 L
427.016 46.656 L
430.719 45.545 L
434.421 44.475 L
438.123 43.447 L
441.825 42.461 L
445.527 41.518 L
449.229 40.619 L
452.931 39.764 L
456.634 38.955 L
460.336 38.192 L
464.038 37.475 L
467.74 36.806 L
471.442 36.185 L
475.144 35.614 L
478.847 35.092 L
482.549 34.621 L
486.251 34.2 L
489.953 33.832 L
493.655 33.517 L
S
GR
GS
0.851 0.325 0.098 RC
[10 6] 0 setdash
2 LJ
0.5 LW
N
73.769 369.271 M
77.471 356.849 L
81.173 344.722 L
84.875 333.113 L
88.577 322.248 L
92.279 312.349 L
95.982 303.639 L
99.684 295.692 L
103.386 288.101 L
107.088 280.851 L
110.79 273.929 L
114.492 267.321 L
118.194 261.015 L
121.897 254.996 L
125.599 249.252 L
129.301 243.77 L
133.003 238.535 L
136.705 233.534 L
140.407 228.754 L
144.11 224.182 L
147.812 219.748 L
151.514 215.405 L
155.216 211.154 L
158.918 206.993 L
162.62 202.923 L
166.322 198.945 L
170.025 195.057 L
173.727 191.259 L
177.429 187.552 L
181.131 183.936 L
184.833 180.41 L
188.535 176.975 L
192.238 173.629 L
195.94 170.374 L
199.642 167.209 L
203.344 164.134 L
207.046 161.148 L
210.748 158.253 L
214.451 155.447 L
218.153 152.73 L
221.855 150.103 L
225.557 147.566 L
229.259 145.118 L
232.961 142.759 L
236.663 140.479 L
240.366 138.213 L
244.068 135.951 L
247.77 133.694 L
251.472 131.441 L
255.174 129.194 L
258.876 126.955 L
262.579 124.723 L
266.281 122.499 L
269.983 120.285 L
273.685 118.08 L
277.387 115.887 L
281.089 113.705 L
284.791 111.536 L
288.494 109.381 L
292.196 107.239 L
295.898 105.112 L
299.6 103.002 L
303.302 100.907 L
307.004 98.831 L
310.707 96.772 L
314.409 94.733 L
318.111 92.713 L
321.813 90.714 L
325.515 88.737 L
329.217 86.782 L
332.919 84.85 L
336.622 82.942 L
340.324 81.059 L
344.026 79.201 L
347.728 77.37 L
351.43 75.566 L
355.132 73.791 L
358.835 72.044 L
362.537 70.326 L
366.239 68.64 L
369.941 66.984 L
373.643 65.361 L
377.345 63.77 L
381.048 62.214 L
384.75 60.692 L
388.452 59.205 L
392.154 57.755 L
395.856 56.341 L
399.558 54.966 L
403.26 53.629 L
406.963 52.331 L
410.665 51.074 L
414.367 49.858 L
418.069 48.684 L
421.771 47.553 L
425.473 46.465 L
429.176 45.422 L
432.878 44.424 L
436.58 43.471 L
440.282 42.566 L
443.984 41.708 L
447.686 40.899 L
451.388 40.139 L
455.091 39.429 L
458.793 38.77 L
462.495 38.163 L
466.197 37.608 L
469.899 37.107 L
473.601 36.66 L
477.304 36.268 L
481.006 35.931 L
484.708 35.652 L
S
GR
GS
1 GC
N
499 366 M
499 218.5 L
327.5 218.5 L
327.5 366 L
cp
f
GR
GS
[1 0 0 1 364.5 228.25] CT
/Helvetica 13 F
GS
[1 0 0 1 0 0] CT
0 5 moveto 
1 -1 scale
(Base Run) t 
GR
GR
GS
0 0.447 0.741 RC
1 LJ
0.5 LW
N
331.5 228.25 M
361.5 228.25 L
S
GR
GS
[1 0 0 1 364.5 244.25] CT
/Helvetica 13 F
GS
[1 0 0 1 0 0] CT
0 5 moveto 
1 -1 scale
(All Frames) t 
GR
GR
GS
0.851 0.325 0.098 RC
1 LJ
0.5 LW
N
331.5 244.25 M
361.5 244.25 L
S
GR
GS
[1 0 0 1 364.5 260.25] CT
/Helvetica 13 F
GS
[1 0 0 1 0 0] CT
0 5 moveto 
1 -1 scale
(KF Only) t 
GR
GR
GS
0.929 0.694 0.125 RC
1 LJ
0.5 LW
N
331.5 260.25 M
361.5 260.25 L
S
GR
GS
[1 0 0 1 364.5 276.25] CT
/Helvetica 13 F
GS
[1 0 0 1 0 0] CT
0 5 moveto 
1 -1 scale
(GF, ARF Only) t 
GR
GR
GS
0.494 0.184 0.557 RC
1 LJ
0.5 LW
N
331.5 276.25 M
361.5 276.25 L
S
GR
GS
[1 0 0 1 364.5 292.25] CT
/Helvetica 13 F
GS
[1 0 0 1 0 0] CT
0 5 moveto 
1 -1 scale
(KF, GF, ARF Only) t 
GR
GR
GS
0.467 0.675 0.188 RC
1 LJ
0.5 LW
N
331.5 292.25 M
361.5 292.25 L
S
GR
GS
[1 0 0 1 364.5 308.25] CT
/Helvetica 13 F
GS
[1 0 0 1 0 0] CT
0 5 moveto 
1 -1 scale
(Part All Frames) t 
GR
GR
GS
0.302 0.745 0.933 RC
[10 6] 0 setdash
2 LJ
0.5 LW
N
331.5 308.25 M
361.5 308.25 L
S
GR
GS
[1 0 0 1 364.5 324.25] CT
/Helvetica 13 F
GS
[1 0 0 1 0 0] CT
0 5 moveto 
1 -1 scale
(Part KF Only) t 
GR
GR
GS
0.635 0.078 0.184 RC
[10 6] 0 setdash
2 LJ
0.5 LW
N
331.5 324.25 M
361.5 324.25 L
S
GR
GS
[1 0 0 1 364.5 340.25] CT
/Helvetica 13 F
GS
[1 0 0 1 0 0] CT
0 5 moveto 
1 -1 scale
(Part GF, ARF Only) t 
GR
GR
GS
0 0.447 0.741 RC
[10 6] 0 setdash
2 LJ
0.5 LW
N
331.5 340.25 M
361.5 340.25 L
S
GR
GS
[1 0 0 1 364.5 356.25] CT
/Helvetica 13 F
GS
[1 0 0 1 0 0] CT
0 5 moveto 
1 -1 scale
(Part KF, GF, ARF Only) t 
GR
GR
GS
0.851 0.325 0.098 RC
[10 6] 0 setdash
2 LJ
0.5 LW
N
331.5 356.25 M
361.5 356.25 L
S
GR
GS
0.149 GC
10.0 ML
0.5 LW
N
327.5 366 M
327.5 218.5 L
499 218.5 L
499 366 L
cp
S
GR
%%Trailer
%%Pages: 1
%%EOF
