%!PS-Adobe-3.0 EPSF-3.0
%%Creator: (MATLAB, The Mathworks, Inc. Version 9.11.0.1837725 \(R2021b\) Update 2. Operating System: Mac OS X)
%%Title: plots/pchip/Skater227_1920x1080_30fps.y4m-av1-MS_SSIM.eps
%%CreationDate: 2022-02-03T19:13:34
%%Pages: (atend)
%%BoundingBox:    33   425   521   826
%%LanguageLevel: 3
%%EndComments
%%BeginProlog
%%BeginResource: procset (Apache XML Graphics Std ProcSet) 1.2 0
%%Version: 1.2 0
%%Copyright: (Copyright 2001-2003,2010 The Apache Software Foundation. License terms: http://www.apache.org/licenses/LICENSE-2.0)
/bd{bind def}bind def
/ld{load def}bd
/GR/grestore ld
/GS/gsave ld
/RM/rmoveto ld
/C/curveto ld
/t/show ld
/L/lineto ld
/ML/setmiterlimit ld
/CT/concat ld
/f/fill ld
/N/newpath ld
/S/stroke ld
/CC/setcmykcolor ld
/A/ashow ld
/cp/closepath ld
/RC/setrgbcolor ld
/LJ/setlinejoin ld
/GC/setgray ld
/LW/setlinewidth ld
/M/moveto ld
/re {4 2 roll M
1 index 0 rlineto
0 exch rlineto
neg 0 rlineto
cp } bd
/_ctm matrix def
/_tm matrix def
/BT { _ctm currentmatrix pop matrix _tm copy pop 0 0 moveto } bd
/ET { _ctm setmatrix } bd
/iTm { _ctm setmatrix _tm concat } bd
/Tm { _tm astore pop iTm 0 0 moveto } bd
/ux 0.0 def
/uy 0.0 def
/F {
  /Tp exch def
  /Tf exch def
  Tf findfont Tp scalefont setfont
  /cf Tf def  /cs Tp def
} bd
/ULS {currentpoint /uy exch def /ux exch def} bd
/ULE {
  /Tcx currentpoint pop def
  gsave
  newpath
  cf findfont cs scalefont dup
  /FontMatrix get 0 get /Ts exch def /FontInfo get dup
  /UnderlinePosition get Ts mul /To exch def
  /UnderlineThickness get Ts mul /Tt exch def
  ux uy To add moveto  Tcx uy To add lineto
  Tt setlinewidth stroke
  grestore
} bd
/OLE {
  /Tcx currentpoint pop def
  gsave
  newpath
  cf findfont cs scalefont dup
  /FontMatrix get 0 get /Ts exch def /FontInfo get dup
  /UnderlinePosition get Ts mul /To exch def
  /UnderlineThickness get Ts mul /Tt exch def
  ux uy To add cs add moveto Tcx uy To add cs add lineto
  Tt setlinewidth stroke
  grestore
} bd
/SOE {
  /Tcx currentpoint pop def
  gsave
  newpath
  cf findfont cs scalefont dup
  /FontMatrix get 0 get /Ts exch def /FontInfo get dup
  /UnderlinePosition get Ts mul /To exch def
  /UnderlineThickness get Ts mul /Tt exch def
  ux uy To add cs 10 mul 26 idiv add moveto Tcx uy To add cs 10 mul 26 idiv add lineto
  Tt setlinewidth stroke
  grestore
} bd
/QT {
/Y22 exch store
/X22 exch store
/Y21 exch store
/X21 exch store
currentpoint
/Y21 load 2 mul add 3 div exch
/X21 load 2 mul add 3 div exch
/X21 load 2 mul /X22 load add 3 div
/Y21 load 2 mul /Y22 load add 3 div
/X22 load /Y22 load curveto
} bd
/SSPD {
dup length /d exch dict def
{
/v exch def
/k exch def
currentpagedevice k known {
/cpdv currentpagedevice k get def
v cpdv ne {
/upd false def
/nullv v type /nulltype eq def
/nullcpdv cpdv type /nulltype eq def
nullv nullcpdv or
{
/upd true def
} {
/sametype v type cpdv type eq def
sametype {
v type /arraytype eq {
/vlen v length def
/cpdvlen cpdv length def
vlen cpdvlen eq {
0 1 vlen 1 sub {
/i exch def
/obj v i get def
/cpdobj cpdv i get def
obj cpdobj ne {
/upd true def
exit
} if
} for
} {
/upd true def
} ifelse
} {
v type /dicttype eq {
v {
/dv exch def
/dk exch def
/cpddv cpdv dk get def
dv cpddv ne {
/upd true def
exit
} if
} forall
} {
/upd true def
} ifelse
} ifelse
} if
} ifelse
upd true eq {
d k v put
} if
} if
} if
} forall
d length 0 gt {
d setpagedevice
} if
} bd
/RE { % /NewFontName [NewEncodingArray] /FontName RE -
  findfont dup length dict begin
  {
    1 index /FID ne
    {def} {pop pop} ifelse
  } forall
  /Encoding exch def
  /FontName 1 index def
  currentdict definefont pop
  end
} bind def
%%EndResource
%%BeginResource: procset (Apache XML Graphics EPS ProcSet) 1.0 0
%%Version: 1.0 0
%%Copyright: (Copyright 2002-2003 The Apache Software Foundation. License terms: http://www.apache.org/licenses/LICENSE-2.0)
/BeginEPSF { %def
/b4_Inc_state save def         % Save state for cleanup
/dict_count countdictstack def % Count objects on dict stack
/op_count count 1 sub def      % Count objects on operand stack
userdict begin                 % Push userdict on dict stack
/showpage { } def              % Redefine showpage, { } = null proc
0 setgray 0 setlinecap         % Prepare graphics state
1 setlinewidth 0 setlinejoin
10 setmiterlimit [ ] 0 setdash newpath
/languagelevel where           % If level not equal to 1 then
{pop languagelevel             % set strokeadjust and
1 ne                           % overprint to their defaults.
{false setstrokeadjust false setoverprint
} if
} if
} bd
/EndEPSF { %def
count op_count sub {pop} repeat            % Clean up stacks
countdictstack dict_count sub {end} repeat
b4_Inc_state restore
} bd
%%EndResource
%FOPBeginFontDict
%%IncludeResource: font Courier-Oblique
%%IncludeResource: font Courier-BoldOblique
%%IncludeResource: font Courier-Bold
%%IncludeResource: font ZapfDingbats
%%IncludeResource: font Symbol
%%IncludeResource: font Helvetica
%%IncludeResource: font Helvetica-Oblique
%%IncludeResource: font Helvetica-Bold
%%IncludeResource: font Helvetica-BoldOblique
%%IncludeResource: font Times-Roman
%%IncludeResource: font Times-Italic
%%IncludeResource: font Times-Bold
%%IncludeResource: font Times-BoldItalic
%%IncludeResource: font Courier
%FOPEndFontDict
%%BeginResource: encoding WinAnsiEncoding
/WinAnsiEncoding [
/.notdef /.notdef /.notdef /.notdef /.notdef
/.notdef /.notdef /.notdef /.notdef /.notdef
/.notdef /.notdef /.notdef /.notdef /.notdef
/.notdef /.notdef /.notdef /.notdef /.notdef
/.notdef /.notdef /.notdef /.notdef /.notdef
/.notdef /.notdef /.notdef /.notdef /.notdef
/.notdef /.notdef /space /exclam /quotedbl
/numbersign /dollar /percent /ampersand /quotesingle
/parenleft /parenright /asterisk /plus /comma
/hyphen /period /slash /zero /one
/two /three /four /five /six
/seven /eight /nine /colon /semicolon
/less /equal /greater /question /at
/A /B /C /D /E
/F /G /H /I /J
/K /L /M /N /O
/P /Q /R /S /T
/U /V /W /X /Y
/Z /bracketleft /backslash /bracketright /asciicircum
/underscore /quoteleft /a /b /c
/d /e /f /g /h
/i /j /k /l /m
/n /o /p /q /r
/s /t /u /v /w
/x /y /z /braceleft /bar
/braceright /asciitilde /bullet /Euro /bullet
/quotesinglbase /florin /quotedblbase /ellipsis /dagger
/daggerdbl /circumflex /perthousand /Scaron /guilsinglleft
/OE /bullet /Zcaron /bullet /bullet
/quoteleft /quoteright /quotedblleft /quotedblright /bullet
/endash /emdash /asciitilde /trademark /scaron
/guilsinglright /oe /bullet /zcaron /Ydieresis
/space /exclamdown /cent /sterling /currency
/yen /brokenbar /section /dieresis /copyright
/ordfeminine /guillemotleft /logicalnot /sfthyphen /registered
/macron /degree /plusminus /twosuperior /threesuperior
/acute /mu /paragraph /middot /cedilla
/onesuperior /ordmasculine /guillemotright /onequarter /onehalf
/threequarters /questiondown /Agrave /Aacute /Acircumflex
/Atilde /Adieresis /Aring /AE /Ccedilla
/Egrave /Eacute /Ecircumflex /Edieresis /Igrave
/Iacute /Icircumflex /Idieresis /Eth /Ntilde
/Ograve /Oacute /Ocircumflex /Otilde /Odieresis
/multiply /Oslash /Ugrave /Uacute /Ucircumflex
/Udieresis /Yacute /Thorn /germandbls /agrave
/aacute /acircumflex /atilde /adieresis /aring
/ae /ccedilla /egrave /eacute /ecircumflex
/edieresis /igrave /iacute /icircumflex /idieresis
/eth /ntilde /ograve /oacute /ocircumflex
/otilde /odieresis /divide /oslash /ugrave
/uacute /ucircumflex /udieresis /yacute /thorn
/ydieresis
] def
%%EndResource
%FOPBeginFontReencode
/Courier-Oblique findfont
dup length dict begin
  {1 index /FID ne {def} {pop pop} ifelse} forall
  /Encoding WinAnsiEncoding def
  currentdict
end
/Courier-Oblique exch definefont pop
/Courier-BoldOblique findfont
dup length dict begin
  {1 index /FID ne {def} {pop pop} ifelse} forall
  /Encoding WinAnsiEncoding def
  currentdict
end
/Courier-BoldOblique exch definefont pop
/Courier-Bold findfont
dup length dict begin
  {1 index /FID ne {def} {pop pop} ifelse} forall
  /Encoding WinAnsiEncoding def
  currentdict
end
/Courier-Bold exch definefont pop
/Helvetica findfont
dup length dict begin
  {1 index /FID ne {def} {pop pop} ifelse} forall
  /Encoding WinAnsiEncoding def
  currentdict
end
/Helvetica exch definefont pop
/Helvetica-Oblique findfont
dup length dict begin
  {1 index /FID ne {def} {pop pop} ifelse} forall
  /Encoding WinAnsiEncoding def
  currentdict
end
/Helvetica-Oblique exch definefont pop
/Helvetica-Bold findfont
dup length dict begin
  {1 index /FID ne {def} {pop pop} ifelse} forall
  /Encoding WinAnsiEncoding def
  currentdict
end
/Helvetica-Bold exch definefont pop
/Helvetica-BoldOblique findfont
dup length dict begin
  {1 index /FID ne {def} {pop pop} ifelse} forall
  /Encoding WinAnsiEncoding def
  currentdict
end
/Helvetica-BoldOblique exch definefont pop
/Times-Roman findfont
dup length dict begin
  {1 index /FID ne {def} {pop pop} ifelse} forall
  /Encoding WinAnsiEncoding def
  currentdict
end
/Times-Roman exch definefont pop
/Times-Italic findfont
dup length dict begin
  {1 index /FID ne {def} {pop pop} ifelse} forall
  /Encoding WinAnsiEncoding def
  currentdict
end
/Times-Italic exch definefont pop
/Times-Bold findfont
dup length dict begin
  {1 index /FID ne {def} {pop pop} ifelse} forall
  /Encoding WinAnsiEncoding def
  currentdict
end
/Times-Bold exch definefont pop
/Times-BoldItalic findfont
dup length dict begin
  {1 index /FID ne {def} {pop pop} ifelse} forall
  /Encoding WinAnsiEncoding def
  currentdict
end
/Times-BoldItalic exch definefont pop
/Courier findfont
dup length dict begin
  {1 index /FID ne {def} {pop pop} ifelse} forall
  /Encoding WinAnsiEncoding def
  currentdict
end
/Courier exch definefont pop
%FOPEndFontReencode
%%EndProlog
%%Page: 1 1
%%PageBoundingBox: 0 0 1120 840
%%BeginPageSetup
[1 0 0 -1 0 840] CT
%%EndPageSetup
GS
1 GC
N
0 0 1120 840 re
f
GR
GS
1 GC
N
73 374 M
507 374 L
507 31.5 L
73 31.5 L
cp
f
GR
GS
0.149 GC
2 setlinecap
1 LJ
0.5 LW
N
73 374 M
507 374 L
S
GR
GS
0.149 GC
2 setlinecap
1 LJ
0.5 LW
N
73 31.5 M
507 31.5 L
S
GR
GS
0.149 GC
2 setlinecap
1 LJ
0.5 LW
N
134.976 374 M
134.976 369.66 L
S
GR
GS
0.149 GC
2 setlinecap
1 LJ
0.5 LW
N
227.53 374 M
227.53 369.66 L
S
GR
GS
0.149 GC
2 setlinecap
1 LJ
0.5 LW
N
320.084 374 M
320.084 369.66 L
S
GR
GS
0.149 GC
2 setlinecap
1 LJ
0.5 LW
N
412.638 374 M
412.638 369.66 L
S
GR
GS
0.149 GC
2 setlinecap
1 LJ
0.5 LW
N
505.192 374 M
505.192 369.66 L
S
GR
GS
0.149 GC
2 setlinecap
1 LJ
0.5 LW
N
134.976 31.5 M
134.976 35.84 L
S
GR
GS
0.149 GC
2 setlinecap
1 LJ
0.5 LW
N
227.53 31.5 M
227.53 35.84 L
S
GR
GS
0.149 GC
2 setlinecap
1 LJ
0.5 LW
N
320.084 31.5 M
320.084 35.84 L
S
GR
GS
0.149 GC
2 setlinecap
1 LJ
0.5 LW
N
412.638 31.5 M
412.638 35.84 L
S
GR
GS
0.149 GC
2 setlinecap
1 LJ
0.5 LW
N
505.192 31.5 M
505.192 35.84 L
S
GR
GS
0.149 GC
2 setlinecap
1 LJ
0.5 LW
N
79.444 374 M
79.444 371.83 L
S
GR
GS
0.149 GC
2 setlinecap
1 LJ
0.5 LW
N
97.955 374 M
97.955 371.83 L
S
GR
GS
0.149 GC
2 setlinecap
1 LJ
0.5 LW
N
116.465 374 M
116.465 371.83 L
S
GR
GS
0.149 GC
2 setlinecap
1 LJ
0.5 LW
N
153.487 374 M
153.487 371.83 L
S
GR
GS
0.149 GC
2 setlinecap
1 LJ
0.5 LW
N
171.998 374 M
171.998 371.83 L
S
GR
GS
0.149 GC
2 setlinecap
1 LJ
0.5 LW
N
190.509 374 M
190.509 371.83 L
S
GR
GS
0.149 GC
2 setlinecap
1 LJ
0.5 LW
N
209.019 374 M
209.019 371.83 L
S
GR
GS
0.149 GC
2 setlinecap
1 LJ
0.5 LW
N
246.041 374 M
246.041 371.83 L
S
GR
GS
0.149 GC
2 setlinecap
1 LJ
0.5 LW
N
264.552 374 M
264.552 371.83 L
S
GR
GS
0.149 GC
2 setlinecap
1 LJ
0.5 LW
N
283.063 374 M
283.063 371.83 L
S
GR
GS
0.149 GC
2 setlinecap
1 LJ
0.5 LW
N
301.573 374 M
301.573 371.83 L
S
GR
GS
0.149 GC
2 setlinecap
1 LJ
0.5 LW
N
338.595 374 M
338.595 371.83 L
S
GR
GS
0.149 GC
2 setlinecap
1 LJ
0.5 LW
N
357.106 374 M
357.106 371.83 L
S
GR
GS
0.149 GC
2 setlinecap
1 LJ
0.5 LW
N
375.616 374 M
375.616 371.83 L
S
GR
GS
0.149 GC
2 setlinecap
1 LJ
0.5 LW
N
394.127 374 M
394.127 371.83 L
S
GR
GS
0.149 GC
2 setlinecap
1 LJ
0.5 LW
N
431.149 374 M
431.149 371.83 L
S
GR
GS
0.149 GC
2 setlinecap
1 LJ
0.5 LW
N
449.66 374 M
449.66 371.83 L
S
GR
GS
0.149 GC
2 setlinecap
1 LJ
0.5 LW
N
468.17 374 M
468.17 371.83 L
S
GR
GS
0.149 GC
2 setlinecap
1 LJ
0.5 LW
N
486.681 374 M
486.681 371.83 L
S
GR
GS
0.149 GC
2 setlinecap
1 LJ
0.5 LW
N
79.444 31.5 M
79.444 33.67 L
S
GR
GS
0.149 GC
2 setlinecap
1 LJ
0.5 LW
N
97.955 31.5 M
97.955 33.67 L
S
GR
GS
0.149 GC
2 setlinecap
1 LJ
0.5 LW
N
116.465 31.5 M
116.465 33.67 L
S
GR
GS
0.149 GC
2 setlinecap
1 LJ
0.5 LW
N
153.487 31.5 M
153.487 33.67 L
S
GR
GS
0.149 GC
2 setlinecap
1 LJ
0.5 LW
N
171.998 31.5 M
171.998 33.67 L
S
GR
GS
0.149 GC
2 setlinecap
1 LJ
0.5 LW
N
190.509 31.5 M
190.509 33.67 L
S
GR
GS
0.149 GC
2 setlinecap
1 LJ
0.5 LW
N
209.019 31.5 M
209.019 33.67 L
S
GR
GS
0.149 GC
2 setlinecap
1 LJ
0.5 LW
N
246.041 31.5 M
246.041 33.67 L
S
GR
GS
0.149 GC
2 setlinecap
1 LJ
0.5 LW
N
264.552 31.5 M
264.552 33.67 L
S
GR
GS
0.149 GC
2 setlinecap
1 LJ
0.5 LW
N
283.063 31.5 M
283.063 33.67 L
S
GR
GS
0.149 GC
2 setlinecap
1 LJ
0.5 LW
N
301.573 31.5 M
301.573 33.67 L
S
GR
GS
0.149 GC
2 setlinecap
1 LJ
0.5 LW
N
338.595 31.5 M
338.595 33.67 L
S
GR
GS
0.149 GC
2 setlinecap
1 LJ
0.5 LW
N
357.106 31.5 M
357.106 33.67 L
S
GR
GS
0.149 GC
2 setlinecap
1 LJ
0.5 LW
N
375.616 31.5 M
375.616 33.67 L
S
GR
GS
0.149 GC
2 setlinecap
1 LJ
0.5 LW
N
394.127 31.5 M
394.127 33.67 L
S
GR
GS
0.149 GC
2 setlinecap
1 LJ
0.5 LW
N
431.149 31.5 M
431.149 33.67 L
S
GR
GS
0.149 GC
2 setlinecap
1 LJ
0.5 LW
N
449.66 31.5 M
449.66 33.67 L
S
GR
GS
0.149 GC
2 setlinecap
1 LJ
0.5 LW
N
468.17 31.5 M
468.17 33.67 L
S
GR
GS
0.149 GC
2 setlinecap
1 LJ
0.5 LW
N
486.681 31.5 M
486.681 33.67 L
S
GR
GS
[1 0 0 1 134.97626 378.79996] CT
0.149 GC
/Helvetica 14 F
GS
[1 0 0 1 0 0] CT
-12 14 moveto 
1 -1 scale
(500) t 
GR
GR
GS
[1 0 0 1 227.53017 378.79996] CT
0.149 GC
/Helvetica 14 F
GS
[1 0 0 1 0 0] CT
-16 14 moveto 
1 -1 scale
(1000) t 
GR
GR
GS
[1 0 0 1 320.08408 378.79996] CT
0.149 GC
/Helvetica 14 F
GS
[1 0 0 1 0 0] CT
-16 14 moveto 
1 -1 scale
(1500) t 
GR
GR
GS
[1 0 0 1 412.63797 378.79996] CT
0.149 GC
/Helvetica 14 F
GS
[1 0 0 1 0 0] CT
-16 14 moveto 
1 -1 scale
(2000) t 
GR
GR
GS
[1 0 0 1 505.19186 378.79996] CT
0.149 GC
/Helvetica 14 F
GS
[1 0 0 1 0 0] CT
-16 14 moveto 
1 -1 scale
(2500) t 
GR
GR
GS
[1 0 0 1 290.00021 396.29996] CT
0.149 GC
/Helvetica 15.4 F
GS
[1 0 0 1 0 0] CT
-42 15 moveto 
1 -1 scale
(Bitrate\(kb/s\)) t 
GR
GR
GS
0.149 GC
2 setlinecap
1 LJ
0.5 LW
N
73 374 M
73 31.5 L
S
GR
GS
0.149 GC
2 setlinecap
1 LJ
0.5 LW
N
507 374 M
507 31.5 L
S
GR
GS
0.149 GC
2 setlinecap
1 LJ
0.5 LW
N
73 343.677 M
77.34 343.677 L
S
GR
GS
0.149 GC
2 setlinecap
1 LJ
0.5 LW
N
73 304.158 M
77.34 304.158 L
S
GR
GS
0.149 GC
2 setlinecap
1 LJ
0.5 LW
N
73 264.64 M
77.34 264.64 L
S
GR
GS
0.149 GC
2 setlinecap
1 LJ
0.5 LW
N
73 225.121 M
77.34 225.121 L
S
GR
GS
0.149 GC
2 setlinecap
1 LJ
0.5 LW
N
73 185.602 M
77.34 185.602 L
S
GR
GS
0.149 GC
2 setlinecap
1 LJ
0.5 LW
N
73 146.084 M
77.34 146.084 L
S
GR
GS
0.149 GC
2 setlinecap
1 LJ
0.5 LW
N
73 106.565 M
77.34 106.565 L
S
GR
GS
0.149 GC
2 setlinecap
1 LJ
0.5 LW
N
73 67.046 M
77.34 67.046 L
S
GR
GS
0.149 GC
2 setlinecap
1 LJ
0.5 LW
N
507 343.677 M
502.66 343.677 L
S
GR
GS
0.149 GC
2 setlinecap
1 LJ
0.5 LW
N
507 304.158 M
502.66 304.158 L
S
GR
GS
0.149 GC
2 setlinecap
1 LJ
0.5 LW
N
507 264.64 M
502.66 264.64 L
S
GR
GS
0.149 GC
2 setlinecap
1 LJ
0.5 LW
N
507 225.121 M
502.66 225.121 L
S
GR
GS
0.149 GC
2 setlinecap
1 LJ
0.5 LW
N
507 185.602 M
502.66 185.602 L
S
GR
GS
0.149 GC
2 setlinecap
1 LJ
0.5 LW
N
507 146.084 M
502.66 146.084 L
S
GR
GS
0.149 GC
2 setlinecap
1 LJ
0.5 LW
N
507 106.565 M
502.66 106.565 L
S
GR
GS
0.149 GC
2 setlinecap
1 LJ
0.5 LW
N
507 67.046 M
502.66 67.046 L
S
GR
GS
0.149 GC
2 setlinecap
1 LJ
0.5 LW
N
73 367.388 M
75.17 367.388 L
S
GR
GS
0.149 GC
2 setlinecap
1 LJ
0.5 LW
N
73 359.484 M
75.17 359.484 L
S
GR
GS
0.149 GC
2 setlinecap
1 LJ
0.5 LW
N
73 351.581 M
75.17 351.581 L
S
GR
GS
0.149 GC
2 setlinecap
1 LJ
0.5 LW
N
73 335.773 M
75.17 335.773 L
S
GR
GS
0.149 GC
2 setlinecap
1 LJ
0.5 LW
N
73 327.869 M
75.17 327.869 L
S
GR
GS
0.149 GC
2 setlinecap
1 LJ
0.5 LW
N
73 319.966 M
75.17 319.966 L
S
GR
GS
0.149 GC
2 setlinecap
1 LJ
0.5 LW
N
73 312.062 M
75.17 312.062 L
S
GR
GS
0.149 GC
2 setlinecap
1 LJ
0.5 LW
N
73 296.254 M
75.17 296.254 L
S
GR
GS
0.149 GC
2 setlinecap
1 LJ
0.5 LW
N
73 288.351 M
75.17 288.351 L
S
GR
GS
0.149 GC
2 setlinecap
1 LJ
0.5 LW
N
73 280.447 M
75.17 280.447 L
S
GR
GS
0.149 GC
2 setlinecap
1 LJ
0.5 LW
N
73 272.543 M
75.17 272.543 L
S
GR
GS
0.149 GC
2 setlinecap
1 LJ
0.5 LW
N
73 256.736 M
75.17 256.736 L
S
GR
GS
0.149 GC
2 setlinecap
1 LJ
0.5 LW
N
73 248.832 M
75.17 248.832 L
S
GR
GS
0.149 GC
2 setlinecap
1 LJ
0.5 LW
N
73 240.928 M
75.17 240.928 L
S
GR
GS
0.149 GC
2 setlinecap
1 LJ
0.5 LW
N
73 233.025 M
75.17 233.025 L
S
GR
GS
0.149 GC
2 setlinecap
1 LJ
0.5 LW
N
73 217.217 M
75.17 217.217 L
S
GR
GS
0.149 GC
2 setlinecap
1 LJ
0.5 LW
N
73 209.314 M
75.17 209.314 L
S
GR
GS
0.149 GC
2 setlinecap
1 LJ
0.5 LW
N
73 201.41 M
75.17 201.41 L
S
GR
GS
0.149 GC
2 setlinecap
1 LJ
0.5 LW
N
73 193.506 M
75.17 193.506 L
S
GR
GS
0.149 GC
2 setlinecap
1 LJ
0.5 LW
N
73 177.699 M
75.17 177.699 L
S
GR
GS
0.149 GC
2 setlinecap
1 LJ
0.5 LW
N
73 169.795 M
75.17 169.795 L
S
GR
GS
0.149 GC
2 setlinecap
1 LJ
0.5 LW
N
73 161.891 M
75.17 161.891 L
S
GR
GS
0.149 GC
2 setlinecap
1 LJ
0.5 LW
N
73 153.987 M
75.17 153.987 L
S
GR
GS
0.149 GC
2 setlinecap
1 LJ
0.5 LW
N
73 138.18 M
75.17 138.18 L
S
GR
GS
0.149 GC
2 setlinecap
1 LJ
0.5 LW
N
73 130.276 M
75.17 130.276 L
S
GR
GS
0.149 GC
2 setlinecap
1 LJ
0.5 LW
N
73 122.373 M
75.17 122.373 L
S
GR
GS
0.149 GC
2 setlinecap
1 LJ
0.5 LW
N
73 114.469 M
75.17 114.469 L
S
GR
GS
0.149 GC
2 setlinecap
1 LJ
0.5 LW
N
73 98.661 M
75.17 98.661 L
S
GR
GS
0.149 GC
2 setlinecap
1 LJ
0.5 LW
N
73 90.758 M
75.17 90.758 L
S
GR
GS
0.149 GC
2 setlinecap
1 LJ
0.5 LW
N
73 82.854 M
75.17 82.854 L
S
GR
GS
0.149 GC
2 setlinecap
1 LJ
0.5 LW
N
73 74.95 M
75.17 74.95 L
S
GR
GS
0.149 GC
2 setlinecap
1 LJ
0.5 LW
N
73 59.143 M
75.17 59.143 L
S
GR
GS
0.149 GC
2 setlinecap
1 LJ
0.5 LW
N
73 51.239 M
75.17 51.239 L
S
GR
GS
0.149 GC
2 setlinecap
1 LJ
0.5 LW
N
73 43.335 M
75.17 43.335 L
S
GR
GS
0.149 GC
2 setlinecap
1 LJ
0.5 LW
N
73 35.432 M
75.17 35.432 L
S
GR
GS
0.149 GC
2 setlinecap
1 LJ
0.5 LW
N
507 367.388 M
504.83 367.388 L
S
GR
GS
0.149 GC
2 setlinecap
1 LJ
0.5 LW
N
507 359.484 M
504.83 359.484 L
S
GR
GS
0.149 GC
2 setlinecap
1 LJ
0.5 LW
N
507 351.581 M
504.83 351.581 L
S
GR
GS
0.149 GC
2 setlinecap
1 LJ
0.5 LW
N
507 335.773 M
504.83 335.773 L
S
GR
GS
0.149 GC
2 setlinecap
1 LJ
0.5 LW
N
507 327.869 M
504.83 327.869 L
S
GR
GS
0.149 GC
2 setlinecap
1 LJ
0.5 LW
N
507 319.966 M
504.83 319.966 L
S
GR
GS
0.149 GC
2 setlinecap
1 LJ
0.5 LW
N
507 312.062 M
504.83 312.062 L
S
GR
GS
0.149 GC
2 setlinecap
1 LJ
0.5 LW
N
507 296.254 M
504.83 296.254 L
S
GR
GS
0.149 GC
2 setlinecap
1 LJ
0.5 LW
N
507 288.351 M
504.83 288.351 L
S
GR
GS
0.149 GC
2 setlinecap
1 LJ
0.5 LW
N
507 280.447 M
504.83 280.447 L
S
GR
GS
0.149 GC
2 setlinecap
1 LJ
0.5 LW
N
507 272.543 M
504.83 272.543 L
S
GR
GS
0.149 GC
2 setlinecap
1 LJ
0.5 LW
N
507 256.736 M
504.83 256.736 L
S
GR
GS
0.149 GC
2 setlinecap
1 LJ
0.5 LW
N
507 248.832 M
504.83 248.832 L
S
GR
GS
0.149 GC
2 setlinecap
1 LJ
0.5 LW
N
507 240.928 M
504.83 240.928 L
S
GR
GS
0.149 GC
2 setlinecap
1 LJ
0.5 LW
N
507 233.025 M
504.83 233.025 L
S
GR
GS
0.149 GC
2 setlinecap
1 LJ
0.5 LW
N
507 217.217 M
504.83 217.217 L
S
GR
GS
0.149 GC
2 setlinecap
1 LJ
0.5 LW
N
507 209.314 M
504.83 209.314 L
S
GR
GS
0.149 GC
2 setlinecap
1 LJ
0.5 LW
N
507 201.41 M
504.83 201.41 L
S
GR
GS
0.149 GC
2 setlinecap
1 LJ
0.5 LW
N
507 193.506 M
504.83 193.506 L
S
GR
GS
0.149 GC
2 setlinecap
1 LJ
0.5 LW
N
507 177.699 M
504.83 177.699 L
S
GR
GS
0.149 GC
2 setlinecap
1 LJ
0.5 LW
N
507 169.795 M
504.83 169.795 L
S
GR
GS
0.149 GC
2 setlinecap
1 LJ
0.5 LW
N
507 161.891 M
504.83 161.891 L
S
GR
GS
0.149 GC
2 setlinecap
1 LJ
0.5 LW
N
507 153.987 M
504.83 153.987 L
S
GR
GS
0.149 GC
2 setlinecap
1 LJ
0.5 LW
N
507 138.18 M
504.83 138.18 L
S
GR
GS
0.149 GC
2 setlinecap
1 LJ
0.5 LW
N
507 130.276 M
504.83 130.276 L
S
GR
GS
0.149 GC
2 setlinecap
1 LJ
0.5 LW
N
507 122.373 M
504.83 122.373 L
S
GR
GS
0.149 GC
2 setlinecap
1 LJ
0.5 LW
N
507 114.469 M
504.83 114.469 L
S
GR
GS
0.149 GC
2 setlinecap
1 LJ
0.5 LW
N
507 98.661 M
504.83 98.661 L
S
GR
GS
0.149 GC
2 setlinecap
1 LJ
0.5 LW
N
507 90.758 M
504.83 90.758 L
S
GR
GS
0.149 GC
2 setlinecap
1 LJ
0.5 LW
N
507 82.854 M
504.83 82.854 L
S
GR
GS
0.149 GC
2 setlinecap
1 LJ
0.5 LW
N
507 74.95 M
504.83 74.95 L
S
GR
GS
0.149 GC
2 setlinecap
1 LJ
0.5 LW
N
507 59.143 M
504.83 59.143 L
S
GR
GS
0.149 GC
2 setlinecap
1 LJ
0.5 LW
N
507 51.239 M
504.83 51.239 L
S
GR
GS
0.149 GC
2 setlinecap
1 LJ
0.5 LW
N
507 43.335 M
504.83 43.335 L
S
GR
GS
0.149 GC
2 setlinecap
1 LJ
0.5 LW
N
507 35.432 M
504.83 35.432 L
S
GR
GS
[1 0 0 1 68.2 343.67688] CT
0.149 GC
/Helvetica 14 F
GS
[1 0 0 1 0 0] CT
-16 5.5 moveto 
1 -1 scale
(17) t 
GR
GR
GS
[1 0 0 1 68.2 304.15826] CT
0.149 GC
/Helvetica 14 F
GS
[1 0 0 1 0 0] CT
-16 5.5 moveto 
1 -1 scale
(18) t 
GR
GR
GS
[1 0 0 1 68.2 264.63962] CT
0.149 GC
/Helvetica 14 F
GS
[1 0 0 1 0 0] CT
-16 5.5 moveto 
1 -1 scale
(19) t 
GR
GR
GS
[1 0 0 1 68.2 225.121] CT
0.149 GC
/Helvetica 14 F
GS
[1 0 0 1 0 0] CT
-16 5.5 moveto 
1 -1 scale
(20) t 
GR
GR
GS
[1 0 0 1 68.2 185.60237] CT
0.149 GC
/Helvetica 14 F
GS
[1 0 0 1 0 0] CT
-16 5.5 moveto 
1 -1 scale
(21) t 
GR
GR
GS
[1 0 0 1 68.2 146.08374] CT
0.149 GC
/Helvetica 14 F
GS
[1 0 0 1 0 0] CT
-16 5.5 moveto 
1 -1 scale
(22) t 
GR
GR
GS
[1 0 0 1 68.2 106.56511] CT
0.149 GC
/Helvetica 14 F
GS
[1 0 0 1 0 0] CT
-16 5.5 moveto 
1 -1 scale
(23) t 
GR
GR
GS
[1 0 0 1 68.2 67.04649] CT
0.149 GC
/Helvetica 14 F
GS
[1 0 0 1 0 0] CT
-16 5.5 moveto 
1 -1 scale
(24) t 
GR
GR
GS
[0 -1 1 0 49.2 202.74983] CT
0.149 GC
/Helvetica 15.4 F
GS
[1 0 0 1 0 0] CT
-49.5 -4 moveto 
1 -1 scale
(MS-SSIM \(dB\)) t 
GR
GR
GS
[1 0 0 1 290.00031 29.57499] CT
/Helvetica-Bold 15.4 F
GS
[1 0 0 1 0 0] CT
-136.5 -4 moveto 
1 -1 scale
(Skater227_1920x1080_30fps.y4m-av1) t 
GR
GR
GS
0 0.447 0.741 RC
1 LJ
0.5 LW
N
77.55 355.009 M
81.252 343.524 L
84.954 332.274 L
88.656 321.423 L
92.359 311.134 L
96.061 301.571 L
99.763 292.899 L
103.465 285.2 L
107.167 277.932 L
110.869 270.954 L
114.571 264.257 L
118.274 257.833 L
121.976 251.674 L
125.678 245.773 L
129.38 240.12 L
133.082 234.708 L
136.784 229.528 L
140.487 224.573 L
144.189 219.833 L
147.891 215.302 L
151.593 210.97 L
155.295 206.826 L
158.997 202.788 L
162.699 198.83 L
166.402 194.953 L
170.104 191.156 L
173.806 187.44 L
177.508 183.804 L
181.21 180.248 L
184.912 176.773 L
188.615 173.378 L
192.317 170.063 L
196.019 166.828 L
199.721 163.673 L
203.423 160.598 L
207.125 157.603 L
210.828 154.689 L
214.53 151.854 L
218.232 149.099 L
221.934 146.424 L
225.636 143.829 L
229.338 141.314 L
233.04 138.878 L
236.743 136.523 L
240.445 134.247 L
244.147 132.05 L
247.849 129.934 L
251.551 127.891 L
255.253 125.865 L
258.956 123.842 L
262.658 121.822 L
266.36 119.806 L
270.062 117.795 L
273.764 115.789 L
277.466 113.789 L
281.168 111.797 L
284.871 109.811 L
288.573 107.834 L
292.275 105.866 L
295.977 103.908 L
299.679 101.96 L
303.381 100.024 L
307.084 98.099 L
310.786 96.187 L
314.488 94.288 L
318.19 92.403 L
321.892 90.532 L
325.594 88.677 L
329.297 86.839 L
332.999 85.017 L
336.701 83.212 L
340.403 81.426 L
344.105 79.659 L
347.807 77.911 L
351.509 76.184 L
355.212 74.478 L
358.914 72.794 L
362.616 71.132 L
366.318 69.494 L
370.02 67.88 L
373.722 66.29 L
377.425 64.725 L
381.127 63.187 L
384.829 61.676 L
388.531 60.192 L
392.233 58.736 L
395.935 57.309 L
399.637 55.912 L
403.34 54.545 L
407.042 53.21 L
410.744 51.906 L
414.446 50.634 L
418.148 49.396 L
421.85 48.192 L
425.553 47.023 L
429.255 45.888 L
432.957 44.79 L
436.659 43.729 L
440.361 42.705 L
444.063 41.719 L
447.766 40.773 L
451.468 39.866 L
455.17 38.999 L
458.872 38.173 L
462.574 37.389 L
466.276 36.648 L
469.978 35.95 L
473.681 35.295 L
477.383 34.686 L
481.085 34.121 L
484.787 33.603 L
488.489 33.131 L
492.191 32.707 L
495.894 32.331 L
499.596 32.004 L
503.298 31.727 L
507 31.5 L
S
GR
GS
0.851 0.325 0.098 RC
1 LJ
0.5 LW
N
73.317 371.927 M
77.019 358.328 L
80.721 345.094 L
84.423 332.499 L
88.125 320.817 L
91.828 310.32 L
95.53 301.204 L
99.232 292.745 L
102.934 284.691 L
106.636 277.027 L
110.338 269.74 L
114.041 262.816 L
117.743 256.24 L
121.445 249.997 L
125.147 244.075 L
128.849 238.458 L
132.551 233.133 L
136.253 228.085 L
139.956 223.297 L
143.658 218.662 L
147.36 214.137 L
151.062 209.723 L
154.764 205.419 L
158.466 201.225 L
162.169 197.139 L
165.871 193.163 L
169.573 189.296 L
173.275 185.536 L
176.977 181.885 L
180.679 178.341 L
184.381 174.904 L
188.084 171.574 L
191.786 168.351 L
195.488 165.233 L
199.19 162.221 L
202.892 159.315 L
206.594 156.513 L
210.297 153.816 L
213.999 151.223 L
217.701 148.735 L
221.403 146.349 L
225.105 144.033 L
228.807 141.721 L
232.509 139.414 L
236.212 137.111 L
239.914 134.814 L
243.616 132.525 L
247.318 130.244 L
251.02 127.972 L
254.722 125.71 L
258.425 123.46 L
262.127 121.223 L
265.829 118.999 L
269.531 116.79 L
273.233 114.597 L
276.935 112.421 L
280.638 110.262 L
284.34 108.123 L
288.042 106.004 L
291.744 103.906 L
295.446 101.83 L
299.148 99.778 L
302.85 97.75 L
306.553 95.747 L
310.255 93.771 L
313.957 91.823 L
317.659 89.904 L
321.361 88.014 L
325.063 86.155 L
328.766 84.328 L
332.468 82.535 L
336.17 80.775 L
339.872 79.05 L
343.574 77.362 L
347.276 75.711 L
350.978 74.099 L
354.681 72.526 L
358.383 70.994 L
362.085 69.503 L
365.787 68.055 L
369.489 66.651 L
373.191 65.292 L
376.894 63.978 L
380.596 62.712 L
384.298 61.494 L
388 60.325 L
391.702 59.207 L
395.404 58.139 L
399.107 57.124 L
402.809 56.163 L
406.511 55.256 L
410.213 54.405 L
413.915 53.611 L
417.617 52.875 L
421.319 52.197 L
425.022 51.579 L
428.724 51.023 L
432.426 50.528 L
436.128 50.097 L
439.83 49.73 L
443.532 49.428 L
447.235 49.193 L
S
GR
GS
0.929 0.694 0.125 RC
1 LJ
0.5 LW
N
77.007 356.809 M
80.709 344.876 L
84.411 333.197 L
88.113 321.957 L
91.815 311.343 L
95.517 301.543 L
99.219 292.744 L
102.922 284.969 L
106.624 277.6 L
110.326 270.543 L
114.028 263.79 L
117.73 257.329 L
121.432 251.149 L
125.135 245.241 L
128.837 239.594 L
132.539 234.197 L
136.241 229.04 L
139.943 224.113 L
143.645 219.405 L
147.348 214.905 L
151.05 210.604 L
154.752 206.467 L
158.454 202.419 L
162.156 198.454 L
165.858 194.572 L
169.56 190.773 L
173.263 187.058 L
176.965 183.425 L
180.667 179.874 L
184.369 176.406 L
188.071 173.02 L
191.773 169.716 L
195.476 166.494 L
199.178 163.354 L
202.88 160.296 L
206.582 157.319 L
210.284 154.424 L
213.986 151.609 L
217.688 148.876 L
221.391 146.223 L
225.093 143.652 L
228.795 141.161 L
232.497 138.75 L
236.199 136.419 L
239.901 134.169 L
243.604 131.998 L
247.306 129.908 L
251.008 127.861 L
254.71 125.817 L
258.412 123.776 L
262.114 121.738 L
265.816 119.705 L
269.519 117.678 L
273.221 115.656 L
276.923 113.641 L
280.625 111.634 L
284.327 109.634 L
288.029 107.644 L
291.732 105.663 L
295.434 103.693 L
299.136 101.733 L
302.838 99.786 L
306.54 97.85 L
310.242 95.929 L
313.945 94.021 L
317.647 92.127 L
321.349 90.249 L
325.051 88.388 L
328.753 86.543 L
332.455 84.716 L
336.157 82.907 L
339.86 81.117 L
343.562 79.347 L
347.264 77.597 L
350.966 75.868 L
354.668 74.162 L
358.37 72.478 L
362.073 70.817 L
365.775 69.181 L
369.477 67.57 L
373.179 65.984 L
376.881 64.424 L
380.583 62.891 L
384.285 61.386 L
387.988 59.91 L
391.69 58.462 L
395.392 57.045 L
399.094 55.658 L
402.796 54.303 L
406.498 52.979 L
410.201 51.689 L
413.903 50.432 L
417.605 49.209 L
421.307 48.022 L
425.009 46.87 L
428.711 45.754 L
432.413 44.676 L
436.116 43.635 L
439.818 42.633 L
443.52 41.671 L
447.222 40.748 L
450.924 39.866 L
454.626 39.026 L
458.329 38.228 L
462.031 37.473 L
465.733 36.762 L
469.435 36.095 L
473.137 35.473 L
476.839 34.898 L
480.542 34.368 L
484.244 33.886 L
487.946 33.452 L
491.648 33.067 L
495.35 32.731 L
499.052 32.446 L
502.754 32.211 L
S
GR
GS
0.494 0.184 0.557 RC
1 LJ
0.5 LW
N
74.852 364.099 M
78.554 351.225 L
82.257 338.651 L
85.959 326.611 L
89.661 315.341 L
93.363 305.076 L
97.065 296.053 L
100.767 287.972 L
104.469 280.259 L
108.172 272.899 L
111.874 265.879 L
115.576 259.186 L
119.278 252.808 L
122.98 246.733 L
126.682 240.946 L
130.385 235.436 L
134.087 230.19 L
137.789 225.195 L
141.491 220.438 L
145.193 215.907 L
148.895 211.56 L
152.597 207.314 L
156.3 203.161 L
160.002 199.101 L
163.704 195.134 L
167.406 191.26 L
171.108 187.477 L
174.81 183.786 L
178.513 180.186 L
182.215 176.677 L
185.917 173.258 L
189.619 169.928 L
193.321 166.687 L
197.023 163.536 L
200.726 160.472 L
204.428 157.496 L
208.13 154.608 L
211.832 151.806 L
215.534 149.091 L
219.236 146.461 L
222.938 143.918 L
226.641 141.459 L
230.343 139.084 L
234.045 136.794 L
237.747 134.587 L
241.449 132.448 L
245.151 130.318 L
248.854 128.19 L
252.556 126.066 L
256.258 123.946 L
259.96 121.832 L
263.662 119.724 L
267.364 117.623 L
271.066 115.529 L
274.769 113.444 L
278.471 111.368 L
282.173 109.302 L
285.875 107.248 L
289.577 105.204 L
293.279 103.173 L
296.982 101.156 L
300.684 99.152 L
304.386 97.163 L
308.088 95.19 L
311.79 93.233 L
315.492 91.293 L
319.195 89.372 L
322.897 87.468 L
326.599 85.585 L
330.301 83.722 L
334.003 81.88 L
337.705 80.059 L
341.407 78.262 L
345.11 76.488 L
348.812 74.738 L
352.514 73.013 L
356.216 71.314 L
359.918 69.642 L
363.62 67.997 L
367.323 66.38 L
371.025 64.793 L
374.727 63.235 L
378.429 61.707 L
382.131 60.211 L
385.833 58.748 L
389.535 57.317 L
393.238 55.92 L
396.94 54.557 L
400.642 53.23 L
404.344 51.939 L
408.046 50.684 L
411.748 49.468 L
415.451 48.29 L
419.153 47.151 L
422.855 46.052 L
426.557 44.994 L
430.259 43.978 L
433.961 43.004 L
437.664 42.073 L
441.366 41.186 L
445.068 40.344 L
448.77 39.548 L
452.472 38.798 L
456.174 38.095 L
459.876 37.44 L
463.579 36.834 L
467.281 36.277 L
470.983 35.771 L
474.685 35.316 L
478.387 34.912 L
482.089 34.561 L
485.792 34.264 L
489.494 34.021 L
S
GR
GS
0.467 0.675 0.188 RC
1 LJ
0.5 LW
N
73.716 368.464 M
77.418 354.913 L
81.12 341.695 L
84.822 329.085 L
88.525 317.363 L
92.227 306.803 L
95.929 297.666 L
99.631 289.347 L
103.333 281.426 L
107.035 273.888 L
110.738 266.718 L
114.44 259.901 L
118.142 253.421 L
121.844 247.264 L
125.546 241.413 L
129.248 235.854 L
132.95 230.571 L
136.653 225.549 L
140.355 220.773 L
144.057 216.224 L
147.759 211.81 L
151.461 207.495 L
155.163 203.281 L
158.866 199.166 L
162.568 195.149 L
166.27 191.231 L
169.972 187.41 L
173.674 183.686 L
177.376 180.058 L
181.078 176.526 L
184.781 173.089 L
188.483 169.747 L
192.185 166.498 L
195.887 163.343 L
199.589 160.281 L
203.291 157.312 L
206.994 154.433 L
210.696 151.646 L
214.398 148.95 L
218.1 146.343 L
221.802 143.826 L
225.504 141.397 L
229.206 139.057 L
232.909 136.804 L
236.611 134.617 L
240.313 132.436 L
244.015 130.258 L
247.717 128.084 L
251.419 125.915 L
255.122 123.751 L
258.824 121.594 L
262.526 119.444 L
266.228 117.302 L
269.93 115.168 L
273.632 113.045 L
277.335 110.932 L
281.037 108.83 L
284.739 106.741 L
288.441 104.665 L
292.143 102.602 L
295.845 100.555 L
299.547 98.523 L
303.25 96.507 L
306.952 94.509 L
310.654 92.528 L
314.356 90.567 L
318.058 88.626 L
321.76 86.705 L
325.463 84.806 L
329.165 82.929 L
332.867 81.075 L
336.569 79.245 L
340.271 77.44 L
343.973 75.661 L
347.676 73.908 L
351.378 72.182 L
355.08 70.485 L
358.782 68.817 L
362.484 67.179 L
366.186 65.571 L
369.888 63.995 L
373.591 62.451 L
377.293 60.941 L
380.995 59.464 L
384.697 58.023 L
388.399 56.617 L
392.101 55.248 L
395.804 53.916 L
399.506 52.623 L
403.208 51.369 L
406.91 50.154 L
410.612 48.981 L
414.314 47.849 L
418.016 46.76 L
421.719 45.714 L
425.421 44.712 L
429.123 43.755 L
432.825 42.844 L
436.527 41.979 L
440.229 41.162 L
443.932 40.394 L
447.634 39.674 L
451.336 39.005 L
455.038 38.387 L
458.74 37.82 L
462.442 37.306 L
466.144 36.845 L
469.847 36.438 L
473.549 36.087 L
477.251 35.791 L
480.953 35.553 L
S
GR
GS
0.302 0.745 0.933 RC
[10 6] 0 setdash
2 LJ
0.5 LW
N
73 374 M
76.702 360.179 L
80.404 346.735 L
84.106 333.956 L
87.809 322.127 L
91.511 311.536 L
95.213 302.364 L
98.915 293.842 L
102.617 285.738 L
106.319 278.037 L
110.022 270.723 L
113.724 263.779 L
117.426 257.19 L
121.128 250.941 L
124.83 245.015 L
128.532 239.396 L
132.234 234.07 L
135.937 229.019 L
139.639 224.218 L
143.341 219.559 L
147.043 215.013 L
150.745 210.581 L
154.447 206.261 L
158.15 202.054 L
161.852 197.959 L
165.554 193.975 L
169.256 190.102 L
172.958 186.34 L
176.66 182.688 L
180.363 179.146 L
184.065 175.713 L
187.767 172.388 L
191.469 169.173 L
195.171 166.065 L
198.873 163.065 L
202.575 160.171 L
206.278 157.385 L
209.98 154.704 L
213.682 152.129 L
217.384 149.66 L
221.086 147.288 L
224.788 144.938 L
228.491 142.592 L
232.193 140.251 L
235.895 137.916 L
239.597 135.588 L
243.299 133.269 L
247.001 130.959 L
250.704 128.659 L
254.406 126.371 L
258.108 124.096 L
261.81 121.835 L
265.512 119.589 L
269.214 117.359 L
272.916 115.147 L
276.619 112.952 L
280.321 110.777 L
284.023 108.623 L
287.725 106.491 L
291.427 104.381 L
295.129 102.296 L
298.832 100.235 L
302.534 98.201 L
306.236 96.194 L
309.938 94.215 L
313.64 92.266 L
317.342 90.347 L
321.044 88.461 L
324.747 86.607 L
328.449 84.787 L
332.151 83.003 L
335.853 81.255 L
339.555 79.544 L
343.257 77.871 L
346.96 76.238 L
350.662 74.646 L
354.364 73.096 L
358.066 71.589 L
361.768 70.125 L
365.47 68.707 L
369.172 67.335 L
372.875 66.011 L
376.577 64.735 L
380.279 63.509 L
383.981 62.334 L
387.683 61.21 L
391.385 60.14 L
395.088 59.124 L
398.79 58.162 L
402.492 57.258 L
406.194 56.411 L
409.896 55.622 L
413.598 54.893 L
417.301 54.225 L
421.003 53.619 L
424.705 53.076 L
428.407 52.597 L
432.109 52.183 L
435.811 51.836 L
439.513 51.556 L
S
GR
GS
0.635 0.078 0.184 RC
[10 6] 0 setdash
2 LJ
0.5 LW
N
76.948 356.797 M
80.65 344.917 L
84.352 333.29 L
88.055 322.098 L
91.757 311.521 L
95.459 301.743 L
99.161 292.945 L
102.863 285.161 L
106.565 277.785 L
110.268 270.719 L
113.97 263.953 L
117.672 257.478 L
121.374 251.283 L
125.076 245.358 L
128.778 239.693 L
132.48 234.278 L
136.183 229.104 L
139.885 224.16 L
143.587 219.437 L
147.289 214.923 L
150.991 210.61 L
154.693 206.462 L
158.396 202.401 L
162.098 198.424 L
165.8 194.53 L
169.502 190.719 L
173.204 186.991 L
176.906 183.347 L
180.608 179.785 L
184.311 176.306 L
188.013 172.91 L
191.715 169.596 L
195.417 166.366 L
199.119 163.217 L
202.821 160.152 L
206.524 157.168 L
210.226 154.267 L
213.928 151.448 L
217.63 148.712 L
221.332 146.057 L
225.034 143.484 L
228.736 140.994 L
232.439 138.585 L
236.141 136.258 L
239.843 134.012 L
243.545 131.849 L
247.247 129.766 L
250.949 127.715 L
254.652 125.667 L
258.354 123.623 L
262.056 121.582 L
265.758 119.545 L
269.46 117.514 L
273.162 115.489 L
276.865 113.471 L
280.567 111.46 L
284.269 109.457 L
287.971 107.464 L
291.673 105.48 L
295.375 103.507 L
299.077 101.544 L
302.78 99.594 L
306.482 97.657 L
310.184 95.732 L
313.886 93.822 L
317.588 91.927 L
321.29 90.047 L
324.993 88.184 L
328.695 86.338 L
332.397 84.51 L
336.099 82.7 L
339.801 80.909 L
343.503 79.138 L
347.206 77.388 L
350.908 75.66 L
354.61 73.954 L
358.312 72.271 L
362.014 70.611 L
365.716 68.976 L
369.418 67.366 L
373.121 65.781 L
376.823 64.224 L
380.525 62.694 L
384.227 61.191 L
387.929 59.718 L
391.631 58.274 L
395.334 56.861 L
399.036 55.478 L
402.738 54.127 L
406.44 52.809 L
410.142 51.524 L
413.844 50.273 L
417.546 49.056 L
421.249 47.875 L
424.951 46.73 L
428.653 45.622 L
432.355 44.552 L
436.057 43.52 L
439.759 42.527 L
443.462 41.574 L
447.164 40.661 L
450.866 39.79 L
454.568 38.961 L
458.27 38.175 L
461.972 37.431 L
465.674 36.733 L
469.377 36.079 L
473.079 35.471 L
476.781 34.909 L
480.483 34.395 L
484.185 33.928 L
487.887 33.51 L
491.59 33.142 L
495.292 32.823 L
498.994 32.555 L
502.696 32.339 L
S
GR
GS
0 0.447 0.741 RC
[10 6] 0 setdash
2 LJ
0.5 LW
N
75.312 361.969 M
79.014 349.413 L
82.716 337.141 L
86.418 325.371 L
90.12 314.322 L
93.822 304.212 L
97.524 295.259 L
101.227 287.266 L
104.929 279.629 L
108.631 272.329 L
112.333 265.353 L
116.035 258.693 L
119.737 252.335 L
123.44 246.271 L
127.142 240.488 L
130.844 234.977 L
134.546 229.726 L
138.248 224.725 L
141.95 219.962 L
145.652 215.427 L
149.355 211.097 L
153.057 206.878 L
156.759 202.752 L
160.461 198.719 L
164.163 194.776 L
167.865 190.925 L
171.568 187.165 L
175.27 183.494 L
178.972 179.914 L
182.674 176.422 L
186.376 173.019 L
190.078 169.704 L
193.781 166.477 L
197.483 163.337 L
201.185 160.284 L
204.887 157.316 L
208.589 154.435 L
212.291 151.639 L
215.993 148.927 L
219.696 146.3 L
223.398 143.756 L
227.1 141.296 L
230.802 138.918 L
234.504 136.623 L
238.206 134.409 L
241.909 132.275 L
245.611 130.165 L
249.313 128.058 L
253.015 125.954 L
256.717 123.854 L
260.419 121.759 L
264.121 119.67 L
267.824 117.588 L
271.526 115.513 L
275.228 113.446 L
278.93 111.388 L
282.632 109.339 L
286.334 107.301 L
290.037 105.273 L
293.739 103.258 L
297.441 101.255 L
301.143 99.266 L
304.845 97.291 L
308.547 95.331 L
312.249 93.387 L
315.952 91.459 L
319.654 89.548 L
323.356 87.656 L
327.058 85.782 L
330.76 83.928 L
334.462 82.094 L
338.165 80.281 L
341.867 78.49 L
345.569 76.722 L
349.271 74.977 L
352.973 73.256 L
356.675 71.561 L
360.378 69.891 L
364.08 68.247 L
367.782 66.631 L
371.484 65.043 L
375.186 63.483 L
378.888 61.953 L
382.59 60.454 L
386.293 58.985 L
389.995 57.549 L
393.697 56.145 L
397.399 54.774 L
401.101 53.438 L
404.803 52.136 L
408.506 50.87 L
412.208 49.641 L
415.91 48.449 L
419.612 47.295 L
423.314 46.179 L
427.016 45.104 L
430.719 44.068 L
434.421 43.074 L
438.123 42.121 L
441.825 41.211 L
445.527 40.345 L
449.229 39.522 L
452.931 38.745 L
456.634 38.013 L
460.336 37.327 L
464.038 36.689 L
467.74 36.099 L
471.442 35.557 L
475.144 35.066 L
478.847 34.624 L
482.549 34.233 L
486.251 33.895 L
489.953 33.609 L
493.655 33.376 L
S
GR
GS
0.851 0.325 0.098 RC
[10 6] 0 setdash
2 LJ
0.5 LW
N
73.769 367.999 M
77.471 354.626 L
81.173 341.576 L
84.875 329.112 L
88.577 317.499 L
92.279 307.001 L
95.982 297.878 L
99.684 289.631 L
103.386 281.777 L
107.088 274.301 L
110.79 267.186 L
114.492 260.418 L
118.194 253.98 L
121.897 247.858 L
125.599 242.035 L
129.301 236.495 L
133.003 231.223 L
136.705 226.204 L
140.407 221.422 L
144.11 216.86 L
147.812 212.446 L
151.514 208.128 L
155.216 203.906 L
158.918 199.78 L
162.62 195.751 L
166.322 191.816 L
170.025 187.977 L
173.727 184.232 L
177.429 180.582 L
181.131 177.027 L
184.833 173.565 L
188.535 170.196 L
192.238 166.921 L
195.94 163.738 L
199.642 160.649 L
203.344 157.651 L
207.046 154.745 L
210.748 151.931 L
214.451 149.208 L
218.153 146.575 L
221.855 144.034 L
225.557 141.583 L
229.259 139.221 L
232.961 136.949 L
236.663 134.757 L
240.366 132.578 L
244.068 130.401 L
247.77 128.228 L
251.472 126.06 L
255.174 123.897 L
258.876 121.74 L
262.579 119.59 L
266.281 117.448 L
269.983 115.315 L
273.685 113.191 L
277.387 111.078 L
281.089 108.975 L
284.791 106.885 L
288.494 104.808 L
292.196 102.744 L
295.898 100.695 L
299.6 98.661 L
303.302 96.644 L
307.004 94.643 L
310.707 92.661 L
314.409 90.697 L
318.111 88.753 L
321.813 86.829 L
325.515 84.927 L
329.217 83.047 L
332.919 81.19 L
336.622 79.357 L
340.324 77.548 L
344.026 75.765 L
347.728 74.008 L
351.43 72.278 L
355.132 70.577 L
358.835 68.904 L
362.537 67.261 L
366.239 65.649 L
369.941 64.068 L
373.643 62.519 L
377.345 61.004 L
381.048 59.522 L
384.75 58.075 L
388.452 56.664 L
392.154 55.289 L
395.856 53.951 L
399.558 52.652 L
403.26 51.392 L
406.963 50.171 L
410.665 48.991 L
414.367 47.853 L
418.069 46.757 L
421.771 45.704 L
425.473 44.696 L
429.176 43.732 L
432.878 42.814 L
436.58 41.942 L
440.282 41.118 L
443.984 40.342 L
447.686 39.615 L
451.388 38.939 L
455.091 38.313 L
458.793 37.738 L
462.495 37.216 L
466.197 36.748 L
469.899 36.333 L
473.601 35.974 L
477.304 35.67 L
481.006 35.423 L
484.708 35.234 L
S
GR
GS
1 GC
N
499 366 M
499 218.5 L
327.5 218.5 L
327.5 366 L
cp
f
GR
GS
[1 0 0 1 364.5 228.25] CT
/Helvetica 13 F
GS
[1 0 0 1 0 0] CT
0 5 moveto 
1 -1 scale
(Base Run) t 
GR
GR
GS
0 0.447 0.741 RC
1 LJ
0.5 LW
N
331.5 228.25 M
361.5 228.25 L
S
GR
GS
[1 0 0 1 364.5 244.25] CT
/Helvetica 13 F
GS
[1 0 0 1 0 0] CT
0 5 moveto 
1 -1 scale
(All Frames) t 
GR
GR
GS
0.851 0.325 0.098 RC
1 LJ
0.5 LW
N
331.5 244.25 M
361.5 244.25 L
S
GR
GS
[1 0 0 1 364.5 260.25] CT
/Helvetica 13 F
GS
[1 0 0 1 0 0] CT
0 5 moveto 
1 -1 scale
(KF Only) t 
GR
GR
GS
0.929 0.694 0.125 RC
1 LJ
0.5 LW
N
331.5 260.25 M
361.5 260.25 L
S
GR
GS
[1 0 0 1 364.5 276.25] CT
/Helvetica 13 F
GS
[1 0 0 1 0 0] CT
0 5 moveto 
1 -1 scale
(GF, ARF Only) t 
GR
GR
GS
0.494 0.184 0.557 RC
1 LJ
0.5 LW
N
331.5 276.25 M
361.5 276.25 L
S
GR
GS
[1 0 0 1 364.5 292.25] CT
/Helvetica 13 F
GS
[1 0 0 1 0 0] CT
0 5 moveto 
1 -1 scale
(KF, GF, ARF Only) t 
GR
GR
GS
0.467 0.675 0.188 RC
1 LJ
0.5 LW
N
331.5 292.25 M
361.5 292.25 L
S
GR
GS
[1 0 0 1 364.5 308.25] CT
/Helvetica 13 F
GS
[1 0 0 1 0 0] CT
0 5 moveto 
1 -1 scale
(Part All Frames) t 
GR
GR
GS
0.302 0.745 0.933 RC
[10 6] 0 setdash
2 LJ
0.5 LW
N
331.5 308.25 M
361.5 308.25 L
S
GR
GS
[1 0 0 1 364.5 324.25] CT
/Helvetica 13 F
GS
[1 0 0 1 0 0] CT
0 5 moveto 
1 -1 scale
(Part KF Only) t 
GR
GR
GS
0.635 0.078 0.184 RC
[10 6] 0 setdash
2 LJ
0.5 LW
N
331.5 324.25 M
361.5 324.25 L
S
GR
GS
[1 0 0 1 364.5 340.25] CT
/Helvetica 13 F
GS
[1 0 0 1 0 0] CT
0 5 moveto 
1 -1 scale
(Part GF, ARF Only) t 
GR
GR
GS
0 0.447 0.741 RC
[10 6] 0 setdash
2 LJ
0.5 LW
N
331.5 340.25 M
361.5 340.25 L
S
GR
GS
[1 0 0 1 364.5 356.25] CT
/Helvetica 13 F
GS
[1 0 0 1 0 0] CT
0 5 moveto 
1 -1 scale
(Part KF, GF, ARF Only) t 
GR
GR
GS
0.851 0.325 0.098 RC
[10 6] 0 setdash
2 LJ
0.5 LW
N
331.5 356.25 M
361.5 356.25 L
S
GR
GS
0.149 GC
10.0 ML
0.5 LW
N
327.5 366 M
327.5 218.5 L
499 218.5 L
499 366 L
cp
S
GR
%%Trailer
%%Pages: 1
%%EOF
