%!PS-Adobe-3.0 EPSF-3.0
%%Creator: (MATLAB, The Mathworks, Inc. Version 9.11.0.1837725 \(R2021b\) Update 2. Operating System: Mac OS X)
%%Title: plots/pchip/Skater227_1920x1080_30fps.y4m-hevc-PSNRU.eps
%%CreationDate: 2022-02-03T19:14:39
%%Pages: (atend)
%%BoundingBox:    33   425   508   826
%%LanguageLevel: 3
%%EndComments
%%BeginProlog
%%BeginResource: procset (Apache XML Graphics Std ProcSet) 1.2 0
%%Version: 1.2 0
%%Copyright: (Copyright 2001-2003,2010 The Apache Software Foundation. License terms: http://www.apache.org/licenses/LICENSE-2.0)
/bd{bind def}bind def
/ld{load def}bd
/GR/grestore ld
/GS/gsave ld
/RM/rmoveto ld
/C/curveto ld
/t/show ld
/L/lineto ld
/ML/setmiterlimit ld
/CT/concat ld
/f/fill ld
/N/newpath ld
/S/stroke ld
/CC/setcmykcolor ld
/A/ashow ld
/cp/closepath ld
/RC/setrgbcolor ld
/LJ/setlinejoin ld
/GC/setgray ld
/LW/setlinewidth ld
/M/moveto ld
/re {4 2 roll M
1 index 0 rlineto
0 exch rlineto
neg 0 rlineto
cp } bd
/_ctm matrix def
/_tm matrix def
/BT { _ctm currentmatrix pop matrix _tm copy pop 0 0 moveto } bd
/ET { _ctm setmatrix } bd
/iTm { _ctm setmatrix _tm concat } bd
/Tm { _tm astore pop iTm 0 0 moveto } bd
/ux 0.0 def
/uy 0.0 def
/F {
  /Tp exch def
  /Tf exch def
  Tf findfont Tp scalefont setfont
  /cf Tf def  /cs Tp def
} bd
/ULS {currentpoint /uy exch def /ux exch def} bd
/ULE {
  /Tcx currentpoint pop def
  gsave
  newpath
  cf findfont cs scalefont dup
  /FontMatrix get 0 get /Ts exch def /FontInfo get dup
  /UnderlinePosition get Ts mul /To exch def
  /UnderlineThickness get Ts mul /Tt exch def
  ux uy To add moveto  Tcx uy To add lineto
  Tt setlinewidth stroke
  grestore
} bd
/OLE {
  /Tcx currentpoint pop def
  gsave
  newpath
  cf findfont cs scalefont dup
  /FontMatrix get 0 get /Ts exch def /FontInfo get dup
  /UnderlinePosition get Ts mul /To exch def
  /UnderlineThickness get Ts mul /Tt exch def
  ux uy To add cs add moveto Tcx uy To add cs add lineto
  Tt setlinewidth stroke
  grestore
} bd
/SOE {
  /Tcx currentpoint pop def
  gsave
  newpath
  cf findfont cs scalefont dup
  /FontMatrix get 0 get /Ts exch def /FontInfo get dup
  /UnderlinePosition get Ts mul /To exch def
  /UnderlineThickness get Ts mul /Tt exch def
  ux uy To add cs 10 mul 26 idiv add moveto Tcx uy To add cs 10 mul 26 idiv add lineto
  Tt setlinewidth stroke
  grestore
} bd
/QT {
/Y22 exch store
/X22 exch store
/Y21 exch store
/X21 exch store
currentpoint
/Y21 load 2 mul add 3 div exch
/X21 load 2 mul add 3 div exch
/X21 load 2 mul /X22 load add 3 div
/Y21 load 2 mul /Y22 load add 3 div
/X22 load /Y22 load curveto
} bd
/SSPD {
dup length /d exch dict def
{
/v exch def
/k exch def
currentpagedevice k known {
/cpdv currentpagedevice k get def
v cpdv ne {
/upd false def
/nullv v type /nulltype eq def
/nullcpdv cpdv type /nulltype eq def
nullv nullcpdv or
{
/upd true def
} {
/sametype v type cpdv type eq def
sametype {
v type /arraytype eq {
/vlen v length def
/cpdvlen cpdv length def
vlen cpdvlen eq {
0 1 vlen 1 sub {
/i exch def
/obj v i get def
/cpdobj cpdv i get def
obj cpdobj ne {
/upd true def
exit
} if
} for
} {
/upd true def
} ifelse
} {
v type /dicttype eq {
v {
/dv exch def
/dk exch def
/cpddv cpdv dk get def
dv cpddv ne {
/upd true def
exit
} if
} forall
} {
/upd true def
} ifelse
} ifelse
} if
} ifelse
upd true eq {
d k v put
} if
} if
} if
} forall
d length 0 gt {
d setpagedevice
} if
} bd
/RE { % /NewFontName [NewEncodingArray] /FontName RE -
  findfont dup length dict begin
  {
    1 index /FID ne
    {def} {pop pop} ifelse
  } forall
  /Encoding exch def
  /FontName 1 index def
  currentdict definefont pop
  end
} bind def
%%EndResource
%%BeginResource: procset (Apache XML Graphics EPS ProcSet) 1.0 0
%%Version: 1.0 0
%%Copyright: (Copyright 2002-2003 The Apache Software Foundation. License terms: http://www.apache.org/licenses/LICENSE-2.0)
/BeginEPSF { %def
/b4_Inc_state save def         % Save state for cleanup
/dict_count countdictstack def % Count objects on dict stack
/op_count count 1 sub def      % Count objects on operand stack
userdict begin                 % Push userdict on dict stack
/showpage { } def              % Redefine showpage, { } = null proc
0 setgray 0 setlinecap         % Prepare graphics state
1 setlinewidth 0 setlinejoin
10 setmiterlimit [ ] 0 setdash newpath
/languagelevel where           % If level not equal to 1 then
{pop languagelevel             % set strokeadjust and
1 ne                           % overprint to their defaults.
{false setstrokeadjust false setoverprint
} if
} if
} bd
/EndEPSF { %def
count op_count sub {pop} repeat            % Clean up stacks
countdictstack dict_count sub {end} repeat
b4_Inc_state restore
} bd
%%EndResource
%FOPBeginFontDict
%%IncludeResource: font Courier-Oblique
%%IncludeResource: font Courier-BoldOblique
%%IncludeResource: font Courier-Bold
%%IncludeResource: font ZapfDingbats
%%IncludeResource: font Symbol
%%IncludeResource: font Helvetica
%%IncludeResource: font Helvetica-Oblique
%%IncludeResource: font Helvetica-Bold
%%IncludeResource: font Helvetica-BoldOblique
%%IncludeResource: font Times-Roman
%%IncludeResource: font Times-Italic
%%IncludeResource: font Times-Bold
%%IncludeResource: font Times-BoldItalic
%%IncludeResource: font Courier
%FOPEndFontDict
%%BeginResource: encoding WinAnsiEncoding
/WinAnsiEncoding [
/.notdef /.notdef /.notdef /.notdef /.notdef
/.notdef /.notdef /.notdef /.notdef /.notdef
/.notdef /.notdef /.notdef /.notdef /.notdef
/.notdef /.notdef /.notdef /.notdef /.notdef
/.notdef /.notdef /.notdef /.notdef /.notdef
/.notdef /.notdef /.notdef /.notdef /.notdef
/.notdef /.notdef /space /exclam /quotedbl
/numbersign /dollar /percent /ampersand /quotesingle
/parenleft /parenright /asterisk /plus /comma
/hyphen /period /slash /zero /one
/two /three /four /five /six
/seven /eight /nine /colon /semicolon
/less /equal /greater /question /at
/A /B /C /D /E
/F /G /H /I /J
/K /L /M /N /O
/P /Q /R /S /T
/U /V /W /X /Y
/Z /bracketleft /backslash /bracketright /asciicircum
/underscore /quoteleft /a /b /c
/d /e /f /g /h
/i /j /k /l /m
/n /o /p /q /r
/s /t /u /v /w
/x /y /z /braceleft /bar
/braceright /asciitilde /bullet /Euro /bullet
/quotesinglbase /florin /quotedblbase /ellipsis /dagger
/daggerdbl /circumflex /perthousand /Scaron /guilsinglleft
/OE /bullet /Zcaron /bullet /bullet
/quoteleft /quoteright /quotedblleft /quotedblright /bullet
/endash /emdash /asciitilde /trademark /scaron
/guilsinglright /oe /bullet /zcaron /Ydieresis
/space /exclamdown /cent /sterling /currency
/yen /brokenbar /section /dieresis /copyright
/ordfeminine /guillemotleft /logicalnot /sfthyphen /registered
/macron /degree /plusminus /twosuperior /threesuperior
/acute /mu /paragraph /middot /cedilla
/onesuperior /ordmasculine /guillemotright /onequarter /onehalf
/threequarters /questiondown /Agrave /Aacute /Acircumflex
/Atilde /Adieresis /Aring /AE /Ccedilla
/Egrave /Eacute /Ecircumflex /Edieresis /Igrave
/Iacute /Icircumflex /Idieresis /Eth /Ntilde
/Ograve /Oacute /Ocircumflex /Otilde /Odieresis
/multiply /Oslash /Ugrave /Uacute /Ucircumflex
/Udieresis /Yacute /Thorn /germandbls /agrave
/aacute /acircumflex /atilde /adieresis /aring
/ae /ccedilla /egrave /eacute /ecircumflex
/edieresis /igrave /iacute /icircumflex /idieresis
/eth /ntilde /ograve /oacute /ocircumflex
/otilde /odieresis /divide /oslash /ugrave
/uacute /ucircumflex /udieresis /yacute /thorn
/ydieresis
] def
%%EndResource
%FOPBeginFontReencode
/Courier-Oblique findfont
dup length dict begin
  {1 index /FID ne {def} {pop pop} ifelse} forall
  /Encoding WinAnsiEncoding def
  currentdict
end
/Courier-Oblique exch definefont pop
/Courier-BoldOblique findfont
dup length dict begin
  {1 index /FID ne {def} {pop pop} ifelse} forall
  /Encoding WinAnsiEncoding def
  currentdict
end
/Courier-BoldOblique exch definefont pop
/Courier-Bold findfont
dup length dict begin
  {1 index /FID ne {def} {pop pop} ifelse} forall
  /Encoding WinAnsiEncoding def
  currentdict
end
/Courier-Bold exch definefont pop
/Helvetica findfont
dup length dict begin
  {1 index /FID ne {def} {pop pop} ifelse} forall
  /Encoding WinAnsiEncoding def
  currentdict
end
/Helvetica exch definefont pop
/Helvetica-Oblique findfont
dup length dict begin
  {1 index /FID ne {def} {pop pop} ifelse} forall
  /Encoding WinAnsiEncoding def
  currentdict
end
/Helvetica-Oblique exch definefont pop
/Helvetica-Bold findfont
dup length dict begin
  {1 index /FID ne {def} {pop pop} ifelse} forall
  /Encoding WinAnsiEncoding def
  currentdict
end
/Helvetica-Bold exch definefont pop
/Helvetica-BoldOblique findfont
dup length dict begin
  {1 index /FID ne {def} {pop pop} ifelse} forall
  /Encoding WinAnsiEncoding def
  currentdict
end
/Helvetica-BoldOblique exch definefont pop
/Times-Roman findfont
dup length dict begin
  {1 index /FID ne {def} {pop pop} ifelse} forall
  /Encoding WinAnsiEncoding def
  currentdict
end
/Times-Roman exch definefont pop
/Times-Italic findfont
dup length dict begin
  {1 index /FID ne {def} {pop pop} ifelse} forall
  /Encoding WinAnsiEncoding def
  currentdict
end
/Times-Italic exch definefont pop
/Times-Bold findfont
dup length dict begin
  {1 index /FID ne {def} {pop pop} ifelse} forall
  /Encoding WinAnsiEncoding def
  currentdict
end
/Times-Bold exch definefont pop
/Times-BoldItalic findfont
dup length dict begin
  {1 index /FID ne {def} {pop pop} ifelse} forall
  /Encoding WinAnsiEncoding def
  currentdict
end
/Times-BoldItalic exch definefont pop
/Courier findfont
dup length dict begin
  {1 index /FID ne {def} {pop pop} ifelse} forall
  /Encoding WinAnsiEncoding def
  currentdict
end
/Courier exch definefont pop
%FOPEndFontReencode
%%EndProlog
%%Page: 1 1
%%PageBoundingBox: 0 0 1120 840
%%BeginPageSetup
[1 0 0 -1 0 840] CT
%%EndPageSetup
GS
1 GC
N
0 0 1120 840 re
f
GR
GS
1 GC
N
73 374 M
507 374 L
507 31.5 L
73 31.5 L
cp
f
GR
GS
0.149 GC
2 setlinecap
1 LJ
0.5 LW
N
73 374 M
507 374 L
S
GR
GS
0.149 GC
2 setlinecap
1 LJ
0.5 LW
N
73 31.5 M
507 31.5 L
S
GR
GS
0.149 GC
2 setlinecap
1 LJ
0.5 LW
N
142.165 374 M
142.165 369.66 L
S
GR
GS
0.149 GC
2 setlinecap
1 LJ
0.5 LW
N
239.404 374 M
239.404 369.66 L
S
GR
GS
0.149 GC
2 setlinecap
1 LJ
0.5 LW
N
336.644 374 M
336.644 369.66 L
S
GR
GS
0.149 GC
2 setlinecap
1 LJ
0.5 LW
N
433.883 374 M
433.883 369.66 L
S
GR
GS
0.149 GC
2 setlinecap
1 LJ
0.5 LW
N
142.165 31.5 M
142.165 35.84 L
S
GR
GS
0.149 GC
2 setlinecap
1 LJ
0.5 LW
N
239.404 31.5 M
239.404 35.84 L
S
GR
GS
0.149 GC
2 setlinecap
1 LJ
0.5 LW
N
336.644 31.5 M
336.644 35.84 L
S
GR
GS
0.149 GC
2 setlinecap
1 LJ
0.5 LW
N
433.883 31.5 M
433.883 35.84 L
S
GR
GS
0.149 GC
2 setlinecap
1 LJ
0.5 LW
N
83.821 374 M
83.821 371.83 L
S
GR
GS
0.149 GC
2 setlinecap
1 LJ
0.5 LW
N
103.269 374 M
103.269 371.83 L
S
GR
GS
0.149 GC
2 setlinecap
1 LJ
0.5 LW
N
122.717 374 M
122.717 371.83 L
S
GR
GS
0.149 GC
2 setlinecap
1 LJ
0.5 LW
N
161.613 374 M
161.613 371.83 L
S
GR
GS
0.149 GC
2 setlinecap
1 LJ
0.5 LW
N
181.061 374 M
181.061 371.83 L
S
GR
GS
0.149 GC
2 setlinecap
1 LJ
0.5 LW
N
200.508 374 M
200.508 371.83 L
S
GR
GS
0.149 GC
2 setlinecap
1 LJ
0.5 LW
N
219.956 374 M
219.956 371.83 L
S
GR
GS
0.149 GC
2 setlinecap
1 LJ
0.5 LW
N
258.852 374 M
258.852 371.83 L
S
GR
GS
0.149 GC
2 setlinecap
1 LJ
0.5 LW
N
278.3 374 M
278.3 371.83 L
S
GR
GS
0.149 GC
2 setlinecap
1 LJ
0.5 LW
N
297.748 374 M
297.748 371.83 L
S
GR
GS
0.149 GC
2 setlinecap
1 LJ
0.5 LW
N
317.196 374 M
317.196 371.83 L
S
GR
GS
0.149 GC
2 setlinecap
1 LJ
0.5 LW
N
356.092 374 M
356.092 371.83 L
S
GR
GS
0.149 GC
2 setlinecap
1 LJ
0.5 LW
N
375.539 374 M
375.539 371.83 L
S
GR
GS
0.149 GC
2 setlinecap
1 LJ
0.5 LW
N
394.987 374 M
394.987 371.83 L
S
GR
GS
0.149 GC
2 setlinecap
1 LJ
0.5 LW
N
414.435 374 M
414.435 371.83 L
S
GR
GS
0.149 GC
2 setlinecap
1 LJ
0.5 LW
N
453.331 374 M
453.331 371.83 L
S
GR
GS
0.149 GC
2 setlinecap
1 LJ
0.5 LW
N
472.779 374 M
472.779 371.83 L
S
GR
GS
0.149 GC
2 setlinecap
1 LJ
0.5 LW
N
492.227 374 M
492.227 371.83 L
S
GR
GS
0.149 GC
2 setlinecap
1 LJ
0.5 LW
N
83.821 31.5 M
83.821 33.67 L
S
GR
GS
0.149 GC
2 setlinecap
1 LJ
0.5 LW
N
103.269 31.5 M
103.269 33.67 L
S
GR
GS
0.149 GC
2 setlinecap
1 LJ
0.5 LW
N
122.717 31.5 M
122.717 33.67 L
S
GR
GS
0.149 GC
2 setlinecap
1 LJ
0.5 LW
N
161.613 31.5 M
161.613 33.67 L
S
GR
GS
0.149 GC
2 setlinecap
1 LJ
0.5 LW
N
181.061 31.5 M
181.061 33.67 L
S
GR
GS
0.149 GC
2 setlinecap
1 LJ
0.5 LW
N
200.508 31.5 M
200.508 33.67 L
S
GR
GS
0.149 GC
2 setlinecap
1 LJ
0.5 LW
N
219.956 31.5 M
219.956 33.67 L
S
GR
GS
0.149 GC
2 setlinecap
1 LJ
0.5 LW
N
258.852 31.5 M
258.852 33.67 L
S
GR
GS
0.149 GC
2 setlinecap
1 LJ
0.5 LW
N
278.3 31.5 M
278.3 33.67 L
S
GR
GS
0.149 GC
2 setlinecap
1 LJ
0.5 LW
N
297.748 31.5 M
297.748 33.67 L
S
GR
GS
0.149 GC
2 setlinecap
1 LJ
0.5 LW
N
317.196 31.5 M
317.196 33.67 L
S
GR
GS
0.149 GC
2 setlinecap
1 LJ
0.5 LW
N
356.092 31.5 M
356.092 33.67 L
S
GR
GS
0.149 GC
2 setlinecap
1 LJ
0.5 LW
N
375.539 31.5 M
375.539 33.67 L
S
GR
GS
0.149 GC
2 setlinecap
1 LJ
0.5 LW
N
394.987 31.5 M
394.987 33.67 L
S
GR
GS
0.149 GC
2 setlinecap
1 LJ
0.5 LW
N
414.435 31.5 M
414.435 33.67 L
S
GR
GS
0.149 GC
2 setlinecap
1 LJ
0.5 LW
N
453.331 31.5 M
453.331 33.67 L
S
GR
GS
0.149 GC
2 setlinecap
1 LJ
0.5 LW
N
472.779 31.5 M
472.779 33.67 L
S
GR
GS
0.149 GC
2 setlinecap
1 LJ
0.5 LW
N
492.227 31.5 M
492.227 33.67 L
S
GR
GS
[1 0 0 1 142.16483 378.80014] CT
0.149 GC
/Helvetica 14 F
GS
[1 0 0 1 0 0] CT
-12 14 moveto 
1 -1 scale
(500) t 
GR
GR
GS
[1 0 0 1 239.40425 378.80014] CT
0.149 GC
/Helvetica 14 F
GS
[1 0 0 1 0 0] CT
-16 14 moveto 
1 -1 scale
(1000) t 
GR
GR
GS
[1 0 0 1 336.64371 378.80014] CT
0.149 GC
/Helvetica 14 F
GS
[1 0 0 1 0 0] CT
-16 14 moveto 
1 -1 scale
(1500) t 
GR
GR
GS
[1 0 0 1 433.88312 378.80014] CT
0.149 GC
/Helvetica 14 F
GS
[1 0 0 1 0 0] CT
-16 14 moveto 
1 -1 scale
(2000) t 
GR
GR
GS
[1 0 0 1 290.00021 396.29999] CT
0.149 GC
/Helvetica 15.4 F
GS
[1 0 0 1 0 0] CT
-42 15 moveto 
1 -1 scale
(Bitrate\(kb/s\)) t 
GR
GR
GS
0.149 GC
2 setlinecap
1 LJ
0.5 LW
N
73 374 M
73 31.5 L
S
GR
GS
0.149 GC
2 setlinecap
1 LJ
0.5 LW
N
507 374 M
507 31.5 L
S
GR
GS
0.149 GC
2 setlinecap
1 LJ
0.5 LW
N
73 364.714 M
77.34 364.714 L
S
GR
GS
0.149 GC
2 setlinecap
1 LJ
0.5 LW
N
73 321.496 M
77.34 321.496 L
S
GR
GS
0.149 GC
2 setlinecap
1 LJ
0.5 LW
N
73 278.277 M
77.34 278.277 L
S
GR
GS
0.149 GC
2 setlinecap
1 LJ
0.5 LW
N
73 235.059 M
77.34 235.059 L
S
GR
GS
0.149 GC
2 setlinecap
1 LJ
0.5 LW
N
73 191.84 M
77.34 191.84 L
S
GR
GS
0.149 GC
2 setlinecap
1 LJ
0.5 LW
N
73 148.621 M
77.34 148.621 L
S
GR
GS
0.149 GC
2 setlinecap
1 LJ
0.5 LW
N
73 105.403 M
77.34 105.403 L
S
GR
GS
0.149 GC
2 setlinecap
1 LJ
0.5 LW
N
73 62.184 M
77.34 62.184 L
S
GR
GS
0.149 GC
2 setlinecap
1 LJ
0.5 LW
N
507 364.714 M
502.66 364.714 L
S
GR
GS
0.149 GC
2 setlinecap
1 LJ
0.5 LW
N
507 321.496 M
502.66 321.496 L
S
GR
GS
0.149 GC
2 setlinecap
1 LJ
0.5 LW
N
507 278.277 M
502.66 278.277 L
S
GR
GS
0.149 GC
2 setlinecap
1 LJ
0.5 LW
N
507 235.059 M
502.66 235.059 L
S
GR
GS
0.149 GC
2 setlinecap
1 LJ
0.5 LW
N
507 191.84 M
502.66 191.84 L
S
GR
GS
0.149 GC
2 setlinecap
1 LJ
0.5 LW
N
507 148.621 M
502.66 148.621 L
S
GR
GS
0.149 GC
2 setlinecap
1 LJ
0.5 LW
N
507 105.403 M
502.66 105.403 L
S
GR
GS
0.149 GC
2 setlinecap
1 LJ
0.5 LW
N
507 62.184 M
502.66 62.184 L
S
GR
GS
0.149 GC
2 setlinecap
1 LJ
0.5 LW
N
73 373.358 M
75.17 373.358 L
S
GR
GS
0.149 GC
2 setlinecap
1 LJ
0.5 LW
N
73 356.071 M
75.17 356.071 L
S
GR
GS
0.149 GC
2 setlinecap
1 LJ
0.5 LW
N
73 347.427 M
75.17 347.427 L
S
GR
GS
0.149 GC
2 setlinecap
1 LJ
0.5 LW
N
73 338.783 M
75.17 338.783 L
S
GR
GS
0.149 GC
2 setlinecap
1 LJ
0.5 LW
N
73 330.14 M
75.17 330.14 L
S
GR
GS
0.149 GC
2 setlinecap
1 LJ
0.5 LW
N
73 312.852 M
75.17 312.852 L
S
GR
GS
0.149 GC
2 setlinecap
1 LJ
0.5 LW
N
73 304.208 M
75.17 304.208 L
S
GR
GS
0.149 GC
2 setlinecap
1 LJ
0.5 LW
N
73 295.565 M
75.17 295.565 L
S
GR
GS
0.149 GC
2 setlinecap
1 LJ
0.5 LW
N
73 286.921 M
75.17 286.921 L
S
GR
GS
0.149 GC
2 setlinecap
1 LJ
0.5 LW
N
73 269.633 M
75.17 269.633 L
S
GR
GS
0.149 GC
2 setlinecap
1 LJ
0.5 LW
N
73 260.99 M
75.17 260.99 L
S
GR
GS
0.149 GC
2 setlinecap
1 LJ
0.5 LW
N
73 252.346 M
75.17 252.346 L
S
GR
GS
0.149 GC
2 setlinecap
1 LJ
0.5 LW
N
73 243.702 M
75.17 243.702 L
S
GR
GS
0.149 GC
2 setlinecap
1 LJ
0.5 LW
N
73 226.415 M
75.17 226.415 L
S
GR
GS
0.149 GC
2 setlinecap
1 LJ
0.5 LW
N
73 217.771 M
75.17 217.771 L
S
GR
GS
0.149 GC
2 setlinecap
1 LJ
0.5 LW
N
73 209.128 M
75.17 209.128 L
S
GR
GS
0.149 GC
2 setlinecap
1 LJ
0.5 LW
N
73 200.484 M
75.17 200.484 L
S
GR
GS
0.149 GC
2 setlinecap
1 LJ
0.5 LW
N
73 183.196 M
75.17 183.196 L
S
GR
GS
0.149 GC
2 setlinecap
1 LJ
0.5 LW
N
73 174.553 M
75.17 174.553 L
S
GR
GS
0.149 GC
2 setlinecap
1 LJ
0.5 LW
N
73 165.909 M
75.17 165.909 L
S
GR
GS
0.149 GC
2 setlinecap
1 LJ
0.5 LW
N
73 157.265 M
75.17 157.265 L
S
GR
GS
0.149 GC
2 setlinecap
1 LJ
0.5 LW
N
73 139.978 M
75.17 139.978 L
S
GR
GS
0.149 GC
2 setlinecap
1 LJ
0.5 LW
N
73 131.334 M
75.17 131.334 L
S
GR
GS
0.149 GC
2 setlinecap
1 LJ
0.5 LW
N
73 122.69 M
75.17 122.69 L
S
GR
GS
0.149 GC
2 setlinecap
1 LJ
0.5 LW
N
73 114.047 M
75.17 114.047 L
S
GR
GS
0.149 GC
2 setlinecap
1 LJ
0.5 LW
N
73 96.759 M
75.17 96.759 L
S
GR
GS
0.149 GC
2 setlinecap
1 LJ
0.5 LW
N
73 88.115 M
75.17 88.115 L
S
GR
GS
0.149 GC
2 setlinecap
1 LJ
0.5 LW
N
73 79.472 M
75.17 79.472 L
S
GR
GS
0.149 GC
2 setlinecap
1 LJ
0.5 LW
N
73 70.828 M
75.17 70.828 L
S
GR
GS
0.149 GC
2 setlinecap
1 LJ
0.5 LW
N
73 53.54 M
75.17 53.54 L
S
GR
GS
0.149 GC
2 setlinecap
1 LJ
0.5 LW
N
73 44.897 M
75.17 44.897 L
S
GR
GS
0.149 GC
2 setlinecap
1 LJ
0.5 LW
N
73 36.253 M
75.17 36.253 L
S
GR
GS
0.149 GC
2 setlinecap
1 LJ
0.5 LW
N
507 373.358 M
504.83 373.358 L
S
GR
GS
0.149 GC
2 setlinecap
1 LJ
0.5 LW
N
507 356.071 M
504.83 356.071 L
S
GR
GS
0.149 GC
2 setlinecap
1 LJ
0.5 LW
N
507 347.427 M
504.83 347.427 L
S
GR
GS
0.149 GC
2 setlinecap
1 LJ
0.5 LW
N
507 338.783 M
504.83 338.783 L
S
GR
GS
0.149 GC
2 setlinecap
1 LJ
0.5 LW
N
507 330.14 M
504.83 330.14 L
S
GR
GS
0.149 GC
2 setlinecap
1 LJ
0.5 LW
N
507 312.852 M
504.83 312.852 L
S
GR
GS
0.149 GC
2 setlinecap
1 LJ
0.5 LW
N
507 304.208 M
504.83 304.208 L
S
GR
GS
0.149 GC
2 setlinecap
1 LJ
0.5 LW
N
507 295.565 M
504.83 295.565 L
S
GR
GS
0.149 GC
2 setlinecap
1 LJ
0.5 LW
N
507 286.921 M
504.83 286.921 L
S
GR
GS
0.149 GC
2 setlinecap
1 LJ
0.5 LW
N
507 269.633 M
504.83 269.633 L
S
GR
GS
0.149 GC
2 setlinecap
1 LJ
0.5 LW
N
507 260.99 M
504.83 260.99 L
S
GR
GS
0.149 GC
2 setlinecap
1 LJ
0.5 LW
N
507 252.346 M
504.83 252.346 L
S
GR
GS
0.149 GC
2 setlinecap
1 LJ
0.5 LW
N
507 243.702 M
504.83 243.702 L
S
GR
GS
0.149 GC
2 setlinecap
1 LJ
0.5 LW
N
507 226.415 M
504.83 226.415 L
S
GR
GS
0.149 GC
2 setlinecap
1 LJ
0.5 LW
N
507 217.771 M
504.83 217.771 L
S
GR
GS
0.149 GC
2 setlinecap
1 LJ
0.5 LW
N
507 209.128 M
504.83 209.128 L
S
GR
GS
0.149 GC
2 setlinecap
1 LJ
0.5 LW
N
507 200.484 M
504.83 200.484 L
S
GR
GS
0.149 GC
2 setlinecap
1 LJ
0.5 LW
N
507 183.196 M
504.83 183.196 L
S
GR
GS
0.149 GC
2 setlinecap
1 LJ
0.5 LW
N
507 174.553 M
504.83 174.553 L
S
GR
GS
0.149 GC
2 setlinecap
1 LJ
0.5 LW
N
507 165.909 M
504.83 165.909 L
S
GR
GS
0.149 GC
2 setlinecap
1 LJ
0.5 LW
N
507 157.265 M
504.83 157.265 L
S
GR
GS
0.149 GC
2 setlinecap
1 LJ
0.5 LW
N
507 139.978 M
504.83 139.978 L
S
GR
GS
0.149 GC
2 setlinecap
1 LJ
0.5 LW
N
507 131.334 M
504.83 131.334 L
S
GR
GS
0.149 GC
2 setlinecap
1 LJ
0.5 LW
N
507 122.69 M
504.83 122.69 L
S
GR
GS
0.149 GC
2 setlinecap
1 LJ
0.5 LW
N
507 114.047 M
504.83 114.047 L
S
GR
GS
0.149 GC
2 setlinecap
1 LJ
0.5 LW
N
507 96.759 M
504.83 96.759 L
S
GR
GS
0.149 GC
2 setlinecap
1 LJ
0.5 LW
N
507 88.115 M
504.83 88.115 L
S
GR
GS
0.149 GC
2 setlinecap
1 LJ
0.5 LW
N
507 79.472 M
504.83 79.472 L
S
GR
GS
0.149 GC
2 setlinecap
1 LJ
0.5 LW
N
507 70.828 M
504.83 70.828 L
S
GR
GS
0.149 GC
2 setlinecap
1 LJ
0.5 LW
N
507 53.54 M
504.83 53.54 L
S
GR
GS
0.149 GC
2 setlinecap
1 LJ
0.5 LW
N
507 44.897 M
504.83 44.897 L
S
GR
GS
0.149 GC
2 setlinecap
1 LJ
0.5 LW
N
507 36.253 M
504.83 36.253 L
S
GR
GS
[1 0 0 1 68.2 364.71448] CT
0.149 GC
/Helvetica 14 F
GS
[1 0 0 1 0 0] CT
-16 5.5 moveto 
1 -1 scale
(46) t 
GR
GR
GS
[1 0 0 1 68.2 321.49585] CT
0.149 GC
/Helvetica 14 F
GS
[1 0 0 1 0 0] CT
-16 5.5 moveto 
1 -1 scale
(47) t 
GR
GR
GS
[1 0 0 1 68.2 278.27725] CT
0.149 GC
/Helvetica 14 F
GS
[1 0 0 1 0 0] CT
-16 5.5 moveto 
1 -1 scale
(48) t 
GR
GR
GS
[1 0 0 1 68.2 235.05862] CT
0.149 GC
/Helvetica 14 F
GS
[1 0 0 1 0 0] CT
-16 5.5 moveto 
1 -1 scale
(49) t 
GR
GR
GS
[1 0 0 1 68.2 191.84001] CT
0.149 GC
/Helvetica 14 F
GS
[1 0 0 1 0 0] CT
-16 5.5 moveto 
1 -1 scale
(50) t 
GR
GR
GS
[1 0 0 1 68.2 148.6214] CT
0.149 GC
/Helvetica 14 F
GS
[1 0 0 1 0 0] CT
-16 5.5 moveto 
1 -1 scale
(51) t 
GR
GR
GS
[1 0 0 1 68.2 105.40278] CT
0.149 GC
/Helvetica 14 F
GS
[1 0 0 1 0 0] CT
-16 5.5 moveto 
1 -1 scale
(52) t 
GR
GR
GS
[1 0 0 1 68.2 62.18416] CT
0.149 GC
/Helvetica 14 F
GS
[1 0 0 1 0 0] CT
-16 5.5 moveto 
1 -1 scale
(53) t 
GR
GR
GS
[0 -1 1 0 49.2 202.74985] CT
0.149 GC
/Helvetica 15.4 F
GS
[1 0 0 1 0 0] CT
-42.5 -4 moveto 
1 -1 scale
(PSNR U\(dB\)) t 
GR
GR
GS
[1 0 0 1 290.00031 29.575] CT
/Helvetica-Bold 15.4 F
GS
[1 0 0 1 0 0] CT
-141 -4 moveto 
1 -1 scale
(Skater227_1920x1080_30fps.y4m-hevc) t 
GR
GR
GS
0 0.447 0.741 RC
1 LJ
0.5 LW
N
73.651 363.018 M
77.541 348.107 L
81.43 333.667 L
85.32 320.035 L
89.209 307.548 L
93.099 296.544 L
96.988 287.126 L
100.878 278.335 L
104.768 270.015 L
108.657 262.155 L
112.547 254.739 L
116.436 247.755 L
120.326 241.189 L
124.215 235.029 L
128.105 229.262 L
131.995 223.873 L
135.884 218.85 L
139.774 214.152 L
143.663 209.613 L
147.553 205.204 L
151.442 200.923 L
155.332 196.766 L
159.222 192.732 L
163.111 188.818 L
167.001 185.021 L
170.89 181.339 L
174.78 177.768 L
178.67 174.307 L
182.559 170.952 L
186.449 167.702 L
190.338 164.552 L
194.228 161.502 L
198.117 158.547 L
202.007 155.687 L
205.897 152.917 L
209.786 150.235 L
213.676 147.639 L
217.565 145.126 L
221.455 142.693 L
225.344 140.338 L
229.234 138.058 L
233.124 135.835 L
237.013 133.618 L
240.903 131.404 L
244.792 129.196 L
248.682 126.993 L
252.571 124.796 L
256.461 122.607 L
260.351 120.425 L
264.24 118.253 L
268.13 116.091 L
272.019 113.94 L
275.909 111.801 L
279.799 109.674 L
283.688 107.561 L
287.578 105.462 L
291.467 103.378 L
295.357 101.311 L
299.246 99.261 L
303.136 97.229 L
307.026 95.215 L
310.915 93.222 L
314.805 91.249 L
318.694 89.298 L
322.584 87.369 L
326.473 85.463 L
330.363 83.582 L
334.253 81.726 L
338.142 79.896 L
342.032 78.092 L
345.921 76.317 L
349.811 74.57 L
353.701 72.853 L
357.59 71.166 L
361.48 69.511 L
365.369 67.888 L
369.259 66.298 L
373.148 64.742 L
377.038 63.221 L
380.928 61.735 L
384.817 60.287 L
388.707 58.876 L
392.596 57.503 L
396.486 56.17 L
400.375 54.877 L
404.265 53.625 L
408.155 52.416 L
412.044 51.249 L
415.934 50.126 L
419.823 49.048 L
423.713 48.015 L
427.602 47.029 L
431.492 46.09 L
435.382 45.2 L
439.271 44.358 L
443.161 43.567 L
447.05 42.827 L
450.94 42.138 L
454.83 41.503 L
458.719 40.92 L
462.609 40.393 L
466.498 39.921 L
470.388 39.505 L
474.277 39.146 L
478.167 38.845 L
S
GR
GS
0.851 0.325 0.098 RC
1 LJ
0.5 LW
N
74.737 353.909 M
78.626 339.837 L
82.516 326.177 L
86.405 313.207 L
90.295 301.209 L
94.185 290.462 L
98.074 281.167 L
101.964 272.547 L
105.853 264.326 L
109.743 256.504 L
113.632 249.081 L
117.522 242.057 L
121.412 235.43 L
125.301 229.201 L
129.191 223.369 L
133.08 217.933 L
136.97 212.892 L
140.859 208.247 L
144.749 203.898 L
148.639 199.684 L
152.528 195.602 L
156.418 191.647 L
160.307 187.816 L
164.197 184.105 L
168.087 180.51 L
171.976 177.029 L
175.866 173.657 L
179.755 170.39 L
183.645 167.226 L
187.534 164.16 L
191.424 161.189 L
195.314 158.309 L
199.203 155.517 L
203.093 152.808 L
206.982 150.181 L
210.872 147.63 L
214.761 145.152 L
218.651 142.744 L
222.541 140.402 L
226.43 138.122 L
230.32 135.901 L
234.209 133.735 L
238.099 131.62 L
241.988 129.524 L
245.878 127.431 L
249.768 125.343 L
253.657 123.26 L
257.547 121.183 L
261.436 119.113 L
265.326 117.049 L
269.216 114.994 L
273.105 112.947 L
276.995 110.909 L
280.884 108.882 L
284.774 106.865 L
288.663 104.86 L
292.553 102.866 L
296.443 100.886 L
300.332 98.92 L
304.222 96.968 L
308.111 95.031 L
312.001 93.109 L
315.89 91.205 L
319.78 89.317 L
323.67 87.447 L
327.559 85.596 L
331.449 83.764 L
335.338 81.953 L
339.228 80.162 L
343.117 78.392 L
347.007 76.645 L
350.897 74.921 L
354.786 73.22 L
358.676 71.544 L
362.565 69.892 L
366.455 68.267 L
370.345 66.668 L
374.234 65.096 L
378.124 63.552 L
382.013 62.037 L
385.903 60.551 L
389.792 59.095 L
393.682 57.67 L
397.572 56.276 L
401.461 54.915 L
405.351 53.586 L
409.24 52.291 L
413.13 51.03 L
417.019 49.805 L
420.909 48.615 L
424.799 47.462 L
428.688 46.346 L
432.578 45.267 L
436.467 44.228 L
440.357 43.228 L
444.247 42.267 L
448.136 41.348 L
452.026 40.47 L
455.915 39.634 L
459.805 38.841 L
463.694 38.092 L
467.584 37.387 L
471.474 36.727 L
475.363 36.113 L
479.253 35.546 L
483.142 35.025 L
487.032 34.553 L
490.921 34.129 L
494.811 33.754 L
498.701 33.43 L
S
GR
GS
0.929 0.694 0.125 RC
1 LJ
0.5 LW
N
73 374 M
76.89 358.159 L
80.779 342.835 L
84.669 328.465 L
88.558 315.486 L
92.448 304.337 L
96.337 294.974 L
100.227 286.279 L
104.117 278.142 L
108.006 270.525 L
111.896 263.39 L
115.785 256.699 L
119.675 250.412 L
123.565 244.492 L
127.454 238.9 L
131.344 233.598 L
135.233 228.547 L
139.123 223.692 L
143.012 218.954 L
146.902 214.326 L
150.792 209.808 L
154.681 205.4 L
158.571 201.101 L
162.46 196.912 L
166.35 192.833 L
170.239 188.863 L
174.129 185.003 L
178.019 181.252 L
181.908 177.61 L
185.798 174.077 L
189.687 170.654 L
193.577 167.339 L
197.466 164.133 L
201.356 161.036 L
205.246 158.048 L
209.135 155.169 L
213.025 152.398 L
216.914 149.735 L
220.804 147.181 L
224.694 144.735 L
228.583 142.39 L
232.473 140.066 L
236.362 137.745 L
240.252 135.427 L
244.141 133.113 L
248.031 130.806 L
251.921 128.504 L
255.81 126.211 L
259.7 123.926 L
263.589 121.651 L
267.479 119.387 L
271.368 117.135 L
275.258 114.896 L
279.148 112.671 L
283.037 110.461 L
286.927 108.267 L
290.816 106.09 L
294.706 103.932 L
298.595 101.792 L
302.485 99.674 L
306.375 97.577 L
310.264 95.502 L
314.154 93.451 L
318.043 91.424 L
321.933 89.423 L
325.823 87.449 L
329.712 85.503 L
333.602 83.586 L
337.491 81.698 L
341.381 79.842 L
345.27 78.017 L
349.16 76.226 L
353.05 74.469 L
356.939 72.747 L
360.829 71.062 L
364.718 69.413 L
368.608 67.803 L
372.497 66.233 L
376.387 64.703 L
380.277 63.215 L
384.166 61.769 L
388.056 60.368 L
391.945 59.01 L
395.835 57.699 L
399.724 56.434 L
403.614 55.218 L
407.504 54.051 L
411.393 52.933 L
415.283 51.867 L
419.172 50.853 L
423.062 49.892 L
426.952 48.985 L
430.841 48.134 L
434.731 47.339 L
438.62 46.602 L
442.51 45.923 L
446.399 45.304 L
450.289 44.745 L
454.179 44.248 L
458.068 43.814 L
461.958 43.444 L
465.847 43.138 L
469.737 42.899 L
473.626 42.727 L
S
GR
GS
0.494 0.184 0.557 RC
1 LJ
0.5 LW
N
75.257 351.402 M
79.146 337.494 L
83.036 323.986 L
86.926 311.167 L
90.815 299.327 L
94.705 288.753 L
98.594 279.707 L
102.484 271.519 L
106.374 263.778 L
110.263 256.464 L
114.153 249.556 L
118.042 243.036 L
121.932 236.882 L
125.821 231.075 L
129.711 225.594 L
133.601 220.421 L
137.49 215.533 L
141.38 210.912 L
145.269 206.52 L
149.159 202.247 L
153.048 198.077 L
156.938 194.009 L
160.828 190.041 L
164.717 186.172 L
168.607 182.402 L
172.496 178.729 L
176.386 175.152 L
180.275 171.671 L
184.165 168.284 L
188.055 164.99 L
191.944 161.788 L
195.834 158.678 L
199.723 155.657 L
203.613 152.725 L
207.503 149.882 L
211.392 147.125 L
215.282 144.454 L
219.171 141.868 L
223.061 139.366 L
226.95 136.947 L
230.84 134.609 L
234.73 132.352 L
238.619 130.175 L
242.509 128.072 L
246.398 125.987 L
250.288 123.905 L
254.177 121.826 L
258.067 119.751 L
261.957 117.68 L
265.846 115.616 L
269.736 113.557 L
273.625 111.506 L
277.515 109.463 L
281.405 107.428 L
285.294 105.404 L
289.184 103.389 L
293.073 101.386 L
296.963 99.394 L
300.852 97.416 L
304.742 95.45 L
308.632 93.499 L
312.521 91.564 L
316.411 89.644 L
320.3 87.74 L
324.19 85.854 L
328.079 83.987 L
331.969 82.138 L
335.859 80.31 L
339.748 78.502 L
343.638 76.715 L
347.527 74.95 L
351.417 73.209 L
355.306 71.491 L
359.196 69.798 L
363.086 68.131 L
366.975 66.489 L
370.865 64.875 L
374.754 63.288 L
378.644 61.73 L
382.534 60.201 L
386.423 58.702 L
390.313 57.234 L
394.202 55.798 L
398.092 54.394 L
401.981 53.024 L
405.871 51.687 L
409.761 50.386 L
413.65 49.12 L
417.54 47.891 L
421.429 46.699 L
425.319 45.545 L
429.208 44.43 L
433.098 43.354 L
436.988 42.319 L
440.877 41.325 L
444.767 40.373 L
448.656 39.464 L
452.546 38.599 L
456.436 37.777 L
460.325 37.001 L
464.215 36.271 L
468.104 35.588 L
471.994 34.952 L
475.883 34.365 L
479.773 33.827 L
483.663 33.338 L
487.552 32.9 L
491.442 32.514 L
495.331 32.18 L
499.221 31.899 L
503.11 31.672 L
507 31.5 L
S
GR
GS
0.467 0.675 0.188 RC
[10 6] 0 setdash
2 LJ
0.5 LW
N
73.382 366.075 M
77.271 351.236 L
81.161 336.867 L
85.05 323.273 L
88.94 310.756 L
92.83 299.622 L
96.719 289.92 L
100.609 280.752 L
104.498 272.012 L
108.388 263.705 L
112.277 255.838 L
116.167 248.417 L
120.057 241.448 L
123.946 234.938 L
127.836 228.893 L
131.725 223.319 L
135.615 218.222 L
139.504 213.502 L
143.394 208.941 L
147.284 204.53 L
151.173 200.263 L
155.063 196.138 L
158.952 192.149 L
162.842 188.293 L
166.732 184.565 L
170.621 180.961 L
174.511 177.478 L
178.4 174.11 L
182.29 170.853 L
186.179 167.704 L
190.069 164.658 L
193.959 161.712 L
197.848 158.86 L
201.738 156.098 L
205.627 153.423 L
209.517 150.831 L
213.406 148.316 L
217.296 145.876 L
221.186 143.504 L
225.075 141.199 L
228.965 138.952 L
232.854 136.72 L
236.744 134.493 L
240.633 132.27 L
244.523 130.053 L
248.413 127.842 L
252.302 125.639 L
256.192 123.444 L
260.081 121.259 L
263.971 119.084 L
267.861 116.919 L
271.75 114.767 L
275.64 112.627 L
279.529 110.502 L
283.419 108.39 L
287.308 106.295 L
291.198 104.215 L
295.088 102.153 L
298.977 100.109 L
302.867 98.084 L
306.756 96.079 L
310.646 94.095 L
314.535 92.133 L
318.425 90.193 L
322.315 88.277 L
326.204 86.385 L
330.094 84.518 L
333.983 82.678 L
337.873 80.864 L
341.762 79.079 L
345.652 77.322 L
349.542 75.595 L
353.431 73.899 L
357.321 72.234 L
361.21 70.601 L
365.1 69.002 L
368.99 67.437 L
372.879 65.907 L
376.769 64.413 L
380.658 62.956 L
384.548 61.537 L
388.437 60.156 L
392.327 58.814 L
396.217 57.513 L
400.106 56.254 L
403.996 55.036 L
407.885 53.862 L
411.775 52.731 L
415.664 51.646 L
419.554 50.606 L
423.444 49.612 L
427.333 48.666 L
431.223 47.769 L
435.112 46.921 L
439.002 46.123 L
442.892 45.376 L
446.781 44.681 L
450.671 44.039 L
454.56 43.451 L
458.45 42.917 L
462.339 42.439 L
466.229 42.017 L
470.119 41.653 L
474.008 41.346 L
S
GR
GS
0.302 0.745 0.933 RC
[10 6] 0 setdash
2 LJ
0.5 LW
N
73.176 369.748 M
77.066 354.734 L
80.955 340.195 L
84.845 326.481 L
88.734 313.946 L
92.624 302.939 L
96.513 293.513 L
100.403 284.697 L
104.293 276.367 L
108.182 268.505 L
112.072 261.091 L
115.961 254.106 L
119.851 247.533 L
123.74 241.352 L
127.63 235.545 L
131.52 230.094 L
135.409 224.979 L
139.299 220.155 L
143.188 215.477 L
147.078 210.922 L
150.967 206.491 L
154.857 202.18 L
158.747 197.99 L
162.636 193.917 L
166.526 189.96 L
170.415 186.118 L
174.305 182.39 L
178.195 178.772 L
182.084 175.264 L
185.974 171.865 L
189.863 168.571 L
193.753 165.383 L
197.642 162.298 L
201.532 159.314 L
205.422 156.43 L
209.311 153.644 L
213.201 150.955 L
217.09 148.361 L
220.98 145.86 L
224.869 143.451 L
228.759 141.132 L
232.649 138.849 L
236.538 136.57 L
240.428 134.294 L
244.317 132.023 L
248.207 129.757 L
252.096 127.498 L
255.986 125.247 L
259.876 123.004 L
263.765 120.771 L
267.655 118.549 L
271.544 116.338 L
275.434 114.139 L
279.324 111.954 L
283.213 109.784 L
287.103 107.629 L
290.992 105.491 L
294.882 103.37 L
298.771 101.267 L
302.661 99.184 L
306.551 97.122 L
310.44 95.081 L
314.33 93.062 L
318.219 91.066 L
322.109 89.095 L
325.998 87.149 L
329.888 85.23 L
333.778 83.338 L
337.667 81.474 L
341.557 79.639 L
345.446 77.835 L
349.336 76.062 L
353.225 74.321 L
357.115 72.613 L
361.005 70.94 L
364.894 69.301 L
368.784 67.699 L
372.673 66.134 L
376.563 64.607 L
380.453 63.119 L
384.342 61.672 L
388.232 60.265 L
392.121 58.901 L
396.011 57.579 L
399.9 56.302 L
403.79 55.069 L
407.68 53.883 L
411.569 52.744 L
415.459 51.652 L
419.348 50.61 L
423.238 49.617 L
427.127 48.675 L
431.017 47.786 L
434.907 46.949 L
438.796 46.166 L
442.686 45.438 L
446.575 44.765 L
450.465 44.15 L
454.354 43.592 L
458.244 43.094 L
462.134 42.654 L
466.023 42.276 L
469.913 41.96 L
473.802 41.706 L
477.692 41.516 L
S
GR
GS
0.635 0.078 0.184 RC
[10 6] 0 setdash
2 LJ
0.5 LW
N
73.826 360.672 M
77.716 345.294 L
81.605 330.402 L
85.495 316.383 L
89.384 303.621 L
93.274 292.505 L
97.164 283.208 L
101.053 274.668 L
104.943 266.652 L
108.832 259.133 L
112.722 252.081 L
116.611 245.467 L
120.501 239.262 L
124.391 233.437 L
128.28 227.962 L
132.17 222.809 L
136.059 217.949 L
139.949 213.347 L
143.839 208.895 L
147.728 204.56 L
151.618 200.34 L
155.507 196.232 L
159.397 192.236 L
163.286 188.349 L
167.176 184.57 L
171.066 180.897 L
174.955 177.328 L
178.845 173.863 L
182.734 170.498 L
186.624 167.232 L
190.513 164.064 L
194.403 160.992 L
198.293 158.014 L
202.182 155.129 L
206.072 152.334 L
209.961 149.628 L
213.851 147.01 L
217.741 144.477 L
221.63 142.028 L
225.52 139.662 L
229.409 137.376 L
233.299 135.168 L
237.188 132.992 L
241.078 130.819 L
244.968 128.649 L
248.857 126.484 L
252.747 124.325 L
256.636 122.171 L
260.526 120.025 L
264.415 117.887 L
268.305 115.758 L
272.195 113.639 L
276.084 111.53 L
279.974 109.432 L
283.863 107.348 L
287.753 105.276 L
291.642 103.218 L
295.532 101.175 L
299.422 99.148 L
303.311 97.137 L
307.201 95.144 L
311.09 93.17 L
314.98 91.214 L
318.87 89.279 L
322.759 87.364 L
326.649 85.472 L
330.538 83.602 L
334.428 81.755 L
338.317 79.933 L
342.207 78.136 L
346.097 76.365 L
349.986 74.621 L
353.876 72.905 L
357.765 71.217 L
361.655 69.559 L
365.544 67.932 L
369.434 66.335 L
373.324 64.771 L
377.213 63.239 L
381.103 61.742 L
384.992 60.279 L
388.882 58.852 L
392.771 57.461 L
396.661 56.107 L
400.551 54.791 L
404.44 53.515 L
408.33 52.278 L
412.219 51.082 L
416.109 49.927 L
419.999 48.815 L
423.888 47.746 L
427.778 46.721 L
431.667 45.742 L
435.557 44.808 L
439.446 43.92 L
443.336 43.081 L
447.226 42.289 L
451.115 41.547 L
455.005 40.855 L
458.894 40.215 L
462.784 39.626 L
466.673 39.089 L
470.563 38.607 L
474.453 38.179 L
478.342 37.805 L
482.232 37.489 L
486.121 37.229 L
S
GR
GS
1 GC
N
499 366 M
499 250.5 L
344.5 250.5 L
344.5 366 L
cp
f
GR
GS
[1 0 0 1 381.5 260.25] CT
/Helvetica 13 F
GS
[1 0 0 1 0 0] CT
0 5 moveto 
1 -1 scale
(Base Run) t 
GR
GR
GS
0 0.447 0.741 RC
1 LJ
0.5 LW
N
348.5 260.25 M
378.5 260.25 L
S
GR
GS
[1 0 0 1 381.5 276.25] CT
/Helvetica 13 F
GS
[1 0 0 1 0 0] CT
0 5 moveto 
1 -1 scale
(I & B Frames) t 
GR
GR
GS
0.851 0.325 0.098 RC
1 LJ
0.5 LW
N
348.5 276.25 M
378.5 276.25 L
S
GR
GS
[1 0 0 1 381.5 292.25] CT
/Helvetica 13 F
GS
[1 0 0 1 0 0] CT
0 5 moveto 
1 -1 scale
(I Frames Only) t 
GR
GR
GS
0.929 0.694 0.125 RC
1 LJ
0.5 LW
N
348.5 292.25 M
378.5 292.25 L
S
GR
GS
[1 0 0 1 381.5 308.25] CT
/Helvetica 13 F
GS
[1 0 0 1 0 0] CT
0 5 moveto 
1 -1 scale
(B Frames Only) t 
GR
GR
GS
0.494 0.184 0.557 RC
1 LJ
0.5 LW
N
348.5 308.25 M
378.5 308.25 L
S
GR
GS
[1 0 0 1 381.5 324.25] CT
/Helvetica 13 F
GS
[1 0 0 1 0 0] CT
0 5 moveto 
1 -1 scale
(Part I & B Frames) t 
GR
GR
GS
0.467 0.675 0.188 RC
[10 6] 0 setdash
2 LJ
0.5 LW
N
348.5 324.25 M
378.5 324.25 L
S
GR
GS
[1 0 0 1 381.5 340.25] CT
/Helvetica 13 F
GS
[1 0 0 1 0 0] CT
0 5 moveto 
1 -1 scale
(Part I Frames Only) t 
GR
GR
GS
0.302 0.745 0.933 RC
[10 6] 0 setdash
2 LJ
0.5 LW
N
348.5 340.25 M
378.5 340.25 L
S
GR
GS
[1 0 0 1 381.5 356.25] CT
/Helvetica 13 F
GS
[1 0 0 1 0 0] CT
0 5 moveto 
1 -1 scale
(Part B Frames Only) t 
GR
GR
GS
0.635 0.078 0.184 RC
[10 6] 0 setdash
2 LJ
0.5 LW
N
348.5 356.25 M
378.5 356.25 L
S
GR
GS
0.149 GC
10.0 ML
0.5 LW
N
344.5 366 M
344.5 250.5 L
499 250.5 L
499 366 L
cp
S
GR
%%Trailer
%%Pages: 1
%%EOF
