%!PS-Adobe-3.0 EPSF-3.0
%%Creator: (MATLAB, The Mathworks, Inc. Version 9.11.0.1837725 \(R2021b\) Update 2. Operating System: Mac OS X)
%%Title: plots/pchip/Skater227_1920x1080_30fps.y4m-hevc-PSNRY.eps
%%CreationDate: 2022-02-03T19:14:39
%%Pages: (atend)
%%BoundingBox:    33   425   508   826
%%LanguageLevel: 3
%%EndComments
%%BeginProlog
%%BeginResource: procset (Apache XML Graphics Std ProcSet) 1.2 0
%%Version: 1.2 0
%%Copyright: (Copyright 2001-2003,2010 The Apache Software Foundation. License terms: http://www.apache.org/licenses/LICENSE-2.0)
/bd{bind def}bind def
/ld{load def}bd
/GR/grestore ld
/GS/gsave ld
/RM/rmoveto ld
/C/curveto ld
/t/show ld
/L/lineto ld
/ML/setmiterlimit ld
/CT/concat ld
/f/fill ld
/N/newpath ld
/S/stroke ld
/CC/setcmykcolor ld
/A/ashow ld
/cp/closepath ld
/RC/setrgbcolor ld
/LJ/setlinejoin ld
/GC/setgray ld
/LW/setlinewidth ld
/M/moveto ld
/re {4 2 roll M
1 index 0 rlineto
0 exch rlineto
neg 0 rlineto
cp } bd
/_ctm matrix def
/_tm matrix def
/BT { _ctm currentmatrix pop matrix _tm copy pop 0 0 moveto } bd
/ET { _ctm setmatrix } bd
/iTm { _ctm setmatrix _tm concat } bd
/Tm { _tm astore pop iTm 0 0 moveto } bd
/ux 0.0 def
/uy 0.0 def
/F {
  /Tp exch def
  /Tf exch def
  Tf findfont Tp scalefont setfont
  /cf Tf def  /cs Tp def
} bd
/ULS {currentpoint /uy exch def /ux exch def} bd
/ULE {
  /Tcx currentpoint pop def
  gsave
  newpath
  cf findfont cs scalefont dup
  /FontMatrix get 0 get /Ts exch def /FontInfo get dup
  /UnderlinePosition get Ts mul /To exch def
  /UnderlineThickness get Ts mul /Tt exch def
  ux uy To add moveto  Tcx uy To add lineto
  Tt setlinewidth stroke
  grestore
} bd
/OLE {
  /Tcx currentpoint pop def
  gsave
  newpath
  cf findfont cs scalefont dup
  /FontMatrix get 0 get /Ts exch def /FontInfo get dup
  /UnderlinePosition get Ts mul /To exch def
  /UnderlineThickness get Ts mul /Tt exch def
  ux uy To add cs add moveto Tcx uy To add cs add lineto
  Tt setlinewidth stroke
  grestore
} bd
/SOE {
  /Tcx currentpoint pop def
  gsave
  newpath
  cf findfont cs scalefont dup
  /FontMatrix get 0 get /Ts exch def /FontInfo get dup
  /UnderlinePosition get Ts mul /To exch def
  /UnderlineThickness get Ts mul /Tt exch def
  ux uy To add cs 10 mul 26 idiv add moveto Tcx uy To add cs 10 mul 26 idiv add lineto
  Tt setlinewidth stroke
  grestore
} bd
/QT {
/Y22 exch store
/X22 exch store
/Y21 exch store
/X21 exch store
currentpoint
/Y21 load 2 mul add 3 div exch
/X21 load 2 mul add 3 div exch
/X21 load 2 mul /X22 load add 3 div
/Y21 load 2 mul /Y22 load add 3 div
/X22 load /Y22 load curveto
} bd
/SSPD {
dup length /d exch dict def
{
/v exch def
/k exch def
currentpagedevice k known {
/cpdv currentpagedevice k get def
v cpdv ne {
/upd false def
/nullv v type /nulltype eq def
/nullcpdv cpdv type /nulltype eq def
nullv nullcpdv or
{
/upd true def
} {
/sametype v type cpdv type eq def
sametype {
v type /arraytype eq {
/vlen v length def
/cpdvlen cpdv length def
vlen cpdvlen eq {
0 1 vlen 1 sub {
/i exch def
/obj v i get def
/cpdobj cpdv i get def
obj cpdobj ne {
/upd true def
exit
} if
} for
} {
/upd true def
} ifelse
} {
v type /dicttype eq {
v {
/dv exch def
/dk exch def
/cpddv cpdv dk get def
dv cpddv ne {
/upd true def
exit
} if
} forall
} {
/upd true def
} ifelse
} ifelse
} if
} ifelse
upd true eq {
d k v put
} if
} if
} if
} forall
d length 0 gt {
d setpagedevice
} if
} bd
/RE { % /NewFontName [NewEncodingArray] /FontName RE -
  findfont dup length dict begin
  {
    1 index /FID ne
    {def} {pop pop} ifelse
  } forall
  /Encoding exch def
  /FontName 1 index def
  currentdict definefont pop
  end
} bind def
%%EndResource
%%BeginResource: procset (Apache XML Graphics EPS ProcSet) 1.0 0
%%Version: 1.0 0
%%Copyright: (Copyright 2002-2003 The Apache Software Foundation. License terms: http://www.apache.org/licenses/LICENSE-2.0)
/BeginEPSF { %def
/b4_Inc_state save def         % Save state for cleanup
/dict_count countdictstack def % Count objects on dict stack
/op_count count 1 sub def      % Count objects on operand stack
userdict begin                 % Push userdict on dict stack
/showpage { } def              % Redefine showpage, { } = null proc
0 setgray 0 setlinecap         % Prepare graphics state
1 setlinewidth 0 setlinejoin
10 setmiterlimit [ ] 0 setdash newpath
/languagelevel where           % If level not equal to 1 then
{pop languagelevel             % set strokeadjust and
1 ne                           % overprint to their defaults.
{false setstrokeadjust false setoverprint
} if
} if
} bd
/EndEPSF { %def
count op_count sub {pop} repeat            % Clean up stacks
countdictstack dict_count sub {end} repeat
b4_Inc_state restore
} bd
%%EndResource
%FOPBeginFontDict
%%IncludeResource: font Courier-Oblique
%%IncludeResource: font Courier-BoldOblique
%%IncludeResource: font Courier-Bold
%%IncludeResource: font ZapfDingbats
%%IncludeResource: font Symbol
%%IncludeResource: font Helvetica
%%IncludeResource: font Helvetica-Oblique
%%IncludeResource: font Helvetica-Bold
%%IncludeResource: font Helvetica-BoldOblique
%%IncludeResource: font Times-Roman
%%IncludeResource: font Times-Italic
%%IncludeResource: font Times-Bold
%%IncludeResource: font Times-BoldItalic
%%IncludeResource: font Courier
%FOPEndFontDict
%%BeginResource: encoding WinAnsiEncoding
/WinAnsiEncoding [
/.notdef /.notdef /.notdef /.notdef /.notdef
/.notdef /.notdef /.notdef /.notdef /.notdef
/.notdef /.notdef /.notdef /.notdef /.notdef
/.notdef /.notdef /.notdef /.notdef /.notdef
/.notdef /.notdef /.notdef /.notdef /.notdef
/.notdef /.notdef /.notdef /.notdef /.notdef
/.notdef /.notdef /space /exclam /quotedbl
/numbersign /dollar /percent /ampersand /quotesingle
/parenleft /parenright /asterisk /plus /comma
/hyphen /period /slash /zero /one
/two /three /four /five /six
/seven /eight /nine /colon /semicolon
/less /equal /greater /question /at
/A /B /C /D /E
/F /G /H /I /J
/K /L /M /N /O
/P /Q /R /S /T
/U /V /W /X /Y
/Z /bracketleft /backslash /bracketright /asciicircum
/underscore /quoteleft /a /b /c
/d /e /f /g /h
/i /j /k /l /m
/n /o /p /q /r
/s /t /u /v /w
/x /y /z /braceleft /bar
/braceright /asciitilde /bullet /Euro /bullet
/quotesinglbase /florin /quotedblbase /ellipsis /dagger
/daggerdbl /circumflex /perthousand /Scaron /guilsinglleft
/OE /bullet /Zcaron /bullet /bullet
/quoteleft /quoteright /quotedblleft /quotedblright /bullet
/endash /emdash /asciitilde /trademark /scaron
/guilsinglright /oe /bullet /zcaron /Ydieresis
/space /exclamdown /cent /sterling /currency
/yen /brokenbar /section /dieresis /copyright
/ordfeminine /guillemotleft /logicalnot /sfthyphen /registered
/macron /degree /plusminus /twosuperior /threesuperior
/acute /mu /paragraph /middot /cedilla
/onesuperior /ordmasculine /guillemotright /onequarter /onehalf
/threequarters /questiondown /Agrave /Aacute /Acircumflex
/Atilde /Adieresis /Aring /AE /Ccedilla
/Egrave /Eacute /Ecircumflex /Edieresis /Igrave
/Iacute /Icircumflex /Idieresis /Eth /Ntilde
/Ograve /Oacute /Ocircumflex /Otilde /Odieresis
/multiply /Oslash /Ugrave /Uacute /Ucircumflex
/Udieresis /Yacute /Thorn /germandbls /agrave
/aacute /acircumflex /atilde /adieresis /aring
/ae /ccedilla /egrave /eacute /ecircumflex
/edieresis /igrave /iacute /icircumflex /idieresis
/eth /ntilde /ograve /oacute /ocircumflex
/otilde /odieresis /divide /oslash /ugrave
/uacute /ucircumflex /udieresis /yacute /thorn
/ydieresis
] def
%%EndResource
%FOPBeginFontReencode
/Courier-Oblique findfont
dup length dict begin
  {1 index /FID ne {def} {pop pop} ifelse} forall
  /Encoding WinAnsiEncoding def
  currentdict
end
/Courier-Oblique exch definefont pop
/Courier-BoldOblique findfont
dup length dict begin
  {1 index /FID ne {def} {pop pop} ifelse} forall
  /Encoding WinAnsiEncoding def
  currentdict
end
/Courier-BoldOblique exch definefont pop
/Courier-Bold findfont
dup length dict begin
  {1 index /FID ne {def} {pop pop} ifelse} forall
  /Encoding WinAnsiEncoding def
  currentdict
end
/Courier-Bold exch definefont pop
/Helvetica findfont
dup length dict begin
  {1 index /FID ne {def} {pop pop} ifelse} forall
  /Encoding WinAnsiEncoding def
  currentdict
end
/Helvetica exch definefont pop
/Helvetica-Oblique findfont
dup length dict begin
  {1 index /FID ne {def} {pop pop} ifelse} forall
  /Encoding WinAnsiEncoding def
  currentdict
end
/Helvetica-Oblique exch definefont pop
/Helvetica-Bold findfont
dup length dict begin
  {1 index /FID ne {def} {pop pop} ifelse} forall
  /Encoding WinAnsiEncoding def
  currentdict
end
/Helvetica-Bold exch definefont pop
/Helvetica-BoldOblique findfont
dup length dict begin
  {1 index /FID ne {def} {pop pop} ifelse} forall
  /Encoding WinAnsiEncoding def
  currentdict
end
/Helvetica-BoldOblique exch definefont pop
/Times-Roman findfont
dup length dict begin
  {1 index /FID ne {def} {pop pop} ifelse} forall
  /Encoding WinAnsiEncoding def
  currentdict
end
/Times-Roman exch definefont pop
/Times-Italic findfont
dup length dict begin
  {1 index /FID ne {def} {pop pop} ifelse} forall
  /Encoding WinAnsiEncoding def
  currentdict
end
/Times-Italic exch definefont pop
/Times-Bold findfont
dup length dict begin
  {1 index /FID ne {def} {pop pop} ifelse} forall
  /Encoding WinAnsiEncoding def
  currentdict
end
/Times-Bold exch definefont pop
/Times-BoldItalic findfont
dup length dict begin
  {1 index /FID ne {def} {pop pop} ifelse} forall
  /Encoding WinAnsiEncoding def
  currentdict
end
/Times-BoldItalic exch definefont pop
/Courier findfont
dup length dict begin
  {1 index /FID ne {def} {pop pop} ifelse} forall
  /Encoding WinAnsiEncoding def
  currentdict
end
/Courier exch definefont pop
%FOPEndFontReencode
%%EndProlog
%%Page: 1 1
%%PageBoundingBox: 0 0 1120 840
%%BeginPageSetup
[1 0 0 -1 0 840] CT
%%EndPageSetup
GS
1 GC
N
0 0 1120 840 re
f
GR
GS
1 GC
N
73 374 M
507 374 L
507 31.5 L
73 31.5 L
cp
f
GR
GS
0.149 GC
2 setlinecap
1 LJ
0.5 LW
N
73 374 M
507 374 L
S
GR
GS
0.149 GC
2 setlinecap
1 LJ
0.5 LW
N
73 31.5 M
507 31.5 L
S
GR
GS
0.149 GC
2 setlinecap
1 LJ
0.5 LW
N
142.165 374 M
142.165 369.66 L
S
GR
GS
0.149 GC
2 setlinecap
1 LJ
0.5 LW
N
239.404 374 M
239.404 369.66 L
S
GR
GS
0.149 GC
2 setlinecap
1 LJ
0.5 LW
N
336.644 374 M
336.644 369.66 L
S
GR
GS
0.149 GC
2 setlinecap
1 LJ
0.5 LW
N
433.883 374 M
433.883 369.66 L
S
GR
GS
0.149 GC
2 setlinecap
1 LJ
0.5 LW
N
142.165 31.5 M
142.165 35.84 L
S
GR
GS
0.149 GC
2 setlinecap
1 LJ
0.5 LW
N
239.404 31.5 M
239.404 35.84 L
S
GR
GS
0.149 GC
2 setlinecap
1 LJ
0.5 LW
N
336.644 31.5 M
336.644 35.84 L
S
GR
GS
0.149 GC
2 setlinecap
1 LJ
0.5 LW
N
433.883 31.5 M
433.883 35.84 L
S
GR
GS
0.149 GC
2 setlinecap
1 LJ
0.5 LW
N
83.821 374 M
83.821 371.83 L
S
GR
GS
0.149 GC
2 setlinecap
1 LJ
0.5 LW
N
103.269 374 M
103.269 371.83 L
S
GR
GS
0.149 GC
2 setlinecap
1 LJ
0.5 LW
N
122.717 374 M
122.717 371.83 L
S
GR
GS
0.149 GC
2 setlinecap
1 LJ
0.5 LW
N
161.613 374 M
161.613 371.83 L
S
GR
GS
0.149 GC
2 setlinecap
1 LJ
0.5 LW
N
181.061 374 M
181.061 371.83 L
S
GR
GS
0.149 GC
2 setlinecap
1 LJ
0.5 LW
N
200.508 374 M
200.508 371.83 L
S
GR
GS
0.149 GC
2 setlinecap
1 LJ
0.5 LW
N
219.956 374 M
219.956 371.83 L
S
GR
GS
0.149 GC
2 setlinecap
1 LJ
0.5 LW
N
258.852 374 M
258.852 371.83 L
S
GR
GS
0.149 GC
2 setlinecap
1 LJ
0.5 LW
N
278.3 374 M
278.3 371.83 L
S
GR
GS
0.149 GC
2 setlinecap
1 LJ
0.5 LW
N
297.748 374 M
297.748 371.83 L
S
GR
GS
0.149 GC
2 setlinecap
1 LJ
0.5 LW
N
317.196 374 M
317.196 371.83 L
S
GR
GS
0.149 GC
2 setlinecap
1 LJ
0.5 LW
N
356.092 374 M
356.092 371.83 L
S
GR
GS
0.149 GC
2 setlinecap
1 LJ
0.5 LW
N
375.539 374 M
375.539 371.83 L
S
GR
GS
0.149 GC
2 setlinecap
1 LJ
0.5 LW
N
394.987 374 M
394.987 371.83 L
S
GR
GS
0.149 GC
2 setlinecap
1 LJ
0.5 LW
N
414.435 374 M
414.435 371.83 L
S
GR
GS
0.149 GC
2 setlinecap
1 LJ
0.5 LW
N
453.331 374 M
453.331 371.83 L
S
GR
GS
0.149 GC
2 setlinecap
1 LJ
0.5 LW
N
472.779 374 M
472.779 371.83 L
S
GR
GS
0.149 GC
2 setlinecap
1 LJ
0.5 LW
N
492.227 374 M
492.227 371.83 L
S
GR
GS
0.149 GC
2 setlinecap
1 LJ
0.5 LW
N
83.821 31.5 M
83.821 33.67 L
S
GR
GS
0.149 GC
2 setlinecap
1 LJ
0.5 LW
N
103.269 31.5 M
103.269 33.67 L
S
GR
GS
0.149 GC
2 setlinecap
1 LJ
0.5 LW
N
122.717 31.5 M
122.717 33.67 L
S
GR
GS
0.149 GC
2 setlinecap
1 LJ
0.5 LW
N
161.613 31.5 M
161.613 33.67 L
S
GR
GS
0.149 GC
2 setlinecap
1 LJ
0.5 LW
N
181.061 31.5 M
181.061 33.67 L
S
GR
GS
0.149 GC
2 setlinecap
1 LJ
0.5 LW
N
200.508 31.5 M
200.508 33.67 L
S
GR
GS
0.149 GC
2 setlinecap
1 LJ
0.5 LW
N
219.956 31.5 M
219.956 33.67 L
S
GR
GS
0.149 GC
2 setlinecap
1 LJ
0.5 LW
N
258.852 31.5 M
258.852 33.67 L
S
GR
GS
0.149 GC
2 setlinecap
1 LJ
0.5 LW
N
278.3 31.5 M
278.3 33.67 L
S
GR
GS
0.149 GC
2 setlinecap
1 LJ
0.5 LW
N
297.748 31.5 M
297.748 33.67 L
S
GR
GS
0.149 GC
2 setlinecap
1 LJ
0.5 LW
N
317.196 31.5 M
317.196 33.67 L
S
GR
GS
0.149 GC
2 setlinecap
1 LJ
0.5 LW
N
356.092 31.5 M
356.092 33.67 L
S
GR
GS
0.149 GC
2 setlinecap
1 LJ
0.5 LW
N
375.539 31.5 M
375.539 33.67 L
S
GR
GS
0.149 GC
2 setlinecap
1 LJ
0.5 LW
N
394.987 31.5 M
394.987 33.67 L
S
GR
GS
0.149 GC
2 setlinecap
1 LJ
0.5 LW
N
414.435 31.5 M
414.435 33.67 L
S
GR
GS
0.149 GC
2 setlinecap
1 LJ
0.5 LW
N
453.331 31.5 M
453.331 33.67 L
S
GR
GS
0.149 GC
2 setlinecap
1 LJ
0.5 LW
N
472.779 31.5 M
472.779 33.67 L
S
GR
GS
0.149 GC
2 setlinecap
1 LJ
0.5 LW
N
492.227 31.5 M
492.227 33.67 L
S
GR
GS
[1 0 0 1 142.16483 378.7999] CT
0.149 GC
/Helvetica 14 F
GS
[1 0 0 1 0 0] CT
-12 14 moveto 
1 -1 scale
(500) t 
GR
GR
GS
[1 0 0 1 239.40425 378.7999] CT
0.149 GC
/Helvetica 14 F
GS
[1 0 0 1 0 0] CT
-16 14 moveto 
1 -1 scale
(1000) t 
GR
GR
GS
[1 0 0 1 336.64371 378.7999] CT
0.149 GC
/Helvetica 14 F
GS
[1 0 0 1 0 0] CT
-16 14 moveto 
1 -1 scale
(1500) t 
GR
GR
GS
[1 0 0 1 433.88312 378.7999] CT
0.149 GC
/Helvetica 14 F
GS
[1 0 0 1 0 0] CT
-16 14 moveto 
1 -1 scale
(2000) t 
GR
GR
GS
[1 0 0 1 290.00021 396.29993] CT
0.149 GC
/Helvetica 15.4 F
GS
[1 0 0 1 0 0] CT
-42 15 moveto 
1 -1 scale
(Bitrate\(kb/s\)) t 
GR
GR
GS
0.149 GC
2 setlinecap
1 LJ
0.5 LW
N
73 374 M
73 31.5 L
S
GR
GS
0.149 GC
2 setlinecap
1 LJ
0.5 LW
N
507 374 M
507 31.5 L
S
GR
GS
0.149 GC
2 setlinecap
1 LJ
0.5 LW
N
73 347.052 M
77.34 347.052 L
S
GR
GS
0.149 GC
2 setlinecap
1 LJ
0.5 LW
N
73 314.473 M
77.34 314.473 L
S
GR
GS
0.149 GC
2 setlinecap
1 LJ
0.5 LW
N
73 281.894 M
77.34 281.894 L
S
GR
GS
0.149 GC
2 setlinecap
1 LJ
0.5 LW
N
73 249.314 M
77.34 249.314 L
S
GR
GS
0.149 GC
2 setlinecap
1 LJ
0.5 LW
N
73 216.735 M
77.34 216.735 L
S
GR
GS
0.149 GC
2 setlinecap
1 LJ
0.5 LW
N
73 184.156 M
77.34 184.156 L
S
GR
GS
0.149 GC
2 setlinecap
1 LJ
0.5 LW
N
73 151.576 M
77.34 151.576 L
S
GR
GS
0.149 GC
2 setlinecap
1 LJ
0.5 LW
N
73 118.997 M
77.34 118.997 L
S
GR
GS
0.149 GC
2 setlinecap
1 LJ
0.5 LW
N
73 86.418 M
77.34 86.418 L
S
GR
GS
0.149 GC
2 setlinecap
1 LJ
0.5 LW
N
73 53.838 M
77.34 53.838 L
S
GR
GS
0.149 GC
2 setlinecap
1 LJ
0.5 LW
N
507 347.052 M
502.66 347.052 L
S
GR
GS
0.149 GC
2 setlinecap
1 LJ
0.5 LW
N
507 314.473 M
502.66 314.473 L
S
GR
GS
0.149 GC
2 setlinecap
1 LJ
0.5 LW
N
507 281.894 M
502.66 281.894 L
S
GR
GS
0.149 GC
2 setlinecap
1 LJ
0.5 LW
N
507 249.314 M
502.66 249.314 L
S
GR
GS
0.149 GC
2 setlinecap
1 LJ
0.5 LW
N
507 216.735 M
502.66 216.735 L
S
GR
GS
0.149 GC
2 setlinecap
1 LJ
0.5 LW
N
507 184.156 M
502.66 184.156 L
S
GR
GS
0.149 GC
2 setlinecap
1 LJ
0.5 LW
N
507 151.576 M
502.66 151.576 L
S
GR
GS
0.149 GC
2 setlinecap
1 LJ
0.5 LW
N
507 118.997 M
502.66 118.997 L
S
GR
GS
0.149 GC
2 setlinecap
1 LJ
0.5 LW
N
507 86.418 M
502.66 86.418 L
S
GR
GS
0.149 GC
2 setlinecap
1 LJ
0.5 LW
N
507 53.838 M
502.66 53.838 L
S
GR
GS
0.149 GC
2 setlinecap
1 LJ
0.5 LW
N
73 373.116 M
75.17 373.116 L
S
GR
GS
0.149 GC
2 setlinecap
1 LJ
0.5 LW
N
73 366.6 M
75.17 366.6 L
S
GR
GS
0.149 GC
2 setlinecap
1 LJ
0.5 LW
N
73 360.084 M
75.17 360.084 L
S
GR
GS
0.149 GC
2 setlinecap
1 LJ
0.5 LW
N
73 353.568 M
75.17 353.568 L
S
GR
GS
0.149 GC
2 setlinecap
1 LJ
0.5 LW
N
73 340.536 M
75.17 340.536 L
S
GR
GS
0.149 GC
2 setlinecap
1 LJ
0.5 LW
N
73 334.02 M
75.17 334.02 L
S
GR
GS
0.149 GC
2 setlinecap
1 LJ
0.5 LW
N
73 327.505 M
75.17 327.505 L
S
GR
GS
0.149 GC
2 setlinecap
1 LJ
0.5 LW
N
73 320.989 M
75.17 320.989 L
S
GR
GS
0.149 GC
2 setlinecap
1 LJ
0.5 LW
N
73 307.957 M
75.17 307.957 L
S
GR
GS
0.149 GC
2 setlinecap
1 LJ
0.5 LW
N
73 301.441 M
75.17 301.441 L
S
GR
GS
0.149 GC
2 setlinecap
1 LJ
0.5 LW
N
73 294.925 M
75.17 294.925 L
S
GR
GS
0.149 GC
2 setlinecap
1 LJ
0.5 LW
N
73 288.409 M
75.17 288.409 L
S
GR
GS
0.149 GC
2 setlinecap
1 LJ
0.5 LW
N
73 275.378 M
75.17 275.378 L
S
GR
GS
0.149 GC
2 setlinecap
1 LJ
0.5 LW
N
73 268.862 M
75.17 268.862 L
S
GR
GS
0.149 GC
2 setlinecap
1 LJ
0.5 LW
N
73 262.346 M
75.17 262.346 L
S
GR
GS
0.149 GC
2 setlinecap
1 LJ
0.5 LW
N
73 255.83 M
75.17 255.83 L
S
GR
GS
0.149 GC
2 setlinecap
1 LJ
0.5 LW
N
73 242.798 M
75.17 242.798 L
S
GR
GS
0.149 GC
2 setlinecap
1 LJ
0.5 LW
N
73 236.282 M
75.17 236.282 L
S
GR
GS
0.149 GC
2 setlinecap
1 LJ
0.5 LW
N
73 229.767 M
75.17 229.767 L
S
GR
GS
0.149 GC
2 setlinecap
1 LJ
0.5 LW
N
73 223.251 M
75.17 223.251 L
S
GR
GS
0.149 GC
2 setlinecap
1 LJ
0.5 LW
N
73 210.219 M
75.17 210.219 L
S
GR
GS
0.149 GC
2 setlinecap
1 LJ
0.5 LW
N
73 203.703 M
75.17 203.703 L
S
GR
GS
0.149 GC
2 setlinecap
1 LJ
0.5 LW
N
73 197.187 M
75.17 197.187 L
S
GR
GS
0.149 GC
2 setlinecap
1 LJ
0.5 LW
N
73 190.671 M
75.17 190.671 L
S
GR
GS
0.149 GC
2 setlinecap
1 LJ
0.5 LW
N
73 177.64 M
75.17 177.64 L
S
GR
GS
0.149 GC
2 setlinecap
1 LJ
0.5 LW
N
73 171.124 M
75.17 171.124 L
S
GR
GS
0.149 GC
2 setlinecap
1 LJ
0.5 LW
N
73 164.608 M
75.17 164.608 L
S
GR
GS
0.149 GC
2 setlinecap
1 LJ
0.5 LW
N
73 158.092 M
75.17 158.092 L
S
GR
GS
0.149 GC
2 setlinecap
1 LJ
0.5 LW
N
73 145.06 M
75.17 145.06 L
S
GR
GS
0.149 GC
2 setlinecap
1 LJ
0.5 LW
N
73 138.545 M
75.17 138.545 L
S
GR
GS
0.149 GC
2 setlinecap
1 LJ
0.5 LW
N
73 132.029 M
75.17 132.029 L
S
GR
GS
0.149 GC
2 setlinecap
1 LJ
0.5 LW
N
73 125.513 M
75.17 125.513 L
S
GR
GS
0.149 GC
2 setlinecap
1 LJ
0.5 LW
N
73 112.481 M
75.17 112.481 L
S
GR
GS
0.149 GC
2 setlinecap
1 LJ
0.5 LW
N
73 105.965 M
75.17 105.965 L
S
GR
GS
0.149 GC
2 setlinecap
1 LJ
0.5 LW
N
73 99.449 M
75.17 99.449 L
S
GR
GS
0.149 GC
2 setlinecap
1 LJ
0.5 LW
N
73 92.934 M
75.17 92.934 L
S
GR
GS
0.149 GC
2 setlinecap
1 LJ
0.5 LW
N
73 79.902 M
75.17 79.902 L
S
GR
GS
0.149 GC
2 setlinecap
1 LJ
0.5 LW
N
73 73.386 M
75.17 73.386 L
S
GR
GS
0.149 GC
2 setlinecap
1 LJ
0.5 LW
N
73 66.87 M
75.17 66.87 L
S
GR
GS
0.149 GC
2 setlinecap
1 LJ
0.5 LW
N
73 60.354 M
75.17 60.354 L
S
GR
GS
0.149 GC
2 setlinecap
1 LJ
0.5 LW
N
73 47.322 M
75.17 47.322 L
S
GR
GS
0.149 GC
2 setlinecap
1 LJ
0.5 LW
N
73 40.807 M
75.17 40.807 L
S
GR
GS
0.149 GC
2 setlinecap
1 LJ
0.5 LW
N
73 34.291 M
75.17 34.291 L
S
GR
GS
0.149 GC
2 setlinecap
1 LJ
0.5 LW
N
507 373.116 M
504.83 373.116 L
S
GR
GS
0.149 GC
2 setlinecap
1 LJ
0.5 LW
N
507 366.6 M
504.83 366.6 L
S
GR
GS
0.149 GC
2 setlinecap
1 LJ
0.5 LW
N
507 360.084 M
504.83 360.084 L
S
GR
GS
0.149 GC
2 setlinecap
1 LJ
0.5 LW
N
507 353.568 M
504.83 353.568 L
S
GR
GS
0.149 GC
2 setlinecap
1 LJ
0.5 LW
N
507 340.536 M
504.83 340.536 L
S
GR
GS
0.149 GC
2 setlinecap
1 LJ
0.5 LW
N
507 334.02 M
504.83 334.02 L
S
GR
GS
0.149 GC
2 setlinecap
1 LJ
0.5 LW
N
507 327.505 M
504.83 327.505 L
S
GR
GS
0.149 GC
2 setlinecap
1 LJ
0.5 LW
N
507 320.989 M
504.83 320.989 L
S
GR
GS
0.149 GC
2 setlinecap
1 LJ
0.5 LW
N
507 307.957 M
504.83 307.957 L
S
GR
GS
0.149 GC
2 setlinecap
1 LJ
0.5 LW
N
507 301.441 M
504.83 301.441 L
S
GR
GS
0.149 GC
2 setlinecap
1 LJ
0.5 LW
N
507 294.925 M
504.83 294.925 L
S
GR
GS
0.149 GC
2 setlinecap
1 LJ
0.5 LW
N
507 288.409 M
504.83 288.409 L
S
GR
GS
0.149 GC
2 setlinecap
1 LJ
0.5 LW
N
507 275.378 M
504.83 275.378 L
S
GR
GS
0.149 GC
2 setlinecap
1 LJ
0.5 LW
N
507 268.862 M
504.83 268.862 L
S
GR
GS
0.149 GC
2 setlinecap
1 LJ
0.5 LW
N
507 262.346 M
504.83 262.346 L
S
GR
GS
0.149 GC
2 setlinecap
1 LJ
0.5 LW
N
507 255.83 M
504.83 255.83 L
S
GR
GS
0.149 GC
2 setlinecap
1 LJ
0.5 LW
N
507 242.798 M
504.83 242.798 L
S
GR
GS
0.149 GC
2 setlinecap
1 LJ
0.5 LW
N
507 236.282 M
504.83 236.282 L
S
GR
GS
0.149 GC
2 setlinecap
1 LJ
0.5 LW
N
507 229.767 M
504.83 229.767 L
S
GR
GS
0.149 GC
2 setlinecap
1 LJ
0.5 LW
N
507 223.251 M
504.83 223.251 L
S
GR
GS
0.149 GC
2 setlinecap
1 LJ
0.5 LW
N
507 210.219 M
504.83 210.219 L
S
GR
GS
0.149 GC
2 setlinecap
1 LJ
0.5 LW
N
507 203.703 M
504.83 203.703 L
S
GR
GS
0.149 GC
2 setlinecap
1 LJ
0.5 LW
N
507 197.187 M
504.83 197.187 L
S
GR
GS
0.149 GC
2 setlinecap
1 LJ
0.5 LW
N
507 190.671 M
504.83 190.671 L
S
GR
GS
0.149 GC
2 setlinecap
1 LJ
0.5 LW
N
507 177.64 M
504.83 177.64 L
S
GR
GS
0.149 GC
2 setlinecap
1 LJ
0.5 LW
N
507 171.124 M
504.83 171.124 L
S
GR
GS
0.149 GC
2 setlinecap
1 LJ
0.5 LW
N
507 164.608 M
504.83 164.608 L
S
GR
GS
0.149 GC
2 setlinecap
1 LJ
0.5 LW
N
507 158.092 M
504.83 158.092 L
S
GR
GS
0.149 GC
2 setlinecap
1 LJ
0.5 LW
N
507 145.06 M
504.83 145.06 L
S
GR
GS
0.149 GC
2 setlinecap
1 LJ
0.5 LW
N
507 138.545 M
504.83 138.545 L
S
GR
GS
0.149 GC
2 setlinecap
1 LJ
0.5 LW
N
507 132.029 M
504.83 132.029 L
S
GR
GS
0.149 GC
2 setlinecap
1 LJ
0.5 LW
N
507 125.513 M
504.83 125.513 L
S
GR
GS
0.149 GC
2 setlinecap
1 LJ
0.5 LW
N
507 112.481 M
504.83 112.481 L
S
GR
GS
0.149 GC
2 setlinecap
1 LJ
0.5 LW
N
507 105.965 M
504.83 105.965 L
S
GR
GS
0.149 GC
2 setlinecap
1 LJ
0.5 LW
N
507 99.449 M
504.83 99.449 L
S
GR
GS
0.149 GC
2 setlinecap
1 LJ
0.5 LW
N
507 92.934 M
504.83 92.934 L
S
GR
GS
0.149 GC
2 setlinecap
1 LJ
0.5 LW
N
507 79.902 M
504.83 79.902 L
S
GR
GS
0.149 GC
2 setlinecap
1 LJ
0.5 LW
N
507 73.386 M
504.83 73.386 L
S
GR
GS
0.149 GC
2 setlinecap
1 LJ
0.5 LW
N
507 66.87 M
504.83 66.87 L
S
GR
GS
0.149 GC
2 setlinecap
1 LJ
0.5 LW
N
507 60.354 M
504.83 60.354 L
S
GR
GS
0.149 GC
2 setlinecap
1 LJ
0.5 LW
N
507 47.322 M
504.83 47.322 L
S
GR
GS
0.149 GC
2 setlinecap
1 LJ
0.5 LW
N
507 40.807 M
504.83 40.807 L
S
GR
GS
0.149 GC
2 setlinecap
1 LJ
0.5 LW
N
507 34.291 M
504.83 34.291 L
S
GR
GS
[1 0 0 1 68.2 347.05215] CT
0.149 GC
/Helvetica 14 F
GS
[1 0 0 1 0 0] CT
-16 5.5 moveto 
1 -1 scale
(38) t 
GR
GR
GS
[1 0 0 1 68.2 314.47284] CT
0.149 GC
/Helvetica 14 F
GS
[1 0 0 1 0 0] CT
-16 5.5 moveto 
1 -1 scale
(39) t 
GR
GR
GS
[1 0 0 1 68.2 281.89352] CT
0.149 GC
/Helvetica 14 F
GS
[1 0 0 1 0 0] CT
-16 5.5 moveto 
1 -1 scale
(40) t 
GR
GR
GS
[1 0 0 1 68.2 249.31422] CT
0.149 GC
/Helvetica 14 F
GS
[1 0 0 1 0 0] CT
-16 5.5 moveto 
1 -1 scale
(41) t 
GR
GR
GS
[1 0 0 1 68.2 216.73491] CT
0.149 GC
/Helvetica 14 F
GS
[1 0 0 1 0 0] CT
-16 5.5 moveto 
1 -1 scale
(42) t 
GR
GR
GS
[1 0 0 1 68.2 184.15559] CT
0.149 GC
/Helvetica 14 F
GS
[1 0 0 1 0 0] CT
-16 5.5 moveto 
1 -1 scale
(43) t 
GR
GR
GS
[1 0 0 1 68.2 151.57628] CT
0.149 GC
/Helvetica 14 F
GS
[1 0 0 1 0 0] CT
-16 5.5 moveto 
1 -1 scale
(44) t 
GR
GR
GS
[1 0 0 1 68.2 118.99697] CT
0.149 GC
/Helvetica 14 F
GS
[1 0 0 1 0 0] CT
-16 5.5 moveto 
1 -1 scale
(45) t 
GR
GR
GS
[1 0 0 1 68.2 86.41766] CT
0.149 GC
/Helvetica 14 F
GS
[1 0 0 1 0 0] CT
-16 5.5 moveto 
1 -1 scale
(46) t 
GR
GR
GS
[1 0 0 1 68.2 53.83835] CT
0.149 GC
/Helvetica 14 F
GS
[1 0 0 1 0 0] CT
-16 5.5 moveto 
1 -1 scale
(47) t 
GR
GR
GS
[0 -1 1 0 49.2 202.74977] CT
0.149 GC
/Helvetica 15.4 F
GS
[1 0 0 1 0 0] CT
-42 -4 moveto 
1 -1 scale
(PSNR Y\(dB\)) t 
GR
GR
GS
[1 0 0 1 290.00031 29.575] CT
/Helvetica-Bold 15.4 F
GS
[1 0 0 1 0 0] CT
-141 -4 moveto 
1 -1 scale
(Skater227_1920x1080_30fps.y4m-hevc) t 
GR
GR
GS
0 0.447 0.741 RC
1 LJ
0.5 LW
N
73.651 372.813 M
77.541 354.984 L
81.43 337.733 L
85.32 321.518 L
89.209 306.8 L
93.099 294.037 L
96.988 283.369 L
100.878 273.491 L
104.768 264.193 L
108.657 255.456 L
112.547 247.262 L
116.436 239.594 L
120.326 232.433 L
124.215 225.762 L
128.105 219.563 L
131.995 213.818 L
135.884 208.509 L
139.774 203.584 L
143.663 198.835 L
147.553 194.227 L
151.442 189.757 L
155.332 185.424 L
159.222 181.225 L
163.111 177.159 L
167.001 173.222 L
170.89 169.414 L
174.78 165.73 L
178.67 162.17 L
182.559 158.731 L
186.449 155.411 L
190.338 152.207 L
194.228 149.118 L
198.117 146.141 L
202.007 143.274 L
205.897 140.515 L
209.786 137.862 L
213.676 135.311 L
217.565 132.862 L
221.455 130.512 L
225.344 128.259 L
229.234 126.1 L
233.124 124.013 L
237.013 121.933 L
240.903 119.856 L
244.792 117.784 L
248.682 115.718 L
252.571 113.658 L
256.461 111.605 L
260.351 109.561 L
264.24 107.526 L
268.13 105.501 L
272.019 103.487 L
275.909 101.485 L
279.799 99.496 L
283.688 97.521 L
287.578 95.561 L
291.467 93.617 L
295.357 91.689 L
299.246 89.779 L
303.136 87.887 L
307.026 86.015 L
310.915 84.164 L
314.805 82.334 L
318.694 80.526 L
322.584 78.742 L
326.473 76.982 L
330.363 75.246 L
334.253 73.538 L
338.142 71.855 L
342.032 70.201 L
345.921 68.576 L
349.811 66.981 L
353.701 65.416 L
357.59 63.883 L
361.48 62.383 L
365.369 60.917 L
369.259 59.484 L
373.148 58.088 L
377.038 56.727 L
380.928 55.404 L
384.817 54.12 L
388.707 52.874 L
392.596 51.669 L
396.486 50.504 L
400.375 49.382 L
404.265 48.302 L
408.155 47.267 L
412.044 46.276 L
415.934 45.331 L
419.823 44.433 L
423.713 43.582 L
427.602 42.78 L
431.492 42.027 L
435.382 41.325 L
439.271 40.674 L
443.161 40.076 L
447.05 39.531 L
450.94 39.04 L
454.83 38.604 L
458.719 38.224 L
462.609 37.901 L
466.498 37.636 L
470.388 37.43 L
474.277 37.283 L
478.167 37.197 L
S
GR
GS
0.851 0.325 0.098 RC
1 LJ
0.5 LW
N
74.737 365.748 M
78.626 348.882 L
82.516 332.526 L
86.405 317.072 L
90.295 302.914 L
94.185 290.446 L
98.074 279.954 L
101.964 270.368 L
105.853 261.304 L
109.743 252.748 L
113.632 244.69 L
117.522 237.117 L
121.412 230.017 L
125.301 223.379 L
129.191 217.19 L
133.08 211.439 L
136.97 206.113 L
140.859 201.201 L
144.749 196.59 L
148.639 192.115 L
152.528 187.772 L
156.418 183.559 L
160.307 179.472 L
164.197 175.511 L
168.087 171.673 L
171.976 167.956 L
175.866 164.356 L
179.755 160.873 L
183.645 157.504 L
187.534 154.246 L
191.424 151.098 L
195.314 148.056 L
199.203 145.12 L
203.093 142.286 L
206.982 139.552 L
210.872 136.917 L
214.761 134.377 L
218.651 131.931 L
222.541 129.576 L
226.43 127.31 L
230.32 125.132 L
234.209 123.037 L
238.099 121.024 L
241.988 119.04 L
245.878 117.059 L
249.768 115.081 L
253.657 113.107 L
257.547 111.138 L
261.436 109.175 L
265.326 107.219 L
269.216 105.27 L
273.105 103.329 L
276.995 101.398 L
280.884 99.477 L
284.774 97.567 L
288.663 95.668 L
292.553 93.782 L
296.443 91.91 L
300.332 90.051 L
304.222 88.208 L
308.111 86.38 L
312.001 84.569 L
315.89 82.776 L
319.78 81.001 L
323.67 79.245 L
327.559 77.509 L
331.449 75.794 L
335.338 74.101 L
339.228 72.43 L
343.117 70.783 L
347.007 69.16 L
350.897 67.562 L
354.786 65.989 L
358.676 64.444 L
362.565 62.926 L
366.455 61.436 L
370.345 59.976 L
374.234 58.545 L
378.124 57.145 L
382.013 55.777 L
385.903 54.442 L
389.792 53.14 L
393.682 51.872 L
397.572 50.639 L
401.461 49.442 L
405.351 48.282 L
409.24 47.159 L
413.13 46.074 L
417.019 45.029 L
420.909 44.024 L
424.799 43.06 L
428.688 42.137 L
432.578 41.257 L
436.467 40.42 L
440.357 39.627 L
444.247 38.879 L
448.136 38.177 L
452.026 37.522 L
455.915 36.915 L
459.805 36.355 L
463.694 35.845 L
467.584 35.385 L
471.474 34.976 L
475.363 34.618 L
479.253 34.313 L
483.142 34.062 L
487.032 33.864 L
490.921 33.721 L
494.811 33.635 L
498.701 33.605 L
S
GR
GS
0.929 0.694 0.125 RC
1 LJ
0.5 LW
N
73 374 M
76.89 355.692 L
80.779 337.987 L
84.669 321.41 L
88.558 306.489 L
92.448 293.752 L
96.337 283.128 L
100.227 273.225 L
104.117 263.932 L
108.006 255.223 L
111.896 247.074 L
115.785 239.46 L
119.675 232.357 L
123.565 225.74 L
127.454 219.586 L
131.344 213.868 L
135.233 208.563 L
139.123 203.601 L
143.012 198.797 L
146.902 194.135 L
150.792 189.611 L
154.681 185.226 L
158.571 180.975 L
162.46 176.858 L
166.35 172.873 L
170.239 169.018 L
174.129 165.291 L
178.019 161.69 L
181.908 158.214 L
185.798 154.86 L
189.687 151.627 L
193.577 148.512 L
197.466 145.515 L
201.356 142.632 L
205.246 139.863 L
209.135 137.206 L
213.025 134.657 L
216.914 132.217 L
220.804 129.882 L
224.694 127.651 L
228.583 125.516 L
232.473 123.402 L
236.362 121.292 L
240.252 119.187 L
244.141 117.088 L
248.031 114.995 L
251.921 112.911 L
255.81 110.835 L
259.7 108.769 L
263.589 106.713 L
267.479 104.669 L
271.368 102.638 L
275.258 100.62 L
279.148 98.616 L
283.037 96.628 L
286.927 94.656 L
290.816 92.701 L
294.706 90.764 L
298.595 88.846 L
302.485 86.949 L
306.375 85.072 L
310.264 83.217 L
314.154 81.386 L
318.043 79.578 L
321.933 77.794 L
325.823 76.037 L
329.712 74.306 L
333.602 72.603 L
337.491 70.928 L
341.381 69.283 L
345.27 67.668 L
349.16 66.084 L
353.05 64.533 L
356.939 63.015 L
360.829 61.531 L
364.718 60.083 L
368.608 58.67 L
372.497 57.295 L
376.387 55.957 L
380.277 54.659 L
384.166 53.4 L
388.056 52.182 L
391.945 51.006 L
395.835 49.873 L
399.724 48.783 L
403.614 47.738 L
407.504 46.738 L
411.393 45.785 L
415.283 44.879 L
419.172 44.021 L
423.062 43.213 L
426.952 42.455 L
430.841 41.749 L
434.731 41.094 L
438.62 40.493 L
442.51 39.945 L
446.399 39.452 L
450.289 39.016 L
454.179 38.636 L
458.068 38.314 L
461.958 38.051 L
465.847 37.847 L
469.737 37.704 L
473.626 37.623 L
S
GR
GS
0.494 0.184 0.557 RC
1 LJ
0.5 LW
N
75.257 362.054 M
79.146 345.792 L
83.036 330.002 L
86.926 315.036 L
90.815 301.248 L
94.705 288.99 L
98.594 278.579 L
102.484 269.161 L
106.374 260.23 L
110.263 251.777 L
114.153 243.793 L
118.042 236.268 L
121.932 229.195 L
125.821 222.564 L
129.711 216.365 L
133.601 210.592 L
137.49 205.233 L
141.38 200.281 L
145.269 195.692 L
149.159 191.262 L
153.048 186.96 L
156.938 182.783 L
160.828 178.729 L
164.717 174.797 L
168.607 170.983 L
172.496 167.286 L
176.386 163.704 L
180.275 160.234 L
184.165 156.875 L
188.055 153.624 L
191.944 150.479 L
195.834 147.439 L
199.723 144.501 L
203.613 141.662 L
207.503 138.922 L
211.392 136.277 L
215.282 133.726 L
219.171 131.267 L
223.061 128.896 L
226.95 126.614 L
230.84 124.416 L
234.73 122.302 L
238.619 120.268 L
242.509 118.309 L
246.398 116.369 L
250.288 114.431 L
254.177 112.496 L
258.067 110.566 L
261.957 108.641 L
265.846 106.721 L
269.736 104.808 L
273.625 102.902 L
277.515 101.004 L
281.405 99.116 L
285.294 97.236 L
289.184 95.367 L
293.073 93.51 L
296.963 91.664 L
300.852 89.831 L
304.742 88.012 L
308.632 86.207 L
312.521 84.417 L
316.411 82.643 L
320.3 80.886 L
324.19 79.146 L
328.079 77.424 L
331.969 75.722 L
335.859 74.039 L
339.748 72.377 L
343.638 70.736 L
347.527 69.117 L
351.417 67.522 L
355.306 65.95 L
359.196 64.402 L
363.086 62.88 L
366.975 61.384 L
370.865 59.915 L
374.754 58.473 L
378.644 57.06 L
382.534 55.676 L
386.423 54.323 L
390.313 52.999 L
394.202 51.708 L
398.092 50.449 L
401.981 49.222 L
405.871 48.03 L
409.761 46.873 L
413.65 45.751 L
417.54 44.665 L
421.429 43.616 L
425.319 42.605 L
429.208 41.633 L
433.098 40.7 L
436.988 39.807 L
440.877 38.956 L
444.767 38.145 L
448.656 37.378 L
452.546 36.654 L
456.436 35.974 L
460.325 35.338 L
464.215 34.749 L
468.104 34.206 L
471.994 33.71 L
475.883 33.262 L
479.773 32.862 L
483.663 32.513 L
487.552 32.214 L
491.442 31.966 L
495.331 31.769 L
499.221 31.626 L
503.11 31.536 L
507 31.5 L
S
GR
GS
0.467 0.675 0.188 RC
[10 6] 0 setdash
2 LJ
0.5 LW
N
73.382 373.585 M
77.271 355.655 L
81.161 338.323 L
85.05 322.042 L
88.94 307.263 L
92.83 294.438 L
96.719 283.655 L
100.609 273.625 L
104.498 264.173 L
108.388 255.287 L
112.277 246.954 L
116.167 239.161 L
120.057 231.896 L
123.946 225.145 L
127.836 218.897 L
131.725 213.137 L
135.615 207.854 L
139.504 202.937 L
143.394 198.177 L
147.284 193.566 L
151.173 189.101 L
155.063 184.78 L
158.952 180.599 L
162.842 176.557 L
166.732 172.649 L
170.621 168.874 L
174.511 165.228 L
178.4 161.709 L
182.29 158.314 L
186.179 155.04 L
190.069 151.884 L
193.959 148.844 L
197.848 145.917 L
201.738 143.099 L
205.627 140.389 L
209.517 137.783 L
213.406 135.279 L
217.296 132.874 L
221.186 130.564 L
225.075 128.348 L
228.965 126.218 L
232.854 124.109 L
236.744 122.003 L
240.633 119.901 L
244.523 117.804 L
248.413 115.712 L
252.302 113.628 L
256.192 111.551 L
260.081 109.484 L
263.971 107.426 L
267.861 105.379 L
271.75 103.344 L
275.64 101.322 L
279.529 99.314 L
283.419 97.321 L
287.308 95.344 L
291.198 93.384 L
295.088 91.441 L
298.977 89.517 L
302.867 87.614 L
306.756 85.731 L
310.646 83.87 L
314.535 82.032 L
318.425 80.217 L
322.315 78.428 L
326.204 76.664 L
330.094 74.928 L
333.983 73.219 L
337.873 71.539 L
341.762 69.889 L
345.652 68.269 L
349.542 66.682 L
353.431 65.127 L
357.321 63.607 L
361.21 62.121 L
365.1 60.671 L
368.99 59.257 L
372.879 57.882 L
376.769 56.545 L
380.658 55.248 L
384.548 53.992 L
388.437 52.778 L
392.327 51.607 L
396.217 50.479 L
400.106 49.397 L
403.996 48.36 L
407.885 47.369 L
411.775 46.427 L
415.664 45.534 L
419.554 44.69 L
423.444 43.897 L
427.333 43.156 L
431.223 42.467 L
435.112 41.833 L
439.002 41.253 L
442.892 40.729 L
446.781 40.261 L
450.671 39.852 L
454.56 39.501 L
458.45 39.21 L
462.339 38.98 L
466.229 38.811 L
470.119 38.706 L
474.008 38.664 L
S
GR
GS
0.302 0.745 0.933 RC
[10 6] 0 setdash
2 LJ
0.5 LW
N
73.176 373.189 M
77.066 355.249 L
80.955 337.893 L
84.845 321.599 L
88.734 306.848 L
92.624 294.119 L
96.513 283.479 L
100.403 273.592 L
104.293 264.291 L
108.182 255.556 L
112.072 247.368 L
115.961 239.707 L
119.851 232.554 L
123.74 225.889 L
127.63 219.692 L
131.52 213.944 L
135.409 208.626 L
139.299 203.679 L
143.188 198.902 L
147.078 194.268 L
150.967 189.774 L
154.857 185.417 L
158.747 181.196 L
162.636 177.108 L
166.526 173.152 L
170.415 169.325 L
174.305 165.625 L
178.195 162.051 L
182.084 158.599 L
185.974 155.267 L
189.863 152.055 L
193.753 148.958 L
197.642 145.976 L
201.532 143.107 L
205.422 140.347 L
209.311 137.695 L
213.201 135.149 L
217.09 132.707 L
220.98 130.366 L
224.869 128.125 L
228.759 125.98 L
232.649 123.876 L
236.538 121.775 L
240.428 119.678 L
244.317 117.587 L
248.207 115.501 L
252.096 113.422 L
255.986 111.352 L
259.876 109.29 L
263.765 107.238 L
267.655 105.197 L
271.544 103.168 L
275.434 101.151 L
279.324 99.148 L
283.213 97.16 L
287.103 95.187 L
290.992 93.232 L
294.882 91.293 L
298.771 89.373 L
302.661 87.473 L
306.551 85.593 L
310.44 83.734 L
314.33 81.897 L
318.219 80.084 L
322.109 78.295 L
325.998 76.531 L
329.888 74.793 L
333.778 73.083 L
337.667 71.4 L
341.557 69.747 L
345.446 68.123 L
349.336 66.53 L
353.225 64.969 L
357.115 63.441 L
361.005 61.947 L
364.894 60.487 L
368.784 59.063 L
372.673 57.675 L
376.563 56.326 L
380.453 55.015 L
384.342 53.743 L
388.232 52.511 L
392.121 51.321 L
396.011 50.174 L
399.9 49.07 L
403.79 48.01 L
407.68 46.995 L
411.569 46.026 L
415.459 45.105 L
419.348 44.231 L
423.238 43.407 L
427.127 42.633 L
431.017 41.909 L
434.907 41.238 L
438.796 40.619 L
442.686 40.054 L
446.575 39.544 L
450.465 39.09 L
454.354 38.692 L
458.244 38.352 L
462.134 38.071 L
466.023 37.849 L
469.913 37.688 L
473.802 37.588 L
477.692 37.55 L
S
GR
GS
0.635 0.078 0.184 RC
[10 6] 0 setdash
2 LJ
0.5 LW
N
73.826 371.68 M
77.716 354.011 L
81.605 336.901 L
85.495 320.796 L
89.384 306.145 L
93.274 293.393 L
97.164 282.735 L
101.053 272.901 L
104.943 263.632 L
108.832 254.911 L
112.722 246.724 L
116.611 239.053 L
120.501 231.883 L
124.391 225.199 L
128.28 218.983 L
132.17 213.221 L
136.059 207.895 L
139.949 202.979 L
143.839 198.273 L
147.728 193.705 L
151.618 189.276 L
155.507 184.981 L
159.397 180.819 L
163.286 176.788 L
167.176 172.884 L
171.066 169.106 L
174.955 165.452 L
178.845 161.919 L
182.734 158.505 L
186.624 155.207 L
190.513 152.023 L
194.403 148.951 L
198.293 145.988 L
202.182 143.133 L
206.072 140.382 L
209.961 137.734 L
213.851 135.186 L
217.741 132.736 L
221.63 130.381 L
225.52 128.12 L
229.409 125.949 L
233.299 123.866 L
237.188 121.819 L
241.078 119.774 L
244.968 117.733 L
248.857 115.697 L
252.747 113.666 L
256.636 111.641 L
260.526 109.624 L
264.415 107.615 L
268.305 105.615 L
272.195 103.625 L
276.084 101.646 L
279.974 99.679 L
283.863 97.724 L
287.753 95.783 L
291.642 93.856 L
295.532 91.945 L
299.422 90.05 L
303.311 88.171 L
307.201 86.311 L
311.09 84.47 L
314.98 82.648 L
318.87 80.847 L
322.759 79.067 L
326.649 77.31 L
330.538 75.576 L
334.428 73.866 L
338.317 72.181 L
342.207 70.523 L
346.097 68.891 L
349.986 67.287 L
353.876 65.711 L
357.765 64.165 L
361.655 62.649 L
365.544 61.165 L
369.434 59.712 L
373.324 58.293 L
377.213 56.908 L
381.103 55.557 L
384.992 54.242 L
388.882 52.964 L
392.771 51.723 L
396.661 50.521 L
400.551 49.358 L
404.44 48.235 L
408.33 47.153 L
412.219 46.113 L
416.109 45.116 L
419.999 44.163 L
423.888 43.254 L
427.778 42.39 L
431.667 41.573 L
435.557 40.804 L
439.446 40.082 L
443.336 39.409 L
447.226 38.787 L
451.115 38.215 L
455.005 37.695 L
458.894 37.227 L
462.784 36.813 L
466.673 36.453 L
470.563 36.149 L
474.453 35.9 L
478.342 35.709 L
482.232 35.575 L
486.121 35.501 L
S
GR
GS
1 GC
N
499 366 M
499 250.5 L
344.5 250.5 L
344.5 366 L
cp
f
GR
GS
[1 0 0 1 381.5 260.25] CT
/Helvetica 13 F
GS
[1 0 0 1 0 0] CT
0 5 moveto 
1 -1 scale
(Base Run) t 
GR
GR
GS
0 0.447 0.741 RC
1 LJ
0.5 LW
N
348.5 260.25 M
378.5 260.25 L
S
GR
GS
[1 0 0 1 381.5 276.25] CT
/Helvetica 13 F
GS
[1 0 0 1 0 0] CT
0 5 moveto 
1 -1 scale
(I & B Frames) t 
GR
GR
GS
0.851 0.325 0.098 RC
1 LJ
0.5 LW
N
348.5 276.25 M
378.5 276.25 L
S
GR
GS
[1 0 0 1 381.5 292.25] CT
/Helvetica 13 F
GS
[1 0 0 1 0 0] CT
0 5 moveto 
1 -1 scale
(I Frames Only) t 
GR
GR
GS
0.929 0.694 0.125 RC
1 LJ
0.5 LW
N
348.5 292.25 M
378.5 292.25 L
S
GR
GS
[1 0 0 1 381.5 308.25] CT
/Helvetica 13 F
GS
[1 0 0 1 0 0] CT
0 5 moveto 
1 -1 scale
(B Frames Only) t 
GR
GR
GS
0.494 0.184 0.557 RC
1 LJ
0.5 LW
N
348.5 308.25 M
378.5 308.25 L
S
GR
GS
[1 0 0 1 381.5 324.25] CT
/Helvetica 13 F
GS
[1 0 0 1 0 0] CT
0 5 moveto 
1 -1 scale
(Part I & B Frames) t 
GR
GR
GS
0.467 0.675 0.188 RC
[10 6] 0 setdash
2 LJ
0.5 LW
N
348.5 324.25 M
378.5 324.25 L
S
GR
GS
[1 0 0 1 381.5 340.25] CT
/Helvetica 13 F
GS
[1 0 0 1 0 0] CT
0 5 moveto 
1 -1 scale
(Part I Frames Only) t 
GR
GR
GS
0.302 0.745 0.933 RC
[10 6] 0 setdash
2 LJ
0.5 LW
N
348.5 340.25 M
378.5 340.25 L
S
GR
GS
[1 0 0 1 381.5 356.25] CT
/Helvetica 13 F
GS
[1 0 0 1 0 0] CT
0 5 moveto 
1 -1 scale
(Part B Frames Only) t 
GR
GR
GS
0.635 0.078 0.184 RC
[10 6] 0 setdash
2 LJ
0.5 LW
N
348.5 356.25 M
378.5 356.25 L
S
GR
GS
0.149 GC
10.0 ML
0.5 LW
N
344.5 366 M
344.5 250.5 L
499 250.5 L
499 366 L
cp
S
GR
%%Trailer
%%Pages: 1
%%EOF
