%!PS-Adobe-3.0 EPSF-3.0
%%Creator: (MATLAB, The Mathworks, Inc. Version 9.11.0.1837725 \(R2021b\) Update 2. Operating System: Mac OS X)
%%Title: plots/pchip/Skater227_1920x1080_30fps.y4m-hevc-DE2K.eps
%%CreationDate: 2022-02-03T19:14:44
%%Pages: (atend)
%%BoundingBox:    33   425   508   826
%%LanguageLevel: 3
%%EndComments
%%BeginProlog
%%BeginResource: procset (Apache XML Graphics Std ProcSet) 1.2 0
%%Version: 1.2 0
%%Copyright: (Copyright 2001-2003,2010 The Apache Software Foundation. License terms: http://www.apache.org/licenses/LICENSE-2.0)
/bd{bind def}bind def
/ld{load def}bd
/GR/grestore ld
/GS/gsave ld
/RM/rmoveto ld
/C/curveto ld
/t/show ld
/L/lineto ld
/ML/setmiterlimit ld
/CT/concat ld
/f/fill ld
/N/newpath ld
/S/stroke ld
/CC/setcmykcolor ld
/A/ashow ld
/cp/closepath ld
/RC/setrgbcolor ld
/LJ/setlinejoin ld
/GC/setgray ld
/LW/setlinewidth ld
/M/moveto ld
/re {4 2 roll M
1 index 0 rlineto
0 exch rlineto
neg 0 rlineto
cp } bd
/_ctm matrix def
/_tm matrix def
/BT { _ctm currentmatrix pop matrix _tm copy pop 0 0 moveto } bd
/ET { _ctm setmatrix } bd
/iTm { _ctm setmatrix _tm concat } bd
/Tm { _tm astore pop iTm 0 0 moveto } bd
/ux 0.0 def
/uy 0.0 def
/F {
  /Tp exch def
  /Tf exch def
  Tf findfont Tp scalefont setfont
  /cf Tf def  /cs Tp def
} bd
/ULS {currentpoint /uy exch def /ux exch def} bd
/ULE {
  /Tcx currentpoint pop def
  gsave
  newpath
  cf findfont cs scalefont dup
  /FontMatrix get 0 get /Ts exch def /FontInfo get dup
  /UnderlinePosition get Ts mul /To exch def
  /UnderlineThickness get Ts mul /Tt exch def
  ux uy To add moveto  Tcx uy To add lineto
  Tt setlinewidth stroke
  grestore
} bd
/OLE {
  /Tcx currentpoint pop def
  gsave
  newpath
  cf findfont cs scalefont dup
  /FontMatrix get 0 get /Ts exch def /FontInfo get dup
  /UnderlinePosition get Ts mul /To exch def
  /UnderlineThickness get Ts mul /Tt exch def
  ux uy To add cs add moveto Tcx uy To add cs add lineto
  Tt setlinewidth stroke
  grestore
} bd
/SOE {
  /Tcx currentpoint pop def
  gsave
  newpath
  cf findfont cs scalefont dup
  /FontMatrix get 0 get /Ts exch def /FontInfo get dup
  /UnderlinePosition get Ts mul /To exch def
  /UnderlineThickness get Ts mul /Tt exch def
  ux uy To add cs 10 mul 26 idiv add moveto Tcx uy To add cs 10 mul 26 idiv add lineto
  Tt setlinewidth stroke
  grestore
} bd
/QT {
/Y22 exch store
/X22 exch store
/Y21 exch store
/X21 exch store
currentpoint
/Y21 load 2 mul add 3 div exch
/X21 load 2 mul add 3 div exch
/X21 load 2 mul /X22 load add 3 div
/Y21 load 2 mul /Y22 load add 3 div
/X22 load /Y22 load curveto
} bd
/SSPD {
dup length /d exch dict def
{
/v exch def
/k exch def
currentpagedevice k known {
/cpdv currentpagedevice k get def
v cpdv ne {
/upd false def
/nullv v type /nulltype eq def
/nullcpdv cpdv type /nulltype eq def
nullv nullcpdv or
{
/upd true def
} {
/sametype v type cpdv type eq def
sametype {
v type /arraytype eq {
/vlen v length def
/cpdvlen cpdv length def
vlen cpdvlen eq {
0 1 vlen 1 sub {
/i exch def
/obj v i get def
/cpdobj cpdv i get def
obj cpdobj ne {
/upd true def
exit
} if
} for
} {
/upd true def
} ifelse
} {
v type /dicttype eq {
v {
/dv exch def
/dk exch def
/cpddv cpdv dk get def
dv cpddv ne {
/upd true def
exit
} if
} forall
} {
/upd true def
} ifelse
} ifelse
} if
} ifelse
upd true eq {
d k v put
} if
} if
} if
} forall
d length 0 gt {
d setpagedevice
} if
} bd
/RE { % /NewFontName [NewEncodingArray] /FontName RE -
  findfont dup length dict begin
  {
    1 index /FID ne
    {def} {pop pop} ifelse
  } forall
  /Encoding exch def
  /FontName 1 index def
  currentdict definefont pop
  end
} bind def
%%EndResource
%%BeginResource: procset (Apache XML Graphics EPS ProcSet) 1.0 0
%%Version: 1.0 0
%%Copyright: (Copyright 2002-2003 The Apache Software Foundation. License terms: http://www.apache.org/licenses/LICENSE-2.0)
/BeginEPSF { %def
/b4_Inc_state save def         % Save state for cleanup
/dict_count countdictstack def % Count objects on dict stack
/op_count count 1 sub def      % Count objects on operand stack
userdict begin                 % Push userdict on dict stack
/showpage { } def              % Redefine showpage, { } = null proc
0 setgray 0 setlinecap         % Prepare graphics state
1 setlinewidth 0 setlinejoin
10 setmiterlimit [ ] 0 setdash newpath
/languagelevel where           % If level not equal to 1 then
{pop languagelevel             % set strokeadjust and
1 ne                           % overprint to their defaults.
{false setstrokeadjust false setoverprint
} if
} if
} bd
/EndEPSF { %def
count op_count sub {pop} repeat            % Clean up stacks
countdictstack dict_count sub {end} repeat
b4_Inc_state restore
} bd
%%EndResource
%FOPBeginFontDict
%%IncludeResource: font Courier-Oblique
%%IncludeResource: font Courier-BoldOblique
%%IncludeResource: font Courier-Bold
%%IncludeResource: font ZapfDingbats
%%IncludeResource: font Symbol
%%IncludeResource: font Helvetica
%%IncludeResource: font Helvetica-Oblique
%%IncludeResource: font Helvetica-Bold
%%IncludeResource: font Helvetica-BoldOblique
%%IncludeResource: font Times-Roman
%%IncludeResource: font Times-Italic
%%IncludeResource: font Times-Bold
%%IncludeResource: font Times-BoldItalic
%%IncludeResource: font Courier
%FOPEndFontDict
%%BeginResource: encoding WinAnsiEncoding
/WinAnsiEncoding [
/.notdef /.notdef /.notdef /.notdef /.notdef
/.notdef /.notdef /.notdef /.notdef /.notdef
/.notdef /.notdef /.notdef /.notdef /.notdef
/.notdef /.notdef /.notdef /.notdef /.notdef
/.notdef /.notdef /.notdef /.notdef /.notdef
/.notdef /.notdef /.notdef /.notdef /.notdef
/.notdef /.notdef /space /exclam /quotedbl
/numbersign /dollar /percent /ampersand /quotesingle
/parenleft /parenright /asterisk /plus /comma
/hyphen /period /slash /zero /one
/two /three /four /five /six
/seven /eight /nine /colon /semicolon
/less /equal /greater /question /at
/A /B /C /D /E
/F /G /H /I /J
/K /L /M /N /O
/P /Q /R /S /T
/U /V /W /X /Y
/Z /bracketleft /backslash /bracketright /asciicircum
/underscore /quoteleft /a /b /c
/d /e /f /g /h
/i /j /k /l /m
/n /o /p /q /r
/s /t /u /v /w
/x /y /z /braceleft /bar
/braceright /asciitilde /bullet /Euro /bullet
/quotesinglbase /florin /quotedblbase /ellipsis /dagger
/daggerdbl /circumflex /perthousand /Scaron /guilsinglleft
/OE /bullet /Zcaron /bullet /bullet
/quoteleft /quoteright /quotedblleft /quotedblright /bullet
/endash /emdash /asciitilde /trademark /scaron
/guilsinglright /oe /bullet /zcaron /Ydieresis
/space /exclamdown /cent /sterling /currency
/yen /brokenbar /section /dieresis /copyright
/ordfeminine /guillemotleft /logicalnot /sfthyphen /registered
/macron /degree /plusminus /twosuperior /threesuperior
/acute /mu /paragraph /middot /cedilla
/onesuperior /ordmasculine /guillemotright /onequarter /onehalf
/threequarters /questiondown /Agrave /Aacute /Acircumflex
/Atilde /Adieresis /Aring /AE /Ccedilla
/Egrave /Eacute /Ecircumflex /Edieresis /Igrave
/Iacute /Icircumflex /Idieresis /Eth /Ntilde
/Ograve /Oacute /Ocircumflex /Otilde /Odieresis
/multiply /Oslash /Ugrave /Uacute /Ucircumflex
/Udieresis /Yacute /Thorn /germandbls /agrave
/aacute /acircumflex /atilde /adieresis /aring
/ae /ccedilla /egrave /eacute /ecircumflex
/edieresis /igrave /iacute /icircumflex /idieresis
/eth /ntilde /ograve /oacute /ocircumflex
/otilde /odieresis /divide /oslash /ugrave
/uacute /ucircumflex /udieresis /yacute /thorn
/ydieresis
] def
%%EndResource
%FOPBeginFontReencode
/Courier-Oblique findfont
dup length dict begin
  {1 index /FID ne {def} {pop pop} ifelse} forall
  /Encoding WinAnsiEncoding def
  currentdict
end
/Courier-Oblique exch definefont pop
/Courier-BoldOblique findfont
dup length dict begin
  {1 index /FID ne {def} {pop pop} ifelse} forall
  /Encoding WinAnsiEncoding def
  currentdict
end
/Courier-BoldOblique exch definefont pop
/Courier-Bold findfont
dup length dict begin
  {1 index /FID ne {def} {pop pop} ifelse} forall
  /Encoding WinAnsiEncoding def
  currentdict
end
/Courier-Bold exch definefont pop
/Helvetica findfont
dup length dict begin
  {1 index /FID ne {def} {pop pop} ifelse} forall
  /Encoding WinAnsiEncoding def
  currentdict
end
/Helvetica exch definefont pop
/Helvetica-Oblique findfont
dup length dict begin
  {1 index /FID ne {def} {pop pop} ifelse} forall
  /Encoding WinAnsiEncoding def
  currentdict
end
/Helvetica-Oblique exch definefont pop
/Helvetica-Bold findfont
dup length dict begin
  {1 index /FID ne {def} {pop pop} ifelse} forall
  /Encoding WinAnsiEncoding def
  currentdict
end
/Helvetica-Bold exch definefont pop
/Helvetica-BoldOblique findfont
dup length dict begin
  {1 index /FID ne {def} {pop pop} ifelse} forall
  /Encoding WinAnsiEncoding def
  currentdict
end
/Helvetica-BoldOblique exch definefont pop
/Times-Roman findfont
dup length dict begin
  {1 index /FID ne {def} {pop pop} ifelse} forall
  /Encoding WinAnsiEncoding def
  currentdict
end
/Times-Roman exch definefont pop
/Times-Italic findfont
dup length dict begin
  {1 index /FID ne {def} {pop pop} ifelse} forall
  /Encoding WinAnsiEncoding def
  currentdict
end
/Times-Italic exch definefont pop
/Times-Bold findfont
dup length dict begin
  {1 index /FID ne {def} {pop pop} ifelse} forall
  /Encoding WinAnsiEncoding def
  currentdict
end
/Times-Bold exch definefont pop
/Times-BoldItalic findfont
dup length dict begin
  {1 index /FID ne {def} {pop pop} ifelse} forall
  /Encoding WinAnsiEncoding def
  currentdict
end
/Times-BoldItalic exch definefont pop
/Courier findfont
dup length dict begin
  {1 index /FID ne {def} {pop pop} ifelse} forall
  /Encoding WinAnsiEncoding def
  currentdict
end
/Courier exch definefont pop
%FOPEndFontReencode
%%EndProlog
%%Page: 1 1
%%PageBoundingBox: 0 0 1120 840
%%BeginPageSetup
[1 0 0 -1 0 840] CT
%%EndPageSetup
GS
1 GC
N
0 0 1120 840 re
f
GR
GS
1 GC
N
73 374 M
507 374 L
507 31.5 L
73 31.5 L
cp
f
GR
GS
0.149 GC
2 setlinecap
1 LJ
0.5 LW
N
73 374 M
507 374 L
S
GR
GS
0.149 GC
2 setlinecap
1 LJ
0.5 LW
N
73 31.5 M
507 31.5 L
S
GR
GS
0.149 GC
2 setlinecap
1 LJ
0.5 LW
N
142.165 374 M
142.165 369.66 L
S
GR
GS
0.149 GC
2 setlinecap
1 LJ
0.5 LW
N
239.404 374 M
239.404 369.66 L
S
GR
GS
0.149 GC
2 setlinecap
1 LJ
0.5 LW
N
336.644 374 M
336.644 369.66 L
S
GR
GS
0.149 GC
2 setlinecap
1 LJ
0.5 LW
N
433.883 374 M
433.883 369.66 L
S
GR
GS
0.149 GC
2 setlinecap
1 LJ
0.5 LW
N
142.165 31.5 M
142.165 35.84 L
S
GR
GS
0.149 GC
2 setlinecap
1 LJ
0.5 LW
N
239.404 31.5 M
239.404 35.84 L
S
GR
GS
0.149 GC
2 setlinecap
1 LJ
0.5 LW
N
336.644 31.5 M
336.644 35.84 L
S
GR
GS
0.149 GC
2 setlinecap
1 LJ
0.5 LW
N
433.883 31.5 M
433.883 35.84 L
S
GR
GS
0.149 GC
2 setlinecap
1 LJ
0.5 LW
N
83.821 374 M
83.821 371.83 L
S
GR
GS
0.149 GC
2 setlinecap
1 LJ
0.5 LW
N
103.269 374 M
103.269 371.83 L
S
GR
GS
0.149 GC
2 setlinecap
1 LJ
0.5 LW
N
122.717 374 M
122.717 371.83 L
S
GR
GS
0.149 GC
2 setlinecap
1 LJ
0.5 LW
N
161.613 374 M
161.613 371.83 L
S
GR
GS
0.149 GC
2 setlinecap
1 LJ
0.5 LW
N
181.061 374 M
181.061 371.83 L
S
GR
GS
0.149 GC
2 setlinecap
1 LJ
0.5 LW
N
200.508 374 M
200.508 371.83 L
S
GR
GS
0.149 GC
2 setlinecap
1 LJ
0.5 LW
N
219.956 374 M
219.956 371.83 L
S
GR
GS
0.149 GC
2 setlinecap
1 LJ
0.5 LW
N
258.852 374 M
258.852 371.83 L
S
GR
GS
0.149 GC
2 setlinecap
1 LJ
0.5 LW
N
278.3 374 M
278.3 371.83 L
S
GR
GS
0.149 GC
2 setlinecap
1 LJ
0.5 LW
N
297.748 374 M
297.748 371.83 L
S
GR
GS
0.149 GC
2 setlinecap
1 LJ
0.5 LW
N
317.196 374 M
317.196 371.83 L
S
GR
GS
0.149 GC
2 setlinecap
1 LJ
0.5 LW
N
356.092 374 M
356.092 371.83 L
S
GR
GS
0.149 GC
2 setlinecap
1 LJ
0.5 LW
N
375.539 374 M
375.539 371.83 L
S
GR
GS
0.149 GC
2 setlinecap
1 LJ
0.5 LW
N
394.987 374 M
394.987 371.83 L
S
GR
GS
0.149 GC
2 setlinecap
1 LJ
0.5 LW
N
414.435 374 M
414.435 371.83 L
S
GR
GS
0.149 GC
2 setlinecap
1 LJ
0.5 LW
N
453.331 374 M
453.331 371.83 L
S
GR
GS
0.149 GC
2 setlinecap
1 LJ
0.5 LW
N
472.779 374 M
472.779 371.83 L
S
GR
GS
0.149 GC
2 setlinecap
1 LJ
0.5 LW
N
492.227 374 M
492.227 371.83 L
S
GR
GS
0.149 GC
2 setlinecap
1 LJ
0.5 LW
N
83.821 31.5 M
83.821 33.67 L
S
GR
GS
0.149 GC
2 setlinecap
1 LJ
0.5 LW
N
103.269 31.5 M
103.269 33.67 L
S
GR
GS
0.149 GC
2 setlinecap
1 LJ
0.5 LW
N
122.717 31.5 M
122.717 33.67 L
S
GR
GS
0.149 GC
2 setlinecap
1 LJ
0.5 LW
N
161.613 31.5 M
161.613 33.67 L
S
GR
GS
0.149 GC
2 setlinecap
1 LJ
0.5 LW
N
181.061 31.5 M
181.061 33.67 L
S
GR
GS
0.149 GC
2 setlinecap
1 LJ
0.5 LW
N
200.508 31.5 M
200.508 33.67 L
S
GR
GS
0.149 GC
2 setlinecap
1 LJ
0.5 LW
N
219.956 31.5 M
219.956 33.67 L
S
GR
GS
0.149 GC
2 setlinecap
1 LJ
0.5 LW
N
258.852 31.5 M
258.852 33.67 L
S
GR
GS
0.149 GC
2 setlinecap
1 LJ
0.5 LW
N
278.3 31.5 M
278.3 33.67 L
S
GR
GS
0.149 GC
2 setlinecap
1 LJ
0.5 LW
N
297.748 31.5 M
297.748 33.67 L
S
GR
GS
0.149 GC
2 setlinecap
1 LJ
0.5 LW
N
317.196 31.5 M
317.196 33.67 L
S
GR
GS
0.149 GC
2 setlinecap
1 LJ
0.5 LW
N
356.092 31.5 M
356.092 33.67 L
S
GR
GS
0.149 GC
2 setlinecap
1 LJ
0.5 LW
N
375.539 31.5 M
375.539 33.67 L
S
GR
GS
0.149 GC
2 setlinecap
1 LJ
0.5 LW
N
394.987 31.5 M
394.987 33.67 L
S
GR
GS
0.149 GC
2 setlinecap
1 LJ
0.5 LW
N
414.435 31.5 M
414.435 33.67 L
S
GR
GS
0.149 GC
2 setlinecap
1 LJ
0.5 LW
N
453.331 31.5 M
453.331 33.67 L
S
GR
GS
0.149 GC
2 setlinecap
1 LJ
0.5 LW
N
472.779 31.5 M
472.779 33.67 L
S
GR
GS
0.149 GC
2 setlinecap
1 LJ
0.5 LW
N
492.227 31.5 M
492.227 33.67 L
S
GR
GS
[1 0 0 1 142.16483 378.79999] CT
0.149 GC
/Helvetica 14 F
GS
[1 0 0 1 0 0] CT
-12 14 moveto 
1 -1 scale
(500) t 
GR
GR
GS
[1 0 0 1 239.40425 378.79999] CT
0.149 GC
/Helvetica 14 F
GS
[1 0 0 1 0 0] CT
-16 14 moveto 
1 -1 scale
(1000) t 
GR
GR
GS
[1 0 0 1 336.64371 378.79999] CT
0.149 GC
/Helvetica 14 F
GS
[1 0 0 1 0 0] CT
-16 14 moveto 
1 -1 scale
(1500) t 
GR
GR
GS
[1 0 0 1 433.88312 378.79999] CT
0.149 GC
/Helvetica 14 F
GS
[1 0 0 1 0 0] CT
-16 14 moveto 
1 -1 scale
(2000) t 
GR
GR
GS
[1 0 0 1 290.00021 396.29999] CT
0.149 GC
/Helvetica 15.4 F
GS
[1 0 0 1 0 0] CT
-42 15 moveto 
1 -1 scale
(Bitrate\(kb/s\)) t 
GR
GR
GS
0.149 GC
2 setlinecap
1 LJ
0.5 LW
N
73 374 M
73 31.5 L
S
GR
GS
0.149 GC
2 setlinecap
1 LJ
0.5 LW
N
507 374 M
507 31.5 L
S
GR
GS
0.149 GC
2 setlinecap
1 LJ
0.5 LW
N
73 371.482 M
77.34 371.482 L
S
GR
GS
0.149 GC
2 setlinecap
1 LJ
0.5 LW
N
73 333.871 M
77.34 333.871 L
S
GR
GS
0.149 GC
2 setlinecap
1 LJ
0.5 LW
N
73 296.261 M
77.34 296.261 L
S
GR
GS
0.149 GC
2 setlinecap
1 LJ
0.5 LW
N
73 258.65 M
77.34 258.65 L
S
GR
GS
0.149 GC
2 setlinecap
1 LJ
0.5 LW
N
73 221.039 M
77.34 221.039 L
S
GR
GS
0.149 GC
2 setlinecap
1 LJ
0.5 LW
N
73 183.429 M
77.34 183.429 L
S
GR
GS
0.149 GC
2 setlinecap
1 LJ
0.5 LW
N
73 145.818 M
77.34 145.818 L
S
GR
GS
0.149 GC
2 setlinecap
1 LJ
0.5 LW
N
73 108.208 M
77.34 108.208 L
S
GR
GS
0.149 GC
2 setlinecap
1 LJ
0.5 LW
N
73 70.597 M
77.34 70.597 L
S
GR
GS
0.149 GC
2 setlinecap
1 LJ
0.5 LW
N
73 32.986 M
77.34 32.986 L
S
GR
GS
0.149 GC
2 setlinecap
1 LJ
0.5 LW
N
507 371.482 M
502.66 371.482 L
S
GR
GS
0.149 GC
2 setlinecap
1 LJ
0.5 LW
N
507 333.871 M
502.66 333.871 L
S
GR
GS
0.149 GC
2 setlinecap
1 LJ
0.5 LW
N
507 296.261 M
502.66 296.261 L
S
GR
GS
0.149 GC
2 setlinecap
1 LJ
0.5 LW
N
507 258.65 M
502.66 258.65 L
S
GR
GS
0.149 GC
2 setlinecap
1 LJ
0.5 LW
N
507 221.039 M
502.66 221.039 L
S
GR
GS
0.149 GC
2 setlinecap
1 LJ
0.5 LW
N
507 183.429 M
502.66 183.429 L
S
GR
GS
0.149 GC
2 setlinecap
1 LJ
0.5 LW
N
507 145.818 M
502.66 145.818 L
S
GR
GS
0.149 GC
2 setlinecap
1 LJ
0.5 LW
N
507 108.208 M
502.66 108.208 L
S
GR
GS
0.149 GC
2 setlinecap
1 LJ
0.5 LW
N
507 70.597 M
502.66 70.597 L
S
GR
GS
0.149 GC
2 setlinecap
1 LJ
0.5 LW
N
507 32.986 M
502.66 32.986 L
S
GR
GS
0.149 GC
2 setlinecap
1 LJ
0.5 LW
N
73 363.96 M
75.17 363.96 L
S
GR
GS
0.149 GC
2 setlinecap
1 LJ
0.5 LW
N
73 356.438 M
75.17 356.438 L
S
GR
GS
0.149 GC
2 setlinecap
1 LJ
0.5 LW
N
73 348.916 M
75.17 348.916 L
S
GR
GS
0.149 GC
2 setlinecap
1 LJ
0.5 LW
N
73 341.394 M
75.17 341.394 L
S
GR
GS
0.149 GC
2 setlinecap
1 LJ
0.5 LW
N
73 326.349 M
75.17 326.349 L
S
GR
GS
0.149 GC
2 setlinecap
1 LJ
0.5 LW
N
73 318.827 M
75.17 318.827 L
S
GR
GS
0.149 GC
2 setlinecap
1 LJ
0.5 LW
N
73 311.305 M
75.17 311.305 L
S
GR
GS
0.149 GC
2 setlinecap
1 LJ
0.5 LW
N
73 303.783 M
75.17 303.783 L
S
GR
GS
0.149 GC
2 setlinecap
1 LJ
0.5 LW
N
73 288.739 M
75.17 288.739 L
S
GR
GS
0.149 GC
2 setlinecap
1 LJ
0.5 LW
N
73 281.216 M
75.17 281.216 L
S
GR
GS
0.149 GC
2 setlinecap
1 LJ
0.5 LW
N
73 273.694 M
75.17 273.694 L
S
GR
GS
0.149 GC
2 setlinecap
1 LJ
0.5 LW
N
73 266.172 M
75.17 266.172 L
S
GR
GS
0.149 GC
2 setlinecap
1 LJ
0.5 LW
N
73 251.128 M
75.17 251.128 L
S
GR
GS
0.149 GC
2 setlinecap
1 LJ
0.5 LW
N
73 243.606 M
75.17 243.606 L
S
GR
GS
0.149 GC
2 setlinecap
1 LJ
0.5 LW
N
73 236.084 M
75.17 236.084 L
S
GR
GS
0.149 GC
2 setlinecap
1 LJ
0.5 LW
N
73 228.562 M
75.17 228.562 L
S
GR
GS
0.149 GC
2 setlinecap
1 LJ
0.5 LW
N
73 213.517 M
75.17 213.517 L
S
GR
GS
0.149 GC
2 setlinecap
1 LJ
0.5 LW
N
73 205.995 M
75.17 205.995 L
S
GR
GS
0.149 GC
2 setlinecap
1 LJ
0.5 LW
N
73 198.473 M
75.17 198.473 L
S
GR
GS
0.149 GC
2 setlinecap
1 LJ
0.5 LW
N
73 190.951 M
75.17 190.951 L
S
GR
GS
0.149 GC
2 setlinecap
1 LJ
0.5 LW
N
73 175.907 M
75.17 175.907 L
S
GR
GS
0.149 GC
2 setlinecap
1 LJ
0.5 LW
N
73 168.385 M
75.17 168.385 L
S
GR
GS
0.149 GC
2 setlinecap
1 LJ
0.5 LW
N
73 160.863 M
75.17 160.863 L
S
GR
GS
0.149 GC
2 setlinecap
1 LJ
0.5 LW
N
73 153.34 M
75.17 153.34 L
S
GR
GS
0.149 GC
2 setlinecap
1 LJ
0.5 LW
N
73 138.296 M
75.17 138.296 L
S
GR
GS
0.149 GC
2 setlinecap
1 LJ
0.5 LW
N
73 130.774 M
75.17 130.774 L
S
GR
GS
0.149 GC
2 setlinecap
1 LJ
0.5 LW
N
73 123.252 M
75.17 123.252 L
S
GR
GS
0.149 GC
2 setlinecap
1 LJ
0.5 LW
N
73 115.73 M
75.17 115.73 L
S
GR
GS
0.149 GC
2 setlinecap
1 LJ
0.5 LW
N
73 100.685 M
75.17 100.685 L
S
GR
GS
0.149 GC
2 setlinecap
1 LJ
0.5 LW
N
73 93.163 M
75.17 93.163 L
S
GR
GS
0.149 GC
2 setlinecap
1 LJ
0.5 LW
N
73 85.641 M
75.17 85.641 L
S
GR
GS
0.149 GC
2 setlinecap
1 LJ
0.5 LW
N
73 78.119 M
75.17 78.119 L
S
GR
GS
0.149 GC
2 setlinecap
1 LJ
0.5 LW
N
73 63.075 M
75.17 63.075 L
S
GR
GS
0.149 GC
2 setlinecap
1 LJ
0.5 LW
N
73 55.553 M
75.17 55.553 L
S
GR
GS
0.149 GC
2 setlinecap
1 LJ
0.5 LW
N
73 48.031 M
75.17 48.031 L
S
GR
GS
0.149 GC
2 setlinecap
1 LJ
0.5 LW
N
73 40.509 M
75.17 40.509 L
S
GR
GS
0.149 GC
2 setlinecap
1 LJ
0.5 LW
N
507 363.96 M
504.83 363.96 L
S
GR
GS
0.149 GC
2 setlinecap
1 LJ
0.5 LW
N
507 356.438 M
504.83 356.438 L
S
GR
GS
0.149 GC
2 setlinecap
1 LJ
0.5 LW
N
507 348.916 M
504.83 348.916 L
S
GR
GS
0.149 GC
2 setlinecap
1 LJ
0.5 LW
N
507 341.394 M
504.83 341.394 L
S
GR
GS
0.149 GC
2 setlinecap
1 LJ
0.5 LW
N
507 326.349 M
504.83 326.349 L
S
GR
GS
0.149 GC
2 setlinecap
1 LJ
0.5 LW
N
507 318.827 M
504.83 318.827 L
S
GR
GS
0.149 GC
2 setlinecap
1 LJ
0.5 LW
N
507 311.305 M
504.83 311.305 L
S
GR
GS
0.149 GC
2 setlinecap
1 LJ
0.5 LW
N
507 303.783 M
504.83 303.783 L
S
GR
GS
0.149 GC
2 setlinecap
1 LJ
0.5 LW
N
507 288.739 M
504.83 288.739 L
S
GR
GS
0.149 GC
2 setlinecap
1 LJ
0.5 LW
N
507 281.216 M
504.83 281.216 L
S
GR
GS
0.149 GC
2 setlinecap
1 LJ
0.5 LW
N
507 273.694 M
504.83 273.694 L
S
GR
GS
0.149 GC
2 setlinecap
1 LJ
0.5 LW
N
507 266.172 M
504.83 266.172 L
S
GR
GS
0.149 GC
2 setlinecap
1 LJ
0.5 LW
N
507 251.128 M
504.83 251.128 L
S
GR
GS
0.149 GC
2 setlinecap
1 LJ
0.5 LW
N
507 243.606 M
504.83 243.606 L
S
GR
GS
0.149 GC
2 setlinecap
1 LJ
0.5 LW
N
507 236.084 M
504.83 236.084 L
S
GR
GS
0.149 GC
2 setlinecap
1 LJ
0.5 LW
N
507 228.562 M
504.83 228.562 L
S
GR
GS
0.149 GC
2 setlinecap
1 LJ
0.5 LW
N
507 213.517 M
504.83 213.517 L
S
GR
GS
0.149 GC
2 setlinecap
1 LJ
0.5 LW
N
507 205.995 M
504.83 205.995 L
S
GR
GS
0.149 GC
2 setlinecap
1 LJ
0.5 LW
N
507 198.473 M
504.83 198.473 L
S
GR
GS
0.149 GC
2 setlinecap
1 LJ
0.5 LW
N
507 190.951 M
504.83 190.951 L
S
GR
GS
0.149 GC
2 setlinecap
1 LJ
0.5 LW
N
507 175.907 M
504.83 175.907 L
S
GR
GS
0.149 GC
2 setlinecap
1 LJ
0.5 LW
N
507 168.385 M
504.83 168.385 L
S
GR
GS
0.149 GC
2 setlinecap
1 LJ
0.5 LW
N
507 160.863 M
504.83 160.863 L
S
GR
GS
0.149 GC
2 setlinecap
1 LJ
0.5 LW
N
507 153.34 M
504.83 153.34 L
S
GR
GS
0.149 GC
2 setlinecap
1 LJ
0.5 LW
N
507 138.296 M
504.83 138.296 L
S
GR
GS
0.149 GC
2 setlinecap
1 LJ
0.5 LW
N
507 130.774 M
504.83 130.774 L
S
GR
GS
0.149 GC
2 setlinecap
1 LJ
0.5 LW
N
507 123.252 M
504.83 123.252 L
S
GR
GS
0.149 GC
2 setlinecap
1 LJ
0.5 LW
N
507 115.73 M
504.83 115.73 L
S
GR
GS
0.149 GC
2 setlinecap
1 LJ
0.5 LW
N
507 100.685 M
504.83 100.685 L
S
GR
GS
0.149 GC
2 setlinecap
1 LJ
0.5 LW
N
507 93.163 M
504.83 93.163 L
S
GR
GS
0.149 GC
2 setlinecap
1 LJ
0.5 LW
N
507 85.641 M
504.83 85.641 L
S
GR
GS
0.149 GC
2 setlinecap
1 LJ
0.5 LW
N
507 78.119 M
504.83 78.119 L
S
GR
GS
0.149 GC
2 setlinecap
1 LJ
0.5 LW
N
507 63.075 M
504.83 63.075 L
S
GR
GS
0.149 GC
2 setlinecap
1 LJ
0.5 LW
N
507 55.553 M
504.83 55.553 L
S
GR
GS
0.149 GC
2 setlinecap
1 LJ
0.5 LW
N
507 48.031 M
504.83 48.031 L
S
GR
GS
0.149 GC
2 setlinecap
1 LJ
0.5 LW
N
507 40.509 M
504.83 40.509 L
S
GR
GS
[1 0 0 1 68.2 371.48199] CT
0.149 GC
/Helvetica 14 F
GS
[1 0 0 1 0 0] CT
-16 5.5 moveto 
1 -1 scale
(39) t 
GR
GR
GS
[1 0 0 1 68.2 333.87137] CT
0.149 GC
/Helvetica 14 F
GS
[1 0 0 1 0 0] CT
-16 5.5 moveto 
1 -1 scale
(40) t 
GR
GR
GS
[1 0 0 1 68.2 296.26074] CT
0.149 GC
/Helvetica 14 F
GS
[1 0 0 1 0 0] CT
-16 5.5 moveto 
1 -1 scale
(41) t 
GR
GR
GS
[1 0 0 1 68.2 258.65012] CT
0.149 GC
/Helvetica 14 F
GS
[1 0 0 1 0 0] CT
-16 5.5 moveto 
1 -1 scale
(42) t 
GR
GR
GS
[1 0 0 1 68.2 221.03949] CT
0.149 GC
/Helvetica 14 F
GS
[1 0 0 1 0 0] CT
-16 5.5 moveto 
1 -1 scale
(43) t 
GR
GR
GS
[1 0 0 1 68.2 183.42886] CT
0.149 GC
/Helvetica 14 F
GS
[1 0 0 1 0 0] CT
-16 5.5 moveto 
1 -1 scale
(44) t 
GR
GR
GS
[1 0 0 1 68.2 145.81824] CT
0.149 GC
/Helvetica 14 F
GS
[1 0 0 1 0 0] CT
-16 5.5 moveto 
1 -1 scale
(45) t 
GR
GR
GS
[1 0 0 1 68.2 108.20761] CT
0.149 GC
/Helvetica 14 F
GS
[1 0 0 1 0 0] CT
-16 5.5 moveto 
1 -1 scale
(46) t 
GR
GR
GS
[1 0 0 1 68.2 70.59698] CT
0.149 GC
/Helvetica 14 F
GS
[1 0 0 1 0 0] CT
-16 5.5 moveto 
1 -1 scale
(47) t 
GR
GR
GS
[1 0 0 1 68.2 32.98635] CT
0.149 GC
/Helvetica 14 F
GS
[1 0 0 1 0 0] CT
-16 5.5 moveto 
1 -1 scale
(48) t 
GR
GR
GS
[0 -1 1 0 49.2 202.74982] CT
0.149 GC
/Helvetica 15.4 F
GS
[1 0 0 1 0 0] CT
-55.5 -4 moveto 
1 -1 scale
(CIEDE2000 \(dB\)) t 
GR
GR
GS
[1 0 0 1 290.00031 29.575] CT
/Helvetica-Bold 15.4 F
GS
[1 0 0 1 0 0] CT
-141 -4 moveto 
1 -1 scale
(Skater227_1920x1080_30fps.y4m-hevc) t 
GR
GR
GS
0 0.447 0.741 RC
1 LJ
0.5 LW
N
73.651 369.705 M
77.541 352.62 L
81.43 336.084 L
85.32 320.518 L
89.209 306.341 L
93.099 293.974 L
96.988 283.545 L
100.878 273.863 L
104.768 264.732 L
108.657 256.135 L
112.547 248.056 L
116.436 240.477 L
120.326 233.382 L
124.215 226.753 L
128.105 220.574 L
131.995 214.827 L
135.884 209.496 L
139.774 204.531 L
143.663 199.732 L
147.553 195.066 L
151.442 190.533 L
155.332 186.13 L
159.222 181.857 L
163.111 177.711 L
167.001 173.693 L
170.89 169.799 L
174.78 166.029 L
178.67 162.382 L
182.559 158.855 L
186.449 155.448 L
190.338 152.159 L
194.228 148.987 L
198.117 145.93 L
202.007 142.986 L
205.897 140.155 L
209.786 137.435 L
213.676 134.825 L
217.565 132.323 L
221.455 129.927 L
225.344 127.637 L
229.234 125.451 L
233.124 123.344 L
237.013 121.246 L
240.903 119.152 L
244.792 117.063 L
248.682 114.981 L
252.571 112.905 L
256.461 110.838 L
260.351 108.78 L
264.24 106.731 L
268.13 104.694 L
272.019 102.668 L
275.909 100.654 L
279.799 98.655 L
283.688 96.669 L
287.578 94.7 L
291.467 92.746 L
295.357 90.81 L
299.246 88.892 L
303.136 86.993 L
307.026 85.114 L
310.915 83.256 L
314.805 81.42 L
318.694 79.606 L
322.584 77.817 L
326.473 76.052 L
330.363 74.312 L
334.253 72.599 L
338.142 70.914 L
342.032 69.256 L
345.921 67.628 L
349.811 66.031 L
353.701 64.464 L
357.59 62.929 L
361.48 61.427 L
365.369 59.959 L
369.259 58.526 L
373.148 57.128 L
377.038 55.767 L
380.928 54.444 L
384.817 53.159 L
388.707 51.913 L
392.596 50.708 L
396.486 49.544 L
400.375 48.422 L
404.265 47.343 L
408.155 46.309 L
412.044 45.319 L
415.934 44.375 L
419.823 43.477 L
423.713 42.628 L
427.602 41.827 L
431.492 41.075 L
435.382 40.374 L
439.271 39.724 L
443.161 39.127 L
447.05 38.583 L
450.94 38.092 L
454.83 37.657 L
458.719 37.278 L
462.609 36.956 L
466.498 36.692 L
470.388 36.486 L
474.277 36.34 L
478.167 36.255 L
S
GR
GS
0.851 0.325 0.098 RC
1 LJ
0.5 LW
N
74.737 362.848 M
78.626 347.043 L
82.516 331.701 L
86.405 317.136 L
90.295 303.665 L
94.185 291.601 L
98.074 281.173 L
101.964 271.475 L
105.853 262.203 L
109.743 253.365 L
113.632 244.97 L
117.522 237.028 L
121.412 229.548 L
125.301 222.54 L
129.191 216.013 L
133.08 209.977 L
136.97 204.44 L
140.859 199.413 L
144.749 194.759 L
148.639 190.251 L
152.528 185.884 L
156.418 181.656 L
160.307 177.562 L
164.197 173.601 L
168.087 169.769 L
171.976 166.064 L
175.866 162.482 L
179.755 159.02 L
183.645 155.677 L
187.534 152.448 L
191.424 149.331 L
195.314 146.323 L
199.203 143.421 L
203.093 140.622 L
206.982 137.924 L
210.872 135.323 L
214.761 132.817 L
218.651 130.402 L
222.541 128.075 L
226.43 125.835 L
230.32 123.677 L
234.209 121.6 L
238.099 119.598 L
241.988 117.624 L
245.878 115.652 L
249.768 113.683 L
253.657 111.719 L
257.547 109.76 L
261.436 107.806 L
265.326 105.859 L
269.216 103.92 L
273.105 101.989 L
276.995 100.067 L
280.884 98.156 L
284.774 96.255 L
288.663 94.365 L
292.553 92.489 L
296.443 90.625 L
300.332 88.776 L
304.222 86.941 L
308.111 85.122 L
312.001 83.321 L
315.89 81.536 L
319.78 79.77 L
323.67 78.023 L
327.559 76.295 L
331.449 74.589 L
335.338 72.904 L
339.228 71.241 L
343.117 69.602 L
347.007 67.987 L
350.897 66.397 L
354.786 64.832 L
358.676 63.294 L
362.565 61.784 L
366.455 60.301 L
370.345 58.848 L
374.234 57.425 L
378.124 56.032 L
382.013 54.671 L
385.903 53.342 L
389.792 52.047 L
393.682 50.785 L
397.572 49.558 L
401.461 48.367 L
405.351 47.213 L
409.24 46.095 L
413.13 45.016 L
417.019 43.976 L
420.909 42.976 L
424.799 42.016 L
428.688 41.098 L
432.578 40.223 L
436.467 39.39 L
440.357 38.601 L
444.247 37.857 L
448.136 37.159 L
452.026 36.507 L
455.915 35.902 L
459.805 35.346 L
463.694 34.838 L
467.584 34.381 L
471.474 33.973 L
475.363 33.618 L
479.253 33.314 L
483.142 33.064 L
487.032 32.867 L
490.921 32.725 L
494.811 32.639 L
498.701 32.609 L
S
GR
GS
0.929 0.694 0.125 RC
1 LJ
0.5 LW
N
73 374 M
76.89 356.912 L
80.779 340.373 L
84.669 324.823 L
88.558 310.7 L
92.448 298.443 L
96.337 287.989 L
100.227 278.17 L
104.117 268.895 L
108.006 260.15 L
111.896 251.92 L
115.785 244.189 L
119.675 236.943 L
123.565 230.166 L
127.454 223.844 L
131.344 217.96 L
135.233 212.501 L
139.123 207.398 L
143.012 202.449 L
146.902 197.634 L
150.792 192.953 L
154.681 188.405 L
158.571 183.99 L
162.46 179.706 L
166.35 175.554 L
170.239 171.531 L
174.129 167.639 L
178.019 163.875 L
181.908 160.239 L
185.798 156.731 L
189.687 153.35 L
193.577 150.095 L
197.466 146.965 L
201.356 143.96 L
205.246 141.079 L
209.135 138.322 L
213.025 135.687 L
216.914 133.173 L
220.804 130.781 L
224.694 128.51 L
228.583 126.35 L
232.473 124.216 L
236.362 122.089 L
240.252 119.968 L
244.141 117.855 L
248.031 115.75 L
251.921 113.655 L
255.81 111.57 L
259.7 109.497 L
263.589 107.435 L
267.479 105.386 L
271.368 103.352 L
275.258 101.332 L
279.148 99.328 L
283.037 97.34 L
286.927 95.37 L
290.816 93.418 L
294.706 91.486 L
298.595 89.574 L
302.485 87.682 L
306.375 85.813 L
310.264 83.967 L
314.154 82.144 L
318.043 80.346 L
321.933 78.573 L
325.823 76.827 L
329.712 75.108 L
333.602 73.417 L
337.491 71.756 L
341.381 70.124 L
345.27 68.523 L
349.16 66.954 L
353.05 65.418 L
356.939 63.916 L
360.829 62.447 L
364.718 61.015 L
368.608 59.618 L
372.497 58.258 L
376.387 56.937 L
380.277 55.655 L
384.166 54.412 L
388.056 53.21 L
391.945 52.05 L
395.835 50.932 L
399.724 49.858 L
403.614 48.827 L
407.504 47.843 L
411.393 46.904 L
415.283 46.012 L
419.172 45.168 L
423.062 44.373 L
426.952 43.627 L
430.841 42.932 L
434.731 42.289 L
438.62 41.698 L
442.51 41.16 L
446.399 40.676 L
450.289 40.247 L
454.179 39.875 L
458.068 39.559 L
461.958 39.3 L
465.847 39.101 L
469.737 38.961 L
473.626 38.881 L
S
GR
GS
0.494 0.184 0.557 RC
1 LJ
0.5 LW
N
75.257 359.249 M
79.146 343.584 L
83.036 328.371 L
86.926 313.941 L
90.815 300.625 L
94.705 288.753 L
98.594 278.624 L
102.484 269.446 L
106.374 260.745 L
110.263 252.509 L
114.153 244.726 L
118.042 237.384 L
121.932 230.468 L
125.821 223.967 L
129.711 217.868 L
133.601 212.16 L
137.49 206.828 L
141.38 201.86 L
145.269 197.214 L
149.159 192.71 L
153.048 188.322 L
156.938 184.048 L
160.828 179.888 L
164.717 175.84 L
168.607 171.904 L
172.496 168.08 L
176.386 164.365 L
180.275 160.76 L
184.165 157.264 L
188.055 153.876 L
191.944 150.594 L
195.834 147.419 L
199.723 144.349 L
203.613 141.384 L
207.503 138.522 L
211.392 135.764 L
215.282 133.107 L
219.171 130.552 L
223.061 128.097 L
226.95 125.742 L
230.84 123.486 L
234.73 121.328 L
238.619 119.267 L
242.509 117.297 L
246.398 115.35 L
250.288 113.409 L
254.177 111.471 L
258.067 109.54 L
261.957 107.616 L
265.846 105.698 L
269.736 103.788 L
273.625 101.887 L
277.515 99.995 L
281.405 98.114 L
285.294 96.243 L
289.184 94.384 L
293.073 92.537 L
296.963 90.704 L
300.852 88.884 L
304.742 87.078 L
308.632 85.288 L
312.521 83.514 L
316.411 81.757 L
320.3 80.017 L
324.19 78.296 L
328.079 76.593 L
331.969 74.91 L
335.859 73.248 L
339.748 71.607 L
343.638 69.987 L
347.527 68.391 L
351.417 66.817 L
355.306 65.268 L
359.196 63.743 L
363.086 62.245 L
366.975 60.772 L
370.865 59.327 L
374.754 57.909 L
378.644 56.52 L
382.534 55.16 L
386.423 53.83 L
390.313 52.531 L
394.202 51.263 L
398.092 50.028 L
401.981 48.825 L
405.871 47.656 L
409.761 46.522 L
413.65 45.423 L
417.54 44.359 L
421.429 43.333 L
425.319 42.343 L
429.208 41.392 L
433.098 40.48 L
436.988 39.607 L
440.877 38.774 L
444.767 37.983 L
448.656 37.233 L
452.546 36.526 L
456.436 35.862 L
460.325 35.241 L
464.215 34.666 L
468.104 34.136 L
471.994 33.653 L
475.883 33.216 L
479.773 32.827 L
483.663 32.486 L
487.552 32.195 L
491.442 31.953 L
495.331 31.762 L
499.221 31.622 L
503.11 31.535 L
507 31.5 L
S
GR
GS
0.467 0.675 0.188 RC
[10 6] 0 setdash
2 LJ
0.5 LW
N
73.382 371.785 M
77.271 355.071 L
81.161 338.89 L
85.05 323.598 L
88.94 309.545 L
92.83 297.084 L
96.719 286.271 L
100.609 276.043 L
104.498 266.283 L
108.388 257.006 L
112.277 248.229 L
116.167 239.965 L
120.057 232.232 L
123.946 225.045 L
127.836 218.42 L
131.725 212.372 L
135.615 206.916 L
139.504 201.924 L
143.394 197.103 L
147.284 192.442 L
151.173 187.938 L
155.063 183.587 L
158.952 179.385 L
162.842 175.329 L
166.732 171.415 L
170.621 167.641 L
174.511 164.001 L
178.4 160.493 L
182.29 157.114 L
186.179 153.859 L
190.069 150.725 L
193.959 147.709 L
197.848 144.807 L
201.738 142.015 L
205.627 139.331 L
209.517 136.75 L
213.406 134.269 L
217.296 131.884 L
221.186 129.592 L
225.075 127.389 L
228.965 125.268 L
232.854 123.167 L
236.744 121.07 L
240.633 118.976 L
244.523 116.888 L
248.413 114.806 L
252.302 112.731 L
256.192 110.664 L
260.081 108.606 L
263.971 106.558 L
267.861 104.522 L
271.75 102.497 L
275.64 100.485 L
279.529 98.488 L
283.419 96.505 L
287.308 94.538 L
291.198 92.589 L
295.088 90.657 L
298.977 88.744 L
302.867 86.851 L
306.756 84.979 L
310.646 83.129 L
314.535 81.302 L
318.425 79.499 L
322.315 77.72 L
326.204 75.967 L
330.094 74.241 L
333.983 72.543 L
337.873 70.874 L
341.762 69.235 L
345.652 67.626 L
349.542 66.049 L
353.431 64.504 L
357.321 62.994 L
361.21 61.518 L
365.1 60.077 L
368.99 58.674 L
372.879 57.308 L
376.769 55.981 L
380.658 54.693 L
384.548 53.445 L
388.437 52.24 L
392.327 51.077 L
396.217 49.958 L
400.106 48.883 L
403.996 47.853 L
407.885 46.87 L
411.775 45.935 L
415.664 45.048 L
419.554 44.211 L
423.444 43.424 L
427.333 42.688 L
431.223 42.005 L
435.112 41.375 L
439.002 40.8 L
442.892 40.28 L
446.781 39.816 L
450.671 39.41 L
454.56 39.062 L
458.45 38.773 L
462.339 38.544 L
466.229 38.377 L
470.119 38.272 L
474.008 38.231 L
S
GR
GS
0.302 0.745 0.933 RC
[10 6] 0 setdash
2 LJ
0.5 LW
N
73.176 372.365 M
77.066 355.642 L
80.955 339.445 L
84.845 324.156 L
88.734 310.159 L
92.624 297.837 L
96.513 287.23 L
100.403 277.234 L
104.293 267.728 L
108.182 258.715 L
112.072 250.198 L
115.961 242.179 L
119.851 234.66 L
123.74 227.645 L
127.63 221.136 L
131.52 215.135 L
135.409 209.646 L
139.299 204.615 L
143.188 199.775 L
147.078 195.084 L
150.967 190.541 L
154.857 186.144 L
158.747 181.888 L
162.636 177.772 L
166.526 173.793 L
170.415 169.948 L
174.305 166.235 L
178.195 162.651 L
182.084 159.193 L
185.974 155.859 L
189.863 152.646 L
193.753 149.551 L
197.642 146.572 L
201.532 143.707 L
205.422 140.951 L
209.311 138.304 L
213.201 135.762 L
217.09 133.322 L
220.98 130.982 L
224.869 128.739 L
228.759 126.59 L
232.649 124.481 L
236.538 122.374 L
240.428 120.272 L
244.317 118.176 L
248.207 116.085 L
252.096 114.002 L
255.986 111.927 L
259.876 109.861 L
263.765 107.804 L
267.655 105.759 L
271.544 103.726 L
275.434 101.706 L
279.324 99.699 L
283.213 97.708 L
287.103 95.731 L
290.992 93.772 L
294.882 91.83 L
298.771 89.907 L
302.661 88.004 L
306.551 86.121 L
310.44 84.259 L
314.33 82.42 L
318.219 80.604 L
322.109 78.813 L
325.998 77.046 L
329.888 75.306 L
333.778 73.593 L
337.667 71.909 L
341.557 70.253 L
345.446 68.627 L
349.336 67.033 L
353.225 65.47 L
357.115 63.94 L
361.005 62.444 L
364.894 60.983 L
368.784 59.558 L
372.673 58.169 L
376.563 56.818 L
380.453 55.505 L
384.342 54.232 L
388.232 53 L
392.121 51.809 L
396.011 50.661 L
399.9 49.555 L
403.79 48.495 L
407.68 47.479 L
411.569 46.51 L
415.459 45.588 L
419.348 44.714 L
423.238 43.889 L
427.127 43.114 L
431.017 42.39 L
434.907 41.718 L
438.796 41.099 L
442.686 40.534 L
446.575 40.024 L
450.465 39.569 L
454.354 39.172 L
458.244 38.831 L
462.134 38.55 L
466.023 38.328 L
469.913 38.167 L
473.802 38.067 L
477.692 38.029 L
S
GR
GS
0.635 0.078 0.184 RC
[10 6] 0 setdash
2 LJ
0.5 LW
N
73.826 368.913 M
77.716 351.821 L
81.605 335.268 L
85.495 319.669 L
89.384 305.441 L
93.274 293.004 L
97.164 282.537 L
101.053 272.856 L
104.943 263.719 L
108.832 255.111 L
112.722 247.017 L
116.611 239.42 L
120.501 232.305 L
124.391 225.657 L
128.28 219.46 L
132.17 213.699 L
136.059 208.358 L
139.949 203.411 L
143.839 198.663 L
147.728 194.048 L
151.618 189.564 L
155.507 185.21 L
159.397 180.984 L
163.286 176.885 L
167.176 172.911 L
171.066 169.061 L
174.955 165.332 L
178.845 161.724 L
182.734 158.235 L
186.624 154.863 L
190.513 151.606 L
194.403 148.464 L
198.293 145.434 L
202.182 142.515 L
206.072 139.706 L
209.961 137.005 L
213.851 134.41 L
217.741 131.919 L
221.63 129.532 L
225.52 127.246 L
229.409 125.061 L
233.299 122.973 L
237.188 120.925 L
241.078 118.881 L
244.968 116.842 L
248.857 114.808 L
252.747 112.781 L
256.636 110.76 L
260.526 108.749 L
264.415 106.746 L
268.305 104.753 L
272.195 102.771 L
276.084 100.8 L
279.974 98.842 L
283.863 96.897 L
287.753 94.967 L
291.642 93.051 L
295.532 91.151 L
299.422 89.268 L
303.311 87.403 L
307.201 85.556 L
311.09 83.728 L
314.98 81.92 L
318.87 80.134 L
322.759 78.369 L
326.649 76.627 L
330.538 74.909 L
334.428 73.215 L
338.317 71.546 L
342.207 69.904 L
346.097 68.288 L
349.986 66.701 L
353.876 65.142 L
357.765 63.612 L
361.655 62.113 L
365.544 60.646 L
369.434 59.21 L
373.324 57.807 L
377.213 56.439 L
381.103 55.105 L
384.992 53.806 L
388.882 52.544 L
392.771 51.319 L
396.661 50.133 L
400.551 48.985 L
404.44 47.877 L
408.33 46.81 L
412.219 45.785 L
416.109 44.802 L
419.999 43.862 L
423.888 42.966 L
427.778 42.115 L
431.667 41.31 L
435.557 40.552 L
439.446 39.841 L
443.336 39.179 L
447.226 38.566 L
451.115 38.003 L
455.005 37.491 L
458.894 37.031 L
462.784 36.623 L
466.673 36.269 L
470.563 35.97 L
474.453 35.726 L
478.342 35.537 L
482.232 35.406 L
486.121 35.333 L
S
GR
GS
1 GC
N
499 366 M
499 250.5 L
344.5 250.5 L
344.5 366 L
cp
f
GR
GS
[1 0 0 1 381.5 260.25] CT
/Helvetica 13 F
GS
[1 0 0 1 0 0] CT
0 5 moveto 
1 -1 scale
(Base Run) t 
GR
GR
GS
0 0.447 0.741 RC
1 LJ
0.5 LW
N
348.5 260.25 M
378.5 260.25 L
S
GR
GS
[1 0 0 1 381.5 276.25] CT
/Helvetica 13 F
GS
[1 0 0 1 0 0] CT
0 5 moveto 
1 -1 scale
(I & B Frames) t 
GR
GR
GS
0.851 0.325 0.098 RC
1 LJ
0.5 LW
N
348.5 276.25 M
378.5 276.25 L
S
GR
GS
[1 0 0 1 381.5 292.25] CT
/Helvetica 13 F
GS
[1 0 0 1 0 0] CT
0 5 moveto 
1 -1 scale
(I Frames Only) t 
GR
GR
GS
0.929 0.694 0.125 RC
1 LJ
0.5 LW
N
348.5 292.25 M
378.5 292.25 L
S
GR
GS
[1 0 0 1 381.5 308.25] CT
/Helvetica 13 F
GS
[1 0 0 1 0 0] CT
0 5 moveto 
1 -1 scale
(B Frames Only) t 
GR
GR
GS
0.494 0.184 0.557 RC
1 LJ
0.5 LW
N
348.5 308.25 M
378.5 308.25 L
S
GR
GS
[1 0 0 1 381.5 324.25] CT
/Helvetica 13 F
GS
[1 0 0 1 0 0] CT
0 5 moveto 
1 -1 scale
(Part I & B Frames) t 
GR
GR
GS
0.467 0.675 0.188 RC
[10 6] 0 setdash
2 LJ
0.5 LW
N
348.5 324.25 M
378.5 324.25 L
S
GR
GS
[1 0 0 1 381.5 340.25] CT
/Helvetica 13 F
GS
[1 0 0 1 0 0] CT
0 5 moveto 
1 -1 scale
(Part I Frames Only) t 
GR
GR
GS
0.302 0.745 0.933 RC
[10 6] 0 setdash
2 LJ
0.5 LW
N
348.5 340.25 M
378.5 340.25 L
S
GR
GS
[1 0 0 1 381.5 356.25] CT
/Helvetica 13 F
GS
[1 0 0 1 0 0] CT
0 5 moveto 
1 -1 scale
(Part B Frames Only) t 
GR
GR
GS
0.635 0.078 0.184 RC
[10 6] 0 setdash
2 LJ
0.5 LW
N
348.5 356.25 M
378.5 356.25 L
S
GR
GS
0.149 GC
10.0 ML
0.5 LW
N
344.5 366 M
344.5 250.5 L
499 250.5 L
499 366 L
cp
S
GR
%%Trailer
%%Pages: 1
%%EOF
