%!PS-Adobe-3.0 EPSF-3.0
%%Creator: (MATLAB, The Mathworks, Inc. Version 9.11.0.1837725 \(R2021b\) Update 2. Operating System: Mac OS X)
%%Title: plots/pchip/Skater227_1920x1080_30fps.y4m-av1-APSNRU.eps
%%CreationDate: 2022-02-03T19:13:37
%%Pages: (atend)
%%BoundingBox:    33   425   521   826
%%LanguageLevel: 3
%%EndComments
%%BeginProlog
%%BeginResource: procset (Apache XML Graphics Std ProcSet) 1.2 0
%%Version: 1.2 0
%%Copyright: (Copyright 2001-2003,2010 The Apache Software Foundation. License terms: http://www.apache.org/licenses/LICENSE-2.0)
/bd{bind def}bind def
/ld{load def}bd
/GR/grestore ld
/GS/gsave ld
/RM/rmoveto ld
/C/curveto ld
/t/show ld
/L/lineto ld
/ML/setmiterlimit ld
/CT/concat ld
/f/fill ld
/N/newpath ld
/S/stroke ld
/CC/setcmykcolor ld
/A/ashow ld
/cp/closepath ld
/RC/setrgbcolor ld
/LJ/setlinejoin ld
/GC/setgray ld
/LW/setlinewidth ld
/M/moveto ld
/re {4 2 roll M
1 index 0 rlineto
0 exch rlineto
neg 0 rlineto
cp } bd
/_ctm matrix def
/_tm matrix def
/BT { _ctm currentmatrix pop matrix _tm copy pop 0 0 moveto } bd
/ET { _ctm setmatrix } bd
/iTm { _ctm setmatrix _tm concat } bd
/Tm { _tm astore pop iTm 0 0 moveto } bd
/ux 0.0 def
/uy 0.0 def
/F {
  /Tp exch def
  /Tf exch def
  Tf findfont Tp scalefont setfont
  /cf Tf def  /cs Tp def
} bd
/ULS {currentpoint /uy exch def /ux exch def} bd
/ULE {
  /Tcx currentpoint pop def
  gsave
  newpath
  cf findfont cs scalefont dup
  /FontMatrix get 0 get /Ts exch def /FontInfo get dup
  /UnderlinePosition get Ts mul /To exch def
  /UnderlineThickness get Ts mul /Tt exch def
  ux uy To add moveto  Tcx uy To add lineto
  Tt setlinewidth stroke
  grestore
} bd
/OLE {
  /Tcx currentpoint pop def
  gsave
  newpath
  cf findfont cs scalefont dup
  /FontMatrix get 0 get /Ts exch def /FontInfo get dup
  /UnderlinePosition get Ts mul /To exch def
  /UnderlineThickness get Ts mul /Tt exch def
  ux uy To add cs add moveto Tcx uy To add cs add lineto
  Tt setlinewidth stroke
  grestore
} bd
/SOE {
  /Tcx currentpoint pop def
  gsave
  newpath
  cf findfont cs scalefont dup
  /FontMatrix get 0 get /Ts exch def /FontInfo get dup
  /UnderlinePosition get Ts mul /To exch def
  /UnderlineThickness get Ts mul /Tt exch def
  ux uy To add cs 10 mul 26 idiv add moveto Tcx uy To add cs 10 mul 26 idiv add lineto
  Tt setlinewidth stroke
  grestore
} bd
/QT {
/Y22 exch store
/X22 exch store
/Y21 exch store
/X21 exch store
currentpoint
/Y21 load 2 mul add 3 div exch
/X21 load 2 mul add 3 div exch
/X21 load 2 mul /X22 load add 3 div
/Y21 load 2 mul /Y22 load add 3 div
/X22 load /Y22 load curveto
} bd
/SSPD {
dup length /d exch dict def
{
/v exch def
/k exch def
currentpagedevice k known {
/cpdv currentpagedevice k get def
v cpdv ne {
/upd false def
/nullv v type /nulltype eq def
/nullcpdv cpdv type /nulltype eq def
nullv nullcpdv or
{
/upd true def
} {
/sametype v type cpdv type eq def
sametype {
v type /arraytype eq {
/vlen v length def
/cpdvlen cpdv length def
vlen cpdvlen eq {
0 1 vlen 1 sub {
/i exch def
/obj v i get def
/cpdobj cpdv i get def
obj cpdobj ne {
/upd true def
exit
} if
} for
} {
/upd true def
} ifelse
} {
v type /dicttype eq {
v {
/dv exch def
/dk exch def
/cpddv cpdv dk get def
dv cpddv ne {
/upd true def
exit
} if
} forall
} {
/upd true def
} ifelse
} ifelse
} if
} ifelse
upd true eq {
d k v put
} if
} if
} if
} forall
d length 0 gt {
d setpagedevice
} if
} bd
/RE { % /NewFontName [NewEncodingArray] /FontName RE -
  findfont dup length dict begin
  {
    1 index /FID ne
    {def} {pop pop} ifelse
  } forall
  /Encoding exch def
  /FontName 1 index def
  currentdict definefont pop
  end
} bind def
%%EndResource
%%BeginResource: procset (Apache XML Graphics EPS ProcSet) 1.0 0
%%Version: 1.0 0
%%Copyright: (Copyright 2002-2003 The Apache Software Foundation. License terms: http://www.apache.org/licenses/LICENSE-2.0)
/BeginEPSF { %def
/b4_Inc_state save def         % Save state for cleanup
/dict_count countdictstack def % Count objects on dict stack
/op_count count 1 sub def      % Count objects on operand stack
userdict begin                 % Push userdict on dict stack
/showpage { } def              % Redefine showpage, { } = null proc
0 setgray 0 setlinecap         % Prepare graphics state
1 setlinewidth 0 setlinejoin
10 setmiterlimit [ ] 0 setdash newpath
/languagelevel where           % If level not equal to 1 then
{pop languagelevel             % set strokeadjust and
1 ne                           % overprint to their defaults.
{false setstrokeadjust false setoverprint
} if
} if
} bd
/EndEPSF { %def
count op_count sub {pop} repeat            % Clean up stacks
countdictstack dict_count sub {end} repeat
b4_Inc_state restore
} bd
%%EndResource
%FOPBeginFontDict
%%IncludeResource: font Courier-Oblique
%%IncludeResource: font Courier-BoldOblique
%%IncludeResource: font Courier-Bold
%%IncludeResource: font ZapfDingbats
%%IncludeResource: font Symbol
%%IncludeResource: font Helvetica
%%IncludeResource: font Helvetica-Oblique
%%IncludeResource: font Helvetica-Bold
%%IncludeResource: font Helvetica-BoldOblique
%%IncludeResource: font Times-Roman
%%IncludeResource: font Times-Italic
%%IncludeResource: font Times-Bold
%%IncludeResource: font Times-BoldItalic
%%IncludeResource: font Courier
%FOPEndFontDict
%%BeginResource: encoding WinAnsiEncoding
/WinAnsiEncoding [
/.notdef /.notdef /.notdef /.notdef /.notdef
/.notdef /.notdef /.notdef /.notdef /.notdef
/.notdef /.notdef /.notdef /.notdef /.notdef
/.notdef /.notdef /.notdef /.notdef /.notdef
/.notdef /.notdef /.notdef /.notdef /.notdef
/.notdef /.notdef /.notdef /.notdef /.notdef
/.notdef /.notdef /space /exclam /quotedbl
/numbersign /dollar /percent /ampersand /quotesingle
/parenleft /parenright /asterisk /plus /comma
/hyphen /period /slash /zero /one
/two /three /four /five /six
/seven /eight /nine /colon /semicolon
/less /equal /greater /question /at
/A /B /C /D /E
/F /G /H /I /J
/K /L /M /N /O
/P /Q /R /S /T
/U /V /W /X /Y
/Z /bracketleft /backslash /bracketright /asciicircum
/underscore /quoteleft /a /b /c
/d /e /f /g /h
/i /j /k /l /m
/n /o /p /q /r
/s /t /u /v /w
/x /y /z /braceleft /bar
/braceright /asciitilde /bullet /Euro /bullet
/quotesinglbase /florin /quotedblbase /ellipsis /dagger
/daggerdbl /circumflex /perthousand /Scaron /guilsinglleft
/OE /bullet /Zcaron /bullet /bullet
/quoteleft /quoteright /quotedblleft /quotedblright /bullet
/endash /emdash /asciitilde /trademark /scaron
/guilsinglright /oe /bullet /zcaron /Ydieresis
/space /exclamdown /cent /sterling /currency
/yen /brokenbar /section /dieresis /copyright
/ordfeminine /guillemotleft /logicalnot /sfthyphen /registered
/macron /degree /plusminus /twosuperior /threesuperior
/acute /mu /paragraph /middot /cedilla
/onesuperior /ordmasculine /guillemotright /onequarter /onehalf
/threequarters /questiondown /Agrave /Aacute /Acircumflex
/Atilde /Adieresis /Aring /AE /Ccedilla
/Egrave /Eacute /Ecircumflex /Edieresis /Igrave
/Iacute /Icircumflex /Idieresis /Eth /Ntilde
/Ograve /Oacute /Ocircumflex /Otilde /Odieresis
/multiply /Oslash /Ugrave /Uacute /Ucircumflex
/Udieresis /Yacute /Thorn /germandbls /agrave
/aacute /acircumflex /atilde /adieresis /aring
/ae /ccedilla /egrave /eacute /ecircumflex
/edieresis /igrave /iacute /icircumflex /idieresis
/eth /ntilde /ograve /oacute /ocircumflex
/otilde /odieresis /divide /oslash /ugrave
/uacute /ucircumflex /udieresis /yacute /thorn
/ydieresis
] def
%%EndResource
%FOPBeginFontReencode
/Courier-Oblique findfont
dup length dict begin
  {1 index /FID ne {def} {pop pop} ifelse} forall
  /Encoding WinAnsiEncoding def
  currentdict
end
/Courier-Oblique exch definefont pop
/Courier-BoldOblique findfont
dup length dict begin
  {1 index /FID ne {def} {pop pop} ifelse} forall
  /Encoding WinAnsiEncoding def
  currentdict
end
/Courier-BoldOblique exch definefont pop
/Courier-Bold findfont
dup length dict begin
  {1 index /FID ne {def} {pop pop} ifelse} forall
  /Encoding WinAnsiEncoding def
  currentdict
end
/Courier-Bold exch definefont pop
/Helvetica findfont
dup length dict begin
  {1 index /FID ne {def} {pop pop} ifelse} forall
  /Encoding WinAnsiEncoding def
  currentdict
end
/Helvetica exch definefont pop
/Helvetica-Oblique findfont
dup length dict begin
  {1 index /FID ne {def} {pop pop} ifelse} forall
  /Encoding WinAnsiEncoding def
  currentdict
end
/Helvetica-Oblique exch definefont pop
/Helvetica-Bold findfont
dup length dict begin
  {1 index /FID ne {def} {pop pop} ifelse} forall
  /Encoding WinAnsiEncoding def
  currentdict
end
/Helvetica-Bold exch definefont pop
/Helvetica-BoldOblique findfont
dup length dict begin
  {1 index /FID ne {def} {pop pop} ifelse} forall
  /Encoding WinAnsiEncoding def
  currentdict
end
/Helvetica-BoldOblique exch definefont pop
/Times-Roman findfont
dup length dict begin
  {1 index /FID ne {def} {pop pop} ifelse} forall
  /Encoding WinAnsiEncoding def
  currentdict
end
/Times-Roman exch definefont pop
/Times-Italic findfont
dup length dict begin
  {1 index /FID ne {def} {pop pop} ifelse} forall
  /Encoding WinAnsiEncoding def
  currentdict
end
/Times-Italic exch definefont pop
/Times-Bold findfont
dup length dict begin
  {1 index /FID ne {def} {pop pop} ifelse} forall
  /Encoding WinAnsiEncoding def
  currentdict
end
/Times-Bold exch definefont pop
/Times-BoldItalic findfont
dup length dict begin
  {1 index /FID ne {def} {pop pop} ifelse} forall
  /Encoding WinAnsiEncoding def
  currentdict
end
/Times-BoldItalic exch definefont pop
/Courier findfont
dup length dict begin
  {1 index /FID ne {def} {pop pop} ifelse} forall
  /Encoding WinAnsiEncoding def
  currentdict
end
/Courier exch definefont pop
%FOPEndFontReencode
%%EndProlog
%%Page: 1 1
%%PageBoundingBox: 0 0 1120 840
%%BeginPageSetup
[1 0 0 -1 0 840] CT
%%EndPageSetup
GS
1 GC
N
0 0 1120 840 re
f
GR
GS
1 GC
N
73 374 M
507 374 L
507 31.5 L
73 31.5 L
cp
f
GR
GS
0.149 GC
2 setlinecap
1 LJ
0.5 LW
N
73 374 M
507 374 L
S
GR
GS
0.149 GC
2 setlinecap
1 LJ
0.5 LW
N
73 31.5 M
507 31.5 L
S
GR
GS
0.149 GC
2 setlinecap
1 LJ
0.5 LW
N
134.976 374 M
134.976 369.66 L
S
GR
GS
0.149 GC
2 setlinecap
1 LJ
0.5 LW
N
227.53 374 M
227.53 369.66 L
S
GR
GS
0.149 GC
2 setlinecap
1 LJ
0.5 LW
N
320.084 374 M
320.084 369.66 L
S
GR
GS
0.149 GC
2 setlinecap
1 LJ
0.5 LW
N
412.638 374 M
412.638 369.66 L
S
GR
GS
0.149 GC
2 setlinecap
1 LJ
0.5 LW
N
505.192 374 M
505.192 369.66 L
S
GR
GS
0.149 GC
2 setlinecap
1 LJ
0.5 LW
N
134.976 31.5 M
134.976 35.84 L
S
GR
GS
0.149 GC
2 setlinecap
1 LJ
0.5 LW
N
227.53 31.5 M
227.53 35.84 L
S
GR
GS
0.149 GC
2 setlinecap
1 LJ
0.5 LW
N
320.084 31.5 M
320.084 35.84 L
S
GR
GS
0.149 GC
2 setlinecap
1 LJ
0.5 LW
N
412.638 31.5 M
412.638 35.84 L
S
GR
GS
0.149 GC
2 setlinecap
1 LJ
0.5 LW
N
505.192 31.5 M
505.192 35.84 L
S
GR
GS
0.149 GC
2 setlinecap
1 LJ
0.5 LW
N
79.444 374 M
79.444 371.83 L
S
GR
GS
0.149 GC
2 setlinecap
1 LJ
0.5 LW
N
97.955 374 M
97.955 371.83 L
S
GR
GS
0.149 GC
2 setlinecap
1 LJ
0.5 LW
N
116.465 374 M
116.465 371.83 L
S
GR
GS
0.149 GC
2 setlinecap
1 LJ
0.5 LW
N
153.487 374 M
153.487 371.83 L
S
GR
GS
0.149 GC
2 setlinecap
1 LJ
0.5 LW
N
171.998 374 M
171.998 371.83 L
S
GR
GS
0.149 GC
2 setlinecap
1 LJ
0.5 LW
N
190.509 374 M
190.509 371.83 L
S
GR
GS
0.149 GC
2 setlinecap
1 LJ
0.5 LW
N
209.019 374 M
209.019 371.83 L
S
GR
GS
0.149 GC
2 setlinecap
1 LJ
0.5 LW
N
246.041 374 M
246.041 371.83 L
S
GR
GS
0.149 GC
2 setlinecap
1 LJ
0.5 LW
N
264.552 374 M
264.552 371.83 L
S
GR
GS
0.149 GC
2 setlinecap
1 LJ
0.5 LW
N
283.063 374 M
283.063 371.83 L
S
GR
GS
0.149 GC
2 setlinecap
1 LJ
0.5 LW
N
301.573 374 M
301.573 371.83 L
S
GR
GS
0.149 GC
2 setlinecap
1 LJ
0.5 LW
N
338.595 374 M
338.595 371.83 L
S
GR
GS
0.149 GC
2 setlinecap
1 LJ
0.5 LW
N
357.106 374 M
357.106 371.83 L
S
GR
GS
0.149 GC
2 setlinecap
1 LJ
0.5 LW
N
375.616 374 M
375.616 371.83 L
S
GR
GS
0.149 GC
2 setlinecap
1 LJ
0.5 LW
N
394.127 374 M
394.127 371.83 L
S
GR
GS
0.149 GC
2 setlinecap
1 LJ
0.5 LW
N
431.149 374 M
431.149 371.83 L
S
GR
GS
0.149 GC
2 setlinecap
1 LJ
0.5 LW
N
449.66 374 M
449.66 371.83 L
S
GR
GS
0.149 GC
2 setlinecap
1 LJ
0.5 LW
N
468.17 374 M
468.17 371.83 L
S
GR
GS
0.149 GC
2 setlinecap
1 LJ
0.5 LW
N
486.681 374 M
486.681 371.83 L
S
GR
GS
0.149 GC
2 setlinecap
1 LJ
0.5 LW
N
79.444 31.5 M
79.444 33.67 L
S
GR
GS
0.149 GC
2 setlinecap
1 LJ
0.5 LW
N
97.955 31.5 M
97.955 33.67 L
S
GR
GS
0.149 GC
2 setlinecap
1 LJ
0.5 LW
N
116.465 31.5 M
116.465 33.67 L
S
GR
GS
0.149 GC
2 setlinecap
1 LJ
0.5 LW
N
153.487 31.5 M
153.487 33.67 L
S
GR
GS
0.149 GC
2 setlinecap
1 LJ
0.5 LW
N
171.998 31.5 M
171.998 33.67 L
S
GR
GS
0.149 GC
2 setlinecap
1 LJ
0.5 LW
N
190.509 31.5 M
190.509 33.67 L
S
GR
GS
0.149 GC
2 setlinecap
1 LJ
0.5 LW
N
209.019 31.5 M
209.019 33.67 L
S
GR
GS
0.149 GC
2 setlinecap
1 LJ
0.5 LW
N
246.041 31.5 M
246.041 33.67 L
S
GR
GS
0.149 GC
2 setlinecap
1 LJ
0.5 LW
N
264.552 31.5 M
264.552 33.67 L
S
GR
GS
0.149 GC
2 setlinecap
1 LJ
0.5 LW
N
283.063 31.5 M
283.063 33.67 L
S
GR
GS
0.149 GC
2 setlinecap
1 LJ
0.5 LW
N
301.573 31.5 M
301.573 33.67 L
S
GR
GS
0.149 GC
2 setlinecap
1 LJ
0.5 LW
N
338.595 31.5 M
338.595 33.67 L
S
GR
GS
0.149 GC
2 setlinecap
1 LJ
0.5 LW
N
357.106 31.5 M
357.106 33.67 L
S
GR
GS
0.149 GC
2 setlinecap
1 LJ
0.5 LW
N
375.616 31.5 M
375.616 33.67 L
S
GR
GS
0.149 GC
2 setlinecap
1 LJ
0.5 LW
N
394.127 31.5 M
394.127 33.67 L
S
GR
GS
0.149 GC
2 setlinecap
1 LJ
0.5 LW
N
431.149 31.5 M
431.149 33.67 L
S
GR
GS
0.149 GC
2 setlinecap
1 LJ
0.5 LW
N
449.66 31.5 M
449.66 33.67 L
S
GR
GS
0.149 GC
2 setlinecap
1 LJ
0.5 LW
N
468.17 31.5 M
468.17 33.67 L
S
GR
GS
0.149 GC
2 setlinecap
1 LJ
0.5 LW
N
486.681 31.5 M
486.681 33.67 L
S
GR
GS
[1 0 0 1 134.97626 378.7999] CT
0.149 GC
/Helvetica 14 F
GS
[1 0 0 1 0 0] CT
-12 14 moveto 
1 -1 scale
(500) t 
GR
GR
GS
[1 0 0 1 227.53017 378.7999] CT
0.149 GC
/Helvetica 14 F
GS
[1 0 0 1 0 0] CT
-16 14 moveto 
1 -1 scale
(1000) t 
GR
GR
GS
[1 0 0 1 320.08408 378.7999] CT
0.149 GC
/Helvetica 14 F
GS
[1 0 0 1 0 0] CT
-16 14 moveto 
1 -1 scale
(1500) t 
GR
GR
GS
[1 0 0 1 412.63797 378.7999] CT
0.149 GC
/Helvetica 14 F
GS
[1 0 0 1 0 0] CT
-16 14 moveto 
1 -1 scale
(2000) t 
GR
GR
GS
[1 0 0 1 505.19186 378.7999] CT
0.149 GC
/Helvetica 14 F
GS
[1 0 0 1 0 0] CT
-16 14 moveto 
1 -1 scale
(2500) t 
GR
GR
GS
[1 0 0 1 290.00021 396.29996] CT
0.149 GC
/Helvetica 15.4 F
GS
[1 0 0 1 0 0] CT
-42 15 moveto 
1 -1 scale
(Bitrate\(kb/s\)) t 
GR
GR
GS
0.149 GC
2 setlinecap
1 LJ
0.5 LW
N
73 374 M
73 31.5 L
S
GR
GS
0.149 GC
2 setlinecap
1 LJ
0.5 LW
N
507 374 M
507 31.5 L
S
GR
GS
0.149 GC
2 setlinecap
1 LJ
0.5 LW
N
73 344.833 M
77.34 344.833 L
S
GR
GS
0.149 GC
2 setlinecap
1 LJ
0.5 LW
N
73 306.926 M
77.34 306.926 L
S
GR
GS
0.149 GC
2 setlinecap
1 LJ
0.5 LW
N
73 269.019 M
77.34 269.019 L
S
GR
GS
0.149 GC
2 setlinecap
1 LJ
0.5 LW
N
73 231.113 M
77.34 231.113 L
S
GR
GS
0.149 GC
2 setlinecap
1 LJ
0.5 LW
N
73 193.206 M
77.34 193.206 L
S
GR
GS
0.149 GC
2 setlinecap
1 LJ
0.5 LW
N
73 155.299 M
77.34 155.299 L
S
GR
GS
0.149 GC
2 setlinecap
1 LJ
0.5 LW
N
73 117.392 M
77.34 117.392 L
S
GR
GS
0.149 GC
2 setlinecap
1 LJ
0.5 LW
N
73 79.485 M
77.34 79.485 L
S
GR
GS
0.149 GC
2 setlinecap
1 LJ
0.5 LW
N
73 41.578 M
77.34 41.578 L
S
GR
GS
0.149 GC
2 setlinecap
1 LJ
0.5 LW
N
507 344.833 M
502.66 344.833 L
S
GR
GS
0.149 GC
2 setlinecap
1 LJ
0.5 LW
N
507 306.926 M
502.66 306.926 L
S
GR
GS
0.149 GC
2 setlinecap
1 LJ
0.5 LW
N
507 269.019 M
502.66 269.019 L
S
GR
GS
0.149 GC
2 setlinecap
1 LJ
0.5 LW
N
507 231.113 M
502.66 231.113 L
S
GR
GS
0.149 GC
2 setlinecap
1 LJ
0.5 LW
N
507 193.206 M
502.66 193.206 L
S
GR
GS
0.149 GC
2 setlinecap
1 LJ
0.5 LW
N
507 155.299 M
502.66 155.299 L
S
GR
GS
0.149 GC
2 setlinecap
1 LJ
0.5 LW
N
507 117.392 M
502.66 117.392 L
S
GR
GS
0.149 GC
2 setlinecap
1 LJ
0.5 LW
N
507 79.485 M
502.66 79.485 L
S
GR
GS
0.149 GC
2 setlinecap
1 LJ
0.5 LW
N
507 41.578 M
502.66 41.578 L
S
GR
GS
0.149 GC
2 setlinecap
1 LJ
0.5 LW
N
73 367.577 M
75.17 367.577 L
S
GR
GS
0.149 GC
2 setlinecap
1 LJ
0.5 LW
N
73 359.996 M
75.17 359.996 L
S
GR
GS
0.149 GC
2 setlinecap
1 LJ
0.5 LW
N
73 352.415 M
75.17 352.415 L
S
GR
GS
0.149 GC
2 setlinecap
1 LJ
0.5 LW
N
73 337.252 M
75.17 337.252 L
S
GR
GS
0.149 GC
2 setlinecap
1 LJ
0.5 LW
N
73 329.67 M
75.17 329.67 L
S
GR
GS
0.149 GC
2 setlinecap
1 LJ
0.5 LW
N
73 322.089 M
75.17 322.089 L
S
GR
GS
0.149 GC
2 setlinecap
1 LJ
0.5 LW
N
73 314.508 M
75.17 314.508 L
S
GR
GS
0.149 GC
2 setlinecap
1 LJ
0.5 LW
N
73 299.345 M
75.17 299.345 L
S
GR
GS
0.149 GC
2 setlinecap
1 LJ
0.5 LW
N
73 291.764 M
75.17 291.764 L
S
GR
GS
0.149 GC
2 setlinecap
1 LJ
0.5 LW
N
73 284.182 M
75.17 284.182 L
S
GR
GS
0.149 GC
2 setlinecap
1 LJ
0.5 LW
N
73 276.601 M
75.17 276.601 L
S
GR
GS
0.149 GC
2 setlinecap
1 LJ
0.5 LW
N
73 261.438 M
75.17 261.438 L
S
GR
GS
0.149 GC
2 setlinecap
1 LJ
0.5 LW
N
73 253.857 M
75.17 253.857 L
S
GR
GS
0.149 GC
2 setlinecap
1 LJ
0.5 LW
N
73 246.275 M
75.17 246.275 L
S
GR
GS
0.149 GC
2 setlinecap
1 LJ
0.5 LW
N
73 238.694 M
75.17 238.694 L
S
GR
GS
0.149 GC
2 setlinecap
1 LJ
0.5 LW
N
73 223.531 M
75.17 223.531 L
S
GR
GS
0.149 GC
2 setlinecap
1 LJ
0.5 LW
N
73 215.95 M
75.17 215.95 L
S
GR
GS
0.149 GC
2 setlinecap
1 LJ
0.5 LW
N
73 208.368 M
75.17 208.368 L
S
GR
GS
0.149 GC
2 setlinecap
1 LJ
0.5 LW
N
73 200.787 M
75.17 200.787 L
S
GR
GS
0.149 GC
2 setlinecap
1 LJ
0.5 LW
N
73 185.624 M
75.17 185.624 L
S
GR
GS
0.149 GC
2 setlinecap
1 LJ
0.5 LW
N
73 178.043 M
75.17 178.043 L
S
GR
GS
0.149 GC
2 setlinecap
1 LJ
0.5 LW
N
73 170.462 M
75.17 170.462 L
S
GR
GS
0.149 GC
2 setlinecap
1 LJ
0.5 LW
N
73 162.88 M
75.17 162.88 L
S
GR
GS
0.149 GC
2 setlinecap
1 LJ
0.5 LW
N
73 147.717 M
75.17 147.717 L
S
GR
GS
0.149 GC
2 setlinecap
1 LJ
0.5 LW
N
73 140.136 M
75.17 140.136 L
S
GR
GS
0.149 GC
2 setlinecap
1 LJ
0.5 LW
N
73 132.555 M
75.17 132.555 L
S
GR
GS
0.149 GC
2 setlinecap
1 LJ
0.5 LW
N
73 124.973 M
75.17 124.973 L
S
GR
GS
0.149 GC
2 setlinecap
1 LJ
0.5 LW
N
73 109.81 M
75.17 109.81 L
S
GR
GS
0.149 GC
2 setlinecap
1 LJ
0.5 LW
N
73 102.229 M
75.17 102.229 L
S
GR
GS
0.149 GC
2 setlinecap
1 LJ
0.5 LW
N
73 94.648 M
75.17 94.648 L
S
GR
GS
0.149 GC
2 setlinecap
1 LJ
0.5 LW
N
73 87.066 M
75.17 87.066 L
S
GR
GS
0.149 GC
2 setlinecap
1 LJ
0.5 LW
N
73 71.903 M
75.17 71.903 L
S
GR
GS
0.149 GC
2 setlinecap
1 LJ
0.5 LW
N
73 64.322 M
75.17 64.322 L
S
GR
GS
0.149 GC
2 setlinecap
1 LJ
0.5 LW
N
73 56.741 M
75.17 56.741 L
S
GR
GS
0.149 GC
2 setlinecap
1 LJ
0.5 LW
N
73 49.159 M
75.17 49.159 L
S
GR
GS
0.149 GC
2 setlinecap
1 LJ
0.5 LW
N
73 33.997 M
75.17 33.997 L
S
GR
GS
0.149 GC
2 setlinecap
1 LJ
0.5 LW
N
507 367.577 M
504.83 367.577 L
S
GR
GS
0.149 GC
2 setlinecap
1 LJ
0.5 LW
N
507 359.996 M
504.83 359.996 L
S
GR
GS
0.149 GC
2 setlinecap
1 LJ
0.5 LW
N
507 352.415 M
504.83 352.415 L
S
GR
GS
0.149 GC
2 setlinecap
1 LJ
0.5 LW
N
507 337.252 M
504.83 337.252 L
S
GR
GS
0.149 GC
2 setlinecap
1 LJ
0.5 LW
N
507 329.67 M
504.83 329.67 L
S
GR
GS
0.149 GC
2 setlinecap
1 LJ
0.5 LW
N
507 322.089 M
504.83 322.089 L
S
GR
GS
0.149 GC
2 setlinecap
1 LJ
0.5 LW
N
507 314.508 M
504.83 314.508 L
S
GR
GS
0.149 GC
2 setlinecap
1 LJ
0.5 LW
N
507 299.345 M
504.83 299.345 L
S
GR
GS
0.149 GC
2 setlinecap
1 LJ
0.5 LW
N
507 291.764 M
504.83 291.764 L
S
GR
GS
0.149 GC
2 setlinecap
1 LJ
0.5 LW
N
507 284.182 M
504.83 284.182 L
S
GR
GS
0.149 GC
2 setlinecap
1 LJ
0.5 LW
N
507 276.601 M
504.83 276.601 L
S
GR
GS
0.149 GC
2 setlinecap
1 LJ
0.5 LW
N
507 261.438 M
504.83 261.438 L
S
GR
GS
0.149 GC
2 setlinecap
1 LJ
0.5 LW
N
507 253.857 M
504.83 253.857 L
S
GR
GS
0.149 GC
2 setlinecap
1 LJ
0.5 LW
N
507 246.275 M
504.83 246.275 L
S
GR
GS
0.149 GC
2 setlinecap
1 LJ
0.5 LW
N
507 238.694 M
504.83 238.694 L
S
GR
GS
0.149 GC
2 setlinecap
1 LJ
0.5 LW
N
507 223.531 M
504.83 223.531 L
S
GR
GS
0.149 GC
2 setlinecap
1 LJ
0.5 LW
N
507 215.95 M
504.83 215.95 L
S
GR
GS
0.149 GC
2 setlinecap
1 LJ
0.5 LW
N
507 208.368 M
504.83 208.368 L
S
GR
GS
0.149 GC
2 setlinecap
1 LJ
0.5 LW
N
507 200.787 M
504.83 200.787 L
S
GR
GS
0.149 GC
2 setlinecap
1 LJ
0.5 LW
N
507 185.624 M
504.83 185.624 L
S
GR
GS
0.149 GC
2 setlinecap
1 LJ
0.5 LW
N
507 178.043 M
504.83 178.043 L
S
GR
GS
0.149 GC
2 setlinecap
1 LJ
0.5 LW
N
507 170.462 M
504.83 170.462 L
S
GR
GS
0.149 GC
2 setlinecap
1 LJ
0.5 LW
N
507 162.88 M
504.83 162.88 L
S
GR
GS
0.149 GC
2 setlinecap
1 LJ
0.5 LW
N
507 147.717 M
504.83 147.717 L
S
GR
GS
0.149 GC
2 setlinecap
1 LJ
0.5 LW
N
507 140.136 M
504.83 140.136 L
S
GR
GS
0.149 GC
2 setlinecap
1 LJ
0.5 LW
N
507 132.555 M
504.83 132.555 L
S
GR
GS
0.149 GC
2 setlinecap
1 LJ
0.5 LW
N
507 124.973 M
504.83 124.973 L
S
GR
GS
0.149 GC
2 setlinecap
1 LJ
0.5 LW
N
507 109.81 M
504.83 109.81 L
S
GR
GS
0.149 GC
2 setlinecap
1 LJ
0.5 LW
N
507 102.229 M
504.83 102.229 L
S
GR
GS
0.149 GC
2 setlinecap
1 LJ
0.5 LW
N
507 94.648 M
504.83 94.648 L
S
GR
GS
0.149 GC
2 setlinecap
1 LJ
0.5 LW
N
507 87.066 M
504.83 87.066 L
S
GR
GS
0.149 GC
2 setlinecap
1 LJ
0.5 LW
N
507 71.903 M
504.83 71.903 L
S
GR
GS
0.149 GC
2 setlinecap
1 LJ
0.5 LW
N
507 64.322 M
504.83 64.322 L
S
GR
GS
0.149 GC
2 setlinecap
1 LJ
0.5 LW
N
507 56.741 M
504.83 56.741 L
S
GR
GS
0.149 GC
2 setlinecap
1 LJ
0.5 LW
N
507 49.159 M
504.83 49.159 L
S
GR
GS
0.149 GC
2 setlinecap
1 LJ
0.5 LW
N
507 33.997 M
504.83 33.997 L
S
GR
GS
[1 0 0 1 68.2 344.83328] CT
0.149 GC
/Helvetica 14 F
GS
[1 0 0 1 0 0] CT
-16 5.5 moveto 
1 -1 scale
(47) t 
GR
GR
GS
[1 0 0 1 68.2 306.92636] CT
0.149 GC
/Helvetica 14 F
GS
[1 0 0 1 0 0] CT
-16 5.5 moveto 
1 -1 scale
(48) t 
GR
GR
GS
[1 0 0 1 68.2 269.01944] CT
0.149 GC
/Helvetica 14 F
GS
[1 0 0 1 0 0] CT
-16 5.5 moveto 
1 -1 scale
(49) t 
GR
GR
GS
[1 0 0 1 68.2 231.11253] CT
0.149 GC
/Helvetica 14 F
GS
[1 0 0 1 0 0] CT
-16 5.5 moveto 
1 -1 scale
(50) t 
GR
GR
GS
[1 0 0 1 68.2 193.20561] CT
0.149 GC
/Helvetica 14 F
GS
[1 0 0 1 0 0] CT
-16 5.5 moveto 
1 -1 scale
(51) t 
GR
GR
GS
[1 0 0 1 68.2 155.29871] CT
0.149 GC
/Helvetica 14 F
GS
[1 0 0 1 0 0] CT
-16 5.5 moveto 
1 -1 scale
(52) t 
GR
GR
GS
[1 0 0 1 68.2 117.39178] CT
0.149 GC
/Helvetica 14 F
GS
[1 0 0 1 0 0] CT
-16 5.5 moveto 
1 -1 scale
(53) t 
GR
GR
GS
[1 0 0 1 68.2 79.48486] CT
0.149 GC
/Helvetica 14 F
GS
[1 0 0 1 0 0] CT
-16 5.5 moveto 
1 -1 scale
(54) t 
GR
GR
GS
[1 0 0 1 68.2 41.57795] CT
0.149 GC
/Helvetica 14 F
GS
[1 0 0 1 0 0] CT
-16 5.5 moveto 
1 -1 scale
(55) t 
GR
GR
GS
[0 -1 1 0 49.2 202.74973] CT
0.149 GC
/Helvetica 15.4 F
GS
[1 0 0 1 0 0] CT
-50.5 -4 moveto 
1 -1 scale
(APSNR-U \(dB\)) t 
GR
GR
GS
[1 0 0 1 290.00031 29.575] CT
/Helvetica-Bold 15.4 F
GS
[1 0 0 1 0 0] CT
-136.5 -4 moveto 
1 -1 scale
(Skater227_1920x1080_30fps.y4m-av1) t 
GR
GR
GS
0 0.447 0.741 RC
1 LJ
0.5 LW
N
77.55 339.488 M
81.252 327.162 L
84.954 315.091 L
88.656 303.461 L
92.359 292.46 L
96.061 282.276 L
99.763 273.097 L
103.465 265.015 L
107.167 257.39 L
110.869 250.064 L
114.571 243.033 L
118.274 236.293 L
121.976 229.84 L
125.678 223.672 L
129.38 217.783 L
133.082 212.172 L
136.784 206.834 L
140.487 201.766 L
144.189 196.964 L
147.891 192.424 L
151.593 188.143 L
155.295 184.111 L
158.997 180.207 L
162.699 176.391 L
166.402 172.663 L
170.104 169.022 L
173.806 165.469 L
177.508 162.003 L
181.21 158.625 L
184.912 155.333 L
188.615 152.129 L
192.317 149.01 L
196.019 145.979 L
199.721 143.034 L
203.423 140.175 L
207.125 137.402 L
210.828 134.714 L
214.53 132.113 L
218.232 129.597 L
221.934 127.166 L
225.636 124.821 L
229.338 122.56 L
233.04 120.384 L
236.743 118.294 L
240.445 116.287 L
244.147 114.365 L
247.849 112.527 L
251.551 110.767 L
255.253 109.025 L
258.956 107.286 L
262.658 105.551 L
266.36 103.819 L
270.062 102.092 L
273.764 100.371 L
277.466 98.656 L
281.168 96.947 L
284.871 95.245 L
288.573 93.552 L
292.275 91.868 L
295.977 90.192 L
299.679 88.527 L
303.381 86.873 L
307.084 85.23 L
310.786 83.598 L
314.488 81.98 L
318.19 80.374 L
321.892 78.783 L
325.594 77.206 L
329.297 75.644 L
332.999 74.099 L
336.701 72.57 L
340.403 71.058 L
344.105 69.564 L
347.807 68.088 L
351.509 66.632 L
355.212 65.196 L
358.914 63.78 L
362.616 62.385 L
366.318 61.012 L
370.02 59.662 L
373.722 58.334 L
377.425 57.031 L
381.127 55.752 L
384.829 54.498 L
388.531 53.27 L
392.233 52.068 L
395.935 50.893 L
399.637 49.746 L
403.34 48.628 L
407.042 47.538 L
410.744 46.478 L
414.446 45.449 L
418.148 44.45 L
421.85 43.484 L
425.553 42.549 L
429.255 41.648 L
432.957 40.78 L
436.659 39.946 L
440.361 39.148 L
444.063 38.385 L
447.766 37.658 L
451.468 36.968 L
455.17 36.316 L
458.872 35.702 L
462.574 35.127 L
466.276 34.592 L
469.978 34.096 L
473.681 33.642 L
477.383 33.229 L
481.085 32.859 L
484.787 32.531 L
488.489 32.246 L
492.191 32.006 L
495.894 31.811 L
499.596 31.661 L
503.298 31.557 L
507 31.5 L
S
GR
GS
0.851 0.325 0.098 RC
1 LJ
0.5 LW
N
73.317 362.718 M
77.019 346.91 L
80.721 331.542 L
84.423 317 L
88.125 303.666 L
91.828 291.925 L
95.53 282.05 L
99.232 273.03 L
102.934 264.508 L
106.636 256.464 L
110.338 248.877 L
114.041 241.726 L
117.743 234.988 L
121.445 228.644 L
125.147 222.672 L
128.849 217.05 L
132.551 211.758 L
136.253 206.775 L
139.956 202.074 L
143.658 197.535 L
147.36 193.11 L
151.062 188.8 L
154.764 184.606 L
158.466 180.526 L
162.169 176.562 L
165.871 172.713 L
169.573 168.98 L
173.275 165.362 L
176.977 161.859 L
180.679 158.473 L
184.381 155.203 L
188.084 152.048 L
191.786 149.01 L
195.488 146.088 L
199.19 143.282 L
202.892 140.593 L
206.594 138.021 L
210.297 135.565 L
213.999 133.226 L
217.701 131.004 L
221.403 128.9 L
225.105 126.873 L
228.807 124.853 L
232.509 122.837 L
236.212 120.827 L
239.914 118.824 L
243.616 116.828 L
247.318 114.842 L
251.02 112.865 L
254.722 110.898 L
258.425 108.944 L
262.127 107.002 L
265.829 105.073 L
269.531 103.16 L
273.233 101.262 L
276.935 99.381 L
280.638 97.517 L
284.34 95.672 L
288.042 93.846 L
291.744 92.041 L
295.446 90.258 L
299.148 88.497 L
302.85 86.759 L
306.553 85.046 L
310.255 83.359 L
313.957 81.698 L
317.659 80.065 L
321.361 78.46 L
325.063 76.884 L
328.766 75.339 L
332.468 73.825 L
336.17 72.344 L
339.872 70.896 L
343.574 69.482 L
347.276 68.104 L
350.978 66.762 L
354.681 65.457 L
358.383 64.191 L
362.085 62.964 L
365.787 61.777 L
369.489 60.631 L
373.191 59.528 L
376.894 58.468 L
380.596 57.452 L
384.298 56.481 L
388 55.556 L
391.702 54.679 L
395.404 53.85 L
399.107 53.07 L
402.809 52.34 L
406.511 51.661 L
410.213 51.034 L
413.915 50.46 L
417.617 49.941 L
421.319 49.476 L
425.022 49.067 L
428.724 48.716 L
432.426 48.422 L
436.128 48.188 L
439.83 48.013 L
443.532 47.899 L
447.235 47.848 L
S
GR
GS
0.929 0.694 0.125 RC
1 LJ
0.5 LW
N
77.007 344.518 M
80.709 331.337 L
84.411 318.438 L
88.113 306.053 L
91.815 294.409 L
95.517 283.736 L
99.219 274.265 L
102.922 266.021 L
106.624 258.229 L
110.326 250.779 L
114.028 243.662 L
117.73 236.871 L
121.432 230.398 L
125.135 224.236 L
128.837 218.376 L
132.539 212.812 L
136.241 207.534 L
139.943 202.535 L
143.645 197.808 L
147.348 193.345 L
151.05 189.138 L
154.752 185.144 L
158.454 181.251 L
162.156 177.452 L
165.858 173.745 L
169.56 170.13 L
173.263 166.607 L
176.965 163.174 L
180.667 159.832 L
184.369 156.579 L
188.071 153.415 L
191.773 150.34 L
195.476 147.352 L
199.178 144.452 L
202.88 141.638 L
206.582 138.911 L
210.284 136.269 L
213.986 133.711 L
217.688 131.238 L
221.391 128.849 L
225.093 126.542 L
228.795 124.318 L
232.497 122.176 L
236.199 120.116 L
239.901 118.135 L
243.604 116.235 L
247.306 114.415 L
251.008 112.638 L
254.71 110.862 L
258.412 109.089 L
262.114 107.319 L
265.816 105.553 L
269.519 103.791 L
273.221 102.034 L
276.923 100.284 L
280.625 98.54 L
284.327 96.803 L
288.029 95.074 L
291.732 93.354 L
295.434 91.644 L
299.136 89.943 L
302.838 88.254 L
306.54 86.576 L
310.242 84.91 L
313.945 83.257 L
317.647 81.618 L
321.349 79.993 L
325.051 78.383 L
328.753 76.789 L
332.455 75.211 L
336.157 73.651 L
339.86 72.109 L
343.562 70.584 L
347.264 69.08 L
350.966 67.595 L
354.668 66.131 L
358.37 64.688 L
362.073 63.267 L
365.775 61.87 L
369.477 60.495 L
373.179 59.145 L
376.881 57.82 L
380.583 56.52 L
384.285 55.247 L
387.988 54.001 L
391.69 52.782 L
395.392 51.592 L
399.094 50.431 L
402.796 49.299 L
406.498 48.199 L
410.201 47.129 L
413.903 46.092 L
417.605 45.087 L
421.307 44.115 L
425.009 43.178 L
428.711 42.275 L
432.413 41.407 L
436.116 40.576 L
439.818 39.782 L
443.52 39.025 L
447.222 38.307 L
450.924 37.627 L
454.626 36.987 L
458.329 36.388 L
462.031 35.829 L
465.733 35.312 L
469.435 34.838 L
473.137 34.407 L
476.839 34.02 L
480.542 33.678 L
484.244 33.381 L
487.946 33.129 L
491.648 32.925 L
495.35 32.768 L
499.052 32.659 L
502.754 32.599 L
S
GR
GS
0.494 0.184 0.557 RC
1 LJ
0.5 LW
N
74.852 360.034 M
78.554 346.424 L
82.257 333.129 L
85.959 320.389 L
89.661 308.445 L
93.363 297.538 L
97.065 287.91 L
100.767 279.23 L
104.469 270.887 L
108.172 262.88 L
111.874 255.21 L
115.576 247.877 L
119.278 240.882 L
122.98 234.225 L
126.682 227.906 L
130.385 221.927 L
134.087 216.287 L
137.789 210.987 L
141.491 206.027 L
145.193 201.409 L
148.895 197.075 L
152.597 192.862 L
156.3 188.759 L
160.002 184.764 L
163.704 180.876 L
167.406 177.095 L
171.108 173.419 L
174.81 169.848 L
178.513 166.379 L
182.215 163.012 L
185.917 159.747 L
189.619 156.581 L
193.321 153.513 L
197.023 150.544 L
200.726 147.67 L
204.428 144.893 L
208.13 142.209 L
211.832 139.619 L
215.534 137.121 L
219.236 134.714 L
222.938 132.397 L
226.641 130.168 L
230.343 128.028 L
234.045 125.974 L
237.747 124.006 L
241.449 122.106 L
245.151 120.215 L
248.854 118.326 L
252.556 116.441 L
256.258 114.561 L
259.96 112.685 L
263.662 110.816 L
267.364 108.952 L
271.066 107.097 L
274.769 105.249 L
278.471 103.41 L
282.173 101.581 L
285.875 99.762 L
289.577 97.955 L
293.279 96.159 L
296.982 94.376 L
300.684 92.607 L
304.386 90.852 L
308.088 89.111 L
311.79 87.387 L
315.492 85.679 L
319.195 83.988 L
322.897 82.316 L
326.599 80.662 L
330.301 79.028 L
334.003 77.414 L
337.705 75.821 L
341.407 74.25 L
345.11 72.701 L
348.812 71.176 L
352.514 69.676 L
356.216 68.2 L
359.918 66.749 L
363.62 65.326 L
367.323 63.929 L
371.025 62.56 L
374.727 61.22 L
378.429 59.91 L
382.131 58.63 L
385.833 57.38 L
389.535 56.163 L
393.238 54.978 L
396.94 53.827 L
400.642 52.709 L
404.344 51.626 L
408.046 50.579 L
411.748 49.568 L
415.451 48.595 L
419.153 47.659 L
422.855 46.762 L
426.557 45.904 L
430.259 45.087 L
433.961 44.31 L
437.664 43.575 L
441.366 42.883 L
445.068 42.234 L
448.77 41.628 L
452.472 41.068 L
456.174 40.553 L
459.876 40.084 L
463.579 39.662 L
467.281 39.289 L
470.983 38.963 L
474.685 38.687 L
478.387 38.461 L
482.089 38.286 L
485.792 38.163 L
489.494 38.092 L
S
GR
GS
0.467 0.675 0.188 RC
1 LJ
0.5 LW
N
73.716 372.353 M
77.418 356.701 L
81.12 341.44 L
84.822 326.947 L
88.525 313.598 L
92.227 301.771 L
95.929 291.817 L
99.631 282.921 L
103.333 274.515 L
107.035 266.574 L
110.738 259.076 L
114.44 251.997 L
118.142 245.314 L
121.844 239.003 L
125.546 233.042 L
129.248 227.406 L
132.95 222.073 L
136.653 217.019 L
140.355 212.221 L
144.057 207.651 L
147.759 203.215 L
151.461 198.879 L
155.163 194.643 L
158.866 190.508 L
162.568 186.474 L
166.27 182.54 L
169.972 178.708 L
173.674 174.978 L
177.376 171.349 L
181.078 167.822 L
184.781 164.398 L
188.483 161.076 L
192.185 157.857 L
195.887 154.741 L
199.589 151.728 L
203.291 148.818 L
206.994 146.013 L
210.696 143.311 L
214.398 140.713 L
218.1 138.22 L
221.802 135.831 L
225.504 133.548 L
229.206 131.37 L
232.909 129.297 L
236.611 127.304 L
240.313 125.319 L
244.015 123.338 L
247.717 121.362 L
251.419 119.392 L
255.122 117.428 L
258.824 115.471 L
262.526 113.522 L
266.228 111.582 L
269.93 109.651 L
273.632 107.731 L
277.335 105.822 L
281.037 103.924 L
284.739 102.04 L
288.441 100.169 L
292.143 98.312 L
295.845 96.47 L
299.547 94.644 L
303.25 92.835 L
306.952 91.043 L
310.654 89.269 L
314.356 87.515 L
318.058 85.78 L
321.76 84.066 L
325.463 82.373 L
329.165 80.702 L
332.867 79.055 L
336.569 77.431 L
340.271 75.832 L
343.973 74.258 L
347.676 72.71 L
351.378 71.189 L
355.08 69.696 L
358.782 68.231 L
362.484 66.796 L
366.186 65.391 L
369.888 64.017 L
373.591 62.674 L
377.293 61.364 L
380.995 60.087 L
384.697 58.844 L
388.399 57.636 L
392.101 56.464 L
395.804 55.328 L
399.506 54.23 L
403.208 53.169 L
406.91 52.147 L
410.612 51.165 L
414.314 50.223 L
418.016 49.322 L
421.719 48.464 L
425.421 47.648 L
429.123 46.875 L
432.825 46.147 L
436.527 45.464 L
440.229 44.827 L
443.932 44.237 L
447.634 43.694 L
451.336 43.2 L
455.038 42.754 L
458.74 42.359 L
462.442 42.014 L
466.144 41.721 L
469.847 41.48 L
473.549 41.291 L
477.251 41.157 L
480.953 41.078 L
S
GR
GS
0.302 0.745 0.933 RC
[10 6] 0 setdash
2 LJ
0.5 LW
N
73 362.942 M
76.702 347.818 L
80.404 333.114 L
84.106 319.166 L
87.809 306.308 L
91.511 294.876 L
95.213 285.083 L
98.915 276.012 L
102.617 267.394 L
106.319 259.215 L
110.022 251.463 L
113.724 244.125 L
117.426 237.187 L
121.128 230.637 L
124.83 224.462 L
128.532 218.647 L
132.234 213.182 L
135.937 208.051 L
139.639 203.229 L
143.341 198.562 L
147.043 194.011 L
150.745 189.577 L
154.447 185.261 L
158.15 181.064 L
161.852 176.986 L
165.554 173.027 L
169.256 169.189 L
172.958 165.472 L
176.66 161.877 L
180.363 158.404 L
184.065 155.055 L
187.767 151.829 L
191.469 148.728 L
195.171 145.751 L
198.873 142.901 L
202.575 140.177 L
206.278 137.579 L
209.98 135.11 L
213.682 132.769 L
217.384 130.557 L
221.086 128.466 L
224.788 126.403 L
228.491 124.346 L
232.193 122.295 L
235.895 120.251 L
239.597 118.216 L
243.299 116.191 L
247.001 114.177 L
250.704 112.173 L
254.406 110.183 L
258.108 108.206 L
261.81 106.244 L
265.512 104.297 L
269.214 102.367 L
272.916 100.455 L
276.619 98.561 L
280.321 96.687 L
284.023 94.834 L
287.725 93.002 L
291.427 91.193 L
295.129 89.408 L
298.832 87.648 L
302.534 85.913 L
306.236 84.205 L
309.938 82.526 L
313.64 80.874 L
317.342 79.253 L
321.044 77.663 L
324.747 76.104 L
328.449 74.578 L
332.151 73.086 L
335.853 71.629 L
339.555 70.208 L
343.257 68.824 L
346.96 67.478 L
350.662 66.171 L
354.364 64.903 L
358.066 63.677 L
361.768 62.492 L
365.47 61.351 L
369.172 60.254 L
372.875 59.201 L
376.577 58.195 L
380.279 57.236 L
383.981 56.324 L
387.683 55.462 L
391.385 54.65 L
395.088 53.889 L
398.79 53.181 L
402.492 52.525 L
406.194 51.923 L
409.896 51.377 L
413.598 50.887 L
417.301 50.454 L
421.003 50.079 L
424.705 49.764 L
428.407 49.508 L
432.109 49.314 L
435.811 49.182 L
439.513 49.114 L
S
GR
GS
0.635 0.078 0.184 RC
[10 6] 0 setdash
2 LJ
0.5 LW
N
76.948 344.068 M
80.65 331.025 L
84.352 318.263 L
88.055 306.006 L
91.757 294.473 L
95.459 283.889 L
99.161 274.475 L
102.863 266.271 L
106.565 258.527 L
110.268 251.124 L
113.97 244.055 L
117.672 237.309 L
121.374 230.878 L
125.076 224.753 L
128.778 218.925 L
132.48 213.385 L
136.183 208.123 L
139.885 203.131 L
143.587 198.4 L
147.289 193.92 L
150.991 189.683 L
154.693 185.644 L
158.396 181.699 L
162.098 177.843 L
165.8 174.075 L
169.502 170.396 L
173.204 166.805 L
176.906 163.302 L
180.608 159.888 L
184.311 156.563 L
188.013 153.325 L
191.715 150.177 L
195.417 147.117 L
199.119 144.145 L
202.821 141.263 L
206.524 138.468 L
210.226 135.763 L
213.928 133.146 L
217.63 130.617 L
221.332 128.177 L
225.034 125.826 L
228.736 123.564 L
232.439 121.39 L
236.141 119.305 L
239.843 117.309 L
243.545 115.402 L
247.247 113.583 L
250.949 111.799 L
254.652 110.018 L
258.354 108.241 L
262.056 106.467 L
265.758 104.699 L
269.46 102.936 L
273.162 101.179 L
276.865 99.429 L
280.567 97.687 L
284.269 95.952 L
287.971 94.227 L
291.673 92.511 L
295.375 90.806 L
299.077 89.111 L
302.78 87.428 L
306.482 85.757 L
310.184 84.099 L
313.886 82.455 L
317.588 80.825 L
321.29 79.21 L
324.993 77.611 L
328.695 76.028 L
332.397 74.462 L
336.099 72.913 L
339.801 71.383 L
343.503 69.872 L
347.206 68.381 L
350.908 66.91 L
354.61 65.46 L
358.312 64.032 L
362.014 62.627 L
365.716 61.244 L
369.418 59.885 L
373.121 58.551 L
376.823 57.242 L
380.525 55.958 L
384.227 54.701 L
387.929 53.471 L
391.631 52.269 L
395.334 51.096 L
399.036 49.952 L
402.738 48.837 L
406.44 47.753 L
410.142 46.701 L
413.844 45.68 L
417.546 44.692 L
421.249 43.737 L
424.951 42.816 L
428.653 41.929 L
432.355 41.078 L
436.057 40.263 L
439.759 39.484 L
443.462 38.743 L
447.164 38.039 L
450.866 37.375 L
454.568 36.749 L
458.27 36.164 L
461.972 35.619 L
465.674 35.116 L
469.377 34.655 L
473.079 34.236 L
476.781 33.861 L
480.483 33.53 L
484.185 33.244 L
487.887 33.003 L
491.59 32.808 L
495.292 32.66 L
498.994 32.56 L
502.696 32.507 L
S
GR
GS
0 0.447 0.741 RC
[10 6] 0 setdash
2 LJ
0.5 LW
N
75.312 356.847 M
79.014 343.24 L
82.716 329.94 L
86.418 317.178 L
90.12 305.185 L
93.822 294.194 L
97.524 284.435 L
101.227 275.672 L
104.929 267.229 L
108.631 259.102 L
112.333 251.296 L
116.035 243.819 L
119.737 236.676 L
123.44 229.874 L
127.142 223.418 L
130.844 217.315 L
134.546 211.572 L
138.248 206.193 L
141.95 201.186 L
145.652 196.557 L
149.355 192.285 L
153.057 188.174 L
156.759 184.181 L
160.461 180.305 L
164.163 176.542 L
167.865 172.891 L
171.568 169.351 L
175.27 165.917 L
178.972 162.589 L
182.674 159.365 L
186.376 156.242 L
190.078 153.217 L
193.781 150.289 L
197.483 147.456 L
201.185 144.716 L
204.887 142.065 L
208.589 139.503 L
212.291 137.027 L
215.993 134.635 L
219.696 132.324 L
223.398 130.093 L
227.1 127.94 L
230.802 125.861 L
234.504 123.855 L
238.206 121.921 L
241.909 120.053 L
245.611 118.205 L
249.313 116.358 L
253.015 114.512 L
256.717 112.67 L
260.419 110.831 L
264.121 108.996 L
267.824 107.166 L
271.526 105.342 L
275.228 103.524 L
278.93 101.714 L
282.632 99.911 L
286.334 98.118 L
290.037 96.334 L
293.739 94.561 L
297.441 92.799 L
301.143 91.049 L
304.845 89.312 L
308.547 87.588 L
312.249 85.878 L
315.952 84.184 L
319.654 82.505 L
323.356 80.844 L
327.058 79.199 L
330.76 77.573 L
334.462 75.966 L
338.165 74.378 L
341.867 72.811 L
345.569 71.265 L
349.271 69.742 L
352.973 68.241 L
356.675 66.764 L
360.378 65.311 L
364.08 63.883 L
367.782 62.482 L
371.484 61.107 L
375.186 59.76 L
378.888 58.441 L
382.59 57.151 L
386.293 55.891 L
389.995 54.661 L
393.697 53.463 L
397.399 52.298 L
401.101 51.165 L
404.803 50.066 L
408.506 49.001 L
412.208 47.972 L
415.91 46.978 L
419.612 46.022 L
423.314 45.103 L
427.016 44.223 L
430.719 43.382 L
434.421 42.58 L
438.123 41.82 L
441.825 41.101 L
445.527 40.424 L
449.229 39.791 L
452.931 39.201 L
456.634 38.656 L
460.336 38.156 L
464.038 37.702 L
467.74 37.295 L
471.442 36.936 L
475.144 36.626 L
478.847 36.365 L
482.549 36.154 L
486.251 35.994 L
489.953 35.885 L
493.655 35.829 L
S
GR
GS
0.851 0.325 0.098 RC
[10 6] 0 setdash
2 LJ
0.5 LW
N
73.769 374 M
77.471 358.584 L
81.173 343.545 L
84.875 329.222 L
88.577 315.957 L
92.279 304.087 L
95.982 293.948 L
99.684 284.886 L
103.386 276.275 L
107.088 268.098 L
110.79 260.343 L
114.492 252.994 L
118.194 246.037 L
121.897 239.456 L
125.599 233.238 L
129.301 227.368 L
133.003 221.83 L
136.705 216.611 L
140.407 211.695 L
144.11 207.067 L
147.812 202.624 L
151.514 198.291 L
155.216 194.067 L
158.918 189.952 L
162.62 185.946 L
166.322 182.047 L
170.025 178.255 L
173.727 174.569 L
177.429 170.989 L
181.131 167.513 L
184.833 164.142 L
188.535 160.874 L
192.238 157.709 L
195.94 154.647 L
199.642 151.685 L
203.344 148.825 L
207.046 146.064 L
210.748 143.404 L
214.451 140.842 L
218.153 138.378 L
221.855 136.011 L
225.557 133.741 L
229.259 131.567 L
232.961 129.489 L
236.663 127.495 L
240.366 125.515 L
244.068 123.538 L
247.77 121.565 L
251.472 119.597 L
255.174 117.634 L
258.876 115.678 L
262.579 113.728 L
266.281 111.787 L
269.983 109.854 L
273.685 107.931 L
277.387 106.018 L
281.089 104.116 L
284.791 102.226 L
288.494 100.349 L
292.196 98.485 L
295.898 96.636 L
299.6 94.803 L
303.302 92.985 L
307.004 91.184 L
310.707 89.4 L
314.409 87.635 L
318.111 85.89 L
321.813 84.164 L
325.515 82.46 L
329.217 80.776 L
332.919 79.116 L
336.622 77.479 L
340.324 75.866 L
344.026 74.278 L
347.728 72.716 L
351.43 71.18 L
355.132 69.672 L
358.835 68.192 L
362.537 66.741 L
366.239 65.32 L
369.941 63.929 L
373.643 62.57 L
377.345 61.244 L
381.048 59.95 L
384.75 58.69 L
388.452 57.465 L
392.154 56.275 L
395.856 55.122 L
399.558 54.006 L
403.26 52.928 L
406.963 51.889 L
410.665 50.889 L
414.367 49.93 L
418.069 49.012 L
421.771 48.135 L
425.473 47.302 L
429.176 46.513 L
432.878 45.767 L
436.58 45.068 L
440.282 44.414 L
443.984 43.807 L
447.686 43.248 L
451.388 42.737 L
455.091 42.276 L
458.793 41.864 L
462.495 41.504 L
466.197 41.196 L
469.899 40.94 L
473.601 40.737 L
477.304 40.589 L
481.006 40.496 L
484.708 40.458 L
S
GR
GS
1 GC
N
499 366 M
499 218.5 L
327.5 218.5 L
327.5 366 L
cp
f
GR
GS
[1 0 0 1 364.5 228.25] CT
/Helvetica 13 F
GS
[1 0 0 1 0 0] CT
0 5 moveto 
1 -1 scale
(Base Run) t 
GR
GR
GS
0 0.447 0.741 RC
1 LJ
0.5 LW
N
331.5 228.25 M
361.5 228.25 L
S
GR
GS
[1 0 0 1 364.5 244.25] CT
/Helvetica 13 F
GS
[1 0 0 1 0 0] CT
0 5 moveto 
1 -1 scale
(All Frames) t 
GR
GR
GS
0.851 0.325 0.098 RC
1 LJ
0.5 LW
N
331.5 244.25 M
361.5 244.25 L
S
GR
GS
[1 0 0 1 364.5 260.25] CT
/Helvetica 13 F
GS
[1 0 0 1 0 0] CT
0 5 moveto 
1 -1 scale
(KF Only) t 
GR
GR
GS
0.929 0.694 0.125 RC
1 LJ
0.5 LW
N
331.5 260.25 M
361.5 260.25 L
S
GR
GS
[1 0 0 1 364.5 276.25] CT
/Helvetica 13 F
GS
[1 0 0 1 0 0] CT
0 5 moveto 
1 -1 scale
(GF, ARF Only) t 
GR
GR
GS
0.494 0.184 0.557 RC
1 LJ
0.5 LW
N
331.5 276.25 M
361.5 276.25 L
S
GR
GS
[1 0 0 1 364.5 292.25] CT
/Helvetica 13 F
GS
[1 0 0 1 0 0] CT
0 5 moveto 
1 -1 scale
(KF, GF, ARF Only) t 
GR
GR
GS
0.467 0.675 0.188 RC
1 LJ
0.5 LW
N
331.5 292.25 M
361.5 292.25 L
S
GR
GS
[1 0 0 1 364.5 308.25] CT
/Helvetica 13 F
GS
[1 0 0 1 0 0] CT
0 5 moveto 
1 -1 scale
(Part All Frames) t 
GR
GR
GS
0.302 0.745 0.933 RC
[10 6] 0 setdash
2 LJ
0.5 LW
N
331.5 308.25 M
361.5 308.25 L
S
GR
GS
[1 0 0 1 364.5 324.25] CT
/Helvetica 13 F
GS
[1 0 0 1 0 0] CT
0 5 moveto 
1 -1 scale
(Part KF Only) t 
GR
GR
GS
0.635 0.078 0.184 RC
[10 6] 0 setdash
2 LJ
0.5 LW
N
331.5 324.25 M
361.5 324.25 L
S
GR
GS
[1 0 0 1 364.5 340.25] CT
/Helvetica 13 F
GS
[1 0 0 1 0 0] CT
0 5 moveto 
1 -1 scale
(Part GF, ARF Only) t 
GR
GR
GS
0 0.447 0.741 RC
[10 6] 0 setdash
2 LJ
0.5 LW
N
331.5 340.25 M
361.5 340.25 L
S
GR
GS
[1 0 0 1 364.5 356.25] CT
/Helvetica 13 F
GS
[1 0 0 1 0 0] CT
0 5 moveto 
1 -1 scale
(Part KF, GF, ARF Only) t 
GR
GR
GS
0.851 0.325 0.098 RC
[10 6] 0 setdash
2 LJ
0.5 LW
N
331.5 356.25 M
361.5 356.25 L
S
GR
GS
0.149 GC
10.0 ML
0.5 LW
N
327.5 366 M
327.5 218.5 L
499 218.5 L
499 366 L
cp
S
GR
%%Trailer
%%Pages: 1
%%EOF
