%!PS-Adobe-3.0 EPSF-3.0
%%Creator: (MATLAB, The Mathworks, Inc. Version 9.11.0.1837725 \(R2021b\) Update 2. Operating System: Mac OS X)
%%Title: plots/pchip/Skater227_1920x1080_30fps.y4m-hevc-APSNRU.eps
%%CreationDate: 2022-02-03T19:14:46
%%Pages: (atend)
%%BoundingBox:    33   425   508   826
%%LanguageLevel: 3
%%EndComments
%%BeginProlog
%%BeginResource: procset (Apache XML Graphics Std ProcSet) 1.2 0
%%Version: 1.2 0
%%Copyright: (Copyright 2001-2003,2010 The Apache Software Foundation. License terms: http://www.apache.org/licenses/LICENSE-2.0)
/bd{bind def}bind def
/ld{load def}bd
/GR/grestore ld
/GS/gsave ld
/RM/rmoveto ld
/C/curveto ld
/t/show ld
/L/lineto ld
/ML/setmiterlimit ld
/CT/concat ld
/f/fill ld
/N/newpath ld
/S/stroke ld
/CC/setcmykcolor ld
/A/ashow ld
/cp/closepath ld
/RC/setrgbcolor ld
/LJ/setlinejoin ld
/GC/setgray ld
/LW/setlinewidth ld
/M/moveto ld
/re {4 2 roll M
1 index 0 rlineto
0 exch rlineto
neg 0 rlineto
cp } bd
/_ctm matrix def
/_tm matrix def
/BT { _ctm currentmatrix pop matrix _tm copy pop 0 0 moveto } bd
/ET { _ctm setmatrix } bd
/iTm { _ctm setmatrix _tm concat } bd
/Tm { _tm astore pop iTm 0 0 moveto } bd
/ux 0.0 def
/uy 0.0 def
/F {
  /Tp exch def
  /Tf exch def
  Tf findfont Tp scalefont setfont
  /cf Tf def  /cs Tp def
} bd
/ULS {currentpoint /uy exch def /ux exch def} bd
/ULE {
  /Tcx currentpoint pop def
  gsave
  newpath
  cf findfont cs scalefont dup
  /FontMatrix get 0 get /Ts exch def /FontInfo get dup
  /UnderlinePosition get Ts mul /To exch def
  /UnderlineThickness get Ts mul /Tt exch def
  ux uy To add moveto  Tcx uy To add lineto
  Tt setlinewidth stroke
  grestore
} bd
/OLE {
  /Tcx currentpoint pop def
  gsave
  newpath
  cf findfont cs scalefont dup
  /FontMatrix get 0 get /Ts exch def /FontInfo get dup
  /UnderlinePosition get Ts mul /To exch def
  /UnderlineThickness get Ts mul /Tt exch def
  ux uy To add cs add moveto Tcx uy To add cs add lineto
  Tt setlinewidth stroke
  grestore
} bd
/SOE {
  /Tcx currentpoint pop def
  gsave
  newpath
  cf findfont cs scalefont dup
  /FontMatrix get 0 get /Ts exch def /FontInfo get dup
  /UnderlinePosition get Ts mul /To exch def
  /UnderlineThickness get Ts mul /Tt exch def
  ux uy To add cs 10 mul 26 idiv add moveto Tcx uy To add cs 10 mul 26 idiv add lineto
  Tt setlinewidth stroke
  grestore
} bd
/QT {
/Y22 exch store
/X22 exch store
/Y21 exch store
/X21 exch store
currentpoint
/Y21 load 2 mul add 3 div exch
/X21 load 2 mul add 3 div exch
/X21 load 2 mul /X22 load add 3 div
/Y21 load 2 mul /Y22 load add 3 div
/X22 load /Y22 load curveto
} bd
/SSPD {
dup length /d exch dict def
{
/v exch def
/k exch def
currentpagedevice k known {
/cpdv currentpagedevice k get def
v cpdv ne {
/upd false def
/nullv v type /nulltype eq def
/nullcpdv cpdv type /nulltype eq def
nullv nullcpdv or
{
/upd true def
} {
/sametype v type cpdv type eq def
sametype {
v type /arraytype eq {
/vlen v length def
/cpdvlen cpdv length def
vlen cpdvlen eq {
0 1 vlen 1 sub {
/i exch def
/obj v i get def
/cpdobj cpdv i get def
obj cpdobj ne {
/upd true def
exit
} if
} for
} {
/upd true def
} ifelse
} {
v type /dicttype eq {
v {
/dv exch def
/dk exch def
/cpddv cpdv dk get def
dv cpddv ne {
/upd true def
exit
} if
} forall
} {
/upd true def
} ifelse
} ifelse
} if
} ifelse
upd true eq {
d k v put
} if
} if
} if
} forall
d length 0 gt {
d setpagedevice
} if
} bd
/RE { % /NewFontName [NewEncodingArray] /FontName RE -
  findfont dup length dict begin
  {
    1 index /FID ne
    {def} {pop pop} ifelse
  } forall
  /Encoding exch def
  /FontName 1 index def
  currentdict definefont pop
  end
} bind def
%%EndResource
%%BeginResource: procset (Apache XML Graphics EPS ProcSet) 1.0 0
%%Version: 1.0 0
%%Copyright: (Copyright 2002-2003 The Apache Software Foundation. License terms: http://www.apache.org/licenses/LICENSE-2.0)
/BeginEPSF { %def
/b4_Inc_state save def         % Save state for cleanup
/dict_count countdictstack def % Count objects on dict stack
/op_count count 1 sub def      % Count objects on operand stack
userdict begin                 % Push userdict on dict stack
/showpage { } def              % Redefine showpage, { } = null proc
0 setgray 0 setlinecap         % Prepare graphics state
1 setlinewidth 0 setlinejoin
10 setmiterlimit [ ] 0 setdash newpath
/languagelevel where           % If level not equal to 1 then
{pop languagelevel             % set strokeadjust and
1 ne                           % overprint to their defaults.
{false setstrokeadjust false setoverprint
} if
} if
} bd
/EndEPSF { %def
count op_count sub {pop} repeat            % Clean up stacks
countdictstack dict_count sub {end} repeat
b4_Inc_state restore
} bd
%%EndResource
%FOPBeginFontDict
%%IncludeResource: font Courier-Oblique
%%IncludeResource: font Courier-BoldOblique
%%IncludeResource: font Courier-Bold
%%IncludeResource: font ZapfDingbats
%%IncludeResource: font Symbol
%%IncludeResource: font Helvetica
%%IncludeResource: font Helvetica-Oblique
%%IncludeResource: font Helvetica-Bold
%%IncludeResource: font Helvetica-BoldOblique
%%IncludeResource: font Times-Roman
%%IncludeResource: font Times-Italic
%%IncludeResource: font Times-Bold
%%IncludeResource: font Times-BoldItalic
%%IncludeResource: font Courier
%FOPEndFontDict
%%BeginResource: encoding WinAnsiEncoding
/WinAnsiEncoding [
/.notdef /.notdef /.notdef /.notdef /.notdef
/.notdef /.notdef /.notdef /.notdef /.notdef
/.notdef /.notdef /.notdef /.notdef /.notdef
/.notdef /.notdef /.notdef /.notdef /.notdef
/.notdef /.notdef /.notdef /.notdef /.notdef
/.notdef /.notdef /.notdef /.notdef /.notdef
/.notdef /.notdef /space /exclam /quotedbl
/numbersign /dollar /percent /ampersand /quotesingle
/parenleft /parenright /asterisk /plus /comma
/hyphen /period /slash /zero /one
/two /three /four /five /six
/seven /eight /nine /colon /semicolon
/less /equal /greater /question /at
/A /B /C /D /E
/F /G /H /I /J
/K /L /M /N /O
/P /Q /R /S /T
/U /V /W /X /Y
/Z /bracketleft /backslash /bracketright /asciicircum
/underscore /quoteleft /a /b /c
/d /e /f /g /h
/i /j /k /l /m
/n /o /p /q /r
/s /t /u /v /w
/x /y /z /braceleft /bar
/braceright /asciitilde /bullet /Euro /bullet
/quotesinglbase /florin /quotedblbase /ellipsis /dagger
/daggerdbl /circumflex /perthousand /Scaron /guilsinglleft
/OE /bullet /Zcaron /bullet /bullet
/quoteleft /quoteright /quotedblleft /quotedblright /bullet
/endash /emdash /asciitilde /trademark /scaron
/guilsinglright /oe /bullet /zcaron /Ydieresis
/space /exclamdown /cent /sterling /currency
/yen /brokenbar /section /dieresis /copyright
/ordfeminine /guillemotleft /logicalnot /sfthyphen /registered
/macron /degree /plusminus /twosuperior /threesuperior
/acute /mu /paragraph /middot /cedilla
/onesuperior /ordmasculine /guillemotright /onequarter /onehalf
/threequarters /questiondown /Agrave /Aacute /Acircumflex
/Atilde /Adieresis /Aring /AE /Ccedilla
/Egrave /Eacute /Ecircumflex /Edieresis /Igrave
/Iacute /Icircumflex /Idieresis /Eth /Ntilde
/Ograve /Oacute /Ocircumflex /Otilde /Odieresis
/multiply /Oslash /Ugrave /Uacute /Ucircumflex
/Udieresis /Yacute /Thorn /germandbls /agrave
/aacute /acircumflex /atilde /adieresis /aring
/ae /ccedilla /egrave /eacute /ecircumflex
/edieresis /igrave /iacute /icircumflex /idieresis
/eth /ntilde /ograve /oacute /ocircumflex
/otilde /odieresis /divide /oslash /ugrave
/uacute /ucircumflex /udieresis /yacute /thorn
/ydieresis
] def
%%EndResource
%FOPBeginFontReencode
/Courier-Oblique findfont
dup length dict begin
  {1 index /FID ne {def} {pop pop} ifelse} forall
  /Encoding WinAnsiEncoding def
  currentdict
end
/Courier-Oblique exch definefont pop
/Courier-BoldOblique findfont
dup length dict begin
  {1 index /FID ne {def} {pop pop} ifelse} forall
  /Encoding WinAnsiEncoding def
  currentdict
end
/Courier-BoldOblique exch definefont pop
/Courier-Bold findfont
dup length dict begin
  {1 index /FID ne {def} {pop pop} ifelse} forall
  /Encoding WinAnsiEncoding def
  currentdict
end
/Courier-Bold exch definefont pop
/Helvetica findfont
dup length dict begin
  {1 index /FID ne {def} {pop pop} ifelse} forall
  /Encoding WinAnsiEncoding def
  currentdict
end
/Helvetica exch definefont pop
/Helvetica-Oblique findfont
dup length dict begin
  {1 index /FID ne {def} {pop pop} ifelse} forall
  /Encoding WinAnsiEncoding def
  currentdict
end
/Helvetica-Oblique exch definefont pop
/Helvetica-Bold findfont
dup length dict begin
  {1 index /FID ne {def} {pop pop} ifelse} forall
  /Encoding WinAnsiEncoding def
  currentdict
end
/Helvetica-Bold exch definefont pop
/Helvetica-BoldOblique findfont
dup length dict begin
  {1 index /FID ne {def} {pop pop} ifelse} forall
  /Encoding WinAnsiEncoding def
  currentdict
end
/Helvetica-BoldOblique exch definefont pop
/Times-Roman findfont
dup length dict begin
  {1 index /FID ne {def} {pop pop} ifelse} forall
  /Encoding WinAnsiEncoding def
  currentdict
end
/Times-Roman exch definefont pop
/Times-Italic findfont
dup length dict begin
  {1 index /FID ne {def} {pop pop} ifelse} forall
  /Encoding WinAnsiEncoding def
  currentdict
end
/Times-Italic exch definefont pop
/Times-Bold findfont
dup length dict begin
  {1 index /FID ne {def} {pop pop} ifelse} forall
  /Encoding WinAnsiEncoding def
  currentdict
end
/Times-Bold exch definefont pop
/Times-BoldItalic findfont
dup length dict begin
  {1 index /FID ne {def} {pop pop} ifelse} forall
  /Encoding WinAnsiEncoding def
  currentdict
end
/Times-BoldItalic exch definefont pop
/Courier findfont
dup length dict begin
  {1 index /FID ne {def} {pop pop} ifelse} forall
  /Encoding WinAnsiEncoding def
  currentdict
end
/Courier exch definefont pop
%FOPEndFontReencode
%%EndProlog
%%Page: 1 1
%%PageBoundingBox: 0 0 1120 840
%%BeginPageSetup
[1 0 0 -1 0 840] CT
%%EndPageSetup
GS
1 GC
N
0 0 1120 840 re
f
GR
GS
1 GC
N
73 374 M
507 374 L
507 31.5 L
73 31.5 L
cp
f
GR
GS
0.149 GC
2 setlinecap
1 LJ
0.5 LW
N
73 374 M
507 374 L
S
GR
GS
0.149 GC
2 setlinecap
1 LJ
0.5 LW
N
73 31.5 M
507 31.5 L
S
GR
GS
0.149 GC
2 setlinecap
1 LJ
0.5 LW
N
142.165 374 M
142.165 369.66 L
S
GR
GS
0.149 GC
2 setlinecap
1 LJ
0.5 LW
N
239.404 374 M
239.404 369.66 L
S
GR
GS
0.149 GC
2 setlinecap
1 LJ
0.5 LW
N
336.644 374 M
336.644 369.66 L
S
GR
GS
0.149 GC
2 setlinecap
1 LJ
0.5 LW
N
433.883 374 M
433.883 369.66 L
S
GR
GS
0.149 GC
2 setlinecap
1 LJ
0.5 LW
N
142.165 31.5 M
142.165 35.84 L
S
GR
GS
0.149 GC
2 setlinecap
1 LJ
0.5 LW
N
239.404 31.5 M
239.404 35.84 L
S
GR
GS
0.149 GC
2 setlinecap
1 LJ
0.5 LW
N
336.644 31.5 M
336.644 35.84 L
S
GR
GS
0.149 GC
2 setlinecap
1 LJ
0.5 LW
N
433.883 31.5 M
433.883 35.84 L
S
GR
GS
0.149 GC
2 setlinecap
1 LJ
0.5 LW
N
83.821 374 M
83.821 371.83 L
S
GR
GS
0.149 GC
2 setlinecap
1 LJ
0.5 LW
N
103.269 374 M
103.269 371.83 L
S
GR
GS
0.149 GC
2 setlinecap
1 LJ
0.5 LW
N
122.717 374 M
122.717 371.83 L
S
GR
GS
0.149 GC
2 setlinecap
1 LJ
0.5 LW
N
161.613 374 M
161.613 371.83 L
S
GR
GS
0.149 GC
2 setlinecap
1 LJ
0.5 LW
N
181.061 374 M
181.061 371.83 L
S
GR
GS
0.149 GC
2 setlinecap
1 LJ
0.5 LW
N
200.508 374 M
200.508 371.83 L
S
GR
GS
0.149 GC
2 setlinecap
1 LJ
0.5 LW
N
219.956 374 M
219.956 371.83 L
S
GR
GS
0.149 GC
2 setlinecap
1 LJ
0.5 LW
N
258.852 374 M
258.852 371.83 L
S
GR
GS
0.149 GC
2 setlinecap
1 LJ
0.5 LW
N
278.3 374 M
278.3 371.83 L
S
GR
GS
0.149 GC
2 setlinecap
1 LJ
0.5 LW
N
297.748 374 M
297.748 371.83 L
S
GR
GS
0.149 GC
2 setlinecap
1 LJ
0.5 LW
N
317.196 374 M
317.196 371.83 L
S
GR
GS
0.149 GC
2 setlinecap
1 LJ
0.5 LW
N
356.092 374 M
356.092 371.83 L
S
GR
GS
0.149 GC
2 setlinecap
1 LJ
0.5 LW
N
375.539 374 M
375.539 371.83 L
S
GR
GS
0.149 GC
2 setlinecap
1 LJ
0.5 LW
N
394.987 374 M
394.987 371.83 L
S
GR
GS
0.149 GC
2 setlinecap
1 LJ
0.5 LW
N
414.435 374 M
414.435 371.83 L
S
GR
GS
0.149 GC
2 setlinecap
1 LJ
0.5 LW
N
453.331 374 M
453.331 371.83 L
S
GR
GS
0.149 GC
2 setlinecap
1 LJ
0.5 LW
N
472.779 374 M
472.779 371.83 L
S
GR
GS
0.149 GC
2 setlinecap
1 LJ
0.5 LW
N
492.227 374 M
492.227 371.83 L
S
GR
GS
0.149 GC
2 setlinecap
1 LJ
0.5 LW
N
83.821 31.5 M
83.821 33.67 L
S
GR
GS
0.149 GC
2 setlinecap
1 LJ
0.5 LW
N
103.269 31.5 M
103.269 33.67 L
S
GR
GS
0.149 GC
2 setlinecap
1 LJ
0.5 LW
N
122.717 31.5 M
122.717 33.67 L
S
GR
GS
0.149 GC
2 setlinecap
1 LJ
0.5 LW
N
161.613 31.5 M
161.613 33.67 L
S
GR
GS
0.149 GC
2 setlinecap
1 LJ
0.5 LW
N
181.061 31.5 M
181.061 33.67 L
S
GR
GS
0.149 GC
2 setlinecap
1 LJ
0.5 LW
N
200.508 31.5 M
200.508 33.67 L
S
GR
GS
0.149 GC
2 setlinecap
1 LJ
0.5 LW
N
219.956 31.5 M
219.956 33.67 L
S
GR
GS
0.149 GC
2 setlinecap
1 LJ
0.5 LW
N
258.852 31.5 M
258.852 33.67 L
S
GR
GS
0.149 GC
2 setlinecap
1 LJ
0.5 LW
N
278.3 31.5 M
278.3 33.67 L
S
GR
GS
0.149 GC
2 setlinecap
1 LJ
0.5 LW
N
297.748 31.5 M
297.748 33.67 L
S
GR
GS
0.149 GC
2 setlinecap
1 LJ
0.5 LW
N
317.196 31.5 M
317.196 33.67 L
S
GR
GS
0.149 GC
2 setlinecap
1 LJ
0.5 LW
N
356.092 31.5 M
356.092 33.67 L
S
GR
GS
0.149 GC
2 setlinecap
1 LJ
0.5 LW
N
375.539 31.5 M
375.539 33.67 L
S
GR
GS
0.149 GC
2 setlinecap
1 LJ
0.5 LW
N
394.987 31.5 M
394.987 33.67 L
S
GR
GS
0.149 GC
2 setlinecap
1 LJ
0.5 LW
N
414.435 31.5 M
414.435 33.67 L
S
GR
GS
0.149 GC
2 setlinecap
1 LJ
0.5 LW
N
453.331 31.5 M
453.331 33.67 L
S
GR
GS
0.149 GC
2 setlinecap
1 LJ
0.5 LW
N
472.779 31.5 M
472.779 33.67 L
S
GR
GS
0.149 GC
2 setlinecap
1 LJ
0.5 LW
N
492.227 31.5 M
492.227 33.67 L
S
GR
GS
[1 0 0 1 142.16483 378.79987] CT
0.149 GC
/Helvetica 14 F
GS
[1 0 0 1 0 0] CT
-12 14 moveto 
1 -1 scale
(500) t 
GR
GR
GS
[1 0 0 1 239.40425 378.79987] CT
0.149 GC
/Helvetica 14 F
GS
[1 0 0 1 0 0] CT
-16 14 moveto 
1 -1 scale
(1000) t 
GR
GR
GS
[1 0 0 1 336.64371 378.79987] CT
0.149 GC
/Helvetica 14 F
GS
[1 0 0 1 0 0] CT
-16 14 moveto 
1 -1 scale
(1500) t 
GR
GR
GS
[1 0 0 1 433.88312 378.79987] CT
0.149 GC
/Helvetica 14 F
GS
[1 0 0 1 0 0] CT
-16 14 moveto 
1 -1 scale
(2000) t 
GR
GR
GS
[1 0 0 1 290.00021 396.29984] CT
0.149 GC
/Helvetica 15.4 F
GS
[1 0 0 1 0 0] CT
-42 15 moveto 
1 -1 scale
(Bitrate\(kb/s\)) t 
GR
GR
GS
0.149 GC
2 setlinecap
1 LJ
0.5 LW
N
73 374 M
73 31.5 L
S
GR
GS
0.149 GC
2 setlinecap
1 LJ
0.5 LW
N
507 374 M
507 31.5 L
S
GR
GS
0.149 GC
2 setlinecap
1 LJ
0.5 LW
N
73 361.105 M
77.34 361.105 L
S
GR
GS
0.149 GC
2 setlinecap
1 LJ
0.5 LW
N
73 317.81 M
77.34 317.81 L
S
GR
GS
0.149 GC
2 setlinecap
1 LJ
0.5 LW
N
73 274.516 M
77.34 274.516 L
S
GR
GS
0.149 GC
2 setlinecap
1 LJ
0.5 LW
N
73 231.221 M
77.34 231.221 L
S
GR
GS
0.149 GC
2 setlinecap
1 LJ
0.5 LW
N
73 187.926 M
77.34 187.926 L
S
GR
GS
0.149 GC
2 setlinecap
1 LJ
0.5 LW
N
73 144.631 M
77.34 144.631 L
S
GR
GS
0.149 GC
2 setlinecap
1 LJ
0.5 LW
N
73 101.337 M
77.34 101.337 L
S
GR
GS
0.149 GC
2 setlinecap
1 LJ
0.5 LW
N
73 58.042 M
77.34 58.042 L
S
GR
GS
0.149 GC
2 setlinecap
1 LJ
0.5 LW
N
507 361.105 M
502.66 361.105 L
S
GR
GS
0.149 GC
2 setlinecap
1 LJ
0.5 LW
N
507 317.81 M
502.66 317.81 L
S
GR
GS
0.149 GC
2 setlinecap
1 LJ
0.5 LW
N
507 274.516 M
502.66 274.516 L
S
GR
GS
0.149 GC
2 setlinecap
1 LJ
0.5 LW
N
507 231.221 M
502.66 231.221 L
S
GR
GS
0.149 GC
2 setlinecap
1 LJ
0.5 LW
N
507 187.926 M
502.66 187.926 L
S
GR
GS
0.149 GC
2 setlinecap
1 LJ
0.5 LW
N
507 144.631 M
502.66 144.631 L
S
GR
GS
0.149 GC
2 setlinecap
1 LJ
0.5 LW
N
507 101.337 M
502.66 101.337 L
S
GR
GS
0.149 GC
2 setlinecap
1 LJ
0.5 LW
N
507 58.042 M
502.66 58.042 L
S
GR
GS
0.149 GC
2 setlinecap
1 LJ
0.5 LW
N
73 369.764 M
75.17 369.764 L
S
GR
GS
0.149 GC
2 setlinecap
1 LJ
0.5 LW
N
73 352.446 M
75.17 352.446 L
S
GR
GS
0.149 GC
2 setlinecap
1 LJ
0.5 LW
N
73 343.787 M
75.17 343.787 L
S
GR
GS
0.149 GC
2 setlinecap
1 LJ
0.5 LW
N
73 335.128 M
75.17 335.128 L
S
GR
GS
0.149 GC
2 setlinecap
1 LJ
0.5 LW
N
73 326.469 M
75.17 326.469 L
S
GR
GS
0.149 GC
2 setlinecap
1 LJ
0.5 LW
N
73 309.151 M
75.17 309.151 L
S
GR
GS
0.149 GC
2 setlinecap
1 LJ
0.5 LW
N
73 300.492 M
75.17 300.492 L
S
GR
GS
0.149 GC
2 setlinecap
1 LJ
0.5 LW
N
73 291.834 M
75.17 291.834 L
S
GR
GS
0.149 GC
2 setlinecap
1 LJ
0.5 LW
N
73 283.175 M
75.17 283.175 L
S
GR
GS
0.149 GC
2 setlinecap
1 LJ
0.5 LW
N
73 265.857 M
75.17 265.857 L
S
GR
GS
0.149 GC
2 setlinecap
1 LJ
0.5 LW
N
73 257.198 M
75.17 257.198 L
S
GR
GS
0.149 GC
2 setlinecap
1 LJ
0.5 LW
N
73 248.539 M
75.17 248.539 L
S
GR
GS
0.149 GC
2 setlinecap
1 LJ
0.5 LW
N
73 239.88 M
75.17 239.88 L
S
GR
GS
0.149 GC
2 setlinecap
1 LJ
0.5 LW
N
73 222.562 M
75.17 222.562 L
S
GR
GS
0.149 GC
2 setlinecap
1 LJ
0.5 LW
N
73 213.903 M
75.17 213.903 L
S
GR
GS
0.149 GC
2 setlinecap
1 LJ
0.5 LW
N
73 205.244 M
75.17 205.244 L
S
GR
GS
0.149 GC
2 setlinecap
1 LJ
0.5 LW
N
73 196.585 M
75.17 196.585 L
S
GR
GS
0.149 GC
2 setlinecap
1 LJ
0.5 LW
N
73 179.267 M
75.17 179.267 L
S
GR
GS
0.149 GC
2 setlinecap
1 LJ
0.5 LW
N
73 170.608 M
75.17 170.608 L
S
GR
GS
0.149 GC
2 setlinecap
1 LJ
0.5 LW
N
73 161.949 M
75.17 161.949 L
S
GR
GS
0.149 GC
2 setlinecap
1 LJ
0.5 LW
N
73 153.29 M
75.17 153.29 L
S
GR
GS
0.149 GC
2 setlinecap
1 LJ
0.5 LW
N
73 135.972 M
75.17 135.972 L
S
GR
GS
0.149 GC
2 setlinecap
1 LJ
0.5 LW
N
73 127.313 M
75.17 127.313 L
S
GR
GS
0.149 GC
2 setlinecap
1 LJ
0.5 LW
N
73 118.655 M
75.17 118.655 L
S
GR
GS
0.149 GC
2 setlinecap
1 LJ
0.5 LW
N
73 109.996 M
75.17 109.996 L
S
GR
GS
0.149 GC
2 setlinecap
1 LJ
0.5 LW
N
73 92.678 M
75.17 92.678 L
S
GR
GS
0.149 GC
2 setlinecap
1 LJ
0.5 LW
N
73 84.019 M
75.17 84.019 L
S
GR
GS
0.149 GC
2 setlinecap
1 LJ
0.5 LW
N
73 75.36 M
75.17 75.36 L
S
GR
GS
0.149 GC
2 setlinecap
1 LJ
0.5 LW
N
73 66.701 M
75.17 66.701 L
S
GR
GS
0.149 GC
2 setlinecap
1 LJ
0.5 LW
N
73 49.383 M
75.17 49.383 L
S
GR
GS
0.149 GC
2 setlinecap
1 LJ
0.5 LW
N
73 40.724 M
75.17 40.724 L
S
GR
GS
0.149 GC
2 setlinecap
1 LJ
0.5 LW
N
73 32.065 M
75.17 32.065 L
S
GR
GS
0.149 GC
2 setlinecap
1 LJ
0.5 LW
N
507 369.764 M
504.83 369.764 L
S
GR
GS
0.149 GC
2 setlinecap
1 LJ
0.5 LW
N
507 352.446 M
504.83 352.446 L
S
GR
GS
0.149 GC
2 setlinecap
1 LJ
0.5 LW
N
507 343.787 M
504.83 343.787 L
S
GR
GS
0.149 GC
2 setlinecap
1 LJ
0.5 LW
N
507 335.128 M
504.83 335.128 L
S
GR
GS
0.149 GC
2 setlinecap
1 LJ
0.5 LW
N
507 326.469 M
504.83 326.469 L
S
GR
GS
0.149 GC
2 setlinecap
1 LJ
0.5 LW
N
507 309.151 M
504.83 309.151 L
S
GR
GS
0.149 GC
2 setlinecap
1 LJ
0.5 LW
N
507 300.492 M
504.83 300.492 L
S
GR
GS
0.149 GC
2 setlinecap
1 LJ
0.5 LW
N
507 291.834 M
504.83 291.834 L
S
GR
GS
0.149 GC
2 setlinecap
1 LJ
0.5 LW
N
507 283.175 M
504.83 283.175 L
S
GR
GS
0.149 GC
2 setlinecap
1 LJ
0.5 LW
N
507 265.857 M
504.83 265.857 L
S
GR
GS
0.149 GC
2 setlinecap
1 LJ
0.5 LW
N
507 257.198 M
504.83 257.198 L
S
GR
GS
0.149 GC
2 setlinecap
1 LJ
0.5 LW
N
507 248.539 M
504.83 248.539 L
S
GR
GS
0.149 GC
2 setlinecap
1 LJ
0.5 LW
N
507 239.88 M
504.83 239.88 L
S
GR
GS
0.149 GC
2 setlinecap
1 LJ
0.5 LW
N
507 222.562 M
504.83 222.562 L
S
GR
GS
0.149 GC
2 setlinecap
1 LJ
0.5 LW
N
507 213.903 M
504.83 213.903 L
S
GR
GS
0.149 GC
2 setlinecap
1 LJ
0.5 LW
N
507 205.244 M
504.83 205.244 L
S
GR
GS
0.149 GC
2 setlinecap
1 LJ
0.5 LW
N
507 196.585 M
504.83 196.585 L
S
GR
GS
0.149 GC
2 setlinecap
1 LJ
0.5 LW
N
507 179.267 M
504.83 179.267 L
S
GR
GS
0.149 GC
2 setlinecap
1 LJ
0.5 LW
N
507 170.608 M
504.83 170.608 L
S
GR
GS
0.149 GC
2 setlinecap
1 LJ
0.5 LW
N
507 161.949 M
504.83 161.949 L
S
GR
GS
0.149 GC
2 setlinecap
1 LJ
0.5 LW
N
507 153.29 M
504.83 153.29 L
S
GR
GS
0.149 GC
2 setlinecap
1 LJ
0.5 LW
N
507 135.972 M
504.83 135.972 L
S
GR
GS
0.149 GC
2 setlinecap
1 LJ
0.5 LW
N
507 127.313 M
504.83 127.313 L
S
GR
GS
0.149 GC
2 setlinecap
1 LJ
0.5 LW
N
507 118.655 M
504.83 118.655 L
S
GR
GS
0.149 GC
2 setlinecap
1 LJ
0.5 LW
N
507 109.996 M
504.83 109.996 L
S
GR
GS
0.149 GC
2 setlinecap
1 LJ
0.5 LW
N
507 92.678 M
504.83 92.678 L
S
GR
GS
0.149 GC
2 setlinecap
1 LJ
0.5 LW
N
507 84.019 M
504.83 84.019 L
S
GR
GS
0.149 GC
2 setlinecap
1 LJ
0.5 LW
N
507 75.36 M
504.83 75.36 L
S
GR
GS
0.149 GC
2 setlinecap
1 LJ
0.5 LW
N
507 66.701 M
504.83 66.701 L
S
GR
GS
0.149 GC
2 setlinecap
1 LJ
0.5 LW
N
507 49.383 M
504.83 49.383 L
S
GR
GS
0.149 GC
2 setlinecap
1 LJ
0.5 LW
N
507 40.724 M
504.83 40.724 L
S
GR
GS
0.149 GC
2 setlinecap
1 LJ
0.5 LW
N
507 32.065 M
504.83 32.065 L
S
GR
GS
[1 0 0 1 68.2 361.10516] CT
0.149 GC
/Helvetica 14 F
GS
[1 0 0 1 0 0] CT
-16 5.5 moveto 
1 -1 scale
(46) t 
GR
GR
GS
[1 0 0 1 68.2 317.81039] CT
0.149 GC
/Helvetica 14 F
GS
[1 0 0 1 0 0] CT
-16 5.5 moveto 
1 -1 scale
(47) t 
GR
GR
GS
[1 0 0 1 68.2 274.51563] CT
0.149 GC
/Helvetica 14 F
GS
[1 0 0 1 0 0] CT
-16 5.5 moveto 
1 -1 scale
(48) t 
GR
GR
GS
[1 0 0 1 68.2 231.22086] CT
0.149 GC
/Helvetica 14 F
GS
[1 0 0 1 0 0] CT
-16 5.5 moveto 
1 -1 scale
(49) t 
GR
GR
GS
[1 0 0 1 68.2 187.92609] CT
0.149 GC
/Helvetica 14 F
GS
[1 0 0 1 0 0] CT
-16 5.5 moveto 
1 -1 scale
(50) t 
GR
GR
GS
[1 0 0 1 68.2 144.63132] CT
0.149 GC
/Helvetica 14 F
GS
[1 0 0 1 0 0] CT
-16 5.5 moveto 
1 -1 scale
(51) t 
GR
GR
GS
[1 0 0 1 68.2 101.33654] CT
0.149 GC
/Helvetica 14 F
GS
[1 0 0 1 0 0] CT
-16 5.5 moveto 
1 -1 scale
(52) t 
GR
GR
GS
[1 0 0 1 68.2 58.04177] CT
0.149 GC
/Helvetica 14 F
GS
[1 0 0 1 0 0] CT
-16 5.5 moveto 
1 -1 scale
(53) t 
GR
GR
GS
[0 -1 1 0 49.2 202.74986] CT
0.149 GC
/Helvetica 15.4 F
GS
[1 0 0 1 0 0] CT
-50.5 -4 moveto 
1 -1 scale
(APSNR-U \(dB\)) t 
GR
GR
GS
[1 0 0 1 290.00031 29.57491] CT
/Helvetica-Bold 15.4 F
GS
[1 0 0 1 0 0] CT
-141 -4 moveto 
1 -1 scale
(Skater227_1920x1080_30fps.y4m-hevc) t 
GR
GR
GS
0 0.447 0.741 RC
1 LJ
0.5 LW
N
73.651 364.121 M
77.541 348.717 L
81.43 333.805 L
85.32 319.755 L
89.209 306.937 L
93.099 295.721 L
96.988 286.221 L
100.878 277.396 L
104.768 269.073 L
108.657 261.233 L
112.547 253.859 L
116.436 246.932 L
120.326 240.433 L
124.215 234.344 L
128.105 228.647 L
131.995 223.323 L
135.884 218.353 L
139.774 213.695 L
143.663 209.195 L
147.553 204.826 L
151.442 200.586 L
155.332 196.471 L
159.222 192.479 L
163.111 188.607 L
167.001 184.852 L
170.89 181.211 L
174.78 177.682 L
178.67 174.261 L
182.559 170.946 L
186.449 167.733 L
190.338 164.62 L
194.228 161.605 L
198.117 158.683 L
202.007 155.853 L
205.897 153.111 L
209.786 150.454 L
213.676 147.881 L
217.565 145.387 L
221.455 142.97 L
225.344 140.627 L
229.234 138.355 L
233.124 136.137 L
237.013 133.925 L
240.903 131.717 L
244.792 129.514 L
248.682 127.316 L
252.571 125.126 L
256.461 122.942 L
260.351 120.767 L
264.24 118.602 L
268.13 116.446 L
272.019 114.301 L
275.909 112.167 L
279.799 110.047 L
283.688 107.94 L
287.578 105.847 L
291.467 103.77 L
295.357 101.708 L
299.246 99.664 L
303.136 97.638 L
307.026 95.63 L
310.915 93.641 L
314.805 91.673 L
318.694 89.727 L
322.584 87.802 L
326.473 85.901 L
330.363 84.023 L
334.253 82.17 L
338.142 80.343 L
342.032 78.542 L
345.921 76.768 L
349.811 75.023 L
353.701 73.307 L
357.59 71.62 L
361.48 69.965 L
365.369 68.341 L
369.259 66.75 L
373.148 65.192 L
377.038 63.668 L
380.928 62.179 L
384.817 60.727 L
388.707 59.311 L
392.596 57.933 L
396.486 56.593 L
400.375 55.293 L
404.265 54.033 L
408.155 52.815 L
412.044 51.638 L
415.934 50.505 L
419.823 49.415 L
423.713 48.37 L
427.602 47.37 L
431.492 46.416 L
435.382 45.51 L
439.271 44.652 L
443.161 43.843 L
447.05 43.084 L
450.94 42.375 L
454.83 41.718 L
458.719 41.113 L
462.609 40.562 L
466.498 40.064 L
470.388 39.622 L
474.277 39.236 L
478.167 38.906 L
S
GR
GS
0.851 0.325 0.098 RC
1 LJ
0.5 LW
N
74.737 355.133 M
78.626 340.631 L
82.516 326.558 L
86.405 313.219 L
90.295 300.917 L
94.185 289.959 L
98.074 280.564 L
101.964 271.893 L
105.853 263.649 L
109.743 255.828 L
113.632 248.424 L
117.522 241.432 L
121.412 234.85 L
125.301 228.671 L
129.191 222.892 L
133.08 217.508 L
136.97 212.514 L
140.859 207.906 L
144.749 203.586 L
148.639 199.404 L
152.528 195.354 L
156.418 191.432 L
160.307 187.634 L
164.197 183.957 L
168.087 180.397 L
171.976 176.95 L
175.866 173.612 L
179.755 170.379 L
183.645 167.248 L
187.534 164.215 L
191.424 161.275 L
195.314 158.426 L
199.203 155.663 L
203.093 152.982 L
206.982 150.381 L
210.872 147.854 L
214.761 145.398 L
218.651 143.009 L
222.541 140.684 L
226.43 138.419 L
230.32 136.209 L
234.209 134.052 L
238.099 131.942 L
241.988 129.85 L
245.878 127.762 L
249.768 125.678 L
253.657 123.6 L
257.547 121.527 L
261.436 119.462 L
265.326 117.403 L
269.216 115.352 L
273.105 113.311 L
276.995 111.278 L
280.884 109.255 L
284.774 107.244 L
288.663 105.243 L
292.553 103.255 L
296.443 101.28 L
300.332 99.318 L
304.222 97.371 L
308.111 95.438 L
312.001 93.521 L
315.89 91.621 L
319.78 89.737 L
323.67 87.871 L
327.559 86.023 L
331.449 84.195 L
335.338 82.386 L
339.228 80.598 L
343.117 78.831 L
347.007 77.086 L
350.897 75.364 L
354.786 73.664 L
358.676 71.989 L
362.565 70.338 L
366.455 68.713 L
370.345 67.114 L
374.234 65.541 L
378.124 63.996 L
382.013 62.479 L
385.903 60.991 L
389.792 59.532 L
393.682 58.104 L
397.572 56.706 L
401.461 55.34 L
405.351 54.007 L
409.24 52.706 L
413.13 51.439 L
417.019 50.207 L
420.909 49.009 L
424.799 47.847 L
428.688 46.722 L
432.578 45.634 L
436.467 44.584 L
440.357 43.572 L
444.247 42.6 L
448.136 41.667 L
452.026 40.775 L
455.915 39.925 L
459.805 39.116 L
463.694 38.35 L
467.584 37.628 L
471.474 36.95 L
475.363 36.316 L
479.253 35.728 L
483.142 35.187 L
487.032 34.692 L
490.921 34.244 L
494.811 33.845 L
498.701 33.495 L
S
GR
GS
0.929 0.694 0.125 RC
1 LJ
0.5 LW
N
73 374 M
76.89 357.809 L
80.779 342.15 L
84.669 327.482 L
88.558 314.267 L
92.448 302.965 L
96.337 293.532 L
100.227 284.787 L
104.117 276.617 L
108.006 268.981 L
111.896 261.839 L
115.785 255.151 L
119.675 248.877 L
123.565 242.977 L
127.454 237.41 L
131.344 232.137 L
135.233 227.116 L
139.123 222.294 L
143.012 217.591 L
146.902 213.001 L
150.792 208.525 L
154.681 204.16 L
158.571 199.908 L
162.46 195.766 L
166.35 191.735 L
170.239 187.815 L
174.129 184.004 L
178.019 180.302 L
181.908 176.709 L
185.798 173.225 L
189.687 169.848 L
193.577 166.578 L
197.466 163.415 L
201.356 160.358 L
205.246 157.406 L
209.135 154.56 L
213.025 151.818 L
216.914 149.181 L
220.804 146.647 L
224.694 144.216 L
228.583 141.88 L
232.473 139.565 L
236.362 137.253 L
240.252 134.945 L
244.141 132.641 L
248.031 130.343 L
251.921 128.052 L
255.81 125.769 L
259.7 123.494 L
263.589 121.23 L
267.479 118.976 L
271.368 116.734 L
275.258 114.505 L
279.148 112.291 L
283.037 110.091 L
286.927 107.907 L
290.816 105.741 L
294.706 103.592 L
298.595 101.463 L
302.485 99.354 L
306.375 97.266 L
310.264 95.2 L
314.154 93.158 L
318.043 91.139 L
321.933 89.147 L
325.823 87.18 L
329.712 85.241 L
333.602 83.331 L
337.491 81.45 L
341.381 79.599 L
345.27 77.78 L
349.16 75.993 L
353.05 74.24 L
356.939 72.522 L
360.829 70.839 L
364.718 69.193 L
368.608 67.585 L
372.497 66.015 L
376.387 64.486 L
380.277 62.997 L
384.166 61.549 L
388.056 60.145 L
391.945 58.785 L
395.835 57.469 L
399.724 56.2 L
403.614 54.977 L
407.504 53.803 L
411.393 52.677 L
415.283 51.601 L
419.172 50.577 L
423.062 49.605 L
426.952 48.686 L
430.841 47.821 L
434.731 47.011 L
438.62 46.258 L
442.51 45.562 L
446.399 44.924 L
450.289 44.346 L
454.179 43.828 L
458.068 43.372 L
461.958 42.977 L
465.847 42.647 L
469.737 42.381 L
473.626 42.18 L
S
GR
GS
0.494 0.184 0.557 RC
1 LJ
0.5 LW
N
75.257 352.42 M
79.146 337.968 L
83.036 323.937 L
86.926 310.647 L
90.815 298.422 L
94.705 287.58 L
98.594 278.414 L
102.484 270.184 L
106.374 262.436 L
110.263 255.143 L
114.153 248.28 L
118.042 241.822 L
121.932 235.743 L
125.821 230.018 L
129.711 224.622 L
133.601 219.528 L
137.49 214.712 L
141.38 210.148 L
145.269 205.796 L
149.159 201.562 L
153.048 197.43 L
156.938 193.401 L
160.828 189.472 L
164.717 185.642 L
168.607 181.911 L
172.496 178.276 L
176.386 174.738 L
180.275 171.294 L
184.165 167.943 L
188.055 164.685 L
191.944 161.518 L
195.834 158.44 L
199.723 155.452 L
203.613 152.551 L
207.503 149.736 L
211.392 147.007 L
215.282 144.361 L
219.171 141.798 L
223.061 139.317 L
226.95 136.916 L
230.84 134.595 L
234.73 132.351 L
238.619 130.185 L
242.509 128.089 L
246.398 126.012 L
250.288 123.937 L
254.177 121.866 L
258.067 119.799 L
261.957 117.737 L
265.846 115.68 L
269.736 113.63 L
273.625 111.587 L
277.515 109.553 L
281.405 107.527 L
285.294 105.51 L
289.184 103.504 L
293.073 101.509 L
296.963 99.526 L
300.852 97.556 L
304.742 95.599 L
308.632 93.656 L
312.521 91.728 L
316.411 89.816 L
320.3 87.92 L
324.19 86.042 L
328.079 84.182 L
331.969 82.34 L
335.859 80.519 L
339.748 78.717 L
343.638 76.937 L
347.527 75.179 L
351.417 73.443 L
355.306 71.731 L
359.196 70.043 L
363.086 68.38 L
366.975 66.743 L
370.865 65.132 L
374.754 63.549 L
378.644 61.994 L
382.534 60.468 L
386.423 58.971 L
390.313 57.505 L
394.202 56.07 L
398.092 54.667 L
401.981 53.297 L
405.871 51.96 L
409.761 50.658 L
413.65 49.39 L
417.54 48.159 L
421.429 46.964 L
425.319 45.806 L
429.208 44.687 L
433.098 43.606 L
436.988 42.565 L
440.877 41.565 L
444.767 40.606 L
448.656 39.689 L
452.546 38.815 L
456.436 37.984 L
460.325 37.198 L
464.215 36.456 L
468.104 35.761 L
471.994 35.112 L
475.883 34.511 L
479.773 33.958 L
483.663 33.453 L
487.552 32.999 L
491.442 32.595 L
495.331 32.243 L
499.221 31.942 L
503.11 31.694 L
507 31.5 L
S
GR
GS
0.467 0.675 0.188 RC
[10 6] 0 setdash
2 LJ
0.5 LW
N
73.382 367.538 M
77.271 352.169 L
81.161 337.296 L
85.05 323.252 L
88.94 310.372 L
92.83 298.99 L
96.719 289.163 L
100.609 279.916 L
104.498 271.126 L
108.388 262.796 L
112.277 254.928 L
116.167 247.523 L
120.057 240.585 L
123.946 234.115 L
127.836 228.116 L
131.725 222.589 L
135.615 217.536 L
139.504 212.857 L
143.394 208.341 L
147.284 203.977 L
151.173 199.761 L
155.063 195.688 L
158.952 191.753 L
162.842 187.952 L
166.732 184.28 L
170.621 180.732 L
174.511 177.304 L
178.4 173.991 L
182.29 170.789 L
186.179 167.693 L
190.069 164.698 L
193.959 161.8 L
197.848 158.993 L
201.738 156.275 L
205.627 153.638 L
209.517 151.081 L
213.406 148.596 L
217.296 146.18 L
221.186 143.829 L
225.075 141.537 L
228.965 139.298 L
232.854 137.073 L
236.744 134.852 L
240.633 132.636 L
244.523 130.427 L
248.413 128.224 L
252.302 126.028 L
256.192 123.842 L
260.081 121.664 L
263.971 119.497 L
267.861 117.341 L
271.75 115.197 L
275.64 113.065 L
279.529 110.948 L
283.419 108.844 L
287.308 106.756 L
291.198 104.685 L
295.088 102.63 L
298.977 100.593 L
302.867 98.575 L
306.756 96.577 L
310.646 94.599 L
314.535 92.642 L
318.425 90.707 L
322.315 88.796 L
326.204 86.908 L
330.094 85.046 L
333.983 83.208 L
337.873 81.397 L
341.762 79.614 L
345.652 77.859 L
349.542 76.132 L
353.431 74.436 L
357.321 72.77 L
361.21 71.136 L
365.1 69.534 L
368.99 67.965 L
372.879 66.431 L
376.769 64.931 L
380.658 63.468 L
384.548 62.041 L
388.437 60.652 L
392.327 59.301 L
396.217 57.989 L
400.106 56.717 L
403.996 55.486 L
407.885 54.298 L
411.775 53.151 L
415.664 52.049 L
419.554 50.991 L
423.444 49.978 L
427.333 49.011 L
431.223 48.091 L
435.112 47.218 L
439.002 46.395 L
442.892 45.621 L
446.781 44.897 L
450.671 44.224 L
454.56 43.604 L
458.45 43.036 L
462.339 42.523 L
466.229 42.063 L
470.119 41.66 L
474.008 41.312 L
S
GR
GS
0.302 0.745 0.933 RC
[10 6] 0 setdash
2 LJ
0.5 LW
N
73.176 370.134 M
77.066 354.662 L
80.955 339.684 L
84.845 325.583 L
88.734 312.739 L
92.624 301.536 L
96.513 292.029 L
100.403 283.173 L
104.293 274.83 L
108.182 266.976 L
112.072 259.589 L
115.961 252.646 L
119.851 246.123 L
123.74 239.999 L
127.63 234.249 L
131.52 228.852 L
135.409 223.783 L
139.299 218.996 L
143.188 214.354 L
147.078 209.838 L
150.967 205.447 L
154.857 201.177 L
158.747 197.029 L
162.636 192.998 L
166.526 189.084 L
170.415 185.285 L
174.305 181.598 L
178.195 178.022 L
182.084 174.555 L
185.974 171.195 L
189.863 167.94 L
193.753 164.788 L
197.642 161.737 L
201.532 158.786 L
205.422 155.931 L
209.311 153.172 L
213.201 150.507 L
217.09 147.933 L
220.98 145.449 L
224.869 143.053 L
228.759 140.742 L
232.649 138.466 L
236.538 136.194 L
240.428 133.925 L
244.317 131.662 L
248.207 129.404 L
252.096 127.153 L
255.986 124.909 L
259.876 122.675 L
263.765 120.45 L
267.655 118.236 L
271.544 116.033 L
275.434 113.843 L
279.324 111.666 L
283.213 109.504 L
287.103 107.357 L
290.992 105.226 L
294.882 103.113 L
298.771 101.018 L
302.661 98.942 L
306.551 96.887 L
310.44 94.853 L
314.33 92.841 L
318.219 90.852 L
322.109 88.887 L
325.998 86.946 L
329.888 85.032 L
333.778 83.145 L
337.667 81.286 L
341.557 79.455 L
345.446 77.655 L
349.336 75.885 L
353.225 74.147 L
357.115 72.441 L
361.005 70.769 L
364.894 69.132 L
368.784 67.53 L
372.673 65.965 L
376.563 64.437 L
380.453 62.948 L
384.342 61.498 L
388.232 60.088 L
392.121 58.72 L
396.011 57.394 L
399.9 56.111 L
403.79 54.872 L
407.68 53.678 L
411.569 52.531 L
415.459 51.43 L
419.348 50.378 L
423.238 49.375 L
427.127 48.421 L
431.017 47.518 L
434.907 46.667 L
438.796 45.869 L
442.686 45.125 L
446.575 44.436 L
450.465 43.802 L
454.354 43.224 L
458.244 42.705 L
462.134 42.244 L
466.023 41.842 L
469.913 41.501 L
473.802 41.221 L
477.692 41.004 L
S
GR
GS
0.635 0.078 0.184 RC
[10 6] 0 setdash
2 LJ
0.5 LW
N
73.826 361.666 M
77.716 345.761 L
81.605 330.362 L
85.495 315.894 L
89.384 302.782 L
93.274 291.448 L
97.164 282.085 L
101.053 273.536 L
104.943 265.544 L
108.832 258.074 L
112.722 251.091 L
116.611 244.56 L
120.501 238.446 L
124.391 232.715 L
128.28 227.33 L
132.17 222.257 L
136.059 217.46 L
139.949 212.901 L
143.839 208.486 L
147.728 204.186 L
151.618 200.001 L
155.507 195.929 L
159.397 191.966 L
163.286 188.113 L
167.176 184.366 L
171.066 180.725 L
174.955 177.187 L
178.845 173.751 L
182.734 170.415 L
186.624 167.176 L
190.513 164.034 L
194.403 160.986 L
198.293 158.031 L
202.182 155.167 L
206.072 152.392 L
209.961 149.704 L
213.851 147.102 L
217.741 144.583 L
221.63 142.147 L
225.52 139.79 L
229.409 137.512 L
233.299 135.31 L
237.188 133.139 L
241.078 130.971 L
244.968 128.806 L
248.857 126.647 L
252.747 124.492 L
256.636 122.345 L
260.526 120.204 L
264.415 118.072 L
268.305 115.949 L
272.195 113.835 L
276.084 111.732 L
279.974 109.641 L
283.863 107.561 L
287.753 105.495 L
291.642 103.443 L
295.532 101.406 L
299.422 99.384 L
303.311 97.379 L
307.201 95.392 L
311.09 93.422 L
314.98 91.472 L
318.87 89.541 L
322.759 87.631 L
326.649 85.743 L
330.538 83.877 L
334.428 82.034 L
338.317 80.216 L
342.207 78.422 L
346.097 76.654 L
349.986 74.913 L
353.876 73.199 L
357.765 71.513 L
361.655 69.857 L
365.544 68.23 L
369.434 66.635 L
373.324 65.071 L
377.213 63.539 L
381.103 62.041 L
384.992 60.577 L
388.882 59.148 L
392.771 57.755 L
396.661 56.399 L
400.551 55.08 L
404.44 53.8 L
408.33 52.559 L
412.219 51.358 L
416.109 50.198 L
419.999 49.079 L
423.888 48.003 L
427.778 46.971 L
431.667 45.983 L
435.557 45.04 L
439.446 44.143 L
443.336 43.293 L
447.226 42.491 L
451.115 41.737 L
455.005 41.032 L
458.894 40.377 L
462.784 39.774 L
466.673 39.222 L
470.563 38.723 L
474.453 38.278 L
478.342 37.887 L
482.232 37.551 L
486.121 37.272 L
S
GR
GS
1 GC
N
499 366 M
499 250.5 L
344.5 250.5 L
344.5 366 L
cp
f
GR
GS
[1 0 0 1 381.5 260.25] CT
/Helvetica 13 F
GS
[1 0 0 1 0 0] CT
0 5 moveto 
1 -1 scale
(Base Run) t 
GR
GR
GS
0 0.447 0.741 RC
1 LJ
0.5 LW
N
348.5 260.25 M
378.5 260.25 L
S
GR
GS
[1 0 0 1 381.5 276.25] CT
/Helvetica 13 F
GS
[1 0 0 1 0 0] CT
0 5 moveto 
1 -1 scale
(I & B Frames) t 
GR
GR
GS
0.851 0.325 0.098 RC
1 LJ
0.5 LW
N
348.5 276.25 M
378.5 276.25 L
S
GR
GS
[1 0 0 1 381.5 292.25] CT
/Helvetica 13 F
GS
[1 0 0 1 0 0] CT
0 5 moveto 
1 -1 scale
(I Frames Only) t 
GR
GR
GS
0.929 0.694 0.125 RC
1 LJ
0.5 LW
N
348.5 292.25 M
378.5 292.25 L
S
GR
GS
[1 0 0 1 381.5 308.25] CT
/Helvetica 13 F
GS
[1 0 0 1 0 0] CT
0 5 moveto 
1 -1 scale
(B Frames Only) t 
GR
GR
GS
0.494 0.184 0.557 RC
1 LJ
0.5 LW
N
348.5 308.25 M
378.5 308.25 L
S
GR
GS
[1 0 0 1 381.5 324.25] CT
/Helvetica 13 F
GS
[1 0 0 1 0 0] CT
0 5 moveto 
1 -1 scale
(Part I & B Frames) t 
GR
GR
GS
0.467 0.675 0.188 RC
[10 6] 0 setdash
2 LJ
0.5 LW
N
348.5 324.25 M
378.5 324.25 L
S
GR
GS
[1 0 0 1 381.5 340.25] CT
/Helvetica 13 F
GS
[1 0 0 1 0 0] CT
0 5 moveto 
1 -1 scale
(Part I Frames Only) t 
GR
GR
GS
0.302 0.745 0.933 RC
[10 6] 0 setdash
2 LJ
0.5 LW
N
348.5 340.25 M
378.5 340.25 L
S
GR
GS
[1 0 0 1 381.5 356.25] CT
/Helvetica 13 F
GS
[1 0 0 1 0 0] CT
0 5 moveto 
1 -1 scale
(Part B Frames Only) t 
GR
GR
GS
0.635 0.078 0.184 RC
[10 6] 0 setdash
2 LJ
0.5 LW
N
348.5 356.25 M
378.5 356.25 L
S
GR
GS
0.149 GC
10.0 ML
0.5 LW
N
344.5 366 M
344.5 250.5 L
499 250.5 L
499 366 L
cp
S
GR
%%Trailer
%%Pages: 1
%%EOF
