%!PS-Adobe-3.0 EPSF-3.0
%%Creator: (MATLAB, The Mathworks, Inc. Version 9.11.0.1837725 \(R2021b\) Update 2. Operating System: Mac OS X)
%%Title: plots/pchip/Skater227_1920x1080_30fps.y4m-hevc-APSNRY.eps
%%CreationDate: 2022-02-03T19:14:45
%%Pages: (atend)
%%BoundingBox:    33   425   508   826
%%LanguageLevel: 3
%%EndComments
%%BeginProlog
%%BeginResource: procset (Apache XML Graphics Std ProcSet) 1.2 0
%%Version: 1.2 0
%%Copyright: (Copyright 2001-2003,2010 The Apache Software Foundation. License terms: http://www.apache.org/licenses/LICENSE-2.0)
/bd{bind def}bind def
/ld{load def}bd
/GR/grestore ld
/GS/gsave ld
/RM/rmoveto ld
/C/curveto ld
/t/show ld
/L/lineto ld
/ML/setmiterlimit ld
/CT/concat ld
/f/fill ld
/N/newpath ld
/S/stroke ld
/CC/setcmykcolor ld
/A/ashow ld
/cp/closepath ld
/RC/setrgbcolor ld
/LJ/setlinejoin ld
/GC/setgray ld
/LW/setlinewidth ld
/M/moveto ld
/re {4 2 roll M
1 index 0 rlineto
0 exch rlineto
neg 0 rlineto
cp } bd
/_ctm matrix def
/_tm matrix def
/BT { _ctm currentmatrix pop matrix _tm copy pop 0 0 moveto } bd
/ET { _ctm setmatrix } bd
/iTm { _ctm setmatrix _tm concat } bd
/Tm { _tm astore pop iTm 0 0 moveto } bd
/ux 0.0 def
/uy 0.0 def
/F {
  /Tp exch def
  /Tf exch def
  Tf findfont Tp scalefont setfont
  /cf Tf def  /cs Tp def
} bd
/ULS {currentpoint /uy exch def /ux exch def} bd
/ULE {
  /Tcx currentpoint pop def
  gsave
  newpath
  cf findfont cs scalefont dup
  /FontMatrix get 0 get /Ts exch def /FontInfo get dup
  /UnderlinePosition get Ts mul /To exch def
  /UnderlineThickness get Ts mul /Tt exch def
  ux uy To add moveto  Tcx uy To add lineto
  Tt setlinewidth stroke
  grestore
} bd
/OLE {
  /Tcx currentpoint pop def
  gsave
  newpath
  cf findfont cs scalefont dup
  /FontMatrix get 0 get /Ts exch def /FontInfo get dup
  /UnderlinePosition get Ts mul /To exch def
  /UnderlineThickness get Ts mul /Tt exch def
  ux uy To add cs add moveto Tcx uy To add cs add lineto
  Tt setlinewidth stroke
  grestore
} bd
/SOE {
  /Tcx currentpoint pop def
  gsave
  newpath
  cf findfont cs scalefont dup
  /FontMatrix get 0 get /Ts exch def /FontInfo get dup
  /UnderlinePosition get Ts mul /To exch def
  /UnderlineThickness get Ts mul /Tt exch def
  ux uy To add cs 10 mul 26 idiv add moveto Tcx uy To add cs 10 mul 26 idiv add lineto
  Tt setlinewidth stroke
  grestore
} bd
/QT {
/Y22 exch store
/X22 exch store
/Y21 exch store
/X21 exch store
currentpoint
/Y21 load 2 mul add 3 div exch
/X21 load 2 mul add 3 div exch
/X21 load 2 mul /X22 load add 3 div
/Y21 load 2 mul /Y22 load add 3 div
/X22 load /Y22 load curveto
} bd
/SSPD {
dup length /d exch dict def
{
/v exch def
/k exch def
currentpagedevice k known {
/cpdv currentpagedevice k get def
v cpdv ne {
/upd false def
/nullv v type /nulltype eq def
/nullcpdv cpdv type /nulltype eq def
nullv nullcpdv or
{
/upd true def
} {
/sametype v type cpdv type eq def
sametype {
v type /arraytype eq {
/vlen v length def
/cpdvlen cpdv length def
vlen cpdvlen eq {
0 1 vlen 1 sub {
/i exch def
/obj v i get def
/cpdobj cpdv i get def
obj cpdobj ne {
/upd true def
exit
} if
} for
} {
/upd true def
} ifelse
} {
v type /dicttype eq {
v {
/dv exch def
/dk exch def
/cpddv cpdv dk get def
dv cpddv ne {
/upd true def
exit
} if
} forall
} {
/upd true def
} ifelse
} ifelse
} if
} ifelse
upd true eq {
d k v put
} if
} if
} if
} forall
d length 0 gt {
d setpagedevice
} if
} bd
/RE { % /NewFontName [NewEncodingArray] /FontName RE -
  findfont dup length dict begin
  {
    1 index /FID ne
    {def} {pop pop} ifelse
  } forall
  /Encoding exch def
  /FontName 1 index def
  currentdict definefont pop
  end
} bind def
%%EndResource
%%BeginResource: procset (Apache XML Graphics EPS ProcSet) 1.0 0
%%Version: 1.0 0
%%Copyright: (Copyright 2002-2003 The Apache Software Foundation. License terms: http://www.apache.org/licenses/LICENSE-2.0)
/BeginEPSF { %def
/b4_Inc_state save def         % Save state for cleanup
/dict_count countdictstack def % Count objects on dict stack
/op_count count 1 sub def      % Count objects on operand stack
userdict begin                 % Push userdict on dict stack
/showpage { } def              % Redefine showpage, { } = null proc
0 setgray 0 setlinecap         % Prepare graphics state
1 setlinewidth 0 setlinejoin
10 setmiterlimit [ ] 0 setdash newpath
/languagelevel where           % If level not equal to 1 then
{pop languagelevel             % set strokeadjust and
1 ne                           % overprint to their defaults.
{false setstrokeadjust false setoverprint
} if
} if
} bd
/EndEPSF { %def
count op_count sub {pop} repeat            % Clean up stacks
countdictstack dict_count sub {end} repeat
b4_Inc_state restore
} bd
%%EndResource
%FOPBeginFontDict
%%IncludeResource: font Courier-Oblique
%%IncludeResource: font Courier-BoldOblique
%%IncludeResource: font Courier-Bold
%%IncludeResource: font ZapfDingbats
%%IncludeResource: font Symbol
%%IncludeResource: font Helvetica
%%IncludeResource: font Helvetica-Oblique
%%IncludeResource: font Helvetica-Bold
%%IncludeResource: font Helvetica-BoldOblique
%%IncludeResource: font Times-Roman
%%IncludeResource: font Times-Italic
%%IncludeResource: font Times-Bold
%%IncludeResource: font Times-BoldItalic
%%IncludeResource: font Courier
%FOPEndFontDict
%%BeginResource: encoding WinAnsiEncoding
/WinAnsiEncoding [
/.notdef /.notdef /.notdef /.notdef /.notdef
/.notdef /.notdef /.notdef /.notdef /.notdef
/.notdef /.notdef /.notdef /.notdef /.notdef
/.notdef /.notdef /.notdef /.notdef /.notdef
/.notdef /.notdef /.notdef /.notdef /.notdef
/.notdef /.notdef /.notdef /.notdef /.notdef
/.notdef /.notdef /space /exclam /quotedbl
/numbersign /dollar /percent /ampersand /quotesingle
/parenleft /parenright /asterisk /plus /comma
/hyphen /period /slash /zero /one
/two /three /four /five /six
/seven /eight /nine /colon /semicolon
/less /equal /greater /question /at
/A /B /C /D /E
/F /G /H /I /J
/K /L /M /N /O
/P /Q /R /S /T
/U /V /W /X /Y
/Z /bracketleft /backslash /bracketright /asciicircum
/underscore /quoteleft /a /b /c
/d /e /f /g /h
/i /j /k /l /m
/n /o /p /q /r
/s /t /u /v /w
/x /y /z /braceleft /bar
/braceright /asciitilde /bullet /Euro /bullet
/quotesinglbase /florin /quotedblbase /ellipsis /dagger
/daggerdbl /circumflex /perthousand /Scaron /guilsinglleft
/OE /bullet /Zcaron /bullet /bullet
/quoteleft /quoteright /quotedblleft /quotedblright /bullet
/endash /emdash /asciitilde /trademark /scaron
/guilsinglright /oe /bullet /zcaron /Ydieresis
/space /exclamdown /cent /sterling /currency
/yen /brokenbar /section /dieresis /copyright
/ordfeminine /guillemotleft /logicalnot /sfthyphen /registered
/macron /degree /plusminus /twosuperior /threesuperior
/acute /mu /paragraph /middot /cedilla
/onesuperior /ordmasculine /guillemotright /onequarter /onehalf
/threequarters /questiondown /Agrave /Aacute /Acircumflex
/Atilde /Adieresis /Aring /AE /Ccedilla
/Egrave /Eacute /Ecircumflex /Edieresis /Igrave
/Iacute /Icircumflex /Idieresis /Eth /Ntilde
/Ograve /Oacute /Ocircumflex /Otilde /Odieresis
/multiply /Oslash /Ugrave /Uacute /Ucircumflex
/Udieresis /Yacute /Thorn /germandbls /agrave
/aacute /acircumflex /atilde /adieresis /aring
/ae /ccedilla /egrave /eacute /ecircumflex
/edieresis /igrave /iacute /icircumflex /idieresis
/eth /ntilde /ograve /oacute /ocircumflex
/otilde /odieresis /divide /oslash /ugrave
/uacute /ucircumflex /udieresis /yacute /thorn
/ydieresis
] def
%%EndResource
%FOPBeginFontReencode
/Courier-Oblique findfont
dup length dict begin
  {1 index /FID ne {def} {pop pop} ifelse} forall
  /Encoding WinAnsiEncoding def
  currentdict
end
/Courier-Oblique exch definefont pop
/Courier-BoldOblique findfont
dup length dict begin
  {1 index /FID ne {def} {pop pop} ifelse} forall
  /Encoding WinAnsiEncoding def
  currentdict
end
/Courier-BoldOblique exch definefont pop
/Courier-Bold findfont
dup length dict begin
  {1 index /FID ne {def} {pop pop} ifelse} forall
  /Encoding WinAnsiEncoding def
  currentdict
end
/Courier-Bold exch definefont pop
/Helvetica findfont
dup length dict begin
  {1 index /FID ne {def} {pop pop} ifelse} forall
  /Encoding WinAnsiEncoding def
  currentdict
end
/Helvetica exch definefont pop
/Helvetica-Oblique findfont
dup length dict begin
  {1 index /FID ne {def} {pop pop} ifelse} forall
  /Encoding WinAnsiEncoding def
  currentdict
end
/Helvetica-Oblique exch definefont pop
/Helvetica-Bold findfont
dup length dict begin
  {1 index /FID ne {def} {pop pop} ifelse} forall
  /Encoding WinAnsiEncoding def
  currentdict
end
/Helvetica-Bold exch definefont pop
/Helvetica-BoldOblique findfont
dup length dict begin
  {1 index /FID ne {def} {pop pop} ifelse} forall
  /Encoding WinAnsiEncoding def
  currentdict
end
/Helvetica-BoldOblique exch definefont pop
/Times-Roman findfont
dup length dict begin
  {1 index /FID ne {def} {pop pop} ifelse} forall
  /Encoding WinAnsiEncoding def
  currentdict
end
/Times-Roman exch definefont pop
/Times-Italic findfont
dup length dict begin
  {1 index /FID ne {def} {pop pop} ifelse} forall
  /Encoding WinAnsiEncoding def
  currentdict
end
/Times-Italic exch definefont pop
/Times-Bold findfont
dup length dict begin
  {1 index /FID ne {def} {pop pop} ifelse} forall
  /Encoding WinAnsiEncoding def
  currentdict
end
/Times-Bold exch definefont pop
/Times-BoldItalic findfont
dup length dict begin
  {1 index /FID ne {def} {pop pop} ifelse} forall
  /Encoding WinAnsiEncoding def
  currentdict
end
/Times-BoldItalic exch definefont pop
/Courier findfont
dup length dict begin
  {1 index /FID ne {def} {pop pop} ifelse} forall
  /Encoding WinAnsiEncoding def
  currentdict
end
/Courier exch definefont pop
%FOPEndFontReencode
%%EndProlog
%%Page: 1 1
%%PageBoundingBox: 0 0 1120 840
%%BeginPageSetup
[1 0 0 -1 0 840] CT
%%EndPageSetup
GS
1 GC
N
0 0 1120 840 re
f
GR
GS
1 GC
N
73 374 M
507 374 L
507 31.5 L
73 31.5 L
cp
f
GR
GS
0.149 GC
2 setlinecap
1 LJ
0.5 LW
N
73 374 M
507 374 L
S
GR
GS
0.149 GC
2 setlinecap
1 LJ
0.5 LW
N
73 31.5 M
507 31.5 L
S
GR
GS
0.149 GC
2 setlinecap
1 LJ
0.5 LW
N
142.165 374 M
142.165 369.66 L
S
GR
GS
0.149 GC
2 setlinecap
1 LJ
0.5 LW
N
239.404 374 M
239.404 369.66 L
S
GR
GS
0.149 GC
2 setlinecap
1 LJ
0.5 LW
N
336.644 374 M
336.644 369.66 L
S
GR
GS
0.149 GC
2 setlinecap
1 LJ
0.5 LW
N
433.883 374 M
433.883 369.66 L
S
GR
GS
0.149 GC
2 setlinecap
1 LJ
0.5 LW
N
142.165 31.5 M
142.165 35.84 L
S
GR
GS
0.149 GC
2 setlinecap
1 LJ
0.5 LW
N
239.404 31.5 M
239.404 35.84 L
S
GR
GS
0.149 GC
2 setlinecap
1 LJ
0.5 LW
N
336.644 31.5 M
336.644 35.84 L
S
GR
GS
0.149 GC
2 setlinecap
1 LJ
0.5 LW
N
433.883 31.5 M
433.883 35.84 L
S
GR
GS
0.149 GC
2 setlinecap
1 LJ
0.5 LW
N
83.821 374 M
83.821 371.83 L
S
GR
GS
0.149 GC
2 setlinecap
1 LJ
0.5 LW
N
103.269 374 M
103.269 371.83 L
S
GR
GS
0.149 GC
2 setlinecap
1 LJ
0.5 LW
N
122.717 374 M
122.717 371.83 L
S
GR
GS
0.149 GC
2 setlinecap
1 LJ
0.5 LW
N
161.613 374 M
161.613 371.83 L
S
GR
GS
0.149 GC
2 setlinecap
1 LJ
0.5 LW
N
181.061 374 M
181.061 371.83 L
S
GR
GS
0.149 GC
2 setlinecap
1 LJ
0.5 LW
N
200.508 374 M
200.508 371.83 L
S
GR
GS
0.149 GC
2 setlinecap
1 LJ
0.5 LW
N
219.956 374 M
219.956 371.83 L
S
GR
GS
0.149 GC
2 setlinecap
1 LJ
0.5 LW
N
258.852 374 M
258.852 371.83 L
S
GR
GS
0.149 GC
2 setlinecap
1 LJ
0.5 LW
N
278.3 374 M
278.3 371.83 L
S
GR
GS
0.149 GC
2 setlinecap
1 LJ
0.5 LW
N
297.748 374 M
297.748 371.83 L
S
GR
GS
0.149 GC
2 setlinecap
1 LJ
0.5 LW
N
317.196 374 M
317.196 371.83 L
S
GR
GS
0.149 GC
2 setlinecap
1 LJ
0.5 LW
N
356.092 374 M
356.092 371.83 L
S
GR
GS
0.149 GC
2 setlinecap
1 LJ
0.5 LW
N
375.539 374 M
375.539 371.83 L
S
GR
GS
0.149 GC
2 setlinecap
1 LJ
0.5 LW
N
394.987 374 M
394.987 371.83 L
S
GR
GS
0.149 GC
2 setlinecap
1 LJ
0.5 LW
N
414.435 374 M
414.435 371.83 L
S
GR
GS
0.149 GC
2 setlinecap
1 LJ
0.5 LW
N
453.331 374 M
453.331 371.83 L
S
GR
GS
0.149 GC
2 setlinecap
1 LJ
0.5 LW
N
472.779 374 M
472.779 371.83 L
S
GR
GS
0.149 GC
2 setlinecap
1 LJ
0.5 LW
N
492.227 374 M
492.227 371.83 L
S
GR
GS
0.149 GC
2 setlinecap
1 LJ
0.5 LW
N
83.821 31.5 M
83.821 33.67 L
S
GR
GS
0.149 GC
2 setlinecap
1 LJ
0.5 LW
N
103.269 31.5 M
103.269 33.67 L
S
GR
GS
0.149 GC
2 setlinecap
1 LJ
0.5 LW
N
122.717 31.5 M
122.717 33.67 L
S
GR
GS
0.149 GC
2 setlinecap
1 LJ
0.5 LW
N
161.613 31.5 M
161.613 33.67 L
S
GR
GS
0.149 GC
2 setlinecap
1 LJ
0.5 LW
N
181.061 31.5 M
181.061 33.67 L
S
GR
GS
0.149 GC
2 setlinecap
1 LJ
0.5 LW
N
200.508 31.5 M
200.508 33.67 L
S
GR
GS
0.149 GC
2 setlinecap
1 LJ
0.5 LW
N
219.956 31.5 M
219.956 33.67 L
S
GR
GS
0.149 GC
2 setlinecap
1 LJ
0.5 LW
N
258.852 31.5 M
258.852 33.67 L
S
GR
GS
0.149 GC
2 setlinecap
1 LJ
0.5 LW
N
278.3 31.5 M
278.3 33.67 L
S
GR
GS
0.149 GC
2 setlinecap
1 LJ
0.5 LW
N
297.748 31.5 M
297.748 33.67 L
S
GR
GS
0.149 GC
2 setlinecap
1 LJ
0.5 LW
N
317.196 31.5 M
317.196 33.67 L
S
GR
GS
0.149 GC
2 setlinecap
1 LJ
0.5 LW
N
356.092 31.5 M
356.092 33.67 L
S
GR
GS
0.149 GC
2 setlinecap
1 LJ
0.5 LW
N
375.539 31.5 M
375.539 33.67 L
S
GR
GS
0.149 GC
2 setlinecap
1 LJ
0.5 LW
N
394.987 31.5 M
394.987 33.67 L
S
GR
GS
0.149 GC
2 setlinecap
1 LJ
0.5 LW
N
414.435 31.5 M
414.435 33.67 L
S
GR
GS
0.149 GC
2 setlinecap
1 LJ
0.5 LW
N
453.331 31.5 M
453.331 33.67 L
S
GR
GS
0.149 GC
2 setlinecap
1 LJ
0.5 LW
N
472.779 31.5 M
472.779 33.67 L
S
GR
GS
0.149 GC
2 setlinecap
1 LJ
0.5 LW
N
492.227 31.5 M
492.227 33.67 L
S
GR
GS
[1 0 0 1 142.16483 378.79996] CT
0.149 GC
/Helvetica 14 F
GS
[1 0 0 1 0 0] CT
-12 14 moveto 
1 -1 scale
(500) t 
GR
GR
GS
[1 0 0 1 239.40425 378.79996] CT
0.149 GC
/Helvetica 14 F
GS
[1 0 0 1 0 0] CT
-16 14 moveto 
1 -1 scale
(1000) t 
GR
GR
GS
[1 0 0 1 336.64371 378.79996] CT
0.149 GC
/Helvetica 14 F
GS
[1 0 0 1 0 0] CT
-16 14 moveto 
1 -1 scale
(1500) t 
GR
GR
GS
[1 0 0 1 433.88312 378.79996] CT
0.149 GC
/Helvetica 14 F
GS
[1 0 0 1 0 0] CT
-16 14 moveto 
1 -1 scale
(2000) t 
GR
GR
GS
[1 0 0 1 290.00021 396.29999] CT
0.149 GC
/Helvetica 15.4 F
GS
[1 0 0 1 0 0] CT
-42 15 moveto 
1 -1 scale
(Bitrate\(kb/s\)) t 
GR
GR
GS
0.149 GC
2 setlinecap
1 LJ
0.5 LW
N
73 374 M
73 31.5 L
S
GR
GS
0.149 GC
2 setlinecap
1 LJ
0.5 LW
N
507 374 M
507 31.5 L
S
GR
GS
0.149 GC
2 setlinecap
1 LJ
0.5 LW
N
73 372.814 M
77.34 372.814 L
S
GR
GS
0.149 GC
2 setlinecap
1 LJ
0.5 LW
N
73 340.126 M
77.34 340.126 L
S
GR
GS
0.149 GC
2 setlinecap
1 LJ
0.5 LW
N
73 307.437 M
77.34 307.437 L
S
GR
GS
0.149 GC
2 setlinecap
1 LJ
0.5 LW
N
73 274.748 M
77.34 274.748 L
S
GR
GS
0.149 GC
2 setlinecap
1 LJ
0.5 LW
N
73 242.06 M
77.34 242.06 L
S
GR
GS
0.149 GC
2 setlinecap
1 LJ
0.5 LW
N
73 209.371 M
77.34 209.371 L
S
GR
GS
0.149 GC
2 setlinecap
1 LJ
0.5 LW
N
73 176.683 M
77.34 176.683 L
S
GR
GS
0.149 GC
2 setlinecap
1 LJ
0.5 LW
N
73 143.994 M
77.34 143.994 L
S
GR
GS
0.149 GC
2 setlinecap
1 LJ
0.5 LW
N
73 111.305 M
77.34 111.305 L
S
GR
GS
0.149 GC
2 setlinecap
1 LJ
0.5 LW
N
73 78.617 M
77.34 78.617 L
S
GR
GS
0.149 GC
2 setlinecap
1 LJ
0.5 LW
N
73 45.928 M
77.34 45.928 L
S
GR
GS
0.149 GC
2 setlinecap
1 LJ
0.5 LW
N
507 372.814 M
502.66 372.814 L
S
GR
GS
0.149 GC
2 setlinecap
1 LJ
0.5 LW
N
507 340.126 M
502.66 340.126 L
S
GR
GS
0.149 GC
2 setlinecap
1 LJ
0.5 LW
N
507 307.437 M
502.66 307.437 L
S
GR
GS
0.149 GC
2 setlinecap
1 LJ
0.5 LW
N
507 274.748 M
502.66 274.748 L
S
GR
GS
0.149 GC
2 setlinecap
1 LJ
0.5 LW
N
507 242.06 M
502.66 242.06 L
S
GR
GS
0.149 GC
2 setlinecap
1 LJ
0.5 LW
N
507 209.371 M
502.66 209.371 L
S
GR
GS
0.149 GC
2 setlinecap
1 LJ
0.5 LW
N
507 176.683 M
502.66 176.683 L
S
GR
GS
0.149 GC
2 setlinecap
1 LJ
0.5 LW
N
507 143.994 M
502.66 143.994 L
S
GR
GS
0.149 GC
2 setlinecap
1 LJ
0.5 LW
N
507 111.305 M
502.66 111.305 L
S
GR
GS
0.149 GC
2 setlinecap
1 LJ
0.5 LW
N
507 78.617 M
502.66 78.617 L
S
GR
GS
0.149 GC
2 setlinecap
1 LJ
0.5 LW
N
507 45.928 M
502.66 45.928 L
S
GR
GS
0.149 GC
2 setlinecap
1 LJ
0.5 LW
N
73 366.276 M
75.17 366.276 L
S
GR
GS
0.149 GC
2 setlinecap
1 LJ
0.5 LW
N
73 359.739 M
75.17 359.739 L
S
GR
GS
0.149 GC
2 setlinecap
1 LJ
0.5 LW
N
73 353.201 M
75.17 353.201 L
S
GR
GS
0.149 GC
2 setlinecap
1 LJ
0.5 LW
N
73 346.663 M
75.17 346.663 L
S
GR
GS
0.149 GC
2 setlinecap
1 LJ
0.5 LW
N
73 333.588 M
75.17 333.588 L
S
GR
GS
0.149 GC
2 setlinecap
1 LJ
0.5 LW
N
73 327.05 M
75.17 327.05 L
S
GR
GS
0.149 GC
2 setlinecap
1 LJ
0.5 LW
N
73 320.513 M
75.17 320.513 L
S
GR
GS
0.149 GC
2 setlinecap
1 LJ
0.5 LW
N
73 313.975 M
75.17 313.975 L
S
GR
GS
0.149 GC
2 setlinecap
1 LJ
0.5 LW
N
73 300.899 M
75.17 300.899 L
S
GR
GS
0.149 GC
2 setlinecap
1 LJ
0.5 LW
N
73 294.362 M
75.17 294.362 L
S
GR
GS
0.149 GC
2 setlinecap
1 LJ
0.5 LW
N
73 287.824 M
75.17 287.824 L
S
GR
GS
0.149 GC
2 setlinecap
1 LJ
0.5 LW
N
73 281.286 M
75.17 281.286 L
S
GR
GS
0.149 GC
2 setlinecap
1 LJ
0.5 LW
N
73 268.211 M
75.17 268.211 L
S
GR
GS
0.149 GC
2 setlinecap
1 LJ
0.5 LW
N
73 261.673 M
75.17 261.673 L
S
GR
GS
0.149 GC
2 setlinecap
1 LJ
0.5 LW
N
73 255.135 M
75.17 255.135 L
S
GR
GS
0.149 GC
2 setlinecap
1 LJ
0.5 LW
N
73 248.598 M
75.17 248.598 L
S
GR
GS
0.149 GC
2 setlinecap
1 LJ
0.5 LW
N
73 235.522 M
75.17 235.522 L
S
GR
GS
0.149 GC
2 setlinecap
1 LJ
0.5 LW
N
73 228.984 M
75.17 228.984 L
S
GR
GS
0.149 GC
2 setlinecap
1 LJ
0.5 LW
N
73 222.447 M
75.17 222.447 L
S
GR
GS
0.149 GC
2 setlinecap
1 LJ
0.5 LW
N
73 215.909 M
75.17 215.909 L
S
GR
GS
0.149 GC
2 setlinecap
1 LJ
0.5 LW
N
73 202.833 M
75.17 202.833 L
S
GR
GS
0.149 GC
2 setlinecap
1 LJ
0.5 LW
N
73 196.296 M
75.17 196.296 L
S
GR
GS
0.149 GC
2 setlinecap
1 LJ
0.5 LW
N
73 189.758 M
75.17 189.758 L
S
GR
GS
0.149 GC
2 setlinecap
1 LJ
0.5 LW
N
73 183.22 M
75.17 183.22 L
S
GR
GS
0.149 GC
2 setlinecap
1 LJ
0.5 LW
N
73 170.145 M
75.17 170.145 L
S
GR
GS
0.149 GC
2 setlinecap
1 LJ
0.5 LW
N
73 163.607 M
75.17 163.607 L
S
GR
GS
0.149 GC
2 setlinecap
1 LJ
0.5 LW
N
73 157.069 M
75.17 157.069 L
S
GR
GS
0.149 GC
2 setlinecap
1 LJ
0.5 LW
N
73 150.532 M
75.17 150.532 L
S
GR
GS
0.149 GC
2 setlinecap
1 LJ
0.5 LW
N
73 137.456 M
75.17 137.456 L
S
GR
GS
0.149 GC
2 setlinecap
1 LJ
0.5 LW
N
73 130.918 M
75.17 130.918 L
S
GR
GS
0.149 GC
2 setlinecap
1 LJ
0.5 LW
N
73 124.381 M
75.17 124.381 L
S
GR
GS
0.149 GC
2 setlinecap
1 LJ
0.5 LW
N
73 117.843 M
75.17 117.843 L
S
GR
GS
0.149 GC
2 setlinecap
1 LJ
0.5 LW
N
73 104.768 M
75.17 104.768 L
S
GR
GS
0.149 GC
2 setlinecap
1 LJ
0.5 LW
N
73 98.23 M
75.17 98.23 L
S
GR
GS
0.149 GC
2 setlinecap
1 LJ
0.5 LW
N
73 91.692 M
75.17 91.692 L
S
GR
GS
0.149 GC
2 setlinecap
1 LJ
0.5 LW
N
73 85.154 M
75.17 85.154 L
S
GR
GS
0.149 GC
2 setlinecap
1 LJ
0.5 LW
N
73 72.079 M
75.17 72.079 L
S
GR
GS
0.149 GC
2 setlinecap
1 LJ
0.5 LW
N
73 65.541 M
75.17 65.541 L
S
GR
GS
0.149 GC
2 setlinecap
1 LJ
0.5 LW
N
73 59.004 M
75.17 59.004 L
S
GR
GS
0.149 GC
2 setlinecap
1 LJ
0.5 LW
N
73 52.466 M
75.17 52.466 L
S
GR
GS
0.149 GC
2 setlinecap
1 LJ
0.5 LW
N
73 39.39 M
75.17 39.39 L
S
GR
GS
0.149 GC
2 setlinecap
1 LJ
0.5 LW
N
73 32.853 M
75.17 32.853 L
S
GR
GS
0.149 GC
2 setlinecap
1 LJ
0.5 LW
N
507 366.276 M
504.83 366.276 L
S
GR
GS
0.149 GC
2 setlinecap
1 LJ
0.5 LW
N
507 359.739 M
504.83 359.739 L
S
GR
GS
0.149 GC
2 setlinecap
1 LJ
0.5 LW
N
507 353.201 M
504.83 353.201 L
S
GR
GS
0.149 GC
2 setlinecap
1 LJ
0.5 LW
N
507 346.663 M
504.83 346.663 L
S
GR
GS
0.149 GC
2 setlinecap
1 LJ
0.5 LW
N
507 333.588 M
504.83 333.588 L
S
GR
GS
0.149 GC
2 setlinecap
1 LJ
0.5 LW
N
507 327.05 M
504.83 327.05 L
S
GR
GS
0.149 GC
2 setlinecap
1 LJ
0.5 LW
N
507 320.513 M
504.83 320.513 L
S
GR
GS
0.149 GC
2 setlinecap
1 LJ
0.5 LW
N
507 313.975 M
504.83 313.975 L
S
GR
GS
0.149 GC
2 setlinecap
1 LJ
0.5 LW
N
507 300.899 M
504.83 300.899 L
S
GR
GS
0.149 GC
2 setlinecap
1 LJ
0.5 LW
N
507 294.362 M
504.83 294.362 L
S
GR
GS
0.149 GC
2 setlinecap
1 LJ
0.5 LW
N
507 287.824 M
504.83 287.824 L
S
GR
GS
0.149 GC
2 setlinecap
1 LJ
0.5 LW
N
507 281.286 M
504.83 281.286 L
S
GR
GS
0.149 GC
2 setlinecap
1 LJ
0.5 LW
N
507 268.211 M
504.83 268.211 L
S
GR
GS
0.149 GC
2 setlinecap
1 LJ
0.5 LW
N
507 261.673 M
504.83 261.673 L
S
GR
GS
0.149 GC
2 setlinecap
1 LJ
0.5 LW
N
507 255.135 M
504.83 255.135 L
S
GR
GS
0.149 GC
2 setlinecap
1 LJ
0.5 LW
N
507 248.598 M
504.83 248.598 L
S
GR
GS
0.149 GC
2 setlinecap
1 LJ
0.5 LW
N
507 235.522 M
504.83 235.522 L
S
GR
GS
0.149 GC
2 setlinecap
1 LJ
0.5 LW
N
507 228.984 M
504.83 228.984 L
S
GR
GS
0.149 GC
2 setlinecap
1 LJ
0.5 LW
N
507 222.447 M
504.83 222.447 L
S
GR
GS
0.149 GC
2 setlinecap
1 LJ
0.5 LW
N
507 215.909 M
504.83 215.909 L
S
GR
GS
0.149 GC
2 setlinecap
1 LJ
0.5 LW
N
507 202.833 M
504.83 202.833 L
S
GR
GS
0.149 GC
2 setlinecap
1 LJ
0.5 LW
N
507 196.296 M
504.83 196.296 L
S
GR
GS
0.149 GC
2 setlinecap
1 LJ
0.5 LW
N
507 189.758 M
504.83 189.758 L
S
GR
GS
0.149 GC
2 setlinecap
1 LJ
0.5 LW
N
507 183.22 M
504.83 183.22 L
S
GR
GS
0.149 GC
2 setlinecap
1 LJ
0.5 LW
N
507 170.145 M
504.83 170.145 L
S
GR
GS
0.149 GC
2 setlinecap
1 LJ
0.5 LW
N
507 163.607 M
504.83 163.607 L
S
GR
GS
0.149 GC
2 setlinecap
1 LJ
0.5 LW
N
507 157.069 M
504.83 157.069 L
S
GR
GS
0.149 GC
2 setlinecap
1 LJ
0.5 LW
N
507 150.532 M
504.83 150.532 L
S
GR
GS
0.149 GC
2 setlinecap
1 LJ
0.5 LW
N
507 137.456 M
504.83 137.456 L
S
GR
GS
0.149 GC
2 setlinecap
1 LJ
0.5 LW
N
507 130.918 M
504.83 130.918 L
S
GR
GS
0.149 GC
2 setlinecap
1 LJ
0.5 LW
N
507 124.381 M
504.83 124.381 L
S
GR
GS
0.149 GC
2 setlinecap
1 LJ
0.5 LW
N
507 117.843 M
504.83 117.843 L
S
GR
GS
0.149 GC
2 setlinecap
1 LJ
0.5 LW
N
507 104.768 M
504.83 104.768 L
S
GR
GS
0.149 GC
2 setlinecap
1 LJ
0.5 LW
N
507 98.23 M
504.83 98.23 L
S
GR
GS
0.149 GC
2 setlinecap
1 LJ
0.5 LW
N
507 91.692 M
504.83 91.692 L
S
GR
GS
0.149 GC
2 setlinecap
1 LJ
0.5 LW
N
507 85.154 M
504.83 85.154 L
S
GR
GS
0.149 GC
2 setlinecap
1 LJ
0.5 LW
N
507 72.079 M
504.83 72.079 L
S
GR
GS
0.149 GC
2 setlinecap
1 LJ
0.5 LW
N
507 65.541 M
504.83 65.541 L
S
GR
GS
0.149 GC
2 setlinecap
1 LJ
0.5 LW
N
507 59.004 M
504.83 59.004 L
S
GR
GS
0.149 GC
2 setlinecap
1 LJ
0.5 LW
N
507 52.466 M
504.83 52.466 L
S
GR
GS
0.149 GC
2 setlinecap
1 LJ
0.5 LW
N
507 39.39 M
504.83 39.39 L
S
GR
GS
0.149 GC
2 setlinecap
1 LJ
0.5 LW
N
507 32.853 M
504.83 32.853 L
S
GR
GS
[1 0 0 1 68.2 372.81424] CT
0.149 GC
/Helvetica 14 F
GS
[1 0 0 1 0 0] CT
-16 5.5 moveto 
1 -1 scale
(37) t 
GR
GR
GS
[1 0 0 1 68.2 340.12564] CT
0.149 GC
/Helvetica 14 F
GS
[1 0 0 1 0 0] CT
-16 5.5 moveto 
1 -1 scale
(38) t 
GR
GR
GS
[1 0 0 1 68.2 307.43701] CT
0.149 GC
/Helvetica 14 F
GS
[1 0 0 1 0 0] CT
-16 5.5 moveto 
1 -1 scale
(39) t 
GR
GR
GS
[1 0 0 1 68.2 274.74838] CT
0.149 GC
/Helvetica 14 F
GS
[1 0 0 1 0 0] CT
-16 5.5 moveto 
1 -1 scale
(40) t 
GR
GR
GS
[1 0 0 1 68.2 242.05975] CT
0.149 GC
/Helvetica 14 F
GS
[1 0 0 1 0 0] CT
-16 5.5 moveto 
1 -1 scale
(41) t 
GR
GR
GS
[1 0 0 1 68.2 209.37114] CT
0.149 GC
/Helvetica 14 F
GS
[1 0 0 1 0 0] CT
-16 5.5 moveto 
1 -1 scale
(42) t 
GR
GR
GS
[1 0 0 1 68.2 176.68251] CT
0.149 GC
/Helvetica 14 F
GS
[1 0 0 1 0 0] CT
-16 5.5 moveto 
1 -1 scale
(43) t 
GR
GR
GS
[1 0 0 1 68.2 143.9939] CT
0.149 GC
/Helvetica 14 F
GS
[1 0 0 1 0 0] CT
-16 5.5 moveto 
1 -1 scale
(44) t 
GR
GR
GS
[1 0 0 1 68.2 111.30527] CT
0.149 GC
/Helvetica 14 F
GS
[1 0 0 1 0 0] CT
-16 5.5 moveto 
1 -1 scale
(45) t 
GR
GR
GS
[1 0 0 1 68.2 78.61665] CT
0.149 GC
/Helvetica 14 F
GS
[1 0 0 1 0 0] CT
-16 5.5 moveto 
1 -1 scale
(46) t 
GR
GR
GS
[1 0 0 1 68.2 45.92802] CT
0.149 GC
/Helvetica 14 F
GS
[1 0 0 1 0 0] CT
-16 5.5 moveto 
1 -1 scale
(47) t 
GR
GR
GS
[0 -1 1 0 49.2 202.74983] CT
0.149 GC
/Helvetica 15.4 F
GS
[1 0 0 1 0 0] CT
-47 -4 moveto 
1 -1 scale
(APSNR Y\(dB\)) t 
GR
GR
GS
[1 0 0 1 290.00031 29.5751] CT
/Helvetica-Bold 15.4 F
GS
[1 0 0 1 0 0] CT
-141 -4 moveto 
1 -1 scale
(Skater227_1920x1080_30fps.y4m-hevc) t 
GR
GR
GS
0 0.447 0.741 RC
1 LJ
0.5 LW
N
73.651 373.274 M
77.541 355.522 L
81.43 338.347 L
85.32 322.212 L
89.209 307.582 L
93.099 294.921 L
96.988 284.369 L
100.878 274.615 L
104.768 265.443 L
108.657 256.834 L
112.547 248.766 L
116.436 241.221 L
120.326 234.177 L
124.215 227.616 L
128.105 221.517 L
131.995 215.86 L
135.884 210.626 L
139.774 205.762 L
143.663 201.072 L
147.553 196.525 L
151.442 192.117 L
155.332 187.845 L
159.222 183.707 L
163.111 179.701 L
167.001 175.824 L
170.89 172.072 L
174.78 168.443 L
178.67 164.936 L
182.559 161.546 L
186.449 158.271 L
190.338 155.109 L
194.228 152.057 L
198.117 149.112 L
202.007 146.272 L
205.897 143.534 L
209.786 140.894 L
213.676 138.352 L
217.565 135.903 L
221.455 133.546 L
225.344 131.277 L
229.234 129.094 L
233.124 126.976 L
237.013 124.862 L
240.903 122.751 L
244.792 120.642 L
248.682 118.537 L
252.571 116.437 L
256.461 114.343 L
260.351 112.256 L
264.24 110.177 L
268.13 108.107 L
272.019 106.047 L
275.909 103.998 L
279.799 101.961 L
283.688 99.937 L
287.578 97.927 L
291.467 95.931 L
295.357 93.952 L
299.246 91.99 L
303.136 90.046 L
307.026 88.121 L
310.915 86.216 L
314.805 84.332 L
318.694 82.47 L
322.584 80.631 L
326.473 78.816 L
330.363 77.027 L
334.253 75.263 L
338.142 73.527 L
342.032 71.818 L
345.921 70.139 L
349.811 68.49 L
353.701 66.872 L
357.59 65.286 L
361.48 63.733 L
365.369 62.215 L
369.259 60.732 L
373.148 59.284 L
377.038 57.874 L
380.928 56.502 L
384.817 55.17 L
388.707 53.877 L
392.596 52.626 L
396.486 51.417 L
400.375 50.252 L
404.265 49.13 L
408.155 48.054 L
412.044 47.024 L
415.934 46.041 L
419.823 45.107 L
423.713 44.221 L
427.602 43.386 L
431.492 42.603 L
435.382 41.871 L
439.271 41.194 L
443.161 40.57 L
447.05 40.002 L
450.94 39.49 L
454.83 39.035 L
458.719 38.639 L
462.609 38.302 L
466.498 38.025 L
470.388 37.81 L
474.277 37.657 L
478.167 37.568 L
S
GR
GS
0.851 0.325 0.098 RC
1 LJ
0.5 LW
N
74.737 366.196 M
78.626 349.407 L
82.516 333.127 L
86.405 317.752 L
90.295 303.681 L
94.185 291.312 L
98.074 280.934 L
101.964 271.473 L
105.853 262.538 L
109.743 254.113 L
113.632 246.186 L
117.522 238.741 L
121.412 231.765 L
125.301 225.243 L
129.191 219.16 L
133.08 213.503 L
136.97 208.256 L
140.859 203.407 L
144.749 198.847 L
148.639 194.423 L
152.528 190.131 L
156.418 185.969 L
160.307 181.934 L
164.197 178.024 L
168.087 174.234 L
171.976 170.564 L
175.866 167.011 L
179.755 163.571 L
183.645 160.243 L
187.534 157.024 L
191.424 153.911 L
195.314 150.901 L
199.203 147.992 L
203.093 145.181 L
206.982 142.466 L
210.872 139.845 L
214.761 137.313 L
218.651 134.87 L
222.541 132.512 L
226.43 130.237 L
230.32 128.042 L
234.209 125.925 L
238.099 123.881 L
241.988 121.863 L
245.878 119.846 L
249.768 117.831 L
253.657 115.819 L
257.547 113.811 L
261.436 111.807 L
265.326 109.809 L
269.216 107.818 L
273.105 105.833 L
276.995 103.857 L
280.884 101.89 L
284.774 99.933 L
288.663 97.987 L
292.553 96.053 L
296.443 94.131 L
300.332 92.223 L
304.222 90.329 L
308.111 88.451 L
312.001 86.589 L
315.89 84.744 L
319.78 82.917 L
323.67 81.109 L
327.559 79.321 L
331.449 77.553 L
335.338 75.807 L
339.228 74.084 L
343.117 72.384 L
347.007 70.708 L
350.897 69.057 L
354.786 67.432 L
358.676 65.834 L
362.565 64.264 L
366.455 62.723 L
370.345 61.211 L
374.234 59.73 L
378.124 58.28 L
382.013 56.862 L
385.903 55.478 L
389.792 54.127 L
393.682 52.812 L
397.572 51.532 L
401.461 50.289 L
405.351 49.083 L
409.24 47.917 L
413.13 46.789 L
417.019 45.702 L
420.909 44.656 L
424.799 43.652 L
428.688 42.691 L
432.578 41.773 L
436.467 40.901 L
440.357 40.074 L
444.247 39.294 L
448.136 38.561 L
452.026 37.876 L
455.915 37.241 L
459.805 36.655 L
463.694 36.121 L
467.584 35.638 L
471.474 35.208 L
475.363 34.832 L
479.253 34.51 L
483.142 34.244 L
487.032 34.034 L
490.921 33.881 L
494.811 33.787 L
498.701 33.751 L
S
GR
GS
0.929 0.694 0.125 RC
1 LJ
0.5 LW
N
73 373.905 M
76.89 355.704 L
80.779 338.103 L
84.669 321.633 L
88.558 306.826 L
92.448 294.214 L
96.337 283.727 L
100.227 273.967 L
104.117 264.817 L
108.006 256.252 L
111.896 248.244 L
115.785 240.766 L
119.675 233.793 L
123.565 227.296 L
127.454 221.249 L
131.344 215.625 L
135.233 210.397 L
139.123 205.497 L
143.012 200.756 L
146.902 196.155 L
150.792 191.694 L
154.681 187.37 L
158.571 183.18 L
162.46 179.123 L
166.35 175.195 L
170.239 171.396 L
174.129 167.722 L
178.019 164.17 L
181.908 160.74 L
185.798 157.428 L
189.687 154.233 L
193.577 151.152 L
197.466 148.182 L
201.356 145.322 L
205.246 142.57 L
209.135 139.922 L
213.025 137.377 L
216.914 134.932 L
220.804 132.586 L
224.694 130.335 L
228.583 128.171 L
232.473 126.026 L
236.362 123.884 L
240.252 121.744 L
244.141 119.61 L
248.031 117.48 L
251.921 115.357 L
255.81 113.241 L
259.7 111.134 L
263.589 109.037 L
267.479 106.949 L
271.368 104.874 L
275.258 102.81 L
279.148 100.76 L
283.037 98.725 L
286.927 96.705 L
290.816 94.702 L
294.706 92.716 L
298.595 90.749 L
302.485 88.802 L
306.375 86.875 L
310.264 84.969 L
314.154 83.086 L
318.043 81.227 L
321.933 79.393 L
325.823 77.584 L
329.712 75.801 L
333.602 74.047 L
337.491 72.321 L
341.381 70.625 L
345.27 68.959 L
349.16 67.325 L
353.05 65.724 L
356.939 64.157 L
360.829 62.624 L
364.718 61.127 L
368.608 59.667 L
372.497 58.245 L
376.387 56.861 L
380.277 55.517 L
384.166 54.215 L
388.056 52.954 L
391.945 51.735 L
395.835 50.561 L
399.724 49.432 L
403.614 48.348 L
407.504 47.311 L
411.393 46.322 L
415.283 45.382 L
419.172 44.492 L
423.062 43.653 L
426.952 42.866 L
430.841 42.132 L
434.731 41.452 L
438.62 40.827 L
442.51 40.258 L
446.399 39.746 L
450.289 39.291 L
454.179 38.896 L
458.068 38.561 L
461.958 38.287 L
465.847 38.075 L
469.737 37.927 L
473.626 37.842 L
S
GR
GS
0.494 0.184 0.557 RC
1 LJ
0.5 LW
N
75.257 362.261 M
79.146 346.1 L
83.036 330.409 L
86.926 315.543 L
90.815 301.858 L
94.705 289.71 L
98.594 279.418 L
102.484 270.126 L
106.374 261.326 L
110.263 253.004 L
114.153 245.151 L
118.042 237.756 L
121.932 230.806 L
125.821 224.292 L
129.711 218.201 L
133.601 212.523 L
137.49 207.247 L
141.38 202.362 L
145.269 197.823 L
149.159 193.443 L
153.048 189.19 L
156.938 185.062 L
160.828 181.057 L
164.717 177.173 L
168.607 173.406 L
172.496 169.755 L
176.386 166.217 L
180.275 162.79 L
184.165 159.47 L
188.055 156.257 L
191.944 153.147 L
195.834 150.138 L
199.723 147.228 L
203.613 144.413 L
207.503 141.693 L
211.392 139.063 L
215.282 136.523 L
219.171 134.069 L
223.061 131.699 L
226.95 129.41 L
230.84 127.201 L
234.73 125.068 L
238.619 123.01 L
242.509 121.02 L
246.398 119.045 L
250.288 117.072 L
254.177 115.101 L
258.067 113.132 L
261.957 111.167 L
265.846 109.207 L
269.736 107.252 L
273.625 105.303 L
277.515 103.362 L
281.405 101.428 L
285.294 99.502 L
289.184 97.587 L
293.073 95.681 L
296.963 93.787 L
300.852 91.905 L
304.742 90.036 L
308.632 88.181 L
312.521 86.34 L
316.411 84.515 L
320.3 82.706 L
324.19 80.914 L
328.079 79.14 L
331.969 77.385 L
335.859 75.65 L
339.748 73.935 L
343.638 72.241 L
347.527 70.57 L
351.417 68.921 L
355.306 67.297 L
359.196 65.697 L
363.086 64.122 L
366.975 62.574 L
370.865 61.053 L
374.754 59.56 L
378.644 58.097 L
382.534 56.662 L
386.423 55.259 L
390.313 53.887 L
394.202 52.547 L
398.092 51.24 L
401.981 49.967 L
405.871 48.729 L
409.761 47.526 L
413.65 46.36 L
417.54 45.232 L
421.429 44.141 L
425.319 43.089 L
429.208 42.078 L
433.098 41.106 L
436.988 40.177 L
440.877 39.29 L
444.767 38.445 L
448.656 37.645 L
452.546 36.89 L
456.436 36.181 L
460.325 35.518 L
464.215 34.902 L
468.104 34.335 L
471.994 33.817 L
475.883 33.349 L
479.773 32.931 L
483.663 32.565 L
487.552 32.251 L
491.442 31.991 L
495.331 31.785 L
499.221 31.634 L
503.11 31.539 L
507 31.5 L
S
GR
GS
0.467 0.675 0.188 RC
[10 6] 0 setdash
2 LJ
0.5 LW
N
73.382 374 M
77.271 356.158 L
81.161 338.913 L
85.05 322.722 L
88.94 308.042 L
92.83 295.33 L
96.719 284.677 L
100.609 274.784 L
104.498 265.473 L
108.388 256.73 L
112.277 248.538 L
116.167 240.881 L
120.057 233.745 L
123.946 227.114 L
127.836 220.972 L
131.725 215.303 L
135.615 210.093 L
139.504 205.233 L
143.394 200.532 L
147.284 195.98 L
151.173 191.574 L
155.063 187.311 L
158.952 183.187 L
162.842 179.2 L
166.732 175.347 L
170.621 171.623 L
174.511 168.026 L
178.4 164.553 L
182.29 161.201 L
186.179 157.965 L
190.069 154.844 L
193.959 151.834 L
197.848 148.931 L
201.738 146.133 L
205.627 143.437 L
209.517 140.838 L
213.406 138.335 L
217.296 135.923 L
221.186 133.599 L
225.075 131.361 L
228.965 129.201 L
232.854 127.059 L
236.744 124.919 L
240.633 122.781 L
244.523 120.647 L
248.413 118.518 L
252.302 116.394 L
256.192 114.277 L
260.081 112.168 L
263.971 110.068 L
267.861 107.978 L
271.75 105.899 L
275.64 103.832 L
279.529 101.778 L
283.419 99.738 L
287.308 97.714 L
291.198 95.706 L
295.088 93.715 L
298.977 91.742 L
302.867 89.789 L
306.756 87.856 L
310.646 85.945 L
314.535 84.057 L
318.425 82.192 L
322.315 80.352 L
326.204 78.538 L
330.094 76.751 L
333.983 74.991 L
337.873 73.26 L
341.762 71.56 L
345.652 69.89 L
349.542 68.253 L
353.431 66.648 L
357.321 65.078 L
361.21 63.543 L
365.1 62.044 L
368.99 60.583 L
372.879 59.16 L
376.769 57.777 L
380.658 56.434 L
384.548 55.133 L
388.437 53.874 L
392.327 52.659 L
396.217 51.489 L
400.106 50.364 L
403.996 49.286 L
407.885 48.256 L
411.775 47.276 L
415.664 46.345 L
419.554 45.465 L
423.444 44.637 L
427.333 43.863 L
431.223 43.142 L
435.112 42.477 L
439.002 41.869 L
442.892 41.317 L
446.781 40.824 L
450.671 40.391 L
454.56 40.018 L
458.45 39.707 L
462.339 39.458 L
466.229 39.273 L
470.119 39.153 L
474.008 39.098 L
S
GR
GS
0.302 0.745 0.933 RC
[10 6] 0 setdash
2 LJ
0.5 LW
N
73.176 373.304 M
77.066 355.44 L
80.955 338.158 L
84.845 321.945 L
88.734 307.285 L
92.624 294.666 L
96.513 284.155 L
100.403 274.405 L
104.293 265.246 L
108.182 256.654 L
112.072 248.609 L
115.961 241.086 L
119.851 234.065 L
123.74 227.523 L
127.63 221.438 L
131.52 215.787 L
135.409 210.548 L
139.299 205.664 L
143.188 200.95 L
147.078 196.378 L
150.967 191.946 L
154.857 187.651 L
158.747 183.491 L
162.636 179.464 L
166.526 175.566 L
170.415 171.795 L
174.305 168.148 L
178.195 164.624 L
182.084 161.219 L
185.974 157.931 L
189.863 154.757 L
193.753 151.695 L
197.642 148.743 L
201.532 145.897 L
205.422 143.155 L
209.311 140.514 L
213.201 137.973 L
217.09 135.528 L
220.98 133.177 L
224.869 130.917 L
228.759 128.745 L
232.649 126.609 L
236.538 124.475 L
240.428 122.343 L
244.317 120.215 L
248.207 118.092 L
252.096 115.973 L
255.986 113.862 L
259.876 111.758 L
263.765 109.663 L
267.655 107.577 L
271.544 105.503 L
275.434 103.44 L
279.324 101.389 L
283.213 99.353 L
287.103 97.331 L
290.992 95.325 L
294.882 93.337 L
298.771 91.365 L
302.661 89.413 L
306.551 87.481 L
310.44 85.57 L
314.33 83.681 L
318.219 81.814 L
322.109 79.972 L
325.998 78.155 L
329.888 76.364 L
333.778 74.601 L
337.667 72.865 L
341.557 71.158 L
345.446 69.482 L
349.336 67.837 L
353.225 66.224 L
357.115 64.645 L
361.005 63.099 L
364.894 61.589 L
368.784 60.116 L
372.673 58.68 L
376.563 57.282 L
380.453 55.924 L
384.342 54.606 L
388.232 53.329 L
392.121 52.096 L
396.011 50.905 L
399.9 49.759 L
403.79 48.659 L
407.68 47.606 L
411.569 46.6 L
415.459 45.642 L
419.348 44.735 L
423.238 43.878 L
427.127 43.073 L
431.017 42.321 L
434.907 41.622 L
438.796 40.978 L
442.686 40.39 L
446.575 39.86 L
450.465 39.386 L
454.354 38.972 L
458.244 38.618 L
462.134 38.325 L
466.023 38.093 L
469.913 37.925 L
473.802 37.821 L
477.692 37.782 L
S
GR
GS
0.635 0.078 0.184 RC
[10 6] 0 setdash
2 LJ
0.5 LW
N
73.826 372.201 M
77.716 354.586 L
81.605 337.53 L
85.495 321.486 L
89.384 306.909 L
93.274 294.251 L
97.164 283.712 L
101.053 274.008 L
104.943 264.875 L
108.832 256.294 L
112.722 248.246 L
116.611 240.712 L
120.501 233.673 L
124.391 227.111 L
128.28 221.006 L
132.17 215.339 L
136.059 210.093 L
139.949 205.236 L
143.839 200.583 L
147.728 196.07 L
151.618 191.694 L
155.507 187.453 L
159.397 183.344 L
163.286 179.364 L
167.176 175.511 L
171.066 171.782 L
174.955 168.174 L
178.845 164.684 L
182.734 161.31 L
186.624 158.05 L
190.513 154.9 L
194.403 151.858 L
198.293 148.92 L
202.182 146.086 L
206.072 143.351 L
209.961 140.712 L
213.851 138.169 L
217.741 135.717 L
221.63 133.354 L
225.52 131.077 L
229.409 128.884 L
233.299 126.771 L
237.188 124.69 L
241.078 122.609 L
244.968 120.531 L
248.857 118.456 L
252.747 116.385 L
256.636 114.319 L
260.526 112.26 L
264.415 110.207 L
268.305 108.162 L
272.195 106.126 L
276.084 104.1 L
279.974 102.084 L
283.863 100.08 L
287.753 98.089 L
291.642 96.112 L
295.532 94.149 L
299.422 92.202 L
303.311 90.271 L
307.201 88.358 L
311.09 86.463 L
314.98 84.588 L
318.87 82.733 L
322.759 80.899 L
326.649 79.087 L
330.538 77.299 L
334.428 75.535 L
338.317 73.796 L
342.207 72.083 L
346.097 70.397 L
349.986 68.739 L
353.876 67.109 L
357.765 65.51 L
361.655 63.942 L
365.544 62.405 L
369.434 60.901 L
373.324 59.431 L
377.213 57.995 L
381.103 56.595 L
384.992 55.232 L
388.882 53.906 L
392.771 52.618 L
396.661 51.37 L
400.551 50.163 L
404.44 48.996 L
408.33 47.872 L
412.219 46.791 L
416.109 45.755 L
419.999 44.763 L
423.888 43.818 L
427.778 42.92 L
431.667 42.069 L
435.557 41.268 L
439.446 40.516 L
443.336 39.816 L
447.226 39.167 L
451.115 38.571 L
455.005 38.029 L
458.894 37.541 L
462.784 37.109 L
466.673 36.734 L
470.563 36.416 L
474.453 36.157 L
478.342 35.957 L
482.232 35.818 L
486.121 35.74 L
S
GR
GS
1 GC
N
499 366 M
499 250.5 L
344.5 250.5 L
344.5 366 L
cp
f
GR
GS
[1 0 0 1 381.5 260.25] CT
/Helvetica 13 F
GS
[1 0 0 1 0 0] CT
0 5 moveto 
1 -1 scale
(Base Run) t 
GR
GR
GS
0 0.447 0.741 RC
1 LJ
0.5 LW
N
348.5 260.25 M
378.5 260.25 L
S
GR
GS
[1 0 0 1 381.5 276.25] CT
/Helvetica 13 F
GS
[1 0 0 1 0 0] CT
0 5 moveto 
1 -1 scale
(I & B Frames) t 
GR
GR
GS
0.851 0.325 0.098 RC
1 LJ
0.5 LW
N
348.5 276.25 M
378.5 276.25 L
S
GR
GS
[1 0 0 1 381.5 292.25] CT
/Helvetica 13 F
GS
[1 0 0 1 0 0] CT
0 5 moveto 
1 -1 scale
(I Frames Only) t 
GR
GR
GS
0.929 0.694 0.125 RC
1 LJ
0.5 LW
N
348.5 292.25 M
378.5 292.25 L
S
GR
GS
[1 0 0 1 381.5 308.25] CT
/Helvetica 13 F
GS
[1 0 0 1 0 0] CT
0 5 moveto 
1 -1 scale
(B Frames Only) t 
GR
GR
GS
0.494 0.184 0.557 RC
1 LJ
0.5 LW
N
348.5 308.25 M
378.5 308.25 L
S
GR
GS
[1 0 0 1 381.5 324.25] CT
/Helvetica 13 F
GS
[1 0 0 1 0 0] CT
0 5 moveto 
1 -1 scale
(Part I & B Frames) t 
GR
GR
GS
0.467 0.675 0.188 RC
[10 6] 0 setdash
2 LJ
0.5 LW
N
348.5 324.25 M
378.5 324.25 L
S
GR
GS
[1 0 0 1 381.5 340.25] CT
/Helvetica 13 F
GS
[1 0 0 1 0 0] CT
0 5 moveto 
1 -1 scale
(Part I Frames Only) t 
GR
GR
GS
0.302 0.745 0.933 RC
[10 6] 0 setdash
2 LJ
0.5 LW
N
348.5 340.25 M
378.5 340.25 L
S
GR
GS
[1 0 0 1 381.5 356.25] CT
/Helvetica 13 F
GS
[1 0 0 1 0 0] CT
0 5 moveto 
1 -1 scale
(Part B Frames Only) t 
GR
GR
GS
0.635 0.078 0.184 RC
[10 6] 0 setdash
2 LJ
0.5 LW
N
348.5 356.25 M
378.5 356.25 L
S
GR
GS
0.149 GC
10.0 ML
0.5 LW
N
344.5 366 M
344.5 250.5 L
499 250.5 L
499 366 L
cp
S
GR
%%Trailer
%%Pages: 1
%%EOF
