%!PS-Adobe-3.0 EPSF-3.0
%%Creator: (MATLAB, The Mathworks, Inc. Version 9.11.0.1837725 \(R2021b\) Update 2. Operating System: Mac OS X)
%%Title: plots/pchip/Skater227_1920x1080_30fps.y4m-hevc-nVMAF.eps
%%CreationDate: 2022-02-03T19:14:42
%%Pages: (atend)
%%BoundingBox:    33   425   508   826
%%LanguageLevel: 3
%%EndComments
%%BeginProlog
%%BeginResource: procset (Apache XML Graphics Std ProcSet) 1.2 0
%%Version: 1.2 0
%%Copyright: (Copyright 2001-2003,2010 The Apache Software Foundation. License terms: http://www.apache.org/licenses/LICENSE-2.0)
/bd{bind def}bind def
/ld{load def}bd
/GR/grestore ld
/GS/gsave ld
/RM/rmoveto ld
/C/curveto ld
/t/show ld
/L/lineto ld
/ML/setmiterlimit ld
/CT/concat ld
/f/fill ld
/N/newpath ld
/S/stroke ld
/CC/setcmykcolor ld
/A/ashow ld
/cp/closepath ld
/RC/setrgbcolor ld
/LJ/setlinejoin ld
/GC/setgray ld
/LW/setlinewidth ld
/M/moveto ld
/re {4 2 roll M
1 index 0 rlineto
0 exch rlineto
neg 0 rlineto
cp } bd
/_ctm matrix def
/_tm matrix def
/BT { _ctm currentmatrix pop matrix _tm copy pop 0 0 moveto } bd
/ET { _ctm setmatrix } bd
/iTm { _ctm setmatrix _tm concat } bd
/Tm { _tm astore pop iTm 0 0 moveto } bd
/ux 0.0 def
/uy 0.0 def
/F {
  /Tp exch def
  /Tf exch def
  Tf findfont Tp scalefont setfont
  /cf Tf def  /cs Tp def
} bd
/ULS {currentpoint /uy exch def /ux exch def} bd
/ULE {
  /Tcx currentpoint pop def
  gsave
  newpath
  cf findfont cs scalefont dup
  /FontMatrix get 0 get /Ts exch def /FontInfo get dup
  /UnderlinePosition get Ts mul /To exch def
  /UnderlineThickness get Ts mul /Tt exch def
  ux uy To add moveto  Tcx uy To add lineto
  Tt setlinewidth stroke
  grestore
} bd
/OLE {
  /Tcx currentpoint pop def
  gsave
  newpath
  cf findfont cs scalefont dup
  /FontMatrix get 0 get /Ts exch def /FontInfo get dup
  /UnderlinePosition get Ts mul /To exch def
  /UnderlineThickness get Ts mul /Tt exch def
  ux uy To add cs add moveto Tcx uy To add cs add lineto
  Tt setlinewidth stroke
  grestore
} bd
/SOE {
  /Tcx currentpoint pop def
  gsave
  newpath
  cf findfont cs scalefont dup
  /FontMatrix get 0 get /Ts exch def /FontInfo get dup
  /UnderlinePosition get Ts mul /To exch def
  /UnderlineThickness get Ts mul /Tt exch def
  ux uy To add cs 10 mul 26 idiv add moveto Tcx uy To add cs 10 mul 26 idiv add lineto
  Tt setlinewidth stroke
  grestore
} bd
/QT {
/Y22 exch store
/X22 exch store
/Y21 exch store
/X21 exch store
currentpoint
/Y21 load 2 mul add 3 div exch
/X21 load 2 mul add 3 div exch
/X21 load 2 mul /X22 load add 3 div
/Y21 load 2 mul /Y22 load add 3 div
/X22 load /Y22 load curveto
} bd
/SSPD {
dup length /d exch dict def
{
/v exch def
/k exch def
currentpagedevice k known {
/cpdv currentpagedevice k get def
v cpdv ne {
/upd false def
/nullv v type /nulltype eq def
/nullcpdv cpdv type /nulltype eq def
nullv nullcpdv or
{
/upd true def
} {
/sametype v type cpdv type eq def
sametype {
v type /arraytype eq {
/vlen v length def
/cpdvlen cpdv length def
vlen cpdvlen eq {
0 1 vlen 1 sub {
/i exch def
/obj v i get def
/cpdobj cpdv i get def
obj cpdobj ne {
/upd true def
exit
} if
} for
} {
/upd true def
} ifelse
} {
v type /dicttype eq {
v {
/dv exch def
/dk exch def
/cpddv cpdv dk get def
dv cpddv ne {
/upd true def
exit
} if
} forall
} {
/upd true def
} ifelse
} ifelse
} if
} ifelse
upd true eq {
d k v put
} if
} if
} if
} forall
d length 0 gt {
d setpagedevice
} if
} bd
/RE { % /NewFontName [NewEncodingArray] /FontName RE -
  findfont dup length dict begin
  {
    1 index /FID ne
    {def} {pop pop} ifelse
  } forall
  /Encoding exch def
  /FontName 1 index def
  currentdict definefont pop
  end
} bind def
%%EndResource
%%BeginResource: procset (Apache XML Graphics EPS ProcSet) 1.0 0
%%Version: 1.0 0
%%Copyright: (Copyright 2002-2003 The Apache Software Foundation. License terms: http://www.apache.org/licenses/LICENSE-2.0)
/BeginEPSF { %def
/b4_Inc_state save def         % Save state for cleanup
/dict_count countdictstack def % Count objects on dict stack
/op_count count 1 sub def      % Count objects on operand stack
userdict begin                 % Push userdict on dict stack
/showpage { } def              % Redefine showpage, { } = null proc
0 setgray 0 setlinecap         % Prepare graphics state
1 setlinewidth 0 setlinejoin
10 setmiterlimit [ ] 0 setdash newpath
/languagelevel where           % If level not equal to 1 then
{pop languagelevel             % set strokeadjust and
1 ne                           % overprint to their defaults.
{false setstrokeadjust false setoverprint
} if
} if
} bd
/EndEPSF { %def
count op_count sub {pop} repeat            % Clean up stacks
countdictstack dict_count sub {end} repeat
b4_Inc_state restore
} bd
%%EndResource
%FOPBeginFontDict
%%IncludeResource: font Courier-Oblique
%%IncludeResource: font Courier-BoldOblique
%%IncludeResource: font Courier-Bold
%%IncludeResource: font ZapfDingbats
%%IncludeResource: font Symbol
%%IncludeResource: font Helvetica
%%IncludeResource: font Helvetica-Oblique
%%IncludeResource: font Helvetica-Bold
%%IncludeResource: font Helvetica-BoldOblique
%%IncludeResource: font Times-Roman
%%IncludeResource: font Times-Italic
%%IncludeResource: font Times-Bold
%%IncludeResource: font Times-BoldItalic
%%IncludeResource: font Courier
%FOPEndFontDict
%%BeginResource: encoding WinAnsiEncoding
/WinAnsiEncoding [
/.notdef /.notdef /.notdef /.notdef /.notdef
/.notdef /.notdef /.notdef /.notdef /.notdef
/.notdef /.notdef /.notdef /.notdef /.notdef
/.notdef /.notdef /.notdef /.notdef /.notdef
/.notdef /.notdef /.notdef /.notdef /.notdef
/.notdef /.notdef /.notdef /.notdef /.notdef
/.notdef /.notdef /space /exclam /quotedbl
/numbersign /dollar /percent /ampersand /quotesingle
/parenleft /parenright /asterisk /plus /comma
/hyphen /period /slash /zero /one
/two /three /four /five /six
/seven /eight /nine /colon /semicolon
/less /equal /greater /question /at
/A /B /C /D /E
/F /G /H /I /J
/K /L /M /N /O
/P /Q /R /S /T
/U /V /W /X /Y
/Z /bracketleft /backslash /bracketright /asciicircum
/underscore /quoteleft /a /b /c
/d /e /f /g /h
/i /j /k /l /m
/n /o /p /q /r
/s /t /u /v /w
/x /y /z /braceleft /bar
/braceright /asciitilde /bullet /Euro /bullet
/quotesinglbase /florin /quotedblbase /ellipsis /dagger
/daggerdbl /circumflex /perthousand /Scaron /guilsinglleft
/OE /bullet /Zcaron /bullet /bullet
/quoteleft /quoteright /quotedblleft /quotedblright /bullet
/endash /emdash /asciitilde /trademark /scaron
/guilsinglright /oe /bullet /zcaron /Ydieresis
/space /exclamdown /cent /sterling /currency
/yen /brokenbar /section /dieresis /copyright
/ordfeminine /guillemotleft /logicalnot /sfthyphen /registered
/macron /degree /plusminus /twosuperior /threesuperior
/acute /mu /paragraph /middot /cedilla
/onesuperior /ordmasculine /guillemotright /onequarter /onehalf
/threequarters /questiondown /Agrave /Aacute /Acircumflex
/Atilde /Adieresis /Aring /AE /Ccedilla
/Egrave /Eacute /Ecircumflex /Edieresis /Igrave
/Iacute /Icircumflex /Idieresis /Eth /Ntilde
/Ograve /Oacute /Ocircumflex /Otilde /Odieresis
/multiply /Oslash /Ugrave /Uacute /Ucircumflex
/Udieresis /Yacute /Thorn /germandbls /agrave
/aacute /acircumflex /atilde /adieresis /aring
/ae /ccedilla /egrave /eacute /ecircumflex
/edieresis /igrave /iacute /icircumflex /idieresis
/eth /ntilde /ograve /oacute /ocircumflex
/otilde /odieresis /divide /oslash /ugrave
/uacute /ucircumflex /udieresis /yacute /thorn
/ydieresis
] def
%%EndResource
%FOPBeginFontReencode
/Courier-Oblique findfont
dup length dict begin
  {1 index /FID ne {def} {pop pop} ifelse} forall
  /Encoding WinAnsiEncoding def
  currentdict
end
/Courier-Oblique exch definefont pop
/Courier-BoldOblique findfont
dup length dict begin
  {1 index /FID ne {def} {pop pop} ifelse} forall
  /Encoding WinAnsiEncoding def
  currentdict
end
/Courier-BoldOblique exch definefont pop
/Courier-Bold findfont
dup length dict begin
  {1 index /FID ne {def} {pop pop} ifelse} forall
  /Encoding WinAnsiEncoding def
  currentdict
end
/Courier-Bold exch definefont pop
/Helvetica findfont
dup length dict begin
  {1 index /FID ne {def} {pop pop} ifelse} forall
  /Encoding WinAnsiEncoding def
  currentdict
end
/Helvetica exch definefont pop
/Helvetica-Oblique findfont
dup length dict begin
  {1 index /FID ne {def} {pop pop} ifelse} forall
  /Encoding WinAnsiEncoding def
  currentdict
end
/Helvetica-Oblique exch definefont pop
/Helvetica-Bold findfont
dup length dict begin
  {1 index /FID ne {def} {pop pop} ifelse} forall
  /Encoding WinAnsiEncoding def
  currentdict
end
/Helvetica-Bold exch definefont pop
/Helvetica-BoldOblique findfont
dup length dict begin
  {1 index /FID ne {def} {pop pop} ifelse} forall
  /Encoding WinAnsiEncoding def
  currentdict
end
/Helvetica-BoldOblique exch definefont pop
/Times-Roman findfont
dup length dict begin
  {1 index /FID ne {def} {pop pop} ifelse} forall
  /Encoding WinAnsiEncoding def
  currentdict
end
/Times-Roman exch definefont pop
/Times-Italic findfont
dup length dict begin
  {1 index /FID ne {def} {pop pop} ifelse} forall
  /Encoding WinAnsiEncoding def
  currentdict
end
/Times-Italic exch definefont pop
/Times-Bold findfont
dup length dict begin
  {1 index /FID ne {def} {pop pop} ifelse} forall
  /Encoding WinAnsiEncoding def
  currentdict
end
/Times-Bold exch definefont pop
/Times-BoldItalic findfont
dup length dict begin
  {1 index /FID ne {def} {pop pop} ifelse} forall
  /Encoding WinAnsiEncoding def
  currentdict
end
/Times-BoldItalic exch definefont pop
/Courier findfont
dup length dict begin
  {1 index /FID ne {def} {pop pop} ifelse} forall
  /Encoding WinAnsiEncoding def
  currentdict
end
/Courier exch definefont pop
%FOPEndFontReencode
%%EndProlog
%%Page: 1 1
%%PageBoundingBox: 0 0 1120 840
%%BeginPageSetup
[1 0 0 -1 0 840] CT
%%EndPageSetup
GS
1 GC
N
0 0 1120 840 re
f
GR
GS
1 GC
N
73 374 M
507 374 L
507 31.5 L
73 31.5 L
cp
f
GR
GS
0.149 GC
2 setlinecap
1 LJ
0.5 LW
N
73 374 M
507 374 L
S
GR
GS
0.149 GC
2 setlinecap
1 LJ
0.5 LW
N
73 31.5 M
507 31.5 L
S
GR
GS
0.149 GC
2 setlinecap
1 LJ
0.5 LW
N
142.165 374 M
142.165 369.66 L
S
GR
GS
0.149 GC
2 setlinecap
1 LJ
0.5 LW
N
239.404 374 M
239.404 369.66 L
S
GR
GS
0.149 GC
2 setlinecap
1 LJ
0.5 LW
N
336.644 374 M
336.644 369.66 L
S
GR
GS
0.149 GC
2 setlinecap
1 LJ
0.5 LW
N
433.883 374 M
433.883 369.66 L
S
GR
GS
0.149 GC
2 setlinecap
1 LJ
0.5 LW
N
142.165 31.5 M
142.165 35.84 L
S
GR
GS
0.149 GC
2 setlinecap
1 LJ
0.5 LW
N
239.404 31.5 M
239.404 35.84 L
S
GR
GS
0.149 GC
2 setlinecap
1 LJ
0.5 LW
N
336.644 31.5 M
336.644 35.84 L
S
GR
GS
0.149 GC
2 setlinecap
1 LJ
0.5 LW
N
433.883 31.5 M
433.883 35.84 L
S
GR
GS
0.149 GC
2 setlinecap
1 LJ
0.5 LW
N
83.821 374 M
83.821 371.83 L
S
GR
GS
0.149 GC
2 setlinecap
1 LJ
0.5 LW
N
103.269 374 M
103.269 371.83 L
S
GR
GS
0.149 GC
2 setlinecap
1 LJ
0.5 LW
N
122.717 374 M
122.717 371.83 L
S
GR
GS
0.149 GC
2 setlinecap
1 LJ
0.5 LW
N
161.613 374 M
161.613 371.83 L
S
GR
GS
0.149 GC
2 setlinecap
1 LJ
0.5 LW
N
181.061 374 M
181.061 371.83 L
S
GR
GS
0.149 GC
2 setlinecap
1 LJ
0.5 LW
N
200.508 374 M
200.508 371.83 L
S
GR
GS
0.149 GC
2 setlinecap
1 LJ
0.5 LW
N
219.956 374 M
219.956 371.83 L
S
GR
GS
0.149 GC
2 setlinecap
1 LJ
0.5 LW
N
258.852 374 M
258.852 371.83 L
S
GR
GS
0.149 GC
2 setlinecap
1 LJ
0.5 LW
N
278.3 374 M
278.3 371.83 L
S
GR
GS
0.149 GC
2 setlinecap
1 LJ
0.5 LW
N
297.748 374 M
297.748 371.83 L
S
GR
GS
0.149 GC
2 setlinecap
1 LJ
0.5 LW
N
317.196 374 M
317.196 371.83 L
S
GR
GS
0.149 GC
2 setlinecap
1 LJ
0.5 LW
N
356.092 374 M
356.092 371.83 L
S
GR
GS
0.149 GC
2 setlinecap
1 LJ
0.5 LW
N
375.539 374 M
375.539 371.83 L
S
GR
GS
0.149 GC
2 setlinecap
1 LJ
0.5 LW
N
394.987 374 M
394.987 371.83 L
S
GR
GS
0.149 GC
2 setlinecap
1 LJ
0.5 LW
N
414.435 374 M
414.435 371.83 L
S
GR
GS
0.149 GC
2 setlinecap
1 LJ
0.5 LW
N
453.331 374 M
453.331 371.83 L
S
GR
GS
0.149 GC
2 setlinecap
1 LJ
0.5 LW
N
472.779 374 M
472.779 371.83 L
S
GR
GS
0.149 GC
2 setlinecap
1 LJ
0.5 LW
N
492.227 374 M
492.227 371.83 L
S
GR
GS
0.149 GC
2 setlinecap
1 LJ
0.5 LW
N
83.821 31.5 M
83.821 33.67 L
S
GR
GS
0.149 GC
2 setlinecap
1 LJ
0.5 LW
N
103.269 31.5 M
103.269 33.67 L
S
GR
GS
0.149 GC
2 setlinecap
1 LJ
0.5 LW
N
122.717 31.5 M
122.717 33.67 L
S
GR
GS
0.149 GC
2 setlinecap
1 LJ
0.5 LW
N
161.613 31.5 M
161.613 33.67 L
S
GR
GS
0.149 GC
2 setlinecap
1 LJ
0.5 LW
N
181.061 31.5 M
181.061 33.67 L
S
GR
GS
0.149 GC
2 setlinecap
1 LJ
0.5 LW
N
200.508 31.5 M
200.508 33.67 L
S
GR
GS
0.149 GC
2 setlinecap
1 LJ
0.5 LW
N
219.956 31.5 M
219.956 33.67 L
S
GR
GS
0.149 GC
2 setlinecap
1 LJ
0.5 LW
N
258.852 31.5 M
258.852 33.67 L
S
GR
GS
0.149 GC
2 setlinecap
1 LJ
0.5 LW
N
278.3 31.5 M
278.3 33.67 L
S
GR
GS
0.149 GC
2 setlinecap
1 LJ
0.5 LW
N
297.748 31.5 M
297.748 33.67 L
S
GR
GS
0.149 GC
2 setlinecap
1 LJ
0.5 LW
N
317.196 31.5 M
317.196 33.67 L
S
GR
GS
0.149 GC
2 setlinecap
1 LJ
0.5 LW
N
356.092 31.5 M
356.092 33.67 L
S
GR
GS
0.149 GC
2 setlinecap
1 LJ
0.5 LW
N
375.539 31.5 M
375.539 33.67 L
S
GR
GS
0.149 GC
2 setlinecap
1 LJ
0.5 LW
N
394.987 31.5 M
394.987 33.67 L
S
GR
GS
0.149 GC
2 setlinecap
1 LJ
0.5 LW
N
414.435 31.5 M
414.435 33.67 L
S
GR
GS
0.149 GC
2 setlinecap
1 LJ
0.5 LW
N
453.331 31.5 M
453.331 33.67 L
S
GR
GS
0.149 GC
2 setlinecap
1 LJ
0.5 LW
N
472.779 31.5 M
472.779 33.67 L
S
GR
GS
0.149 GC
2 setlinecap
1 LJ
0.5 LW
N
492.227 31.5 M
492.227 33.67 L
S
GR
GS
[1 0 0 1 142.16483 378.80002] CT
0.149 GC
/Helvetica 14 F
GS
[1 0 0 1 0 0] CT
-12 14 moveto 
1 -1 scale
(500) t 
GR
GR
GS
[1 0 0 1 239.40425 378.80002] CT
0.149 GC
/Helvetica 14 F
GS
[1 0 0 1 0 0] CT
-16 14 moveto 
1 -1 scale
(1000) t 
GR
GR
GS
[1 0 0 1 336.64371 378.80002] CT
0.149 GC
/Helvetica 14 F
GS
[1 0 0 1 0 0] CT
-16 14 moveto 
1 -1 scale
(1500) t 
GR
GR
GS
[1 0 0 1 433.88312 378.80002] CT
0.149 GC
/Helvetica 14 F
GS
[1 0 0 1 0 0] CT
-16 14 moveto 
1 -1 scale
(2000) t 
GR
GR
GS
[1 0 0 1 290.00021 396.30002] CT
0.149 GC
/Helvetica 15.4 F
GS
[1 0 0 1 0 0] CT
-42 15 moveto 
1 -1 scale
(Bitrate\(kb/s\)) t 
GR
GR
GS
0.149 GC
2 setlinecap
1 LJ
0.5 LW
N
73 374 M
73 31.5 L
S
GR
GS
0.149 GC
2 setlinecap
1 LJ
0.5 LW
N
507 374 M
507 31.5 L
S
GR
GS
0.149 GC
2 setlinecap
1 LJ
0.5 LW
N
73 354.616 M
77.34 354.616 L
S
GR
GS
0.149 GC
2 setlinecap
1 LJ
0.5 LW
N
73 321.34 M
77.34 321.34 L
S
GR
GS
0.149 GC
2 setlinecap
1 LJ
0.5 LW
N
73 288.065 M
77.34 288.065 L
S
GR
GS
0.149 GC
2 setlinecap
1 LJ
0.5 LW
N
73 254.79 M
77.34 254.79 L
S
GR
GS
0.149 GC
2 setlinecap
1 LJ
0.5 LW
N
73 221.514 M
77.34 221.514 L
S
GR
GS
0.149 GC
2 setlinecap
1 LJ
0.5 LW
N
73 188.239 M
77.34 188.239 L
S
GR
GS
0.149 GC
2 setlinecap
1 LJ
0.5 LW
N
73 154.963 M
77.34 154.963 L
S
GR
GS
0.149 GC
2 setlinecap
1 LJ
0.5 LW
N
73 121.688 M
77.34 121.688 L
S
GR
GS
0.149 GC
2 setlinecap
1 LJ
0.5 LW
N
73 88.412 M
77.34 88.412 L
S
GR
GS
0.149 GC
2 setlinecap
1 LJ
0.5 LW
N
73 55.137 M
77.34 55.137 L
S
GR
GS
0.149 GC
2 setlinecap
1 LJ
0.5 LW
N
507 354.616 M
502.66 354.616 L
S
GR
GS
0.149 GC
2 setlinecap
1 LJ
0.5 LW
N
507 321.34 M
502.66 321.34 L
S
GR
GS
0.149 GC
2 setlinecap
1 LJ
0.5 LW
N
507 288.065 M
502.66 288.065 L
S
GR
GS
0.149 GC
2 setlinecap
1 LJ
0.5 LW
N
507 254.79 M
502.66 254.79 L
S
GR
GS
0.149 GC
2 setlinecap
1 LJ
0.5 LW
N
507 221.514 M
502.66 221.514 L
S
GR
GS
0.149 GC
2 setlinecap
1 LJ
0.5 LW
N
507 188.239 M
502.66 188.239 L
S
GR
GS
0.149 GC
2 setlinecap
1 LJ
0.5 LW
N
507 154.963 M
502.66 154.963 L
S
GR
GS
0.149 GC
2 setlinecap
1 LJ
0.5 LW
N
507 121.688 M
502.66 121.688 L
S
GR
GS
0.149 GC
2 setlinecap
1 LJ
0.5 LW
N
507 88.412 M
502.66 88.412 L
S
GR
GS
0.149 GC
2 setlinecap
1 LJ
0.5 LW
N
507 55.137 M
502.66 55.137 L
S
GR
GS
0.149 GC
2 setlinecap
1 LJ
0.5 LW
N
73 367.926 M
75.17 367.926 L
S
GR
GS
0.149 GC
2 setlinecap
1 LJ
0.5 LW
N
73 361.271 M
75.17 361.271 L
S
GR
GS
0.149 GC
2 setlinecap
1 LJ
0.5 LW
N
73 347.961 M
75.17 347.961 L
S
GR
GS
0.149 GC
2 setlinecap
1 LJ
0.5 LW
N
73 341.306 M
75.17 341.306 L
S
GR
GS
0.149 GC
2 setlinecap
1 LJ
0.5 LW
N
73 334.651 M
75.17 334.651 L
S
GR
GS
0.149 GC
2 setlinecap
1 LJ
0.5 LW
N
73 327.995 M
75.17 327.995 L
S
GR
GS
0.149 GC
2 setlinecap
1 LJ
0.5 LW
N
73 314.685 M
75.17 314.685 L
S
GR
GS
0.149 GC
2 setlinecap
1 LJ
0.5 LW
N
73 308.03 M
75.17 308.03 L
S
GR
GS
0.149 GC
2 setlinecap
1 LJ
0.5 LW
N
73 301.375 M
75.17 301.375 L
S
GR
GS
0.149 GC
2 setlinecap
1 LJ
0.5 LW
N
73 294.72 M
75.17 294.72 L
S
GR
GS
0.149 GC
2 setlinecap
1 LJ
0.5 LW
N
73 281.41 M
75.17 281.41 L
S
GR
GS
0.149 GC
2 setlinecap
1 LJ
0.5 LW
N
73 274.755 M
75.17 274.755 L
S
GR
GS
0.149 GC
2 setlinecap
1 LJ
0.5 LW
N
73 268.1 M
75.17 268.1 L
S
GR
GS
0.149 GC
2 setlinecap
1 LJ
0.5 LW
N
73 261.445 M
75.17 261.445 L
S
GR
GS
0.149 GC
2 setlinecap
1 LJ
0.5 LW
N
73 248.134 M
75.17 248.134 L
S
GR
GS
0.149 GC
2 setlinecap
1 LJ
0.5 LW
N
73 241.479 M
75.17 241.479 L
S
GR
GS
0.149 GC
2 setlinecap
1 LJ
0.5 LW
N
73 234.824 M
75.17 234.824 L
S
GR
GS
0.149 GC
2 setlinecap
1 LJ
0.5 LW
N
73 228.169 M
75.17 228.169 L
S
GR
GS
0.149 GC
2 setlinecap
1 LJ
0.5 LW
N
73 214.859 M
75.17 214.859 L
S
GR
GS
0.149 GC
2 setlinecap
1 LJ
0.5 LW
N
73 208.204 M
75.17 208.204 L
S
GR
GS
0.149 GC
2 setlinecap
1 LJ
0.5 LW
N
73 201.549 M
75.17 201.549 L
S
GR
GS
0.149 GC
2 setlinecap
1 LJ
0.5 LW
N
73 194.894 M
75.17 194.894 L
S
GR
GS
0.149 GC
2 setlinecap
1 LJ
0.5 LW
N
73 181.584 M
75.17 181.584 L
S
GR
GS
0.149 GC
2 setlinecap
1 LJ
0.5 LW
N
73 174.928 M
75.17 174.928 L
S
GR
GS
0.149 GC
2 setlinecap
1 LJ
0.5 LW
N
73 168.273 M
75.17 168.273 L
S
GR
GS
0.149 GC
2 setlinecap
1 LJ
0.5 LW
N
73 161.618 M
75.17 161.618 L
S
GR
GS
0.149 GC
2 setlinecap
1 LJ
0.5 LW
N
73 148.308 M
75.17 148.308 L
S
GR
GS
0.149 GC
2 setlinecap
1 LJ
0.5 LW
N
73 141.653 M
75.17 141.653 L
S
GR
GS
0.149 GC
2 setlinecap
1 LJ
0.5 LW
N
73 134.998 M
75.17 134.998 L
S
GR
GS
0.149 GC
2 setlinecap
1 LJ
0.5 LW
N
73 128.343 M
75.17 128.343 L
S
GR
GS
0.149 GC
2 setlinecap
1 LJ
0.5 LW
N
73 115.033 M
75.17 115.033 L
S
GR
GS
0.149 GC
2 setlinecap
1 LJ
0.5 LW
N
73 108.378 M
75.17 108.378 L
S
GR
GS
0.149 GC
2 setlinecap
1 LJ
0.5 LW
N
73 101.723 M
75.17 101.723 L
S
GR
GS
0.149 GC
2 setlinecap
1 LJ
0.5 LW
N
73 95.067 M
75.17 95.067 L
S
GR
GS
0.149 GC
2 setlinecap
1 LJ
0.5 LW
N
73 81.757 M
75.17 81.757 L
S
GR
GS
0.149 GC
2 setlinecap
1 LJ
0.5 LW
N
73 75.102 M
75.17 75.102 L
S
GR
GS
0.149 GC
2 setlinecap
1 LJ
0.5 LW
N
73 68.447 M
75.17 68.447 L
S
GR
GS
0.149 GC
2 setlinecap
1 LJ
0.5 LW
N
73 61.792 M
75.17 61.792 L
S
GR
GS
0.149 GC
2 setlinecap
1 LJ
0.5 LW
N
73 48.482 M
75.17 48.482 L
S
GR
GS
0.149 GC
2 setlinecap
1 LJ
0.5 LW
N
73 41.827 M
75.17 41.827 L
S
GR
GS
0.149 GC
2 setlinecap
1 LJ
0.5 LW
N
73 35.172 M
75.17 35.172 L
S
GR
GS
0.149 GC
2 setlinecap
1 LJ
0.5 LW
N
507 367.926 M
504.83 367.926 L
S
GR
GS
0.149 GC
2 setlinecap
1 LJ
0.5 LW
N
507 361.271 M
504.83 361.271 L
S
GR
GS
0.149 GC
2 setlinecap
1 LJ
0.5 LW
N
507 347.961 M
504.83 347.961 L
S
GR
GS
0.149 GC
2 setlinecap
1 LJ
0.5 LW
N
507 341.306 M
504.83 341.306 L
S
GR
GS
0.149 GC
2 setlinecap
1 LJ
0.5 LW
N
507 334.651 M
504.83 334.651 L
S
GR
GS
0.149 GC
2 setlinecap
1 LJ
0.5 LW
N
507 327.995 M
504.83 327.995 L
S
GR
GS
0.149 GC
2 setlinecap
1 LJ
0.5 LW
N
507 314.685 M
504.83 314.685 L
S
GR
GS
0.149 GC
2 setlinecap
1 LJ
0.5 LW
N
507 308.03 M
504.83 308.03 L
S
GR
GS
0.149 GC
2 setlinecap
1 LJ
0.5 LW
N
507 301.375 M
504.83 301.375 L
S
GR
GS
0.149 GC
2 setlinecap
1 LJ
0.5 LW
N
507 294.72 M
504.83 294.72 L
S
GR
GS
0.149 GC
2 setlinecap
1 LJ
0.5 LW
N
507 281.41 M
504.83 281.41 L
S
GR
GS
0.149 GC
2 setlinecap
1 LJ
0.5 LW
N
507 274.755 M
504.83 274.755 L
S
GR
GS
0.149 GC
2 setlinecap
1 LJ
0.5 LW
N
507 268.1 M
504.83 268.1 L
S
GR
GS
0.149 GC
2 setlinecap
1 LJ
0.5 LW
N
507 261.445 M
504.83 261.445 L
S
GR
GS
0.149 GC
2 setlinecap
1 LJ
0.5 LW
N
507 248.134 M
504.83 248.134 L
S
GR
GS
0.149 GC
2 setlinecap
1 LJ
0.5 LW
N
507 241.479 M
504.83 241.479 L
S
GR
GS
0.149 GC
2 setlinecap
1 LJ
0.5 LW
N
507 234.824 M
504.83 234.824 L
S
GR
GS
0.149 GC
2 setlinecap
1 LJ
0.5 LW
N
507 228.169 M
504.83 228.169 L
S
GR
GS
0.149 GC
2 setlinecap
1 LJ
0.5 LW
N
507 214.859 M
504.83 214.859 L
S
GR
GS
0.149 GC
2 setlinecap
1 LJ
0.5 LW
N
507 208.204 M
504.83 208.204 L
S
GR
GS
0.149 GC
2 setlinecap
1 LJ
0.5 LW
N
507 201.549 M
504.83 201.549 L
S
GR
GS
0.149 GC
2 setlinecap
1 LJ
0.5 LW
N
507 194.894 M
504.83 194.894 L
S
GR
GS
0.149 GC
2 setlinecap
1 LJ
0.5 LW
N
507 181.584 M
504.83 181.584 L
S
GR
GS
0.149 GC
2 setlinecap
1 LJ
0.5 LW
N
507 174.928 M
504.83 174.928 L
S
GR
GS
0.149 GC
2 setlinecap
1 LJ
0.5 LW
N
507 168.273 M
504.83 168.273 L
S
GR
GS
0.149 GC
2 setlinecap
1 LJ
0.5 LW
N
507 161.618 M
504.83 161.618 L
S
GR
GS
0.149 GC
2 setlinecap
1 LJ
0.5 LW
N
507 148.308 M
504.83 148.308 L
S
GR
GS
0.149 GC
2 setlinecap
1 LJ
0.5 LW
N
507 141.653 M
504.83 141.653 L
S
GR
GS
0.149 GC
2 setlinecap
1 LJ
0.5 LW
N
507 134.998 M
504.83 134.998 L
S
GR
GS
0.149 GC
2 setlinecap
1 LJ
0.5 LW
N
507 128.343 M
504.83 128.343 L
S
GR
GS
0.149 GC
2 setlinecap
1 LJ
0.5 LW
N
507 115.033 M
504.83 115.033 L
S
GR
GS
0.149 GC
2 setlinecap
1 LJ
0.5 LW
N
507 108.378 M
504.83 108.378 L
S
GR
GS
0.149 GC
2 setlinecap
1 LJ
0.5 LW
N
507 101.723 M
504.83 101.723 L
S
GR
GS
0.149 GC
2 setlinecap
1 LJ
0.5 LW
N
507 95.067 M
504.83 95.067 L
S
GR
GS
0.149 GC
2 setlinecap
1 LJ
0.5 LW
N
507 81.757 M
504.83 81.757 L
S
GR
GS
0.149 GC
2 setlinecap
1 LJ
0.5 LW
N
507 75.102 M
504.83 75.102 L
S
GR
GS
0.149 GC
2 setlinecap
1 LJ
0.5 LW
N
507 68.447 M
504.83 68.447 L
S
GR
GS
0.149 GC
2 setlinecap
1 LJ
0.5 LW
N
507 61.792 M
504.83 61.792 L
S
GR
GS
0.149 GC
2 setlinecap
1 LJ
0.5 LW
N
507 48.482 M
504.83 48.482 L
S
GR
GS
0.149 GC
2 setlinecap
1 LJ
0.5 LW
N
507 41.827 M
504.83 41.827 L
S
GR
GS
0.149 GC
2 setlinecap
1 LJ
0.5 LW
N
507 35.172 M
504.83 35.172 L
S
GR
GS
[1 0 0 1 68.2 354.61578] CT
0.149 GC
/Helvetica 14 F
GS
[1 0 0 1 0 0] CT
-16 5.5 moveto 
1 -1 scale
(50) t 
GR
GR
GS
[1 0 0 1 68.2 321.34036] CT
0.149 GC
/Helvetica 14 F
GS
[1 0 0 1 0 0] CT
-16 5.5 moveto 
1 -1 scale
(55) t 
GR
GR
GS
[1 0 0 1 68.2 288.06494] CT
0.149 GC
/Helvetica 14 F
GS
[1 0 0 1 0 0] CT
-16 5.5 moveto 
1 -1 scale
(60) t 
GR
GR
GS
[1 0 0 1 68.2 254.78951] CT
0.149 GC
/Helvetica 14 F
GS
[1 0 0 1 0 0] CT
-16 5.5 moveto 
1 -1 scale
(65) t 
GR
GR
GS
[1 0 0 1 68.2 221.51408] CT
0.149 GC
/Helvetica 14 F
GS
[1 0 0 1 0 0] CT
-16 5.5 moveto 
1 -1 scale
(70) t 
GR
GR
GS
[1 0 0 1 68.2 188.23866] CT
0.149 GC
/Helvetica 14 F
GS
[1 0 0 1 0 0] CT
-16 5.5 moveto 
1 -1 scale
(75) t 
GR
GR
GS
[1 0 0 1 68.2 154.96324] CT
0.149 GC
/Helvetica 14 F
GS
[1 0 0 1 0 0] CT
-16 5.5 moveto 
1 -1 scale
(80) t 
GR
GR
GS
[1 0 0 1 68.2 121.68781] CT
0.149 GC
/Helvetica 14 F
GS
[1 0 0 1 0 0] CT
-16 5.5 moveto 
1 -1 scale
(85) t 
GR
GR
GS
[1 0 0 1 68.2 88.41238] CT
0.149 GC
/Helvetica 14 F
GS
[1 0 0 1 0 0] CT
-16 5.5 moveto 
1 -1 scale
(90) t 
GR
GR
GS
[1 0 0 1 68.2 55.13696] CT
0.149 GC
/Helvetica 14 F
GS
[1 0 0 1 0 0] CT
-16 5.5 moveto 
1 -1 scale
(95) t 
GR
GR
GS
[0 -1 1 0 49.2 202.74985] CT
0.149 GC
/Helvetica 15.4 F
GS
[1 0 0 1 0 0] CT
-40 -4 moveto 
1 -1 scale
(VMAF-NEG) t 
GR
GR
GS
[1 0 0 1 290.00031 29.57501] CT
/Helvetica-Bold 15.4 F
GS
[1 0 0 1 0 0] CT
-141 -4 moveto 
1 -1 scale
(Skater227_1920x1080_30fps.y4m-hevc) t 
GR
GR
GS
0 0.447 0.741 RC
1 LJ
0.5 LW
N
73.651 371.143 M
77.541 348.477 L
81.43 326.552 L
85.32 305.986 L
89.209 287.397 L
93.099 271.401 L
96.988 258.17 L
100.878 245.878 L
104.768 234.26 L
108.657 223.324 L
112.547 213.079 L
116.436 203.533 L
120.326 194.694 L
124.215 186.57 L
128.105 179.17 L
131.995 172.503 L
135.884 166.575 L
139.774 161.318 L
143.663 156.283 L
147.553 151.4 L
151.442 146.668 L
155.332 142.089 L
159.222 137.663 L
163.111 133.391 L
167.001 129.274 L
170.89 125.312 L
174.78 121.505 L
178.67 117.855 L
182.559 114.363 L
186.449 111.028 L
190.338 107.852 L
194.228 104.835 L
198.117 101.978 L
202.007 99.282 L
205.897 96.747 L
209.786 94.373 L
213.676 92.163 L
217.565 90.115 L
221.455 88.232 L
225.344 86.513 L
229.234 84.96 L
233.124 83.537 L
237.013 82.136 L
240.903 80.749 L
244.792 79.377 L
248.682 78.02 L
252.571 76.678 L
256.461 75.351 L
260.351 74.04 L
264.24 72.744 L
268.13 71.465 L
272.019 70.202 L
275.909 68.956 L
279.799 67.727 L
283.688 66.515 L
287.578 65.32 L
291.467 64.142 L
295.357 62.983 L
299.246 61.842 L
303.136 60.719 L
307.026 59.614 L
310.915 58.529 L
314.805 57.462 L
318.694 56.415 L
322.584 55.387 L
326.473 54.38 L
330.363 53.392 L
334.253 52.424 L
338.142 51.478 L
342.032 50.552 L
345.921 49.647 L
349.811 48.763 L
353.701 47.901 L
357.59 47.061 L
361.48 46.243 L
365.369 45.447 L
369.259 44.673 L
373.148 43.923 L
377.038 43.195 L
380.928 42.491 L
384.817 41.81 L
388.707 41.154 L
392.596 40.521 L
396.486 39.912 L
400.375 39.328 L
404.265 38.769 L
408.155 38.235 L
412.044 37.726 L
415.934 37.243 L
419.823 36.785 L
423.713 36.353 L
427.602 35.948 L
431.492 35.569 L
435.382 35.217 L
439.271 34.892 L
443.161 34.595 L
447.05 34.324 L
450.94 34.082 L
454.83 33.867 L
458.719 33.681 L
462.609 33.523 L
466.498 33.394 L
470.388 33.294 L
474.277 33.224 L
478.167 33.182 L
S
GR
GS
0.851 0.325 0.098 RC
1 LJ
0.5 LW
N
74.737 362.839 M
78.626 340.924 L
82.516 319.68 L
86.405 299.677 L
90.295 281.485 L
94.185 265.674 L
98.074 252.654 L
101.964 240.822 L
105.853 229.622 L
109.743 219.059 L
113.632 209.139 L
117.522 199.867 L
121.412 191.248 L
125.301 183.287 L
129.191 175.991 L
133.08 169.365 L
136.97 163.413 L
140.859 158.142 L
144.749 153.343 L
148.639 148.686 L
152.528 144.168 L
156.418 139.787 L
160.307 135.546 L
164.197 131.445 L
168.087 127.483 L
171.976 123.662 L
175.866 119.983 L
179.755 116.445 L
183.645 113.049 L
187.534 109.795 L
191.424 106.685 L
195.314 103.719 L
199.203 100.896 L
203.093 98.219 L
206.982 95.686 L
210.872 93.299 L
214.761 91.059 L
218.651 88.965 L
222.541 87.018 L
226.43 85.22 L
230.32 83.569 L
234.209 82.067 L
238.099 80.713 L
241.988 79.418 L
245.878 78.136 L
249.768 76.867 L
253.657 75.612 L
257.547 74.37 L
261.436 73.141 L
265.326 71.927 L
269.216 70.726 L
273.105 69.54 L
276.995 68.368 L
280.884 67.211 L
284.774 66.069 L
288.663 64.941 L
292.553 63.829 L
296.443 62.733 L
300.332 61.652 L
304.222 60.587 L
308.111 59.538 L
312.001 58.506 L
315.89 57.489 L
319.78 56.49 L
323.67 55.507 L
327.559 54.542 L
331.449 53.594 L
335.338 52.663 L
339.228 51.75 L
343.117 50.855 L
347.007 49.978 L
350.897 49.119 L
354.786 48.279 L
358.676 47.457 L
362.565 46.654 L
366.455 45.871 L
370.345 45.107 L
374.234 44.362 L
378.124 43.637 L
382.013 42.932 L
385.903 42.247 L
389.792 41.582 L
393.682 40.938 L
397.572 40.314 L
401.461 39.712 L
405.351 39.131 L
409.24 38.57 L
413.13 38.032 L
417.019 37.515 L
420.909 37.02 L
424.799 36.548 L
428.688 36.097 L
432.578 35.669 L
436.467 35.264 L
440.357 34.882 L
444.247 34.523 L
448.136 34.187 L
452.026 33.875 L
455.915 33.587 L
459.805 33.323 L
463.694 33.082 L
467.584 32.867 L
471.474 32.675 L
475.363 32.509 L
479.253 32.367 L
483.142 32.251 L
487.032 32.16 L
490.921 32.094 L
494.811 32.055 L
498.701 32.041 L
S
GR
GS
0.929 0.694 0.125 RC
1 LJ
0.5 LW
N
73 374 M
76.89 350.476 L
80.779 327.733 L
84.669 306.497 L
88.558 287.496 L
92.448 271.456 L
96.337 258.255 L
100.227 245.92 L
104.117 234.318 L
108.006 223.446 L
111.896 213.298 L
115.785 203.867 L
119.675 195.151 L
123.565 187.142 L
127.454 179.837 L
131.344 173.229 L
135.233 167.314 L
139.123 161.979 L
143.012 156.828 L
146.902 151.826 L
150.792 146.976 L
154.681 142.277 L
158.571 137.734 L
162.46 133.346 L
166.35 129.116 L
170.239 125.046 L
174.129 121.137 L
178.019 117.392 L
181.908 113.811 L
185.798 110.396 L
189.687 107.15 L
193.577 104.074 L
197.466 101.169 L
201.356 98.438 L
205.246 95.882 L
209.135 93.503 L
213.025 91.303 L
216.914 89.283 L
220.804 87.445 L
224.694 85.791 L
228.583 84.31 L
232.473 82.876 L
236.362 81.458 L
240.252 80.055 L
244.141 78.668 L
248.031 77.296 L
251.921 75.941 L
255.81 74.603 L
259.7 73.281 L
263.589 71.975 L
267.479 70.687 L
271.368 69.417 L
275.258 68.164 L
279.148 66.929 L
283.037 65.712 L
286.927 64.513 L
290.816 63.333 L
294.706 62.172 L
298.595 61.03 L
302.485 59.907 L
306.375 58.803 L
310.264 57.719 L
314.154 56.656 L
318.043 55.612 L
321.933 54.589 L
325.823 53.587 L
329.712 52.606 L
333.602 51.645 L
337.491 50.707 L
341.381 49.79 L
345.27 48.894 L
349.16 48.021 L
353.05 47.171 L
356.939 46.343 L
360.829 45.537 L
364.718 44.755 L
368.608 43.996 L
372.497 43.261 L
376.387 42.55 L
380.277 41.862 L
384.166 41.199 L
388.056 40.561 L
391.945 39.947 L
395.835 39.358 L
399.724 38.794 L
403.614 38.256 L
407.504 37.744 L
411.393 37.257 L
415.283 36.797 L
419.172 36.363 L
423.062 35.956 L
426.952 35.576 L
430.841 35.222 L
434.731 34.897 L
438.62 34.598 L
442.51 34.328 L
446.399 34.086 L
450.289 33.872 L
454.179 33.686 L
458.068 33.53 L
461.958 33.402 L
465.847 33.304 L
469.737 33.235 L
473.626 33.196 L
S
GR
GS
0.494 0.184 0.557 RC
1 LJ
0.5 LW
N
75.257 358.582 M
79.146 337.373 L
83.036 316.79 L
86.926 297.352 L
90.815 279.583 L
94.705 264.001 L
98.594 251.076 L
102.484 239.502 L
106.374 228.527 L
110.263 218.154 L
114.153 208.389 L
118.042 199.237 L
121.932 190.702 L
125.821 182.791 L
129.711 175.508 L
133.601 168.858 L
137.49 162.846 L
141.38 157.478 L
145.269 152.687 L
149.159 148.085 L
153.048 143.611 L
156.938 139.267 L
160.828 135.054 L
164.717 130.973 L
168.607 127.023 L
172.496 123.207 L
176.386 119.525 L
180.275 115.978 L
184.165 112.567 L
188.055 109.293 L
191.944 106.156 L
195.834 103.158 L
199.723 100.299 L
203.613 97.581 L
207.503 95.003 L
211.392 92.568 L
215.282 90.275 L
219.171 88.126 L
223.061 86.122 L
226.95 84.263 L
230.84 82.55 L
234.73 80.985 L
238.619 79.568 L
242.509 78.292 L
246.398 77.058 L
250.288 75.836 L
254.177 74.628 L
258.067 73.432 L
261.957 72.249 L
265.846 71.079 L
269.736 69.923 L
273.625 68.78 L
277.515 67.651 L
281.405 66.536 L
285.294 65.435 L
289.184 64.349 L
293.073 63.276 L
296.963 62.218 L
300.852 61.175 L
304.742 60.147 L
308.632 59.134 L
312.521 58.136 L
316.411 57.154 L
320.3 56.187 L
324.19 55.236 L
328.079 54.301 L
331.969 53.382 L
335.859 52.479 L
339.748 51.593 L
343.638 50.723 L
347.527 49.871 L
351.417 49.035 L
355.306 48.216 L
359.196 47.415 L
363.086 46.631 L
366.975 45.865 L
370.865 45.117 L
374.754 44.386 L
378.644 43.674 L
382.534 42.98 L
386.423 42.305 L
390.313 41.649 L
394.202 41.011 L
398.092 40.392 L
401.981 39.793 L
405.871 39.213 L
409.761 38.652 L
413.65 38.112 L
417.54 37.591 L
421.429 37.09 L
425.319 36.61 L
429.208 36.149 L
433.098 35.71 L
436.988 35.291 L
440.877 34.893 L
444.767 34.517 L
448.656 34.161 L
452.546 33.827 L
456.436 33.515 L
460.325 33.224 L
464.215 32.956 L
468.104 32.709 L
471.994 32.485 L
475.883 32.283 L
479.773 32.104 L
483.663 31.948 L
487.552 31.815 L
491.442 31.705 L
495.331 31.618 L
499.221 31.555 L
503.11 31.516 L
507 31.5 L
S
GR
GS
0.467 0.675 0.188 RC
[10 6] 0 setdash
2 LJ
0.5 LW
N
73.382 372.175 M
77.271 349.661 L
81.161 327.904 L
85.05 307.491 L
88.94 289.012 L
92.83 273.055 L
96.719 259.713 L
100.609 247.235 L
104.498 235.417 L
108.388 224.278 L
112.277 213.836 L
116.167 204.11 L
120.057 195.118 L
123.946 186.878 L
127.836 179.41 L
131.725 172.73 L
135.615 166.858 L
139.504 161.594 L
143.394 156.502 L
147.284 151.571 L
151.173 146.8 L
155.063 142.19 L
158.952 137.742 L
162.842 133.455 L
166.732 129.33 L
170.621 125.367 L
174.511 121.567 L
178.4 117.929 L
182.29 114.455 L
186.179 111.144 L
190.069 107.997 L
193.959 105.014 L
197.848 102.195 L
201.738 99.54 L
205.627 97.051 L
209.517 94.727 L
213.406 92.569 L
217.296 90.576 L
221.186 88.749 L
225.075 87.09 L
228.965 85.588 L
232.854 84.135 L
236.744 82.696 L
240.633 81.272 L
244.523 79.864 L
248.413 78.471 L
252.302 77.093 L
256.192 75.732 L
260.081 74.387 L
263.971 73.059 L
267.861 71.747 L
271.75 70.453 L
275.64 69.176 L
279.529 67.917 L
283.419 66.676 L
287.308 65.453 L
291.198 64.249 L
295.088 63.063 L
298.977 61.897 L
302.867 60.75 L
306.756 59.622 L
310.646 58.515 L
314.535 57.427 L
318.425 56.361 L
322.315 55.314 L
326.204 54.289 L
330.094 53.286 L
333.983 52.304 L
337.873 51.343 L
341.762 50.405 L
345.652 49.489 L
349.542 48.596 L
353.431 47.726 L
357.321 46.879 L
361.21 46.056 L
365.1 45.256 L
368.99 44.481 L
372.879 43.73 L
376.769 43.003 L
380.658 42.302 L
384.548 41.626 L
388.437 40.975 L
392.327 40.349 L
396.217 39.75 L
400.106 39.177 L
403.996 38.631 L
407.885 38.112 L
411.775 37.619 L
415.664 37.154 L
419.554 36.717 L
423.444 36.308 L
427.333 35.927 L
431.223 35.574 L
435.112 35.251 L
439.002 34.956 L
442.892 34.691 L
446.781 34.455 L
450.671 34.249 L
454.56 34.073 L
458.45 33.928 L
462.339 33.814 L
466.229 33.73 L
470.119 33.678 L
474.008 33.657 L
S
GR
GS
0.302 0.745 0.933 RC
[10 6] 0 setdash
2 LJ
0.5 LW
N
73.176 373.349 M
77.066 349.939 L
80.955 327.3 L
84.845 306.126 L
88.734 287.11 L
92.624 270.945 L
96.513 257.711 L
100.403 245.426 L
104.293 233.866 L
108.182 223.029 L
112.072 212.909 L
115.961 203.503 L
119.851 194.808 L
123.74 186.818 L
127.63 179.53 L
131.52 172.941 L
135.409 167.045 L
139.299 161.759 L
143.188 156.676 L
147.078 151.741 L
150.967 146.958 L
154.857 142.325 L
158.747 137.846 L
162.636 133.521 L
166.526 129.351 L
170.415 125.338 L
174.305 121.483 L
178.195 117.787 L
182.084 114.252 L
185.974 110.878 L
189.863 107.668 L
193.753 104.622 L
197.642 101.741 L
201.532 99.027 L
205.422 96.481 L
209.311 94.105 L
213.201 91.9 L
217.09 89.866 L
220.98 88.006 L
224.869 86.32 L
228.759 84.809 L
232.649 83.378 L
236.538 81.962 L
240.428 80.561 L
244.317 79.175 L
248.207 77.804 L
252.096 76.45 L
255.986 75.111 L
259.876 73.788 L
263.765 72.482 L
267.655 71.192 L
271.544 69.92 L
275.434 68.664 L
279.324 67.426 L
283.213 66.206 L
287.103 65.004 L
290.992 63.82 L
294.882 62.654 L
298.771 61.507 L
302.661 60.379 L
306.551 59.27 L
310.44 58.181 L
314.33 57.111 L
318.219 56.061 L
322.109 55.032 L
325.998 54.023 L
329.888 53.034 L
333.778 52.067 L
337.667 51.12 L
341.557 50.195 L
345.446 49.292 L
349.336 48.411 L
353.225 47.551 L
357.115 46.715 L
361.005 45.901 L
364.894 45.11 L
368.784 44.341 L
372.673 43.597 L
376.563 42.876 L
380.453 42.179 L
384.342 41.506 L
388.232 40.858 L
392.121 40.234 L
396.011 39.635 L
399.9 39.062 L
403.79 38.514 L
407.68 37.991 L
411.569 37.494 L
415.459 37.024 L
419.348 36.58 L
423.238 36.163 L
427.127 35.772 L
431.017 35.409 L
434.907 35.073 L
438.796 34.765 L
442.686 34.484 L
446.575 34.232 L
450.465 34.008 L
454.354 33.813 L
458.244 33.647 L
462.134 33.51 L
466.023 33.402 L
469.913 33.324 L
473.802 33.276 L
477.692 33.258 L
S
GR
GS
0.635 0.078 0.184 RC
[10 6] 0 setdash
2 LJ
0.5 LW
N
73.826 369.172 M
77.716 346.578 L
81.605 324.707 L
85.495 304.179 L
89.384 285.613 L
93.274 269.63 L
97.164 256.487 L
101.053 244.364 L
104.943 232.916 L
108.832 222.145 L
112.722 212.055 L
116.611 202.649 L
120.501 193.931 L
124.391 185.903 L
128.28 178.568 L
132.17 171.931 L
136.059 165.994 L
139.949 160.735 L
143.839 155.759 L
147.728 150.926 L
151.618 146.238 L
155.507 141.696 L
159.397 137.3 L
163.286 133.052 L
167.176 128.952 L
171.066 125.001 L
174.955 121.201 L
178.845 117.551 L
182.734 114.054 L
186.624 110.71 L
190.513 107.52 L
194.403 104.484 L
198.293 101.604 L
202.182 98.881 L
206.072 96.316 L
209.961 93.909 L
213.851 91.662 L
217.741 89.575 L
221.63 87.649 L
225.52 85.886 L
229.409 84.285 L
233.299 82.848 L
237.188 81.483 L
241.078 80.131 L
244.968 78.794 L
248.857 77.471 L
252.747 76.163 L
256.636 74.869 L
260.526 73.591 L
264.415 72.327 L
268.305 71.079 L
272.195 69.847 L
276.084 68.63 L
279.974 67.43 L
283.863 66.246 L
287.753 65.078 L
291.642 63.927 L
295.532 62.793 L
299.422 61.676 L
303.311 60.577 L
307.201 59.495 L
311.09 58.431 L
314.98 57.385 L
318.87 56.357 L
322.759 55.348 L
326.649 54.357 L
330.538 53.385 L
334.428 52.433 L
338.317 51.5 L
342.207 50.586 L
346.097 49.692 L
349.986 48.819 L
353.876 47.965 L
357.765 47.132 L
361.655 46.319 L
365.544 45.528 L
369.434 44.758 L
373.324 44.009 L
377.213 43.281 L
381.103 42.575 L
384.992 41.891 L
388.882 41.23 L
392.771 40.591 L
396.661 39.974 L
400.551 39.381 L
404.44 38.81 L
408.33 38.263 L
412.219 37.739 L
416.109 37.239 L
419.999 36.764 L
423.888 36.312 L
427.778 35.884 L
431.667 35.482 L
435.557 35.104 L
439.446 34.751 L
443.336 34.423 L
447.226 34.121 L
451.115 33.845 L
455.005 33.595 L
458.894 33.371 L
462.784 33.173 L
466.673 33.002 L
470.563 32.857 L
474.453 32.74 L
478.342 32.65 L
482.232 32.587 L
486.121 32.552 L
S
GR
GS
1 GC
N
499 366 M
499 250.5 L
344.5 250.5 L
344.5 366 L
cp
f
GR
GS
[1 0 0 1 381.5 260.25] CT
/Helvetica 13 F
GS
[1 0 0 1 0 0] CT
0 5 moveto 
1 -1 scale
(Base Run) t 
GR
GR
GS
0 0.447 0.741 RC
1 LJ
0.5 LW
N
348.5 260.25 M
378.5 260.25 L
S
GR
GS
[1 0 0 1 381.5 276.25] CT
/Helvetica 13 F
GS
[1 0 0 1 0 0] CT
0 5 moveto 
1 -1 scale
(I & B Frames) t 
GR
GR
GS
0.851 0.325 0.098 RC
1 LJ
0.5 LW
N
348.5 276.25 M
378.5 276.25 L
S
GR
GS
[1 0 0 1 381.5 292.25] CT
/Helvetica 13 F
GS
[1 0 0 1 0 0] CT
0 5 moveto 
1 -1 scale
(I Frames Only) t 
GR
GR
GS
0.929 0.694 0.125 RC
1 LJ
0.5 LW
N
348.5 292.25 M
378.5 292.25 L
S
GR
GS
[1 0 0 1 381.5 308.25] CT
/Helvetica 13 F
GS
[1 0 0 1 0 0] CT
0 5 moveto 
1 -1 scale
(B Frames Only) t 
GR
GR
GS
0.494 0.184 0.557 RC
1 LJ
0.5 LW
N
348.5 308.25 M
378.5 308.25 L
S
GR
GS
[1 0 0 1 381.5 324.25] CT
/Helvetica 13 F
GS
[1 0 0 1 0 0] CT
0 5 moveto 
1 -1 scale
(Part I & B Frames) t 
GR
GR
GS
0.467 0.675 0.188 RC
[10 6] 0 setdash
2 LJ
0.5 LW
N
348.5 324.25 M
378.5 324.25 L
S
GR
GS
[1 0 0 1 381.5 340.25] CT
/Helvetica 13 F
GS
[1 0 0 1 0 0] CT
0 5 moveto 
1 -1 scale
(Part I Frames Only) t 
GR
GR
GS
0.302 0.745 0.933 RC
[10 6] 0 setdash
2 LJ
0.5 LW
N
348.5 340.25 M
378.5 340.25 L
S
GR
GS
[1 0 0 1 381.5 356.25] CT
/Helvetica 13 F
GS
[1 0 0 1 0 0] CT
0 5 moveto 
1 -1 scale
(Part B Frames Only) t 
GR
GR
GS
0.635 0.078 0.184 RC
[10 6] 0 setdash
2 LJ
0.5 LW
N
348.5 356.25 M
378.5 356.25 L
S
GR
GS
0.149 GC
10.0 ML
0.5 LW
N
344.5 366 M
344.5 250.5 L
499 250.5 L
499 366 L
cp
S
GR
%%Trailer
%%Pages: 1
%%EOF
