%!PS-Adobe-3.0 EPSF-3.0
%%Creator: (MATLAB, The Mathworks, Inc. Version 9.11.0.1837725 \(R2021b\) Update 2. Operating System: Mac OS X)
%%Title: plots/rd/Skater227_1920x1080_30fps.y4m-hevc-VMAF.eps
%%CreationDate: 2022-02-04T14:46:02
%%Pages: (atend)
%%BoundingBox:    34   425   508   826
%%LanguageLevel: 3
%%EndComments
%%BeginProlog
%%BeginResource: procset (Apache XML Graphics Std ProcSet) 1.2 0
%%Version: 1.2 0
%%Copyright: (Copyright 2001-2003,2010 The Apache Software Foundation. License terms: http://www.apache.org/licenses/LICENSE-2.0)
/bd{bind def}bind def
/ld{load def}bd
/GR/grestore ld
/GS/gsave ld
/RM/rmoveto ld
/C/curveto ld
/t/show ld
/L/lineto ld
/ML/setmiterlimit ld
/CT/concat ld
/f/fill ld
/N/newpath ld
/S/stroke ld
/CC/setcmykcolor ld
/A/ashow ld
/cp/closepath ld
/RC/setrgbcolor ld
/LJ/setlinejoin ld
/GC/setgray ld
/LW/setlinewidth ld
/M/moveto ld
/re {4 2 roll M
1 index 0 rlineto
0 exch rlineto
neg 0 rlineto
cp } bd
/_ctm matrix def
/_tm matrix def
/BT { _ctm currentmatrix pop matrix _tm copy pop 0 0 moveto } bd
/ET { _ctm setmatrix } bd
/iTm { _ctm setmatrix _tm concat } bd
/Tm { _tm astore pop iTm 0 0 moveto } bd
/ux 0.0 def
/uy 0.0 def
/F {
  /Tp exch def
  /Tf exch def
  Tf findfont Tp scalefont setfont
  /cf Tf def  /cs Tp def
} bd
/ULS {currentpoint /uy exch def /ux exch def} bd
/ULE {
  /Tcx currentpoint pop def
  gsave
  newpath
  cf findfont cs scalefont dup
  /FontMatrix get 0 get /Ts exch def /FontInfo get dup
  /UnderlinePosition get Ts mul /To exch def
  /UnderlineThickness get Ts mul /Tt exch def
  ux uy To add moveto  Tcx uy To add lineto
  Tt setlinewidth stroke
  grestore
} bd
/OLE {
  /Tcx currentpoint pop def
  gsave
  newpath
  cf findfont cs scalefont dup
  /FontMatrix get 0 get /Ts exch def /FontInfo get dup
  /UnderlinePosition get Ts mul /To exch def
  /UnderlineThickness get Ts mul /Tt exch def
  ux uy To add cs add moveto Tcx uy To add cs add lineto
  Tt setlinewidth stroke
  grestore
} bd
/SOE {
  /Tcx currentpoint pop def
  gsave
  newpath
  cf findfont cs scalefont dup
  /FontMatrix get 0 get /Ts exch def /FontInfo get dup
  /UnderlinePosition get Ts mul /To exch def
  /UnderlineThickness get Ts mul /Tt exch def
  ux uy To add cs 10 mul 26 idiv add moveto Tcx uy To add cs 10 mul 26 idiv add lineto
  Tt setlinewidth stroke
  grestore
} bd
/QT {
/Y22 exch store
/X22 exch store
/Y21 exch store
/X21 exch store
currentpoint
/Y21 load 2 mul add 3 div exch
/X21 load 2 mul add 3 div exch
/X21 load 2 mul /X22 load add 3 div
/Y21 load 2 mul /Y22 load add 3 div
/X22 load /Y22 load curveto
} bd
/SSPD {
dup length /d exch dict def
{
/v exch def
/k exch def
currentpagedevice k known {
/cpdv currentpagedevice k get def
v cpdv ne {
/upd false def
/nullv v type /nulltype eq def
/nullcpdv cpdv type /nulltype eq def
nullv nullcpdv or
{
/upd true def
} {
/sametype v type cpdv type eq def
sametype {
v type /arraytype eq {
/vlen v length def
/cpdvlen cpdv length def
vlen cpdvlen eq {
0 1 vlen 1 sub {
/i exch def
/obj v i get def
/cpdobj cpdv i get def
obj cpdobj ne {
/upd true def
exit
} if
} for
} {
/upd true def
} ifelse
} {
v type /dicttype eq {
v {
/dv exch def
/dk exch def
/cpddv cpdv dk get def
dv cpddv ne {
/upd true def
exit
} if
} forall
} {
/upd true def
} ifelse
} ifelse
} if
} ifelse
upd true eq {
d k v put
} if
} if
} if
} forall
d length 0 gt {
d setpagedevice
} if
} bd
/RE { % /NewFontName [NewEncodingArray] /FontName RE -
  findfont dup length dict begin
  {
    1 index /FID ne
    {def} {pop pop} ifelse
  } forall
  /Encoding exch def
  /FontName 1 index def
  currentdict definefont pop
  end
} bind def
%%EndResource
%%BeginResource: procset (Apache XML Graphics EPS ProcSet) 1.0 0
%%Version: 1.0 0
%%Copyright: (Copyright 2002-2003 The Apache Software Foundation. License terms: http://www.apache.org/licenses/LICENSE-2.0)
/BeginEPSF { %def
/b4_Inc_state save def         % Save state for cleanup
/dict_count countdictstack def % Count objects on dict stack
/op_count count 1 sub def      % Count objects on operand stack
userdict begin                 % Push userdict on dict stack
/showpage { } def              % Redefine showpage, { } = null proc
0 setgray 0 setlinecap         % Prepare graphics state
1 setlinewidth 0 setlinejoin
10 setmiterlimit [ ] 0 setdash newpath
/languagelevel where           % If level not equal to 1 then
{pop languagelevel             % set strokeadjust and
1 ne                           % overprint to their defaults.
{false setstrokeadjust false setoverprint
} if
} if
} bd
/EndEPSF { %def
count op_count sub {pop} repeat            % Clean up stacks
countdictstack dict_count sub {end} repeat
b4_Inc_state restore
} bd
%%EndResource
%FOPBeginFontDict
%%IncludeResource: font Courier-Oblique
%%IncludeResource: font Courier-BoldOblique
%%IncludeResource: font Courier-Bold
%%IncludeResource: font ZapfDingbats
%%IncludeResource: font Symbol
%%IncludeResource: font Helvetica
%%IncludeResource: font Helvetica-Oblique
%%IncludeResource: font Helvetica-Bold
%%IncludeResource: font Helvetica-BoldOblique
%%IncludeResource: font Times-Roman
%%IncludeResource: font Times-Italic
%%IncludeResource: font Times-Bold
%%IncludeResource: font Times-BoldItalic
%%IncludeResource: font Courier
%FOPEndFontDict
%%BeginResource: encoding WinAnsiEncoding
/WinAnsiEncoding [
/.notdef /.notdef /.notdef /.notdef /.notdef
/.notdef /.notdef /.notdef /.notdef /.notdef
/.notdef /.notdef /.notdef /.notdef /.notdef
/.notdef /.notdef /.notdef /.notdef /.notdef
/.notdef /.notdef /.notdef /.notdef /.notdef
/.notdef /.notdef /.notdef /.notdef /.notdef
/.notdef /.notdef /space /exclam /quotedbl
/numbersign /dollar /percent /ampersand /quotesingle
/parenleft /parenright /asterisk /plus /comma
/hyphen /period /slash /zero /one
/two /three /four /five /six
/seven /eight /nine /colon /semicolon
/less /equal /greater /question /at
/A /B /C /D /E
/F /G /H /I /J
/K /L /M /N /O
/P /Q /R /S /T
/U /V /W /X /Y
/Z /bracketleft /backslash /bracketright /asciicircum
/underscore /quoteleft /a /b /c
/d /e /f /g /h
/i /j /k /l /m
/n /o /p /q /r
/s /t /u /v /w
/x /y /z /braceleft /bar
/braceright /asciitilde /bullet /Euro /bullet
/quotesinglbase /florin /quotedblbase /ellipsis /dagger
/daggerdbl /circumflex /perthousand /Scaron /guilsinglleft
/OE /bullet /Zcaron /bullet /bullet
/quoteleft /quoteright /quotedblleft /quotedblright /bullet
/endash /emdash /asciitilde /trademark /scaron
/guilsinglright /oe /bullet /zcaron /Ydieresis
/space /exclamdown /cent /sterling /currency
/yen /brokenbar /section /dieresis /copyright
/ordfeminine /guillemotleft /logicalnot /sfthyphen /registered
/macron /degree /plusminus /twosuperior /threesuperior
/acute /mu /paragraph /middot /cedilla
/onesuperior /ordmasculine /guillemotright /onequarter /onehalf
/threequarters /questiondown /Agrave /Aacute /Acircumflex
/Atilde /Adieresis /Aring /AE /Ccedilla
/Egrave /Eacute /Ecircumflex /Edieresis /Igrave
/Iacute /Icircumflex /Idieresis /Eth /Ntilde
/Ograve /Oacute /Ocircumflex /Otilde /Odieresis
/multiply /Oslash /Ugrave /Uacute /Ucircumflex
/Udieresis /Yacute /Thorn /germandbls /agrave
/aacute /acircumflex /atilde /adieresis /aring
/ae /ccedilla /egrave /eacute /ecircumflex
/edieresis /igrave /iacute /icircumflex /idieresis
/eth /ntilde /ograve /oacute /ocircumflex
/otilde /odieresis /divide /oslash /ugrave
/uacute /ucircumflex /udieresis /yacute /thorn
/ydieresis
] def
%%EndResource
%FOPBeginFontReencode
/Courier-Oblique findfont
dup length dict begin
  {1 index /FID ne {def} {pop pop} ifelse} forall
  /Encoding WinAnsiEncoding def
  currentdict
end
/Courier-Oblique exch definefont pop
/Courier-BoldOblique findfont
dup length dict begin
  {1 index /FID ne {def} {pop pop} ifelse} forall
  /Encoding WinAnsiEncoding def
  currentdict
end
/Courier-BoldOblique exch definefont pop
/Courier-Bold findfont
dup length dict begin
  {1 index /FID ne {def} {pop pop} ifelse} forall
  /Encoding WinAnsiEncoding def
  currentdict
end
/Courier-Bold exch definefont pop
/Helvetica findfont
dup length dict begin
  {1 index /FID ne {def} {pop pop} ifelse} forall
  /Encoding WinAnsiEncoding def
  currentdict
end
/Helvetica exch definefont pop
/Helvetica-Oblique findfont
dup length dict begin
  {1 index /FID ne {def} {pop pop} ifelse} forall
  /Encoding WinAnsiEncoding def
  currentdict
end
/Helvetica-Oblique exch definefont pop
/Helvetica-Bold findfont
dup length dict begin
  {1 index /FID ne {def} {pop pop} ifelse} forall
  /Encoding WinAnsiEncoding def
  currentdict
end
/Helvetica-Bold exch definefont pop
/Helvetica-BoldOblique findfont
dup length dict begin
  {1 index /FID ne {def} {pop pop} ifelse} forall
  /Encoding WinAnsiEncoding def
  currentdict
end
/Helvetica-BoldOblique exch definefont pop
/Times-Roman findfont
dup length dict begin
  {1 index /FID ne {def} {pop pop} ifelse} forall
  /Encoding WinAnsiEncoding def
  currentdict
end
/Times-Roman exch definefont pop
/Times-Italic findfont
dup length dict begin
  {1 index /FID ne {def} {pop pop} ifelse} forall
  /Encoding WinAnsiEncoding def
  currentdict
end
/Times-Italic exch definefont pop
/Times-Bold findfont
dup length dict begin
  {1 index /FID ne {def} {pop pop} ifelse} forall
  /Encoding WinAnsiEncoding def
  currentdict
end
/Times-Bold exch definefont pop
/Times-BoldItalic findfont
dup length dict begin
  {1 index /FID ne {def} {pop pop} ifelse} forall
  /Encoding WinAnsiEncoding def
  currentdict
end
/Times-BoldItalic exch definefont pop
/Courier findfont
dup length dict begin
  {1 index /FID ne {def} {pop pop} ifelse} forall
  /Encoding WinAnsiEncoding def
  currentdict
end
/Courier exch definefont pop
%FOPEndFontReencode
%%EndProlog
%%Page: 1 1
%%PageBoundingBox: 0 0 1120 840
%%BeginPageSetup
[1 0 0 -1 0 840] CT
%%EndPageSetup
GS
1 GC
N
0 0 1120 840 re
f
GR
GS
1 GC
N
73 374 M
507 374 L
507 31.5 L
73 31.5 L
cp
f
GR
GS
0.149 GC
2 setlinecap
1 LJ
0.5 LW
N
73 374 M
507 374 L
S
GR
GS
0.149 GC
2 setlinecap
1 LJ
0.5 LW
N
73 31.5 M
507 31.5 L
S
GR
GS
0.149 GC
2 setlinecap
1 LJ
0.5 LW
N
142.071 374 M
142.071 369.66 L
S
GR
GS
0.149 GC
2 setlinecap
1 LJ
0.5 LW
N
239.178 374 M
239.178 369.66 L
S
GR
GS
0.149 GC
2 setlinecap
1 LJ
0.5 LW
N
336.286 374 M
336.286 369.66 L
S
GR
GS
0.149 GC
2 setlinecap
1 LJ
0.5 LW
N
433.393 374 M
433.393 369.66 L
S
GR
GS
0.149 GC
2 setlinecap
1 LJ
0.5 LW
N
142.071 31.5 M
142.071 35.84 L
S
GR
GS
0.149 GC
2 setlinecap
1 LJ
0.5 LW
N
239.178 31.5 M
239.178 35.84 L
S
GR
GS
0.149 GC
2 setlinecap
1 LJ
0.5 LW
N
336.286 31.5 M
336.286 35.84 L
S
GR
GS
0.149 GC
2 setlinecap
1 LJ
0.5 LW
N
433.393 31.5 M
433.393 35.84 L
S
GR
GS
0.149 GC
2 setlinecap
1 LJ
0.5 LW
N
83.806 374 M
83.806 371.83 L
S
GR
GS
0.149 GC
2 setlinecap
1 LJ
0.5 LW
N
103.228 374 M
103.228 371.83 L
S
GR
GS
0.149 GC
2 setlinecap
1 LJ
0.5 LW
N
122.649 374 M
122.649 371.83 L
S
GR
GS
0.149 GC
2 setlinecap
1 LJ
0.5 LW
N
161.492 374 M
161.492 371.83 L
S
GR
GS
0.149 GC
2 setlinecap
1 LJ
0.5 LW
N
180.914 374 M
180.914 371.83 L
S
GR
GS
0.149 GC
2 setlinecap
1 LJ
0.5 LW
N
200.335 374 M
200.335 371.83 L
S
GR
GS
0.149 GC
2 setlinecap
1 LJ
0.5 LW
N
219.757 374 M
219.757 371.83 L
S
GR
GS
0.149 GC
2 setlinecap
1 LJ
0.5 LW
N
258.6 374 M
258.6 371.83 L
S
GR
GS
0.149 GC
2 setlinecap
1 LJ
0.5 LW
N
278.021 374 M
278.021 371.83 L
S
GR
GS
0.149 GC
2 setlinecap
1 LJ
0.5 LW
N
297.443 374 M
297.443 371.83 L
S
GR
GS
0.149 GC
2 setlinecap
1 LJ
0.5 LW
N
316.864 374 M
316.864 371.83 L
S
GR
GS
0.149 GC
2 setlinecap
1 LJ
0.5 LW
N
355.707 374 M
355.707 371.83 L
S
GR
GS
0.149 GC
2 setlinecap
1 LJ
0.5 LW
N
375.129 374 M
375.129 371.83 L
S
GR
GS
0.149 GC
2 setlinecap
1 LJ
0.5 LW
N
394.55 374 M
394.55 371.83 L
S
GR
GS
0.149 GC
2 setlinecap
1 LJ
0.5 LW
N
413.971 374 M
413.971 371.83 L
S
GR
GS
0.149 GC
2 setlinecap
1 LJ
0.5 LW
N
452.814 374 M
452.814 371.83 L
S
GR
GS
0.149 GC
2 setlinecap
1 LJ
0.5 LW
N
472.236 374 M
472.236 371.83 L
S
GR
GS
0.149 GC
2 setlinecap
1 LJ
0.5 LW
N
491.657 374 M
491.657 371.83 L
S
GR
GS
0.149 GC
2 setlinecap
1 LJ
0.5 LW
N
83.806 31.5 M
83.806 33.67 L
S
GR
GS
0.149 GC
2 setlinecap
1 LJ
0.5 LW
N
103.228 31.5 M
103.228 33.67 L
S
GR
GS
0.149 GC
2 setlinecap
1 LJ
0.5 LW
N
122.649 31.5 M
122.649 33.67 L
S
GR
GS
0.149 GC
2 setlinecap
1 LJ
0.5 LW
N
161.492 31.5 M
161.492 33.67 L
S
GR
GS
0.149 GC
2 setlinecap
1 LJ
0.5 LW
N
180.914 31.5 M
180.914 33.67 L
S
GR
GS
0.149 GC
2 setlinecap
1 LJ
0.5 LW
N
200.335 31.5 M
200.335 33.67 L
S
GR
GS
0.149 GC
2 setlinecap
1 LJ
0.5 LW
N
219.757 31.5 M
219.757 33.67 L
S
GR
GS
0.149 GC
2 setlinecap
1 LJ
0.5 LW
N
258.6 31.5 M
258.6 33.67 L
S
GR
GS
0.149 GC
2 setlinecap
1 LJ
0.5 LW
N
278.021 31.5 M
278.021 33.67 L
S
GR
GS
0.149 GC
2 setlinecap
1 LJ
0.5 LW
N
297.443 31.5 M
297.443 33.67 L
S
GR
GS
0.149 GC
2 setlinecap
1 LJ
0.5 LW
N
316.864 31.5 M
316.864 33.67 L
S
GR
GS
0.149 GC
2 setlinecap
1 LJ
0.5 LW
N
355.707 31.5 M
355.707 33.67 L
S
GR
GS
0.149 GC
2 setlinecap
1 LJ
0.5 LW
N
375.129 31.5 M
375.129 33.67 L
S
GR
GS
0.149 GC
2 setlinecap
1 LJ
0.5 LW
N
394.55 31.5 M
394.55 33.67 L
S
GR
GS
0.149 GC
2 setlinecap
1 LJ
0.5 LW
N
413.971 31.5 M
413.971 33.67 L
S
GR
GS
0.149 GC
2 setlinecap
1 LJ
0.5 LW
N
452.814 31.5 M
452.814 33.67 L
S
GR
GS
0.149 GC
2 setlinecap
1 LJ
0.5 LW
N
472.236 31.5 M
472.236 33.67 L
S
GR
GS
0.149 GC
2 setlinecap
1 LJ
0.5 LW
N
491.657 31.5 M
491.657 33.67 L
S
GR
GS
[1 0 0 1 142.07088 378.7999] CT
0.149 GC
/Helvetica 14 F
GS
[1 0 0 1 0 0] CT
-12 14 moveto 
1 -1 scale
(500) t 
GR
GR
GS
[1 0 0 1 239.17825 378.7999] CT
0.149 GC
/Helvetica 14 F
GS
[1 0 0 1 0 0] CT
-16 14 moveto 
1 -1 scale
(1000) t 
GR
GR
GS
[1 0 0 1 336.28561 378.7999] CT
0.149 GC
/Helvetica 14 F
GS
[1 0 0 1 0 0] CT
-16 14 moveto 
1 -1 scale
(1500) t 
GR
GR
GS
[1 0 0 1 433.39297 378.7999] CT
0.149 GC
/Helvetica 14 F
GS
[1 0 0 1 0 0] CT
-16 14 moveto 
1 -1 scale
(2000) t 
GR
GR
GS
[1 0 0 1 290.00021 396.30002] CT
0.149 GC
/Helvetica 15.4 F
GS
[1 0 0 1 0 0] CT
-42 15 moveto 
1 -1 scale
(Bitrate\(kb/s\)) t 
GR
GR
GS
0.149 GC
2 setlinecap
1 LJ
0.5 LW
N
73 374 M
73 31.5 L
S
GR
GS
0.149 GC
2 setlinecap
1 LJ
0.5 LW
N
507 374 M
507 31.5 L
S
GR
GS
0.149 GC
2 setlinecap
1 LJ
0.5 LW
N
73 347.052 M
77.34 347.052 L
S
GR
GS
0.149 GC
2 setlinecap
1 LJ
0.5 LW
N
73 314.473 M
77.34 314.473 L
S
GR
GS
0.149 GC
2 setlinecap
1 LJ
0.5 LW
N
73 281.894 M
77.34 281.894 L
S
GR
GS
0.149 GC
2 setlinecap
1 LJ
0.5 LW
N
73 249.314 M
77.34 249.314 L
S
GR
GS
0.149 GC
2 setlinecap
1 LJ
0.5 LW
N
73 216.735 M
77.34 216.735 L
S
GR
GS
0.149 GC
2 setlinecap
1 LJ
0.5 LW
N
73 184.156 M
77.34 184.156 L
S
GR
GS
0.149 GC
2 setlinecap
1 LJ
0.5 LW
N
73 151.577 M
77.34 151.577 L
S
GR
GS
0.149 GC
2 setlinecap
1 LJ
0.5 LW
N
73 118.997 M
77.34 118.997 L
S
GR
GS
0.149 GC
2 setlinecap
1 LJ
0.5 LW
N
73 86.418 M
77.34 86.418 L
S
GR
GS
0.149 GC
2 setlinecap
1 LJ
0.5 LW
N
73 53.839 M
77.34 53.839 L
S
GR
GS
0.149 GC
2 setlinecap
1 LJ
0.5 LW
N
507 347.052 M
502.66 347.052 L
S
GR
GS
0.149 GC
2 setlinecap
1 LJ
0.5 LW
N
507 314.473 M
502.66 314.473 L
S
GR
GS
0.149 GC
2 setlinecap
1 LJ
0.5 LW
N
507 281.894 M
502.66 281.894 L
S
GR
GS
0.149 GC
2 setlinecap
1 LJ
0.5 LW
N
507 249.314 M
502.66 249.314 L
S
GR
GS
0.149 GC
2 setlinecap
1 LJ
0.5 LW
N
507 216.735 M
502.66 216.735 L
S
GR
GS
0.149 GC
2 setlinecap
1 LJ
0.5 LW
N
507 184.156 M
502.66 184.156 L
S
GR
GS
0.149 GC
2 setlinecap
1 LJ
0.5 LW
N
507 151.577 M
502.66 151.577 L
S
GR
GS
0.149 GC
2 setlinecap
1 LJ
0.5 LW
N
507 118.997 M
502.66 118.997 L
S
GR
GS
0.149 GC
2 setlinecap
1 LJ
0.5 LW
N
507 86.418 M
502.66 86.418 L
S
GR
GS
0.149 GC
2 setlinecap
1 LJ
0.5 LW
N
507 53.839 M
502.66 53.839 L
S
GR
GS
0.149 GC
2 setlinecap
1 LJ
0.5 LW
N
73 373.116 M
75.17 373.116 L
S
GR
GS
0.149 GC
2 setlinecap
1 LJ
0.5 LW
N
73 366.6 M
75.17 366.6 L
S
GR
GS
0.149 GC
2 setlinecap
1 LJ
0.5 LW
N
73 360.084 M
75.17 360.084 L
S
GR
GS
0.149 GC
2 setlinecap
1 LJ
0.5 LW
N
73 353.568 M
75.17 353.568 L
S
GR
GS
0.149 GC
2 setlinecap
1 LJ
0.5 LW
N
73 340.536 M
75.17 340.536 L
S
GR
GS
0.149 GC
2 setlinecap
1 LJ
0.5 LW
N
73 334.02 M
75.17 334.02 L
S
GR
GS
0.149 GC
2 setlinecap
1 LJ
0.5 LW
N
73 327.505 M
75.17 327.505 L
S
GR
GS
0.149 GC
2 setlinecap
1 LJ
0.5 LW
N
73 320.989 M
75.17 320.989 L
S
GR
GS
0.149 GC
2 setlinecap
1 LJ
0.5 LW
N
73 307.957 M
75.17 307.957 L
S
GR
GS
0.149 GC
2 setlinecap
1 LJ
0.5 LW
N
73 301.441 M
75.17 301.441 L
S
GR
GS
0.149 GC
2 setlinecap
1 LJ
0.5 LW
N
73 294.925 M
75.17 294.925 L
S
GR
GS
0.149 GC
2 setlinecap
1 LJ
0.5 LW
N
73 288.41 M
75.17 288.41 L
S
GR
GS
0.149 GC
2 setlinecap
1 LJ
0.5 LW
N
73 275.378 M
75.17 275.378 L
S
GR
GS
0.149 GC
2 setlinecap
1 LJ
0.5 LW
N
73 268.862 M
75.17 268.862 L
S
GR
GS
0.149 GC
2 setlinecap
1 LJ
0.5 LW
N
73 262.346 M
75.17 262.346 L
S
GR
GS
0.149 GC
2 setlinecap
1 LJ
0.5 LW
N
73 255.83 M
75.17 255.83 L
S
GR
GS
0.149 GC
2 setlinecap
1 LJ
0.5 LW
N
73 242.799 M
75.17 242.799 L
S
GR
GS
0.149 GC
2 setlinecap
1 LJ
0.5 LW
N
73 236.283 M
75.17 236.283 L
S
GR
GS
0.149 GC
2 setlinecap
1 LJ
0.5 LW
N
73 229.767 M
75.17 229.767 L
S
GR
GS
0.149 GC
2 setlinecap
1 LJ
0.5 LW
N
73 223.251 M
75.17 223.251 L
S
GR
GS
0.149 GC
2 setlinecap
1 LJ
0.5 LW
N
73 210.219 M
75.17 210.219 L
S
GR
GS
0.149 GC
2 setlinecap
1 LJ
0.5 LW
N
73 203.703 M
75.17 203.703 L
S
GR
GS
0.149 GC
2 setlinecap
1 LJ
0.5 LW
N
73 197.188 M
75.17 197.188 L
S
GR
GS
0.149 GC
2 setlinecap
1 LJ
0.5 LW
N
73 190.672 M
75.17 190.672 L
S
GR
GS
0.149 GC
2 setlinecap
1 LJ
0.5 LW
N
73 177.64 M
75.17 177.64 L
S
GR
GS
0.149 GC
2 setlinecap
1 LJ
0.5 LW
N
73 171.124 M
75.17 171.124 L
S
GR
GS
0.149 GC
2 setlinecap
1 LJ
0.5 LW
N
73 164.608 M
75.17 164.608 L
S
GR
GS
0.149 GC
2 setlinecap
1 LJ
0.5 LW
N
73 158.093 M
75.17 158.093 L
S
GR
GS
0.149 GC
2 setlinecap
1 LJ
0.5 LW
N
73 145.061 M
75.17 145.061 L
S
GR
GS
0.149 GC
2 setlinecap
1 LJ
0.5 LW
N
73 138.545 M
75.17 138.545 L
S
GR
GS
0.149 GC
2 setlinecap
1 LJ
0.5 LW
N
73 132.029 M
75.17 132.029 L
S
GR
GS
0.149 GC
2 setlinecap
1 LJ
0.5 LW
N
73 125.513 M
75.17 125.513 L
S
GR
GS
0.149 GC
2 setlinecap
1 LJ
0.5 LW
N
73 112.482 M
75.17 112.482 L
S
GR
GS
0.149 GC
2 setlinecap
1 LJ
0.5 LW
N
73 105.966 M
75.17 105.966 L
S
GR
GS
0.149 GC
2 setlinecap
1 LJ
0.5 LW
N
73 99.45 M
75.17 99.45 L
S
GR
GS
0.149 GC
2 setlinecap
1 LJ
0.5 LW
N
73 92.934 M
75.17 92.934 L
S
GR
GS
0.149 GC
2 setlinecap
1 LJ
0.5 LW
N
73 79.902 M
75.17 79.902 L
S
GR
GS
0.149 GC
2 setlinecap
1 LJ
0.5 LW
N
73 73.386 M
75.17 73.386 L
S
GR
GS
0.149 GC
2 setlinecap
1 LJ
0.5 LW
N
73 66.871 M
75.17 66.871 L
S
GR
GS
0.149 GC
2 setlinecap
1 LJ
0.5 LW
N
73 60.355 M
75.17 60.355 L
S
GR
GS
0.149 GC
2 setlinecap
1 LJ
0.5 LW
N
73 47.323 M
75.17 47.323 L
S
GR
GS
0.149 GC
2 setlinecap
1 LJ
0.5 LW
N
73 40.807 M
75.17 40.807 L
S
GR
GS
0.149 GC
2 setlinecap
1 LJ
0.5 LW
N
73 34.291 M
75.17 34.291 L
S
GR
GS
0.149 GC
2 setlinecap
1 LJ
0.5 LW
N
507 373.116 M
504.83 373.116 L
S
GR
GS
0.149 GC
2 setlinecap
1 LJ
0.5 LW
N
507 366.6 M
504.83 366.6 L
S
GR
GS
0.149 GC
2 setlinecap
1 LJ
0.5 LW
N
507 360.084 M
504.83 360.084 L
S
GR
GS
0.149 GC
2 setlinecap
1 LJ
0.5 LW
N
507 353.568 M
504.83 353.568 L
S
GR
GS
0.149 GC
2 setlinecap
1 LJ
0.5 LW
N
507 340.536 M
504.83 340.536 L
S
GR
GS
0.149 GC
2 setlinecap
1 LJ
0.5 LW
N
507 334.02 M
504.83 334.02 L
S
GR
GS
0.149 GC
2 setlinecap
1 LJ
0.5 LW
N
507 327.505 M
504.83 327.505 L
S
GR
GS
0.149 GC
2 setlinecap
1 LJ
0.5 LW
N
507 320.989 M
504.83 320.989 L
S
GR
GS
0.149 GC
2 setlinecap
1 LJ
0.5 LW
N
507 307.957 M
504.83 307.957 L
S
GR
GS
0.149 GC
2 setlinecap
1 LJ
0.5 LW
N
507 301.441 M
504.83 301.441 L
S
GR
GS
0.149 GC
2 setlinecap
1 LJ
0.5 LW
N
507 294.925 M
504.83 294.925 L
S
GR
GS
0.149 GC
2 setlinecap
1 LJ
0.5 LW
N
507 288.41 M
504.83 288.41 L
S
GR
GS
0.149 GC
2 setlinecap
1 LJ
0.5 LW
N
507 275.378 M
504.83 275.378 L
S
GR
GS
0.149 GC
2 setlinecap
1 LJ
0.5 LW
N
507 268.862 M
504.83 268.862 L
S
GR
GS
0.149 GC
2 setlinecap
1 LJ
0.5 LW
N
507 262.346 M
504.83 262.346 L
S
GR
GS
0.149 GC
2 setlinecap
1 LJ
0.5 LW
N
507 255.83 M
504.83 255.83 L
S
GR
GS
0.149 GC
2 setlinecap
1 LJ
0.5 LW
N
507 242.799 M
504.83 242.799 L
S
GR
GS
0.149 GC
2 setlinecap
1 LJ
0.5 LW
N
507 236.283 M
504.83 236.283 L
S
GR
GS
0.149 GC
2 setlinecap
1 LJ
0.5 LW
N
507 229.767 M
504.83 229.767 L
S
GR
GS
0.149 GC
2 setlinecap
1 LJ
0.5 LW
N
507 223.251 M
504.83 223.251 L
S
GR
GS
0.149 GC
2 setlinecap
1 LJ
0.5 LW
N
507 210.219 M
504.83 210.219 L
S
GR
GS
0.149 GC
2 setlinecap
1 LJ
0.5 LW
N
507 203.703 M
504.83 203.703 L
S
GR
GS
0.149 GC
2 setlinecap
1 LJ
0.5 LW
N
507 197.188 M
504.83 197.188 L
S
GR
GS
0.149 GC
2 setlinecap
1 LJ
0.5 LW
N
507 190.672 M
504.83 190.672 L
S
GR
GS
0.149 GC
2 setlinecap
1 LJ
0.5 LW
N
507 177.64 M
504.83 177.64 L
S
GR
GS
0.149 GC
2 setlinecap
1 LJ
0.5 LW
N
507 171.124 M
504.83 171.124 L
S
GR
GS
0.149 GC
2 setlinecap
1 LJ
0.5 LW
N
507 164.608 M
504.83 164.608 L
S
GR
GS
0.149 GC
2 setlinecap
1 LJ
0.5 LW
N
507 158.093 M
504.83 158.093 L
S
GR
GS
0.149 GC
2 setlinecap
1 LJ
0.5 LW
N
507 145.061 M
504.83 145.061 L
S
GR
GS
0.149 GC
2 setlinecap
1 LJ
0.5 LW
N
507 138.545 M
504.83 138.545 L
S
GR
GS
0.149 GC
2 setlinecap
1 LJ
0.5 LW
N
507 132.029 M
504.83 132.029 L
S
GR
GS
0.149 GC
2 setlinecap
1 LJ
0.5 LW
N
507 125.513 M
504.83 125.513 L
S
GR
GS
0.149 GC
2 setlinecap
1 LJ
0.5 LW
N
507 112.482 M
504.83 112.482 L
S
GR
GS
0.149 GC
2 setlinecap
1 LJ
0.5 LW
N
507 105.966 M
504.83 105.966 L
S
GR
GS
0.149 GC
2 setlinecap
1 LJ
0.5 LW
N
507 99.45 M
504.83 99.45 L
S
GR
GS
0.149 GC
2 setlinecap
1 LJ
0.5 LW
N
507 92.934 M
504.83 92.934 L
S
GR
GS
0.149 GC
2 setlinecap
1 LJ
0.5 LW
N
507 79.902 M
504.83 79.902 L
S
GR
GS
0.149 GC
2 setlinecap
1 LJ
0.5 LW
N
507 73.386 M
504.83 73.386 L
S
GR
GS
0.149 GC
2 setlinecap
1 LJ
0.5 LW
N
507 66.871 M
504.83 66.871 L
S
GR
GS
0.149 GC
2 setlinecap
1 LJ
0.5 LW
N
507 60.355 M
504.83 60.355 L
S
GR
GS
0.149 GC
2 setlinecap
1 LJ
0.5 LW
N
507 47.323 M
504.83 47.323 L
S
GR
GS
0.149 GC
2 setlinecap
1 LJ
0.5 LW
N
507 40.807 M
504.83 40.807 L
S
GR
GS
0.149 GC
2 setlinecap
1 LJ
0.5 LW
N
507 34.291 M
504.83 34.291 L
S
GR
GS
[1 0 0 1 68.2 347.05222] CT
0.149 GC
/Helvetica 14 F
GS
[1 0 0 1 0 0] CT
-16 5.5 moveto 
1 -1 scale
(38) t 
GR
GR
GS
[1 0 0 1 68.2 314.47296] CT
0.149 GC
/Helvetica 14 F
GS
[1 0 0 1 0 0] CT
-16 5.5 moveto 
1 -1 scale
(39) t 
GR
GR
GS
[1 0 0 1 68.2 281.89371] CT
0.149 GC
/Helvetica 14 F
GS
[1 0 0 1 0 0] CT
-16 5.5 moveto 
1 -1 scale
(40) t 
GR
GR
GS
[1 0 0 1 68.2 249.31445] CT
0.149 GC
/Helvetica 14 F
GS
[1 0 0 1 0 0] CT
-16 5.5 moveto 
1 -1 scale
(41) t 
GR
GR
GS
[1 0 0 1 68.2 216.7352] CT
0.149 GC
/Helvetica 14 F
GS
[1 0 0 1 0 0] CT
-16 5.5 moveto 
1 -1 scale
(42) t 
GR
GR
GS
[1 0 0 1 68.2 184.15594] CT
0.149 GC
/Helvetica 14 F
GS
[1 0 0 1 0 0] CT
-16 5.5 moveto 
1 -1 scale
(43) t 
GR
GR
GS
[1 0 0 1 68.2 151.57669] CT
0.149 GC
/Helvetica 14 F
GS
[1 0 0 1 0 0] CT
-16 5.5 moveto 
1 -1 scale
(44) t 
GR
GR
GS
[1 0 0 1 68.2 118.99744] CT
0.149 GC
/Helvetica 14 F
GS
[1 0 0 1 0 0] CT
-16 5.5 moveto 
1 -1 scale
(45) t 
GR
GR
GS
[1 0 0 1 68.2 86.41819] CT
0.149 GC
/Helvetica 14 F
GS
[1 0 0 1 0 0] CT
-16 5.5 moveto 
1 -1 scale
(46) t 
GR
GR
GS
[1 0 0 1 68.2 53.83894] CT
0.149 GC
/Helvetica 14 F
GS
[1 0 0 1 0 0] CT
-16 5.5 moveto 
1 -1 scale
(47) t 
GR
GR
GS
[0 -1 1 0 49.2 202.74985] CT
0.149 GC
/Helvetica 15.4 F
GS
[1 0 0 1 0 0] CT
-21 -4 moveto 
1 -1 scale
(VMAF) t 
GR
GR
GS
[1 0 0 1 290.00027 29.57501] CT
/Helvetica-Bold 15.4 F
GS
[1 0 0 1 0 0] CT
-141 -4 moveto 
1 -1 scale
(Skater227_1920x1080_30fps.y4m-hevc) t 
GR
GR
GS
0 0.447 0.741 RC
[1 3] 0 setdash
2 LJ
0.5 LW
N
481.054 37.174 M
230.258 125.433 L
137.701 206.062 L
94.811 289.078 L
73.65 372.813 L
S
GR
GS
0.851 0.325 0.098 RC
1 LJ
0.5 LW
N
498.217 33.605 M
237.215 121.361 L
141.238 200.634 L
96.72 283.331 L
74.734 365.748 L
S
GR
GS
0.929 0.694 0.125 RC
1 LJ
0.5 LW
N
476.186 37.604 M
226.883 126.327 L
136.579 206.71 L
93.532 290.585 L
73 374 L
S
GR
GS
0.494 0.184 0.557 RC
1 LJ
0.5 LW
N
507 31.5 M
240.962 118.968 L
143.154 198.043 L
97.768 280.559 L
75.254 362.054 L
S
GR
GS
0.467 0.675 0.188 RC
[10 6] 0 setdash
2 LJ
0.5 LW
N
474.049 38.664 M
227.457 126.922 L
136.287 206.879 L
94.393 289.855 L
73.381 373.585 L
S
GR
GS
0.302 0.745 0.933 RC
[10 6] 0 setdash
2 LJ
0.5 LW
N
477.508 37.551 M
228.158 126.192 L
137.08 206.357 L
94.085 289.88 L
73.176 373.189 L
S
GR
GS
0.635 0.078 0.184 RC
[10 6] 0 setdash
2 LJ
0.5 LW
N
488.473 35.484 M
232.617 124.111 L
138.706 204.403 L
95.208 287.818 L
73.825 371.68 L
S
GR
GS
1 GC
N
499 366 M
499 250.5 L
344.5 250.5 L
344.5 366 L
cp
f
GR
GS
[1 0 0 1 381.5 260.25] CT
/Helvetica 13 F
GS
[1 0 0 1 0 0] CT
0 5 moveto 
1 -1 scale
(Base Run) t 
GR
GR
GS
0 0.447 0.741 RC
[1 3] 0 setdash
2 LJ
0.5 LW
N
348.5 260.25 M
378.5 260.25 L
S
GR
GS
[1 0 0 1 381.5 276.25] CT
/Helvetica 13 F
GS
[1 0 0 1 0 0] CT
0 5 moveto 
1 -1 scale
(I & B Frames) t 
GR
GR
GS
0.851 0.325 0.098 RC
1 LJ
0.5 LW
N
348.5 276.25 M
378.5 276.25 L
S
GR
GS
[1 0 0 1 381.5 292.25] CT
/Helvetica 13 F
GS
[1 0 0 1 0 0] CT
0 5 moveto 
1 -1 scale
(I Frames Only) t 
GR
GR
GS
0.929 0.694 0.125 RC
1 LJ
0.5 LW
N
348.5 292.25 M
378.5 292.25 L
S
GR
GS
[1 0 0 1 381.5 308.25] CT
/Helvetica 13 F
GS
[1 0 0 1 0 0] CT
0 5 moveto 
1 -1 scale
(B Frames Only) t 
GR
GR
GS
0.494 0.184 0.557 RC
1 LJ
0.5 LW
N
348.5 308.25 M
378.5 308.25 L
S
GR
GS
[1 0 0 1 381.5 324.25] CT
/Helvetica 13 F
GS
[1 0 0 1 0 0] CT
0 5 moveto 
1 -1 scale
(Part I & B Frames) t 
GR
GR
GS
0.467 0.675 0.188 RC
[10 6] 0 setdash
2 LJ
0.5 LW
N
348.5 324.25 M
378.5 324.25 L
S
GR
GS
[1 0 0 1 381.5 340.25] CT
/Helvetica 13 F
GS
[1 0 0 1 0 0] CT
0 5 moveto 
1 -1 scale
(Part I Frames Only) t 
GR
GR
GS
0.302 0.745 0.933 RC
[10 6] 0 setdash
2 LJ
0.5 LW
N
348.5 340.25 M
378.5 340.25 L
S
GR
GS
[1 0 0 1 381.5 356.25] CT
/Helvetica 13 F
GS
[1 0 0 1 0 0] CT
0 5 moveto 
1 -1 scale
(Part B Frames Only) t 
GR
GR
GS
0.635 0.078 0.184 RC
[10 6] 0 setdash
2 LJ
0.5 LW
N
348.5 356.25 M
378.5 356.25 L
S
GR
GS
0.149 GC
10.0 ML
0.5 LW
N
344.5 366 M
344.5 250.5 L
499 250.5 L
499 366 L
cp
S
GR
%%Trailer
%%Pages: 1
%%EOF
