%!PS-Adobe-3.0 EPSF-3.0
%%Creator: (MATLAB, The Mathworks, Inc. Version 9.11.0.1837725 \(R2021b\) Update 2. Operating System: Mac OS X)
%%Title: plots/rd/Riverbed_1920x1080p25.y4m-av1-APSNRY.eps
%%CreationDate: 2022-02-04T14:44:53
%%Pages: (atend)
%%BoundingBox:    33   425   508   826
%%LanguageLevel: 3
%%EndComments
%%BeginProlog
%%BeginResource: procset (Apache XML Graphics Std ProcSet) 1.2 0
%%Version: 1.2 0
%%Copyright: (Copyright 2001-2003,2010 The Apache Software Foundation. License terms: http://www.apache.org/licenses/LICENSE-2.0)
/bd{bind def}bind def
/ld{load def}bd
/GR/grestore ld
/GS/gsave ld
/RM/rmoveto ld
/C/curveto ld
/t/show ld
/L/lineto ld
/ML/setmiterlimit ld
/CT/concat ld
/f/fill ld
/N/newpath ld
/S/stroke ld
/CC/setcmykcolor ld
/A/ashow ld
/cp/closepath ld
/RC/setrgbcolor ld
/LJ/setlinejoin ld
/GC/setgray ld
/LW/setlinewidth ld
/M/moveto ld
/re {4 2 roll M
1 index 0 rlineto
0 exch rlineto
neg 0 rlineto
cp } bd
/_ctm matrix def
/_tm matrix def
/BT { _ctm currentmatrix pop matrix _tm copy pop 0 0 moveto } bd
/ET { _ctm setmatrix } bd
/iTm { _ctm setmatrix _tm concat } bd
/Tm { _tm astore pop iTm 0 0 moveto } bd
/ux 0.0 def
/uy 0.0 def
/F {
  /Tp exch def
  /Tf exch def
  Tf findfont Tp scalefont setfont
  /cf Tf def  /cs Tp def
} bd
/ULS {currentpoint /uy exch def /ux exch def} bd
/ULE {
  /Tcx currentpoint pop def
  gsave
  newpath
  cf findfont cs scalefont dup
  /FontMatrix get 0 get /Ts exch def /FontInfo get dup
  /UnderlinePosition get Ts mul /To exch def
  /UnderlineThickness get Ts mul /Tt exch def
  ux uy To add moveto  Tcx uy To add lineto
  Tt setlinewidth stroke
  grestore
} bd
/OLE {
  /Tcx currentpoint pop def
  gsave
  newpath
  cf findfont cs scalefont dup
  /FontMatrix get 0 get /Ts exch def /FontInfo get dup
  /UnderlinePosition get Ts mul /To exch def
  /UnderlineThickness get Ts mul /Tt exch def
  ux uy To add cs add moveto Tcx uy To add cs add lineto
  Tt setlinewidth stroke
  grestore
} bd
/SOE {
  /Tcx currentpoint pop def
  gsave
  newpath
  cf findfont cs scalefont dup
  /FontMatrix get 0 get /Ts exch def /FontInfo get dup
  /UnderlinePosition get Ts mul /To exch def
  /UnderlineThickness get Ts mul /Tt exch def
  ux uy To add cs 10 mul 26 idiv add moveto Tcx uy To add cs 10 mul 26 idiv add lineto
  Tt setlinewidth stroke
  grestore
} bd
/QT {
/Y22 exch store
/X22 exch store
/Y21 exch store
/X21 exch store
currentpoint
/Y21 load 2 mul add 3 div exch
/X21 load 2 mul add 3 div exch
/X21 load 2 mul /X22 load add 3 div
/Y21 load 2 mul /Y22 load add 3 div
/X22 load /Y22 load curveto
} bd
/SSPD {
dup length /d exch dict def
{
/v exch def
/k exch def
currentpagedevice k known {
/cpdv currentpagedevice k get def
v cpdv ne {
/upd false def
/nullv v type /nulltype eq def
/nullcpdv cpdv type /nulltype eq def
nullv nullcpdv or
{
/upd true def
} {
/sametype v type cpdv type eq def
sametype {
v type /arraytype eq {
/vlen v length def
/cpdvlen cpdv length def
vlen cpdvlen eq {
0 1 vlen 1 sub {
/i exch def
/obj v i get def
/cpdobj cpdv i get def
obj cpdobj ne {
/upd true def
exit
} if
} for
} {
/upd true def
} ifelse
} {
v type /dicttype eq {
v {
/dv exch def
/dk exch def
/cpddv cpdv dk get def
dv cpddv ne {
/upd true def
exit
} if
} forall
} {
/upd true def
} ifelse
} ifelse
} if
} ifelse
upd true eq {
d k v put
} if
} if
} if
} forall
d length 0 gt {
d setpagedevice
} if
} bd
/RE { % /NewFontName [NewEncodingArray] /FontName RE -
  findfont dup length dict begin
  {
    1 index /FID ne
    {def} {pop pop} ifelse
  } forall
  /Encoding exch def
  /FontName 1 index def
  currentdict definefont pop
  end
} bind def
%%EndResource
%%BeginResource: procset (Apache XML Graphics EPS ProcSet) 1.0 0
%%Version: 1.0 0
%%Copyright: (Copyright 2002-2003 The Apache Software Foundation. License terms: http://www.apache.org/licenses/LICENSE-2.0)
/BeginEPSF { %def
/b4_Inc_state save def         % Save state for cleanup
/dict_count countdictstack def % Count objects on dict stack
/op_count count 1 sub def      % Count objects on operand stack
userdict begin                 % Push userdict on dict stack
/showpage { } def              % Redefine showpage, { } = null proc
0 setgray 0 setlinecap         % Prepare graphics state
1 setlinewidth 0 setlinejoin
10 setmiterlimit [ ] 0 setdash newpath
/languagelevel where           % If level not equal to 1 then
{pop languagelevel             % set strokeadjust and
1 ne                           % overprint to their defaults.
{false setstrokeadjust false setoverprint
} if
} if
} bd
/EndEPSF { %def
count op_count sub {pop} repeat            % Clean up stacks
countdictstack dict_count sub {end} repeat
b4_Inc_state restore
} bd
%%EndResource
%FOPBeginFontDict
%%IncludeResource: font Courier-Oblique
%%IncludeResource: font Courier-BoldOblique
%%IncludeResource: font Courier-Bold
%%IncludeResource: font ZapfDingbats
%%IncludeResource: font Symbol
%%IncludeResource: font Helvetica
%%IncludeResource: font Helvetica-Oblique
%%IncludeResource: font Helvetica-Bold
%%IncludeResource: font Helvetica-BoldOblique
%%IncludeResource: font Times-Roman
%%IncludeResource: font Times-Italic
%%IncludeResource: font Times-Bold
%%IncludeResource: font Times-BoldItalic
%%IncludeResource: font Courier
%FOPEndFontDict
%%BeginResource: encoding WinAnsiEncoding
/WinAnsiEncoding [
/.notdef /.notdef /.notdef /.notdef /.notdef
/.notdef /.notdef /.notdef /.notdef /.notdef
/.notdef /.notdef /.notdef /.notdef /.notdef
/.notdef /.notdef /.notdef /.notdef /.notdef
/.notdef /.notdef /.notdef /.notdef /.notdef
/.notdef /.notdef /.notdef /.notdef /.notdef
/.notdef /.notdef /space /exclam /quotedbl
/numbersign /dollar /percent /ampersand /quotesingle
/parenleft /parenright /asterisk /plus /comma
/hyphen /period /slash /zero /one
/two /three /four /five /six
/seven /eight /nine /colon /semicolon
/less /equal /greater /question /at
/A /B /C /D /E
/F /G /H /I /J
/K /L /M /N /O
/P /Q /R /S /T
/U /V /W /X /Y
/Z /bracketleft /backslash /bracketright /asciicircum
/underscore /quoteleft /a /b /c
/d /e /f /g /h
/i /j /k /l /m
/n /o /p /q /r
/s /t /u /v /w
/x /y /z /braceleft /bar
/braceright /asciitilde /bullet /Euro /bullet
/quotesinglbase /florin /quotedblbase /ellipsis /dagger
/daggerdbl /circumflex /perthousand /Scaron /guilsinglleft
/OE /bullet /Zcaron /bullet /bullet
/quoteleft /quoteright /quotedblleft /quotedblright /bullet
/endash /emdash /asciitilde /trademark /scaron
/guilsinglright /oe /bullet /zcaron /Ydieresis
/space /exclamdown /cent /sterling /currency
/yen /brokenbar /section /dieresis /copyright
/ordfeminine /guillemotleft /logicalnot /sfthyphen /registered
/macron /degree /plusminus /twosuperior /threesuperior
/acute /mu /paragraph /middot /cedilla
/onesuperior /ordmasculine /guillemotright /onequarter /onehalf
/threequarters /questiondown /Agrave /Aacute /Acircumflex
/Atilde /Adieresis /Aring /AE /Ccedilla
/Egrave /Eacute /Ecircumflex /Edieresis /Igrave
/Iacute /Icircumflex /Idieresis /Eth /Ntilde
/Ograve /Oacute /Ocircumflex /Otilde /Odieresis
/multiply /Oslash /Ugrave /Uacute /Ucircumflex
/Udieresis /Yacute /Thorn /germandbls /agrave
/aacute /acircumflex /atilde /adieresis /aring
/ae /ccedilla /egrave /eacute /ecircumflex
/edieresis /igrave /iacute /icircumflex /idieresis
/eth /ntilde /ograve /oacute /ocircumflex
/otilde /odieresis /divide /oslash /ugrave
/uacute /ucircumflex /udieresis /yacute /thorn
/ydieresis
] def
%%EndResource
%FOPBeginFontReencode
/Courier-Oblique findfont
dup length dict begin
  {1 index /FID ne {def} {pop pop} ifelse} forall
  /Encoding WinAnsiEncoding def
  currentdict
end
/Courier-Oblique exch definefont pop
/Courier-BoldOblique findfont
dup length dict begin
  {1 index /FID ne {def} {pop pop} ifelse} forall
  /Encoding WinAnsiEncoding def
  currentdict
end
/Courier-BoldOblique exch definefont pop
/Courier-Bold findfont
dup length dict begin
  {1 index /FID ne {def} {pop pop} ifelse} forall
  /Encoding WinAnsiEncoding def
  currentdict
end
/Courier-Bold exch definefont pop
/Helvetica findfont
dup length dict begin
  {1 index /FID ne {def} {pop pop} ifelse} forall
  /Encoding WinAnsiEncoding def
  currentdict
end
/Helvetica exch definefont pop
/Helvetica-Oblique findfont
dup length dict begin
  {1 index /FID ne {def} {pop pop} ifelse} forall
  /Encoding WinAnsiEncoding def
  currentdict
end
/Helvetica-Oblique exch definefont pop
/Helvetica-Bold findfont
dup length dict begin
  {1 index /FID ne {def} {pop pop} ifelse} forall
  /Encoding WinAnsiEncoding def
  currentdict
end
/Helvetica-Bold exch definefont pop
/Helvetica-BoldOblique findfont
dup length dict begin
  {1 index /FID ne {def} {pop pop} ifelse} forall
  /Encoding WinAnsiEncoding def
  currentdict
end
/Helvetica-BoldOblique exch definefont pop
/Times-Roman findfont
dup length dict begin
  {1 index /FID ne {def} {pop pop} ifelse} forall
  /Encoding WinAnsiEncoding def
  currentdict
end
/Times-Roman exch definefont pop
/Times-Italic findfont
dup length dict begin
  {1 index /FID ne {def} {pop pop} ifelse} forall
  /Encoding WinAnsiEncoding def
  currentdict
end
/Times-Italic exch definefont pop
/Times-Bold findfont
dup length dict begin
  {1 index /FID ne {def} {pop pop} ifelse} forall
  /Encoding WinAnsiEncoding def
  currentdict
end
/Times-Bold exch definefont pop
/Times-BoldItalic findfont
dup length dict begin
  {1 index /FID ne {def} {pop pop} ifelse} forall
  /Encoding WinAnsiEncoding def
  currentdict
end
/Times-BoldItalic exch definefont pop
/Courier findfont
dup length dict begin
  {1 index /FID ne {def} {pop pop} ifelse} forall
  /Encoding WinAnsiEncoding def
  currentdict
end
/Courier exch definefont pop
%FOPEndFontReencode
%%EndProlog
%%Page: 1 1
%%PageBoundingBox: 0 0 1120 840
%%BeginPageSetup
[1 0 0 -1 0 840] CT
%%EndPageSetup
GS
1 GC
N
0 0 1120 840 re
f
GR
GS
1 GC
N
73 374 M
507 374 L
507 31.5 L
73 31.5 L
cp
f
GR
GS
0.149 GC
2 setlinecap
1 LJ
0.5 LW
N
73 374 M
507 374 L
S
GR
GS
0.149 GC
2 setlinecap
1 LJ
0.5 LW
N
73 31.5 M
507 31.5 L
S
GR
GS
0.149 GC
2 setlinecap
1 LJ
0.5 LW
N
150.191 374 M
150.191 369.66 L
S
GR
GS
0.149 GC
2 setlinecap
1 LJ
0.5 LW
N
249.477 374 M
249.477 369.66 L
S
GR
GS
0.149 GC
2 setlinecap
1 LJ
0.5 LW
N
348.764 374 M
348.764 369.66 L
S
GR
GS
0.149 GC
2 setlinecap
1 LJ
0.5 LW
N
448.05 374 M
448.05 369.66 L
S
GR
GS
0.149 GC
2 setlinecap
1 LJ
0.5 LW
N
150.191 31.5 M
150.191 35.84 L
S
GR
GS
0.149 GC
2 setlinecap
1 LJ
0.5 LW
N
249.477 31.5 M
249.477 35.84 L
S
GR
GS
0.149 GC
2 setlinecap
1 LJ
0.5 LW
N
348.764 31.5 M
348.764 35.84 L
S
GR
GS
0.149 GC
2 setlinecap
1 LJ
0.5 LW
N
448.05 31.5 M
448.05 35.84 L
S
GR
GS
0.149 GC
2 setlinecap
1 LJ
0.5 LW
N
90.619 374 M
90.619 371.83 L
S
GR
GS
0.149 GC
2 setlinecap
1 LJ
0.5 LW
N
110.476 374 M
110.476 371.83 L
S
GR
GS
0.149 GC
2 setlinecap
1 LJ
0.5 LW
N
130.333 374 M
130.333 371.83 L
S
GR
GS
0.149 GC
2 setlinecap
1 LJ
0.5 LW
N
170.048 374 M
170.048 371.83 L
S
GR
GS
0.149 GC
2 setlinecap
1 LJ
0.5 LW
N
189.905 374 M
189.905 371.83 L
S
GR
GS
0.149 GC
2 setlinecap
1 LJ
0.5 LW
N
209.763 374 M
209.763 371.83 L
S
GR
GS
0.149 GC
2 setlinecap
1 LJ
0.5 LW
N
229.62 374 M
229.62 371.83 L
S
GR
GS
0.149 GC
2 setlinecap
1 LJ
0.5 LW
N
269.335 374 M
269.335 371.83 L
S
GR
GS
0.149 GC
2 setlinecap
1 LJ
0.5 LW
N
289.192 374 M
289.192 371.83 L
S
GR
GS
0.149 GC
2 setlinecap
1 LJ
0.5 LW
N
309.049 374 M
309.049 371.83 L
S
GR
GS
0.149 GC
2 setlinecap
1 LJ
0.5 LW
N
328.906 374 M
328.906 371.83 L
S
GR
GS
0.149 GC
2 setlinecap
1 LJ
0.5 LW
N
368.621 374 M
368.621 371.83 L
S
GR
GS
0.149 GC
2 setlinecap
1 LJ
0.5 LW
N
388.478 374 M
388.478 371.83 L
S
GR
GS
0.149 GC
2 setlinecap
1 LJ
0.5 LW
N
408.336 374 M
408.336 371.83 L
S
GR
GS
0.149 GC
2 setlinecap
1 LJ
0.5 LW
N
428.193 374 M
428.193 371.83 L
S
GR
GS
0.149 GC
2 setlinecap
1 LJ
0.5 LW
N
467.908 374 M
467.908 371.83 L
S
GR
GS
0.149 GC
2 setlinecap
1 LJ
0.5 LW
N
487.765 374 M
487.765 371.83 L
S
GR
GS
0.149 GC
2 setlinecap
1 LJ
0.5 LW
N
90.619 31.5 M
90.619 33.67 L
S
GR
GS
0.149 GC
2 setlinecap
1 LJ
0.5 LW
N
110.476 31.5 M
110.476 33.67 L
S
GR
GS
0.149 GC
2 setlinecap
1 LJ
0.5 LW
N
130.333 31.5 M
130.333 33.67 L
S
GR
GS
0.149 GC
2 setlinecap
1 LJ
0.5 LW
N
170.048 31.5 M
170.048 33.67 L
S
GR
GS
0.149 GC
2 setlinecap
1 LJ
0.5 LW
N
189.905 31.5 M
189.905 33.67 L
S
GR
GS
0.149 GC
2 setlinecap
1 LJ
0.5 LW
N
209.763 31.5 M
209.763 33.67 L
S
GR
GS
0.149 GC
2 setlinecap
1 LJ
0.5 LW
N
229.62 31.5 M
229.62 33.67 L
S
GR
GS
0.149 GC
2 setlinecap
1 LJ
0.5 LW
N
269.335 31.5 M
269.335 33.67 L
S
GR
GS
0.149 GC
2 setlinecap
1 LJ
0.5 LW
N
289.192 31.5 M
289.192 33.67 L
S
GR
GS
0.149 GC
2 setlinecap
1 LJ
0.5 LW
N
309.049 31.5 M
309.049 33.67 L
S
GR
GS
0.149 GC
2 setlinecap
1 LJ
0.5 LW
N
328.906 31.5 M
328.906 33.67 L
S
GR
GS
0.149 GC
2 setlinecap
1 LJ
0.5 LW
N
368.621 31.5 M
368.621 33.67 L
S
GR
GS
0.149 GC
2 setlinecap
1 LJ
0.5 LW
N
388.478 31.5 M
388.478 33.67 L
S
GR
GS
0.149 GC
2 setlinecap
1 LJ
0.5 LW
N
408.336 31.5 M
408.336 33.67 L
S
GR
GS
0.149 GC
2 setlinecap
1 LJ
0.5 LW
N
428.193 31.5 M
428.193 33.67 L
S
GR
GS
0.149 GC
2 setlinecap
1 LJ
0.5 LW
N
467.908 31.5 M
467.908 33.67 L
S
GR
GS
0.149 GC
2 setlinecap
1 LJ
0.5 LW
N
487.765 31.5 M
487.765 33.67 L
S
GR
GS
[1 0 0 1 150.19075 378.80002] CT
0.149 GC
/Helvetica 14 F
GS
[1 0 0 1 0 0] CT
-10 14 moveto 
1 -1 scale
(0.5) t 
GR
GR
GS
[1 0 0 1 249.47723 378.80002] CT
0.149 GC
/Helvetica 14 F
GS
[1 0 0 1 0 0] CT
-4 14 moveto 
1 -1 scale
(1) t 
GR
GR
GS
[1 0 0 1 348.7637 378.80002] CT
0.149 GC
/Helvetica 14 F
GS
[1 0 0 1 0 0] CT
-10 14 moveto 
1 -1 scale
(1.5) t 
GR
GR
GS
[1 0 0 1 448.0502 378.80002] CT
0.149 GC
/Helvetica 14 F
GS
[1 0 0 1 0 0] CT
-4 14 moveto 
1 -1 scale
(2) t 
GR
GR
GS
[1 0 0 1 290.00018 396.29999] CT
0.149 GC
/Helvetica 15.4 F
GS
[1 0 0 1 0 0] CT
-42 15 moveto 
1 -1 scale
(Bitrate\(kb/s\)) t 
GR
GR
GS
[1 0 0 1 473 414] CT
0.149 GC
N
2.063 -0.406 M
2.063 -0.516 2.125 -0.609 QT
5.031 -3.5 L
2.125 -6.406 L
2.063 -6.484 2.063 -6.594 QT
2.063 -6.703 2.141 -6.789 QT
2.219 -6.875 2.344 -6.875 QT
2.438 -6.875 2.547 -6.781 QT
5.453 -3.891 L
8.328 -6.781 L
8.453 -6.875 8.531 -6.875 QT
8.656 -6.875 8.734 -6.797 QT
8.813 -6.719 8.813 -6.594 QT
8.813 -6.484 8.75 -6.406 QT
5.844 -3.5 L
8.75 -0.609 L
8.813 -0.516 8.813 -0.406 QT
8.813 -0.281 8.734 -0.203 QT
8.656 -0.125 8.531 -0.125 QT
8.438 -0.125 8.328 -0.219 QT
5.453 -3.109 L
2.547 -0.219 L
2.453 -0.125 2.344 -0.125 QT
2.219 -0.125 2.141 -0.211 QT
2.063 -0.297 2.063 -0.406 QT
cp
f
GR
GS
[1 0 0 1 484 414] CT
0.149 GC
/Helvetica 14 F
GS
[1 0 0 1 0 0] CT
0 0 moveto 
1 -1 scale
(10) t 
GR
GR
GS
[1 0 0 1 500 407] CT
0.149 GC
/Helvetica 11.2 F
GS
[1 0 0 1 0 0] CT
0 0 moveto 
1 -1 scale
(4) t 
GR
GR
GS
0.149 GC
2 setlinecap
1 LJ
0.5 LW
N
73 374 M
73 31.5 L
S
GR
GS
0.149 GC
2 setlinecap
1 LJ
0.5 LW
N
507 374 M
507 31.5 L
S
GR
GS
0.149 GC
2 setlinecap
1 LJ
0.5 LW
N
73 336.079 M
77.34 336.079 L
S
GR
GS
0.149 GC
2 setlinecap
1 LJ
0.5 LW
N
73 278.227 M
77.34 278.227 L
S
GR
GS
0.149 GC
2 setlinecap
1 LJ
0.5 LW
N
73 220.374 M
77.34 220.374 L
S
GR
GS
0.149 GC
2 setlinecap
1 LJ
0.5 LW
N
73 162.521 M
77.34 162.521 L
S
GR
GS
0.149 GC
2 setlinecap
1 LJ
0.5 LW
N
73 104.669 M
77.34 104.669 L
S
GR
GS
0.149 GC
2 setlinecap
1 LJ
0.5 LW
N
73 46.816 M
77.34 46.816 L
S
GR
GS
0.149 GC
2 setlinecap
1 LJ
0.5 LW
N
507 336.079 M
502.66 336.079 L
S
GR
GS
0.149 GC
2 setlinecap
1 LJ
0.5 LW
N
507 278.227 M
502.66 278.227 L
S
GR
GS
0.149 GC
2 setlinecap
1 LJ
0.5 LW
N
507 220.374 M
502.66 220.374 L
S
GR
GS
0.149 GC
2 setlinecap
1 LJ
0.5 LW
N
507 162.521 M
502.66 162.521 L
S
GR
GS
0.149 GC
2 setlinecap
1 LJ
0.5 LW
N
507 104.669 M
502.66 104.669 L
S
GR
GS
0.149 GC
2 setlinecap
1 LJ
0.5 LW
N
507 46.816 M
502.66 46.816 L
S
GR
GS
0.149 GC
2 setlinecap
1 LJ
0.5 LW
N
73 365.006 M
75.17 365.006 L
S
GR
GS
0.149 GC
2 setlinecap
1 LJ
0.5 LW
N
73 350.543 M
75.17 350.543 L
S
GR
GS
0.149 GC
2 setlinecap
1 LJ
0.5 LW
N
73 321.616 M
75.17 321.616 L
S
GR
GS
0.149 GC
2 setlinecap
1 LJ
0.5 LW
N
73 307.153 M
75.17 307.153 L
S
GR
GS
0.149 GC
2 setlinecap
1 LJ
0.5 LW
N
73 292.69 M
75.17 292.69 L
S
GR
GS
0.149 GC
2 setlinecap
1 LJ
0.5 LW
N
73 263.764 M
75.17 263.764 L
S
GR
GS
0.149 GC
2 setlinecap
1 LJ
0.5 LW
N
73 249.3 M
75.17 249.3 L
S
GR
GS
0.149 GC
2 setlinecap
1 LJ
0.5 LW
N
73 234.837 M
75.17 234.837 L
S
GR
GS
0.149 GC
2 setlinecap
1 LJ
0.5 LW
N
73 205.911 M
75.17 205.911 L
S
GR
GS
0.149 GC
2 setlinecap
1 LJ
0.5 LW
N
73 191.448 M
75.17 191.448 L
S
GR
GS
0.149 GC
2 setlinecap
1 LJ
0.5 LW
N
73 176.985 M
75.17 176.985 L
S
GR
GS
0.149 GC
2 setlinecap
1 LJ
0.5 LW
N
73 148.058 M
75.17 148.058 L
S
GR
GS
0.149 GC
2 setlinecap
1 LJ
0.5 LW
N
73 133.595 M
75.17 133.595 L
S
GR
GS
0.149 GC
2 setlinecap
1 LJ
0.5 LW
N
73 119.132 M
75.17 119.132 L
S
GR
GS
0.149 GC
2 setlinecap
1 LJ
0.5 LW
N
73 90.206 M
75.17 90.206 L
S
GR
GS
0.149 GC
2 setlinecap
1 LJ
0.5 LW
N
73 75.743 M
75.17 75.743 L
S
GR
GS
0.149 GC
2 setlinecap
1 LJ
0.5 LW
N
73 61.279 M
75.17 61.279 L
S
GR
GS
0.149 GC
2 setlinecap
1 LJ
0.5 LW
N
73 32.353 M
75.17 32.353 L
S
GR
GS
0.149 GC
2 setlinecap
1 LJ
0.5 LW
N
507 365.006 M
504.83 365.006 L
S
GR
GS
0.149 GC
2 setlinecap
1 LJ
0.5 LW
N
507 350.543 M
504.83 350.543 L
S
GR
GS
0.149 GC
2 setlinecap
1 LJ
0.5 LW
N
507 321.616 M
504.83 321.616 L
S
GR
GS
0.149 GC
2 setlinecap
1 LJ
0.5 LW
N
507 307.153 M
504.83 307.153 L
S
GR
GS
0.149 GC
2 setlinecap
1 LJ
0.5 LW
N
507 292.69 M
504.83 292.69 L
S
GR
GS
0.149 GC
2 setlinecap
1 LJ
0.5 LW
N
507 263.764 M
504.83 263.764 L
S
GR
GS
0.149 GC
2 setlinecap
1 LJ
0.5 LW
N
507 249.3 M
504.83 249.3 L
S
GR
GS
0.149 GC
2 setlinecap
1 LJ
0.5 LW
N
507 234.837 M
504.83 234.837 L
S
GR
GS
0.149 GC
2 setlinecap
1 LJ
0.5 LW
N
507 205.911 M
504.83 205.911 L
S
GR
GS
0.149 GC
2 setlinecap
1 LJ
0.5 LW
N
507 191.448 M
504.83 191.448 L
S
GR
GS
0.149 GC
2 setlinecap
1 LJ
0.5 LW
N
507 176.985 M
504.83 176.985 L
S
GR
GS
0.149 GC
2 setlinecap
1 LJ
0.5 LW
N
507 148.058 M
504.83 148.058 L
S
GR
GS
0.149 GC
2 setlinecap
1 LJ
0.5 LW
N
507 133.595 M
504.83 133.595 L
S
GR
GS
0.149 GC
2 setlinecap
1 LJ
0.5 LW
N
507 119.132 M
504.83 119.132 L
S
GR
GS
0.149 GC
2 setlinecap
1 LJ
0.5 LW
N
507 90.206 M
504.83 90.206 L
S
GR
GS
0.149 GC
2 setlinecap
1 LJ
0.5 LW
N
507 75.743 M
504.83 75.743 L
S
GR
GS
0.149 GC
2 setlinecap
1 LJ
0.5 LW
N
507 61.279 M
504.83 61.279 L
S
GR
GS
0.149 GC
2 setlinecap
1 LJ
0.5 LW
N
507 32.353 M
504.83 32.353 L
S
GR
GS
[1 0 0 1 68.2 336.07941] CT
0.149 GC
/Helvetica 14 F
GS
[1 0 0 1 0 0] CT
-16 5.5 moveto 
1 -1 scale
(30) t 
GR
GR
GS
[1 0 0 1 68.2 278.22675] CT
0.149 GC
/Helvetica 14 F
GS
[1 0 0 1 0 0] CT
-16 5.5 moveto 
1 -1 scale
(32) t 
GR
GR
GS
[1 0 0 1 68.2 220.37413] CT
0.149 GC
/Helvetica 14 F
GS
[1 0 0 1 0 0] CT
-16 5.5 moveto 
1 -1 scale
(34) t 
GR
GR
GS
[1 0 0 1 68.2 162.52148] CT
0.149 GC
/Helvetica 14 F
GS
[1 0 0 1 0 0] CT
-16 5.5 moveto 
1 -1 scale
(36) t 
GR
GR
GS
[1 0 0 1 68.2 104.66886] CT
0.149 GC
/Helvetica 14 F
GS
[1 0 0 1 0 0] CT
-16 5.5 moveto 
1 -1 scale
(38) t 
GR
GR
GS
[1 0 0 1 68.2 46.81622] CT
0.149 GC
/Helvetica 14 F
GS
[1 0 0 1 0 0] CT
-16 5.5 moveto 
1 -1 scale
(40) t 
GR
GR
GS
[0 -1 1 0 49.2 202.7498] CT
0.149 GC
/Helvetica 15.4 F
GS
[1 0 0 1 0 0] CT
-49 -4 moveto 
1 -1 scale
(APSNR Y \(dB\)) t 
GR
GR
GS
[1 0 0 1 290.00027 29.57502] CT
/Helvetica-Bold 15.4 F
GS
[1 0 0 1 0 0] CT
-122 -4 moveto 
1 -1 scale
(Riverbed_1920x1080p25.y4m-av1) t 
GR
GR
GS
0 0.447 0.741 RC
[10 6] 0 setdash
2 LJ
0.5 LW
N
507 31.5 M
268.064 118.507 L
166.528 198.619 L
107.093 285.727 L
79.865 350.533 L
S
GR
GS
0.851 0.325 0.098 RC
1 LJ
0.5 LW
N
434.202 51.982 M
232.256 141.286 L
144.891 222.837 L
94.404 310.815 L
73 374 L
S
GR
GS
0.929 0.694 0.125 RC
1 LJ
0.5 LW
N
498.807 32.801 M
264.771 119.385 L
164.466 199.573 L
105.857 286.726 L
79.17 351.497 L
S
GR
GS
0.494 0.184 0.557 RC
1 LJ
0.5 LW
N
485.297 33.624 M
255.946 121.556 L
158.893 201.811 L
102.879 288.812 L
77.339 354.179 L
S
GR
GS
0.467 0.675 0.188 RC
1 LJ
0.5 LW
N
475.823 35.084 M
252.114 122.672 L
156.584 202.926 L
101.485 290.05 L
76.58 355.433 L
S
GR
GS
0.302 0.745 0.933 RC
[10 6] 0 setdash
2 LJ
0.5 LW
N
431.414 51.32 M
235.18 138.799 L
146.962 220.18 L
95.538 308.394 L
73.639 371.444 L
S
GR
GS
0.635 0.078 0.184 RC
[10 6] 0 setdash
2 LJ
0.5 LW
N
488.084 34.164 M
263.851 119.583 L
164.525 199.51 L
105.95 286.616 L
79.17 351.467 L
S
GR
GS
0 0.447 0.741 RC
[10 6] 0 setdash
2 LJ
0.5 LW
N
475.801 35.291 M
255.196 121.803 L
158.798 201.754 L
102.986 288.702 L
77.442 354.043 L
S
GR
GS
0.851 0.325 0.098 RC
[10 6] 0 setdash
2 LJ
0.5 LW
N
467.167 36.819 M
251.222 122.969 L
156.714 202.76 L
101.651 289.867 L
76.671 355.191 L
S
GR
GS
1 GC
N
499 366 M
499 218.5 L
327.5 218.5 L
327.5 366 L
cp
f
GR
GS
[1 0 0 1 364.5 228.25] CT
/Helvetica 13 F
GS
[1 0 0 1 0 0] CT
0 5 moveto 
1 -1 scale
(Base Run) t 
GR
GR
GS
0 0.447 0.741 RC
[10 6] 0 setdash
2 LJ
0.5 LW
N
331.5 228.25 M
361.5 228.25 L
S
GR
GS
[1 0 0 1 364.5 244.25] CT
/Helvetica 13 F
GS
[1 0 0 1 0 0] CT
0 5 moveto 
1 -1 scale
(All Frames) t 
GR
GR
GS
0.851 0.325 0.098 RC
1 LJ
0.5 LW
N
331.5 244.25 M
361.5 244.25 L
S
GR
GS
[1 0 0 1 364.5 260.25] CT
/Helvetica 13 F
GS
[1 0 0 1 0 0] CT
0 5 moveto 
1 -1 scale
(KF Only) t 
GR
GR
GS
0.929 0.694 0.125 RC
1 LJ
0.5 LW
N
331.5 260.25 M
361.5 260.25 L
S
GR
GS
[1 0 0 1 364.5 276.25] CT
/Helvetica 13 F
GS
[1 0 0 1 0 0] CT
0 5 moveto 
1 -1 scale
(GF, ARF Only) t 
GR
GR
GS
0.494 0.184 0.557 RC
1 LJ
0.5 LW
N
331.5 276.25 M
361.5 276.25 L
S
GR
GS
[1 0 0 1 364.5 292.25] CT
/Helvetica 13 F
GS
[1 0 0 1 0 0] CT
0 5 moveto 
1 -1 scale
(KF, GF, ARF Only) t 
GR
GR
GS
0.467 0.675 0.188 RC
1 LJ
0.5 LW
N
331.5 292.25 M
361.5 292.25 L
S
GR
GS
[1 0 0 1 364.5 308.25] CT
/Helvetica 13 F
GS
[1 0 0 1 0 0] CT
0 5 moveto 
1 -1 scale
(Part All Frames) t 
GR
GR
GS
0.302 0.745 0.933 RC
[10 6] 0 setdash
2 LJ
0.5 LW
N
331.5 308.25 M
361.5 308.25 L
S
GR
GS
[1 0 0 1 364.5 324.25] CT
/Helvetica 13 F
GS
[1 0 0 1 0 0] CT
0 5 moveto 
1 -1 scale
(Part KF Only) t 
GR
GR
GS
0.635 0.078 0.184 RC
[10 6] 0 setdash
2 LJ
0.5 LW
N
331.5 324.25 M
361.5 324.25 L
S
GR
GS
[1 0 0 1 364.5 340.25] CT
/Helvetica 13 F
GS
[1 0 0 1 0 0] CT
0 5 moveto 
1 -1 scale
(Part GF, ARF Only) t 
GR
GR
GS
0 0.447 0.741 RC
[10 6] 0 setdash
2 LJ
0.5 LW
N
331.5 340.25 M
361.5 340.25 L
S
GR
GS
[1 0 0 1 364.5 356.25] CT
/Helvetica 13 F
GS
[1 0 0 1 0 0] CT
0 5 moveto 
1 -1 scale
(Part KF, GF, ARF Only) t 
GR
GR
GS
0.851 0.325 0.098 RC
[10 6] 0 setdash
2 LJ
0.5 LW
N
331.5 356.25 M
361.5 356.25 L
S
GR
GS
0.149 GC
10.0 ML
0.5 LW
N
327.5 366 M
327.5 218.5 L
499 218.5 L
499 366 L
cp
S
GR
%%Trailer
%%Pages: 1
%%EOF
