%!PS-Adobe-3.0 EPSF-3.0
%%Creator: (MATLAB, The Mathworks, Inc. Version 9.11.0.1837725 \(R2021b\) Update 2. Operating System: Mac OS X)
%%Title: plots/rd/Riverbed_1920x1080p25.y4m-hevc-PSNRY.eps
%%CreationDate: 2022-02-04T14:45:52
%%Pages: (atend)
%%BoundingBox:    33   425   508   826
%%LanguageLevel: 3
%%EndComments
%%BeginProlog
%%BeginResource: procset (Apache XML Graphics Std ProcSet) 1.2 0
%%Version: 1.2 0
%%Copyright: (Copyright 2001-2003,2010 The Apache Software Foundation. License terms: http://www.apache.org/licenses/LICENSE-2.0)
/bd{bind def}bind def
/ld{load def}bd
/GR/grestore ld
/GS/gsave ld
/RM/rmoveto ld
/C/curveto ld
/t/show ld
/L/lineto ld
/ML/setmiterlimit ld
/CT/concat ld
/f/fill ld
/N/newpath ld
/S/stroke ld
/CC/setcmykcolor ld
/A/ashow ld
/cp/closepath ld
/RC/setrgbcolor ld
/LJ/setlinejoin ld
/GC/setgray ld
/LW/setlinewidth ld
/M/moveto ld
/re {4 2 roll M
1 index 0 rlineto
0 exch rlineto
neg 0 rlineto
cp } bd
/_ctm matrix def
/_tm matrix def
/BT { _ctm currentmatrix pop matrix _tm copy pop 0 0 moveto } bd
/ET { _ctm setmatrix } bd
/iTm { _ctm setmatrix _tm concat } bd
/Tm { _tm astore pop iTm 0 0 moveto } bd
/ux 0.0 def
/uy 0.0 def
/F {
  /Tp exch def
  /Tf exch def
  Tf findfont Tp scalefont setfont
  /cf Tf def  /cs Tp def
} bd
/ULS {currentpoint /uy exch def /ux exch def} bd
/ULE {
  /Tcx currentpoint pop def
  gsave
  newpath
  cf findfont cs scalefont dup
  /FontMatrix get 0 get /Ts exch def /FontInfo get dup
  /UnderlinePosition get Ts mul /To exch def
  /UnderlineThickness get Ts mul /Tt exch def
  ux uy To add moveto  Tcx uy To add lineto
  Tt setlinewidth stroke
  grestore
} bd
/OLE {
  /Tcx currentpoint pop def
  gsave
  newpath
  cf findfont cs scalefont dup
  /FontMatrix get 0 get /Ts exch def /FontInfo get dup
  /UnderlinePosition get Ts mul /To exch def
  /UnderlineThickness get Ts mul /Tt exch def
  ux uy To add cs add moveto Tcx uy To add cs add lineto
  Tt setlinewidth stroke
  grestore
} bd
/SOE {
  /Tcx currentpoint pop def
  gsave
  newpath
  cf findfont cs scalefont dup
  /FontMatrix get 0 get /Ts exch def /FontInfo get dup
  /UnderlinePosition get Ts mul /To exch def
  /UnderlineThickness get Ts mul /Tt exch def
  ux uy To add cs 10 mul 26 idiv add moveto Tcx uy To add cs 10 mul 26 idiv add lineto
  Tt setlinewidth stroke
  grestore
} bd
/QT {
/Y22 exch store
/X22 exch store
/Y21 exch store
/X21 exch store
currentpoint
/Y21 load 2 mul add 3 div exch
/X21 load 2 mul add 3 div exch
/X21 load 2 mul /X22 load add 3 div
/Y21 load 2 mul /Y22 load add 3 div
/X22 load /Y22 load curveto
} bd
/SSPD {
dup length /d exch dict def
{
/v exch def
/k exch def
currentpagedevice k known {
/cpdv currentpagedevice k get def
v cpdv ne {
/upd false def
/nullv v type /nulltype eq def
/nullcpdv cpdv type /nulltype eq def
nullv nullcpdv or
{
/upd true def
} {
/sametype v type cpdv type eq def
sametype {
v type /arraytype eq {
/vlen v length def
/cpdvlen cpdv length def
vlen cpdvlen eq {
0 1 vlen 1 sub {
/i exch def
/obj v i get def
/cpdobj cpdv i get def
obj cpdobj ne {
/upd true def
exit
} if
} for
} {
/upd true def
} ifelse
} {
v type /dicttype eq {
v {
/dv exch def
/dk exch def
/cpddv cpdv dk get def
dv cpddv ne {
/upd true def
exit
} if
} forall
} {
/upd true def
} ifelse
} ifelse
} if
} ifelse
upd true eq {
d k v put
} if
} if
} if
} forall
d length 0 gt {
d setpagedevice
} if
} bd
/RE { % /NewFontName [NewEncodingArray] /FontName RE -
  findfont dup length dict begin
  {
    1 index /FID ne
    {def} {pop pop} ifelse
  } forall
  /Encoding exch def
  /FontName 1 index def
  currentdict definefont pop
  end
} bind def
%%EndResource
%%BeginResource: procset (Apache XML Graphics EPS ProcSet) 1.0 0
%%Version: 1.0 0
%%Copyright: (Copyright 2002-2003 The Apache Software Foundation. License terms: http://www.apache.org/licenses/LICENSE-2.0)
/BeginEPSF { %def
/b4_Inc_state save def         % Save state for cleanup
/dict_count countdictstack def % Count objects on dict stack
/op_count count 1 sub def      % Count objects on operand stack
userdict begin                 % Push userdict on dict stack
/showpage { } def              % Redefine showpage, { } = null proc
0 setgray 0 setlinecap         % Prepare graphics state
1 setlinewidth 0 setlinejoin
10 setmiterlimit [ ] 0 setdash newpath
/languagelevel where           % If level not equal to 1 then
{pop languagelevel             % set strokeadjust and
1 ne                           % overprint to their defaults.
{false setstrokeadjust false setoverprint
} if
} if
} bd
/EndEPSF { %def
count op_count sub {pop} repeat            % Clean up stacks
countdictstack dict_count sub {end} repeat
b4_Inc_state restore
} bd
%%EndResource
%FOPBeginFontDict
%%IncludeResource: font Courier-Oblique
%%IncludeResource: font Courier-BoldOblique
%%IncludeResource: font Courier-Bold
%%IncludeResource: font ZapfDingbats
%%IncludeResource: font Symbol
%%IncludeResource: font Helvetica
%%IncludeResource: font Helvetica-Oblique
%%IncludeResource: font Helvetica-Bold
%%IncludeResource: font Helvetica-BoldOblique
%%IncludeResource: font Times-Roman
%%IncludeResource: font Times-Italic
%%IncludeResource: font Times-Bold
%%IncludeResource: font Times-BoldItalic
%%IncludeResource: font Courier
%FOPEndFontDict
%%BeginResource: encoding WinAnsiEncoding
/WinAnsiEncoding [
/.notdef /.notdef /.notdef /.notdef /.notdef
/.notdef /.notdef /.notdef /.notdef /.notdef
/.notdef /.notdef /.notdef /.notdef /.notdef
/.notdef /.notdef /.notdef /.notdef /.notdef
/.notdef /.notdef /.notdef /.notdef /.notdef
/.notdef /.notdef /.notdef /.notdef /.notdef
/.notdef /.notdef /space /exclam /quotedbl
/numbersign /dollar /percent /ampersand /quotesingle
/parenleft /parenright /asterisk /plus /comma
/hyphen /period /slash /zero /one
/two /three /four /five /six
/seven /eight /nine /colon /semicolon
/less /equal /greater /question /at
/A /B /C /D /E
/F /G /H /I /J
/K /L /M /N /O
/P /Q /R /S /T
/U /V /W /X /Y
/Z /bracketleft /backslash /bracketright /asciicircum
/underscore /quoteleft /a /b /c
/d /e /f /g /h
/i /j /k /l /m
/n /o /p /q /r
/s /t /u /v /w
/x /y /z /braceleft /bar
/braceright /asciitilde /bullet /Euro /bullet
/quotesinglbase /florin /quotedblbase /ellipsis /dagger
/daggerdbl /circumflex /perthousand /Scaron /guilsinglleft
/OE /bullet /Zcaron /bullet /bullet
/quoteleft /quoteright /quotedblleft /quotedblright /bullet
/endash /emdash /asciitilde /trademark /scaron
/guilsinglright /oe /bullet /zcaron /Ydieresis
/space /exclamdown /cent /sterling /currency
/yen /brokenbar /section /dieresis /copyright
/ordfeminine /guillemotleft /logicalnot /sfthyphen /registered
/macron /degree /plusminus /twosuperior /threesuperior
/acute /mu /paragraph /middot /cedilla
/onesuperior /ordmasculine /guillemotright /onequarter /onehalf
/threequarters /questiondown /Agrave /Aacute /Acircumflex
/Atilde /Adieresis /Aring /AE /Ccedilla
/Egrave /Eacute /Ecircumflex /Edieresis /Igrave
/Iacute /Icircumflex /Idieresis /Eth /Ntilde
/Ograve /Oacute /Ocircumflex /Otilde /Odieresis
/multiply /Oslash /Ugrave /Uacute /Ucircumflex
/Udieresis /Yacute /Thorn /germandbls /agrave
/aacute /acircumflex /atilde /adieresis /aring
/ae /ccedilla /egrave /eacute /ecircumflex
/edieresis /igrave /iacute /icircumflex /idieresis
/eth /ntilde /ograve /oacute /ocircumflex
/otilde /odieresis /divide /oslash /ugrave
/uacute /ucircumflex /udieresis /yacute /thorn
/ydieresis
] def
%%EndResource
%FOPBeginFontReencode
/Courier-Oblique findfont
dup length dict begin
  {1 index /FID ne {def} {pop pop} ifelse} forall
  /Encoding WinAnsiEncoding def
  currentdict
end
/Courier-Oblique exch definefont pop
/Courier-BoldOblique findfont
dup length dict begin
  {1 index /FID ne {def} {pop pop} ifelse} forall
  /Encoding WinAnsiEncoding def
  currentdict
end
/Courier-BoldOblique exch definefont pop
/Courier-Bold findfont
dup length dict begin
  {1 index /FID ne {def} {pop pop} ifelse} forall
  /Encoding WinAnsiEncoding def
  currentdict
end
/Courier-Bold exch definefont pop
/Helvetica findfont
dup length dict begin
  {1 index /FID ne {def} {pop pop} ifelse} forall
  /Encoding WinAnsiEncoding def
  currentdict
end
/Helvetica exch definefont pop
/Helvetica-Oblique findfont
dup length dict begin
  {1 index /FID ne {def} {pop pop} ifelse} forall
  /Encoding WinAnsiEncoding def
  currentdict
end
/Helvetica-Oblique exch definefont pop
/Helvetica-Bold findfont
dup length dict begin
  {1 index /FID ne {def} {pop pop} ifelse} forall
  /Encoding WinAnsiEncoding def
  currentdict
end
/Helvetica-Bold exch definefont pop
/Helvetica-BoldOblique findfont
dup length dict begin
  {1 index /FID ne {def} {pop pop} ifelse} forall
  /Encoding WinAnsiEncoding def
  currentdict
end
/Helvetica-BoldOblique exch definefont pop
/Times-Roman findfont
dup length dict begin
  {1 index /FID ne {def} {pop pop} ifelse} forall
  /Encoding WinAnsiEncoding def
  currentdict
end
/Times-Roman exch definefont pop
/Times-Italic findfont
dup length dict begin
  {1 index /FID ne {def} {pop pop} ifelse} forall
  /Encoding WinAnsiEncoding def
  currentdict
end
/Times-Italic exch definefont pop
/Times-Bold findfont
dup length dict begin
  {1 index /FID ne {def} {pop pop} ifelse} forall
  /Encoding WinAnsiEncoding def
  currentdict
end
/Times-Bold exch definefont pop
/Times-BoldItalic findfont
dup length dict begin
  {1 index /FID ne {def} {pop pop} ifelse} forall
  /Encoding WinAnsiEncoding def
  currentdict
end
/Times-BoldItalic exch definefont pop
/Courier findfont
dup length dict begin
  {1 index /FID ne {def} {pop pop} ifelse} forall
  /Encoding WinAnsiEncoding def
  currentdict
end
/Courier exch definefont pop
%FOPEndFontReencode
%%EndProlog
%%Page: 1 1
%%PageBoundingBox: 0 0 1120 840
%%BeginPageSetup
[1 0 0 -1 0 840] CT
%%EndPageSetup
GS
1 GC
N
0 0 1120 840 re
f
GR
GS
1 GC
N
73 374 M
507 374 L
507 31.5 L
73 31.5 L
cp
f
GR
GS
0.149 GC
2 setlinecap
1 LJ
0.5 LW
N
73 374 M
507 374 L
S
GR
GS
0.149 GC
2 setlinecap
1 LJ
0.5 LW
N
73 31.5 M
507 31.5 L
S
GR
GS
0.149 GC
2 setlinecap
1 LJ
0.5 LW
N
99.311 374 M
99.311 369.66 L
S
GR
GS
0.149 GC
2 setlinecap
1 LJ
0.5 LW
N
146.263 374 M
146.263 369.66 L
S
GR
GS
0.149 GC
2 setlinecap
1 LJ
0.5 LW
N
193.215 374 M
193.215 369.66 L
S
GR
GS
0.149 GC
2 setlinecap
1 LJ
0.5 LW
N
240.166 374 M
240.166 369.66 L
S
GR
GS
0.149 GC
2 setlinecap
1 LJ
0.5 LW
N
287.118 374 M
287.118 369.66 L
S
GR
GS
0.149 GC
2 setlinecap
1 LJ
0.5 LW
N
334.07 374 M
334.07 369.66 L
S
GR
GS
0.149 GC
2 setlinecap
1 LJ
0.5 LW
N
381.021 374 M
381.021 369.66 L
S
GR
GS
0.149 GC
2 setlinecap
1 LJ
0.5 LW
N
427.973 374 M
427.973 369.66 L
S
GR
GS
0.149 GC
2 setlinecap
1 LJ
0.5 LW
N
474.925 374 M
474.925 369.66 L
S
GR
GS
0.149 GC
2 setlinecap
1 LJ
0.5 LW
N
99.311 31.5 M
99.311 35.84 L
S
GR
GS
0.149 GC
2 setlinecap
1 LJ
0.5 LW
N
146.263 31.5 M
146.263 35.84 L
S
GR
GS
0.149 GC
2 setlinecap
1 LJ
0.5 LW
N
193.215 31.5 M
193.215 35.84 L
S
GR
GS
0.149 GC
2 setlinecap
1 LJ
0.5 LW
N
240.166 31.5 M
240.166 35.84 L
S
GR
GS
0.149 GC
2 setlinecap
1 LJ
0.5 LW
N
287.118 31.5 M
287.118 35.84 L
S
GR
GS
0.149 GC
2 setlinecap
1 LJ
0.5 LW
N
334.07 31.5 M
334.07 35.84 L
S
GR
GS
0.149 GC
2 setlinecap
1 LJ
0.5 LW
N
381.021 31.5 M
381.021 35.84 L
S
GR
GS
0.149 GC
2 setlinecap
1 LJ
0.5 LW
N
427.973 31.5 M
427.973 35.84 L
S
GR
GS
0.149 GC
2 setlinecap
1 LJ
0.5 LW
N
474.925 31.5 M
474.925 35.84 L
S
GR
GS
0.149 GC
2 setlinecap
1 LJ
0.5 LW
N
75.836 374 M
75.836 371.83 L
S
GR
GS
0.149 GC
2 setlinecap
1 LJ
0.5 LW
N
87.574 374 M
87.574 371.83 L
S
GR
GS
0.149 GC
2 setlinecap
1 LJ
0.5 LW
N
111.049 374 M
111.049 371.83 L
S
GR
GS
0.149 GC
2 setlinecap
1 LJ
0.5 LW
N
122.787 374 M
122.787 371.83 L
S
GR
GS
0.149 GC
2 setlinecap
1 LJ
0.5 LW
N
134.525 374 M
134.525 371.83 L
S
GR
GS
0.149 GC
2 setlinecap
1 LJ
0.5 LW
N
158.001 374 M
158.001 371.83 L
S
GR
GS
0.149 GC
2 setlinecap
1 LJ
0.5 LW
N
169.739 374 M
169.739 371.83 L
S
GR
GS
0.149 GC
2 setlinecap
1 LJ
0.5 LW
N
181.477 374 M
181.477 371.83 L
S
GR
GS
0.149 GC
2 setlinecap
1 LJ
0.5 LW
N
204.953 374 M
204.953 371.83 L
S
GR
GS
0.149 GC
2 setlinecap
1 LJ
0.5 LW
N
216.691 374 M
216.691 371.83 L
S
GR
GS
0.149 GC
2 setlinecap
1 LJ
0.5 LW
N
228.428 374 M
228.428 371.83 L
S
GR
GS
0.149 GC
2 setlinecap
1 LJ
0.5 LW
N
251.904 374 M
251.904 371.83 L
S
GR
GS
0.149 GC
2 setlinecap
1 LJ
0.5 LW
N
263.642 374 M
263.642 371.83 L
S
GR
GS
0.149 GC
2 setlinecap
1 LJ
0.5 LW
N
275.38 374 M
275.38 371.83 L
S
GR
GS
0.149 GC
2 setlinecap
1 LJ
0.5 LW
N
298.856 374 M
298.856 371.83 L
S
GR
GS
0.149 GC
2 setlinecap
1 LJ
0.5 LW
N
310.594 374 M
310.594 371.83 L
S
GR
GS
0.149 GC
2 setlinecap
1 LJ
0.5 LW
N
322.332 374 M
322.332 371.83 L
S
GR
GS
0.149 GC
2 setlinecap
1 LJ
0.5 LW
N
345.808 374 M
345.808 371.83 L
S
GR
GS
0.149 GC
2 setlinecap
1 LJ
0.5 LW
N
357.545 374 M
357.545 371.83 L
S
GR
GS
0.149 GC
2 setlinecap
1 LJ
0.5 LW
N
369.283 374 M
369.283 371.83 L
S
GR
GS
0.149 GC
2 setlinecap
1 LJ
0.5 LW
N
392.759 374 M
392.759 371.83 L
S
GR
GS
0.149 GC
2 setlinecap
1 LJ
0.5 LW
N
404.497 374 M
404.497 371.83 L
S
GR
GS
0.149 GC
2 setlinecap
1 LJ
0.5 LW
N
416.235 374 M
416.235 371.83 L
S
GR
GS
0.149 GC
2 setlinecap
1 LJ
0.5 LW
N
439.711 374 M
439.711 371.83 L
S
GR
GS
0.149 GC
2 setlinecap
1 LJ
0.5 LW
N
451.449 374 M
451.449 371.83 L
S
GR
GS
0.149 GC
2 setlinecap
1 LJ
0.5 LW
N
463.187 374 M
463.187 371.83 L
S
GR
GS
0.149 GC
2 setlinecap
1 LJ
0.5 LW
N
486.662 374 M
486.662 371.83 L
S
GR
GS
0.149 GC
2 setlinecap
1 LJ
0.5 LW
N
498.4 374 M
498.4 371.83 L
S
GR
GS
0.149 GC
2 setlinecap
1 LJ
0.5 LW
N
75.836 31.5 M
75.836 33.67 L
S
GR
GS
0.149 GC
2 setlinecap
1 LJ
0.5 LW
N
87.574 31.5 M
87.574 33.67 L
S
GR
GS
0.149 GC
2 setlinecap
1 LJ
0.5 LW
N
111.049 31.5 M
111.049 33.67 L
S
GR
GS
0.149 GC
2 setlinecap
1 LJ
0.5 LW
N
122.787 31.5 M
122.787 33.67 L
S
GR
GS
0.149 GC
2 setlinecap
1 LJ
0.5 LW
N
134.525 31.5 M
134.525 33.67 L
S
GR
GS
0.149 GC
2 setlinecap
1 LJ
0.5 LW
N
158.001 31.5 M
158.001 33.67 L
S
GR
GS
0.149 GC
2 setlinecap
1 LJ
0.5 LW
N
169.739 31.5 M
169.739 33.67 L
S
GR
GS
0.149 GC
2 setlinecap
1 LJ
0.5 LW
N
181.477 31.5 M
181.477 33.67 L
S
GR
GS
0.149 GC
2 setlinecap
1 LJ
0.5 LW
N
204.953 31.5 M
204.953 33.67 L
S
GR
GS
0.149 GC
2 setlinecap
1 LJ
0.5 LW
N
216.691 31.5 M
216.691 33.67 L
S
GR
GS
0.149 GC
2 setlinecap
1 LJ
0.5 LW
N
228.428 31.5 M
228.428 33.67 L
S
GR
GS
0.149 GC
2 setlinecap
1 LJ
0.5 LW
N
251.904 31.5 M
251.904 33.67 L
S
GR
GS
0.149 GC
2 setlinecap
1 LJ
0.5 LW
N
263.642 31.5 M
263.642 33.67 L
S
GR
GS
0.149 GC
2 setlinecap
1 LJ
0.5 LW
N
275.38 31.5 M
275.38 33.67 L
S
GR
GS
0.149 GC
2 setlinecap
1 LJ
0.5 LW
N
298.856 31.5 M
298.856 33.67 L
S
GR
GS
0.149 GC
2 setlinecap
1 LJ
0.5 LW
N
310.594 31.5 M
310.594 33.67 L
S
GR
GS
0.149 GC
2 setlinecap
1 LJ
0.5 LW
N
322.332 31.5 M
322.332 33.67 L
S
GR
GS
0.149 GC
2 setlinecap
1 LJ
0.5 LW
N
345.808 31.5 M
345.808 33.67 L
S
GR
GS
0.149 GC
2 setlinecap
1 LJ
0.5 LW
N
357.545 31.5 M
357.545 33.67 L
S
GR
GS
0.149 GC
2 setlinecap
1 LJ
0.5 LW
N
369.283 31.5 M
369.283 33.67 L
S
GR
GS
0.149 GC
2 setlinecap
1 LJ
0.5 LW
N
392.759 31.5 M
392.759 33.67 L
S
GR
GS
0.149 GC
2 setlinecap
1 LJ
0.5 LW
N
404.497 31.5 M
404.497 33.67 L
S
GR
GS
0.149 GC
2 setlinecap
1 LJ
0.5 LW
N
416.235 31.5 M
416.235 33.67 L
S
GR
GS
0.149 GC
2 setlinecap
1 LJ
0.5 LW
N
439.711 31.5 M
439.711 33.67 L
S
GR
GS
0.149 GC
2 setlinecap
1 LJ
0.5 LW
N
451.449 31.5 M
451.449 33.67 L
S
GR
GS
0.149 GC
2 setlinecap
1 LJ
0.5 LW
N
463.187 31.5 M
463.187 33.67 L
S
GR
GS
0.149 GC
2 setlinecap
1 LJ
0.5 LW
N
486.662 31.5 M
486.662 33.67 L
S
GR
GS
0.149 GC
2 setlinecap
1 LJ
0.5 LW
N
498.4 31.5 M
498.4 33.67 L
S
GR
GS
[1 0 0 1 99.31148 378.80002] CT
0.149 GC
/Helvetica 14 F
GS
[1 0 0 1 0 0] CT
-10 14 moveto 
1 -1 scale
(0.2) t 
GR
GR
GS
[1 0 0 1 146.26311 378.80002] CT
0.149 GC
/Helvetica 14 F
GS
[1 0 0 1 0 0] CT
-10 14 moveto 
1 -1 scale
(0.4) t 
GR
GR
GS
[1 0 0 1 193.21475 378.80002] CT
0.149 GC
/Helvetica 14 F
GS
[1 0 0 1 0 0] CT
-10 14 moveto 
1 -1 scale
(0.6) t 
GR
GR
GS
[1 0 0 1 240.16638 378.80002] CT
0.149 GC
/Helvetica 14 F
GS
[1 0 0 1 0 0] CT
-10 14 moveto 
1 -1 scale
(0.8) t 
GR
GR
GS
[1 0 0 1 287.11801 378.80002] CT
0.149 GC
/Helvetica 14 F
GS
[1 0 0 1 0 0] CT
-4 14 moveto 
1 -1 scale
(1) t 
GR
GR
GS
[1 0 0 1 334.06964 378.80002] CT
0.149 GC
/Helvetica 14 F
GS
[1 0 0 1 0 0] CT
-10 14 moveto 
1 -1 scale
(1.2) t 
GR
GR
GS
[1 0 0 1 381.0213 378.80002] CT
0.149 GC
/Helvetica 14 F
GS
[1 0 0 1 0 0] CT
-10 14 moveto 
1 -1 scale
(1.4) t 
GR
GR
GS
[1 0 0 1 427.97293 378.80002] CT
0.149 GC
/Helvetica 14 F
GS
[1 0 0 1 0 0] CT
-10 14 moveto 
1 -1 scale
(1.6) t 
GR
GR
GS
[1 0 0 1 474.92456 378.80002] CT
0.149 GC
/Helvetica 14 F
GS
[1 0 0 1 0 0] CT
-10 14 moveto 
1 -1 scale
(1.8) t 
GR
GR
GS
[1 0 0 1 290.00021 396.29999] CT
0.149 GC
/Helvetica 15.4 F
GS
[1 0 0 1 0 0] CT
-42 15 moveto 
1 -1 scale
(Bitrate\(kb/s\)) t 
GR
GR
GS
[1 0 0 1 473 414] CT
0.149 GC
N
2.063 -0.406 M
2.063 -0.516 2.125 -0.609 QT
5.031 -3.5 L
2.125 -6.406 L
2.063 -6.484 2.063 -6.594 QT
2.063 -6.703 2.141 -6.789 QT
2.219 -6.875 2.344 -6.875 QT
2.438 -6.875 2.547 -6.781 QT
5.453 -3.891 L
8.328 -6.781 L
8.453 -6.875 8.531 -6.875 QT
8.656 -6.875 8.734 -6.797 QT
8.813 -6.719 8.813 -6.594 QT
8.813 -6.484 8.75 -6.406 QT
5.844 -3.5 L
8.75 -0.609 L
8.813 -0.516 8.813 -0.406 QT
8.813 -0.281 8.734 -0.203 QT
8.656 -0.125 8.531 -0.125 QT
8.438 -0.125 8.328 -0.219 QT
5.453 -3.109 L
2.547 -0.219 L
2.453 -0.125 2.344 -0.125 QT
2.219 -0.125 2.141 -0.211 QT
2.063 -0.297 2.063 -0.406 QT
cp
f
GR
GS
[1 0 0 1 484 414] CT
0.149 GC
/Helvetica 14 F
GS
[1 0 0 1 0 0] CT
0 0 moveto 
1 -1 scale
(10) t 
GR
GR
GS
[1 0 0 1 500 407] CT
0.149 GC
/Helvetica 11.2 F
GS
[1 0 0 1 0 0] CT
0 0 moveto 
1 -1 scale
(4) t 
GR
GR
GS
0.149 GC
2 setlinecap
1 LJ
0.5 LW
N
73 374 M
73 31.5 L
S
GR
GS
0.149 GC
2 setlinecap
1 LJ
0.5 LW
N
507 374 M
507 31.5 L
S
GR
GS
0.149 GC
2 setlinecap
1 LJ
0.5 LW
N
73 371.899 M
77.34 371.899 L
S
GR
GS
0.149 GC
2 setlinecap
1 LJ
0.5 LW
N
73 312.932 M
77.34 312.932 L
S
GR
GS
0.149 GC
2 setlinecap
1 LJ
0.5 LW
N
73 253.964 M
77.34 253.964 L
S
GR
GS
0.149 GC
2 setlinecap
1 LJ
0.5 LW
N
73 194.997 M
77.34 194.997 L
S
GR
GS
0.149 GC
2 setlinecap
1 LJ
0.5 LW
N
73 136.029 M
77.34 136.029 L
S
GR
GS
0.149 GC
2 setlinecap
1 LJ
0.5 LW
N
73 77.062 M
77.34 77.062 L
S
GR
GS
0.149 GC
2 setlinecap
1 LJ
0.5 LW
N
507 371.899 M
502.66 371.899 L
S
GR
GS
0.149 GC
2 setlinecap
1 LJ
0.5 LW
N
507 312.932 M
502.66 312.932 L
S
GR
GS
0.149 GC
2 setlinecap
1 LJ
0.5 LW
N
507 253.964 M
502.66 253.964 L
S
GR
GS
0.149 GC
2 setlinecap
1 LJ
0.5 LW
N
507 194.997 M
502.66 194.997 L
S
GR
GS
0.149 GC
2 setlinecap
1 LJ
0.5 LW
N
507 136.029 M
502.66 136.029 L
S
GR
GS
0.149 GC
2 setlinecap
1 LJ
0.5 LW
N
507 77.062 M
502.66 77.062 L
S
GR
GS
0.149 GC
2 setlinecap
1 LJ
0.5 LW
N
73 357.157 M
75.17 357.157 L
S
GR
GS
0.149 GC
2 setlinecap
1 LJ
0.5 LW
N
73 342.416 M
75.17 342.416 L
S
GR
GS
0.149 GC
2 setlinecap
1 LJ
0.5 LW
N
73 327.674 M
75.17 327.674 L
S
GR
GS
0.149 GC
2 setlinecap
1 LJ
0.5 LW
N
73 298.19 M
75.17 298.19 L
S
GR
GS
0.149 GC
2 setlinecap
1 LJ
0.5 LW
N
73 283.448 M
75.17 283.448 L
S
GR
GS
0.149 GC
2 setlinecap
1 LJ
0.5 LW
N
73 268.706 M
75.17 268.706 L
S
GR
GS
0.149 GC
2 setlinecap
1 LJ
0.5 LW
N
73 239.222 M
75.17 239.222 L
S
GR
GS
0.149 GC
2 setlinecap
1 LJ
0.5 LW
N
73 224.48 M
75.17 224.48 L
S
GR
GS
0.149 GC
2 setlinecap
1 LJ
0.5 LW
N
73 209.739 M
75.17 209.739 L
S
GR
GS
0.149 GC
2 setlinecap
1 LJ
0.5 LW
N
73 180.255 M
75.17 180.255 L
S
GR
GS
0.149 GC
2 setlinecap
1 LJ
0.5 LW
N
73 165.513 M
75.17 165.513 L
S
GR
GS
0.149 GC
2 setlinecap
1 LJ
0.5 LW
N
73 150.771 M
75.17 150.771 L
S
GR
GS
0.149 GC
2 setlinecap
1 LJ
0.5 LW
N
73 121.287 M
75.17 121.287 L
S
GR
GS
0.149 GC
2 setlinecap
1 LJ
0.5 LW
N
73 106.545 M
75.17 106.545 L
S
GR
GS
0.149 GC
2 setlinecap
1 LJ
0.5 LW
N
73 91.804 M
75.17 91.804 L
S
GR
GS
0.149 GC
2 setlinecap
1 LJ
0.5 LW
N
73 62.32 M
75.17 62.32 L
S
GR
GS
0.149 GC
2 setlinecap
1 LJ
0.5 LW
N
73 47.578 M
75.17 47.578 L
S
GR
GS
0.149 GC
2 setlinecap
1 LJ
0.5 LW
N
73 32.836 M
75.17 32.836 L
S
GR
GS
0.149 GC
2 setlinecap
1 LJ
0.5 LW
N
507 357.157 M
504.83 357.157 L
S
GR
GS
0.149 GC
2 setlinecap
1 LJ
0.5 LW
N
507 342.416 M
504.83 342.416 L
S
GR
GS
0.149 GC
2 setlinecap
1 LJ
0.5 LW
N
507 327.674 M
504.83 327.674 L
S
GR
GS
0.149 GC
2 setlinecap
1 LJ
0.5 LW
N
507 298.19 M
504.83 298.19 L
S
GR
GS
0.149 GC
2 setlinecap
1 LJ
0.5 LW
N
507 283.448 M
504.83 283.448 L
S
GR
GS
0.149 GC
2 setlinecap
1 LJ
0.5 LW
N
507 268.706 M
504.83 268.706 L
S
GR
GS
0.149 GC
2 setlinecap
1 LJ
0.5 LW
N
507 239.222 M
504.83 239.222 L
S
GR
GS
0.149 GC
2 setlinecap
1 LJ
0.5 LW
N
507 224.48 M
504.83 224.48 L
S
GR
GS
0.149 GC
2 setlinecap
1 LJ
0.5 LW
N
507 209.739 M
504.83 209.739 L
S
GR
GS
0.149 GC
2 setlinecap
1 LJ
0.5 LW
N
507 180.255 M
504.83 180.255 L
S
GR
GS
0.149 GC
2 setlinecap
1 LJ
0.5 LW
N
507 165.513 M
504.83 165.513 L
S
GR
GS
0.149 GC
2 setlinecap
1 LJ
0.5 LW
N
507 150.771 M
504.83 150.771 L
S
GR
GS
0.149 GC
2 setlinecap
1 LJ
0.5 LW
N
507 121.287 M
504.83 121.287 L
S
GR
GS
0.149 GC
2 setlinecap
1 LJ
0.5 LW
N
507 106.545 M
504.83 106.545 L
S
GR
GS
0.149 GC
2 setlinecap
1 LJ
0.5 LW
N
507 91.804 M
504.83 91.804 L
S
GR
GS
0.149 GC
2 setlinecap
1 LJ
0.5 LW
N
507 62.32 M
504.83 62.32 L
S
GR
GS
0.149 GC
2 setlinecap
1 LJ
0.5 LW
N
507 47.578 M
504.83 47.578 L
S
GR
GS
0.149 GC
2 setlinecap
1 LJ
0.5 LW
N
507 32.836 M
504.83 32.836 L
S
GR
GS
[1 0 0 1 68.2 371.89932] CT
0.149 GC
/Helvetica 14 F
GS
[1 0 0 1 0 0] CT
-16 5.5 moveto 
1 -1 scale
(28) t 
GR
GR
GS
[1 0 0 1 68.2 312.93179] CT
0.149 GC
/Helvetica 14 F
GS
[1 0 0 1 0 0] CT
-16 5.5 moveto 
1 -1 scale
(30) t 
GR
GR
GS
[1 0 0 1 68.2 253.96426] CT
0.149 GC
/Helvetica 14 F
GS
[1 0 0 1 0 0] CT
-16 5.5 moveto 
1 -1 scale
(32) t 
GR
GR
GS
[1 0 0 1 68.2 194.99675] CT
0.149 GC
/Helvetica 14 F
GS
[1 0 0 1 0 0] CT
-16 5.5 moveto 
1 -1 scale
(34) t 
GR
GR
GS
[1 0 0 1 68.2 136.02922] CT
0.149 GC
/Helvetica 14 F
GS
[1 0 0 1 0 0] CT
-16 5.5 moveto 
1 -1 scale
(36) t 
GR
GR
GS
[1 0 0 1 68.2 77.0617] CT
0.149 GC
/Helvetica 14 F
GS
[1 0 0 1 0 0] CT
-16 5.5 moveto 
1 -1 scale
(38) t 
GR
GR
GS
[0 -1 1 0 49.2 202.74986] CT
0.149 GC
/Helvetica 15.4 F
GS
[1 0 0 1 0 0] CT
-44 -4 moveto 
1 -1 scale
(PSNR Y \(dB\)) t 
GR
GR
GS
[1 0 0 1 290.00027 29.57505] CT
/Helvetica-Bold 15.4 F
GS
[1 0 0 1 0 0] CT
-126.5 -4 moveto 
1 -1 scale
(Riverbed_1920x1080p25.y4m-hevc) t 
GR
GR
GS
0 0.447 0.741 RC
[1 3] 0 setdash
2 LJ
0.5 LW
N
490.305 35.542 M
254.083 134.921 L
153.516 219.412 L
101.432 297.413 L
74.725 370.254 L
S
GR
GS
0.851 0.325 0.098 RC
1 LJ
0.5 LW
N
495.05 34.456 M
256.381 133.553 L
154.897 217.885 L
102.196 295.823 L
75.141 368.598 L
S
GR
GS
0.929 0.694 0.125 RC
1 LJ
0.5 LW
N
474.748 37.305 M
246.524 136.94 L
149.282 221.778 L
98.699 300.536 L
73 374 L
S
GR
GS
0.494 0.184 0.557 RC
1 LJ
0.5 LW
N
507 31.5 M
262.415 129.809 L
158.501 213.933 L
104.228 291.654 L
76.247 364.073 L
S
GR
GS
0.467 0.675 0.188 RC
[10 6] 0 setdash
2 LJ
0.5 LW
N
491.737 35.169 M
254.711 134.556 L
153.955 218.914 L
101.606 297.038 L
74.8 369.935 L
S
GR
GS
0.302 0.745 0.933 RC
[10 6] 0 setdash
2 LJ
0.5 LW
N
486.299 36.078 M
251.95 135.471 L
152.344 220.025 L
100.69 298.233 L
74.243 371.163 L
S
GR
GS
0.635 0.078 0.184 RC
[10 6] 0 setdash
2 LJ
0.5 LW
N
501.088 32.759 M
259.097 131.693 L
156.286 216.289 L
102.752 294.703 L
75.342 367.884 L
S
GR
GS
1 GC
N
499 366 M
499 250.5 L
344.5 250.5 L
344.5 366 L
cp
f
GR
GS
[1 0 0 1 381.5 260.25] CT
/Helvetica 13 F
GS
[1 0 0 1 0 0] CT
0 5 moveto 
1 -1 scale
(Base Run) t 
GR
GR
GS
0 0.447 0.741 RC
[1 3] 0 setdash
2 LJ
0.5 LW
N
348.5 260.25 M
378.5 260.25 L
S
GR
GS
[1 0 0 1 381.5 276.25] CT
/Helvetica 13 F
GS
[1 0 0 1 0 0] CT
0 5 moveto 
1 -1 scale
(I & B Frames) t 
GR
GR
GS
0.851 0.325 0.098 RC
1 LJ
0.5 LW
N
348.5 276.25 M
378.5 276.25 L
S
GR
GS
[1 0 0 1 381.5 292.25] CT
/Helvetica 13 F
GS
[1 0 0 1 0 0] CT
0 5 moveto 
1 -1 scale
(I Frames Only) t 
GR
GR
GS
0.929 0.694 0.125 RC
1 LJ
0.5 LW
N
348.5 292.25 M
378.5 292.25 L
S
GR
GS
[1 0 0 1 381.5 308.25] CT
/Helvetica 13 F
GS
[1 0 0 1 0 0] CT
0 5 moveto 
1 -1 scale
(B Frames Only) t 
GR
GR
GS
0.494 0.184 0.557 RC
1 LJ
0.5 LW
N
348.5 308.25 M
378.5 308.25 L
S
GR
GS
[1 0 0 1 381.5 324.25] CT
/Helvetica 13 F
GS
[1 0 0 1 0 0] CT
0 5 moveto 
1 -1 scale
(Part I & B Frames) t 
GR
GR
GS
0.467 0.675 0.188 RC
[10 6] 0 setdash
2 LJ
0.5 LW
N
348.5 324.25 M
378.5 324.25 L
S
GR
GS
[1 0 0 1 381.5 340.25] CT
/Helvetica 13 F
GS
[1 0 0 1 0 0] CT
0 5 moveto 
1 -1 scale
(Part I Frames Only) t 
GR
GR
GS
0.302 0.745 0.933 RC
[10 6] 0 setdash
2 LJ
0.5 LW
N
348.5 340.25 M
378.5 340.25 L
S
GR
GS
[1 0 0 1 381.5 356.25] CT
/Helvetica 13 F
GS
[1 0 0 1 0 0] CT
0 5 moveto 
1 -1 scale
(Part B Frames Only) t 
GR
GR
GS
0.635 0.078 0.184 RC
[10 6] 0 setdash
2 LJ
0.5 LW
N
348.5 356.25 M
378.5 356.25 L
S
GR
GS
0.149 GC
10.0 ML
0.5 LW
N
344.5 366 M
344.5 250.5 L
499 250.5 L
499 366 L
cp
S
GR
%%Trailer
%%Pages: 1
%%EOF
