%!PS-Adobe-3.0 EPSF-3.0
%%Creator: (MATLAB, The Mathworks, Inc. Version 9.11.0.1837725 \(R2021b\) Update 2. Operating System: Mac OS X)
%%Title: plots/rd/MusicVideo_1080P-04b6.y4m-av1-SSIM.eps
%%CreationDate: 2022-02-04T14:44:37
%%Pages: (atend)
%%BoundingBox:    33   425   508   826
%%LanguageLevel: 3
%%EndComments
%%BeginProlog
%%BeginResource: procset (Apache XML Graphics Std ProcSet) 1.2 0
%%Version: 1.2 0
%%Copyright: (Copyright 2001-2003,2010 The Apache Software Foundation. License terms: http://www.apache.org/licenses/LICENSE-2.0)
/bd{bind def}bind def
/ld{load def}bd
/GR/grestore ld
/GS/gsave ld
/RM/rmoveto ld
/C/curveto ld
/t/show ld
/L/lineto ld
/ML/setmiterlimit ld
/CT/concat ld
/f/fill ld
/N/newpath ld
/S/stroke ld
/CC/setcmykcolor ld
/A/ashow ld
/cp/closepath ld
/RC/setrgbcolor ld
/LJ/setlinejoin ld
/GC/setgray ld
/LW/setlinewidth ld
/M/moveto ld
/re {4 2 roll M
1 index 0 rlineto
0 exch rlineto
neg 0 rlineto
cp } bd
/_ctm matrix def
/_tm matrix def
/BT { _ctm currentmatrix pop matrix _tm copy pop 0 0 moveto } bd
/ET { _ctm setmatrix } bd
/iTm { _ctm setmatrix _tm concat } bd
/Tm { _tm astore pop iTm 0 0 moveto } bd
/ux 0.0 def
/uy 0.0 def
/F {
  /Tp exch def
  /Tf exch def
  Tf findfont Tp scalefont setfont
  /cf Tf def  /cs Tp def
} bd
/ULS {currentpoint /uy exch def /ux exch def} bd
/ULE {
  /Tcx currentpoint pop def
  gsave
  newpath
  cf findfont cs scalefont dup
  /FontMatrix get 0 get /Ts exch def /FontInfo get dup
  /UnderlinePosition get Ts mul /To exch def
  /UnderlineThickness get Ts mul /Tt exch def
  ux uy To add moveto  Tcx uy To add lineto
  Tt setlinewidth stroke
  grestore
} bd
/OLE {
  /Tcx currentpoint pop def
  gsave
  newpath
  cf findfont cs scalefont dup
  /FontMatrix get 0 get /Ts exch def /FontInfo get dup
  /UnderlinePosition get Ts mul /To exch def
  /UnderlineThickness get Ts mul /Tt exch def
  ux uy To add cs add moveto Tcx uy To add cs add lineto
  Tt setlinewidth stroke
  grestore
} bd
/SOE {
  /Tcx currentpoint pop def
  gsave
  newpath
  cf findfont cs scalefont dup
  /FontMatrix get 0 get /Ts exch def /FontInfo get dup
  /UnderlinePosition get Ts mul /To exch def
  /UnderlineThickness get Ts mul /Tt exch def
  ux uy To add cs 10 mul 26 idiv add moveto Tcx uy To add cs 10 mul 26 idiv add lineto
  Tt setlinewidth stroke
  grestore
} bd
/QT {
/Y22 exch store
/X22 exch store
/Y21 exch store
/X21 exch store
currentpoint
/Y21 load 2 mul add 3 div exch
/X21 load 2 mul add 3 div exch
/X21 load 2 mul /X22 load add 3 div
/Y21 load 2 mul /Y22 load add 3 div
/X22 load /Y22 load curveto
} bd
/SSPD {
dup length /d exch dict def
{
/v exch def
/k exch def
currentpagedevice k known {
/cpdv currentpagedevice k get def
v cpdv ne {
/upd false def
/nullv v type /nulltype eq def
/nullcpdv cpdv type /nulltype eq def
nullv nullcpdv or
{
/upd true def
} {
/sametype v type cpdv type eq def
sametype {
v type /arraytype eq {
/vlen v length def
/cpdvlen cpdv length def
vlen cpdvlen eq {
0 1 vlen 1 sub {
/i exch def
/obj v i get def
/cpdobj cpdv i get def
obj cpdobj ne {
/upd true def
exit
} if
} for
} {
/upd true def
} ifelse
} {
v type /dicttype eq {
v {
/dv exch def
/dk exch def
/cpddv cpdv dk get def
dv cpddv ne {
/upd true def
exit
} if
} forall
} {
/upd true def
} ifelse
} ifelse
} if
} ifelse
upd true eq {
d k v put
} if
} if
} if
} forall
d length 0 gt {
d setpagedevice
} if
} bd
/RE { % /NewFontName [NewEncodingArray] /FontName RE -
  findfont dup length dict begin
  {
    1 index /FID ne
    {def} {pop pop} ifelse
  } forall
  /Encoding exch def
  /FontName 1 index def
  currentdict definefont pop
  end
} bind def
%%EndResource
%%BeginResource: procset (Apache XML Graphics EPS ProcSet) 1.0 0
%%Version: 1.0 0
%%Copyright: (Copyright 2002-2003 The Apache Software Foundation. License terms: http://www.apache.org/licenses/LICENSE-2.0)
/BeginEPSF { %def
/b4_Inc_state save def         % Save state for cleanup
/dict_count countdictstack def % Count objects on dict stack
/op_count count 1 sub def      % Count objects on operand stack
userdict begin                 % Push userdict on dict stack
/showpage { } def              % Redefine showpage, { } = null proc
0 setgray 0 setlinecap         % Prepare graphics state
1 setlinewidth 0 setlinejoin
10 setmiterlimit [ ] 0 setdash newpath
/languagelevel where           % If level not equal to 1 then
{pop languagelevel             % set strokeadjust and
1 ne                           % overprint to their defaults.
{false setstrokeadjust false setoverprint
} if
} if
} bd
/EndEPSF { %def
count op_count sub {pop} repeat            % Clean up stacks
countdictstack dict_count sub {end} repeat
b4_Inc_state restore
} bd
%%EndResource
%FOPBeginFontDict
%%IncludeResource: font Courier-Oblique
%%IncludeResource: font Courier-BoldOblique
%%IncludeResource: font Courier-Bold
%%IncludeResource: font ZapfDingbats
%%IncludeResource: font Symbol
%%IncludeResource: font Helvetica
%%IncludeResource: font Helvetica-Oblique
%%IncludeResource: font Helvetica-Bold
%%IncludeResource: font Helvetica-BoldOblique
%%IncludeResource: font Times-Roman
%%IncludeResource: font Times-Italic
%%IncludeResource: font Times-Bold
%%IncludeResource: font Times-BoldItalic
%%IncludeResource: font Courier
%FOPEndFontDict
%%BeginResource: encoding WinAnsiEncoding
/WinAnsiEncoding [
/.notdef /.notdef /.notdef /.notdef /.notdef
/.notdef /.notdef /.notdef /.notdef /.notdef
/.notdef /.notdef /.notdef /.notdef /.notdef
/.notdef /.notdef /.notdef /.notdef /.notdef
/.notdef /.notdef /.notdef /.notdef /.notdef
/.notdef /.notdef /.notdef /.notdef /.notdef
/.notdef /.notdef /space /exclam /quotedbl
/numbersign /dollar /percent /ampersand /quotesingle
/parenleft /parenright /asterisk /plus /comma
/hyphen /period /slash /zero /one
/two /three /four /five /six
/seven /eight /nine /colon /semicolon
/less /equal /greater /question /at
/A /B /C /D /E
/F /G /H /I /J
/K /L /M /N /O
/P /Q /R /S /T
/U /V /W /X /Y
/Z /bracketleft /backslash /bracketright /asciicircum
/underscore /quoteleft /a /b /c
/d /e /f /g /h
/i /j /k /l /m
/n /o /p /q /r
/s /t /u /v /w
/x /y /z /braceleft /bar
/braceright /asciitilde /bullet /Euro /bullet
/quotesinglbase /florin /quotedblbase /ellipsis /dagger
/daggerdbl /circumflex /perthousand /Scaron /guilsinglleft
/OE /bullet /Zcaron /bullet /bullet
/quoteleft /quoteright /quotedblleft /quotedblright /bullet
/endash /emdash /asciitilde /trademark /scaron
/guilsinglright /oe /bullet /zcaron /Ydieresis
/space /exclamdown /cent /sterling /currency
/yen /brokenbar /section /dieresis /copyright
/ordfeminine /guillemotleft /logicalnot /sfthyphen /registered
/macron /degree /plusminus /twosuperior /threesuperior
/acute /mu /paragraph /middot /cedilla
/onesuperior /ordmasculine /guillemotright /onequarter /onehalf
/threequarters /questiondown /Agrave /Aacute /Acircumflex
/Atilde /Adieresis /Aring /AE /Ccedilla
/Egrave /Eacute /Ecircumflex /Edieresis /Igrave
/Iacute /Icircumflex /Idieresis /Eth /Ntilde
/Ograve /Oacute /Ocircumflex /Otilde /Odieresis
/multiply /Oslash /Ugrave /Uacute /Ucircumflex
/Udieresis /Yacute /Thorn /germandbls /agrave
/aacute /acircumflex /atilde /adieresis /aring
/ae /ccedilla /egrave /eacute /ecircumflex
/edieresis /igrave /iacute /icircumflex /idieresis
/eth /ntilde /ograve /oacute /ocircumflex
/otilde /odieresis /divide /oslash /ugrave
/uacute /ucircumflex /udieresis /yacute /thorn
/ydieresis
] def
%%EndResource
%FOPBeginFontReencode
/Courier-Oblique findfont
dup length dict begin
  {1 index /FID ne {def} {pop pop} ifelse} forall
  /Encoding WinAnsiEncoding def
  currentdict
end
/Courier-Oblique exch definefont pop
/Courier-BoldOblique findfont
dup length dict begin
  {1 index /FID ne {def} {pop pop} ifelse} forall
  /Encoding WinAnsiEncoding def
  currentdict
end
/Courier-BoldOblique exch definefont pop
/Courier-Bold findfont
dup length dict begin
  {1 index /FID ne {def} {pop pop} ifelse} forall
  /Encoding WinAnsiEncoding def
  currentdict
end
/Courier-Bold exch definefont pop
/Helvetica findfont
dup length dict begin
  {1 index /FID ne {def} {pop pop} ifelse} forall
  /Encoding WinAnsiEncoding def
  currentdict
end
/Helvetica exch definefont pop
/Helvetica-Oblique findfont
dup length dict begin
  {1 index /FID ne {def} {pop pop} ifelse} forall
  /Encoding WinAnsiEncoding def
  currentdict
end
/Helvetica-Oblique exch definefont pop
/Helvetica-Bold findfont
dup length dict begin
  {1 index /FID ne {def} {pop pop} ifelse} forall
  /Encoding WinAnsiEncoding def
  currentdict
end
/Helvetica-Bold exch definefont pop
/Helvetica-BoldOblique findfont
dup length dict begin
  {1 index /FID ne {def} {pop pop} ifelse} forall
  /Encoding WinAnsiEncoding def
  currentdict
end
/Helvetica-BoldOblique exch definefont pop
/Times-Roman findfont
dup length dict begin
  {1 index /FID ne {def} {pop pop} ifelse} forall
  /Encoding WinAnsiEncoding def
  currentdict
end
/Times-Roman exch definefont pop
/Times-Italic findfont
dup length dict begin
  {1 index /FID ne {def} {pop pop} ifelse} forall
  /Encoding WinAnsiEncoding def
  currentdict
end
/Times-Italic exch definefont pop
/Times-Bold findfont
dup length dict begin
  {1 index /FID ne {def} {pop pop} ifelse} forall
  /Encoding WinAnsiEncoding def
  currentdict
end
/Times-Bold exch definefont pop
/Times-BoldItalic findfont
dup length dict begin
  {1 index /FID ne {def} {pop pop} ifelse} forall
  /Encoding WinAnsiEncoding def
  currentdict
end
/Times-BoldItalic exch definefont pop
/Courier findfont
dup length dict begin
  {1 index /FID ne {def} {pop pop} ifelse} forall
  /Encoding WinAnsiEncoding def
  currentdict
end
/Courier exch definefont pop
%FOPEndFontReencode
%%EndProlog
%%Page: 1 1
%%PageBoundingBox: 0 0 1120 840
%%BeginPageSetup
[1 0 0 -1 0 840] CT
%%EndPageSetup
GS
1 GC
N
0 0 1120 840 re
f
GR
GS
1 GC
N
73 374 M
507 374 L
507 31.5 L
73 31.5 L
cp
f
GR
GS
0.149 GC
2 setlinecap
1 LJ
0.5 LW
N
73 374 M
507 374 L
S
GR
GS
0.149 GC
2 setlinecap
1 LJ
0.5 LW
N
73 31.5 M
507 31.5 L
S
GR
GS
0.149 GC
2 setlinecap
1 LJ
0.5 LW
N
140.052 374 M
140.052 369.66 L
S
GR
GS
0.149 GC
2 setlinecap
1 LJ
0.5 LW
N
227.409 374 M
227.409 369.66 L
S
GR
GS
0.149 GC
2 setlinecap
1 LJ
0.5 LW
N
314.767 374 M
314.767 369.66 L
S
GR
GS
0.149 GC
2 setlinecap
1 LJ
0.5 LW
N
402.125 374 M
402.125 369.66 L
S
GR
GS
0.149 GC
2 setlinecap
1 LJ
0.5 LW
N
489.482 374 M
489.482 369.66 L
S
GR
GS
0.149 GC
2 setlinecap
1 LJ
0.5 LW
N
140.052 31.5 M
140.052 35.84 L
S
GR
GS
0.149 GC
2 setlinecap
1 LJ
0.5 LW
N
227.409 31.5 M
227.409 35.84 L
S
GR
GS
0.149 GC
2 setlinecap
1 LJ
0.5 LW
N
314.767 31.5 M
314.767 35.84 L
S
GR
GS
0.149 GC
2 setlinecap
1 LJ
0.5 LW
N
402.125 31.5 M
402.125 35.84 L
S
GR
GS
0.149 GC
2 setlinecap
1 LJ
0.5 LW
N
489.482 31.5 M
489.482 35.84 L
S
GR
GS
0.149 GC
2 setlinecap
1 LJ
0.5 LW
N
87.637 374 M
87.637 371.83 L
S
GR
GS
0.149 GC
2 setlinecap
1 LJ
0.5 LW
N
105.109 374 M
105.109 371.83 L
S
GR
GS
0.149 GC
2 setlinecap
1 LJ
0.5 LW
N
122.58 374 M
122.58 371.83 L
S
GR
GS
0.149 GC
2 setlinecap
1 LJ
0.5 LW
N
157.523 374 M
157.523 371.83 L
S
GR
GS
0.149 GC
2 setlinecap
1 LJ
0.5 LW
N
174.995 374 M
174.995 371.83 L
S
GR
GS
0.149 GC
2 setlinecap
1 LJ
0.5 LW
N
192.466 374 M
192.466 371.83 L
S
GR
GS
0.149 GC
2 setlinecap
1 LJ
0.5 LW
N
209.938 374 M
209.938 371.83 L
S
GR
GS
0.149 GC
2 setlinecap
1 LJ
0.5 LW
N
244.881 374 M
244.881 371.83 L
S
GR
GS
0.149 GC
2 setlinecap
1 LJ
0.5 LW
N
262.352 374 M
262.352 371.83 L
S
GR
GS
0.149 GC
2 setlinecap
1 LJ
0.5 LW
N
279.824 374 M
279.824 371.83 L
S
GR
GS
0.149 GC
2 setlinecap
1 LJ
0.5 LW
N
297.295 374 M
297.295 371.83 L
S
GR
GS
0.149 GC
2 setlinecap
1 LJ
0.5 LW
N
332.238 374 M
332.238 371.83 L
S
GR
GS
0.149 GC
2 setlinecap
1 LJ
0.5 LW
N
349.71 374 M
349.71 371.83 L
S
GR
GS
0.149 GC
2 setlinecap
1 LJ
0.5 LW
N
367.182 374 M
367.182 371.83 L
S
GR
GS
0.149 GC
2 setlinecap
1 LJ
0.5 LW
N
384.653 374 M
384.653 371.83 L
S
GR
GS
0.149 GC
2 setlinecap
1 LJ
0.5 LW
N
419.596 374 M
419.596 371.83 L
S
GR
GS
0.149 GC
2 setlinecap
1 LJ
0.5 LW
N
437.068 374 M
437.068 371.83 L
S
GR
GS
0.149 GC
2 setlinecap
1 LJ
0.5 LW
N
454.539 374 M
454.539 371.83 L
S
GR
GS
0.149 GC
2 setlinecap
1 LJ
0.5 LW
N
472.011 374 M
472.011 371.83 L
S
GR
GS
0.149 GC
2 setlinecap
1 LJ
0.5 LW
N
506.954 374 M
506.954 371.83 L
S
GR
GS
0.149 GC
2 setlinecap
1 LJ
0.5 LW
N
87.637 31.5 M
87.637 33.67 L
S
GR
GS
0.149 GC
2 setlinecap
1 LJ
0.5 LW
N
105.109 31.5 M
105.109 33.67 L
S
GR
GS
0.149 GC
2 setlinecap
1 LJ
0.5 LW
N
122.58 31.5 M
122.58 33.67 L
S
GR
GS
0.149 GC
2 setlinecap
1 LJ
0.5 LW
N
157.523 31.5 M
157.523 33.67 L
S
GR
GS
0.149 GC
2 setlinecap
1 LJ
0.5 LW
N
174.995 31.5 M
174.995 33.67 L
S
GR
GS
0.149 GC
2 setlinecap
1 LJ
0.5 LW
N
192.466 31.5 M
192.466 33.67 L
S
GR
GS
0.149 GC
2 setlinecap
1 LJ
0.5 LW
N
209.938 31.5 M
209.938 33.67 L
S
GR
GS
0.149 GC
2 setlinecap
1 LJ
0.5 LW
N
244.881 31.5 M
244.881 33.67 L
S
GR
GS
0.149 GC
2 setlinecap
1 LJ
0.5 LW
N
262.352 31.5 M
262.352 33.67 L
S
GR
GS
0.149 GC
2 setlinecap
1 LJ
0.5 LW
N
279.824 31.5 M
279.824 33.67 L
S
GR
GS
0.149 GC
2 setlinecap
1 LJ
0.5 LW
N
297.295 31.5 M
297.295 33.67 L
S
GR
GS
0.149 GC
2 setlinecap
1 LJ
0.5 LW
N
332.238 31.5 M
332.238 33.67 L
S
GR
GS
0.149 GC
2 setlinecap
1 LJ
0.5 LW
N
349.71 31.5 M
349.71 33.67 L
S
GR
GS
0.149 GC
2 setlinecap
1 LJ
0.5 LW
N
367.182 31.5 M
367.182 33.67 L
S
GR
GS
0.149 GC
2 setlinecap
1 LJ
0.5 LW
N
384.653 31.5 M
384.653 33.67 L
S
GR
GS
0.149 GC
2 setlinecap
1 LJ
0.5 LW
N
419.596 31.5 M
419.596 33.67 L
S
GR
GS
0.149 GC
2 setlinecap
1 LJ
0.5 LW
N
437.068 31.5 M
437.068 33.67 L
S
GR
GS
0.149 GC
2 setlinecap
1 LJ
0.5 LW
N
454.539 31.5 M
454.539 33.67 L
S
GR
GS
0.149 GC
2 setlinecap
1 LJ
0.5 LW
N
472.011 31.5 M
472.011 33.67 L
S
GR
GS
0.149 GC
2 setlinecap
1 LJ
0.5 LW
N
506.954 31.5 M
506.954 33.67 L
S
GR
GS
[1 0 0 1 140.05185 378.80002] CT
0.149 GC
/Helvetica 14 F
GS
[1 0 0 1 0 0] CT
-10 14 moveto 
1 -1 scale
(0.5) t 
GR
GR
GS
[1 0 0 1 227.40941 378.80002] CT
0.149 GC
/Helvetica 14 F
GS
[1 0 0 1 0 0] CT
-4 14 moveto 
1 -1 scale
(1) t 
GR
GR
GS
[1 0 0 1 314.76697 378.80002] CT
0.149 GC
/Helvetica 14 F
GS
[1 0 0 1 0 0] CT
-10 14 moveto 
1 -1 scale
(1.5) t 
GR
GR
GS
[1 0 0 1 402.12454 378.80002] CT
0.149 GC
/Helvetica 14 F
GS
[1 0 0 1 0 0] CT
-4 14 moveto 
1 -1 scale
(2) t 
GR
GR
GS
[1 0 0 1 489.48212 378.80002] CT
0.149 GC
/Helvetica 14 F
GS
[1 0 0 1 0 0] CT
-10 14 moveto 
1 -1 scale
(2.5) t 
GR
GR
GS
[1 0 0 1 290.00021 396.29999] CT
0.149 GC
/Helvetica 15.4 F
GS
[1 0 0 1 0 0] CT
-42 15 moveto 
1 -1 scale
(Bitrate\(kb/s\)) t 
GR
GR
GS
[1 0 0 1 473 414] CT
0.149 GC
N
2.063 -0.406 M
2.063 -0.516 2.125 -0.609 QT
5.031 -3.5 L
2.125 -6.406 L
2.063 -6.484 2.063 -6.594 QT
2.063 -6.703 2.141 -6.789 QT
2.219 -6.875 2.344 -6.875 QT
2.438 -6.875 2.547 -6.781 QT
5.453 -3.891 L
8.328 -6.781 L
8.453 -6.875 8.531 -6.875 QT
8.656 -6.875 8.734 -6.797 QT
8.813 -6.719 8.813 -6.594 QT
8.813 -6.484 8.75 -6.406 QT
5.844 -3.5 L
8.75 -0.609 L
8.813 -0.516 8.813 -0.406 QT
8.813 -0.281 8.734 -0.203 QT
8.656 -0.125 8.531 -0.125 QT
8.438 -0.125 8.328 -0.219 QT
5.453 -3.109 L
2.547 -0.219 L
2.453 -0.125 2.344 -0.125 QT
2.219 -0.125 2.141 -0.211 QT
2.063 -0.297 2.063 -0.406 QT
cp
f
GR
GS
[1 0 0 1 484 414] CT
0.149 GC
/Helvetica 14 F
GS
[1 0 0 1 0 0] CT
0 0 moveto 
1 -1 scale
(10) t 
GR
GR
GS
[1 0 0 1 500 407] CT
0.149 GC
/Helvetica 11.2 F
GS
[1 0 0 1 0 0] CT
0 0 moveto 
1 -1 scale
(4) t 
GR
GR
GS
0.149 GC
2 setlinecap
1 LJ
0.5 LW
N
73 374 M
73 31.5 L
S
GR
GS
0.149 GC
2 setlinecap
1 LJ
0.5 LW
N
507 374 M
507 31.5 L
S
GR
GS
0.149 GC
2 setlinecap
1 LJ
0.5 LW
N
73 339.561 M
77.34 339.561 L
S
GR
GS
0.149 GC
2 setlinecap
1 LJ
0.5 LW
N
73 281.951 M
77.34 281.951 L
S
GR
GS
0.149 GC
2 setlinecap
1 LJ
0.5 LW
N
73 224.342 M
77.34 224.342 L
S
GR
GS
0.149 GC
2 setlinecap
1 LJ
0.5 LW
N
73 166.732 M
77.34 166.732 L
S
GR
GS
0.149 GC
2 setlinecap
1 LJ
0.5 LW
N
73 109.122 M
77.34 109.122 L
S
GR
GS
0.149 GC
2 setlinecap
1 LJ
0.5 LW
N
73 51.512 M
77.34 51.512 L
S
GR
GS
0.149 GC
2 setlinecap
1 LJ
0.5 LW
N
507 339.561 M
502.66 339.561 L
S
GR
GS
0.149 GC
2 setlinecap
1 LJ
0.5 LW
N
507 281.951 M
502.66 281.951 L
S
GR
GS
0.149 GC
2 setlinecap
1 LJ
0.5 LW
N
507 224.342 M
502.66 224.342 L
S
GR
GS
0.149 GC
2 setlinecap
1 LJ
0.5 LW
N
507 166.732 M
502.66 166.732 L
S
GR
GS
0.149 GC
2 setlinecap
1 LJ
0.5 LW
N
507 109.122 M
502.66 109.122 L
S
GR
GS
0.149 GC
2 setlinecap
1 LJ
0.5 LW
N
507 51.512 M
502.66 51.512 L
S
GR
GS
0.149 GC
2 setlinecap
1 LJ
0.5 LW
N
73 368.366 M
75.17 368.366 L
S
GR
GS
0.149 GC
2 setlinecap
1 LJ
0.5 LW
N
73 353.964 M
75.17 353.964 L
S
GR
GS
0.149 GC
2 setlinecap
1 LJ
0.5 LW
N
73 325.159 M
75.17 325.159 L
S
GR
GS
0.149 GC
2 setlinecap
1 LJ
0.5 LW
N
73 310.756 M
75.17 310.756 L
S
GR
GS
0.149 GC
2 setlinecap
1 LJ
0.5 LW
N
73 296.354 M
75.17 296.354 L
S
GR
GS
0.149 GC
2 setlinecap
1 LJ
0.5 LW
N
73 267.549 M
75.17 267.549 L
S
GR
GS
0.149 GC
2 setlinecap
1 LJ
0.5 LW
N
73 253.146 M
75.17 253.146 L
S
GR
GS
0.149 GC
2 setlinecap
1 LJ
0.5 LW
N
73 238.744 M
75.17 238.744 L
S
GR
GS
0.149 GC
2 setlinecap
1 LJ
0.5 LW
N
73 209.939 M
75.17 209.939 L
S
GR
GS
0.149 GC
2 setlinecap
1 LJ
0.5 LW
N
73 195.537 M
75.17 195.537 L
S
GR
GS
0.149 GC
2 setlinecap
1 LJ
0.5 LW
N
73 181.134 M
75.17 181.134 L
S
GR
GS
0.149 GC
2 setlinecap
1 LJ
0.5 LW
N
73 152.329 M
75.17 152.329 L
S
GR
GS
0.149 GC
2 setlinecap
1 LJ
0.5 LW
N
73 137.927 M
75.17 137.927 L
S
GR
GS
0.149 GC
2 setlinecap
1 LJ
0.5 LW
N
73 123.524 M
75.17 123.524 L
S
GR
GS
0.149 GC
2 setlinecap
1 LJ
0.5 LW
N
73 94.72 M
75.17 94.72 L
S
GR
GS
0.149 GC
2 setlinecap
1 LJ
0.5 LW
N
73 80.317 M
75.17 80.317 L
S
GR
GS
0.149 GC
2 setlinecap
1 LJ
0.5 LW
N
73 65.915 M
75.17 65.915 L
S
GR
GS
0.149 GC
2 setlinecap
1 LJ
0.5 LW
N
73 37.11 M
75.17 37.11 L
S
GR
GS
0.149 GC
2 setlinecap
1 LJ
0.5 LW
N
507 368.366 M
504.83 368.366 L
S
GR
GS
0.149 GC
2 setlinecap
1 LJ
0.5 LW
N
507 353.964 M
504.83 353.964 L
S
GR
GS
0.149 GC
2 setlinecap
1 LJ
0.5 LW
N
507 325.159 M
504.83 325.159 L
S
GR
GS
0.149 GC
2 setlinecap
1 LJ
0.5 LW
N
507 310.756 M
504.83 310.756 L
S
GR
GS
0.149 GC
2 setlinecap
1 LJ
0.5 LW
N
507 296.354 M
504.83 296.354 L
S
GR
GS
0.149 GC
2 setlinecap
1 LJ
0.5 LW
N
507 267.549 M
504.83 267.549 L
S
GR
GS
0.149 GC
2 setlinecap
1 LJ
0.5 LW
N
507 253.146 M
504.83 253.146 L
S
GR
GS
0.149 GC
2 setlinecap
1 LJ
0.5 LW
N
507 238.744 M
504.83 238.744 L
S
GR
GS
0.149 GC
2 setlinecap
1 LJ
0.5 LW
N
507 209.939 M
504.83 209.939 L
S
GR
GS
0.149 GC
2 setlinecap
1 LJ
0.5 LW
N
507 195.537 M
504.83 195.537 L
S
GR
GS
0.149 GC
2 setlinecap
1 LJ
0.5 LW
N
507 181.134 M
504.83 181.134 L
S
GR
GS
0.149 GC
2 setlinecap
1 LJ
0.5 LW
N
507 152.329 M
504.83 152.329 L
S
GR
GS
0.149 GC
2 setlinecap
1 LJ
0.5 LW
N
507 137.927 M
504.83 137.927 L
S
GR
GS
0.149 GC
2 setlinecap
1 LJ
0.5 LW
N
507 123.524 M
504.83 123.524 L
S
GR
GS
0.149 GC
2 setlinecap
1 LJ
0.5 LW
N
507 94.72 M
504.83 94.72 L
S
GR
GS
0.149 GC
2 setlinecap
1 LJ
0.5 LW
N
507 80.317 M
504.83 80.317 L
S
GR
GS
0.149 GC
2 setlinecap
1 LJ
0.5 LW
N
507 65.915 M
504.83 65.915 L
S
GR
GS
0.149 GC
2 setlinecap
1 LJ
0.5 LW
N
507 37.11 M
504.83 37.11 L
S
GR
GS
[1 0 0 1 68.2 339.5611] CT
0.149 GC
/Helvetica 14 F
GS
[1 0 0 1 0 0] CT
-16 5.5 moveto 
1 -1 scale
(30) t 
GR
GR
GS
[1 0 0 1 68.2 281.95132] CT
0.149 GC
/Helvetica 14 F
GS
[1 0 0 1 0 0] CT
-16 5.5 moveto 
1 -1 scale
(32) t 
GR
GR
GS
[1 0 0 1 68.2 224.34155] CT
0.149 GC
/Helvetica 14 F
GS
[1 0 0 1 0 0] CT
-16 5.5 moveto 
1 -1 scale
(34) t 
GR
GR
GS
[1 0 0 1 68.2 166.73178] CT
0.149 GC
/Helvetica 14 F
GS
[1 0 0 1 0 0] CT
-16 5.5 moveto 
1 -1 scale
(36) t 
GR
GR
GS
[1 0 0 1 68.2 109.12202] CT
0.149 GC
/Helvetica 14 F
GS
[1 0 0 1 0 0] CT
-16 5.5 moveto 
1 -1 scale
(38) t 
GR
GR
GS
[1 0 0 1 68.2 51.51225] CT
0.149 GC
/Helvetica 14 F
GS
[1 0 0 1 0 0] CT
-16 5.5 moveto 
1 -1 scale
(40) t 
GR
GR
GS
[0 -1 1 0 49.2 202.74986] CT
0.149 GC
/Helvetica 15.4 F
GS
[1 0 0 1 0 0] CT
-35 -4 moveto 
1 -1 scale
(SSIM \(dB\)) t 
GR
GR
GS
[1 0 0 1 290.00027 29.57499] CT
/Helvetica-Bold 15.4 F
GS
[1 0 0 1 0 0] CT
-123 -4 moveto 
1 -1 scale
(MusicVideo_1080P-04b6.y4m-av1) t 
GR
GR
GS
0 0.447 0.741 RC
[10 6] 0 setdash
2 LJ
0.5 LW
N
507 31.5 M
257.213 148.43 L
152.34 232.68 L
99.109 308.441 L
76.804 363.73 L
S
GR
GS
0.851 0.325 0.098 RC
1 LJ
0.5 LW
N
480.56 41.476 M
241.604 158.257 L
144.74 240.56 L
95.569 315.414 L
74.769 370.804 L
S
GR
GS
0.929 0.694 0.125 RC
1 LJ
0.5 LW
N
503.036 33.057 M
254.794 149.613 L
150.607 233.9 L
97.892 309.732 L
75.985 365.525 L
S
GR
GS
0.494 0.184 0.557 RC
1 LJ
0.5 LW
N
497.879 34.15 M
248.316 152.551 L
145.284 237.494 L
94.656 314.211 L
74.012 371.446 L
S
GR
GS
0.467 0.675 0.188 RC
1 LJ
0.5 LW
N
493.065 36.111 M
244.976 154.217 L
142.905 239.241 L
93.036 316.492 L
73 374 L
S
GR
GS
0.302 0.745 0.933 RC
[10 6] 0 setdash
2 LJ
0.5 LW
N
488.453 38.42 M
246.332 155.306 L
146.953 238.135 L
96.551 313.313 L
75.374 368.516 L
S
GR
GS
0.635 0.078 0.184 RC
[10 6] 0 setdash
2 LJ
0.5 LW
N
504.045 32.801 M
255.083 149.431 L
150.842 233.575 L
98.094 309.531 L
76.093 365.224 L
S
GR
GS
0 0.447 0.741 RC
[10 6] 0 setdash
2 LJ
0.5 LW
N
497.664 34.246 M
248.088 152.667 L
145.187 237.595 L
94.58 314.458 L
74.005 371.347 L
S
GR
GS
0.851 0.325 0.098 RC
[10 6] 0 setdash
2 LJ
0.5 LW
N
494.502 35.679 M
245.747 153.765 L
143.576 238.668 L
93.474 315.822 L
73.243 373.013 L
S
GR
GS
1 GC
N
499 366 M
499 218.5 L
327.5 218.5 L
327.5 366 L
cp
f
GR
GS
[1 0 0 1 364.5 228.25] CT
/Helvetica 13 F
GS
[1 0 0 1 0 0] CT
0 5 moveto 
1 -1 scale
(Base Run) t 
GR
GR
GS
0 0.447 0.741 RC
[10 6] 0 setdash
2 LJ
0.5 LW
N
331.5 228.25 M
361.5 228.25 L
S
GR
GS
[1 0 0 1 364.5 244.25] CT
/Helvetica 13 F
GS
[1 0 0 1 0 0] CT
0 5 moveto 
1 -1 scale
(All Frames) t 
GR
GR
GS
0.851 0.325 0.098 RC
1 LJ
0.5 LW
N
331.5 244.25 M
361.5 244.25 L
S
GR
GS
[1 0 0 1 364.5 260.25] CT
/Helvetica 13 F
GS
[1 0 0 1 0 0] CT
0 5 moveto 
1 -1 scale
(KF Only) t 
GR
GR
GS
0.929 0.694 0.125 RC
1 LJ
0.5 LW
N
331.5 260.25 M
361.5 260.25 L
S
GR
GS
[1 0 0 1 364.5 276.25] CT
/Helvetica 13 F
GS
[1 0 0 1 0 0] CT
0 5 moveto 
1 -1 scale
(GF, ARF Only) t 
GR
GR
GS
0.494 0.184 0.557 RC
1 LJ
0.5 LW
N
331.5 276.25 M
361.5 276.25 L
S
GR
GS
[1 0 0 1 364.5 292.25] CT
/Helvetica 13 F
GS
[1 0 0 1 0 0] CT
0 5 moveto 
1 -1 scale
(KF, GF, ARF Only) t 
GR
GR
GS
0.467 0.675 0.188 RC
1 LJ
0.5 LW
N
331.5 292.25 M
361.5 292.25 L
S
GR
GS
[1 0 0 1 364.5 308.25] CT
/Helvetica 13 F
GS
[1 0 0 1 0 0] CT
0 5 moveto 
1 -1 scale
(Part All Frames) t 
GR
GR
GS
0.302 0.745 0.933 RC
[10 6] 0 setdash
2 LJ
0.5 LW
N
331.5 308.25 M
361.5 308.25 L
S
GR
GS
[1 0 0 1 364.5 324.25] CT
/Helvetica 13 F
GS
[1 0 0 1 0 0] CT
0 5 moveto 
1 -1 scale
(Part KF Only) t 
GR
GR
GS
0.635 0.078 0.184 RC
[10 6] 0 setdash
2 LJ
0.5 LW
N
331.5 324.25 M
361.5 324.25 L
S
GR
GS
[1 0 0 1 364.5 340.25] CT
/Helvetica 13 F
GS
[1 0 0 1 0 0] CT
0 5 moveto 
1 -1 scale
(Part GF, ARF Only) t 
GR
GR
GS
0 0.447 0.741 RC
[10 6] 0 setdash
2 LJ
0.5 LW
N
331.5 340.25 M
361.5 340.25 L
S
GR
GS
[1 0 0 1 364.5 356.25] CT
/Helvetica 13 F
GS
[1 0 0 1 0 0] CT
0 5 moveto 
1 -1 scale
(Part KF, GF, ARF Only) t 
GR
GR
GS
0.851 0.325 0.098 RC
[10 6] 0 setdash
2 LJ
0.5 LW
N
331.5 356.25 M
361.5 356.25 L
S
GR
GS
0.149 GC
10.0 ML
0.5 LW
N
327.5 366 M
327.5 218.5 L
499 218.5 L
499 366 L
cp
S
GR
%%Trailer
%%Pages: 1
%%EOF
