%!PS-Adobe-3.0 EPSF-3.0
%%Creator: (MATLAB, The Mathworks, Inc. Version 9.11.0.1837725 \(R2021b\) Update 2. Operating System: Mac OS X)
%%Title: plots/pchip/DinnerSceneCropped_1920x1080_2997fps_10bit_420.y4m-av1-PSNRU.eps
%%CreationDate: 2022-02-03T19:12:52
%%Pages: (atend)
%%BoundingBox:    22   425   525   826
%%LanguageLevel: 3
%%EndComments
%%BeginProlog
%%BeginResource: procset (Apache XML Graphics Std ProcSet) 1.2 0
%%Version: 1.2 0
%%Copyright: (Copyright 2001-2003,2010 The Apache Software Foundation. License terms: http://www.apache.org/licenses/LICENSE-2.0)
/bd{bind def}bind def
/ld{load def}bd
/GR/grestore ld
/GS/gsave ld
/RM/rmoveto ld
/C/curveto ld
/t/show ld
/L/lineto ld
/ML/setmiterlimit ld
/CT/concat ld
/f/fill ld
/N/newpath ld
/S/stroke ld
/CC/setcmykcolor ld
/A/ashow ld
/cp/closepath ld
/RC/setrgbcolor ld
/LJ/setlinejoin ld
/GC/setgray ld
/LW/setlinewidth ld
/M/moveto ld
/re {4 2 roll M
1 index 0 rlineto
0 exch rlineto
neg 0 rlineto
cp } bd
/_ctm matrix def
/_tm matrix def
/BT { _ctm currentmatrix pop matrix _tm copy pop 0 0 moveto } bd
/ET { _ctm setmatrix } bd
/iTm { _ctm setmatrix _tm concat } bd
/Tm { _tm astore pop iTm 0 0 moveto } bd
/ux 0.0 def
/uy 0.0 def
/F {
  /Tp exch def
  /Tf exch def
  Tf findfont Tp scalefont setfont
  /cf Tf def  /cs Tp def
} bd
/ULS {currentpoint /uy exch def /ux exch def} bd
/ULE {
  /Tcx currentpoint pop def
  gsave
  newpath
  cf findfont cs scalefont dup
  /FontMatrix get 0 get /Ts exch def /FontInfo get dup
  /UnderlinePosition get Ts mul /To exch def
  /UnderlineThickness get Ts mul /Tt exch def
  ux uy To add moveto  Tcx uy To add lineto
  Tt setlinewidth stroke
  grestore
} bd
/OLE {
  /Tcx currentpoint pop def
  gsave
  newpath
  cf findfont cs scalefont dup
  /FontMatrix get 0 get /Ts exch def /FontInfo get dup
  /UnderlinePosition get Ts mul /To exch def
  /UnderlineThickness get Ts mul /Tt exch def
  ux uy To add cs add moveto Tcx uy To add cs add lineto
  Tt setlinewidth stroke
  grestore
} bd
/SOE {
  /Tcx currentpoint pop def
  gsave
  newpath
  cf findfont cs scalefont dup
  /FontMatrix get 0 get /Ts exch def /FontInfo get dup
  /UnderlinePosition get Ts mul /To exch def
  /UnderlineThickness get Ts mul /Tt exch def
  ux uy To add cs 10 mul 26 idiv add moveto Tcx uy To add cs 10 mul 26 idiv add lineto
  Tt setlinewidth stroke
  grestore
} bd
/QT {
/Y22 exch store
/X22 exch store
/Y21 exch store
/X21 exch store
currentpoint
/Y21 load 2 mul add 3 div exch
/X21 load 2 mul add 3 div exch
/X21 load 2 mul /X22 load add 3 div
/Y21 load 2 mul /Y22 load add 3 div
/X22 load /Y22 load curveto
} bd
/SSPD {
dup length /d exch dict def
{
/v exch def
/k exch def
currentpagedevice k known {
/cpdv currentpagedevice k get def
v cpdv ne {
/upd false def
/nullv v type /nulltype eq def
/nullcpdv cpdv type /nulltype eq def
nullv nullcpdv or
{
/upd true def
} {
/sametype v type cpdv type eq def
sametype {
v type /arraytype eq {
/vlen v length def
/cpdvlen cpdv length def
vlen cpdvlen eq {
0 1 vlen 1 sub {
/i exch def
/obj v i get def
/cpdobj cpdv i get def
obj cpdobj ne {
/upd true def
exit
} if
} for
} {
/upd true def
} ifelse
} {
v type /dicttype eq {
v {
/dv exch def
/dk exch def
/cpddv cpdv dk get def
dv cpddv ne {
/upd true def
exit
} if
} forall
} {
/upd true def
} ifelse
} ifelse
} if
} ifelse
upd true eq {
d k v put
} if
} if
} if
} forall
d length 0 gt {
d setpagedevice
} if
} bd
/RE { % /NewFontName [NewEncodingArray] /FontName RE -
  findfont dup length dict begin
  {
    1 index /FID ne
    {def} {pop pop} ifelse
  } forall
  /Encoding exch def
  /FontName 1 index def
  currentdict definefont pop
  end
} bind def
%%EndResource
%%BeginResource: procset (Apache XML Graphics EPS ProcSet) 1.0 0
%%Version: 1.0 0
%%Copyright: (Copyright 2002-2003 The Apache Software Foundation. License terms: http://www.apache.org/licenses/LICENSE-2.0)
/BeginEPSF { %def
/b4_Inc_state save def         % Save state for cleanup
/dict_count countdictstack def % Count objects on dict stack
/op_count count 1 sub def      % Count objects on operand stack
userdict begin                 % Push userdict on dict stack
/showpage { } def              % Redefine showpage, { } = null proc
0 setgray 0 setlinecap         % Prepare graphics state
1 setlinewidth 0 setlinejoin
10 setmiterlimit [ ] 0 setdash newpath
/languagelevel where           % If level not equal to 1 then
{pop languagelevel             % set strokeadjust and
1 ne                           % overprint to their defaults.
{false setstrokeadjust false setoverprint
} if
} if
} bd
/EndEPSF { %def
count op_count sub {pop} repeat            % Clean up stacks
countdictstack dict_count sub {end} repeat
b4_Inc_state restore
} bd
%%EndResource
%FOPBeginFontDict
%%IncludeResource: font Courier-Oblique
%%IncludeResource: font Courier-BoldOblique
%%IncludeResource: font Courier-Bold
%%IncludeResource: font ZapfDingbats
%%IncludeResource: font Symbol
%%IncludeResource: font Helvetica
%%IncludeResource: font Helvetica-Oblique
%%IncludeResource: font Helvetica-Bold
%%IncludeResource: font Helvetica-BoldOblique
%%IncludeResource: font Times-Roman
%%IncludeResource: font Times-Italic
%%IncludeResource: font Times-Bold
%%IncludeResource: font Times-BoldItalic
%%IncludeResource: font Courier
%FOPEndFontDict
%%BeginResource: encoding WinAnsiEncoding
/WinAnsiEncoding [
/.notdef /.notdef /.notdef /.notdef /.notdef
/.notdef /.notdef /.notdef /.notdef /.notdef
/.notdef /.notdef /.notdef /.notdef /.notdef
/.notdef /.notdef /.notdef /.notdef /.notdef
/.notdef /.notdef /.notdef /.notdef /.notdef
/.notdef /.notdef /.notdef /.notdef /.notdef
/.notdef /.notdef /space /exclam /quotedbl
/numbersign /dollar /percent /ampersand /quotesingle
/parenleft /parenright /asterisk /plus /comma
/hyphen /period /slash /zero /one
/two /three /four /five /six
/seven /eight /nine /colon /semicolon
/less /equal /greater /question /at
/A /B /C /D /E
/F /G /H /I /J
/K /L /M /N /O
/P /Q /R /S /T
/U /V /W /X /Y
/Z /bracketleft /backslash /bracketright /asciicircum
/underscore /quoteleft /a /b /c
/d /e /f /g /h
/i /j /k /l /m
/n /o /p /q /r
/s /t /u /v /w
/x /y /z /braceleft /bar
/braceright /asciitilde /bullet /Euro /bullet
/quotesinglbase /florin /quotedblbase /ellipsis /dagger
/daggerdbl /circumflex /perthousand /Scaron /guilsinglleft
/OE /bullet /Zcaron /bullet /bullet
/quoteleft /quoteright /quotedblleft /quotedblright /bullet
/endash /emdash /asciitilde /trademark /scaron
/guilsinglright /oe /bullet /zcaron /Ydieresis
/space /exclamdown /cent /sterling /currency
/yen /brokenbar /section /dieresis /copyright
/ordfeminine /guillemotleft /logicalnot /sfthyphen /registered
/macron /degree /plusminus /twosuperior /threesuperior
/acute /mu /paragraph /middot /cedilla
/onesuperior /ordmasculine /guillemotright /onequarter /onehalf
/threequarters /questiondown /Agrave /Aacute /Acircumflex
/Atilde /Adieresis /Aring /AE /Ccedilla
/Egrave /Eacute /Ecircumflex /Edieresis /Igrave
/Iacute /Icircumflex /Idieresis /Eth /Ntilde
/Ograve /Oacute /Ocircumflex /Otilde /Odieresis
/multiply /Oslash /Ugrave /Uacute /Ucircumflex
/Udieresis /Yacute /Thorn /germandbls /agrave
/aacute /acircumflex /atilde /adieresis /aring
/ae /ccedilla /egrave /eacute /ecircumflex
/edieresis /igrave /iacute /icircumflex /idieresis
/eth /ntilde /ograve /oacute /ocircumflex
/otilde /odieresis /divide /oslash /ugrave
/uacute /ucircumflex /udieresis /yacute /thorn
/ydieresis
] def
%%EndResource
%FOPBeginFontReencode
/Courier-Oblique findfont
dup length dict begin
  {1 index /FID ne {def} {pop pop} ifelse} forall
  /Encoding WinAnsiEncoding def
  currentdict
end
/Courier-Oblique exch definefont pop
/Courier-BoldOblique findfont
dup length dict begin
  {1 index /FID ne {def} {pop pop} ifelse} forall
  /Encoding WinAnsiEncoding def
  currentdict
end
/Courier-BoldOblique exch definefont pop
/Courier-Bold findfont
dup length dict begin
  {1 index /FID ne {def} {pop pop} ifelse} forall
  /Encoding WinAnsiEncoding def
  currentdict
end
/Courier-Bold exch definefont pop
/Helvetica findfont
dup length dict begin
  {1 index /FID ne {def} {pop pop} ifelse} forall
  /Encoding WinAnsiEncoding def
  currentdict
end
/Helvetica exch definefont pop
/Helvetica-Oblique findfont
dup length dict begin
  {1 index /FID ne {def} {pop pop} ifelse} forall
  /Encoding WinAnsiEncoding def
  currentdict
end
/Helvetica-Oblique exch definefont pop
/Helvetica-Bold findfont
dup length dict begin
  {1 index /FID ne {def} {pop pop} ifelse} forall
  /Encoding WinAnsiEncoding def
  currentdict
end
/Helvetica-Bold exch definefont pop
/Helvetica-BoldOblique findfont
dup length dict begin
  {1 index /FID ne {def} {pop pop} ifelse} forall
  /Encoding WinAnsiEncoding def
  currentdict
end
/Helvetica-BoldOblique exch definefont pop
/Times-Roman findfont
dup length dict begin
  {1 index /FID ne {def} {pop pop} ifelse} forall
  /Encoding WinAnsiEncoding def
  currentdict
end
/Times-Roman exch definefont pop
/Times-Italic findfont
dup length dict begin
  {1 index /FID ne {def} {pop pop} ifelse} forall
  /Encoding WinAnsiEncoding def
  currentdict
end
/Times-Italic exch definefont pop
/Times-Bold findfont
dup length dict begin
  {1 index /FID ne {def} {pop pop} ifelse} forall
  /Encoding WinAnsiEncoding def
  currentdict
end
/Times-Bold exch definefont pop
/Times-BoldItalic findfont
dup length dict begin
  {1 index /FID ne {def} {pop pop} ifelse} forall
  /Encoding WinAnsiEncoding def
  currentdict
end
/Times-BoldItalic exch definefont pop
/Courier findfont
dup length dict begin
  {1 index /FID ne {def} {pop pop} ifelse} forall
  /Encoding WinAnsiEncoding def
  currentdict
end
/Courier exch definefont pop
%FOPEndFontReencode
%%EndProlog
%%Page: 1 1
%%PageBoundingBox: 0 0 1120 840
%%BeginPageSetup
[1 0 0 -1 0 840] CT
%%EndPageSetup
GS
1 GC
N
0 0 1120 840 re
f
GR
GS
1 GC
N
73 374 M
507 374 L
507 31.5 L
73 31.5 L
cp
f
GR
GS
0.149 GC
2 setlinecap
1 LJ
0.5 LW
N
73 374 M
507 374 L
S
GR
GS
0.149 GC
2 setlinecap
1 LJ
0.5 LW
N
73 31.5 M
507 31.5 L
S
GR
GS
0.149 GC
2 setlinecap
1 LJ
0.5 LW
N
118.708 374 M
118.708 369.66 L
S
GR
GS
0.149 GC
2 setlinecap
1 LJ
0.5 LW
N
166.822 374 M
166.822 369.66 L
S
GR
GS
0.149 GC
2 setlinecap
1 LJ
0.5 LW
N
214.935 374 M
214.935 369.66 L
S
GR
GS
0.149 GC
2 setlinecap
1 LJ
0.5 LW
N
263.049 374 M
263.049 369.66 L
S
GR
GS
0.149 GC
2 setlinecap
1 LJ
0.5 LW
N
311.162 374 M
311.162 369.66 L
S
GR
GS
0.149 GC
2 setlinecap
1 LJ
0.5 LW
N
359.276 374 M
359.276 369.66 L
S
GR
GS
0.149 GC
2 setlinecap
1 LJ
0.5 LW
N
407.389 374 M
407.389 369.66 L
S
GR
GS
0.149 GC
2 setlinecap
1 LJ
0.5 LW
N
455.503 374 M
455.503 369.66 L
S
GR
GS
0.149 GC
2 setlinecap
1 LJ
0.5 LW
N
503.616 374 M
503.616 369.66 L
S
GR
GS
0.149 GC
2 setlinecap
1 LJ
0.5 LW
N
118.708 31.5 M
118.708 35.84 L
S
GR
GS
0.149 GC
2 setlinecap
1 LJ
0.5 LW
N
166.822 31.5 M
166.822 35.84 L
S
GR
GS
0.149 GC
2 setlinecap
1 LJ
0.5 LW
N
214.935 31.5 M
214.935 35.84 L
S
GR
GS
0.149 GC
2 setlinecap
1 LJ
0.5 LW
N
263.049 31.5 M
263.049 35.84 L
S
GR
GS
0.149 GC
2 setlinecap
1 LJ
0.5 LW
N
311.162 31.5 M
311.162 35.84 L
S
GR
GS
0.149 GC
2 setlinecap
1 LJ
0.5 LW
N
359.276 31.5 M
359.276 35.84 L
S
GR
GS
0.149 GC
2 setlinecap
1 LJ
0.5 LW
N
407.389 31.5 M
407.389 35.84 L
S
GR
GS
0.149 GC
2 setlinecap
1 LJ
0.5 LW
N
455.503 31.5 M
455.503 35.84 L
S
GR
GS
0.149 GC
2 setlinecap
1 LJ
0.5 LW
N
503.616 31.5 M
503.616 35.84 L
S
GR
GS
0.149 GC
2 setlinecap
1 LJ
0.5 LW
N
80.218 374 M
80.218 371.83 L
S
GR
GS
0.149 GC
2 setlinecap
1 LJ
0.5 LW
N
89.84 374 M
89.84 371.83 L
S
GR
GS
0.149 GC
2 setlinecap
1 LJ
0.5 LW
N
99.463 374 M
99.463 371.83 L
S
GR
GS
0.149 GC
2 setlinecap
1 LJ
0.5 LW
N
109.086 374 M
109.086 371.83 L
S
GR
GS
0.149 GC
2 setlinecap
1 LJ
0.5 LW
N
128.331 374 M
128.331 371.83 L
S
GR
GS
0.149 GC
2 setlinecap
1 LJ
0.5 LW
N
137.954 374 M
137.954 371.83 L
S
GR
GS
0.149 GC
2 setlinecap
1 LJ
0.5 LW
N
147.577 374 M
147.577 371.83 L
S
GR
GS
0.149 GC
2 setlinecap
1 LJ
0.5 LW
N
157.199 374 M
157.199 371.83 L
S
GR
GS
0.149 GC
2 setlinecap
1 LJ
0.5 LW
N
176.445 374 M
176.445 371.83 L
S
GR
GS
0.149 GC
2 setlinecap
1 LJ
0.5 LW
N
186.067 374 M
186.067 371.83 L
S
GR
GS
0.149 GC
2 setlinecap
1 LJ
0.5 LW
N
195.69 374 M
195.69 371.83 L
S
GR
GS
0.149 GC
2 setlinecap
1 LJ
0.5 LW
N
205.313 374 M
205.313 371.83 L
S
GR
GS
0.149 GC
2 setlinecap
1 LJ
0.5 LW
N
224.558 374 M
224.558 371.83 L
S
GR
GS
0.149 GC
2 setlinecap
1 LJ
0.5 LW
N
234.181 374 M
234.181 371.83 L
S
GR
GS
0.149 GC
2 setlinecap
1 LJ
0.5 LW
N
243.803 374 M
243.803 371.83 L
S
GR
GS
0.149 GC
2 setlinecap
1 LJ
0.5 LW
N
253.426 374 M
253.426 371.83 L
S
GR
GS
0.149 GC
2 setlinecap
1 LJ
0.5 LW
N
272.672 374 M
272.672 371.83 L
S
GR
GS
0.149 GC
2 setlinecap
1 LJ
0.5 LW
N
282.294 374 M
282.294 371.83 L
S
GR
GS
0.149 GC
2 setlinecap
1 LJ
0.5 LW
N
291.917 374 M
291.917 371.83 L
S
GR
GS
0.149 GC
2 setlinecap
1 LJ
0.5 LW
N
301.54 374 M
301.54 371.83 L
S
GR
GS
0.149 GC
2 setlinecap
1 LJ
0.5 LW
N
320.785 374 M
320.785 371.83 L
S
GR
GS
0.149 GC
2 setlinecap
1 LJ
0.5 LW
N
330.408 374 M
330.408 371.83 L
S
GR
GS
0.149 GC
2 setlinecap
1 LJ
0.5 LW
N
340.03 374 M
340.03 371.83 L
S
GR
GS
0.149 GC
2 setlinecap
1 LJ
0.5 LW
N
349.653 374 M
349.653 371.83 L
S
GR
GS
0.149 GC
2 setlinecap
1 LJ
0.5 LW
N
368.898 374 M
368.898 371.83 L
S
GR
GS
0.149 GC
2 setlinecap
1 LJ
0.5 LW
N
378.521 374 M
378.521 371.83 L
S
GR
GS
0.149 GC
2 setlinecap
1 LJ
0.5 LW
N
388.144 374 M
388.144 371.83 L
S
GR
GS
0.149 GC
2 setlinecap
1 LJ
0.5 LW
N
397.767 374 M
397.767 371.83 L
S
GR
GS
0.149 GC
2 setlinecap
1 LJ
0.5 LW
N
417.012 374 M
417.012 371.83 L
S
GR
GS
0.149 GC
2 setlinecap
1 LJ
0.5 LW
N
426.635 374 M
426.635 371.83 L
S
GR
GS
0.149 GC
2 setlinecap
1 LJ
0.5 LW
N
436.257 374 M
436.257 371.83 L
S
GR
GS
0.149 GC
2 setlinecap
1 LJ
0.5 LW
N
445.88 374 M
445.88 371.83 L
S
GR
GS
0.149 GC
2 setlinecap
1 LJ
0.5 LW
N
465.125 374 M
465.125 371.83 L
S
GR
GS
0.149 GC
2 setlinecap
1 LJ
0.5 LW
N
474.748 374 M
474.748 371.83 L
S
GR
GS
0.149 GC
2 setlinecap
1 LJ
0.5 LW
N
484.371 374 M
484.371 371.83 L
S
GR
GS
0.149 GC
2 setlinecap
1 LJ
0.5 LW
N
493.994 374 M
493.994 371.83 L
S
GR
GS
0.149 GC
2 setlinecap
1 LJ
0.5 LW
N
80.218 31.5 M
80.218 33.67 L
S
GR
GS
0.149 GC
2 setlinecap
1 LJ
0.5 LW
N
89.84 31.5 M
89.84 33.67 L
S
GR
GS
0.149 GC
2 setlinecap
1 LJ
0.5 LW
N
99.463 31.5 M
99.463 33.67 L
S
GR
GS
0.149 GC
2 setlinecap
1 LJ
0.5 LW
N
109.086 31.5 M
109.086 33.67 L
S
GR
GS
0.149 GC
2 setlinecap
1 LJ
0.5 LW
N
128.331 31.5 M
128.331 33.67 L
S
GR
GS
0.149 GC
2 setlinecap
1 LJ
0.5 LW
N
137.954 31.5 M
137.954 33.67 L
S
GR
GS
0.149 GC
2 setlinecap
1 LJ
0.5 LW
N
147.577 31.5 M
147.577 33.67 L
S
GR
GS
0.149 GC
2 setlinecap
1 LJ
0.5 LW
N
157.199 31.5 M
157.199 33.67 L
S
GR
GS
0.149 GC
2 setlinecap
1 LJ
0.5 LW
N
176.445 31.5 M
176.445 33.67 L
S
GR
GS
0.149 GC
2 setlinecap
1 LJ
0.5 LW
N
186.067 31.5 M
186.067 33.67 L
S
GR
GS
0.149 GC
2 setlinecap
1 LJ
0.5 LW
N
195.69 31.5 M
195.69 33.67 L
S
GR
GS
0.149 GC
2 setlinecap
1 LJ
0.5 LW
N
205.313 31.5 M
205.313 33.67 L
S
GR
GS
0.149 GC
2 setlinecap
1 LJ
0.5 LW
N
224.558 31.5 M
224.558 33.67 L
S
GR
GS
0.149 GC
2 setlinecap
1 LJ
0.5 LW
N
234.181 31.5 M
234.181 33.67 L
S
GR
GS
0.149 GC
2 setlinecap
1 LJ
0.5 LW
N
243.803 31.5 M
243.803 33.67 L
S
GR
GS
0.149 GC
2 setlinecap
1 LJ
0.5 LW
N
253.426 31.5 M
253.426 33.67 L
S
GR
GS
0.149 GC
2 setlinecap
1 LJ
0.5 LW
N
272.672 31.5 M
272.672 33.67 L
S
GR
GS
0.149 GC
2 setlinecap
1 LJ
0.5 LW
N
282.294 31.5 M
282.294 33.67 L
S
GR
GS
0.149 GC
2 setlinecap
1 LJ
0.5 LW
N
291.917 31.5 M
291.917 33.67 L
S
GR
GS
0.149 GC
2 setlinecap
1 LJ
0.5 LW
N
301.54 31.5 M
301.54 33.67 L
S
GR
GS
0.149 GC
2 setlinecap
1 LJ
0.5 LW
N
320.785 31.5 M
320.785 33.67 L
S
GR
GS
0.149 GC
2 setlinecap
1 LJ
0.5 LW
N
330.408 31.5 M
330.408 33.67 L
S
GR
GS
0.149 GC
2 setlinecap
1 LJ
0.5 LW
N
340.03 31.5 M
340.03 33.67 L
S
GR
GS
0.149 GC
2 setlinecap
1 LJ
0.5 LW
N
349.653 31.5 M
349.653 33.67 L
S
GR
GS
0.149 GC
2 setlinecap
1 LJ
0.5 LW
N
368.898 31.5 M
368.898 33.67 L
S
GR
GS
0.149 GC
2 setlinecap
1 LJ
0.5 LW
N
378.521 31.5 M
378.521 33.67 L
S
GR
GS
0.149 GC
2 setlinecap
1 LJ
0.5 LW
N
388.144 31.5 M
388.144 33.67 L
S
GR
GS
0.149 GC
2 setlinecap
1 LJ
0.5 LW
N
397.767 31.5 M
397.767 33.67 L
S
GR
GS
0.149 GC
2 setlinecap
1 LJ
0.5 LW
N
417.012 31.5 M
417.012 33.67 L
S
GR
GS
0.149 GC
2 setlinecap
1 LJ
0.5 LW
N
426.635 31.5 M
426.635 33.67 L
S
GR
GS
0.149 GC
2 setlinecap
1 LJ
0.5 LW
N
436.257 31.5 M
436.257 33.67 L
S
GR
GS
0.149 GC
2 setlinecap
1 LJ
0.5 LW
N
445.88 31.5 M
445.88 33.67 L
S
GR
GS
0.149 GC
2 setlinecap
1 LJ
0.5 LW
N
465.125 31.5 M
465.125 33.67 L
S
GR
GS
0.149 GC
2 setlinecap
1 LJ
0.5 LW
N
474.748 31.5 M
474.748 33.67 L
S
GR
GS
0.149 GC
2 setlinecap
1 LJ
0.5 LW
N
484.371 31.5 M
484.371 33.67 L
S
GR
GS
0.149 GC
2 setlinecap
1 LJ
0.5 LW
N
493.994 31.5 M
493.994 33.67 L
S
GR
GS
[1 0 0 1 118.70846 378.79977] CT
0.149 GC
/Helvetica 14 F
GS
[1 0 0 1 0 0] CT
-16 14 moveto 
1 -1 scale
(1000) t 
GR
GR
GS
[1 0 0 1 166.82193 378.79977] CT
0.149 GC
/Helvetica 14 F
GS
[1 0 0 1 0 0] CT
-16 14 moveto 
1 -1 scale
(2000) t 
GR
GR
GS
[1 0 0 1 214.93539 378.79977] CT
0.149 GC
/Helvetica 14 F
GS
[1 0 0 1 0 0] CT
-16 14 moveto 
1 -1 scale
(3000) t 
GR
GR
GS
[1 0 0 1 263.04886 378.79977] CT
0.149 GC
/Helvetica 14 F
GS
[1 0 0 1 0 0] CT
-16 14 moveto 
1 -1 scale
(4000) t 
GR
GR
GS
[1 0 0 1 311.16235 378.79977] CT
0.149 GC
/Helvetica 14 F
GS
[1 0 0 1 0 0] CT
-16 14 moveto 
1 -1 scale
(5000) t 
GR
GR
GS
[1 0 0 1 359.27582 378.79977] CT
0.149 GC
/Helvetica 14 F
GS
[1 0 0 1 0 0] CT
-16 14 moveto 
1 -1 scale
(6000) t 
GR
GR
GS
[1 0 0 1 407.38928 378.79977] CT
0.149 GC
/Helvetica 14 F
GS
[1 0 0 1 0 0] CT
-16 14 moveto 
1 -1 scale
(7000) t 
GR
GR
GS
[1 0 0 1 455.50275 378.79977] CT
0.149 GC
/Helvetica 14 F
GS
[1 0 0 1 0 0] CT
-16 14 moveto 
1 -1 scale
(8000) t 
GR
GR
GS
[1 0 0 1 503.61621 378.79977] CT
0.149 GC
/Helvetica 14 F
GS
[1 0 0 1 0 0] CT
-16 14 moveto 
1 -1 scale
(9000) t 
GR
GR
GS
[1 0 0 1 290.00021 396.29984] CT
0.149 GC
/Helvetica 15.4 F
GS
[1 0 0 1 0 0] CT
-42 15 moveto 
1 -1 scale
(Bitrate\(kb/s\)) t 
GR
GR
GS
0.149 GC
2 setlinecap
1 LJ
0.5 LW
N
73 374 M
73 31.5 L
S
GR
GS
0.149 GC
2 setlinecap
1 LJ
0.5 LW
N
507 374 M
507 31.5 L
S
GR
GS
0.149 GC
2 setlinecap
1 LJ
0.5 LW
N
73 372.202 M
77.34 372.202 L
S
GR
GS
0.149 GC
2 setlinecap
1 LJ
0.5 LW
N
73 338.818 M
77.34 338.818 L
S
GR
GS
0.149 GC
2 setlinecap
1 LJ
0.5 LW
N
73 305.434 M
77.34 305.434 L
S
GR
GS
0.149 GC
2 setlinecap
1 LJ
0.5 LW
N
73 272.049 M
77.34 272.049 L
S
GR
GS
0.149 GC
2 setlinecap
1 LJ
0.5 LW
N
73 238.664 M
77.34 238.664 L
S
GR
GS
0.149 GC
2 setlinecap
1 LJ
0.5 LW
N
73 205.28 M
77.34 205.28 L
S
GR
GS
0.149 GC
2 setlinecap
1 LJ
0.5 LW
N
73 171.896 M
77.34 171.896 L
S
GR
GS
0.149 GC
2 setlinecap
1 LJ
0.5 LW
N
73 138.511 M
77.34 138.511 L
S
GR
GS
0.149 GC
2 setlinecap
1 LJ
0.5 LW
N
73 105.127 M
77.34 105.127 L
S
GR
GS
0.149 GC
2 setlinecap
1 LJ
0.5 LW
N
73 71.742 M
77.34 71.742 L
S
GR
GS
0.149 GC
2 setlinecap
1 LJ
0.5 LW
N
73 38.357 M
77.34 38.357 L
S
GR
GS
0.149 GC
2 setlinecap
1 LJ
0.5 LW
N
507 372.202 M
502.66 372.202 L
S
GR
GS
0.149 GC
2 setlinecap
1 LJ
0.5 LW
N
507 338.818 M
502.66 338.818 L
S
GR
GS
0.149 GC
2 setlinecap
1 LJ
0.5 LW
N
507 305.434 M
502.66 305.434 L
S
GR
GS
0.149 GC
2 setlinecap
1 LJ
0.5 LW
N
507 272.049 M
502.66 272.049 L
S
GR
GS
0.149 GC
2 setlinecap
1 LJ
0.5 LW
N
507 238.664 M
502.66 238.664 L
S
GR
GS
0.149 GC
2 setlinecap
1 LJ
0.5 LW
N
507 205.28 M
502.66 205.28 L
S
GR
GS
0.149 GC
2 setlinecap
1 LJ
0.5 LW
N
507 171.896 M
502.66 171.896 L
S
GR
GS
0.149 GC
2 setlinecap
1 LJ
0.5 LW
N
507 138.511 M
502.66 138.511 L
S
GR
GS
0.149 GC
2 setlinecap
1 LJ
0.5 LW
N
507 105.127 M
502.66 105.127 L
S
GR
GS
0.149 GC
2 setlinecap
1 LJ
0.5 LW
N
507 71.742 M
502.66 71.742 L
S
GR
GS
0.149 GC
2 setlinecap
1 LJ
0.5 LW
N
507 38.357 M
502.66 38.357 L
S
GR
GS
0.149 GC
2 setlinecap
1 LJ
0.5 LW
N
73 363.856 M
75.17 363.856 L
S
GR
GS
0.149 GC
2 setlinecap
1 LJ
0.5 LW
N
73 355.51 M
75.17 355.51 L
S
GR
GS
0.149 GC
2 setlinecap
1 LJ
0.5 LW
N
73 347.164 M
75.17 347.164 L
S
GR
GS
0.149 GC
2 setlinecap
1 LJ
0.5 LW
N
73 330.472 M
75.17 330.472 L
S
GR
GS
0.149 GC
2 setlinecap
1 LJ
0.5 LW
N
73 322.126 M
75.17 322.126 L
S
GR
GS
0.149 GC
2 setlinecap
1 LJ
0.5 LW
N
73 313.78 M
75.17 313.78 L
S
GR
GS
0.149 GC
2 setlinecap
1 LJ
0.5 LW
N
73 297.088 M
75.17 297.088 L
S
GR
GS
0.149 GC
2 setlinecap
1 LJ
0.5 LW
N
73 288.741 M
75.17 288.741 L
S
GR
GS
0.149 GC
2 setlinecap
1 LJ
0.5 LW
N
73 280.395 M
75.17 280.395 L
S
GR
GS
0.149 GC
2 setlinecap
1 LJ
0.5 LW
N
73 263.703 M
75.17 263.703 L
S
GR
GS
0.149 GC
2 setlinecap
1 LJ
0.5 LW
N
73 255.357 M
75.17 255.357 L
S
GR
GS
0.149 GC
2 setlinecap
1 LJ
0.5 LW
N
73 247.01 M
75.17 247.01 L
S
GR
GS
0.149 GC
2 setlinecap
1 LJ
0.5 LW
N
73 230.318 M
75.17 230.318 L
S
GR
GS
0.149 GC
2 setlinecap
1 LJ
0.5 LW
N
73 221.972 M
75.17 221.972 L
S
GR
GS
0.149 GC
2 setlinecap
1 LJ
0.5 LW
N
73 213.626 M
75.17 213.626 L
S
GR
GS
0.149 GC
2 setlinecap
1 LJ
0.5 LW
N
73 196.934 M
75.17 196.934 L
S
GR
GS
0.149 GC
2 setlinecap
1 LJ
0.5 LW
N
73 188.588 M
75.17 188.588 L
S
GR
GS
0.149 GC
2 setlinecap
1 LJ
0.5 LW
N
73 180.242 M
75.17 180.242 L
S
GR
GS
0.149 GC
2 setlinecap
1 LJ
0.5 LW
N
73 163.549 M
75.17 163.549 L
S
GR
GS
0.149 GC
2 setlinecap
1 LJ
0.5 LW
N
73 155.203 M
75.17 155.203 L
S
GR
GS
0.149 GC
2 setlinecap
1 LJ
0.5 LW
N
73 146.857 M
75.17 146.857 L
S
GR
GS
0.149 GC
2 setlinecap
1 LJ
0.5 LW
N
73 130.165 M
75.17 130.165 L
S
GR
GS
0.149 GC
2 setlinecap
1 LJ
0.5 LW
N
73 121.819 M
75.17 121.819 L
S
GR
GS
0.149 GC
2 setlinecap
1 LJ
0.5 LW
N
73 113.473 M
75.17 113.473 L
S
GR
GS
0.149 GC
2 setlinecap
1 LJ
0.5 LW
N
73 96.781 M
75.17 96.781 L
S
GR
GS
0.149 GC
2 setlinecap
1 LJ
0.5 LW
N
73 88.435 M
75.17 88.435 L
S
GR
GS
0.149 GC
2 setlinecap
1 LJ
0.5 LW
N
73 80.088 M
75.17 80.088 L
S
GR
GS
0.149 GC
2 setlinecap
1 LJ
0.5 LW
N
73 63.396 M
75.17 63.396 L
S
GR
GS
0.149 GC
2 setlinecap
1 LJ
0.5 LW
N
73 55.05 M
75.17 55.05 L
S
GR
GS
0.149 GC
2 setlinecap
1 LJ
0.5 LW
N
73 46.704 M
75.17 46.704 L
S
GR
GS
0.149 GC
2 setlinecap
1 LJ
0.5 LW
N
507 363.856 M
504.83 363.856 L
S
GR
GS
0.149 GC
2 setlinecap
1 LJ
0.5 LW
N
507 355.51 M
504.83 355.51 L
S
GR
GS
0.149 GC
2 setlinecap
1 LJ
0.5 LW
N
507 347.164 M
504.83 347.164 L
S
GR
GS
0.149 GC
2 setlinecap
1 LJ
0.5 LW
N
507 330.472 M
504.83 330.472 L
S
GR
GS
0.149 GC
2 setlinecap
1 LJ
0.5 LW
N
507 322.126 M
504.83 322.126 L
S
GR
GS
0.149 GC
2 setlinecap
1 LJ
0.5 LW
N
507 313.78 M
504.83 313.78 L
S
GR
GS
0.149 GC
2 setlinecap
1 LJ
0.5 LW
N
507 297.088 M
504.83 297.088 L
S
GR
GS
0.149 GC
2 setlinecap
1 LJ
0.5 LW
N
507 288.741 M
504.83 288.741 L
S
GR
GS
0.149 GC
2 setlinecap
1 LJ
0.5 LW
N
507 280.395 M
504.83 280.395 L
S
GR
GS
0.149 GC
2 setlinecap
1 LJ
0.5 LW
N
507 263.703 M
504.83 263.703 L
S
GR
GS
0.149 GC
2 setlinecap
1 LJ
0.5 LW
N
507 255.357 M
504.83 255.357 L
S
GR
GS
0.149 GC
2 setlinecap
1 LJ
0.5 LW
N
507 247.01 M
504.83 247.01 L
S
GR
GS
0.149 GC
2 setlinecap
1 LJ
0.5 LW
N
507 230.318 M
504.83 230.318 L
S
GR
GS
0.149 GC
2 setlinecap
1 LJ
0.5 LW
N
507 221.972 M
504.83 221.972 L
S
GR
GS
0.149 GC
2 setlinecap
1 LJ
0.5 LW
N
507 213.626 M
504.83 213.626 L
S
GR
GS
0.149 GC
2 setlinecap
1 LJ
0.5 LW
N
507 196.934 M
504.83 196.934 L
S
GR
GS
0.149 GC
2 setlinecap
1 LJ
0.5 LW
N
507 188.588 M
504.83 188.588 L
S
GR
GS
0.149 GC
2 setlinecap
1 LJ
0.5 LW
N
507 180.242 M
504.83 180.242 L
S
GR
GS
0.149 GC
2 setlinecap
1 LJ
0.5 LW
N
507 163.549 M
504.83 163.549 L
S
GR
GS
0.149 GC
2 setlinecap
1 LJ
0.5 LW
N
507 155.203 M
504.83 155.203 L
S
GR
GS
0.149 GC
2 setlinecap
1 LJ
0.5 LW
N
507 146.857 M
504.83 146.857 L
S
GR
GS
0.149 GC
2 setlinecap
1 LJ
0.5 LW
N
507 130.165 M
504.83 130.165 L
S
GR
GS
0.149 GC
2 setlinecap
1 LJ
0.5 LW
N
507 121.819 M
504.83 121.819 L
S
GR
GS
0.149 GC
2 setlinecap
1 LJ
0.5 LW
N
507 113.473 M
504.83 113.473 L
S
GR
GS
0.149 GC
2 setlinecap
1 LJ
0.5 LW
N
507 96.781 M
504.83 96.781 L
S
GR
GS
0.149 GC
2 setlinecap
1 LJ
0.5 LW
N
507 88.435 M
504.83 88.435 L
S
GR
GS
0.149 GC
2 setlinecap
1 LJ
0.5 LW
N
507 80.088 M
504.83 80.088 L
S
GR
GS
0.149 GC
2 setlinecap
1 LJ
0.5 LW
N
507 63.396 M
504.83 63.396 L
S
GR
GS
0.149 GC
2 setlinecap
1 LJ
0.5 LW
N
507 55.05 M
504.83 55.05 L
S
GR
GS
0.149 GC
2 setlinecap
1 LJ
0.5 LW
N
507 46.704 M
504.83 46.704 L
S
GR
GS
[1 0 0 1 68.2 372.20233] CT
0.149 GC
/Helvetica 14 F
GS
[1 0 0 1 0 0] CT
-28 5.5 moveto 
1 -1 scale
(39.4) t 
GR
GR
GS
[1 0 0 1 68.2 338.81833] CT
0.149 GC
/Helvetica 14 F
GS
[1 0 0 1 0 0] CT
-28 5.5 moveto 
1 -1 scale
(39.6) t 
GR
GR
GS
[1 0 0 1 68.2 305.43372] CT
0.149 GC
/Helvetica 14 F
GS
[1 0 0 1 0 0] CT
-28 5.5 moveto 
1 -1 scale
(39.8) t 
GR
GR
GS
[1 0 0 1 68.2 272.04907] CT
0.149 GC
/Helvetica 14 F
GS
[1 0 0 1 0 0] CT
-16 5.5 moveto 
1 -1 scale
(40) t 
GR
GR
GS
[1 0 0 1 68.2 238.66446] CT
0.149 GC
/Helvetica 14 F
GS
[1 0 0 1 0 0] CT
-28 5.5 moveto 
1 -1 scale
(40.2) t 
GR
GR
GS
[1 0 0 1 68.2 205.27983] CT
0.149 GC
/Helvetica 14 F
GS
[1 0 0 1 0 0] CT
-28 5.5 moveto 
1 -1 scale
(40.4) t 
GR
GR
GS
[1 0 0 1 68.2 171.89584] CT
0.149 GC
/Helvetica 14 F
GS
[1 0 0 1 0 0] CT
-28 5.5 moveto 
1 -1 scale
(40.6) t 
GR
GR
GS
[1 0 0 1 68.2 138.51122] CT
0.149 GC
/Helvetica 14 F
GS
[1 0 0 1 0 0] CT
-28 5.5 moveto 
1 -1 scale
(40.8) t 
GR
GR
GS
[1 0 0 1 68.2 105.12659] CT
0.149 GC
/Helvetica 14 F
GS
[1 0 0 1 0 0] CT
-16 5.5 moveto 
1 -1 scale
(41) t 
GR
GR
GS
[1 0 0 1 68.2 71.74196] CT
0.149 GC
/Helvetica 14 F
GS
[1 0 0 1 0 0] CT
-28 5.5 moveto 
1 -1 scale
(41.2) t 
GR
GR
GS
[1 0 0 1 68.2 38.35733] CT
0.149 GC
/Helvetica 14 F
GS
[1 0 0 1 0 0] CT
-28 5.5 moveto 
1 -1 scale
(41.4) t 
GR
GR
GS
[0 -1 1 0 37.7 202.74998] CT
0.149 GC
/Helvetica 15.4 F
GS
[1 0 0 1 0 0] CT
-42.5 -4 moveto 
1 -1 scale
(PSNR U\(dB\)) t 
GR
GR
GS
[1 0 0 1 290.00027 29.57515] CT
/Helvetica-Bold 15.4 F
GS
[1 0 0 1 0 0] CT
-225.5 -4 moveto 
1 -1 scale
(DinnerSceneCropped_1920x1080_2997fps_10bit_420.y4m-av1) t 
GR
GR
GS
0 0.447 0.741 RC
1 LJ
0.5 LW
N
73.857 289.91 M
74.82 269.561 L
75.782 254.702 L
76.744 248.602 L
77.706 243.769 L
78.669 239.841 L
79.631 236.695 L
80.593 234.207 L
81.555 232.254 L
82.518 230.714 L
83.48 229.409 L
84.442 228.191 L
85.405 227.055 L
86.367 225.995 L
87.329 225.007 L
88.291 224.085 L
89.254 223.226 L
90.216 222.422 L
91.178 221.671 L
92.14 220.967 L
93.103 220.305 L
94.065 219.68 L
95.027 219.088 L
95.989 218.523 L
96.952 217.98 L
97.914 217.455 L
98.876 216.943 L
99.839 216.438 L
100.801 215.937 L
101.763 215.434 L
102.725 214.923 L
103.688 214.401 L
104.65 213.862 L
105.612 213.302 L
106.574 212.715 L
107.537 212.103 L
108.499 211.49 L
109.461 210.876 L
110.424 210.264 L
111.386 209.651 L
112.348 209.038 L
113.31 208.426 L
114.273 207.814 L
115.235 207.202 L
116.197 206.591 L
117.159 205.98 L
118.122 205.369 L
119.084 204.759 L
120.046 204.148 L
121.008 203.538 L
121.971 202.929 L
122.933 202.32 L
123.895 201.71 L
124.858 201.101 L
125.82 200.493 L
126.782 199.885 L
127.744 199.277 L
128.707 198.67 L
129.669 198.063 L
130.631 197.456 L
131.593 196.85 L
132.556 196.244 L
133.518 195.638 L
134.48 195.032 L
135.443 194.428 L
136.405 193.823 L
137.367 193.219 L
138.329 192.615 L
139.292 192.011 L
140.254 191.408 L
141.216 190.806 L
142.178 190.203 L
143.141 189.601 L
144.103 189 L
145.065 188.399 L
146.027 187.798 L
146.99 187.198 L
147.952 186.598 L
148.914 185.998 L
149.877 185.4 L
150.839 184.8 L
151.801 184.202 L
152.763 183.605 L
153.726 183.008 L
154.688 182.411 L
155.65 181.815 L
156.612 181.219 L
157.575 180.623 L
158.537 180.029 L
159.499 179.434 L
160.462 178.84 L
161.424 178.246 L
162.386 177.653 L
163.348 177.061 L
164.311 176.469 L
165.273 175.877 L
166.235 175.286 L
167.197 174.696 L
168.16 174.106 L
169.122 173.516 L
170.084 172.927 L
171.046 172.339 L
172.009 171.751 L
172.971 171.164 L
173.933 170.577 L
174.896 169.991 L
175.858 169.405 L
176.82 168.82 L
177.782 168.235 L
178.745 167.651 L
179.707 167.068 L
180.669 166.485 L
181.631 165.903 L
182.594 165.321 L
183.556 164.74 L
184.518 164.159 L
185.481 163.579 L
186.443 163 L
187.405 162.422 L
188.367 161.843 L
189.33 161.266 L
190.292 160.689 L
191.254 160.113 L
192.216 159.537 L
193.179 158.962 L
194.141 158.388 L
195.103 157.814 L
196.065 157.241 L
197.028 156.668 L
197.99 156.097 L
198.952 155.525 L
199.915 154.955 L
200.877 154.385 L
201.839 153.816 L
202.801 153.248 L
203.764 152.68 L
204.726 152.113 L
205.688 151.546 L
206.65 150.981 L
207.613 150.416 L
208.575 149.852 L
209.537 149.288 L
210.5 148.725 L
211.462 148.163 L
212.424 147.602 L
213.386 147.041 L
214.349 146.481 L
215.311 145.922 L
216.273 145.363 L
217.235 144.806 L
218.198 144.248 L
219.16 143.693 L
220.122 143.137 L
221.085 142.583 L
222.047 142.029 L
223.009 141.475 L
223.971 140.923 L
224.934 140.371 L
225.896 139.82 L
226.858 139.27 L
227.82 138.721 L
228.783 138.173 L
229.745 137.625 L
230.707 137.079 L
231.669 136.532 L
232.632 135.987 L
233.594 135.443 L
234.556 134.9 L
235.519 134.356 L
236.481 133.814 L
237.443 133.274 L
238.405 132.733 L
239.368 132.194 L
240.33 131.656 L
241.292 131.118 L
242.254 130.581 L
243.217 130.046 L
244.179 129.51 L
245.141 128.976 L
246.104 128.443 L
247.066 127.91 L
248.028 127.379 L
248.99 126.848 L
249.953 126.319 L
250.915 125.79 L
251.877 125.262 L
252.839 124.735 L
253.802 124.209 L
254.764 123.684 L
255.726 123.16 L
256.688 122.636 L
257.651 122.114 L
258.613 121.593 L
259.575 121.072 L
260.538 120.553 L
261.5 120.034 L
262.462 119.516 L
263.424 119 L
264.387 118.484 L
265.349 117.969 L
266.311 117.456 L
267.273 116.943 L
268.236 116.431 L
269.198 115.92 L
270.16 115.41 L
271.122 114.901 L
272.085 114.393 L
273.047 113.887 L
274.009 113.381 L
274.972 112.877 L
275.934 112.372 L
276.896 111.87 L
277.858 111.368 L
278.821 110.868 L
279.783 110.368 L
280.745 109.869 L
281.707 109.372 L
282.67 108.875 L
283.632 108.38 L
284.594 107.886 L
285.557 107.392 L
286.519 106.9 L
287.481 106.408 L
288.443 105.919 L
289.406 105.43 L
290.368 104.942 L
291.33 104.455 L
292.292 103.969 L
293.255 103.484 L
294.217 103.001 L
295.179 102.518 L
296.142 102.037 L
297.104 101.557 L
298.066 101.078 L
299.028 100.6 L
299.991 100.123 L
300.953 99.647 L
301.915 99.173 L
302.877 98.7 L
303.84 98.227 L
304.802 97.756 L
305.764 97.286 L
306.726 96.818 L
307.689 96.35 L
308.651 95.883 L
309.613 95.419 L
310.576 94.954 L
311.538 94.491 L
312.5 94.03 L
313.462 93.569 L
314.425 93.11 L
315.387 92.652 L
316.349 92.195 L
317.311 91.739 L
318.274 91.285 L
319.236 90.832 L
320.198 90.38 L
321.161 89.929 L
322.123 89.48 L
323.085 89.031 L
324.047 88.584 L
325.01 88.138 L
325.972 87.694 L
326.934 87.251 L
327.896 86.809 L
328.859 86.368 L
329.821 85.928 L
330.783 85.49 L
331.745 85.053 L
332.708 84.618 L
333.67 84.184 L
334.632 83.751 L
335.595 83.319 L
336.557 82.888 L
337.519 82.459 L
338.481 82.031 L
339.444 81.605 L
340.406 81.179 L
341.368 80.756 L
342.33 80.333 L
343.293 79.912 L
344.255 79.492 L
345.217 79.074 L
346.18 78.657 L
347.142 78.241 L
348.104 77.826 L
349.066 77.413 L
350.029 77.002 L
350.991 76.591 L
351.953 76.182 L
352.915 75.775 L
353.878 75.368 L
354.84 74.963 L
355.802 74.56 L
356.764 74.158 L
357.727 73.757 L
358.689 73.358 L
359.651 72.96 L
360.614 72.564 L
361.576 72.169 L
362.538 71.775 L
363.5 71.383 L
364.463 70.992 L
365.425 70.603 L
366.387 70.216 L
367.349 69.829 L
368.312 69.444 L
369.274 69.061 L
370.236 68.679 L
371.199 68.298 L
372.161 67.919 L
373.123 67.541 L
374.085 67.166 L
375.048 66.791 L
376.01 66.417 L
376.972 66.046 L
377.934 65.676 L
378.897 65.308 L
379.859 64.94 L
380.821 64.575 L
381.784 64.21 L
382.746 63.848 L
383.708 63.486 L
384.67 63.127 L
385.633 62.769 L
386.595 62.413 L
387.557 62.057 L
388.519 61.704 L
389.482 61.353 L
390.444 61.002 L
391.406 60.653 L
392.368 60.306 L
393.331 59.961 L
394.293 59.617 L
395.255 59.274 L
396.218 58.934 L
397.18 58.594 L
398.142 58.257 L
399.104 57.92 L
400.067 57.586 L
401.029 57.253 L
401.991 56.922 L
402.953 56.592 L
403.916 56.264 L
404.878 55.938 L
405.84 55.613 L
406.802 55.29 L
407.765 54.968 L
408.727 54.648 L
409.689 54.33 L
410.652 54.013 L
411.614 53.699 L
412.576 53.385 L
413.538 53.074 L
414.501 52.764 L
415.463 52.456 L
416.425 52.149 L
417.387 51.844 L
418.35 51.541 L
419.312 51.24 L
420.274 50.94 L
421.237 50.642 L
422.199 50.345 L
423.161 50.05 L
424.123 49.757 L
425.086 49.466 L
426.048 49.176 L
427.01 48.889 L
427.972 48.602 L
428.935 48.318 L
429.897 48.035 L
430.859 47.755 L
S
GR
GS
0.851 0.325 0.098 RC
1 LJ
0.5 LW
N
73.979 284.477 M
74.941 267.245 L
75.903 253.756 L
76.866 247.955 L
77.828 243.592 L
78.79 239.941 L
79.752 236.917 L
80.715 234.431 L
81.677 232.399 L
82.639 230.734 L
83.601 229.351 L
84.564 228.153 L
85.526 227.032 L
86.488 225.977 L
87.451 224.983 L
88.413 224.047 L
89.375 223.166 L
90.337 222.336 L
91.3 221.554 L
92.262 220.816 L
93.224 220.12 L
94.186 219.462 L
95.149 218.838 L
96.111 218.244 L
97.073 217.679 L
98.035 217.138 L
98.998 216.617 L
99.96 216.115 L
100.922 215.626 L
101.885 215.148 L
102.847 214.678 L
103.809 214.212 L
104.771 213.746 L
105.734 213.277 L
106.696 212.802 L
107.658 212.319 L
108.62 211.821 L
109.583 211.308 L
110.545 210.775 L
111.507 210.223 L
112.47 209.669 L
113.432 209.116 L
114.394 208.562 L
115.356 208.008 L
116.319 207.455 L
117.281 206.902 L
118.243 206.349 L
119.205 205.796 L
120.168 205.244 L
121.13 204.691 L
122.092 204.139 L
123.055 203.588 L
124.017 203.036 L
124.979 202.484 L
125.941 201.933 L
126.904 201.382 L
127.866 200.831 L
128.828 200.281 L
129.79 199.73 L
130.753 199.18 L
131.715 198.63 L
132.677 198.081 L
133.639 197.531 L
134.602 196.982 L
135.564 196.433 L
136.526 195.884 L
137.489 195.336 L
138.451 194.787 L
139.413 194.24 L
140.375 193.692 L
141.338 193.144 L
142.3 192.598 L
143.262 192.051 L
144.224 191.504 L
145.187 190.957 L
146.149 190.411 L
147.111 189.865 L
148.074 189.32 L
149.036 188.774 L
149.998 188.229 L
150.96 187.685 L
151.923 187.14 L
152.885 186.597 L
153.847 186.053 L
154.809 185.509 L
155.772 184.966 L
156.734 184.423 L
157.696 183.88 L
158.658 183.338 L
159.621 182.797 L
160.583 182.255 L
161.545 181.713 L
162.508 181.172 L
163.47 180.632 L
164.432 180.092 L
165.394 179.552 L
166.357 179.012 L
167.319 178.472 L
168.281 177.934 L
169.243 177.395 L
170.206 176.857 L
171.168 176.319 L
172.13 175.781 L
173.093 175.244 L
174.055 174.707 L
175.017 174.171 L
175.979 173.635 L
176.942 173.099 L
177.904 172.564 L
178.866 172.028 L
179.828 171.494 L
180.791 170.96 L
181.753 170.426 L
182.715 169.893 L
183.677 169.36 L
184.64 168.827 L
185.602 168.294 L
186.564 167.763 L
187.527 167.232 L
188.489 166.701 L
189.451 166.169 L
190.413 165.64 L
191.376 165.11 L
192.338 164.58 L
193.3 164.051 L
194.262 163.522 L
195.225 162.995 L
196.187 162.467 L
197.149 161.939 L
198.112 161.413 L
199.074 160.886 L
200.036 160.36 L
200.998 159.835 L
201.961 159.31 L
202.923 158.786 L
203.885 158.262 L
204.847 157.738 L
205.81 157.215 L
206.772 156.692 L
207.734 156.17 L
208.696 155.648 L
209.659 155.126 L
210.621 154.605 L
211.583 154.085 L
212.546 153.565 L
213.508 153.046 L
214.47 152.527 L
215.432 152.009 L
216.395 151.49 L
217.357 150.973 L
218.319 150.456 L
219.281 149.94 L
220.244 149.424 L
221.206 148.908 L
222.168 148.393 L
223.131 147.879 L
224.093 147.365 L
225.055 146.851 L
226.017 146.339 L
226.98 145.826 L
227.942 145.315 L
228.904 144.804 L
229.866 144.293 L
230.829 143.782 L
231.791 143.273 L
232.753 142.764 L
233.715 142.255 L
234.678 141.747 L
235.64 141.24 L
236.602 140.733 L
237.565 140.227 L
238.527 139.721 L
239.489 139.215 L
240.451 138.711 L
241.414 138.207 L
242.376 137.704 L
243.338 137.201 L
244.3 136.698 L
245.263 136.197 L
246.225 135.695 L
247.187 135.195 L
248.15 134.694 L
249.112 134.195 L
250.074 133.697 L
251.036 133.198 L
251.999 132.701 L
252.961 132.204 L
253.923 131.707 L
254.885 131.211 L
255.848 130.717 L
256.81 130.222 L
257.772 129.728 L
258.734 129.235 L
259.697 128.742 L
260.659 128.25 L
261.621 127.759 L
262.584 127.268 L
263.546 126.778 L
264.508 126.289 L
265.47 125.8 L
266.433 125.312 L
267.395 124.824 L
268.357 124.337 L
269.319 123.851 L
270.282 123.365 L
271.244 122.881 L
272.206 122.396 L
273.169 121.913 L
274.131 121.43 L
275.093 120.947 L
276.055 120.466 L
277.018 119.985 L
277.98 119.505 L
278.942 119.026 L
279.904 118.547 L
280.867 118.069 L
281.829 117.592 L
282.791 117.115 L
283.754 116.639 L
284.716 116.164 L
285.678 115.689 L
286.64 115.215 L
287.603 114.742 L
288.565 114.27 L
289.527 113.798 L
290.489 113.327 L
291.452 112.857 L
292.414 112.387 L
293.376 111.918 L
294.338 111.45 L
295.301 110.983 L
296.263 110.517 L
297.225 110.051 L
298.188 109.586 L
299.15 109.121 L
300.112 108.657 L
301.074 108.194 L
302.037 107.733 L
302.999 107.271 L
303.961 106.811 L
304.923 106.351 L
305.886 105.892 L
306.848 105.434 L
307.81 104.976 L
308.772 104.52 L
309.735 104.064 L
310.697 103.609 L
311.659 103.155 L
312.622 102.701 L
313.584 102.248 L
314.546 101.796 L
315.508 101.346 L
316.471 100.895 L
317.433 100.446 L
318.395 99.997 L
319.357 99.549 L
320.32 99.102 L
321.282 98.656 L
322.244 98.21 L
323.207 97.766 L
324.169 97.322 L
325.131 96.879 L
326.093 96.437 L
327.056 95.995 L
328.018 95.555 L
328.98 95.115 L
329.942 94.677 L
330.905 94.239 L
331.867 93.802 L
332.829 93.366 L
333.792 92.93 L
334.754 92.496 L
335.716 92.062 L
336.678 91.629 L
337.641 91.197 L
338.603 90.766 L
339.565 90.337 L
340.527 89.907 L
341.49 89.479 L
342.452 89.052 L
343.414 88.625 L
344.376 88.199 L
345.339 87.774 L
346.301 87.35 L
347.263 86.927 L
348.226 86.505 L
349.188 86.084 L
350.15 85.664 L
351.112 85.244 L
352.075 84.826 L
353.037 84.408 L
353.999 83.992 L
354.961 83.576 L
355.924 83.162 L
356.886 82.748 L
357.848 82.334 L
358.811 81.922 L
359.773 81.512 L
360.735 81.102 L
361.697 80.692 L
362.66 80.284 L
363.622 79.877 L
364.584 79.471 L
365.546 79.065 L
366.509 78.661 L
367.471 78.257 L
368.433 77.855 L
369.395 77.454 L
370.358 77.053 L
371.32 76.653 L
372.282 76.255 L
373.245 75.857 L
374.207 75.461 L
375.169 75.065 L
376.131 74.67 L
377.094 74.277 L
378.056 73.884 L
379.018 73.492 L
379.98 73.102 L
380.943 72.712 L
381.905 72.324 L
382.867 71.936 L
383.83 71.55 L
384.792 71.164 L
385.754 70.779 L
386.716 70.396 L
387.679 70.013 L
388.641 69.632 L
389.603 69.252 L
390.565 68.872 L
391.528 68.494 L
392.49 68.116 L
393.452 67.74 L
394.414 67.365 L
395.377 66.99 L
396.339 66.617 L
397.301 66.245 L
398.264 65.874 L
399.226 65.504 L
400.188 65.136 L
401.15 64.768 L
402.113 64.401 L
403.075 64.035 L
404.037 63.67 L
404.999 63.307 L
405.962 62.944 L
406.924 62.583 L
407.886 62.222 L
408.849 61.863 L
409.811 61.505 L
410.773 61.148 L
411.735 60.792 L
412.698 60.438 L
413.66 60.084 L
414.622 59.731 L
415.584 59.38 L
416.547 59.03 L
417.509 58.68 L
418.471 58.332 L
419.433 57.985 L
420.396 57.639 L
421.358 57.295 L
422.32 56.951 L
423.283 56.608 L
424.245 56.267 L
425.207 55.927 L
426.169 55.588 L
427.132 55.25 L
428.094 54.913 L
429.056 54.577 L
430.018 54.243 L
430.981 53.91 L
431.943 53.578 L
432.905 53.247 L
433.868 52.917 L
434.83 52.588 L
435.792 52.261 L
436.754 51.935 L
437.717 51.61 L
438.679 51.285 L
439.641 50.963 L
440.603 50.642 L
441.566 50.321 L
442.528 50.002 L
443.49 49.684 L
444.452 49.368 L
445.415 49.052 L
446.377 48.737 L
447.339 48.424 L
448.302 48.112 L
449.264 47.802 L
450.226 47.492 L
451.188 47.184 L
452.151 46.877 L
453.113 46.572 L
454.075 46.267 L
455.037 45.963 L
456 45.662 L
456.962 45.36 L
457.924 45.061 L
458.887 44.762 L
459.849 44.465 L
460.811 44.17 L
461.773 43.875 L
462.736 43.581 L
463.698 43.29 L
464.66 42.999 L
465.622 42.709 L
466.585 42.421 L
467.547 42.134 L
468.509 41.848 L
469.471 41.563 L
470.434 41.281 L
471.396 40.999 L
472.358 40.718 L
473.321 40.439 L
474.283 40.161 L
475.245 39.884 L
476.207 39.609 L
477.17 39.335 L
478.132 39.062 L
479.094 38.79 L
480.056 38.52 L
481.019 38.251 L
481.981 37.984 L
482.943 37.717 L
483.906 37.452 L
484.868 37.189 L
485.83 36.927 L
486.792 36.666 L
487.755 36.406 L
488.717 36.148 L
489.679 35.891 L
490.641 35.636 L
491.604 35.381 L
492.566 35.128 L
493.528 34.877 L
494.491 34.627 L
495.453 34.378 L
496.415 34.131 L
497.377 33.885 L
498.34 33.64 L
499.302 33.397 L
500.264 33.155 L
501.226 32.914 L
502.189 32.675 L
503.151 32.437 L
504.113 32.201 L
505.075 31.966 L
506.038 31.732 L
507 31.5 L
S
GR
GS
0.929 0.694 0.125 RC
1 LJ
0.5 LW
N
73.801 300.203 M
74.763 275.092 L
75.725 257.899 L
76.688 248.305 L
77.65 240.996 L
78.612 235.758 L
79.575 232.266 L
80.537 229.41 L
81.499 226.926 L
82.461 224.778 L
83.424 222.93 L
84.386 221.344 L
85.348 219.984 L
86.31 218.815 L
87.273 217.787 L
88.235 216.783 L
89.197 215.781 L
90.16 214.783 L
91.122 213.787 L
92.084 212.794 L
93.046 211.804 L
94.009 210.816 L
94.971 209.832 L
95.933 208.851 L
96.895 207.872 L
97.858 206.896 L
98.82 205.923 L
99.782 204.953 L
100.744 203.985 L
101.707 203.021 L
102.669 202.06 L
103.631 201.101 L
104.594 200.145 L
105.556 199.192 L
106.518 198.242 L
107.48 197.294 L
108.443 196.35 L
109.405 195.408 L
110.367 194.47 L
111.329 193.534 L
112.292 192.601 L
113.254 191.671 L
114.216 190.744 L
115.179 189.82 L
116.141 188.899 L
117.103 187.98 L
118.065 187.065 L
119.028 186.152 L
119.99 185.242 L
120.952 184.336 L
121.914 183.432 L
122.877 182.531 L
123.839 181.633 L
124.801 180.738 L
125.763 179.845 L
126.726 178.956 L
127.688 178.07 L
128.65 177.187 L
129.613 176.306 L
130.575 175.429 L
131.537 174.554 L
132.499 173.682 L
133.462 172.813 L
134.424 171.947 L
135.386 171.085 L
136.348 170.225 L
137.311 169.368 L
138.273 168.514 L
139.235 167.663 L
140.198 166.815 L
141.16 165.97 L
142.122 165.128 L
143.084 164.288 L
144.047 163.452 L
145.009 162.62 L
145.971 161.789 L
146.933 160.962 L
147.896 160.137 L
148.858 159.317 L
149.82 158.498 L
150.782 157.683 L
151.745 156.871 L
152.707 156.062 L
153.669 155.255 L
154.632 154.452 L
155.594 153.651 L
156.556 152.854 L
157.518 152.06 L
158.481 151.269 L
159.443 150.48 L
160.405 149.695 L
161.367 148.913 L
162.33 148.134 L
163.292 147.358 L
164.254 146.585 L
165.217 145.815 L
166.179 145.048 L
167.141 144.283 L
168.103 143.523 L
169.066 142.765 L
170.028 142.01 L
170.99 141.258 L
171.952 140.509 L
172.915 139.763 L
173.877 139.021 L
174.839 138.281 L
175.801 137.545 L
176.764 136.811 L
177.726 136.081 L
178.688 135.353 L
179.651 134.629 L
180.613 133.907 L
181.575 133.189 L
182.537 132.474 L
183.5 131.762 L
184.462 131.053 L
185.424 130.347 L
186.386 129.645 L
187.349 128.945 L
188.311 128.249 L
189.273 127.555 L
190.236 126.865 L
191.198 126.178 L
192.16 125.493 L
193.122 124.813 L
194.085 124.134 L
195.047 123.46 L
196.009 122.788 L
196.971 122.119 L
197.934 121.454 L
198.896 120.791 L
199.858 120.132 L
200.82 119.476 L
201.783 118.823 L
202.745 118.173 L
203.707 117.527 L
204.67 116.883 L
205.632 116.242 L
206.594 115.606 L
207.556 114.972 L
208.519 114.34 L
209.481 113.713 L
210.443 113.088 L
211.405 112.466 L
212.368 111.848 L
213.33 111.233 L
214.292 110.621 L
215.255 110.012 L
216.217 109.406 L
217.179 108.804 L
218.141 108.205 L
219.104 107.608 L
220.066 107.015 L
221.028 106.426 L
221.99 105.839 L
222.953 105.256 L
223.915 104.675 L
224.877 104.098 L
225.84 103.524 L
226.802 102.954 L
227.764 102.387 L
228.726 101.822 L
229.689 101.261 L
230.651 100.704 L
231.613 100.149 L
232.575 99.598 L
233.538 99.049 L
234.5 98.504 L
235.462 97.962 L
236.424 97.424 L
237.387 96.889 L
238.349 96.357 L
239.311 95.828 L
240.274 95.303 L
241.236 94.78 L
242.198 94.261 L
243.16 93.745 L
244.123 93.233 L
245.085 92.723 L
246.047 92.217 L
247.009 91.715 L
247.972 91.215 L
248.934 90.719 L
249.896 90.225 L
250.859 89.735 L
251.821 89.249 L
252.783 88.766 L
253.745 88.286 L
254.708 87.809 L
255.67 87.336 L
256.632 86.866 L
257.594 86.399 L
258.557 85.935 L
259.519 85.475 L
260.481 85.018 L
261.443 84.564 L
262.406 84.114 L
263.368 83.667 L
264.33 83.223 L
265.293 82.782 L
266.255 82.345 L
267.217 81.912 L
268.179 81.481 L
269.142 81.053 L
270.104 80.63 L
271.066 80.209 L
272.028 79.792 L
272.991 79.378 L
273.953 78.967 L
274.915 78.56 L
275.878 78.156 L
276.84 77.755 L
277.802 77.358 L
278.764 76.964 L
279.727 76.573 L
280.689 76.186 L
281.651 75.802 L
282.613 75.422 L
283.576 75.044 L
284.538 74.67 L
285.5 74.3 L
286.462 73.933 L
287.425 73.569 L
288.387 73.209 L
289.349 72.852 L
290.312 72.498 L
291.274 72.148 L
292.236 71.801 L
293.198 71.457 L
294.161 71.117 L
295.123 70.78 L
296.085 70.447 L
297.047 70.118 L
298.01 69.791 L
298.972 69.467 L
299.934 69.148 L
300.897 68.831 L
301.859 68.519 L
302.821 68.209 L
303.783 67.903 L
304.746 67.6 L
305.708 67.301 L
306.67 67.005 L
307.632 66.712 L
308.595 66.423 L
309.557 66.138 L
310.519 65.856 L
311.482 65.577 L
312.444 65.301 L
313.406 65.029 L
314.368 64.761 L
315.331 64.496 L
316.293 64.235 L
317.255 63.976 L
318.217 63.721 L
319.18 63.47 L
320.142 63.223 L
321.104 62.978 L
322.066 62.738 L
323.029 62.5 L
323.991 62.266 L
324.953 62.036 L
325.916 61.809 L
326.878 61.585 L
327.84 61.365 L
328.802 61.149 L
329.765 60.936 L
330.727 60.726 L
331.689 60.52 L
332.651 60.317 L
333.614 60.118 L
334.576 59.922 L
335.538 59.73 L
336.5 59.542 L
337.463 59.356 L
338.425 59.175 L
339.387 58.997 L
340.35 58.822 L
341.312 58.651 L
342.274 58.483 L
343.236 58.32 L
344.199 58.159 L
345.161 58.002 L
346.123 57.849 L
347.085 57.698 L
348.048 57.552 L
349.01 57.409 L
349.972 57.27 L
350.935 57.134 L
351.897 57.002 L
352.859 56.873 L
353.821 56.748 L
354.784 56.626 L
355.746 56.508 L
356.708 56.394 L
357.67 56.283 L
358.633 56.175 L
359.595 56.071 L
360.557 55.971 L
361.52 55.874 L
362.482 55.781 L
363.444 55.691 L
364.406 55.605 L
365.369 55.523 L
366.331 55.444 L
367.293 55.369 L
368.255 55.297 L
369.218 55.23 L
370.18 55.165 L
371.142 55.104 L
372.104 55.047 L
373.067 54.993 L
374.029 54.943 L
374.991 54.897 L
375.954 54.853 L
376.916 54.814 L
377.878 54.779 L
378.84 54.746 L
379.803 54.718 L
380.765 54.693 L
381.727 54.672 L
382.689 54.655 L
383.652 54.641 L
384.614 54.63 L
385.576 54.623 L
386.539 54.621 L
S
GR
GS
0.494 0.184 0.557 RC
1 LJ
0.5 LW
N
73.859 289.967 M
74.821 269.544 L
75.783 254.729 L
76.745 248.727 L
77.708 243.972 L
78.67 240.121 L
79.632 237.041 L
80.594 234.604 L
81.557 232.678 L
82.519 231.134 L
83.481 229.799 L
84.444 228.553 L
85.406 227.388 L
86.368 226.3 L
87.33 225.284 L
88.293 224.335 L
89.255 223.447 L
90.217 222.617 L
91.179 221.839 L
92.142 221.109 L
93.104 220.421 L
94.066 219.771 L
95.029 219.154 L
95.991 218.565 L
96.953 217.998 L
97.915 217.45 L
98.878 216.915 L
99.84 216.388 L
100.802 215.865 L
101.764 215.341 L
102.727 214.81 L
103.689 214.268 L
104.651 213.71 L
105.614 213.13 L
106.576 212.526 L
107.538 211.901 L
108.5 211.275 L
109.463 210.65 L
110.425 210.024 L
111.387 209.4 L
112.349 208.775 L
113.312 208.15 L
114.274 207.526 L
115.236 206.902 L
116.198 206.279 L
117.161 205.656 L
118.123 205.032 L
119.085 204.409 L
120.048 203.787 L
121.01 203.165 L
121.972 202.543 L
122.934 201.922 L
123.897 201.301 L
124.859 200.68 L
125.821 200.059 L
126.783 199.439 L
127.746 198.819 L
128.708 198.2 L
129.67 197.581 L
130.633 196.962 L
131.595 196.344 L
132.557 195.725 L
133.519 195.108 L
134.482 194.491 L
135.444 193.874 L
136.406 193.257 L
137.368 192.641 L
138.331 192.025 L
139.293 191.409 L
140.255 190.795 L
141.217 190.18 L
142.18 189.566 L
143.142 188.952 L
144.104 188.339 L
145.067 187.726 L
146.029 187.114 L
146.991 186.502 L
147.953 185.891 L
148.916 185.279 L
149.878 184.669 L
150.84 184.059 L
151.802 183.449 L
152.765 182.84 L
153.727 182.231 L
154.689 181.623 L
155.652 181.015 L
156.614 180.408 L
157.576 179.801 L
158.538 179.195 L
159.501 178.589 L
160.463 177.984 L
161.425 177.379 L
162.387 176.775 L
163.35 176.172 L
164.312 175.568 L
165.274 174.966 L
166.236 174.364 L
167.199 173.762 L
168.161 173.161 L
169.123 172.561 L
170.086 171.961 L
171.048 171.362 L
172.01 170.763 L
172.972 170.165 L
173.935 169.568 L
174.897 168.971 L
175.859 168.375 L
176.821 167.779 L
177.784 167.184 L
178.746 166.589 L
179.708 165.996 L
180.671 165.402 L
181.633 164.809 L
182.595 164.218 L
183.557 163.626 L
184.52 163.035 L
185.482 162.446 L
186.444 161.856 L
187.406 161.267 L
188.369 160.679 L
189.331 160.092 L
190.293 159.505 L
191.255 158.919 L
192.218 158.334 L
193.18 157.749 L
194.142 157.165 L
195.105 156.582 L
196.067 155.999 L
197.029 155.417 L
197.991 154.836 L
198.954 154.256 L
199.916 153.676 L
200.878 153.097 L
201.84 152.519 L
202.803 151.941 L
203.765 151.364 L
204.727 150.788 L
205.69 150.213 L
206.652 149.639 L
207.614 149.064 L
208.576 148.492 L
209.539 147.919 L
210.501 147.348 L
211.463 146.777 L
212.425 146.207 L
213.388 145.638 L
214.35 145.07 L
215.312 144.502 L
216.274 143.936 L
217.237 143.37 L
218.199 142.805 L
219.161 142.241 L
220.124 141.677 L
221.086 141.115 L
222.048 140.553 L
223.01 139.992 L
223.973 139.433 L
224.935 138.873 L
225.897 138.315 L
226.859 137.757 L
227.822 137.201 L
228.784 136.646 L
229.746 136.09 L
230.709 135.537 L
231.671 134.984 L
232.633 134.432 L
233.595 133.88 L
234.558 133.33 L
235.52 132.78 L
236.482 132.232 L
237.444 131.685 L
238.407 131.138 L
239.369 130.592 L
240.331 130.047 L
241.293 129.504 L
242.256 128.961 L
243.218 128.419 L
244.18 127.878 L
245.143 127.338 L
246.105 126.799 L
247.067 126.261 L
248.029 125.724 L
248.992 125.188 L
249.954 124.653 L
250.916 124.119 L
251.878 123.586 L
252.841 123.053 L
253.803 122.522 L
254.765 121.992 L
255.728 121.463 L
256.69 120.935 L
257.652 120.408 L
258.614 119.882 L
259.577 119.358 L
260.539 118.833 L
261.501 118.311 L
262.463 117.789 L
263.426 117.268 L
264.388 116.749 L
265.35 116.23 L
266.313 115.712 L
267.275 115.196 L
268.237 114.681 L
269.199 114.166 L
270.162 113.653 L
271.124 113.141 L
272.086 112.63 L
273.048 112.12 L
274.011 111.611 L
274.973 111.104 L
275.935 110.598 L
276.897 110.092 L
277.86 109.588 L
278.822 109.085 L
279.784 108.583 L
280.747 108.082 L
281.709 107.583 L
282.671 107.084 L
283.633 106.587 L
284.596 106.091 L
285.558 105.596 L
286.52 105.102 L
287.482 104.61 L
288.445 104.118 L
289.407 103.628 L
290.369 103.139 L
291.332 102.652 L
292.294 102.165 L
293.256 101.679 L
294.218 101.195 L
295.181 100.713 L
296.143 100.231 L
297.105 99.75 L
298.067 99.271 L
299.03 98.793 L
299.992 98.316 L
300.954 97.841 L
301.916 97.367 L
302.879 96.895 L
303.841 96.423 L
304.803 95.952 L
305.766 95.484 L
306.728 95.015 L
307.69 94.549 L
308.652 94.084 L
309.615 93.62 L
310.577 93.157 L
311.539 92.696 L
312.501 92.237 L
313.464 91.778 L
314.426 91.321 L
315.388 90.865 L
316.351 90.41 L
317.313 89.957 L
318.275 89.505 L
319.237 89.055 L
320.2 88.606 L
321.162 88.158 L
322.124 87.711 L
323.086 87.266 L
324.049 86.823 L
325.011 86.38 L
325.973 85.94 L
326.935 85.5 L
327.898 85.062 L
328.86 84.625 L
329.822 84.19 L
330.785 83.756 L
331.747 83.324 L
332.709 82.893 L
333.671 82.463 L
334.634 82.035 L
335.596 81.609 L
336.558 81.183 L
337.52 80.76 L
338.483 80.337 L
339.445 79.916 L
340.407 79.497 L
341.37 79.079 L
342.332 78.662 L
343.294 78.248 L
344.256 77.834 L
345.219 77.422 L
346.181 77.012 L
347.143 76.603 L
348.105 76.195 L
349.068 75.789 L
350.03 75.385 L
350.992 74.982 L
351.954 74.581 L
352.917 74.181 L
353.879 73.783 L
354.841 73.385 L
355.804 72.991 L
356.766 72.597 L
357.728 72.205 L
358.69 71.814 L
359.653 71.425 L
360.615 71.038 L
361.577 70.652 L
362.539 70.268 L
363.502 69.885 L
364.464 69.504 L
365.426 69.125 L
366.389 68.747 L
367.351 68.371 L
368.313 67.996 L
369.275 67.623 L
370.238 67.252 L
371.2 66.882 L
372.162 66.514 L
373.124 66.147 L
374.087 65.783 L
375.049 65.42 L
376.011 65.058 L
376.973 64.698 L
377.936 64.34 L
378.898 63.984 L
379.86 63.629 L
380.823 63.276 L
381.785 62.924 L
382.747 62.575 L
383.709 62.226 L
384.672 61.88 L
385.634 61.535 L
386.596 61.193 L
387.558 60.851 L
388.521 60.512 L
389.483 60.174 L
390.445 59.838 L
391.408 59.504 L
392.37 59.171 L
393.332 58.841 L
394.294 58.511 L
395.257 58.184 L
396.219 57.859 L
397.181 57.535 L
398.143 57.213 L
399.106 56.893 L
400.068 56.574 L
401.03 56.258 L
401.992 55.943 L
402.955 55.63 L
403.917 55.319 L
404.879 55.009 L
405.842 54.702 L
406.804 54.396 L
407.766 54.092 L
408.728 53.79 L
409.691 53.49 L
410.653 53.191 L
411.615 52.895 L
412.577 52.6 L
413.54 52.307 L
414.502 52.016 L
415.464 51.727 L
416.427 51.44 L
417.389 51.154 L
418.351 50.87 L
419.313 50.589 L
420.276 50.309 L
421.238 50.031 L
422.2 49.755 L
423.162 49.481 L
424.125 49.209 L
425.087 48.939 L
426.049 48.67 L
427.012 48.404 L
427.974 48.14 L
428.936 47.877 L
429.898 47.616 L
430.861 47.358 L
S
GR
GS
0.467 0.675 0.188 RC
1 LJ
0.5 LW
N
73 372.143 M
73.962 312.693 L
74.925 285.034 L
75.887 268.737 L
76.849 258.707 L
77.811 252.158 L
78.774 246.521 L
79.736 241.751 L
80.698 237.818 L
81.66 234.696 L
82.623 232.354 L
83.585 230.756 L
84.547 229.421 L
85.51 228.093 L
86.472 226.77 L
87.434 225.454 L
88.396 224.145 L
89.359 222.841 L
90.321 221.544 L
91.283 220.253 L
92.245 218.968 L
93.208 217.69 L
94.17 216.417 L
95.132 215.151 L
96.094 213.891 L
97.057 212.637 L
98.019 211.389 L
98.981 210.147 L
99.944 208.912 L
100.906 207.682 L
101.868 206.459 L
102.83 205.242 L
103.793 204.031 L
104.755 202.825 L
105.717 201.626 L
106.679 200.433 L
107.642 199.247 L
108.604 198.065 L
109.566 196.89 L
110.529 195.721 L
111.491 194.558 L
112.453 193.401 L
113.415 192.25 L
114.378 191.104 L
115.34 189.965 L
116.302 188.832 L
117.264 187.705 L
118.227 186.583 L
119.189 185.467 L
120.151 184.357 L
121.113 183.254 L
122.076 182.155 L
123.038 181.063 L
124 179.976 L
124.963 178.896 L
125.925 177.821 L
126.887 176.752 L
127.849 175.688 L
128.812 174.631 L
129.774 173.579 L
130.736 172.533 L
131.698 171.493 L
132.661 170.458 L
133.623 169.43 L
134.585 168.406 L
135.548 167.389 L
136.51 166.377 L
137.472 165.37 L
138.434 164.37 L
139.397 163.375 L
140.359 162.386 L
141.321 161.402 L
142.283 160.424 L
143.246 159.452 L
144.208 158.484 L
145.17 157.523 L
146.132 156.567 L
147.095 155.617 L
148.057 154.672 L
149.019 153.733 L
149.982 152.799 L
150.944 151.871 L
151.906 150.948 L
152.868 150.031 L
153.831 149.119 L
154.793 148.212 L
155.755 147.311 L
156.717 146.416 L
157.68 145.526 L
158.642 144.641 L
159.604 143.761 L
160.567 142.888 L
161.529 142.018 L
162.491 141.156 L
163.453 140.297 L
164.416 139.445 L
165.378 138.597 L
166.34 137.755 L
167.302 136.919 L
168.265 136.087 L
169.227 135.261 L
170.189 134.44 L
171.151 133.624 L
172.114 132.813 L
173.076 132.009 L
174.038 131.208 L
175.001 130.414 L
175.963 129.624 L
176.925 128.839 L
177.887 128.06 L
178.85 127.286 L
179.812 126.517 L
180.774 125.752 L
181.736 124.994 L
182.699 124.24 L
183.661 123.491 L
184.623 122.748 L
185.586 122.01 L
186.548 121.276 L
187.51 120.548 L
188.472 119.824 L
189.435 119.106 L
190.397 118.392 L
191.359 117.684 L
192.321 116.98 L
193.284 116.282 L
194.246 115.589 L
195.208 114.9 L
196.17 114.216 L
197.133 113.538 L
198.095 112.864 L
199.057 112.195 L
200.02 111.531 L
200.982 110.872 L
201.944 110.218 L
202.906 109.569 L
203.869 108.924 L
204.831 108.284 L
205.793 107.649 L
206.755 107.02 L
207.718 106.394 L
208.68 105.774 L
209.642 105.158 L
210.605 104.546 L
211.567 103.94 L
212.529 103.339 L
213.491 102.742 L
214.454 102.15 L
215.416 101.563 L
216.378 100.98 L
217.34 100.402 L
218.303 99.829 L
219.265 99.26 L
220.227 98.696 L
221.189 98.136 L
222.152 97.582 L
223.114 97.031 L
224.076 96.486 L
225.039 95.945 L
226.001 95.408 L
226.963 94.876 L
227.925 94.349 L
228.888 93.826 L
229.85 93.308 L
230.812 92.794 L
231.774 92.284 L
232.737 91.779 L
233.699 91.279 L
234.661 90.783 L
235.624 90.291 L
236.586 89.804 L
237.548 89.322 L
238.51 88.843 L
239.473 88.37 L
240.435 87.9 L
241.397 87.436 L
242.359 86.975 L
243.322 86.519 L
244.284 86.066 L
245.246 85.619 L
246.208 85.176 L
247.171 84.736 L
248.133 84.302 L
249.095 83.872 L
250.058 83.445 L
251.02 83.023 L
251.982 82.606 L
252.944 82.192 L
253.907 81.783 L
254.869 81.378 L
255.831 80.977 L
256.793 80.581 L
257.756 80.188 L
258.718 79.8 L
259.68 79.416 L
260.643 79.036 L
261.605 78.66 L
262.567 78.288 L
263.529 77.92 L
264.492 77.557 L
265.454 77.198 L
266.416 76.842 L
267.378 76.491 L
268.341 76.144 L
269.303 75.801 L
270.265 75.461 L
271.228 75.126 L
272.19 74.795 L
273.152 74.468 L
274.114 74.144 L
275.077 73.825 L
276.039 73.51 L
277.001 73.199 L
277.963 72.891 L
278.926 72.588 L
279.888 72.288 L
280.85 71.992 L
281.812 71.701 L
282.775 71.413 L
283.737 71.128 L
284.699 70.848 L
285.662 70.572 L
286.624 70.299 L
287.586 70.03 L
288.548 69.765 L
289.511 69.504 L
290.473 69.246 L
291.435 68.993 L
292.397 68.743 L
293.36 68.496 L
294.322 68.254 L
295.284 68.016 L
296.247 67.781 L
297.209 67.549 L
298.171 67.322 L
299.133 67.097 L
300.096 66.877 L
301.058 66.66 L
302.02 66.447 L
302.982 66.238 L
303.945 66.032 L
304.907 65.83 L
305.869 65.631 L
306.831 65.436 L
307.794 65.244 L
308.756 65.057 L
309.718 64.872 L
310.681 64.691 L
311.643 64.513 L
312.605 64.34 L
313.567 64.169 L
314.53 64.002 L
315.492 63.839 L
316.454 63.679 L
317.416 63.522 L
318.379 63.369 L
319.341 63.22 L
320.303 63.073 L
321.266 62.93 L
322.228 62.791 L
323.19 62.655 L
324.152 62.522 L
325.115 62.392 L
326.077 62.266 L
327.039 62.143 L
328.001 62.024 L
328.964 61.908 L
329.926 61.795 L
330.888 61.686 L
331.85 61.579 L
332.813 61.476 L
333.775 61.376 L
334.737 61.279 L
335.7 61.186 L
336.662 61.096 L
337.624 61.009 L
338.586 60.925 L
339.549 60.844 L
340.511 60.767 L
341.473 60.693 L
342.435 60.622 L
343.398 60.553 L
344.36 60.489 L
345.322 60.427 L
346.285 60.368 L
347.247 60.312 L
348.209 60.259 L
349.171 60.21 L
350.134 60.163 L
351.096 60.12 L
352.058 60.08 L
353.02 60.042 L
353.983 60.007 L
354.945 59.976 L
355.907 59.947 L
356.869 59.922 L
357.832 59.899 L
358.794 59.88 L
359.756 59.863 L
360.719 59.849 L
361.681 59.838 L
362.643 59.83 L
363.605 59.824 L
364.568 59.822 L
S
GR
GS
0.302 0.745 0.933 RC
[10 6] 0 setdash
2 LJ
0.5 LW
N
73.881 287.41 M
74.843 268.224 L
75.805 254.095 L
76.768 248.286 L
77.73 243.699 L
78.692 239.955 L
79.654 236.935 L
80.617 234.524 L
81.579 232.603 L
82.541 231.056 L
83.503 229.744 L
84.466 228.525 L
85.428 227.383 L
86.39 226.315 L
87.352 225.315 L
88.315 224.381 L
89.277 223.505 L
90.239 222.686 L
91.202 221.917 L
92.164 221.194 L
93.126 220.514 L
94.088 219.871 L
95.051 219.26 L
96.013 218.678 L
96.975 218.119 L
97.937 217.581 L
98.9 217.056 L
99.862 216.542 L
100.824 216.034 L
101.787 215.527 L
102.749 215.017 L
103.711 214.499 L
104.673 213.969 L
105.636 213.422 L
106.598 212.853 L
107.56 212.26 L
108.522 211.653 L
109.485 211.045 L
110.447 210.438 L
111.409 209.831 L
112.371 209.225 L
113.334 208.618 L
114.296 208.013 L
115.258 207.407 L
116.221 206.801 L
117.183 206.196 L
118.145 205.591 L
119.107 204.986 L
120.07 204.382 L
121.032 203.778 L
121.994 203.174 L
122.956 202.57 L
123.919 201.967 L
124.881 201.364 L
125.843 200.761 L
126.806 200.159 L
127.768 199.557 L
128.73 198.955 L
129.692 198.354 L
130.655 197.753 L
131.617 197.152 L
132.579 196.551 L
133.541 195.951 L
134.504 195.351 L
135.466 194.752 L
136.428 194.152 L
137.39 193.554 L
138.353 192.955 L
139.315 192.357 L
140.277 191.76 L
141.24 191.162 L
142.202 190.566 L
143.164 189.969 L
144.126 189.373 L
145.089 188.777 L
146.051 188.182 L
147.013 187.587 L
147.975 186.992 L
148.938 186.398 L
149.9 185.804 L
150.862 185.211 L
151.825 184.618 L
152.787 184.025 L
153.749 183.433 L
154.711 182.842 L
155.674 182.251 L
156.636 181.66 L
157.598 181.07 L
158.56 180.479 L
159.523 179.89 L
160.485 179.301 L
161.447 178.713 L
162.41 178.125 L
163.372 177.538 L
164.334 176.95 L
165.296 176.363 L
166.259 175.778 L
167.221 175.192 L
168.183 174.607 L
169.145 174.022 L
170.108 173.438 L
171.07 172.854 L
172.032 172.272 L
172.994 171.689 L
173.957 171.107 L
174.919 170.525 L
175.881 169.944 L
176.844 169.363 L
177.806 168.784 L
178.768 168.205 L
179.73 167.626 L
180.693 167.048 L
181.655 166.469 L
182.617 165.892 L
183.579 165.316 L
184.542 164.74 L
185.504 164.164 L
186.466 163.589 L
187.428 163.015 L
188.391 162.441 L
189.353 161.868 L
190.315 161.296 L
191.278 160.724 L
192.24 160.153 L
193.202 159.582 L
194.164 159.012 L
195.127 158.442 L
196.089 157.874 L
197.051 157.305 L
198.013 156.738 L
198.976 156.171 L
199.938 155.604 L
200.9 155.039 L
201.863 154.474 L
202.825 153.909 L
203.787 153.346 L
204.749 152.783 L
205.712 152.221 L
206.674 151.658 L
207.636 151.097 L
208.598 150.537 L
209.561 149.977 L
210.523 149.419 L
211.485 148.86 L
212.447 148.303 L
213.41 147.746 L
214.372 147.19 L
215.334 146.634 L
216.297 146.08 L
217.259 145.526 L
218.221 144.972 L
219.183 144.42 L
220.146 143.868 L
221.108 143.317 L
222.07 142.766 L
223.032 142.217 L
223.995 141.668 L
224.957 141.12 L
225.919 140.572 L
226.882 140.026 L
227.844 139.48 L
228.806 138.935 L
229.768 138.391 L
230.731 137.847 L
231.693 137.305 L
232.655 136.763 L
233.617 136.221 L
234.58 135.681 L
235.542 135.141 L
236.504 134.603 L
237.467 134.065 L
238.429 133.528 L
239.391 132.992 L
240.353 132.456 L
241.316 131.922 L
242.278 131.388 L
243.24 130.855 L
244.202 130.323 L
245.165 129.792 L
246.127 129.262 L
247.089 128.732 L
248.051 128.203 L
249.014 127.675 L
249.976 127.149 L
250.938 126.622 L
251.901 126.098 L
252.863 125.573 L
253.825 125.049 L
254.787 124.527 L
255.75 124.006 L
256.712 123.485 L
257.674 122.965 L
258.636 122.446 L
259.599 121.928 L
260.561 121.411 L
261.523 120.895 L
262.486 120.38 L
263.448 119.866 L
264.41 119.352 L
265.372 118.84 L
266.335 118.329 L
267.297 117.818 L
268.259 117.308 L
269.221 116.8 L
270.184 116.292 L
271.146 115.786 L
272.108 115.28 L
273.07 114.775 L
274.033 114.272 L
274.995 113.769 L
275.957 113.267 L
276.92 112.766 L
277.882 112.267 L
278.844 111.768 L
279.806 111.27 L
280.769 110.773 L
281.731 110.277 L
282.693 109.783 L
283.655 109.289 L
284.618 108.797 L
285.58 108.305 L
286.542 107.814 L
287.505 107.325 L
288.467 106.836 L
289.429 106.349 L
290.391 105.863 L
291.354 105.377 L
292.316 104.893 L
293.278 104.41 L
294.24 103.928 L
295.203 103.447 L
296.165 102.967 L
297.127 102.488 L
298.089 102.01 L
299.052 101.533 L
300.014 101.058 L
300.976 100.583 L
301.939 100.11 L
302.901 99.638 L
303.863 99.167 L
304.825 98.697 L
305.788 98.228 L
306.75 97.76 L
307.712 97.293 L
308.674 96.828 L
309.637 96.364 L
310.599 95.901 L
311.561 95.438 L
312.524 94.977 L
313.486 94.518 L
314.448 94.059 L
315.41 93.602 L
316.373 93.146 L
317.335 92.691 L
318.297 92.237 L
319.259 91.784 L
320.222 91.332 L
321.184 90.882 L
322.146 90.433 L
323.108 89.986 L
324.071 89.539 L
325.033 89.094 L
325.995 88.649 L
326.958 88.207 L
327.92 87.765 L
328.882 87.324 L
329.844 86.885 L
330.807 86.447 L
331.769 86.01 L
332.731 85.574 L
333.693 85.14 L
334.656 84.707 L
335.618 84.275 L
336.58 83.845 L
337.543 83.416 L
338.505 82.988 L
339.467 82.561 L
340.429 82.136 L
341.392 81.712 L
342.354 81.289 L
343.316 80.867 L
344.278 80.447 L
345.241 80.028 L
346.203 79.61 L
347.165 79.195 L
348.128 78.779 L
349.09 78.366 L
350.052 77.954 L
351.014 77.543 L
351.977 77.133 L
352.939 76.725 L
353.901 76.318 L
354.863 75.912 L
355.826 75.508 L
356.788 75.105 L
357.75 74.704 L
358.712 74.304 L
359.675 73.905 L
360.637 73.508 L
361.599 73.112 L
362.562 72.717 L
363.524 72.323 L
364.486 71.932 L
365.448 71.541 L
366.411 71.152 L
367.373 70.765 L
368.335 70.379 L
369.297 69.994 L
370.26 69.611 L
371.222 69.229 L
372.184 68.848 L
373.146 68.469 L
374.109 68.091 L
375.071 67.715 L
376.033 67.341 L
376.996 66.968 L
377.958 66.596 L
378.92 66.225 L
379.882 65.856 L
380.845 65.489 L
381.807 65.123 L
382.769 64.759 L
383.731 64.396 L
384.694 64.034 L
385.656 63.674 L
386.618 63.316 L
387.581 62.959 L
388.543 62.603 L
389.505 62.249 L
390.467 61.897 L
391.43 61.546 L
392.392 61.197 L
393.354 60.848 L
394.316 60.503 L
395.279 60.157 L
396.241 59.814 L
397.203 59.472 L
398.165 59.132 L
399.128 58.793 L
400.09 58.457 L
401.052 58.121 L
402.015 57.787 L
402.977 57.455 L
403.939 57.124 L
404.901 56.795 L
405.864 56.467 L
406.826 56.141 L
407.788 55.817 L
408.75 55.494 L
409.713 55.173 L
410.675 54.853 L
411.637 54.535 L
412.6 54.219 L
413.562 53.904 L
414.524 53.591 L
415.486 53.28 L
416.449 52.97 L
417.411 52.661 L
418.373 52.355 L
419.335 52.05 L
420.298 51.746 L
421.26 51.445 L
422.222 51.145 L
423.185 50.847 L
424.147 50.55 L
425.109 50.255 L
426.071 49.962 L
427.034 49.67 L
427.996 49.38 L
428.958 49.092 L
429.92 48.806 L
430.883 48.521 L
431.845 48.238 L
432.807 47.956 L
433.769 47.677 L
434.732 47.399 L
435.694 47.122 L
436.656 46.848 L
437.619 46.575 L
438.581 46.304 L
439.543 46.035 L
440.505 45.767 L
441.468 45.501 L
442.43 45.238 L
443.392 44.975 L
444.354 44.715 L
S
GR
GS
0.635 0.078 0.184 RC
[10 6] 0 setdash
2 LJ
0.5 LW
N
73.807 300.064 M
74.769 275.911 L
75.731 259.082 L
76.693 249.348 L
77.656 241.795 L
78.618 236.284 L
79.58 232.605 L
80.542 229.665 L
81.505 227.096 L
82.467 224.865 L
83.429 222.937 L
84.391 221.278 L
85.354 219.855 L
86.316 218.634 L
87.278 217.579 L
88.241 216.581 L
89.203 215.586 L
90.165 214.593 L
91.127 213.604 L
92.09 212.617 L
93.052 211.633 L
94.014 210.652 L
94.976 209.674 L
95.939 208.699 L
96.901 207.726 L
97.863 206.757 L
98.826 205.791 L
99.788 204.826 L
100.75 203.866 L
101.712 202.908 L
102.675 201.953 L
103.637 201 L
104.599 200.051 L
105.561 199.105 L
106.524 198.161 L
107.486 197.22 L
108.448 196.282 L
109.41 195.348 L
110.373 194.415 L
111.335 193.486 L
112.297 192.56 L
113.26 191.637 L
114.222 190.717 L
115.184 189.799 L
116.146 188.885 L
117.109 187.973 L
118.071 187.064 L
119.033 186.158 L
119.995 185.255 L
120.958 184.355 L
121.92 183.458 L
122.882 182.563 L
123.845 181.673 L
124.807 180.784 L
125.769 179.899 L
126.731 179.016 L
127.694 178.137 L
128.656 177.26 L
129.618 176.386 L
130.58 175.515 L
131.543 174.647 L
132.505 173.783 L
133.467 172.921 L
134.43 172.062 L
135.392 171.206 L
136.354 170.352 L
137.316 169.502 L
138.279 168.655 L
139.241 167.811 L
140.203 166.97 L
141.165 166.131 L
142.128 165.296 L
143.09 164.464 L
144.052 163.635 L
145.014 162.808 L
145.977 161.984 L
146.939 161.164 L
147.901 160.346 L
148.864 159.532 L
149.826 158.72 L
150.788 157.911 L
151.75 157.106 L
152.713 156.303 L
153.675 155.504 L
154.637 154.707 L
155.599 153.913 L
156.562 153.122 L
157.524 152.335 L
158.486 151.55 L
159.449 150.768 L
160.411 149.989 L
161.373 149.214 L
162.335 148.441 L
163.298 147.672 L
164.26 146.905 L
165.222 146.141 L
166.184 145.381 L
167.147 144.623 L
168.109 143.868 L
169.071 143.117 L
170.033 142.368 L
170.996 141.622 L
171.958 140.88 L
172.92 140.141 L
173.883 139.404 L
174.845 138.67 L
175.807 137.94 L
176.769 137.213 L
177.732 136.488 L
178.694 135.767 L
179.656 135.049 L
180.618 134.333 L
181.581 133.621 L
182.543 132.912 L
183.505 132.206 L
184.468 131.503 L
185.43 130.803 L
186.392 130.106 L
187.354 129.412 L
188.317 128.721 L
189.279 128.033 L
190.241 127.349 L
191.203 126.667 L
192.166 125.989 L
193.128 125.313 L
194.09 124.641 L
195.052 123.971 L
196.015 123.305 L
196.977 122.642 L
197.939 121.982 L
198.902 121.324 L
199.864 120.671 L
200.826 120.02 L
201.788 119.372 L
202.751 118.727 L
203.713 118.085 L
204.675 117.447 L
205.637 116.811 L
206.6 116.179 L
207.562 115.55 L
208.524 114.924 L
209.487 114.3 L
210.449 113.681 L
211.411 113.064 L
212.373 112.45 L
213.336 111.839 L
214.298 111.232 L
215.26 110.628 L
216.222 110.026 L
217.185 109.428 L
218.147 108.833 L
219.109 108.241 L
220.071 107.653 L
221.034 107.067 L
221.996 106.484 L
222.958 105.905 L
223.921 105.328 L
224.883 104.755 L
225.845 104.185 L
226.807 103.619 L
227.77 103.055 L
228.732 102.494 L
229.694 101.937 L
230.656 101.382 L
231.619 100.832 L
232.581 100.283 L
233.543 99.739 L
234.506 99.197 L
235.468 98.658 L
236.43 98.123 L
237.392 97.591 L
238.355 97.062 L
239.317 96.536 L
240.279 96.013 L
241.241 95.494 L
242.204 94.977 L
243.166 94.464 L
244.128 93.954 L
245.09 93.447 L
246.053 92.943 L
247.015 92.443 L
247.977 91.946 L
248.94 91.452 L
249.902 90.961 L
250.864 90.473 L
251.826 89.989 L
252.789 89.508 L
253.751 89.029 L
254.713 88.554 L
255.675 88.082 L
256.638 87.614 L
257.6 87.148 L
258.562 86.687 L
259.525 86.228 L
260.487 85.772 L
261.449 85.319 L
262.411 84.87 L
263.374 84.424 L
264.336 83.981 L
265.298 83.541 L
266.26 83.105 L
267.223 82.672 L
268.185 82.241 L
269.147 81.815 L
270.109 81.391 L
271.072 80.971 L
272.034 80.554 L
272.996 80.14 L
273.959 79.729 L
274.921 79.322 L
275.883 78.918 L
276.845 78.517 L
277.808 78.12 L
278.77 77.726 L
279.732 77.334 L
280.694 76.946 L
281.657 76.562 L
282.619 76.18 L
283.581 75.802 L
284.544 75.428 L
285.506 75.056 L
286.468 74.688 L
287.43 74.323 L
288.393 73.96 L
289.355 73.602 L
290.317 73.247 L
291.279 72.895 L
292.242 72.546 L
293.204 72.201 L
294.166 71.858 L
295.128 71.52 L
296.091 71.184 L
297.053 70.852 L
298.015 70.523 L
298.978 70.197 L
299.94 69.875 L
300.902 69.556 L
301.864 69.24 L
302.827 68.927 L
303.789 68.618 L
304.751 68.312 L
305.713 68.01 L
306.676 67.71 L
307.638 67.415 L
308.6 67.122 L
309.563 66.832 L
310.525 66.546 L
311.487 66.263 L
312.449 65.984 L
313.412 65.708 L
314.374 65.435 L
315.336 65.166 L
316.298 64.899 L
317.261 64.636 L
318.223 64.377 L
319.185 64.121 L
320.147 63.868 L
321.11 63.619 L
322.072 63.372 L
323.034 63.13 L
323.997 62.89 L
324.959 62.654 L
325.921 62.421 L
326.883 62.192 L
327.846 61.966 L
328.808 61.743 L
329.77 61.524 L
330.732 61.308 L
331.695 61.095 L
332.657 60.886 L
333.619 60.68 L
334.582 60.477 L
335.544 60.278 L
336.506 60.082 L
337.468 59.89 L
338.431 59.701 L
339.393 59.515 L
340.355 59.333 L
341.317 59.154 L
342.28 58.978 L
343.242 58.806 L
344.204 58.637 L
345.167 58.472 L
346.129 58.31 L
347.091 58.151 L
348.053 57.996 L
349.016 57.844 L
349.978 57.696 L
350.94 57.551 L
351.902 57.409 L
352.865 57.27 L
353.827 57.135 L
354.789 57.004 L
355.751 56.876 L
356.714 56.751 L
357.676 56.63 L
358.638 56.513 L
359.601 56.398 L
360.563 56.287 L
361.525 56.18 L
362.487 56.076 L
363.45 55.975 L
364.412 55.878 L
365.374 55.784 L
366.336 55.693 L
367.299 55.606 L
368.261 55.522 L
369.223 55.443 L
370.185 55.366 L
371.148 55.293 L
372.11 55.223 L
373.072 55.157 L
374.035 55.094 L
374.997 55.034 L
375.959 54.978 L
376.921 54.926 L
377.884 54.877 L
378.846 54.831 L
379.808 54.789 L
380.77 54.75 L
381.733 54.715 L
382.695 54.683 L
383.657 54.655 L
384.62 54.63 L
385.582 54.609 L
386.544 54.591 L
387.506 54.576 L
388.469 54.565 L
389.431 54.558 L
390.393 54.554 L
S
GR
GS
0 0.447 0.741 RC
[10 6] 0 setdash
2 LJ
0.5 LW
N
73.774 291.773 M
74.737 270.626 L
75.699 255.834 L
76.661 249.861 L
77.623 245.041 L
78.586 241.158 L
79.548 238.07 L
80.51 235.637 L
81.473 233.717 L
82.435 232.17 L
83.397 230.806 L
84.359 229.531 L
85.322 228.341 L
86.284 227.228 L
87.246 226.19 L
88.208 225.221 L
89.171 224.314 L
90.133 223.466 L
91.095 222.672 L
92.058 221.926 L
93.02 221.224 L
93.982 220.559 L
94.944 219.927 L
95.907 219.323 L
96.869 218.742 L
97.831 218.179 L
98.793 217.628 L
99.756 217.085 L
100.718 216.544 L
101.68 216.001 L
102.642 215.45 L
103.605 214.886 L
104.567 214.304 L
105.529 213.699 L
106.492 213.067 L
107.454 212.426 L
108.416 211.785 L
109.378 211.144 L
110.341 210.504 L
111.303 209.864 L
112.265 209.225 L
113.227 208.585 L
114.19 207.945 L
115.152 207.307 L
116.114 206.668 L
117.077 206.03 L
118.039 205.392 L
119.001 204.754 L
119.963 204.116 L
120.926 203.479 L
121.888 202.842 L
122.85 202.206 L
123.812 201.57 L
124.775 200.934 L
125.737 200.298 L
126.699 199.664 L
127.661 199.029 L
128.624 198.395 L
129.586 197.761 L
130.548 197.127 L
131.511 196.494 L
132.473 195.861 L
133.435 195.229 L
134.397 194.596 L
135.36 193.965 L
136.322 193.334 L
137.284 192.703 L
138.246 192.073 L
139.209 191.442 L
140.171 190.813 L
141.133 190.184 L
142.096 189.555 L
143.058 188.927 L
144.02 188.299 L
144.982 187.672 L
145.945 187.046 L
146.907 186.419 L
147.869 185.793 L
148.831 185.168 L
149.794 184.543 L
150.756 183.918 L
151.718 183.295 L
152.68 182.672 L
153.643 182.049 L
154.605 181.426 L
155.567 180.805 L
156.53 180.183 L
157.492 179.562 L
158.454 178.942 L
159.416 178.323 L
160.379 177.704 L
161.341 177.085 L
162.303 176.467 L
163.265 175.849 L
164.228 175.233 L
165.19 174.617 L
166.152 174.001 L
167.115 173.386 L
168.077 172.771 L
169.039 172.158 L
170.001 171.544 L
170.964 170.932 L
171.926 170.32 L
172.888 169.709 L
173.85 169.098 L
174.813 168.488 L
175.775 167.879 L
176.737 167.27 L
177.699 166.662 L
178.662 166.054 L
179.624 165.447 L
180.586 164.841 L
181.549 164.236 L
182.511 163.631 L
183.473 163.026 L
184.435 162.423 L
185.398 161.82 L
186.36 161.219 L
187.322 160.618 L
188.284 160.017 L
189.247 159.417 L
190.209 158.818 L
191.171 158.22 L
192.134 157.622 L
193.096 157.025 L
194.058 156.429 L
195.02 155.834 L
195.983 155.24 L
196.945 154.645 L
197.907 154.053 L
198.869 153.46 L
199.832 152.869 L
200.794 152.278 L
201.756 151.688 L
202.719 151.099 L
203.681 150.511 L
204.643 149.924 L
205.605 149.337 L
206.568 148.751 L
207.53 148.166 L
208.492 147.582 L
209.454 146.999 L
210.417 146.417 L
211.379 145.835 L
212.341 145.254 L
213.303 144.674 L
214.266 144.096 L
215.228 143.517 L
216.19 142.941 L
217.153 142.364 L
218.115 141.789 L
219.077 141.214 L
220.039 140.641 L
221.002 140.068 L
221.964 139.496 L
222.926 138.925 L
223.888 138.355 L
224.851 137.787 L
225.813 137.219 L
226.775 136.651 L
227.738 136.085 L
228.7 135.52 L
229.662 134.956 L
230.624 134.393 L
231.587 133.83 L
232.549 133.269 L
233.511 132.709 L
234.473 132.15 L
235.436 131.592 L
236.398 131.034 L
237.36 130.478 L
238.322 129.923 L
239.285 129.369 L
240.247 128.815 L
241.209 128.263 L
242.172 127.712 L
243.134 127.162 L
244.096 126.613 L
245.058 126.065 L
246.021 125.518 L
246.983 124.972 L
247.945 124.427 L
248.907 123.884 L
249.87 123.341 L
250.832 122.8 L
251.794 122.259 L
252.757 121.72 L
253.719 121.182 L
254.681 120.645 L
255.643 120.109 L
256.606 119.574 L
257.568 119.04 L
258.53 118.507 L
259.492 117.976 L
260.455 117.446 L
261.417 116.917 L
262.379 116.389 L
263.341 115.862 L
264.304 115.336 L
265.266 114.812 L
266.228 114.289 L
267.191 113.767 L
268.153 113.246 L
269.115 112.726 L
270.077 112.207 L
271.04 111.69 L
272.002 111.175 L
272.964 110.659 L
273.926 110.146 L
274.889 109.634 L
275.851 109.122 L
276.813 108.612 L
277.776 108.104 L
278.738 107.597 L
279.7 107.09 L
280.662 106.585 L
281.625 106.082 L
282.587 105.58 L
283.549 105.079 L
284.511 104.579 L
285.474 104.08 L
286.436 103.584 L
287.398 103.088 L
288.36 102.593 L
289.323 102.1 L
290.285 101.608 L
291.247 101.118 L
292.21 100.629 L
293.172 100.141 L
294.134 99.654 L
295.096 99.169 L
296.059 98.685 L
297.021 98.202 L
297.983 97.722 L
298.945 97.242 L
299.908 96.764 L
300.87 96.287 L
301.832 95.811 L
302.795 95.337 L
303.757 94.865 L
304.719 94.393 L
305.681 93.923 L
306.644 93.455 L
307.606 92.988 L
308.568 92.523 L
309.53 92.058 L
310.493 91.595 L
311.455 91.134 L
312.417 90.675 L
313.379 90.216 L
314.342 89.759 L
315.304 89.304 L
316.266 88.85 L
317.229 88.398 L
318.191 87.947 L
319.153 87.497 L
320.115 87.049 L
321.078 86.603 L
322.04 86.158 L
323.002 85.714 L
323.964 85.272 L
324.927 84.832 L
325.889 84.394 L
326.851 83.956 L
327.814 83.521 L
328.776 83.086 L
329.738 82.654 L
330.7 82.223 L
331.663 81.793 L
332.625 81.365 L
333.587 80.939 L
334.549 80.515 L
335.512 80.091 L
336.474 79.67 L
337.436 79.25 L
338.398 78.832 L
339.361 78.415 L
340.323 78 L
341.285 77.587 L
342.248 77.175 L
343.21 76.765 L
344.172 76.356 L
345.134 75.949 L
346.097 75.544 L
347.059 75.14 L
348.021 74.739 L
348.983 74.338 L
349.946 73.94 L
350.908 73.543 L
351.87 73.148 L
352.833 72.754 L
353.795 72.363 L
354.757 71.972 L
355.719 71.584 L
356.682 71.198 L
357.644 70.813 L
358.606 70.43 L
359.568 70.048 L
360.531 69.669 L
361.493 69.29 L
362.455 68.914 L
363.417 68.54 L
364.38 68.167 L
365.342 67.797 L
366.304 67.427 L
367.267 67.06 L
368.229 66.694 L
369.191 66.331 L
370.153 65.969 L
371.116 65.609 L
372.078 65.25 L
373.04 64.894 L
374.002 64.539 L
374.965 64.186 L
375.927 63.835 L
376.889 63.486 L
377.852 63.139 L
378.814 62.794 L
379.776 62.45 L
380.738 62.108 L
381.701 61.768 L
382.663 61.43 L
383.625 61.094 L
384.587 60.76 L
385.55 60.427 L
386.512 60.097 L
387.474 59.768 L
388.436 59.442 L
389.399 59.117 L
390.361 58.794 L
391.323 58.473 L
392.286 58.154 L
393.248 57.837 L
394.21 57.522 L
395.172 57.209 L
396.135 56.898 L
397.097 56.588 L
398.059 56.281 L
399.021 55.976 L
399.984 55.673 L
400.946 55.372 L
401.908 55.072 L
402.871 54.775 L
403.833 54.479 L
404.795 54.186 L
405.757 53.894 L
406.72 53.605 L
407.682 53.318 L
408.644 53.033 L
409.606 52.749 L
410.569 52.468 L
411.531 52.189 L
412.493 51.912 L
413.456 51.637 L
414.418 51.364 L
415.38 51.093 L
416.342 50.824 L
417.305 50.558 L
418.267 50.293 L
419.229 50.03 L
420.191 49.77 L
421.154 49.511 L
422.116 49.255 L
423.078 49.001 L
424.04 48.749 L
425.003 48.499 L
425.965 48.251 L
426.927 48.006 L
S
GR
GS
0.851 0.325 0.098 RC
[10 6] 0 setdash
2 LJ
0.5 LW
N
73.03 374 M
73.992 313.846 L
74.955 285.775 L
75.917 268.88 L
76.879 258.647 L
77.841 252.133 L
78.804 246.569 L
79.766 241.902 L
80.728 238.088 L
81.69 235.088 L
82.653 232.857 L
83.615 231.328 L
84.577 229.99 L
85.539 228.658 L
86.502 227.331 L
87.464 226.012 L
88.426 224.698 L
89.389 223.391 L
90.351 222.09 L
91.313 220.795 L
92.275 219.507 L
93.238 218.225 L
94.2 216.948 L
95.162 215.678 L
96.124 214.414 L
97.087 213.157 L
98.049 211.905 L
99.011 210.659 L
99.974 209.42 L
100.936 208.187 L
101.898 206.96 L
102.86 205.738 L
103.823 204.523 L
104.785 203.314 L
105.747 202.111 L
106.709 200.914 L
107.672 199.723 L
108.634 198.538 L
109.596 197.359 L
110.559 196.186 L
111.521 195.02 L
112.483 193.858 L
113.445 192.703 L
114.408 191.554 L
115.37 190.411 L
116.332 189.274 L
117.294 188.143 L
118.257 187.017 L
119.219 185.898 L
120.181 184.784 L
121.143 183.676 L
122.106 182.574 L
123.068 181.477 L
124.03 180.387 L
124.993 179.303 L
125.955 178.224 L
126.917 177.15 L
127.879 176.083 L
128.842 175.022 L
129.804 173.966 L
130.766 172.916 L
131.728 171.872 L
132.691 170.834 L
133.653 169.8 L
134.615 168.773 L
135.578 167.752 L
136.54 166.736 L
137.502 165.726 L
138.464 164.721 L
139.427 163.722 L
140.389 162.73 L
141.351 161.742 L
142.313 160.76 L
143.276 159.783 L
144.238 158.812 L
145.2 157.847 L
146.162 156.887 L
147.125 155.933 L
148.087 154.985 L
149.049 154.041 L
150.012 153.104 L
150.974 152.172 L
151.936 151.245 L
152.898 150.324 L
153.861 149.408 L
154.823 148.497 L
155.785 147.593 L
156.747 146.694 L
157.71 145.8 L
158.672 144.911 L
159.634 144.027 L
160.597 143.149 L
161.559 142.277 L
162.521 141.41 L
163.483 140.548 L
164.446 139.692 L
165.408 138.84 L
166.37 137.995 L
167.332 137.154 L
168.295 136.319 L
169.257 135.489 L
170.219 134.664 L
171.181 133.844 L
172.144 133.031 L
173.106 132.221 L
174.068 131.418 L
175.031 130.619 L
175.993 129.826 L
176.955 129.038 L
177.917 128.254 L
178.88 127.476 L
179.842 126.704 L
180.804 125.936 L
181.766 125.174 L
182.729 124.416 L
183.691 123.664 L
184.653 122.916 L
185.616 122.175 L
186.578 121.437 L
187.54 120.706 L
188.502 119.978 L
189.465 119.256 L
190.427 118.539 L
191.389 117.827 L
192.351 117.121 L
193.314 116.419 L
194.276 115.722 L
195.238 115.029 L
196.2 114.342 L
197.163 113.66 L
198.125 112.984 L
199.087 112.311 L
200.05 111.644 L
201.012 110.981 L
201.974 110.323 L
202.936 109.67 L
203.899 109.023 L
204.861 108.38 L
205.823 107.741 L
206.785 107.108 L
207.748 106.479 L
208.71 105.856 L
209.672 105.237 L
210.635 104.622 L
211.597 104.013 L
212.559 103.408 L
213.521 102.808 L
214.484 102.213 L
215.446 101.622 L
216.408 101.036 L
217.37 100.455 L
218.333 99.878 L
219.295 99.307 L
220.257 98.739 L
221.219 98.177 L
222.182 97.619 L
223.144 97.066 L
224.106 96.517 L
225.069 95.973 L
226.031 95.433 L
226.993 94.898 L
227.955 94.368 L
228.918 93.842 L
229.88 93.321 L
230.842 92.804 L
231.804 92.292 L
232.767 91.785 L
233.729 91.281 L
234.691 90.782 L
235.654 90.288 L
236.616 89.798 L
237.578 89.313 L
238.54 88.832 L
239.503 88.356 L
240.465 87.883 L
241.427 87.416 L
242.389 86.952 L
243.352 86.493 L
244.314 86.038 L
245.276 85.588 L
246.238 85.143 L
247.201 84.701 L
248.163 84.264 L
249.125 83.831 L
250.088 83.402 L
251.05 82.978 L
252.012 82.558 L
252.974 82.142 L
253.937 81.73 L
254.899 81.323 L
255.861 80.92 L
256.823 80.521 L
257.786 80.126 L
258.748 79.736 L
259.71 79.349 L
260.673 78.967 L
261.635 78.589 L
262.597 78.215 L
263.559 77.845 L
264.522 77.48 L
265.484 77.119 L
266.446 76.761 L
267.408 76.407 L
268.371 76.059 L
269.333 75.713 L
270.295 75.372 L
271.258 75.035 L
272.22 74.702 L
273.182 74.373 L
274.144 74.048 L
275.107 73.727 L
276.069 73.41 L
277.031 73.096 L
277.993 72.788 L
278.956 72.483 L
279.918 72.181 L
280.88 71.883 L
281.842 71.59 L
282.805 71.301 L
283.767 71.015 L
284.729 70.733 L
285.692 70.455 L
286.654 70.181 L
287.616 69.911 L
288.578 69.644 L
289.541 69.382 L
290.503 69.123 L
291.465 68.868 L
292.427 68.617 L
293.39 68.37 L
294.352 68.126 L
295.314 67.886 L
296.277 67.65 L
297.239 67.417 L
298.201 67.188 L
299.163 66.964 L
300.126 66.742 L
301.088 66.524 L
302.05 66.31 L
303.012 66.1 L
303.975 65.893 L
304.937 65.69 L
305.899 65.491 L
306.861 65.295 L
307.824 65.102 L
308.786 64.914 L
309.748 64.729 L
310.711 64.547 L
311.673 64.37 L
312.635 64.195 L
313.597 64.024 L
314.56 63.856 L
315.522 63.693 L
316.484 63.532 L
317.446 63.375 L
318.409 63.221 L
319.371 63.072 L
320.333 62.925 L
321.296 62.782 L
322.258 62.642 L
323.22 62.506 L
324.182 62.373 L
325.145 62.243 L
326.107 62.117 L
327.069 61.994 L
328.031 61.875 L
328.994 61.759 L
329.956 61.646 L
330.918 61.537 L
331.88 61.431 L
332.843 61.328 L
333.805 61.228 L
334.767 61.132 L
335.73 61.039 L
336.692 60.949 L
337.654 60.862 L
338.616 60.779 L
339.579 60.699 L
340.541 60.622 L
341.503 60.548 L
342.465 60.478 L
343.428 60.41 L
344.39 60.346 L
345.352 60.285 L
346.315 60.227 L
347.277 60.172 L
348.239 60.12 L
349.201 60.072 L
350.164 60.026 L
351.126 59.984 L
352.088 59.944 L
353.05 59.908 L
354.013 59.875 L
354.975 59.844 L
355.937 59.817 L
356.899 59.793 L
357.862 59.772 L
358.824 59.753 L
359.786 59.738 L
360.749 59.725 L
361.711 59.715 L
362.673 59.709 L
363.635 59.705 L
S
GR
GS
1 GC
N
499 366 M
499 218.5 L
327.5 218.5 L
327.5 366 L
cp
f
GR
GS
[1 0 0 1 364.5 228.25] CT
/Helvetica 13 F
GS
[1 0 0 1 0 0] CT
0 5 moveto 
1 -1 scale
(Base Run) t 
GR
GR
GS
0 0.447 0.741 RC
1 LJ
0.5 LW
N
331.5 228.25 M
361.5 228.25 L
S
GR
GS
[1 0 0 1 364.5 244.25] CT
/Helvetica 13 F
GS
[1 0 0 1 0 0] CT
0 5 moveto 
1 -1 scale
(All Frames) t 
GR
GR
GS
0.851 0.325 0.098 RC
1 LJ
0.5 LW
N
331.5 244.25 M
361.5 244.25 L
S
GR
GS
[1 0 0 1 364.5 260.25] CT
/Helvetica 13 F
GS
[1 0 0 1 0 0] CT
0 5 moveto 
1 -1 scale
(KF Only) t 
GR
GR
GS
0.929 0.694 0.125 RC
1 LJ
0.5 LW
N
331.5 260.25 M
361.5 260.25 L
S
GR
GS
[1 0 0 1 364.5 276.25] CT
/Helvetica 13 F
GS
[1 0 0 1 0 0] CT
0 5 moveto 
1 -1 scale
(GF, ARF Only) t 
GR
GR
GS
0.494 0.184 0.557 RC
1 LJ
0.5 LW
N
331.5 276.25 M
361.5 276.25 L
S
GR
GS
[1 0 0 1 364.5 292.25] CT
/Helvetica 13 F
GS
[1 0 0 1 0 0] CT
0 5 moveto 
1 -1 scale
(KF, GF, ARF Only) t 
GR
GR
GS
0.467 0.675 0.188 RC
1 LJ
0.5 LW
N
331.5 292.25 M
361.5 292.25 L
S
GR
GS
[1 0 0 1 364.5 308.25] CT
/Helvetica 13 F
GS
[1 0 0 1 0 0] CT
0 5 moveto 
1 -1 scale
(Part All Frames) t 
GR
GR
GS
0.302 0.745 0.933 RC
[10 6] 0 setdash
2 LJ
0.5 LW
N
331.5 308.25 M
361.5 308.25 L
S
GR
GS
[1 0 0 1 364.5 324.25] CT
/Helvetica 13 F
GS
[1 0 0 1 0 0] CT
0 5 moveto 
1 -1 scale
(Part KF Only) t 
GR
GR
GS
0.635 0.078 0.184 RC
[10 6] 0 setdash
2 LJ
0.5 LW
N
331.5 324.25 M
361.5 324.25 L
S
GR
GS
[1 0 0 1 364.5 340.25] CT
/Helvetica 13 F
GS
[1 0 0 1 0 0] CT
0 5 moveto 
1 -1 scale
(Part GF, ARF Only) t 
GR
GR
GS
0 0.447 0.741 RC
[10 6] 0 setdash
2 LJ
0.5 LW
N
331.5 340.25 M
361.5 340.25 L
S
GR
GS
[1 0 0 1 364.5 356.25] CT
/Helvetica 13 F
GS
[1 0 0 1 0 0] CT
0 5 moveto 
1 -1 scale
(Part KF, GF, ARF Only) t 
GR
GR
GS
0.851 0.325 0.098 RC
[10 6] 0 setdash
2 LJ
0.5 LW
N
331.5 356.25 M
361.5 356.25 L
S
GR
GS
0.149 GC
10.0 ML
0.5 LW
N
327.5 366 M
327.5 218.5 L
499 218.5 L
499 366 L
cp
S
GR
%%Trailer
%%Pages: 1
%%EOF
