%!PS-Adobe-3.0 EPSF-3.0
%%Creator: (MATLAB, The Mathworks, Inc. Version 9.11.0.1837725 \(R2021b\) Update 2. Operating System: Mac OS X)
%%Title: plots/pchip/DinnerSceneCropped_1920x1080_2997fps_10bit_420.y4m-hevc-APSNRU.eps
%%CreationDate: 2022-02-03T19:14:04
%%Pages: (atend)
%%BoundingBox:    22   425   531   826
%%LanguageLevel: 3
%%EndComments
%%BeginProlog
%%BeginResource: procset (Apache XML Graphics Std ProcSet) 1.2 0
%%Version: 1.2 0
%%Copyright: (Copyright 2001-2003,2010 The Apache Software Foundation. License terms: http://www.apache.org/licenses/LICENSE-2.0)
/bd{bind def}bind def
/ld{load def}bd
/GR/grestore ld
/GS/gsave ld
/RM/rmoveto ld
/C/curveto ld
/t/show ld
/L/lineto ld
/ML/setmiterlimit ld
/CT/concat ld
/f/fill ld
/N/newpath ld
/S/stroke ld
/CC/setcmykcolor ld
/A/ashow ld
/cp/closepath ld
/RC/setrgbcolor ld
/LJ/setlinejoin ld
/GC/setgray ld
/LW/setlinewidth ld
/M/moveto ld
/re {4 2 roll M
1 index 0 rlineto
0 exch rlineto
neg 0 rlineto
cp } bd
/_ctm matrix def
/_tm matrix def
/BT { _ctm currentmatrix pop matrix _tm copy pop 0 0 moveto } bd
/ET { _ctm setmatrix } bd
/iTm { _ctm setmatrix _tm concat } bd
/Tm { _tm astore pop iTm 0 0 moveto } bd
/ux 0.0 def
/uy 0.0 def
/F {
  /Tp exch def
  /Tf exch def
  Tf findfont Tp scalefont setfont
  /cf Tf def  /cs Tp def
} bd
/ULS {currentpoint /uy exch def /ux exch def} bd
/ULE {
  /Tcx currentpoint pop def
  gsave
  newpath
  cf findfont cs scalefont dup
  /FontMatrix get 0 get /Ts exch def /FontInfo get dup
  /UnderlinePosition get Ts mul /To exch def
  /UnderlineThickness get Ts mul /Tt exch def
  ux uy To add moveto  Tcx uy To add lineto
  Tt setlinewidth stroke
  grestore
} bd
/OLE {
  /Tcx currentpoint pop def
  gsave
  newpath
  cf findfont cs scalefont dup
  /FontMatrix get 0 get /Ts exch def /FontInfo get dup
  /UnderlinePosition get Ts mul /To exch def
  /UnderlineThickness get Ts mul /Tt exch def
  ux uy To add cs add moveto Tcx uy To add cs add lineto
  Tt setlinewidth stroke
  grestore
} bd
/SOE {
  /Tcx currentpoint pop def
  gsave
  newpath
  cf findfont cs scalefont dup
  /FontMatrix get 0 get /Ts exch def /FontInfo get dup
  /UnderlinePosition get Ts mul /To exch def
  /UnderlineThickness get Ts mul /Tt exch def
  ux uy To add cs 10 mul 26 idiv add moveto Tcx uy To add cs 10 mul 26 idiv add lineto
  Tt setlinewidth stroke
  grestore
} bd
/QT {
/Y22 exch store
/X22 exch store
/Y21 exch store
/X21 exch store
currentpoint
/Y21 load 2 mul add 3 div exch
/X21 load 2 mul add 3 div exch
/X21 load 2 mul /X22 load add 3 div
/Y21 load 2 mul /Y22 load add 3 div
/X22 load /Y22 load curveto
} bd
/SSPD {
dup length /d exch dict def
{
/v exch def
/k exch def
currentpagedevice k known {
/cpdv currentpagedevice k get def
v cpdv ne {
/upd false def
/nullv v type /nulltype eq def
/nullcpdv cpdv type /nulltype eq def
nullv nullcpdv or
{
/upd true def
} {
/sametype v type cpdv type eq def
sametype {
v type /arraytype eq {
/vlen v length def
/cpdvlen cpdv length def
vlen cpdvlen eq {
0 1 vlen 1 sub {
/i exch def
/obj v i get def
/cpdobj cpdv i get def
obj cpdobj ne {
/upd true def
exit
} if
} for
} {
/upd true def
} ifelse
} {
v type /dicttype eq {
v {
/dv exch def
/dk exch def
/cpddv cpdv dk get def
dv cpddv ne {
/upd true def
exit
} if
} forall
} {
/upd true def
} ifelse
} ifelse
} if
} ifelse
upd true eq {
d k v put
} if
} if
} if
} forall
d length 0 gt {
d setpagedevice
} if
} bd
/RE { % /NewFontName [NewEncodingArray] /FontName RE -
  findfont dup length dict begin
  {
    1 index /FID ne
    {def} {pop pop} ifelse
  } forall
  /Encoding exch def
  /FontName 1 index def
  currentdict definefont pop
  end
} bind def
%%EndResource
%%BeginResource: procset (Apache XML Graphics EPS ProcSet) 1.0 0
%%Version: 1.0 0
%%Copyright: (Copyright 2002-2003 The Apache Software Foundation. License terms: http://www.apache.org/licenses/LICENSE-2.0)
/BeginEPSF { %def
/b4_Inc_state save def         % Save state for cleanup
/dict_count countdictstack def % Count objects on dict stack
/op_count count 1 sub def      % Count objects on operand stack
userdict begin                 % Push userdict on dict stack
/showpage { } def              % Redefine showpage, { } = null proc
0 setgray 0 setlinecap         % Prepare graphics state
1 setlinewidth 0 setlinejoin
10 setmiterlimit [ ] 0 setdash newpath
/languagelevel where           % If level not equal to 1 then
{pop languagelevel             % set strokeadjust and
1 ne                           % overprint to their defaults.
{false setstrokeadjust false setoverprint
} if
} if
} bd
/EndEPSF { %def
count op_count sub {pop} repeat            % Clean up stacks
countdictstack dict_count sub {end} repeat
b4_Inc_state restore
} bd
%%EndResource
%FOPBeginFontDict
%%IncludeResource: font Courier-Oblique
%%IncludeResource: font Courier-BoldOblique
%%IncludeResource: font Courier-Bold
%%IncludeResource: font ZapfDingbats
%%IncludeResource: font Symbol
%%IncludeResource: font Helvetica
%%IncludeResource: font Helvetica-Oblique
%%IncludeResource: font Helvetica-Bold
%%IncludeResource: font Helvetica-BoldOblique
%%IncludeResource: font Times-Roman
%%IncludeResource: font Times-Italic
%%IncludeResource: font Times-Bold
%%IncludeResource: font Times-BoldItalic
%%IncludeResource: font Courier
%FOPEndFontDict
%%BeginResource: encoding WinAnsiEncoding
/WinAnsiEncoding [
/.notdef /.notdef /.notdef /.notdef /.notdef
/.notdef /.notdef /.notdef /.notdef /.notdef
/.notdef /.notdef /.notdef /.notdef /.notdef
/.notdef /.notdef /.notdef /.notdef /.notdef
/.notdef /.notdef /.notdef /.notdef /.notdef
/.notdef /.notdef /.notdef /.notdef /.notdef
/.notdef /.notdef /space /exclam /quotedbl
/numbersign /dollar /percent /ampersand /quotesingle
/parenleft /parenright /asterisk /plus /comma
/hyphen /period /slash /zero /one
/two /three /four /five /six
/seven /eight /nine /colon /semicolon
/less /equal /greater /question /at
/A /B /C /D /E
/F /G /H /I /J
/K /L /M /N /O
/P /Q /R /S /T
/U /V /W /X /Y
/Z /bracketleft /backslash /bracketright /asciicircum
/underscore /quoteleft /a /b /c
/d /e /f /g /h
/i /j /k /l /m
/n /o /p /q /r
/s /t /u /v /w
/x /y /z /braceleft /bar
/braceright /asciitilde /bullet /Euro /bullet
/quotesinglbase /florin /quotedblbase /ellipsis /dagger
/daggerdbl /circumflex /perthousand /Scaron /guilsinglleft
/OE /bullet /Zcaron /bullet /bullet
/quoteleft /quoteright /quotedblleft /quotedblright /bullet
/endash /emdash /asciitilde /trademark /scaron
/guilsinglright /oe /bullet /zcaron /Ydieresis
/space /exclamdown /cent /sterling /currency
/yen /brokenbar /section /dieresis /copyright
/ordfeminine /guillemotleft /logicalnot /sfthyphen /registered
/macron /degree /plusminus /twosuperior /threesuperior
/acute /mu /paragraph /middot /cedilla
/onesuperior /ordmasculine /guillemotright /onequarter /onehalf
/threequarters /questiondown /Agrave /Aacute /Acircumflex
/Atilde /Adieresis /Aring /AE /Ccedilla
/Egrave /Eacute /Ecircumflex /Edieresis /Igrave
/Iacute /Icircumflex /Idieresis /Eth /Ntilde
/Ograve /Oacute /Ocircumflex /Otilde /Odieresis
/multiply /Oslash /Ugrave /Uacute /Ucircumflex
/Udieresis /Yacute /Thorn /germandbls /agrave
/aacute /acircumflex /atilde /adieresis /aring
/ae /ccedilla /egrave /eacute /ecircumflex
/edieresis /igrave /iacute /icircumflex /idieresis
/eth /ntilde /ograve /oacute /ocircumflex
/otilde /odieresis /divide /oslash /ugrave
/uacute /ucircumflex /udieresis /yacute /thorn
/ydieresis
] def
%%EndResource
%FOPBeginFontReencode
/Courier-Oblique findfont
dup length dict begin
  {1 index /FID ne {def} {pop pop} ifelse} forall
  /Encoding WinAnsiEncoding def
  currentdict
end
/Courier-Oblique exch definefont pop
/Courier-BoldOblique findfont
dup length dict begin
  {1 index /FID ne {def} {pop pop} ifelse} forall
  /Encoding WinAnsiEncoding def
  currentdict
end
/Courier-BoldOblique exch definefont pop
/Courier-Bold findfont
dup length dict begin
  {1 index /FID ne {def} {pop pop} ifelse} forall
  /Encoding WinAnsiEncoding def
  currentdict
end
/Courier-Bold exch definefont pop
/Helvetica findfont
dup length dict begin
  {1 index /FID ne {def} {pop pop} ifelse} forall
  /Encoding WinAnsiEncoding def
  currentdict
end
/Helvetica exch definefont pop
/Helvetica-Oblique findfont
dup length dict begin
  {1 index /FID ne {def} {pop pop} ifelse} forall
  /Encoding WinAnsiEncoding def
  currentdict
end
/Helvetica-Oblique exch definefont pop
/Helvetica-Bold findfont
dup length dict begin
  {1 index /FID ne {def} {pop pop} ifelse} forall
  /Encoding WinAnsiEncoding def
  currentdict
end
/Helvetica-Bold exch definefont pop
/Helvetica-BoldOblique findfont
dup length dict begin
  {1 index /FID ne {def} {pop pop} ifelse} forall
  /Encoding WinAnsiEncoding def
  currentdict
end
/Helvetica-BoldOblique exch definefont pop
/Times-Roman findfont
dup length dict begin
  {1 index /FID ne {def} {pop pop} ifelse} forall
  /Encoding WinAnsiEncoding def
  currentdict
end
/Times-Roman exch definefont pop
/Times-Italic findfont
dup length dict begin
  {1 index /FID ne {def} {pop pop} ifelse} forall
  /Encoding WinAnsiEncoding def
  currentdict
end
/Times-Italic exch definefont pop
/Times-Bold findfont
dup length dict begin
  {1 index /FID ne {def} {pop pop} ifelse} forall
  /Encoding WinAnsiEncoding def
  currentdict
end
/Times-Bold exch definefont pop
/Times-BoldItalic findfont
dup length dict begin
  {1 index /FID ne {def} {pop pop} ifelse} forall
  /Encoding WinAnsiEncoding def
  currentdict
end
/Times-BoldItalic exch definefont pop
/Courier findfont
dup length dict begin
  {1 index /FID ne {def} {pop pop} ifelse} forall
  /Encoding WinAnsiEncoding def
  currentdict
end
/Courier exch definefont pop
%FOPEndFontReencode
%%EndProlog
%%Page: 1 1
%%PageBoundingBox: 0 0 1120 840
%%BeginPageSetup
[1 0 0 -1 0 840] CT
%%EndPageSetup
GS
1 GC
N
0 0 1120 840 re
f
GR
GS
1 GC
N
73 374 M
507 374 L
507 31.5 L
73 31.5 L
cp
f
GR
GS
0.149 GC
2 setlinecap
1 LJ
0.5 LW
N
73 374 M
507 374 L
S
GR
GS
0.149 GC
2 setlinecap
1 LJ
0.5 LW
N
73 31.5 M
507 31.5 L
S
GR
GS
0.149 GC
2 setlinecap
1 LJ
0.5 LW
N
134.468 374 M
134.468 369.66 L
S
GR
GS
0.149 GC
2 setlinecap
1 LJ
0.5 LW
N
199.165 374 M
199.165 369.66 L
S
GR
GS
0.149 GC
2 setlinecap
1 LJ
0.5 LW
N
263.863 374 M
263.863 369.66 L
S
GR
GS
0.149 GC
2 setlinecap
1 LJ
0.5 LW
N
328.56 374 M
328.56 369.66 L
S
GR
GS
0.149 GC
2 setlinecap
1 LJ
0.5 LW
N
393.257 374 M
393.257 369.66 L
S
GR
GS
0.149 GC
2 setlinecap
1 LJ
0.5 LW
N
457.955 374 M
457.955 369.66 L
S
GR
GS
0.149 GC
2 setlinecap
1 LJ
0.5 LW
N
134.468 31.5 M
134.468 35.84 L
S
GR
GS
0.149 GC
2 setlinecap
1 LJ
0.5 LW
N
199.165 31.5 M
199.165 35.84 L
S
GR
GS
0.149 GC
2 setlinecap
1 LJ
0.5 LW
N
263.863 31.5 M
263.863 35.84 L
S
GR
GS
0.149 GC
2 setlinecap
1 LJ
0.5 LW
N
328.56 31.5 M
328.56 35.84 L
S
GR
GS
0.149 GC
2 setlinecap
1 LJ
0.5 LW
N
393.257 31.5 M
393.257 35.84 L
S
GR
GS
0.149 GC
2 setlinecap
1 LJ
0.5 LW
N
457.955 31.5 M
457.955 35.84 L
S
GR
GS
0.149 GC
2 setlinecap
1 LJ
0.5 LW
N
82.71 374 M
82.71 371.83 L
S
GR
GS
0.149 GC
2 setlinecap
1 LJ
0.5 LW
N
95.65 374 M
95.65 371.83 L
S
GR
GS
0.149 GC
2 setlinecap
1 LJ
0.5 LW
N
108.589 374 M
108.589 371.83 L
S
GR
GS
0.149 GC
2 setlinecap
1 LJ
0.5 LW
N
121.529 374 M
121.529 371.83 L
S
GR
GS
0.149 GC
2 setlinecap
1 LJ
0.5 LW
N
147.407 374 M
147.407 371.83 L
S
GR
GS
0.149 GC
2 setlinecap
1 LJ
0.5 LW
N
160.347 374 M
160.347 371.83 L
S
GR
GS
0.149 GC
2 setlinecap
1 LJ
0.5 LW
N
173.286 374 M
173.286 371.83 L
S
GR
GS
0.149 GC
2 setlinecap
1 LJ
0.5 LW
N
186.226 374 M
186.226 371.83 L
S
GR
GS
0.149 GC
2 setlinecap
1 LJ
0.5 LW
N
212.105 374 M
212.105 371.83 L
S
GR
GS
0.149 GC
2 setlinecap
1 LJ
0.5 LW
N
225.044 374 M
225.044 371.83 L
S
GR
GS
0.149 GC
2 setlinecap
1 LJ
0.5 LW
N
237.984 374 M
237.984 371.83 L
S
GR
GS
0.149 GC
2 setlinecap
1 LJ
0.5 LW
N
250.923 374 M
250.923 371.83 L
S
GR
GS
0.149 GC
2 setlinecap
1 LJ
0.5 LW
N
276.802 374 M
276.802 371.83 L
S
GR
GS
0.149 GC
2 setlinecap
1 LJ
0.5 LW
N
289.742 374 M
289.742 371.83 L
S
GR
GS
0.149 GC
2 setlinecap
1 LJ
0.5 LW
N
302.681 374 M
302.681 371.83 L
S
GR
GS
0.149 GC
2 setlinecap
1 LJ
0.5 LW
N
315.621 374 M
315.621 371.83 L
S
GR
GS
0.149 GC
2 setlinecap
1 LJ
0.5 LW
N
341.499 374 M
341.499 371.83 L
S
GR
GS
0.149 GC
2 setlinecap
1 LJ
0.5 LW
N
354.439 374 M
354.439 371.83 L
S
GR
GS
0.149 GC
2 setlinecap
1 LJ
0.5 LW
N
367.378 374 M
367.378 371.83 L
S
GR
GS
0.149 GC
2 setlinecap
1 LJ
0.5 LW
N
380.318 374 M
380.318 371.83 L
S
GR
GS
0.149 GC
2 setlinecap
1 LJ
0.5 LW
N
406.197 374 M
406.197 371.83 L
S
GR
GS
0.149 GC
2 setlinecap
1 LJ
0.5 LW
N
419.136 374 M
419.136 371.83 L
S
GR
GS
0.149 GC
2 setlinecap
1 LJ
0.5 LW
N
432.076 374 M
432.076 371.83 L
S
GR
GS
0.149 GC
2 setlinecap
1 LJ
0.5 LW
N
445.015 374 M
445.015 371.83 L
S
GR
GS
0.149 GC
2 setlinecap
1 LJ
0.5 LW
N
470.894 374 M
470.894 371.83 L
S
GR
GS
0.149 GC
2 setlinecap
1 LJ
0.5 LW
N
483.834 374 M
483.834 371.83 L
S
GR
GS
0.149 GC
2 setlinecap
1 LJ
0.5 LW
N
496.773 374 M
496.773 371.83 L
S
GR
GS
0.149 GC
2 setlinecap
1 LJ
0.5 LW
N
82.71 31.5 M
82.71 33.67 L
S
GR
GS
0.149 GC
2 setlinecap
1 LJ
0.5 LW
N
95.65 31.5 M
95.65 33.67 L
S
GR
GS
0.149 GC
2 setlinecap
1 LJ
0.5 LW
N
108.589 31.5 M
108.589 33.67 L
S
GR
GS
0.149 GC
2 setlinecap
1 LJ
0.5 LW
N
121.529 31.5 M
121.529 33.67 L
S
GR
GS
0.149 GC
2 setlinecap
1 LJ
0.5 LW
N
147.407 31.5 M
147.407 33.67 L
S
GR
GS
0.149 GC
2 setlinecap
1 LJ
0.5 LW
N
160.347 31.5 M
160.347 33.67 L
S
GR
GS
0.149 GC
2 setlinecap
1 LJ
0.5 LW
N
173.286 31.5 M
173.286 33.67 L
S
GR
GS
0.149 GC
2 setlinecap
1 LJ
0.5 LW
N
186.226 31.5 M
186.226 33.67 L
S
GR
GS
0.149 GC
2 setlinecap
1 LJ
0.5 LW
N
212.105 31.5 M
212.105 33.67 L
S
GR
GS
0.149 GC
2 setlinecap
1 LJ
0.5 LW
N
225.044 31.5 M
225.044 33.67 L
S
GR
GS
0.149 GC
2 setlinecap
1 LJ
0.5 LW
N
237.984 31.5 M
237.984 33.67 L
S
GR
GS
0.149 GC
2 setlinecap
1 LJ
0.5 LW
N
250.923 31.5 M
250.923 33.67 L
S
GR
GS
0.149 GC
2 setlinecap
1 LJ
0.5 LW
N
276.802 31.5 M
276.802 33.67 L
S
GR
GS
0.149 GC
2 setlinecap
1 LJ
0.5 LW
N
289.742 31.5 M
289.742 33.67 L
S
GR
GS
0.149 GC
2 setlinecap
1 LJ
0.5 LW
N
302.681 31.5 M
302.681 33.67 L
S
GR
GS
0.149 GC
2 setlinecap
1 LJ
0.5 LW
N
315.621 31.5 M
315.621 33.67 L
S
GR
GS
0.149 GC
2 setlinecap
1 LJ
0.5 LW
N
341.499 31.5 M
341.499 33.67 L
S
GR
GS
0.149 GC
2 setlinecap
1 LJ
0.5 LW
N
354.439 31.5 M
354.439 33.67 L
S
GR
GS
0.149 GC
2 setlinecap
1 LJ
0.5 LW
N
367.378 31.5 M
367.378 33.67 L
S
GR
GS
0.149 GC
2 setlinecap
1 LJ
0.5 LW
N
380.318 31.5 M
380.318 33.67 L
S
GR
GS
0.149 GC
2 setlinecap
1 LJ
0.5 LW
N
406.197 31.5 M
406.197 33.67 L
S
GR
GS
0.149 GC
2 setlinecap
1 LJ
0.5 LW
N
419.136 31.5 M
419.136 33.67 L
S
GR
GS
0.149 GC
2 setlinecap
1 LJ
0.5 LW
N
432.076 31.5 M
432.076 33.67 L
S
GR
GS
0.149 GC
2 setlinecap
1 LJ
0.5 LW
N
445.015 31.5 M
445.015 33.67 L
S
GR
GS
0.149 GC
2 setlinecap
1 LJ
0.5 LW
N
470.894 31.5 M
470.894 33.67 L
S
GR
GS
0.149 GC
2 setlinecap
1 LJ
0.5 LW
N
483.834 31.5 M
483.834 33.67 L
S
GR
GS
0.149 GC
2 setlinecap
1 LJ
0.5 LW
N
496.773 31.5 M
496.773 33.67 L
S
GR
GS
[1 0 0 1 134.468 378.79977] CT
0.149 GC
/Helvetica 14 F
GS
[1 0 0 1 0 0] CT
-16 14 moveto 
1 -1 scale
(1000) t 
GR
GR
GS
[1 0 0 1 199.16533 378.79977] CT
0.149 GC
/Helvetica 14 F
GS
[1 0 0 1 0 0] CT
-16 14 moveto 
1 -1 scale
(2000) t 
GR
GR
GS
[1 0 0 1 263.86267 378.79977] CT
0.149 GC
/Helvetica 14 F
GS
[1 0 0 1 0 0] CT
-16 14 moveto 
1 -1 scale
(3000) t 
GR
GR
GS
[1 0 0 1 328.56 378.79977] CT
0.149 GC
/Helvetica 14 F
GS
[1 0 0 1 0 0] CT
-16 14 moveto 
1 -1 scale
(4000) t 
GR
GR
GS
[1 0 0 1 393.25732 378.79977] CT
0.149 GC
/Helvetica 14 F
GS
[1 0 0 1 0 0] CT
-16 14 moveto 
1 -1 scale
(5000) t 
GR
GR
GS
[1 0 0 1 457.95465 378.79977] CT
0.149 GC
/Helvetica 14 F
GS
[1 0 0 1 0 0] CT
-16 14 moveto 
1 -1 scale
(6000) t 
GR
GR
GS
[1 0 0 1 290.00021 396.2999] CT
0.149 GC
/Helvetica 15.4 F
GS
[1 0 0 1 0 0] CT
-42 15 moveto 
1 -1 scale
(Bitrate\(kb/s\)) t 
GR
GR
GS
0.149 GC
2 setlinecap
1 LJ
0.5 LW
N
73 374 M
73 31.5 L
S
GR
GS
0.149 GC
2 setlinecap
1 LJ
0.5 LW
N
507 374 M
507 31.5 L
S
GR
GS
0.149 GC
2 setlinecap
1 LJ
0.5 LW
N
73 364.094 M
77.34 364.094 L
S
GR
GS
0.149 GC
2 setlinecap
1 LJ
0.5 LW
N
73 313.564 M
77.34 313.564 L
S
GR
GS
0.149 GC
2 setlinecap
1 LJ
0.5 LW
N
73 263.035 M
77.34 263.035 L
S
GR
GS
0.149 GC
2 setlinecap
1 LJ
0.5 LW
N
73 212.505 M
77.34 212.505 L
S
GR
GS
0.149 GC
2 setlinecap
1 LJ
0.5 LW
N
73 161.976 M
77.34 161.976 L
S
GR
GS
0.149 GC
2 setlinecap
1 LJ
0.5 LW
N
73 111.447 M
77.34 111.447 L
S
GR
GS
0.149 GC
2 setlinecap
1 LJ
0.5 LW
N
73 60.918 M
77.34 60.918 L
S
GR
GS
0.149 GC
2 setlinecap
1 LJ
0.5 LW
N
507 364.094 M
502.66 364.094 L
S
GR
GS
0.149 GC
2 setlinecap
1 LJ
0.5 LW
N
507 313.564 M
502.66 313.564 L
S
GR
GS
0.149 GC
2 setlinecap
1 LJ
0.5 LW
N
507 263.035 M
502.66 263.035 L
S
GR
GS
0.149 GC
2 setlinecap
1 LJ
0.5 LW
N
507 212.505 M
502.66 212.505 L
S
GR
GS
0.149 GC
2 setlinecap
1 LJ
0.5 LW
N
507 161.976 M
502.66 161.976 L
S
GR
GS
0.149 GC
2 setlinecap
1 LJ
0.5 LW
N
507 111.447 M
502.66 111.447 L
S
GR
GS
0.149 GC
2 setlinecap
1 LJ
0.5 LW
N
507 60.918 M
502.66 60.918 L
S
GR
GS
0.149 GC
2 setlinecap
1 LJ
0.5 LW
N
73 351.461 M
75.17 351.461 L
S
GR
GS
0.149 GC
2 setlinecap
1 LJ
0.5 LW
N
73 338.828 M
75.17 338.828 L
S
GR
GS
0.149 GC
2 setlinecap
1 LJ
0.5 LW
N
73 326.196 M
75.17 326.196 L
S
GR
GS
0.149 GC
2 setlinecap
1 LJ
0.5 LW
N
73 300.932 M
75.17 300.932 L
S
GR
GS
0.149 GC
2 setlinecap
1 LJ
0.5 LW
N
73 288.299 M
75.17 288.299 L
S
GR
GS
0.149 GC
2 setlinecap
1 LJ
0.5 LW
N
73 275.667 M
75.17 275.667 L
S
GR
GS
0.149 GC
2 setlinecap
1 LJ
0.5 LW
N
73 250.403 M
75.17 250.403 L
S
GR
GS
0.149 GC
2 setlinecap
1 LJ
0.5 LW
N
73 237.77 M
75.17 237.77 L
S
GR
GS
0.149 GC
2 setlinecap
1 LJ
0.5 LW
N
73 225.137 M
75.17 225.137 L
S
GR
GS
0.149 GC
2 setlinecap
1 LJ
0.5 LW
N
73 199.873 M
75.17 199.873 L
S
GR
GS
0.149 GC
2 setlinecap
1 LJ
0.5 LW
N
73 187.241 M
75.17 187.241 L
S
GR
GS
0.149 GC
2 setlinecap
1 LJ
0.5 LW
N
73 174.609 M
75.17 174.609 L
S
GR
GS
0.149 GC
2 setlinecap
1 LJ
0.5 LW
N
73 149.344 M
75.17 149.344 L
S
GR
GS
0.149 GC
2 setlinecap
1 LJ
0.5 LW
N
73 136.712 M
75.17 136.712 L
S
GR
GS
0.149 GC
2 setlinecap
1 LJ
0.5 LW
N
73 124.079 M
75.17 124.079 L
S
GR
GS
0.149 GC
2 setlinecap
1 LJ
0.5 LW
N
73 98.814 M
75.17 98.814 L
S
GR
GS
0.149 GC
2 setlinecap
1 LJ
0.5 LW
N
73 86.182 M
75.17 86.182 L
S
GR
GS
0.149 GC
2 setlinecap
1 LJ
0.5 LW
N
73 73.55 M
75.17 73.55 L
S
GR
GS
0.149 GC
2 setlinecap
1 LJ
0.5 LW
N
73 48.286 M
75.17 48.286 L
S
GR
GS
0.149 GC
2 setlinecap
1 LJ
0.5 LW
N
73 35.653 M
75.17 35.653 L
S
GR
GS
0.149 GC
2 setlinecap
1 LJ
0.5 LW
N
507 351.461 M
504.83 351.461 L
S
GR
GS
0.149 GC
2 setlinecap
1 LJ
0.5 LW
N
507 338.828 M
504.83 338.828 L
S
GR
GS
0.149 GC
2 setlinecap
1 LJ
0.5 LW
N
507 326.196 M
504.83 326.196 L
S
GR
GS
0.149 GC
2 setlinecap
1 LJ
0.5 LW
N
507 300.932 M
504.83 300.932 L
S
GR
GS
0.149 GC
2 setlinecap
1 LJ
0.5 LW
N
507 288.299 M
504.83 288.299 L
S
GR
GS
0.149 GC
2 setlinecap
1 LJ
0.5 LW
N
507 275.667 M
504.83 275.667 L
S
GR
GS
0.149 GC
2 setlinecap
1 LJ
0.5 LW
N
507 250.403 M
504.83 250.403 L
S
GR
GS
0.149 GC
2 setlinecap
1 LJ
0.5 LW
N
507 237.77 M
504.83 237.77 L
S
GR
GS
0.149 GC
2 setlinecap
1 LJ
0.5 LW
N
507 225.137 M
504.83 225.137 L
S
GR
GS
0.149 GC
2 setlinecap
1 LJ
0.5 LW
N
507 199.873 M
504.83 199.873 L
S
GR
GS
0.149 GC
2 setlinecap
1 LJ
0.5 LW
N
507 187.241 M
504.83 187.241 L
S
GR
GS
0.149 GC
2 setlinecap
1 LJ
0.5 LW
N
507 174.609 M
504.83 174.609 L
S
GR
GS
0.149 GC
2 setlinecap
1 LJ
0.5 LW
N
507 149.344 M
504.83 149.344 L
S
GR
GS
0.149 GC
2 setlinecap
1 LJ
0.5 LW
N
507 136.712 M
504.83 136.712 L
S
GR
GS
0.149 GC
2 setlinecap
1 LJ
0.5 LW
N
507 124.079 M
504.83 124.079 L
S
GR
GS
0.149 GC
2 setlinecap
1 LJ
0.5 LW
N
507 98.814 M
504.83 98.814 L
S
GR
GS
0.149 GC
2 setlinecap
1 LJ
0.5 LW
N
507 86.182 M
504.83 86.182 L
S
GR
GS
0.149 GC
2 setlinecap
1 LJ
0.5 LW
N
507 73.55 M
504.83 73.55 L
S
GR
GS
0.149 GC
2 setlinecap
1 LJ
0.5 LW
N
507 48.286 M
504.83 48.286 L
S
GR
GS
0.149 GC
2 setlinecap
1 LJ
0.5 LW
N
507 35.653 M
504.83 35.653 L
S
GR
GS
[1 0 0 1 68.2 364.09363] CT
0.149 GC
/Helvetica 14 F
GS
[1 0 0 1 0 0] CT
-28 5.5 moveto 
1 -1 scale
(39.6) t 
GR
GR
GS
[1 0 0 1 68.2 313.56418] CT
0.149 GC
/Helvetica 14 F
GS
[1 0 0 1 0 0] CT
-28 5.5 moveto 
1 -1 scale
(39.8) t 
GR
GR
GS
[1 0 0 1 68.2 263.03473] CT
0.149 GC
/Helvetica 14 F
GS
[1 0 0 1 0 0] CT
-16 5.5 moveto 
1 -1 scale
(40) t 
GR
GR
GS
[1 0 0 1 68.2 212.50529] CT
0.149 GC
/Helvetica 14 F
GS
[1 0 0 1 0 0] CT
-28 5.5 moveto 
1 -1 scale
(40.2) t 
GR
GR
GS
[1 0 0 1 68.2 161.97585] CT
0.149 GC
/Helvetica 14 F
GS
[1 0 0 1 0 0] CT
-28 5.5 moveto 
1 -1 scale
(40.4) t 
GR
GR
GS
[1 0 0 1 68.2 111.44737] CT
0.149 GC
/Helvetica 14 F
GS
[1 0 0 1 0 0] CT
-28 5.5 moveto 
1 -1 scale
(40.6) t 
GR
GR
GS
[1 0 0 1 68.2 60.91793] CT
0.149 GC
/Helvetica 14 F
GS
[1 0 0 1 0 0] CT
-28 5.5 moveto 
1 -1 scale
(40.8) t 
GR
GR
GS
[0 -1 1 0 37.7 202.75002] CT
0.149 GC
/Helvetica 15.4 F
GS
[1 0 0 1 0 0] CT
-50.5 -4 moveto 
1 -1 scale
(APSNR-U \(dB\)) t 
GR
GR
GS
[1 0 0 1 290.00027 29.5752] CT
/Helvetica-Bold 15.4 F
GS
[1 0 0 1 0 0] CT
-230.5 -4 moveto 
1 -1 scale
(DinnerSceneCropped_1920x1080_2997fps_10bit_420.y4m-hevc) t 
GR
GR
GS
0 0.447 0.741 RC
1 LJ
0.5 LW
N
73.329 338.074 M
74.623 316.176 L
75.917 296.528 L
77.21 276.644 L
78.504 259.097 L
79.798 248.215 L
81.092 242.334 L
82.386 237.053 L
83.68 232.33 L
84.974 228.122 L
86.268 224.386 L
87.562 221.081 L
88.856 218.163 L
90.15 215.59 L
91.444 213.321 L
92.738 211.311 L
94.032 209.52 L
95.326 207.903 L
96.62 206.42 L
97.914 204.997 L
99.208 203.582 L
100.501 202.176 L
101.795 200.779 L
103.089 199.39 L
104.383 198.011 L
105.677 196.641 L
106.971 195.279 L
108.265 193.926 L
109.559 192.581 L
110.853 191.246 L
112.147 189.919 L
113.441 188.602 L
114.735 187.292 L
116.029 185.992 L
117.323 184.701 L
118.617 183.418 L
119.911 182.144 L
121.205 180.879 L
122.499 179.622 L
123.793 178.375 L
125.086 177.137 L
126.38 175.907 L
127.674 174.686 L
128.968 173.474 L
130.262 172.27 L
131.556 171.076 L
132.85 169.889 L
134.144 168.713 L
135.438 167.545 L
136.732 166.385 L
138.026 165.234 L
139.32 164.093 L
140.614 162.96 L
141.908 161.836 L
143.202 160.72 L
144.496 159.614 L
145.79 158.516 L
147.084 157.428 L
148.378 156.347 L
149.671 155.276 L
150.965 154.214 L
152.259 153.16 L
153.553 152.116 L
154.847 151.079 L
156.141 150.052 L
157.435 149.034 L
158.729 148.024 L
160.023 147.024 L
161.317 146.032 L
162.611 145.049 L
163.905 144.075 L
165.199 143.11 L
166.493 142.153 L
167.787 141.206 L
169.081 140.267 L
170.375 139.337 L
171.669 138.416 L
172.963 137.504 L
174.256 136.6 L
175.55 135.705 L
176.844 134.82 L
178.138 133.943 L
179.432 133.074 L
180.726 132.215 L
182.02 131.365 L
183.314 130.523 L
184.608 129.691 L
185.902 128.867 L
187.196 128.051 L
188.49 127.245 L
189.784 126.447 L
191.078 125.659 L
192.372 124.879 L
193.666 124.108 L
194.96 123.347 L
196.254 122.593 L
197.547 121.849 L
198.841 121.114 L
200.135 120.387 L
201.429 119.669 L
202.723 118.961 L
204.017 118.26 L
205.311 117.569 L
206.605 116.887 L
207.899 116.213 L
209.193 115.549 L
210.487 114.893 L
211.781 114.246 L
213.075 113.608 L
214.369 112.979 L
215.663 112.359 L
216.957 111.747 L
218.251 111.145 L
219.545 110.551 L
220.839 109.966 L
222.132 109.391 L
223.426 108.823 L
224.72 108.265 L
226.014 107.716 L
227.308 107.175 L
228.602 106.644 L
229.896 106.121 L
231.19 105.607 L
232.484 105.102 L
233.778 104.606 L
235.072 104.119 L
236.366 103.64 L
237.66 103.171 L
238.954 102.71 L
240.248 102.258 L
241.542 101.815 L
242.836 101.381 L
244.13 100.956 L
245.424 100.539 L
246.717 100.133 L
248.011 99.734 L
249.305 99.344 L
250.599 98.964 L
251.893 98.592 L
253.187 98.229 L
254.481 97.875 L
255.775 97.53 L
257.069 97.193 L
258.363 96.867 L
259.657 96.548 L
260.951 96.238 L
262.245 95.937 L
263.539 95.645 L
264.833 95.362 L
266.127 95.088 L
267.421 94.823 L
268.715 94.567 L
270.009 94.32 L
271.302 94.081 L
272.596 93.852 L
273.89 93.631 L
275.184 93.419 L
276.478 93.217 L
277.772 93.023 L
279.066 92.838 L
280.36 92.662 L
281.654 92.494 L
282.948 92.336 L
284.242 92.186 L
285.536 92.046 L
286.83 91.915 L
288.124 91.791 L
289.418 91.678 L
290.712 91.573 L
292.006 91.477 L
293.3 91.389 L
294.593 91.311 L
295.887 91.243 L
297.181 91.182 L
298.475 91.131 L
299.769 91.089 L
301.063 91.055 L
302.357 91.03 L
303.651 91.015 L
304.945 91.008 L
S
GR
GS
0.851 0.325 0.098 RC
1 LJ
0.5 LW
N
73.285 339.26 M
74.579 317.403 L
75.873 297.744 L
77.167 277.847 L
78.461 260.226 L
79.755 249.234 L
81.049 243.165 L
82.343 237.714 L
83.637 232.835 L
84.931 228.488 L
86.225 224.63 L
87.519 221.216 L
88.813 218.205 L
90.106 215.555 L
91.4 213.22 L
92.694 211.162 L
93.988 209.334 L
95.282 207.695 L
96.576 206.2 L
97.87 204.748 L
99.164 203.306 L
100.458 201.873 L
101.752 200.45 L
103.046 199.036 L
104.34 197.63 L
105.634 196.236 L
106.928 194.85 L
108.222 193.475 L
109.516 192.108 L
110.81 190.751 L
112.104 189.404 L
113.398 188.066 L
114.691 186.737 L
115.985 185.419 L
117.279 184.109 L
118.573 182.81 L
119.867 181.519 L
121.161 180.238 L
122.455 178.966 L
123.749 177.705 L
125.043 176.453 L
126.337 175.209 L
127.631 173.976 L
128.925 172.752 L
130.219 171.537 L
131.513 170.333 L
132.807 169.137 L
134.101 167.95 L
135.395 166.774 L
136.689 165.607 L
137.983 164.449 L
139.276 163.301 L
140.57 162.163 L
141.864 161.033 L
143.158 159.913 L
144.452 158.803 L
145.746 157.702 L
147.04 156.611 L
148.334 155.529 L
149.628 154.457 L
150.922 153.393 L
152.216 152.34 L
153.51 151.295 L
154.804 150.261 L
156.098 149.236 L
157.392 148.22 L
158.686 147.214 L
159.98 146.217 L
161.274 145.229 L
162.567 144.252 L
163.861 143.284 L
165.155 142.324 L
166.449 141.374 L
167.743 140.435 L
169.037 139.504 L
170.331 138.582 L
171.625 137.671 L
172.919 136.768 L
174.213 135.875 L
175.507 134.991 L
176.801 134.117 L
178.095 133.252 L
179.389 132.397 L
180.683 131.551 L
181.977 130.714 L
183.271 129.887 L
184.565 129.07 L
185.859 128.261 L
187.152 127.462 L
188.446 126.673 L
189.74 125.893 L
191.034 125.122 L
192.328 124.361 L
193.622 123.609 L
194.916 122.867 L
196.21 122.134 L
197.504 121.41 L
198.798 120.696 L
200.092 119.991 L
201.386 119.295 L
202.68 118.61 L
203.974 117.933 L
205.268 117.266 L
206.562 116.608 L
207.856 115.96 L
209.15 115.321 L
210.444 114.69 L
211.737 114.071 L
213.031 113.46 L
214.325 112.858 L
215.619 112.266 L
216.913 111.683 L
218.207 111.109 L
219.501 110.545 L
220.795 109.991 L
222.089 109.446 L
223.383 108.91 L
224.677 108.383 L
225.971 107.866 L
227.265 107.358 L
228.559 106.859 L
229.853 106.37 L
231.147 105.89 L
232.441 105.42 L
233.735 104.959 L
235.029 104.507 L
236.322 104.065 L
237.616 103.632 L
238.91 103.208 L
240.204 102.794 L
241.498 102.389 L
242.792 101.993 L
244.086 101.607 L
245.38 101.23 L
246.674 100.862 L
247.968 100.504 L
249.262 100.155 L
250.556 99.816 L
251.85 99.485 L
253.144 99.164 L
254.438 98.853 L
255.732 98.55 L
257.026 98.258 L
258.32 97.974 L
259.613 97.7 L
260.907 97.435 L
262.201 97.18 L
263.495 96.933 L
264.789 96.696 L
266.083 96.468 L
267.377 96.25 L
268.671 96.041 L
269.965 95.841 L
271.259 95.65 L
272.553 95.469 L
273.847 95.297 L
275.141 95.136 L
276.435 94.982 L
277.729 94.838 L
279.023 94.704 L
280.317 94.579 L
281.611 94.462 L
282.905 94.355 L
284.198 94.258 L
285.492 94.17 L
286.786 94.091 L
288.08 94.021 L
289.374 93.961 L
290.668 93.91 L
291.962 93.868 L
293.256 93.835 L
294.55 93.812 L
295.844 93.799 L
S
GR
GS
0.929 0.694 0.125 RC
1 LJ
0.5 LW
N
73 374 M
74.294 344.096 L
75.588 317.844 L
76.882 292.414 L
78.176 271.868 L
79.47 260.072 L
80.764 250.781 L
82.058 242.572 L
83.352 235.425 L
84.646 229.32 L
85.939 224.237 L
87.233 220.156 L
88.527 217.056 L
89.821 214.88 L
91.115 212.957 L
92.409 211.053 L
93.703 209.167 L
94.997 207.298 L
96.291 205.449 L
97.585 203.616 L
98.879 201.802 L
100.173 200.005 L
101.467 198.226 L
102.761 196.465 L
104.055 194.722 L
105.349 192.997 L
106.643 191.288 L
107.937 189.597 L
109.231 187.923 L
110.524 186.268 L
111.818 184.628 L
113.112 183.006 L
114.406 181.403 L
115.7 179.814 L
116.994 178.244 L
118.288 176.69 L
119.582 175.153 L
120.876 173.634 L
122.17 172.13 L
123.464 170.643 L
124.758 169.173 L
126.052 167.72 L
127.346 166.283 L
128.64 164.861 L
129.934 163.457 L
131.228 162.069 L
132.522 160.697 L
133.815 159.342 L
135.109 158.002 L
136.403 156.678 L
137.697 155.37 L
138.991 154.079 L
140.285 152.803 L
141.579 151.542 L
142.873 150.298 L
144.167 149.068 L
145.461 147.855 L
146.755 146.657 L
148.049 145.474 L
149.343 144.307 L
150.637 143.155 L
151.931 142.018 L
153.225 140.896 L
154.519 139.79 L
155.813 138.699 L
157.107 137.622 L
158.4 136.56 L
159.694 135.514 L
160.988 134.481 L
162.282 133.465 L
163.576 132.461 L
164.87 131.474 L
166.164 130.5 L
167.458 129.54 L
168.752 128.596 L
170.046 127.666 L
171.34 126.749 L
172.634 125.847 L
173.928 124.958 L
175.222 124.085 L
176.516 123.225 L
177.81 122.378 L
179.104 121.547 L
180.398 120.728 L
181.692 119.924 L
182.985 119.132 L
184.279 118.355 L
185.573 117.59 L
186.867 116.841 L
188.161 116.103 L
189.455 115.38 L
190.749 114.669 L
192.043 113.971 L
193.337 113.287 L
194.631 112.616 L
195.925 111.958 L
197.219 111.312 L
198.513 110.68 L
199.807 110.061 L
201.101 109.454 L
202.395 108.86 L
203.689 108.278 L
204.983 107.71 L
206.277 107.153 L
207.57 106.609 L
208.864 106.077 L
210.158 105.558 L
211.452 105.051 L
212.746 104.555 L
214.04 104.073 L
215.334 103.601 L
216.628 103.143 L
217.922 102.695 L
219.216 102.26 L
220.51 101.837 L
221.804 101.424 L
223.098 101.024 L
224.392 100.636 L
225.686 100.258 L
226.98 99.893 L
228.274 99.538 L
229.568 99.195 L
230.861 98.863 L
232.155 98.543 L
233.449 98.233 L
234.743 97.934 L
236.037 97.647 L
237.331 97.371 L
238.625 97.105 L
239.919 96.849 L
241.213 96.605 L
242.507 96.371 L
243.801 96.148 L
245.095 95.936 L
246.389 95.734 L
247.683 95.542 L
248.977 95.361 L
250.271 95.19 L
251.565 95.029 L
252.859 94.877 L
254.153 94.737 L
255.446 94.606 L
256.74 94.485 L
258.034 94.374 L
259.328 94.273 L
260.622 94.181 L
261.916 94.1 L
263.21 94.028 L
264.504 93.966 L
265.798 93.912 L
267.092 93.868 L
268.386 93.834 L
269.68 93.808 L
270.974 93.793 L
272.268 93.786 L
S
GR
GS
0.494 0.184 0.557 RC
1 LJ
0.5 LW
N
73.528 333.386 M
74.822 312.886 L
76.116 294.701 L
77.41 276.843 L
78.704 260.225 L
79.998 248.008 L
81.292 241.806 L
82.586 236.76 L
83.879 232.162 L
85.173 227.987 L
86.467 224.207 L
87.761 220.798 L
89.055 217.731 L
90.349 214.983 L
91.643 212.526 L
92.937 210.336 L
94.231 208.385 L
95.525 206.648 L
96.819 205.098 L
98.113 203.71 L
99.407 202.458 L
100.701 201.301 L
101.995 200.159 L
103.289 199.022 L
104.583 197.888 L
105.877 196.758 L
107.17 195.634 L
108.464 194.513 L
109.758 193.396 L
111.052 192.283 L
112.346 191.174 L
113.64 190.071 L
114.934 188.971 L
116.228 187.875 L
117.522 186.783 L
118.816 185.696 L
120.11 184.613 L
121.404 183.534 L
122.698 182.46 L
123.992 181.389 L
125.286 180.323 L
126.58 179.261 L
127.874 178.203 L
129.168 177.149 L
130.462 176.1 L
131.755 175.054 L
133.049 174.013 L
134.343 172.976 L
135.637 171.943 L
136.931 170.914 L
138.225 169.889 L
139.519 168.869 L
140.813 167.853 L
142.107 166.841 L
143.401 165.833 L
144.695 164.829 L
145.989 163.829 L
147.283 162.833 L
148.577 161.842 L
149.871 160.854 L
151.165 159.871 L
152.459 158.891 L
153.753 157.916 L
155.047 156.945 L
156.34 155.978 L
157.634 155.016 L
158.928 154.057 L
160.222 153.101 L
161.516 152.151 L
162.81 151.205 L
164.104 150.262 L
165.398 149.323 L
166.692 148.389 L
167.986 147.459 L
169.28 146.532 L
170.574 145.61 L
171.868 144.692 L
173.162 143.778 L
174.456 142.867 L
175.75 141.961 L
177.044 141.059 L
178.338 140.162 L
179.632 139.268 L
180.925 138.377 L
182.219 137.491 L
183.513 136.609 L
184.807 135.731 L
186.101 134.857 L
187.395 133.988 L
188.689 133.122 L
189.983 132.26 L
191.277 131.401 L
192.571 130.547 L
193.865 129.697 L
195.159 128.851 L
196.453 128.01 L
197.747 127.171 L
199.041 126.337 L
200.335 125.507 L
201.629 124.681 L
202.923 123.858 L
204.216 123.04 L
205.51 122.225 L
206.804 121.415 L
208.098 120.608 L
209.392 119.806 L
210.686 119.007 L
211.98 118.212 L
213.274 117.422 L
214.568 116.634 L
215.862 115.852 L
217.156 115.072 L
218.45 114.297 L
219.744 113.525 L
221.038 112.758 L
222.332 111.995 L
223.626 111.235 L
224.92 110.48 L
226.214 109.727 L
227.508 108.979 L
228.801 108.235 L
230.095 107.495 L
231.389 106.759 L
232.683 106.026 L
233.977 105.298 L
235.271 104.573 L
236.565 103.851 L
237.859 103.134 L
239.153 102.421 L
240.447 101.711 L
241.741 101.006 L
243.035 100.304 L
244.329 99.606 L
245.623 98.912 L
246.917 98.222 L
248.211 97.534 L
249.505 96.852 L
250.799 96.174 L
252.093 95.498 L
253.386 94.826 L
254.68 94.159 L
255.974 93.495 L
257.268 92.835 L
258.562 92.179 L
259.856 91.526 L
261.15 90.878 L
262.444 90.233 L
263.738 89.592 L
265.032 88.955 L
266.326 88.321 L
267.62 87.691 L
268.914 87.065 L
270.208 86.442 L
271.502 85.824 L
272.796 85.209 L
274.09 84.598 L
275.384 83.991 L
276.678 83.387 L
277.971 82.787 L
279.265 82.19 L
280.559 81.598 L
281.853 81.009 L
283.147 80.424 L
284.441 79.842 L
285.735 79.265 L
287.029 78.691 L
288.323 78.12 L
289.617 77.554 L
290.911 76.991 L
292.205 76.432 L
293.499 75.876 L
294.793 75.323 L
296.087 74.776 L
297.381 74.23 L
298.675 73.69 L
299.969 73.153 L
301.262 72.619 L
302.556 72.089 L
303.85 71.563 L
305.144 71.039 L
306.438 70.521 L
307.732 70.005 L
309.026 69.494 L
310.32 68.985 L
311.614 68.481 L
312.908 67.979 L
314.202 67.482 L
315.496 66.988 L
316.79 66.498 L
318.084 66.011 L
319.378 65.529 L
320.672 65.049 L
321.966 64.574 L
323.26 64.101 L
324.554 63.632 L
325.847 63.167 L
327.141 62.706 L
328.435 62.248 L
329.729 61.793 L
331.023 61.343 L
332.317 60.896 L
333.611 60.451 L
334.905 60.011 L
336.199 59.574 L
337.493 59.142 L
338.787 58.712 L
340.081 58.286 L
341.375 57.864 L
342.669 57.445 L
343.963 57.029 L
345.257 56.618 L
346.551 56.209 L
347.845 55.804 L
349.139 55.402 L
350.432 55.005 L
351.726 54.61 L
353.02 54.22 L
354.314 53.832 L
355.608 53.448 L
356.902 53.068 L
358.196 52.69 L
359.49 52.317 L
360.784 51.947 L
362.078 51.581 L
363.372 51.218 L
364.666 50.858 L
365.96 50.502 L
367.254 50.149 L
368.548 49.8 L
369.842 49.454 L
371.136 49.111 L
372.43 48.773 L
373.724 48.436 L
375.017 48.105 L
376.311 47.776 L
377.605 47.45 L
378.899 47.128 L
380.193 46.81 L
381.487 46.495 L
382.781 46.183 L
384.075 45.875 L
385.369 45.57 L
386.663 45.268 L
387.957 44.97 L
389.251 44.676 L
390.545 44.384 L
391.839 44.096 L
393.133 43.812 L
394.427 43.531 L
395.721 43.253 L
397.015 42.978 L
398.309 42.707 L
399.602 42.44 L
400.896 42.175 L
402.19 41.913 L
403.484 41.656 L
404.778 41.402 L
406.072 41.15 L
407.366 40.902 L
408.66 40.658 L
409.954 40.417 L
411.248 40.179 L
412.542 39.944 L
413.836 39.713 L
415.13 39.486 L
416.424 39.26 L
417.718 39.039 L
419.012 38.822 L
420.306 38.607 L
421.6 38.395 L
422.893 38.186 L
424.187 37.982 L
425.481 37.781 L
426.775 37.582 L
428.069 37.387 L
429.363 37.195 L
430.657 37.007 L
431.951 36.821 L
433.245 36.639 L
434.539 36.46 L
435.833 36.284 L
437.127 36.112 L
438.421 35.943 L
439.715 35.777 L
441.009 35.614 L
442.303 35.455 L
443.597 35.299 L
444.891 35.146 L
446.185 34.995 L
447.478 34.849 L
448.772 34.705 L
450.066 34.566 L
451.36 34.429 L
452.654 34.295 L
453.948 34.164 L
455.242 34.036 L
456.536 33.912 L
457.83 33.791 L
459.124 33.673 L
460.418 33.558 L
461.712 33.447 L
463.006 33.338 L
464.3 33.233 L
465.594 33.131 L
466.888 33.031 L
468.182 32.936 L
469.476 32.843 L
470.77 32.754 L
472.063 32.667 L
473.357 32.583 L
474.651 32.503 L
475.945 32.426 L
477.239 32.352 L
478.533 32.281 L
479.827 32.213 L
481.121 32.148 L
482.415 32.087 L
483.709 32.029 L
485.003 31.973 L
486.297 31.921 L
487.591 31.872 L
488.885 31.826 L
490.179 31.782 L
491.473 31.743 L
492.767 31.705 L
494.061 31.671 L
495.354 31.641 L
496.648 31.613 L
497.942 31.589 L
499.236 31.566 L
500.53 31.548 L
501.824 31.532 L
503.118 31.519 L
504.412 31.51 L
505.706 31.504 L
507 31.5 L
S
GR
GS
0.467 0.675 0.188 RC
[10 6] 0 setdash
2 LJ
0.5 LW
N
73.323 342.544 M
74.617 317.981 L
75.911 296.751 L
77.205 276.07 L
78.499 258.275 L
79.793 247.61 L
81.087 241.768 L
82.381 236.547 L
83.674 231.899 L
84.968 227.777 L
86.262 224.137 L
87.556 220.93 L
88.85 218.111 L
90.144 215.633 L
91.438 213.45 L
92.732 211.516 L
94.026 209.783 L
95.32 208.206 L
96.614 206.737 L
97.908 205.3 L
99.202 203.873 L
100.496 202.453 L
101.79 201.043 L
103.084 199.643 L
104.378 198.25 L
105.672 196.867 L
106.965 195.494 L
108.259 194.128 L
109.553 192.772 L
110.847 191.426 L
112.141 190.088 L
113.435 188.759 L
114.729 187.439 L
116.023 186.128 L
117.317 184.826 L
118.611 183.533 L
119.905 182.25 L
121.199 180.975 L
122.493 179.709 L
123.787 178.452 L
125.081 177.205 L
126.375 175.967 L
127.669 174.737 L
128.963 173.517 L
130.257 172.306 L
131.55 171.103 L
132.844 169.91 L
134.138 168.726 L
135.432 167.551 L
136.726 166.385 L
138.02 165.229 L
139.314 164.081 L
140.608 162.943 L
141.902 161.813 L
143.196 160.692 L
144.49 159.581 L
145.784 158.479 L
147.078 157.386 L
148.372 156.302 L
149.666 155.228 L
150.96 154.163 L
152.254 153.105 L
153.548 152.059 L
154.842 151.021 L
156.135 149.991 L
157.429 148.972 L
158.723 147.961 L
160.017 146.959 L
161.311 145.968 L
162.605 144.985 L
163.899 144.01 L
165.193 143.046 L
166.487 142.09 L
167.781 141.144 L
169.075 140.206 L
170.369 139.279 L
171.663 138.36 L
172.957 137.45 L
174.251 136.55 L
175.545 135.659 L
176.839 134.777 L
178.133 133.904 L
179.427 133.041 L
180.72 132.187 L
182.014 131.341 L
183.308 130.506 L
184.602 129.68 L
185.896 128.863 L
187.19 128.054 L
188.484 127.255 L
189.778 126.466 L
191.072 125.686 L
192.366 124.915 L
193.66 124.154 L
194.954 123.401 L
196.248 122.658 L
197.542 121.924 L
198.836 121.2 L
200.13 120.485 L
201.424 119.778 L
202.718 119.082 L
204.011 118.394 L
205.305 117.717 L
206.599 117.048 L
207.893 116.389 L
209.187 115.738 L
210.481 115.098 L
211.775 114.467 L
213.069 113.844 L
214.363 113.231 L
215.657 112.628 L
216.951 112.034 L
218.245 111.449 L
219.539 110.874 L
220.833 110.308 L
222.127 109.752 L
223.421 109.205 L
224.715 108.667 L
226.009 108.138 L
227.303 107.619 L
228.596 107.109 L
229.89 106.609 L
231.184 106.118 L
232.478 105.637 L
233.772 105.165 L
235.066 104.702 L
236.36 104.249 L
237.654 103.805 L
238.948 103.37 L
240.242 102.945 L
241.536 102.53 L
242.83 102.123 L
244.124 101.727 L
245.418 101.339 L
246.712 100.962 L
248.006 100.592 L
249.3 100.234 L
250.594 99.884 L
251.888 99.544 L
253.181 99.213 L
254.475 98.892 L
255.769 98.58 L
257.063 98.278 L
258.357 97.985 L
259.651 97.702 L
260.945 97.428 L
262.239 97.164 L
263.533 96.91 L
264.827 96.664 L
266.121 96.428 L
267.415 96.202 L
268.709 95.986 L
270.003 95.778 L
271.297 95.58 L
272.591 95.392 L
273.885 95.214 L
275.179 95.044 L
276.473 94.885 L
277.766 94.735 L
279.06 94.594 L
280.354 94.463 L
281.648 94.341 L
282.942 94.23 L
284.236 94.127 L
285.53 94.034 L
286.824 93.951 L
288.118 93.878 L
289.412 93.813 L
290.706 93.759 L
292 93.714 L
293.294 93.679 L
294.588 93.653 L
295.882 93.637 L
297.176 93.63 L
S
GR
GS
0.302 0.745 0.933 RC
[10 6] 0 setdash
2 LJ
0.5 LW
N
73.217 351.918 M
74.511 326.853 L
75.805 304.784 L
77.099 283.033 L
78.393 264.329 L
79.687 253.11 L
80.981 246.147 L
82.275 239.921 L
83.569 234.384 L
84.863 229.49 L
86.157 225.189 L
87.451 221.437 L
88.745 218.183 L
90.038 215.38 L
91.332 212.982 L
92.626 210.941 L
93.92 209.208 L
95.214 207.634 L
96.508 206.073 L
97.802 204.523 L
99.096 202.984 L
100.39 201.458 L
101.684 199.943 L
102.978 198.438 L
104.272 196.945 L
105.566 195.465 L
106.86 193.995 L
108.154 192.537 L
109.448 191.089 L
110.742 189.654 L
112.036 188.23 L
113.33 186.817 L
114.623 185.416 L
115.917 184.025 L
117.211 182.647 L
118.505 181.279 L
119.799 179.922 L
121.093 178.577 L
122.387 177.243 L
123.681 175.921 L
124.975 174.609 L
126.269 173.308 L
127.563 172.018 L
128.857 170.74 L
130.151 169.473 L
131.445 168.217 L
132.739 166.972 L
134.033 165.738 L
135.327 164.515 L
136.621 163.303 L
137.914 162.102 L
139.208 160.912 L
140.502 159.733 L
141.796 158.564 L
143.09 157.408 L
144.384 156.261 L
145.678 155.125 L
146.972 154.001 L
148.266 152.887 L
149.56 151.784 L
150.854 150.691 L
152.148 149.61 L
153.442 148.539 L
154.736 147.479 L
156.03 146.429 L
157.324 145.391 L
158.618 144.363 L
159.912 143.346 L
161.206 142.339 L
162.499 141.343 L
163.793 140.358 L
165.087 139.383 L
166.381 138.419 L
167.675 137.465 L
168.969 136.522 L
170.263 135.59 L
171.557 134.667 L
172.851 133.756 L
174.145 132.855 L
175.439 131.964 L
176.733 131.083 L
178.027 130.213 L
179.321 129.354 L
180.615 128.504 L
181.909 127.666 L
183.203 126.837 L
184.497 126.019 L
185.791 125.211 L
187.084 124.413 L
188.378 123.626 L
189.672 122.849 L
190.966 122.082 L
192.26 121.325 L
193.554 120.578 L
194.848 119.842 L
196.142 119.115 L
197.436 118.399 L
198.73 117.694 L
200.024 116.997 L
201.318 116.312 L
202.612 115.635 L
203.906 114.969 L
205.2 114.314 L
206.494 113.668 L
207.788 113.032 L
209.082 112.405 L
210.376 111.79 L
211.669 111.183 L
212.963 110.588 L
214.257 110.001 L
215.551 109.424 L
216.845 108.858 L
218.139 108.301 L
219.433 107.754 L
220.727 107.216 L
222.021 106.689 L
223.315 106.172 L
224.609 105.664 L
225.903 105.166 L
227.197 104.677 L
228.491 104.198 L
229.785 103.729 L
231.079 103.269 L
232.373 102.819 L
233.667 102.378 L
234.96 101.948 L
236.254 101.526 L
237.548 101.115 L
238.842 100.712 L
240.136 100.32 L
241.43 99.936 L
242.724 99.562 L
244.018 99.198 L
245.312 98.843 L
246.606 98.498 L
247.9 98.162 L
249.194 97.835 L
250.488 97.518 L
251.782 97.21 L
253.076 96.911 L
254.37 96.622 L
255.664 96.341 L
256.958 96.07 L
258.252 95.809 L
259.545 95.557 L
260.839 95.314 L
262.133 95.08 L
263.427 94.854 L
264.721 94.639 L
266.015 94.432 L
267.309 94.234 L
268.603 94.047 L
269.897 93.867 L
271.191 93.697 L
272.485 93.536 L
273.779 93.383 L
275.073 93.241 L
276.367 93.106 L
277.661 92.982 L
278.955 92.865 L
280.249 92.758 L
281.543 92.659 L
282.837 92.569 L
284.13 92.489 L
285.424 92.417 L
286.718 92.354 L
288.012 92.3 L
289.306 92.254 L
290.6 92.217 L
291.894 92.19 L
293.188 92.171 L
294.482 92.16 L
S
GR
GS
0.635 0.078 0.184 RC
[10 6] 0 setdash
2 LJ
0.5 LW
N
73.322 337.765 M
74.616 315.665 L
75.91 296.135 L
77.204 276.735 L
78.498 259.597 L
79.792 248.624 L
81.086 242.737 L
82.38 237.431 L
83.674 232.662 L
84.968 228.391 L
86.262 224.582 L
87.555 221.2 L
88.849 218.208 L
90.143 215.569 L
91.437 213.246 L
92.731 211.203 L
94.025 209.404 L
95.319 207.812 L
96.613 206.391 L
97.907 205.072 L
99.201 203.765 L
100.495 202.465 L
101.789 201.172 L
103.083 199.887 L
104.377 198.609 L
105.671 197.338 L
106.965 196.076 L
108.259 194.82 L
109.553 193.572 L
110.847 192.332 L
112.14 191.098 L
113.434 189.872 L
114.728 188.653 L
116.022 187.442 L
117.316 186.238 L
118.61 185.042 L
119.904 183.852 L
121.198 182.67 L
122.492 181.496 L
123.786 180.329 L
125.08 179.169 L
126.374 178.016 L
127.668 176.871 L
128.962 175.733 L
130.256 174.601 L
131.55 173.478 L
132.844 172.361 L
134.138 171.253 L
135.431 170.151 L
136.725 169.057 L
138.019 167.97 L
139.313 166.889 L
140.607 165.816 L
141.901 164.751 L
143.195 163.692 L
144.489 162.641 L
145.783 161.597 L
147.077 160.56 L
148.371 159.531 L
149.665 158.508 L
150.959 157.492 L
152.253 156.484 L
153.547 155.483 L
154.841 154.489 L
156.135 153.502 L
157.429 152.523 L
158.723 151.551 L
160.016 150.585 L
161.31 149.627 L
162.604 148.676 L
163.898 147.731 L
165.192 146.795 L
166.486 145.865 L
167.78 144.941 L
169.074 144.026 L
170.368 143.117 L
171.662 142.216 L
172.956 141.32 L
174.25 140.433 L
175.544 139.552 L
176.838 138.679 L
178.132 137.812 L
179.426 136.953 L
180.72 136.1 L
182.014 135.254 L
183.308 134.416 L
184.601 133.584 L
185.895 132.759 L
187.189 131.942 L
188.483 131.13 L
189.777 130.327 L
191.071 129.53 L
192.365 128.74 L
193.659 127.957 L
194.953 127.181 L
196.247 126.412 L
197.541 125.649 L
198.835 124.894 L
200.129 124.145 L
201.423 123.404 L
202.717 122.669 L
204.011 121.941 L
205.305 121.22 L
206.599 120.506 L
207.892 119.798 L
209.186 119.098 L
210.48 118.404 L
211.774 117.717 L
213.068 117.037 L
214.362 116.364 L
215.656 115.698 L
216.95 115.037 L
218.244 114.385 L
219.538 113.738 L
220.832 113.099 L
222.126 112.467 L
223.42 111.841 L
224.714 111.222 L
226.008 110.609 L
227.302 110.004 L
228.596 109.405 L
229.89 108.812 L
231.184 108.227 L
232.477 107.648 L
233.771 107.077 L
235.065 106.511 L
236.359 105.953 L
237.653 105.401 L
238.947 104.855 L
240.241 104.316 L
241.535 103.784 L
242.829 103.259 L
244.123 102.741 L
245.417 102.228 L
246.711 101.723 L
248.005 101.224 L
249.299 100.732 L
250.593 100.246 L
251.887 99.767 L
253.181 99.294 L
254.475 98.829 L
255.769 98.37 L
257.062 97.917 L
258.356 97.471 L
259.65 97.031 L
260.944 96.598 L
262.238 96.172 L
263.532 95.751 L
264.826 95.338 L
266.12 94.931 L
267.414 94.53 L
268.708 94.137 L
270.002 93.75 L
271.296 93.368 L
272.59 92.994 L
273.884 92.626 L
275.178 92.265 L
276.472 91.909 L
277.766 91.561 L
279.06 91.219 L
280.354 90.882 L
281.647 90.554 L
282.941 90.231 L
284.235 89.914 L
285.529 89.604 L
286.823 89.3 L
288.117 89.003 L
289.411 88.712 L
290.705 88.428 L
291.999 88.149 L
293.293 87.877 L
294.587 87.612 L
295.881 87.353 L
297.175 87.101 L
298.469 86.854 L
299.763 86.614 L
301.057 86.381 L
302.351 86.153 L
303.645 85.932 L
304.938 85.717 L
306.232 85.508 L
307.526 85.306 L
308.82 85.11 L
310.114 84.921 L
311.408 84.737 L
312.702 84.56 L
313.996 84.389 L
315.29 84.224 L
316.584 84.066 L
317.878 83.913 L
319.172 83.767 L
320.466 83.627 L
321.76 83.494 L
323.054 83.367 L
324.348 83.246 L
325.642 83.13 L
326.936 83.022 L
328.23 82.919 L
329.523 82.822 L
330.817 82.732 L
332.111 82.648 L
333.405 82.57 L
334.699 82.498 L
335.993 82.432 L
337.287 82.372 L
338.581 82.318 L
339.875 82.271 L
341.169 82.23 L
342.463 82.194 L
343.757 82.165 L
345.051 82.142 L
346.345 82.125 L
347.639 82.114 L
348.933 82.108 L
S
GR
GS
1 GC
N
499 366 M
499 250.5 L
344.5 250.5 L
344.5 366 L
cp
f
GR
GS
[1 0 0 1 381.5 260.25] CT
/Helvetica 13 F
GS
[1 0 0 1 0 0] CT
0 5 moveto 
1 -1 scale
(Base Run) t 
GR
GR
GS
0 0.447 0.741 RC
1 LJ
0.5 LW
N
348.5 260.25 M
378.5 260.25 L
S
GR
GS
[1 0 0 1 381.5 276.25] CT
/Helvetica 13 F
GS
[1 0 0 1 0 0] CT
0 5 moveto 
1 -1 scale
(I & B Frames) t 
GR
GR
GS
0.851 0.325 0.098 RC
1 LJ
0.5 LW
N
348.5 276.25 M
378.5 276.25 L
S
GR
GS
[1 0 0 1 381.5 292.25] CT
/Helvetica 13 F
GS
[1 0 0 1 0 0] CT
0 5 moveto 
1 -1 scale
(I Frames Only) t 
GR
GR
GS
0.929 0.694 0.125 RC
1 LJ
0.5 LW
N
348.5 292.25 M
378.5 292.25 L
S
GR
GS
[1 0 0 1 381.5 308.25] CT
/Helvetica 13 F
GS
[1 0 0 1 0 0] CT
0 5 moveto 
1 -1 scale
(B Frames Only) t 
GR
GR
GS
0.494 0.184 0.557 RC
1 LJ
0.5 LW
N
348.5 308.25 M
378.5 308.25 L
S
GR
GS
[1 0 0 1 381.5 324.25] CT
/Helvetica 13 F
GS
[1 0 0 1 0 0] CT
0 5 moveto 
1 -1 scale
(Part I & B Frames) t 
GR
GR
GS
0.467 0.675 0.188 RC
[10 6] 0 setdash
2 LJ
0.5 LW
N
348.5 324.25 M
378.5 324.25 L
S
GR
GS
[1 0 0 1 381.5 340.25] CT
/Helvetica 13 F
GS
[1 0 0 1 0 0] CT
0 5 moveto 
1 -1 scale
(Part I Frames Only) t 
GR
GR
GS
0.302 0.745 0.933 RC
[10 6] 0 setdash
2 LJ
0.5 LW
N
348.5 340.25 M
378.5 340.25 L
S
GR
GS
[1 0 0 1 381.5 356.25] CT
/Helvetica 13 F
GS
[1 0 0 1 0 0] CT
0 5 moveto 
1 -1 scale
(Part B Frames Only) t 
GR
GR
GS
0.635 0.078 0.184 RC
[10 6] 0 setdash
2 LJ
0.5 LW
N
348.5 356.25 M
378.5 356.25 L
S
GR
GS
0.149 GC
10.0 ML
0.5 LW
N
344.5 366 M
344.5 250.5 L
499 250.5 L
499 366 L
cp
S
GR
%%Trailer
%%Pages: 1
%%EOF
