%!PS-Adobe-3.0 EPSF-3.0
%%Creator: (MATLAB, The Mathworks, Inc. Version 9.11.0.1837725 \(R2021b\) Update 2. Operating System: Mac OS X)
%%Title: plots/pchip/DinnerSceneCropped_1920x1080_2997fps_10bit_420.y4m-av1-nVMAF.eps
%%CreationDate: 2022-02-03T19:12:55
%%Pages: (atend)
%%BoundingBox:    33   425   525   826
%%LanguageLevel: 3
%%EndComments
%%BeginProlog
%%BeginResource: procset (Apache XML Graphics Std ProcSet) 1.2 0
%%Version: 1.2 0
%%Copyright: (Copyright 2001-2003,2010 The Apache Software Foundation. License terms: http://www.apache.org/licenses/LICENSE-2.0)
/bd{bind def}bind def
/ld{load def}bd
/GR/grestore ld
/GS/gsave ld
/RM/rmoveto ld
/C/curveto ld
/t/show ld
/L/lineto ld
/ML/setmiterlimit ld
/CT/concat ld
/f/fill ld
/N/newpath ld
/S/stroke ld
/CC/setcmykcolor ld
/A/ashow ld
/cp/closepath ld
/RC/setrgbcolor ld
/LJ/setlinejoin ld
/GC/setgray ld
/LW/setlinewidth ld
/M/moveto ld
/re {4 2 roll M
1 index 0 rlineto
0 exch rlineto
neg 0 rlineto
cp } bd
/_ctm matrix def
/_tm matrix def
/BT { _ctm currentmatrix pop matrix _tm copy pop 0 0 moveto } bd
/ET { _ctm setmatrix } bd
/iTm { _ctm setmatrix _tm concat } bd
/Tm { _tm astore pop iTm 0 0 moveto } bd
/ux 0.0 def
/uy 0.0 def
/F {
  /Tp exch def
  /Tf exch def
  Tf findfont Tp scalefont setfont
  /cf Tf def  /cs Tp def
} bd
/ULS {currentpoint /uy exch def /ux exch def} bd
/ULE {
  /Tcx currentpoint pop def
  gsave
  newpath
  cf findfont cs scalefont dup
  /FontMatrix get 0 get /Ts exch def /FontInfo get dup
  /UnderlinePosition get Ts mul /To exch def
  /UnderlineThickness get Ts mul /Tt exch def
  ux uy To add moveto  Tcx uy To add lineto
  Tt setlinewidth stroke
  grestore
} bd
/OLE {
  /Tcx currentpoint pop def
  gsave
  newpath
  cf findfont cs scalefont dup
  /FontMatrix get 0 get /Ts exch def /FontInfo get dup
  /UnderlinePosition get Ts mul /To exch def
  /UnderlineThickness get Ts mul /Tt exch def
  ux uy To add cs add moveto Tcx uy To add cs add lineto
  Tt setlinewidth stroke
  grestore
} bd
/SOE {
  /Tcx currentpoint pop def
  gsave
  newpath
  cf findfont cs scalefont dup
  /FontMatrix get 0 get /Ts exch def /FontInfo get dup
  /UnderlinePosition get Ts mul /To exch def
  /UnderlineThickness get Ts mul /Tt exch def
  ux uy To add cs 10 mul 26 idiv add moveto Tcx uy To add cs 10 mul 26 idiv add lineto
  Tt setlinewidth stroke
  grestore
} bd
/QT {
/Y22 exch store
/X22 exch store
/Y21 exch store
/X21 exch store
currentpoint
/Y21 load 2 mul add 3 div exch
/X21 load 2 mul add 3 div exch
/X21 load 2 mul /X22 load add 3 div
/Y21 load 2 mul /Y22 load add 3 div
/X22 load /Y22 load curveto
} bd
/SSPD {
dup length /d exch dict def
{
/v exch def
/k exch def
currentpagedevice k known {
/cpdv currentpagedevice k get def
v cpdv ne {
/upd false def
/nullv v type /nulltype eq def
/nullcpdv cpdv type /nulltype eq def
nullv nullcpdv or
{
/upd true def
} {
/sametype v type cpdv type eq def
sametype {
v type /arraytype eq {
/vlen v length def
/cpdvlen cpdv length def
vlen cpdvlen eq {
0 1 vlen 1 sub {
/i exch def
/obj v i get def
/cpdobj cpdv i get def
obj cpdobj ne {
/upd true def
exit
} if
} for
} {
/upd true def
} ifelse
} {
v type /dicttype eq {
v {
/dv exch def
/dk exch def
/cpddv cpdv dk get def
dv cpddv ne {
/upd true def
exit
} if
} forall
} {
/upd true def
} ifelse
} ifelse
} if
} ifelse
upd true eq {
d k v put
} if
} if
} if
} forall
d length 0 gt {
d setpagedevice
} if
} bd
/RE { % /NewFontName [NewEncodingArray] /FontName RE -
  findfont dup length dict begin
  {
    1 index /FID ne
    {def} {pop pop} ifelse
  } forall
  /Encoding exch def
  /FontName 1 index def
  currentdict definefont pop
  end
} bind def
%%EndResource
%%BeginResource: procset (Apache XML Graphics EPS ProcSet) 1.0 0
%%Version: 1.0 0
%%Copyright: (Copyright 2002-2003 The Apache Software Foundation. License terms: http://www.apache.org/licenses/LICENSE-2.0)
/BeginEPSF { %def
/b4_Inc_state save def         % Save state for cleanup
/dict_count countdictstack def % Count objects on dict stack
/op_count count 1 sub def      % Count objects on operand stack
userdict begin                 % Push userdict on dict stack
/showpage { } def              % Redefine showpage, { } = null proc
0 setgray 0 setlinecap         % Prepare graphics state
1 setlinewidth 0 setlinejoin
10 setmiterlimit [ ] 0 setdash newpath
/languagelevel where           % If level not equal to 1 then
{pop languagelevel             % set strokeadjust and
1 ne                           % overprint to their defaults.
{false setstrokeadjust false setoverprint
} if
} if
} bd
/EndEPSF { %def
count op_count sub {pop} repeat            % Clean up stacks
countdictstack dict_count sub {end} repeat
b4_Inc_state restore
} bd
%%EndResource
%FOPBeginFontDict
%%IncludeResource: font Courier-Oblique
%%IncludeResource: font Courier-BoldOblique
%%IncludeResource: font Courier-Bold
%%IncludeResource: font ZapfDingbats
%%IncludeResource: font Symbol
%%IncludeResource: font Helvetica
%%IncludeResource: font Helvetica-Oblique
%%IncludeResource: font Helvetica-Bold
%%IncludeResource: font Helvetica-BoldOblique
%%IncludeResource: font Times-Roman
%%IncludeResource: font Times-Italic
%%IncludeResource: font Times-Bold
%%IncludeResource: font Times-BoldItalic
%%IncludeResource: font Courier
%FOPEndFontDict
%%BeginResource: encoding WinAnsiEncoding
/WinAnsiEncoding [
/.notdef /.notdef /.notdef /.notdef /.notdef
/.notdef /.notdef /.notdef /.notdef /.notdef
/.notdef /.notdef /.notdef /.notdef /.notdef
/.notdef /.notdef /.notdef /.notdef /.notdef
/.notdef /.notdef /.notdef /.notdef /.notdef
/.notdef /.notdef /.notdef /.notdef /.notdef
/.notdef /.notdef /space /exclam /quotedbl
/numbersign /dollar /percent /ampersand /quotesingle
/parenleft /parenright /asterisk /plus /comma
/hyphen /period /slash /zero /one
/two /three /four /five /six
/seven /eight /nine /colon /semicolon
/less /equal /greater /question /at
/A /B /C /D /E
/F /G /H /I /J
/K /L /M /N /O
/P /Q /R /S /T
/U /V /W /X /Y
/Z /bracketleft /backslash /bracketright /asciicircum
/underscore /quoteleft /a /b /c
/d /e /f /g /h
/i /j /k /l /m
/n /o /p /q /r
/s /t /u /v /w
/x /y /z /braceleft /bar
/braceright /asciitilde /bullet /Euro /bullet
/quotesinglbase /florin /quotedblbase /ellipsis /dagger
/daggerdbl /circumflex /perthousand /Scaron /guilsinglleft
/OE /bullet /Zcaron /bullet /bullet
/quoteleft /quoteright /quotedblleft /quotedblright /bullet
/endash /emdash /asciitilde /trademark /scaron
/guilsinglright /oe /bullet /zcaron /Ydieresis
/space /exclamdown /cent /sterling /currency
/yen /brokenbar /section /dieresis /copyright
/ordfeminine /guillemotleft /logicalnot /sfthyphen /registered
/macron /degree /plusminus /twosuperior /threesuperior
/acute /mu /paragraph /middot /cedilla
/onesuperior /ordmasculine /guillemotright /onequarter /onehalf
/threequarters /questiondown /Agrave /Aacute /Acircumflex
/Atilde /Adieresis /Aring /AE /Ccedilla
/Egrave /Eacute /Ecircumflex /Edieresis /Igrave
/Iacute /Icircumflex /Idieresis /Eth /Ntilde
/Ograve /Oacute /Ocircumflex /Otilde /Odieresis
/multiply /Oslash /Ugrave /Uacute /Ucircumflex
/Udieresis /Yacute /Thorn /germandbls /agrave
/aacute /acircumflex /atilde /adieresis /aring
/ae /ccedilla /egrave /eacute /ecircumflex
/edieresis /igrave /iacute /icircumflex /idieresis
/eth /ntilde /ograve /oacute /ocircumflex
/otilde /odieresis /divide /oslash /ugrave
/uacute /ucircumflex /udieresis /yacute /thorn
/ydieresis
] def
%%EndResource
%FOPBeginFontReencode
/Courier-Oblique findfont
dup length dict begin
  {1 index /FID ne {def} {pop pop} ifelse} forall
  /Encoding WinAnsiEncoding def
  currentdict
end
/Courier-Oblique exch definefont pop
/Courier-BoldOblique findfont
dup length dict begin
  {1 index /FID ne {def} {pop pop} ifelse} forall
  /Encoding WinAnsiEncoding def
  currentdict
end
/Courier-BoldOblique exch definefont pop
/Courier-Bold findfont
dup length dict begin
  {1 index /FID ne {def} {pop pop} ifelse} forall
  /Encoding WinAnsiEncoding def
  currentdict
end
/Courier-Bold exch definefont pop
/Helvetica findfont
dup length dict begin
  {1 index /FID ne {def} {pop pop} ifelse} forall
  /Encoding WinAnsiEncoding def
  currentdict
end
/Helvetica exch definefont pop
/Helvetica-Oblique findfont
dup length dict begin
  {1 index /FID ne {def} {pop pop} ifelse} forall
  /Encoding WinAnsiEncoding def
  currentdict
end
/Helvetica-Oblique exch definefont pop
/Helvetica-Bold findfont
dup length dict begin
  {1 index /FID ne {def} {pop pop} ifelse} forall
  /Encoding WinAnsiEncoding def
  currentdict
end
/Helvetica-Bold exch definefont pop
/Helvetica-BoldOblique findfont
dup length dict begin
  {1 index /FID ne {def} {pop pop} ifelse} forall
  /Encoding WinAnsiEncoding def
  currentdict
end
/Helvetica-BoldOblique exch definefont pop
/Times-Roman findfont
dup length dict begin
  {1 index /FID ne {def} {pop pop} ifelse} forall
  /Encoding WinAnsiEncoding def
  currentdict
end
/Times-Roman exch definefont pop
/Times-Italic findfont
dup length dict begin
  {1 index /FID ne {def} {pop pop} ifelse} forall
  /Encoding WinAnsiEncoding def
  currentdict
end
/Times-Italic exch definefont pop
/Times-Bold findfont
dup length dict begin
  {1 index /FID ne {def} {pop pop} ifelse} forall
  /Encoding WinAnsiEncoding def
  currentdict
end
/Times-Bold exch definefont pop
/Times-BoldItalic findfont
dup length dict begin
  {1 index /FID ne {def} {pop pop} ifelse} forall
  /Encoding WinAnsiEncoding def
  currentdict
end
/Times-BoldItalic exch definefont pop
/Courier findfont
dup length dict begin
  {1 index /FID ne {def} {pop pop} ifelse} forall
  /Encoding WinAnsiEncoding def
  currentdict
end
/Courier exch definefont pop
%FOPEndFontReencode
%%EndProlog
%%Page: 1 1
%%PageBoundingBox: 0 0 1120 840
%%BeginPageSetup
[1 0 0 -1 0 840] CT
%%EndPageSetup
GS
1 GC
N
0 0 1120 840 re
f
GR
GS
1 GC
N
73 374 M
507 374 L
507 31.5 L
73 31.5 L
cp
f
GR
GS
0.149 GC
2 setlinecap
1 LJ
0.5 LW
N
73 374 M
507 374 L
S
GR
GS
0.149 GC
2 setlinecap
1 LJ
0.5 LW
N
73 31.5 M
507 31.5 L
S
GR
GS
0.149 GC
2 setlinecap
1 LJ
0.5 LW
N
118.708 374 M
118.708 369.66 L
S
GR
GS
0.149 GC
2 setlinecap
1 LJ
0.5 LW
N
166.822 374 M
166.822 369.66 L
S
GR
GS
0.149 GC
2 setlinecap
1 LJ
0.5 LW
N
214.935 374 M
214.935 369.66 L
S
GR
GS
0.149 GC
2 setlinecap
1 LJ
0.5 LW
N
263.049 374 M
263.049 369.66 L
S
GR
GS
0.149 GC
2 setlinecap
1 LJ
0.5 LW
N
311.162 374 M
311.162 369.66 L
S
GR
GS
0.149 GC
2 setlinecap
1 LJ
0.5 LW
N
359.276 374 M
359.276 369.66 L
S
GR
GS
0.149 GC
2 setlinecap
1 LJ
0.5 LW
N
407.389 374 M
407.389 369.66 L
S
GR
GS
0.149 GC
2 setlinecap
1 LJ
0.5 LW
N
455.503 374 M
455.503 369.66 L
S
GR
GS
0.149 GC
2 setlinecap
1 LJ
0.5 LW
N
503.616 374 M
503.616 369.66 L
S
GR
GS
0.149 GC
2 setlinecap
1 LJ
0.5 LW
N
118.708 31.5 M
118.708 35.84 L
S
GR
GS
0.149 GC
2 setlinecap
1 LJ
0.5 LW
N
166.822 31.5 M
166.822 35.84 L
S
GR
GS
0.149 GC
2 setlinecap
1 LJ
0.5 LW
N
214.935 31.5 M
214.935 35.84 L
S
GR
GS
0.149 GC
2 setlinecap
1 LJ
0.5 LW
N
263.049 31.5 M
263.049 35.84 L
S
GR
GS
0.149 GC
2 setlinecap
1 LJ
0.5 LW
N
311.162 31.5 M
311.162 35.84 L
S
GR
GS
0.149 GC
2 setlinecap
1 LJ
0.5 LW
N
359.276 31.5 M
359.276 35.84 L
S
GR
GS
0.149 GC
2 setlinecap
1 LJ
0.5 LW
N
407.389 31.5 M
407.389 35.84 L
S
GR
GS
0.149 GC
2 setlinecap
1 LJ
0.5 LW
N
455.503 31.5 M
455.503 35.84 L
S
GR
GS
0.149 GC
2 setlinecap
1 LJ
0.5 LW
N
503.616 31.5 M
503.616 35.84 L
S
GR
GS
0.149 GC
2 setlinecap
1 LJ
0.5 LW
N
80.218 374 M
80.218 371.83 L
S
GR
GS
0.149 GC
2 setlinecap
1 LJ
0.5 LW
N
89.84 374 M
89.84 371.83 L
S
GR
GS
0.149 GC
2 setlinecap
1 LJ
0.5 LW
N
99.463 374 M
99.463 371.83 L
S
GR
GS
0.149 GC
2 setlinecap
1 LJ
0.5 LW
N
109.086 374 M
109.086 371.83 L
S
GR
GS
0.149 GC
2 setlinecap
1 LJ
0.5 LW
N
128.331 374 M
128.331 371.83 L
S
GR
GS
0.149 GC
2 setlinecap
1 LJ
0.5 LW
N
137.954 374 M
137.954 371.83 L
S
GR
GS
0.149 GC
2 setlinecap
1 LJ
0.5 LW
N
147.577 374 M
147.577 371.83 L
S
GR
GS
0.149 GC
2 setlinecap
1 LJ
0.5 LW
N
157.199 374 M
157.199 371.83 L
S
GR
GS
0.149 GC
2 setlinecap
1 LJ
0.5 LW
N
176.445 374 M
176.445 371.83 L
S
GR
GS
0.149 GC
2 setlinecap
1 LJ
0.5 LW
N
186.067 374 M
186.067 371.83 L
S
GR
GS
0.149 GC
2 setlinecap
1 LJ
0.5 LW
N
195.69 374 M
195.69 371.83 L
S
GR
GS
0.149 GC
2 setlinecap
1 LJ
0.5 LW
N
205.313 374 M
205.313 371.83 L
S
GR
GS
0.149 GC
2 setlinecap
1 LJ
0.5 LW
N
224.558 374 M
224.558 371.83 L
S
GR
GS
0.149 GC
2 setlinecap
1 LJ
0.5 LW
N
234.181 374 M
234.181 371.83 L
S
GR
GS
0.149 GC
2 setlinecap
1 LJ
0.5 LW
N
243.803 374 M
243.803 371.83 L
S
GR
GS
0.149 GC
2 setlinecap
1 LJ
0.5 LW
N
253.426 374 M
253.426 371.83 L
S
GR
GS
0.149 GC
2 setlinecap
1 LJ
0.5 LW
N
272.672 374 M
272.672 371.83 L
S
GR
GS
0.149 GC
2 setlinecap
1 LJ
0.5 LW
N
282.294 374 M
282.294 371.83 L
S
GR
GS
0.149 GC
2 setlinecap
1 LJ
0.5 LW
N
291.917 374 M
291.917 371.83 L
S
GR
GS
0.149 GC
2 setlinecap
1 LJ
0.5 LW
N
301.54 374 M
301.54 371.83 L
S
GR
GS
0.149 GC
2 setlinecap
1 LJ
0.5 LW
N
320.785 374 M
320.785 371.83 L
S
GR
GS
0.149 GC
2 setlinecap
1 LJ
0.5 LW
N
330.408 374 M
330.408 371.83 L
S
GR
GS
0.149 GC
2 setlinecap
1 LJ
0.5 LW
N
340.03 374 M
340.03 371.83 L
S
GR
GS
0.149 GC
2 setlinecap
1 LJ
0.5 LW
N
349.653 374 M
349.653 371.83 L
S
GR
GS
0.149 GC
2 setlinecap
1 LJ
0.5 LW
N
368.898 374 M
368.898 371.83 L
S
GR
GS
0.149 GC
2 setlinecap
1 LJ
0.5 LW
N
378.521 374 M
378.521 371.83 L
S
GR
GS
0.149 GC
2 setlinecap
1 LJ
0.5 LW
N
388.144 374 M
388.144 371.83 L
S
GR
GS
0.149 GC
2 setlinecap
1 LJ
0.5 LW
N
397.767 374 M
397.767 371.83 L
S
GR
GS
0.149 GC
2 setlinecap
1 LJ
0.5 LW
N
417.012 374 M
417.012 371.83 L
S
GR
GS
0.149 GC
2 setlinecap
1 LJ
0.5 LW
N
426.635 374 M
426.635 371.83 L
S
GR
GS
0.149 GC
2 setlinecap
1 LJ
0.5 LW
N
436.257 374 M
436.257 371.83 L
S
GR
GS
0.149 GC
2 setlinecap
1 LJ
0.5 LW
N
445.88 374 M
445.88 371.83 L
S
GR
GS
0.149 GC
2 setlinecap
1 LJ
0.5 LW
N
465.125 374 M
465.125 371.83 L
S
GR
GS
0.149 GC
2 setlinecap
1 LJ
0.5 LW
N
474.748 374 M
474.748 371.83 L
S
GR
GS
0.149 GC
2 setlinecap
1 LJ
0.5 LW
N
484.371 374 M
484.371 371.83 L
S
GR
GS
0.149 GC
2 setlinecap
1 LJ
0.5 LW
N
493.994 374 M
493.994 371.83 L
S
GR
GS
0.149 GC
2 setlinecap
1 LJ
0.5 LW
N
80.218 31.5 M
80.218 33.67 L
S
GR
GS
0.149 GC
2 setlinecap
1 LJ
0.5 LW
N
89.84 31.5 M
89.84 33.67 L
S
GR
GS
0.149 GC
2 setlinecap
1 LJ
0.5 LW
N
99.463 31.5 M
99.463 33.67 L
S
GR
GS
0.149 GC
2 setlinecap
1 LJ
0.5 LW
N
109.086 31.5 M
109.086 33.67 L
S
GR
GS
0.149 GC
2 setlinecap
1 LJ
0.5 LW
N
128.331 31.5 M
128.331 33.67 L
S
GR
GS
0.149 GC
2 setlinecap
1 LJ
0.5 LW
N
137.954 31.5 M
137.954 33.67 L
S
GR
GS
0.149 GC
2 setlinecap
1 LJ
0.5 LW
N
147.577 31.5 M
147.577 33.67 L
S
GR
GS
0.149 GC
2 setlinecap
1 LJ
0.5 LW
N
157.199 31.5 M
157.199 33.67 L
S
GR
GS
0.149 GC
2 setlinecap
1 LJ
0.5 LW
N
176.445 31.5 M
176.445 33.67 L
S
GR
GS
0.149 GC
2 setlinecap
1 LJ
0.5 LW
N
186.067 31.5 M
186.067 33.67 L
S
GR
GS
0.149 GC
2 setlinecap
1 LJ
0.5 LW
N
195.69 31.5 M
195.69 33.67 L
S
GR
GS
0.149 GC
2 setlinecap
1 LJ
0.5 LW
N
205.313 31.5 M
205.313 33.67 L
S
GR
GS
0.149 GC
2 setlinecap
1 LJ
0.5 LW
N
224.558 31.5 M
224.558 33.67 L
S
GR
GS
0.149 GC
2 setlinecap
1 LJ
0.5 LW
N
234.181 31.5 M
234.181 33.67 L
S
GR
GS
0.149 GC
2 setlinecap
1 LJ
0.5 LW
N
243.803 31.5 M
243.803 33.67 L
S
GR
GS
0.149 GC
2 setlinecap
1 LJ
0.5 LW
N
253.426 31.5 M
253.426 33.67 L
S
GR
GS
0.149 GC
2 setlinecap
1 LJ
0.5 LW
N
272.672 31.5 M
272.672 33.67 L
S
GR
GS
0.149 GC
2 setlinecap
1 LJ
0.5 LW
N
282.294 31.5 M
282.294 33.67 L
S
GR
GS
0.149 GC
2 setlinecap
1 LJ
0.5 LW
N
291.917 31.5 M
291.917 33.67 L
S
GR
GS
0.149 GC
2 setlinecap
1 LJ
0.5 LW
N
301.54 31.5 M
301.54 33.67 L
S
GR
GS
0.149 GC
2 setlinecap
1 LJ
0.5 LW
N
320.785 31.5 M
320.785 33.67 L
S
GR
GS
0.149 GC
2 setlinecap
1 LJ
0.5 LW
N
330.408 31.5 M
330.408 33.67 L
S
GR
GS
0.149 GC
2 setlinecap
1 LJ
0.5 LW
N
340.03 31.5 M
340.03 33.67 L
S
GR
GS
0.149 GC
2 setlinecap
1 LJ
0.5 LW
N
349.653 31.5 M
349.653 33.67 L
S
GR
GS
0.149 GC
2 setlinecap
1 LJ
0.5 LW
N
368.898 31.5 M
368.898 33.67 L
S
GR
GS
0.149 GC
2 setlinecap
1 LJ
0.5 LW
N
378.521 31.5 M
378.521 33.67 L
S
GR
GS
0.149 GC
2 setlinecap
1 LJ
0.5 LW
N
388.144 31.5 M
388.144 33.67 L
S
GR
GS
0.149 GC
2 setlinecap
1 LJ
0.5 LW
N
397.767 31.5 M
397.767 33.67 L
S
GR
GS
0.149 GC
2 setlinecap
1 LJ
0.5 LW
N
417.012 31.5 M
417.012 33.67 L
S
GR
GS
0.149 GC
2 setlinecap
1 LJ
0.5 LW
N
426.635 31.5 M
426.635 33.67 L
S
GR
GS
0.149 GC
2 setlinecap
1 LJ
0.5 LW
N
436.257 31.5 M
436.257 33.67 L
S
GR
GS
0.149 GC
2 setlinecap
1 LJ
0.5 LW
N
445.88 31.5 M
445.88 33.67 L
S
GR
GS
0.149 GC
2 setlinecap
1 LJ
0.5 LW
N
465.125 31.5 M
465.125 33.67 L
S
GR
GS
0.149 GC
2 setlinecap
1 LJ
0.5 LW
N
474.748 31.5 M
474.748 33.67 L
S
GR
GS
0.149 GC
2 setlinecap
1 LJ
0.5 LW
N
484.371 31.5 M
484.371 33.67 L
S
GR
GS
0.149 GC
2 setlinecap
1 LJ
0.5 LW
N
493.994 31.5 M
493.994 33.67 L
S
GR
GS
[1 0 0 1 118.70846 378.79999] CT
0.149 GC
/Helvetica 14 F
GS
[1 0 0 1 0 0] CT
-16 14 moveto 
1 -1 scale
(1000) t 
GR
GR
GS
[1 0 0 1 166.82193 378.79999] CT
0.149 GC
/Helvetica 14 F
GS
[1 0 0 1 0 0] CT
-16 14 moveto 
1 -1 scale
(2000) t 
GR
GR
GS
[1 0 0 1 214.93539 378.79999] CT
0.149 GC
/Helvetica 14 F
GS
[1 0 0 1 0 0] CT
-16 14 moveto 
1 -1 scale
(3000) t 
GR
GR
GS
[1 0 0 1 263.04886 378.79999] CT
0.149 GC
/Helvetica 14 F
GS
[1 0 0 1 0 0] CT
-16 14 moveto 
1 -1 scale
(4000) t 
GR
GR
GS
[1 0 0 1 311.16235 378.79999] CT
0.149 GC
/Helvetica 14 F
GS
[1 0 0 1 0 0] CT
-16 14 moveto 
1 -1 scale
(5000) t 
GR
GR
GS
[1 0 0 1 359.27582 378.79999] CT
0.149 GC
/Helvetica 14 F
GS
[1 0 0 1 0 0] CT
-16 14 moveto 
1 -1 scale
(6000) t 
GR
GR
GS
[1 0 0 1 407.38928 378.79999] CT
0.149 GC
/Helvetica 14 F
GS
[1 0 0 1 0 0] CT
-16 14 moveto 
1 -1 scale
(7000) t 
GR
GR
GS
[1 0 0 1 455.50275 378.79999] CT
0.149 GC
/Helvetica 14 F
GS
[1 0 0 1 0 0] CT
-16 14 moveto 
1 -1 scale
(8000) t 
GR
GR
GS
[1 0 0 1 503.61621 378.79999] CT
0.149 GC
/Helvetica 14 F
GS
[1 0 0 1 0 0] CT
-16 14 moveto 
1 -1 scale
(9000) t 
GR
GR
GS
[1 0 0 1 290.00021 396.30002] CT
0.149 GC
/Helvetica 15.4 F
GS
[1 0 0 1 0 0] CT
-42 15 moveto 
1 -1 scale
(Bitrate\(kb/s\)) t 
GR
GR
GS
0.149 GC
2 setlinecap
1 LJ
0.5 LW
N
73 374 M
73 31.5 L
S
GR
GS
0.149 GC
2 setlinecap
1 LJ
0.5 LW
N
507 374 M
507 31.5 L
S
GR
GS
0.149 GC
2 setlinecap
1 LJ
0.5 LW
N
73 345.942 M
77.34 345.942 L
S
GR
GS
0.149 GC
2 setlinecap
1 LJ
0.5 LW
N
73 289.757 M
77.34 289.757 L
S
GR
GS
0.149 GC
2 setlinecap
1 LJ
0.5 LW
N
73 233.571 M
77.34 233.571 L
S
GR
GS
0.149 GC
2 setlinecap
1 LJ
0.5 LW
N
73 177.385 M
77.34 177.385 L
S
GR
GS
0.149 GC
2 setlinecap
1 LJ
0.5 LW
N
73 121.2 M
77.34 121.2 L
S
GR
GS
0.149 GC
2 setlinecap
1 LJ
0.5 LW
N
73 65.014 M
77.34 65.014 L
S
GR
GS
0.149 GC
2 setlinecap
1 LJ
0.5 LW
N
507 345.942 M
502.66 345.942 L
S
GR
GS
0.149 GC
2 setlinecap
1 LJ
0.5 LW
N
507 289.757 M
502.66 289.757 L
S
GR
GS
0.149 GC
2 setlinecap
1 LJ
0.5 LW
N
507 233.571 M
502.66 233.571 L
S
GR
GS
0.149 GC
2 setlinecap
1 LJ
0.5 LW
N
507 177.385 M
502.66 177.385 L
S
GR
GS
0.149 GC
2 setlinecap
1 LJ
0.5 LW
N
507 121.2 M
502.66 121.2 L
S
GR
GS
0.149 GC
2 setlinecap
1 LJ
0.5 LW
N
507 65.014 M
502.66 65.014 L
S
GR
GS
0.149 GC
2 setlinecap
1 LJ
0.5 LW
N
73 368.417 M
75.17 368.417 L
S
GR
GS
0.149 GC
2 setlinecap
1 LJ
0.5 LW
N
73 357.179 M
75.17 357.179 L
S
GR
GS
0.149 GC
2 setlinecap
1 LJ
0.5 LW
N
73 334.705 M
75.17 334.705 L
S
GR
GS
0.149 GC
2 setlinecap
1 LJ
0.5 LW
N
73 323.468 M
75.17 323.468 L
S
GR
GS
0.149 GC
2 setlinecap
1 LJ
0.5 LW
N
73 312.231 M
75.17 312.231 L
S
GR
GS
0.149 GC
2 setlinecap
1 LJ
0.5 LW
N
73 300.994 M
75.17 300.994 L
S
GR
GS
0.149 GC
2 setlinecap
1 LJ
0.5 LW
N
73 278.519 M
75.17 278.519 L
S
GR
GS
0.149 GC
2 setlinecap
1 LJ
0.5 LW
N
73 267.282 M
75.17 267.282 L
S
GR
GS
0.149 GC
2 setlinecap
1 LJ
0.5 LW
N
73 256.045 M
75.17 256.045 L
S
GR
GS
0.149 GC
2 setlinecap
1 LJ
0.5 LW
N
73 244.808 M
75.17 244.808 L
S
GR
GS
0.149 GC
2 setlinecap
1 LJ
0.5 LW
N
73 222.334 M
75.17 222.334 L
S
GR
GS
0.149 GC
2 setlinecap
1 LJ
0.5 LW
N
73 211.097 M
75.17 211.097 L
S
GR
GS
0.149 GC
2 setlinecap
1 LJ
0.5 LW
N
73 199.859 M
75.17 199.859 L
S
GR
GS
0.149 GC
2 setlinecap
1 LJ
0.5 LW
N
73 188.622 M
75.17 188.622 L
S
GR
GS
0.149 GC
2 setlinecap
1 LJ
0.5 LW
N
73 166.148 M
75.17 166.148 L
S
GR
GS
0.149 GC
2 setlinecap
1 LJ
0.5 LW
N
73 154.911 M
75.17 154.911 L
S
GR
GS
0.149 GC
2 setlinecap
1 LJ
0.5 LW
N
73 143.674 M
75.17 143.674 L
S
GR
GS
0.149 GC
2 setlinecap
1 LJ
0.5 LW
N
73 132.437 M
75.17 132.437 L
S
GR
GS
0.149 GC
2 setlinecap
1 LJ
0.5 LW
N
73 109.962 M
75.17 109.962 L
S
GR
GS
0.149 GC
2 setlinecap
1 LJ
0.5 LW
N
73 98.725 M
75.17 98.725 L
S
GR
GS
0.149 GC
2 setlinecap
1 LJ
0.5 LW
N
73 87.488 M
75.17 87.488 L
S
GR
GS
0.149 GC
2 setlinecap
1 LJ
0.5 LW
N
73 76.251 M
75.17 76.251 L
S
GR
GS
0.149 GC
2 setlinecap
1 LJ
0.5 LW
N
73 53.777 M
75.17 53.777 L
S
GR
GS
0.149 GC
2 setlinecap
1 LJ
0.5 LW
N
73 42.54 M
75.17 42.54 L
S
GR
GS
0.149 GC
2 setlinecap
1 LJ
0.5 LW
N
507 368.417 M
504.83 368.417 L
S
GR
GS
0.149 GC
2 setlinecap
1 LJ
0.5 LW
N
507 357.179 M
504.83 357.179 L
S
GR
GS
0.149 GC
2 setlinecap
1 LJ
0.5 LW
N
507 334.705 M
504.83 334.705 L
S
GR
GS
0.149 GC
2 setlinecap
1 LJ
0.5 LW
N
507 323.468 M
504.83 323.468 L
S
GR
GS
0.149 GC
2 setlinecap
1 LJ
0.5 LW
N
507 312.231 M
504.83 312.231 L
S
GR
GS
0.149 GC
2 setlinecap
1 LJ
0.5 LW
N
507 300.994 M
504.83 300.994 L
S
GR
GS
0.149 GC
2 setlinecap
1 LJ
0.5 LW
N
507 278.519 M
504.83 278.519 L
S
GR
GS
0.149 GC
2 setlinecap
1 LJ
0.5 LW
N
507 267.282 M
504.83 267.282 L
S
GR
GS
0.149 GC
2 setlinecap
1 LJ
0.5 LW
N
507 256.045 M
504.83 256.045 L
S
GR
GS
0.149 GC
2 setlinecap
1 LJ
0.5 LW
N
507 244.808 M
504.83 244.808 L
S
GR
GS
0.149 GC
2 setlinecap
1 LJ
0.5 LW
N
507 222.334 M
504.83 222.334 L
S
GR
GS
0.149 GC
2 setlinecap
1 LJ
0.5 LW
N
507 211.097 M
504.83 211.097 L
S
GR
GS
0.149 GC
2 setlinecap
1 LJ
0.5 LW
N
507 199.859 M
504.83 199.859 L
S
GR
GS
0.149 GC
2 setlinecap
1 LJ
0.5 LW
N
507 188.622 M
504.83 188.622 L
S
GR
GS
0.149 GC
2 setlinecap
1 LJ
0.5 LW
N
507 166.148 M
504.83 166.148 L
S
GR
GS
0.149 GC
2 setlinecap
1 LJ
0.5 LW
N
507 154.911 M
504.83 154.911 L
S
GR
GS
0.149 GC
2 setlinecap
1 LJ
0.5 LW
N
507 143.674 M
504.83 143.674 L
S
GR
GS
0.149 GC
2 setlinecap
1 LJ
0.5 LW
N
507 132.437 M
504.83 132.437 L
S
GR
GS
0.149 GC
2 setlinecap
1 LJ
0.5 LW
N
507 109.962 M
504.83 109.962 L
S
GR
GS
0.149 GC
2 setlinecap
1 LJ
0.5 LW
N
507 98.725 M
504.83 98.725 L
S
GR
GS
0.149 GC
2 setlinecap
1 LJ
0.5 LW
N
507 87.488 M
504.83 87.488 L
S
GR
GS
0.149 GC
2 setlinecap
1 LJ
0.5 LW
N
507 76.251 M
504.83 76.251 L
S
GR
GS
0.149 GC
2 setlinecap
1 LJ
0.5 LW
N
507 53.777 M
504.83 53.777 L
S
GR
GS
0.149 GC
2 setlinecap
1 LJ
0.5 LW
N
507 42.54 M
504.83 42.54 L
S
GR
GS
[1 0 0 1 68.2 345.94223] CT
0.149 GC
/Helvetica 14 F
GS
[1 0 0 1 0 0] CT
-16 5.5 moveto 
1 -1 scale
(60) t 
GR
GR
GS
[1 0 0 1 68.2 289.75656] CT
0.149 GC
/Helvetica 14 F
GS
[1 0 0 1 0 0] CT
-16 5.5 moveto 
1 -1 scale
(65) t 
GR
GR
GS
[1 0 0 1 68.2 233.57089] CT
0.149 GC
/Helvetica 14 F
GS
[1 0 0 1 0 0] CT
-16 5.5 moveto 
1 -1 scale
(70) t 
GR
GR
GS
[1 0 0 1 68.2 177.38522] CT
0.149 GC
/Helvetica 14 F
GS
[1 0 0 1 0 0] CT
-16 5.5 moveto 
1 -1 scale
(75) t 
GR
GR
GS
[1 0 0 1 68.2 121.19956] CT
0.149 GC
/Helvetica 14 F
GS
[1 0 0 1 0 0] CT
-16 5.5 moveto 
1 -1 scale
(80) t 
GR
GR
GS
[1 0 0 1 68.2 65.0139] CT
0.149 GC
/Helvetica 14 F
GS
[1 0 0 1 0 0] CT
-16 5.5 moveto 
1 -1 scale
(85) t 
GR
GR
GS
[0 -1 1 0 49.2 202.74988] CT
0.149 GC
/Helvetica 15.4 F
GS
[1 0 0 1 0 0] CT
-40 -4 moveto 
1 -1 scale
(VMAF-NEG) t 
GR
GR
GS
[1 0 0 1 290.00027 29.57499] CT
/Helvetica-Bold 15.4 F
GS
[1 0 0 1 0 0] CT
-225.5 -4 moveto 
1 -1 scale
(DinnerSceneCropped_1920x1080_2997fps_10bit_420.y4m-av1) t 
GR
GR
GS
0 0.447 0.741 RC
1 LJ
0.5 LW
N
73.857 261.33 M
74.82 211.973 L
75.782 175.963 L
76.744 161.199 L
77.706 149.384 L
78.669 139.715 L
79.631 131.973 L
80.593 125.939 L
81.555 121.396 L
82.518 118.126 L
83.48 115.603 L
84.442 113.213 L
85.405 110.944 L
86.367 108.793 L
87.329 106.757 L
88.291 104.832 L
89.254 103.017 L
90.216 101.307 L
91.178 99.7 L
92.14 98.193 L
93.103 96.782 L
94.065 95.465 L
95.027 94.238 L
95.989 93.098 L
96.952 92.042 L
97.914 91.068 L
98.876 90.172 L
99.839 89.351 L
100.801 88.602 L
101.763 87.922 L
102.725 87.307 L
103.688 86.756 L
104.65 86.264 L
105.612 85.829 L
106.574 85.447 L
107.537 85.107 L
108.499 84.771 L
109.461 84.437 L
110.424 84.103 L
111.386 83.772 L
112.348 83.442 L
113.31 83.113 L
114.273 82.785 L
115.235 82.459 L
116.197 82.135 L
117.159 81.812 L
118.122 81.49 L
119.084 81.17 L
120.046 80.851 L
121.008 80.533 L
121.971 80.217 L
122.933 79.902 L
123.895 79.589 L
124.858 79.277 L
125.82 78.966 L
126.782 78.657 L
127.744 78.349 L
128.707 78.042 L
129.669 77.737 L
130.631 77.433 L
131.593 77.131 L
132.556 76.83 L
133.518 76.53 L
134.48 76.232 L
135.443 75.935 L
136.405 75.639 L
137.367 75.345 L
138.329 75.052 L
139.292 74.76 L
140.254 74.47 L
141.216 74.181 L
142.178 73.893 L
143.141 73.607 L
144.103 73.322 L
145.065 73.038 L
146.027 72.756 L
146.99 72.475 L
147.952 72.196 L
148.914 71.917 L
149.877 71.64 L
150.839 71.365 L
151.801 71.09 L
152.763 70.817 L
153.726 70.545 L
154.688 70.275 L
155.65 70.006 L
156.612 69.738 L
157.575 69.471 L
158.537 69.206 L
159.499 68.942 L
160.462 68.679 L
161.424 68.418 L
162.386 68.158 L
163.348 67.899 L
164.311 67.642 L
165.273 67.385 L
166.235 67.13 L
167.197 66.877 L
168.16 66.624 L
169.122 66.373 L
170.084 66.123 L
171.046 65.874 L
172.009 65.627 L
172.971 65.381 L
173.933 65.136 L
174.896 64.892 L
175.858 64.65 L
176.82 64.409 L
177.782 64.169 L
178.745 63.93 L
179.707 63.693 L
180.669 63.456 L
181.631 63.221 L
182.594 62.988 L
183.556 62.755 L
184.518 62.524 L
185.481 62.294 L
186.443 62.065 L
187.405 61.838 L
188.367 61.611 L
189.33 61.386 L
190.292 61.162 L
191.254 60.939 L
192.216 60.718 L
193.179 60.497 L
194.141 60.278 L
195.103 60.06 L
196.065 59.843 L
197.028 59.628 L
197.99 59.413 L
198.952 59.2 L
199.915 58.988 L
200.877 58.777 L
201.839 58.568 L
202.801 58.359 L
203.764 58.152 L
204.726 57.946 L
205.688 57.741 L
206.65 57.537 L
207.613 57.334 L
208.575 57.133 L
209.537 56.932 L
210.5 56.733 L
211.462 56.535 L
212.424 56.339 L
213.386 56.143 L
214.349 55.948 L
215.311 55.755 L
216.273 55.563 L
217.235 55.372 L
218.198 55.182 L
219.16 54.993 L
220.122 54.805 L
221.085 54.618 L
222.047 54.433 L
223.009 54.249 L
223.971 54.065 L
224.934 53.883 L
225.896 53.702 L
226.858 53.522 L
227.82 53.344 L
228.783 53.166 L
229.745 52.99 L
230.707 52.814 L
231.669 52.64 L
232.632 52.467 L
233.594 52.294 L
234.556 52.123 L
235.519 51.953 L
236.481 51.785 L
237.443 51.617 L
238.405 51.45 L
239.368 51.285 L
240.33 51.12 L
241.292 50.957 L
242.254 50.794 L
243.217 50.633 L
244.179 50.473 L
245.141 50.313 L
246.104 50.155 L
247.066 49.998 L
248.028 49.842 L
248.99 49.687 L
249.953 49.534 L
250.915 49.381 L
251.877 49.229 L
252.839 49.078 L
253.802 48.929 L
254.764 48.78 L
255.726 48.632 L
256.688 48.486 L
257.651 48.34 L
258.613 48.196 L
259.575 48.052 L
260.538 47.91 L
261.5 47.768 L
262.462 47.628 L
263.424 47.488 L
264.387 47.35 L
265.349 47.213 L
266.311 47.076 L
267.273 46.941 L
268.236 46.807 L
269.198 46.673 L
270.16 46.541 L
271.122 46.41 L
272.085 46.279 L
273.047 46.15 L
274.009 46.022 L
274.972 45.894 L
275.934 45.768 L
276.896 45.642 L
277.858 45.518 L
278.821 45.395 L
279.783 45.272 L
280.745 45.151 L
281.707 45.03 L
282.67 44.911 L
283.632 44.792 L
284.594 44.674 L
285.557 44.558 L
286.519 44.442 L
287.481 44.327 L
288.443 44.213 L
289.406 44.101 L
290.368 43.989 L
291.33 43.878 L
292.292 43.768 L
293.255 43.659 L
294.217 43.551 L
295.179 43.443 L
296.142 43.337 L
297.104 43.232 L
298.066 43.127 L
299.028 43.024 L
299.991 42.921 L
300.953 42.82 L
301.915 42.719 L
302.877 42.619 L
303.84 42.52 L
304.802 42.422 L
305.764 42.325 L
306.726 42.229 L
307.689 42.134 L
308.651 42.039 L
309.613 41.946 L
310.576 41.853 L
311.538 41.761 L
312.5 41.671 L
313.462 41.581 L
314.425 41.492 L
315.387 41.403 L
316.349 41.316 L
317.311 41.23 L
318.274 41.144 L
319.236 41.06 L
320.198 40.976 L
321.161 40.893 L
322.123 40.811 L
323.085 40.73 L
324.047 40.649 L
325.01 40.57 L
325.972 40.491 L
326.934 40.413 L
327.896 40.336 L
328.859 40.26 L
329.821 40.185 L
330.783 40.111 L
331.745 40.037 L
332.708 39.964 L
333.67 39.893 L
334.632 39.822 L
335.595 39.751 L
336.557 39.682 L
337.519 39.613 L
338.481 39.546 L
339.444 39.479 L
340.406 39.413 L
341.368 39.347 L
342.33 39.283 L
343.293 39.219 L
344.255 39.156 L
345.217 39.094 L
346.18 39.033 L
347.142 38.972 L
348.104 38.913 L
349.066 38.854 L
350.029 38.796 L
350.991 38.738 L
351.953 38.682 L
352.915 38.626 L
353.878 38.571 L
354.84 38.517 L
355.802 38.464 L
356.764 38.411 L
357.727 38.359 L
358.689 38.308 L
359.651 38.258 L
360.614 38.208 L
361.576 38.159 L
362.538 38.111 L
363.5 38.064 L
364.463 38.017 L
365.425 37.972 L
366.387 37.927 L
367.349 37.882 L
368.312 37.839 L
369.274 37.796 L
370.236 37.754 L
371.199 37.712 L
372.161 37.672 L
373.123 37.632 L
374.085 37.593 L
375.048 37.554 L
376.01 37.517 L
376.972 37.48 L
377.934 37.443 L
378.897 37.408 L
379.859 37.373 L
380.821 37.339 L
381.784 37.305 L
382.746 37.273 L
383.708 37.241 L
384.67 37.209 L
385.633 37.179 L
386.595 37.149 L
387.557 37.12 L
388.519 37.091 L
389.482 37.063 L
390.444 37.036 L
391.406 37.01 L
392.368 36.984 L
393.331 36.959 L
394.293 36.934 L
395.255 36.911 L
396.218 36.887 L
397.18 36.865 L
398.142 36.843 L
399.104 36.822 L
400.067 36.802 L
401.029 36.782 L
401.991 36.763 L
402.953 36.744 L
403.916 36.726 L
404.878 36.709 L
405.84 36.693 L
406.802 36.677 L
407.765 36.661 L
408.727 36.647 L
409.689 36.633 L
410.652 36.619 L
411.614 36.607 L
412.576 36.594 L
413.538 36.583 L
414.501 36.572 L
415.463 36.562 L
416.425 36.552 L
417.387 36.543 L
418.35 36.535 L
419.312 36.527 L
420.274 36.52 L
421.237 36.513 L
422.199 36.507 L
423.161 36.502 L
424.123 36.497 L
425.086 36.493 L
426.048 36.489 L
427.01 36.486 L
427.972 36.484 L
428.935 36.482 L
429.897 36.481 L
430.859 36.48 L
S
GR
GS
0.851 0.325 0.098 RC
1 LJ
0.5 LW
N
73.979 255.478 M
74.941 207.295 L
75.903 170.205 L
76.866 156.288 L
77.828 146.257 L
78.79 137.938 L
79.752 131.136 L
80.715 125.655 L
81.677 121.302 L
82.639 117.882 L
83.601 115.199 L
84.564 113.009 L
85.526 110.949 L
86.488 108.977 L
87.451 107.092 L
88.413 105.291 L
89.375 103.574 L
90.337 101.937 L
91.3 100.38 L
92.262 98.901 L
93.224 97.498 L
94.186 96.169 L
95.149 94.912 L
96.111 93.727 L
97.073 92.61 L
98.035 91.56 L
98.998 90.577 L
99.96 89.657 L
100.922 88.799 L
101.885 88.001 L
102.847 87.262 L
103.809 86.579 L
104.771 85.952 L
105.734 85.378 L
106.696 84.856 L
107.658 84.383 L
108.62 83.959 L
109.583 83.581 L
110.545 83.248 L
111.507 82.951 L
112.47 82.659 L
113.432 82.368 L
114.394 82.078 L
115.356 81.789 L
116.319 81.501 L
117.281 81.214 L
118.243 80.928 L
119.205 80.643 L
120.168 80.359 L
121.13 80.076 L
122.092 79.794 L
123.055 79.513 L
124.017 79.233 L
124.979 78.954 L
125.941 78.676 L
126.904 78.399 L
127.866 78.123 L
128.828 77.848 L
129.79 77.574 L
130.753 77.301 L
131.715 77.029 L
132.677 76.758 L
133.639 76.488 L
134.602 76.219 L
135.564 75.951 L
136.526 75.684 L
137.489 75.418 L
138.451 75.153 L
139.413 74.889 L
140.375 74.626 L
141.338 74.364 L
142.3 74.103 L
143.262 73.842 L
144.224 73.583 L
145.187 73.325 L
146.149 73.068 L
147.111 72.811 L
148.074 72.556 L
149.036 72.302 L
149.998 72.048 L
150.96 71.796 L
151.923 71.544 L
152.885 71.294 L
153.847 71.044 L
154.809 70.795 L
155.772 70.548 L
156.734 70.301 L
157.696 70.055 L
158.658 69.81 L
159.621 69.566 L
160.583 69.323 L
161.545 69.081 L
162.508 68.84 L
163.47 68.6 L
164.432 68.361 L
165.394 68.123 L
166.357 67.885 L
167.319 67.649 L
168.281 67.414 L
169.243 67.179 L
170.206 66.946 L
171.168 66.713 L
172.13 66.481 L
173.093 66.25 L
174.055 66.02 L
175.017 65.791 L
175.979 65.563 L
176.942 65.336 L
177.904 65.11 L
178.866 64.885 L
179.828 64.661 L
180.791 64.437 L
181.753 64.215 L
182.715 63.993 L
183.677 63.772 L
184.64 63.552 L
185.602 63.334 L
186.564 63.116 L
187.527 62.898 L
188.489 62.682 L
189.451 62.467 L
190.413 62.253 L
191.376 62.039 L
192.338 61.827 L
193.3 61.615 L
194.262 61.404 L
195.225 61.194 L
196.187 60.985 L
197.149 60.777 L
198.112 60.57 L
199.074 60.363 L
200.036 60.158 L
200.998 59.953 L
201.961 59.75 L
202.923 59.547 L
203.885 59.345 L
204.847 59.144 L
205.81 58.943 L
206.772 58.744 L
207.734 58.546 L
208.696 58.348 L
209.659 58.151 L
210.621 57.955 L
211.583 57.76 L
212.546 57.566 L
213.508 57.373 L
214.47 57.181 L
215.432 56.989 L
216.395 56.798 L
217.357 56.609 L
218.319 56.42 L
219.281 56.232 L
220.244 56.044 L
221.206 55.858 L
222.168 55.672 L
223.131 55.488 L
224.093 55.304 L
225.055 55.121 L
226.017 54.938 L
226.98 54.757 L
227.942 54.577 L
228.904 54.397 L
229.866 54.218 L
230.829 54.04 L
231.791 53.863 L
232.753 53.687 L
233.715 53.511 L
234.678 53.336 L
235.64 53.163 L
236.602 52.99 L
237.565 52.817 L
238.527 52.646 L
239.489 52.476 L
240.451 52.306 L
241.414 52.137 L
242.376 51.969 L
243.338 51.802 L
244.3 51.635 L
245.263 51.469 L
246.225 51.305 L
247.187 51.141 L
248.15 50.977 L
249.112 50.815 L
250.074 50.653 L
251.036 50.493 L
251.999 50.333 L
252.961 50.173 L
253.923 50.015 L
254.885 49.858 L
255.848 49.701 L
256.81 49.545 L
257.772 49.389 L
258.734 49.235 L
259.697 49.081 L
260.659 48.929 L
261.621 48.777 L
262.584 48.625 L
263.546 48.475 L
264.508 48.325 L
265.47 48.176 L
266.433 48.028 L
267.395 47.881 L
268.357 47.734 L
269.319 47.588 L
270.282 47.443 L
271.244 47.299 L
272.206 47.156 L
273.169 47.013 L
274.131 46.871 L
275.093 46.73 L
276.055 46.589 L
277.018 46.45 L
277.98 46.311 L
278.942 46.173 L
279.904 46.035 L
280.867 45.899 L
281.829 45.763 L
282.791 45.628 L
283.754 45.493 L
284.716 45.36 L
285.678 45.227 L
286.64 45.095 L
287.603 44.963 L
288.565 44.833 L
289.527 44.703 L
290.489 44.574 L
291.452 44.445 L
292.414 44.318 L
293.376 44.191 L
294.338 44.065 L
295.301 43.939 L
296.263 43.815 L
297.225 43.691 L
298.188 43.567 L
299.15 43.445 L
300.112 43.323 L
301.074 43.202 L
302.037 43.082 L
302.999 42.962 L
303.961 42.843 L
304.923 42.725 L
305.886 42.608 L
306.848 42.491 L
307.81 42.375 L
308.772 42.26 L
309.735 42.145 L
310.697 42.031 L
311.659 41.918 L
312.622 41.805 L
313.584 41.694 L
314.546 41.583 L
315.508 41.472 L
316.471 41.363 L
317.433 41.254 L
318.395 41.145 L
319.357 41.038 L
320.32 40.931 L
321.282 40.825 L
322.244 40.719 L
323.207 40.615 L
324.169 40.511 L
325.131 40.407 L
326.093 40.304 L
327.056 40.202 L
328.018 40.101 L
328.98 40 L
329.942 39.9 L
330.905 39.801 L
331.867 39.702 L
332.829 39.604 L
333.792 39.507 L
334.754 39.411 L
335.716 39.315 L
336.678 39.219 L
337.641 39.125 L
338.603 39.031 L
339.565 38.938 L
340.527 38.845 L
341.49 38.753 L
342.452 38.662 L
343.414 38.571 L
344.376 38.481 L
345.339 38.392 L
346.301 38.303 L
347.263 38.215 L
348.226 38.128 L
349.188 38.041 L
350.15 37.955 L
351.112 37.87 L
352.075 37.785 L
353.037 37.701 L
353.999 37.618 L
354.961 37.535 L
355.924 37.453 L
356.886 37.371 L
357.848 37.29 L
358.811 37.21 L
359.773 37.13 L
360.735 37.051 L
361.697 36.973 L
362.66 36.895 L
363.622 36.818 L
364.584 36.742 L
365.546 36.666 L
366.509 36.591 L
367.471 36.516 L
368.433 36.442 L
369.395 36.369 L
370.358 36.296 L
371.32 36.224 L
372.282 36.152 L
373.245 36.081 L
374.207 36.011 L
375.169 35.941 L
376.131 35.872 L
377.094 35.804 L
378.056 35.736 L
379.018 35.669 L
379.98 35.602 L
380.943 35.536 L
381.905 35.47 L
382.867 35.406 L
383.83 35.341 L
384.792 35.278 L
385.754 35.215 L
386.716 35.152 L
387.679 35.09 L
388.641 35.029 L
389.603 34.968 L
390.565 34.908 L
391.528 34.848 L
392.49 34.789 L
393.452 34.731 L
394.414 34.673 L
395.377 34.616 L
396.339 34.559 L
397.301 34.503 L
398.264 34.448 L
399.226 34.393 L
400.188 34.338 L
401.15 34.285 L
402.113 34.231 L
403.075 34.179 L
404.037 34.127 L
404.999 34.075 L
405.962 34.024 L
406.924 33.974 L
407.886 33.924 L
408.849 33.875 L
409.811 33.826 L
410.773 33.778 L
411.735 33.73 L
412.698 33.683 L
413.66 33.637 L
414.622 33.591 L
415.584 33.545 L
416.547 33.5 L
417.509 33.456 L
418.471 33.412 L
419.433 33.369 L
420.396 33.326 L
421.358 33.284 L
422.32 33.242 L
423.283 33.201 L
424.245 33.161 L
425.207 33.121 L
426.169 33.081 L
427.132 33.042 L
428.094 33.004 L
429.056 32.966 L
430.018 32.928 L
430.981 32.891 L
431.943 32.855 L
432.905 32.819 L
433.868 32.784 L
434.83 32.749 L
435.792 32.715 L
436.754 32.681 L
437.717 32.648 L
438.679 32.615 L
439.641 32.583 L
440.603 32.551 L
441.566 32.52 L
442.528 32.489 L
443.49 32.459 L
444.452 32.429 L
445.415 32.4 L
446.377 32.371 L
447.339 32.343 L
448.302 32.315 L
449.264 32.288 L
450.226 32.261 L
451.188 32.235 L
452.151 32.209 L
453.113 32.184 L
454.075 32.159 L
455.037 32.135 L
456 32.111 L
456.962 32.087 L
457.924 32.064 L
458.887 32.042 L
459.849 32.02 L
460.811 31.999 L
461.773 31.978 L
462.736 31.957 L
463.698 31.937 L
464.66 31.918 L
465.622 31.899 L
466.585 31.88 L
467.547 31.862 L
468.509 31.844 L
469.471 31.827 L
470.434 31.81 L
471.396 31.794 L
472.358 31.778 L
473.321 31.763 L
474.283 31.748 L
475.245 31.733 L
476.207 31.719 L
477.17 31.706 L
478.132 31.692 L
479.094 31.68 L
480.056 31.668 L
481.019 31.656 L
481.981 31.644 L
482.943 31.634 L
483.906 31.623 L
484.868 31.613 L
485.83 31.604 L
486.792 31.594 L
487.755 31.586 L
488.717 31.577 L
489.679 31.569 L
490.641 31.562 L
491.604 31.555 L
492.566 31.548 L
493.528 31.542 L
494.491 31.537 L
495.453 31.531 L
496.415 31.526 L
497.377 31.522 L
498.34 31.518 L
499.302 31.514 L
500.264 31.511 L
501.226 31.508 L
502.189 31.506 L
503.151 31.504 L
504.113 31.502 L
505.075 31.501 L
506.038 31.5 L
507 31.5 L
S
GR
GS
0.929 0.694 0.125 RC
1 LJ
0.5 LW
N
73.801 276.773 M
74.763 219.245 L
75.725 179.231 L
76.688 155.828 L
77.65 137.671 L
78.612 124.769 L
79.575 116.722 L
80.537 110.088 L
81.499 104.137 L
82.461 98.935 L
83.424 94.545 L
84.386 91.033 L
85.348 88.463 L
86.31 86.9 L
87.273 86.299 L
88.235 85.87 L
89.197 85.443 L
90.16 85.019 L
91.122 84.597 L
92.084 84.177 L
93.046 83.76 L
94.009 83.346 L
94.971 82.934 L
95.933 82.524 L
96.895 82.117 L
97.858 81.712 L
98.82 81.31 L
99.782 80.91 L
100.744 80.512 L
101.707 80.117 L
102.669 79.724 L
103.631 79.334 L
104.594 78.946 L
105.556 78.56 L
106.518 78.177 L
107.48 77.796 L
108.443 77.417 L
109.405 77.041 L
110.367 76.667 L
111.329 76.295 L
112.292 75.925 L
113.254 75.558 L
114.216 75.194 L
115.179 74.831 L
116.141 74.471 L
117.103 74.113 L
118.065 73.757 L
119.028 73.404 L
119.99 73.053 L
120.952 72.704 L
121.914 72.357 L
122.877 72.013 L
123.839 71.671 L
124.801 71.33 L
125.763 70.993 L
126.726 70.657 L
127.688 70.324 L
128.65 69.993 L
129.613 69.664 L
130.575 69.337 L
131.537 69.012 L
132.499 68.69 L
133.462 68.369 L
134.424 68.051 L
135.386 67.735 L
136.348 67.421 L
137.311 67.109 L
138.273 66.8 L
139.235 66.492 L
140.198 66.187 L
141.16 65.883 L
142.122 65.582 L
143.084 65.283 L
144.047 64.986 L
145.009 64.691 L
145.971 64.398 L
146.933 64.107 L
147.896 63.818 L
148.858 63.531 L
149.82 63.246 L
150.782 62.964 L
151.745 62.683 L
152.707 62.404 L
153.669 62.127 L
154.632 61.853 L
155.594 61.58 L
156.556 61.309 L
157.518 61.04 L
158.481 60.774 L
159.443 60.509 L
160.405 60.246 L
161.367 59.985 L
162.33 59.726 L
163.292 59.469 L
164.254 59.214 L
165.217 58.961 L
166.179 58.709 L
167.141 58.46 L
168.103 58.212 L
169.066 57.967 L
170.028 57.723 L
170.99 57.481 L
171.952 57.241 L
172.915 57.003 L
173.877 56.767 L
174.839 56.532 L
175.801 56.3 L
176.764 56.069 L
177.726 55.84 L
178.688 55.613 L
179.651 55.388 L
180.613 55.165 L
181.575 54.943 L
182.537 54.723 L
183.5 54.505 L
184.462 54.289 L
185.424 54.074 L
186.386 53.861 L
187.349 53.65 L
188.311 53.441 L
189.273 53.234 L
190.236 53.028 L
191.198 52.824 L
192.16 52.621 L
193.122 52.421 L
194.085 52.222 L
195.047 52.025 L
196.009 51.829 L
196.971 51.635 L
197.934 51.443 L
198.896 51.253 L
199.858 51.064 L
200.82 50.877 L
201.783 50.691 L
202.745 50.508 L
203.707 50.325 L
204.67 50.145 L
205.632 49.966 L
206.594 49.788 L
207.556 49.613 L
208.519 49.438 L
209.481 49.266 L
210.443 49.095 L
211.405 48.926 L
212.368 48.758 L
213.33 48.591 L
214.292 48.427 L
215.255 48.264 L
216.217 48.102 L
217.179 47.942 L
218.141 47.784 L
219.104 47.626 L
220.066 47.471 L
221.028 47.317 L
221.99 47.165 L
222.953 47.014 L
223.915 46.864 L
224.877 46.716 L
225.84 46.569 L
226.802 46.424 L
227.764 46.281 L
228.726 46.139 L
229.689 45.998 L
230.651 45.859 L
231.613 45.721 L
232.575 45.584 L
233.538 45.449 L
234.5 45.316 L
235.462 45.184 L
236.424 45.053 L
237.387 44.923 L
238.349 44.795 L
239.311 44.669 L
240.274 44.543 L
241.236 44.419 L
242.198 44.297 L
243.16 44.175 L
244.123 44.056 L
245.085 43.937 L
246.047 43.82 L
247.009 43.704 L
247.972 43.589 L
248.934 43.476 L
249.896 43.364 L
250.859 43.253 L
251.821 43.144 L
252.783 43.035 L
253.745 42.928 L
254.708 42.823 L
255.67 42.718 L
256.632 42.615 L
257.594 42.513 L
258.557 42.413 L
259.519 42.313 L
260.481 42.215 L
261.443 42.118 L
262.406 42.022 L
263.368 41.927 L
264.33 41.834 L
265.293 41.742 L
266.255 41.651 L
267.217 41.561 L
268.179 41.472 L
269.142 41.384 L
270.104 41.298 L
271.066 41.212 L
272.028 41.128 L
272.991 41.045 L
273.953 40.963 L
274.915 40.882 L
275.878 40.803 L
276.84 40.724 L
277.802 40.646 L
278.764 40.57 L
279.727 40.494 L
280.689 40.42 L
281.651 40.347 L
282.613 40.275 L
283.576 40.203 L
284.538 40.133 L
285.5 40.064 L
286.462 39.996 L
287.425 39.929 L
288.387 39.863 L
289.349 39.798 L
290.312 39.734 L
291.274 39.671 L
292.236 39.609 L
293.198 39.548 L
294.161 39.488 L
295.123 39.428 L
296.085 39.37 L
297.047 39.313 L
298.01 39.257 L
298.972 39.201 L
299.934 39.147 L
300.897 39.093 L
301.859 39.041 L
302.821 38.989 L
303.783 38.938 L
304.746 38.888 L
305.708 38.839 L
306.67 38.791 L
307.632 38.743 L
308.595 38.697 L
309.557 38.651 L
310.519 38.607 L
311.482 38.563 L
312.444 38.52 L
313.406 38.477 L
314.368 38.436 L
315.331 38.395 L
316.293 38.356 L
317.255 38.317 L
318.217 38.278 L
319.18 38.241 L
320.142 38.204 L
321.104 38.168 L
322.066 38.133 L
323.029 38.099 L
323.991 38.065 L
324.953 38.032 L
325.916 38 L
326.878 37.969 L
327.84 37.938 L
328.802 37.908 L
329.765 37.879 L
330.727 37.85 L
331.689 37.822 L
332.651 37.795 L
333.614 37.768 L
334.576 37.743 L
335.538 37.717 L
336.5 37.693 L
337.463 37.669 L
338.425 37.646 L
339.387 37.623 L
340.35 37.601 L
341.312 37.58 L
342.274 37.559 L
343.236 37.539 L
344.199 37.519 L
345.161 37.5 L
346.123 37.482 L
347.085 37.464 L
348.048 37.447 L
349.01 37.43 L
349.972 37.414 L
350.935 37.399 L
351.897 37.384 L
352.859 37.369 L
353.821 37.355 L
354.784 37.342 L
355.746 37.329 L
356.708 37.316 L
357.67 37.304 L
358.633 37.293 L
359.595 37.282 L
360.557 37.272 L
361.52 37.262 L
362.482 37.252 L
363.444 37.243 L
364.406 37.234 L
365.369 37.226 L
366.331 37.218 L
367.293 37.211 L
368.255 37.204 L
369.218 37.198 L
370.18 37.192 L
371.142 37.186 L
372.104 37.181 L
373.067 37.176 L
374.029 37.171 L
374.991 37.167 L
375.954 37.163 L
376.916 37.16 L
377.878 37.157 L
378.84 37.154 L
379.803 37.152 L
380.765 37.15 L
381.727 37.148 L
382.689 37.147 L
383.652 37.145 L
384.614 37.145 L
385.576 37.144 L
386.539 37.144 L
S
GR
GS
0.494 0.184 0.557 RC
1 LJ
0.5 LW
N
73.859 262.691 M
74.821 211.591 L
75.783 174.836 L
76.745 160.67 L
77.708 149.47 L
78.67 140.408 L
79.632 133.211 L
80.594 127.606 L
81.557 123.323 L
82.519 120.089 L
83.481 117.43 L
84.444 114.898 L
85.406 112.486 L
86.368 110.191 L
87.33 108.011 L
88.293 105.943 L
89.255 103.984 L
90.217 102.134 L
91.179 100.389 L
92.142 98.746 L
93.104 97.204 L
94.066 95.76 L
95.029 94.412 L
95.991 93.157 L
96.953 91.993 L
97.915 90.918 L
98.878 89.929 L
99.84 89.023 L
100.802 88.199 L
101.764 87.454 L
102.727 86.786 L
103.689 86.191 L
104.651 85.669 L
105.614 85.216 L
106.576 84.83 L
107.538 84.49 L
108.5 84.153 L
109.463 83.817 L
110.425 83.483 L
111.387 83.15 L
112.349 82.818 L
113.312 82.488 L
114.274 82.16 L
115.236 81.833 L
116.198 81.507 L
117.161 81.183 L
118.123 80.86 L
119.085 80.539 L
120.048 80.219 L
121.01 79.901 L
121.972 79.584 L
122.934 79.268 L
123.897 78.954 L
124.859 78.641 L
125.821 78.33 L
126.783 78.02 L
127.746 77.712 L
128.708 77.405 L
129.67 77.099 L
130.633 76.795 L
131.595 76.492 L
132.557 76.191 L
133.519 75.891 L
134.482 75.592 L
135.444 75.295 L
136.406 74.999 L
137.368 74.705 L
138.331 74.412 L
139.293 74.12 L
140.255 73.83 L
141.217 73.541 L
142.18 73.253 L
143.142 72.967 L
144.104 72.682 L
145.067 72.399 L
146.029 72.117 L
146.991 71.836 L
147.953 71.557 L
148.916 71.279 L
149.878 71.002 L
150.84 70.727 L
151.802 70.453 L
152.765 70.18 L
153.727 69.909 L
154.689 69.639 L
155.652 69.37 L
156.614 69.103 L
157.576 68.837 L
158.538 68.573 L
159.501 68.309 L
160.463 68.047 L
161.425 67.787 L
162.387 67.527 L
163.35 67.269 L
164.312 67.013 L
165.274 66.757 L
166.236 66.503 L
167.199 66.251 L
168.161 65.999 L
169.123 65.749 L
170.086 65.5 L
171.048 65.252 L
172.01 65.006 L
172.972 64.761 L
173.935 64.517 L
174.897 64.275 L
175.859 64.034 L
176.821 63.794 L
177.784 63.555 L
178.746 63.318 L
179.708 63.082 L
180.671 62.847 L
181.633 62.613 L
182.595 62.381 L
183.557 62.15 L
184.52 61.92 L
185.482 61.692 L
186.444 61.464 L
187.406 61.238 L
188.369 61.013 L
189.331 60.79 L
190.293 60.567 L
191.255 60.346 L
192.218 60.126 L
193.18 59.908 L
194.142 59.69 L
195.105 59.474 L
196.067 59.259 L
197.029 59.045 L
197.991 58.833 L
198.954 58.621 L
199.916 58.411 L
200.878 58.202 L
201.84 57.995 L
202.803 57.788 L
203.765 57.583 L
204.727 57.379 L
205.69 57.176 L
206.652 56.974 L
207.614 56.773 L
208.576 56.574 L
209.539 56.376 L
210.501 56.179 L
211.463 55.983 L
212.425 55.788 L
213.388 55.595 L
214.35 55.402 L
215.312 55.211 L
216.274 55.021 L
217.237 54.832 L
218.199 54.644 L
219.161 54.458 L
220.124 54.272 L
221.086 54.088 L
222.048 53.905 L
223.01 53.723 L
223.973 53.542 L
224.935 53.362 L
225.897 53.184 L
226.859 53.006 L
227.822 52.83 L
228.784 52.655 L
229.746 52.481 L
230.709 52.308 L
231.671 52.136 L
232.633 51.965 L
233.595 51.796 L
234.558 51.627 L
235.52 51.46 L
236.482 51.294 L
237.444 51.128 L
238.407 50.964 L
239.369 50.801 L
240.331 50.639 L
241.293 50.479 L
242.256 50.319 L
243.218 50.16 L
244.18 50.003 L
245.143 49.846 L
246.105 49.691 L
247.067 49.536 L
248.029 49.383 L
248.992 49.231 L
249.954 49.08 L
250.916 48.93 L
251.878 48.781 L
252.841 48.633 L
253.803 48.486 L
254.765 48.34 L
255.728 48.195 L
256.69 48.051 L
257.652 47.909 L
258.614 47.767 L
259.577 47.626 L
260.539 47.486 L
261.501 47.348 L
262.463 47.21 L
263.426 47.074 L
264.388 46.938 L
265.35 46.804 L
266.313 46.67 L
267.275 46.538 L
268.237 46.406 L
269.199 46.276 L
270.162 46.146 L
271.124 46.018 L
272.086 45.891 L
273.048 45.764 L
274.011 45.639 L
274.973 45.514 L
275.935 45.391 L
276.897 45.268 L
277.86 45.147 L
278.822 45.026 L
279.784 44.907 L
280.747 44.788 L
281.709 44.671 L
282.671 44.554 L
283.633 44.438 L
284.596 44.324 L
285.558 44.21 L
286.52 44.097 L
287.482 43.985 L
288.445 43.874 L
289.407 43.764 L
290.369 43.656 L
291.332 43.548 L
292.294 43.44 L
293.256 43.334 L
294.218 43.229 L
295.181 43.125 L
296.143 43.021 L
297.105 42.919 L
298.067 42.818 L
299.03 42.717 L
299.992 42.617 L
300.954 42.519 L
301.916 42.421 L
302.879 42.324 L
303.841 42.228 L
304.803 42.133 L
305.766 42.039 L
306.728 41.945 L
307.69 41.853 L
308.652 41.761 L
309.615 41.671 L
310.577 41.581 L
311.539 41.492 L
312.501 41.404 L
313.464 41.317 L
314.426 41.231 L
315.388 41.146 L
316.351 41.061 L
317.313 40.978 L
318.275 40.895 L
319.237 40.813 L
320.2 40.732 L
321.162 40.652 L
322.124 40.573 L
323.086 40.495 L
324.049 40.417 L
325.011 40.34 L
325.973 40.264 L
326.935 40.189 L
327.898 40.115 L
328.86 40.042 L
329.822 39.969 L
330.785 39.898 L
331.747 39.827 L
332.709 39.757 L
333.671 39.688 L
334.634 39.619 L
335.596 39.552 L
336.558 39.485 L
337.52 39.419 L
338.483 39.354 L
339.445 39.289 L
340.407 39.226 L
341.37 39.163 L
342.332 39.101 L
343.294 39.04 L
344.256 38.98 L
345.219 38.92 L
346.181 38.862 L
347.143 38.803 L
348.105 38.746 L
349.068 38.69 L
350.03 38.634 L
350.992 38.579 L
351.954 38.525 L
352.917 38.472 L
353.879 38.419 L
354.841 38.368 L
355.804 38.317 L
356.766 38.266 L
357.728 38.217 L
358.69 38.168 L
359.653 38.12 L
360.615 38.073 L
361.577 38.026 L
362.539 37.98 L
363.502 37.935 L
364.464 37.891 L
365.426 37.847 L
366.389 37.804 L
367.351 37.762 L
368.313 37.721 L
369.275 37.68 L
370.238 37.64 L
371.2 37.601 L
372.162 37.562 L
373.124 37.524 L
374.087 37.487 L
375.049 37.451 L
376.011 37.415 L
376.973 37.38 L
377.936 37.345 L
378.898 37.312 L
379.86 37.279 L
380.823 37.246 L
381.785 37.215 L
382.747 37.184 L
383.709 37.154 L
384.672 37.124 L
385.634 37.095 L
386.596 37.067 L
387.558 37.039 L
388.521 37.012 L
389.483 36.986 L
390.445 36.961 L
391.408 36.936 L
392.37 36.911 L
393.332 36.888 L
394.294 36.865 L
395.257 36.842 L
396.219 36.821 L
397.181 36.8 L
398.143 36.779 L
399.106 36.759 L
400.068 36.74 L
401.03 36.722 L
401.992 36.704 L
402.955 36.687 L
403.917 36.67 L
404.879 36.654 L
405.842 36.639 L
406.804 36.624 L
407.766 36.61 L
408.728 36.596 L
409.691 36.583 L
410.653 36.571 L
411.615 36.559 L
412.577 36.548 L
413.54 36.537 L
414.502 36.527 L
415.464 36.518 L
416.427 36.509 L
417.389 36.5 L
418.351 36.493 L
419.313 36.486 L
420.276 36.479 L
421.238 36.473 L
422.2 36.468 L
423.162 36.463 L
424.125 36.459 L
425.087 36.455 L
426.049 36.452 L
427.012 36.449 L
427.974 36.447 L
428.936 36.446 L
429.898 36.445 L
430.861 36.444 L
S
GR
GS
0.467 0.675 0.188 RC
1 LJ
0.5 LW
N
73 374 M
73.962 273.233 L
74.925 217.238 L
75.887 179.16 L
76.849 155.687 L
77.811 142.284 L
78.774 130.592 L
79.736 120.676 L
80.698 112.677 L
81.66 106.736 L
82.623 102.991 L
83.585 101.55 L
84.547 100.959 L
85.51 100.372 L
86.472 99.788 L
87.434 99.209 L
88.396 98.632 L
89.359 98.06 L
90.321 97.491 L
91.283 96.926 L
92.245 96.364 L
93.208 95.807 L
94.17 95.252 L
95.132 94.702 L
96.094 94.155 L
97.057 93.611 L
98.019 93.072 L
98.981 92.535 L
99.944 92.003 L
100.906 91.474 L
101.868 90.948 L
102.83 90.426 L
103.793 89.907 L
104.755 89.392 L
105.717 88.881 L
106.679 88.372 L
107.642 87.868 L
108.604 87.367 L
109.566 86.869 L
110.529 86.374 L
111.491 85.884 L
112.453 85.396 L
113.415 84.912 L
114.378 84.431 L
115.34 83.954 L
116.302 83.48 L
117.264 83.009 L
118.227 82.542 L
119.189 82.078 L
120.151 81.617 L
121.113 81.16 L
122.076 80.706 L
123.038 80.255 L
124 79.807 L
124.963 79.363 L
125.925 78.922 L
126.887 78.484 L
127.849 78.049 L
128.812 77.618 L
129.774 77.19 L
130.736 76.765 L
131.698 76.343 L
132.661 75.924 L
133.623 75.509 L
134.585 75.096 L
135.548 74.687 L
136.51 74.281 L
137.472 73.878 L
138.434 73.478 L
139.397 73.081 L
140.359 72.687 L
141.321 72.296 L
142.283 71.908 L
143.246 71.523 L
144.208 71.142 L
145.17 70.763 L
146.132 70.387 L
147.095 70.015 L
148.057 69.645 L
149.019 69.278 L
149.982 68.914 L
150.944 68.553 L
151.906 68.195 L
152.868 67.84 L
153.831 67.488 L
154.793 67.139 L
155.755 66.792 L
156.717 66.448 L
157.68 66.108 L
158.642 65.77 L
159.604 65.435 L
160.567 65.103 L
161.529 64.773 L
162.491 64.447 L
163.453 64.123 L
164.416 63.802 L
165.378 63.483 L
166.34 63.168 L
167.302 62.855 L
168.265 62.545 L
169.227 62.237 L
170.189 61.933 L
171.151 61.631 L
172.114 61.331 L
173.076 61.035 L
174.038 60.741 L
175.001 60.449 L
175.963 60.16 L
176.925 59.874 L
177.887 59.591 L
178.85 59.31 L
179.812 59.032 L
180.774 58.756 L
181.736 58.483 L
182.699 58.212 L
183.661 57.944 L
184.623 57.678 L
185.586 57.415 L
186.548 57.154 L
187.51 56.896 L
188.472 56.641 L
189.435 56.388 L
190.397 56.137 L
191.359 55.889 L
192.321 55.643 L
193.284 55.399 L
194.246 55.158 L
195.208 54.92 L
196.17 54.683 L
197.133 54.45 L
198.095 54.218 L
199.057 53.989 L
200.02 53.762 L
200.982 53.538 L
201.944 53.315 L
202.906 53.095 L
203.869 52.878 L
204.831 52.662 L
205.793 52.449 L
206.755 52.239 L
207.718 52.03 L
208.68 51.824 L
209.642 51.62 L
210.605 51.418 L
211.567 51.218 L
212.529 51.02 L
213.491 50.825 L
214.454 50.632 L
215.416 50.441 L
216.378 50.252 L
217.34 50.065 L
218.303 49.88 L
219.265 49.698 L
220.227 49.517 L
221.189 49.339 L
222.152 49.163 L
223.114 48.988 L
224.076 48.816 L
225.039 48.646 L
226.001 48.478 L
226.963 48.311 L
227.925 48.147 L
228.888 47.985 L
229.85 47.825 L
230.812 47.666 L
231.774 47.51 L
232.737 47.356 L
233.699 47.203 L
234.661 47.053 L
235.624 46.904 L
236.586 46.757 L
237.548 46.612 L
238.51 46.469 L
239.473 46.328 L
240.435 46.189 L
241.397 46.051 L
242.359 45.916 L
243.322 45.782 L
244.284 45.65 L
245.246 45.519 L
246.208 45.391 L
247.171 45.264 L
248.133 45.139 L
249.095 45.016 L
250.058 44.894 L
251.02 44.774 L
251.982 44.656 L
252.944 44.54 L
253.907 44.425 L
254.869 44.312 L
255.831 44.2 L
256.793 44.09 L
257.756 43.982 L
258.718 43.876 L
259.68 43.771 L
260.643 43.667 L
261.605 43.566 L
262.567 43.465 L
263.529 43.367 L
264.492 43.27 L
265.454 43.174 L
266.416 43.08 L
267.378 42.987 L
268.341 42.896 L
269.303 42.807 L
270.265 42.719 L
271.228 42.632 L
272.19 42.547 L
273.152 42.463 L
274.114 42.381 L
275.077 42.3 L
276.039 42.221 L
277.001 42.143 L
277.963 42.066 L
278.926 41.991 L
279.888 41.917 L
280.85 41.844 L
281.812 41.773 L
282.775 41.703 L
283.737 41.634 L
284.699 41.567 L
285.662 41.501 L
286.624 41.436 L
287.586 41.373 L
288.548 41.311 L
289.511 41.25 L
290.473 41.19 L
291.435 41.131 L
292.397 41.074 L
293.36 41.018 L
294.322 40.963 L
295.284 40.909 L
296.247 40.857 L
297.209 40.805 L
298.171 40.755 L
299.133 40.706 L
300.096 40.658 L
301.058 40.611 L
302.02 40.565 L
302.982 40.52 L
303.945 40.476 L
304.907 40.433 L
305.869 40.392 L
306.831 40.351 L
307.794 40.312 L
308.756 40.273 L
309.718 40.235 L
310.681 40.199 L
311.643 40.163 L
312.605 40.128 L
313.567 40.095 L
314.53 40.062 L
315.492 40.03 L
316.454 39.999 L
317.416 39.969 L
318.379 39.94 L
319.341 39.912 L
320.303 39.884 L
321.266 39.858 L
322.228 39.832 L
323.19 39.807 L
324.152 39.783 L
325.115 39.76 L
326.077 39.737 L
327.039 39.716 L
328.001 39.695 L
328.964 39.675 L
329.926 39.655 L
330.888 39.636 L
331.85 39.618 L
332.813 39.601 L
333.775 39.585 L
334.737 39.569 L
335.7 39.554 L
336.662 39.539 L
337.624 39.525 L
338.586 39.512 L
339.549 39.5 L
340.511 39.488 L
341.473 39.476 L
342.435 39.466 L
343.398 39.456 L
344.36 39.446 L
345.322 39.437 L
346.285 39.429 L
347.247 39.421 L
348.209 39.413 L
349.171 39.406 L
350.134 39.4 L
351.096 39.394 L
352.058 39.389 L
353.02 39.384 L
353.983 39.379 L
354.945 39.375 L
355.907 39.372 L
356.869 39.368 L
357.832 39.366 L
358.794 39.363 L
359.756 39.361 L
360.719 39.36 L
361.681 39.358 L
362.643 39.357 L
363.605 39.357 L
364.568 39.357 L
S
GR
GS
0.302 0.745 0.933 RC
[10 6] 0 setdash
2 LJ
0.5 LW
N
73.881 262.71 M
74.843 212.154 L
75.805 175.171 L
76.768 160.544 L
77.73 148.949 L
78.692 139.449 L
79.654 131.82 L
80.617 125.837 L
81.579 121.277 L
82.541 117.915 L
83.503 115.385 L
84.466 113.029 L
85.428 110.788 L
86.39 108.661 L
87.352 106.644 L
88.315 104.735 L
89.277 102.93 L
90.239 101.227 L
91.202 99.623 L
92.164 98.115 L
93.126 96.7 L
94.088 95.376 L
95.051 94.14 L
96.013 92.989 L
96.975 91.919 L
97.937 90.929 L
98.9 90.016 L
99.862 89.176 L
100.824 88.407 L
101.787 87.707 L
102.749 87.071 L
103.711 86.498 L
104.673 85.984 L
105.636 85.528 L
106.598 85.125 L
107.56 84.773 L
108.522 84.446 L
109.485 84.12 L
110.447 83.795 L
111.409 83.471 L
112.371 83.149 L
113.334 82.828 L
114.296 82.508 L
115.258 82.19 L
116.221 81.873 L
117.183 81.558 L
118.145 81.243 L
119.107 80.93 L
120.07 80.619 L
121.032 80.308 L
121.994 79.999 L
122.956 79.692 L
123.919 79.385 L
124.881 79.08 L
125.843 78.776 L
126.806 78.474 L
127.768 78.173 L
128.73 77.873 L
129.692 77.574 L
130.655 77.277 L
131.617 76.981 L
132.579 76.686 L
133.541 76.392 L
134.504 76.1 L
135.466 75.809 L
136.428 75.519 L
137.39 75.231 L
138.353 74.944 L
139.315 74.658 L
140.277 74.373 L
141.24 74.09 L
142.202 73.808 L
143.164 73.527 L
144.126 73.248 L
145.089 72.969 L
146.051 72.692 L
147.013 72.417 L
147.975 72.142 L
148.938 71.869 L
149.9 71.597 L
150.862 71.326 L
151.825 71.056 L
152.787 70.788 L
153.749 70.521 L
154.711 70.255 L
155.674 69.99 L
156.636 69.727 L
157.598 69.465 L
158.56 69.204 L
159.523 68.944 L
160.485 68.685 L
161.447 68.428 L
162.41 68.172 L
163.372 67.917 L
164.334 67.663 L
165.296 67.411 L
166.259 67.159 L
167.221 66.909 L
168.183 66.66 L
169.145 66.413 L
170.108 66.166 L
171.07 65.921 L
172.032 65.677 L
172.994 65.434 L
173.957 65.192 L
174.919 64.952 L
175.881 64.712 L
176.844 64.474 L
177.806 64.237 L
178.768 64.001 L
179.73 63.766 L
180.693 63.533 L
181.655 63.301 L
182.617 63.069 L
183.579 62.839 L
184.542 62.61 L
185.504 62.383 L
186.466 62.156 L
187.428 61.931 L
188.391 61.707 L
189.353 61.483 L
190.315 61.261 L
191.278 61.041 L
192.24 60.821 L
193.202 60.602 L
194.164 60.385 L
195.127 60.169 L
196.089 59.954 L
197.051 59.74 L
198.013 59.527 L
198.976 59.315 L
199.938 59.104 L
200.9 58.895 L
201.863 58.686 L
202.825 58.479 L
203.787 58.273 L
204.749 58.068 L
205.712 57.864 L
206.674 57.661 L
207.636 57.459 L
208.598 57.259 L
209.561 57.059 L
210.523 56.861 L
211.485 56.663 L
212.447 56.467 L
213.41 56.272 L
214.372 56.078 L
215.334 55.885 L
216.297 55.693 L
217.259 55.502 L
218.221 55.312 L
219.183 55.124 L
220.146 54.936 L
221.108 54.75 L
222.07 54.564 L
223.032 54.38 L
223.995 54.196 L
224.957 54.014 L
225.919 53.833 L
226.882 53.653 L
227.844 53.474 L
228.806 53.296 L
229.768 53.119 L
230.731 52.943 L
231.693 52.768 L
232.655 52.594 L
233.617 52.421 L
234.58 52.249 L
235.542 52.079 L
236.504 51.909 L
237.467 51.74 L
238.429 51.573 L
239.391 51.406 L
240.353 51.241 L
241.316 51.076 L
242.278 50.912 L
243.24 50.75 L
244.202 50.588 L
245.165 50.428 L
246.127 50.269 L
247.089 50.11 L
248.051 49.953 L
249.014 49.796 L
249.976 49.641 L
250.938 49.486 L
251.901 49.333 L
252.863 49.18 L
253.825 49.029 L
254.787 48.878 L
255.75 48.729 L
256.712 48.58 L
257.674 48.433 L
258.636 48.286 L
259.599 48.141 L
260.561 47.996 L
261.523 47.853 L
262.486 47.71 L
263.448 47.568 L
264.41 47.428 L
265.372 47.288 L
266.335 47.149 L
267.297 47.011 L
268.259 46.874 L
269.221 46.738 L
270.184 46.604 L
271.146 46.47 L
272.108 46.337 L
273.07 46.204 L
274.033 46.073 L
274.995 45.943 L
275.957 45.814 L
276.92 45.686 L
277.882 45.558 L
278.844 45.432 L
279.806 45.306 L
280.769 45.182 L
281.731 45.058 L
282.693 44.935 L
283.655 44.813 L
284.618 44.692 L
285.58 44.572 L
286.542 44.453 L
287.505 44.335 L
288.467 44.218 L
289.429 44.102 L
290.391 43.986 L
291.354 43.872 L
292.316 43.758 L
293.278 43.645 L
294.24 43.533 L
295.203 43.422 L
296.165 43.312 L
297.127 43.203 L
298.089 43.095 L
299.052 42.987 L
300.014 42.881 L
300.976 42.775 L
301.939 42.671 L
302.901 42.567 L
303.863 42.464 L
304.825 42.362 L
305.788 42.26 L
306.75 42.16 L
307.712 42.06 L
308.674 41.962 L
309.637 41.864 L
310.599 41.767 L
311.561 41.671 L
312.524 41.576 L
313.486 41.481 L
314.448 41.388 L
315.41 41.295 L
316.373 41.203 L
317.335 41.112 L
318.297 41.022 L
319.259 40.932 L
320.222 40.844 L
321.184 40.756 L
322.146 40.669 L
323.108 40.583 L
324.071 40.498 L
325.033 40.414 L
325.995 40.33 L
326.958 40.247 L
327.92 40.166 L
328.882 40.084 L
329.844 40.004 L
330.807 39.925 L
331.769 39.846 L
332.731 39.768 L
333.693 39.691 L
334.656 39.615 L
335.618 39.539 L
336.58 39.464 L
337.543 39.391 L
338.505 39.317 L
339.467 39.245 L
340.429 39.174 L
341.392 39.103 L
342.354 39.033 L
343.316 38.964 L
344.278 38.895 L
345.241 38.827 L
346.203 38.761 L
347.165 38.694 L
348.128 38.629 L
349.09 38.565 L
350.052 38.501 L
351.014 38.438 L
351.977 38.375 L
352.939 38.314 L
353.901 38.253 L
354.863 38.193 L
355.826 38.134 L
356.788 38.075 L
357.75 38.017 L
358.712 37.96 L
359.675 37.904 L
360.637 37.848 L
361.599 37.793 L
362.562 37.739 L
363.524 37.686 L
364.486 37.633 L
365.448 37.581 L
366.411 37.53 L
367.373 37.48 L
368.335 37.43 L
369.297 37.381 L
370.26 37.332 L
371.222 37.285 L
372.184 37.238 L
373.146 37.192 L
374.109 37.146 L
375.071 37.101 L
376.033 37.057 L
376.996 37.014 L
377.958 36.971 L
378.92 36.929 L
379.882 36.888 L
380.845 36.847 L
381.807 36.807 L
382.769 36.768 L
383.731 36.729 L
384.694 36.691 L
385.656 36.654 L
386.618 36.617 L
387.581 36.582 L
388.543 36.546 L
389.505 36.512 L
390.467 36.478 L
391.43 36.445 L
392.392 36.412 L
393.354 36.38 L
394.316 36.349 L
395.279 36.318 L
396.241 36.288 L
397.203 36.259 L
398.165 36.23 L
399.128 36.202 L
400.09 36.175 L
401.052 36.148 L
402.015 36.122 L
402.977 36.097 L
403.939 36.072 L
404.901 36.048 L
405.864 36.024 L
406.826 36.001 L
407.788 35.979 L
408.75 35.957 L
409.713 35.936 L
410.675 35.916 L
411.637 35.896 L
412.6 35.877 L
413.562 35.858 L
414.524 35.84 L
415.486 35.822 L
416.449 35.806 L
417.411 35.789 L
418.373 35.774 L
419.335 35.759 L
420.298 35.744 L
421.26 35.731 L
422.222 35.717 L
423.185 35.705 L
424.147 35.693 L
425.109 35.681 L
426.071 35.67 L
427.034 35.66 L
427.996 35.65 L
428.958 35.641 L
429.92 35.632 L
430.883 35.624 L
431.845 35.617 L
432.807 35.61 L
433.769 35.604 L
434.732 35.598 L
435.694 35.593 L
436.656 35.588 L
437.619 35.584 L
438.581 35.58 L
439.543 35.577 L
440.505 35.575 L
441.468 35.573 L
442.43 35.571 L
443.392 35.57 L
444.354 35.57 L
S
GR
GS
0.635 0.078 0.184 RC
[10 6] 0 setdash
2 LJ
0.5 LW
N
73.807 275.605 M
74.769 218.404 L
75.731 178.676 L
76.693 155.745 L
77.656 137.9 L
78.618 125.085 L
79.58 117.029 L
80.542 110.594 L
81.505 104.797 L
82.467 99.696 L
83.429 95.344 L
84.391 91.799 L
85.354 89.116 L
86.316 87.351 L
87.278 86.549 L
88.241 86.124 L
89.203 85.702 L
90.165 85.281 L
91.127 84.864 L
92.09 84.448 L
93.052 84.035 L
94.014 83.624 L
94.976 83.216 L
95.939 82.81 L
96.901 82.407 L
97.863 82.005 L
98.826 81.606 L
99.788 81.21 L
100.75 80.816 L
101.712 80.424 L
102.675 80.034 L
103.637 79.647 L
104.599 79.262 L
105.561 78.879 L
106.524 78.499 L
107.486 78.121 L
108.448 77.745 L
109.41 77.372 L
110.373 77 L
111.335 76.631 L
112.297 76.265 L
113.26 75.9 L
114.222 75.538 L
115.184 75.178 L
116.146 74.82 L
117.109 74.465 L
118.071 74.111 L
119.033 73.76 L
119.995 73.411 L
120.958 73.064 L
121.92 72.72 L
122.882 72.377 L
123.845 72.037 L
124.807 71.699 L
125.769 71.363 L
126.731 71.029 L
127.694 70.698 L
128.656 70.368 L
129.618 70.041 L
130.58 69.716 L
131.543 69.393 L
132.505 69.072 L
133.467 68.753 L
134.43 68.436 L
135.392 68.121 L
136.354 67.809 L
137.316 67.498 L
138.279 67.19 L
139.241 66.883 L
140.203 66.579 L
141.165 66.277 L
142.128 65.977 L
143.09 65.678 L
144.052 65.382 L
145.014 65.088 L
145.977 64.796 L
146.939 64.506 L
147.901 64.218 L
148.864 63.931 L
149.826 63.647 L
150.788 63.365 L
151.75 63.085 L
152.713 62.807 L
153.675 62.53 L
154.637 62.256 L
155.599 61.984 L
156.562 61.713 L
157.524 61.445 L
158.486 61.178 L
159.449 60.913 L
160.411 60.651 L
161.373 60.39 L
162.335 60.131 L
163.298 59.874 L
164.26 59.619 L
165.222 59.365 L
166.184 59.114 L
167.147 58.864 L
168.109 58.617 L
169.071 58.371 L
170.033 58.127 L
170.996 57.885 L
171.958 57.645 L
172.92 57.406 L
173.883 57.169 L
174.845 56.934 L
175.807 56.701 L
176.769 56.47 L
177.732 56.241 L
178.694 56.013 L
179.656 55.787 L
180.618 55.563 L
181.581 55.341 L
182.543 55.12 L
183.505 54.901 L
184.468 54.684 L
185.43 54.469 L
186.392 54.255 L
187.354 54.043 L
188.317 53.833 L
189.279 53.624 L
190.241 53.417 L
191.203 53.212 L
192.166 53.009 L
193.128 52.807 L
194.09 52.607 L
195.052 52.409 L
196.015 52.212 L
196.977 52.017 L
197.939 51.824 L
198.902 51.632 L
199.864 51.442 L
200.826 51.253 L
201.788 51.066 L
202.751 50.881 L
203.713 50.697 L
204.675 50.515 L
205.637 50.335 L
206.6 50.156 L
207.562 49.978 L
208.524 49.803 L
209.487 49.629 L
210.449 49.456 L
211.411 49.285 L
212.373 49.115 L
213.336 48.947 L
214.298 48.781 L
215.26 48.616 L
216.222 48.453 L
217.185 48.291 L
218.147 48.13 L
219.109 47.971 L
220.071 47.814 L
221.034 47.658 L
221.996 47.504 L
222.958 47.351 L
223.921 47.199 L
224.883 47.049 L
225.845 46.901 L
226.807 46.753 L
227.77 46.608 L
228.732 46.464 L
229.694 46.321 L
230.656 46.179 L
231.619 46.039 L
232.581 45.901 L
233.543 45.763 L
234.506 45.628 L
235.468 45.493 L
236.43 45.36 L
237.392 45.228 L
238.355 45.098 L
239.317 44.969 L
240.279 44.841 L
241.241 44.715 L
242.204 44.59 L
243.166 44.467 L
244.128 44.344 L
245.09 44.223 L
246.053 44.104 L
247.015 43.985 L
247.977 43.868 L
248.94 43.752 L
249.902 43.638 L
250.864 43.525 L
251.826 43.413 L
252.789 43.302 L
253.751 43.192 L
254.713 43.084 L
255.675 42.977 L
256.638 42.872 L
257.6 42.767 L
258.562 42.664 L
259.525 42.562 L
260.487 42.461 L
261.449 42.361 L
262.411 42.263 L
263.374 42.165 L
264.336 42.069 L
265.298 41.974 L
266.26 41.881 L
267.223 41.788 L
268.185 41.697 L
269.147 41.606 L
270.109 41.517 L
271.072 41.429 L
272.034 41.342 L
272.996 41.256 L
273.959 41.172 L
274.921 41.088 L
275.883 41.006 L
276.845 40.924 L
277.808 40.844 L
278.77 40.765 L
279.732 40.687 L
280.694 40.609 L
281.657 40.533 L
282.619 40.458 L
283.581 40.384 L
284.544 40.312 L
285.506 40.24 L
286.468 40.169 L
287.43 40.099 L
288.393 40.03 L
289.355 39.962 L
290.317 39.896 L
291.279 39.83 L
292.242 39.765 L
293.204 39.701 L
294.166 39.638 L
295.128 39.576 L
296.091 39.515 L
297.053 39.455 L
298.015 39.396 L
298.978 39.338 L
299.94 39.281 L
300.902 39.224 L
301.864 39.169 L
302.827 39.114 L
303.789 39.061 L
304.751 39.008 L
305.713 38.956 L
306.676 38.905 L
307.638 38.855 L
308.6 38.806 L
309.563 38.758 L
310.525 38.71 L
311.487 38.664 L
312.449 38.618 L
313.412 38.573 L
314.374 38.529 L
315.336 38.486 L
316.298 38.443 L
317.261 38.401 L
318.223 38.36 L
319.185 38.32 L
320.147 38.281 L
321.11 38.242 L
322.072 38.205 L
323.034 38.168 L
323.997 38.132 L
324.959 38.096 L
325.921 38.061 L
326.883 38.027 L
327.846 37.994 L
328.808 37.961 L
329.77 37.93 L
330.732 37.899 L
331.695 37.868 L
332.657 37.838 L
333.619 37.809 L
334.582 37.781 L
335.544 37.753 L
336.506 37.726 L
337.468 37.7 L
338.431 37.674 L
339.393 37.649 L
340.355 37.625 L
341.317 37.601 L
342.28 37.578 L
343.242 37.555 L
344.204 37.534 L
345.167 37.512 L
346.129 37.492 L
347.091 37.472 L
348.053 37.452 L
349.016 37.433 L
349.978 37.415 L
350.94 37.397 L
351.902 37.38 L
352.865 37.363 L
353.827 37.347 L
354.789 37.332 L
355.751 37.317 L
356.714 37.302 L
357.676 37.288 L
358.638 37.275 L
359.601 37.262 L
360.563 37.249 L
361.525 37.237 L
362.487 37.226 L
363.45 37.215 L
364.412 37.204 L
365.374 37.194 L
366.336 37.185 L
367.299 37.175 L
368.261 37.167 L
369.223 37.158 L
370.185 37.151 L
371.148 37.143 L
372.11 37.136 L
373.072 37.13 L
374.035 37.123 L
374.997 37.118 L
375.959 37.112 L
376.921 37.107 L
377.884 37.103 L
378.846 37.098 L
379.808 37.095 L
380.77 37.091 L
381.733 37.088 L
382.695 37.085 L
383.657 37.083 L
384.62 37.08 L
385.582 37.079 L
386.544 37.077 L
387.506 37.076 L
388.469 37.075 L
389.431 37.074 L
390.393 37.074 L
S
GR
GS
0 0.447 0.741 RC
[10 6] 0 setdash
2 LJ
0.5 LW
N
73.774 268.89 M
74.737 213.566 L
75.699 175.332 L
76.661 160.814 L
77.623 149.076 L
78.586 139.626 L
79.548 132.181 L
80.51 126.457 L
81.473 122.174 L
82.435 119.048 L
83.397 116.458 L
84.359 113.997 L
85.322 111.659 L
86.284 109.444 L
87.246 107.347 L
88.208 105.365 L
89.171 103.496 L
90.133 101.736 L
91.095 100.083 L
92.058 98.533 L
93.02 97.084 L
93.982 95.732 L
94.944 94.475 L
95.907 93.308 L
96.869 92.23 L
97.831 91.238 L
98.793 90.327 L
99.756 89.496 L
100.718 88.741 L
101.68 88.06 L
102.642 87.449 L
103.605 86.904 L
104.567 86.424 L
105.529 86.006 L
106.492 85.643 L
107.454 85.299 L
108.416 84.956 L
109.378 84.614 L
110.341 84.274 L
111.303 83.936 L
112.265 83.599 L
113.227 83.263 L
114.19 82.929 L
115.152 82.597 L
116.114 82.265 L
117.077 81.936 L
118.039 81.607 L
119.001 81.281 L
119.963 80.955 L
120.926 80.631 L
121.888 80.309 L
122.85 79.988 L
123.812 79.668 L
124.775 79.35 L
125.737 79.034 L
126.699 78.718 L
127.661 78.405 L
128.624 78.092 L
129.586 77.781 L
130.548 77.472 L
131.511 77.164 L
132.473 76.857 L
133.435 76.552 L
134.397 76.248 L
135.36 75.946 L
136.322 75.645 L
137.284 75.345 L
138.246 75.047 L
139.209 74.75 L
140.171 74.455 L
141.133 74.161 L
142.096 73.868 L
143.058 73.577 L
144.02 73.287 L
144.982 72.998 L
145.945 72.711 L
146.907 72.426 L
147.869 72.141 L
148.831 71.858 L
149.794 71.577 L
150.756 71.297 L
151.718 71.018 L
152.68 70.74 L
153.643 70.464 L
154.605 70.189 L
155.567 69.916 L
156.53 69.644 L
157.492 69.373 L
158.454 69.104 L
159.416 68.836 L
160.379 68.569 L
161.341 68.304 L
162.303 68.04 L
163.265 67.777 L
164.228 67.516 L
165.19 67.256 L
166.152 66.997 L
167.115 66.74 L
168.077 66.484 L
169.039 66.229 L
170.001 65.975 L
170.964 65.723 L
171.926 65.472 L
172.888 65.223 L
173.85 64.975 L
174.813 64.728 L
175.775 64.482 L
176.737 64.238 L
177.699 63.995 L
178.662 63.753 L
179.624 63.513 L
180.586 63.274 L
181.549 63.036 L
182.511 62.799 L
183.473 62.564 L
184.435 62.33 L
185.398 62.097 L
186.36 61.866 L
187.322 61.635 L
188.284 61.406 L
189.247 61.179 L
190.209 60.952 L
191.171 60.727 L
192.134 60.503 L
193.096 60.28 L
194.058 60.059 L
195.02 59.838 L
195.983 59.619 L
196.945 59.402 L
197.907 59.185 L
198.869 58.97 L
199.832 58.756 L
200.794 58.543 L
201.756 58.331 L
202.719 58.121 L
203.681 57.912 L
204.643 57.704 L
205.605 57.497 L
206.568 57.292 L
207.53 57.087 L
208.492 56.884 L
209.454 56.682 L
210.417 56.481 L
211.379 56.282 L
212.341 56.084 L
213.303 55.886 L
214.266 55.69 L
215.228 55.496 L
216.19 55.302 L
217.153 55.11 L
218.115 54.918 L
219.077 54.728 L
220.039 54.54 L
221.002 54.352 L
221.964 54.165 L
222.926 53.98 L
223.888 53.796 L
224.851 53.613 L
225.813 53.431 L
226.775 53.25 L
227.738 53.07 L
228.7 52.892 L
229.662 52.714 L
230.624 52.538 L
231.587 52.363 L
232.549 52.189 L
233.511 52.017 L
234.473 51.845 L
235.436 51.674 L
236.398 51.505 L
237.36 51.337 L
238.322 51.17 L
239.285 51.004 L
240.247 50.839 L
241.209 50.675 L
242.172 50.512 L
243.134 50.351 L
244.096 50.19 L
245.058 50.031 L
246.021 49.872 L
246.983 49.715 L
247.945 49.559 L
248.907 49.404 L
249.87 49.25 L
250.832 49.097 L
251.794 48.946 L
252.757 48.795 L
253.719 48.645 L
254.681 48.497 L
255.643 48.349 L
256.606 48.203 L
257.568 48.058 L
258.53 47.913 L
259.492 47.77 L
260.455 47.628 L
261.417 47.487 L
262.379 47.347 L
263.341 47.208 L
264.304 47.07 L
265.266 46.933 L
266.228 46.797 L
267.191 46.662 L
268.153 46.528 L
269.115 46.396 L
270.077 46.264 L
271.04 46.133 L
272.002 46.004 L
272.964 45.875 L
273.926 45.747 L
274.889 45.621 L
275.851 45.495 L
276.813 45.37 L
277.776 45.247 L
278.738 45.124 L
279.7 45.003 L
280.662 44.882 L
281.625 44.763 L
282.587 44.644 L
283.549 44.526 L
284.511 44.41 L
285.474 44.294 L
286.436 44.179 L
287.398 44.066 L
288.36 43.953 L
289.323 43.841 L
290.285 43.731 L
291.247 43.621 L
292.21 43.512 L
293.172 43.404 L
294.134 43.297 L
295.096 43.192 L
296.059 43.087 L
297.021 42.983 L
297.983 42.879 L
298.945 42.777 L
299.908 42.676 L
300.87 42.576 L
301.832 42.477 L
302.795 42.378 L
303.757 42.281 L
304.719 42.185 L
305.681 42.089 L
306.644 41.994 L
307.606 41.901 L
308.568 41.808 L
309.53 41.716 L
310.493 41.625 L
311.455 41.535 L
312.417 41.446 L
313.379 41.358 L
314.342 41.27 L
315.304 41.184 L
316.266 41.098 L
317.229 41.014 L
318.191 40.93 L
319.153 40.847 L
320.115 40.765 L
321.078 40.684 L
322.04 40.604 L
323.002 40.525 L
323.964 40.446 L
324.927 40.369 L
325.889 40.292 L
326.851 40.216 L
327.814 40.141 L
328.776 40.067 L
329.738 39.994 L
330.7 39.922 L
331.663 39.85 L
332.625 39.78 L
333.587 39.71 L
334.549 39.641 L
335.512 39.573 L
336.474 39.505 L
337.436 39.439 L
338.398 39.373 L
339.361 39.309 L
340.323 39.245 L
341.285 39.182 L
342.248 39.119 L
343.21 39.058 L
344.172 38.997 L
345.134 38.937 L
346.097 38.879 L
347.059 38.82 L
348.021 38.763 L
348.983 38.706 L
349.946 38.651 L
350.908 38.596 L
351.87 38.541 L
352.833 38.488 L
353.795 38.435 L
354.757 38.384 L
355.719 38.333 L
356.682 38.282 L
357.644 38.233 L
358.606 38.184 L
359.568 38.136 L
360.531 38.089 L
361.493 38.043 L
362.455 37.997 L
363.417 37.953 L
364.38 37.909 L
365.342 37.865 L
366.304 37.823 L
367.267 37.781 L
368.229 37.74 L
369.191 37.7 L
370.153 37.66 L
371.116 37.621 L
372.078 37.583 L
373.04 37.546 L
374.002 37.509 L
374.965 37.474 L
375.927 37.438 L
376.889 37.404 L
377.852 37.37 L
378.814 37.337 L
379.776 37.305 L
380.738 37.274 L
381.701 37.243 L
382.663 37.213 L
383.625 37.183 L
384.587 37.155 L
385.55 37.127 L
386.512 37.1 L
387.474 37.073 L
388.436 37.047 L
389.399 37.022 L
390.361 36.997 L
391.323 36.974 L
392.286 36.95 L
393.248 36.928 L
394.21 36.906 L
395.172 36.885 L
396.135 36.865 L
397.097 36.845 L
398.059 36.826 L
399.021 36.808 L
399.984 36.79 L
400.946 36.773 L
401.908 36.756 L
402.871 36.74 L
403.833 36.725 L
404.795 36.711 L
405.757 36.697 L
406.72 36.684 L
407.682 36.671 L
408.644 36.659 L
409.606 36.648 L
410.569 36.637 L
411.531 36.627 L
412.493 36.618 L
413.456 36.609 L
414.418 36.601 L
415.38 36.593 L
416.342 36.586 L
417.305 36.58 L
418.267 36.574 L
419.229 36.569 L
420.191 36.565 L
421.154 36.561 L
422.116 36.558 L
423.078 36.555 L
424.04 36.553 L
425.003 36.551 L
425.965 36.55 L
426.927 36.55 L
S
GR
GS
0.851 0.325 0.098 RC
[10 6] 0 setdash
2 LJ
0.5 LW
N
73.03 372.231 M
73.992 269.477 L
74.955 214.649 L
75.917 178.174 L
76.879 155.858 L
77.841 142.477 L
78.804 130.741 L
79.766 120.786 L
80.728 112.779 L
81.69 106.887 L
82.653 103.276 L
83.615 102.015 L
84.577 101.42 L
85.539 100.829 L
86.502 100.241 L
87.464 99.657 L
88.426 99.077 L
89.389 98.501 L
90.351 97.928 L
91.313 97.359 L
92.275 96.794 L
93.238 96.232 L
94.2 95.674 L
95.162 95.12 L
96.124 94.569 L
97.087 94.022 L
98.049 93.478 L
99.011 92.938 L
99.974 92.402 L
100.936 91.87 L
101.898 91.34 L
102.86 90.815 L
103.823 90.293 L
104.785 89.774 L
105.747 89.259 L
106.709 88.748 L
107.672 88.24 L
108.634 87.735 L
109.596 87.234 L
110.559 86.737 L
111.521 86.243 L
112.483 85.752 L
113.445 85.265 L
114.408 84.781 L
115.37 84.301 L
116.332 83.824 L
117.294 83.35 L
118.257 82.88 L
119.219 82.413 L
120.181 81.949 L
121.143 81.489 L
122.106 81.032 L
123.068 80.578 L
124.03 80.128 L
124.993 79.681 L
125.955 79.237 L
126.917 78.797 L
127.879 78.359 L
128.842 77.925 L
129.804 77.494 L
130.766 77.067 L
131.728 76.642 L
132.691 76.221 L
133.653 75.803 L
134.615 75.388 L
135.578 74.976 L
136.54 74.568 L
137.502 74.162 L
138.464 73.76 L
139.427 73.361 L
140.389 72.965 L
141.351 72.572 L
142.313 72.182 L
143.276 71.795 L
144.238 71.411 L
145.2 71.03 L
146.162 70.652 L
147.125 70.277 L
148.087 69.905 L
149.049 69.536 L
150.012 69.17 L
150.974 68.808 L
151.936 68.448 L
152.898 68.091 L
153.861 67.736 L
154.823 67.385 L
155.785 67.037 L
156.747 66.692 L
157.71 66.349 L
158.672 66.009 L
159.634 65.672 L
160.597 65.338 L
161.559 65.007 L
162.521 64.679 L
163.483 64.354 L
164.446 64.031 L
165.408 63.711 L
166.37 63.394 L
167.332 63.079 L
168.295 62.768 L
169.257 62.459 L
170.219 62.152 L
171.181 61.849 L
172.144 61.548 L
173.106 61.25 L
174.068 60.955 L
175.031 60.662 L
175.993 60.372 L
176.955 60.084 L
177.917 59.799 L
178.88 59.517 L
179.842 59.238 L
180.804 58.961 L
181.766 58.686 L
182.729 58.414 L
183.691 58.145 L
184.653 57.878 L
185.616 57.614 L
186.578 57.352 L
187.54 57.093 L
188.502 56.836 L
189.465 56.582 L
190.427 56.33 L
191.389 56.081 L
192.351 55.834 L
193.314 55.59 L
194.276 55.348 L
195.238 55.108 L
196.2 54.871 L
197.163 54.636 L
198.125 54.404 L
199.087 54.174 L
200.05 53.946 L
201.012 53.721 L
201.974 53.498 L
202.936 53.277 L
203.899 53.058 L
204.861 52.842 L
205.823 52.629 L
206.785 52.417 L
207.748 52.208 L
208.71 52.001 L
209.672 51.796 L
210.635 51.593 L
211.597 51.393 L
212.559 51.195 L
213.521 50.999 L
214.484 50.805 L
215.446 50.613 L
216.408 50.424 L
217.37 50.237 L
218.333 50.051 L
219.295 49.868 L
220.257 49.687 L
221.219 49.508 L
222.182 49.332 L
223.144 49.157 L
224.106 48.984 L
225.069 48.814 L
226.031 48.645 L
226.993 48.478 L
227.955 48.314 L
228.918 48.151 L
229.88 47.991 L
230.842 47.832 L
231.804 47.675 L
232.767 47.521 L
233.729 47.368 L
234.691 47.217 L
235.654 47.068 L
236.616 46.921 L
237.578 46.776 L
238.54 46.633 L
239.503 46.491 L
240.465 46.352 L
241.427 46.214 L
242.389 46.078 L
243.352 45.944 L
244.314 45.812 L
245.276 45.681 L
246.238 45.553 L
247.201 45.426 L
248.163 45.3 L
249.125 45.177 L
250.088 45.055 L
251.05 44.936 L
252.012 44.817 L
252.974 44.701 L
253.937 44.586 L
254.899 44.473 L
255.861 44.361 L
256.823 44.251 L
257.786 44.143 L
258.748 44.037 L
259.71 43.932 L
260.673 43.828 L
261.635 43.727 L
262.597 43.626 L
263.559 43.528 L
264.522 43.431 L
265.484 43.335 L
266.446 43.241 L
267.408 43.149 L
268.371 43.058 L
269.333 42.968 L
270.295 42.881 L
271.258 42.794 L
272.22 42.709 L
273.182 42.625 L
274.144 42.543 L
275.107 42.463 L
276.069 42.383 L
277.031 42.305 L
277.993 42.229 L
278.956 42.154 L
279.918 42.08 L
280.88 42.008 L
281.842 41.937 L
282.805 41.867 L
283.767 41.798 L
284.729 41.731 L
285.692 41.666 L
286.654 41.601 L
287.616 41.538 L
288.578 41.476 L
289.541 41.415 L
290.503 41.356 L
291.465 41.297 L
292.427 41.24 L
293.39 41.184 L
294.352 41.13 L
295.314 41.076 L
296.277 41.024 L
297.239 40.973 L
298.201 40.923 L
299.163 40.874 L
300.126 40.826 L
301.088 40.779 L
302.05 40.734 L
303.012 40.689 L
303.975 40.646 L
304.937 40.603 L
305.899 40.562 L
306.861 40.521 L
307.824 40.482 L
308.786 40.444 L
309.748 40.407 L
310.711 40.37 L
311.673 40.335 L
312.635 40.301 L
313.597 40.267 L
314.56 40.235 L
315.522 40.203 L
316.484 40.173 L
317.446 40.143 L
318.409 40.114 L
319.371 40.086 L
320.333 40.059 L
321.296 40.033 L
322.258 40.007 L
323.22 39.983 L
324.182 39.959 L
325.145 39.936 L
326.107 39.914 L
327.069 39.893 L
328.031 39.872 L
328.994 39.852 L
329.956 39.833 L
330.918 39.815 L
331.88 39.797 L
332.843 39.78 L
333.805 39.764 L
334.767 39.749 L
335.73 39.734 L
336.692 39.719 L
337.654 39.706 L
338.616 39.693 L
339.579 39.681 L
340.541 39.669 L
341.503 39.658 L
342.465 39.648 L
343.428 39.638 L
344.39 39.629 L
345.352 39.62 L
346.315 39.612 L
347.277 39.604 L
348.239 39.597 L
349.201 39.59 L
350.164 39.584 L
351.126 39.579 L
352.088 39.573 L
353.05 39.569 L
354.013 39.564 L
354.975 39.561 L
355.937 39.557 L
356.899 39.554 L
357.862 39.552 L
358.824 39.549 L
359.786 39.548 L
360.749 39.546 L
361.711 39.545 L
362.673 39.544 L
363.635 39.544 L
S
GR
GS
1 GC
N
499 366 M
499 218.5 L
327.5 218.5 L
327.5 366 L
cp
f
GR
GS
[1 0 0 1 364.5 228.25] CT
/Helvetica 13 F
GS
[1 0 0 1 0 0] CT
0 5 moveto 
1 -1 scale
(Base Run) t 
GR
GR
GS
0 0.447 0.741 RC
1 LJ
0.5 LW
N
331.5 228.25 M
361.5 228.25 L
S
GR
GS
[1 0 0 1 364.5 244.25] CT
/Helvetica 13 F
GS
[1 0 0 1 0 0] CT
0 5 moveto 
1 -1 scale
(All Frames) t 
GR
GR
GS
0.851 0.325 0.098 RC
1 LJ
0.5 LW
N
331.5 244.25 M
361.5 244.25 L
S
GR
GS
[1 0 0 1 364.5 260.25] CT
/Helvetica 13 F
GS
[1 0 0 1 0 0] CT
0 5 moveto 
1 -1 scale
(KF Only) t 
GR
GR
GS
0.929 0.694 0.125 RC
1 LJ
0.5 LW
N
331.5 260.25 M
361.5 260.25 L
S
GR
GS
[1 0 0 1 364.5 276.25] CT
/Helvetica 13 F
GS
[1 0 0 1 0 0] CT
0 5 moveto 
1 -1 scale
(GF, ARF Only) t 
GR
GR
GS
0.494 0.184 0.557 RC
1 LJ
0.5 LW
N
331.5 276.25 M
361.5 276.25 L
S
GR
GS
[1 0 0 1 364.5 292.25] CT
/Helvetica 13 F
GS
[1 0 0 1 0 0] CT
0 5 moveto 
1 -1 scale
(KF, GF, ARF Only) t 
GR
GR
GS
0.467 0.675 0.188 RC
1 LJ
0.5 LW
N
331.5 292.25 M
361.5 292.25 L
S
GR
GS
[1 0 0 1 364.5 308.25] CT
/Helvetica 13 F
GS
[1 0 0 1 0 0] CT
0 5 moveto 
1 -1 scale
(Part All Frames) t 
GR
GR
GS
0.302 0.745 0.933 RC
[10 6] 0 setdash
2 LJ
0.5 LW
N
331.5 308.25 M
361.5 308.25 L
S
GR
GS
[1 0 0 1 364.5 324.25] CT
/Helvetica 13 F
GS
[1 0 0 1 0 0] CT
0 5 moveto 
1 -1 scale
(Part KF Only) t 
GR
GR
GS
0.635 0.078 0.184 RC
[10 6] 0 setdash
2 LJ
0.5 LW
N
331.5 324.25 M
361.5 324.25 L
S
GR
GS
[1 0 0 1 364.5 340.25] CT
/Helvetica 13 F
GS
[1 0 0 1 0 0] CT
0 5 moveto 
1 -1 scale
(Part GF, ARF Only) t 
GR
GR
GS
0 0.447 0.741 RC
[10 6] 0 setdash
2 LJ
0.5 LW
N
331.5 340.25 M
361.5 340.25 L
S
GR
GS
[1 0 0 1 364.5 356.25] CT
/Helvetica 13 F
GS
[1 0 0 1 0 0] CT
0 5 moveto 
1 -1 scale
(Part KF, GF, ARF Only) t 
GR
GR
GS
0.851 0.325 0.098 RC
[10 6] 0 setdash
2 LJ
0.5 LW
N
331.5 356.25 M
361.5 356.25 L
S
GR
GS
0.149 GC
10.0 ML
0.5 LW
N
327.5 366 M
327.5 218.5 L
499 218.5 L
499 366 L
cp
S
GR
%%Trailer
%%Pages: 1
%%EOF
