%!PS-Adobe-3.0 EPSF-3.0
%%Creator: (MATLAB, The Mathworks, Inc. Version 9.11.0.1837725 \(R2021b\) Update 2. Operating System: Mac OS X)
%%Title: plots/pchip/DinnerSceneCropped_1920x1080_2997fps_10bit_420.y4m-av1-PSNRY.eps
%%CreationDate: 2022-02-03T19:12:50
%%Pages: (atend)
%%BoundingBox:    22   425   525   826
%%LanguageLevel: 3
%%EndComments
%%BeginProlog
%%BeginResource: procset (Apache XML Graphics Std ProcSet) 1.2 0
%%Version: 1.2 0
%%Copyright: (Copyright 2001-2003,2010 The Apache Software Foundation. License terms: http://www.apache.org/licenses/LICENSE-2.0)
/bd{bind def}bind def
/ld{load def}bd
/GR/grestore ld
/GS/gsave ld
/RM/rmoveto ld
/C/curveto ld
/t/show ld
/L/lineto ld
/ML/setmiterlimit ld
/CT/concat ld
/f/fill ld
/N/newpath ld
/S/stroke ld
/CC/setcmykcolor ld
/A/ashow ld
/cp/closepath ld
/RC/setrgbcolor ld
/LJ/setlinejoin ld
/GC/setgray ld
/LW/setlinewidth ld
/M/moveto ld
/re {4 2 roll M
1 index 0 rlineto
0 exch rlineto
neg 0 rlineto
cp } bd
/_ctm matrix def
/_tm matrix def
/BT { _ctm currentmatrix pop matrix _tm copy pop 0 0 moveto } bd
/ET { _ctm setmatrix } bd
/iTm { _ctm setmatrix _tm concat } bd
/Tm { _tm astore pop iTm 0 0 moveto } bd
/ux 0.0 def
/uy 0.0 def
/F {
  /Tp exch def
  /Tf exch def
  Tf findfont Tp scalefont setfont
  /cf Tf def  /cs Tp def
} bd
/ULS {currentpoint /uy exch def /ux exch def} bd
/ULE {
  /Tcx currentpoint pop def
  gsave
  newpath
  cf findfont cs scalefont dup
  /FontMatrix get 0 get /Ts exch def /FontInfo get dup
  /UnderlinePosition get Ts mul /To exch def
  /UnderlineThickness get Ts mul /Tt exch def
  ux uy To add moveto  Tcx uy To add lineto
  Tt setlinewidth stroke
  grestore
} bd
/OLE {
  /Tcx currentpoint pop def
  gsave
  newpath
  cf findfont cs scalefont dup
  /FontMatrix get 0 get /Ts exch def /FontInfo get dup
  /UnderlinePosition get Ts mul /To exch def
  /UnderlineThickness get Ts mul /Tt exch def
  ux uy To add cs add moveto Tcx uy To add cs add lineto
  Tt setlinewidth stroke
  grestore
} bd
/SOE {
  /Tcx currentpoint pop def
  gsave
  newpath
  cf findfont cs scalefont dup
  /FontMatrix get 0 get /Ts exch def /FontInfo get dup
  /UnderlinePosition get Ts mul /To exch def
  /UnderlineThickness get Ts mul /Tt exch def
  ux uy To add cs 10 mul 26 idiv add moveto Tcx uy To add cs 10 mul 26 idiv add lineto
  Tt setlinewidth stroke
  grestore
} bd
/QT {
/Y22 exch store
/X22 exch store
/Y21 exch store
/X21 exch store
currentpoint
/Y21 load 2 mul add 3 div exch
/X21 load 2 mul add 3 div exch
/X21 load 2 mul /X22 load add 3 div
/Y21 load 2 mul /Y22 load add 3 div
/X22 load /Y22 load curveto
} bd
/SSPD {
dup length /d exch dict def
{
/v exch def
/k exch def
currentpagedevice k known {
/cpdv currentpagedevice k get def
v cpdv ne {
/upd false def
/nullv v type /nulltype eq def
/nullcpdv cpdv type /nulltype eq def
nullv nullcpdv or
{
/upd true def
} {
/sametype v type cpdv type eq def
sametype {
v type /arraytype eq {
/vlen v length def
/cpdvlen cpdv length def
vlen cpdvlen eq {
0 1 vlen 1 sub {
/i exch def
/obj v i get def
/cpdobj cpdv i get def
obj cpdobj ne {
/upd true def
exit
} if
} for
} {
/upd true def
} ifelse
} {
v type /dicttype eq {
v {
/dv exch def
/dk exch def
/cpddv cpdv dk get def
dv cpddv ne {
/upd true def
exit
} if
} forall
} {
/upd true def
} ifelse
} ifelse
} if
} ifelse
upd true eq {
d k v put
} if
} if
} if
} forall
d length 0 gt {
d setpagedevice
} if
} bd
/RE { % /NewFontName [NewEncodingArray] /FontName RE -
  findfont dup length dict begin
  {
    1 index /FID ne
    {def} {pop pop} ifelse
  } forall
  /Encoding exch def
  /FontName 1 index def
  currentdict definefont pop
  end
} bind def
%%EndResource
%%BeginResource: procset (Apache XML Graphics EPS ProcSet) 1.0 0
%%Version: 1.0 0
%%Copyright: (Copyright 2002-2003 The Apache Software Foundation. License terms: http://www.apache.org/licenses/LICENSE-2.0)
/BeginEPSF { %def
/b4_Inc_state save def         % Save state for cleanup
/dict_count countdictstack def % Count objects on dict stack
/op_count count 1 sub def      % Count objects on operand stack
userdict begin                 % Push userdict on dict stack
/showpage { } def              % Redefine showpage, { } = null proc
0 setgray 0 setlinecap         % Prepare graphics state
1 setlinewidth 0 setlinejoin
10 setmiterlimit [ ] 0 setdash newpath
/languagelevel where           % If level not equal to 1 then
{pop languagelevel             % set strokeadjust and
1 ne                           % overprint to their defaults.
{false setstrokeadjust false setoverprint
} if
} if
} bd
/EndEPSF { %def
count op_count sub {pop} repeat            % Clean up stacks
countdictstack dict_count sub {end} repeat
b4_Inc_state restore
} bd
%%EndResource
%FOPBeginFontDict
%%IncludeResource: font Courier-Oblique
%%IncludeResource: font Courier-BoldOblique
%%IncludeResource: font Courier-Bold
%%IncludeResource: font ZapfDingbats
%%IncludeResource: font Symbol
%%IncludeResource: font Helvetica
%%IncludeResource: font Helvetica-Oblique
%%IncludeResource: font Helvetica-Bold
%%IncludeResource: font Helvetica-BoldOblique
%%IncludeResource: font Times-Roman
%%IncludeResource: font Times-Italic
%%IncludeResource: font Times-Bold
%%IncludeResource: font Times-BoldItalic
%%IncludeResource: font Courier
%FOPEndFontDict
%%BeginResource: encoding WinAnsiEncoding
/WinAnsiEncoding [
/.notdef /.notdef /.notdef /.notdef /.notdef
/.notdef /.notdef /.notdef /.notdef /.notdef
/.notdef /.notdef /.notdef /.notdef /.notdef
/.notdef /.notdef /.notdef /.notdef /.notdef
/.notdef /.notdef /.notdef /.notdef /.notdef
/.notdef /.notdef /.notdef /.notdef /.notdef
/.notdef /.notdef /space /exclam /quotedbl
/numbersign /dollar /percent /ampersand /quotesingle
/parenleft /parenright /asterisk /plus /comma
/hyphen /period /slash /zero /one
/two /three /four /five /six
/seven /eight /nine /colon /semicolon
/less /equal /greater /question /at
/A /B /C /D /E
/F /G /H /I /J
/K /L /M /N /O
/P /Q /R /S /T
/U /V /W /X /Y
/Z /bracketleft /backslash /bracketright /asciicircum
/underscore /quoteleft /a /b /c
/d /e /f /g /h
/i /j /k /l /m
/n /o /p /q /r
/s /t /u /v /w
/x /y /z /braceleft /bar
/braceright /asciitilde /bullet /Euro /bullet
/quotesinglbase /florin /quotedblbase /ellipsis /dagger
/daggerdbl /circumflex /perthousand /Scaron /guilsinglleft
/OE /bullet /Zcaron /bullet /bullet
/quoteleft /quoteright /quotedblleft /quotedblright /bullet
/endash /emdash /asciitilde /trademark /scaron
/guilsinglright /oe /bullet /zcaron /Ydieresis
/space /exclamdown /cent /sterling /currency
/yen /brokenbar /section /dieresis /copyright
/ordfeminine /guillemotleft /logicalnot /sfthyphen /registered
/macron /degree /plusminus /twosuperior /threesuperior
/acute /mu /paragraph /middot /cedilla
/onesuperior /ordmasculine /guillemotright /onequarter /onehalf
/threequarters /questiondown /Agrave /Aacute /Acircumflex
/Atilde /Adieresis /Aring /AE /Ccedilla
/Egrave /Eacute /Ecircumflex /Edieresis /Igrave
/Iacute /Icircumflex /Idieresis /Eth /Ntilde
/Ograve /Oacute /Ocircumflex /Otilde /Odieresis
/multiply /Oslash /Ugrave /Uacute /Ucircumflex
/Udieresis /Yacute /Thorn /germandbls /agrave
/aacute /acircumflex /atilde /adieresis /aring
/ae /ccedilla /egrave /eacute /ecircumflex
/edieresis /igrave /iacute /icircumflex /idieresis
/eth /ntilde /ograve /oacute /ocircumflex
/otilde /odieresis /divide /oslash /ugrave
/uacute /ucircumflex /udieresis /yacute /thorn
/ydieresis
] def
%%EndResource
%FOPBeginFontReencode
/Courier-Oblique findfont
dup length dict begin
  {1 index /FID ne {def} {pop pop} ifelse} forall
  /Encoding WinAnsiEncoding def
  currentdict
end
/Courier-Oblique exch definefont pop
/Courier-BoldOblique findfont
dup length dict begin
  {1 index /FID ne {def} {pop pop} ifelse} forall
  /Encoding WinAnsiEncoding def
  currentdict
end
/Courier-BoldOblique exch definefont pop
/Courier-Bold findfont
dup length dict begin
  {1 index /FID ne {def} {pop pop} ifelse} forall
  /Encoding WinAnsiEncoding def
  currentdict
end
/Courier-Bold exch definefont pop
/Helvetica findfont
dup length dict begin
  {1 index /FID ne {def} {pop pop} ifelse} forall
  /Encoding WinAnsiEncoding def
  currentdict
end
/Helvetica exch definefont pop
/Helvetica-Oblique findfont
dup length dict begin
  {1 index /FID ne {def} {pop pop} ifelse} forall
  /Encoding WinAnsiEncoding def
  currentdict
end
/Helvetica-Oblique exch definefont pop
/Helvetica-Bold findfont
dup length dict begin
  {1 index /FID ne {def} {pop pop} ifelse} forall
  /Encoding WinAnsiEncoding def
  currentdict
end
/Helvetica-Bold exch definefont pop
/Helvetica-BoldOblique findfont
dup length dict begin
  {1 index /FID ne {def} {pop pop} ifelse} forall
  /Encoding WinAnsiEncoding def
  currentdict
end
/Helvetica-BoldOblique exch definefont pop
/Times-Roman findfont
dup length dict begin
  {1 index /FID ne {def} {pop pop} ifelse} forall
  /Encoding WinAnsiEncoding def
  currentdict
end
/Times-Roman exch definefont pop
/Times-Italic findfont
dup length dict begin
  {1 index /FID ne {def} {pop pop} ifelse} forall
  /Encoding WinAnsiEncoding def
  currentdict
end
/Times-Italic exch definefont pop
/Times-Bold findfont
dup length dict begin
  {1 index /FID ne {def} {pop pop} ifelse} forall
  /Encoding WinAnsiEncoding def
  currentdict
end
/Times-Bold exch definefont pop
/Times-BoldItalic findfont
dup length dict begin
  {1 index /FID ne {def} {pop pop} ifelse} forall
  /Encoding WinAnsiEncoding def
  currentdict
end
/Times-BoldItalic exch definefont pop
/Courier findfont
dup length dict begin
  {1 index /FID ne {def} {pop pop} ifelse} forall
  /Encoding WinAnsiEncoding def
  currentdict
end
/Courier exch definefont pop
%FOPEndFontReencode
%%EndProlog
%%Page: 1 1
%%PageBoundingBox: 0 0 1120 840
%%BeginPageSetup
[1 0 0 -1 0 840] CT
%%EndPageSetup
GS
1 GC
N
0 0 1120 840 re
f
GR
GS
1 GC
N
73 374 M
507 374 L
507 31.5 L
73 31.5 L
cp
f
GR
GS
0.149 GC
2 setlinecap
1 LJ
0.5 LW
N
73 374 M
507 374 L
S
GR
GS
0.149 GC
2 setlinecap
1 LJ
0.5 LW
N
73 31.5 M
507 31.5 L
S
GR
GS
0.149 GC
2 setlinecap
1 LJ
0.5 LW
N
118.708 374 M
118.708 369.66 L
S
GR
GS
0.149 GC
2 setlinecap
1 LJ
0.5 LW
N
166.822 374 M
166.822 369.66 L
S
GR
GS
0.149 GC
2 setlinecap
1 LJ
0.5 LW
N
214.935 374 M
214.935 369.66 L
S
GR
GS
0.149 GC
2 setlinecap
1 LJ
0.5 LW
N
263.049 374 M
263.049 369.66 L
S
GR
GS
0.149 GC
2 setlinecap
1 LJ
0.5 LW
N
311.162 374 M
311.162 369.66 L
S
GR
GS
0.149 GC
2 setlinecap
1 LJ
0.5 LW
N
359.276 374 M
359.276 369.66 L
S
GR
GS
0.149 GC
2 setlinecap
1 LJ
0.5 LW
N
407.389 374 M
407.389 369.66 L
S
GR
GS
0.149 GC
2 setlinecap
1 LJ
0.5 LW
N
455.503 374 M
455.503 369.66 L
S
GR
GS
0.149 GC
2 setlinecap
1 LJ
0.5 LW
N
503.616 374 M
503.616 369.66 L
S
GR
GS
0.149 GC
2 setlinecap
1 LJ
0.5 LW
N
118.708 31.5 M
118.708 35.84 L
S
GR
GS
0.149 GC
2 setlinecap
1 LJ
0.5 LW
N
166.822 31.5 M
166.822 35.84 L
S
GR
GS
0.149 GC
2 setlinecap
1 LJ
0.5 LW
N
214.935 31.5 M
214.935 35.84 L
S
GR
GS
0.149 GC
2 setlinecap
1 LJ
0.5 LW
N
263.049 31.5 M
263.049 35.84 L
S
GR
GS
0.149 GC
2 setlinecap
1 LJ
0.5 LW
N
311.162 31.5 M
311.162 35.84 L
S
GR
GS
0.149 GC
2 setlinecap
1 LJ
0.5 LW
N
359.276 31.5 M
359.276 35.84 L
S
GR
GS
0.149 GC
2 setlinecap
1 LJ
0.5 LW
N
407.389 31.5 M
407.389 35.84 L
S
GR
GS
0.149 GC
2 setlinecap
1 LJ
0.5 LW
N
455.503 31.5 M
455.503 35.84 L
S
GR
GS
0.149 GC
2 setlinecap
1 LJ
0.5 LW
N
503.616 31.5 M
503.616 35.84 L
S
GR
GS
0.149 GC
2 setlinecap
1 LJ
0.5 LW
N
80.218 374 M
80.218 371.83 L
S
GR
GS
0.149 GC
2 setlinecap
1 LJ
0.5 LW
N
89.84 374 M
89.84 371.83 L
S
GR
GS
0.149 GC
2 setlinecap
1 LJ
0.5 LW
N
99.463 374 M
99.463 371.83 L
S
GR
GS
0.149 GC
2 setlinecap
1 LJ
0.5 LW
N
109.086 374 M
109.086 371.83 L
S
GR
GS
0.149 GC
2 setlinecap
1 LJ
0.5 LW
N
128.331 374 M
128.331 371.83 L
S
GR
GS
0.149 GC
2 setlinecap
1 LJ
0.5 LW
N
137.954 374 M
137.954 371.83 L
S
GR
GS
0.149 GC
2 setlinecap
1 LJ
0.5 LW
N
147.577 374 M
147.577 371.83 L
S
GR
GS
0.149 GC
2 setlinecap
1 LJ
0.5 LW
N
157.199 374 M
157.199 371.83 L
S
GR
GS
0.149 GC
2 setlinecap
1 LJ
0.5 LW
N
176.445 374 M
176.445 371.83 L
S
GR
GS
0.149 GC
2 setlinecap
1 LJ
0.5 LW
N
186.067 374 M
186.067 371.83 L
S
GR
GS
0.149 GC
2 setlinecap
1 LJ
0.5 LW
N
195.69 374 M
195.69 371.83 L
S
GR
GS
0.149 GC
2 setlinecap
1 LJ
0.5 LW
N
205.313 374 M
205.313 371.83 L
S
GR
GS
0.149 GC
2 setlinecap
1 LJ
0.5 LW
N
224.558 374 M
224.558 371.83 L
S
GR
GS
0.149 GC
2 setlinecap
1 LJ
0.5 LW
N
234.181 374 M
234.181 371.83 L
S
GR
GS
0.149 GC
2 setlinecap
1 LJ
0.5 LW
N
243.803 374 M
243.803 371.83 L
S
GR
GS
0.149 GC
2 setlinecap
1 LJ
0.5 LW
N
253.426 374 M
253.426 371.83 L
S
GR
GS
0.149 GC
2 setlinecap
1 LJ
0.5 LW
N
272.672 374 M
272.672 371.83 L
S
GR
GS
0.149 GC
2 setlinecap
1 LJ
0.5 LW
N
282.294 374 M
282.294 371.83 L
S
GR
GS
0.149 GC
2 setlinecap
1 LJ
0.5 LW
N
291.917 374 M
291.917 371.83 L
S
GR
GS
0.149 GC
2 setlinecap
1 LJ
0.5 LW
N
301.54 374 M
301.54 371.83 L
S
GR
GS
0.149 GC
2 setlinecap
1 LJ
0.5 LW
N
320.785 374 M
320.785 371.83 L
S
GR
GS
0.149 GC
2 setlinecap
1 LJ
0.5 LW
N
330.408 374 M
330.408 371.83 L
S
GR
GS
0.149 GC
2 setlinecap
1 LJ
0.5 LW
N
340.03 374 M
340.03 371.83 L
S
GR
GS
0.149 GC
2 setlinecap
1 LJ
0.5 LW
N
349.653 374 M
349.653 371.83 L
S
GR
GS
0.149 GC
2 setlinecap
1 LJ
0.5 LW
N
368.898 374 M
368.898 371.83 L
S
GR
GS
0.149 GC
2 setlinecap
1 LJ
0.5 LW
N
378.521 374 M
378.521 371.83 L
S
GR
GS
0.149 GC
2 setlinecap
1 LJ
0.5 LW
N
388.144 374 M
388.144 371.83 L
S
GR
GS
0.149 GC
2 setlinecap
1 LJ
0.5 LW
N
397.767 374 M
397.767 371.83 L
S
GR
GS
0.149 GC
2 setlinecap
1 LJ
0.5 LW
N
417.012 374 M
417.012 371.83 L
S
GR
GS
0.149 GC
2 setlinecap
1 LJ
0.5 LW
N
426.635 374 M
426.635 371.83 L
S
GR
GS
0.149 GC
2 setlinecap
1 LJ
0.5 LW
N
436.257 374 M
436.257 371.83 L
S
GR
GS
0.149 GC
2 setlinecap
1 LJ
0.5 LW
N
445.88 374 M
445.88 371.83 L
S
GR
GS
0.149 GC
2 setlinecap
1 LJ
0.5 LW
N
465.125 374 M
465.125 371.83 L
S
GR
GS
0.149 GC
2 setlinecap
1 LJ
0.5 LW
N
474.748 374 M
474.748 371.83 L
S
GR
GS
0.149 GC
2 setlinecap
1 LJ
0.5 LW
N
484.371 374 M
484.371 371.83 L
S
GR
GS
0.149 GC
2 setlinecap
1 LJ
0.5 LW
N
493.994 374 M
493.994 371.83 L
S
GR
GS
0.149 GC
2 setlinecap
1 LJ
0.5 LW
N
80.218 31.5 M
80.218 33.67 L
S
GR
GS
0.149 GC
2 setlinecap
1 LJ
0.5 LW
N
89.84 31.5 M
89.84 33.67 L
S
GR
GS
0.149 GC
2 setlinecap
1 LJ
0.5 LW
N
99.463 31.5 M
99.463 33.67 L
S
GR
GS
0.149 GC
2 setlinecap
1 LJ
0.5 LW
N
109.086 31.5 M
109.086 33.67 L
S
GR
GS
0.149 GC
2 setlinecap
1 LJ
0.5 LW
N
128.331 31.5 M
128.331 33.67 L
S
GR
GS
0.149 GC
2 setlinecap
1 LJ
0.5 LW
N
137.954 31.5 M
137.954 33.67 L
S
GR
GS
0.149 GC
2 setlinecap
1 LJ
0.5 LW
N
147.577 31.5 M
147.577 33.67 L
S
GR
GS
0.149 GC
2 setlinecap
1 LJ
0.5 LW
N
157.199 31.5 M
157.199 33.67 L
S
GR
GS
0.149 GC
2 setlinecap
1 LJ
0.5 LW
N
176.445 31.5 M
176.445 33.67 L
S
GR
GS
0.149 GC
2 setlinecap
1 LJ
0.5 LW
N
186.067 31.5 M
186.067 33.67 L
S
GR
GS
0.149 GC
2 setlinecap
1 LJ
0.5 LW
N
195.69 31.5 M
195.69 33.67 L
S
GR
GS
0.149 GC
2 setlinecap
1 LJ
0.5 LW
N
205.313 31.5 M
205.313 33.67 L
S
GR
GS
0.149 GC
2 setlinecap
1 LJ
0.5 LW
N
224.558 31.5 M
224.558 33.67 L
S
GR
GS
0.149 GC
2 setlinecap
1 LJ
0.5 LW
N
234.181 31.5 M
234.181 33.67 L
S
GR
GS
0.149 GC
2 setlinecap
1 LJ
0.5 LW
N
243.803 31.5 M
243.803 33.67 L
S
GR
GS
0.149 GC
2 setlinecap
1 LJ
0.5 LW
N
253.426 31.5 M
253.426 33.67 L
S
GR
GS
0.149 GC
2 setlinecap
1 LJ
0.5 LW
N
272.672 31.5 M
272.672 33.67 L
S
GR
GS
0.149 GC
2 setlinecap
1 LJ
0.5 LW
N
282.294 31.5 M
282.294 33.67 L
S
GR
GS
0.149 GC
2 setlinecap
1 LJ
0.5 LW
N
291.917 31.5 M
291.917 33.67 L
S
GR
GS
0.149 GC
2 setlinecap
1 LJ
0.5 LW
N
301.54 31.5 M
301.54 33.67 L
S
GR
GS
0.149 GC
2 setlinecap
1 LJ
0.5 LW
N
320.785 31.5 M
320.785 33.67 L
S
GR
GS
0.149 GC
2 setlinecap
1 LJ
0.5 LW
N
330.408 31.5 M
330.408 33.67 L
S
GR
GS
0.149 GC
2 setlinecap
1 LJ
0.5 LW
N
340.03 31.5 M
340.03 33.67 L
S
GR
GS
0.149 GC
2 setlinecap
1 LJ
0.5 LW
N
349.653 31.5 M
349.653 33.67 L
S
GR
GS
0.149 GC
2 setlinecap
1 LJ
0.5 LW
N
368.898 31.5 M
368.898 33.67 L
S
GR
GS
0.149 GC
2 setlinecap
1 LJ
0.5 LW
N
378.521 31.5 M
378.521 33.67 L
S
GR
GS
0.149 GC
2 setlinecap
1 LJ
0.5 LW
N
388.144 31.5 M
388.144 33.67 L
S
GR
GS
0.149 GC
2 setlinecap
1 LJ
0.5 LW
N
397.767 31.5 M
397.767 33.67 L
S
GR
GS
0.149 GC
2 setlinecap
1 LJ
0.5 LW
N
417.012 31.5 M
417.012 33.67 L
S
GR
GS
0.149 GC
2 setlinecap
1 LJ
0.5 LW
N
426.635 31.5 M
426.635 33.67 L
S
GR
GS
0.149 GC
2 setlinecap
1 LJ
0.5 LW
N
436.257 31.5 M
436.257 33.67 L
S
GR
GS
0.149 GC
2 setlinecap
1 LJ
0.5 LW
N
445.88 31.5 M
445.88 33.67 L
S
GR
GS
0.149 GC
2 setlinecap
1 LJ
0.5 LW
N
465.125 31.5 M
465.125 33.67 L
S
GR
GS
0.149 GC
2 setlinecap
1 LJ
0.5 LW
N
474.748 31.5 M
474.748 33.67 L
S
GR
GS
0.149 GC
2 setlinecap
1 LJ
0.5 LW
N
484.371 31.5 M
484.371 33.67 L
S
GR
GS
0.149 GC
2 setlinecap
1 LJ
0.5 LW
N
493.994 31.5 M
493.994 33.67 L
S
GR
GS
[1 0 0 1 118.70846 378.80017] CT
0.149 GC
/Helvetica 14 F
GS
[1 0 0 1 0 0] CT
-16 14 moveto 
1 -1 scale
(1000) t 
GR
GR
GS
[1 0 0 1 166.82193 378.80017] CT
0.149 GC
/Helvetica 14 F
GS
[1 0 0 1 0 0] CT
-16 14 moveto 
1 -1 scale
(2000) t 
GR
GR
GS
[1 0 0 1 214.93539 378.80017] CT
0.149 GC
/Helvetica 14 F
GS
[1 0 0 1 0 0] CT
-16 14 moveto 
1 -1 scale
(3000) t 
GR
GR
GS
[1 0 0 1 263.04886 378.80017] CT
0.149 GC
/Helvetica 14 F
GS
[1 0 0 1 0 0] CT
-16 14 moveto 
1 -1 scale
(4000) t 
GR
GR
GS
[1 0 0 1 311.16235 378.80017] CT
0.149 GC
/Helvetica 14 F
GS
[1 0 0 1 0 0] CT
-16 14 moveto 
1 -1 scale
(5000) t 
GR
GR
GS
[1 0 0 1 359.27582 378.80017] CT
0.149 GC
/Helvetica 14 F
GS
[1 0 0 1 0 0] CT
-16 14 moveto 
1 -1 scale
(6000) t 
GR
GR
GS
[1 0 0 1 407.38928 378.80017] CT
0.149 GC
/Helvetica 14 F
GS
[1 0 0 1 0 0] CT
-16 14 moveto 
1 -1 scale
(7000) t 
GR
GR
GS
[1 0 0 1 455.50275 378.80017] CT
0.149 GC
/Helvetica 14 F
GS
[1 0 0 1 0 0] CT
-16 14 moveto 
1 -1 scale
(8000) t 
GR
GR
GS
[1 0 0 1 503.61621 378.80017] CT
0.149 GC
/Helvetica 14 F
GS
[1 0 0 1 0 0] CT
-16 14 moveto 
1 -1 scale
(9000) t 
GR
GR
GS
[1 0 0 1 290.00021 396.2998] CT
0.149 GC
/Helvetica 15.4 F
GS
[1 0 0 1 0 0] CT
-42 15 moveto 
1 -1 scale
(Bitrate\(kb/s\)) t 
GR
GR
GS
0.149 GC
2 setlinecap
1 LJ
0.5 LW
N
73 374 M
73 31.5 L
S
GR
GS
0.149 GC
2 setlinecap
1 LJ
0.5 LW
N
507 374 M
507 31.5 L
S
GR
GS
0.149 GC
2 setlinecap
1 LJ
0.5 LW
N
73 369.443 M
77.34 369.443 L
S
GR
GS
0.149 GC
2 setlinecap
1 LJ
0.5 LW
N
73 337.867 M
77.34 337.867 L
S
GR
GS
0.149 GC
2 setlinecap
1 LJ
0.5 LW
N
73 306.29 M
77.34 306.29 L
S
GR
GS
0.149 GC
2 setlinecap
1 LJ
0.5 LW
N
73 274.714 M
77.34 274.714 L
S
GR
GS
0.149 GC
2 setlinecap
1 LJ
0.5 LW
N
73 243.137 M
77.34 243.137 L
S
GR
GS
0.149 GC
2 setlinecap
1 LJ
0.5 LW
N
73 211.56 M
77.34 211.56 L
S
GR
GS
0.149 GC
2 setlinecap
1 LJ
0.5 LW
N
73 179.984 M
77.34 179.984 L
S
GR
GS
0.149 GC
2 setlinecap
1 LJ
0.5 LW
N
73 148.408 M
77.34 148.408 L
S
GR
GS
0.149 GC
2 setlinecap
1 LJ
0.5 LW
N
73 116.831 M
77.34 116.831 L
S
GR
GS
0.149 GC
2 setlinecap
1 LJ
0.5 LW
N
73 85.255 M
77.34 85.255 L
S
GR
GS
0.149 GC
2 setlinecap
1 LJ
0.5 LW
N
73 53.678 M
77.34 53.678 L
S
GR
GS
0.149 GC
2 setlinecap
1 LJ
0.5 LW
N
507 369.443 M
502.66 369.443 L
S
GR
GS
0.149 GC
2 setlinecap
1 LJ
0.5 LW
N
507 337.867 M
502.66 337.867 L
S
GR
GS
0.149 GC
2 setlinecap
1 LJ
0.5 LW
N
507 306.29 M
502.66 306.29 L
S
GR
GS
0.149 GC
2 setlinecap
1 LJ
0.5 LW
N
507 274.714 M
502.66 274.714 L
S
GR
GS
0.149 GC
2 setlinecap
1 LJ
0.5 LW
N
507 243.137 M
502.66 243.137 L
S
GR
GS
0.149 GC
2 setlinecap
1 LJ
0.5 LW
N
507 211.56 M
502.66 211.56 L
S
GR
GS
0.149 GC
2 setlinecap
1 LJ
0.5 LW
N
507 179.984 M
502.66 179.984 L
S
GR
GS
0.149 GC
2 setlinecap
1 LJ
0.5 LW
N
507 148.408 M
502.66 148.408 L
S
GR
GS
0.149 GC
2 setlinecap
1 LJ
0.5 LW
N
507 116.831 M
502.66 116.831 L
S
GR
GS
0.149 GC
2 setlinecap
1 LJ
0.5 LW
N
507 85.255 M
502.66 85.255 L
S
GR
GS
0.149 GC
2 setlinecap
1 LJ
0.5 LW
N
507 53.678 M
502.66 53.678 L
S
GR
GS
0.149 GC
2 setlinecap
1 LJ
0.5 LW
N
73 361.549 M
75.17 361.549 L
S
GR
GS
0.149 GC
2 setlinecap
1 LJ
0.5 LW
N
73 353.655 M
75.17 353.655 L
S
GR
GS
0.149 GC
2 setlinecap
1 LJ
0.5 LW
N
73 345.761 M
75.17 345.761 L
S
GR
GS
0.149 GC
2 setlinecap
1 LJ
0.5 LW
N
73 329.972 M
75.17 329.972 L
S
GR
GS
0.149 GC
2 setlinecap
1 LJ
0.5 LW
N
73 322.078 M
75.17 322.078 L
S
GR
GS
0.149 GC
2 setlinecap
1 LJ
0.5 LW
N
73 314.184 M
75.17 314.184 L
S
GR
GS
0.149 GC
2 setlinecap
1 LJ
0.5 LW
N
73 298.396 M
75.17 298.396 L
S
GR
GS
0.149 GC
2 setlinecap
1 LJ
0.5 LW
N
73 290.502 M
75.17 290.502 L
S
GR
GS
0.149 GC
2 setlinecap
1 LJ
0.5 LW
N
73 282.608 M
75.17 282.608 L
S
GR
GS
0.149 GC
2 setlinecap
1 LJ
0.5 LW
N
73 266.82 M
75.17 266.82 L
S
GR
GS
0.149 GC
2 setlinecap
1 LJ
0.5 LW
N
73 258.926 M
75.17 258.926 L
S
GR
GS
0.149 GC
2 setlinecap
1 LJ
0.5 LW
N
73 251.031 M
75.17 251.031 L
S
GR
GS
0.149 GC
2 setlinecap
1 LJ
0.5 LW
N
73 235.243 M
75.17 235.243 L
S
GR
GS
0.149 GC
2 setlinecap
1 LJ
0.5 LW
N
73 227.349 M
75.17 227.349 L
S
GR
GS
0.149 GC
2 setlinecap
1 LJ
0.5 LW
N
73 219.455 M
75.17 219.455 L
S
GR
GS
0.149 GC
2 setlinecap
1 LJ
0.5 LW
N
73 203.666 M
75.17 203.666 L
S
GR
GS
0.149 GC
2 setlinecap
1 LJ
0.5 LW
N
73 195.772 M
75.17 195.772 L
S
GR
GS
0.149 GC
2 setlinecap
1 LJ
0.5 LW
N
73 187.878 M
75.17 187.878 L
S
GR
GS
0.149 GC
2 setlinecap
1 LJ
0.5 LW
N
73 172.09 M
75.17 172.09 L
S
GR
GS
0.149 GC
2 setlinecap
1 LJ
0.5 LW
N
73 164.196 M
75.17 164.196 L
S
GR
GS
0.149 GC
2 setlinecap
1 LJ
0.5 LW
N
73 156.302 M
75.17 156.302 L
S
GR
GS
0.149 GC
2 setlinecap
1 LJ
0.5 LW
N
73 140.514 M
75.17 140.514 L
S
GR
GS
0.149 GC
2 setlinecap
1 LJ
0.5 LW
N
73 132.619 M
75.17 132.619 L
S
GR
GS
0.149 GC
2 setlinecap
1 LJ
0.5 LW
N
73 124.725 M
75.17 124.725 L
S
GR
GS
0.149 GC
2 setlinecap
1 LJ
0.5 LW
N
73 108.937 M
75.17 108.937 L
S
GR
GS
0.149 GC
2 setlinecap
1 LJ
0.5 LW
N
73 101.043 M
75.17 101.043 L
S
GR
GS
0.149 GC
2 setlinecap
1 LJ
0.5 LW
N
73 93.149 M
75.17 93.149 L
S
GR
GS
0.149 GC
2 setlinecap
1 LJ
0.5 LW
N
73 77.361 M
75.17 77.361 L
S
GR
GS
0.149 GC
2 setlinecap
1 LJ
0.5 LW
N
73 69.467 M
75.17 69.467 L
S
GR
GS
0.149 GC
2 setlinecap
1 LJ
0.5 LW
N
73 61.573 M
75.17 61.573 L
S
GR
GS
0.149 GC
2 setlinecap
1 LJ
0.5 LW
N
73 45.784 M
75.17 45.784 L
S
GR
GS
0.149 GC
2 setlinecap
1 LJ
0.5 LW
N
73 37.89 M
75.17 37.89 L
S
GR
GS
0.149 GC
2 setlinecap
1 LJ
0.5 LW
N
507 361.549 M
504.83 361.549 L
S
GR
GS
0.149 GC
2 setlinecap
1 LJ
0.5 LW
N
507 353.655 M
504.83 353.655 L
S
GR
GS
0.149 GC
2 setlinecap
1 LJ
0.5 LW
N
507 345.761 M
504.83 345.761 L
S
GR
GS
0.149 GC
2 setlinecap
1 LJ
0.5 LW
N
507 329.972 M
504.83 329.972 L
S
GR
GS
0.149 GC
2 setlinecap
1 LJ
0.5 LW
N
507 322.078 M
504.83 322.078 L
S
GR
GS
0.149 GC
2 setlinecap
1 LJ
0.5 LW
N
507 314.184 M
504.83 314.184 L
S
GR
GS
0.149 GC
2 setlinecap
1 LJ
0.5 LW
N
507 298.396 M
504.83 298.396 L
S
GR
GS
0.149 GC
2 setlinecap
1 LJ
0.5 LW
N
507 290.502 M
504.83 290.502 L
S
GR
GS
0.149 GC
2 setlinecap
1 LJ
0.5 LW
N
507 282.608 M
504.83 282.608 L
S
GR
GS
0.149 GC
2 setlinecap
1 LJ
0.5 LW
N
507 266.82 M
504.83 266.82 L
S
GR
GS
0.149 GC
2 setlinecap
1 LJ
0.5 LW
N
507 258.926 M
504.83 258.926 L
S
GR
GS
0.149 GC
2 setlinecap
1 LJ
0.5 LW
N
507 251.031 M
504.83 251.031 L
S
GR
GS
0.149 GC
2 setlinecap
1 LJ
0.5 LW
N
507 235.243 M
504.83 235.243 L
S
GR
GS
0.149 GC
2 setlinecap
1 LJ
0.5 LW
N
507 227.349 M
504.83 227.349 L
S
GR
GS
0.149 GC
2 setlinecap
1 LJ
0.5 LW
N
507 219.455 M
504.83 219.455 L
S
GR
GS
0.149 GC
2 setlinecap
1 LJ
0.5 LW
N
507 203.666 M
504.83 203.666 L
S
GR
GS
0.149 GC
2 setlinecap
1 LJ
0.5 LW
N
507 195.772 M
504.83 195.772 L
S
GR
GS
0.149 GC
2 setlinecap
1 LJ
0.5 LW
N
507 187.878 M
504.83 187.878 L
S
GR
GS
0.149 GC
2 setlinecap
1 LJ
0.5 LW
N
507 172.09 M
504.83 172.09 L
S
GR
GS
0.149 GC
2 setlinecap
1 LJ
0.5 LW
N
507 164.196 M
504.83 164.196 L
S
GR
GS
0.149 GC
2 setlinecap
1 LJ
0.5 LW
N
507 156.302 M
504.83 156.302 L
S
GR
GS
0.149 GC
2 setlinecap
1 LJ
0.5 LW
N
507 140.514 M
504.83 140.514 L
S
GR
GS
0.149 GC
2 setlinecap
1 LJ
0.5 LW
N
507 132.619 M
504.83 132.619 L
S
GR
GS
0.149 GC
2 setlinecap
1 LJ
0.5 LW
N
507 124.725 M
504.83 124.725 L
S
GR
GS
0.149 GC
2 setlinecap
1 LJ
0.5 LW
N
507 108.937 M
504.83 108.937 L
S
GR
GS
0.149 GC
2 setlinecap
1 LJ
0.5 LW
N
507 101.043 M
504.83 101.043 L
S
GR
GS
0.149 GC
2 setlinecap
1 LJ
0.5 LW
N
507 93.149 M
504.83 93.149 L
S
GR
GS
0.149 GC
2 setlinecap
1 LJ
0.5 LW
N
507 77.361 M
504.83 77.361 L
S
GR
GS
0.149 GC
2 setlinecap
1 LJ
0.5 LW
N
507 69.467 M
504.83 69.467 L
S
GR
GS
0.149 GC
2 setlinecap
1 LJ
0.5 LW
N
507 61.573 M
504.83 61.573 L
S
GR
GS
0.149 GC
2 setlinecap
1 LJ
0.5 LW
N
507 45.784 M
504.83 45.784 L
S
GR
GS
0.149 GC
2 setlinecap
1 LJ
0.5 LW
N
507 37.89 M
504.83 37.89 L
S
GR
GS
[1 0 0 1 68.2 369.44266] CT
0.149 GC
/Helvetica 14 F
GS
[1 0 0 1 0 0] CT
-28 5.5 moveto 
1 -1 scale
(36.4) t 
GR
GR
GS
[1 0 0 1 68.2 337.8667] CT
0.149 GC
/Helvetica 14 F
GS
[1 0 0 1 0 0] CT
-28 5.5 moveto 
1 -1 scale
(36.6) t 
GR
GR
GS
[1 0 0 1 68.2 306.29013] CT
0.149 GC
/Helvetica 14 F
GS
[1 0 0 1 0 0] CT
-28 5.5 moveto 
1 -1 scale
(36.8) t 
GR
GR
GS
[1 0 0 1 68.2 274.71356] CT
0.149 GC
/Helvetica 14 F
GS
[1 0 0 1 0 0] CT
-16 5.5 moveto 
1 -1 scale
(37) t 
GR
GR
GS
[1 0 0 1 68.2 243.13701] CT
0.149 GC
/Helvetica 14 F
GS
[1 0 0 1 0 0] CT
-28 5.5 moveto 
1 -1 scale
(37.2) t 
GR
GR
GS
[1 0 0 1 68.2 211.56044] CT
0.149 GC
/Helvetica 14 F
GS
[1 0 0 1 0 0] CT
-28 5.5 moveto 
1 -1 scale
(37.4) t 
GR
GR
GS
[1 0 0 1 68.2 179.98448] CT
0.149 GC
/Helvetica 14 F
GS
[1 0 0 1 0 0] CT
-28 5.5 moveto 
1 -1 scale
(37.6) t 
GR
GR
GS
[1 0 0 1 68.2 148.40793] CT
0.149 GC
/Helvetica 14 F
GS
[1 0 0 1 0 0] CT
-28 5.5 moveto 
1 -1 scale
(37.8) t 
GR
GR
GS
[1 0 0 1 68.2 116.83136] CT
0.149 GC
/Helvetica 14 F
GS
[1 0 0 1 0 0] CT
-16 5.5 moveto 
1 -1 scale
(38) t 
GR
GR
GS
[1 0 0 1 68.2 85.2548] CT
0.149 GC
/Helvetica 14 F
GS
[1 0 0 1 0 0] CT
-28 5.5 moveto 
1 -1 scale
(38.2) t 
GR
GR
GS
[1 0 0 1 68.2 53.67824] CT
0.149 GC
/Helvetica 14 F
GS
[1 0 0 1 0 0] CT
-28 5.5 moveto 
1 -1 scale
(38.4) t 
GR
GR
GS
[0 -1 1 0 37.7 202.7498] CT
0.149 GC
/Helvetica 15.4 F
GS
[1 0 0 1 0 0] CT
-42 -4 moveto 
1 -1 scale
(PSNR Y\(dB\)) t 
GR
GR
GS
[1 0 0 1 290.00027 29.57528] CT
/Helvetica-Bold 15.4 F
GS
[1 0 0 1 0 0] CT
-225.5 -4 moveto 
1 -1 scale
(DinnerSceneCropped_1920x1080_2997fps_10bit_420.y4m-av1) t 
GR
GR
GS
0 0.447 0.741 RC
1 LJ
0.5 LW
N
73.857 289.819 M
74.82 257.578 L
75.782 234.196 L
76.744 224.981 L
77.706 217.711 L
78.669 211.817 L
79.631 207.122 L
80.593 203.447 L
81.555 200.617 L
82.518 198.453 L
83.48 196.666 L
84.442 194.988 L
85.405 193.411 L
86.367 191.929 L
87.329 190.539 L
88.291 189.235 L
89.254 188.012 L
90.216 186.867 L
91.178 185.792 L
92.14 184.785 L
93.103 183.84 L
94.065 182.952 L
95.027 182.117 L
95.989 181.329 L
96.952 180.584 L
97.914 179.878 L
98.876 179.205 L
99.839 178.56 L
100.801 177.939 L
101.763 177.336 L
102.725 176.748 L
103.688 176.169 L
104.65 175.594 L
105.612 175.019 L
106.574 174.438 L
107.537 173.85 L
108.499 173.263 L
109.461 172.676 L
110.424 172.089 L
111.386 171.504 L
112.348 170.919 L
113.31 170.335 L
114.273 169.752 L
115.235 169.17 L
116.197 168.589 L
117.159 168.008 L
118.122 167.428 L
119.084 166.85 L
120.046 166.271 L
121.008 165.694 L
121.971 165.118 L
122.933 164.542 L
123.895 163.968 L
124.858 163.394 L
125.82 162.821 L
126.782 162.249 L
127.744 161.678 L
128.707 161.107 L
129.669 160.538 L
130.631 159.97 L
131.593 159.402 L
132.556 158.836 L
133.518 158.27 L
134.48 157.705 L
135.443 157.141 L
136.405 156.579 L
137.367 156.017 L
138.329 155.456 L
139.292 154.896 L
140.254 154.337 L
141.216 153.779 L
142.178 153.222 L
143.141 152.666 L
144.103 152.111 L
145.065 151.557 L
146.027 151.004 L
146.99 150.451 L
147.952 149.9 L
148.914 149.35 L
149.877 148.801 L
150.839 148.253 L
151.801 147.706 L
152.763 147.161 L
153.726 146.616 L
154.688 146.072 L
155.65 145.529 L
156.612 144.988 L
157.575 144.447 L
158.537 143.907 L
159.499 143.369 L
160.462 142.831 L
161.424 142.295 L
162.386 141.76 L
163.348 141.226 L
164.311 140.693 L
165.273 140.161 L
166.235 139.63 L
167.197 139.1 L
168.16 138.572 L
169.122 138.045 L
170.084 137.518 L
171.046 136.994 L
172.009 136.47 L
172.971 135.947 L
173.933 135.425 L
174.896 134.905 L
175.858 134.386 L
176.82 133.868 L
177.782 133.351 L
178.745 132.836 L
179.707 132.321 L
180.669 131.807 L
181.631 131.296 L
182.594 130.785 L
183.556 130.275 L
184.518 129.767 L
185.481 129.26 L
186.443 128.754 L
187.405 128.249 L
188.367 127.746 L
189.33 127.244 L
190.292 126.743 L
191.254 126.244 L
192.216 125.746 L
193.179 125.248 L
194.141 124.752 L
195.103 124.258 L
196.065 123.765 L
197.028 123.273 L
197.99 122.783 L
198.952 122.294 L
199.915 121.806 L
200.877 121.32 L
201.839 120.834 L
202.801 120.35 L
203.764 119.868 L
204.726 119.387 L
205.688 118.907 L
206.65 118.429 L
207.613 117.952 L
208.575 117.476 L
209.537 117.002 L
210.5 116.528 L
211.462 116.057 L
212.424 115.587 L
213.386 115.118 L
214.349 114.651 L
215.311 114.185 L
216.273 113.721 L
217.235 113.258 L
218.198 112.796 L
219.16 112.336 L
220.122 111.877 L
221.085 111.42 L
222.047 110.964 L
223.009 110.51 L
223.971 110.057 L
224.934 109.606 L
225.896 109.156 L
226.858 108.707 L
227.82 108.26 L
228.783 107.815 L
229.745 107.371 L
230.707 106.929 L
231.669 106.488 L
232.632 106.048 L
233.594 105.61 L
234.556 105.174 L
235.519 104.74 L
236.481 104.306 L
237.443 103.874 L
238.405 103.444 L
239.368 103.016 L
240.33 102.589 L
241.292 102.163 L
242.254 101.739 L
243.217 101.317 L
244.179 100.896 L
245.141 100.477 L
246.104 100.06 L
247.066 99.644 L
248.028 99.229 L
248.99 98.817 L
249.953 98.405 L
250.915 97.996 L
251.877 97.589 L
252.839 97.182 L
253.802 96.778 L
254.764 96.375 L
255.726 95.974 L
256.688 95.574 L
257.651 95.177 L
258.613 94.78 L
259.575 94.386 L
260.538 93.993 L
261.5 93.602 L
262.462 93.213 L
263.424 92.825 L
264.387 92.439 L
265.349 92.054 L
266.311 91.672 L
267.273 91.291 L
268.236 90.912 L
269.198 90.534 L
270.16 90.159 L
271.122 89.785 L
272.085 89.413 L
273.047 89.042 L
274.009 88.674 L
274.972 88.307 L
275.934 87.942 L
276.896 87.579 L
277.858 87.218 L
278.821 86.858 L
279.783 86.5 L
280.745 86.144 L
281.707 85.79 L
282.67 85.437 L
283.632 85.087 L
284.594 84.738 L
285.557 84.391 L
286.519 84.046 L
287.481 83.703 L
288.443 83.361 L
289.406 83.022 L
290.368 82.684 L
291.33 82.348 L
292.292 82.015 L
293.255 81.683 L
294.217 81.353 L
295.179 81.024 L
296.142 80.698 L
297.104 80.373 L
298.066 80.051 L
299.028 79.73 L
299.991 79.412 L
300.953 79.095 L
301.915 78.78 L
302.877 78.467 L
303.84 78.156 L
304.802 77.847 L
305.764 77.54 L
306.726 77.236 L
307.689 76.933 L
308.651 76.631 L
309.613 76.332 L
310.576 76.035 L
311.538 75.74 L
312.5 75.447 L
313.462 75.156 L
314.425 74.867 L
315.387 74.58 L
316.349 74.295 L
317.311 74.012 L
318.274 73.73 L
319.236 73.451 L
320.198 73.174 L
321.161 72.9 L
322.123 72.627 L
323.085 72.356 L
324.047 72.087 L
325.01 71.821 L
325.972 71.556 L
326.934 71.294 L
327.896 71.033 L
328.859 70.775 L
329.821 70.519 L
330.783 70.265 L
331.745 70.013 L
332.708 69.763 L
333.67 69.516 L
334.632 69.27 L
335.595 69.027 L
336.557 68.785 L
337.519 68.546 L
338.481 68.309 L
339.444 68.074 L
340.406 67.841 L
341.368 67.611 L
342.33 67.383 L
343.293 67.157 L
344.255 66.932 L
345.217 66.711 L
346.18 66.492 L
347.142 66.274 L
348.104 66.059 L
349.066 65.846 L
350.029 65.635 L
350.991 65.427 L
351.953 65.221 L
352.915 65.017 L
353.878 64.815 L
354.84 64.616 L
355.802 64.419 L
356.764 64.223 L
357.727 64.031 L
358.689 63.84 L
359.651 63.652 L
360.614 63.466 L
361.576 63.283 L
362.538 63.101 L
363.5 62.923 L
364.463 62.746 L
365.425 62.572 L
366.387 62.4 L
367.349 62.23 L
368.312 62.063 L
369.274 61.898 L
370.236 61.735 L
371.199 61.575 L
372.161 61.417 L
373.123 61.261 L
374.085 61.108 L
375.048 60.957 L
376.01 60.809 L
376.972 60.663 L
377.934 60.519 L
378.897 60.378 L
379.859 60.239 L
380.821 60.103 L
381.784 59.968 L
382.746 59.837 L
383.708 59.708 L
384.67 59.581 L
385.633 59.456 L
386.595 59.335 L
387.557 59.215 L
388.519 59.098 L
389.482 58.984 L
390.444 58.872 L
391.406 58.762 L
392.368 58.655 L
393.331 58.55 L
394.293 58.448 L
395.255 58.348 L
396.218 58.251 L
397.18 58.157 L
398.142 58.065 L
399.104 57.975 L
400.067 57.888 L
401.029 57.803 L
401.991 57.721 L
402.953 57.642 L
403.916 57.565 L
404.878 57.491 L
405.84 57.418 L
406.802 57.349 L
407.765 57.283 L
408.727 57.218 L
409.689 57.157 L
410.652 57.098 L
411.614 57.042 L
412.576 56.988 L
413.538 56.937 L
414.501 56.888 L
415.463 56.843 L
416.425 56.799 L
417.387 56.758 L
418.35 56.72 L
419.312 56.685 L
420.274 56.652 L
421.237 56.622 L
422.199 56.594 L
423.161 56.57 L
424.123 56.548 L
425.086 56.528 L
426.048 56.511 L
427.01 56.497 L
427.972 56.486 L
428.935 56.478 L
429.897 56.472 L
430.859 56.468 L
S
GR
GS
0.851 0.325 0.098 RC
1 LJ
0.5 LW
N
73.979 284.959 M
74.941 254.996 L
75.903 231.868 L
76.866 222.985 L
77.828 216.556 L
78.79 211.233 L
79.752 206.88 L
80.715 203.358 L
81.677 200.529 L
82.639 198.256 L
83.601 196.401 L
84.564 194.811 L
85.526 193.318 L
86.488 191.905 L
87.451 190.567 L
88.413 189.302 L
89.375 188.106 L
90.337 186.976 L
91.3 185.907 L
92.262 184.898 L
93.224 183.944 L
94.186 183.042 L
95.149 182.188 L
96.111 181.379 L
97.073 180.611 L
98.035 179.883 L
98.998 179.188 L
99.96 178.525 L
100.922 177.89 L
101.885 177.28 L
102.847 176.689 L
103.809 176.118 L
104.771 175.56 L
105.734 175.012 L
106.696 174.472 L
107.658 173.936 L
108.62 173.4 L
109.583 172.862 L
110.545 172.317 L
111.507 171.763 L
112.47 171.21 L
113.432 170.657 L
114.394 170.104 L
115.356 169.551 L
116.319 169 L
117.281 168.448 L
118.243 167.897 L
119.205 167.346 L
120.168 166.796 L
121.13 166.247 L
122.092 165.697 L
123.055 165.148 L
124.017 164.6 L
124.979 164.052 L
125.941 163.505 L
126.904 162.958 L
127.866 162.411 L
128.828 161.865 L
129.79 161.32 L
130.753 160.775 L
131.715 160.231 L
132.677 159.687 L
133.639 159.143 L
134.602 158.6 L
135.564 158.058 L
136.526 157.516 L
137.489 156.975 L
138.451 156.434 L
139.413 155.894 L
140.375 155.354 L
141.338 154.814 L
142.3 154.276 L
143.262 153.738 L
144.224 153.2 L
145.187 152.664 L
146.149 152.127 L
147.111 151.592 L
148.074 151.056 L
149.036 150.521 L
149.998 149.988 L
150.96 149.454 L
151.923 148.921 L
152.885 148.389 L
153.847 147.857 L
154.809 147.326 L
155.772 146.796 L
156.734 146.266 L
157.696 145.737 L
158.658 145.209 L
159.621 144.68 L
160.583 144.153 L
161.545 143.627 L
162.508 143.101 L
163.47 142.576 L
164.432 142.051 L
165.394 141.527 L
166.357 141.004 L
167.319 140.481 L
168.281 139.959 L
169.243 139.438 L
170.206 138.917 L
171.168 138.398 L
172.13 137.878 L
173.093 137.36 L
174.055 136.842 L
175.017 136.325 L
175.979 135.808 L
176.942 135.293 L
177.904 134.778 L
178.866 134.264 L
179.828 133.75 L
180.791 133.237 L
181.753 132.725 L
182.715 132.214 L
183.677 131.703 L
184.64 131.194 L
185.602 130.685 L
186.564 130.177 L
187.527 129.669 L
188.489 129.162 L
189.451 128.656 L
190.413 128.151 L
191.376 127.646 L
192.338 127.143 L
193.3 126.641 L
194.262 126.138 L
195.225 125.637 L
196.187 125.137 L
197.149 124.637 L
198.112 124.138 L
199.074 123.641 L
200.036 123.143 L
200.998 122.647 L
201.961 122.152 L
202.923 121.657 L
203.885 121.164 L
204.847 120.67 L
205.81 120.178 L
206.772 119.687 L
207.734 119.197 L
208.696 118.707 L
209.659 118.219 L
210.621 117.731 L
211.583 117.244 L
212.546 116.758 L
213.508 116.273 L
214.47 115.789 L
215.432 115.306 L
216.395 114.823 L
217.357 114.342 L
218.319 113.862 L
219.281 113.382 L
220.244 112.903 L
221.206 112.425 L
222.168 111.948 L
223.131 111.472 L
224.093 110.997 L
225.055 110.523 L
226.017 110.05 L
226.98 109.578 L
227.942 109.107 L
228.904 108.637 L
229.866 108.168 L
230.829 107.699 L
231.791 107.232 L
232.753 106.766 L
233.715 106.3 L
234.678 105.836 L
235.64 105.373 L
236.602 104.91 L
237.565 104.449 L
238.527 103.988 L
239.489 103.529 L
240.451 103.071 L
241.414 102.614 L
242.376 102.157 L
243.338 101.702 L
244.3 101.248 L
245.263 100.795 L
246.225 100.342 L
247.187 99.891 L
248.15 99.441 L
249.112 98.992 L
250.074 98.545 L
251.036 98.098 L
251.999 97.652 L
252.961 97.207 L
253.923 96.764 L
254.885 96.321 L
255.848 95.879 L
256.81 95.439 L
257.772 95 L
258.734 94.562 L
259.697 94.124 L
260.659 93.689 L
261.621 93.254 L
262.584 92.82 L
263.546 92.388 L
264.508 91.956 L
265.47 91.526 L
266.433 91.097 L
267.395 90.669 L
268.357 90.242 L
269.319 89.816 L
270.282 89.392 L
271.244 88.968 L
272.206 88.546 L
273.169 88.125 L
274.131 87.705 L
275.093 87.286 L
276.055 86.869 L
277.018 86.452 L
277.98 86.037 L
278.942 85.623 L
279.904 85.21 L
280.867 84.799 L
281.829 84.389 L
282.791 83.98 L
283.754 83.571 L
284.716 83.165 L
285.678 82.76 L
286.64 82.355 L
287.603 81.953 L
288.565 81.551 L
289.527 81.15 L
290.489 80.751 L
291.452 80.353 L
292.414 79.957 L
293.376 79.561 L
294.338 79.166 L
295.301 78.774 L
296.263 78.382 L
297.225 77.992 L
298.188 77.603 L
299.15 77.215 L
300.112 76.828 L
301.074 76.444 L
302.037 76.06 L
302.999 75.677 L
303.961 75.296 L
304.923 74.916 L
305.886 74.537 L
306.848 74.16 L
307.81 73.785 L
308.772 73.41 L
309.735 73.036 L
310.697 72.665 L
311.659 72.294 L
312.622 71.925 L
313.584 71.557 L
314.546 71.191 L
315.508 70.826 L
316.471 70.462 L
317.433 70.1 L
318.395 69.739 L
319.357 69.379 L
320.32 69.021 L
321.282 68.665 L
322.244 68.309 L
323.207 67.955 L
324.169 67.603 L
325.131 67.252 L
326.093 66.902 L
327.056 66.554 L
328.018 66.207 L
328.98 65.861 L
329.942 65.517 L
330.905 65.175 L
331.867 64.834 L
332.829 64.494 L
333.792 64.156 L
334.754 63.819 L
335.716 63.484 L
336.678 63.15 L
337.641 62.818 L
338.603 62.487 L
339.565 62.158 L
340.527 61.83 L
341.49 61.504 L
342.452 61.179 L
343.414 60.856 L
344.376 60.533 L
345.339 60.214 L
346.301 59.894 L
347.263 59.577 L
348.226 59.261 L
349.188 58.947 L
350.15 58.634 L
351.112 58.323 L
352.075 58.013 L
353.037 57.706 L
353.999 57.399 L
354.961 57.094 L
355.924 56.791 L
356.886 56.489 L
357.848 56.189 L
358.811 55.89 L
359.773 55.593 L
360.735 55.297 L
361.697 55.003 L
362.66 54.711 L
363.622 54.42 L
364.584 54.131 L
365.546 53.843 L
366.509 53.557 L
367.471 53.273 L
368.433 52.99 L
369.395 52.709 L
370.358 52.43 L
371.32 52.152 L
372.282 51.876 L
373.245 51.602 L
374.207 51.328 L
375.169 51.057 L
376.131 50.788 L
377.094 50.52 L
378.056 50.254 L
379.018 49.989 L
379.98 49.726 L
380.943 49.465 L
381.905 49.205 L
382.867 48.947 L
383.83 48.691 L
384.792 48.437 L
385.754 48.184 L
386.716 47.933 L
387.679 47.684 L
388.641 47.436 L
389.603 47.19 L
390.565 46.946 L
391.528 46.703 L
392.49 46.462 L
393.452 46.224 L
394.414 45.987 L
395.377 45.751 L
396.339 45.517 L
397.301 45.285 L
398.264 45.055 L
399.226 44.827 L
400.188 44.6 L
401.15 44.375 L
402.113 44.151 L
403.075 43.93 L
404.037 43.711 L
404.999 43.493 L
405.962 43.277 L
406.924 43.063 L
407.886 42.851 L
408.849 42.64 L
409.811 42.431 L
410.773 42.224 L
411.735 42.019 L
412.698 41.816 L
413.66 41.614 L
414.622 41.415 L
415.584 41.217 L
416.547 41.021 L
417.509 40.827 L
418.471 40.635 L
419.433 40.444 L
420.396 40.256 L
421.358 40.069 L
422.32 39.884 L
423.283 39.702 L
424.245 39.521 L
425.207 39.342 L
426.169 39.165 L
427.132 38.989 L
428.094 38.816 L
429.056 38.644 L
430.018 38.474 L
430.981 38.307 L
431.943 38.141 L
432.905 37.978 L
433.868 37.816 L
434.83 37.655 L
435.792 37.498 L
436.754 37.342 L
437.717 37.187 L
438.679 37.035 L
439.641 36.885 L
440.603 36.737 L
441.566 36.591 L
442.528 36.446 L
443.49 36.304 L
444.452 36.164 L
445.415 36.025 L
446.377 35.888 L
447.339 35.754 L
448.302 35.622 L
449.264 35.491 L
450.226 35.363 L
451.188 35.237 L
452.151 35.112 L
453.113 34.99 L
454.075 34.869 L
455.037 34.751 L
456 34.635 L
456.962 34.521 L
457.924 34.409 L
458.887 34.298 L
459.849 34.19 L
460.811 34.084 L
461.773 33.98 L
462.736 33.878 L
463.698 33.778 L
464.66 33.68 L
465.622 33.585 L
466.585 33.491 L
467.547 33.4 L
468.509 33.31 L
469.471 33.223 L
470.434 33.138 L
471.396 33.055 L
472.358 32.973 L
473.321 32.894 L
474.283 32.818 L
475.245 32.743 L
476.207 32.67 L
477.17 32.6 L
478.132 32.532 L
479.094 32.466 L
480.056 32.402 L
481.019 32.34 L
481.981 32.28 L
482.943 32.223 L
483.906 32.167 L
484.868 32.114 L
485.83 32.063 L
486.792 32.014 L
487.755 31.968 L
488.717 31.923 L
489.679 31.881 L
490.641 31.841 L
491.604 31.803 L
492.566 31.767 L
493.528 31.734 L
494.491 31.703 L
495.453 31.674 L
496.415 31.646 L
497.377 31.622 L
498.34 31.6 L
499.302 31.58 L
500.264 31.562 L
501.226 31.547 L
502.189 31.533 L
503.151 31.522 L
504.113 31.513 L
505.075 31.506 L
506.038 31.502 L
507 31.5 L
S
GR
GS
0.929 0.694 0.125 RC
1 LJ
0.5 LW
N
73.801 299.972 M
74.763 262.156 L
75.725 236.369 L
76.688 222.038 L
77.65 211.098 L
78.612 203.406 L
79.575 198.597 L
80.537 194.714 L
81.499 191.309 L
82.461 188.368 L
83.424 185.877 L
84.386 183.819 L
85.348 182.182 L
86.31 180.948 L
87.273 180.068 L
88.235 179.251 L
89.197 178.437 L
90.16 177.627 L
91.122 176.82 L
92.084 176.017 L
93.046 175.217 L
94.009 174.421 L
94.971 173.629 L
95.933 172.841 L
96.895 172.056 L
97.858 171.274 L
98.82 170.496 L
99.782 169.722 L
100.744 168.951 L
101.707 168.184 L
102.669 167.42 L
103.631 166.66 L
104.594 165.903 L
105.556 165.15 L
106.518 164.401 L
107.48 163.654 L
108.443 162.912 L
109.405 162.173 L
110.367 161.438 L
111.329 160.705 L
112.292 159.976 L
113.254 159.252 L
114.216 158.53 L
115.179 157.812 L
116.141 157.097 L
117.103 156.386 L
118.065 155.678 L
119.028 154.973 L
119.99 154.272 L
120.952 153.575 L
121.914 152.881 L
122.877 152.19 L
123.839 151.502 L
124.801 150.819 L
125.763 150.138 L
126.726 149.461 L
127.688 148.787 L
128.65 148.117 L
129.613 147.45 L
130.575 146.786 L
131.537 146.126 L
132.499 145.469 L
133.462 144.815 L
134.424 144.165 L
135.386 143.517 L
136.348 142.874 L
137.311 142.233 L
138.273 141.597 L
139.235 140.963 L
140.198 140.332 L
141.16 139.705 L
142.122 139.081 L
143.084 138.461 L
144.047 137.843 L
145.009 137.229 L
145.971 136.618 L
146.933 136.011 L
147.896 135.406 L
148.858 134.805 L
149.82 134.207 L
150.782 133.612 L
151.745 133.021 L
152.707 132.433 L
153.669 131.848 L
154.632 131.266 L
155.594 130.687 L
156.556 130.111 L
157.518 129.539 L
158.481 128.97 L
159.443 128.404 L
160.405 127.842 L
161.367 127.281 L
162.33 126.725 L
163.292 126.171 L
164.254 125.622 L
165.217 125.074 L
166.179 124.53 L
167.141 123.989 L
168.103 123.452 L
169.066 122.917 L
170.028 122.385 L
170.99 121.856 L
171.952 121.331 L
172.915 120.809 L
173.877 120.289 L
174.839 119.773 L
175.801 119.26 L
176.764 118.75 L
177.726 118.242 L
178.688 117.738 L
179.651 117.237 L
180.613 116.739 L
181.575 116.244 L
182.537 115.752 L
183.5 115.263 L
184.462 114.777 L
185.424 114.294 L
186.386 113.814 L
187.349 113.336 L
188.311 112.862 L
189.273 112.391 L
190.236 111.923 L
191.198 111.458 L
192.16 110.995 L
193.122 110.536 L
194.085 110.079 L
195.047 109.626 L
196.009 109.175 L
196.971 108.728 L
197.934 108.283 L
198.896 107.841 L
199.858 107.402 L
200.82 106.966 L
201.783 106.533 L
202.745 106.102 L
203.707 105.674 L
204.67 105.25 L
205.632 104.828 L
206.594 104.409 L
207.556 103.993 L
208.519 103.58 L
209.481 103.169 L
210.443 102.761 L
211.405 102.356 L
212.368 101.954 L
213.33 101.555 L
214.292 101.158 L
215.255 100.765 L
216.217 100.374 L
217.179 99.986 L
218.141 99.6 L
219.104 99.218 L
220.066 98.838 L
221.028 98.461 L
221.99 98.086 L
222.953 97.715 L
223.915 97.346 L
224.877 96.98 L
225.84 96.616 L
226.802 96.255 L
227.764 95.898 L
228.726 95.542 L
229.689 95.189 L
230.651 94.839 L
231.613 94.492 L
232.575 94.147 L
233.538 93.805 L
234.5 93.466 L
235.462 93.13 L
236.424 92.795 L
237.387 92.464 L
238.349 92.135 L
239.311 91.809 L
240.274 91.485 L
241.236 91.164 L
242.198 90.846 L
243.16 90.53 L
244.123 90.217 L
245.085 89.907 L
246.047 89.598 L
247.009 89.293 L
247.972 88.99 L
248.934 88.69 L
249.896 88.392 L
250.859 88.097 L
251.821 87.804 L
252.783 87.515 L
253.745 87.227 L
254.708 86.942 L
255.67 86.659 L
256.632 86.379 L
257.594 86.102 L
258.557 85.826 L
259.519 85.554 L
260.481 85.284 L
261.443 85.016 L
262.406 84.751 L
263.368 84.488 L
264.33 84.228 L
265.293 83.97 L
266.255 83.715 L
267.217 83.462 L
268.179 83.211 L
269.142 82.963 L
270.104 82.718 L
271.066 82.475 L
272.028 82.234 L
272.991 81.995 L
273.953 81.759 L
274.915 81.526 L
275.878 81.294 L
276.84 81.065 L
277.802 80.839 L
278.764 80.614 L
279.727 80.393 L
280.689 80.173 L
281.651 79.956 L
282.613 79.741 L
283.576 79.528 L
284.538 79.318 L
285.5 79.11 L
286.462 78.905 L
287.425 78.701 L
288.387 78.501 L
289.349 78.302 L
290.312 78.106 L
291.274 77.911 L
292.236 77.72 L
293.198 77.53 L
294.161 77.343 L
295.123 77.157 L
296.085 76.975 L
297.047 76.794 L
298.01 76.615 L
298.972 76.439 L
299.934 76.265 L
300.897 76.094 L
301.859 75.924 L
302.821 75.756 L
303.783 75.591 L
304.746 75.428 L
305.708 75.267 L
306.67 75.109 L
307.632 74.952 L
308.595 74.798 L
309.557 74.646 L
310.519 74.495 L
311.482 74.348 L
312.444 74.202 L
313.406 74.058 L
314.368 73.916 L
315.331 73.777 L
316.293 73.639 L
317.255 73.504 L
318.217 73.371 L
319.18 73.24 L
320.142 73.111 L
321.104 72.984 L
322.066 72.859 L
323.029 72.737 L
323.991 72.616 L
324.953 72.497 L
325.916 72.381 L
326.878 72.266 L
327.84 72.153 L
328.802 72.043 L
329.765 71.934 L
330.727 71.827 L
331.689 71.723 L
332.651 71.62 L
333.614 71.519 L
334.576 71.421 L
335.538 71.324 L
336.5 71.23 L
337.463 71.137 L
338.425 71.046 L
339.387 70.957 L
340.35 70.87 L
341.312 70.785 L
342.274 70.703 L
343.236 70.621 L
344.199 70.542 L
345.161 70.465 L
346.123 70.39 L
347.085 70.316 L
348.048 70.244 L
349.01 70.174 L
349.972 70.107 L
350.935 70.041 L
351.897 69.977 L
352.859 69.914 L
353.821 69.854 L
354.784 69.796 L
355.746 69.739 L
356.708 69.684 L
357.67 69.631 L
358.633 69.58 L
359.595 69.531 L
360.557 69.482 L
361.52 69.437 L
362.482 69.393 L
363.444 69.351 L
364.406 69.31 L
365.369 69.272 L
366.331 69.234 L
367.293 69.199 L
368.255 69.166 L
369.218 69.134 L
370.18 69.104 L
371.142 69.076 L
372.104 69.049 L
373.067 69.025 L
374.029 69.002 L
374.991 68.981 L
375.954 68.961 L
376.916 68.943 L
377.878 68.927 L
378.84 68.912 L
379.803 68.899 L
380.765 68.888 L
381.727 68.878 L
382.689 68.871 L
383.652 68.865 L
384.614 68.86 L
385.576 68.857 L
386.539 68.856 L
S
GR
GS
0.494 0.184 0.557 RC
1 LJ
0.5 LW
N
73.859 291.166 M
74.821 257.902 L
75.783 234.002 L
76.745 224.864 L
77.708 217.668 L
78.67 211.862 L
79.632 207.255 L
80.594 203.658 L
81.557 200.882 L
82.519 198.737 L
83.481 196.938 L
84.444 195.248 L
85.406 193.66 L
86.368 192.166 L
87.33 190.764 L
88.293 189.448 L
89.255 188.213 L
90.217 187.056 L
91.179 185.97 L
92.142 184.951 L
93.104 183.995 L
94.066 183.096 L
95.029 182.251 L
95.991 181.453 L
96.953 180.698 L
97.915 179.982 L
98.878 179.3 L
99.84 178.646 L
100.802 178.016 L
101.764 177.406 L
102.727 176.809 L
103.689 176.223 L
104.651 175.641 L
105.614 175.06 L
106.576 174.474 L
107.538 173.882 L
108.5 173.291 L
109.463 172.701 L
110.425 172.112 L
111.387 171.523 L
112.349 170.935 L
113.312 170.348 L
114.274 169.762 L
115.236 169.177 L
116.198 168.592 L
117.161 168.008 L
118.123 167.426 L
119.085 166.844 L
120.048 166.263 L
121.01 165.683 L
121.972 165.104 L
122.934 164.525 L
123.897 163.948 L
124.859 163.371 L
125.821 162.796 L
126.783 162.222 L
127.746 161.648 L
128.708 161.075 L
129.67 160.503 L
130.633 159.932 L
131.595 159.362 L
132.557 158.794 L
133.519 158.225 L
134.482 157.658 L
135.444 157.092 L
136.406 156.527 L
137.368 155.963 L
138.331 155.4 L
139.293 154.837 L
140.255 154.276 L
141.217 153.716 L
142.18 153.157 L
143.142 152.599 L
144.104 152.041 L
145.067 151.486 L
146.029 150.93 L
146.991 150.377 L
147.953 149.823 L
148.916 149.272 L
149.878 148.721 L
150.84 148.171 L
151.802 147.622 L
152.765 147.074 L
153.727 146.528 L
154.689 145.982 L
155.652 145.438 L
156.614 144.894 L
157.576 144.352 L
158.538 143.811 L
159.501 143.271 L
160.463 142.732 L
161.425 142.194 L
162.387 141.658 L
163.35 141.122 L
164.312 140.588 L
165.274 140.054 L
166.236 139.523 L
167.199 138.991 L
168.161 138.461 L
169.123 137.933 L
170.086 137.406 L
171.048 136.879 L
172.01 136.354 L
172.972 135.831 L
173.935 135.308 L
174.897 134.786 L
175.859 134.266 L
176.821 133.747 L
177.784 133.229 L
178.746 132.712 L
179.708 132.197 L
180.671 131.683 L
181.633 131.17 L
182.595 130.658 L
183.557 130.148 L
184.52 129.639 L
185.482 129.13 L
186.444 128.624 L
187.406 128.119 L
188.369 127.614 L
189.331 127.112 L
190.293 126.61 L
191.255 126.11 L
192.218 125.611 L
193.18 125.113 L
194.142 124.617 L
195.105 124.122 L
196.067 123.629 L
197.029 123.136 L
197.991 122.645 L
198.954 122.155 L
199.916 121.667 L
200.878 121.18 L
201.84 120.695 L
202.803 120.211 L
203.765 119.728 L
204.727 119.246 L
205.69 118.766 L
206.652 118.288 L
207.614 117.81 L
208.576 117.334 L
209.539 116.86 L
210.501 116.386 L
211.463 115.915 L
212.425 115.444 L
213.388 114.976 L
214.35 114.508 L
215.312 114.042 L
216.274 113.578 L
217.237 113.115 L
218.199 112.653 L
219.161 112.193 L
220.124 111.734 L
221.086 111.277 L
222.048 110.821 L
223.01 110.367 L
223.973 109.914 L
224.935 109.463 L
225.897 109.013 L
226.859 108.565 L
227.822 108.118 L
228.784 107.673 L
229.746 107.229 L
230.709 106.787 L
231.671 106.346 L
232.633 105.907 L
233.595 105.469 L
234.558 105.033 L
235.52 104.599 L
236.482 104.166 L
237.444 103.734 L
238.407 103.305 L
239.369 102.877 L
240.331 102.45 L
241.293 102.025 L
242.256 101.602 L
243.218 101.179 L
244.18 100.759 L
245.143 100.341 L
246.105 99.924 L
247.067 99.508 L
248.029 99.094 L
248.992 98.682 L
249.954 98.272 L
250.916 97.863 L
251.878 97.456 L
252.841 97.05 L
253.803 96.647 L
254.765 96.244 L
255.728 95.844 L
256.69 95.445 L
257.652 95.048 L
258.614 94.653 L
259.577 94.259 L
260.539 93.867 L
261.501 93.476 L
262.463 93.087 L
263.426 92.701 L
264.388 92.315 L
265.35 91.932 L
266.313 91.55 L
267.275 91.17 L
268.237 90.792 L
269.199 90.416 L
270.162 90.041 L
271.124 89.668 L
272.086 89.297 L
273.048 88.927 L
274.011 88.559 L
274.973 88.194 L
275.935 87.83 L
276.897 87.468 L
277.86 87.107 L
278.822 86.748 L
279.784 86.391 L
280.747 86.037 L
281.709 85.683 L
282.671 85.332 L
283.633 84.983 L
284.596 84.634 L
285.558 84.289 L
286.52 83.945 L
287.482 83.603 L
288.445 83.262 L
289.407 82.924 L
290.369 82.587 L
291.332 82.253 L
292.294 81.92 L
293.256 81.589 L
294.218 81.261 L
295.181 80.933 L
296.143 80.608 L
297.105 80.285 L
298.067 79.964 L
299.03 79.644 L
299.992 79.327 L
300.954 79.012 L
301.916 78.698 L
302.879 78.386 L
303.841 78.076 L
304.803 77.769 L
305.766 77.463 L
306.728 77.16 L
307.69 76.858 L
308.652 76.558 L
309.615 76.26 L
310.577 75.964 L
311.539 75.67 L
312.501 75.379 L
313.464 75.089 L
314.426 74.801 L
315.388 74.516 L
316.351 74.232 L
317.313 73.95 L
318.275 73.671 L
319.237 73.393 L
320.2 73.117 L
321.162 72.844 L
322.124 72.572 L
323.086 72.303 L
324.049 72.036 L
325.011 71.771 L
325.973 71.507 L
326.935 71.247 L
327.898 70.988 L
328.86 70.731 L
329.822 70.476 L
330.785 70.223 L
331.747 69.973 L
332.709 69.725 L
333.671 69.478 L
334.634 69.234 L
335.596 68.992 L
336.558 68.753 L
337.52 68.515 L
338.483 68.279 L
339.445 68.046 L
340.407 67.815 L
341.37 67.586 L
342.332 67.359 L
343.294 67.134 L
344.256 66.912 L
345.219 66.692 L
346.181 66.474 L
347.143 66.258 L
348.105 66.044 L
349.068 65.833 L
350.03 65.624 L
350.992 65.417 L
351.954 65.212 L
352.917 65.01 L
353.879 64.809 L
354.841 64.612 L
355.804 64.416 L
356.766 64.222 L
357.728 64.031 L
358.69 63.843 L
359.653 63.656 L
360.615 63.472 L
361.577 63.29 L
362.539 63.11 L
363.502 62.933 L
364.464 62.758 L
365.426 62.585 L
366.389 62.414 L
367.351 62.246 L
368.313 62.081 L
369.275 61.917 L
370.238 61.756 L
371.2 61.597 L
372.162 61.44 L
373.124 61.287 L
374.087 61.135 L
375.049 60.986 L
376.011 60.839 L
376.973 60.694 L
377.936 60.552 L
378.898 60.412 L
379.86 60.275 L
380.823 60.14 L
381.785 60.008 L
382.747 59.877 L
383.709 59.75 L
384.672 59.624 L
385.634 59.502 L
386.596 59.381 L
387.558 59.263 L
388.521 59.147 L
389.483 59.034 L
390.445 58.924 L
391.408 58.816 L
392.37 58.71 L
393.332 58.607 L
394.294 58.506 L
395.257 58.408 L
396.219 58.313 L
397.181 58.219 L
398.143 58.128 L
399.106 58.041 L
400.068 57.955 L
401.03 57.872 L
401.992 57.791 L
402.955 57.713 L
403.917 57.638 L
404.879 57.565 L
405.842 57.494 L
406.804 57.426 L
407.766 57.361 L
408.728 57.299 L
409.691 57.238 L
410.653 57.18 L
411.615 57.126 L
412.577 57.073 L
413.54 57.023 L
414.502 56.976 L
415.464 56.932 L
416.427 56.89 L
417.389 56.85 L
418.351 56.814 L
419.313 56.779 L
420.276 56.748 L
421.238 56.719 L
422.2 56.693 L
423.162 56.67 L
424.125 56.649 L
425.087 56.631 L
426.049 56.615 L
427.012 56.602 L
427.974 56.592 L
428.936 56.585 L
429.898 56.58 L
430.861 56.578 L
S
GR
GS
0.467 0.675 0.188 RC
1 LJ
0.5 LW
N
73 373.475 M
73.962 298.137 L
74.925 261.185 L
75.887 238.335 L
76.849 224.585 L
77.811 216.451 L
78.774 209.461 L
79.736 203.582 L
80.698 198.818 L
81.66 195.173 L
82.623 192.652 L
83.585 191.245 L
84.547 190.237 L
85.51 189.235 L
86.472 188.239 L
87.434 187.248 L
88.396 186.263 L
89.359 185.283 L
90.321 184.308 L
91.283 183.34 L
92.245 182.377 L
93.208 181.419 L
94.17 180.466 L
95.132 179.52 L
96.094 178.578 L
97.057 177.642 L
98.019 176.712 L
98.981 175.787 L
99.944 174.866 L
100.906 173.952 L
101.868 173.043 L
102.83 172.139 L
103.793 171.241 L
104.755 170.348 L
105.717 169.46 L
106.679 168.577 L
107.642 167.7 L
108.604 166.828 L
109.566 165.961 L
110.529 165.1 L
111.491 164.243 L
112.453 163.392 L
113.415 162.546 L
114.378 161.705 L
115.34 160.87 L
116.302 160.039 L
117.264 159.213 L
118.227 158.393 L
119.189 157.578 L
120.151 156.767 L
121.113 155.962 L
122.076 155.162 L
123.038 154.367 L
124 153.577 L
124.963 152.791 L
125.925 152.011 L
126.887 151.236 L
127.849 150.466 L
128.812 149.7 L
129.774 148.94 L
130.736 148.184 L
131.698 147.434 L
132.661 146.688 L
133.623 145.948 L
134.585 145.212 L
135.548 144.48 L
136.51 143.754 L
137.472 143.033 L
138.434 142.315 L
139.397 141.603 L
140.359 140.896 L
141.321 140.194 L
142.283 139.496 L
143.246 138.803 L
144.208 138.114 L
145.17 137.431 L
146.132 136.752 L
147.095 136.078 L
148.057 135.408 L
149.019 134.743 L
149.982 134.082 L
150.944 133.426 L
151.906 132.775 L
152.868 132.128 L
153.831 131.486 L
154.793 130.849 L
155.755 130.216 L
156.717 129.587 L
157.68 128.963 L
158.642 128.343 L
159.604 127.728 L
160.567 127.118 L
161.529 126.511 L
162.491 125.909 L
163.453 125.312 L
164.416 124.719 L
165.378 124.13 L
166.34 123.546 L
167.302 122.966 L
168.265 122.39 L
169.227 121.819 L
170.189 121.251 L
171.151 120.689 L
172.114 120.13 L
173.076 119.576 L
174.038 119.026 L
175.001 118.48 L
175.963 117.939 L
176.925 117.401 L
177.887 116.868 L
178.85 116.339 L
179.812 115.814 L
180.774 115.294 L
181.736 114.777 L
182.699 114.264 L
183.661 113.756 L
184.623 113.251 L
185.586 112.752 L
186.548 112.255 L
187.51 111.763 L
188.472 111.275 L
189.435 110.791 L
190.397 110.311 L
191.359 109.835 L
192.321 109.362 L
193.284 108.894 L
194.246 108.43 L
195.208 107.969 L
196.17 107.512 L
197.133 107.06 L
198.095 106.611 L
199.057 106.166 L
200.02 105.725 L
200.982 105.288 L
201.944 104.855 L
202.906 104.425 L
203.869 103.999 L
204.831 103.577 L
205.793 103.159 L
206.755 102.744 L
207.718 102.333 L
208.68 101.926 L
209.642 101.523 L
210.605 101.123 L
211.567 100.727 L
212.529 100.335 L
213.491 99.945 L
214.454 99.561 L
215.416 99.179 L
216.378 98.801 L
217.34 98.427 L
218.303 98.056 L
219.265 97.688 L
220.227 97.324 L
221.189 96.964 L
222.152 96.608 L
223.114 96.254 L
224.076 95.905 L
225.039 95.558 L
226.001 95.215 L
226.963 94.876 L
227.925 94.54 L
228.888 94.207 L
229.85 93.878 L
230.812 93.552 L
231.774 93.229 L
232.737 92.91 L
233.699 92.595 L
234.661 92.282 L
235.624 91.973 L
236.586 91.667 L
237.548 91.364 L
238.51 91.064 L
239.473 90.768 L
240.435 90.475 L
241.397 90.186 L
242.359 89.899 L
243.322 89.615 L
244.284 89.335 L
245.246 89.058 L
246.208 88.784 L
247.171 88.513 L
248.133 88.246 L
249.095 87.981 L
250.058 87.719 L
251.02 87.461 L
251.982 87.206 L
252.944 86.953 L
253.907 86.703 L
254.869 86.457 L
255.831 86.214 L
256.793 85.973 L
257.756 85.735 L
258.718 85.501 L
259.68 85.269 L
260.643 85.04 L
261.605 84.815 L
262.567 84.592 L
263.529 84.372 L
264.492 84.154 L
265.454 83.94 L
266.416 83.729 L
267.378 83.52 L
268.341 83.314 L
269.303 83.111 L
270.265 82.91 L
271.228 82.713 L
272.19 82.517 L
273.152 82.325 L
274.114 82.136 L
275.077 81.949 L
276.039 81.765 L
277.001 81.583 L
277.963 81.404 L
278.926 81.229 L
279.888 81.055 L
280.85 80.884 L
281.812 80.715 L
282.775 80.55 L
283.737 80.387 L
284.699 80.226 L
285.662 80.067 L
286.624 79.912 L
287.586 79.759 L
288.548 79.608 L
289.511 79.46 L
290.473 79.314 L
291.435 79.171 L
292.397 79.03 L
293.36 78.891 L
294.322 78.755 L
295.284 78.621 L
296.247 78.49 L
297.209 78.361 L
298.171 78.235 L
299.133 78.11 L
300.096 77.988 L
301.058 77.869 L
302.02 77.751 L
302.982 77.636 L
303.945 77.523 L
304.907 77.412 L
305.869 77.304 L
306.831 77.198 L
307.794 77.093 L
308.756 76.992 L
309.718 76.892 L
310.681 76.794 L
311.643 76.698 L
312.605 76.605 L
313.567 76.514 L
314.53 76.425 L
315.492 76.338 L
316.454 76.253 L
317.416 76.17 L
318.379 76.089 L
319.341 76.009 L
320.303 75.933 L
321.266 75.858 L
322.228 75.785 L
323.19 75.714 L
324.152 75.644 L
325.115 75.577 L
326.077 75.512 L
327.039 75.449 L
328.001 75.387 L
328.964 75.327 L
329.926 75.269 L
330.888 75.214 L
331.85 75.16 L
332.813 75.107 L
333.775 75.057 L
334.737 75.008 L
335.7 74.961 L
336.662 74.915 L
337.624 74.872 L
338.586 74.83 L
339.549 74.79 L
340.511 74.751 L
341.473 74.714 L
342.435 74.679 L
343.398 74.646 L
344.36 74.614 L
345.322 74.584 L
346.285 74.555 L
347.247 74.528 L
348.209 74.502 L
349.171 74.479 L
350.134 74.456 L
351.096 74.436 L
352.058 74.416 L
353.02 74.398 L
353.983 74.382 L
354.945 74.367 L
355.907 74.354 L
356.869 74.342 L
357.832 74.331 L
358.794 74.322 L
359.756 74.314 L
360.719 74.307 L
361.681 74.302 L
362.643 74.299 L
363.605 74.296 L
364.568 74.295 L
S
GR
GS
0.302 0.745 0.933 RC
[10 6] 0 setdash
2 LJ
0.5 LW
N
73.881 290.109 M
74.843 257.457 L
75.805 233.684 L
76.768 224.595 L
77.73 217.487 L
78.692 211.714 L
79.654 207.101 L
80.617 203.471 L
81.579 200.647 L
82.541 198.454 L
83.503 196.664 L
84.466 194.999 L
85.428 193.43 L
86.39 191.955 L
87.352 190.567 L
88.315 189.264 L
89.277 188.04 L
90.239 186.891 L
91.202 185.812 L
92.164 184.799 L
93.126 183.847 L
94.088 182.952 L
95.051 182.109 L
96.013 181.313 L
96.975 180.56 L
97.937 179.846 L
98.9 179.166 L
99.862 178.515 L
100.824 177.889 L
101.787 177.283 L
102.749 176.694 L
103.711 176.115 L
104.673 175.543 L
105.636 174.974 L
106.598 174.401 L
107.56 173.823 L
108.522 173.24 L
109.485 172.657 L
110.447 172.075 L
111.409 171.494 L
112.371 170.914 L
113.334 170.334 L
114.296 169.755 L
115.258 169.177 L
116.221 168.6 L
117.183 168.024 L
118.145 167.448 L
119.107 166.873 L
120.07 166.299 L
121.032 165.725 L
121.994 165.153 L
122.956 164.581 L
123.919 164.01 L
124.881 163.439 L
125.843 162.87 L
126.806 162.301 L
127.768 161.734 L
128.73 161.166 L
129.692 160.6 L
130.655 160.035 L
131.617 159.47 L
132.579 158.907 L
133.541 158.344 L
134.504 157.782 L
135.466 157.222 L
136.428 156.661 L
137.39 156.102 L
138.353 155.544 L
139.315 154.986 L
140.277 154.429 L
141.24 153.874 L
142.202 153.319 L
143.164 152.765 L
144.126 152.212 L
145.089 151.66 L
146.051 151.109 L
147.013 150.558 L
147.975 150.009 L
148.938 149.461 L
149.9 148.913 L
150.862 148.366 L
151.825 147.821 L
152.787 147.276 L
153.749 146.733 L
154.711 146.19 L
155.674 145.649 L
156.636 145.108 L
157.598 144.568 L
158.56 144.03 L
159.523 143.492 L
160.485 142.956 L
161.447 142.42 L
162.41 141.885 L
163.372 141.352 L
164.334 140.819 L
165.296 140.287 L
166.259 139.757 L
167.221 139.227 L
168.183 138.699 L
169.145 138.172 L
170.108 137.645 L
171.07 137.12 L
172.032 136.596 L
172.994 136.073 L
173.957 135.551 L
174.919 135.03 L
175.881 134.51 L
176.844 133.991 L
177.806 133.474 L
178.768 132.957 L
179.73 132.442 L
180.693 131.928 L
181.655 131.415 L
182.617 130.902 L
183.579 130.392 L
184.542 129.882 L
185.504 129.373 L
186.466 128.866 L
187.428 128.359 L
188.391 127.855 L
189.353 127.351 L
190.315 126.848 L
191.278 126.346 L
192.24 125.846 L
193.202 125.347 L
194.164 124.849 L
195.127 124.352 L
196.089 123.856 L
197.051 123.362 L
198.013 122.869 L
198.976 122.377 L
199.938 121.886 L
200.9 121.397 L
201.863 120.908 L
202.825 120.422 L
203.787 119.935 L
204.749 119.451 L
205.712 118.968 L
206.674 118.486 L
207.636 118.005 L
208.598 117.526 L
209.561 117.048 L
210.523 116.571 L
211.485 116.095 L
212.447 115.621 L
213.41 115.149 L
214.372 114.677 L
215.334 114.207 L
216.297 113.737 L
217.259 113.27 L
218.221 112.803 L
219.183 112.338 L
220.146 111.875 L
221.108 111.413 L
222.07 110.952 L
223.032 110.492 L
223.995 110.034 L
224.957 109.578 L
225.919 109.122 L
226.882 108.668 L
227.844 108.215 L
228.806 107.764 L
229.768 107.314 L
230.731 106.866 L
231.693 106.419 L
232.655 105.973 L
233.617 105.529 L
234.58 105.086 L
235.542 104.644 L
236.504 104.205 L
237.467 103.766 L
238.429 103.329 L
239.391 102.894 L
240.353 102.459 L
241.316 102.027 L
242.278 101.596 L
243.24 101.166 L
244.202 100.737 L
245.165 100.311 L
246.127 99.886 L
247.089 99.462 L
248.051 99.04 L
249.014 98.619 L
249.976 98.199 L
250.938 97.782 L
251.901 97.366 L
252.863 96.951 L
253.825 96.538 L
254.787 96.126 L
255.75 95.716 L
256.712 95.308 L
257.674 94.901 L
258.636 94.495 L
259.599 94.092 L
260.561 93.69 L
261.523 93.289 L
262.486 92.89 L
263.448 92.492 L
264.41 92.097 L
265.372 91.702 L
266.335 91.309 L
267.297 90.919 L
268.259 90.529 L
269.221 90.141 L
270.184 89.755 L
271.146 89.37 L
272.108 88.988 L
273.07 88.606 L
274.033 88.226 L
274.995 87.849 L
275.957 87.472 L
276.92 87.098 L
277.882 86.725 L
278.844 86.353 L
279.806 85.984 L
280.769 85.616 L
281.731 85.249 L
282.693 84.885 L
283.655 84.522 L
284.618 84.161 L
285.58 83.802 L
286.542 83.444 L
287.505 83.088 L
288.467 82.734 L
289.429 82.381 L
290.391 82.031 L
291.354 81.682 L
292.316 81.335 L
293.278 80.989 L
294.24 80.646 L
295.203 80.304 L
296.165 79.963 L
297.127 79.625 L
298.089 79.288 L
299.052 78.953 L
300.014 78.62 L
300.976 78.29 L
301.939 77.96 L
302.901 77.632 L
303.863 77.307 L
304.825 76.983 L
305.788 76.66 L
306.75 76.34 L
307.712 76.022 L
308.674 75.705 L
309.637 75.39 L
310.599 75.078 L
311.561 74.767 L
312.524 74.457 L
313.486 74.15 L
314.448 73.845 L
315.41 73.541 L
316.373 73.239 L
317.335 72.94 L
318.297 72.642 L
319.259 72.346 L
320.222 72.052 L
321.184 71.76 L
322.146 71.47 L
323.108 71.181 L
324.071 70.895 L
325.033 70.611 L
325.995 70.329 L
326.958 70.048 L
327.92 69.77 L
328.882 69.493 L
329.844 69.219 L
330.807 68.946 L
331.769 68.675 L
332.731 68.406 L
333.693 68.14 L
334.656 67.875 L
335.618 67.612 L
336.58 67.352 L
337.543 67.093 L
338.505 66.837 L
339.467 66.582 L
340.429 66.329 L
341.392 66.078 L
342.354 65.83 L
343.316 65.584 L
344.278 65.339 L
345.241 65.097 L
346.203 64.856 L
347.165 64.619 L
348.128 64.382 L
349.09 64.148 L
350.052 63.916 L
351.014 63.686 L
351.977 63.458 L
352.939 63.233 L
353.901 63.009 L
354.863 62.787 L
355.826 62.568 L
356.788 62.35 L
357.75 62.135 L
358.712 61.922 L
359.675 61.711 L
360.637 61.502 L
361.599 61.296 L
362.562 61.092 L
363.524 60.889 L
364.486 60.689 L
365.448 60.491 L
366.411 60.295 L
367.373 60.101 L
368.335 59.91 L
369.297 59.721 L
370.26 59.534 L
371.222 59.349 L
372.184 59.166 L
373.146 58.985 L
374.109 58.807 L
375.071 58.631 L
376.033 58.458 L
376.996 58.286 L
377.958 58.117 L
378.92 57.95 L
379.882 57.785 L
380.845 57.623 L
381.807 57.462 L
382.769 57.304 L
383.731 57.148 L
384.694 56.995 L
385.656 56.844 L
386.618 56.694 L
387.581 56.548 L
388.543 56.404 L
389.505 56.261 L
390.467 56.122 L
391.43 55.984 L
392.392 55.849 L
393.354 55.717 L
394.316 55.586 L
395.279 55.458 L
396.241 55.333 L
397.203 55.209 L
398.165 55.088 L
399.128 54.97 L
400.09 54.853 L
401.052 54.739 L
402.015 54.627 L
402.977 54.518 L
403.939 54.412 L
404.901 54.307 L
405.864 54.205 L
406.826 54.106 L
407.788 54.008 L
408.75 53.914 L
409.713 53.822 L
410.675 53.731 L
411.637 53.644 L
412.6 53.559 L
413.562 53.476 L
414.524 53.396 L
415.486 53.318 L
416.449 53.243 L
417.411 53.171 L
418.373 53.1 L
419.335 53.032 L
420.298 52.966 L
421.26 52.904 L
422.222 52.843 L
423.185 52.786 L
424.147 52.73 L
425.109 52.677 L
426.071 52.627 L
427.034 52.579 L
427.996 52.533 L
428.958 52.491 L
429.92 52.45 L
430.883 52.413 L
431.845 52.377 L
432.807 52.345 L
433.769 52.315 L
434.732 52.287 L
435.694 52.262 L
436.656 52.239 L
437.619 52.22 L
438.581 52.203 L
439.543 52.188 L
440.505 52.176 L
441.468 52.167 L
442.43 52.159 L
443.392 52.155 L
444.354 52.154 L
S
GR
GS
0.635 0.078 0.184 RC
[10 6] 0 setdash
2 LJ
0.5 LW
N
73.807 298.891 M
74.769 261.826 L
75.731 236.434 L
76.693 222.3 L
77.656 211.424 L
78.618 203.672 L
79.58 198.796 L
80.542 194.974 L
81.505 191.613 L
82.467 188.695 L
83.429 186.205 L
84.391 184.127 L
85.354 182.444 L
86.316 181.14 L
87.278 180.195 L
88.241 179.384 L
89.203 178.576 L
90.165 177.772 L
91.127 176.972 L
92.09 176.175 L
93.052 175.381 L
94.014 174.592 L
94.976 173.805 L
95.939 173.022 L
96.901 172.242 L
97.863 171.467 L
98.826 170.694 L
99.788 169.925 L
100.75 169.159 L
101.712 168.396 L
102.675 167.637 L
103.637 166.882 L
104.599 166.13 L
105.561 165.381 L
106.524 164.636 L
107.486 163.894 L
108.448 163.156 L
109.41 162.421 L
110.373 161.689 L
111.335 160.96 L
112.297 160.236 L
113.26 159.514 L
114.222 158.796 L
115.184 158.081 L
116.146 157.37 L
117.109 156.661 L
118.071 155.957 L
119.033 155.255 L
119.995 154.557 L
120.958 153.862 L
121.92 153.171 L
122.882 152.482 L
123.845 151.798 L
124.807 151.116 L
125.769 150.438 L
126.731 149.762 L
127.694 149.09 L
128.656 148.422 L
129.618 147.756 L
130.58 147.094 L
131.543 146.435 L
132.505 145.78 L
133.467 145.128 L
134.43 144.479 L
135.392 143.833 L
136.354 143.19 L
137.316 142.551 L
138.279 141.915 L
139.241 141.282 L
140.203 140.652 L
141.165 140.025 L
142.128 139.402 L
143.09 138.782 L
144.052 138.164 L
145.014 137.551 L
145.977 136.94 L
146.939 136.332 L
147.901 135.728 L
148.864 135.127 L
149.826 134.529 L
150.788 133.934 L
151.75 133.341 L
152.713 132.752 L
153.675 132.167 L
154.637 131.584 L
155.599 131.005 L
156.562 130.428 L
157.524 129.855 L
158.486 129.285 L
159.449 128.718 L
160.411 128.153 L
161.373 127.593 L
162.335 127.034 L
163.298 126.48 L
164.26 125.928 L
165.222 125.379 L
166.184 124.833 L
167.147 124.291 L
168.109 123.751 L
169.071 123.214 L
170.033 122.681 L
170.996 122.15 L
171.958 121.622 L
172.92 121.097 L
173.883 120.576 L
174.845 120.057 L
175.807 119.542 L
176.769 119.028 L
177.732 118.519 L
178.694 118.012 L
179.656 117.508 L
180.618 117.007 L
181.581 116.509 L
182.543 116.014 L
183.505 115.522 L
184.468 115.032 L
185.43 114.546 L
186.392 114.063 L
187.354 113.582 L
188.317 113.104 L
189.279 112.63 L
190.241 112.158 L
191.203 111.689 L
192.166 111.223 L
193.128 110.76 L
194.09 110.3 L
195.052 109.842 L
196.015 109.387 L
196.977 108.936 L
197.939 108.486 L
198.902 108.041 L
199.864 107.597 L
200.826 107.156 L
201.788 106.719 L
202.751 106.284 L
203.713 105.852 L
204.675 105.423 L
205.637 104.996 L
206.6 104.572 L
207.562 104.151 L
208.524 103.733 L
209.487 103.318 L
210.449 102.905 L
211.411 102.495 L
212.373 102.088 L
213.336 101.684 L
214.298 101.282 L
215.26 100.883 L
216.222 100.487 L
217.185 100.094 L
218.147 99.703 L
219.109 99.315 L
220.071 98.929 L
221.034 98.546 L
221.996 98.166 L
222.958 97.789 L
223.921 97.415 L
224.883 97.042 L
225.845 96.673 L
226.807 96.307 L
227.77 95.943 L
228.732 95.581 L
229.694 95.222 L
230.656 94.866 L
231.619 94.513 L
232.581 94.162 L
233.543 93.814 L
234.506 93.469 L
235.468 93.125 L
236.43 92.785 L
237.392 92.447 L
238.355 92.112 L
239.317 91.779 L
240.279 91.449 L
241.241 91.122 L
242.204 90.797 L
243.166 90.475 L
244.128 90.155 L
245.09 89.837 L
246.053 89.523 L
247.015 89.211 L
247.977 88.901 L
248.94 88.594 L
249.902 88.289 L
250.864 87.987 L
251.826 87.687 L
252.789 87.39 L
253.751 87.095 L
254.713 86.803 L
255.675 86.514 L
256.638 86.226 L
257.6 85.941 L
258.562 85.659 L
259.525 85.379 L
260.487 85.102 L
261.449 84.827 L
262.411 84.554 L
263.374 84.285 L
264.336 84.017 L
265.298 83.752 L
266.26 83.488 L
267.223 83.228 L
268.185 82.97 L
269.147 82.714 L
270.109 82.461 L
271.072 82.21 L
272.034 81.962 L
272.996 81.716 L
273.959 81.472 L
274.921 81.23 L
275.883 80.991 L
276.845 80.755 L
277.808 80.52 L
278.77 80.288 L
279.732 80.058 L
280.694 79.831 L
281.657 79.606 L
282.619 79.383 L
283.581 79.163 L
284.544 78.945 L
285.506 78.729 L
286.468 78.515 L
287.43 78.304 L
288.393 78.095 L
289.355 77.888 L
290.317 77.684 L
291.279 77.482 L
292.242 77.282 L
293.204 77.084 L
294.166 76.889 L
295.128 76.695 L
296.091 76.504 L
297.053 76.315 L
298.015 76.129 L
298.978 75.944 L
299.94 75.762 L
300.902 75.582 L
301.864 75.405 L
302.827 75.229 L
303.789 75.055 L
304.751 74.884 L
305.713 74.715 L
306.676 74.548 L
307.638 74.383 L
308.6 74.221 L
309.563 74.06 L
310.525 73.902 L
311.487 73.745 L
312.449 73.592 L
313.412 73.439 L
314.374 73.289 L
315.336 73.142 L
316.298 72.996 L
317.261 72.853 L
318.223 72.711 L
319.185 72.572 L
320.147 72.435 L
321.11 72.299 L
322.072 72.166 L
323.034 72.035 L
323.997 71.906 L
324.959 71.779 L
325.921 71.654 L
326.883 71.531 L
327.846 71.41 L
328.808 71.291 L
329.77 71.174 L
330.732 71.059 L
331.695 70.947 L
332.657 70.836 L
333.619 70.727 L
334.582 70.62 L
335.544 70.515 L
336.506 70.412 L
337.468 70.311 L
338.431 70.212 L
339.393 70.115 L
340.355 70.02 L
341.317 69.927 L
342.28 69.836 L
343.242 69.746 L
344.204 69.659 L
345.167 69.574 L
346.129 69.49 L
347.091 69.408 L
348.053 69.329 L
349.016 69.251 L
349.978 69.175 L
350.94 69.101 L
351.902 69.029 L
352.865 68.959 L
353.827 68.89 L
354.789 68.824 L
355.751 68.759 L
356.714 68.697 L
357.676 68.636 L
358.638 68.576 L
359.601 68.519 L
360.563 68.463 L
361.525 68.41 L
362.487 68.358 L
363.45 68.308 L
364.412 68.26 L
365.374 68.213 L
366.336 68.169 L
367.299 68.126 L
368.261 68.085 L
369.223 68.045 L
370.185 68.008 L
371.148 67.972 L
372.11 67.938 L
373.072 67.906 L
374.035 67.875 L
374.997 67.846 L
375.959 67.819 L
376.921 67.794 L
377.884 67.77 L
378.846 67.748 L
379.808 67.728 L
380.77 67.709 L
381.733 67.693 L
382.695 67.677 L
383.657 67.664 L
384.62 67.652 L
385.582 67.642 L
386.544 67.634 L
387.506 67.627 L
388.469 67.621 L
389.431 67.618 L
390.393 67.616 L
S
GR
GS
0 0.447 0.741 RC
[10 6] 0 setdash
2 LJ
0.5 LW
N
73.774 294.645 M
74.737 259.559 L
75.699 235.289 L
76.661 226.048 L
77.623 218.608 L
78.586 212.635 L
79.548 207.925 L
80.51 204.274 L
81.473 201.479 L
82.435 199.337 L
83.397 197.505 L
84.359 195.783 L
85.322 194.165 L
86.284 192.647 L
87.246 191.223 L
88.208 189.889 L
89.171 188.639 L
90.133 187.468 L
91.095 186.372 L
92.058 185.345 L
93.02 184.382 L
93.982 183.478 L
94.944 182.627 L
95.907 181.826 L
96.869 181.069 L
97.831 180.349 L
98.793 179.664 L
99.756 179.008 L
100.718 178.374 L
101.68 177.759 L
102.642 177.157 L
103.605 176.564 L
104.567 175.973 L
105.529 175.381 L
106.492 174.782 L
107.454 174.18 L
108.416 173.58 L
109.378 172.981 L
110.341 172.382 L
111.303 171.784 L
112.265 171.187 L
113.227 170.591 L
114.19 169.996 L
115.152 169.402 L
116.114 168.809 L
117.077 168.217 L
118.039 167.625 L
119.001 167.035 L
119.963 166.445 L
120.926 165.856 L
121.888 165.269 L
122.85 164.683 L
123.812 164.097 L
124.775 163.512 L
125.737 162.928 L
126.699 162.346 L
127.661 161.764 L
128.624 161.183 L
129.586 160.603 L
130.548 160.024 L
131.511 159.446 L
132.473 158.869 L
133.435 158.294 L
134.397 157.719 L
135.36 157.145 L
136.322 156.573 L
137.284 156.001 L
138.246 155.43 L
139.209 154.861 L
140.171 154.293 L
141.133 153.725 L
142.096 153.159 L
143.058 152.593 L
144.02 152.029 L
144.982 151.466 L
145.945 150.904 L
146.907 150.343 L
147.869 149.784 L
148.831 149.225 L
149.794 148.667 L
150.756 148.11 L
151.718 147.555 L
152.68 147.001 L
153.643 146.448 L
154.605 145.896 L
155.567 145.345 L
156.53 144.795 L
157.492 144.247 L
158.454 143.7 L
159.416 143.154 L
160.379 142.609 L
161.341 142.065 L
162.303 141.522 L
163.265 140.981 L
164.228 140.44 L
165.19 139.901 L
166.152 139.364 L
167.115 138.827 L
168.077 138.292 L
169.039 137.758 L
170.001 137.225 L
170.964 136.693 L
171.926 136.163 L
172.888 135.634 L
173.85 135.106 L
174.813 134.579 L
175.775 134.054 L
176.737 133.529 L
177.699 133.007 L
178.662 132.485 L
179.624 131.965 L
180.586 131.446 L
181.549 130.928 L
182.511 130.412 L
183.473 129.897 L
184.435 129.383 L
185.398 128.871 L
186.36 128.359 L
187.322 127.85 L
188.284 127.342 L
189.247 126.835 L
190.209 126.329 L
191.171 125.825 L
192.134 125.322 L
193.096 124.82 L
194.058 124.319 L
195.02 123.821 L
195.983 123.323 L
196.945 122.828 L
197.907 122.333 L
198.869 121.839 L
199.832 121.347 L
200.794 120.857 L
201.756 120.368 L
202.719 119.88 L
203.681 119.394 L
204.643 118.909 L
205.605 118.426 L
206.568 117.944 L
207.53 117.464 L
208.492 116.985 L
209.454 116.507 L
210.417 116.032 L
211.379 115.557 L
212.341 115.084 L
213.303 114.612 L
214.266 114.142 L
215.228 113.674 L
216.19 113.206 L
217.153 112.741 L
218.115 112.277 L
219.077 111.814 L
220.039 111.353 L
221.002 110.894 L
221.964 110.436 L
222.926 109.979 L
223.888 109.525 L
224.851 109.072 L
225.813 108.62 L
226.775 108.169 L
227.738 107.721 L
228.7 107.274 L
229.662 106.828 L
230.624 106.385 L
231.587 105.942 L
232.549 105.502 L
233.511 105.063 L
234.473 104.625 L
235.436 104.19 L
236.398 103.755 L
237.36 103.323 L
238.322 102.892 L
239.285 102.462 L
240.247 102.035 L
241.209 101.609 L
242.172 101.184 L
243.134 100.762 L
244.096 100.341 L
245.058 99.921 L
246.021 99.504 L
246.983 99.088 L
247.945 98.673 L
248.907 98.261 L
249.87 97.85 L
250.832 97.441 L
251.794 97.033 L
252.757 96.628 L
253.719 96.224 L
254.681 95.822 L
255.643 95.421 L
256.606 95.022 L
257.568 94.625 L
258.53 94.23 L
259.492 93.837 L
260.455 93.445 L
261.417 93.054 L
262.379 92.666 L
263.341 92.28 L
264.304 91.895 L
265.266 91.512 L
266.228 91.131 L
267.191 90.752 L
268.153 90.374 L
269.115 89.999 L
270.077 89.625 L
271.04 89.253 L
272.002 88.883 L
272.964 88.514 L
273.926 88.148 L
274.889 87.783 L
275.851 87.421 L
276.813 87.059 L
277.776 86.7 L
278.738 86.343 L
279.7 85.988 L
280.662 85.634 L
281.625 85.283 L
282.587 84.933 L
283.549 84.586 L
284.511 84.239 L
285.474 83.895 L
286.436 83.553 L
287.398 83.214 L
288.36 82.875 L
289.323 82.539 L
290.285 82.205 L
291.247 81.872 L
292.21 81.542 L
293.172 81.214 L
294.134 80.887 L
295.096 80.562 L
296.059 80.24 L
297.021 79.919 L
297.983 79.601 L
298.945 79.284 L
299.908 78.969 L
300.87 78.657 L
301.832 78.347 L
302.795 78.038 L
303.757 77.731 L
304.719 77.427 L
305.681 77.124 L
306.644 76.824 L
307.606 76.525 L
308.568 76.229 L
309.53 75.935 L
310.493 75.643 L
311.455 75.352 L
312.417 75.064 L
313.379 74.778 L
314.342 74.494 L
315.304 74.212 L
316.266 73.932 L
317.229 73.654 L
318.191 73.379 L
319.153 73.105 L
320.115 72.834 L
321.078 72.565 L
322.04 72.298 L
323.002 72.033 L
323.964 71.77 L
324.927 71.509 L
325.889 71.25 L
326.851 70.994 L
327.814 70.739 L
328.776 70.488 L
329.738 70.238 L
330.7 69.99 L
331.663 69.744 L
332.625 69.501 L
333.587 69.26 L
334.549 69.021 L
335.512 68.784 L
336.474 68.549 L
337.436 68.317 L
338.398 68.086 L
339.361 67.859 L
340.323 67.633 L
341.285 67.409 L
342.248 67.188 L
343.21 66.969 L
344.172 66.753 L
345.134 66.538 L
346.097 66.326 L
347.059 66.116 L
348.021 65.909 L
348.983 65.703 L
349.946 65.5 L
350.908 65.299 L
351.87 65.101 L
352.833 64.905 L
353.795 64.711 L
354.757 64.519 L
355.719 64.33 L
356.682 64.143 L
357.644 63.959 L
358.606 63.777 L
359.568 63.596 L
360.531 63.419 L
361.493 63.244 L
362.455 63.071 L
363.417 62.901 L
364.38 62.733 L
365.342 62.567 L
366.304 62.404 L
367.267 62.243 L
368.229 62.085 L
369.191 61.928 L
370.153 61.775 L
371.116 61.623 L
372.078 61.475 L
373.04 61.328 L
374.002 61.184 L
374.965 61.043 L
375.927 60.904 L
376.889 60.767 L
377.852 60.633 L
378.814 60.501 L
379.776 60.372 L
380.738 60.245 L
381.701 60.121 L
382.663 59.998 L
383.625 59.879 L
384.587 59.762 L
385.55 59.648 L
386.512 59.536 L
387.474 59.427 L
388.436 59.32 L
389.399 59.216 L
390.361 59.114 L
391.323 59.014 L
392.286 58.918 L
393.248 58.823 L
394.21 58.732 L
395.172 58.643 L
396.135 58.556 L
397.097 58.472 L
398.059 58.391 L
399.021 58.312 L
399.984 58.236 L
400.946 58.162 L
401.908 58.091 L
402.871 58.023 L
403.833 57.957 L
404.795 57.894 L
405.757 57.833 L
406.72 57.775 L
407.682 57.719 L
408.644 57.667 L
409.606 57.617 L
410.569 57.57 L
411.531 57.525 L
412.493 57.483 L
413.456 57.443 L
414.418 57.406 L
415.38 57.372 L
416.342 57.341 L
417.305 57.312 L
418.267 57.286 L
419.229 57.262 L
420.191 57.242 L
421.154 57.224 L
422.116 57.209 L
423.078 57.196 L
424.04 57.186 L
425.003 57.179 L
425.965 57.174 L
426.927 57.173 L
S
GR
GS
0.851 0.325 0.098 RC
[10 6] 0 setdash
2 LJ
0.5 LW
N
73.03 374 M
73.992 297.89 L
74.955 261.28 L
75.917 238.677 L
76.879 225.135 L
77.841 216.868 L
78.804 209.737 L
79.766 203.742 L
80.728 198.901 L
81.69 195.227 L
82.653 192.739 L
83.615 191.406 L
84.577 190.394 L
85.539 189.388 L
86.502 188.387 L
87.464 187.392 L
88.426 186.402 L
89.389 185.418 L
90.351 184.44 L
91.313 183.467 L
92.275 182.5 L
93.238 181.539 L
94.2 180.583 L
95.162 179.632 L
96.124 178.687 L
97.087 177.748 L
98.049 176.814 L
99.011 175.885 L
99.974 174.962 L
100.936 174.044 L
101.898 173.132 L
102.86 172.225 L
103.823 171.323 L
104.785 170.427 L
105.747 169.536 L
106.709 168.651 L
107.672 167.771 L
108.634 166.896 L
109.596 166.026 L
110.559 165.162 L
111.521 164.303 L
112.483 163.449 L
113.445 162.6 L
114.408 161.757 L
115.37 160.919 L
116.332 160.086 L
117.294 159.258 L
118.257 158.436 L
119.219 157.618 L
120.181 156.806 L
121.143 155.998 L
122.106 155.197 L
123.068 154.399 L
124.03 153.607 L
124.993 152.82 L
125.955 152.038 L
126.917 151.261 L
127.879 150.489 L
128.842 149.723 L
129.804 148.961 L
130.766 148.204 L
131.728 147.452 L
132.691 146.705 L
133.653 145.962 L
134.615 145.225 L
135.578 144.493 L
136.54 143.765 L
137.502 143.042 L
138.464 142.324 L
139.427 141.611 L
140.389 140.903 L
141.351 140.2 L
142.313 139.501 L
143.276 138.807 L
144.238 138.118 L
145.2 137.433 L
146.162 136.754 L
147.125 136.079 L
148.087 135.408 L
149.049 134.742 L
150.012 134.082 L
150.974 133.425 L
151.936 132.774 L
152.898 132.126 L
153.861 131.484 L
154.823 130.846 L
155.785 130.213 L
156.747 129.584 L
157.71 128.959 L
158.672 128.34 L
159.634 127.724 L
160.597 127.113 L
161.559 126.507 L
162.521 125.905 L
163.483 125.308 L
164.446 124.715 L
165.408 124.126 L
166.37 123.542 L
167.332 122.963 L
168.295 122.387 L
169.257 121.816 L
170.219 121.249 L
171.181 120.687 L
172.144 120.129 L
173.106 119.575 L
174.068 119.025 L
175.031 118.48 L
175.993 117.939 L
176.955 117.402 L
177.917 116.87 L
178.88 116.341 L
179.842 115.817 L
180.804 115.297 L
181.766 114.781 L
182.729 114.269 L
183.691 113.762 L
184.653 113.259 L
185.616 112.759 L
186.578 112.264 L
187.54 111.773 L
188.502 111.286 L
189.465 110.802 L
190.427 110.323 L
191.389 109.848 L
192.351 109.377 L
193.314 108.91 L
194.276 108.447 L
195.238 107.988 L
196.2 107.532 L
197.163 107.081 L
198.125 106.633 L
199.087 106.19 L
200.05 105.75 L
201.012 105.314 L
201.974 104.882 L
202.936 104.453 L
203.899 104.029 L
204.861 103.608 L
205.823 103.192 L
206.785 102.779 L
207.748 102.37 L
208.71 101.964 L
209.672 101.562 L
210.635 101.164 L
211.597 100.769 L
212.559 100.378 L
213.521 99.991 L
214.484 99.608 L
215.446 99.228 L
216.408 98.852 L
217.37 98.479 L
218.333 98.11 L
219.295 97.745 L
220.257 97.383 L
221.219 97.024 L
222.182 96.669 L
223.144 96.318 L
224.106 95.97 L
225.069 95.625 L
226.031 95.284 L
226.993 94.947 L
227.955 94.613 L
228.918 94.282 L
229.88 93.955 L
230.842 93.631 L
231.804 93.31 L
232.767 92.993 L
233.729 92.68 L
234.691 92.369 L
235.654 92.062 L
236.616 91.758 L
237.578 91.458 L
238.54 91.16 L
239.503 90.866 L
240.465 90.575 L
241.427 90.287 L
242.389 90.003 L
243.352 89.722 L
244.314 89.444 L
245.276 89.169 L
246.238 88.897 L
247.201 88.628 L
248.163 88.363 L
249.125 88.101 L
250.088 87.841 L
251.05 87.585 L
252.012 87.331 L
252.974 87.081 L
253.937 86.834 L
254.899 86.59 L
255.861 86.349 L
256.823 86.111 L
257.786 85.876 L
258.748 85.643 L
259.71 85.414 L
260.673 85.187 L
261.635 84.964 L
262.597 84.743 L
263.559 84.525 L
264.522 84.31 L
265.484 84.098 L
266.446 83.889 L
267.408 83.683 L
268.371 83.479 L
269.333 83.279 L
270.295 83.081 L
271.258 82.885 L
272.22 82.693 L
273.182 82.502 L
274.144 82.316 L
275.107 82.131 L
276.069 81.949 L
277.031 81.77 L
277.993 81.594 L
278.956 81.42 L
279.918 81.248 L
280.88 81.08 L
281.842 80.914 L
282.805 80.75 L
283.767 80.59 L
284.729 80.431 L
285.692 80.275 L
286.654 80.122 L
287.616 79.971 L
288.578 79.822 L
289.541 79.677 L
290.503 79.533 L
291.465 79.392 L
292.427 79.253 L
293.39 79.117 L
294.352 78.983 L
295.314 78.852 L
296.277 78.723 L
297.239 78.596 L
298.201 78.471 L
299.163 78.35 L
300.126 78.23 L
301.088 78.112 L
302.05 77.997 L
303.012 77.884 L
303.975 77.773 L
304.937 77.664 L
305.899 77.558 L
306.861 77.454 L
307.824 77.352 L
308.786 77.252 L
309.748 77.155 L
310.711 77.059 L
311.673 76.966 L
312.635 76.874 L
313.597 76.785 L
314.56 76.698 L
315.522 76.613 L
316.484 76.53 L
317.446 76.448 L
318.409 76.369 L
319.371 76.292 L
320.333 76.218 L
321.296 76.144 L
322.258 76.073 L
323.22 76.004 L
324.182 75.937 L
325.145 75.871 L
326.107 75.808 L
327.069 75.746 L
328.031 75.686 L
328.994 75.629 L
329.956 75.573 L
330.918 75.518 L
331.88 75.465 L
332.843 75.415 L
333.805 75.366 L
334.767 75.319 L
335.73 75.273 L
336.692 75.23 L
337.654 75.188 L
338.616 75.147 L
339.579 75.109 L
340.541 75.072 L
341.503 75.037 L
342.465 75.003 L
343.428 74.971 L
344.39 74.94 L
345.352 74.911 L
346.315 74.884 L
347.277 74.858 L
348.239 74.834 L
349.201 74.811 L
350.164 74.79 L
351.126 74.77 L
352.088 74.752 L
353.05 74.736 L
354.013 74.72 L
354.975 74.707 L
355.937 74.694 L
356.899 74.683 L
357.862 74.673 L
358.824 74.665 L
359.786 74.658 L
360.749 74.653 L
361.711 74.649 L
362.673 74.646 L
363.635 74.644 L
S
GR
GS
1 GC
N
499 366 M
499 218.5 L
327.5 218.5 L
327.5 366 L
cp
f
GR
GS
[1 0 0 1 364.5 228.25] CT
/Helvetica 13 F
GS
[1 0 0 1 0 0] CT
0 5 moveto 
1 -1 scale
(Base Run) t 
GR
GR
GS
0 0.447 0.741 RC
1 LJ
0.5 LW
N
331.5 228.25 M
361.5 228.25 L
S
GR
GS
[1 0 0 1 364.5 244.25] CT
/Helvetica 13 F
GS
[1 0 0 1 0 0] CT
0 5 moveto 
1 -1 scale
(All Frames) t 
GR
GR
GS
0.851 0.325 0.098 RC
1 LJ
0.5 LW
N
331.5 244.25 M
361.5 244.25 L
S
GR
GS
[1 0 0 1 364.5 260.25] CT
/Helvetica 13 F
GS
[1 0 0 1 0 0] CT
0 5 moveto 
1 -1 scale
(KF Only) t 
GR
GR
GS
0.929 0.694 0.125 RC
1 LJ
0.5 LW
N
331.5 260.25 M
361.5 260.25 L
S
GR
GS
[1 0 0 1 364.5 276.25] CT
/Helvetica 13 F
GS
[1 0 0 1 0 0] CT
0 5 moveto 
1 -1 scale
(GF, ARF Only) t 
GR
GR
GS
0.494 0.184 0.557 RC
1 LJ
0.5 LW
N
331.5 276.25 M
361.5 276.25 L
S
GR
GS
[1 0 0 1 364.5 292.25] CT
/Helvetica 13 F
GS
[1 0 0 1 0 0] CT
0 5 moveto 
1 -1 scale
(KF, GF, ARF Only) t 
GR
GR
GS
0.467 0.675 0.188 RC
1 LJ
0.5 LW
N
331.5 292.25 M
361.5 292.25 L
S
GR
GS
[1 0 0 1 364.5 308.25] CT
/Helvetica 13 F
GS
[1 0 0 1 0 0] CT
0 5 moveto 
1 -1 scale
(Part All Frames) t 
GR
GR
GS
0.302 0.745 0.933 RC
[10 6] 0 setdash
2 LJ
0.5 LW
N
331.5 308.25 M
361.5 308.25 L
S
GR
GS
[1 0 0 1 364.5 324.25] CT
/Helvetica 13 F
GS
[1 0 0 1 0 0] CT
0 5 moveto 
1 -1 scale
(Part KF Only) t 
GR
GR
GS
0.635 0.078 0.184 RC
[10 6] 0 setdash
2 LJ
0.5 LW
N
331.5 324.25 M
361.5 324.25 L
S
GR
GS
[1 0 0 1 364.5 340.25] CT
/Helvetica 13 F
GS
[1 0 0 1 0 0] CT
0 5 moveto 
1 -1 scale
(Part GF, ARF Only) t 
GR
GR
GS
0 0.447 0.741 RC
[10 6] 0 setdash
2 LJ
0.5 LW
N
331.5 340.25 M
361.5 340.25 L
S
GR
GS
[1 0 0 1 364.5 356.25] CT
/Helvetica 13 F
GS
[1 0 0 1 0 0] CT
0 5 moveto 
1 -1 scale
(Part KF, GF, ARF Only) t 
GR
GR
GS
0.851 0.325 0.098 RC
[10 6] 0 setdash
2 LJ
0.5 LW
N
331.5 356.25 M
361.5 356.25 L
S
GR
GS
0.149 GC
10.0 ML
0.5 LW
N
327.5 366 M
327.5 218.5 L
499 218.5 L
499 366 L
cp
S
GR
%%Trailer
%%Pages: 1
%%EOF
