%!PS-Adobe-3.0 EPSF-3.0
%%Creator: (MATLAB, The Mathworks, Inc. Version 9.11.0.1837725 \(R2021b\) Update 2. Operating System: Mac OS X)
%%Title: plots/pchip/DinnerSceneCropped_1920x1080_2997fps_10bit_420.y4m-av1-SSIM.eps
%%CreationDate: 2022-02-03T19:12:53
%%Pages: (atend)
%%BoundingBox:    22   425   525   826
%%LanguageLevel: 3
%%EndComments
%%BeginProlog
%%BeginResource: procset (Apache XML Graphics Std ProcSet) 1.2 0
%%Version: 1.2 0
%%Copyright: (Copyright 2001-2003,2010 The Apache Software Foundation. License terms: http://www.apache.org/licenses/LICENSE-2.0)
/bd{bind def}bind def
/ld{load def}bd
/GR/grestore ld
/GS/gsave ld
/RM/rmoveto ld
/C/curveto ld
/t/show ld
/L/lineto ld
/ML/setmiterlimit ld
/CT/concat ld
/f/fill ld
/N/newpath ld
/S/stroke ld
/CC/setcmykcolor ld
/A/ashow ld
/cp/closepath ld
/RC/setrgbcolor ld
/LJ/setlinejoin ld
/GC/setgray ld
/LW/setlinewidth ld
/M/moveto ld
/re {4 2 roll M
1 index 0 rlineto
0 exch rlineto
neg 0 rlineto
cp } bd
/_ctm matrix def
/_tm matrix def
/BT { _ctm currentmatrix pop matrix _tm copy pop 0 0 moveto } bd
/ET { _ctm setmatrix } bd
/iTm { _ctm setmatrix _tm concat } bd
/Tm { _tm astore pop iTm 0 0 moveto } bd
/ux 0.0 def
/uy 0.0 def
/F {
  /Tp exch def
  /Tf exch def
  Tf findfont Tp scalefont setfont
  /cf Tf def  /cs Tp def
} bd
/ULS {currentpoint /uy exch def /ux exch def} bd
/ULE {
  /Tcx currentpoint pop def
  gsave
  newpath
  cf findfont cs scalefont dup
  /FontMatrix get 0 get /Ts exch def /FontInfo get dup
  /UnderlinePosition get Ts mul /To exch def
  /UnderlineThickness get Ts mul /Tt exch def
  ux uy To add moveto  Tcx uy To add lineto
  Tt setlinewidth stroke
  grestore
} bd
/OLE {
  /Tcx currentpoint pop def
  gsave
  newpath
  cf findfont cs scalefont dup
  /FontMatrix get 0 get /Ts exch def /FontInfo get dup
  /UnderlinePosition get Ts mul /To exch def
  /UnderlineThickness get Ts mul /Tt exch def
  ux uy To add cs add moveto Tcx uy To add cs add lineto
  Tt setlinewidth stroke
  grestore
} bd
/SOE {
  /Tcx currentpoint pop def
  gsave
  newpath
  cf findfont cs scalefont dup
  /FontMatrix get 0 get /Ts exch def /FontInfo get dup
  /UnderlinePosition get Ts mul /To exch def
  /UnderlineThickness get Ts mul /Tt exch def
  ux uy To add cs 10 mul 26 idiv add moveto Tcx uy To add cs 10 mul 26 idiv add lineto
  Tt setlinewidth stroke
  grestore
} bd
/QT {
/Y22 exch store
/X22 exch store
/Y21 exch store
/X21 exch store
currentpoint
/Y21 load 2 mul add 3 div exch
/X21 load 2 mul add 3 div exch
/X21 load 2 mul /X22 load add 3 div
/Y21 load 2 mul /Y22 load add 3 div
/X22 load /Y22 load curveto
} bd
/SSPD {
dup length /d exch dict def
{
/v exch def
/k exch def
currentpagedevice k known {
/cpdv currentpagedevice k get def
v cpdv ne {
/upd false def
/nullv v type /nulltype eq def
/nullcpdv cpdv type /nulltype eq def
nullv nullcpdv or
{
/upd true def
} {
/sametype v type cpdv type eq def
sametype {
v type /arraytype eq {
/vlen v length def
/cpdvlen cpdv length def
vlen cpdvlen eq {
0 1 vlen 1 sub {
/i exch def
/obj v i get def
/cpdobj cpdv i get def
obj cpdobj ne {
/upd true def
exit
} if
} for
} {
/upd true def
} ifelse
} {
v type /dicttype eq {
v {
/dv exch def
/dk exch def
/cpddv cpdv dk get def
dv cpddv ne {
/upd true def
exit
} if
} forall
} {
/upd true def
} ifelse
} ifelse
} if
} ifelse
upd true eq {
d k v put
} if
} if
} if
} forall
d length 0 gt {
d setpagedevice
} if
} bd
/RE { % /NewFontName [NewEncodingArray] /FontName RE -
  findfont dup length dict begin
  {
    1 index /FID ne
    {def} {pop pop} ifelse
  } forall
  /Encoding exch def
  /FontName 1 index def
  currentdict definefont pop
  end
} bind def
%%EndResource
%%BeginResource: procset (Apache XML Graphics EPS ProcSet) 1.0 0
%%Version: 1.0 0
%%Copyright: (Copyright 2002-2003 The Apache Software Foundation. License terms: http://www.apache.org/licenses/LICENSE-2.0)
/BeginEPSF { %def
/b4_Inc_state save def         % Save state for cleanup
/dict_count countdictstack def % Count objects on dict stack
/op_count count 1 sub def      % Count objects on operand stack
userdict begin                 % Push userdict on dict stack
/showpage { } def              % Redefine showpage, { } = null proc
0 setgray 0 setlinecap         % Prepare graphics state
1 setlinewidth 0 setlinejoin
10 setmiterlimit [ ] 0 setdash newpath
/languagelevel where           % If level not equal to 1 then
{pop languagelevel             % set strokeadjust and
1 ne                           % overprint to their defaults.
{false setstrokeadjust false setoverprint
} if
} if
} bd
/EndEPSF { %def
count op_count sub {pop} repeat            % Clean up stacks
countdictstack dict_count sub {end} repeat
b4_Inc_state restore
} bd
%%EndResource
%FOPBeginFontDict
%%IncludeResource: font Courier-Oblique
%%IncludeResource: font Courier-BoldOblique
%%IncludeResource: font Courier-Bold
%%IncludeResource: font ZapfDingbats
%%IncludeResource: font Symbol
%%IncludeResource: font Helvetica
%%IncludeResource: font Helvetica-Oblique
%%IncludeResource: font Helvetica-Bold
%%IncludeResource: font Helvetica-BoldOblique
%%IncludeResource: font Times-Roman
%%IncludeResource: font Times-Italic
%%IncludeResource: font Times-Bold
%%IncludeResource: font Times-BoldItalic
%%IncludeResource: font Courier
%FOPEndFontDict
%%BeginResource: encoding WinAnsiEncoding
/WinAnsiEncoding [
/.notdef /.notdef /.notdef /.notdef /.notdef
/.notdef /.notdef /.notdef /.notdef /.notdef
/.notdef /.notdef /.notdef /.notdef /.notdef
/.notdef /.notdef /.notdef /.notdef /.notdef
/.notdef /.notdef /.notdef /.notdef /.notdef
/.notdef /.notdef /.notdef /.notdef /.notdef
/.notdef /.notdef /space /exclam /quotedbl
/numbersign /dollar /percent /ampersand /quotesingle
/parenleft /parenright /asterisk /plus /comma
/hyphen /period /slash /zero /one
/two /three /four /five /six
/seven /eight /nine /colon /semicolon
/less /equal /greater /question /at
/A /B /C /D /E
/F /G /H /I /J
/K /L /M /N /O
/P /Q /R /S /T
/U /V /W /X /Y
/Z /bracketleft /backslash /bracketright /asciicircum
/underscore /quoteleft /a /b /c
/d /e /f /g /h
/i /j /k /l /m
/n /o /p /q /r
/s /t /u /v /w
/x /y /z /braceleft /bar
/braceright /asciitilde /bullet /Euro /bullet
/quotesinglbase /florin /quotedblbase /ellipsis /dagger
/daggerdbl /circumflex /perthousand /Scaron /guilsinglleft
/OE /bullet /Zcaron /bullet /bullet
/quoteleft /quoteright /quotedblleft /quotedblright /bullet
/endash /emdash /asciitilde /trademark /scaron
/guilsinglright /oe /bullet /zcaron /Ydieresis
/space /exclamdown /cent /sterling /currency
/yen /brokenbar /section /dieresis /copyright
/ordfeminine /guillemotleft /logicalnot /sfthyphen /registered
/macron /degree /plusminus /twosuperior /threesuperior
/acute /mu /paragraph /middot /cedilla
/onesuperior /ordmasculine /guillemotright /onequarter /onehalf
/threequarters /questiondown /Agrave /Aacute /Acircumflex
/Atilde /Adieresis /Aring /AE /Ccedilla
/Egrave /Eacute /Ecircumflex /Edieresis /Igrave
/Iacute /Icircumflex /Idieresis /Eth /Ntilde
/Ograve /Oacute /Ocircumflex /Otilde /Odieresis
/multiply /Oslash /Ugrave /Uacute /Ucircumflex
/Udieresis /Yacute /Thorn /germandbls /agrave
/aacute /acircumflex /atilde /adieresis /aring
/ae /ccedilla /egrave /eacute /ecircumflex
/edieresis /igrave /iacute /icircumflex /idieresis
/eth /ntilde /ograve /oacute /ocircumflex
/otilde /odieresis /divide /oslash /ugrave
/uacute /ucircumflex /udieresis /yacute /thorn
/ydieresis
] def
%%EndResource
%FOPBeginFontReencode
/Courier-Oblique findfont
dup length dict begin
  {1 index /FID ne {def} {pop pop} ifelse} forall
  /Encoding WinAnsiEncoding def
  currentdict
end
/Courier-Oblique exch definefont pop
/Courier-BoldOblique findfont
dup length dict begin
  {1 index /FID ne {def} {pop pop} ifelse} forall
  /Encoding WinAnsiEncoding def
  currentdict
end
/Courier-BoldOblique exch definefont pop
/Courier-Bold findfont
dup length dict begin
  {1 index /FID ne {def} {pop pop} ifelse} forall
  /Encoding WinAnsiEncoding def
  currentdict
end
/Courier-Bold exch definefont pop
/Helvetica findfont
dup length dict begin
  {1 index /FID ne {def} {pop pop} ifelse} forall
  /Encoding WinAnsiEncoding def
  currentdict
end
/Helvetica exch definefont pop
/Helvetica-Oblique findfont
dup length dict begin
  {1 index /FID ne {def} {pop pop} ifelse} forall
  /Encoding WinAnsiEncoding def
  currentdict
end
/Helvetica-Oblique exch definefont pop
/Helvetica-Bold findfont
dup length dict begin
  {1 index /FID ne {def} {pop pop} ifelse} forall
  /Encoding WinAnsiEncoding def
  currentdict
end
/Helvetica-Bold exch definefont pop
/Helvetica-BoldOblique findfont
dup length dict begin
  {1 index /FID ne {def} {pop pop} ifelse} forall
  /Encoding WinAnsiEncoding def
  currentdict
end
/Helvetica-BoldOblique exch definefont pop
/Times-Roman findfont
dup length dict begin
  {1 index /FID ne {def} {pop pop} ifelse} forall
  /Encoding WinAnsiEncoding def
  currentdict
end
/Times-Roman exch definefont pop
/Times-Italic findfont
dup length dict begin
  {1 index /FID ne {def} {pop pop} ifelse} forall
  /Encoding WinAnsiEncoding def
  currentdict
end
/Times-Italic exch definefont pop
/Times-Bold findfont
dup length dict begin
  {1 index /FID ne {def} {pop pop} ifelse} forall
  /Encoding WinAnsiEncoding def
  currentdict
end
/Times-Bold exch definefont pop
/Times-BoldItalic findfont
dup length dict begin
  {1 index /FID ne {def} {pop pop} ifelse} forall
  /Encoding WinAnsiEncoding def
  currentdict
end
/Times-BoldItalic exch definefont pop
/Courier findfont
dup length dict begin
  {1 index /FID ne {def} {pop pop} ifelse} forall
  /Encoding WinAnsiEncoding def
  currentdict
end
/Courier exch definefont pop
%FOPEndFontReencode
%%EndProlog
%%Page: 1 1
%%PageBoundingBox: 0 0 1120 840
%%BeginPageSetup
[1 0 0 -1 0 840] CT
%%EndPageSetup
GS
1 GC
N
0 0 1120 840 re
f
GR
GS
1 GC
N
73 374 M
507 374 L
507 31.5 L
73 31.5 L
cp
f
GR
GS
0.149 GC
2 setlinecap
1 LJ
0.5 LW
N
73 374 M
507 374 L
S
GR
GS
0.149 GC
2 setlinecap
1 LJ
0.5 LW
N
73 31.5 M
507 31.5 L
S
GR
GS
0.149 GC
2 setlinecap
1 LJ
0.5 LW
N
118.708 374 M
118.708 369.66 L
S
GR
GS
0.149 GC
2 setlinecap
1 LJ
0.5 LW
N
166.822 374 M
166.822 369.66 L
S
GR
GS
0.149 GC
2 setlinecap
1 LJ
0.5 LW
N
214.935 374 M
214.935 369.66 L
S
GR
GS
0.149 GC
2 setlinecap
1 LJ
0.5 LW
N
263.049 374 M
263.049 369.66 L
S
GR
GS
0.149 GC
2 setlinecap
1 LJ
0.5 LW
N
311.162 374 M
311.162 369.66 L
S
GR
GS
0.149 GC
2 setlinecap
1 LJ
0.5 LW
N
359.276 374 M
359.276 369.66 L
S
GR
GS
0.149 GC
2 setlinecap
1 LJ
0.5 LW
N
407.389 374 M
407.389 369.66 L
S
GR
GS
0.149 GC
2 setlinecap
1 LJ
0.5 LW
N
455.503 374 M
455.503 369.66 L
S
GR
GS
0.149 GC
2 setlinecap
1 LJ
0.5 LW
N
503.616 374 M
503.616 369.66 L
S
GR
GS
0.149 GC
2 setlinecap
1 LJ
0.5 LW
N
118.708 31.5 M
118.708 35.84 L
S
GR
GS
0.149 GC
2 setlinecap
1 LJ
0.5 LW
N
166.822 31.5 M
166.822 35.84 L
S
GR
GS
0.149 GC
2 setlinecap
1 LJ
0.5 LW
N
214.935 31.5 M
214.935 35.84 L
S
GR
GS
0.149 GC
2 setlinecap
1 LJ
0.5 LW
N
263.049 31.5 M
263.049 35.84 L
S
GR
GS
0.149 GC
2 setlinecap
1 LJ
0.5 LW
N
311.162 31.5 M
311.162 35.84 L
S
GR
GS
0.149 GC
2 setlinecap
1 LJ
0.5 LW
N
359.276 31.5 M
359.276 35.84 L
S
GR
GS
0.149 GC
2 setlinecap
1 LJ
0.5 LW
N
407.389 31.5 M
407.389 35.84 L
S
GR
GS
0.149 GC
2 setlinecap
1 LJ
0.5 LW
N
455.503 31.5 M
455.503 35.84 L
S
GR
GS
0.149 GC
2 setlinecap
1 LJ
0.5 LW
N
503.616 31.5 M
503.616 35.84 L
S
GR
GS
0.149 GC
2 setlinecap
1 LJ
0.5 LW
N
80.218 374 M
80.218 371.83 L
S
GR
GS
0.149 GC
2 setlinecap
1 LJ
0.5 LW
N
89.84 374 M
89.84 371.83 L
S
GR
GS
0.149 GC
2 setlinecap
1 LJ
0.5 LW
N
99.463 374 M
99.463 371.83 L
S
GR
GS
0.149 GC
2 setlinecap
1 LJ
0.5 LW
N
109.086 374 M
109.086 371.83 L
S
GR
GS
0.149 GC
2 setlinecap
1 LJ
0.5 LW
N
128.331 374 M
128.331 371.83 L
S
GR
GS
0.149 GC
2 setlinecap
1 LJ
0.5 LW
N
137.954 374 M
137.954 371.83 L
S
GR
GS
0.149 GC
2 setlinecap
1 LJ
0.5 LW
N
147.577 374 M
147.577 371.83 L
S
GR
GS
0.149 GC
2 setlinecap
1 LJ
0.5 LW
N
157.199 374 M
157.199 371.83 L
S
GR
GS
0.149 GC
2 setlinecap
1 LJ
0.5 LW
N
176.445 374 M
176.445 371.83 L
S
GR
GS
0.149 GC
2 setlinecap
1 LJ
0.5 LW
N
186.067 374 M
186.067 371.83 L
S
GR
GS
0.149 GC
2 setlinecap
1 LJ
0.5 LW
N
195.69 374 M
195.69 371.83 L
S
GR
GS
0.149 GC
2 setlinecap
1 LJ
0.5 LW
N
205.313 374 M
205.313 371.83 L
S
GR
GS
0.149 GC
2 setlinecap
1 LJ
0.5 LW
N
224.558 374 M
224.558 371.83 L
S
GR
GS
0.149 GC
2 setlinecap
1 LJ
0.5 LW
N
234.181 374 M
234.181 371.83 L
S
GR
GS
0.149 GC
2 setlinecap
1 LJ
0.5 LW
N
243.803 374 M
243.803 371.83 L
S
GR
GS
0.149 GC
2 setlinecap
1 LJ
0.5 LW
N
253.426 374 M
253.426 371.83 L
S
GR
GS
0.149 GC
2 setlinecap
1 LJ
0.5 LW
N
272.672 374 M
272.672 371.83 L
S
GR
GS
0.149 GC
2 setlinecap
1 LJ
0.5 LW
N
282.294 374 M
282.294 371.83 L
S
GR
GS
0.149 GC
2 setlinecap
1 LJ
0.5 LW
N
291.917 374 M
291.917 371.83 L
S
GR
GS
0.149 GC
2 setlinecap
1 LJ
0.5 LW
N
301.54 374 M
301.54 371.83 L
S
GR
GS
0.149 GC
2 setlinecap
1 LJ
0.5 LW
N
320.785 374 M
320.785 371.83 L
S
GR
GS
0.149 GC
2 setlinecap
1 LJ
0.5 LW
N
330.408 374 M
330.408 371.83 L
S
GR
GS
0.149 GC
2 setlinecap
1 LJ
0.5 LW
N
340.03 374 M
340.03 371.83 L
S
GR
GS
0.149 GC
2 setlinecap
1 LJ
0.5 LW
N
349.653 374 M
349.653 371.83 L
S
GR
GS
0.149 GC
2 setlinecap
1 LJ
0.5 LW
N
368.898 374 M
368.898 371.83 L
S
GR
GS
0.149 GC
2 setlinecap
1 LJ
0.5 LW
N
378.521 374 M
378.521 371.83 L
S
GR
GS
0.149 GC
2 setlinecap
1 LJ
0.5 LW
N
388.144 374 M
388.144 371.83 L
S
GR
GS
0.149 GC
2 setlinecap
1 LJ
0.5 LW
N
397.767 374 M
397.767 371.83 L
S
GR
GS
0.149 GC
2 setlinecap
1 LJ
0.5 LW
N
417.012 374 M
417.012 371.83 L
S
GR
GS
0.149 GC
2 setlinecap
1 LJ
0.5 LW
N
426.635 374 M
426.635 371.83 L
S
GR
GS
0.149 GC
2 setlinecap
1 LJ
0.5 LW
N
436.257 374 M
436.257 371.83 L
S
GR
GS
0.149 GC
2 setlinecap
1 LJ
0.5 LW
N
445.88 374 M
445.88 371.83 L
S
GR
GS
0.149 GC
2 setlinecap
1 LJ
0.5 LW
N
465.125 374 M
465.125 371.83 L
S
GR
GS
0.149 GC
2 setlinecap
1 LJ
0.5 LW
N
474.748 374 M
474.748 371.83 L
S
GR
GS
0.149 GC
2 setlinecap
1 LJ
0.5 LW
N
484.371 374 M
484.371 371.83 L
S
GR
GS
0.149 GC
2 setlinecap
1 LJ
0.5 LW
N
493.994 374 M
493.994 371.83 L
S
GR
GS
0.149 GC
2 setlinecap
1 LJ
0.5 LW
N
80.218 31.5 M
80.218 33.67 L
S
GR
GS
0.149 GC
2 setlinecap
1 LJ
0.5 LW
N
89.84 31.5 M
89.84 33.67 L
S
GR
GS
0.149 GC
2 setlinecap
1 LJ
0.5 LW
N
99.463 31.5 M
99.463 33.67 L
S
GR
GS
0.149 GC
2 setlinecap
1 LJ
0.5 LW
N
109.086 31.5 M
109.086 33.67 L
S
GR
GS
0.149 GC
2 setlinecap
1 LJ
0.5 LW
N
128.331 31.5 M
128.331 33.67 L
S
GR
GS
0.149 GC
2 setlinecap
1 LJ
0.5 LW
N
137.954 31.5 M
137.954 33.67 L
S
GR
GS
0.149 GC
2 setlinecap
1 LJ
0.5 LW
N
147.577 31.5 M
147.577 33.67 L
S
GR
GS
0.149 GC
2 setlinecap
1 LJ
0.5 LW
N
157.199 31.5 M
157.199 33.67 L
S
GR
GS
0.149 GC
2 setlinecap
1 LJ
0.5 LW
N
176.445 31.5 M
176.445 33.67 L
S
GR
GS
0.149 GC
2 setlinecap
1 LJ
0.5 LW
N
186.067 31.5 M
186.067 33.67 L
S
GR
GS
0.149 GC
2 setlinecap
1 LJ
0.5 LW
N
195.69 31.5 M
195.69 33.67 L
S
GR
GS
0.149 GC
2 setlinecap
1 LJ
0.5 LW
N
205.313 31.5 M
205.313 33.67 L
S
GR
GS
0.149 GC
2 setlinecap
1 LJ
0.5 LW
N
224.558 31.5 M
224.558 33.67 L
S
GR
GS
0.149 GC
2 setlinecap
1 LJ
0.5 LW
N
234.181 31.5 M
234.181 33.67 L
S
GR
GS
0.149 GC
2 setlinecap
1 LJ
0.5 LW
N
243.803 31.5 M
243.803 33.67 L
S
GR
GS
0.149 GC
2 setlinecap
1 LJ
0.5 LW
N
253.426 31.5 M
253.426 33.67 L
S
GR
GS
0.149 GC
2 setlinecap
1 LJ
0.5 LW
N
272.672 31.5 M
272.672 33.67 L
S
GR
GS
0.149 GC
2 setlinecap
1 LJ
0.5 LW
N
282.294 31.5 M
282.294 33.67 L
S
GR
GS
0.149 GC
2 setlinecap
1 LJ
0.5 LW
N
291.917 31.5 M
291.917 33.67 L
S
GR
GS
0.149 GC
2 setlinecap
1 LJ
0.5 LW
N
301.54 31.5 M
301.54 33.67 L
S
GR
GS
0.149 GC
2 setlinecap
1 LJ
0.5 LW
N
320.785 31.5 M
320.785 33.67 L
S
GR
GS
0.149 GC
2 setlinecap
1 LJ
0.5 LW
N
330.408 31.5 M
330.408 33.67 L
S
GR
GS
0.149 GC
2 setlinecap
1 LJ
0.5 LW
N
340.03 31.5 M
340.03 33.67 L
S
GR
GS
0.149 GC
2 setlinecap
1 LJ
0.5 LW
N
349.653 31.5 M
349.653 33.67 L
S
GR
GS
0.149 GC
2 setlinecap
1 LJ
0.5 LW
N
368.898 31.5 M
368.898 33.67 L
S
GR
GS
0.149 GC
2 setlinecap
1 LJ
0.5 LW
N
378.521 31.5 M
378.521 33.67 L
S
GR
GS
0.149 GC
2 setlinecap
1 LJ
0.5 LW
N
388.144 31.5 M
388.144 33.67 L
S
GR
GS
0.149 GC
2 setlinecap
1 LJ
0.5 LW
N
397.767 31.5 M
397.767 33.67 L
S
GR
GS
0.149 GC
2 setlinecap
1 LJ
0.5 LW
N
417.012 31.5 M
417.012 33.67 L
S
GR
GS
0.149 GC
2 setlinecap
1 LJ
0.5 LW
N
426.635 31.5 M
426.635 33.67 L
S
GR
GS
0.149 GC
2 setlinecap
1 LJ
0.5 LW
N
436.257 31.5 M
436.257 33.67 L
S
GR
GS
0.149 GC
2 setlinecap
1 LJ
0.5 LW
N
445.88 31.5 M
445.88 33.67 L
S
GR
GS
0.149 GC
2 setlinecap
1 LJ
0.5 LW
N
465.125 31.5 M
465.125 33.67 L
S
GR
GS
0.149 GC
2 setlinecap
1 LJ
0.5 LW
N
474.748 31.5 M
474.748 33.67 L
S
GR
GS
0.149 GC
2 setlinecap
1 LJ
0.5 LW
N
484.371 31.5 M
484.371 33.67 L
S
GR
GS
0.149 GC
2 setlinecap
1 LJ
0.5 LW
N
493.994 31.5 M
493.994 33.67 L
S
GR
GS
[1 0 0 1 118.70846 378.80002] CT
0.149 GC
/Helvetica 14 F
GS
[1 0 0 1 0 0] CT
-16 14 moveto 
1 -1 scale
(1000) t 
GR
GR
GS
[1 0 0 1 166.82193 378.80002] CT
0.149 GC
/Helvetica 14 F
GS
[1 0 0 1 0 0] CT
-16 14 moveto 
1 -1 scale
(2000) t 
GR
GR
GS
[1 0 0 1 214.93539 378.80002] CT
0.149 GC
/Helvetica 14 F
GS
[1 0 0 1 0 0] CT
-16 14 moveto 
1 -1 scale
(3000) t 
GR
GR
GS
[1 0 0 1 263.04886 378.80002] CT
0.149 GC
/Helvetica 14 F
GS
[1 0 0 1 0 0] CT
-16 14 moveto 
1 -1 scale
(4000) t 
GR
GR
GS
[1 0 0 1 311.16235 378.80002] CT
0.149 GC
/Helvetica 14 F
GS
[1 0 0 1 0 0] CT
-16 14 moveto 
1 -1 scale
(5000) t 
GR
GR
GS
[1 0 0 1 359.27582 378.80002] CT
0.149 GC
/Helvetica 14 F
GS
[1 0 0 1 0 0] CT
-16 14 moveto 
1 -1 scale
(6000) t 
GR
GR
GS
[1 0 0 1 407.38928 378.80002] CT
0.149 GC
/Helvetica 14 F
GS
[1 0 0 1 0 0] CT
-16 14 moveto 
1 -1 scale
(7000) t 
GR
GR
GS
[1 0 0 1 455.50275 378.80002] CT
0.149 GC
/Helvetica 14 F
GS
[1 0 0 1 0 0] CT
-16 14 moveto 
1 -1 scale
(8000) t 
GR
GR
GS
[1 0 0 1 503.61621 378.80002] CT
0.149 GC
/Helvetica 14 F
GS
[1 0 0 1 0 0] CT
-16 14 moveto 
1 -1 scale
(9000) t 
GR
GR
GS
[1 0 0 1 290.00021 396.29999] CT
0.149 GC
/Helvetica 15.4 F
GS
[1 0 0 1 0 0] CT
-42 15 moveto 
1 -1 scale
(Bitrate\(kb/s\)) t 
GR
GR
GS
0.149 GC
2 setlinecap
1 LJ
0.5 LW
N
73 374 M
73 31.5 L
S
GR
GS
0.149 GC
2 setlinecap
1 LJ
0.5 LW
N
507 374 M
507 31.5 L
S
GR
GS
0.149 GC
2 setlinecap
1 LJ
0.5 LW
N
73 345.903 M
77.34 345.903 L
S
GR
GS
0.149 GC
2 setlinecap
1 LJ
0.5 LW
N
73 312.213 M
77.34 312.213 L
S
GR
GS
0.149 GC
2 setlinecap
1 LJ
0.5 LW
N
73 278.524 M
77.34 278.524 L
S
GR
GS
0.149 GC
2 setlinecap
1 LJ
0.5 LW
N
73 244.834 M
77.34 244.834 L
S
GR
GS
0.149 GC
2 setlinecap
1 LJ
0.5 LW
N
73 211.144 M
77.34 211.144 L
S
GR
GS
0.149 GC
2 setlinecap
1 LJ
0.5 LW
N
73 177.454 M
77.34 177.454 L
S
GR
GS
0.149 GC
2 setlinecap
1 LJ
0.5 LW
N
73 143.764 M
77.34 143.764 L
S
GR
GS
0.149 GC
2 setlinecap
1 LJ
0.5 LW
N
73 110.075 M
77.34 110.075 L
S
GR
GS
0.149 GC
2 setlinecap
1 LJ
0.5 LW
N
73 76.385 M
77.34 76.385 L
S
GR
GS
0.149 GC
2 setlinecap
1 LJ
0.5 LW
N
73 42.695 M
77.34 42.695 L
S
GR
GS
0.149 GC
2 setlinecap
1 LJ
0.5 LW
N
507 345.903 M
502.66 345.903 L
S
GR
GS
0.149 GC
2 setlinecap
1 LJ
0.5 LW
N
507 312.213 M
502.66 312.213 L
S
GR
GS
0.149 GC
2 setlinecap
1 LJ
0.5 LW
N
507 278.524 M
502.66 278.524 L
S
GR
GS
0.149 GC
2 setlinecap
1 LJ
0.5 LW
N
507 244.834 M
502.66 244.834 L
S
GR
GS
0.149 GC
2 setlinecap
1 LJ
0.5 LW
N
507 211.144 M
502.66 211.144 L
S
GR
GS
0.149 GC
2 setlinecap
1 LJ
0.5 LW
N
507 177.454 M
502.66 177.454 L
S
GR
GS
0.149 GC
2 setlinecap
1 LJ
0.5 LW
N
507 143.764 M
502.66 143.764 L
S
GR
GS
0.149 GC
2 setlinecap
1 LJ
0.5 LW
N
507 110.075 M
502.66 110.075 L
S
GR
GS
0.149 GC
2 setlinecap
1 LJ
0.5 LW
N
507 76.385 M
502.66 76.385 L
S
GR
GS
0.149 GC
2 setlinecap
1 LJ
0.5 LW
N
507 42.695 M
502.66 42.695 L
S
GR
GS
0.149 GC
2 setlinecap
1 LJ
0.5 LW
N
73 372.855 M
75.17 372.855 L
S
GR
GS
0.149 GC
2 setlinecap
1 LJ
0.5 LW
N
73 366.117 M
75.17 366.117 L
S
GR
GS
0.149 GC
2 setlinecap
1 LJ
0.5 LW
N
73 359.379 M
75.17 359.379 L
S
GR
GS
0.149 GC
2 setlinecap
1 LJ
0.5 LW
N
73 352.641 M
75.17 352.641 L
S
GR
GS
0.149 GC
2 setlinecap
1 LJ
0.5 LW
N
73 339.165 M
75.17 339.165 L
S
GR
GS
0.149 GC
2 setlinecap
1 LJ
0.5 LW
N
73 332.427 M
75.17 332.427 L
S
GR
GS
0.149 GC
2 setlinecap
1 LJ
0.5 LW
N
73 325.689 M
75.17 325.689 L
S
GR
GS
0.149 GC
2 setlinecap
1 LJ
0.5 LW
N
73 318.951 M
75.17 318.951 L
S
GR
GS
0.149 GC
2 setlinecap
1 LJ
0.5 LW
N
73 305.475 M
75.17 305.475 L
S
GR
GS
0.149 GC
2 setlinecap
1 LJ
0.5 LW
N
73 298.737 M
75.17 298.737 L
S
GR
GS
0.149 GC
2 setlinecap
1 LJ
0.5 LW
N
73 291.999 M
75.17 291.999 L
S
GR
GS
0.149 GC
2 setlinecap
1 LJ
0.5 LW
N
73 285.262 M
75.17 285.262 L
S
GR
GS
0.149 GC
2 setlinecap
1 LJ
0.5 LW
N
73 271.786 M
75.17 271.786 L
S
GR
GS
0.149 GC
2 setlinecap
1 LJ
0.5 LW
N
73 265.048 M
75.17 265.048 L
S
GR
GS
0.149 GC
2 setlinecap
1 LJ
0.5 LW
N
73 258.31 M
75.17 258.31 L
S
GR
GS
0.149 GC
2 setlinecap
1 LJ
0.5 LW
N
73 251.572 M
75.17 251.572 L
S
GR
GS
0.149 GC
2 setlinecap
1 LJ
0.5 LW
N
73 238.096 M
75.17 238.096 L
S
GR
GS
0.149 GC
2 setlinecap
1 LJ
0.5 LW
N
73 231.358 M
75.17 231.358 L
S
GR
GS
0.149 GC
2 setlinecap
1 LJ
0.5 LW
N
73 224.62 M
75.17 224.62 L
S
GR
GS
0.149 GC
2 setlinecap
1 LJ
0.5 LW
N
73 217.882 M
75.17 217.882 L
S
GR
GS
0.149 GC
2 setlinecap
1 LJ
0.5 LW
N
73 204.406 M
75.17 204.406 L
S
GR
GS
0.149 GC
2 setlinecap
1 LJ
0.5 LW
N
73 197.668 M
75.17 197.668 L
S
GR
GS
0.149 GC
2 setlinecap
1 LJ
0.5 LW
N
73 190.93 M
75.17 190.93 L
S
GR
GS
0.149 GC
2 setlinecap
1 LJ
0.5 LW
N
73 184.192 M
75.17 184.192 L
S
GR
GS
0.149 GC
2 setlinecap
1 LJ
0.5 LW
N
73 170.716 M
75.17 170.716 L
S
GR
GS
0.149 GC
2 setlinecap
1 LJ
0.5 LW
N
73 163.978 M
75.17 163.978 L
S
GR
GS
0.149 GC
2 setlinecap
1 LJ
0.5 LW
N
73 157.24 M
75.17 157.24 L
S
GR
GS
0.149 GC
2 setlinecap
1 LJ
0.5 LW
N
73 150.502 M
75.17 150.502 L
S
GR
GS
0.149 GC
2 setlinecap
1 LJ
0.5 LW
N
73 137.026 M
75.17 137.026 L
S
GR
GS
0.149 GC
2 setlinecap
1 LJ
0.5 LW
N
73 130.288 M
75.17 130.288 L
S
GR
GS
0.149 GC
2 setlinecap
1 LJ
0.5 LW
N
73 123.551 M
75.17 123.551 L
S
GR
GS
0.149 GC
2 setlinecap
1 LJ
0.5 LW
N
73 116.813 M
75.17 116.813 L
S
GR
GS
0.149 GC
2 setlinecap
1 LJ
0.5 LW
N
73 103.337 M
75.17 103.337 L
S
GR
GS
0.149 GC
2 setlinecap
1 LJ
0.5 LW
N
73 96.599 M
75.17 96.599 L
S
GR
GS
0.149 GC
2 setlinecap
1 LJ
0.5 LW
N
73 89.861 M
75.17 89.861 L
S
GR
GS
0.149 GC
2 setlinecap
1 LJ
0.5 LW
N
73 83.123 M
75.17 83.123 L
S
GR
GS
0.149 GC
2 setlinecap
1 LJ
0.5 LW
N
73 69.647 M
75.17 69.647 L
S
GR
GS
0.149 GC
2 setlinecap
1 LJ
0.5 LW
N
73 62.909 M
75.17 62.909 L
S
GR
GS
0.149 GC
2 setlinecap
1 LJ
0.5 LW
N
73 56.171 M
75.17 56.171 L
S
GR
GS
0.149 GC
2 setlinecap
1 LJ
0.5 LW
N
73 49.433 M
75.17 49.433 L
S
GR
GS
0.149 GC
2 setlinecap
1 LJ
0.5 LW
N
73 35.957 M
75.17 35.957 L
S
GR
GS
0.149 GC
2 setlinecap
1 LJ
0.5 LW
N
507 372.855 M
504.83 372.855 L
S
GR
GS
0.149 GC
2 setlinecap
1 LJ
0.5 LW
N
507 366.117 M
504.83 366.117 L
S
GR
GS
0.149 GC
2 setlinecap
1 LJ
0.5 LW
N
507 359.379 M
504.83 359.379 L
S
GR
GS
0.149 GC
2 setlinecap
1 LJ
0.5 LW
N
507 352.641 M
504.83 352.641 L
S
GR
GS
0.149 GC
2 setlinecap
1 LJ
0.5 LW
N
507 339.165 M
504.83 339.165 L
S
GR
GS
0.149 GC
2 setlinecap
1 LJ
0.5 LW
N
507 332.427 M
504.83 332.427 L
S
GR
GS
0.149 GC
2 setlinecap
1 LJ
0.5 LW
N
507 325.689 M
504.83 325.689 L
S
GR
GS
0.149 GC
2 setlinecap
1 LJ
0.5 LW
N
507 318.951 M
504.83 318.951 L
S
GR
GS
0.149 GC
2 setlinecap
1 LJ
0.5 LW
N
507 305.475 M
504.83 305.475 L
S
GR
GS
0.149 GC
2 setlinecap
1 LJ
0.5 LW
N
507 298.737 M
504.83 298.737 L
S
GR
GS
0.149 GC
2 setlinecap
1 LJ
0.5 LW
N
507 291.999 M
504.83 291.999 L
S
GR
GS
0.149 GC
2 setlinecap
1 LJ
0.5 LW
N
507 285.262 M
504.83 285.262 L
S
GR
GS
0.149 GC
2 setlinecap
1 LJ
0.5 LW
N
507 271.786 M
504.83 271.786 L
S
GR
GS
0.149 GC
2 setlinecap
1 LJ
0.5 LW
N
507 265.048 M
504.83 265.048 L
S
GR
GS
0.149 GC
2 setlinecap
1 LJ
0.5 LW
N
507 258.31 M
504.83 258.31 L
S
GR
GS
0.149 GC
2 setlinecap
1 LJ
0.5 LW
N
507 251.572 M
504.83 251.572 L
S
GR
GS
0.149 GC
2 setlinecap
1 LJ
0.5 LW
N
507 238.096 M
504.83 238.096 L
S
GR
GS
0.149 GC
2 setlinecap
1 LJ
0.5 LW
N
507 231.358 M
504.83 231.358 L
S
GR
GS
0.149 GC
2 setlinecap
1 LJ
0.5 LW
N
507 224.62 M
504.83 224.62 L
S
GR
GS
0.149 GC
2 setlinecap
1 LJ
0.5 LW
N
507 217.882 M
504.83 217.882 L
S
GR
GS
0.149 GC
2 setlinecap
1 LJ
0.5 LW
N
507 204.406 M
504.83 204.406 L
S
GR
GS
0.149 GC
2 setlinecap
1 LJ
0.5 LW
N
507 197.668 M
504.83 197.668 L
S
GR
GS
0.149 GC
2 setlinecap
1 LJ
0.5 LW
N
507 190.93 M
504.83 190.93 L
S
GR
GS
0.149 GC
2 setlinecap
1 LJ
0.5 LW
N
507 184.192 M
504.83 184.192 L
S
GR
GS
0.149 GC
2 setlinecap
1 LJ
0.5 LW
N
507 170.716 M
504.83 170.716 L
S
GR
GS
0.149 GC
2 setlinecap
1 LJ
0.5 LW
N
507 163.978 M
504.83 163.978 L
S
GR
GS
0.149 GC
2 setlinecap
1 LJ
0.5 LW
N
507 157.24 M
504.83 157.24 L
S
GR
GS
0.149 GC
2 setlinecap
1 LJ
0.5 LW
N
507 150.502 M
504.83 150.502 L
S
GR
GS
0.149 GC
2 setlinecap
1 LJ
0.5 LW
N
507 137.026 M
504.83 137.026 L
S
GR
GS
0.149 GC
2 setlinecap
1 LJ
0.5 LW
N
507 130.288 M
504.83 130.288 L
S
GR
GS
0.149 GC
2 setlinecap
1 LJ
0.5 LW
N
507 123.551 M
504.83 123.551 L
S
GR
GS
0.149 GC
2 setlinecap
1 LJ
0.5 LW
N
507 116.813 M
504.83 116.813 L
S
GR
GS
0.149 GC
2 setlinecap
1 LJ
0.5 LW
N
507 103.337 M
504.83 103.337 L
S
GR
GS
0.149 GC
2 setlinecap
1 LJ
0.5 LW
N
507 96.599 M
504.83 96.599 L
S
GR
GS
0.149 GC
2 setlinecap
1 LJ
0.5 LW
N
507 89.861 M
504.83 89.861 L
S
GR
GS
0.149 GC
2 setlinecap
1 LJ
0.5 LW
N
507 83.123 M
504.83 83.123 L
S
GR
GS
0.149 GC
2 setlinecap
1 LJ
0.5 LW
N
507 69.647 M
504.83 69.647 L
S
GR
GS
0.149 GC
2 setlinecap
1 LJ
0.5 LW
N
507 62.909 M
504.83 62.909 L
S
GR
GS
0.149 GC
2 setlinecap
1 LJ
0.5 LW
N
507 56.171 M
504.83 56.171 L
S
GR
GS
0.149 GC
2 setlinecap
1 LJ
0.5 LW
N
507 49.433 M
504.83 49.433 L
S
GR
GS
0.149 GC
2 setlinecap
1 LJ
0.5 LW
N
507 35.957 M
504.83 35.957 L
S
GR
GS
[1 0 0 1 68.2 345.90317] CT
0.149 GC
/Helvetica 14 F
GS
[1 0 0 1 0 0] CT
-16 5.5 moveto 
1 -1 scale
(15) t 
GR
GR
GS
[1 0 0 1 68.2 312.21338] CT
0.149 GC
/Helvetica 14 F
GS
[1 0 0 1 0 0] CT
-28 5.5 moveto 
1 -1 scale
(15.5) t 
GR
GR
GS
[1 0 0 1 68.2 278.52356] CT
0.149 GC
/Helvetica 14 F
GS
[1 0 0 1 0 0] CT
-16 5.5 moveto 
1 -1 scale
(16) t 
GR
GR
GS
[1 0 0 1 68.2 244.83376] CT
0.149 GC
/Helvetica 14 F
GS
[1 0 0 1 0 0] CT
-28 5.5 moveto 
1 -1 scale
(16.5) t 
GR
GR
GS
[1 0 0 1 68.2 211.14395] CT
0.149 GC
/Helvetica 14 F
GS
[1 0 0 1 0 0] CT
-16 5.5 moveto 
1 -1 scale
(17) t 
GR
GR
GS
[1 0 0 1 68.2 177.45415] CT
0.149 GC
/Helvetica 14 F
GS
[1 0 0 1 0 0] CT
-28 5.5 moveto 
1 -1 scale
(17.5) t 
GR
GR
GS
[1 0 0 1 68.2 143.76434] CT
0.149 GC
/Helvetica 14 F
GS
[1 0 0 1 0 0] CT
-16 5.5 moveto 
1 -1 scale
(18) t 
GR
GR
GS
[1 0 0 1 68.2 110.07454] CT
0.149 GC
/Helvetica 14 F
GS
[1 0 0 1 0 0] CT
-28 5.5 moveto 
1 -1 scale
(18.5) t 
GR
GR
GS
[1 0 0 1 68.2 76.38474] CT
0.149 GC
/Helvetica 14 F
GS
[1 0 0 1 0 0] CT
-16 5.5 moveto 
1 -1 scale
(19) t 
GR
GR
GS
[1 0 0 1 68.2 42.69493] CT
0.149 GC
/Helvetica 14 F
GS
[1 0 0 1 0 0] CT
-28 5.5 moveto 
1 -1 scale
(19.5) t 
GR
GR
GS
[0 -1 1 0 37.7 202.74977] CT
0.149 GC
/Helvetica 15.4 F
GS
[1 0 0 1 0 0] CT
-35 -4 moveto 
1 -1 scale
(SSIM \(dB\)) t 
GR
GR
GS
[1 0 0 1 290.00027 29.57495] CT
/Helvetica-Bold 15.4 F
GS
[1 0 0 1 0 0] CT
-225.5 -4 moveto 
1 -1 scale
(DinnerSceneCropped_1920x1080_2997fps_10bit_420.y4m-av1) t 
GR
GR
GS
0 0.447 0.741 RC
1 LJ
0.5 LW
N
73.857 296.477 M
74.82 265.056 L
75.782 242.179 L
76.744 232.943 L
77.706 225.615 L
78.669 219.654 L
79.631 214.891 L
80.593 211.155 L
81.555 208.279 L
82.518 206.093 L
83.48 204.305 L
84.442 202.629 L
85.405 201.057 L
86.367 199.582 L
87.329 198.201 L
88.291 196.908 L
89.254 195.697 L
90.216 194.564 L
91.178 193.503 L
92.14 192.51 L
93.103 191.578 L
94.065 190.703 L
95.027 189.879 L
95.989 189.102 L
96.952 188.365 L
97.914 187.665 L
98.876 186.996 L
99.839 186.352 L
100.801 185.728 L
101.763 185.12 L
102.725 184.521 L
103.688 183.928 L
104.65 183.334 L
105.612 182.734 L
106.574 182.124 L
107.537 181.502 L
108.499 180.879 L
109.461 180.257 L
110.424 179.635 L
111.386 179.013 L
112.348 178.393 L
113.31 177.773 L
114.273 177.153 L
115.235 176.534 L
116.197 175.916 L
117.159 175.298 L
118.122 174.681 L
119.084 174.065 L
120.046 173.449 L
121.008 172.834 L
121.971 172.22 L
122.933 171.606 L
123.895 170.993 L
124.858 170.38 L
125.82 169.769 L
126.782 169.158 L
127.744 168.547 L
128.707 167.938 L
129.669 167.329 L
130.631 166.72 L
131.593 166.113 L
132.556 165.506 L
133.518 164.9 L
134.48 164.295 L
135.443 163.69 L
136.405 163.087 L
137.367 162.484 L
138.329 161.882 L
139.292 161.28 L
140.254 160.68 L
141.216 160.08 L
142.178 159.481 L
143.141 158.883 L
144.103 158.286 L
145.065 157.689 L
146.027 157.094 L
146.99 156.499 L
147.952 155.905 L
148.914 155.312 L
149.877 154.72 L
150.839 154.129 L
151.801 153.539 L
152.763 152.95 L
153.726 152.361 L
154.688 151.773 L
155.65 151.187 L
156.612 150.601 L
157.575 150.016 L
158.537 149.433 L
159.499 148.85 L
160.462 148.268 L
161.424 147.687 L
162.386 147.107 L
163.348 146.528 L
164.311 145.95 L
165.273 145.373 L
166.235 144.797 L
167.197 144.222 L
168.16 143.648 L
169.122 143.076 L
170.084 142.504 L
171.046 141.933 L
172.009 141.363 L
172.971 140.795 L
173.933 140.227 L
174.896 139.661 L
175.858 139.095 L
176.82 138.531 L
177.782 137.968 L
178.745 137.406 L
179.707 136.845 L
180.669 136.285 L
181.631 135.726 L
182.594 135.169 L
183.556 134.612 L
184.518 134.057 L
185.481 133.503 L
186.443 132.95 L
187.405 132.398 L
188.367 131.848 L
189.33 131.299 L
190.292 130.751 L
191.254 130.204 L
192.216 129.658 L
193.179 129.113 L
194.141 128.57 L
195.103 128.028 L
196.065 127.487 L
197.028 126.948 L
197.99 126.41 L
198.952 125.873 L
199.915 125.337 L
200.877 124.803 L
201.839 124.27 L
202.801 123.738 L
203.764 123.208 L
204.726 122.679 L
205.688 122.151 L
206.65 121.624 L
207.613 121.099 L
208.575 120.575 L
209.537 120.053 L
210.5 119.532 L
211.462 119.012 L
212.424 118.494 L
213.386 117.977 L
214.349 117.462 L
215.311 116.948 L
216.273 116.435 L
217.235 115.924 L
218.198 115.414 L
219.16 114.906 L
220.122 114.399 L
221.085 113.893 L
222.047 113.389 L
223.009 112.887 L
223.971 112.386 L
224.934 111.886 L
225.896 111.388 L
226.858 110.892 L
227.82 110.397 L
228.783 109.903 L
229.745 109.411 L
230.707 108.92 L
231.669 108.431 L
232.632 107.944 L
233.594 107.458 L
234.556 106.974 L
235.519 106.491 L
236.481 106.01 L
237.443 105.53 L
238.405 105.053 L
239.368 104.576 L
240.33 104.101 L
241.292 103.628 L
242.254 103.157 L
243.217 102.687 L
244.179 102.218 L
245.141 101.752 L
246.104 101.287 L
247.066 100.824 L
248.028 100.362 L
248.99 99.902 L
249.953 99.444 L
250.915 98.987 L
251.877 98.532 L
252.839 98.079 L
253.802 97.628 L
254.764 97.178 L
255.726 96.73 L
256.688 96.284 L
257.651 95.839 L
258.613 95.397 L
259.575 94.956 L
260.538 94.516 L
261.5 94.079 L
262.462 93.643 L
263.424 93.209 L
264.387 92.777 L
265.349 92.347 L
266.311 91.919 L
267.273 91.492 L
268.236 91.067 L
269.198 90.644 L
270.16 90.223 L
271.122 89.804 L
272.085 89.387 L
273.047 88.971 L
274.009 88.558 L
274.972 88.146 L
275.934 87.736 L
276.896 87.328 L
277.858 86.922 L
278.821 86.518 L
279.783 86.116 L
280.745 85.716 L
281.707 85.317 L
282.67 84.921 L
283.632 84.527 L
284.594 84.134 L
285.557 83.744 L
286.519 83.355 L
287.481 82.969 L
288.443 82.584 L
289.406 82.202 L
290.368 81.821 L
291.33 81.443 L
292.292 81.066 L
293.255 80.692 L
294.217 80.32 L
295.179 79.949 L
296.142 79.581 L
297.104 79.215 L
298.066 78.851 L
299.028 78.489 L
299.991 78.129 L
300.953 77.771 L
301.915 77.415 L
302.877 77.062 L
303.84 76.71 L
304.802 76.361 L
305.764 76.013 L
306.726 75.668 L
307.689 75.325 L
308.651 74.985 L
309.613 74.646 L
310.576 74.309 L
311.538 73.975 L
312.5 73.643 L
313.462 73.313 L
314.425 72.985 L
315.387 72.66 L
316.349 72.337 L
317.311 72.016 L
318.274 71.697 L
319.236 71.38 L
320.198 71.066 L
321.161 70.754 L
322.123 70.444 L
323.085 70.137 L
324.047 69.832 L
325.01 69.529 L
325.972 69.228 L
326.934 68.93 L
327.896 68.634 L
328.859 68.34 L
329.821 68.049 L
330.783 67.759 L
331.745 67.473 L
332.708 67.188 L
333.67 66.907 L
334.632 66.627 L
335.595 66.35 L
336.557 66.075 L
337.519 65.802 L
338.481 65.532 L
339.444 65.265 L
340.406 64.999 L
341.368 64.737 L
342.33 64.476 L
343.293 64.218 L
344.255 63.963 L
345.217 63.71 L
346.18 63.459 L
347.142 63.211 L
348.104 62.965 L
349.066 62.722 L
350.029 62.481 L
350.991 62.243 L
351.953 62.007 L
352.915 61.774 L
353.878 61.544 L
354.84 61.316 L
355.802 61.09 L
356.764 60.867 L
357.727 60.646 L
358.689 60.429 L
359.651 60.213 L
360.614 60 L
361.576 59.79 L
362.538 59.583 L
363.5 59.378 L
364.463 59.175 L
365.425 58.975 L
366.387 58.778 L
367.349 58.584 L
368.312 58.392 L
369.274 58.203 L
370.236 58.016 L
371.199 57.832 L
372.161 57.651 L
373.123 57.472 L
374.085 57.296 L
375.048 57.123 L
376.01 56.953 L
376.972 56.785 L
377.934 56.62 L
378.897 56.457 L
379.859 56.298 L
380.821 56.141 L
381.784 55.987 L
382.746 55.835 L
383.708 55.687 L
384.67 55.541 L
385.633 55.398 L
386.595 55.257 L
387.557 55.12 L
388.519 54.985 L
389.482 54.853 L
390.444 54.724 L
391.406 54.598 L
392.368 54.475 L
393.331 54.354 L
394.293 54.236 L
395.255 54.121 L
396.218 54.009 L
397.18 53.9 L
398.142 53.794 L
399.104 53.691 L
400.067 53.59 L
401.029 53.492 L
401.991 53.398 L
402.953 53.306 L
403.916 53.217 L
404.878 53.131 L
405.84 53.048 L
406.802 52.968 L
407.765 52.891 L
408.727 52.817 L
409.689 52.746 L
410.652 52.678 L
411.614 52.613 L
412.576 52.551 L
413.538 52.491 L
414.501 52.435 L
415.463 52.382 L
416.425 52.332 L
417.387 52.285 L
418.35 52.241 L
419.312 52.2 L
420.274 52.162 L
421.237 52.127 L
422.199 52.095 L
423.161 52.067 L
424.123 52.041 L
425.086 52.018 L
426.048 51.999 L
427.01 51.983 L
427.972 51.969 L
428.935 51.959 L
429.897 51.952 L
430.859 51.949 L
S
GR
GS
0.851 0.325 0.098 RC
1 LJ
0.5 LW
N
73.979 292.371 M
74.941 262.899 L
75.903 240.102 L
76.866 231.188 L
77.828 224.688 L
78.79 219.294 L
79.752 214.87 L
80.715 211.284 L
81.677 208.402 L
82.639 206.089 L
83.601 204.213 L
84.564 202.619 L
85.526 201.128 L
86.488 199.717 L
87.451 198.384 L
88.413 197.124 L
89.375 195.935 L
90.337 194.812 L
91.3 193.753 L
92.262 192.752 L
93.224 191.807 L
94.186 190.915 L
95.149 190.07 L
96.111 189.271 L
97.073 188.513 L
98.035 187.793 L
98.998 187.106 L
99.96 186.451 L
100.922 185.822 L
101.885 185.216 L
102.847 184.63 L
103.809 184.06 L
104.771 183.502 L
105.734 182.953 L
106.696 182.409 L
107.658 181.867 L
108.62 181.323 L
109.583 180.773 L
110.545 180.214 L
111.507 179.645 L
112.47 179.075 L
113.432 178.505 L
114.394 177.935 L
115.356 177.365 L
116.319 176.796 L
117.281 176.227 L
118.243 175.659 L
119.205 175.09 L
120.168 174.523 L
121.13 173.955 L
122.092 173.388 L
123.055 172.821 L
124.017 172.255 L
124.979 171.689 L
125.941 171.123 L
126.904 170.558 L
127.866 169.993 L
128.828 169.428 L
129.79 168.864 L
130.753 168.3 L
131.715 167.737 L
132.677 167.174 L
133.639 166.611 L
134.602 166.049 L
135.564 165.487 L
136.526 164.926 L
137.489 164.365 L
138.451 163.805 L
139.413 163.245 L
140.375 162.685 L
141.338 162.126 L
142.3 161.567 L
143.262 161.009 L
144.224 160.452 L
145.187 159.894 L
146.149 159.338 L
147.111 158.781 L
148.074 158.226 L
149.036 157.671 L
149.998 157.116 L
150.96 156.562 L
151.923 156.008 L
152.885 155.455 L
153.847 154.902 L
154.809 154.35 L
155.772 153.798 L
156.734 153.247 L
157.696 152.697 L
158.658 152.147 L
159.621 151.597 L
160.583 151.048 L
161.545 150.5 L
162.508 149.952 L
163.47 149.405 L
164.432 148.859 L
165.394 148.313 L
166.357 147.767 L
167.319 147.222 L
168.281 146.678 L
169.243 146.135 L
170.206 145.592 L
171.168 145.049 L
172.13 144.508 L
173.093 143.967 L
174.055 143.426 L
175.017 142.886 L
175.979 142.347 L
176.942 141.809 L
177.904 141.271 L
178.866 140.734 L
179.828 140.197 L
180.791 139.661 L
181.753 139.126 L
182.715 138.591 L
183.677 138.058 L
184.64 137.524 L
185.602 136.992 L
186.564 136.46 L
187.527 135.929 L
188.489 135.399 L
189.451 134.869 L
190.413 134.341 L
191.376 133.813 L
192.338 133.285 L
193.3 132.759 L
194.262 132.233 L
195.225 131.707 L
196.187 131.183 L
197.149 130.66 L
198.112 130.137 L
199.074 129.615 L
200.036 129.093 L
200.998 128.573 L
201.961 128.053 L
202.923 127.534 L
203.885 127.016 L
204.847 126.499 L
205.81 125.982 L
206.772 125.466 L
207.734 124.951 L
208.696 124.437 L
209.659 123.924 L
210.621 123.412 L
211.583 122.9 L
212.546 122.39 L
213.508 121.88 L
214.47 121.371 L
215.432 120.863 L
216.395 120.355 L
217.357 119.849 L
218.319 119.344 L
219.281 118.839 L
220.244 118.335 L
221.206 117.832 L
222.168 117.33 L
223.131 116.829 L
224.093 116.329 L
225.055 115.83 L
226.017 115.332 L
226.98 114.834 L
227.942 114.338 L
228.904 113.843 L
229.866 113.348 L
230.829 112.854 L
231.791 112.362 L
232.753 111.87 L
233.715 111.379 L
234.678 110.89 L
235.64 110.401 L
236.602 109.913 L
237.565 109.426 L
238.527 108.94 L
239.489 108.455 L
240.451 107.972 L
241.414 107.489 L
242.376 107.007 L
243.338 106.526 L
244.3 106.047 L
245.263 105.568 L
246.225 105.09 L
247.187 104.613 L
248.15 104.138 L
249.112 103.663 L
250.074 103.19 L
251.036 102.717 L
251.999 102.246 L
252.961 101.776 L
253.923 101.306 L
254.885 100.838 L
255.848 100.371 L
256.81 99.905 L
257.772 99.44 L
258.734 98.976 L
259.697 98.514 L
260.659 98.052 L
261.621 97.592 L
262.584 97.132 L
263.546 96.674 L
264.508 96.217 L
265.47 95.761 L
266.433 95.306 L
267.395 94.853 L
268.357 94.4 L
269.319 93.949 L
270.282 93.499 L
271.244 93.05 L
272.206 92.602 L
273.169 92.155 L
274.131 91.71 L
275.093 91.266 L
276.055 90.823 L
277.018 90.381 L
277.98 89.94 L
278.942 89.501 L
279.904 89.063 L
280.867 88.626 L
281.829 88.19 L
282.791 87.755 L
283.754 87.322 L
284.716 86.89 L
285.678 86.459 L
286.64 86.03 L
287.603 85.602 L
288.565 85.174 L
289.527 84.749 L
290.489 84.324 L
291.452 83.901 L
292.414 83.479 L
293.376 83.059 L
294.338 82.639 L
295.301 82.221 L
296.263 81.805 L
297.225 81.389 L
298.188 80.975 L
299.15 80.563 L
300.112 80.151 L
301.074 79.741 L
302.037 79.333 L
302.999 78.925 L
303.961 78.519 L
304.923 78.115 L
305.886 77.711 L
306.848 77.309 L
307.81 76.909 L
308.772 76.51 L
309.735 76.112 L
310.697 75.715 L
311.659 75.32 L
312.622 74.927 L
313.584 74.534 L
314.546 74.144 L
315.508 73.754 L
316.471 73.366 L
317.433 72.98 L
318.395 72.595 L
319.357 72.211 L
320.32 71.829 L
321.282 71.448 L
322.244 71.069 L
323.207 70.691 L
324.169 70.315 L
325.131 69.94 L
326.093 69.566 L
327.056 69.194 L
328.018 68.824 L
328.98 68.455 L
329.942 68.087 L
330.905 67.721 L
331.867 67.357 L
332.829 66.994 L
333.792 66.632 L
334.754 66.272 L
335.716 65.914 L
336.678 65.557 L
337.641 65.201 L
338.603 64.848 L
339.565 64.495 L
340.527 64.145 L
341.49 63.795 L
342.452 63.448 L
343.414 63.102 L
344.376 62.757 L
345.339 62.414 L
346.301 62.073 L
347.263 61.733 L
348.226 61.395 L
349.188 61.059 L
350.15 60.724 L
351.112 60.39 L
352.075 60.059 L
353.037 59.729 L
353.999 59.4 L
354.961 59.074 L
355.924 58.748 L
356.886 58.425 L
357.848 58.103 L
358.811 57.783 L
359.773 57.464 L
360.735 57.147 L
361.697 56.832 L
362.66 56.519 L
363.622 56.207 L
364.584 55.897 L
365.546 55.588 L
366.509 55.281 L
367.471 54.976 L
368.433 54.673 L
369.395 54.371 L
370.358 54.071 L
371.32 53.773 L
372.282 53.476 L
373.245 53.182 L
374.207 52.889 L
375.169 52.597 L
376.131 52.308 L
377.094 52.02 L
378.056 51.734 L
379.018 51.45 L
379.98 51.167 L
380.943 50.887 L
381.905 50.608 L
382.867 50.33 L
383.83 50.055 L
384.792 49.782 L
385.754 49.51 L
386.716 49.24 L
387.679 48.972 L
388.641 48.705 L
389.603 48.441 L
390.565 48.178 L
391.528 47.917 L
392.49 47.658 L
393.452 47.401 L
394.414 47.146 L
395.377 46.893 L
396.339 46.641 L
397.301 46.391 L
398.264 46.143 L
399.226 45.897 L
400.188 45.653 L
401.15 45.411 L
402.113 45.171 L
403.075 44.932 L
404.037 44.696 L
404.999 44.461 L
405.962 44.229 L
406.924 43.998 L
407.886 43.769 L
408.849 43.542 L
409.811 43.317 L
410.773 43.094 L
411.735 42.873 L
412.698 42.654 L
413.66 42.437 L
414.622 42.221 L
415.584 42.008 L
416.547 41.797 L
417.509 41.588 L
418.471 41.38 L
419.433 41.175 L
420.396 40.972 L
421.358 40.77 L
422.32 40.571 L
423.283 40.374 L
424.245 40.178 L
425.207 39.985 L
426.169 39.794 L
427.132 39.605 L
428.094 39.417 L
429.056 39.232 L
430.018 39.049 L
430.981 38.868 L
431.943 38.689 L
432.905 38.512 L
433.868 38.337 L
434.83 38.164 L
435.792 37.994 L
436.754 37.825 L
437.717 37.659 L
438.679 37.494 L
439.641 37.332 L
440.603 37.171 L
441.566 37.013 L
442.528 36.857 L
443.49 36.703 L
444.452 36.552 L
445.415 36.402 L
446.377 36.254 L
447.339 36.109 L
448.302 35.966 L
449.264 35.825 L
450.226 35.686 L
451.188 35.549 L
452.151 35.414 L
453.113 35.282 L
454.075 35.152 L
455.037 35.024 L
456 34.898 L
456.962 34.774 L
457.924 34.653 L
458.887 34.533 L
459.849 34.417 L
460.811 34.302 L
461.773 34.189 L
462.736 34.079 L
463.698 33.97 L
464.66 33.865 L
465.622 33.761 L
466.585 33.66 L
467.547 33.56 L
468.509 33.463 L
469.471 33.369 L
470.434 33.276 L
471.396 33.186 L
472.358 33.098 L
473.321 33.013 L
474.283 32.93 L
475.245 32.849 L
476.207 32.77 L
477.17 32.694 L
478.132 32.62 L
479.094 32.548 L
480.056 32.479 L
481.019 32.412 L
481.981 32.347 L
482.943 32.284 L
483.906 32.224 L
484.868 32.167 L
485.83 32.111 L
486.792 32.058 L
487.755 32.008 L
488.717 31.959 L
489.679 31.914 L
490.641 31.87 L
491.604 31.829 L
492.566 31.79 L
493.528 31.754 L
494.491 31.72 L
495.453 31.689 L
496.415 31.659 L
497.377 31.633 L
498.34 31.608 L
499.302 31.587 L
500.264 31.567 L
501.226 31.55 L
502.189 31.536 L
503.151 31.524 L
504.113 31.514 L
505.075 31.507 L
506.038 31.502 L
507 31.5 L
S
GR
GS
0.929 0.694 0.125 RC
1 LJ
0.5 LW
N
73.801 306.756 M
74.763 271.161 L
75.725 246.315 L
76.688 231.692 L
77.65 220.341 L
78.612 212.202 L
79.575 206.994 L
80.537 202.745 L
81.499 199.003 L
82.461 195.754 L
83.424 192.987 L
84.386 190.689 L
85.348 188.847 L
86.31 187.451 L
87.273 186.446 L
88.235 185.51 L
89.197 184.579 L
90.16 183.652 L
91.122 182.728 L
92.084 181.809 L
93.046 180.894 L
94.009 179.983 L
94.971 179.076 L
95.933 178.173 L
96.895 177.274 L
97.858 176.379 L
98.82 175.488 L
99.782 174.602 L
100.744 173.719 L
101.707 172.84 L
102.669 171.965 L
103.631 171.094 L
104.594 170.227 L
105.556 169.364 L
106.518 168.505 L
107.48 167.65 L
108.443 166.799 L
109.405 165.952 L
110.367 165.109 L
111.329 164.27 L
112.292 163.434 L
113.254 162.603 L
114.216 161.775 L
115.179 160.952 L
116.141 160.132 L
117.103 159.316 L
118.065 158.504 L
119.028 157.696 L
119.99 156.892 L
120.952 156.091 L
121.914 155.295 L
122.877 154.502 L
123.839 153.713 L
124.801 152.928 L
125.763 152.147 L
126.726 151.37 L
127.688 150.596 L
128.65 149.826 L
129.613 149.06 L
130.575 148.298 L
131.537 147.54 L
132.499 146.785 L
133.462 146.034 L
134.424 145.287 L
135.386 144.544 L
136.348 143.804 L
137.311 143.068 L
138.273 142.336 L
139.235 141.608 L
140.198 140.883 L
141.16 140.162 L
142.122 139.445 L
143.084 138.731 L
144.047 138.021 L
145.009 137.315 L
145.971 136.612 L
146.933 135.914 L
147.896 135.218 L
148.858 134.527 L
149.82 133.839 L
150.782 133.155 L
151.745 132.474 L
152.707 131.797 L
153.669 131.124 L
154.632 130.454 L
155.594 129.788 L
156.556 129.125 L
157.518 128.466 L
158.481 127.811 L
159.443 127.159 L
160.405 126.511 L
161.367 125.866 L
162.33 125.225 L
163.292 124.588 L
164.254 123.954 L
165.217 123.323 L
166.179 122.696 L
167.141 122.073 L
168.103 121.453 L
169.066 120.837 L
170.028 120.224 L
170.99 119.614 L
171.952 119.008 L
172.915 118.406 L
173.877 117.807 L
174.839 117.212 L
175.801 116.62 L
176.764 116.031 L
177.726 115.446 L
178.688 114.864 L
179.651 114.286 L
180.613 113.711 L
181.575 113.14 L
182.537 112.572 L
183.5 112.007 L
184.462 111.446 L
185.424 110.888 L
186.386 110.334 L
187.349 109.783 L
188.311 109.235 L
189.273 108.691 L
190.236 108.15 L
191.198 107.613 L
192.16 107.078 L
193.122 106.547 L
194.085 106.02 L
195.047 105.496 L
196.009 104.975 L
196.971 104.457 L
197.934 103.943 L
198.896 103.432 L
199.858 102.924 L
200.82 102.42 L
201.783 101.918 L
202.745 101.421 L
203.707 100.926 L
204.67 100.434 L
205.632 99.946 L
206.594 99.461 L
207.556 98.98 L
208.519 98.501 L
209.481 98.026 L
210.443 97.554 L
211.405 97.085 L
212.368 96.619 L
213.33 96.157 L
214.292 95.698 L
215.255 95.242 L
216.217 94.789 L
217.179 94.339 L
218.141 93.892 L
219.104 93.449 L
220.066 93.009 L
221.028 92.571 L
221.99 92.137 L
222.953 91.706 L
223.915 91.279 L
224.877 90.854 L
225.84 90.432 L
226.802 90.014 L
227.764 89.598 L
228.726 89.186 L
229.689 88.777 L
230.651 88.371 L
231.613 87.967 L
232.575 87.567 L
233.538 87.17 L
234.5 86.776 L
235.462 86.385 L
236.424 85.997 L
237.387 85.612 L
238.349 85.23 L
239.311 84.851 L
240.274 84.475 L
241.236 84.102 L
242.198 83.732 L
243.16 83.365 L
244.123 83.001 L
245.085 82.64 L
246.047 82.282 L
247.009 81.927 L
247.972 81.575 L
248.934 81.225 L
249.896 80.879 L
250.859 80.536 L
251.821 80.195 L
252.783 79.857 L
253.745 79.523 L
254.708 79.191 L
255.67 78.862 L
256.632 78.536 L
257.594 78.212 L
258.557 77.892 L
259.519 77.575 L
260.481 77.26 L
261.443 76.948 L
262.406 76.639 L
263.368 76.333 L
264.33 76.03 L
265.293 75.729 L
266.255 75.431 L
267.217 75.136 L
268.179 74.844 L
269.142 74.555 L
270.104 74.268 L
271.066 73.985 L
272.028 73.703 L
272.991 73.425 L
273.953 73.15 L
274.915 72.877 L
275.878 72.607 L
276.84 72.34 L
277.802 72.075 L
278.764 71.813 L
279.727 71.554 L
280.689 71.298 L
281.651 71.044 L
282.613 70.793 L
283.576 70.544 L
284.538 70.299 L
285.5 70.056 L
286.462 69.815 L
287.425 69.578 L
288.387 69.343 L
289.349 69.11 L
290.312 68.88 L
291.274 68.653 L
292.236 68.429 L
293.198 68.207 L
294.161 67.987 L
295.123 67.771 L
296.085 67.556 L
297.047 67.345 L
298.01 67.136 L
298.972 66.929 L
299.934 66.726 L
300.897 66.524 L
301.859 66.326 L
302.821 66.129 L
303.783 65.936 L
304.746 65.745 L
305.708 65.556 L
306.67 65.37 L
307.632 65.186 L
308.595 65.005 L
309.557 64.827 L
310.519 64.65 L
311.482 64.477 L
312.444 64.306 L
313.406 64.137 L
314.368 63.971 L
315.331 63.807 L
316.293 63.646 L
317.255 63.487 L
318.217 63.33 L
319.18 63.176 L
320.142 63.025 L
321.104 62.875 L
322.066 62.729 L
323.029 62.584 L
323.991 62.442 L
324.953 62.303 L
325.916 62.165 L
326.878 62.03 L
327.84 61.898 L
328.802 61.768 L
329.765 61.64 L
330.727 61.514 L
331.689 61.391 L
332.651 61.27 L
333.614 61.152 L
334.576 61.036 L
335.538 60.922 L
336.5 60.81 L
337.463 60.701 L
338.425 60.594 L
339.387 60.489 L
340.35 60.387 L
341.312 60.287 L
342.274 60.189 L
343.236 60.093 L
344.199 60 L
345.161 59.908 L
346.123 59.819 L
347.085 59.733 L
348.048 59.648 L
349.01 59.566 L
349.972 59.486 L
350.935 59.408 L
351.897 59.332 L
352.859 59.258 L
353.821 59.187 L
354.784 59.118 L
355.746 59.051 L
356.708 58.986 L
357.67 58.923 L
358.633 58.862 L
359.595 58.804 L
360.557 58.748 L
361.52 58.693 L
362.482 58.641 L
363.444 58.591 L
364.406 58.543 L
365.369 58.497 L
366.331 58.454 L
367.293 58.412 L
368.255 58.372 L
369.218 58.335 L
370.18 58.299 L
371.142 58.266 L
372.104 58.234 L
373.067 58.205 L
374.029 58.178 L
374.991 58.152 L
375.954 58.129 L
376.916 58.108 L
377.878 58.089 L
378.84 58.071 L
379.803 58.056 L
380.765 58.043 L
381.727 58.031 L
382.689 58.022 L
383.652 58.014 L
384.614 58.009 L
385.576 58.005 L
386.539 58.004 L
S
GR
GS
0.494 0.184 0.557 RC
1 LJ
0.5 LW
N
73.859 298.311 M
74.821 265.523 L
75.783 241.932 L
76.745 232.833 L
77.708 225.66 L
78.67 219.867 L
79.632 215.266 L
80.594 211.668 L
81.557 208.885 L
82.519 206.729 L
83.481 204.919 L
84.444 203.22 L
85.406 201.624 L
86.368 200.125 L
87.33 198.72 L
88.293 197.402 L
89.255 196.167 L
90.217 195.009 L
91.179 193.924 L
92.142 192.906 L
93.104 191.95 L
94.066 191.051 L
95.029 190.204 L
95.991 189.405 L
96.953 188.646 L
97.915 187.925 L
98.878 187.235 L
99.84 186.572 L
100.802 185.93 L
101.764 185.304 L
102.727 184.69 L
103.689 184.081 L
104.651 183.474 L
105.614 182.862 L
106.576 182.241 L
107.538 181.612 L
108.5 180.982 L
109.463 180.353 L
110.425 179.725 L
111.387 179.097 L
112.349 178.47 L
113.312 177.844 L
114.274 177.218 L
115.236 176.593 L
116.198 175.969 L
117.161 175.345 L
118.123 174.722 L
119.085 174.1 L
120.048 173.478 L
121.01 172.858 L
121.972 172.238 L
122.934 171.618 L
123.897 171 L
124.859 170.382 L
125.821 169.765 L
126.783 169.148 L
127.746 168.533 L
128.708 167.918 L
129.67 167.304 L
130.633 166.691 L
131.595 166.078 L
132.557 165.467 L
133.519 164.856 L
134.482 164.246 L
135.444 163.637 L
136.406 163.028 L
137.368 162.421 L
138.331 161.814 L
139.293 161.209 L
140.255 160.604 L
141.217 160 L
142.18 159.397 L
143.142 158.794 L
144.104 158.193 L
145.067 157.593 L
146.029 156.993 L
146.991 156.394 L
147.953 155.797 L
148.916 155.2 L
149.878 154.604 L
150.84 154.009 L
151.802 153.415 L
152.765 152.822 L
153.727 152.23 L
154.689 151.64 L
155.652 151.05 L
156.614 150.461 L
157.576 149.872 L
158.538 149.286 L
159.501 148.7 L
160.463 148.115 L
161.425 147.531 L
162.387 146.948 L
163.35 146.366 L
164.312 145.785 L
165.274 145.205 L
166.236 144.627 L
167.199 144.049 L
168.161 143.473 L
169.123 142.897 L
170.086 142.323 L
171.048 141.75 L
172.01 141.178 L
172.972 140.607 L
173.935 140.037 L
174.897 139.468 L
175.859 138.9 L
176.821 138.334 L
177.784 137.769 L
178.746 137.205 L
179.708 136.642 L
180.671 136.08 L
181.633 135.519 L
182.595 134.96 L
183.557 134.402 L
184.52 133.845 L
185.482 133.289 L
186.444 132.735 L
187.406 132.181 L
188.369 131.629 L
189.331 131.078 L
190.293 130.529 L
191.255 129.981 L
192.218 129.433 L
193.18 128.888 L
194.142 128.343 L
195.105 127.8 L
196.067 127.258 L
197.029 126.718 L
197.991 126.179 L
198.954 125.641 L
199.916 125.104 L
200.878 124.569 L
201.84 124.035 L
202.803 123.502 L
203.765 122.971 L
204.727 122.441 L
205.69 121.913 L
206.652 121.386 L
207.614 120.86 L
208.576 120.336 L
209.539 119.813 L
210.501 119.291 L
211.463 118.771 L
212.425 118.252 L
213.388 117.735 L
214.35 117.219 L
215.312 116.705 L
216.274 116.192 L
217.237 115.681 L
218.199 115.171 L
219.161 114.662 L
220.124 114.155 L
221.086 113.65 L
222.048 113.146 L
223.01 112.643 L
223.973 112.142 L
224.935 111.643 L
225.897 111.145 L
226.859 110.649 L
227.822 110.154 L
228.784 109.661 L
229.746 109.169 L
230.709 108.679 L
231.671 108.19 L
232.633 107.703 L
233.595 107.218 L
234.558 106.734 L
235.52 106.252 L
236.482 105.771 L
237.444 105.292 L
238.407 104.815 L
239.369 104.339 L
240.331 103.865 L
241.293 103.393 L
242.256 102.922 L
243.218 102.453 L
244.18 101.985 L
245.143 101.519 L
246.105 101.055 L
247.067 100.593 L
248.029 100.132 L
248.992 99.673 L
249.954 99.216 L
250.916 98.761 L
251.878 98.307 L
252.841 97.855 L
253.803 97.404 L
254.765 96.956 L
255.728 96.509 L
256.69 96.064 L
257.652 95.621 L
258.614 95.179 L
259.577 94.74 L
260.539 94.302 L
261.501 93.866 L
262.463 93.431 L
263.426 92.999 L
264.388 92.568 L
265.35 92.139 L
266.313 91.713 L
267.275 91.287 L
268.237 90.864 L
269.199 90.443 L
270.162 90.023 L
271.124 89.606 L
272.086 89.19 L
273.048 88.776 L
274.011 88.364 L
274.973 87.954 L
275.935 87.546 L
276.897 87.14 L
277.86 86.735 L
278.822 86.333 L
279.784 85.933 L
280.747 85.534 L
281.709 85.138 L
282.671 84.743 L
283.633 84.351 L
284.596 83.96 L
285.558 83.572 L
286.52 83.185 L
287.482 82.801 L
288.445 82.418 L
289.407 82.038 L
290.369 81.659 L
291.332 81.283 L
292.294 80.909 L
293.256 80.536 L
294.218 80.166 L
295.181 79.798 L
296.143 79.431 L
297.105 79.067 L
298.067 78.705 L
299.03 78.346 L
299.992 77.988 L
300.954 77.632 L
301.916 77.279 L
302.879 76.927 L
303.841 76.578 L
304.803 76.231 L
305.766 75.886 L
306.728 75.543 L
307.69 75.202 L
308.652 74.864 L
309.615 74.527 L
310.577 74.193 L
311.539 73.861 L
312.501 73.531 L
313.464 73.204 L
314.426 72.879 L
315.388 72.555 L
316.351 72.235 L
317.313 71.916 L
318.275 71.6 L
319.237 71.285 L
320.2 70.973 L
321.162 70.664 L
322.124 70.357 L
323.086 70.051 L
324.049 69.749 L
325.011 69.448 L
325.973 69.15 L
326.935 68.854 L
327.898 68.561 L
328.86 68.269 L
329.822 67.98 L
330.785 67.694 L
331.747 67.41 L
332.709 67.128 L
333.671 66.848 L
334.634 66.571 L
335.596 66.297 L
336.558 66.024 L
337.52 65.754 L
338.483 65.487 L
339.445 65.222 L
340.407 64.959 L
341.37 64.698 L
342.332 64.441 L
343.294 64.185 L
344.256 63.932 L
345.219 63.682 L
346.181 63.434 L
347.143 63.188 L
348.105 62.945 L
349.068 62.704 L
350.03 62.466 L
350.992 62.23 L
351.954 61.997 L
352.917 61.767 L
353.879 61.539 L
354.841 61.313 L
355.804 61.09 L
356.766 60.869 L
357.728 60.651 L
358.69 60.436 L
359.653 60.223 L
360.615 60.013 L
361.577 59.805 L
362.539 59.6 L
363.502 59.398 L
364.464 59.198 L
365.426 59 L
366.389 58.806 L
367.351 58.614 L
368.313 58.424 L
369.275 58.237 L
370.238 58.053 L
371.2 57.872 L
372.162 57.693 L
373.124 57.517 L
374.087 57.343 L
375.049 57.172 L
376.011 57.004 L
376.973 56.839 L
377.936 56.676 L
378.898 56.516 L
379.86 56.359 L
380.823 56.204 L
381.785 56.053 L
382.747 55.904 L
383.709 55.757 L
384.672 55.614 L
385.634 55.473 L
386.596 55.335 L
387.558 55.2 L
388.521 55.067 L
389.483 54.938 L
390.445 54.811 L
391.408 54.687 L
392.37 54.565 L
393.332 54.447 L
394.294 54.332 L
395.257 54.219 L
396.219 54.109 L
397.181 54.002 L
398.143 53.898 L
399.106 53.797 L
400.068 53.698 L
401.03 53.603 L
401.992 53.51 L
402.955 53.42 L
403.917 53.334 L
404.879 53.25 L
405.842 53.169 L
406.804 53.09 L
407.766 53.015 L
408.728 52.943 L
409.691 52.874 L
410.653 52.808 L
411.615 52.745 L
412.577 52.684 L
413.54 52.627 L
414.502 52.572 L
415.464 52.521 L
416.427 52.473 L
417.389 52.427 L
418.351 52.385 L
419.313 52.346 L
420.276 52.31 L
421.238 52.276 L
422.2 52.246 L
423.162 52.219 L
424.125 52.195 L
425.087 52.174 L
426.049 52.156 L
427.012 52.141 L
427.974 52.13 L
428.936 52.121 L
429.898 52.116 L
430.861 52.113 L
S
GR
GS
0.467 0.675 0.188 RC
1 LJ
0.5 LW
N
73 372.328 M
73.962 308.194 L
74.925 273.847 L
75.887 251.291 L
76.849 237.011 L
77.811 227.999 L
78.774 220.128 L
79.736 213.411 L
80.698 207.897 L
81.66 203.632 L
82.623 200.666 L
83.585 199.028 L
84.547 197.875 L
85.51 196.729 L
86.472 195.589 L
87.434 194.455 L
88.396 193.328 L
89.359 192.207 L
90.321 191.093 L
91.283 189.985 L
92.245 188.883 L
93.208 187.787 L
94.17 186.698 L
95.132 185.614 L
96.094 184.537 L
97.057 183.467 L
98.019 182.402 L
98.981 181.343 L
99.944 180.291 L
100.906 179.245 L
101.868 178.205 L
102.83 177.171 L
103.793 176.143 L
104.755 175.121 L
105.717 174.106 L
106.679 173.096 L
107.642 172.092 L
108.604 171.094 L
109.566 170.103 L
110.529 169.117 L
111.491 168.137 L
112.453 167.163 L
113.415 166.195 L
114.378 165.233 L
115.34 164.277 L
116.302 163.326 L
117.264 162.382 L
118.227 161.443 L
119.189 160.51 L
120.151 159.583 L
121.113 158.662 L
122.076 157.747 L
123.038 156.837 L
124 155.933 L
124.963 155.034 L
125.925 154.142 L
126.887 153.255 L
127.849 152.373 L
128.812 151.498 L
129.774 150.628 L
130.736 149.763 L
131.698 148.904 L
132.661 148.051 L
133.623 147.203 L
134.585 146.361 L
135.548 145.525 L
136.51 144.693 L
137.472 143.868 L
138.434 143.048 L
139.397 142.233 L
140.359 141.424 L
141.321 140.62 L
142.283 139.821 L
143.246 139.028 L
144.208 138.241 L
145.17 137.458 L
146.132 136.681 L
147.095 135.91 L
148.057 135.143 L
149.019 134.382 L
149.982 133.626 L
150.944 132.876 L
151.906 132.13 L
152.868 131.39 L
153.831 130.655 L
154.793 129.926 L
155.755 129.201 L
156.717 128.482 L
157.68 127.768 L
158.642 127.058 L
159.604 126.354 L
160.567 125.656 L
161.529 124.962 L
162.491 124.273 L
163.453 123.589 L
164.416 122.91 L
165.378 122.237 L
166.34 121.568 L
167.302 120.904 L
168.265 120.245 L
169.227 119.591 L
170.189 118.942 L
171.151 118.298 L
172.114 117.659 L
173.076 117.025 L
174.038 116.395 L
175.001 115.771 L
175.963 115.151 L
176.925 114.536 L
177.887 113.926 L
178.85 113.32 L
179.812 112.719 L
180.774 112.123 L
181.736 111.532 L
182.699 110.945 L
183.661 110.363 L
184.623 109.786 L
185.586 109.214 L
186.548 108.646 L
187.51 108.082 L
188.472 107.524 L
189.435 106.969 L
190.397 106.42 L
191.359 105.875 L
192.321 105.334 L
193.284 104.798 L
194.246 104.267 L
195.208 103.74 L
196.17 103.217 L
197.133 102.699 L
198.095 102.185 L
199.057 101.676 L
200.02 101.171 L
200.982 100.67 L
201.944 100.174 L
202.906 99.683 L
203.869 99.195 L
204.831 98.712 L
205.793 98.233 L
206.755 97.758 L
207.718 97.288 L
208.68 96.822 L
209.642 96.36 L
210.605 95.903 L
211.567 95.449 L
212.529 95 L
213.491 94.555 L
214.454 94.114 L
215.416 93.677 L
216.378 93.244 L
217.34 92.815 L
218.303 92.391 L
219.265 91.97 L
220.227 91.554 L
221.189 91.141 L
222.152 90.733 L
223.114 90.328 L
224.076 89.928 L
225.039 89.531 L
226.001 89.139 L
226.963 88.75 L
227.925 88.365 L
228.888 87.984 L
229.85 87.607 L
230.812 87.234 L
231.774 86.865 L
232.737 86.499 L
233.699 86.138 L
234.661 85.78 L
235.624 85.426 L
236.586 85.075 L
237.548 84.729 L
238.51 84.386 L
239.473 84.047 L
240.435 83.711 L
241.397 83.379 L
242.359 83.051 L
243.322 82.727 L
244.284 82.406 L
245.246 82.088 L
246.208 81.774 L
247.171 81.464 L
248.133 81.158 L
249.095 80.855 L
250.058 80.555 L
251.02 80.259 L
251.982 79.966 L
252.944 79.677 L
253.907 79.392 L
254.869 79.109 L
255.831 78.831 L
256.793 78.555 L
257.756 78.283 L
258.718 78.014 L
259.68 77.749 L
260.643 77.487 L
261.605 77.228 L
262.567 76.973 L
263.529 76.721 L
264.492 76.472 L
265.454 76.227 L
266.416 75.984 L
267.378 75.745 L
268.341 75.509 L
269.303 75.277 L
270.265 75.047 L
271.228 74.821 L
272.19 74.597 L
273.152 74.377 L
274.114 74.16 L
275.077 73.946 L
276.039 73.735 L
277.001 73.527 L
277.963 73.322 L
278.926 73.12 L
279.888 72.921 L
280.85 72.726 L
281.812 72.533 L
282.775 72.343 L
283.737 72.156 L
284.699 71.972 L
285.662 71.79 L
286.624 71.612 L
287.586 71.436 L
288.548 71.264 L
289.511 71.094 L
290.473 70.927 L
291.435 70.763 L
292.397 70.601 L
293.36 70.443 L
294.322 70.287 L
295.284 70.134 L
296.247 69.983 L
297.209 69.835 L
298.171 69.69 L
299.133 69.548 L
300.096 69.408 L
301.058 69.271 L
302.02 69.136 L
302.982 69.004 L
303.945 68.874 L
304.907 68.748 L
305.869 68.623 L
306.831 68.501 L
307.794 68.382 L
308.756 68.265 L
309.718 68.151 L
310.681 68.039 L
311.643 67.93 L
312.605 67.823 L
313.567 67.718 L
314.53 67.616 L
315.492 67.516 L
316.454 67.418 L
317.416 67.323 L
318.379 67.23 L
319.341 67.14 L
320.303 67.052 L
321.266 66.966 L
322.228 66.882 L
323.19 66.8 L
324.152 66.721 L
325.115 66.644 L
326.077 66.569 L
327.039 66.497 L
328.001 66.426 L
328.964 66.358 L
329.926 66.291 L
330.888 66.227 L
331.85 66.165 L
332.813 66.105 L
333.775 66.047 L
334.737 65.991 L
335.7 65.937 L
336.662 65.885 L
337.624 65.835 L
338.586 65.787 L
339.549 65.741 L
340.511 65.697 L
341.473 65.655 L
342.435 65.615 L
343.398 65.576 L
344.36 65.54 L
345.322 65.505 L
346.285 65.472 L
347.247 65.441 L
348.209 65.412 L
349.171 65.384 L
350.134 65.359 L
351.096 65.335 L
352.058 65.313 L
353.02 65.292 L
353.983 65.273 L
354.945 65.256 L
355.907 65.241 L
356.869 65.227 L
357.832 65.215 L
358.794 65.204 L
359.756 65.195 L
360.719 65.188 L
361.681 65.182 L
362.643 65.178 L
363.605 65.175 L
364.568 65.174 L
S
GR
GS
0.302 0.745 0.933 RC
[10 6] 0 setdash
2 LJ
0.5 LW
N
73.881 296.553 M
74.843 264.835 L
75.805 241.661 L
76.768 232.587 L
77.73 225.454 L
78.692 219.643 L
79.654 214.985 L
80.617 211.311 L
81.579 208.45 L
82.541 206.234 L
83.503 204.439 L
84.466 202.771 L
85.428 201.203 L
86.39 199.73 L
87.352 198.348 L
88.315 197.051 L
89.277 195.834 L
90.239 194.693 L
91.202 193.622 L
92.164 192.618 L
93.126 191.675 L
94.088 190.788 L
95.051 189.952 L
96.013 189.163 L
96.975 188.416 L
97.937 187.705 L
98.9 187.027 L
99.862 186.375 L
100.824 185.746 L
101.787 185.135 L
102.749 184.536 L
103.711 183.945 L
104.673 183.357 L
105.636 182.767 L
106.598 182.17 L
107.56 181.561 L
108.522 180.946 L
109.485 180.332 L
110.447 179.718 L
111.409 179.104 L
112.371 178.491 L
113.334 177.879 L
114.296 177.267 L
115.258 176.656 L
116.221 176.045 L
117.183 175.435 L
118.145 174.825 L
119.107 174.216 L
120.07 173.608 L
121.032 173 L
121.994 172.393 L
122.956 171.787 L
123.919 171.181 L
124.881 170.576 L
125.843 169.971 L
126.806 169.367 L
127.768 168.764 L
128.73 168.161 L
129.692 167.56 L
130.655 166.958 L
131.617 166.358 L
132.579 165.758 L
133.541 165.159 L
134.504 164.56 L
135.466 163.963 L
136.428 163.366 L
137.39 162.769 L
138.353 162.174 L
139.315 161.579 L
140.277 160.985 L
141.24 160.392 L
142.202 159.799 L
143.164 159.208 L
144.126 158.617 L
145.089 158.027 L
146.051 157.437 L
147.013 156.849 L
147.975 156.261 L
148.938 155.674 L
149.9 155.088 L
150.862 154.503 L
151.825 153.918 L
152.787 153.335 L
153.749 152.752 L
154.711 152.17 L
155.674 151.589 L
156.636 151.009 L
157.598 150.43 L
158.56 149.851 L
159.523 149.274 L
160.485 148.697 L
161.447 148.122 L
162.41 147.547 L
163.372 146.973 L
164.334 146.4 L
165.296 145.828 L
166.259 145.257 L
167.221 144.687 L
168.183 144.118 L
169.145 143.55 L
170.108 142.983 L
171.07 142.416 L
172.032 141.851 L
172.994 141.287 L
173.957 140.724 L
174.919 140.162 L
175.881 139.6 L
176.844 139.04 L
177.806 138.481 L
178.768 137.923 L
179.73 137.366 L
180.693 136.81 L
181.655 136.255 L
182.617 135.701 L
183.579 135.148 L
184.542 134.596 L
185.504 134.046 L
186.466 133.496 L
187.428 132.948 L
188.391 132.4 L
189.353 131.854 L
190.315 131.309 L
191.278 130.765 L
192.24 130.222 L
193.202 129.68 L
194.164 129.14 L
195.127 128.6 L
196.089 128.062 L
197.051 127.525 L
198.013 126.989 L
198.976 126.454 L
199.938 125.921 L
200.9 125.388 L
201.863 124.857 L
202.825 124.327 L
203.787 123.799 L
204.749 123.271 L
205.712 122.745 L
206.674 122.22 L
207.636 121.696 L
208.598 121.173 L
209.561 120.652 L
210.523 120.132 L
211.485 119.614 L
212.447 119.096 L
213.41 118.58 L
214.372 118.065 L
215.334 117.552 L
216.297 117.039 L
217.259 116.529 L
218.221 116.019 L
219.183 115.511 L
220.146 115.004 L
221.108 114.498 L
222.07 113.994 L
223.032 113.491 L
223.995 112.99 L
224.957 112.49 L
225.919 111.991 L
226.882 111.494 L
227.844 110.998 L
228.806 110.503 L
229.768 110.01 L
230.731 109.518 L
231.693 109.028 L
232.655 108.539 L
233.617 108.052 L
234.58 107.566 L
235.542 107.081 L
236.504 106.598 L
237.467 106.117 L
238.429 105.637 L
239.391 105.158 L
240.353 104.681 L
241.316 104.205 L
242.278 103.731 L
243.24 103.259 L
244.202 102.787 L
245.165 102.318 L
246.127 101.85 L
247.089 101.383 L
248.051 100.918 L
249.014 100.455 L
249.976 99.993 L
250.938 99.533 L
251.901 99.074 L
252.863 98.617 L
253.825 98.161 L
254.787 97.707 L
255.75 97.255 L
256.712 96.804 L
257.674 96.355 L
258.636 95.908 L
259.599 95.462 L
260.561 95.017 L
261.523 94.575 L
262.486 94.134 L
263.448 93.695 L
264.41 93.257 L
265.372 92.821 L
266.335 92.387 L
267.297 91.954 L
268.259 91.523 L
269.221 91.094 L
270.184 90.667 L
271.146 90.241 L
272.108 89.817 L
273.07 89.394 L
274.033 88.974 L
274.995 88.555 L
275.957 88.138 L
276.92 87.723 L
277.882 87.309 L
278.844 86.897 L
279.806 86.487 L
280.769 86.079 L
281.731 85.672 L
282.693 85.268 L
283.655 84.865 L
284.618 84.464 L
285.58 84.065 L
286.542 83.668 L
287.505 83.272 L
288.467 82.878 L
289.429 82.486 L
290.391 82.096 L
291.354 81.708 L
292.316 81.322 L
293.278 80.938 L
294.24 80.555 L
295.203 80.175 L
296.165 79.796 L
297.127 79.419 L
298.089 79.044 L
299.052 78.671 L
300.014 78.3 L
300.976 77.931 L
301.939 77.564 L
302.901 77.199 L
303.863 76.835 L
304.825 76.474 L
305.788 76.115 L
306.75 75.757 L
307.712 75.402 L
308.674 75.049 L
309.637 74.697 L
310.599 74.348 L
311.561 74 L
312.524 73.655 L
313.486 73.312 L
314.448 72.971 L
315.41 72.631 L
316.373 72.294 L
317.335 71.959 L
318.297 71.626 L
319.259 71.295 L
320.222 70.966 L
321.184 70.639 L
322.146 70.314 L
323.108 69.992 L
324.071 69.671 L
325.033 69.353 L
325.995 69.036 L
326.958 68.722 L
327.92 68.41 L
328.882 68.1 L
329.844 67.792 L
330.807 67.487 L
331.769 67.183 L
332.731 66.882 L
333.693 66.583 L
334.656 66.286 L
335.618 65.991 L
336.58 65.698 L
337.543 65.408 L
338.505 65.12 L
339.467 64.834 L
340.429 64.55 L
341.392 64.269 L
342.354 63.989 L
343.316 63.712 L
344.278 63.438 L
345.241 63.165 L
346.203 62.895 L
347.165 62.627 L
348.128 62.361 L
349.09 62.098 L
350.052 61.837 L
351.014 61.578 L
351.977 61.321 L
352.939 61.067 L
353.901 60.815 L
354.863 60.566 L
355.826 60.319 L
356.788 60.074 L
357.75 59.831 L
358.712 59.591 L
359.675 59.354 L
360.637 59.118 L
361.599 58.885 L
362.562 58.655 L
363.524 58.426 L
364.486 58.201 L
365.448 57.977 L
366.411 57.756 L
367.373 57.538 L
368.335 57.322 L
369.297 57.108 L
370.26 56.897 L
371.222 56.688 L
372.184 56.481 L
373.146 56.277 L
374.109 56.076 L
375.071 55.877 L
376.033 55.681 L
376.996 55.487 L
377.958 55.295 L
378.92 55.106 L
379.882 54.92 L
380.845 54.736 L
381.807 54.555 L
382.769 54.376 L
383.731 54.199 L
384.694 54.026 L
385.656 53.854 L
386.618 53.686 L
387.581 53.52 L
388.543 53.356 L
389.505 53.195 L
390.467 53.037 L
391.43 52.881 L
392.392 52.728 L
393.354 52.578 L
394.316 52.43 L
395.279 52.285 L
396.241 52.142 L
397.203 52.002 L
398.165 51.865 L
399.128 51.73 L
400.09 51.598 L
401.052 51.469 L
402.015 51.342 L
402.977 51.218 L
403.939 51.097 L
404.901 50.978 L
405.864 50.862 L
406.826 50.749 L
407.788 50.639 L
408.75 50.531 L
409.713 50.426 L
410.675 50.324 L
411.637 50.224 L
412.6 50.127 L
413.562 50.033 L
414.524 49.942 L
415.486 49.854 L
416.449 49.768 L
417.411 49.685 L
418.373 49.605 L
419.335 49.528 L
420.298 49.453 L
421.26 49.382 L
422.222 49.313 L
423.185 49.247 L
424.147 49.184 L
425.109 49.124 L
426.071 49.066 L
427.034 49.012 L
427.996 48.96 L
428.958 48.911 L
429.92 48.865 L
430.883 48.822 L
431.845 48.782 L
432.807 48.745 L
433.769 48.71 L
434.732 48.679 L
435.694 48.65 L
436.656 48.625 L
437.619 48.602 L
438.581 48.583 L
439.543 48.566 L
440.505 48.552 L
441.468 48.541 L
442.43 48.533 L
443.392 48.528 L
444.354 48.527 L
S
GR
GS
0.635 0.078 0.184 RC
[10 6] 0 setdash
2 LJ
0.5 LW
N
73.807 307.078 M
74.769 271.386 L
75.731 246.483 L
76.693 231.977 L
77.656 220.673 L
78.618 212.487 L
79.58 207.214 L
80.542 203.03 L
81.505 199.334 L
82.467 196.111 L
83.429 193.346 L
84.391 191.027 L
85.354 189.138 L
86.316 187.666 L
87.278 186.592 L
88.241 185.667 L
89.203 184.746 L
90.165 183.83 L
91.127 182.917 L
92.09 182.008 L
93.052 181.103 L
94.014 180.202 L
94.976 179.305 L
95.939 178.411 L
96.901 177.522 L
97.863 176.637 L
98.826 175.755 L
99.788 174.877 L
100.75 174.003 L
101.712 173.133 L
102.675 172.267 L
103.637 171.405 L
104.599 170.546 L
105.561 169.691 L
106.524 168.841 L
107.486 167.994 L
108.448 167.15 L
109.41 166.311 L
110.373 165.475 L
111.335 164.644 L
112.297 163.815 L
113.26 162.991 L
114.222 162.171 L
115.184 161.354 L
116.146 160.541 L
117.109 159.732 L
118.071 158.926 L
119.033 158.125 L
119.995 157.327 L
120.958 156.533 L
121.92 155.742 L
122.882 154.955 L
123.845 154.172 L
124.807 153.393 L
125.769 152.617 L
126.731 151.845 L
127.694 151.077 L
128.656 150.312 L
129.618 149.551 L
130.58 148.794 L
131.543 148.04 L
132.505 147.29 L
133.467 146.544 L
134.43 145.801 L
135.392 145.062 L
136.354 144.327 L
137.316 143.595 L
138.279 142.867 L
139.241 142.142 L
140.203 141.421 L
141.165 140.704 L
142.128 139.99 L
143.09 139.28 L
144.052 138.573 L
145.014 137.87 L
145.977 137.171 L
146.939 136.475 L
147.901 135.782 L
148.864 135.093 L
149.826 134.408 L
150.788 133.726 L
151.75 133.048 L
152.713 132.373 L
153.675 131.702 L
154.637 131.034 L
155.599 130.37 L
156.562 129.709 L
157.524 129.052 L
158.486 128.398 L
159.449 127.748 L
160.411 127.101 L
161.373 126.457 L
162.335 125.818 L
163.298 125.181 L
164.26 124.548 L
165.222 123.918 L
166.184 123.292 L
167.147 122.669 L
168.109 122.05 L
169.071 121.434 L
170.033 120.822 L
170.996 120.212 L
171.958 119.607 L
172.92 119.004 L
173.883 118.405 L
174.845 117.81 L
175.807 117.217 L
176.769 116.629 L
177.732 116.043 L
178.694 115.461 L
179.656 114.882 L
180.618 114.306 L
181.581 113.734 L
182.543 113.165 L
183.505 112.6 L
184.468 112.037 L
185.43 111.478 L
186.392 110.923 L
187.354 110.37 L
188.317 109.821 L
189.279 109.275 L
190.241 108.733 L
191.203 108.194 L
192.166 107.658 L
193.128 107.125 L
194.09 106.595 L
195.052 106.069 L
196.015 105.546 L
196.977 105.026 L
197.939 104.509 L
198.902 103.996 L
199.864 103.486 L
200.826 102.979 L
201.788 102.475 L
202.751 101.974 L
203.713 101.476 L
204.675 100.982 L
205.637 100.491 L
206.6 100.003 L
207.562 99.518 L
208.524 99.036 L
209.487 98.558 L
210.449 98.082 L
211.411 97.61 L
212.373 97.141 L
213.336 96.675 L
214.298 96.212 L
215.26 95.752 L
216.222 95.295 L
217.185 94.842 L
218.147 94.391 L
219.109 93.944 L
220.071 93.499 L
221.034 93.058 L
221.996 92.619 L
222.958 92.184 L
223.921 91.752 L
224.883 91.323 L
225.845 90.897 L
226.807 90.473 L
227.77 90.053 L
228.732 89.636 L
229.694 89.222 L
230.656 88.811 L
231.619 88.403 L
232.581 87.998 L
233.543 87.595 L
234.506 87.196 L
235.468 86.8 L
236.43 86.407 L
237.392 86.017 L
238.355 85.629 L
239.317 85.245 L
240.279 84.863 L
241.241 84.485 L
242.204 84.109 L
243.166 83.737 L
244.128 83.367 L
245.09 83 L
246.053 82.636 L
247.015 82.275 L
247.977 81.916 L
248.94 81.561 L
249.902 81.209 L
250.864 80.859 L
251.826 80.512 L
252.789 80.168 L
253.751 79.827 L
254.713 79.489 L
255.675 79.154 L
256.638 78.821 L
257.6 78.491 L
258.562 78.164 L
259.525 77.84 L
260.487 77.519 L
261.449 77.2 L
262.411 76.885 L
263.374 76.572 L
264.336 76.261 L
265.298 75.954 L
266.26 75.649 L
267.223 75.347 L
268.185 75.048 L
269.147 74.752 L
270.109 74.458 L
271.072 74.167 L
272.034 73.879 L
272.996 73.593 L
273.959 73.31 L
274.921 73.03 L
275.883 72.753 L
276.845 72.478 L
277.808 72.206 L
278.77 71.937 L
279.732 71.67 L
280.694 71.406 L
281.657 71.145 L
282.619 70.886 L
283.581 70.63 L
284.544 70.377 L
285.506 70.126 L
286.468 69.878 L
287.43 69.632 L
288.393 69.389 L
289.355 69.149 L
290.317 68.911 L
291.279 68.676 L
292.242 68.444 L
293.204 68.214 L
294.166 67.986 L
295.128 67.761 L
296.091 67.539 L
297.053 67.319 L
298.015 67.102 L
298.978 66.888 L
299.94 66.676 L
300.902 66.466 L
301.864 66.259 L
302.827 66.055 L
303.789 65.853 L
304.751 65.653 L
305.713 65.456 L
306.676 65.262 L
307.638 65.07 L
308.6 64.88 L
309.563 64.693 L
310.525 64.509 L
311.487 64.326 L
312.449 64.147 L
313.412 63.97 L
314.374 63.795 L
315.336 63.623 L
316.298 63.453 L
317.261 63.285 L
318.223 63.12 L
319.185 62.957 L
320.147 62.797 L
321.11 62.639 L
322.072 62.484 L
323.034 62.331 L
323.997 62.18 L
324.959 62.032 L
325.921 61.886 L
326.883 61.742 L
327.846 61.601 L
328.808 61.462 L
329.77 61.325 L
330.732 61.191 L
331.695 61.059 L
332.657 60.929 L
333.619 60.802 L
334.582 60.677 L
335.544 60.554 L
336.506 60.434 L
337.468 60.316 L
338.431 60.2 L
339.393 60.086 L
340.355 59.975 L
341.317 59.866 L
342.28 59.759 L
343.242 59.655 L
344.204 59.553 L
345.167 59.452 L
346.129 59.355 L
347.091 59.259 L
348.053 59.166 L
349.016 59.074 L
349.978 58.986 L
350.94 58.899 L
351.902 58.814 L
352.865 58.732 L
353.827 58.652 L
354.789 58.574 L
355.751 58.498 L
356.714 58.424 L
357.676 58.352 L
358.638 58.283 L
359.601 58.216 L
360.563 58.15 L
361.525 58.087 L
362.487 58.027 L
363.45 57.968 L
364.412 57.911 L
365.374 57.856 L
366.336 57.804 L
367.299 57.754 L
368.261 57.705 L
369.223 57.659 L
370.185 57.615 L
371.148 57.573 L
372.11 57.533 L
373.072 57.495 L
374.035 57.459 L
374.997 57.425 L
375.959 57.393 L
376.921 57.363 L
377.884 57.335 L
378.846 57.309 L
379.808 57.286 L
380.77 57.264 L
381.733 57.244 L
382.695 57.226 L
383.657 57.21 L
384.62 57.196 L
385.582 57.184 L
386.544 57.174 L
387.506 57.166 L
388.469 57.16 L
389.431 57.156 L
390.393 57.154 L
S
GR
GS
0 0.447 0.741 RC
[10 6] 0 setdash
2 LJ
0.5 LW
N
73.774 301.273 M
74.737 266.962 L
75.699 243.173 L
76.661 233.993 L
77.623 226.592 L
78.586 220.641 L
79.548 215.941 L
80.51 212.291 L
81.473 209.491 L
82.435 207.341 L
83.397 205.503 L
84.359 203.776 L
85.322 202.157 L
86.284 200.639 L
87.246 199.217 L
88.208 197.886 L
89.171 196.64 L
90.133 195.473 L
91.095 194.382 L
92.058 193.359 L
93.02 192.4 L
93.982 191.499 L
94.944 190.651 L
95.907 189.85 L
96.869 189.091 L
97.831 188.369 L
98.793 187.678 L
99.756 187.013 L
100.718 186.368 L
101.68 185.738 L
102.642 185.118 L
103.605 184.502 L
104.567 183.885 L
105.529 183.261 L
106.492 182.625 L
107.454 181.986 L
108.416 181.347 L
109.378 180.709 L
110.341 180.071 L
111.303 179.434 L
112.265 178.798 L
113.227 178.163 L
114.19 177.528 L
115.152 176.894 L
116.114 176.261 L
117.077 175.629 L
118.039 174.997 L
119.001 174.366 L
119.963 173.736 L
120.926 173.106 L
121.888 172.478 L
122.85 171.85 L
123.812 171.223 L
124.775 170.596 L
125.737 169.971 L
126.699 169.346 L
127.661 168.722 L
128.624 168.099 L
129.586 167.477 L
130.548 166.856 L
131.511 166.235 L
132.473 165.616 L
133.435 164.997 L
134.397 164.379 L
135.36 163.762 L
136.322 163.146 L
137.284 162.531 L
138.246 161.917 L
139.209 161.303 L
140.171 160.691 L
141.133 160.079 L
142.096 159.469 L
143.058 158.859 L
144.02 158.25 L
144.982 157.642 L
145.945 157.036 L
146.907 156.43 L
147.869 155.825 L
148.831 155.221 L
149.794 154.618 L
150.756 154.016 L
151.718 153.416 L
152.68 152.816 L
153.643 152.217 L
154.605 151.619 L
155.567 151.022 L
156.53 150.427 L
157.492 149.832 L
158.454 149.239 L
159.416 148.646 L
160.379 148.055 L
161.341 147.464 L
162.303 146.875 L
163.265 146.287 L
164.228 145.7 L
165.19 145.114 L
166.152 144.529 L
167.115 143.946 L
168.077 143.363 L
169.039 142.782 L
170.001 142.202 L
170.964 141.623 L
171.926 141.045 L
172.888 140.468 L
173.85 139.893 L
174.813 139.318 L
175.775 138.745 L
176.737 138.173 L
177.699 137.602 L
178.662 137.033 L
179.624 136.465 L
180.586 135.898 L
181.549 135.332 L
182.511 134.768 L
183.473 134.204 L
184.435 133.642 L
185.398 133.082 L
186.36 132.522 L
187.322 131.964 L
188.284 131.407 L
189.247 130.852 L
190.209 130.297 L
191.171 129.744 L
192.134 129.193 L
193.096 128.643 L
194.058 128.094 L
195.02 127.546 L
195.983 127 L
196.945 126.455 L
197.907 125.912 L
198.869 125.37 L
199.832 124.829 L
200.794 124.29 L
201.756 123.752 L
202.719 123.215 L
203.681 122.68 L
204.643 122.147 L
205.605 121.615 L
206.568 121.084 L
207.53 120.555 L
208.492 120.027 L
209.454 119.5 L
210.417 118.975 L
211.379 118.452 L
212.341 117.93 L
213.303 117.41 L
214.266 116.891 L
215.228 116.373 L
216.19 115.857 L
217.153 115.343 L
218.115 114.83 L
219.077 114.319 L
220.039 113.809 L
221.002 113.301 L
221.964 112.794 L
222.926 112.289 L
223.888 111.785 L
224.851 111.283 L
225.813 110.783 L
226.775 110.284 L
227.738 109.787 L
228.7 109.292 L
229.662 108.798 L
230.624 108.306 L
231.587 107.815 L
232.549 107.326 L
233.511 106.839 L
234.473 106.353 L
235.436 105.869 L
236.398 105.387 L
237.36 104.906 L
238.322 104.427 L
239.285 103.95 L
240.247 103.474 L
241.209 103 L
242.172 102.528 L
243.134 102.058 L
244.096 101.589 L
245.058 101.122 L
246.021 100.657 L
246.983 100.194 L
247.945 99.732 L
248.907 99.272 L
249.87 98.814 L
250.832 98.358 L
251.794 97.903 L
252.757 97.451 L
253.719 97 L
254.681 96.551 L
255.643 96.104 L
256.606 95.658 L
257.568 95.215 L
258.53 94.773 L
259.492 94.333 L
260.455 93.895 L
261.417 93.459 L
262.379 93.025 L
263.341 92.592 L
264.304 92.162 L
265.266 91.733 L
266.228 91.307 L
267.191 90.882 L
268.153 90.459 L
269.115 90.038 L
270.077 89.619 L
271.04 89.202 L
272.002 88.787 L
272.964 88.374 L
273.926 87.963 L
274.889 87.554 L
275.851 87.147 L
276.813 86.742 L
277.776 86.338 L
278.738 85.937 L
279.7 85.538 L
280.662 85.141 L
281.625 84.746 L
282.587 84.353 L
283.549 83.962 L
284.511 83.573 L
285.474 83.186 L
286.436 82.801 L
287.398 82.419 L
288.36 82.038 L
289.323 81.659 L
290.285 81.283 L
291.247 80.909 L
292.21 80.536 L
293.172 80.166 L
294.134 79.798 L
295.096 79.432 L
296.059 79.069 L
297.021 78.707 L
297.983 78.348 L
298.945 77.99 L
299.908 77.635 L
300.87 77.282 L
301.832 76.932 L
302.795 76.583 L
303.757 76.237 L
304.719 75.893 L
305.681 75.551 L
306.644 75.211 L
307.606 74.874 L
308.568 74.539 L
309.53 74.206 L
310.493 73.875 L
311.455 73.547 L
312.417 73.221 L
313.379 72.897 L
314.342 72.575 L
315.304 72.256 L
316.266 71.939 L
317.229 71.624 L
318.191 71.312 L
319.153 71.002 L
320.115 70.694 L
321.078 70.389 L
322.04 70.086 L
323.002 69.785 L
323.964 69.487 L
324.927 69.191 L
325.889 68.898 L
326.851 68.607 L
327.814 68.318 L
328.776 68.031 L
329.738 67.748 L
330.7 67.466 L
331.663 67.187 L
332.625 66.91 L
333.587 66.636 L
334.549 66.364 L
335.512 66.095 L
336.474 65.828 L
337.436 65.564 L
338.398 65.302 L
339.361 65.042 L
340.323 64.785 L
341.285 64.531 L
342.248 64.279 L
343.21 64.029 L
344.172 63.782 L
345.134 63.538 L
346.097 63.296 L
347.059 63.057 L
348.021 62.82 L
348.983 62.586 L
349.946 62.354 L
350.908 62.125 L
351.87 61.899 L
352.833 61.675 L
353.795 61.454 L
354.757 61.235 L
355.719 61.019 L
356.682 60.805 L
357.644 60.594 L
358.606 60.386 L
359.568 60.181 L
360.531 59.978 L
361.493 59.778 L
362.455 59.58 L
363.417 59.385 L
364.38 59.193 L
365.342 59.003 L
366.304 58.816 L
367.267 58.632 L
368.229 58.451 L
369.191 58.272 L
370.153 58.096 L
371.116 57.923 L
372.078 57.752 L
373.04 57.585 L
374.002 57.42 L
374.965 57.257 L
375.927 57.098 L
376.889 56.941 L
377.852 56.787 L
378.814 56.636 L
379.776 56.488 L
380.738 56.342 L
381.701 56.199 L
382.663 56.059 L
383.625 55.922 L
384.587 55.788 L
385.55 55.657 L
386.512 55.528 L
387.474 55.403 L
388.436 55.28 L
389.399 55.16 L
390.361 55.043 L
391.323 54.929 L
392.286 54.817 L
393.248 54.709 L
394.21 54.604 L
395.172 54.501 L
396.135 54.402 L
397.097 54.305 L
398.059 54.211 L
399.021 54.121 L
399.984 54.033 L
400.946 53.948 L
401.908 53.866 L
402.871 53.787 L
403.833 53.711 L
404.795 53.639 L
405.757 53.569 L
406.72 53.502 L
407.682 53.438 L
408.644 53.377 L
409.606 53.319 L
410.569 53.265 L
411.531 53.213 L
412.493 53.164 L
413.456 53.119 L
414.418 53.076 L
415.38 53.037 L
416.342 53.001 L
417.305 52.967 L
418.267 52.937 L
419.229 52.91 L
420.191 52.886 L
421.154 52.865 L
422.116 52.848 L
423.078 52.833 L
424.04 52.822 L
425.003 52.814 L
425.965 52.809 L
426.927 52.807 L
S
GR
GS
0.851 0.325 0.098 RC
[10 6] 0 setdash
2 LJ
0.5 LW
N
73.03 374 M
73.992 309.195 L
74.955 274.719 L
75.917 251.953 L
76.879 237.629 L
77.841 228.463 L
78.804 220.449 L
79.766 213.627 L
80.728 208.055 L
81.69 203.789 L
82.653 200.884 L
83.615 199.342 L
84.577 198.184 L
85.539 197.032 L
86.502 195.886 L
87.464 194.748 L
88.426 193.615 L
89.389 192.489 L
90.351 191.369 L
91.313 190.256 L
92.275 189.149 L
93.238 188.048 L
94.2 186.954 L
95.162 185.866 L
96.124 184.784 L
97.087 183.708 L
98.049 182.639 L
99.011 181.576 L
99.974 180.519 L
100.936 179.469 L
101.898 178.424 L
102.86 177.386 L
103.823 176.354 L
104.785 175.328 L
105.747 174.308 L
106.709 173.294 L
107.672 172.287 L
108.634 171.285 L
109.596 170.29 L
110.559 169.3 L
111.521 168.317 L
112.483 167.339 L
113.445 166.368 L
114.408 165.402 L
115.37 164.442 L
116.332 163.489 L
117.294 162.541 L
118.257 161.599 L
119.219 160.663 L
120.181 159.733 L
121.143 158.808 L
122.106 157.89 L
123.068 156.977 L
124.03 156.07 L
124.993 155.169 L
125.955 154.274 L
126.917 153.384 L
127.879 152.5 L
128.842 151.622 L
129.804 150.749 L
130.766 149.882 L
131.728 149.021 L
132.691 148.165 L
133.653 147.315 L
134.615 146.471 L
135.578 145.632 L
136.54 144.799 L
137.502 143.971 L
138.464 143.149 L
139.427 142.332 L
140.389 141.521 L
141.351 140.716 L
142.313 139.915 L
143.276 139.121 L
144.238 138.331 L
145.2 137.547 L
146.162 136.769 L
147.125 135.995 L
148.087 135.228 L
149.049 134.465 L
150.012 133.708 L
150.974 132.956 L
151.936 132.209 L
152.898 131.468 L
153.861 130.732 L
154.823 130.001 L
155.785 129.276 L
156.747 128.555 L
157.71 127.84 L
158.672 127.13 L
159.634 126.425 L
160.597 125.725 L
161.559 125.031 L
162.521 124.341 L
163.483 123.657 L
164.446 122.977 L
165.408 122.303 L
166.37 121.634 L
167.332 120.969 L
168.295 120.31 L
169.257 119.656 L
170.219 119.006 L
171.181 118.362 L
172.144 117.722 L
173.106 117.088 L
174.068 116.458 L
175.031 115.833 L
175.993 115.213 L
176.955 114.598 L
177.917 113.988 L
178.88 113.382 L
179.842 112.782 L
180.804 112.186 L
181.766 111.595 L
182.729 111.008 L
183.691 110.426 L
184.653 109.849 L
185.616 109.277 L
186.578 108.709 L
187.54 108.146 L
188.502 107.588 L
189.465 107.034 L
190.427 106.485 L
191.389 105.94 L
192.351 105.4 L
193.314 104.865 L
194.276 104.334 L
195.238 103.808 L
196.2 103.286 L
197.163 102.768 L
198.125 102.255 L
199.087 101.747 L
200.05 101.243 L
201.012 100.743 L
201.974 100.248 L
202.936 99.757 L
203.899 99.27 L
204.861 98.788 L
205.823 98.31 L
206.785 97.836 L
207.748 97.367 L
208.71 96.902 L
209.672 96.441 L
210.635 95.984 L
211.597 95.532 L
212.559 95.084 L
213.521 94.64 L
214.484 94.2 L
215.446 93.765 L
216.408 93.333 L
217.37 92.906 L
218.333 92.482 L
219.295 92.063 L
220.257 91.648 L
221.219 91.237 L
222.182 90.83 L
223.144 90.427 L
224.106 90.028 L
225.069 89.633 L
226.031 89.242 L
226.993 88.855 L
227.955 88.471 L
228.918 88.092 L
229.88 87.717 L
230.842 87.345 L
231.804 86.977 L
232.767 86.613 L
233.729 86.254 L
234.691 85.897 L
235.654 85.545 L
236.616 85.196 L
237.578 84.851 L
238.54 84.51 L
239.503 84.173 L
240.465 83.839 L
241.427 83.509 L
242.389 83.182 L
243.352 82.86 L
244.314 82.541 L
245.276 82.225 L
246.238 81.913 L
247.201 81.605 L
248.163 81.3 L
249.125 80.999 L
250.088 80.701 L
251.05 80.407 L
252.012 80.117 L
252.974 79.83 L
253.937 79.546 L
254.899 79.266 L
255.861 78.989 L
256.823 78.716 L
257.786 78.445 L
258.748 78.179 L
259.71 77.915 L
260.673 77.656 L
261.635 77.399 L
262.597 77.146 L
263.559 76.896 L
264.522 76.649 L
265.484 76.405 L
266.446 76.165 L
267.408 75.928 L
268.371 75.694 L
269.333 75.464 L
270.295 75.236 L
271.258 75.012 L
272.22 74.791 L
273.182 74.573 L
274.144 74.358 L
275.107 74.146 L
276.069 73.937 L
277.031 73.731 L
277.993 73.529 L
278.956 73.329 L
279.918 73.132 L
280.88 72.938 L
281.842 72.748 L
282.805 72.56 L
283.767 72.375 L
284.729 72.193 L
285.692 72.014 L
286.654 71.838 L
287.616 71.664 L
288.578 71.494 L
289.541 71.326 L
290.503 71.161 L
291.465 70.999 L
292.427 70.84 L
293.39 70.683 L
294.352 70.53 L
295.314 70.379 L
296.277 70.23 L
297.239 70.084 L
298.201 69.941 L
299.163 69.801 L
300.126 69.663 L
301.088 69.528 L
302.05 69.396 L
303.012 69.266 L
303.975 69.138 L
304.937 69.014 L
305.899 68.891 L
306.861 68.771 L
307.824 68.654 L
308.786 68.539 L
309.748 68.427 L
310.711 68.317 L
311.673 68.21 L
312.635 68.105 L
313.597 68.002 L
314.56 67.902 L
315.522 67.804 L
316.484 67.708 L
317.446 67.615 L
318.409 67.524 L
319.371 67.435 L
320.333 67.349 L
321.296 67.265 L
322.258 67.183 L
323.22 67.104 L
324.182 67.026 L
325.145 66.951 L
326.107 66.878 L
327.069 66.807 L
328.031 66.738 L
328.994 66.671 L
329.956 66.607 L
330.918 66.544 L
331.88 66.484 L
332.843 66.426 L
333.805 66.369 L
334.767 66.315 L
335.73 66.263 L
336.692 66.212 L
337.654 66.164 L
338.616 66.118 L
339.579 66.073 L
340.541 66.031 L
341.503 65.99 L
342.465 65.951 L
343.428 65.914 L
344.39 65.879 L
345.352 65.846 L
346.315 65.814 L
347.277 65.785 L
348.239 65.757 L
349.201 65.73 L
350.164 65.706 L
351.126 65.683 L
352.088 65.662 L
353.05 65.643 L
354.013 65.626 L
354.975 65.61 L
355.937 65.595 L
356.899 65.583 L
357.862 65.571 L
358.824 65.562 L
359.786 65.554 L
360.749 65.548 L
361.711 65.543 L
362.673 65.539 L
363.635 65.538 L
S
GR
GS
1 GC
N
499 366 M
499 218.5 L
327.5 218.5 L
327.5 366 L
cp
f
GR
GS
[1 0 0 1 364.5 228.25] CT
/Helvetica 13 F
GS
[1 0 0 1 0 0] CT
0 5 moveto 
1 -1 scale
(Base Run) t 
GR
GR
GS
0 0.447 0.741 RC
1 LJ
0.5 LW
N
331.5 228.25 M
361.5 228.25 L
S
GR
GS
[1 0 0 1 364.5 244.25] CT
/Helvetica 13 F
GS
[1 0 0 1 0 0] CT
0 5 moveto 
1 -1 scale
(All Frames) t 
GR
GR
GS
0.851 0.325 0.098 RC
1 LJ
0.5 LW
N
331.5 244.25 M
361.5 244.25 L
S
GR
GS
[1 0 0 1 364.5 260.25] CT
/Helvetica 13 F
GS
[1 0 0 1 0 0] CT
0 5 moveto 
1 -1 scale
(KF Only) t 
GR
GR
GS
0.929 0.694 0.125 RC
1 LJ
0.5 LW
N
331.5 260.25 M
361.5 260.25 L
S
GR
GS
[1 0 0 1 364.5 276.25] CT
/Helvetica 13 F
GS
[1 0 0 1 0 0] CT
0 5 moveto 
1 -1 scale
(GF, ARF Only) t 
GR
GR
GS
0.494 0.184 0.557 RC
1 LJ
0.5 LW
N
331.5 276.25 M
361.5 276.25 L
S
GR
GS
[1 0 0 1 364.5 292.25] CT
/Helvetica 13 F
GS
[1 0 0 1 0 0] CT
0 5 moveto 
1 -1 scale
(KF, GF, ARF Only) t 
GR
GR
GS
0.467 0.675 0.188 RC
1 LJ
0.5 LW
N
331.5 292.25 M
361.5 292.25 L
S
GR
GS
[1 0 0 1 364.5 308.25] CT
/Helvetica 13 F
GS
[1 0 0 1 0 0] CT
0 5 moveto 
1 -1 scale
(Part All Frames) t 
GR
GR
GS
0.302 0.745 0.933 RC
[10 6] 0 setdash
2 LJ
0.5 LW
N
331.5 308.25 M
361.5 308.25 L
S
GR
GS
[1 0 0 1 364.5 324.25] CT
/Helvetica 13 F
GS
[1 0 0 1 0 0] CT
0 5 moveto 
1 -1 scale
(Part KF Only) t 
GR
GR
GS
0.635 0.078 0.184 RC
[10 6] 0 setdash
2 LJ
0.5 LW
N
331.5 324.25 M
361.5 324.25 L
S
GR
GS
[1 0 0 1 364.5 340.25] CT
/Helvetica 13 F
GS
[1 0 0 1 0 0] CT
0 5 moveto 
1 -1 scale
(Part GF, ARF Only) t 
GR
GR
GS
0 0.447 0.741 RC
[10 6] 0 setdash
2 LJ
0.5 LW
N
331.5 340.25 M
361.5 340.25 L
S
GR
GS
[1 0 0 1 364.5 356.25] CT
/Helvetica 13 F
GS
[1 0 0 1 0 0] CT
0 5 moveto 
1 -1 scale
(Part KF, GF, ARF Only) t 
GR
GR
GS
0.851 0.325 0.098 RC
[10 6] 0 setdash
2 LJ
0.5 LW
N
331.5 356.25 M
361.5 356.25 L
S
GR
GS
0.149 GC
10.0 ML
0.5 LW
N
327.5 366 M
327.5 218.5 L
499 218.5 L
499 366 L
cp
S
GR
%%Trailer
%%Pages: 1
%%EOF
