%!PS-Adobe-3.0 EPSF-3.0
%%Creator: (MATLAB, The Mathworks, Inc. Version 9.11.0.1837725 \(R2021b\) Update 2. Operating System: Mac OS X)
%%Title: plots/pchip/DinnerSceneCropped_1920x1080_2997fps_10bit_420.y4m-hevc-PSNRU.eps
%%CreationDate: 2022-02-03T19:13:59
%%Pages: (atend)
%%BoundingBox:    22   425   531   826
%%LanguageLevel: 3
%%EndComments
%%BeginProlog
%%BeginResource: procset (Apache XML Graphics Std ProcSet) 1.2 0
%%Version: 1.2 0
%%Copyright: (Copyright 2001-2003,2010 The Apache Software Foundation. License terms: http://www.apache.org/licenses/LICENSE-2.0)
/bd{bind def}bind def
/ld{load def}bd
/GR/grestore ld
/GS/gsave ld
/RM/rmoveto ld
/C/curveto ld
/t/show ld
/L/lineto ld
/ML/setmiterlimit ld
/CT/concat ld
/f/fill ld
/N/newpath ld
/S/stroke ld
/CC/setcmykcolor ld
/A/ashow ld
/cp/closepath ld
/RC/setrgbcolor ld
/LJ/setlinejoin ld
/GC/setgray ld
/LW/setlinewidth ld
/M/moveto ld
/re {4 2 roll M
1 index 0 rlineto
0 exch rlineto
neg 0 rlineto
cp } bd
/_ctm matrix def
/_tm matrix def
/BT { _ctm currentmatrix pop matrix _tm copy pop 0 0 moveto } bd
/ET { _ctm setmatrix } bd
/iTm { _ctm setmatrix _tm concat } bd
/Tm { _tm astore pop iTm 0 0 moveto } bd
/ux 0.0 def
/uy 0.0 def
/F {
  /Tp exch def
  /Tf exch def
  Tf findfont Tp scalefont setfont
  /cf Tf def  /cs Tp def
} bd
/ULS {currentpoint /uy exch def /ux exch def} bd
/ULE {
  /Tcx currentpoint pop def
  gsave
  newpath
  cf findfont cs scalefont dup
  /FontMatrix get 0 get /Ts exch def /FontInfo get dup
  /UnderlinePosition get Ts mul /To exch def
  /UnderlineThickness get Ts mul /Tt exch def
  ux uy To add moveto  Tcx uy To add lineto
  Tt setlinewidth stroke
  grestore
} bd
/OLE {
  /Tcx currentpoint pop def
  gsave
  newpath
  cf findfont cs scalefont dup
  /FontMatrix get 0 get /Ts exch def /FontInfo get dup
  /UnderlinePosition get Ts mul /To exch def
  /UnderlineThickness get Ts mul /Tt exch def
  ux uy To add cs add moveto Tcx uy To add cs add lineto
  Tt setlinewidth stroke
  grestore
} bd
/SOE {
  /Tcx currentpoint pop def
  gsave
  newpath
  cf findfont cs scalefont dup
  /FontMatrix get 0 get /Ts exch def /FontInfo get dup
  /UnderlinePosition get Ts mul /To exch def
  /UnderlineThickness get Ts mul /Tt exch def
  ux uy To add cs 10 mul 26 idiv add moveto Tcx uy To add cs 10 mul 26 idiv add lineto
  Tt setlinewidth stroke
  grestore
} bd
/QT {
/Y22 exch store
/X22 exch store
/Y21 exch store
/X21 exch store
currentpoint
/Y21 load 2 mul add 3 div exch
/X21 load 2 mul add 3 div exch
/X21 load 2 mul /X22 load add 3 div
/Y21 load 2 mul /Y22 load add 3 div
/X22 load /Y22 load curveto
} bd
/SSPD {
dup length /d exch dict def
{
/v exch def
/k exch def
currentpagedevice k known {
/cpdv currentpagedevice k get def
v cpdv ne {
/upd false def
/nullv v type /nulltype eq def
/nullcpdv cpdv type /nulltype eq def
nullv nullcpdv or
{
/upd true def
} {
/sametype v type cpdv type eq def
sametype {
v type /arraytype eq {
/vlen v length def
/cpdvlen cpdv length def
vlen cpdvlen eq {
0 1 vlen 1 sub {
/i exch def
/obj v i get def
/cpdobj cpdv i get def
obj cpdobj ne {
/upd true def
exit
} if
} for
} {
/upd true def
} ifelse
} {
v type /dicttype eq {
v {
/dv exch def
/dk exch def
/cpddv cpdv dk get def
dv cpddv ne {
/upd true def
exit
} if
} forall
} {
/upd true def
} ifelse
} ifelse
} if
} ifelse
upd true eq {
d k v put
} if
} if
} if
} forall
d length 0 gt {
d setpagedevice
} if
} bd
/RE { % /NewFontName [NewEncodingArray] /FontName RE -
  findfont dup length dict begin
  {
    1 index /FID ne
    {def} {pop pop} ifelse
  } forall
  /Encoding exch def
  /FontName 1 index def
  currentdict definefont pop
  end
} bind def
%%EndResource
%%BeginResource: procset (Apache XML Graphics EPS ProcSet) 1.0 0
%%Version: 1.0 0
%%Copyright: (Copyright 2002-2003 The Apache Software Foundation. License terms: http://www.apache.org/licenses/LICENSE-2.0)
/BeginEPSF { %def
/b4_Inc_state save def         % Save state for cleanup
/dict_count countdictstack def % Count objects on dict stack
/op_count count 1 sub def      % Count objects on operand stack
userdict begin                 % Push userdict on dict stack
/showpage { } def              % Redefine showpage, { } = null proc
0 setgray 0 setlinecap         % Prepare graphics state
1 setlinewidth 0 setlinejoin
10 setmiterlimit [ ] 0 setdash newpath
/languagelevel where           % If level not equal to 1 then
{pop languagelevel             % set strokeadjust and
1 ne                           % overprint to their defaults.
{false setstrokeadjust false setoverprint
} if
} if
} bd
/EndEPSF { %def
count op_count sub {pop} repeat            % Clean up stacks
countdictstack dict_count sub {end} repeat
b4_Inc_state restore
} bd
%%EndResource
%FOPBeginFontDict
%%IncludeResource: font Courier-Oblique
%%IncludeResource: font Courier-BoldOblique
%%IncludeResource: font Courier-Bold
%%IncludeResource: font ZapfDingbats
%%IncludeResource: font Symbol
%%IncludeResource: font Helvetica
%%IncludeResource: font Helvetica-Oblique
%%IncludeResource: font Helvetica-Bold
%%IncludeResource: font Helvetica-BoldOblique
%%IncludeResource: font Times-Roman
%%IncludeResource: font Times-Italic
%%IncludeResource: font Times-Bold
%%IncludeResource: font Times-BoldItalic
%%IncludeResource: font Courier
%FOPEndFontDict
%%BeginResource: encoding WinAnsiEncoding
/WinAnsiEncoding [
/.notdef /.notdef /.notdef /.notdef /.notdef
/.notdef /.notdef /.notdef /.notdef /.notdef
/.notdef /.notdef /.notdef /.notdef /.notdef
/.notdef /.notdef /.notdef /.notdef /.notdef
/.notdef /.notdef /.notdef /.notdef /.notdef
/.notdef /.notdef /.notdef /.notdef /.notdef
/.notdef /.notdef /space /exclam /quotedbl
/numbersign /dollar /percent /ampersand /quotesingle
/parenleft /parenright /asterisk /plus /comma
/hyphen /period /slash /zero /one
/two /three /four /five /six
/seven /eight /nine /colon /semicolon
/less /equal /greater /question /at
/A /B /C /D /E
/F /G /H /I /J
/K /L /M /N /O
/P /Q /R /S /T
/U /V /W /X /Y
/Z /bracketleft /backslash /bracketright /asciicircum
/underscore /quoteleft /a /b /c
/d /e /f /g /h
/i /j /k /l /m
/n /o /p /q /r
/s /t /u /v /w
/x /y /z /braceleft /bar
/braceright /asciitilde /bullet /Euro /bullet
/quotesinglbase /florin /quotedblbase /ellipsis /dagger
/daggerdbl /circumflex /perthousand /Scaron /guilsinglleft
/OE /bullet /Zcaron /bullet /bullet
/quoteleft /quoteright /quotedblleft /quotedblright /bullet
/endash /emdash /asciitilde /trademark /scaron
/guilsinglright /oe /bullet /zcaron /Ydieresis
/space /exclamdown /cent /sterling /currency
/yen /brokenbar /section /dieresis /copyright
/ordfeminine /guillemotleft /logicalnot /sfthyphen /registered
/macron /degree /plusminus /twosuperior /threesuperior
/acute /mu /paragraph /middot /cedilla
/onesuperior /ordmasculine /guillemotright /onequarter /onehalf
/threequarters /questiondown /Agrave /Aacute /Acircumflex
/Atilde /Adieresis /Aring /AE /Ccedilla
/Egrave /Eacute /Ecircumflex /Edieresis /Igrave
/Iacute /Icircumflex /Idieresis /Eth /Ntilde
/Ograve /Oacute /Ocircumflex /Otilde /Odieresis
/multiply /Oslash /Ugrave /Uacute /Ucircumflex
/Udieresis /Yacute /Thorn /germandbls /agrave
/aacute /acircumflex /atilde /adieresis /aring
/ae /ccedilla /egrave /eacute /ecircumflex
/edieresis /igrave /iacute /icircumflex /idieresis
/eth /ntilde /ograve /oacute /ocircumflex
/otilde /odieresis /divide /oslash /ugrave
/uacute /ucircumflex /udieresis /yacute /thorn
/ydieresis
] def
%%EndResource
%FOPBeginFontReencode
/Courier-Oblique findfont
dup length dict begin
  {1 index /FID ne {def} {pop pop} ifelse} forall
  /Encoding WinAnsiEncoding def
  currentdict
end
/Courier-Oblique exch definefont pop
/Courier-BoldOblique findfont
dup length dict begin
  {1 index /FID ne {def} {pop pop} ifelse} forall
  /Encoding WinAnsiEncoding def
  currentdict
end
/Courier-BoldOblique exch definefont pop
/Courier-Bold findfont
dup length dict begin
  {1 index /FID ne {def} {pop pop} ifelse} forall
  /Encoding WinAnsiEncoding def
  currentdict
end
/Courier-Bold exch definefont pop
/Helvetica findfont
dup length dict begin
  {1 index /FID ne {def} {pop pop} ifelse} forall
  /Encoding WinAnsiEncoding def
  currentdict
end
/Helvetica exch definefont pop
/Helvetica-Oblique findfont
dup length dict begin
  {1 index /FID ne {def} {pop pop} ifelse} forall
  /Encoding WinAnsiEncoding def
  currentdict
end
/Helvetica-Oblique exch definefont pop
/Helvetica-Bold findfont
dup length dict begin
  {1 index /FID ne {def} {pop pop} ifelse} forall
  /Encoding WinAnsiEncoding def
  currentdict
end
/Helvetica-Bold exch definefont pop
/Helvetica-BoldOblique findfont
dup length dict begin
  {1 index /FID ne {def} {pop pop} ifelse} forall
  /Encoding WinAnsiEncoding def
  currentdict
end
/Helvetica-BoldOblique exch definefont pop
/Times-Roman findfont
dup length dict begin
  {1 index /FID ne {def} {pop pop} ifelse} forall
  /Encoding WinAnsiEncoding def
  currentdict
end
/Times-Roman exch definefont pop
/Times-Italic findfont
dup length dict begin
  {1 index /FID ne {def} {pop pop} ifelse} forall
  /Encoding WinAnsiEncoding def
  currentdict
end
/Times-Italic exch definefont pop
/Times-Bold findfont
dup length dict begin
  {1 index /FID ne {def} {pop pop} ifelse} forall
  /Encoding WinAnsiEncoding def
  currentdict
end
/Times-Bold exch definefont pop
/Times-BoldItalic findfont
dup length dict begin
  {1 index /FID ne {def} {pop pop} ifelse} forall
  /Encoding WinAnsiEncoding def
  currentdict
end
/Times-BoldItalic exch definefont pop
/Courier findfont
dup length dict begin
  {1 index /FID ne {def} {pop pop} ifelse} forall
  /Encoding WinAnsiEncoding def
  currentdict
end
/Courier exch definefont pop
%FOPEndFontReencode
%%EndProlog
%%Page: 1 1
%%PageBoundingBox: 0 0 1120 840
%%BeginPageSetup
[1 0 0 -1 0 840] CT
%%EndPageSetup
GS
1 GC
N
0 0 1120 840 re
f
GR
GS
1 GC
N
73 374 M
507 374 L
507 31.5 L
73 31.5 L
cp
f
GR
GS
0.149 GC
2 setlinecap
1 LJ
0.5 LW
N
73 374 M
507 374 L
S
GR
GS
0.149 GC
2 setlinecap
1 LJ
0.5 LW
N
73 31.5 M
507 31.5 L
S
GR
GS
0.149 GC
2 setlinecap
1 LJ
0.5 LW
N
134.468 374 M
134.468 369.66 L
S
GR
GS
0.149 GC
2 setlinecap
1 LJ
0.5 LW
N
199.165 374 M
199.165 369.66 L
S
GR
GS
0.149 GC
2 setlinecap
1 LJ
0.5 LW
N
263.863 374 M
263.863 369.66 L
S
GR
GS
0.149 GC
2 setlinecap
1 LJ
0.5 LW
N
328.56 374 M
328.56 369.66 L
S
GR
GS
0.149 GC
2 setlinecap
1 LJ
0.5 LW
N
393.257 374 M
393.257 369.66 L
S
GR
GS
0.149 GC
2 setlinecap
1 LJ
0.5 LW
N
457.955 374 M
457.955 369.66 L
S
GR
GS
0.149 GC
2 setlinecap
1 LJ
0.5 LW
N
134.468 31.5 M
134.468 35.84 L
S
GR
GS
0.149 GC
2 setlinecap
1 LJ
0.5 LW
N
199.165 31.5 M
199.165 35.84 L
S
GR
GS
0.149 GC
2 setlinecap
1 LJ
0.5 LW
N
263.863 31.5 M
263.863 35.84 L
S
GR
GS
0.149 GC
2 setlinecap
1 LJ
0.5 LW
N
328.56 31.5 M
328.56 35.84 L
S
GR
GS
0.149 GC
2 setlinecap
1 LJ
0.5 LW
N
393.257 31.5 M
393.257 35.84 L
S
GR
GS
0.149 GC
2 setlinecap
1 LJ
0.5 LW
N
457.955 31.5 M
457.955 35.84 L
S
GR
GS
0.149 GC
2 setlinecap
1 LJ
0.5 LW
N
82.71 374 M
82.71 371.83 L
S
GR
GS
0.149 GC
2 setlinecap
1 LJ
0.5 LW
N
95.65 374 M
95.65 371.83 L
S
GR
GS
0.149 GC
2 setlinecap
1 LJ
0.5 LW
N
108.589 374 M
108.589 371.83 L
S
GR
GS
0.149 GC
2 setlinecap
1 LJ
0.5 LW
N
121.529 374 M
121.529 371.83 L
S
GR
GS
0.149 GC
2 setlinecap
1 LJ
0.5 LW
N
147.407 374 M
147.407 371.83 L
S
GR
GS
0.149 GC
2 setlinecap
1 LJ
0.5 LW
N
160.347 374 M
160.347 371.83 L
S
GR
GS
0.149 GC
2 setlinecap
1 LJ
0.5 LW
N
173.286 374 M
173.286 371.83 L
S
GR
GS
0.149 GC
2 setlinecap
1 LJ
0.5 LW
N
186.226 374 M
186.226 371.83 L
S
GR
GS
0.149 GC
2 setlinecap
1 LJ
0.5 LW
N
212.105 374 M
212.105 371.83 L
S
GR
GS
0.149 GC
2 setlinecap
1 LJ
0.5 LW
N
225.044 374 M
225.044 371.83 L
S
GR
GS
0.149 GC
2 setlinecap
1 LJ
0.5 LW
N
237.984 374 M
237.984 371.83 L
S
GR
GS
0.149 GC
2 setlinecap
1 LJ
0.5 LW
N
250.923 374 M
250.923 371.83 L
S
GR
GS
0.149 GC
2 setlinecap
1 LJ
0.5 LW
N
276.802 374 M
276.802 371.83 L
S
GR
GS
0.149 GC
2 setlinecap
1 LJ
0.5 LW
N
289.742 374 M
289.742 371.83 L
S
GR
GS
0.149 GC
2 setlinecap
1 LJ
0.5 LW
N
302.681 374 M
302.681 371.83 L
S
GR
GS
0.149 GC
2 setlinecap
1 LJ
0.5 LW
N
315.621 374 M
315.621 371.83 L
S
GR
GS
0.149 GC
2 setlinecap
1 LJ
0.5 LW
N
341.499 374 M
341.499 371.83 L
S
GR
GS
0.149 GC
2 setlinecap
1 LJ
0.5 LW
N
354.439 374 M
354.439 371.83 L
S
GR
GS
0.149 GC
2 setlinecap
1 LJ
0.5 LW
N
367.378 374 M
367.378 371.83 L
S
GR
GS
0.149 GC
2 setlinecap
1 LJ
0.5 LW
N
380.318 374 M
380.318 371.83 L
S
GR
GS
0.149 GC
2 setlinecap
1 LJ
0.5 LW
N
406.197 374 M
406.197 371.83 L
S
GR
GS
0.149 GC
2 setlinecap
1 LJ
0.5 LW
N
419.136 374 M
419.136 371.83 L
S
GR
GS
0.149 GC
2 setlinecap
1 LJ
0.5 LW
N
432.076 374 M
432.076 371.83 L
S
GR
GS
0.149 GC
2 setlinecap
1 LJ
0.5 LW
N
445.015 374 M
445.015 371.83 L
S
GR
GS
0.149 GC
2 setlinecap
1 LJ
0.5 LW
N
470.894 374 M
470.894 371.83 L
S
GR
GS
0.149 GC
2 setlinecap
1 LJ
0.5 LW
N
483.834 374 M
483.834 371.83 L
S
GR
GS
0.149 GC
2 setlinecap
1 LJ
0.5 LW
N
496.773 374 M
496.773 371.83 L
S
GR
GS
0.149 GC
2 setlinecap
1 LJ
0.5 LW
N
82.71 31.5 M
82.71 33.67 L
S
GR
GS
0.149 GC
2 setlinecap
1 LJ
0.5 LW
N
95.65 31.5 M
95.65 33.67 L
S
GR
GS
0.149 GC
2 setlinecap
1 LJ
0.5 LW
N
108.589 31.5 M
108.589 33.67 L
S
GR
GS
0.149 GC
2 setlinecap
1 LJ
0.5 LW
N
121.529 31.5 M
121.529 33.67 L
S
GR
GS
0.149 GC
2 setlinecap
1 LJ
0.5 LW
N
147.407 31.5 M
147.407 33.67 L
S
GR
GS
0.149 GC
2 setlinecap
1 LJ
0.5 LW
N
160.347 31.5 M
160.347 33.67 L
S
GR
GS
0.149 GC
2 setlinecap
1 LJ
0.5 LW
N
173.286 31.5 M
173.286 33.67 L
S
GR
GS
0.149 GC
2 setlinecap
1 LJ
0.5 LW
N
186.226 31.5 M
186.226 33.67 L
S
GR
GS
0.149 GC
2 setlinecap
1 LJ
0.5 LW
N
212.105 31.5 M
212.105 33.67 L
S
GR
GS
0.149 GC
2 setlinecap
1 LJ
0.5 LW
N
225.044 31.5 M
225.044 33.67 L
S
GR
GS
0.149 GC
2 setlinecap
1 LJ
0.5 LW
N
237.984 31.5 M
237.984 33.67 L
S
GR
GS
0.149 GC
2 setlinecap
1 LJ
0.5 LW
N
250.923 31.5 M
250.923 33.67 L
S
GR
GS
0.149 GC
2 setlinecap
1 LJ
0.5 LW
N
276.802 31.5 M
276.802 33.67 L
S
GR
GS
0.149 GC
2 setlinecap
1 LJ
0.5 LW
N
289.742 31.5 M
289.742 33.67 L
S
GR
GS
0.149 GC
2 setlinecap
1 LJ
0.5 LW
N
302.681 31.5 M
302.681 33.67 L
S
GR
GS
0.149 GC
2 setlinecap
1 LJ
0.5 LW
N
315.621 31.5 M
315.621 33.67 L
S
GR
GS
0.149 GC
2 setlinecap
1 LJ
0.5 LW
N
341.499 31.5 M
341.499 33.67 L
S
GR
GS
0.149 GC
2 setlinecap
1 LJ
0.5 LW
N
354.439 31.5 M
354.439 33.67 L
S
GR
GS
0.149 GC
2 setlinecap
1 LJ
0.5 LW
N
367.378 31.5 M
367.378 33.67 L
S
GR
GS
0.149 GC
2 setlinecap
1 LJ
0.5 LW
N
380.318 31.5 M
380.318 33.67 L
S
GR
GS
0.149 GC
2 setlinecap
1 LJ
0.5 LW
N
406.197 31.5 M
406.197 33.67 L
S
GR
GS
0.149 GC
2 setlinecap
1 LJ
0.5 LW
N
419.136 31.5 M
419.136 33.67 L
S
GR
GS
0.149 GC
2 setlinecap
1 LJ
0.5 LW
N
432.076 31.5 M
432.076 33.67 L
S
GR
GS
0.149 GC
2 setlinecap
1 LJ
0.5 LW
N
445.015 31.5 M
445.015 33.67 L
S
GR
GS
0.149 GC
2 setlinecap
1 LJ
0.5 LW
N
470.894 31.5 M
470.894 33.67 L
S
GR
GS
0.149 GC
2 setlinecap
1 LJ
0.5 LW
N
483.834 31.5 M
483.834 33.67 L
S
GR
GS
0.149 GC
2 setlinecap
1 LJ
0.5 LW
N
496.773 31.5 M
496.773 33.67 L
S
GR
GS
[1 0 0 1 134.468 378.79987] CT
0.149 GC
/Helvetica 14 F
GS
[1 0 0 1 0 0] CT
-16 14 moveto 
1 -1 scale
(1000) t 
GR
GR
GS
[1 0 0 1 199.16533 378.79987] CT
0.149 GC
/Helvetica 14 F
GS
[1 0 0 1 0 0] CT
-16 14 moveto 
1 -1 scale
(2000) t 
GR
GR
GS
[1 0 0 1 263.86267 378.79987] CT
0.149 GC
/Helvetica 14 F
GS
[1 0 0 1 0 0] CT
-16 14 moveto 
1 -1 scale
(3000) t 
GR
GR
GS
[1 0 0 1 328.56 378.79987] CT
0.149 GC
/Helvetica 14 F
GS
[1 0 0 1 0 0] CT
-16 14 moveto 
1 -1 scale
(4000) t 
GR
GR
GS
[1 0 0 1 393.25732 378.79987] CT
0.149 GC
/Helvetica 14 F
GS
[1 0 0 1 0 0] CT
-16 14 moveto 
1 -1 scale
(5000) t 
GR
GR
GS
[1 0 0 1 457.95465 378.79987] CT
0.149 GC
/Helvetica 14 F
GS
[1 0 0 1 0 0] CT
-16 14 moveto 
1 -1 scale
(6000) t 
GR
GR
GS
[1 0 0 1 290.00021 396.3006] CT
0.149 GC
/Helvetica 15.4 F
GS
[1 0 0 1 0 0] CT
-42 15 moveto 
1 -1 scale
(Bitrate\(kb/s\)) t 
GR
GR
GS
0.149 GC
2 setlinecap
1 LJ
0.5 LW
N
73 374 M
73 31.5 L
S
GR
GS
0.149 GC
2 setlinecap
1 LJ
0.5 LW
N
507 374 M
507 31.5 L
S
GR
GS
0.149 GC
2 setlinecap
1 LJ
0.5 LW
N
73 364.653 M
77.34 364.653 L
S
GR
GS
0.149 GC
2 setlinecap
1 LJ
0.5 LW
N
73 314.863 M
77.34 314.863 L
S
GR
GS
0.149 GC
2 setlinecap
1 LJ
0.5 LW
N
73 265.072 M
77.34 265.072 L
S
GR
GS
0.149 GC
2 setlinecap
1 LJ
0.5 LW
N
73 215.281 M
77.34 215.281 L
S
GR
GS
0.149 GC
2 setlinecap
1 LJ
0.5 LW
N
73 165.49 M
77.34 165.49 L
S
GR
GS
0.149 GC
2 setlinecap
1 LJ
0.5 LW
N
73 115.7 M
77.34 115.7 L
S
GR
GS
0.149 GC
2 setlinecap
1 LJ
0.5 LW
N
73 65.91 M
77.34 65.91 L
S
GR
GS
0.149 GC
2 setlinecap
1 LJ
0.5 LW
N
507 364.653 M
502.66 364.653 L
S
GR
GS
0.149 GC
2 setlinecap
1 LJ
0.5 LW
N
507 314.863 M
502.66 314.863 L
S
GR
GS
0.149 GC
2 setlinecap
1 LJ
0.5 LW
N
507 265.072 M
502.66 265.072 L
S
GR
GS
0.149 GC
2 setlinecap
1 LJ
0.5 LW
N
507 215.281 M
502.66 215.281 L
S
GR
GS
0.149 GC
2 setlinecap
1 LJ
0.5 LW
N
507 165.49 M
502.66 165.49 L
S
GR
GS
0.149 GC
2 setlinecap
1 LJ
0.5 LW
N
507 115.7 M
502.66 115.7 L
S
GR
GS
0.149 GC
2 setlinecap
1 LJ
0.5 LW
N
507 65.91 M
502.66 65.91 L
S
GR
GS
0.149 GC
2 setlinecap
1 LJ
0.5 LW
N
73 352.205 M
75.17 352.205 L
S
GR
GS
0.149 GC
2 setlinecap
1 LJ
0.5 LW
N
73 339.758 M
75.17 339.758 L
S
GR
GS
0.149 GC
2 setlinecap
1 LJ
0.5 LW
N
73 327.31 M
75.17 327.31 L
S
GR
GS
0.149 GC
2 setlinecap
1 LJ
0.5 LW
N
73 302.415 M
75.17 302.415 L
S
GR
GS
0.149 GC
2 setlinecap
1 LJ
0.5 LW
N
73 289.967 M
75.17 289.967 L
S
GR
GS
0.149 GC
2 setlinecap
1 LJ
0.5 LW
N
73 277.519 M
75.17 277.519 L
S
GR
GS
0.149 GC
2 setlinecap
1 LJ
0.5 LW
N
73 252.624 M
75.17 252.624 L
S
GR
GS
0.149 GC
2 setlinecap
1 LJ
0.5 LW
N
73 240.177 M
75.17 240.177 L
S
GR
GS
0.149 GC
2 setlinecap
1 LJ
0.5 LW
N
73 227.729 M
75.17 227.729 L
S
GR
GS
0.149 GC
2 setlinecap
1 LJ
0.5 LW
N
73 202.834 M
75.17 202.834 L
S
GR
GS
0.149 GC
2 setlinecap
1 LJ
0.5 LW
N
73 190.386 M
75.17 190.386 L
S
GR
GS
0.149 GC
2 setlinecap
1 LJ
0.5 LW
N
73 177.939 M
75.17 177.939 L
S
GR
GS
0.149 GC
2 setlinecap
1 LJ
0.5 LW
N
73 153.043 M
75.17 153.043 L
S
GR
GS
0.149 GC
2 setlinecap
1 LJ
0.5 LW
N
73 140.595 M
75.17 140.595 L
S
GR
GS
0.149 GC
2 setlinecap
1 LJ
0.5 LW
N
73 128.148 M
75.17 128.148 L
S
GR
GS
0.149 GC
2 setlinecap
1 LJ
0.5 LW
N
73 103.252 M
75.17 103.252 L
S
GR
GS
0.149 GC
2 setlinecap
1 LJ
0.5 LW
N
73 90.805 M
75.17 90.805 L
S
GR
GS
0.149 GC
2 setlinecap
1 LJ
0.5 LW
N
73 78.357 M
75.17 78.357 L
S
GR
GS
0.149 GC
2 setlinecap
1 LJ
0.5 LW
N
73 53.462 M
75.17 53.462 L
S
GR
GS
0.149 GC
2 setlinecap
1 LJ
0.5 LW
N
73 41.014 M
75.17 41.014 L
S
GR
GS
0.149 GC
2 setlinecap
1 LJ
0.5 LW
N
507 352.205 M
504.83 352.205 L
S
GR
GS
0.149 GC
2 setlinecap
1 LJ
0.5 LW
N
507 339.758 M
504.83 339.758 L
S
GR
GS
0.149 GC
2 setlinecap
1 LJ
0.5 LW
N
507 327.31 M
504.83 327.31 L
S
GR
GS
0.149 GC
2 setlinecap
1 LJ
0.5 LW
N
507 302.415 M
504.83 302.415 L
S
GR
GS
0.149 GC
2 setlinecap
1 LJ
0.5 LW
N
507 289.967 M
504.83 289.967 L
S
GR
GS
0.149 GC
2 setlinecap
1 LJ
0.5 LW
N
507 277.519 M
504.83 277.519 L
S
GR
GS
0.149 GC
2 setlinecap
1 LJ
0.5 LW
N
507 252.624 M
504.83 252.624 L
S
GR
GS
0.149 GC
2 setlinecap
1 LJ
0.5 LW
N
507 240.177 M
504.83 240.177 L
S
GR
GS
0.149 GC
2 setlinecap
1 LJ
0.5 LW
N
507 227.729 M
504.83 227.729 L
S
GR
GS
0.149 GC
2 setlinecap
1 LJ
0.5 LW
N
507 202.834 M
504.83 202.834 L
S
GR
GS
0.149 GC
2 setlinecap
1 LJ
0.5 LW
N
507 190.386 M
504.83 190.386 L
S
GR
GS
0.149 GC
2 setlinecap
1 LJ
0.5 LW
N
507 177.939 M
504.83 177.939 L
S
GR
GS
0.149 GC
2 setlinecap
1 LJ
0.5 LW
N
507 153.043 M
504.83 153.043 L
S
GR
GS
0.149 GC
2 setlinecap
1 LJ
0.5 LW
N
507 140.595 M
504.83 140.595 L
S
GR
GS
0.149 GC
2 setlinecap
1 LJ
0.5 LW
N
507 128.148 M
504.83 128.148 L
S
GR
GS
0.149 GC
2 setlinecap
1 LJ
0.5 LW
N
507 103.252 M
504.83 103.252 L
S
GR
GS
0.149 GC
2 setlinecap
1 LJ
0.5 LW
N
507 90.805 M
504.83 90.805 L
S
GR
GS
0.149 GC
2 setlinecap
1 LJ
0.5 LW
N
507 78.357 M
504.83 78.357 L
S
GR
GS
0.149 GC
2 setlinecap
1 LJ
0.5 LW
N
507 53.462 M
504.83 53.462 L
S
GR
GS
0.149 GC
2 setlinecap
1 LJ
0.5 LW
N
507 41.014 M
504.83 41.014 L
S
GR
GS
[1 0 0 1 68.2 364.65344] CT
0.149 GC
/Helvetica 14 F
GS
[1 0 0 1 0 0] CT
-28 5.5 moveto 
1 -1 scale
(39.6) t 
GR
GR
GS
[1 0 0 1 68.2 314.86264] CT
0.149 GC
/Helvetica 14 F
GS
[1 0 0 1 0 0] CT
-28 5.5 moveto 
1 -1 scale
(39.8) t 
GR
GR
GS
[1 0 0 1 68.2 265.07184] CT
0.149 GC
/Helvetica 14 F
GS
[1 0 0 1 0 0] CT
-16 5.5 moveto 
1 -1 scale
(40) t 
GR
GR
GS
[1 0 0 1 68.2 215.28104] CT
0.149 GC
/Helvetica 14 F
GS
[1 0 0 1 0 0] CT
-28 5.5 moveto 
1 -1 scale
(40.2) t 
GR
GR
GS
[1 0 0 1 68.2 165.49023] CT
0.149 GC
/Helvetica 14 F
GS
[1 0 0 1 0 0] CT
-28 5.5 moveto 
1 -1 scale
(40.4) t 
GR
GR
GS
[1 0 0 1 68.2 115.70038] CT
0.149 GC
/Helvetica 14 F
GS
[1 0 0 1 0 0] CT
-28 5.5 moveto 
1 -1 scale
(40.6) t 
GR
GR
GS
[1 0 0 1 68.2 65.90958] CT
0.149 GC
/Helvetica 14 F
GS
[1 0 0 1 0 0] CT
-28 5.5 moveto 
1 -1 scale
(40.8) t 
GR
GR
GS
[0 -1 1 0 37.7 202.75] CT
0.149 GC
/Helvetica 15.4 F
GS
[1 0 0 1 0 0] CT
-42.5 -4 moveto 
1 -1 scale
(PSNR U\(dB\)) t 
GR
GR
GS
[1 0 0 1 290.00027 29.5748] CT
/Helvetica-Bold 15.4 F
GS
[1 0 0 1 0 0] CT
-230.5 -4 moveto 
1 -1 scale
(DinnerSceneCropped_1920x1080_2997fps_10bit_420.y4m-hevc) t 
GR
GR
GS
0 0.447 0.741 RC
1 LJ
0.5 LW
N
73.329 338.706 M
74.623 317.13 L
75.917 297.754 L
77.21 278.152 L
78.504 260.838 L
79.798 250.046 L
81.092 244.15 L
82.386 238.853 L
83.68 234.111 L
84.974 229.883 L
86.268 226.126 L
87.562 222.799 L
88.856 219.858 L
90.15 217.261 L
91.444 214.968 L
92.738 212.935 L
94.032 211.12 L
95.326 209.481 L
96.62 207.976 L
97.914 206.532 L
99.208 205.096 L
100.501 203.669 L
101.795 202.251 L
103.089 200.842 L
104.383 199.442 L
105.677 198.05 L
106.971 196.668 L
108.265 195.294 L
109.559 193.929 L
110.853 192.573 L
112.147 191.226 L
113.441 189.888 L
114.735 188.558 L
116.029 187.237 L
117.323 185.925 L
118.617 184.622 L
119.911 183.328 L
121.205 182.043 L
122.499 180.767 L
123.793 179.499 L
125.086 178.241 L
126.38 176.991 L
127.674 175.75 L
128.968 174.518 L
130.262 173.295 L
131.556 172.081 L
132.85 170.875 L
134.144 169.678 L
135.438 168.491 L
136.732 167.313 L
138.026 166.143 L
139.32 164.981 L
140.614 163.829 L
141.908 162.687 L
143.202 161.552 L
144.496 160.427 L
145.79 159.311 L
147.084 158.202 L
148.378 157.105 L
149.671 156.014 L
150.965 154.934 L
152.259 153.861 L
153.553 152.799 L
154.847 151.745 L
156.141 150.699 L
157.435 149.663 L
158.729 148.635 L
160.023 147.617 L
161.317 146.608 L
162.611 145.607 L
163.905 144.615 L
165.199 143.632 L
166.493 142.659 L
167.787 141.694 L
169.081 140.739 L
170.375 139.791 L
171.669 138.854 L
172.963 137.924 L
174.256 137.004 L
175.55 136.093 L
176.844 135.191 L
178.138 134.297 L
179.432 133.413 L
180.726 132.537 L
182.02 131.671 L
183.314 130.814 L
184.608 129.965 L
185.902 129.125 L
187.196 128.295 L
188.49 127.473 L
189.784 126.661 L
191.078 125.856 L
192.372 125.061 L
193.666 124.276 L
194.96 123.499 L
196.254 122.731 L
197.547 121.972 L
198.841 121.223 L
200.135 120.482 L
201.429 119.75 L
202.723 119.027 L
204.017 118.313 L
205.311 117.608 L
206.605 116.912 L
207.899 116.225 L
209.193 115.547 L
210.487 114.878 L
211.781 114.218 L
213.075 113.567 L
214.369 112.925 L
215.663 112.292 L
216.957 111.668 L
218.251 111.053 L
219.545 110.447 L
220.839 109.85 L
222.132 109.262 L
223.426 108.683 L
224.72 108.113 L
226.014 107.553 L
227.308 107 L
228.602 106.458 L
229.896 105.924 L
231.19 105.399 L
232.484 104.884 L
233.778 104.377 L
235.072 103.88 L
236.366 103.391 L
237.66 102.911 L
238.954 102.441 L
240.248 101.979 L
241.542 101.526 L
242.836 101.083 L
244.13 100.649 L
245.424 100.223 L
246.717 99.807 L
248.011 99.4 L
249.305 99.001 L
250.599 98.613 L
251.893 98.233 L
253.187 97.862 L
254.481 97.5 L
255.775 97.146 L
257.069 96.803 L
258.363 96.468 L
259.657 96.143 L
260.951 95.825 L
262.245 95.519 L
263.539 95.22 L
264.833 94.931 L
266.127 94.65 L
267.421 94.379 L
268.715 94.117 L
270.009 93.863 L
271.302 93.62 L
272.596 93.385 L
273.89 93.16 L
275.184 92.942 L
276.478 92.735 L
277.772 92.537 L
279.066 92.347 L
280.36 92.167 L
281.654 91.995 L
282.948 91.834 L
284.242 91.681 L
285.536 91.537 L
286.83 91.402 L
288.124 91.276 L
289.418 91.16 L
290.712 91.052 L
292.006 90.955 L
293.3 90.865 L
294.593 90.786 L
295.887 90.714 L
297.181 90.653 L
298.475 90.599 L
299.769 90.557 L
301.063 90.521 L
302.357 90.497 L
303.651 90.481 L
304.945 90.473 L
S
GR
GS
0.851 0.325 0.098 RC
1 LJ
0.5 LW
N
73.285 339.751 M
74.579 318.312 L
75.873 298.977 L
77.167 279.371 L
78.461 261.977 L
79.755 251.067 L
81.049 244.986 L
82.343 239.52 L
83.637 234.625 L
84.931 230.258 L
86.225 226.379 L
87.519 222.944 L
88.813 219.911 L
90.106 217.236 L
91.4 214.879 L
92.694 212.797 L
93.988 210.946 L
95.282 209.284 L
96.576 207.767 L
97.87 206.293 L
99.164 204.829 L
100.458 203.374 L
101.752 201.929 L
103.046 200.494 L
104.34 199.068 L
105.634 197.651 L
106.928 196.245 L
108.222 194.848 L
109.516 193.46 L
110.81 192.082 L
112.104 190.714 L
113.398 189.355 L
114.691 188.005 L
115.985 186.665 L
117.279 185.335 L
118.573 184.015 L
119.867 182.703 L
121.161 181.401 L
122.455 180.11 L
123.749 178.828 L
125.043 177.554 L
126.337 176.291 L
127.631 175.037 L
128.925 173.793 L
130.219 172.559 L
131.513 171.334 L
132.807 170.118 L
134.101 168.912 L
135.395 167.715 L
136.689 166.528 L
137.983 165.351 L
139.276 164.183 L
140.57 163.025 L
141.864 161.877 L
143.158 160.737 L
144.452 159.608 L
145.746 158.488 L
147.04 157.377 L
148.334 156.276 L
149.628 155.185 L
150.922 154.104 L
152.216 153.031 L
153.51 151.969 L
154.804 150.915 L
156.098 149.872 L
157.392 148.838 L
158.686 147.813 L
159.98 146.799 L
161.274 145.793 L
162.567 144.798 L
163.861 143.811 L
165.155 142.835 L
166.449 141.867 L
167.743 140.91 L
169.037 139.961 L
170.331 139.023 L
171.625 138.094 L
172.919 137.175 L
174.213 136.265 L
175.507 135.364 L
176.801 134.474 L
178.095 133.592 L
179.389 132.721 L
180.683 131.858 L
181.977 131.005 L
183.271 130.162 L
184.565 129.329 L
185.859 128.505 L
187.152 127.69 L
188.446 126.886 L
189.74 126.09 L
191.034 125.304 L
192.328 124.528 L
193.622 123.761 L
194.916 123.004 L
196.21 122.256 L
197.504 121.518 L
198.798 120.79 L
200.092 120.071 L
201.386 119.361 L
202.68 118.661 L
203.974 117.971 L
205.268 117.29 L
206.562 116.619 L
207.856 115.957 L
209.15 115.304 L
210.444 114.661 L
211.737 114.028 L
213.031 113.405 L
214.325 112.791 L
215.619 112.186 L
216.913 111.591 L
218.207 111.005 L
219.501 110.429 L
220.795 109.863 L
222.089 109.305 L
223.383 108.758 L
224.677 108.221 L
225.971 107.692 L
227.265 107.173 L
228.559 106.664 L
229.853 106.164 L
231.147 105.674 L
232.441 105.193 L
233.735 104.722 L
235.029 104.261 L
236.322 103.808 L
237.616 103.366 L
238.91 102.933 L
240.204 102.509 L
241.498 102.095 L
242.792 101.691 L
244.086 101.296 L
245.38 100.91 L
246.674 100.534 L
247.968 100.167 L
249.262 99.811 L
250.556 99.464 L
251.85 99.126 L
253.144 98.798 L
254.438 98.479 L
255.732 98.169 L
257.026 97.87 L
258.32 97.58 L
259.613 97.299 L
260.907 97.028 L
262.201 96.767 L
263.495 96.514 L
264.789 96.272 L
266.083 96.038 L
267.377 95.815 L
268.671 95.6 L
269.965 95.396 L
271.259 95.202 L
272.553 95.015 L
273.847 94.84 L
275.141 94.674 L
276.435 94.517 L
277.729 94.369 L
279.023 94.231 L
280.317 94.103 L
281.611 93.984 L
282.905 93.875 L
284.198 93.775 L
285.492 93.685 L
286.786 93.603 L
288.08 93.532 L
289.374 93.47 L
290.668 93.418 L
291.962 93.375 L
293.256 93.342 L
294.55 93.318 L
295.844 93.304 L
S
GR
GS
0.929 0.694 0.125 RC
1 LJ
0.5 LW
N
73 374 M
74.294 344.559 L
75.588 318.71 L
76.882 293.678 L
78.176 273.437 L
79.47 261.767 L
80.764 252.559 L
82.058 244.42 L
83.352 237.332 L
84.646 231.272 L
85.939 226.22 L
87.233 222.156 L
88.527 219.059 L
89.821 216.87 L
91.115 214.931 L
92.409 213.009 L
93.703 211.107 L
94.997 209.223 L
96.291 207.356 L
97.585 205.508 L
98.879 203.677 L
100.173 201.865 L
101.467 200.07 L
102.761 198.292 L
104.055 196.532 L
105.349 194.791 L
106.643 193.066 L
107.937 191.36 L
109.231 189.67 L
110.524 187.998 L
111.818 186.343 L
113.112 184.705 L
114.406 183.085 L
115.7 181.481 L
116.994 179.895 L
118.288 178.325 L
119.582 176.772 L
120.876 175.237 L
122.17 173.717 L
123.464 172.215 L
124.758 170.73 L
126.052 169.26 L
127.346 167.807 L
128.64 166.372 L
129.934 164.952 L
131.228 163.548 L
132.522 162.161 L
133.815 160.79 L
135.109 159.435 L
136.403 158.096 L
137.697 156.773 L
138.991 155.466 L
140.285 154.176 L
141.579 152.9 L
142.873 151.641 L
144.167 150.397 L
145.461 149.169 L
146.755 147.956 L
148.049 146.759 L
149.343 145.577 L
150.637 144.411 L
151.931 143.26 L
153.225 142.124 L
154.519 141.004 L
155.813 139.898 L
157.107 138.807 L
158.4 137.732 L
159.694 136.671 L
160.988 135.626 L
162.282 134.594 L
163.576 133.578 L
164.87 132.576 L
166.164 131.589 L
167.458 130.617 L
168.752 129.659 L
170.046 128.716 L
171.34 127.786 L
172.634 126.871 L
173.928 125.97 L
175.222 125.084 L
176.516 124.211 L
177.81 123.353 L
179.104 122.509 L
180.398 121.678 L
181.692 120.861 L
182.985 120.058 L
184.279 119.268 L
185.573 118.493 L
186.867 117.731 L
188.161 116.982 L
189.455 116.247 L
190.749 115.526 L
192.043 114.817 L
193.337 114.122 L
194.631 113.44 L
195.925 112.771 L
197.219 112.115 L
198.513 111.472 L
199.807 110.843 L
201.101 110.225 L
202.395 109.621 L
203.689 109.03 L
204.983 108.451 L
206.277 107.885 L
207.57 107.332 L
208.864 106.79 L
210.158 106.262 L
211.452 105.746 L
212.746 105.242 L
214.04 104.751 L
215.334 104.271 L
216.628 103.804 L
217.922 103.348 L
219.216 102.904 L
220.51 102.473 L
221.804 102.053 L
223.098 101.646 L
224.392 101.249 L
225.686 100.865 L
226.98 100.492 L
228.274 100.131 L
229.568 99.781 L
230.861 99.443 L
232.155 99.116 L
233.449 98.8 L
234.743 98.495 L
236.037 98.202 L
237.331 97.92 L
238.625 97.648 L
239.919 97.388 L
241.213 97.139 L
242.507 96.9 L
243.801 96.673 L
245.095 96.455 L
246.389 96.249 L
247.683 96.052 L
248.977 95.867 L
250.271 95.693 L
251.565 95.528 L
252.859 95.373 L
254.153 95.23 L
255.446 95.096 L
256.74 94.973 L
258.034 94.859 L
259.328 94.755 L
260.622 94.662 L
261.916 94.579 L
263.21 94.504 L
264.504 94.44 L
265.798 94.386 L
267.092 94.341 L
268.386 94.306 L
269.68 94.28 L
270.974 94.263 L
272.268 94.257 L
S
GR
GS
0.494 0.184 0.557 RC
1 LJ
0.5 LW
N
73.528 334.068 M
74.822 313.856 L
76.116 295.922 L
77.41 278.323 L
78.704 261.945 L
79.998 249.869 L
81.292 243.674 L
82.586 238.616 L
83.879 234.002 L
85.173 229.809 L
86.467 226.011 L
87.761 222.58 L
89.055 219.493 L
90.349 216.723 L
91.643 214.244 L
92.937 212.032 L
94.231 210.061 L
95.525 208.305 L
96.819 206.738 L
98.113 205.335 L
99.407 204.07 L
100.701 202.904 L
101.995 201.752 L
103.289 200.604 L
104.583 199.46 L
105.877 198.321 L
107.17 197.186 L
108.464 196.056 L
109.758 194.929 L
111.052 193.807 L
112.346 192.689 L
113.64 191.575 L
114.934 190.466 L
116.228 189.36 L
117.522 188.26 L
118.816 187.163 L
120.11 186.071 L
121.404 184.982 L
122.698 183.898 L
123.992 182.818 L
125.286 181.743 L
126.58 180.672 L
127.874 179.604 L
129.168 178.542 L
130.462 177.483 L
131.755 176.428 L
133.049 175.377 L
134.343 174.332 L
135.637 173.289 L
136.931 172.252 L
138.225 171.218 L
139.519 170.188 L
140.813 169.164 L
142.107 168.142 L
143.401 167.125 L
144.695 166.112 L
145.989 165.104 L
147.283 164.099 L
148.577 163.099 L
149.871 162.103 L
151.165 161.11 L
152.459 160.123 L
153.753 159.139 L
155.047 158.159 L
156.34 157.183 L
157.634 156.212 L
158.928 155.244 L
160.222 154.281 L
161.516 153.322 L
162.81 152.367 L
164.104 151.416 L
165.398 150.469 L
166.692 149.526 L
167.986 148.587 L
169.28 147.652 L
170.574 146.722 L
171.868 145.796 L
173.162 144.874 L
174.456 143.955 L
175.75 143.041 L
177.044 142.13 L
178.338 141.224 L
179.632 140.322 L
180.925 139.424 L
182.219 138.53 L
183.513 137.64 L
184.807 136.754 L
186.101 135.872 L
187.395 134.994 L
188.689 134.12 L
189.983 133.25 L
191.277 132.384 L
192.571 131.523 L
193.865 130.664 L
195.159 129.811 L
196.453 128.961 L
197.747 128.116 L
199.041 127.273 L
200.335 126.436 L
201.629 125.602 L
202.923 124.772 L
204.216 123.946 L
205.51 123.124 L
206.804 122.306 L
208.098 121.492 L
209.392 120.682 L
210.686 119.876 L
211.98 119.074 L
213.274 118.276 L
214.568 117.481 L
215.862 116.691 L
217.156 115.905 L
218.45 115.122 L
219.744 114.343 L
221.038 113.569 L
222.332 112.798 L
223.626 112.032 L
224.92 111.269 L
226.214 110.509 L
227.508 109.754 L
228.801 109.004 L
230.095 108.257 L
231.389 107.513 L
232.683 106.773 L
233.977 106.038 L
235.271 105.306 L
236.565 104.579 L
237.859 103.855 L
239.153 103.134 L
240.447 102.418 L
241.741 101.706 L
243.035 100.997 L
244.329 100.293 L
245.623 99.592 L
246.917 98.895 L
248.211 98.203 L
249.505 97.513 L
250.799 96.827 L
252.093 96.146 L
253.386 95.468 L
254.68 94.794 L
255.974 94.125 L
257.268 93.458 L
258.562 92.795 L
259.856 92.137 L
261.15 91.482 L
262.444 90.831 L
263.738 90.183 L
265.032 89.54 L
266.326 88.9 L
267.62 88.264 L
268.914 87.633 L
270.208 87.004 L
271.502 86.379 L
272.796 85.758 L
274.09 85.142 L
275.384 84.528 L
276.678 83.918 L
277.971 83.312 L
279.265 82.71 L
280.559 82.112 L
281.853 81.518 L
283.147 80.927 L
284.441 80.34 L
285.735 79.756 L
287.029 79.177 L
288.323 78.601 L
289.617 78.028 L
290.911 77.46 L
292.205 76.895 L
293.499 76.334 L
294.793 75.777 L
296.087 75.223 L
297.381 74.673 L
298.675 74.126 L
299.969 73.584 L
301.262 73.045 L
302.556 72.51 L
303.85 71.978 L
305.144 71.45 L
306.438 70.926 L
307.732 70.405 L
309.026 69.889 L
310.32 69.375 L
311.614 68.866 L
312.908 68.36 L
314.202 67.857 L
315.496 67.359 L
316.79 66.863 L
318.084 66.372 L
319.378 65.884 L
320.672 65.4 L
321.966 64.919 L
323.26 64.442 L
324.554 63.969 L
325.847 63.499 L
327.141 63.033 L
328.435 62.57 L
329.729 62.112 L
331.023 61.656 L
332.317 61.205 L
333.611 60.757 L
334.905 60.312 L
336.199 59.871 L
337.493 59.434 L
338.787 59 L
340.081 58.569 L
341.375 58.142 L
342.669 57.72 L
343.963 57.3 L
345.257 56.883 L
346.551 56.471 L
347.845 56.061 L
349.139 55.656 L
350.432 55.254 L
351.726 54.855 L
353.02 54.461 L
354.314 54.07 L
355.608 53.681 L
356.902 53.297 L
358.196 52.916 L
359.49 52.539 L
360.784 52.165 L
362.078 51.794 L
363.372 51.428 L
364.666 51.064 L
365.96 50.704 L
367.254 50.348 L
368.548 49.996 L
369.842 49.646 L
371.136 49.3 L
372.43 48.958 L
373.724 48.619 L
375.017 48.283 L
376.311 47.95 L
377.605 47.622 L
378.899 47.297 L
380.193 46.975 L
381.487 46.657 L
382.781 46.341 L
384.075 46.03 L
385.369 45.722 L
386.663 45.417 L
387.957 45.116 L
389.251 44.818 L
390.545 44.524 L
391.839 44.233 L
393.133 43.945 L
394.427 43.661 L
395.721 43.38 L
397.015 43.103 L
398.309 42.829 L
399.602 42.558 L
400.896 42.291 L
402.19 42.027 L
403.484 41.766 L
404.778 41.509 L
406.072 41.255 L
407.366 41.005 L
408.66 40.758 L
409.954 40.514 L
411.248 40.274 L
412.542 40.036 L
413.836 39.803 L
415.13 39.573 L
416.424 39.346 L
417.718 39.122 L
419.012 38.902 L
420.306 38.684 L
421.6 38.47 L
422.893 38.261 L
424.187 38.054 L
425.481 37.849 L
426.775 37.649 L
428.069 37.451 L
429.363 37.258 L
430.657 37.067 L
431.951 36.88 L
433.245 36.696 L
434.539 36.515 L
435.833 36.337 L
437.127 36.163 L
438.421 35.992 L
439.715 35.825 L
441.009 35.66 L
442.303 35.499 L
443.597 35.341 L
444.891 35.186 L
446.185 35.035 L
447.478 34.886 L
448.772 34.741 L
450.066 34.6 L
451.36 34.461 L
452.654 34.326 L
453.948 34.194 L
455.242 34.065 L
456.536 33.94 L
457.83 33.817 L
459.124 33.697 L
460.418 33.582 L
461.712 33.468 L
463.006 33.358 L
464.3 33.252 L
465.594 33.148 L
466.888 33.049 L
468.182 32.952 L
469.476 32.858 L
470.77 32.768 L
472.063 32.68 L
473.357 32.596 L
474.651 32.514 L
475.945 32.436 L
477.239 32.361 L
478.533 32.29 L
479.827 32.222 L
481.121 32.156 L
482.415 32.093 L
483.709 32.034 L
485.003 31.978 L
486.297 31.925 L
487.591 31.876 L
488.885 31.829 L
490.179 31.786 L
491.473 31.745 L
492.767 31.708 L
494.061 31.674 L
495.354 31.642 L
496.648 31.614 L
497.942 31.589 L
499.236 31.567 L
500.53 31.548 L
501.824 31.532 L
503.118 31.52 L
504.412 31.51 L
505.706 31.504 L
507 31.5 L
S
GR
GS
0.467 0.675 0.188 RC
[10 6] 0 setdash
2 LJ
0.5 LW
N
73.323 343.058 M
74.617 318.854 L
75.911 297.924 L
77.205 277.544 L
78.499 259.995 L
79.793 249.418 L
81.087 243.566 L
82.381 238.332 L
83.674 233.669 L
84.968 229.531 L
86.262 225.872 L
87.556 222.646 L
88.85 219.806 L
90.144 217.308 L
91.438 215.103 L
92.732 213.147 L
94.026 211.393 L
95.32 209.796 L
96.614 208.306 L
97.908 206.848 L
99.202 205.399 L
100.496 203.959 L
101.79 202.529 L
103.084 201.107 L
104.378 199.694 L
105.672 198.29 L
106.965 196.896 L
108.259 195.511 L
109.553 194.134 L
110.847 192.767 L
112.141 191.408 L
113.435 190.058 L
114.729 188.718 L
116.023 187.387 L
117.317 186.065 L
118.611 184.753 L
119.905 183.449 L
121.199 182.153 L
122.493 180.868 L
123.787 179.591 L
125.081 178.324 L
126.375 177.066 L
127.669 175.816 L
128.963 174.576 L
130.257 173.345 L
131.55 172.124 L
132.844 170.911 L
134.138 169.708 L
135.432 168.513 L
136.726 167.328 L
138.02 166.152 L
139.314 164.985 L
140.608 163.827 L
141.902 162.679 L
143.196 161.54 L
144.49 160.409 L
145.784 159.289 L
147.078 158.177 L
148.372 157.074 L
149.666 155.981 L
150.96 154.897 L
152.254 153.822 L
153.548 152.757 L
154.842 151.701 L
156.135 150.653 L
157.429 149.615 L
158.723 148.587 L
160.017 147.568 L
161.311 146.557 L
162.605 145.557 L
163.899 144.566 L
165.193 143.583 L
166.487 142.611 L
167.781 141.647 L
169.075 140.692 L
170.369 139.747 L
171.663 138.812 L
172.957 137.886 L
174.251 136.968 L
175.545 136.061 L
176.839 135.162 L
178.133 134.273 L
179.427 133.394 L
180.72 132.523 L
182.014 131.663 L
183.308 130.811 L
184.602 129.968 L
185.896 129.136 L
187.19 128.312 L
188.484 127.497 L
189.778 126.693 L
191.072 125.897 L
192.366 125.112 L
193.66 124.335 L
194.954 123.568 L
196.248 122.81 L
197.542 122.061 L
198.836 121.322 L
200.13 120.593 L
201.424 119.873 L
202.718 119.163 L
204.011 118.462 L
205.305 117.77 L
206.599 117.088 L
207.893 116.415 L
209.187 115.752 L
210.481 115.098 L
211.775 114.453 L
213.069 113.819 L
214.363 113.193 L
215.657 112.578 L
216.951 111.971 L
218.245 111.375 L
219.539 110.787 L
220.833 110.209 L
222.127 109.64 L
223.421 109.082 L
224.715 108.532 L
226.009 107.993 L
227.303 107.463 L
228.596 106.942 L
229.89 106.431 L
231.184 105.929 L
232.478 105.437 L
233.772 104.956 L
235.066 104.483 L
236.36 104.019 L
237.654 103.565 L
238.948 103.122 L
240.242 102.687 L
241.536 102.262 L
242.83 101.847 L
244.124 101.442 L
245.418 101.046 L
246.712 100.659 L
248.006 100.282 L
249.3 99.916 L
250.594 99.558 L
251.888 99.21 L
253.181 98.872 L
254.475 98.543 L
255.769 98.225 L
257.063 97.916 L
258.357 97.617 L
259.651 97.327 L
260.945 97.047 L
262.239 96.776 L
263.533 96.515 L
264.827 96.264 L
266.121 96.023 L
267.415 95.791 L
268.709 95.569 L
270.003 95.357 L
271.297 95.155 L
272.591 94.962 L
273.885 94.779 L
275.179 94.606 L
276.473 94.443 L
277.766 94.289 L
279.06 94.145 L
280.354 94.011 L
281.648 93.886 L
282.942 93.772 L
284.236 93.667 L
285.53 93.572 L
286.824 93.486 L
288.118 93.411 L
289.412 93.346 L
290.706 93.29 L
292 93.244 L
293.294 93.208 L
294.588 93.182 L
295.882 93.164 L
297.176 93.158 L
S
GR
GS
0.302 0.745 0.933 RC
[10 6] 0 setdash
2 LJ
0.5 LW
N
73.217 352.297 M
74.511 327.571 L
75.805 305.813 L
77.099 284.396 L
78.393 265.974 L
79.687 254.873 L
80.981 247.94 L
82.275 241.736 L
83.569 236.218 L
84.863 231.336 L
86.157 227.045 L
87.451 223.294 L
88.745 220.039 L
90.038 217.232 L
91.332 214.823 L
92.626 212.768 L
93.92 211.019 L
95.214 209.426 L
96.508 207.845 L
97.802 206.276 L
99.096 204.718 L
100.39 203.172 L
101.684 201.637 L
102.978 200.115 L
104.272 198.603 L
105.566 197.102 L
106.86 195.614 L
108.154 194.136 L
109.448 192.67 L
110.742 191.216 L
112.036 189.773 L
113.33 188.341 L
114.623 186.921 L
115.917 185.511 L
117.211 184.113 L
118.505 182.727 L
119.799 181.352 L
121.093 179.988 L
122.387 178.636 L
123.681 177.294 L
124.975 175.963 L
126.269 174.644 L
127.563 173.336 L
128.857 172.04 L
130.151 170.754 L
131.445 169.48 L
132.739 168.217 L
134.033 166.964 L
135.327 165.723 L
136.621 164.493 L
137.914 163.274 L
139.208 162.066 L
140.502 160.868 L
141.796 159.682 L
143.09 158.507 L
144.384 157.343 L
145.678 156.19 L
146.972 155.048 L
148.266 153.916 L
149.56 152.795 L
150.854 151.686 L
152.148 150.587 L
153.442 149.499 L
154.736 148.422 L
156.03 147.355 L
157.324 146.299 L
158.618 145.254 L
159.912 144.22 L
161.206 143.196 L
162.499 142.184 L
163.793 141.182 L
165.087 140.191 L
166.381 139.21 L
167.675 138.24 L
168.969 137.28 L
170.263 136.331 L
171.557 135.393 L
172.851 134.466 L
174.145 133.549 L
175.439 132.642 L
176.733 131.746 L
178.027 130.86 L
179.321 129.985 L
180.615 129.12 L
181.909 128.267 L
183.203 127.423 L
184.497 126.589 L
185.791 125.767 L
187.084 124.954 L
188.378 124.152 L
189.672 123.361 L
190.966 122.579 L
192.26 121.808 L
193.554 121.047 L
194.848 120.296 L
196.142 119.556 L
197.436 118.826 L
198.73 118.106 L
200.024 117.397 L
201.318 116.697 L
202.612 116.007 L
203.906 115.328 L
205.2 114.66 L
206.494 114 L
207.788 113.352 L
209.082 112.714 L
210.376 112.085 L
211.669 111.466 L
212.963 110.858 L
214.257 110.26 L
215.551 109.671 L
216.845 109.092 L
218.139 108.524 L
219.433 107.965 L
220.727 107.416 L
222.021 106.878 L
223.315 106.349 L
224.609 105.83 L
225.903 105.321 L
227.197 104.822 L
228.491 104.333 L
229.785 103.853 L
231.079 103.383 L
232.373 102.923 L
233.667 102.473 L
234.96 102.033 L
236.254 101.602 L
237.548 101.181 L
238.842 100.77 L
240.136 100.368 L
241.43 99.977 L
242.724 99.594 L
244.018 99.222 L
245.312 98.858 L
246.606 98.505 L
247.9 98.161 L
249.194 97.826 L
250.488 97.502 L
251.782 97.186 L
253.076 96.881 L
254.37 96.584 L
255.664 96.297 L
256.958 96.02 L
258.252 95.751 L
259.545 95.493 L
260.839 95.244 L
262.133 95.004 L
263.427 94.774 L
264.721 94.553 L
266.015 94.341 L
267.309 94.139 L
268.603 93.946 L
269.897 93.762 L
271.191 93.587 L
272.485 93.422 L
273.779 93.266 L
275.073 93.12 L
276.367 92.982 L
277.661 92.853 L
278.955 92.734 L
280.249 92.624 L
281.543 92.522 L
282.837 92.431 L
284.13 92.348 L
285.424 92.275 L
286.718 92.21 L
288.012 92.154 L
289.306 92.107 L
290.6 92.069 L
291.894 92.041 L
293.188 92.021 L
294.482 92.011 L
S
GR
GS
0.635 0.078 0.184 RC
[10 6] 0 setdash
2 LJ
0.5 LW
N
73.322 338.409 M
74.616 316.628 L
75.91 297.368 L
77.204 278.244 L
78.498 261.338 L
79.792 250.46 L
81.086 244.559 L
82.38 239.236 L
83.674 234.447 L
84.968 230.155 L
86.262 226.325 L
87.555 222.919 L
88.849 219.903 L
90.143 217.239 L
91.437 214.893 L
92.731 212.825 L
94.025 211.003 L
95.319 209.388 L
96.613 207.945 L
97.907 206.606 L
99.201 205.278 L
100.495 203.958 L
101.789 202.646 L
103.083 201.34 L
104.377 200.042 L
105.671 198.752 L
106.965 197.469 L
108.259 196.194 L
109.553 194.926 L
110.847 193.665 L
112.14 192.413 L
113.434 191.167 L
114.728 189.928 L
116.022 188.699 L
117.316 187.474 L
118.61 186.259 L
119.904 185.05 L
121.198 183.849 L
122.492 182.656 L
123.786 181.469 L
125.08 180.29 L
126.374 179.118 L
127.668 177.954 L
128.962 176.797 L
130.256 175.648 L
131.55 174.506 L
132.844 173.371 L
134.138 172.242 L
135.431 171.123 L
136.725 170.01 L
138.019 168.904 L
139.313 167.806 L
140.607 166.714 L
141.901 165.631 L
143.195 164.555 L
144.489 163.485 L
145.783 162.423 L
147.077 161.369 L
148.371 160.321 L
149.665 159.281 L
150.959 158.248 L
152.253 157.222 L
153.547 156.203 L
154.841 155.192 L
156.135 154.188 L
157.429 153.191 L
158.723 152.201 L
160.016 151.219 L
161.31 150.244 L
162.604 149.275 L
163.898 148.314 L
165.192 147.361 L
166.486 146.414 L
167.78 145.475 L
169.074 144.542 L
170.368 143.617 L
171.662 142.699 L
172.956 141.788 L
174.25 140.884 L
175.544 139.988 L
176.838 139.098 L
178.132 138.215 L
179.426 137.34 L
180.72 136.471 L
182.014 135.609 L
183.308 134.756 L
184.601 133.909 L
185.895 133.068 L
187.189 132.235 L
188.483 131.409 L
189.777 130.59 L
191.071 129.778 L
192.365 128.973 L
193.659 128.175 L
194.953 127.384 L
196.247 126.601 L
197.541 125.824 L
198.835 125.054 L
200.129 124.291 L
201.423 123.534 L
202.717 122.786 L
204.011 122.043 L
205.305 121.308 L
206.599 120.581 L
207.892 119.859 L
209.186 119.145 L
210.48 118.437 L
211.774 117.737 L
213.068 117.043 L
214.362 116.357 L
215.656 115.678 L
216.95 115.004 L
218.244 114.339 L
219.538 113.679 L
220.832 113.027 L
222.126 112.382 L
223.42 111.743 L
224.714 111.112 L
226.008 110.487 L
227.302 109.869 L
228.596 109.258 L
229.89 108.654 L
231.184 108.056 L
232.477 107.466 L
233.771 106.882 L
235.065 106.305 L
236.359 105.734 L
237.653 105.171 L
238.947 104.615 L
240.241 104.065 L
241.535 103.522 L
242.829 102.985 L
244.123 102.455 L
245.417 101.933 L
246.711 101.416 L
248.005 100.907 L
249.299 100.404 L
250.593 99.908 L
251.887 99.419 L
253.181 98.937 L
254.475 98.461 L
255.769 97.992 L
257.062 97.529 L
258.356 97.073 L
259.65 96.624 L
260.944 96.182 L
262.238 95.746 L
263.532 95.316 L
264.826 94.894 L
266.12 94.478 L
267.414 94.069 L
268.708 93.667 L
270.002 93.271 L
271.296 92.881 L
272.59 92.498 L
273.884 92.122 L
275.178 91.752 L
276.472 91.39 L
277.766 91.033 L
279.06 90.683 L
280.354 90.34 L
281.647 90.003 L
282.941 89.672 L
284.235 89.35 L
285.529 89.032 L
286.823 88.722 L
288.117 88.417 L
289.411 88.12 L
290.705 87.829 L
291.999 87.544 L
293.293 87.266 L
294.587 86.994 L
295.881 86.729 L
297.175 86.471 L
298.469 86.218 L
299.763 85.973 L
301.057 85.734 L
302.351 85.501 L
303.645 85.275 L
304.938 85.055 L
306.232 84.841 L
307.526 84.634 L
308.82 84.434 L
310.114 84.239 L
311.408 84.051 L
312.702 83.87 L
313.996 83.695 L
315.29 83.526 L
316.584 83.365 L
317.878 83.208 L
319.172 83.059 L
320.466 82.916 L
321.76 82.779 L
323.054 82.649 L
324.348 82.524 L
325.642 82.406 L
326.936 82.294 L
328.23 82.19 L
329.523 82.09 L
330.817 81.998 L
332.111 81.912 L
333.405 81.832 L
334.699 81.758 L
335.993 81.69 L
337.287 81.63 L
338.581 81.575 L
339.875 81.525 L
341.169 81.483 L
342.463 81.447 L
343.757 81.417 L
345.051 81.393 L
346.345 81.376 L
347.639 81.365 L
348.933 81.359 L
S
GR
GS
1 GC
N
499 366 M
499 250.5 L
344.5 250.5 L
344.5 366 L
cp
f
GR
GS
[1 0 0 1 381.5 260.25] CT
/Helvetica 13 F
GS
[1 0 0 1 0 0] CT
0 5 moveto 
1 -1 scale
(Base Run) t 
GR
GR
GS
0 0.447 0.741 RC
1 LJ
0.5 LW
N
348.5 260.25 M
378.5 260.25 L
S
GR
GS
[1 0 0 1 381.5 276.25] CT
/Helvetica 13 F
GS
[1 0 0 1 0 0] CT
0 5 moveto 
1 -1 scale
(I & B Frames) t 
GR
GR
GS
0.851 0.325 0.098 RC
1 LJ
0.5 LW
N
348.5 276.25 M
378.5 276.25 L
S
GR
GS
[1 0 0 1 381.5 292.25] CT
/Helvetica 13 F
GS
[1 0 0 1 0 0] CT
0 5 moveto 
1 -1 scale
(I Frames Only) t 
GR
GR
GS
0.929 0.694 0.125 RC
1 LJ
0.5 LW
N
348.5 292.25 M
378.5 292.25 L
S
GR
GS
[1 0 0 1 381.5 308.25] CT
/Helvetica 13 F
GS
[1 0 0 1 0 0] CT
0 5 moveto 
1 -1 scale
(B Frames Only) t 
GR
GR
GS
0.494 0.184 0.557 RC
1 LJ
0.5 LW
N
348.5 308.25 M
378.5 308.25 L
S
GR
GS
[1 0 0 1 381.5 324.25] CT
/Helvetica 13 F
GS
[1 0 0 1 0 0] CT
0 5 moveto 
1 -1 scale
(Part I & B Frames) t 
GR
GR
GS
0.467 0.675 0.188 RC
[10 6] 0 setdash
2 LJ
0.5 LW
N
348.5 324.25 M
378.5 324.25 L
S
GR
GS
[1 0 0 1 381.5 340.25] CT
/Helvetica 13 F
GS
[1 0 0 1 0 0] CT
0 5 moveto 
1 -1 scale
(Part I Frames Only) t 
GR
GR
GS
0.302 0.745 0.933 RC
[10 6] 0 setdash
2 LJ
0.5 LW
N
348.5 340.25 M
378.5 340.25 L
S
GR
GS
[1 0 0 1 381.5 356.25] CT
/Helvetica 13 F
GS
[1 0 0 1 0 0] CT
0 5 moveto 
1 -1 scale
(Part B Frames Only) t 
GR
GR
GS
0.635 0.078 0.184 RC
[10 6] 0 setdash
2 LJ
0.5 LW
N
348.5 356.25 M
378.5 356.25 L
S
GR
GS
0.149 GC
10.0 ML
0.5 LW
N
344.5 366 M
344.5 250.5 L
499 250.5 L
499 366 L
cp
S
GR
%%Trailer
%%Pages: 1
%%EOF
