%!PS-Adobe-3.0 EPSF-3.0
%%Creator: (MATLAB, The Mathworks, Inc. Version 9.11.0.1837725 \(R2021b\) Update 2. Operating System: Mac OS X)
%%Title: plots/pchip/DinnerSceneCropped_1920x1080_2997fps_10bit_420.y4m-av1-PSNRV.eps
%%CreationDate: 2022-02-03T19:12:52
%%Pages: (atend)
%%BoundingBox:    22   425   525   826
%%LanguageLevel: 3
%%EndComments
%%BeginProlog
%%BeginResource: procset (Apache XML Graphics Std ProcSet) 1.2 0
%%Version: 1.2 0
%%Copyright: (Copyright 2001-2003,2010 The Apache Software Foundation. License terms: http://www.apache.org/licenses/LICENSE-2.0)
/bd{bind def}bind def
/ld{load def}bd
/GR/grestore ld
/GS/gsave ld
/RM/rmoveto ld
/C/curveto ld
/t/show ld
/L/lineto ld
/ML/setmiterlimit ld
/CT/concat ld
/f/fill ld
/N/newpath ld
/S/stroke ld
/CC/setcmykcolor ld
/A/ashow ld
/cp/closepath ld
/RC/setrgbcolor ld
/LJ/setlinejoin ld
/GC/setgray ld
/LW/setlinewidth ld
/M/moveto ld
/re {4 2 roll M
1 index 0 rlineto
0 exch rlineto
neg 0 rlineto
cp } bd
/_ctm matrix def
/_tm matrix def
/BT { _ctm currentmatrix pop matrix _tm copy pop 0 0 moveto } bd
/ET { _ctm setmatrix } bd
/iTm { _ctm setmatrix _tm concat } bd
/Tm { _tm astore pop iTm 0 0 moveto } bd
/ux 0.0 def
/uy 0.0 def
/F {
  /Tp exch def
  /Tf exch def
  Tf findfont Tp scalefont setfont
  /cf Tf def  /cs Tp def
} bd
/ULS {currentpoint /uy exch def /ux exch def} bd
/ULE {
  /Tcx currentpoint pop def
  gsave
  newpath
  cf findfont cs scalefont dup
  /FontMatrix get 0 get /Ts exch def /FontInfo get dup
  /UnderlinePosition get Ts mul /To exch def
  /UnderlineThickness get Ts mul /Tt exch def
  ux uy To add moveto  Tcx uy To add lineto
  Tt setlinewidth stroke
  grestore
} bd
/OLE {
  /Tcx currentpoint pop def
  gsave
  newpath
  cf findfont cs scalefont dup
  /FontMatrix get 0 get /Ts exch def /FontInfo get dup
  /UnderlinePosition get Ts mul /To exch def
  /UnderlineThickness get Ts mul /Tt exch def
  ux uy To add cs add moveto Tcx uy To add cs add lineto
  Tt setlinewidth stroke
  grestore
} bd
/SOE {
  /Tcx currentpoint pop def
  gsave
  newpath
  cf findfont cs scalefont dup
  /FontMatrix get 0 get /Ts exch def /FontInfo get dup
  /UnderlinePosition get Ts mul /To exch def
  /UnderlineThickness get Ts mul /Tt exch def
  ux uy To add cs 10 mul 26 idiv add moveto Tcx uy To add cs 10 mul 26 idiv add lineto
  Tt setlinewidth stroke
  grestore
} bd
/QT {
/Y22 exch store
/X22 exch store
/Y21 exch store
/X21 exch store
currentpoint
/Y21 load 2 mul add 3 div exch
/X21 load 2 mul add 3 div exch
/X21 load 2 mul /X22 load add 3 div
/Y21 load 2 mul /Y22 load add 3 div
/X22 load /Y22 load curveto
} bd
/SSPD {
dup length /d exch dict def
{
/v exch def
/k exch def
currentpagedevice k known {
/cpdv currentpagedevice k get def
v cpdv ne {
/upd false def
/nullv v type /nulltype eq def
/nullcpdv cpdv type /nulltype eq def
nullv nullcpdv or
{
/upd true def
} {
/sametype v type cpdv type eq def
sametype {
v type /arraytype eq {
/vlen v length def
/cpdvlen cpdv length def
vlen cpdvlen eq {
0 1 vlen 1 sub {
/i exch def
/obj v i get def
/cpdobj cpdv i get def
obj cpdobj ne {
/upd true def
exit
} if
} for
} {
/upd true def
} ifelse
} {
v type /dicttype eq {
v {
/dv exch def
/dk exch def
/cpddv cpdv dk get def
dv cpddv ne {
/upd true def
exit
} if
} forall
} {
/upd true def
} ifelse
} ifelse
} if
} ifelse
upd true eq {
d k v put
} if
} if
} if
} forall
d length 0 gt {
d setpagedevice
} if
} bd
/RE { % /NewFontName [NewEncodingArray] /FontName RE -
  findfont dup length dict begin
  {
    1 index /FID ne
    {def} {pop pop} ifelse
  } forall
  /Encoding exch def
  /FontName 1 index def
  currentdict definefont pop
  end
} bind def
%%EndResource
%%BeginResource: procset (Apache XML Graphics EPS ProcSet) 1.0 0
%%Version: 1.0 0
%%Copyright: (Copyright 2002-2003 The Apache Software Foundation. License terms: http://www.apache.org/licenses/LICENSE-2.0)
/BeginEPSF { %def
/b4_Inc_state save def         % Save state for cleanup
/dict_count countdictstack def % Count objects on dict stack
/op_count count 1 sub def      % Count objects on operand stack
userdict begin                 % Push userdict on dict stack
/showpage { } def              % Redefine showpage, { } = null proc
0 setgray 0 setlinecap         % Prepare graphics state
1 setlinewidth 0 setlinejoin
10 setmiterlimit [ ] 0 setdash newpath
/languagelevel where           % If level not equal to 1 then
{pop languagelevel             % set strokeadjust and
1 ne                           % overprint to their defaults.
{false setstrokeadjust false setoverprint
} if
} if
} bd
/EndEPSF { %def
count op_count sub {pop} repeat            % Clean up stacks
countdictstack dict_count sub {end} repeat
b4_Inc_state restore
} bd
%%EndResource
%FOPBeginFontDict
%%IncludeResource: font Courier-Oblique
%%IncludeResource: font Courier-BoldOblique
%%IncludeResource: font Courier-Bold
%%IncludeResource: font ZapfDingbats
%%IncludeResource: font Symbol
%%IncludeResource: font Helvetica
%%IncludeResource: font Helvetica-Oblique
%%IncludeResource: font Helvetica-Bold
%%IncludeResource: font Helvetica-BoldOblique
%%IncludeResource: font Times-Roman
%%IncludeResource: font Times-Italic
%%IncludeResource: font Times-Bold
%%IncludeResource: font Times-BoldItalic
%%IncludeResource: font Courier
%FOPEndFontDict
%%BeginResource: encoding WinAnsiEncoding
/WinAnsiEncoding [
/.notdef /.notdef /.notdef /.notdef /.notdef
/.notdef /.notdef /.notdef /.notdef /.notdef
/.notdef /.notdef /.notdef /.notdef /.notdef
/.notdef /.notdef /.notdef /.notdef /.notdef
/.notdef /.notdef /.notdef /.notdef /.notdef
/.notdef /.notdef /.notdef /.notdef /.notdef
/.notdef /.notdef /space /exclam /quotedbl
/numbersign /dollar /percent /ampersand /quotesingle
/parenleft /parenright /asterisk /plus /comma
/hyphen /period /slash /zero /one
/two /three /four /five /six
/seven /eight /nine /colon /semicolon
/less /equal /greater /question /at
/A /B /C /D /E
/F /G /H /I /J
/K /L /M /N /O
/P /Q /R /S /T
/U /V /W /X /Y
/Z /bracketleft /backslash /bracketright /asciicircum
/underscore /quoteleft /a /b /c
/d /e /f /g /h
/i /j /k /l /m
/n /o /p /q /r
/s /t /u /v /w
/x /y /z /braceleft /bar
/braceright /asciitilde /bullet /Euro /bullet
/quotesinglbase /florin /quotedblbase /ellipsis /dagger
/daggerdbl /circumflex /perthousand /Scaron /guilsinglleft
/OE /bullet /Zcaron /bullet /bullet
/quoteleft /quoteright /quotedblleft /quotedblright /bullet
/endash /emdash /asciitilde /trademark /scaron
/guilsinglright /oe /bullet /zcaron /Ydieresis
/space /exclamdown /cent /sterling /currency
/yen /brokenbar /section /dieresis /copyright
/ordfeminine /guillemotleft /logicalnot /sfthyphen /registered
/macron /degree /plusminus /twosuperior /threesuperior
/acute /mu /paragraph /middot /cedilla
/onesuperior /ordmasculine /guillemotright /onequarter /onehalf
/threequarters /questiondown /Agrave /Aacute /Acircumflex
/Atilde /Adieresis /Aring /AE /Ccedilla
/Egrave /Eacute /Ecircumflex /Edieresis /Igrave
/Iacute /Icircumflex /Idieresis /Eth /Ntilde
/Ograve /Oacute /Ocircumflex /Otilde /Odieresis
/multiply /Oslash /Ugrave /Uacute /Ucircumflex
/Udieresis /Yacute /Thorn /germandbls /agrave
/aacute /acircumflex /atilde /adieresis /aring
/ae /ccedilla /egrave /eacute /ecircumflex
/edieresis /igrave /iacute /icircumflex /idieresis
/eth /ntilde /ograve /oacute /ocircumflex
/otilde /odieresis /divide /oslash /ugrave
/uacute /ucircumflex /udieresis /yacute /thorn
/ydieresis
] def
%%EndResource
%FOPBeginFontReencode
/Courier-Oblique findfont
dup length dict begin
  {1 index /FID ne {def} {pop pop} ifelse} forall
  /Encoding WinAnsiEncoding def
  currentdict
end
/Courier-Oblique exch definefont pop
/Courier-BoldOblique findfont
dup length dict begin
  {1 index /FID ne {def} {pop pop} ifelse} forall
  /Encoding WinAnsiEncoding def
  currentdict
end
/Courier-BoldOblique exch definefont pop
/Courier-Bold findfont
dup length dict begin
  {1 index /FID ne {def} {pop pop} ifelse} forall
  /Encoding WinAnsiEncoding def
  currentdict
end
/Courier-Bold exch definefont pop
/Helvetica findfont
dup length dict begin
  {1 index /FID ne {def} {pop pop} ifelse} forall
  /Encoding WinAnsiEncoding def
  currentdict
end
/Helvetica exch definefont pop
/Helvetica-Oblique findfont
dup length dict begin
  {1 index /FID ne {def} {pop pop} ifelse} forall
  /Encoding WinAnsiEncoding def
  currentdict
end
/Helvetica-Oblique exch definefont pop
/Helvetica-Bold findfont
dup length dict begin
  {1 index /FID ne {def} {pop pop} ifelse} forall
  /Encoding WinAnsiEncoding def
  currentdict
end
/Helvetica-Bold exch definefont pop
/Helvetica-BoldOblique findfont
dup length dict begin
  {1 index /FID ne {def} {pop pop} ifelse} forall
  /Encoding WinAnsiEncoding def
  currentdict
end
/Helvetica-BoldOblique exch definefont pop
/Times-Roman findfont
dup length dict begin
  {1 index /FID ne {def} {pop pop} ifelse} forall
  /Encoding WinAnsiEncoding def
  currentdict
end
/Times-Roman exch definefont pop
/Times-Italic findfont
dup length dict begin
  {1 index /FID ne {def} {pop pop} ifelse} forall
  /Encoding WinAnsiEncoding def
  currentdict
end
/Times-Italic exch definefont pop
/Times-Bold findfont
dup length dict begin
  {1 index /FID ne {def} {pop pop} ifelse} forall
  /Encoding WinAnsiEncoding def
  currentdict
end
/Times-Bold exch definefont pop
/Times-BoldItalic findfont
dup length dict begin
  {1 index /FID ne {def} {pop pop} ifelse} forall
  /Encoding WinAnsiEncoding def
  currentdict
end
/Times-BoldItalic exch definefont pop
/Courier findfont
dup length dict begin
  {1 index /FID ne {def} {pop pop} ifelse} forall
  /Encoding WinAnsiEncoding def
  currentdict
end
/Courier exch definefont pop
%FOPEndFontReencode
%%EndProlog
%%Page: 1 1
%%PageBoundingBox: 0 0 1120 840
%%BeginPageSetup
[1 0 0 -1 0 840] CT
%%EndPageSetup
GS
1 GC
N
0 0 1120 840 re
f
GR
GS
1 GC
N
73 374 M
507 374 L
507 31.5 L
73 31.5 L
cp
f
GR
GS
0.149 GC
2 setlinecap
1 LJ
0.5 LW
N
73 374 M
507 374 L
S
GR
GS
0.149 GC
2 setlinecap
1 LJ
0.5 LW
N
73 31.5 M
507 31.5 L
S
GR
GS
0.149 GC
2 setlinecap
1 LJ
0.5 LW
N
118.708 374 M
118.708 369.66 L
S
GR
GS
0.149 GC
2 setlinecap
1 LJ
0.5 LW
N
166.822 374 M
166.822 369.66 L
S
GR
GS
0.149 GC
2 setlinecap
1 LJ
0.5 LW
N
214.935 374 M
214.935 369.66 L
S
GR
GS
0.149 GC
2 setlinecap
1 LJ
0.5 LW
N
263.049 374 M
263.049 369.66 L
S
GR
GS
0.149 GC
2 setlinecap
1 LJ
0.5 LW
N
311.162 374 M
311.162 369.66 L
S
GR
GS
0.149 GC
2 setlinecap
1 LJ
0.5 LW
N
359.276 374 M
359.276 369.66 L
S
GR
GS
0.149 GC
2 setlinecap
1 LJ
0.5 LW
N
407.389 374 M
407.389 369.66 L
S
GR
GS
0.149 GC
2 setlinecap
1 LJ
0.5 LW
N
455.503 374 M
455.503 369.66 L
S
GR
GS
0.149 GC
2 setlinecap
1 LJ
0.5 LW
N
503.616 374 M
503.616 369.66 L
S
GR
GS
0.149 GC
2 setlinecap
1 LJ
0.5 LW
N
118.708 31.5 M
118.708 35.84 L
S
GR
GS
0.149 GC
2 setlinecap
1 LJ
0.5 LW
N
166.822 31.5 M
166.822 35.84 L
S
GR
GS
0.149 GC
2 setlinecap
1 LJ
0.5 LW
N
214.935 31.5 M
214.935 35.84 L
S
GR
GS
0.149 GC
2 setlinecap
1 LJ
0.5 LW
N
263.049 31.5 M
263.049 35.84 L
S
GR
GS
0.149 GC
2 setlinecap
1 LJ
0.5 LW
N
311.162 31.5 M
311.162 35.84 L
S
GR
GS
0.149 GC
2 setlinecap
1 LJ
0.5 LW
N
359.276 31.5 M
359.276 35.84 L
S
GR
GS
0.149 GC
2 setlinecap
1 LJ
0.5 LW
N
407.389 31.5 M
407.389 35.84 L
S
GR
GS
0.149 GC
2 setlinecap
1 LJ
0.5 LW
N
455.503 31.5 M
455.503 35.84 L
S
GR
GS
0.149 GC
2 setlinecap
1 LJ
0.5 LW
N
503.616 31.5 M
503.616 35.84 L
S
GR
GS
0.149 GC
2 setlinecap
1 LJ
0.5 LW
N
80.218 374 M
80.218 371.83 L
S
GR
GS
0.149 GC
2 setlinecap
1 LJ
0.5 LW
N
89.84 374 M
89.84 371.83 L
S
GR
GS
0.149 GC
2 setlinecap
1 LJ
0.5 LW
N
99.463 374 M
99.463 371.83 L
S
GR
GS
0.149 GC
2 setlinecap
1 LJ
0.5 LW
N
109.086 374 M
109.086 371.83 L
S
GR
GS
0.149 GC
2 setlinecap
1 LJ
0.5 LW
N
128.331 374 M
128.331 371.83 L
S
GR
GS
0.149 GC
2 setlinecap
1 LJ
0.5 LW
N
137.954 374 M
137.954 371.83 L
S
GR
GS
0.149 GC
2 setlinecap
1 LJ
0.5 LW
N
147.577 374 M
147.577 371.83 L
S
GR
GS
0.149 GC
2 setlinecap
1 LJ
0.5 LW
N
157.199 374 M
157.199 371.83 L
S
GR
GS
0.149 GC
2 setlinecap
1 LJ
0.5 LW
N
176.445 374 M
176.445 371.83 L
S
GR
GS
0.149 GC
2 setlinecap
1 LJ
0.5 LW
N
186.067 374 M
186.067 371.83 L
S
GR
GS
0.149 GC
2 setlinecap
1 LJ
0.5 LW
N
195.69 374 M
195.69 371.83 L
S
GR
GS
0.149 GC
2 setlinecap
1 LJ
0.5 LW
N
205.313 374 M
205.313 371.83 L
S
GR
GS
0.149 GC
2 setlinecap
1 LJ
0.5 LW
N
224.558 374 M
224.558 371.83 L
S
GR
GS
0.149 GC
2 setlinecap
1 LJ
0.5 LW
N
234.181 374 M
234.181 371.83 L
S
GR
GS
0.149 GC
2 setlinecap
1 LJ
0.5 LW
N
243.803 374 M
243.803 371.83 L
S
GR
GS
0.149 GC
2 setlinecap
1 LJ
0.5 LW
N
253.426 374 M
253.426 371.83 L
S
GR
GS
0.149 GC
2 setlinecap
1 LJ
0.5 LW
N
272.672 374 M
272.672 371.83 L
S
GR
GS
0.149 GC
2 setlinecap
1 LJ
0.5 LW
N
282.294 374 M
282.294 371.83 L
S
GR
GS
0.149 GC
2 setlinecap
1 LJ
0.5 LW
N
291.917 374 M
291.917 371.83 L
S
GR
GS
0.149 GC
2 setlinecap
1 LJ
0.5 LW
N
301.54 374 M
301.54 371.83 L
S
GR
GS
0.149 GC
2 setlinecap
1 LJ
0.5 LW
N
320.785 374 M
320.785 371.83 L
S
GR
GS
0.149 GC
2 setlinecap
1 LJ
0.5 LW
N
330.408 374 M
330.408 371.83 L
S
GR
GS
0.149 GC
2 setlinecap
1 LJ
0.5 LW
N
340.03 374 M
340.03 371.83 L
S
GR
GS
0.149 GC
2 setlinecap
1 LJ
0.5 LW
N
349.653 374 M
349.653 371.83 L
S
GR
GS
0.149 GC
2 setlinecap
1 LJ
0.5 LW
N
368.898 374 M
368.898 371.83 L
S
GR
GS
0.149 GC
2 setlinecap
1 LJ
0.5 LW
N
378.521 374 M
378.521 371.83 L
S
GR
GS
0.149 GC
2 setlinecap
1 LJ
0.5 LW
N
388.144 374 M
388.144 371.83 L
S
GR
GS
0.149 GC
2 setlinecap
1 LJ
0.5 LW
N
397.767 374 M
397.767 371.83 L
S
GR
GS
0.149 GC
2 setlinecap
1 LJ
0.5 LW
N
417.012 374 M
417.012 371.83 L
S
GR
GS
0.149 GC
2 setlinecap
1 LJ
0.5 LW
N
426.635 374 M
426.635 371.83 L
S
GR
GS
0.149 GC
2 setlinecap
1 LJ
0.5 LW
N
436.257 374 M
436.257 371.83 L
S
GR
GS
0.149 GC
2 setlinecap
1 LJ
0.5 LW
N
445.88 374 M
445.88 371.83 L
S
GR
GS
0.149 GC
2 setlinecap
1 LJ
0.5 LW
N
465.125 374 M
465.125 371.83 L
S
GR
GS
0.149 GC
2 setlinecap
1 LJ
0.5 LW
N
474.748 374 M
474.748 371.83 L
S
GR
GS
0.149 GC
2 setlinecap
1 LJ
0.5 LW
N
484.371 374 M
484.371 371.83 L
S
GR
GS
0.149 GC
2 setlinecap
1 LJ
0.5 LW
N
493.994 374 M
493.994 371.83 L
S
GR
GS
0.149 GC
2 setlinecap
1 LJ
0.5 LW
N
80.218 31.5 M
80.218 33.669 L
S
GR
GS
0.149 GC
2 setlinecap
1 LJ
0.5 LW
N
89.84 31.5 M
89.84 33.669 L
S
GR
GS
0.149 GC
2 setlinecap
1 LJ
0.5 LW
N
99.463 31.5 M
99.463 33.669 L
S
GR
GS
0.149 GC
2 setlinecap
1 LJ
0.5 LW
N
109.086 31.5 M
109.086 33.669 L
S
GR
GS
0.149 GC
2 setlinecap
1 LJ
0.5 LW
N
128.331 31.5 M
128.331 33.669 L
S
GR
GS
0.149 GC
2 setlinecap
1 LJ
0.5 LW
N
137.954 31.5 M
137.954 33.669 L
S
GR
GS
0.149 GC
2 setlinecap
1 LJ
0.5 LW
N
147.577 31.5 M
147.577 33.669 L
S
GR
GS
0.149 GC
2 setlinecap
1 LJ
0.5 LW
N
157.199 31.5 M
157.199 33.669 L
S
GR
GS
0.149 GC
2 setlinecap
1 LJ
0.5 LW
N
176.445 31.5 M
176.445 33.669 L
S
GR
GS
0.149 GC
2 setlinecap
1 LJ
0.5 LW
N
186.067 31.5 M
186.067 33.669 L
S
GR
GS
0.149 GC
2 setlinecap
1 LJ
0.5 LW
N
195.69 31.5 M
195.69 33.669 L
S
GR
GS
0.149 GC
2 setlinecap
1 LJ
0.5 LW
N
205.313 31.5 M
205.313 33.669 L
S
GR
GS
0.149 GC
2 setlinecap
1 LJ
0.5 LW
N
224.558 31.5 M
224.558 33.669 L
S
GR
GS
0.149 GC
2 setlinecap
1 LJ
0.5 LW
N
234.181 31.5 M
234.181 33.669 L
S
GR
GS
0.149 GC
2 setlinecap
1 LJ
0.5 LW
N
243.803 31.5 M
243.803 33.669 L
S
GR
GS
0.149 GC
2 setlinecap
1 LJ
0.5 LW
N
253.426 31.5 M
253.426 33.669 L
S
GR
GS
0.149 GC
2 setlinecap
1 LJ
0.5 LW
N
272.672 31.5 M
272.672 33.669 L
S
GR
GS
0.149 GC
2 setlinecap
1 LJ
0.5 LW
N
282.294 31.5 M
282.294 33.669 L
S
GR
GS
0.149 GC
2 setlinecap
1 LJ
0.5 LW
N
291.917 31.5 M
291.917 33.669 L
S
GR
GS
0.149 GC
2 setlinecap
1 LJ
0.5 LW
N
301.54 31.5 M
301.54 33.669 L
S
GR
GS
0.149 GC
2 setlinecap
1 LJ
0.5 LW
N
320.785 31.5 M
320.785 33.669 L
S
GR
GS
0.149 GC
2 setlinecap
1 LJ
0.5 LW
N
330.408 31.5 M
330.408 33.669 L
S
GR
GS
0.149 GC
2 setlinecap
1 LJ
0.5 LW
N
340.03 31.5 M
340.03 33.669 L
S
GR
GS
0.149 GC
2 setlinecap
1 LJ
0.5 LW
N
349.653 31.5 M
349.653 33.669 L
S
GR
GS
0.149 GC
2 setlinecap
1 LJ
0.5 LW
N
368.898 31.5 M
368.898 33.669 L
S
GR
GS
0.149 GC
2 setlinecap
1 LJ
0.5 LW
N
378.521 31.5 M
378.521 33.669 L
S
GR
GS
0.149 GC
2 setlinecap
1 LJ
0.5 LW
N
388.144 31.5 M
388.144 33.669 L
S
GR
GS
0.149 GC
2 setlinecap
1 LJ
0.5 LW
N
397.767 31.5 M
397.767 33.669 L
S
GR
GS
0.149 GC
2 setlinecap
1 LJ
0.5 LW
N
417.012 31.5 M
417.012 33.669 L
S
GR
GS
0.149 GC
2 setlinecap
1 LJ
0.5 LW
N
426.635 31.5 M
426.635 33.669 L
S
GR
GS
0.149 GC
2 setlinecap
1 LJ
0.5 LW
N
436.257 31.5 M
436.257 33.669 L
S
GR
GS
0.149 GC
2 setlinecap
1 LJ
0.5 LW
N
445.88 31.5 M
445.88 33.669 L
S
GR
GS
0.149 GC
2 setlinecap
1 LJ
0.5 LW
N
465.125 31.5 M
465.125 33.669 L
S
GR
GS
0.149 GC
2 setlinecap
1 LJ
0.5 LW
N
474.748 31.5 M
474.748 33.669 L
S
GR
GS
0.149 GC
2 setlinecap
1 LJ
0.5 LW
N
484.371 31.5 M
484.371 33.669 L
S
GR
GS
0.149 GC
2 setlinecap
1 LJ
0.5 LW
N
493.994 31.5 M
493.994 33.669 L
S
GR
GS
[1 0 0 1 118.70846 378.79996] CT
0.149 GC
/Helvetica 14 F
GS
[1 0 0 1 0 0] CT
-16 14 moveto 
1 -1 scale
(1000) t 
GR
GR
GS
[1 0 0 1 166.82193 378.79996] CT
0.149 GC
/Helvetica 14 F
GS
[1 0 0 1 0 0] CT
-16 14 moveto 
1 -1 scale
(2000) t 
GR
GR
GS
[1 0 0 1 214.93539 378.79996] CT
0.149 GC
/Helvetica 14 F
GS
[1 0 0 1 0 0] CT
-16 14 moveto 
1 -1 scale
(3000) t 
GR
GR
GS
[1 0 0 1 263.04886 378.79996] CT
0.149 GC
/Helvetica 14 F
GS
[1 0 0 1 0 0] CT
-16 14 moveto 
1 -1 scale
(4000) t 
GR
GR
GS
[1 0 0 1 311.16235 378.79996] CT
0.149 GC
/Helvetica 14 F
GS
[1 0 0 1 0 0] CT
-16 14 moveto 
1 -1 scale
(5000) t 
GR
GR
GS
[1 0 0 1 359.27582 378.79996] CT
0.149 GC
/Helvetica 14 F
GS
[1 0 0 1 0 0] CT
-16 14 moveto 
1 -1 scale
(6000) t 
GR
GR
GS
[1 0 0 1 407.38928 378.79996] CT
0.149 GC
/Helvetica 14 F
GS
[1 0 0 1 0 0] CT
-16 14 moveto 
1 -1 scale
(7000) t 
GR
GR
GS
[1 0 0 1 455.50275 378.79996] CT
0.149 GC
/Helvetica 14 F
GS
[1 0 0 1 0 0] CT
-16 14 moveto 
1 -1 scale
(8000) t 
GR
GR
GS
[1 0 0 1 503.61621 378.79996] CT
0.149 GC
/Helvetica 14 F
GS
[1 0 0 1 0 0] CT
-16 14 moveto 
1 -1 scale
(9000) t 
GR
GR
GS
[1 0 0 1 290.00021 396.30011] CT
0.149 GC
/Helvetica 15.4 F
GS
[1 0 0 1 0 0] CT
-42 15 moveto 
1 -1 scale
(Bitrate\(kb/s\)) t 
GR
GR
GS
0.149 GC
2 setlinecap
1 LJ
0.5 LW
N
73 374 M
73 31.5 L
S
GR
GS
0.149 GC
2 setlinecap
1 LJ
0.5 LW
N
507 374 M
507 31.5 L
S
GR
GS
0.149 GC
2 setlinecap
1 LJ
0.5 LW
N
73 320.296 M
77.34 320.296 L
S
GR
GS
0.149 GC
2 setlinecap
1 LJ
0.5 LW
N
73 250.557 M
77.34 250.557 L
S
GR
GS
0.149 GC
2 setlinecap
1 LJ
0.5 LW
N
73 180.819 M
77.34 180.819 L
S
GR
GS
0.149 GC
2 setlinecap
1 LJ
0.5 LW
N
73 111.08 M
77.34 111.08 L
S
GR
GS
0.149 GC
2 setlinecap
1 LJ
0.5 LW
N
73 41.341 M
77.34 41.341 L
S
GR
GS
0.149 GC
2 setlinecap
1 LJ
0.5 LW
N
507 320.296 M
502.66 320.296 L
S
GR
GS
0.149 GC
2 setlinecap
1 LJ
0.5 LW
N
507 250.557 M
502.66 250.557 L
S
GR
GS
0.149 GC
2 setlinecap
1 LJ
0.5 LW
N
507 180.819 M
502.66 180.819 L
S
GR
GS
0.149 GC
2 setlinecap
1 LJ
0.5 LW
N
507 111.08 M
502.66 111.08 L
S
GR
GS
0.149 GC
2 setlinecap
1 LJ
0.5 LW
N
507 41.341 M
502.66 41.341 L
S
GR
GS
0.149 GC
2 setlinecap
1 LJ
0.5 LW
N
73 362.139 M
75.17 362.139 L
S
GR
GS
0.149 GC
2 setlinecap
1 LJ
0.5 LW
N
73 348.192 M
75.17 348.192 L
S
GR
GS
0.149 GC
2 setlinecap
1 LJ
0.5 LW
N
73 334.244 M
75.17 334.244 L
S
GR
GS
0.149 GC
2 setlinecap
1 LJ
0.5 LW
N
73 306.349 M
75.17 306.349 L
S
GR
GS
0.149 GC
2 setlinecap
1 LJ
0.5 LW
N
73 292.401 M
75.17 292.401 L
S
GR
GS
0.149 GC
2 setlinecap
1 LJ
0.5 LW
N
73 278.453 M
75.17 278.453 L
S
GR
GS
0.149 GC
2 setlinecap
1 LJ
0.5 LW
N
73 264.505 M
75.17 264.505 L
S
GR
GS
0.149 GC
2 setlinecap
1 LJ
0.5 LW
N
73 236.61 M
75.17 236.61 L
S
GR
GS
0.149 GC
2 setlinecap
1 LJ
0.5 LW
N
73 222.662 M
75.17 222.662 L
S
GR
GS
0.149 GC
2 setlinecap
1 LJ
0.5 LW
N
73 208.714 M
75.17 208.714 L
S
GR
GS
0.149 GC
2 setlinecap
1 LJ
0.5 LW
N
73 194.766 M
75.17 194.766 L
S
GR
GS
0.149 GC
2 setlinecap
1 LJ
0.5 LW
N
73 166.871 M
75.17 166.871 L
S
GR
GS
0.149 GC
2 setlinecap
1 LJ
0.5 LW
N
73 152.923 M
75.17 152.923 L
S
GR
GS
0.149 GC
2 setlinecap
1 LJ
0.5 LW
N
73 138.975 M
75.17 138.975 L
S
GR
GS
0.149 GC
2 setlinecap
1 LJ
0.5 LW
N
73 125.027 M
75.17 125.027 L
S
GR
GS
0.149 GC
2 setlinecap
1 LJ
0.5 LW
N
73 97.132 M
75.17 97.132 L
S
GR
GS
0.149 GC
2 setlinecap
1 LJ
0.5 LW
N
73 83.184 M
75.17 83.184 L
S
GR
GS
0.149 GC
2 setlinecap
1 LJ
0.5 LW
N
73 69.236 M
75.17 69.236 L
S
GR
GS
0.149 GC
2 setlinecap
1 LJ
0.5 LW
N
73 55.288 M
75.17 55.288 L
S
GR
GS
0.149 GC
2 setlinecap
1 LJ
0.5 LW
N
507 362.139 M
504.83 362.139 L
S
GR
GS
0.149 GC
2 setlinecap
1 LJ
0.5 LW
N
507 348.192 M
504.83 348.192 L
S
GR
GS
0.149 GC
2 setlinecap
1 LJ
0.5 LW
N
507 334.244 M
504.83 334.244 L
S
GR
GS
0.149 GC
2 setlinecap
1 LJ
0.5 LW
N
507 306.349 M
504.83 306.349 L
S
GR
GS
0.149 GC
2 setlinecap
1 LJ
0.5 LW
N
507 292.401 M
504.83 292.401 L
S
GR
GS
0.149 GC
2 setlinecap
1 LJ
0.5 LW
N
507 278.453 M
504.83 278.453 L
S
GR
GS
0.149 GC
2 setlinecap
1 LJ
0.5 LW
N
507 264.505 M
504.83 264.505 L
S
GR
GS
0.149 GC
2 setlinecap
1 LJ
0.5 LW
N
507 236.61 M
504.83 236.61 L
S
GR
GS
0.149 GC
2 setlinecap
1 LJ
0.5 LW
N
507 222.662 M
504.83 222.662 L
S
GR
GS
0.149 GC
2 setlinecap
1 LJ
0.5 LW
N
507 208.714 M
504.83 208.714 L
S
GR
GS
0.149 GC
2 setlinecap
1 LJ
0.5 LW
N
507 194.766 M
504.83 194.766 L
S
GR
GS
0.149 GC
2 setlinecap
1 LJ
0.5 LW
N
507 166.871 M
504.83 166.871 L
S
GR
GS
0.149 GC
2 setlinecap
1 LJ
0.5 LW
N
507 152.923 M
504.83 152.923 L
S
GR
GS
0.149 GC
2 setlinecap
1 LJ
0.5 LW
N
507 138.975 M
504.83 138.975 L
S
GR
GS
0.149 GC
2 setlinecap
1 LJ
0.5 LW
N
507 125.027 M
504.83 125.027 L
S
GR
GS
0.149 GC
2 setlinecap
1 LJ
0.5 LW
N
507 97.132 M
504.83 97.132 L
S
GR
GS
0.149 GC
2 setlinecap
1 LJ
0.5 LW
N
507 83.184 M
504.83 83.184 L
S
GR
GS
0.149 GC
2 setlinecap
1 LJ
0.5 LW
N
507 69.236 M
504.83 69.236 L
S
GR
GS
0.149 GC
2 setlinecap
1 LJ
0.5 LW
N
507 55.288 M
504.83 55.288 L
S
GR
GS
[1 0 0 1 68.2 320.2962] CT
0.149 GC
/Helvetica 14 F
GS
[1 0 0 1 0 0] CT
-28 5.5 moveto 
1 -1 scale
(44.5) t 
GR
GR
GS
[1 0 0 1 68.2 250.55736] CT
0.149 GC
/Helvetica 14 F
GS
[1 0 0 1 0 0] CT
-16 5.5 moveto 
1 -1 scale
(45) t 
GR
GR
GS
[1 0 0 1 68.2 180.81851] CT
0.149 GC
/Helvetica 14 F
GS
[1 0 0 1 0 0] CT
-28 5.5 moveto 
1 -1 scale
(45.5) t 
GR
GR
GS
[1 0 0 1 68.2 111.07966] CT
0.149 GC
/Helvetica 14 F
GS
[1 0 0 1 0 0] CT
-16 5.5 moveto 
1 -1 scale
(46) t 
GR
GR
GS
[1 0 0 1 68.2 41.34081] CT
0.149 GC
/Helvetica 14 F
GS
[1 0 0 1 0 0] CT
-28 5.5 moveto 
1 -1 scale
(46.5) t 
GR
GR
GS
[0 -1 1 0 37.7 202.74971] CT
0.149 GC
/Helvetica 15.4 F
GS
[1 0 0 1 0 0] CT
-44 -4 moveto 
1 -1 scale
(PSNR V \(dB\)) t 
GR
GR
GS
[1 0 0 1 290.00027 29.57472] CT
/Helvetica-Bold 15.4 F
GS
[1 0 0 1 0 0] CT
-225.5 -4 moveto 
1 -1 scale
(DinnerSceneCropped_1920x1080_2997fps_10bit_420.y4m-av1) t 
GR
GR
GS
0 0.447 0.741 RC
1 LJ
0.5 LW
N
73.857 235.593 M
74.82 193.408 L
75.782 162.786 L
76.744 150.629 L
77.706 140.977 L
78.669 133.12 L
79.631 126.854 L
80.593 121.979 L
81.555 118.294 L
82.518 115.598 L
83.48 113.471 L
84.442 111.456 L
85.405 109.545 L
86.367 107.733 L
87.329 106.019 L
88.291 104.4 L
89.254 102.872 L
90.216 101.433 L
91.178 100.081 L
92.14 98.811 L
93.103 97.622 L
94.065 96.51 L
95.027 95.473 L
95.989 94.508 L
96.952 93.611 L
97.914 92.781 L
98.876 92.014 L
99.839 91.308 L
100.801 90.658 L
101.763 90.064 L
102.725 89.521 L
103.688 89.028 L
104.65 88.581 L
105.612 88.176 L
106.574 87.812 L
107.537 87.479 L
108.499 87.15 L
109.461 86.822 L
110.424 86.495 L
111.386 86.17 L
112.348 85.845 L
113.31 85.523 L
114.273 85.201 L
115.235 84.881 L
116.197 84.562 L
117.159 84.244 L
118.122 83.928 L
119.084 83.613 L
120.046 83.299 L
121.008 82.987 L
121.971 82.675 L
122.933 82.366 L
123.895 82.057 L
124.858 81.75 L
125.82 81.444 L
126.782 81.139 L
127.744 80.835 L
128.707 80.533 L
129.669 80.232 L
130.631 79.933 L
131.593 79.634 L
132.556 79.337 L
133.518 79.041 L
134.48 78.747 L
135.443 78.453 L
136.405 78.161 L
137.367 77.87 L
138.329 77.581 L
139.292 77.292 L
140.254 77.006 L
141.216 76.719 L
142.178 76.435 L
143.141 76.152 L
144.103 75.87 L
145.065 75.589 L
146.027 75.309 L
146.99 75.031 L
147.952 74.753 L
148.914 74.478 L
149.877 74.203 L
150.839 73.93 L
151.801 73.657 L
152.763 73.387 L
153.726 73.117 L
154.688 72.848 L
155.65 72.581 L
156.612 72.315 L
157.575 72.05 L
158.537 71.786 L
159.499 71.524 L
160.462 71.263 L
161.424 71.002 L
162.386 70.743 L
163.348 70.486 L
164.311 70.229 L
165.273 69.974 L
166.235 69.72 L
167.197 69.467 L
168.16 69.216 L
169.122 68.965 L
170.084 68.716 L
171.046 68.468 L
172.009 68.221 L
172.971 67.975 L
173.933 67.731 L
174.896 67.487 L
175.858 67.245 L
176.82 67.004 L
177.782 66.764 L
178.745 66.526 L
179.707 66.288 L
180.669 66.052 L
181.631 65.816 L
182.594 65.583 L
183.556 65.35 L
184.518 65.118 L
185.481 64.887 L
186.443 64.658 L
187.405 64.43 L
188.367 64.203 L
189.33 63.977 L
190.292 63.752 L
191.254 63.528 L
192.216 63.306 L
193.179 63.085 L
194.141 62.864 L
195.103 62.645 L
196.065 62.428 L
197.028 62.211 L
197.99 61.995 L
198.952 61.781 L
199.915 61.567 L
200.877 61.355 L
201.839 61.144 L
202.801 60.934 L
203.764 60.724 L
204.726 60.517 L
205.688 60.31 L
206.65 60.105 L
207.613 59.9 L
208.575 59.697 L
209.537 59.494 L
210.5 59.293 L
211.462 59.093 L
212.424 58.894 L
213.386 58.696 L
214.349 58.5 L
215.311 58.304 L
216.273 58.109 L
217.235 57.916 L
218.198 57.724 L
219.16 57.532 L
220.122 57.342 L
221.085 57.153 L
222.047 56.965 L
223.009 56.778 L
223.971 56.592 L
224.934 56.407 L
225.896 56.224 L
226.858 56.041 L
227.82 55.859 L
228.783 55.679 L
229.745 55.499 L
230.707 55.321 L
231.669 55.144 L
232.632 54.967 L
233.594 54.792 L
234.556 54.618 L
235.519 54.445 L
236.481 54.273 L
237.443 54.101 L
238.405 53.932 L
239.368 53.763 L
240.33 53.595 L
241.292 53.428 L
242.254 53.262 L
243.217 53.097 L
244.179 52.933 L
245.141 52.771 L
246.104 52.609 L
247.066 52.449 L
248.028 52.289 L
248.99 52.131 L
249.953 51.973 L
250.915 51.816 L
251.877 51.661 L
252.839 51.506 L
253.802 51.353 L
254.764 51.201 L
255.726 51.049 L
256.688 50.898 L
257.651 50.749 L
258.613 50.6 L
259.575 50.453 L
260.538 50.307 L
261.5 50.161 L
262.462 50.017 L
263.424 49.873 L
264.387 49.731 L
265.349 49.589 L
266.311 49.449 L
267.273 49.31 L
268.236 49.171 L
269.198 49.033 L
270.16 48.897 L
271.122 48.761 L
272.085 48.626 L
273.047 48.493 L
274.009 48.36 L
274.972 48.228 L
275.934 48.098 L
276.896 47.968 L
277.858 47.839 L
278.821 47.712 L
279.783 47.585 L
280.745 47.459 L
281.707 47.334 L
282.67 47.21 L
283.632 47.087 L
284.594 46.965 L
285.557 46.844 L
286.519 46.724 L
287.481 46.605 L
288.443 46.486 L
289.406 46.369 L
290.368 46.252 L
291.33 46.137 L
292.292 46.022 L
293.255 45.909 L
294.217 45.796 L
295.179 45.684 L
296.142 45.573 L
297.104 45.464 L
298.066 45.355 L
299.028 45.247 L
299.991 45.139 L
300.953 45.033 L
301.915 44.928 L
302.877 44.824 L
303.84 44.72 L
304.802 44.617 L
305.764 44.516 L
306.726 44.415 L
307.689 44.315 L
308.651 44.216 L
309.613 44.118 L
310.576 44.021 L
311.538 43.925 L
312.5 43.829 L
313.462 43.735 L
314.425 43.641 L
315.387 43.549 L
316.349 43.457 L
317.311 43.366 L
318.274 43.276 L
319.236 43.187 L
320.198 43.098 L
321.161 43.011 L
322.123 42.925 L
323.085 42.839 L
324.047 42.754 L
325.01 42.67 L
325.972 42.587 L
326.934 42.505 L
327.896 42.424 L
328.859 42.343 L
329.821 42.263 L
330.783 42.185 L
331.745 42.106 L
332.708 42.03 L
333.67 41.953 L
334.632 41.878 L
335.595 41.804 L
336.557 41.73 L
337.519 41.657 L
338.481 41.585 L
339.444 41.514 L
340.406 41.444 L
341.368 41.374 L
342.33 41.305 L
343.293 41.238 L
344.255 41.171 L
345.217 41.104 L
346.18 41.039 L
347.142 40.974 L
348.104 40.91 L
349.066 40.848 L
350.029 40.785 L
350.991 40.724 L
351.953 40.663 L
352.915 40.604 L
353.878 40.545 L
354.84 40.487 L
355.802 40.43 L
356.764 40.374 L
357.727 40.318 L
358.689 40.263 L
359.651 40.209 L
360.614 40.156 L
361.576 40.103 L
362.538 40.052 L
363.5 40.001 L
364.463 39.951 L
365.425 39.901 L
366.387 39.853 L
367.349 39.805 L
368.312 39.758 L
369.274 39.712 L
370.236 39.666 L
371.199 39.622 L
372.161 39.578 L
373.123 39.534 L
374.085 39.492 L
375.048 39.45 L
376.01 39.409 L
376.972 39.37 L
377.934 39.33 L
378.897 39.292 L
379.859 39.254 L
380.821 39.217 L
381.784 39.181 L
382.746 39.145 L
383.708 39.11 L
384.67 39.076 L
385.633 39.043 L
386.595 39.01 L
387.557 38.978 L
388.519 38.947 L
389.482 38.917 L
390.444 38.887 L
391.406 38.858 L
392.368 38.829 L
393.331 38.802 L
394.293 38.775 L
395.255 38.75 L
396.218 38.724 L
397.18 38.7 L
398.142 38.676 L
399.104 38.652 L
400.067 38.63 L
401.029 38.608 L
401.991 38.587 L
402.953 38.567 L
403.916 38.547 L
404.878 38.528 L
405.84 38.51 L
406.802 38.492 L
407.765 38.476 L
408.727 38.459 L
409.689 38.444 L
410.652 38.429 L
411.614 38.415 L
412.576 38.402 L
413.538 38.389 L
414.501 38.377 L
415.463 38.366 L
416.425 38.355 L
417.387 38.345 L
418.35 38.335 L
419.312 38.327 L
420.274 38.319 L
421.237 38.311 L
422.199 38.305 L
423.161 38.298 L
424.123 38.293 L
425.086 38.288 L
426.048 38.285 L
427.01 38.281 L
427.972 38.278 L
428.935 38.276 L
429.897 38.275 L
430.859 38.274 L
S
GR
GS
0.851 0.325 0.098 RC
1 LJ
0.5 LW
N
73.979 224.639 M
74.941 188.376 L
75.903 160.248 L
76.866 148.983 L
77.828 140.68 L
78.79 133.758 L
79.752 128.061 L
80.715 123.43 L
81.677 119.711 L
82.639 116.747 L
83.601 114.381 L
84.564 112.418 L
85.526 110.565 L
86.488 108.791 L
87.451 107.092 L
88.413 105.469 L
89.375 103.918 L
90.337 102.439 L
91.3 101.03 L
92.262 99.69 L
93.224 98.416 L
94.186 97.208 L
95.149 96.064 L
96.111 94.981 L
97.073 93.96 L
98.035 92.998 L
98.998 92.095 L
99.96 91.246 L
100.922 90.453 L
101.885 89.712 L
102.847 89.023 L
103.809 88.384 L
104.771 87.793 L
105.734 87.25 L
106.696 86.751 L
107.658 86.297 L
108.62 85.884 L
109.583 85.512 L
110.545 85.18 L
111.507 84.879 L
112.47 84.583 L
113.432 84.288 L
114.394 83.993 L
115.356 83.7 L
116.319 83.407 L
117.281 83.116 L
118.243 82.826 L
119.205 82.536 L
120.168 82.248 L
121.13 81.961 L
122.092 81.674 L
123.055 81.389 L
124.017 81.104 L
124.979 80.821 L
125.941 80.538 L
126.904 80.257 L
127.866 79.976 L
128.828 79.696 L
129.79 79.418 L
130.753 79.14 L
131.715 78.864 L
132.677 78.588 L
133.639 78.313 L
134.602 78.039 L
135.564 77.767 L
136.526 77.495 L
137.489 77.224 L
138.451 76.954 L
139.413 76.685 L
140.375 76.417 L
141.338 76.15 L
142.3 75.884 L
143.262 75.618 L
144.224 75.354 L
145.187 75.091 L
146.149 74.828 L
147.111 74.567 L
148.074 74.307 L
149.036 74.047 L
149.998 73.788 L
150.96 73.531 L
151.923 73.274 L
152.885 73.018 L
153.847 72.764 L
154.809 72.51 L
155.772 72.256 L
156.734 72.004 L
157.696 71.754 L
158.658 71.503 L
159.621 71.254 L
160.583 71.006 L
161.545 70.758 L
162.508 70.512 L
163.47 70.267 L
164.432 70.022 L
165.394 69.778 L
166.357 69.535 L
167.319 69.293 L
168.281 69.052 L
169.243 68.812 L
170.206 68.574 L
171.168 68.335 L
172.13 68.098 L
173.093 67.862 L
174.055 67.626 L
175.017 67.391 L
175.979 67.158 L
176.942 66.925 L
177.904 66.693 L
178.866 66.462 L
179.828 66.232 L
180.791 66.003 L
181.753 65.775 L
182.715 65.548 L
183.677 65.321 L
184.64 65.095 L
185.602 64.871 L
186.564 64.647 L
187.527 64.424 L
188.489 64.202 L
189.451 63.981 L
190.413 63.761 L
191.376 63.541 L
192.338 63.323 L
193.3 63.105 L
194.262 62.889 L
195.225 62.673 L
196.187 62.458 L
197.149 62.244 L
198.112 62.031 L
199.074 61.818 L
200.036 61.607 L
200.998 61.396 L
201.961 61.187 L
202.923 60.978 L
203.885 60.77 L
204.847 60.563 L
205.81 60.357 L
206.772 60.151 L
207.734 59.947 L
208.696 59.743 L
209.659 59.541 L
210.621 59.338 L
211.583 59.137 L
212.546 58.937 L
213.508 58.738 L
214.47 58.539 L
215.432 58.342 L
216.395 58.145 L
217.357 57.949 L
218.319 57.754 L
219.281 57.56 L
220.244 57.366 L
221.206 57.174 L
222.168 56.982 L
223.131 56.791 L
224.093 56.601 L
225.055 56.412 L
226.017 56.224 L
226.98 56.036 L
227.942 55.849 L
228.904 55.663 L
229.866 55.478 L
230.829 55.294 L
231.791 55.111 L
232.753 54.928 L
233.715 54.747 L
234.678 54.566 L
235.64 54.386 L
236.602 54.207 L
237.565 54.028 L
238.527 53.851 L
239.489 53.674 L
240.451 53.498 L
241.414 53.322 L
242.376 53.148 L
243.338 52.975 L
244.3 52.802 L
245.263 52.63 L
246.225 52.459 L
247.187 52.289 L
248.15 52.119 L
249.112 51.951 L
250.074 51.783 L
251.036 51.616 L
251.999 51.45 L
252.961 51.284 L
253.923 51.12 L
254.885 50.956 L
255.848 50.792 L
256.81 50.63 L
257.772 50.469 L
258.734 50.308 L
259.697 50.148 L
260.659 49.989 L
261.621 49.831 L
262.584 49.673 L
263.546 49.517 L
264.508 49.361 L
265.47 49.205 L
266.433 49.051 L
267.395 48.897 L
268.357 48.744 L
269.319 48.592 L
270.282 48.441 L
271.244 48.291 L
272.206 48.141 L
273.169 47.992 L
274.131 47.844 L
275.093 47.696 L
276.055 47.55 L
277.018 47.404 L
277.98 47.259 L
278.942 47.115 L
279.904 46.971 L
280.867 46.828 L
281.829 46.686 L
282.791 46.545 L
283.754 46.404 L
284.716 46.265 L
285.678 46.126 L
286.64 45.987 L
287.603 45.85 L
288.565 45.713 L
289.527 45.577 L
290.489 45.441 L
291.452 45.307 L
292.414 45.173 L
293.376 45.04 L
294.338 44.908 L
295.301 44.776 L
296.263 44.645 L
297.225 44.516 L
298.188 44.386 L
299.15 44.258 L
300.112 44.13 L
301.074 44.003 L
302.037 43.876 L
302.999 43.751 L
303.961 43.625 L
304.923 43.502 L
305.886 43.378 L
306.848 43.255 L
307.81 43.133 L
308.772 43.012 L
309.735 42.891 L
310.697 42.772 L
311.659 42.652 L
312.622 42.534 L
313.584 42.416 L
314.546 42.299 L
315.508 42.183 L
316.471 42.068 L
317.433 41.953 L
318.395 41.838 L
319.357 41.725 L
320.32 41.612 L
321.282 41.5 L
322.244 41.389 L
323.207 41.279 L
324.169 41.168 L
325.131 41.059 L
326.093 40.951 L
327.056 40.843 L
328.018 40.736 L
328.98 40.629 L
329.942 40.524 L
330.905 40.419 L
331.867 40.314 L
332.829 40.211 L
333.792 40.108 L
334.754 40.006 L
335.716 39.904 L
336.678 39.803 L
337.641 39.703 L
338.603 39.604 L
339.565 39.505 L
340.527 39.406 L
341.49 39.309 L
342.452 39.212 L
343.414 39.116 L
344.376 39.02 L
345.339 38.926 L
346.301 38.832 L
347.263 38.738 L
348.226 38.645 L
349.188 38.553 L
350.15 38.462 L
351.112 38.371 L
352.075 38.281 L
353.037 38.192 L
353.999 38.103 L
354.961 38.015 L
355.924 37.927 L
356.886 37.84 L
357.848 37.754 L
358.811 37.669 L
359.773 37.584 L
360.735 37.5 L
361.697 37.416 L
362.66 37.333 L
363.622 37.251 L
364.584 37.169 L
365.546 37.089 L
366.509 37.008 L
367.471 36.929 L
368.433 36.85 L
369.395 36.771 L
370.358 36.694 L
371.32 36.617 L
372.282 36.54 L
373.245 36.464 L
374.207 36.389 L
375.169 36.314 L
376.131 36.24 L
377.094 36.167 L
378.056 36.095 L
379.018 36.023 L
379.98 35.951 L
380.943 35.88 L
381.905 35.81 L
382.867 35.741 L
383.83 35.672 L
384.792 35.604 L
385.754 35.536 L
386.716 35.468 L
387.679 35.402 L
388.641 35.336 L
389.603 35.271 L
390.565 35.207 L
391.528 35.142 L
392.49 35.079 L
393.452 35.016 L
394.414 34.954 L
395.377 34.893 L
396.339 34.832 L
397.301 34.771 L
398.264 34.711 L
399.226 34.652 L
400.188 34.594 L
401.15 34.536 L
402.113 34.478 L
403.075 34.421 L
404.037 34.365 L
404.999 34.31 L
405.962 34.255 L
406.924 34.201 L
407.886 34.146 L
408.849 34.093 L
409.811 34.04 L
410.773 33.988 L
411.735 33.937 L
412.698 33.886 L
413.66 33.836 L
414.622 33.786 L
415.584 33.737 L
416.547 33.688 L
417.509 33.64 L
418.471 33.592 L
419.433 33.546 L
420.396 33.499 L
421.358 33.453 L
422.32 33.408 L
423.283 33.364 L
424.245 33.32 L
425.207 33.276 L
426.169 33.233 L
427.132 33.191 L
428.094 33.149 L
429.056 33.108 L
430.018 33.067 L
430.981 33.027 L
431.943 32.987 L
432.905 32.949 L
433.868 32.91 L
434.83 32.872 L
435.792 32.835 L
436.754 32.798 L
437.717 32.762 L
438.679 32.726 L
439.641 32.69 L
440.603 32.656 L
441.566 32.622 L
442.528 32.588 L
443.49 32.555 L
444.452 32.523 L
445.415 32.491 L
446.377 32.46 L
447.339 32.429 L
448.302 32.398 L
449.264 32.369 L
450.226 32.339 L
451.188 32.31 L
452.151 32.282 L
453.113 32.254 L
454.075 32.227 L
455.037 32.2 L
456 32.174 L
456.962 32.149 L
457.924 32.124 L
458.887 32.099 L
459.849 32.075 L
460.811 32.051 L
461.773 32.028 L
462.736 32.006 L
463.698 31.984 L
464.66 31.962 L
465.622 31.941 L
466.585 31.921 L
467.547 31.901 L
468.509 31.881 L
469.471 31.862 L
470.434 31.844 L
471.396 31.826 L
472.358 31.808 L
473.321 31.791 L
474.283 31.775 L
475.245 31.759 L
476.207 31.743 L
477.17 31.729 L
478.132 31.714 L
479.094 31.7 L
480.056 31.686 L
481.019 31.673 L
481.981 31.66 L
482.943 31.649 L
483.906 31.637 L
484.868 31.626 L
485.83 31.615 L
486.792 31.605 L
487.755 31.596 L
488.717 31.586 L
489.679 31.577 L
490.641 31.569 L
491.604 31.561 L
492.566 31.554 L
493.528 31.547 L
494.491 31.541 L
495.453 31.535 L
496.415 31.53 L
497.377 31.525 L
498.34 31.52 L
499.302 31.516 L
500.264 31.513 L
501.226 31.509 L
502.189 31.507 L
503.151 31.505 L
504.113 31.502 L
505.075 31.501 L
506.038 31.5 L
507 31.5 L
S
GR
GS
0.929 0.694 0.125 RC
1 LJ
0.5 LW
N
73.801 247.898 M
74.763 205.946 L
75.725 175.622 L
76.688 156.281 L
77.65 140.856 L
78.612 129.533 L
79.575 122.15 L
80.537 115.932 L
81.499 110.295 L
82.461 105.32 L
83.424 101.084 L
84.386 97.666 L
85.348 95.146 L
86.31 93.602 L
87.273 93.005 L
88.235 92.577 L
89.197 92.151 L
90.16 91.728 L
91.122 91.307 L
92.084 90.889 L
93.046 90.473 L
94.009 90.059 L
94.971 89.648 L
95.933 89.239 L
96.895 88.833 L
97.858 88.43 L
98.82 88.028 L
99.782 87.629 L
100.744 87.232 L
101.707 86.838 L
102.669 86.447 L
103.631 86.057 L
104.594 85.67 L
105.556 85.285 L
106.518 84.903 L
107.48 84.522 L
108.443 84.144 L
109.405 83.769 L
110.367 83.396 L
111.329 83.025 L
112.292 82.656 L
113.254 82.29 L
114.216 81.926 L
115.179 81.564 L
116.141 81.205 L
117.103 80.848 L
118.065 80.492 L
119.028 80.14 L
119.99 79.789 L
120.952 79.441 L
121.914 79.095 L
122.877 78.751 L
123.839 78.41 L
124.801 78.07 L
125.763 77.733 L
126.726 77.398 L
127.688 77.065 L
128.65 76.735 L
129.613 76.406 L
130.575 76.08 L
131.537 75.756 L
132.499 75.434 L
133.462 75.114 L
134.424 74.796 L
135.386 74.48 L
136.348 74.167 L
137.311 73.856 L
138.273 73.547 L
139.235 73.239 L
140.198 72.934 L
141.16 72.632 L
142.122 72.33 L
143.084 72.031 L
144.047 71.735 L
145.009 71.44 L
145.971 71.148 L
146.933 70.857 L
147.896 70.568 L
148.858 70.282 L
149.82 69.997 L
150.782 69.715 L
151.745 69.434 L
152.707 69.156 L
153.669 68.879 L
154.632 68.605 L
155.594 68.332 L
156.556 68.062 L
157.518 67.793 L
158.481 67.526 L
159.443 67.262 L
160.405 66.999 L
161.367 66.738 L
162.33 66.479 L
163.292 66.222 L
164.254 65.967 L
165.217 65.714 L
166.179 65.463 L
167.141 65.214 L
168.103 64.967 L
169.066 64.721 L
170.028 64.477 L
170.99 64.236 L
171.952 63.996 L
172.915 63.758 L
173.877 63.522 L
174.839 63.287 L
175.801 63.054 L
176.764 62.823 L
177.726 62.595 L
178.688 62.367 L
179.651 62.142 L
180.613 61.919 L
181.575 61.697 L
182.537 61.477 L
183.5 61.259 L
184.462 61.043 L
185.424 60.828 L
186.386 60.615 L
187.349 60.404 L
188.311 60.195 L
189.273 59.987 L
190.236 59.781 L
191.198 59.577 L
192.16 59.375 L
193.122 59.174 L
194.085 58.975 L
195.047 58.778 L
196.009 58.582 L
196.971 58.388 L
197.934 58.196 L
198.896 58.005 L
199.858 57.816 L
200.82 57.628 L
201.783 57.443 L
202.745 57.259 L
203.707 57.076 L
204.67 56.895 L
205.632 56.716 L
206.594 56.539 L
207.556 56.363 L
208.519 56.188 L
209.481 56.015 L
210.443 55.844 L
211.405 55.675 L
212.368 55.507 L
213.33 55.34 L
214.292 55.175 L
215.255 55.012 L
216.217 54.849 L
217.179 54.689 L
218.141 54.53 L
219.104 54.373 L
220.066 54.217 L
221.028 54.063 L
221.99 53.91 L
222.953 53.759 L
223.915 53.609 L
224.877 53.461 L
225.84 53.314 L
226.802 53.168 L
227.764 53.024 L
228.726 52.882 L
229.689 52.741 L
230.651 52.601 L
231.613 52.463 L
232.575 52.326 L
233.538 52.191 L
234.5 52.057 L
235.462 51.924 L
236.424 51.793 L
237.387 51.663 L
238.349 51.534 L
239.311 51.407 L
240.274 51.281 L
241.236 51.157 L
242.198 51.034 L
243.16 50.913 L
244.123 50.792 L
245.085 50.673 L
246.047 50.555 L
247.009 50.439 L
247.972 50.324 L
248.934 50.21 L
249.896 50.098 L
250.859 49.986 L
251.821 49.877 L
252.783 49.768 L
253.745 49.661 L
254.708 49.554 L
255.67 49.449 L
256.632 49.346 L
257.594 49.244 L
258.557 49.142 L
259.519 49.042 L
260.481 48.943 L
261.443 48.846 L
262.406 48.75 L
263.368 48.655 L
264.33 48.561 L
265.293 48.468 L
266.255 48.376 L
267.217 48.286 L
268.179 48.196 L
269.142 48.109 L
270.104 48.021 L
271.066 47.936 L
272.028 47.851 L
272.991 47.768 L
273.953 47.685 L
274.915 47.604 L
275.878 47.523 L
276.84 47.444 L
277.802 47.366 L
278.764 47.289 L
279.727 47.213 L
280.689 47.139 L
281.651 47.065 L
282.613 46.992 L
283.576 46.921 L
284.538 46.85 L
285.5 46.78 L
286.462 46.711 L
287.425 46.644 L
288.387 46.577 L
289.349 46.512 L
290.312 46.448 L
291.274 46.384 L
292.236 46.321 L
293.198 46.26 L
294.161 46.199 L
295.123 46.14 L
296.085 46.081 L
297.047 46.023 L
298.01 45.966 L
298.972 45.91 L
299.934 45.855 L
300.897 45.802 L
301.859 45.748 L
302.821 45.696 L
303.783 45.645 L
304.746 45.594 L
305.708 45.545 L
306.67 45.496 L
307.632 45.448 L
308.595 45.402 L
309.557 45.355 L
310.519 45.31 L
311.482 45.266 L
312.444 45.222 L
313.406 45.18 L
314.368 45.138 L
315.331 45.097 L
316.293 45.056 L
317.255 45.017 L
318.217 44.978 L
319.18 44.94 L
320.142 44.904 L
321.104 44.867 L
322.066 44.831 L
323.029 44.797 L
323.991 44.763 L
324.953 44.729 L
325.916 44.697 L
326.878 44.665 L
327.84 44.634 L
328.802 44.603 L
329.765 44.574 L
330.727 44.545 L
331.689 44.516 L
332.651 44.489 L
333.614 44.462 L
334.576 44.436 L
335.538 44.41 L
336.5 44.385 L
337.463 44.361 L
338.425 44.337 L
339.387 44.315 L
340.35 44.292 L
341.312 44.27 L
342.274 44.249 L
343.236 44.229 L
344.199 44.209 L
345.161 44.189 L
346.123 44.171 L
347.085 44.153 L
348.048 44.135 L
349.01 44.118 L
349.972 44.102 L
350.935 44.086 L
351.897 44.071 L
352.859 44.056 L
353.821 44.042 L
354.784 44.028 L
355.746 44.015 L
356.708 44.002 L
357.67 43.99 L
358.633 43.978 L
359.595 43.967 L
360.557 43.956 L
361.52 43.946 L
362.482 43.937 L
363.444 43.927 L
364.406 43.919 L
365.369 43.91 L
366.331 43.902 L
367.293 43.895 L
368.255 43.888 L
369.218 43.881 L
370.18 43.875 L
371.142 43.869 L
372.104 43.863 L
373.067 43.859 L
374.029 43.854 L
374.991 43.85 L
375.954 43.846 L
376.916 43.842 L
377.878 43.839 L
378.84 43.836 L
379.803 43.834 L
380.765 43.832 L
381.727 43.83 L
382.689 43.829 L
383.652 43.827 L
384.614 43.827 L
385.576 43.826 L
386.539 43.826 L
S
GR
GS
0.494 0.184 0.557 RC
1 LJ
0.5 LW
N
73.859 230.709 M
74.821 191.198 L
75.783 162.502 L
76.745 150.748 L
77.708 141.329 L
78.67 133.637 L
79.632 127.48 L
80.594 122.666 L
81.557 119.004 L
82.519 116.302 L
83.481 114.149 L
84.444 112.108 L
85.406 110.169 L
86.368 108.331 L
87.33 106.591 L
88.293 104.945 L
89.255 103.391 L
90.217 101.927 L
91.179 100.55 L
92.142 99.256 L
93.104 98.044 L
94.066 96.91 L
95.029 95.851 L
95.991 94.866 L
96.953 93.951 L
97.915 93.104 L
98.878 92.321 L
99.84 91.601 L
100.802 90.939 L
101.764 90.335 L
102.727 89.784 L
103.689 89.285 L
104.651 88.834 L
105.614 88.429 L
106.576 88.066 L
107.538 87.733 L
108.5 87.401 L
109.463 87.071 L
110.425 86.742 L
111.387 86.415 L
112.349 86.089 L
113.312 85.764 L
114.274 85.441 L
115.236 85.118 L
116.198 84.797 L
117.161 84.478 L
118.123 84.159 L
119.085 83.843 L
120.048 83.527 L
121.01 83.213 L
121.972 82.9 L
122.934 82.588 L
123.897 82.278 L
124.859 81.969 L
125.821 81.661 L
126.783 81.355 L
127.746 81.049 L
128.708 80.746 L
129.67 80.443 L
130.633 80.142 L
131.595 79.842 L
132.557 79.543 L
133.519 79.246 L
134.482 78.949 L
135.444 78.655 L
136.406 78.361 L
137.368 78.069 L
138.331 77.777 L
139.293 77.488 L
140.255 77.199 L
141.217 76.912 L
142.18 76.626 L
143.142 76.341 L
144.104 76.058 L
145.067 75.776 L
146.029 75.495 L
146.991 75.215 L
147.953 74.936 L
148.916 74.659 L
149.878 74.383 L
150.84 74.109 L
151.802 73.835 L
152.765 73.563 L
153.727 73.292 L
154.689 73.022 L
155.652 72.753 L
156.614 72.486 L
157.576 72.22 L
158.538 71.955 L
159.501 71.691 L
160.463 71.429 L
161.425 71.168 L
162.387 70.908 L
163.35 70.65 L
164.312 70.392 L
165.274 70.136 L
166.236 69.881 L
167.199 69.626 L
168.161 69.374 L
169.123 69.123 L
170.086 68.873 L
171.048 68.624 L
172.01 68.376 L
172.972 68.129 L
173.935 67.883 L
174.897 67.639 L
175.859 67.396 L
176.821 67.154 L
177.784 66.913 L
178.746 66.674 L
179.708 66.436 L
180.671 66.198 L
181.633 65.963 L
182.595 65.727 L
183.557 65.494 L
184.52 65.261 L
185.482 65.03 L
186.444 64.8 L
187.406 64.571 L
188.369 64.344 L
189.331 64.117 L
190.293 63.891 L
191.255 63.667 L
192.218 63.444 L
193.18 63.222 L
194.142 63.001 L
195.105 62.781 L
196.067 62.563 L
197.029 62.346 L
197.991 62.129 L
198.954 61.914 L
199.916 61.7 L
200.878 61.487 L
201.84 61.276 L
202.803 61.065 L
203.765 60.855 L
204.727 60.647 L
205.69 60.44 L
206.652 60.234 L
207.614 60.029 L
208.576 59.825 L
209.539 59.623 L
210.501 59.421 L
211.463 59.221 L
212.425 59.021 L
213.388 58.823 L
214.35 58.626 L
215.312 58.43 L
216.274 58.235 L
217.237 58.041 L
218.199 57.848 L
219.161 57.657 L
220.124 57.466 L
221.086 57.277 L
222.048 57.088 L
223.01 56.901 L
223.973 56.715 L
224.935 56.53 L
225.897 56.346 L
226.859 56.163 L
227.822 55.981 L
228.784 55.8 L
229.746 55.621 L
230.709 55.442 L
231.671 55.264 L
232.633 55.088 L
233.595 54.913 L
234.558 54.738 L
235.52 54.565 L
236.482 54.393 L
237.444 54.222 L
238.407 54.052 L
239.369 53.883 L
240.331 53.715 L
241.293 53.547 L
242.256 53.382 L
243.218 53.217 L
244.18 53.053 L
245.143 52.89 L
246.105 52.729 L
247.067 52.568 L
248.029 52.408 L
248.992 52.25 L
249.954 52.092 L
250.916 51.935 L
251.878 51.78 L
252.841 51.626 L
253.803 51.472 L
254.765 51.32 L
255.728 51.168 L
256.69 51.017 L
257.652 50.869 L
258.614 50.72 L
259.577 50.573 L
260.539 50.426 L
261.501 50.281 L
262.463 50.136 L
263.426 49.993 L
264.388 49.851 L
265.35 49.709 L
266.313 49.569 L
267.275 49.429 L
268.237 49.291 L
269.199 49.154 L
270.162 49.017 L
271.124 48.882 L
272.086 48.748 L
273.048 48.614 L
274.011 48.482 L
274.973 48.35 L
275.935 48.219 L
276.897 48.09 L
277.86 47.961 L
278.822 47.834 L
279.784 47.707 L
280.747 47.581 L
281.709 47.457 L
282.671 47.333 L
283.633 47.21 L
284.596 47.088 L
285.558 46.967 L
286.52 46.848 L
287.482 46.729 L
288.445 46.61 L
289.407 46.493 L
290.369 46.377 L
291.332 46.262 L
292.294 46.148 L
293.256 46.035 L
294.218 45.922 L
295.181 45.811 L
296.143 45.7 L
297.105 45.59 L
298.067 45.482 L
299.03 45.374 L
299.992 45.267 L
300.954 45.162 L
301.916 45.057 L
302.879 44.952 L
303.841 44.849 L
304.803 44.747 L
305.766 44.646 L
306.728 44.545 L
307.69 44.446 L
308.652 44.348 L
309.615 44.25 L
310.577 44.153 L
311.539 44.057 L
312.501 43.962 L
313.464 43.868 L
314.426 43.775 L
315.388 43.682 L
316.351 43.591 L
317.313 43.5 L
318.275 43.411 L
319.237 43.322 L
320.2 43.234 L
321.162 43.147 L
322.124 43.061 L
323.086 42.976 L
324.049 42.891 L
325.011 42.808 L
325.973 42.725 L
326.935 42.643 L
327.898 42.562 L
328.86 42.483 L
329.822 42.403 L
330.785 42.325 L
331.747 42.247 L
332.709 42.171 L
333.671 42.095 L
334.634 42.02 L
335.596 41.946 L
336.558 41.873 L
337.52 41.801 L
338.483 41.729 L
339.445 41.658 L
340.407 41.588 L
341.37 41.519 L
342.332 41.451 L
343.294 41.383 L
344.256 41.317 L
345.219 41.251 L
346.181 41.187 L
347.143 41.122 L
348.105 41.059 L
349.068 40.997 L
350.03 40.935 L
350.992 40.874 L
351.954 40.814 L
352.917 40.755 L
353.879 40.696 L
354.841 40.639 L
355.804 40.582 L
356.766 40.526 L
357.728 40.471 L
358.69 40.417 L
359.653 40.363 L
360.615 40.31 L
361.577 40.258 L
362.539 40.207 L
363.502 40.156 L
364.464 40.107 L
365.426 40.058 L
366.389 40.01 L
367.351 39.963 L
368.313 39.916 L
369.275 39.871 L
370.238 39.825 L
371.2 39.781 L
372.162 39.738 L
373.124 39.695 L
374.087 39.653 L
375.049 39.612 L
376.011 39.572 L
376.973 39.532 L
377.936 39.493 L
378.898 39.455 L
379.86 39.418 L
380.823 39.381 L
381.785 39.346 L
382.747 39.31 L
383.709 39.276 L
384.672 39.242 L
385.634 39.209 L
386.596 39.177 L
387.558 39.146 L
388.521 39.115 L
389.483 39.085 L
390.445 39.056 L
391.408 39.027 L
392.37 39 L
393.332 38.973 L
394.294 38.946 L
395.257 38.92 L
396.219 38.895 L
397.181 38.871 L
398.143 38.848 L
399.106 38.825 L
400.068 38.803 L
401.03 38.782 L
401.992 38.761 L
402.955 38.741 L
403.917 38.722 L
404.879 38.703 L
405.842 38.686 L
406.804 38.668 L
407.766 38.652 L
408.728 38.636 L
409.691 38.621 L
410.653 38.607 L
411.615 38.593 L
412.577 38.58 L
413.54 38.568 L
414.502 38.556 L
415.464 38.545 L
416.427 38.535 L
417.389 38.525 L
418.351 38.516 L
419.313 38.508 L
420.276 38.5 L
421.238 38.493 L
422.2 38.486 L
423.162 38.481 L
424.125 38.476 L
425.087 38.471 L
426.049 38.468 L
427.012 38.464 L
427.974 38.462 L
428.936 38.46 L
429.898 38.459 L
430.861 38.459 L
S
GR
GS
0.467 0.675 0.188 RC
1 LJ
0.5 LW
N
73 356.352 M
73.962 269.093 L
74.925 223.878 L
75.887 195.005 L
76.849 176.599 L
77.811 164.342 L
78.774 153.377 L
79.736 143.879 L
80.698 136.064 L
81.66 130.148 L
82.623 126.345 L
83.585 124.837 L
84.547 124.192 L
85.51 123.551 L
86.472 122.913 L
87.434 122.28 L
88.396 121.651 L
89.359 121.026 L
90.321 120.404 L
91.283 119.786 L
92.245 119.173 L
93.208 118.564 L
94.17 117.958 L
95.132 117.356 L
96.094 116.758 L
97.057 116.165 L
98.019 115.575 L
98.981 114.989 L
99.944 114.407 L
100.906 113.828 L
101.868 113.253 L
102.83 112.683 L
103.793 112.116 L
104.755 111.553 L
105.717 110.993 L
106.679 110.437 L
107.642 109.886 L
108.604 109.337 L
109.566 108.793 L
110.529 108.252 L
111.491 107.715 L
112.453 107.182 L
113.415 106.652 L
114.378 106.126 L
115.34 105.604 L
116.302 105.085 L
117.264 104.57 L
118.227 104.059 L
119.189 103.551 L
120.151 103.047 L
121.113 102.546 L
122.076 102.049 L
123.038 101.556 L
124 101.066 L
124.963 100.579 L
125.925 100.096 L
126.887 99.617 L
127.849 99.141 L
128.812 98.668 L
129.774 98.199 L
130.736 97.733 L
131.698 97.272 L
132.661 96.813 L
133.623 96.357 L
134.585 95.905 L
135.548 95.457 L
136.51 95.012 L
137.472 94.57 L
138.434 94.131 L
139.397 93.697 L
140.359 93.265 L
141.321 92.836 L
142.283 92.411 L
143.246 91.989 L
144.208 91.57 L
145.17 91.155 L
146.132 90.743 L
147.095 90.334 L
148.057 89.928 L
149.019 89.526 L
149.982 89.127 L
150.944 88.731 L
151.906 88.338 L
152.868 87.949 L
153.831 87.562 L
154.793 87.178 L
155.755 86.798 L
156.717 86.421 L
157.68 86.047 L
158.642 85.676 L
159.604 85.308 L
160.567 84.943 L
161.529 84.581 L
162.491 84.223 L
163.453 83.867 L
164.416 83.514 L
165.378 83.164 L
166.34 82.817 L
167.302 82.474 L
168.265 82.133 L
169.227 81.795 L
170.189 81.46 L
171.151 81.128 L
172.114 80.799 L
173.076 80.473 L
174.038 80.15 L
175.001 79.829 L
175.963 79.511 L
176.925 79.197 L
177.887 78.885 L
178.85 78.576 L
179.812 78.269 L
180.774 77.966 L
181.736 77.665 L
182.699 77.367 L
183.661 77.072 L
184.623 76.78 L
185.586 76.49 L
186.548 76.203 L
187.51 75.919 L
188.472 75.637 L
189.435 75.358 L
190.397 75.082 L
191.359 74.808 L
192.321 74.537 L
193.284 74.269 L
194.246 74.003 L
195.208 73.74 L
196.17 73.48 L
197.133 73.222 L
198.095 72.967 L
199.057 72.714 L
200.02 72.464 L
200.982 72.216 L
201.944 71.971 L
202.906 71.728 L
203.869 71.488 L
204.831 71.25 L
205.793 71.015 L
206.755 70.782 L
207.718 70.552 L
208.68 70.324 L
209.642 70.099 L
210.605 69.875 L
211.567 69.655 L
212.529 69.437 L
213.491 69.22 L
214.454 69.007 L
215.416 68.796 L
216.378 68.587 L
217.34 68.38 L
218.303 68.176 L
219.265 67.974 L
220.227 67.774 L
221.189 67.577 L
222.152 67.382 L
223.114 67.189 L
224.076 66.998 L
225.039 66.81 L
226.001 66.623 L
226.963 66.439 L
227.925 66.257 L
228.888 66.078 L
229.85 65.9 L
230.812 65.725 L
231.774 65.551 L
232.737 65.38 L
233.699 65.211 L
234.661 65.044 L
235.624 64.879 L
236.586 64.717 L
237.548 64.555 L
238.51 64.397 L
239.473 64.24 L
240.435 64.086 L
241.397 63.932 L
242.359 63.782 L
243.322 63.633 L
244.284 63.486 L
245.246 63.341 L
246.208 63.199 L
247.171 63.058 L
248.133 62.919 L
249.095 62.781 L
250.058 62.646 L
251.02 62.513 L
251.982 62.381 L
252.944 62.252 L
253.907 62.124 L
254.869 61.998 L
255.831 61.873 L
256.793 61.751 L
257.756 61.631 L
258.718 61.511 L
259.68 61.394 L
260.643 61.279 L
261.605 61.166 L
262.567 61.054 L
263.529 60.944 L
264.492 60.835 L
265.454 60.729 L
266.416 60.623 L
267.378 60.52 L
268.341 60.419 L
269.303 60.318 L
270.265 60.22 L
271.228 60.123 L
272.19 60.027 L
273.152 59.934 L
274.114 59.842 L
275.077 59.751 L
276.039 59.662 L
277.001 59.575 L
277.963 59.488 L
278.926 59.404 L
279.888 59.321 L
280.85 59.24 L
281.812 59.16 L
282.775 59.081 L
283.737 59.004 L
284.699 58.929 L
285.662 58.854 L
286.624 58.782 L
287.586 58.71 L
288.548 58.64 L
289.511 58.572 L
290.473 58.504 L
291.435 58.439 L
292.397 58.374 L
293.36 58.311 L
294.322 58.249 L
295.284 58.188 L
296.247 58.129 L
297.209 58.071 L
298.171 58.014 L
299.133 57.958 L
300.096 57.903 L
301.058 57.851 L
302.02 57.799 L
302.982 57.748 L
303.945 57.699 L
304.907 57.65 L
305.869 57.603 L
306.831 57.557 L
307.794 57.512 L
308.756 57.468 L
309.718 57.425 L
310.681 57.384 L
311.643 57.343 L
312.605 57.304 L
313.567 57.266 L
314.53 57.228 L
315.492 57.192 L
316.454 57.156 L
317.416 57.122 L
318.379 57.089 L
319.341 57.056 L
320.303 57.025 L
321.266 56.995 L
322.228 56.965 L
323.19 56.937 L
324.152 56.909 L
325.115 56.882 L
326.077 56.857 L
327.039 56.832 L
328.001 56.808 L
328.964 56.785 L
329.926 56.762 L
330.888 56.741 L
331.85 56.72 L
332.813 56.7 L
333.775 56.681 L
334.737 56.663 L
335.7 56.645 L
336.662 56.629 L
337.624 56.613 L
338.586 56.597 L
339.549 56.583 L
340.511 56.569 L
341.473 56.556 L
342.435 56.543 L
343.398 56.531 L
344.36 56.52 L
345.322 56.509 L
346.285 56.5 L
347.247 56.49 L
348.209 56.482 L
349.171 56.474 L
350.134 56.466 L
351.096 56.459 L
352.058 56.453 L
353.02 56.447 L
353.983 56.442 L
354.945 56.437 L
355.907 56.433 L
356.869 56.429 L
357.832 56.425 L
358.794 56.423 L
359.756 56.421 L
360.719 56.418 L
361.681 56.417 L
362.643 56.416 L
363.605 56.415 L
364.568 56.415 L
S
GR
GS
0.302 0.745 0.933 RC
[10 6] 0 setdash
2 LJ
0.5 LW
N
73.881 226.12 M
74.843 189.161 L
75.805 161.88 L
76.768 150.465 L
77.73 141.335 L
78.692 133.815 L
79.654 127.733 L
80.617 122.917 L
81.579 119.194 L
82.541 116.392 L
83.503 114.232 L
84.466 112.215 L
85.428 110.296 L
86.39 108.472 L
87.352 106.742 L
88.315 105.102 L
89.277 103.55 L
90.239 102.084 L
91.202 100.701 L
92.164 99.399 L
93.126 98.175 L
94.088 97.027 L
95.051 95.953 L
96.013 94.95 L
96.975 94.014 L
97.937 93.145 L
98.9 92.34 L
99.862 91.595 L
100.824 90.91 L
101.787 90.28 L
102.749 89.704 L
103.711 89.179 L
104.673 88.703 L
105.636 88.273 L
106.598 87.887 L
107.56 87.543 L
108.522 87.218 L
109.485 86.894 L
110.447 86.572 L
111.409 86.25 L
112.371 85.931 L
113.334 85.612 L
114.296 85.294 L
115.258 84.978 L
116.221 84.663 L
117.183 84.349 L
118.145 84.036 L
119.107 83.725 L
120.07 83.415 L
121.032 83.106 L
121.994 82.799 L
122.956 82.492 L
123.919 82.187 L
124.881 81.883 L
125.843 81.581 L
126.806 81.279 L
127.768 80.979 L
128.73 80.68 L
129.692 80.382 L
130.655 80.086 L
131.617 79.791 L
132.579 79.496 L
133.541 79.203 L
134.504 78.912 L
135.466 78.621 L
136.428 78.332 L
137.39 78.044 L
138.353 77.757 L
139.315 77.471 L
140.277 77.187 L
141.24 76.904 L
142.202 76.622 L
143.164 76.341 L
144.126 76.061 L
145.089 75.782 L
146.051 75.505 L
147.013 75.229 L
147.975 74.954 L
148.938 74.68 L
149.9 74.408 L
150.862 74.136 L
151.825 73.866 L
152.787 73.597 L
153.749 73.329 L
154.711 73.062 L
155.674 72.797 L
156.636 72.532 L
157.598 72.269 L
158.56 72.007 L
159.523 71.746 L
160.485 71.487 L
161.447 71.228 L
162.41 70.97 L
163.372 70.714 L
164.334 70.459 L
165.296 70.205 L
166.259 69.952 L
167.221 69.7 L
168.183 69.45 L
169.145 69.201 L
170.108 68.952 L
171.07 68.705 L
172.032 68.46 L
172.994 68.215 L
173.957 67.971 L
174.919 67.729 L
175.881 67.487 L
176.844 67.247 L
177.806 67.008 L
178.768 66.769 L
179.73 66.533 L
180.693 66.297 L
181.655 66.062 L
182.617 65.829 L
183.579 65.596 L
184.542 65.365 L
185.504 65.134 L
186.466 64.905 L
187.428 64.677 L
188.391 64.451 L
189.353 64.224 L
190.315 64 L
191.278 63.776 L
192.24 63.554 L
193.202 63.332 L
194.164 63.112 L
195.127 62.893 L
196.089 62.674 L
197.051 62.457 L
198.013 62.241 L
198.976 62.027 L
199.938 61.813 L
200.9 61.6 L
201.863 61.388 L
202.825 61.178 L
203.787 60.969 L
204.749 60.76 L
205.712 60.553 L
206.674 60.346 L
207.636 60.141 L
208.598 59.937 L
209.561 59.734 L
210.523 59.532 L
211.485 59.331 L
212.447 59.131 L
213.41 58.932 L
214.372 58.735 L
215.334 58.538 L
216.297 58.342 L
217.259 58.147 L
218.221 57.953 L
219.183 57.761 L
220.146 57.57 L
221.108 57.379 L
222.07 57.189 L
223.032 57.001 L
223.995 56.814 L
224.957 56.628 L
225.919 56.442 L
226.882 56.258 L
227.844 56.075 L
228.806 55.892 L
229.768 55.711 L
230.731 55.531 L
231.693 55.352 L
232.655 55.174 L
233.617 54.997 L
234.58 54.821 L
235.542 54.646 L
236.504 54.471 L
237.467 54.298 L
238.429 54.126 L
239.391 53.955 L
240.353 53.785 L
241.316 53.616 L
242.278 53.448 L
243.24 53.281 L
244.202 53.115 L
245.165 52.949 L
246.127 52.786 L
247.089 52.622 L
248.051 52.46 L
249.014 52.299 L
249.976 52.139 L
250.938 51.98 L
251.901 51.821 L
252.863 51.664 L
253.825 51.508 L
254.787 51.353 L
255.75 51.199 L
256.712 51.045 L
257.674 50.893 L
258.636 50.741 L
259.599 50.591 L
260.561 50.442 L
261.523 50.293 L
262.486 50.145 L
263.448 49.999 L
264.41 49.853 L
265.372 49.709 L
266.335 49.565 L
267.297 49.422 L
268.259 49.28 L
269.221 49.14 L
270.184 49 L
271.146 48.86 L
272.108 48.723 L
273.07 48.585 L
274.033 48.449 L
274.995 48.314 L
275.957 48.179 L
276.92 48.046 L
277.882 47.914 L
278.844 47.783 L
279.806 47.652 L
280.769 47.522 L
281.731 47.393 L
282.693 47.265 L
283.655 47.139 L
284.618 47.013 L
285.58 46.888 L
286.542 46.763 L
287.505 46.64 L
288.467 46.518 L
289.429 46.396 L
290.391 46.276 L
291.354 46.156 L
292.316 46.037 L
293.278 45.919 L
294.24 45.802 L
295.203 45.686 L
296.165 45.571 L
297.127 45.457 L
298.089 45.344 L
299.052 45.231 L
300.014 45.119 L
300.976 45.008 L
301.939 44.899 L
302.901 44.79 L
303.863 44.682 L
304.825 44.574 L
305.788 44.468 L
306.75 44.362 L
307.712 44.258 L
308.674 44.154 L
309.637 44.051 L
310.599 43.949 L
311.561 43.848 L
312.524 43.748 L
313.486 43.648 L
314.448 43.549 L
315.41 43.452 L
316.373 43.355 L
317.335 43.259 L
318.297 43.164 L
319.259 43.069 L
320.222 42.976 L
321.184 42.883 L
322.146 42.792 L
323.108 42.701 L
324.071 42.61 L
325.033 42.521 L
325.995 42.433 L
326.958 42.345 L
327.92 42.259 L
328.882 42.172 L
329.844 42.087 L
330.807 42.003 L
331.769 41.92 L
332.731 41.837 L
333.693 41.755 L
334.656 41.674 L
335.618 41.594 L
336.58 41.514 L
337.543 41.436 L
338.505 41.358 L
339.467 41.281 L
340.429 41.205 L
341.392 41.13 L
342.354 41.055 L
343.316 40.981 L
344.278 40.908 L
345.241 40.836 L
346.203 40.765 L
347.165 40.694 L
348.128 40.624 L
349.09 40.555 L
350.052 40.487 L
351.014 40.419 L
351.977 40.353 L
352.939 40.287 L
353.901 40.222 L
354.863 40.158 L
355.826 40.094 L
356.788 40.031 L
357.75 39.969 L
358.712 39.908 L
359.675 39.847 L
360.637 39.788 L
361.599 39.729 L
362.562 39.671 L
363.524 39.613 L
364.486 39.556 L
365.448 39.5 L
366.411 39.446 L
367.373 39.391 L
368.335 39.338 L
369.297 39.284 L
370.26 39.232 L
371.222 39.181 L
372.184 39.13 L
373.146 39.08 L
374.109 39.031 L
375.071 38.983 L
376.033 38.935 L
376.996 38.888 L
377.958 38.842 L
378.92 38.796 L
379.882 38.751 L
380.845 38.707 L
381.807 38.664 L
382.769 38.621 L
383.731 38.579 L
384.694 38.538 L
385.656 38.498 L
386.618 38.458 L
387.581 38.419 L
388.543 38.38 L
389.505 38.343 L
390.467 38.306 L
391.43 38.27 L
392.392 38.235 L
393.354 38.2 L
394.316 38.165 L
395.279 38.132 L
396.241 38.099 L
397.203 38.068 L
398.165 38.036 L
399.128 38.005 L
400.09 37.976 L
401.052 37.946 L
402.015 37.918 L
402.977 37.89 L
403.939 37.862 L
404.901 37.836 L
405.864 37.81 L
406.826 37.785 L
407.788 37.76 L
408.75 37.737 L
409.713 37.713 L
410.675 37.691 L
411.637 37.669 L
412.6 37.648 L
413.562 37.627 L
414.524 37.607 L
415.486 37.588 L
416.449 37.57 L
417.411 37.551 L
418.373 37.534 L
419.335 37.518 L
420.298 37.502 L
421.26 37.487 L
422.222 37.472 L
423.185 37.458 L
424.147 37.444 L
425.109 37.432 L
426.071 37.419 L
427.034 37.408 L
427.996 37.397 L
428.958 37.387 L
429.92 37.377 L
430.883 37.368 L
431.845 37.36 L
432.807 37.352 L
433.769 37.346 L
434.732 37.339 L
435.694 37.333 L
436.656 37.328 L
437.619 37.323 L
438.581 37.319 L
439.543 37.316 L
440.505 37.313 L
441.468 37.311 L
442.43 37.309 L
443.392 37.308 L
444.354 37.308 L
S
GR
GS
0.635 0.078 0.184 RC
[10 6] 0 setdash
2 LJ
0.5 LW
N
73.807 252.205 M
74.769 207.704 L
75.731 176.062 L
76.693 156.811 L
77.656 141.617 L
78.618 130.418 L
79.58 122.98 L
80.542 116.831 L
81.505 111.226 L
82.467 106.238 L
83.429 101.942 L
84.391 98.41 L
85.354 95.716 L
86.316 93.934 L
87.278 93.128 L
88.241 92.706 L
89.203 92.287 L
90.165 91.869 L
91.127 91.455 L
92.09 91.043 L
93.052 90.632 L
94.014 90.225 L
94.976 89.82 L
95.939 89.417 L
96.901 89.017 L
97.863 88.619 L
98.826 88.223 L
99.788 87.829 L
100.75 87.438 L
101.712 87.049 L
102.675 86.662 L
103.637 86.278 L
104.599 85.896 L
105.561 85.516 L
106.524 85.139 L
107.486 84.764 L
108.448 84.391 L
109.41 84.02 L
110.373 83.652 L
111.335 83.285 L
112.297 82.921 L
113.26 82.559 L
114.222 82.2 L
115.184 81.843 L
116.146 81.488 L
117.109 81.134 L
118.071 80.784 L
119.033 80.435 L
119.995 80.089 L
120.958 79.745 L
121.92 79.403 L
122.882 79.063 L
123.845 78.725 L
124.807 78.39 L
125.769 78.057 L
126.731 77.725 L
127.694 77.396 L
128.656 77.069 L
129.618 76.744 L
130.58 76.421 L
131.543 76.101 L
132.505 75.782 L
133.467 75.465 L
134.43 75.151 L
135.392 74.839 L
136.354 74.528 L
137.316 74.22 L
138.279 73.913 L
139.241 73.61 L
140.203 73.307 L
141.165 73.007 L
142.128 72.709 L
143.09 72.413 L
144.052 72.119 L
145.014 71.827 L
145.977 71.537 L
146.939 71.249 L
147.901 70.962 L
148.864 70.678 L
149.826 70.396 L
150.788 70.116 L
151.75 69.838 L
152.713 69.562 L
153.675 69.288 L
154.637 69.015 L
155.599 68.744 L
156.562 68.476 L
157.524 68.209 L
158.486 67.945 L
159.449 67.682 L
160.411 67.421 L
161.373 67.162 L
162.335 66.905 L
163.298 66.65 L
164.26 66.396 L
165.222 66.145 L
166.184 65.895 L
167.147 65.647 L
168.109 65.401 L
169.071 65.157 L
170.033 64.914 L
170.996 64.674 L
171.958 64.436 L
172.92 64.198 L
173.883 63.964 L
174.845 63.73 L
175.807 63.499 L
176.769 63.269 L
177.732 63.041 L
178.694 62.815 L
179.656 62.59 L
180.618 62.368 L
181.581 62.147 L
182.543 61.928 L
183.505 61.71 L
184.468 61.495 L
185.43 61.281 L
186.392 61.069 L
187.354 60.858 L
188.317 60.649 L
189.279 60.442 L
190.241 60.237 L
191.203 60.033 L
192.166 59.831 L
193.128 59.631 L
194.09 59.432 L
195.052 59.235 L
196.015 59.039 L
196.977 58.845 L
197.939 58.653 L
198.902 58.463 L
199.864 58.274 L
200.826 58.087 L
201.788 57.901 L
202.751 57.717 L
203.713 57.534 L
204.675 57.353 L
205.637 57.173 L
206.6 56.996 L
207.562 56.82 L
208.524 56.645 L
209.487 56.472 L
210.449 56.3 L
211.411 56.131 L
212.373 55.962 L
213.336 55.795 L
214.298 55.629 L
215.26 55.466 L
216.222 55.303 L
217.185 55.143 L
218.147 54.983 L
219.109 54.825 L
220.071 54.669 L
221.034 54.514 L
221.996 54.36 L
222.958 54.208 L
223.921 54.058 L
224.883 53.908 L
225.845 53.761 L
226.807 53.614 L
227.77 53.47 L
228.732 53.326 L
229.694 53.184 L
230.656 53.044 L
231.619 52.904 L
232.581 52.766 L
233.543 52.63 L
234.506 52.495 L
235.468 52.361 L
236.43 52.229 L
237.392 52.098 L
238.355 51.968 L
239.317 51.84 L
240.279 51.713 L
241.241 51.588 L
242.204 51.463 L
243.166 51.34 L
244.128 51.219 L
245.09 51.098 L
246.053 50.98 L
247.015 50.862 L
247.977 50.746 L
248.94 50.63 L
249.902 50.516 L
250.864 50.403 L
251.826 50.292 L
252.789 50.182 L
253.751 50.074 L
254.713 49.966 L
255.675 49.859 L
256.638 49.754 L
257.6 49.65 L
258.562 49.547 L
259.525 49.446 L
260.487 49.346 L
261.449 49.246 L
262.411 49.148 L
263.374 49.052 L
264.336 48.956 L
265.298 48.862 L
266.26 48.768 L
267.223 48.676 L
268.185 48.585 L
269.147 48.495 L
270.109 48.407 L
271.072 48.319 L
272.034 48.232 L
272.996 48.147 L
273.959 48.062 L
274.921 47.979 L
275.883 47.897 L
276.845 47.817 L
277.808 47.736 L
278.77 47.657 L
279.732 47.58 L
280.694 47.503 L
281.657 47.427 L
282.619 47.353 L
283.581 47.279 L
284.544 47.206 L
285.506 47.135 L
286.468 47.064 L
287.43 46.995 L
288.393 46.926 L
289.355 46.859 L
290.317 46.792 L
291.279 46.726 L
292.242 46.662 L
293.204 46.598 L
294.166 46.536 L
295.128 46.474 L
296.091 46.414 L
297.053 46.353 L
298.015 46.295 L
298.978 46.237 L
299.94 46.179 L
300.902 46.124 L
301.864 46.068 L
302.827 46.014 L
303.789 45.961 L
304.751 45.908 L
305.713 45.856 L
306.676 45.806 L
307.638 45.756 L
308.6 45.707 L
309.563 45.659 L
310.525 45.611 L
311.487 45.565 L
312.449 45.519 L
313.412 45.474 L
314.374 45.43 L
315.336 45.387 L
316.298 45.345 L
317.261 45.303 L
318.223 45.263 L
319.185 45.223 L
320.147 45.183 L
321.11 45.145 L
322.072 45.107 L
323.034 45.071 L
323.997 45.034 L
324.959 44.999 L
325.921 44.964 L
326.883 44.93 L
327.846 44.897 L
328.808 44.865 L
329.77 44.833 L
330.732 44.802 L
331.695 44.772 L
332.657 44.742 L
333.619 44.713 L
334.582 44.684 L
335.544 44.657 L
336.506 44.63 L
337.468 44.603 L
338.431 44.578 L
339.393 44.553 L
340.355 44.528 L
341.317 44.505 L
342.28 44.482 L
343.242 44.459 L
344.204 44.437 L
345.167 44.416 L
346.129 44.395 L
347.091 44.376 L
348.053 44.356 L
349.016 44.337 L
349.978 44.319 L
350.94 44.301 L
351.902 44.284 L
352.865 44.267 L
353.827 44.251 L
354.789 44.236 L
355.751 44.22 L
356.714 44.206 L
357.676 44.192 L
358.638 44.178 L
359.601 44.166 L
360.563 44.153 L
361.525 44.141 L
362.487 44.13 L
363.45 44.119 L
364.412 44.108 L
365.374 44.098 L
366.336 44.088 L
367.299 44.079 L
368.261 44.071 L
369.223 44.062 L
370.185 44.054 L
371.148 44.047 L
372.11 44.04 L
373.072 44.034 L
374.035 44.027 L
374.997 44.021 L
375.959 44.016 L
376.921 44.011 L
377.884 44.006 L
378.846 44.002 L
379.808 43.998 L
380.77 43.995 L
381.733 43.992 L
382.695 43.989 L
383.657 43.986 L
384.62 43.984 L
385.582 43.983 L
386.544 43.981 L
387.506 43.979 L
388.469 43.979 L
389.431 43.978 L
390.393 43.978 L
S
GR
GS
0 0.447 0.741 RC
[10 6] 0 setdash
2 LJ
0.5 LW
N
73.774 233.69 M
74.737 193.654 L
75.699 165.441 L
76.661 153.541 L
77.623 143.773 L
78.586 135.802 L
79.548 129.438 L
80.51 124.488 L
81.473 120.762 L
82.435 118.068 L
83.397 115.873 L
84.359 113.788 L
85.322 111.812 L
86.284 109.941 L
87.246 108.172 L
88.208 106.504 L
89.171 104.931 L
90.133 103.452 L
91.095 102.063 L
92.058 100.761 L
93.02 99.544 L
93.982 98.407 L
94.944 97.35 L
95.907 96.367 L
96.869 95.456 L
97.831 94.615 L
98.793 93.84 L
99.756 93.127 L
100.718 92.475 L
101.68 91.88 L
102.642 91.339 L
103.605 90.849 L
104.567 90.407 L
105.529 90.01 L
106.492 89.653 L
107.454 89.31 L
108.416 88.968 L
109.378 88.628 L
110.341 88.289 L
111.303 87.951 L
112.265 87.615 L
113.227 87.279 L
114.19 86.946 L
115.152 86.614 L
116.114 86.283 L
117.077 85.953 L
118.039 85.625 L
119.001 85.298 L
119.963 84.973 L
120.926 84.649 L
121.888 84.326 L
122.85 84.005 L
123.812 83.685 L
124.775 83.366 L
125.737 83.049 L
126.699 82.733 L
127.661 82.418 L
128.624 82.105 L
129.586 81.793 L
130.548 81.483 L
131.511 81.173 L
132.473 80.866 L
133.435 80.559 L
134.397 80.254 L
135.36 79.95 L
136.322 79.647 L
137.284 79.346 L
138.246 79.047 L
139.209 78.748 L
140.171 78.451 L
141.133 78.154 L
142.096 77.86 L
143.058 77.566 L
144.02 77.275 L
144.982 76.984 L
145.945 76.694 L
146.907 76.407 L
147.869 76.12 L
148.831 75.834 L
149.794 75.55 L
150.756 75.267 L
151.718 74.985 L
152.68 74.706 L
153.643 74.426 L
154.605 74.148 L
155.567 73.872 L
156.53 73.597 L
157.492 73.323 L
158.454 73.05 L
159.416 72.779 L
160.379 72.509 L
161.341 72.241 L
162.303 71.973 L
163.265 71.706 L
164.228 71.441 L
165.19 71.178 L
166.152 70.915 L
167.115 70.654 L
168.077 70.394 L
169.039 70.136 L
170.001 69.878 L
170.964 69.622 L
171.926 69.367 L
172.888 69.113 L
173.85 68.861 L
174.813 68.61 L
175.775 68.36 L
176.737 68.111 L
177.699 67.863 L
178.662 67.617 L
179.624 67.372 L
180.586 67.128 L
181.549 66.886 L
182.511 66.644 L
183.473 66.404 L
184.435 66.165 L
185.398 65.928 L
186.36 65.691 L
187.322 65.456 L
188.284 65.221 L
189.247 64.989 L
190.209 64.757 L
191.171 64.527 L
192.134 64.297 L
193.096 64.07 L
194.058 63.842 L
195.02 63.617 L
195.983 63.392 L
196.945 63.169 L
197.907 62.947 L
198.869 62.726 L
199.832 62.506 L
200.794 62.288 L
201.756 62.071 L
202.719 61.855 L
203.681 61.64 L
204.643 61.426 L
205.605 61.213 L
206.568 61.002 L
207.53 60.792 L
208.492 60.582 L
209.454 60.374 L
210.417 60.167 L
211.379 59.961 L
212.341 59.757 L
213.303 59.554 L
214.266 59.352 L
215.228 59.151 L
216.19 58.951 L
217.153 58.752 L
218.115 58.554 L
219.077 58.358 L
220.039 58.163 L
221.002 57.968 L
221.964 57.775 L
222.926 57.584 L
223.888 57.393 L
224.851 57.203 L
225.813 57.014 L
226.775 56.827 L
227.738 56.641 L
228.7 56.456 L
229.662 56.272 L
230.624 56.089 L
231.587 55.907 L
232.549 55.726 L
233.511 55.547 L
234.473 55.368 L
235.436 55.191 L
236.398 55.014 L
237.36 54.839 L
238.322 54.665 L
239.285 54.492 L
240.247 54.321 L
241.209 54.15 L
242.172 53.98 L
243.134 53.811 L
244.096 53.644 L
245.058 53.477 L
246.021 53.312 L
246.983 53.148 L
247.945 52.985 L
248.907 52.822 L
249.87 52.662 L
250.832 52.501 L
251.794 52.342 L
252.757 52.185 L
253.719 52.028 L
254.681 51.872 L
255.643 51.718 L
256.606 51.564 L
257.568 51.411 L
258.53 51.26 L
259.492 51.11 L
260.455 50.96 L
261.417 50.812 L
262.379 50.664 L
263.341 50.518 L
264.304 50.373 L
265.266 50.229 L
266.228 50.086 L
267.191 49.943 L
268.153 49.802 L
269.115 49.662 L
270.077 49.523 L
271.04 49.385 L
272.002 49.248 L
272.964 49.112 L
273.926 48.978 L
274.889 48.843 L
275.851 48.71 L
276.813 48.578 L
277.776 48.448 L
278.738 48.318 L
279.7 48.189 L
280.662 48.061 L
281.625 47.934 L
282.587 47.809 L
283.549 47.684 L
284.511 47.56 L
285.474 47.437 L
286.436 47.315 L
287.398 47.194 L
288.36 47.074 L
289.323 46.955 L
290.285 46.838 L
291.247 46.721 L
292.21 46.605 L
293.172 46.49 L
294.134 46.375 L
295.096 46.262 L
296.059 46.15 L
297.021 46.039 L
297.983 45.929 L
298.945 45.82 L
299.908 45.711 L
300.87 45.604 L
301.832 45.498 L
302.795 45.392 L
303.757 45.288 L
304.719 45.184 L
305.681 45.082 L
306.644 44.981 L
307.606 44.88 L
308.568 44.78 L
309.53 44.681 L
310.493 44.584 L
311.455 44.487 L
312.417 44.391 L
313.379 44.296 L
314.342 44.202 L
315.304 44.109 L
316.266 44.016 L
317.229 43.925 L
318.191 43.835 L
319.153 43.745 L
320.115 43.656 L
321.078 43.569 L
322.04 43.482 L
323.002 43.396 L
323.964 43.311 L
324.927 43.227 L
325.889 43.144 L
326.851 43.062 L
327.814 42.981 L
328.776 42.9 L
329.738 42.82 L
330.7 42.742 L
331.663 42.664 L
332.625 42.587 L
333.587 42.511 L
334.549 42.436 L
335.512 42.362 L
336.474 42.288 L
337.436 42.216 L
338.398 42.145 L
339.361 42.074 L
340.323 42.004 L
341.285 41.935 L
342.248 41.867 L
343.21 41.799 L
344.172 41.733 L
345.134 41.668 L
346.097 41.603 L
347.059 41.539 L
348.021 41.476 L
348.983 41.414 L
349.946 41.353 L
350.908 41.292 L
351.87 41.233 L
352.833 41.174 L
353.795 41.116 L
354.757 41.059 L
355.719 41.003 L
356.682 40.948 L
357.644 40.893 L
358.606 40.84 L
359.568 40.786 L
360.531 40.734 L
361.493 40.683 L
362.455 40.633 L
363.417 40.583 L
364.38 40.534 L
365.342 40.486 L
366.304 40.439 L
367.267 40.393 L
368.229 40.347 L
369.191 40.302 L
370.153 40.259 L
371.116 40.215 L
372.078 40.173 L
373.04 40.131 L
374.002 40.09 L
374.965 40.051 L
375.927 40.012 L
376.889 39.973 L
377.852 39.936 L
378.814 39.899 L
379.776 39.863 L
380.738 39.828 L
381.701 39.793 L
382.663 39.759 L
383.625 39.726 L
384.587 39.694 L
385.55 39.663 L
386.512 39.632 L
387.474 39.602 L
388.436 39.573 L
389.399 39.545 L
390.361 39.517 L
391.323 39.49 L
392.286 39.464 L
393.248 39.439 L
394.21 39.414 L
395.172 39.39 L
396.135 39.367 L
397.097 39.345 L
398.059 39.323 L
399.021 39.302 L
399.984 39.282 L
400.946 39.263 L
401.908 39.244 L
402.871 39.226 L
403.833 39.209 L
404.795 39.193 L
405.757 39.177 L
406.72 39.162 L
407.682 39.148 L
408.644 39.134 L
409.606 39.121 L
410.569 39.109 L
411.531 39.098 L
412.493 39.087 L
413.456 39.077 L
414.418 39.067 L
415.38 39.059 L
416.342 39.051 L
417.305 39.043 L
418.267 39.037 L
419.229 39.031 L
420.191 39.026 L
421.154 39.022 L
422.116 39.018 L
423.078 39.015 L
424.04 39.012 L
425.003 39.01 L
425.965 39.009 L
426.927 39.009 L
S
GR
GS
0.851 0.325 0.098 RC
[10 6] 0 setdash
2 LJ
0.5 LW
N
73.03 374 M
73.992 271.239 L
74.955 222.623 L
75.917 193.129 L
76.879 175.023 L
77.841 163.031 L
78.804 152.394 L
79.766 143.278 L
80.728 135.869 L
81.69 130.351 L
82.653 126.909 L
83.615 125.637 L
84.577 124.985 L
85.539 124.337 L
86.502 123.692 L
87.464 123.052 L
88.426 122.415 L
89.389 121.783 L
90.351 121.154 L
91.313 120.53 L
92.275 119.91 L
93.238 119.294 L
94.2 118.681 L
95.162 118.073 L
96.124 117.468 L
97.087 116.867 L
98.049 116.271 L
99.011 115.678 L
99.974 115.089 L
100.936 114.505 L
101.898 113.924 L
102.86 113.346 L
103.823 112.773 L
104.785 112.203 L
105.747 111.638 L
106.709 111.076 L
107.672 110.518 L
108.634 109.963 L
109.596 109.413 L
110.559 108.866 L
111.521 108.323 L
112.483 107.784 L
113.445 107.248 L
114.408 106.716 L
115.37 106.188 L
116.332 105.663 L
117.294 105.142 L
118.257 104.625 L
119.219 104.112 L
120.181 103.601 L
121.143 103.095 L
122.106 102.593 L
123.068 102.093 L
124.03 101.598 L
124.993 101.106 L
125.955 100.617 L
126.917 100.132 L
127.879 99.651 L
128.842 99.173 L
129.804 98.699 L
130.766 98.228 L
131.728 97.76 L
132.691 97.296 L
133.653 96.836 L
134.615 96.379 L
135.578 95.925 L
136.54 95.475 L
137.502 95.028 L
138.464 94.585 L
139.427 94.144 L
140.389 93.708 L
141.351 93.274 L
142.313 92.844 L
143.276 92.417 L
144.238 91.994 L
145.2 91.574 L
146.162 91.157 L
147.125 90.744 L
148.087 90.333 L
149.049 89.926 L
150.012 89.523 L
150.974 89.122 L
151.936 88.724 L
152.898 88.33 L
153.861 87.939 L
154.823 87.551 L
155.785 87.167 L
156.747 86.785 L
157.71 86.407 L
158.672 86.031 L
159.634 85.659 L
160.597 85.29 L
161.559 84.924 L
162.521 84.561 L
163.483 84.201 L
164.446 83.844 L
165.408 83.49 L
166.37 83.139 L
167.332 82.792 L
168.295 82.447 L
169.257 82.105 L
170.219 81.766 L
171.181 81.43 L
172.144 81.097 L
173.106 80.767 L
174.068 80.44 L
175.031 80.116 L
175.993 79.795 L
176.955 79.476 L
177.917 79.161 L
178.88 78.848 L
179.842 78.538 L
180.804 78.231 L
181.766 77.927 L
182.729 77.625 L
183.691 77.327 L
184.653 77.031 L
185.616 76.738 L
186.578 76.447 L
187.54 76.16 L
188.502 75.875 L
189.465 75.593 L
190.427 75.313 L
191.389 75.036 L
192.351 74.762 L
193.314 74.491 L
194.276 74.222 L
195.238 73.955 L
196.2 73.692 L
197.163 73.431 L
198.125 73.173 L
199.087 72.917 L
200.05 72.663 L
201.012 72.413 L
201.974 72.165 L
202.936 71.92 L
203.899 71.677 L
204.861 71.436 L
205.823 71.198 L
206.785 70.962 L
207.748 70.729 L
208.71 70.499 L
209.672 70.27 L
210.635 70.045 L
211.597 69.821 L
212.559 69.6 L
213.521 69.382 L
214.484 69.166 L
215.446 68.952 L
216.408 68.741 L
217.37 68.531 L
218.333 68.325 L
219.295 68.12 L
220.257 67.919 L
221.219 67.718 L
222.182 67.521 L
223.144 67.326 L
224.106 67.133 L
225.069 66.942 L
226.031 66.753 L
226.993 66.567 L
227.955 66.383 L
228.918 66.201 L
229.88 66.021 L
230.842 65.843 L
231.804 65.668 L
232.767 65.495 L
233.729 65.324 L
234.691 65.155 L
235.654 64.988 L
236.616 64.823 L
237.578 64.66 L
238.54 64.499 L
239.503 64.341 L
240.465 64.185 L
241.427 64.03 L
242.389 63.877 L
243.352 63.726 L
244.314 63.578 L
245.276 63.431 L
246.238 63.287 L
247.201 63.144 L
248.163 63.003 L
249.125 62.864 L
250.088 62.728 L
251.05 62.593 L
252.012 62.46 L
252.974 62.328 L
253.937 62.199 L
254.899 62.071 L
255.861 61.946 L
256.823 61.822 L
257.786 61.699 L
258.748 61.579 L
259.71 61.461 L
260.673 61.344 L
261.635 61.229 L
262.597 61.116 L
263.559 61.004 L
264.522 60.894 L
265.484 60.786 L
266.446 60.68 L
267.408 60.576 L
268.371 60.472 L
269.333 60.371 L
270.295 60.271 L
271.258 60.173 L
272.22 60.077 L
273.182 59.982 L
274.144 59.889 L
275.107 59.797 L
276.069 59.707 L
277.031 59.618 L
277.993 59.532 L
278.956 59.446 L
279.918 59.362 L
280.88 59.279 L
281.842 59.199 L
282.805 59.119 L
283.767 59.041 L
284.729 58.964 L
285.692 58.889 L
286.654 58.816 L
287.616 58.744 L
288.578 58.673 L
289.541 58.603 L
290.503 58.535 L
291.465 58.469 L
292.427 58.403 L
293.39 58.339 L
294.352 58.276 L
295.314 58.215 L
296.277 58.155 L
297.239 58.096 L
298.201 58.039 L
299.163 57.982 L
300.126 57.927 L
301.088 57.874 L
302.05 57.821 L
303.012 57.769 L
303.975 57.719 L
304.937 57.67 L
305.899 57.623 L
306.861 57.576 L
307.824 57.531 L
308.786 57.486 L
309.748 57.443 L
310.711 57.401 L
311.673 57.36 L
312.635 57.32 L
313.597 57.281 L
314.56 57.244 L
315.522 57.207 L
316.484 57.171 L
317.446 57.137 L
318.409 57.103 L
319.371 57.07 L
320.333 57.039 L
321.296 57.008 L
322.258 56.978 L
323.22 56.949 L
324.182 56.922 L
325.145 56.895 L
326.107 56.869 L
327.069 56.844 L
328.031 56.82 L
328.994 56.796 L
329.956 56.773 L
330.918 56.752 L
331.88 56.731 L
332.843 56.711 L
333.805 56.692 L
334.767 56.673 L
335.73 56.656 L
336.692 56.639 L
337.654 56.623 L
338.616 56.607 L
339.579 56.593 L
340.541 56.579 L
341.503 56.566 L
342.465 56.553 L
343.428 56.541 L
344.39 56.53 L
345.352 56.52 L
346.315 56.51 L
347.277 56.5 L
348.239 56.492 L
349.201 56.484 L
350.164 56.476 L
351.126 56.47 L
352.088 56.463 L
353.05 56.458 L
354.013 56.453 L
354.975 56.448 L
355.937 56.443 L
356.899 56.44 L
357.862 56.437 L
358.824 56.434 L
359.786 56.432 L
360.749 56.43 L
361.711 56.429 L
362.673 56.428 L
363.635 56.428 L
S
GR
GS
1 GC
N
499 366 M
499 218.5 L
327.5 218.5 L
327.5 366 L
cp
f
GR
GS
[1 0 0 1 364.5 228.25] CT
/Helvetica 13 F
GS
[1 0 0 1 0 0] CT
0 5 moveto 
1 -1 scale
(Base Run) t 
GR
GR
GS
0 0.447 0.741 RC
1 LJ
0.5 LW
N
331.5 228.25 M
361.5 228.25 L
S
GR
GS
[1 0 0 1 364.5 244.25] CT
/Helvetica 13 F
GS
[1 0 0 1 0 0] CT
0 5 moveto 
1 -1 scale
(All Frames) t 
GR
GR
GS
0.851 0.325 0.098 RC
1 LJ
0.5 LW
N
331.5 244.25 M
361.5 244.25 L
S
GR
GS
[1 0 0 1 364.5 260.25] CT
/Helvetica 13 F
GS
[1 0 0 1 0 0] CT
0 5 moveto 
1 -1 scale
(KF Only) t 
GR
GR
GS
0.929 0.694 0.125 RC
1 LJ
0.5 LW
N
331.5 260.25 M
361.5 260.25 L
S
GR
GS
[1 0 0 1 364.5 276.25] CT
/Helvetica 13 F
GS
[1 0 0 1 0 0] CT
0 5 moveto 
1 -1 scale
(GF, ARF Only) t 
GR
GR
GS
0.494 0.184 0.557 RC
1 LJ
0.5 LW
N
331.5 276.25 M
361.5 276.25 L
S
GR
GS
[1 0 0 1 364.5 292.25] CT
/Helvetica 13 F
GS
[1 0 0 1 0 0] CT
0 5 moveto 
1 -1 scale
(KF, GF, ARF Only) t 
GR
GR
GS
0.467 0.675 0.188 RC
1 LJ
0.5 LW
N
331.5 292.25 M
361.5 292.25 L
S
GR
GS
[1 0 0 1 364.5 308.25] CT
/Helvetica 13 F
GS
[1 0 0 1 0 0] CT
0 5 moveto 
1 -1 scale
(Part All Frames) t 
GR
GR
GS
0.302 0.745 0.933 RC
[10 6] 0 setdash
2 LJ
0.5 LW
N
331.5 308.25 M
361.5 308.25 L
S
GR
GS
[1 0 0 1 364.5 324.25] CT
/Helvetica 13 F
GS
[1 0 0 1 0 0] CT
0 5 moveto 
1 -1 scale
(Part KF Only) t 
GR
GR
GS
0.635 0.078 0.184 RC
[10 6] 0 setdash
2 LJ
0.5 LW
N
331.5 324.25 M
361.5 324.25 L
S
GR
GS
[1 0 0 1 364.5 340.25] CT
/Helvetica 13 F
GS
[1 0 0 1 0 0] CT
0 5 moveto 
1 -1 scale
(Part GF, ARF Only) t 
GR
GR
GS
0 0.447 0.741 RC
[10 6] 0 setdash
2 LJ
0.5 LW
N
331.5 340.25 M
361.5 340.25 L
S
GR
GS
[1 0 0 1 364.5 356.25] CT
/Helvetica 13 F
GS
[1 0 0 1 0 0] CT
0 5 moveto 
1 -1 scale
(Part KF, GF, ARF Only) t 
GR
GR
GS
0.851 0.325 0.098 RC
[10 6] 0 setdash
2 LJ
0.5 LW
N
331.5 356.25 M
361.5 356.25 L
S
GR
GS
0.149 GC
10.0 ML
0.5 LW
N
327.5 366 M
327.5 218.5 L
499 218.5 L
499 366 L
cp
S
GR
%%Trailer
%%Pages: 1
%%EOF
