%!PS-Adobe-3.0 EPSF-3.0
%%Creator: (MATLAB, The Mathworks, Inc. Version 9.11.0.1837725 \(R2021b\) Update 2. Operating System: Mac OS X)
%%Title: plots/pchip/DinnerSceneCropped_1920x1080_2997fps_10bit_420.y4m-av1-MS_SSIM.eps
%%CreationDate: 2022-02-03T19:12:54
%%Pages: (atend)
%%BoundingBox:    22   425   525   826
%%LanguageLevel: 3
%%EndComments
%%BeginProlog
%%BeginResource: procset (Apache XML Graphics Std ProcSet) 1.2 0
%%Version: 1.2 0
%%Copyright: (Copyright 2001-2003,2010 The Apache Software Foundation. License terms: http://www.apache.org/licenses/LICENSE-2.0)
/bd{bind def}bind def
/ld{load def}bd
/GR/grestore ld
/GS/gsave ld
/RM/rmoveto ld
/C/curveto ld
/t/show ld
/L/lineto ld
/ML/setmiterlimit ld
/CT/concat ld
/f/fill ld
/N/newpath ld
/S/stroke ld
/CC/setcmykcolor ld
/A/ashow ld
/cp/closepath ld
/RC/setrgbcolor ld
/LJ/setlinejoin ld
/GC/setgray ld
/LW/setlinewidth ld
/M/moveto ld
/re {4 2 roll M
1 index 0 rlineto
0 exch rlineto
neg 0 rlineto
cp } bd
/_ctm matrix def
/_tm matrix def
/BT { _ctm currentmatrix pop matrix _tm copy pop 0 0 moveto } bd
/ET { _ctm setmatrix } bd
/iTm { _ctm setmatrix _tm concat } bd
/Tm { _tm astore pop iTm 0 0 moveto } bd
/ux 0.0 def
/uy 0.0 def
/F {
  /Tp exch def
  /Tf exch def
  Tf findfont Tp scalefont setfont
  /cf Tf def  /cs Tp def
} bd
/ULS {currentpoint /uy exch def /ux exch def} bd
/ULE {
  /Tcx currentpoint pop def
  gsave
  newpath
  cf findfont cs scalefont dup
  /FontMatrix get 0 get /Ts exch def /FontInfo get dup
  /UnderlinePosition get Ts mul /To exch def
  /UnderlineThickness get Ts mul /Tt exch def
  ux uy To add moveto  Tcx uy To add lineto
  Tt setlinewidth stroke
  grestore
} bd
/OLE {
  /Tcx currentpoint pop def
  gsave
  newpath
  cf findfont cs scalefont dup
  /FontMatrix get 0 get /Ts exch def /FontInfo get dup
  /UnderlinePosition get Ts mul /To exch def
  /UnderlineThickness get Ts mul /Tt exch def
  ux uy To add cs add moveto Tcx uy To add cs add lineto
  Tt setlinewidth stroke
  grestore
} bd
/SOE {
  /Tcx currentpoint pop def
  gsave
  newpath
  cf findfont cs scalefont dup
  /FontMatrix get 0 get /Ts exch def /FontInfo get dup
  /UnderlinePosition get Ts mul /To exch def
  /UnderlineThickness get Ts mul /Tt exch def
  ux uy To add cs 10 mul 26 idiv add moveto Tcx uy To add cs 10 mul 26 idiv add lineto
  Tt setlinewidth stroke
  grestore
} bd
/QT {
/Y22 exch store
/X22 exch store
/Y21 exch store
/X21 exch store
currentpoint
/Y21 load 2 mul add 3 div exch
/X21 load 2 mul add 3 div exch
/X21 load 2 mul /X22 load add 3 div
/Y21 load 2 mul /Y22 load add 3 div
/X22 load /Y22 load curveto
} bd
/SSPD {
dup length /d exch dict def
{
/v exch def
/k exch def
currentpagedevice k known {
/cpdv currentpagedevice k get def
v cpdv ne {
/upd false def
/nullv v type /nulltype eq def
/nullcpdv cpdv type /nulltype eq def
nullv nullcpdv or
{
/upd true def
} {
/sametype v type cpdv type eq def
sametype {
v type /arraytype eq {
/vlen v length def
/cpdvlen cpdv length def
vlen cpdvlen eq {
0 1 vlen 1 sub {
/i exch def
/obj v i get def
/cpdobj cpdv i get def
obj cpdobj ne {
/upd true def
exit
} if
} for
} {
/upd true def
} ifelse
} {
v type /dicttype eq {
v {
/dv exch def
/dk exch def
/cpddv cpdv dk get def
dv cpddv ne {
/upd true def
exit
} if
} forall
} {
/upd true def
} ifelse
} ifelse
} if
} ifelse
upd true eq {
d k v put
} if
} if
} if
} forall
d length 0 gt {
d setpagedevice
} if
} bd
/RE { % /NewFontName [NewEncodingArray] /FontName RE -
  findfont dup length dict begin
  {
    1 index /FID ne
    {def} {pop pop} ifelse
  } forall
  /Encoding exch def
  /FontName 1 index def
  currentdict definefont pop
  end
} bind def
%%EndResource
%%BeginResource: procset (Apache XML Graphics EPS ProcSet) 1.0 0
%%Version: 1.0 0
%%Copyright: (Copyright 2002-2003 The Apache Software Foundation. License terms: http://www.apache.org/licenses/LICENSE-2.0)
/BeginEPSF { %def
/b4_Inc_state save def         % Save state for cleanup
/dict_count countdictstack def % Count objects on dict stack
/op_count count 1 sub def      % Count objects on operand stack
userdict begin                 % Push userdict on dict stack
/showpage { } def              % Redefine showpage, { } = null proc
0 setgray 0 setlinecap         % Prepare graphics state
1 setlinewidth 0 setlinejoin
10 setmiterlimit [ ] 0 setdash newpath
/languagelevel where           % If level not equal to 1 then
{pop languagelevel             % set strokeadjust and
1 ne                           % overprint to their defaults.
{false setstrokeadjust false setoverprint
} if
} if
} bd
/EndEPSF { %def
count op_count sub {pop} repeat            % Clean up stacks
countdictstack dict_count sub {end} repeat
b4_Inc_state restore
} bd
%%EndResource
%FOPBeginFontDict
%%IncludeResource: font Courier-Oblique
%%IncludeResource: font Courier-BoldOblique
%%IncludeResource: font Courier-Bold
%%IncludeResource: font ZapfDingbats
%%IncludeResource: font Symbol
%%IncludeResource: font Helvetica
%%IncludeResource: font Helvetica-Oblique
%%IncludeResource: font Helvetica-Bold
%%IncludeResource: font Helvetica-BoldOblique
%%IncludeResource: font Times-Roman
%%IncludeResource: font Times-Italic
%%IncludeResource: font Times-Bold
%%IncludeResource: font Times-BoldItalic
%%IncludeResource: font Courier
%FOPEndFontDict
%%BeginResource: encoding WinAnsiEncoding
/WinAnsiEncoding [
/.notdef /.notdef /.notdef /.notdef /.notdef
/.notdef /.notdef /.notdef /.notdef /.notdef
/.notdef /.notdef /.notdef /.notdef /.notdef
/.notdef /.notdef /.notdef /.notdef /.notdef
/.notdef /.notdef /.notdef /.notdef /.notdef
/.notdef /.notdef /.notdef /.notdef /.notdef
/.notdef /.notdef /space /exclam /quotedbl
/numbersign /dollar /percent /ampersand /quotesingle
/parenleft /parenright /asterisk /plus /comma
/hyphen /period /slash /zero /one
/two /three /four /five /six
/seven /eight /nine /colon /semicolon
/less /equal /greater /question /at
/A /B /C /D /E
/F /G /H /I /J
/K /L /M /N /O
/P /Q /R /S /T
/U /V /W /X /Y
/Z /bracketleft /backslash /bracketright /asciicircum
/underscore /quoteleft /a /b /c
/d /e /f /g /h
/i /j /k /l /m
/n /o /p /q /r
/s /t /u /v /w
/x /y /z /braceleft /bar
/braceright /asciitilde /bullet /Euro /bullet
/quotesinglbase /florin /quotedblbase /ellipsis /dagger
/daggerdbl /circumflex /perthousand /Scaron /guilsinglleft
/OE /bullet /Zcaron /bullet /bullet
/quoteleft /quoteright /quotedblleft /quotedblright /bullet
/endash /emdash /asciitilde /trademark /scaron
/guilsinglright /oe /bullet /zcaron /Ydieresis
/space /exclamdown /cent /sterling /currency
/yen /brokenbar /section /dieresis /copyright
/ordfeminine /guillemotleft /logicalnot /sfthyphen /registered
/macron /degree /plusminus /twosuperior /threesuperior
/acute /mu /paragraph /middot /cedilla
/onesuperior /ordmasculine /guillemotright /onequarter /onehalf
/threequarters /questiondown /Agrave /Aacute /Acircumflex
/Atilde /Adieresis /Aring /AE /Ccedilla
/Egrave /Eacute /Ecircumflex /Edieresis /Igrave
/Iacute /Icircumflex /Idieresis /Eth /Ntilde
/Ograve /Oacute /Ocircumflex /Otilde /Odieresis
/multiply /Oslash /Ugrave /Uacute /Ucircumflex
/Udieresis /Yacute /Thorn /germandbls /agrave
/aacute /acircumflex /atilde /adieresis /aring
/ae /ccedilla /egrave /eacute /ecircumflex
/edieresis /igrave /iacute /icircumflex /idieresis
/eth /ntilde /ograve /oacute /ocircumflex
/otilde /odieresis /divide /oslash /ugrave
/uacute /ucircumflex /udieresis /yacute /thorn
/ydieresis
] def
%%EndResource
%FOPBeginFontReencode
/Courier-Oblique findfont
dup length dict begin
  {1 index /FID ne {def} {pop pop} ifelse} forall
  /Encoding WinAnsiEncoding def
  currentdict
end
/Courier-Oblique exch definefont pop
/Courier-BoldOblique findfont
dup length dict begin
  {1 index /FID ne {def} {pop pop} ifelse} forall
  /Encoding WinAnsiEncoding def
  currentdict
end
/Courier-BoldOblique exch definefont pop
/Courier-Bold findfont
dup length dict begin
  {1 index /FID ne {def} {pop pop} ifelse} forall
  /Encoding WinAnsiEncoding def
  currentdict
end
/Courier-Bold exch definefont pop
/Helvetica findfont
dup length dict begin
  {1 index /FID ne {def} {pop pop} ifelse} forall
  /Encoding WinAnsiEncoding def
  currentdict
end
/Helvetica exch definefont pop
/Helvetica-Oblique findfont
dup length dict begin
  {1 index /FID ne {def} {pop pop} ifelse} forall
  /Encoding WinAnsiEncoding def
  currentdict
end
/Helvetica-Oblique exch definefont pop
/Helvetica-Bold findfont
dup length dict begin
  {1 index /FID ne {def} {pop pop} ifelse} forall
  /Encoding WinAnsiEncoding def
  currentdict
end
/Helvetica-Bold exch definefont pop
/Helvetica-BoldOblique findfont
dup length dict begin
  {1 index /FID ne {def} {pop pop} ifelse} forall
  /Encoding WinAnsiEncoding def
  currentdict
end
/Helvetica-BoldOblique exch definefont pop
/Times-Roman findfont
dup length dict begin
  {1 index /FID ne {def} {pop pop} ifelse} forall
  /Encoding WinAnsiEncoding def
  currentdict
end
/Times-Roman exch definefont pop
/Times-Italic findfont
dup length dict begin
  {1 index /FID ne {def} {pop pop} ifelse} forall
  /Encoding WinAnsiEncoding def
  currentdict
end
/Times-Italic exch definefont pop
/Times-Bold findfont
dup length dict begin
  {1 index /FID ne {def} {pop pop} ifelse} forall
  /Encoding WinAnsiEncoding def
  currentdict
end
/Times-Bold exch definefont pop
/Times-BoldItalic findfont
dup length dict begin
  {1 index /FID ne {def} {pop pop} ifelse} forall
  /Encoding WinAnsiEncoding def
  currentdict
end
/Times-BoldItalic exch definefont pop
/Courier findfont
dup length dict begin
  {1 index /FID ne {def} {pop pop} ifelse} forall
  /Encoding WinAnsiEncoding def
  currentdict
end
/Courier exch definefont pop
%FOPEndFontReencode
%%EndProlog
%%Page: 1 1
%%PageBoundingBox: 0 0 1120 840
%%BeginPageSetup
[1 0 0 -1 0 840] CT
%%EndPageSetup
GS
1 GC
N
0 0 1120 840 re
f
GR
GS
1 GC
N
73 374 M
507 374 L
507 31.5 L
73 31.5 L
cp
f
GR
GS
0.149 GC
2 setlinecap
1 LJ
0.5 LW
N
73 374 M
507 374 L
S
GR
GS
0.149 GC
2 setlinecap
1 LJ
0.5 LW
N
73 31.5 M
507 31.5 L
S
GR
GS
0.149 GC
2 setlinecap
1 LJ
0.5 LW
N
118.708 374 M
118.708 369.66 L
S
GR
GS
0.149 GC
2 setlinecap
1 LJ
0.5 LW
N
166.822 374 M
166.822 369.66 L
S
GR
GS
0.149 GC
2 setlinecap
1 LJ
0.5 LW
N
214.935 374 M
214.935 369.66 L
S
GR
GS
0.149 GC
2 setlinecap
1 LJ
0.5 LW
N
263.049 374 M
263.049 369.66 L
S
GR
GS
0.149 GC
2 setlinecap
1 LJ
0.5 LW
N
311.162 374 M
311.162 369.66 L
S
GR
GS
0.149 GC
2 setlinecap
1 LJ
0.5 LW
N
359.276 374 M
359.276 369.66 L
S
GR
GS
0.149 GC
2 setlinecap
1 LJ
0.5 LW
N
407.389 374 M
407.389 369.66 L
S
GR
GS
0.149 GC
2 setlinecap
1 LJ
0.5 LW
N
455.503 374 M
455.503 369.66 L
S
GR
GS
0.149 GC
2 setlinecap
1 LJ
0.5 LW
N
503.616 374 M
503.616 369.66 L
S
GR
GS
0.149 GC
2 setlinecap
1 LJ
0.5 LW
N
118.708 31.5 M
118.708 35.84 L
S
GR
GS
0.149 GC
2 setlinecap
1 LJ
0.5 LW
N
166.822 31.5 M
166.822 35.84 L
S
GR
GS
0.149 GC
2 setlinecap
1 LJ
0.5 LW
N
214.935 31.5 M
214.935 35.84 L
S
GR
GS
0.149 GC
2 setlinecap
1 LJ
0.5 LW
N
263.049 31.5 M
263.049 35.84 L
S
GR
GS
0.149 GC
2 setlinecap
1 LJ
0.5 LW
N
311.162 31.5 M
311.162 35.84 L
S
GR
GS
0.149 GC
2 setlinecap
1 LJ
0.5 LW
N
359.276 31.5 M
359.276 35.84 L
S
GR
GS
0.149 GC
2 setlinecap
1 LJ
0.5 LW
N
407.389 31.5 M
407.389 35.84 L
S
GR
GS
0.149 GC
2 setlinecap
1 LJ
0.5 LW
N
455.503 31.5 M
455.503 35.84 L
S
GR
GS
0.149 GC
2 setlinecap
1 LJ
0.5 LW
N
503.616 31.5 M
503.616 35.84 L
S
GR
GS
0.149 GC
2 setlinecap
1 LJ
0.5 LW
N
80.218 374 M
80.218 371.83 L
S
GR
GS
0.149 GC
2 setlinecap
1 LJ
0.5 LW
N
89.84 374 M
89.84 371.83 L
S
GR
GS
0.149 GC
2 setlinecap
1 LJ
0.5 LW
N
99.463 374 M
99.463 371.83 L
S
GR
GS
0.149 GC
2 setlinecap
1 LJ
0.5 LW
N
109.086 374 M
109.086 371.83 L
S
GR
GS
0.149 GC
2 setlinecap
1 LJ
0.5 LW
N
128.331 374 M
128.331 371.83 L
S
GR
GS
0.149 GC
2 setlinecap
1 LJ
0.5 LW
N
137.954 374 M
137.954 371.83 L
S
GR
GS
0.149 GC
2 setlinecap
1 LJ
0.5 LW
N
147.577 374 M
147.577 371.83 L
S
GR
GS
0.149 GC
2 setlinecap
1 LJ
0.5 LW
N
157.199 374 M
157.199 371.83 L
S
GR
GS
0.149 GC
2 setlinecap
1 LJ
0.5 LW
N
176.445 374 M
176.445 371.83 L
S
GR
GS
0.149 GC
2 setlinecap
1 LJ
0.5 LW
N
186.067 374 M
186.067 371.83 L
S
GR
GS
0.149 GC
2 setlinecap
1 LJ
0.5 LW
N
195.69 374 M
195.69 371.83 L
S
GR
GS
0.149 GC
2 setlinecap
1 LJ
0.5 LW
N
205.313 374 M
205.313 371.83 L
S
GR
GS
0.149 GC
2 setlinecap
1 LJ
0.5 LW
N
224.558 374 M
224.558 371.83 L
S
GR
GS
0.149 GC
2 setlinecap
1 LJ
0.5 LW
N
234.181 374 M
234.181 371.83 L
S
GR
GS
0.149 GC
2 setlinecap
1 LJ
0.5 LW
N
243.803 374 M
243.803 371.83 L
S
GR
GS
0.149 GC
2 setlinecap
1 LJ
0.5 LW
N
253.426 374 M
253.426 371.83 L
S
GR
GS
0.149 GC
2 setlinecap
1 LJ
0.5 LW
N
272.672 374 M
272.672 371.83 L
S
GR
GS
0.149 GC
2 setlinecap
1 LJ
0.5 LW
N
282.294 374 M
282.294 371.83 L
S
GR
GS
0.149 GC
2 setlinecap
1 LJ
0.5 LW
N
291.917 374 M
291.917 371.83 L
S
GR
GS
0.149 GC
2 setlinecap
1 LJ
0.5 LW
N
301.54 374 M
301.54 371.83 L
S
GR
GS
0.149 GC
2 setlinecap
1 LJ
0.5 LW
N
320.785 374 M
320.785 371.83 L
S
GR
GS
0.149 GC
2 setlinecap
1 LJ
0.5 LW
N
330.408 374 M
330.408 371.83 L
S
GR
GS
0.149 GC
2 setlinecap
1 LJ
0.5 LW
N
340.03 374 M
340.03 371.83 L
S
GR
GS
0.149 GC
2 setlinecap
1 LJ
0.5 LW
N
349.653 374 M
349.653 371.83 L
S
GR
GS
0.149 GC
2 setlinecap
1 LJ
0.5 LW
N
368.898 374 M
368.898 371.83 L
S
GR
GS
0.149 GC
2 setlinecap
1 LJ
0.5 LW
N
378.521 374 M
378.521 371.83 L
S
GR
GS
0.149 GC
2 setlinecap
1 LJ
0.5 LW
N
388.144 374 M
388.144 371.83 L
S
GR
GS
0.149 GC
2 setlinecap
1 LJ
0.5 LW
N
397.767 374 M
397.767 371.83 L
S
GR
GS
0.149 GC
2 setlinecap
1 LJ
0.5 LW
N
417.012 374 M
417.012 371.83 L
S
GR
GS
0.149 GC
2 setlinecap
1 LJ
0.5 LW
N
426.635 374 M
426.635 371.83 L
S
GR
GS
0.149 GC
2 setlinecap
1 LJ
0.5 LW
N
436.257 374 M
436.257 371.83 L
S
GR
GS
0.149 GC
2 setlinecap
1 LJ
0.5 LW
N
445.88 374 M
445.88 371.83 L
S
GR
GS
0.149 GC
2 setlinecap
1 LJ
0.5 LW
N
465.125 374 M
465.125 371.83 L
S
GR
GS
0.149 GC
2 setlinecap
1 LJ
0.5 LW
N
474.748 374 M
474.748 371.83 L
S
GR
GS
0.149 GC
2 setlinecap
1 LJ
0.5 LW
N
484.371 374 M
484.371 371.83 L
S
GR
GS
0.149 GC
2 setlinecap
1 LJ
0.5 LW
N
493.994 374 M
493.994 371.83 L
S
GR
GS
0.149 GC
2 setlinecap
1 LJ
0.5 LW
N
80.218 31.5 M
80.218 33.67 L
S
GR
GS
0.149 GC
2 setlinecap
1 LJ
0.5 LW
N
89.84 31.5 M
89.84 33.67 L
S
GR
GS
0.149 GC
2 setlinecap
1 LJ
0.5 LW
N
99.463 31.5 M
99.463 33.67 L
S
GR
GS
0.149 GC
2 setlinecap
1 LJ
0.5 LW
N
109.086 31.5 M
109.086 33.67 L
S
GR
GS
0.149 GC
2 setlinecap
1 LJ
0.5 LW
N
128.331 31.5 M
128.331 33.67 L
S
GR
GS
0.149 GC
2 setlinecap
1 LJ
0.5 LW
N
137.954 31.5 M
137.954 33.67 L
S
GR
GS
0.149 GC
2 setlinecap
1 LJ
0.5 LW
N
147.577 31.5 M
147.577 33.67 L
S
GR
GS
0.149 GC
2 setlinecap
1 LJ
0.5 LW
N
157.199 31.5 M
157.199 33.67 L
S
GR
GS
0.149 GC
2 setlinecap
1 LJ
0.5 LW
N
176.445 31.5 M
176.445 33.67 L
S
GR
GS
0.149 GC
2 setlinecap
1 LJ
0.5 LW
N
186.067 31.5 M
186.067 33.67 L
S
GR
GS
0.149 GC
2 setlinecap
1 LJ
0.5 LW
N
195.69 31.5 M
195.69 33.67 L
S
GR
GS
0.149 GC
2 setlinecap
1 LJ
0.5 LW
N
205.313 31.5 M
205.313 33.67 L
S
GR
GS
0.149 GC
2 setlinecap
1 LJ
0.5 LW
N
224.558 31.5 M
224.558 33.67 L
S
GR
GS
0.149 GC
2 setlinecap
1 LJ
0.5 LW
N
234.181 31.5 M
234.181 33.67 L
S
GR
GS
0.149 GC
2 setlinecap
1 LJ
0.5 LW
N
243.803 31.5 M
243.803 33.67 L
S
GR
GS
0.149 GC
2 setlinecap
1 LJ
0.5 LW
N
253.426 31.5 M
253.426 33.67 L
S
GR
GS
0.149 GC
2 setlinecap
1 LJ
0.5 LW
N
272.672 31.5 M
272.672 33.67 L
S
GR
GS
0.149 GC
2 setlinecap
1 LJ
0.5 LW
N
282.294 31.5 M
282.294 33.67 L
S
GR
GS
0.149 GC
2 setlinecap
1 LJ
0.5 LW
N
291.917 31.5 M
291.917 33.67 L
S
GR
GS
0.149 GC
2 setlinecap
1 LJ
0.5 LW
N
301.54 31.5 M
301.54 33.67 L
S
GR
GS
0.149 GC
2 setlinecap
1 LJ
0.5 LW
N
320.785 31.5 M
320.785 33.67 L
S
GR
GS
0.149 GC
2 setlinecap
1 LJ
0.5 LW
N
330.408 31.5 M
330.408 33.67 L
S
GR
GS
0.149 GC
2 setlinecap
1 LJ
0.5 LW
N
340.03 31.5 M
340.03 33.67 L
S
GR
GS
0.149 GC
2 setlinecap
1 LJ
0.5 LW
N
349.653 31.5 M
349.653 33.67 L
S
GR
GS
0.149 GC
2 setlinecap
1 LJ
0.5 LW
N
368.898 31.5 M
368.898 33.67 L
S
GR
GS
0.149 GC
2 setlinecap
1 LJ
0.5 LW
N
378.521 31.5 M
378.521 33.67 L
S
GR
GS
0.149 GC
2 setlinecap
1 LJ
0.5 LW
N
388.144 31.5 M
388.144 33.67 L
S
GR
GS
0.149 GC
2 setlinecap
1 LJ
0.5 LW
N
397.767 31.5 M
397.767 33.67 L
S
GR
GS
0.149 GC
2 setlinecap
1 LJ
0.5 LW
N
417.012 31.5 M
417.012 33.67 L
S
GR
GS
0.149 GC
2 setlinecap
1 LJ
0.5 LW
N
426.635 31.5 M
426.635 33.67 L
S
GR
GS
0.149 GC
2 setlinecap
1 LJ
0.5 LW
N
436.257 31.5 M
436.257 33.67 L
S
GR
GS
0.149 GC
2 setlinecap
1 LJ
0.5 LW
N
445.88 31.5 M
445.88 33.67 L
S
GR
GS
0.149 GC
2 setlinecap
1 LJ
0.5 LW
N
465.125 31.5 M
465.125 33.67 L
S
GR
GS
0.149 GC
2 setlinecap
1 LJ
0.5 LW
N
474.748 31.5 M
474.748 33.67 L
S
GR
GS
0.149 GC
2 setlinecap
1 LJ
0.5 LW
N
484.371 31.5 M
484.371 33.67 L
S
GR
GS
0.149 GC
2 setlinecap
1 LJ
0.5 LW
N
493.994 31.5 M
493.994 33.67 L
S
GR
GS
[1 0 0 1 118.70846 378.80002] CT
0.149 GC
/Helvetica 14 F
GS
[1 0 0 1 0 0] CT
-16 14 moveto 
1 -1 scale
(1000) t 
GR
GR
GS
[1 0 0 1 166.82193 378.80002] CT
0.149 GC
/Helvetica 14 F
GS
[1 0 0 1 0 0] CT
-16 14 moveto 
1 -1 scale
(2000) t 
GR
GR
GS
[1 0 0 1 214.93539 378.80002] CT
0.149 GC
/Helvetica 14 F
GS
[1 0 0 1 0 0] CT
-16 14 moveto 
1 -1 scale
(3000) t 
GR
GR
GS
[1 0 0 1 263.04886 378.80002] CT
0.149 GC
/Helvetica 14 F
GS
[1 0 0 1 0 0] CT
-16 14 moveto 
1 -1 scale
(4000) t 
GR
GR
GS
[1 0 0 1 311.16235 378.80002] CT
0.149 GC
/Helvetica 14 F
GS
[1 0 0 1 0 0] CT
-16 14 moveto 
1 -1 scale
(5000) t 
GR
GR
GS
[1 0 0 1 359.27582 378.80002] CT
0.149 GC
/Helvetica 14 F
GS
[1 0 0 1 0 0] CT
-16 14 moveto 
1 -1 scale
(6000) t 
GR
GR
GS
[1 0 0 1 407.38928 378.80002] CT
0.149 GC
/Helvetica 14 F
GS
[1 0 0 1 0 0] CT
-16 14 moveto 
1 -1 scale
(7000) t 
GR
GR
GS
[1 0 0 1 455.50275 378.80002] CT
0.149 GC
/Helvetica 14 F
GS
[1 0 0 1 0 0] CT
-16 14 moveto 
1 -1 scale
(8000) t 
GR
GR
GS
[1 0 0 1 503.61621 378.80002] CT
0.149 GC
/Helvetica 14 F
GS
[1 0 0 1 0 0] CT
-16 14 moveto 
1 -1 scale
(9000) t 
GR
GR
GS
[1 0 0 1 290.00021 396.30002] CT
0.149 GC
/Helvetica 15.4 F
GS
[1 0 0 1 0 0] CT
-42 15 moveto 
1 -1 scale
(Bitrate\(kb/s\)) t 
GR
GR
GS
0.149 GC
2 setlinecap
1 LJ
0.5 LW
N
73 374 M
73 31.5 L
S
GR
GS
0.149 GC
2 setlinecap
1 LJ
0.5 LW
N
507 374 M
507 31.5 L
S
GR
GS
0.149 GC
2 setlinecap
1 LJ
0.5 LW
N
73 346.814 M
77.34 346.814 L
S
GR
GS
0.149 GC
2 setlinecap
1 LJ
0.5 LW
N
73 290.377 M
77.34 290.377 L
S
GR
GS
0.149 GC
2 setlinecap
1 LJ
0.5 LW
N
73 233.94 M
77.34 233.94 L
S
GR
GS
0.149 GC
2 setlinecap
1 LJ
0.5 LW
N
73 177.502 M
77.34 177.502 L
S
GR
GS
0.149 GC
2 setlinecap
1 LJ
0.5 LW
N
73 121.065 M
77.34 121.065 L
S
GR
GS
0.149 GC
2 setlinecap
1 LJ
0.5 LW
N
73 64.628 M
77.34 64.628 L
S
GR
GS
0.149 GC
2 setlinecap
1 LJ
0.5 LW
N
507 346.814 M
502.66 346.814 L
S
GR
GS
0.149 GC
2 setlinecap
1 LJ
0.5 LW
N
507 290.377 M
502.66 290.377 L
S
GR
GS
0.149 GC
2 setlinecap
1 LJ
0.5 LW
N
507 233.94 M
502.66 233.94 L
S
GR
GS
0.149 GC
2 setlinecap
1 LJ
0.5 LW
N
507 177.502 M
502.66 177.502 L
S
GR
GS
0.149 GC
2 setlinecap
1 LJ
0.5 LW
N
507 121.065 M
502.66 121.065 L
S
GR
GS
0.149 GC
2 setlinecap
1 LJ
0.5 LW
N
507 64.628 M
502.66 64.628 L
S
GR
GS
0.149 GC
2 setlinecap
1 LJ
0.5 LW
N
73 369.388 M
75.17 369.388 L
S
GR
GS
0.149 GC
2 setlinecap
1 LJ
0.5 LW
N
73 358.101 M
75.17 358.101 L
S
GR
GS
0.149 GC
2 setlinecap
1 LJ
0.5 LW
N
73 335.526 M
75.17 335.526 L
S
GR
GS
0.149 GC
2 setlinecap
1 LJ
0.5 LW
N
73 324.239 M
75.17 324.239 L
S
GR
GS
0.149 GC
2 setlinecap
1 LJ
0.5 LW
N
73 312.951 M
75.17 312.951 L
S
GR
GS
0.149 GC
2 setlinecap
1 LJ
0.5 LW
N
73 301.664 M
75.17 301.664 L
S
GR
GS
0.149 GC
2 setlinecap
1 LJ
0.5 LW
N
73 279.089 M
75.17 279.089 L
S
GR
GS
0.149 GC
2 setlinecap
1 LJ
0.5 LW
N
73 267.802 M
75.17 267.802 L
S
GR
GS
0.149 GC
2 setlinecap
1 LJ
0.5 LW
N
73 256.514 M
75.17 256.514 L
S
GR
GS
0.149 GC
2 setlinecap
1 LJ
0.5 LW
N
73 245.227 M
75.17 245.227 L
S
GR
GS
0.149 GC
2 setlinecap
1 LJ
0.5 LW
N
73 222.652 M
75.17 222.652 L
S
GR
GS
0.149 GC
2 setlinecap
1 LJ
0.5 LW
N
73 211.365 M
75.17 211.365 L
S
GR
GS
0.149 GC
2 setlinecap
1 LJ
0.5 LW
N
73 200.077 M
75.17 200.077 L
S
GR
GS
0.149 GC
2 setlinecap
1 LJ
0.5 LW
N
73 188.79 M
75.17 188.79 L
S
GR
GS
0.149 GC
2 setlinecap
1 LJ
0.5 LW
N
73 166.215 M
75.17 166.215 L
S
GR
GS
0.149 GC
2 setlinecap
1 LJ
0.5 LW
N
73 154.928 M
75.17 154.928 L
S
GR
GS
0.149 GC
2 setlinecap
1 LJ
0.5 LW
N
73 143.64 M
75.17 143.64 L
S
GR
GS
0.149 GC
2 setlinecap
1 LJ
0.5 LW
N
73 132.353 M
75.17 132.353 L
S
GR
GS
0.149 GC
2 setlinecap
1 LJ
0.5 LW
N
73 109.778 M
75.17 109.778 L
S
GR
GS
0.149 GC
2 setlinecap
1 LJ
0.5 LW
N
73 98.491 M
75.17 98.491 L
S
GR
GS
0.149 GC
2 setlinecap
1 LJ
0.5 LW
N
73 87.203 M
75.17 87.203 L
S
GR
GS
0.149 GC
2 setlinecap
1 LJ
0.5 LW
N
73 75.916 M
75.17 75.916 L
S
GR
GS
0.149 GC
2 setlinecap
1 LJ
0.5 LW
N
73 53.341 M
75.17 53.341 L
S
GR
GS
0.149 GC
2 setlinecap
1 LJ
0.5 LW
N
73 42.053 M
75.17 42.053 L
S
GR
GS
0.149 GC
2 setlinecap
1 LJ
0.5 LW
N
507 369.388 M
504.83 369.388 L
S
GR
GS
0.149 GC
2 setlinecap
1 LJ
0.5 LW
N
507 358.101 M
504.83 358.101 L
S
GR
GS
0.149 GC
2 setlinecap
1 LJ
0.5 LW
N
507 335.526 M
504.83 335.526 L
S
GR
GS
0.149 GC
2 setlinecap
1 LJ
0.5 LW
N
507 324.239 M
504.83 324.239 L
S
GR
GS
0.149 GC
2 setlinecap
1 LJ
0.5 LW
N
507 312.951 M
504.83 312.951 L
S
GR
GS
0.149 GC
2 setlinecap
1 LJ
0.5 LW
N
507 301.664 M
504.83 301.664 L
S
GR
GS
0.149 GC
2 setlinecap
1 LJ
0.5 LW
N
507 279.089 M
504.83 279.089 L
S
GR
GS
0.149 GC
2 setlinecap
1 LJ
0.5 LW
N
507 267.802 M
504.83 267.802 L
S
GR
GS
0.149 GC
2 setlinecap
1 LJ
0.5 LW
N
507 256.514 M
504.83 256.514 L
S
GR
GS
0.149 GC
2 setlinecap
1 LJ
0.5 LW
N
507 245.227 M
504.83 245.227 L
S
GR
GS
0.149 GC
2 setlinecap
1 LJ
0.5 LW
N
507 222.652 M
504.83 222.652 L
S
GR
GS
0.149 GC
2 setlinecap
1 LJ
0.5 LW
N
507 211.365 M
504.83 211.365 L
S
GR
GS
0.149 GC
2 setlinecap
1 LJ
0.5 LW
N
507 200.077 M
504.83 200.077 L
S
GR
GS
0.149 GC
2 setlinecap
1 LJ
0.5 LW
N
507 188.79 M
504.83 188.79 L
S
GR
GS
0.149 GC
2 setlinecap
1 LJ
0.5 LW
N
507 166.215 M
504.83 166.215 L
S
GR
GS
0.149 GC
2 setlinecap
1 LJ
0.5 LW
N
507 154.928 M
504.83 154.928 L
S
GR
GS
0.149 GC
2 setlinecap
1 LJ
0.5 LW
N
507 143.64 M
504.83 143.64 L
S
GR
GS
0.149 GC
2 setlinecap
1 LJ
0.5 LW
N
507 132.353 M
504.83 132.353 L
S
GR
GS
0.149 GC
2 setlinecap
1 LJ
0.5 LW
N
507 109.778 M
504.83 109.778 L
S
GR
GS
0.149 GC
2 setlinecap
1 LJ
0.5 LW
N
507 98.491 M
504.83 98.491 L
S
GR
GS
0.149 GC
2 setlinecap
1 LJ
0.5 LW
N
507 87.203 M
504.83 87.203 L
S
GR
GS
0.149 GC
2 setlinecap
1 LJ
0.5 LW
N
507 75.916 M
504.83 75.916 L
S
GR
GS
0.149 GC
2 setlinecap
1 LJ
0.5 LW
N
507 53.341 M
504.83 53.341 L
S
GR
GS
0.149 GC
2 setlinecap
1 LJ
0.5 LW
N
507 42.053 M
504.83 42.053 L
S
GR
GS
[1 0 0 1 68.2 346.81369] CT
0.149 GC
/Helvetica 14 F
GS
[1 0 0 1 0 0] CT
-28 5.5 moveto 
1 -1 scale
(13.5) t 
GR
GR
GS
[1 0 0 1 68.2 290.37659] CT
0.149 GC
/Helvetica 14 F
GS
[1 0 0 1 0 0] CT
-16 5.5 moveto 
1 -1 scale
(14) t 
GR
GR
GS
[1 0 0 1 68.2 233.93951] CT
0.149 GC
/Helvetica 14 F
GS
[1 0 0 1 0 0] CT
-28 5.5 moveto 
1 -1 scale
(14.5) t 
GR
GR
GS
[1 0 0 1 68.2 177.50241] CT
0.149 GC
/Helvetica 14 F
GS
[1 0 0 1 0 0] CT
-16 5.5 moveto 
1 -1 scale
(15) t 
GR
GR
GS
[1 0 0 1 68.2 121.06533] CT
0.149 GC
/Helvetica 14 F
GS
[1 0 0 1 0 0] CT
-28 5.5 moveto 
1 -1 scale
(15.5) t 
GR
GR
GS
[1 0 0 1 68.2 64.62823] CT
0.149 GC
/Helvetica 14 F
GS
[1 0 0 1 0 0] CT
-16 5.5 moveto 
1 -1 scale
(16) t 
GR
GR
GS
[0 -1 1 0 37.7 202.74985] CT
0.149 GC
/Helvetica 15.4 F
GS
[1 0 0 1 0 0] CT
-49.5 -4 moveto 
1 -1 scale
(MS-SSIM \(dB\)) t 
GR
GR
GS
[1 0 0 1 290.00027 29.57508] CT
/Helvetica-Bold 15.4 F
GS
[1 0 0 1 0 0] CT
-225.5 -4 moveto 
1 -1 scale
(DinnerSceneCropped_1920x1080_2997fps_10bit_420.y4m-av1) t 
GR
GR
GS
0 0.447 0.741 RC
1 LJ
0.5 LW
N
73.857 301.988 M
74.82 274.969 L
75.782 255.363 L
76.744 247.619 L
77.706 241.527 L
78.669 236.599 L
79.631 232.671 L
80.593 229.583 L
81.555 227.17 L
82.518 225.272 L
83.48 223.659 L
84.442 222.147 L
85.405 220.729 L
86.367 219.399 L
87.329 218.153 L
88.291 216.986 L
89.254 215.893 L
90.216 214.868 L
91.178 213.908 L
92.14 213.006 L
93.103 212.158 L
94.065 211.358 L
95.027 210.603 L
95.989 209.886 L
96.952 209.203 L
97.914 208.549 L
98.876 207.919 L
99.839 207.308 L
100.801 206.711 L
101.763 206.123 L
102.725 205.538 L
103.688 204.953 L
104.65 204.362 L
105.612 203.759 L
106.574 203.141 L
107.537 202.506 L
108.499 201.87 L
109.461 201.234 L
110.424 200.598 L
111.386 199.962 L
112.348 199.326 L
113.31 198.69 L
114.273 198.054 L
115.235 197.418 L
116.197 196.783 L
117.159 196.147 L
118.122 195.512 L
119.084 194.876 L
120.046 194.241 L
121.008 193.606 L
121.971 192.972 L
122.933 192.337 L
123.895 191.703 L
124.858 191.068 L
125.82 190.434 L
126.782 189.801 L
127.744 189.167 L
128.707 188.534 L
129.669 187.901 L
130.631 187.268 L
131.593 186.636 L
132.556 186.003 L
133.518 185.371 L
134.48 184.74 L
135.443 184.109 L
136.405 183.478 L
137.367 182.847 L
138.329 182.217 L
139.292 181.587 L
140.254 180.958 L
141.216 180.329 L
142.178 179.7 L
143.141 179.072 L
144.103 178.444 L
145.065 177.817 L
146.027 177.19 L
146.99 176.563 L
147.952 175.937 L
148.914 175.312 L
149.877 174.687 L
150.839 174.062 L
151.801 173.438 L
152.763 172.814 L
153.726 172.191 L
154.688 171.569 L
155.65 170.947 L
156.612 170.326 L
157.575 169.705 L
158.537 169.085 L
159.499 168.465 L
160.462 167.846 L
161.424 167.228 L
162.386 166.61 L
163.348 165.993 L
164.311 165.377 L
165.273 164.761 L
166.235 164.146 L
167.197 163.532 L
168.16 162.918 L
169.122 162.305 L
170.084 161.693 L
171.046 161.082 L
172.009 160.471 L
172.971 159.861 L
173.933 159.252 L
174.896 158.643 L
175.858 158.036 L
176.82 157.429 L
177.782 156.823 L
178.745 156.218 L
179.707 155.613 L
180.669 155.01 L
181.631 154.407 L
182.594 153.805 L
183.556 153.204 L
184.518 152.604 L
185.481 152.005 L
186.443 151.407 L
187.405 150.809 L
188.367 150.213 L
189.33 149.617 L
190.292 149.023 L
191.254 148.429 L
192.216 147.837 L
193.179 147.245 L
194.141 146.655 L
195.103 146.065 L
196.065 145.477 L
197.028 144.889 L
197.99 144.303 L
198.952 143.717 L
199.915 143.133 L
200.877 142.55 L
201.839 141.967 L
202.801 141.386 L
203.764 140.806 L
204.726 140.228 L
205.688 139.65 L
206.65 139.073 L
207.613 138.498 L
208.575 137.924 L
209.537 137.35 L
210.5 136.779 L
211.462 136.208 L
212.424 135.638 L
213.386 135.07 L
214.349 134.503 L
215.311 133.937 L
216.273 133.373 L
217.235 132.809 L
218.198 132.247 L
219.16 131.686 L
220.122 131.127 L
221.085 130.569 L
222.047 130.012 L
223.009 129.457 L
223.971 128.902 L
224.934 128.35 L
225.896 127.798 L
226.858 127.248 L
227.82 126.7 L
228.783 126.152 L
229.745 125.606 L
230.707 125.062 L
231.669 124.519 L
232.632 123.977 L
233.594 123.437 L
234.556 122.899 L
235.519 122.361 L
236.481 121.826 L
237.443 121.291 L
238.405 120.759 L
239.368 120.228 L
240.33 119.698 L
241.292 119.17 L
242.254 118.643 L
243.217 118.118 L
244.179 117.595 L
245.141 117.073 L
246.104 116.553 L
247.066 116.034 L
248.028 115.517 L
248.99 115.002 L
249.953 114.488 L
250.915 113.976 L
251.877 113.465 L
252.839 112.956 L
253.802 112.449 L
254.764 111.944 L
255.726 111.44 L
256.688 110.938 L
257.651 110.438 L
258.613 109.939 L
259.575 109.443 L
260.538 108.948 L
261.5 108.454 L
262.462 107.963 L
263.424 107.473 L
264.387 106.985 L
265.349 106.499 L
266.311 106.015 L
267.273 105.533 L
268.236 105.052 L
269.198 104.574 L
270.16 104.097 L
271.122 103.622 L
272.085 103.149 L
273.047 102.678 L
274.009 102.209 L
274.972 101.741 L
275.934 101.276 L
276.896 100.813 L
277.858 100.351 L
278.821 99.892 L
279.783 99.434 L
280.745 98.979 L
281.707 98.525 L
282.67 98.074 L
283.632 97.624 L
284.594 97.177 L
285.557 96.732 L
286.519 96.288 L
287.481 95.847 L
288.443 95.408 L
289.406 94.971 L
290.368 94.536 L
291.33 94.103 L
292.292 93.673 L
293.255 93.244 L
294.217 92.818 L
295.179 92.393 L
296.142 91.971 L
297.104 91.551 L
298.066 91.133 L
299.028 90.718 L
299.991 90.305 L
300.953 89.894 L
301.915 89.485 L
302.877 89.078 L
303.84 88.674 L
304.802 88.272 L
305.764 87.872 L
306.726 87.474 L
307.689 87.079 L
308.651 86.686 L
309.613 86.296 L
310.576 85.908 L
311.538 85.522 L
312.5 85.138 L
313.462 84.757 L
314.425 84.378 L
315.387 84.002 L
316.349 83.628 L
317.311 83.256 L
318.274 82.887 L
319.236 82.52 L
320.198 82.156 L
321.161 81.794 L
322.123 81.435 L
323.085 81.078 L
324.047 80.724 L
325.01 80.372 L
325.972 80.023 L
326.934 79.676 L
327.896 79.331 L
328.859 78.99 L
329.821 78.65 L
330.783 78.314 L
331.745 77.98 L
332.708 77.648 L
333.67 77.319 L
334.632 76.993 L
335.595 76.67 L
336.557 76.349 L
337.519 76.03 L
338.481 75.715 L
339.444 75.401 L
340.406 75.091 L
341.368 74.783 L
342.33 74.479 L
343.293 74.176 L
344.255 73.877 L
345.217 73.58 L
346.18 73.286 L
347.142 72.995 L
348.104 72.706 L
349.066 72.42 L
350.029 72.137 L
350.991 71.857 L
351.953 71.58 L
352.915 71.305 L
353.878 71.034 L
354.84 70.765 L
355.802 70.499 L
356.764 70.236 L
357.727 69.975 L
358.689 69.718 L
359.651 69.463 L
360.614 69.212 L
361.576 68.963 L
362.538 68.717 L
363.5 68.475 L
364.463 68.235 L
365.425 67.998 L
366.387 67.764 L
367.349 67.533 L
368.312 67.305 L
369.274 67.081 L
370.236 66.859 L
371.199 66.64 L
372.161 66.424 L
373.123 66.211 L
374.085 66.002 L
375.048 65.795 L
376.01 65.592 L
376.972 65.391 L
377.934 65.194 L
378.897 65 L
379.859 64.809 L
380.821 64.621 L
381.784 64.436 L
382.746 64.254 L
383.708 64.076 L
384.67 63.901 L
385.633 63.729 L
386.595 63.56 L
387.557 63.394 L
388.519 63.232 L
389.482 63.073 L
390.444 62.917 L
391.406 62.764 L
392.368 62.615 L
393.331 62.469 L
394.293 62.326 L
395.255 62.187 L
396.218 62.051 L
397.18 61.918 L
398.142 61.788 L
399.104 61.662 L
400.067 61.539 L
401.029 61.42 L
401.991 61.304 L
402.953 61.191 L
403.916 61.082 L
404.878 60.976 L
405.84 60.874 L
406.802 60.775 L
407.765 60.68 L
408.727 60.588 L
409.689 60.499 L
410.652 60.414 L
411.614 60.333 L
412.576 60.255 L
413.538 60.18 L
414.501 60.109 L
415.463 60.042 L
416.425 59.978 L
417.387 59.917 L
418.35 59.861 L
419.312 59.807 L
420.274 59.758 L
421.237 59.712 L
422.199 59.67 L
423.161 59.631 L
424.123 59.596 L
425.086 59.564 L
426.048 59.537 L
427.01 59.513 L
427.972 59.492 L
428.935 59.475 L
429.897 59.462 L
430.859 59.453 L
S
GR
GS
0.851 0.325 0.098 RC
1 LJ
0.5 LW
N
73.979 298.281 M
74.941 273.068 L
75.903 253.594 L
76.866 246.081 L
77.828 240.65 L
78.79 236.163 L
79.752 232.496 L
80.715 229.525 L
81.677 227.126 L
82.639 225.173 L
83.601 223.544 L
84.564 222.107 L
85.526 220.756 L
86.488 219.479 L
87.451 218.273 L
88.413 217.134 L
89.375 216.059 L
90.337 215.043 L
91.3 214.084 L
92.262 213.177 L
93.224 212.32 L
94.186 211.509 L
95.149 210.74 L
96.111 210.01 L
97.073 209.315 L
98.035 208.651 L
98.998 208.016 L
99.96 207.405 L
100.922 206.815 L
101.885 206.242 L
102.847 205.683 L
103.809 205.134 L
104.771 204.593 L
105.734 204.054 L
106.696 203.515 L
107.658 202.972 L
108.62 202.422 L
109.583 201.861 L
110.545 201.285 L
111.507 200.694 L
112.47 200.102 L
113.432 199.51 L
114.394 198.918 L
115.356 198.326 L
116.319 197.734 L
117.281 197.142 L
118.243 196.55 L
119.205 195.958 L
120.168 195.367 L
121.13 194.775 L
122.092 194.184 L
123.055 193.593 L
124.017 193.002 L
124.979 192.411 L
125.941 191.821 L
126.904 191.23 L
127.866 190.64 L
128.828 190.05 L
129.79 189.46 L
130.753 188.87 L
131.715 188.281 L
132.677 187.692 L
133.639 187.103 L
134.602 186.514 L
135.564 185.925 L
136.526 185.337 L
137.489 184.748 L
138.451 184.16 L
139.413 183.573 L
140.375 182.985 L
141.338 182.398 L
142.3 181.811 L
143.262 181.224 L
144.224 180.638 L
145.187 180.052 L
146.149 179.466 L
147.111 178.88 L
148.074 178.295 L
149.036 177.71 L
149.998 177.125 L
150.96 176.541 L
151.923 175.957 L
152.885 175.373 L
153.847 174.79 L
154.809 174.207 L
155.772 173.624 L
156.734 173.042 L
157.696 172.46 L
158.658 171.878 L
159.621 171.297 L
160.583 170.716 L
161.545 170.136 L
162.508 169.556 L
163.47 168.976 L
164.432 168.396 L
165.394 167.818 L
166.357 167.239 L
167.319 166.661 L
168.281 166.083 L
169.243 165.506 L
170.206 164.929 L
171.168 164.353 L
172.13 163.777 L
173.093 163.201 L
174.055 162.626 L
175.017 162.051 L
175.979 161.477 L
176.942 160.904 L
177.904 160.33 L
178.866 159.758 L
179.828 159.186 L
180.791 158.614 L
181.753 158.043 L
182.715 157.472 L
183.677 156.902 L
184.64 156.332 L
185.602 155.763 L
186.564 155.194 L
187.527 154.626 L
188.489 154.058 L
189.451 153.491 L
190.413 152.925 L
191.376 152.359 L
192.338 151.794 L
193.3 151.229 L
194.262 150.665 L
195.225 150.101 L
196.187 149.538 L
197.149 148.976 L
198.112 148.414 L
199.074 147.853 L
200.036 147.292 L
200.998 146.732 L
201.961 146.173 L
202.923 145.614 L
203.885 145.056 L
204.847 144.498 L
205.81 143.941 L
206.772 143.385 L
207.734 142.83 L
208.696 142.275 L
209.659 141.721 L
210.621 141.167 L
211.583 140.614 L
212.546 140.062 L
213.508 139.511 L
214.47 138.96 L
215.432 138.41 L
216.395 137.861 L
217.357 137.312 L
218.319 136.764 L
219.281 136.217 L
220.244 135.671 L
221.206 135.125 L
222.168 134.58 L
223.131 134.036 L
224.093 133.492 L
225.055 132.95 L
226.017 132.408 L
226.98 131.867 L
227.942 131.326 L
228.904 130.787 L
229.866 130.248 L
230.829 129.71 L
231.791 129.173 L
232.753 128.636 L
233.715 128.101 L
234.678 127.566 L
235.64 127.032 L
236.602 126.499 L
237.565 125.967 L
238.527 125.435 L
239.489 124.905 L
240.451 124.375 L
241.414 123.846 L
242.376 123.318 L
243.338 122.791 L
244.3 122.265 L
245.263 121.74 L
246.225 121.215 L
247.187 120.692 L
248.15 120.169 L
249.112 119.648 L
250.074 119.127 L
251.036 118.607 L
251.999 118.088 L
252.961 117.57 L
253.923 117.053 L
254.885 116.537 L
255.848 116.021 L
256.81 115.507 L
257.772 114.994 L
258.734 114.482 L
259.697 113.97 L
260.659 113.46 L
261.621 112.951 L
262.584 112.442 L
263.546 111.935 L
264.508 111.428 L
265.47 110.923 L
266.433 110.419 L
267.395 109.915 L
268.357 109.413 L
269.319 108.912 L
270.282 108.412 L
271.244 107.912 L
272.206 107.414 L
273.169 106.917 L
274.131 106.421 L
275.093 105.926 L
276.055 105.432 L
277.018 104.939 L
277.98 104.447 L
278.942 103.957 L
279.904 103.467 L
280.867 102.979 L
281.829 102.491 L
282.791 102.005 L
283.754 101.52 L
284.716 101.036 L
285.678 100.553 L
286.64 100.071 L
287.603 99.591 L
288.565 99.112 L
289.527 98.633 L
290.489 98.156 L
291.452 97.68 L
292.414 97.205 L
293.376 96.732 L
294.338 96.259 L
295.301 95.788 L
296.263 95.318 L
297.225 94.849 L
298.188 94.381 L
299.15 93.915 L
300.112 93.45 L
301.074 92.986 L
302.037 92.523 L
302.999 92.062 L
303.961 91.601 L
304.923 91.142 L
305.886 90.684 L
306.848 90.228 L
307.81 89.773 L
308.772 89.319 L
309.735 88.866 L
310.697 88.414 L
311.659 87.964 L
312.622 87.516 L
313.584 87.068 L
314.546 86.622 L
315.508 86.177 L
316.471 85.733 L
317.433 85.291 L
318.395 84.85 L
319.357 84.41 L
320.32 83.972 L
321.282 83.535 L
322.244 83.099 L
323.207 82.665 L
324.169 82.232 L
325.131 81.801 L
326.093 81.371 L
327.056 80.942 L
328.018 80.515 L
328.98 80.089 L
329.942 79.664 L
330.905 79.241 L
331.867 78.819 L
332.829 78.399 L
333.792 77.98 L
334.754 77.562 L
335.716 77.146 L
336.678 76.732 L
337.641 76.319 L
338.603 75.907 L
339.565 75.497 L
340.527 75.088 L
341.49 74.68 L
342.452 74.274 L
343.414 73.87 L
344.376 73.467 L
345.339 73.066 L
346.301 72.666 L
347.263 72.267 L
348.226 71.871 L
349.188 71.475 L
350.15 71.081 L
351.112 70.689 L
352.075 70.298 L
353.037 69.909 L
353.999 69.521 L
354.961 69.135 L
355.924 68.751 L
356.886 68.367 L
357.848 67.986 L
358.811 67.606 L
359.773 67.228 L
360.735 66.851 L
361.697 66.476 L
362.66 66.102 L
363.622 65.73 L
364.584 65.36 L
365.546 64.991 L
366.509 64.624 L
367.471 64.259 L
368.433 63.895 L
369.395 63.533 L
370.358 63.172 L
371.32 62.813 L
372.282 62.456 L
373.245 62.1 L
374.207 61.746 L
375.169 61.394 L
376.131 61.043 L
377.094 60.695 L
378.056 60.347 L
379.018 60.002 L
379.98 59.658 L
380.943 59.316 L
381.905 58.976 L
382.867 58.637 L
383.83 58.3 L
384.792 57.965 L
385.754 57.631 L
386.716 57.3 L
387.679 56.969 L
388.641 56.641 L
389.603 56.315 L
390.565 55.99 L
391.528 55.667 L
392.49 55.346 L
393.452 55.027 L
394.414 54.709 L
395.377 54.393 L
396.339 54.079 L
397.301 53.767 L
398.264 53.457 L
399.226 53.148 L
400.188 52.841 L
401.15 52.536 L
402.113 52.234 L
403.075 51.932 L
404.037 51.633 L
404.999 51.335 L
405.962 51.04 L
406.924 50.746 L
407.886 50.454 L
408.849 50.164 L
409.811 49.876 L
410.773 49.59 L
411.735 49.305 L
412.698 49.023 L
413.66 48.742 L
414.622 48.463 L
415.584 48.187 L
416.547 47.912 L
417.509 47.639 L
418.471 47.368 L
419.433 47.099 L
420.396 46.832 L
421.358 46.567 L
422.32 46.304 L
423.283 46.042 L
424.245 45.783 L
425.207 45.526 L
426.169 45.271 L
427.132 45.017 L
428.094 44.766 L
429.056 44.517 L
430.018 44.27 L
430.981 44.024 L
431.943 43.781 L
432.905 43.54 L
433.868 43.3 L
434.83 43.063 L
435.792 42.828 L
436.754 42.595 L
437.717 42.364 L
438.679 42.135 L
439.641 41.908 L
440.603 41.683 L
441.566 41.461 L
442.528 41.24 L
443.49 41.021 L
444.452 40.805 L
445.415 40.59 L
446.377 40.378 L
447.339 40.168 L
448.302 39.96 L
449.264 39.754 L
450.226 39.55 L
451.188 39.348 L
452.151 39.149 L
453.113 38.951 L
454.075 38.756 L
455.037 38.563 L
456 38.372 L
456.962 38.183 L
457.924 37.997 L
458.887 37.812 L
459.849 37.63 L
460.811 37.45 L
461.773 37.272 L
462.736 37.097 L
463.698 36.923 L
464.66 36.752 L
465.622 36.583 L
466.585 36.416 L
467.547 36.252 L
468.509 36.089 L
469.471 35.929 L
470.434 35.772 L
471.396 35.616 L
472.358 35.463 L
473.321 35.312 L
474.283 35.163 L
475.245 35.017 L
476.207 34.872 L
477.17 34.73 L
478.132 34.591 L
479.094 34.454 L
480.056 34.319 L
481.019 34.186 L
481.981 34.055 L
482.943 33.928 L
483.906 33.802 L
484.868 33.679 L
485.83 33.558 L
486.792 33.439 L
487.755 33.322 L
488.717 33.209 L
489.679 33.097 L
490.641 32.988 L
491.604 32.881 L
492.566 32.776 L
493.528 32.674 L
494.491 32.575 L
495.453 32.478 L
496.415 32.383 L
497.377 32.29 L
498.34 32.2 L
499.302 32.113 L
500.264 32.027 L
501.226 31.945 L
502.189 31.864 L
503.151 31.787 L
504.113 31.711 L
505.075 31.638 L
506.038 31.568 L
507 31.5 L
S
GR
GS
0.929 0.694 0.125 RC
1 LJ
0.5 LW
N
73.801 311.149 M
74.763 280.094 L
75.725 258.688 L
76.688 246.48 L
77.65 237.096 L
78.612 230.42 L
79.575 226.155 L
80.537 222.708 L
81.499 219.7 L
82.461 217.103 L
83.424 214.889 L
84.386 213.029 L
85.348 211.495 L
86.31 210.26 L
87.273 209.269 L
88.235 208.322 L
89.197 207.378 L
90.16 206.438 L
91.122 205.501 L
92.084 204.568 L
93.046 203.638 L
94.009 202.712 L
94.971 201.789 L
95.933 200.87 L
96.895 199.955 L
97.858 199.043 L
98.82 198.134 L
99.782 197.229 L
100.744 196.328 L
101.707 195.43 L
102.669 194.535 L
103.631 193.644 L
104.594 192.757 L
105.556 191.873 L
106.518 190.992 L
107.48 190.116 L
108.443 189.242 L
109.405 188.372 L
110.367 187.505 L
111.329 186.642 L
112.292 185.783 L
113.254 184.927 L
114.216 184.074 L
115.179 183.225 L
116.141 182.379 L
117.103 181.537 L
118.065 180.698 L
119.028 179.863 L
119.99 179.031 L
120.952 178.203 L
121.914 177.377 L
122.877 176.556 L
123.839 175.738 L
124.801 174.923 L
125.763 174.112 L
126.726 173.304 L
127.688 172.499 L
128.65 171.699 L
129.613 170.901 L
130.575 170.107 L
131.537 169.316 L
132.499 168.528 L
133.462 167.744 L
134.424 166.964 L
135.386 166.187 L
136.348 165.413 L
137.311 164.643 L
138.273 163.876 L
139.235 163.112 L
140.198 162.352 L
141.16 161.595 L
142.122 160.841 L
143.084 160.091 L
144.047 159.344 L
145.009 158.601 L
145.971 157.861 L
146.933 157.124 L
147.896 156.391 L
148.858 155.661 L
149.82 154.934 L
150.782 154.211 L
151.745 153.491 L
152.707 152.774 L
153.669 152.061 L
154.632 151.351 L
155.594 150.645 L
156.556 149.941 L
157.518 149.241 L
158.481 148.545 L
159.443 147.851 L
160.405 147.161 L
161.367 146.474 L
162.33 145.791 L
163.292 145.111 L
164.254 144.434 L
165.217 143.761 L
166.179 143.09 L
167.141 142.423 L
168.103 141.76 L
169.066 141.099 L
170.028 140.442 L
170.99 139.788 L
171.952 139.138 L
172.915 138.491 L
173.877 137.846 L
174.839 137.206 L
175.801 136.568 L
176.764 135.934 L
177.726 135.303 L
178.688 134.675 L
179.651 134.051 L
180.613 133.429 L
181.575 132.811 L
182.537 132.197 L
183.5 131.585 L
184.462 130.977 L
185.424 130.372 L
186.386 129.77 L
187.349 129.171 L
188.311 128.576 L
189.273 127.983 L
190.236 127.394 L
191.198 126.809 L
192.16 126.226 L
193.122 125.647 L
194.085 125.07 L
195.047 124.497 L
196.009 123.928 L
196.971 123.361 L
197.934 122.797 L
198.896 122.237 L
199.858 121.68 L
200.82 121.126 L
201.783 120.575 L
202.745 120.028 L
203.707 119.483 L
204.67 118.942 L
205.632 118.404 L
206.594 117.869 L
207.556 117.337 L
208.519 116.809 L
209.481 116.283 L
210.443 115.761 L
211.405 115.242 L
212.368 114.726 L
213.33 114.213 L
214.292 113.703 L
215.255 113.196 L
216.217 112.693 L
217.179 112.192 L
218.141 111.695 L
219.104 111.201 L
220.066 110.71 L
221.028 110.221 L
221.99 109.737 L
222.953 109.255 L
223.915 108.776 L
224.877 108.3 L
225.84 107.828 L
226.802 107.359 L
227.764 106.892 L
228.726 106.429 L
229.689 105.969 L
230.651 105.512 L
231.613 105.058 L
232.575 104.606 L
233.538 104.159 L
234.5 103.714 L
235.462 103.272 L
236.424 102.833 L
237.387 102.397 L
238.349 101.965 L
239.311 101.535 L
240.274 101.109 L
241.236 100.685 L
242.198 100.265 L
243.16 99.847 L
244.123 99.433 L
245.085 99.021 L
246.047 98.613 L
247.009 98.208 L
247.972 97.805 L
248.934 97.406 L
249.896 97.01 L
250.859 96.616 L
251.821 96.226 L
252.783 95.839 L
253.745 95.454 L
254.708 95.073 L
255.67 94.695 L
256.632 94.319 L
257.594 93.947 L
258.557 93.577 L
259.519 93.211 L
260.481 92.848 L
261.443 92.487 L
262.406 92.13 L
263.368 91.775 L
264.33 91.423 L
265.293 91.075 L
266.255 90.729 L
267.217 90.386 L
268.179 90.047 L
269.142 89.71 L
270.104 89.376 L
271.066 89.045 L
272.028 88.717 L
272.991 88.392 L
273.953 88.07 L
274.915 87.75 L
275.878 87.434 L
276.84 87.121 L
277.802 86.81 L
278.764 86.502 L
279.727 86.198 L
280.689 85.896 L
281.651 85.597 L
282.613 85.301 L
283.576 85.008 L
284.538 84.718 L
285.5 84.431 L
286.462 84.146 L
287.425 83.865 L
288.387 83.586 L
289.349 83.31 L
290.312 83.037 L
291.274 82.767 L
292.236 82.5 L
293.198 82.236 L
294.161 81.974 L
295.123 81.716 L
296.085 81.46 L
297.047 81.207 L
298.01 80.957 L
298.972 80.71 L
299.934 80.466 L
300.897 80.224 L
301.859 79.985 L
302.821 79.749 L
303.783 79.516 L
304.746 79.286 L
305.708 79.059 L
306.67 78.834 L
307.632 78.612 L
308.595 78.393 L
309.557 78.177 L
310.519 77.964 L
311.482 77.753 L
312.444 77.546 L
313.406 77.341 L
314.368 77.139 L
315.331 76.939 L
316.293 76.743 L
317.255 76.549 L
318.217 76.358 L
319.18 76.17 L
320.142 75.984 L
321.104 75.801 L
322.066 75.621 L
323.029 75.444 L
323.991 75.27 L
324.953 75.098 L
325.916 74.929 L
326.878 74.763 L
327.84 74.6 L
328.802 74.439 L
329.765 74.281 L
330.727 74.126 L
331.689 73.973 L
332.651 73.824 L
333.614 73.676 L
334.576 73.532 L
335.538 73.391 L
336.5 73.252 L
337.463 73.116 L
338.425 72.982 L
339.387 72.851 L
340.35 72.723 L
341.312 72.598 L
342.274 72.475 L
343.236 72.355 L
344.199 72.238 L
345.161 72.124 L
346.123 72.012 L
347.085 71.902 L
348.048 71.796 L
349.01 71.692 L
349.972 71.591 L
350.935 71.492 L
351.897 71.397 L
352.859 71.303 L
353.821 71.213 L
354.784 71.125 L
355.746 71.04 L
356.708 70.957 L
357.67 70.877 L
358.633 70.8 L
359.595 70.725 L
360.557 70.653 L
361.52 70.584 L
362.482 70.517 L
363.444 70.453 L
364.406 70.391 L
365.369 70.332 L
366.331 70.276 L
367.293 70.223 L
368.255 70.171 L
369.218 70.123 L
370.18 70.077 L
371.142 70.034 L
372.104 69.993 L
373.067 69.955 L
374.029 69.92 L
374.991 69.887 L
375.954 69.856 L
376.916 69.829 L
377.878 69.804 L
378.84 69.781 L
379.803 69.761 L
380.765 69.744 L
381.727 69.729 L
382.689 69.716 L
383.652 69.707 L
384.614 69.699 L
385.576 69.695 L
386.539 69.693 L
S
GR
GS
0.494 0.184 0.557 RC
1 LJ
0.5 LW
N
73.859 303.519 M
74.821 275.372 L
75.783 255.18 L
76.745 247.548 L
77.708 241.576 L
78.67 236.779 L
79.632 232.978 L
80.594 229.996 L
81.557 227.656 L
82.519 225.78 L
83.481 224.151 L
84.444 222.62 L
85.406 221.183 L
86.368 219.834 L
87.33 218.569 L
88.293 217.382 L
89.255 216.268 L
90.217 215.224 L
91.179 214.242 L
92.142 213.32 L
93.104 212.452 L
94.066 211.632 L
95.029 210.857 L
95.991 210.121 L
96.953 209.419 L
97.915 208.746 L
98.878 208.098 L
99.84 207.47 L
100.802 206.856 L
101.764 206.251 L
102.727 205.652 L
103.689 205.052 L
104.651 204.447 L
105.614 203.832 L
106.576 203.203 L
107.538 202.56 L
108.5 201.917 L
109.463 201.274 L
110.425 200.631 L
111.387 199.988 L
112.349 199.346 L
113.312 198.703 L
114.274 198.061 L
115.236 197.419 L
116.198 196.777 L
117.161 196.135 L
118.123 195.493 L
119.085 194.851 L
120.048 194.21 L
121.01 193.569 L
121.972 192.928 L
122.934 192.287 L
123.897 191.646 L
124.859 191.006 L
125.821 190.366 L
126.783 189.726 L
127.746 189.087 L
128.708 188.448 L
129.67 187.809 L
130.633 187.17 L
131.595 186.532 L
132.557 185.894 L
133.519 185.257 L
134.482 184.62 L
135.444 183.983 L
136.406 183.347 L
137.368 182.711 L
138.331 182.075 L
139.293 181.44 L
140.255 180.805 L
141.217 180.171 L
142.18 179.537 L
143.142 178.904 L
144.104 178.271 L
145.067 177.638 L
146.029 177.006 L
146.991 176.375 L
147.953 175.744 L
148.916 175.113 L
149.878 174.483 L
150.84 173.854 L
151.802 173.225 L
152.765 172.597 L
153.727 171.969 L
154.689 171.342 L
155.652 170.716 L
156.614 170.09 L
157.576 169.465 L
158.538 168.84 L
159.501 168.216 L
160.463 167.593 L
161.425 166.97 L
162.387 166.349 L
163.35 165.727 L
164.312 165.107 L
165.274 164.487 L
166.236 163.868 L
167.199 163.249 L
168.161 162.632 L
169.123 162.015 L
170.086 161.399 L
171.048 160.784 L
172.01 160.169 L
172.972 159.555 L
173.935 158.942 L
174.897 158.33 L
175.859 157.719 L
176.821 157.109 L
177.784 156.499 L
178.746 155.89 L
179.708 155.283 L
180.671 154.676 L
181.633 154.07 L
182.595 153.464 L
183.557 152.86 L
184.52 152.257 L
185.482 151.655 L
186.444 151.053 L
187.406 150.453 L
188.369 149.853 L
189.331 149.255 L
190.293 148.657 L
191.255 148.061 L
192.218 147.466 L
193.18 146.871 L
194.142 146.278 L
195.105 145.686 L
196.067 145.094 L
197.029 144.504 L
197.991 143.915 L
198.954 143.327 L
199.916 142.74 L
200.878 142.155 L
201.84 141.57 L
202.803 140.986 L
203.765 140.404 L
204.727 139.823 L
205.69 139.243 L
206.652 138.664 L
207.614 138.087 L
208.576 137.51 L
209.539 136.935 L
210.501 136.361 L
211.463 135.788 L
212.425 135.217 L
213.388 134.647 L
214.35 134.078 L
215.312 133.51 L
216.274 132.944 L
217.237 132.379 L
218.199 131.815 L
219.161 131.253 L
220.124 130.691 L
221.086 130.132 L
222.048 129.574 L
223.01 129.017 L
223.973 128.461 L
224.935 127.907 L
225.897 127.354 L
226.859 126.802 L
227.822 126.253 L
228.784 125.704 L
229.746 125.157 L
230.709 124.611 L
231.671 124.067 L
232.633 123.525 L
233.595 122.983 L
234.558 122.444 L
235.52 121.906 L
236.482 121.369 L
237.444 120.834 L
238.407 120.3 L
239.369 119.768 L
240.331 119.238 L
241.293 118.709 L
242.256 118.182 L
243.218 117.656 L
244.18 117.132 L
245.143 116.61 L
246.105 116.089 L
247.067 115.57 L
248.029 115.053 L
248.992 114.537 L
249.954 114.023 L
250.916 113.51 L
251.878 113 L
252.841 112.491 L
253.803 111.983 L
254.765 111.478 L
255.728 110.974 L
256.69 110.472 L
257.652 109.972 L
258.614 109.473 L
259.577 108.977 L
260.539 108.482 L
261.501 107.989 L
262.463 107.497 L
263.426 107.008 L
264.388 106.52 L
265.35 106.035 L
266.313 105.551 L
267.275 105.069 L
268.237 104.589 L
269.199 104.111 L
270.162 103.634 L
271.124 103.16 L
272.086 102.687 L
273.048 102.217 L
274.011 101.748 L
274.973 101.282 L
275.935 100.817 L
276.897 100.355 L
277.86 99.894 L
278.822 99.436 L
279.784 98.979 L
280.747 98.524 L
281.709 98.072 L
282.671 97.621 L
283.633 97.173 L
284.596 96.727 L
285.558 96.283 L
286.52 95.84 L
287.482 95.4 L
288.445 94.963 L
289.407 94.527 L
290.369 94.093 L
291.332 93.662 L
292.294 93.232 L
293.256 92.805 L
294.218 92.38 L
295.181 91.958 L
296.143 91.537 L
297.105 91.119 L
298.067 90.703 L
299.03 90.289 L
299.992 89.877 L
300.954 89.468 L
301.916 89.061 L
302.879 88.656 L
303.841 88.254 L
304.803 87.854 L
305.766 87.456 L
306.728 87.06 L
307.69 86.667 L
308.652 86.276 L
309.615 85.888 L
310.577 85.502 L
311.539 85.118 L
312.501 84.737 L
313.464 84.358 L
314.426 83.981 L
315.388 83.607 L
316.351 83.235 L
317.313 82.866 L
318.275 82.5 L
319.237 82.135 L
320.2 81.774 L
321.162 81.414 L
322.124 81.058 L
323.086 80.703 L
324.049 80.352 L
325.011 80.002 L
325.973 79.656 L
326.935 79.312 L
327.898 78.97 L
328.86 78.631 L
329.822 78.295 L
330.785 77.961 L
331.747 77.63 L
332.709 77.302 L
333.671 76.976 L
334.634 76.653 L
335.596 76.332 L
336.558 76.014 L
337.52 75.699 L
338.483 75.387 L
339.445 75.077 L
340.407 74.77 L
341.37 74.465 L
342.332 74.164 L
343.294 73.865 L
344.256 73.569 L
345.219 73.275 L
346.181 72.985 L
347.143 72.697 L
348.105 72.412 L
349.068 72.13 L
350.03 71.85 L
350.992 71.574 L
351.954 71.3 L
352.917 71.03 L
353.879 70.762 L
354.841 70.497 L
355.804 70.234 L
356.766 69.975 L
357.728 69.719 L
358.69 69.465 L
359.653 69.215 L
360.615 68.967 L
361.577 68.723 L
362.539 68.481 L
363.502 68.242 L
364.464 68.007 L
365.426 67.774 L
366.389 67.544 L
367.351 67.318 L
368.313 67.094 L
369.275 66.874 L
370.238 66.656 L
371.2 66.442 L
372.162 66.23 L
373.124 66.022 L
374.087 65.817 L
375.049 65.615 L
376.011 65.416 L
376.973 65.22 L
377.936 65.027 L
378.898 64.838 L
379.86 64.652 L
380.823 64.468 L
381.785 64.289 L
382.747 64.112 L
383.709 63.938 L
384.672 63.768 L
385.634 63.601 L
386.596 63.437 L
387.558 63.276 L
388.521 63.119 L
389.483 62.965 L
390.445 62.814 L
391.408 62.666 L
392.37 62.522 L
393.332 62.381 L
394.294 62.244 L
395.257 62.109 L
396.219 61.978 L
397.181 61.851 L
398.143 61.727 L
399.106 61.606 L
400.068 61.489 L
401.03 61.375 L
401.992 61.264 L
402.955 61.157 L
403.917 61.054 L
404.879 60.953 L
405.842 60.857 L
406.804 60.763 L
407.766 60.674 L
408.728 60.587 L
409.691 60.505 L
410.653 60.425 L
411.615 60.35 L
412.577 60.277 L
413.54 60.209 L
414.502 60.144 L
415.464 60.082 L
416.427 60.024 L
417.389 59.97 L
418.351 59.919 L
419.313 59.872 L
420.276 59.828 L
421.238 59.789 L
422.2 59.752 L
423.162 59.72 L
424.125 59.691 L
425.087 59.666 L
426.049 59.644 L
427.012 59.626 L
427.974 59.612 L
428.936 59.602 L
429.898 59.595 L
430.861 59.593 L
S
GR
GS
0.467 0.675 0.188 RC
1 LJ
0.5 LW
N
73 372.78 M
73.962 312.962 L
74.925 282.579 L
75.887 263.377 L
76.849 251.461 L
77.811 244.032 L
78.774 237.617 L
79.736 232.186 L
80.698 227.736 L
81.66 224.266 L
82.623 221.774 L
83.585 220.244 L
84.547 219.059 L
85.51 217.881 L
86.472 216.709 L
87.434 215.543 L
88.396 214.383 L
89.359 213.23 L
90.321 212.082 L
91.283 210.941 L
92.245 209.805 L
93.208 208.676 L
94.17 207.553 L
95.132 206.436 L
96.094 205.324 L
97.057 204.219 L
98.019 203.12 L
98.981 202.026 L
99.944 200.939 L
100.906 199.858 L
101.868 198.782 L
102.83 197.712 L
103.793 196.649 L
104.755 195.591 L
105.717 194.539 L
106.679 193.493 L
107.642 192.452 L
108.604 191.418 L
109.566 190.389 L
110.529 189.366 L
111.491 188.349 L
112.453 187.338 L
113.415 186.332 L
114.378 185.332 L
115.34 184.338 L
116.302 183.35 L
117.264 182.367 L
118.227 181.39 L
119.189 180.419 L
120.151 179.453 L
121.113 178.493 L
122.076 177.538 L
123.038 176.589 L
124 175.646 L
124.963 174.708 L
125.925 173.776 L
126.887 172.849 L
127.849 171.928 L
128.812 171.012 L
129.774 170.102 L
130.736 169.198 L
131.698 168.298 L
132.661 167.405 L
133.623 166.516 L
134.585 165.634 L
135.548 164.756 L
136.51 163.884 L
137.472 163.017 L
138.434 162.156 L
139.397 161.3 L
140.359 160.45 L
141.321 159.604 L
142.283 158.765 L
143.246 157.93 L
144.208 157.101 L
145.17 156.277 L
146.132 155.458 L
147.095 154.644 L
148.057 153.836 L
149.019 153.033 L
149.982 152.235 L
150.944 151.442 L
151.906 150.654 L
152.868 149.872 L
153.831 149.094 L
154.793 148.322 L
155.755 147.555 L
156.717 146.793 L
157.68 146.036 L
158.642 145.284 L
159.604 144.537 L
160.567 143.796 L
161.529 143.059 L
162.491 142.327 L
163.453 141.6 L
164.416 140.879 L
165.378 140.162 L
166.34 139.45 L
167.302 138.743 L
168.265 138.041 L
169.227 137.344 L
170.189 136.652 L
171.151 135.964 L
172.114 135.282 L
173.076 134.604 L
174.038 133.932 L
175.001 133.264 L
175.963 132.6 L
176.925 131.942 L
177.887 131.288 L
178.85 130.64 L
179.812 129.996 L
180.774 129.356 L
181.736 128.722 L
182.699 128.092 L
183.661 127.466 L
184.623 126.846 L
185.586 126.23 L
186.548 125.619 L
187.51 125.012 L
188.472 124.41 L
189.435 123.813 L
190.397 123.22 L
191.359 122.631 L
192.321 122.048 L
193.284 121.469 L
194.246 120.894 L
195.208 120.324 L
196.17 119.758 L
197.133 119.197 L
198.095 118.64 L
199.057 118.088 L
200.02 117.54 L
200.982 116.997 L
201.944 116.458 L
202.906 115.924 L
203.869 115.394 L
204.831 114.868 L
205.793 114.346 L
206.755 113.829 L
207.718 113.316 L
208.68 112.808 L
209.642 112.304 L
210.605 111.804 L
211.567 111.308 L
212.529 110.817 L
213.491 110.33 L
214.454 109.847 L
215.416 109.368 L
216.378 108.894 L
217.34 108.423 L
218.303 107.957 L
219.265 107.495 L
220.227 107.038 L
221.189 106.584 L
222.152 106.134 L
223.114 105.689 L
224.076 105.247 L
225.039 104.81 L
226.001 104.377 L
226.963 103.947 L
227.925 103.522 L
228.888 103.101 L
229.85 102.683 L
230.812 102.27 L
231.774 101.861 L
232.737 101.455 L
233.699 101.054 L
234.661 100.656 L
235.624 100.263 L
236.586 99.873 L
237.548 99.487 L
238.51 99.105 L
239.473 98.727 L
240.435 98.353 L
241.397 97.982 L
242.359 97.615 L
243.322 97.252 L
244.284 96.893 L
245.246 96.538 L
246.208 96.186 L
247.171 95.838 L
248.133 95.494 L
249.095 95.154 L
250.058 94.817 L
251.02 94.484 L
251.982 94.154 L
252.944 93.829 L
253.907 93.506 L
254.869 93.188 L
255.831 92.873 L
256.793 92.561 L
257.756 92.254 L
258.718 91.949 L
259.68 91.649 L
260.643 91.351 L
261.605 91.058 L
262.567 90.768 L
263.529 90.481 L
264.492 90.198 L
265.454 89.918 L
266.416 89.641 L
267.378 89.369 L
268.341 89.099 L
269.303 88.833 L
270.265 88.57 L
271.228 88.311 L
272.19 88.055 L
273.152 87.802 L
274.114 87.553 L
275.077 87.307 L
276.039 87.064 L
277.001 86.825 L
277.963 86.589 L
278.926 86.356 L
279.888 86.126 L
280.85 85.899 L
281.812 85.676 L
282.775 85.456 L
283.737 85.239 L
284.699 85.025 L
285.662 84.815 L
286.624 84.608 L
287.586 84.403 L
288.548 84.202 L
289.511 84.004 L
290.473 83.809 L
291.435 83.617 L
292.397 83.428 L
293.36 83.242 L
294.322 83.059 L
295.284 82.879 L
296.247 82.702 L
297.209 82.529 L
298.171 82.358 L
299.133 82.19 L
300.096 82.025 L
301.058 81.862 L
302.02 81.703 L
302.982 81.547 L
303.945 81.393 L
304.907 81.243 L
305.869 81.095 L
306.831 80.95 L
307.794 80.808 L
308.756 80.669 L
309.718 80.532 L
310.681 80.398 L
311.643 80.267 L
312.605 80.139 L
313.567 80.014 L
314.53 79.891 L
315.492 79.771 L
316.454 79.653 L
317.416 79.539 L
318.379 79.427 L
319.341 79.317 L
320.303 79.21 L
321.266 79.106 L
322.228 79.004 L
323.19 78.905 L
324.152 78.809 L
325.115 78.715 L
326.077 78.624 L
327.039 78.535 L
328.001 78.449 L
328.964 78.365 L
329.926 78.283 L
330.888 78.205 L
331.85 78.128 L
332.813 78.054 L
333.775 77.983 L
334.737 77.914 L
335.7 77.847 L
336.662 77.782 L
337.624 77.72 L
338.586 77.661 L
339.549 77.604 L
340.511 77.549 L
341.473 77.496 L
342.435 77.446 L
343.398 77.397 L
344.36 77.352 L
345.322 77.308 L
346.285 77.267 L
347.247 77.228 L
348.209 77.191 L
349.171 77.156 L
350.134 77.123 L
351.096 77.093 L
352.058 77.065 L
353.02 77.039 L
353.983 77.015 L
354.945 76.993 L
355.907 76.973 L
356.869 76.956 L
357.832 76.94 L
358.794 76.926 L
359.756 76.915 L
360.719 76.905 L
361.681 76.898 L
362.643 76.892 L
363.605 76.889 L
364.568 76.887 L
S
GR
GS
0.302 0.745 0.933 RC
[10 6] 0 setdash
2 LJ
0.5 LW
N
73.881 301.96 M
74.843 274.8 L
75.805 255.003 L
76.768 247.383 L
77.73 241.436 L
78.692 236.615 L
79.654 232.761 L
80.617 229.713 L
81.579 227.312 L
82.541 225.399 L
83.503 223.785 L
84.466 222.28 L
85.428 220.866 L
86.39 219.538 L
87.352 218.291 L
88.315 217.121 L
89.277 216.023 L
90.239 214.993 L
91.202 214.025 L
92.164 213.115 L
93.126 212.258 L
94.088 211.45 L
95.051 210.686 L
96.013 209.961 L
96.975 209.27 L
97.937 208.61 L
98.9 207.974 L
99.862 207.359 L
100.824 206.759 L
101.787 206.171 L
102.749 205.589 L
103.711 205.008 L
104.673 204.425 L
105.636 203.834 L
106.598 203.23 L
107.56 202.609 L
108.522 201.979 L
109.485 201.348 L
110.447 200.718 L
111.409 200.088 L
112.371 199.458 L
113.334 198.828 L
114.296 198.198 L
115.258 197.568 L
116.221 196.938 L
117.183 196.309 L
118.145 195.679 L
119.107 195.05 L
120.07 194.42 L
121.032 193.791 L
121.994 193.162 L
122.956 192.533 L
123.919 191.904 L
124.881 191.276 L
125.843 190.648 L
126.806 190.02 L
127.768 189.392 L
128.73 188.764 L
129.692 188.137 L
130.655 187.51 L
131.617 186.883 L
132.579 186.256 L
133.541 185.63 L
134.504 185.004 L
135.466 184.378 L
136.428 183.753 L
137.39 183.127 L
138.353 182.503 L
139.315 181.878 L
140.277 181.254 L
141.24 180.63 L
142.202 180.007 L
143.164 179.384 L
144.126 178.761 L
145.089 178.139 L
146.051 177.517 L
147.013 176.896 L
147.975 176.275 L
148.938 175.654 L
149.9 175.034 L
150.862 174.414 L
151.825 173.795 L
152.787 173.176 L
153.749 172.558 L
154.711 171.94 L
155.674 171.323 L
156.636 170.707 L
157.598 170.09 L
158.56 169.475 L
159.523 168.86 L
160.485 168.245 L
161.447 167.631 L
162.41 167.018 L
163.372 166.405 L
164.334 165.793 L
165.296 165.181 L
166.259 164.57 L
167.221 163.96 L
168.183 163.35 L
169.145 162.741 L
170.108 162.133 L
171.07 161.525 L
172.032 160.918 L
172.994 160.312 L
173.957 159.706 L
174.919 159.101 L
175.881 158.497 L
176.844 157.893 L
177.806 157.291 L
178.768 156.688 L
179.73 156.087 L
180.693 155.487 L
181.655 154.887 L
182.617 154.288 L
183.579 153.69 L
184.542 153.093 L
185.504 152.496 L
186.466 151.9 L
187.428 151.305 L
188.391 150.711 L
189.353 150.118 L
190.315 149.526 L
191.278 148.935 L
192.24 148.344 L
193.202 147.755 L
194.164 147.166 L
195.127 146.578 L
196.089 145.991 L
197.051 145.405 L
198.013 144.82 L
198.976 144.236 L
199.938 143.653 L
200.9 143.071 L
201.863 142.49 L
202.825 141.91 L
203.787 141.331 L
204.749 140.753 L
205.712 140.176 L
206.674 139.6 L
207.636 139.025 L
208.598 138.451 L
209.561 137.878 L
210.523 137.307 L
211.485 136.736 L
212.447 136.166 L
213.41 135.598 L
214.372 135.031 L
215.334 134.465 L
216.297 133.9 L
217.259 133.336 L
218.221 132.773 L
219.183 132.211 L
220.146 131.651 L
221.108 131.092 L
222.07 130.534 L
223.032 129.977 L
223.995 129.421 L
224.957 128.867 L
225.919 128.314 L
226.882 127.762 L
227.844 127.212 L
228.806 126.662 L
229.768 126.114 L
230.731 125.567 L
231.693 125.022 L
232.655 124.478 L
233.617 123.935 L
234.58 123.393 L
235.542 122.853 L
236.504 122.314 L
237.467 121.777 L
238.429 121.241 L
239.391 120.706 L
240.353 120.173 L
241.316 119.641 L
242.278 119.11 L
243.24 118.581 L
244.202 118.054 L
245.165 117.528 L
246.127 117.003 L
247.089 116.48 L
248.051 115.958 L
249.014 115.437 L
249.976 114.918 L
250.938 114.401 L
251.901 113.885 L
252.863 113.371 L
253.825 112.858 L
254.787 112.347 L
255.75 111.837 L
256.712 111.329 L
257.674 110.822 L
258.636 110.317 L
259.599 109.814 L
260.561 109.312 L
261.523 108.812 L
262.486 108.313 L
263.448 107.816 L
264.41 107.321 L
265.372 106.827 L
266.335 106.335 L
267.297 105.845 L
268.259 105.356 L
269.221 104.869 L
270.184 104.384 L
271.146 103.901 L
272.108 103.419 L
273.07 102.939 L
274.033 102.46 L
274.995 101.984 L
275.957 101.509 L
276.92 101.036 L
277.882 100.564 L
278.844 100.095 L
279.806 99.627 L
280.769 99.161 L
281.731 98.697 L
282.693 98.235 L
283.655 97.775 L
284.618 97.316 L
285.58 96.859 L
286.542 96.404 L
287.505 95.951 L
288.467 95.5 L
289.429 95.051 L
290.391 94.604 L
291.354 94.159 L
292.316 93.715 L
293.278 93.274 L
294.24 92.834 L
295.203 92.397 L
296.165 91.961 L
297.127 91.528 L
298.089 91.096 L
299.052 90.667 L
300.014 90.239 L
300.976 89.813 L
301.939 89.39 L
302.901 88.968 L
303.863 88.549 L
304.825 88.131 L
305.788 87.716 L
306.75 87.303 L
307.712 86.892 L
308.674 86.483 L
309.637 86.076 L
310.599 85.671 L
311.561 85.268 L
312.524 84.868 L
313.486 84.47 L
314.448 84.073 L
315.41 83.679 L
316.373 83.287 L
317.335 82.898 L
318.297 82.51 L
319.259 82.125 L
320.222 81.742 L
321.184 81.361 L
322.146 80.983 L
323.108 80.606 L
324.071 80.232 L
325.033 79.86 L
325.995 79.491 L
326.958 79.124 L
327.92 78.759 L
328.882 78.396 L
329.844 78.036 L
330.807 77.678 L
331.769 77.322 L
332.731 76.969 L
333.693 76.618 L
334.656 76.27 L
335.618 75.924 L
336.58 75.58 L
337.543 75.239 L
338.505 74.9 L
339.467 74.563 L
340.429 74.229 L
341.392 73.897 L
342.354 73.568 L
343.316 73.241 L
344.278 72.917 L
345.241 72.595 L
346.203 72.276 L
347.165 71.959 L
348.128 71.645 L
349.09 71.333 L
350.052 71.024 L
351.014 70.718 L
351.977 70.413 L
352.939 70.112 L
353.901 69.813 L
354.863 69.517 L
355.826 69.223 L
356.788 68.932 L
357.75 68.643 L
358.712 68.357 L
359.675 68.074 L
360.637 67.793 L
361.599 67.515 L
362.562 67.24 L
363.524 66.967 L
364.486 66.697 L
365.448 66.43 L
366.411 66.165 L
367.373 65.903 L
368.335 65.644 L
369.297 65.387 L
370.26 65.134 L
371.222 64.883 L
372.184 64.635 L
373.146 64.389 L
374.109 64.146 L
375.071 63.907 L
376.033 63.67 L
376.996 63.435 L
377.958 63.204 L
378.92 62.975 L
379.882 62.75 L
380.845 62.527 L
381.807 62.307 L
382.769 62.09 L
383.731 61.875 L
384.694 61.664 L
385.656 61.456 L
386.618 61.25 L
387.581 61.047 L
388.543 60.848 L
389.505 60.651 L
390.467 60.457 L
391.43 60.266 L
392.392 60.079 L
393.354 59.894 L
394.316 59.712 L
395.279 59.533 L
396.241 59.357 L
397.203 59.184 L
398.165 59.014 L
399.128 58.847 L
400.09 58.684 L
401.052 58.523 L
402.015 58.366 L
402.977 58.211 L
403.939 58.06 L
404.901 57.911 L
405.864 57.766 L
406.826 57.624 L
407.788 57.485 L
408.75 57.349 L
409.713 57.217 L
410.675 57.087 L
411.637 56.961 L
412.6 56.838 L
413.562 56.718 L
414.524 56.601 L
415.486 56.488 L
416.449 56.378 L
417.411 56.271 L
418.373 56.167 L
419.335 56.066 L
420.298 55.969 L
421.26 55.875 L
422.222 55.784 L
423.185 55.697 L
424.147 55.613 L
425.109 55.532 L
426.071 55.454 L
427.034 55.38 L
427.996 55.31 L
428.958 55.242 L
429.92 55.178 L
430.883 55.117 L
431.845 55.06 L
432.807 55.006 L
433.769 54.956 L
434.732 54.909 L
435.694 54.865 L
436.656 54.825 L
437.619 54.788 L
438.581 54.754 L
439.543 54.724 L
440.505 54.698 L
441.468 54.675 L
442.43 54.656 L
443.392 54.64 L
444.354 54.627 L
S
GR
GS
0.635 0.078 0.184 RC
[10 6] 0 setdash
2 LJ
0.5 LW
N
73.807 311.251 M
74.769 280.209 L
75.731 258.803 L
76.693 246.702 L
77.656 237.357 L
78.618 230.64 L
79.58 226.324 L
80.542 222.928 L
81.505 219.957 L
82.467 217.382 L
83.429 215.176 L
84.391 213.309 L
85.354 211.751 L
86.316 210.474 L
87.278 209.448 L
88.241 208.511 L
89.203 207.578 L
90.165 206.648 L
91.127 205.722 L
92.09 204.798 L
93.052 203.879 L
94.014 202.962 L
94.976 202.05 L
95.939 201.14 L
96.901 200.234 L
97.863 199.331 L
98.826 198.432 L
99.788 197.536 L
100.75 196.643 L
101.712 195.753 L
102.675 194.868 L
103.637 193.985 L
104.599 193.106 L
105.561 192.23 L
106.524 191.357 L
107.486 190.488 L
108.448 189.622 L
109.41 188.759 L
110.373 187.9 L
111.335 187.044 L
112.297 186.192 L
113.26 185.343 L
114.222 184.497 L
115.184 183.654 L
116.146 182.815 L
117.109 181.979 L
118.071 181.146 L
119.033 180.317 L
119.995 179.491 L
120.958 178.668 L
121.92 177.849 L
122.882 177.033 L
123.845 176.22 L
124.807 175.41 L
125.769 174.604 L
126.731 173.801 L
127.694 173.002 L
128.656 172.205 L
129.618 171.412 L
130.58 170.622 L
131.543 169.836 L
132.505 169.053 L
133.467 168.273 L
134.43 167.496 L
135.392 166.723 L
136.354 165.953 L
137.316 165.186 L
138.279 164.422 L
139.241 163.662 L
140.203 162.905 L
141.165 162.151 L
142.128 161.4 L
143.09 160.653 L
144.052 159.909 L
145.014 159.168 L
145.977 158.43 L
146.939 157.696 L
147.901 156.964 L
148.864 156.236 L
149.826 155.512 L
150.788 154.79 L
151.75 154.072 L
152.713 153.357 L
153.675 152.645 L
154.637 151.936 L
155.599 151.231 L
156.562 150.529 L
157.524 149.83 L
158.486 149.134 L
159.449 148.441 L
160.411 147.752 L
161.373 147.065 L
162.335 146.382 L
163.298 145.702 L
164.26 145.026 L
165.222 144.352 L
166.184 143.682 L
167.147 143.015 L
168.109 142.351 L
169.071 141.69 L
170.033 141.032 L
170.996 140.378 L
171.958 139.727 L
172.92 139.079 L
173.883 138.434 L
174.845 137.792 L
175.807 137.153 L
176.769 136.518 L
177.732 135.885 L
178.694 135.256 L
179.656 134.63 L
180.618 134.007 L
181.581 133.387 L
182.543 132.771 L
183.505 132.157 L
184.468 131.547 L
185.43 130.939 L
186.392 130.335 L
187.354 129.734 L
188.317 129.136 L
189.279 128.541 L
190.241 127.95 L
191.203 127.361 L
192.166 126.776 L
193.128 126.193 L
194.09 125.614 L
195.052 125.038 L
196.015 124.465 L
196.977 123.895 L
197.939 123.328 L
198.902 122.764 L
199.864 122.203 L
200.826 121.646 L
201.788 121.091 L
202.751 120.54 L
203.713 119.991 L
204.675 119.446 L
205.637 118.904 L
206.6 118.365 L
207.562 117.828 L
208.524 117.295 L
209.487 116.765 L
210.449 116.238 L
211.411 115.715 L
212.373 115.194 L
213.336 114.676 L
214.298 114.161 L
215.26 113.649 L
216.222 113.141 L
217.185 112.635 L
218.147 112.132 L
219.109 111.633 L
220.071 111.136 L
221.034 110.643 L
221.996 110.152 L
222.958 109.665 L
223.921 109.181 L
224.883 108.699 L
225.845 108.221 L
226.807 107.745 L
227.77 107.273 L
228.732 106.803 L
229.694 106.337 L
230.656 105.874 L
231.619 105.413 L
232.581 104.956 L
233.543 104.501 L
234.506 104.05 L
235.468 103.602 L
236.43 103.156 L
237.392 102.714 L
238.355 102.274 L
239.317 101.838 L
240.279 101.404 L
241.241 100.973 L
242.204 100.546 L
243.166 100.121 L
244.128 99.699 L
245.09 99.281 L
246.053 98.865 L
247.015 98.452 L
247.977 98.042 L
248.94 97.635 L
249.902 97.231 L
250.864 96.83 L
251.826 96.432 L
252.789 96.037 L
253.751 95.645 L
254.713 95.256 L
255.675 94.869 L
256.638 94.486 L
257.6 94.105 L
258.562 93.728 L
259.525 93.353 L
260.487 92.981 L
261.449 92.612 L
262.411 92.247 L
263.374 91.883 L
264.336 91.523 L
265.298 91.166 L
266.26 90.812 L
267.223 90.46 L
268.185 90.112 L
269.147 89.766 L
270.109 89.423 L
271.072 89.084 L
272.034 88.747 L
272.996 88.413 L
273.959 88.081 L
274.921 87.753 L
275.883 87.427 L
276.845 87.105 L
277.808 86.785 L
278.77 86.468 L
279.732 86.154 L
280.694 85.843 L
281.657 85.535 L
282.619 85.229 L
283.581 84.927 L
284.544 84.627 L
285.506 84.33 L
286.468 84.036 L
287.43 83.745 L
288.393 83.456 L
289.355 83.171 L
290.317 82.888 L
291.279 82.608 L
292.242 82.331 L
293.204 82.057 L
294.166 81.786 L
295.128 81.517 L
296.091 81.251 L
297.053 80.988 L
298.015 80.728 L
298.978 80.471 L
299.94 80.216 L
300.902 79.965 L
301.864 79.716 L
302.827 79.469 L
303.789 79.226 L
304.751 78.986 L
305.713 78.748 L
306.676 78.513 L
307.638 78.281 L
308.6 78.051 L
309.563 77.825 L
310.525 77.601 L
311.487 77.38 L
312.449 77.161 L
313.412 76.946 L
314.374 76.733 L
315.336 76.523 L
316.298 76.316 L
317.261 76.111 L
318.223 75.909 L
319.185 75.71 L
320.147 75.514 L
321.11 75.321 L
322.072 75.13 L
323.034 74.942 L
323.997 74.757 L
324.959 74.574 L
325.921 74.394 L
326.883 74.217 L
327.846 74.043 L
328.808 73.871 L
329.77 73.702 L
330.732 73.536 L
331.695 73.372 L
332.657 73.212 L
333.619 73.054 L
334.582 72.898 L
335.544 72.746 L
336.506 72.596 L
337.468 72.448 L
338.431 72.304 L
339.393 72.162 L
340.355 72.023 L
341.317 71.886 L
342.28 71.753 L
343.242 71.622 L
344.204 71.493 L
345.167 71.367 L
346.129 71.244 L
347.091 71.124 L
348.053 71.006 L
349.016 70.891 L
349.978 70.779 L
350.94 70.669 L
351.902 70.562 L
352.865 70.457 L
353.827 70.356 L
354.789 70.257 L
355.751 70.16 L
356.714 70.066 L
357.676 69.975 L
358.638 69.887 L
359.601 69.801 L
360.563 69.717 L
361.525 69.637 L
362.487 69.559 L
363.45 69.483 L
364.412 69.411 L
365.374 69.341 L
366.336 69.273 L
367.299 69.208 L
368.261 69.146 L
369.223 69.086 L
370.185 69.029 L
371.148 68.975 L
372.11 68.923 L
373.072 68.874 L
374.035 68.827 L
374.997 68.783 L
375.959 68.741 L
376.921 68.702 L
377.884 68.666 L
378.846 68.633 L
379.808 68.601 L
380.77 68.573 L
381.733 68.547 L
382.695 68.523 L
383.657 68.503 L
384.62 68.484 L
385.582 68.469 L
386.544 68.456 L
387.506 68.445 L
388.469 68.437 L
389.431 68.431 L
390.393 68.429 L
S
GR
GS
0 0.447 0.741 RC
[10 6] 0 setdash
2 LJ
0.5 LW
N
73.774 306.112 M
74.737 276.624 L
75.699 256.25 L
76.661 248.555 L
77.623 242.392 L
78.586 237.462 L
79.548 233.577 L
80.51 230.547 L
81.473 228.185 L
82.435 226.304 L
83.397 224.649 L
84.359 223.095 L
85.322 221.639 L
86.284 220.274 L
87.246 218.995 L
88.208 217.798 L
89.171 216.676 L
90.133 215.625 L
91.095 214.64 L
92.058 213.714 L
93.02 212.844 L
93.982 212.024 L
94.944 211.248 L
95.907 210.511 L
96.869 209.809 L
97.831 209.136 L
98.793 208.486 L
99.756 207.855 L
100.718 207.238 L
101.68 206.628 L
102.642 206.022 L
103.605 205.413 L
104.567 204.797 L
105.529 204.168 L
106.492 203.521 L
107.454 202.869 L
108.416 202.216 L
109.378 201.564 L
110.341 200.912 L
111.303 200.26 L
112.265 199.609 L
113.227 198.957 L
114.19 198.306 L
115.152 197.654 L
116.114 197.003 L
117.077 196.352 L
118.039 195.702 L
119.001 195.051 L
119.963 194.401 L
120.926 193.751 L
121.888 193.102 L
122.85 192.452 L
123.812 191.803 L
124.775 191.154 L
125.737 190.506 L
126.699 189.858 L
127.661 189.21 L
128.624 188.562 L
129.586 187.915 L
130.548 187.268 L
131.511 186.622 L
132.473 185.976 L
133.435 185.33 L
134.397 184.685 L
135.36 184.04 L
136.322 183.395 L
137.284 182.751 L
138.246 182.108 L
139.209 181.465 L
140.171 180.822 L
141.133 180.18 L
142.096 179.538 L
143.058 178.897 L
144.02 178.257 L
144.982 177.617 L
145.945 176.977 L
146.907 176.338 L
147.869 175.7 L
148.831 175.062 L
149.794 174.424 L
150.756 173.788 L
151.718 173.152 L
152.68 172.516 L
153.643 171.881 L
154.605 171.247 L
155.567 170.614 L
156.53 169.981 L
157.492 169.349 L
158.454 168.717 L
159.416 168.086 L
160.379 167.456 L
161.341 166.827 L
162.303 166.198 L
163.265 165.57 L
164.228 164.943 L
165.19 164.317 L
166.152 163.691 L
167.115 163.066 L
168.077 162.442 L
169.039 161.819 L
170.001 161.197 L
170.964 160.575 L
171.926 159.954 L
172.888 159.334 L
173.85 158.715 L
174.813 158.097 L
175.775 157.48 L
176.737 156.864 L
177.699 156.248 L
178.662 155.634 L
179.624 155.02 L
180.586 154.407 L
181.549 153.796 L
182.511 153.185 L
183.473 152.575 L
184.435 151.966 L
185.398 151.359 L
186.36 150.752 L
187.322 150.146 L
188.284 149.542 L
189.247 148.938 L
190.209 148.335 L
191.171 147.734 L
192.134 147.133 L
193.096 146.534 L
194.058 145.936 L
195.02 145.339 L
195.983 144.743 L
196.945 144.148 L
197.907 143.554 L
198.869 142.961 L
199.832 142.37 L
200.794 141.78 L
201.756 141.19 L
202.719 140.603 L
203.681 140.016 L
204.643 139.431 L
205.605 138.846 L
206.568 138.263 L
207.53 137.682 L
208.492 137.101 L
209.454 136.522 L
210.417 135.944 L
211.379 135.368 L
212.341 134.793 L
213.303 134.219 L
214.266 133.646 L
215.228 133.075 L
216.19 132.505 L
217.153 131.937 L
218.115 131.369 L
219.077 130.804 L
220.039 130.239 L
221.002 129.677 L
221.964 129.115 L
222.926 128.555 L
223.888 127.996 L
224.851 127.439 L
225.813 126.884 L
226.775 126.329 L
227.738 125.777 L
228.7 125.225 L
229.662 124.676 L
230.624 124.128 L
231.587 123.581 L
232.549 123.036 L
233.511 122.492 L
234.473 121.951 L
235.436 121.41 L
236.398 120.872 L
237.36 120.334 L
238.322 119.799 L
239.285 119.265 L
240.247 118.733 L
241.209 118.202 L
242.172 117.673 L
243.134 117.146 L
244.096 116.62 L
245.058 116.096 L
246.021 115.574 L
246.983 115.054 L
247.945 114.535 L
248.907 114.018 L
249.87 113.503 L
250.832 112.989 L
251.794 112.477 L
252.757 111.967 L
253.719 111.459 L
254.681 110.953 L
255.643 110.448 L
256.606 109.946 L
257.568 109.445 L
258.53 108.946 L
259.492 108.449 L
260.455 107.953 L
261.417 107.46 L
262.379 106.969 L
263.341 106.479 L
264.304 105.991 L
265.266 105.506 L
266.228 105.022 L
267.191 104.54 L
268.153 104.06 L
269.115 103.582 L
270.077 103.106 L
271.04 102.633 L
272.002 102.161 L
272.964 101.691 L
273.926 101.223 L
274.889 100.757 L
275.851 100.293 L
276.813 99.832 L
277.776 99.372 L
278.738 98.915 L
279.7 98.459 L
280.662 98.006 L
281.625 97.555 L
282.587 97.106 L
283.549 96.659 L
284.511 96.214 L
285.474 95.771 L
286.436 95.331 L
287.398 94.893 L
288.36 94.457 L
289.323 94.023 L
290.285 93.591 L
291.247 93.162 L
292.21 92.735 L
293.172 92.31 L
294.134 91.887 L
295.096 91.467 L
296.059 91.049 L
297.021 90.633 L
297.983 90.22 L
298.945 89.809 L
299.908 89.4 L
300.87 88.993 L
301.832 88.589 L
302.795 88.188 L
303.757 87.788 L
304.719 87.391 L
305.681 86.997 L
306.644 86.605 L
307.606 86.215 L
308.568 85.828 L
309.53 85.443 L
310.493 85.061 L
311.455 84.681 L
312.417 84.303 L
313.379 83.928 L
314.342 83.556 L
315.304 83.186 L
316.266 82.819 L
317.229 82.454 L
318.191 82.092 L
319.153 81.732 L
320.115 81.375 L
321.078 81.02 L
322.04 80.668 L
323.002 80.319 L
323.964 79.972 L
324.927 79.628 L
325.889 79.286 L
326.851 78.947 L
327.814 78.611 L
328.776 78.278 L
329.738 77.947 L
330.7 77.619 L
331.663 77.293 L
332.625 76.971 L
333.587 76.65 L
334.549 76.333 L
335.512 76.019 L
336.474 75.707 L
337.436 75.398 L
338.398 75.092 L
339.361 74.788 L
340.323 74.488 L
341.285 74.19 L
342.248 73.895 L
343.21 73.603 L
344.172 73.313 L
345.134 73.027 L
346.097 72.743 L
347.059 72.463 L
348.021 72.185 L
348.983 71.91 L
349.946 71.638 L
350.908 71.369 L
351.87 71.103 L
352.833 70.84 L
353.795 70.58 L
354.757 70.323 L
355.719 70.068 L
356.682 69.817 L
357.644 69.569 L
358.606 69.324 L
359.568 69.082 L
360.531 68.843 L
361.493 68.606 L
362.455 68.373 L
363.417 68.144 L
364.38 67.917 L
365.342 67.693 L
366.304 67.472 L
367.267 67.255 L
368.229 67.04 L
369.191 66.829 L
370.153 66.621 L
371.116 66.416 L
372.078 66.214 L
373.04 66.016 L
374.002 65.82 L
374.965 65.628 L
375.927 65.439 L
376.889 65.254 L
377.852 65.071 L
378.814 64.892 L
379.776 64.716 L
380.738 64.543 L
381.701 64.374 L
382.663 64.208 L
383.625 64.045 L
384.587 63.885 L
385.55 63.729 L
386.512 63.577 L
387.474 63.427 L
388.436 63.281 L
389.399 63.138 L
390.361 62.999 L
391.323 62.863 L
392.286 62.731 L
393.248 62.601 L
394.21 62.476 L
395.172 62.354 L
396.135 62.235 L
397.097 62.12 L
398.059 62.008 L
399.021 61.9 L
399.984 61.795 L
400.946 61.693 L
401.908 61.596 L
402.871 61.501 L
403.833 61.411 L
404.795 61.324 L
405.757 61.24 L
406.72 61.16 L
407.682 61.084 L
408.644 61.011 L
409.606 60.942 L
410.569 60.876 L
411.531 60.814 L
412.493 60.756 L
413.456 60.701 L
414.418 60.65 L
415.38 60.603 L
416.342 60.559 L
417.305 60.519 L
418.267 60.483 L
419.229 60.451 L
420.191 60.422 L
421.154 60.397 L
422.116 60.376 L
423.078 60.359 L
424.04 60.345 L
425.003 60.335 L
425.965 60.329 L
426.927 60.327 L
S
GR
GS
0.851 0.325 0.098 RC
[10 6] 0 setdash
2 LJ
0.5 LW
N
73.03 374 M
73.992 313.605 L
74.955 283.198 L
75.917 263.866 L
76.879 251.945 L
77.841 244.407 L
78.804 237.892 L
79.766 232.389 L
80.728 227.9 L
81.69 224.43 L
82.653 221.981 L
83.615 220.517 L
84.577 219.327 L
85.539 218.143 L
86.502 216.965 L
87.464 215.793 L
88.426 214.627 L
89.389 213.468 L
90.351 212.315 L
91.313 211.168 L
92.275 210.027 L
93.238 208.892 L
94.2 207.763 L
95.162 206.641 L
96.124 205.524 L
97.087 204.414 L
98.049 203.309 L
99.011 202.211 L
99.974 201.119 L
100.936 200.033 L
101.898 198.952 L
102.86 197.878 L
103.823 196.81 L
104.785 195.747 L
105.747 194.691 L
106.709 193.64 L
107.672 192.596 L
108.634 191.557 L
109.596 190.524 L
110.559 189.497 L
111.521 188.476 L
112.483 187.461 L
113.445 186.451 L
114.408 185.448 L
115.37 184.45 L
116.332 183.458 L
117.294 182.471 L
118.257 181.491 L
119.219 180.516 L
120.181 179.547 L
121.143 178.583 L
122.106 177.625 L
123.068 176.673 L
124.03 175.727 L
124.993 174.786 L
125.955 173.851 L
126.917 172.921 L
127.879 171.997 L
128.842 171.079 L
129.804 170.166 L
130.766 169.259 L
131.728 168.357 L
132.691 167.461 L
133.653 166.57 L
134.615 165.685 L
135.578 164.805 L
136.54 163.931 L
137.502 163.062 L
138.464 162.198 L
139.427 161.34 L
140.389 160.488 L
141.351 159.641 L
142.313 158.799 L
143.276 157.962 L
144.238 157.131 L
145.2 156.305 L
146.162 155.485 L
147.125 154.669 L
148.087 153.859 L
149.049 153.055 L
150.012 152.255 L
150.974 151.461 L
151.936 150.672 L
152.898 149.888 L
153.861 149.11 L
154.823 148.336 L
155.785 147.568 L
156.747 146.805 L
157.71 146.047 L
158.672 145.294 L
159.634 144.547 L
160.597 143.804 L
161.559 143.066 L
162.521 142.334 L
163.483 141.606 L
164.446 140.884 L
165.408 140.166 L
166.37 139.454 L
167.332 138.747 L
168.295 138.044 L
169.257 137.347 L
170.219 136.654 L
171.181 135.966 L
172.144 135.284 L
173.106 134.606 L
174.068 133.933 L
175.031 133.265 L
175.993 132.601 L
176.955 131.943 L
177.917 131.289 L
178.88 130.64 L
179.842 129.996 L
180.804 129.357 L
181.766 128.723 L
182.729 128.093 L
183.691 127.468 L
184.653 126.848 L
185.616 126.232 L
186.578 125.621 L
187.54 125.015 L
188.502 124.413 L
189.465 123.817 L
190.427 123.224 L
191.389 122.636 L
192.351 122.053 L
193.314 121.475 L
194.276 120.901 L
195.238 120.332 L
196.2 119.767 L
197.163 119.206 L
198.125 118.65 L
199.087 118.099 L
200.05 117.552 L
201.012 117.01 L
201.974 116.472 L
202.936 115.938 L
203.899 115.409 L
204.861 114.884 L
205.823 114.364 L
206.785 113.848 L
207.748 113.337 L
208.71 112.829 L
209.672 112.326 L
210.635 111.828 L
211.597 111.333 L
212.559 110.843 L
213.521 110.358 L
214.484 109.876 L
215.446 109.399 L
216.408 108.926 L
217.37 108.457 L
218.333 107.992 L
219.295 107.532 L
220.257 107.076 L
221.219 106.623 L
222.182 106.175 L
223.144 105.732 L
224.106 105.292 L
225.069 104.856 L
226.031 104.424 L
226.993 103.997 L
227.955 103.573 L
228.918 103.154 L
229.88 102.738 L
230.842 102.327 L
231.804 101.919 L
232.767 101.516 L
233.729 101.116 L
234.691 100.721 L
235.654 100.329 L
236.616 99.941 L
237.578 99.557 L
238.54 99.177 L
239.503 98.801 L
240.465 98.429 L
241.427 98.06 L
242.389 97.696 L
243.352 97.335 L
244.314 96.978 L
245.276 96.624 L
246.238 96.275 L
247.201 95.929 L
248.163 95.587 L
249.125 95.249 L
250.088 94.914 L
251.05 94.583 L
252.012 94.256 L
252.974 93.932 L
253.937 93.613 L
254.899 93.296 L
255.861 92.984 L
256.823 92.674 L
257.786 92.369 L
258.748 92.067 L
259.71 91.769 L
260.673 91.474 L
261.635 91.182 L
262.597 90.895 L
263.559 90.61 L
264.522 90.329 L
265.484 90.052 L
266.446 89.778 L
267.408 89.507 L
268.371 89.24 L
269.333 88.977 L
270.295 88.716 L
271.258 88.459 L
272.22 88.206 L
273.182 87.955 L
274.144 87.709 L
275.107 87.465 L
276.069 87.225 L
277.031 86.988 L
277.993 86.754 L
278.956 86.523 L
279.918 86.296 L
280.88 86.072 L
281.842 85.851 L
282.805 85.634 L
283.767 85.419 L
284.729 85.208 L
285.692 85 L
286.654 84.795 L
287.616 84.593 L
288.578 84.394 L
289.541 84.199 L
290.503 84.006 L
291.465 83.817 L
292.427 83.63 L
293.39 83.447 L
294.352 83.266 L
295.314 83.089 L
296.277 82.915 L
297.239 82.743 L
298.201 82.575 L
299.163 82.409 L
300.126 82.246 L
301.088 82.087 L
302.05 81.93 L
303.012 81.776 L
303.975 81.625 L
304.937 81.477 L
305.899 81.331 L
306.861 81.189 L
307.824 81.049 L
308.786 80.912 L
309.748 80.778 L
310.711 80.646 L
311.673 80.518 L
312.635 80.392 L
313.597 80.268 L
314.56 80.148 L
315.522 80.03 L
316.484 79.915 L
317.446 79.802 L
318.409 79.693 L
319.371 79.585 L
320.333 79.481 L
321.296 79.379 L
322.258 79.279 L
323.22 79.182 L
324.182 79.088 L
325.145 78.996 L
326.107 78.907 L
327.069 78.82 L
328.031 78.736 L
328.994 78.654 L
329.956 78.575 L
330.918 78.498 L
331.88 78.424 L
332.843 78.352 L
333.805 78.282 L
334.767 78.215 L
335.73 78.15 L
336.692 78.088 L
337.654 78.028 L
338.616 77.97 L
339.579 77.914 L
340.541 77.861 L
341.503 77.81 L
342.465 77.762 L
343.428 77.716 L
344.39 77.671 L
345.352 77.63 L
346.315 77.59 L
347.277 77.552 L
348.239 77.517 L
349.201 77.484 L
350.164 77.453 L
351.126 77.424 L
352.088 77.397 L
353.05 77.373 L
354.013 77.35 L
354.975 77.33 L
355.937 77.312 L
356.899 77.295 L
357.862 77.281 L
358.824 77.269 L
359.786 77.258 L
360.749 77.25 L
361.711 77.244 L
362.673 77.24 L
363.635 77.237 L
S
GR
GS
1 GC
N
499 366 M
499 218.5 L
327.5 218.5 L
327.5 366 L
cp
f
GR
GS
[1 0 0 1 364.5 228.25] CT
/Helvetica 13 F
GS
[1 0 0 1 0 0] CT
0 5 moveto 
1 -1 scale
(Base Run) t 
GR
GR
GS
0 0.447 0.741 RC
1 LJ
0.5 LW
N
331.5 228.25 M
361.5 228.25 L
S
GR
GS
[1 0 0 1 364.5 244.25] CT
/Helvetica 13 F
GS
[1 0 0 1 0 0] CT
0 5 moveto 
1 -1 scale
(All Frames) t 
GR
GR
GS
0.851 0.325 0.098 RC
1 LJ
0.5 LW
N
331.5 244.25 M
361.5 244.25 L
S
GR
GS
[1 0 0 1 364.5 260.25] CT
/Helvetica 13 F
GS
[1 0 0 1 0 0] CT
0 5 moveto 
1 -1 scale
(KF Only) t 
GR
GR
GS
0.929 0.694 0.125 RC
1 LJ
0.5 LW
N
331.5 260.25 M
361.5 260.25 L
S
GR
GS
[1 0 0 1 364.5 276.25] CT
/Helvetica 13 F
GS
[1 0 0 1 0 0] CT
0 5 moveto 
1 -1 scale
(GF, ARF Only) t 
GR
GR
GS
0.494 0.184 0.557 RC
1 LJ
0.5 LW
N
331.5 276.25 M
361.5 276.25 L
S
GR
GS
[1 0 0 1 364.5 292.25] CT
/Helvetica 13 F
GS
[1 0 0 1 0 0] CT
0 5 moveto 
1 -1 scale
(KF, GF, ARF Only) t 
GR
GR
GS
0.467 0.675 0.188 RC
1 LJ
0.5 LW
N
331.5 292.25 M
361.5 292.25 L
S
GR
GS
[1 0 0 1 364.5 308.25] CT
/Helvetica 13 F
GS
[1 0 0 1 0 0] CT
0 5 moveto 
1 -1 scale
(Part All Frames) t 
GR
GR
GS
0.302 0.745 0.933 RC
[10 6] 0 setdash
2 LJ
0.5 LW
N
331.5 308.25 M
361.5 308.25 L
S
GR
GS
[1 0 0 1 364.5 324.25] CT
/Helvetica 13 F
GS
[1 0 0 1 0 0] CT
0 5 moveto 
1 -1 scale
(Part KF Only) t 
GR
GR
GS
0.635 0.078 0.184 RC
[10 6] 0 setdash
2 LJ
0.5 LW
N
331.5 324.25 M
361.5 324.25 L
S
GR
GS
[1 0 0 1 364.5 340.25] CT
/Helvetica 13 F
GS
[1 0 0 1 0 0] CT
0 5 moveto 
1 -1 scale
(Part GF, ARF Only) t 
GR
GR
GS
0 0.447 0.741 RC
[10 6] 0 setdash
2 LJ
0.5 LW
N
331.5 340.25 M
361.5 340.25 L
S
GR
GS
[1 0 0 1 364.5 356.25] CT
/Helvetica 13 F
GS
[1 0 0 1 0 0] CT
0 5 moveto 
1 -1 scale
(Part KF, GF, ARF Only) t 
GR
GR
GS
0.851 0.325 0.098 RC
[10 6] 0 setdash
2 LJ
0.5 LW
N
331.5 356.25 M
361.5 356.25 L
S
GR
GS
0.149 GC
10.0 ML
0.5 LW
N
327.5 366 M
327.5 218.5 L
499 218.5 L
499 366 L
cp
S
GR
%%Trailer
%%Pages: 1
%%EOF
