%!PS-Adobe-3.0 EPSF-3.0
%%Creator: (MATLAB, The Mathworks, Inc. Version 9.11.0.1837725 \(R2021b\) Update 2. Operating System: Mac OS X)
%%Title: plots/pchip/DinnerSceneCropped_1920x1080_2997fps_10bit_420.y4m-hevc-DE2K.eps
%%CreationDate: 2022-02-03T19:14:03
%%Pages: (atend)
%%BoundingBox:    22   425   531   826
%%LanguageLevel: 3
%%EndComments
%%BeginProlog
%%BeginResource: procset (Apache XML Graphics Std ProcSet) 1.2 0
%%Version: 1.2 0
%%Copyright: (Copyright 2001-2003,2010 The Apache Software Foundation. License terms: http://www.apache.org/licenses/LICENSE-2.0)
/bd{bind def}bind def
/ld{load def}bd
/GR/grestore ld
/GS/gsave ld
/RM/rmoveto ld
/C/curveto ld
/t/show ld
/L/lineto ld
/ML/setmiterlimit ld
/CT/concat ld
/f/fill ld
/N/newpath ld
/S/stroke ld
/CC/setcmykcolor ld
/A/ashow ld
/cp/closepath ld
/RC/setrgbcolor ld
/LJ/setlinejoin ld
/GC/setgray ld
/LW/setlinewidth ld
/M/moveto ld
/re {4 2 roll M
1 index 0 rlineto
0 exch rlineto
neg 0 rlineto
cp } bd
/_ctm matrix def
/_tm matrix def
/BT { _ctm currentmatrix pop matrix _tm copy pop 0 0 moveto } bd
/ET { _ctm setmatrix } bd
/iTm { _ctm setmatrix _tm concat } bd
/Tm { _tm astore pop iTm 0 0 moveto } bd
/ux 0.0 def
/uy 0.0 def
/F {
  /Tp exch def
  /Tf exch def
  Tf findfont Tp scalefont setfont
  /cf Tf def  /cs Tp def
} bd
/ULS {currentpoint /uy exch def /ux exch def} bd
/ULE {
  /Tcx currentpoint pop def
  gsave
  newpath
  cf findfont cs scalefont dup
  /FontMatrix get 0 get /Ts exch def /FontInfo get dup
  /UnderlinePosition get Ts mul /To exch def
  /UnderlineThickness get Ts mul /Tt exch def
  ux uy To add moveto  Tcx uy To add lineto
  Tt setlinewidth stroke
  grestore
} bd
/OLE {
  /Tcx currentpoint pop def
  gsave
  newpath
  cf findfont cs scalefont dup
  /FontMatrix get 0 get /Ts exch def /FontInfo get dup
  /UnderlinePosition get Ts mul /To exch def
  /UnderlineThickness get Ts mul /Tt exch def
  ux uy To add cs add moveto Tcx uy To add cs add lineto
  Tt setlinewidth stroke
  grestore
} bd
/SOE {
  /Tcx currentpoint pop def
  gsave
  newpath
  cf findfont cs scalefont dup
  /FontMatrix get 0 get /Ts exch def /FontInfo get dup
  /UnderlinePosition get Ts mul /To exch def
  /UnderlineThickness get Ts mul /Tt exch def
  ux uy To add cs 10 mul 26 idiv add moveto Tcx uy To add cs 10 mul 26 idiv add lineto
  Tt setlinewidth stroke
  grestore
} bd
/QT {
/Y22 exch store
/X22 exch store
/Y21 exch store
/X21 exch store
currentpoint
/Y21 load 2 mul add 3 div exch
/X21 load 2 mul add 3 div exch
/X21 load 2 mul /X22 load add 3 div
/Y21 load 2 mul /Y22 load add 3 div
/X22 load /Y22 load curveto
} bd
/SSPD {
dup length /d exch dict def
{
/v exch def
/k exch def
currentpagedevice k known {
/cpdv currentpagedevice k get def
v cpdv ne {
/upd false def
/nullv v type /nulltype eq def
/nullcpdv cpdv type /nulltype eq def
nullv nullcpdv or
{
/upd true def
} {
/sametype v type cpdv type eq def
sametype {
v type /arraytype eq {
/vlen v length def
/cpdvlen cpdv length def
vlen cpdvlen eq {
0 1 vlen 1 sub {
/i exch def
/obj v i get def
/cpdobj cpdv i get def
obj cpdobj ne {
/upd true def
exit
} if
} for
} {
/upd true def
} ifelse
} {
v type /dicttype eq {
v {
/dv exch def
/dk exch def
/cpddv cpdv dk get def
dv cpddv ne {
/upd true def
exit
} if
} forall
} {
/upd true def
} ifelse
} ifelse
} if
} ifelse
upd true eq {
d k v put
} if
} if
} if
} forall
d length 0 gt {
d setpagedevice
} if
} bd
/RE { % /NewFontName [NewEncodingArray] /FontName RE -
  findfont dup length dict begin
  {
    1 index /FID ne
    {def} {pop pop} ifelse
  } forall
  /Encoding exch def
  /FontName 1 index def
  currentdict definefont pop
  end
} bind def
%%EndResource
%%BeginResource: procset (Apache XML Graphics EPS ProcSet) 1.0 0
%%Version: 1.0 0
%%Copyright: (Copyright 2002-2003 The Apache Software Foundation. License terms: http://www.apache.org/licenses/LICENSE-2.0)
/BeginEPSF { %def
/b4_Inc_state save def         % Save state for cleanup
/dict_count countdictstack def % Count objects on dict stack
/op_count count 1 sub def      % Count objects on operand stack
userdict begin                 % Push userdict on dict stack
/showpage { } def              % Redefine showpage, { } = null proc
0 setgray 0 setlinecap         % Prepare graphics state
1 setlinewidth 0 setlinejoin
10 setmiterlimit [ ] 0 setdash newpath
/languagelevel where           % If level not equal to 1 then
{pop languagelevel             % set strokeadjust and
1 ne                           % overprint to their defaults.
{false setstrokeadjust false setoverprint
} if
} if
} bd
/EndEPSF { %def
count op_count sub {pop} repeat            % Clean up stacks
countdictstack dict_count sub {end} repeat
b4_Inc_state restore
} bd
%%EndResource
%FOPBeginFontDict
%%IncludeResource: font Courier-Oblique
%%IncludeResource: font Courier-BoldOblique
%%IncludeResource: font Courier-Bold
%%IncludeResource: font ZapfDingbats
%%IncludeResource: font Symbol
%%IncludeResource: font Helvetica
%%IncludeResource: font Helvetica-Oblique
%%IncludeResource: font Helvetica-Bold
%%IncludeResource: font Helvetica-BoldOblique
%%IncludeResource: font Times-Roman
%%IncludeResource: font Times-Italic
%%IncludeResource: font Times-Bold
%%IncludeResource: font Times-BoldItalic
%%IncludeResource: font Courier
%FOPEndFontDict
%%BeginResource: encoding WinAnsiEncoding
/WinAnsiEncoding [
/.notdef /.notdef /.notdef /.notdef /.notdef
/.notdef /.notdef /.notdef /.notdef /.notdef
/.notdef /.notdef /.notdef /.notdef /.notdef
/.notdef /.notdef /.notdef /.notdef /.notdef
/.notdef /.notdef /.notdef /.notdef /.notdef
/.notdef /.notdef /.notdef /.notdef /.notdef
/.notdef /.notdef /space /exclam /quotedbl
/numbersign /dollar /percent /ampersand /quotesingle
/parenleft /parenright /asterisk /plus /comma
/hyphen /period /slash /zero /one
/two /three /four /five /six
/seven /eight /nine /colon /semicolon
/less /equal /greater /question /at
/A /B /C /D /E
/F /G /H /I /J
/K /L /M /N /O
/P /Q /R /S /T
/U /V /W /X /Y
/Z /bracketleft /backslash /bracketright /asciicircum
/underscore /quoteleft /a /b /c
/d /e /f /g /h
/i /j /k /l /m
/n /o /p /q /r
/s /t /u /v /w
/x /y /z /braceleft /bar
/braceright /asciitilde /bullet /Euro /bullet
/quotesinglbase /florin /quotedblbase /ellipsis /dagger
/daggerdbl /circumflex /perthousand /Scaron /guilsinglleft
/OE /bullet /Zcaron /bullet /bullet
/quoteleft /quoteright /quotedblleft /quotedblright /bullet
/endash /emdash /asciitilde /trademark /scaron
/guilsinglright /oe /bullet /zcaron /Ydieresis
/space /exclamdown /cent /sterling /currency
/yen /brokenbar /section /dieresis /copyright
/ordfeminine /guillemotleft /logicalnot /sfthyphen /registered
/macron /degree /plusminus /twosuperior /threesuperior
/acute /mu /paragraph /middot /cedilla
/onesuperior /ordmasculine /guillemotright /onequarter /onehalf
/threequarters /questiondown /Agrave /Aacute /Acircumflex
/Atilde /Adieresis /Aring /AE /Ccedilla
/Egrave /Eacute /Ecircumflex /Edieresis /Igrave
/Iacute /Icircumflex /Idieresis /Eth /Ntilde
/Ograve /Oacute /Ocircumflex /Otilde /Odieresis
/multiply /Oslash /Ugrave /Uacute /Ucircumflex
/Udieresis /Yacute /Thorn /germandbls /agrave
/aacute /acircumflex /atilde /adieresis /aring
/ae /ccedilla /egrave /eacute /ecircumflex
/edieresis /igrave /iacute /icircumflex /idieresis
/eth /ntilde /ograve /oacute /ocircumflex
/otilde /odieresis /divide /oslash /ugrave
/uacute /ucircumflex /udieresis /yacute /thorn
/ydieresis
] def
%%EndResource
%FOPBeginFontReencode
/Courier-Oblique findfont
dup length dict begin
  {1 index /FID ne {def} {pop pop} ifelse} forall
  /Encoding WinAnsiEncoding def
  currentdict
end
/Courier-Oblique exch definefont pop
/Courier-BoldOblique findfont
dup length dict begin
  {1 index /FID ne {def} {pop pop} ifelse} forall
  /Encoding WinAnsiEncoding def
  currentdict
end
/Courier-BoldOblique exch definefont pop
/Courier-Bold findfont
dup length dict begin
  {1 index /FID ne {def} {pop pop} ifelse} forall
  /Encoding WinAnsiEncoding def
  currentdict
end
/Courier-Bold exch definefont pop
/Helvetica findfont
dup length dict begin
  {1 index /FID ne {def} {pop pop} ifelse} forall
  /Encoding WinAnsiEncoding def
  currentdict
end
/Helvetica exch definefont pop
/Helvetica-Oblique findfont
dup length dict begin
  {1 index /FID ne {def} {pop pop} ifelse} forall
  /Encoding WinAnsiEncoding def
  currentdict
end
/Helvetica-Oblique exch definefont pop
/Helvetica-Bold findfont
dup length dict begin
  {1 index /FID ne {def} {pop pop} ifelse} forall
  /Encoding WinAnsiEncoding def
  currentdict
end
/Helvetica-Bold exch definefont pop
/Helvetica-BoldOblique findfont
dup length dict begin
  {1 index /FID ne {def} {pop pop} ifelse} forall
  /Encoding WinAnsiEncoding def
  currentdict
end
/Helvetica-BoldOblique exch definefont pop
/Times-Roman findfont
dup length dict begin
  {1 index /FID ne {def} {pop pop} ifelse} forall
  /Encoding WinAnsiEncoding def
  currentdict
end
/Times-Roman exch definefont pop
/Times-Italic findfont
dup length dict begin
  {1 index /FID ne {def} {pop pop} ifelse} forall
  /Encoding WinAnsiEncoding def
  currentdict
end
/Times-Italic exch definefont pop
/Times-Bold findfont
dup length dict begin
  {1 index /FID ne {def} {pop pop} ifelse} forall
  /Encoding WinAnsiEncoding def
  currentdict
end
/Times-Bold exch definefont pop
/Times-BoldItalic findfont
dup length dict begin
  {1 index /FID ne {def} {pop pop} ifelse} forall
  /Encoding WinAnsiEncoding def
  currentdict
end
/Times-BoldItalic exch definefont pop
/Courier findfont
dup length dict begin
  {1 index /FID ne {def} {pop pop} ifelse} forall
  /Encoding WinAnsiEncoding def
  currentdict
end
/Courier exch definefont pop
%FOPEndFontReencode
%%EndProlog
%%Page: 1 1
%%PageBoundingBox: 0 0 1120 840
%%BeginPageSetup
[1 0 0 -1 0 840] CT
%%EndPageSetup
GS
1 GC
N
0 0 1120 840 re
f
GR
GS
1 GC
N
73 374 M
507 374 L
507 31.5 L
73 31.5 L
cp
f
GR
GS
0.149 GC
2 setlinecap
1 LJ
0.5 LW
N
73 374 M
507 374 L
S
GR
GS
0.149 GC
2 setlinecap
1 LJ
0.5 LW
N
73 31.5 M
507 31.5 L
S
GR
GS
0.149 GC
2 setlinecap
1 LJ
0.5 LW
N
134.468 374 M
134.468 369.66 L
S
GR
GS
0.149 GC
2 setlinecap
1 LJ
0.5 LW
N
199.165 374 M
199.165 369.66 L
S
GR
GS
0.149 GC
2 setlinecap
1 LJ
0.5 LW
N
263.863 374 M
263.863 369.66 L
S
GR
GS
0.149 GC
2 setlinecap
1 LJ
0.5 LW
N
328.56 374 M
328.56 369.66 L
S
GR
GS
0.149 GC
2 setlinecap
1 LJ
0.5 LW
N
393.257 374 M
393.257 369.66 L
S
GR
GS
0.149 GC
2 setlinecap
1 LJ
0.5 LW
N
457.955 374 M
457.955 369.66 L
S
GR
GS
0.149 GC
2 setlinecap
1 LJ
0.5 LW
N
134.468 31.5 M
134.468 35.84 L
S
GR
GS
0.149 GC
2 setlinecap
1 LJ
0.5 LW
N
199.165 31.5 M
199.165 35.84 L
S
GR
GS
0.149 GC
2 setlinecap
1 LJ
0.5 LW
N
263.863 31.5 M
263.863 35.84 L
S
GR
GS
0.149 GC
2 setlinecap
1 LJ
0.5 LW
N
328.56 31.5 M
328.56 35.84 L
S
GR
GS
0.149 GC
2 setlinecap
1 LJ
0.5 LW
N
393.257 31.5 M
393.257 35.84 L
S
GR
GS
0.149 GC
2 setlinecap
1 LJ
0.5 LW
N
457.955 31.5 M
457.955 35.84 L
S
GR
GS
0.149 GC
2 setlinecap
1 LJ
0.5 LW
N
82.71 374 M
82.71 371.83 L
S
GR
GS
0.149 GC
2 setlinecap
1 LJ
0.5 LW
N
95.65 374 M
95.65 371.83 L
S
GR
GS
0.149 GC
2 setlinecap
1 LJ
0.5 LW
N
108.589 374 M
108.589 371.83 L
S
GR
GS
0.149 GC
2 setlinecap
1 LJ
0.5 LW
N
121.529 374 M
121.529 371.83 L
S
GR
GS
0.149 GC
2 setlinecap
1 LJ
0.5 LW
N
147.407 374 M
147.407 371.83 L
S
GR
GS
0.149 GC
2 setlinecap
1 LJ
0.5 LW
N
160.347 374 M
160.347 371.83 L
S
GR
GS
0.149 GC
2 setlinecap
1 LJ
0.5 LW
N
173.286 374 M
173.286 371.83 L
S
GR
GS
0.149 GC
2 setlinecap
1 LJ
0.5 LW
N
186.226 374 M
186.226 371.83 L
S
GR
GS
0.149 GC
2 setlinecap
1 LJ
0.5 LW
N
212.105 374 M
212.105 371.83 L
S
GR
GS
0.149 GC
2 setlinecap
1 LJ
0.5 LW
N
225.044 374 M
225.044 371.83 L
S
GR
GS
0.149 GC
2 setlinecap
1 LJ
0.5 LW
N
237.984 374 M
237.984 371.83 L
S
GR
GS
0.149 GC
2 setlinecap
1 LJ
0.5 LW
N
250.923 374 M
250.923 371.83 L
S
GR
GS
0.149 GC
2 setlinecap
1 LJ
0.5 LW
N
276.802 374 M
276.802 371.83 L
S
GR
GS
0.149 GC
2 setlinecap
1 LJ
0.5 LW
N
289.742 374 M
289.742 371.83 L
S
GR
GS
0.149 GC
2 setlinecap
1 LJ
0.5 LW
N
302.681 374 M
302.681 371.83 L
S
GR
GS
0.149 GC
2 setlinecap
1 LJ
0.5 LW
N
315.621 374 M
315.621 371.83 L
S
GR
GS
0.149 GC
2 setlinecap
1 LJ
0.5 LW
N
341.499 374 M
341.499 371.83 L
S
GR
GS
0.149 GC
2 setlinecap
1 LJ
0.5 LW
N
354.439 374 M
354.439 371.83 L
S
GR
GS
0.149 GC
2 setlinecap
1 LJ
0.5 LW
N
367.378 374 M
367.378 371.83 L
S
GR
GS
0.149 GC
2 setlinecap
1 LJ
0.5 LW
N
380.318 374 M
380.318 371.83 L
S
GR
GS
0.149 GC
2 setlinecap
1 LJ
0.5 LW
N
406.197 374 M
406.197 371.83 L
S
GR
GS
0.149 GC
2 setlinecap
1 LJ
0.5 LW
N
419.136 374 M
419.136 371.83 L
S
GR
GS
0.149 GC
2 setlinecap
1 LJ
0.5 LW
N
432.076 374 M
432.076 371.83 L
S
GR
GS
0.149 GC
2 setlinecap
1 LJ
0.5 LW
N
445.015 374 M
445.015 371.83 L
S
GR
GS
0.149 GC
2 setlinecap
1 LJ
0.5 LW
N
470.894 374 M
470.894 371.83 L
S
GR
GS
0.149 GC
2 setlinecap
1 LJ
0.5 LW
N
483.834 374 M
483.834 371.83 L
S
GR
GS
0.149 GC
2 setlinecap
1 LJ
0.5 LW
N
496.773 374 M
496.773 371.83 L
S
GR
GS
0.149 GC
2 setlinecap
1 LJ
0.5 LW
N
82.71 31.5 M
82.71 33.67 L
S
GR
GS
0.149 GC
2 setlinecap
1 LJ
0.5 LW
N
95.65 31.5 M
95.65 33.67 L
S
GR
GS
0.149 GC
2 setlinecap
1 LJ
0.5 LW
N
108.589 31.5 M
108.589 33.67 L
S
GR
GS
0.149 GC
2 setlinecap
1 LJ
0.5 LW
N
121.529 31.5 M
121.529 33.67 L
S
GR
GS
0.149 GC
2 setlinecap
1 LJ
0.5 LW
N
147.407 31.5 M
147.407 33.67 L
S
GR
GS
0.149 GC
2 setlinecap
1 LJ
0.5 LW
N
160.347 31.5 M
160.347 33.67 L
S
GR
GS
0.149 GC
2 setlinecap
1 LJ
0.5 LW
N
173.286 31.5 M
173.286 33.67 L
S
GR
GS
0.149 GC
2 setlinecap
1 LJ
0.5 LW
N
186.226 31.5 M
186.226 33.67 L
S
GR
GS
0.149 GC
2 setlinecap
1 LJ
0.5 LW
N
212.105 31.5 M
212.105 33.67 L
S
GR
GS
0.149 GC
2 setlinecap
1 LJ
0.5 LW
N
225.044 31.5 M
225.044 33.67 L
S
GR
GS
0.149 GC
2 setlinecap
1 LJ
0.5 LW
N
237.984 31.5 M
237.984 33.67 L
S
GR
GS
0.149 GC
2 setlinecap
1 LJ
0.5 LW
N
250.923 31.5 M
250.923 33.67 L
S
GR
GS
0.149 GC
2 setlinecap
1 LJ
0.5 LW
N
276.802 31.5 M
276.802 33.67 L
S
GR
GS
0.149 GC
2 setlinecap
1 LJ
0.5 LW
N
289.742 31.5 M
289.742 33.67 L
S
GR
GS
0.149 GC
2 setlinecap
1 LJ
0.5 LW
N
302.681 31.5 M
302.681 33.67 L
S
GR
GS
0.149 GC
2 setlinecap
1 LJ
0.5 LW
N
315.621 31.5 M
315.621 33.67 L
S
GR
GS
0.149 GC
2 setlinecap
1 LJ
0.5 LW
N
341.499 31.5 M
341.499 33.67 L
S
GR
GS
0.149 GC
2 setlinecap
1 LJ
0.5 LW
N
354.439 31.5 M
354.439 33.67 L
S
GR
GS
0.149 GC
2 setlinecap
1 LJ
0.5 LW
N
367.378 31.5 M
367.378 33.67 L
S
GR
GS
0.149 GC
2 setlinecap
1 LJ
0.5 LW
N
380.318 31.5 M
380.318 33.67 L
S
GR
GS
0.149 GC
2 setlinecap
1 LJ
0.5 LW
N
406.197 31.5 M
406.197 33.67 L
S
GR
GS
0.149 GC
2 setlinecap
1 LJ
0.5 LW
N
419.136 31.5 M
419.136 33.67 L
S
GR
GS
0.149 GC
2 setlinecap
1 LJ
0.5 LW
N
432.076 31.5 M
432.076 33.67 L
S
GR
GS
0.149 GC
2 setlinecap
1 LJ
0.5 LW
N
445.015 31.5 M
445.015 33.67 L
S
GR
GS
0.149 GC
2 setlinecap
1 LJ
0.5 LW
N
470.894 31.5 M
470.894 33.67 L
S
GR
GS
0.149 GC
2 setlinecap
1 LJ
0.5 LW
N
483.834 31.5 M
483.834 33.67 L
S
GR
GS
0.149 GC
2 setlinecap
1 LJ
0.5 LW
N
496.773 31.5 M
496.773 33.67 L
S
GR
GS
[1 0 0 1 134.468 378.79987] CT
0.149 GC
/Helvetica 14 F
GS
[1 0 0 1 0 0] CT
-16 14 moveto 
1 -1 scale
(1000) t 
GR
GR
GS
[1 0 0 1 199.16533 378.79987] CT
0.149 GC
/Helvetica 14 F
GS
[1 0 0 1 0 0] CT
-16 14 moveto 
1 -1 scale
(2000) t 
GR
GR
GS
[1 0 0 1 263.86267 378.79987] CT
0.149 GC
/Helvetica 14 F
GS
[1 0 0 1 0 0] CT
-16 14 moveto 
1 -1 scale
(3000) t 
GR
GR
GS
[1 0 0 1 328.56 378.79987] CT
0.149 GC
/Helvetica 14 F
GS
[1 0 0 1 0 0] CT
-16 14 moveto 
1 -1 scale
(4000) t 
GR
GR
GS
[1 0 0 1 393.25732 378.79987] CT
0.149 GC
/Helvetica 14 F
GS
[1 0 0 1 0 0] CT
-16 14 moveto 
1 -1 scale
(5000) t 
GR
GR
GS
[1 0 0 1 457.95465 378.79987] CT
0.149 GC
/Helvetica 14 F
GS
[1 0 0 1 0 0] CT
-16 14 moveto 
1 -1 scale
(6000) t 
GR
GR
GS
[1 0 0 1 290.00021 396.2998] CT
0.149 GC
/Helvetica 15.4 F
GS
[1 0 0 1 0 0] CT
-42 15 moveto 
1 -1 scale
(Bitrate\(kb/s\)) t 
GR
GR
GS
0.149 GC
2 setlinecap
1 LJ
0.5 LW
N
73 374 M
73 31.5 L
S
GR
GS
0.149 GC
2 setlinecap
1 LJ
0.5 LW
N
507 374 M
507 31.5 L
S
GR
GS
0.149 GC
2 setlinecap
1 LJ
0.5 LW
N
73 373.727 M
77.34 373.727 L
S
GR
GS
0.149 GC
2 setlinecap
1 LJ
0.5 LW
N
73 330.436 M
77.34 330.436 L
S
GR
GS
0.149 GC
2 setlinecap
1 LJ
0.5 LW
N
73 287.145 M
77.34 287.145 L
S
GR
GS
0.149 GC
2 setlinecap
1 LJ
0.5 LW
N
73 243.854 M
77.34 243.854 L
S
GR
GS
0.149 GC
2 setlinecap
1 LJ
0.5 LW
N
73 200.564 M
77.34 200.564 L
S
GR
GS
0.149 GC
2 setlinecap
1 LJ
0.5 LW
N
73 157.274 M
77.34 157.274 L
S
GR
GS
0.149 GC
2 setlinecap
1 LJ
0.5 LW
N
73 113.983 M
77.34 113.983 L
S
GR
GS
0.149 GC
2 setlinecap
1 LJ
0.5 LW
N
73 70.692 M
77.34 70.692 L
S
GR
GS
0.149 GC
2 setlinecap
1 LJ
0.5 LW
N
507 373.727 M
502.66 373.727 L
S
GR
GS
0.149 GC
2 setlinecap
1 LJ
0.5 LW
N
507 330.436 M
502.66 330.436 L
S
GR
GS
0.149 GC
2 setlinecap
1 LJ
0.5 LW
N
507 287.145 M
502.66 287.145 L
S
GR
GS
0.149 GC
2 setlinecap
1 LJ
0.5 LW
N
507 243.854 M
502.66 243.854 L
S
GR
GS
0.149 GC
2 setlinecap
1 LJ
0.5 LW
N
507 200.564 M
502.66 200.564 L
S
GR
GS
0.149 GC
2 setlinecap
1 LJ
0.5 LW
N
507 157.274 M
502.66 157.274 L
S
GR
GS
0.149 GC
2 setlinecap
1 LJ
0.5 LW
N
507 113.983 M
502.66 113.983 L
S
GR
GS
0.149 GC
2 setlinecap
1 LJ
0.5 LW
N
507 70.692 M
502.66 70.692 L
S
GR
GS
0.149 GC
2 setlinecap
1 LJ
0.5 LW
N
73 362.903 M
75.17 362.903 L
S
GR
GS
0.149 GC
2 setlinecap
1 LJ
0.5 LW
N
73 352.081 M
75.17 352.081 L
S
GR
GS
0.149 GC
2 setlinecap
1 LJ
0.5 LW
N
73 341.258 M
75.17 341.258 L
S
GR
GS
0.149 GC
2 setlinecap
1 LJ
0.5 LW
N
73 319.613 M
75.17 319.613 L
S
GR
GS
0.149 GC
2 setlinecap
1 LJ
0.5 LW
N
73 308.79 M
75.17 308.79 L
S
GR
GS
0.149 GC
2 setlinecap
1 LJ
0.5 LW
N
73 297.968 M
75.17 297.968 L
S
GR
GS
0.149 GC
2 setlinecap
1 LJ
0.5 LW
N
73 276.323 M
75.17 276.323 L
S
GR
GS
0.149 GC
2 setlinecap
1 LJ
0.5 LW
N
73 265.5 M
75.17 265.5 L
S
GR
GS
0.149 GC
2 setlinecap
1 LJ
0.5 LW
N
73 254.677 M
75.17 254.677 L
S
GR
GS
0.149 GC
2 setlinecap
1 LJ
0.5 LW
N
73 233.032 M
75.17 233.032 L
S
GR
GS
0.149 GC
2 setlinecap
1 LJ
0.5 LW
N
73 222.209 M
75.17 222.209 L
S
GR
GS
0.149 GC
2 setlinecap
1 LJ
0.5 LW
N
73 211.387 M
75.17 211.387 L
S
GR
GS
0.149 GC
2 setlinecap
1 LJ
0.5 LW
N
73 189.741 M
75.17 189.741 L
S
GR
GS
0.149 GC
2 setlinecap
1 LJ
0.5 LW
N
73 178.919 M
75.17 178.919 L
S
GR
GS
0.149 GC
2 setlinecap
1 LJ
0.5 LW
N
73 168.096 M
75.17 168.096 L
S
GR
GS
0.149 GC
2 setlinecap
1 LJ
0.5 LW
N
73 146.45 M
75.17 146.45 L
S
GR
GS
0.149 GC
2 setlinecap
1 LJ
0.5 LW
N
73 135.628 M
75.17 135.628 L
S
GR
GS
0.149 GC
2 setlinecap
1 LJ
0.5 LW
N
73 124.805 M
75.17 124.805 L
S
GR
GS
0.149 GC
2 setlinecap
1 LJ
0.5 LW
N
73 103.16 M
75.17 103.16 L
S
GR
GS
0.149 GC
2 setlinecap
1 LJ
0.5 LW
N
73 92.337 M
75.17 92.337 L
S
GR
GS
0.149 GC
2 setlinecap
1 LJ
0.5 LW
N
73 81.515 M
75.17 81.515 L
S
GR
GS
0.149 GC
2 setlinecap
1 LJ
0.5 LW
N
73 59.87 M
75.17 59.87 L
S
GR
GS
0.149 GC
2 setlinecap
1 LJ
0.5 LW
N
73 49.047 M
75.17 49.047 L
S
GR
GS
0.149 GC
2 setlinecap
1 LJ
0.5 LW
N
73 38.224 M
75.17 38.224 L
S
GR
GS
0.149 GC
2 setlinecap
1 LJ
0.5 LW
N
507 362.903 M
504.83 362.903 L
S
GR
GS
0.149 GC
2 setlinecap
1 LJ
0.5 LW
N
507 352.081 M
504.83 352.081 L
S
GR
GS
0.149 GC
2 setlinecap
1 LJ
0.5 LW
N
507 341.258 M
504.83 341.258 L
S
GR
GS
0.149 GC
2 setlinecap
1 LJ
0.5 LW
N
507 319.613 M
504.83 319.613 L
S
GR
GS
0.149 GC
2 setlinecap
1 LJ
0.5 LW
N
507 308.79 M
504.83 308.79 L
S
GR
GS
0.149 GC
2 setlinecap
1 LJ
0.5 LW
N
507 297.968 M
504.83 297.968 L
S
GR
GS
0.149 GC
2 setlinecap
1 LJ
0.5 LW
N
507 276.323 M
504.83 276.323 L
S
GR
GS
0.149 GC
2 setlinecap
1 LJ
0.5 LW
N
507 265.5 M
504.83 265.5 L
S
GR
GS
0.149 GC
2 setlinecap
1 LJ
0.5 LW
N
507 254.677 M
504.83 254.677 L
S
GR
GS
0.149 GC
2 setlinecap
1 LJ
0.5 LW
N
507 233.032 M
504.83 233.032 L
S
GR
GS
0.149 GC
2 setlinecap
1 LJ
0.5 LW
N
507 222.209 M
504.83 222.209 L
S
GR
GS
0.149 GC
2 setlinecap
1 LJ
0.5 LW
N
507 211.387 M
504.83 211.387 L
S
GR
GS
0.149 GC
2 setlinecap
1 LJ
0.5 LW
N
507 189.741 M
504.83 189.741 L
S
GR
GS
0.149 GC
2 setlinecap
1 LJ
0.5 LW
N
507 178.919 M
504.83 178.919 L
S
GR
GS
0.149 GC
2 setlinecap
1 LJ
0.5 LW
N
507 168.096 M
504.83 168.096 L
S
GR
GS
0.149 GC
2 setlinecap
1 LJ
0.5 LW
N
507 146.45 M
504.83 146.45 L
S
GR
GS
0.149 GC
2 setlinecap
1 LJ
0.5 LW
N
507 135.628 M
504.83 135.628 L
S
GR
GS
0.149 GC
2 setlinecap
1 LJ
0.5 LW
N
507 124.805 M
504.83 124.805 L
S
GR
GS
0.149 GC
2 setlinecap
1 LJ
0.5 LW
N
507 103.16 M
504.83 103.16 L
S
GR
GS
0.149 GC
2 setlinecap
1 LJ
0.5 LW
N
507 92.337 M
504.83 92.337 L
S
GR
GS
0.149 GC
2 setlinecap
1 LJ
0.5 LW
N
507 81.515 M
504.83 81.515 L
S
GR
GS
0.149 GC
2 setlinecap
1 LJ
0.5 LW
N
507 59.87 M
504.83 59.87 L
S
GR
GS
0.149 GC
2 setlinecap
1 LJ
0.5 LW
N
507 49.047 M
504.83 49.047 L
S
GR
GS
0.149 GC
2 setlinecap
1 LJ
0.5 LW
N
507 38.224 M
504.83 38.224 L
S
GR
GS
[1 0 0 1 68.2 373.72675] CT
0.149 GC
/Helvetica 14 F
GS
[1 0 0 1 0 0] CT
-28 5.5 moveto 
1 -1 scale
(36.6) t 
GR
GR
GS
[1 0 0 1 68.2 330.43594] CT
0.149 GC
/Helvetica 14 F
GS
[1 0 0 1 0 0] CT
-28 5.5 moveto 
1 -1 scale
(36.8) t 
GR
GR
GS
[1 0 0 1 68.2 287.14517] CT
0.149 GC
/Helvetica 14 F
GS
[1 0 0 1 0 0] CT
-16 5.5 moveto 
1 -1 scale
(37) t 
GR
GR
GS
[1 0 0 1 68.2 243.8544] CT
0.149 GC
/Helvetica 14 F
GS
[1 0 0 1 0 0] CT
-28 5.5 moveto 
1 -1 scale
(37.2) t 
GR
GR
GS
[1 0 0 1 68.2 200.56363] CT
0.149 GC
/Helvetica 14 F
GS
[1 0 0 1 0 0] CT
-28 5.5 moveto 
1 -1 scale
(37.4) t 
GR
GR
GS
[1 0 0 1 68.2 157.27368] CT
0.149 GC
/Helvetica 14 F
GS
[1 0 0 1 0 0] CT
-28 5.5 moveto 
1 -1 scale
(37.6) t 
GR
GR
GS
[1 0 0 1 68.2 113.9829] CT
0.149 GC
/Helvetica 14 F
GS
[1 0 0 1 0 0] CT
-28 5.5 moveto 
1 -1 scale
(37.8) t 
GR
GR
GS
[1 0 0 1 68.2 70.69212] CT
0.149 GC
/Helvetica 14 F
GS
[1 0 0 1 0 0] CT
-16 5.5 moveto 
1 -1 scale
(38) t 
GR
GR
GS
[0 -1 1 0 37.7 202.75009] CT
0.149 GC
/Helvetica 15.4 F
GS
[1 0 0 1 0 0] CT
-55.5 -4 moveto 
1 -1 scale
(CIEDE2000 \(dB\)) t 
GR
GR
GS
[1 0 0 1 290.00027 29.57542] CT
/Helvetica-Bold 15.4 F
GS
[1 0 0 1 0 0] CT
-230.5 -4 moveto 
1 -1 scale
(DinnerSceneCropped_1920x1080_2997fps_10bit_420.y4m-hevc) t 
GR
GR
GS
0 0.447 0.741 RC
1 LJ
0.5 LW
N
73.329 340.83 M
74.623 291.687 L
75.917 257.076 L
77.21 230.072 L
78.504 209.001 L
79.798 197.07 L
81.092 191.009 L
82.386 185.588 L
83.68 180.762 L
84.974 176.493 L
86.268 172.737 L
87.562 169.453 L
88.856 166.6 L
90.15 164.135 L
91.444 162.019 L
92.738 160.207 L
94.032 158.661 L
95.326 157.336 L
96.62 156.194 L
97.914 155.136 L
99.208 154.087 L
100.501 153.046 L
101.795 152.013 L
103.089 150.989 L
104.383 149.973 L
105.677 148.965 L
106.971 147.965 L
108.265 146.972 L
109.559 145.989 L
110.853 145.013 L
112.147 144.045 L
113.441 143.085 L
114.735 142.133 L
116.029 141.189 L
117.323 140.253 L
118.617 139.325 L
119.911 138.406 L
121.205 137.493 L
122.499 136.589 L
123.793 135.692 L
125.086 134.804 L
126.38 133.923 L
127.674 133.049 L
128.968 132.184 L
130.262 131.327 L
131.556 130.477 L
132.85 129.635 L
134.144 128.8 L
135.438 127.974 L
136.732 127.155 L
138.026 126.343 L
139.32 125.539 L
140.614 124.743 L
141.908 123.953 L
143.202 123.172 L
144.496 122.398 L
145.79 121.632 L
147.084 120.873 L
148.378 120.122 L
149.671 119.378 L
150.965 118.642 L
152.259 117.912 L
153.553 117.19 L
154.847 116.476 L
156.141 115.769 L
157.435 115.069 L
158.729 114.376 L
160.023 113.691 L
161.317 113.013 L
162.611 112.342 L
163.905 111.678 L
165.199 111.022 L
166.493 110.373 L
167.787 109.731 L
169.081 109.096 L
170.375 108.467 L
171.669 107.847 L
172.963 107.233 L
174.256 106.626 L
175.55 106.026 L
176.844 105.434 L
178.138 104.847 L
179.432 104.269 L
180.726 103.697 L
182.02 103.132 L
183.314 102.574 L
184.608 102.023 L
185.902 101.478 L
187.196 100.94 L
188.49 100.41 L
189.784 99.886 L
191.078 99.369 L
192.372 98.858 L
193.666 98.354 L
194.96 97.857 L
196.254 97.366 L
197.547 96.883 L
198.841 96.405 L
200.135 95.936 L
201.429 95.471 L
202.723 95.014 L
204.017 94.563 L
205.311 94.119 L
206.605 93.681 L
207.899 93.25 L
209.193 92.825 L
210.487 92.406 L
211.781 91.995 L
213.075 91.59 L
214.369 91.19 L
215.663 90.798 L
216.957 90.412 L
218.251 90.031 L
219.545 89.658 L
220.839 89.29 L
222.132 88.929 L
223.426 88.574 L
224.72 88.225 L
226.014 87.882 L
227.308 87.546 L
228.602 87.216 L
229.896 86.892 L
231.19 86.574 L
232.484 86.262 L
233.778 85.956 L
235.072 85.656 L
236.366 85.362 L
237.66 85.075 L
238.954 84.793 L
240.248 84.518 L
241.542 84.248 L
242.836 83.983 L
244.13 83.726 L
245.424 83.474 L
246.717 83.228 L
248.011 82.988 L
249.305 82.753 L
250.599 82.524 L
251.893 82.302 L
253.187 82.084 L
254.481 81.872 L
255.775 81.667 L
257.069 81.467 L
258.363 81.273 L
259.657 81.084 L
260.951 80.901 L
262.245 80.724 L
263.539 80.552 L
264.833 80.385 L
266.127 80.225 L
267.421 80.07 L
268.715 79.92 L
270.009 79.776 L
271.302 79.637 L
272.596 79.504 L
273.89 79.376 L
275.184 79.254 L
276.478 79.137 L
277.772 79.025 L
279.066 78.919 L
280.36 78.818 L
281.654 78.722 L
282.948 78.631 L
284.242 78.546 L
285.536 78.466 L
286.83 78.392 L
288.124 78.322 L
289.418 78.258 L
290.712 78.199 L
292.006 78.145 L
293.3 78.096 L
294.593 78.052 L
295.887 78.014 L
297.181 77.98 L
298.475 77.952 L
299.769 77.928 L
301.063 77.909 L
302.357 77.896 L
303.651 77.886 L
304.945 77.883 L
S
GR
GS
0.851 0.325 0.098 RC
1 LJ
0.5 LW
N
73.285 342.917 M
74.579 289.694 L
75.873 254.611 L
77.167 229.865 L
78.461 211.172 L
79.755 200.235 L
81.049 193.932 L
82.343 188.261 L
83.637 183.185 L
84.931 178.667 L
86.225 174.67 L
87.519 171.158 L
88.813 168.093 L
90.106 165.438 L
91.4 163.158 L
92.694 161.213 L
93.988 159.568 L
95.282 158.186 L
96.576 157.024 L
97.87 155.93 L
99.164 154.845 L
100.458 153.769 L
101.752 152.703 L
103.046 151.644 L
104.34 150.595 L
105.634 149.554 L
106.928 148.523 L
108.222 147.501 L
109.516 146.487 L
110.81 145.482 L
112.104 144.485 L
113.398 143.498 L
114.691 142.519 L
115.985 141.549 L
117.279 140.588 L
118.573 139.635 L
119.867 138.69 L
121.161 137.755 L
122.455 136.828 L
123.749 135.909 L
125.043 135 L
126.337 134.099 L
127.631 133.205 L
128.925 132.321 L
130.219 131.445 L
131.513 130.577 L
132.807 129.718 L
134.101 128.867 L
135.395 128.025 L
136.689 127.19 L
137.983 126.364 L
139.276 125.546 L
140.57 124.737 L
141.864 123.935 L
143.158 123.142 L
144.452 122.356 L
145.746 121.579 L
147.04 120.811 L
148.334 120.049 L
149.628 119.297 L
150.922 118.552 L
152.216 117.815 L
153.51 117.087 L
154.804 116.365 L
156.098 115.652 L
157.392 114.947 L
158.686 114.25 L
159.98 113.56 L
161.274 112.879 L
162.567 112.205 L
163.861 111.539 L
165.155 110.881 L
166.449 110.23 L
167.743 109.587 L
169.037 108.952 L
170.331 108.324 L
171.625 107.704 L
172.919 107.092 L
174.213 106.486 L
175.507 105.889 L
176.801 105.299 L
178.095 104.717 L
179.389 104.142 L
180.683 103.574 L
181.977 103.014 L
183.271 102.462 L
184.565 101.916 L
185.859 101.379 L
187.152 100.848 L
188.446 100.324 L
189.74 99.808 L
191.034 99.299 L
192.328 98.797 L
193.622 98.302 L
194.916 97.815 L
196.21 97.334 L
197.504 96.861 L
198.798 96.395 L
200.092 95.936 L
201.386 95.484 L
202.68 95.039 L
203.974 94.601 L
205.268 94.169 L
206.562 93.746 L
207.856 93.328 L
209.15 92.918 L
210.444 92.514 L
211.737 92.117 L
213.031 91.727 L
214.325 91.344 L
215.619 90.967 L
216.913 90.598 L
218.207 90.235 L
219.501 89.878 L
220.795 89.529 L
222.089 89.185 L
223.383 88.849 L
224.677 88.519 L
225.971 88.195 L
227.265 87.878 L
228.559 87.568 L
229.853 87.264 L
231.147 86.967 L
232.441 86.676 L
233.735 86.391 L
235.029 86.113 L
236.322 85.84 L
237.616 85.575 L
238.91 85.315 L
240.204 85.063 L
241.498 84.816 L
242.792 84.575 L
244.086 84.34 L
245.38 84.112 L
246.674 83.89 L
247.968 83.674 L
249.262 83.464 L
250.556 83.26 L
251.85 83.062 L
253.144 82.87 L
254.438 82.685 L
255.732 82.505 L
257.026 82.33 L
258.32 82.163 L
259.613 82 L
260.907 81.844 L
262.201 81.694 L
263.495 81.549 L
264.789 81.41 L
266.083 81.277 L
267.377 81.15 L
268.671 81.027 L
269.965 80.912 L
271.259 80.801 L
272.553 80.696 L
273.847 80.597 L
275.141 80.504 L
276.435 80.416 L
277.729 80.334 L
279.023 80.257 L
280.317 80.185 L
281.611 80.119 L
282.905 80.059 L
284.198 80.004 L
285.492 79.954 L
286.786 79.909 L
288.08 79.87 L
289.374 79.836 L
290.668 79.808 L
291.962 79.785 L
293.256 79.767 L
294.55 79.753 L
295.844 79.746 L
S
GR
GS
0.929 0.694 0.125 RC
1 LJ
0.5 LW
N
73 374 M
74.294 306.447 L
75.588 265.515 L
76.882 237.186 L
78.176 217.445 L
79.47 206.216 L
80.764 197.233 L
82.058 189.353 L
83.352 182.56 L
84.646 176.837 L
85.939 172.167 L
87.233 168.532 L
88.527 165.917 L
89.821 164.262 L
91.115 162.87 L
92.409 161.492 L
93.703 160.129 L
94.997 158.78 L
96.291 157.445 L
97.585 156.126 L
98.879 154.82 L
100.173 153.528 L
101.467 152.252 L
102.761 150.988 L
104.055 149.739 L
105.349 148.504 L
106.643 147.283 L
107.937 146.076 L
109.231 144.882 L
110.524 143.702 L
111.818 142.536 L
113.112 141.383 L
114.406 140.244 L
115.7 139.118 L
116.994 138.006 L
118.288 136.906 L
119.582 135.82 L
120.876 134.748 L
122.17 133.688 L
123.464 132.641 L
124.758 131.608 L
126.052 130.587 L
127.346 129.579 L
128.64 128.584 L
129.934 127.601 L
131.228 126.631 L
132.522 125.673 L
133.815 124.729 L
135.109 123.796 L
136.403 122.876 L
137.697 121.967 L
138.991 121.072 L
140.285 120.188 L
141.579 119.317 L
142.873 118.457 L
144.167 117.609 L
145.461 116.774 L
146.755 115.95 L
148.049 115.137 L
149.343 114.336 L
150.637 113.548 L
151.931 112.77 L
153.225 112.004 L
154.519 111.249 L
155.813 110.506 L
157.107 109.774 L
158.4 109.053 L
159.694 108.343 L
160.988 107.644 L
162.282 106.956 L
163.576 106.28 L
164.87 105.614 L
166.164 104.958 L
167.458 104.314 L
168.752 103.68 L
170.046 103.056 L
171.34 102.444 L
172.634 101.841 L
173.928 101.249 L
175.222 100.667 L
176.516 100.095 L
177.81 99.534 L
179.104 98.982 L
180.398 98.442 L
181.692 97.91 L
182.985 97.389 L
184.279 96.877 L
185.573 96.375 L
186.867 95.883 L
188.161 95.4 L
189.455 94.927 L
190.749 94.463 L
192.043 94.009 L
193.337 93.564 L
194.631 93.129 L
195.925 92.703 L
197.219 92.285 L
198.513 91.877 L
199.807 91.478 L
201.101 91.088 L
202.395 90.706 L
203.689 90.334 L
204.983 89.97 L
206.277 89.615 L
207.57 89.268 L
208.864 88.93 L
210.158 88.601 L
211.452 88.28 L
212.746 87.967 L
214.04 87.662 L
215.334 87.366 L
216.628 87.077 L
217.922 86.797 L
219.216 86.524 L
220.51 86.26 L
221.804 86.003 L
223.098 85.755 L
224.392 85.513 L
225.686 85.28 L
226.98 85.054 L
228.274 84.836 L
229.568 84.625 L
230.861 84.421 L
232.155 84.225 L
233.449 84.035 L
234.743 83.854 L
236.037 83.679 L
237.331 83.511 L
238.625 83.35 L
239.919 83.197 L
241.213 83.05 L
242.507 82.909 L
243.801 82.775 L
245.095 82.648 L
246.389 82.528 L
247.683 82.414 L
248.977 82.306 L
250.271 82.205 L
251.565 82.11 L
252.859 82.021 L
254.153 81.938 L
255.446 81.862 L
256.74 81.791 L
258.034 81.727 L
259.328 81.668 L
260.622 81.615 L
261.916 81.567 L
263.21 81.526 L
264.504 81.49 L
265.798 81.46 L
267.092 81.435 L
268.386 81.416 L
269.68 81.401 L
270.974 81.392 L
272.268 81.388 L
S
GR
GS
0.494 0.184 0.557 RC
1 LJ
0.5 LW
N
73.528 328.365 M
74.822 285.604 L
76.116 253.888 L
77.41 229.306 L
78.704 208.812 L
79.998 195.009 L
81.292 188.723 L
82.586 183.754 L
83.879 179.256 L
85.173 175.205 L
86.467 171.571 L
87.761 168.326 L
89.055 165.443 L
90.349 162.896 L
91.643 160.656 L
92.937 158.696 L
94.231 156.988 L
95.525 155.505 L
96.819 154.219 L
98.113 153.102 L
99.407 152.129 L
100.701 151.254 L
101.995 150.395 L
103.289 149.538 L
104.583 148.686 L
105.877 147.838 L
107.17 146.992 L
108.464 146.151 L
109.758 145.313 L
111.052 144.479 L
112.346 143.648 L
113.64 142.821 L
114.934 141.998 L
116.228 141.178 L
117.522 140.362 L
118.816 139.55 L
120.11 138.741 L
121.404 137.936 L
122.698 137.135 L
123.992 136.336 L
125.286 135.542 L
126.58 134.751 L
127.874 133.964 L
129.168 133.18 L
130.462 132.4 L
131.755 131.624 L
133.049 130.85 L
134.343 130.082 L
135.637 129.315 L
136.931 128.553 L
138.225 127.794 L
139.519 127.039 L
140.813 126.287 L
142.107 125.539 L
143.401 124.794 L
144.695 124.052 L
145.989 123.315 L
147.283 122.581 L
148.577 121.849 L
149.871 121.123 L
151.165 120.399 L
152.459 119.678 L
153.753 118.961 L
155.047 118.248 L
156.34 117.538 L
157.634 116.831 L
158.928 116.127 L
160.222 115.428 L
161.516 114.731 L
162.81 114.038 L
164.104 113.349 L
165.398 112.663 L
166.692 111.98 L
167.986 111.3 L
169.28 110.624 L
170.574 109.952 L
171.868 109.282 L
173.162 108.617 L
174.456 107.954 L
175.75 107.295 L
177.044 106.639 L
178.338 105.986 L
179.632 105.337 L
180.925 104.691 L
182.219 104.049 L
183.513 103.41 L
184.807 102.773 L
186.101 102.141 L
187.395 101.511 L
188.689 100.886 L
189.983 100.263 L
191.277 99.643 L
192.571 99.027 L
193.865 98.414 L
195.159 97.804 L
196.453 97.198 L
197.747 96.594 L
199.041 95.995 L
200.335 95.398 L
201.629 94.804 L
202.923 94.214 L
204.216 93.627 L
205.51 93.043 L
206.804 92.463 L
208.098 91.885 L
209.392 91.311 L
210.686 90.74 L
211.98 90.172 L
213.274 89.607 L
214.568 89.046 L
215.862 88.488 L
217.156 87.932 L
218.45 87.38 L
219.744 86.831 L
221.038 86.286 L
222.332 85.743 L
223.626 85.203 L
224.92 84.667 L
226.214 84.134 L
227.508 83.603 L
228.801 83.076 L
230.095 82.552 L
231.389 82.032 L
232.683 81.513 L
233.977 80.999 L
235.271 80.487 L
236.565 79.978 L
237.859 79.473 L
239.153 78.97 L
240.447 78.47 L
241.741 77.974 L
243.035 77.481 L
244.329 76.991 L
245.623 76.503 L
246.917 76.019 L
248.211 75.537 L
249.505 75.059 L
250.799 74.584 L
252.093 74.111 L
253.386 73.642 L
254.68 73.176 L
255.974 72.713 L
257.268 72.252 L
258.562 71.794 L
259.856 71.339 L
261.15 70.888 L
262.444 70.439 L
263.738 69.994 L
265.032 69.551 L
266.326 69.111 L
267.62 68.674 L
268.914 68.241 L
270.208 67.809 L
271.502 67.381 L
272.796 66.956 L
274.09 66.533 L
275.384 66.114 L
276.678 65.697 L
277.971 65.283 L
279.265 64.872 L
280.559 64.464 L
281.853 64.058 L
283.147 63.656 L
284.441 63.257 L
285.735 62.86 L
287.029 62.466 L
288.323 62.075 L
289.617 61.687 L
290.911 61.301 L
292.205 60.919 L
293.499 60.538 L
294.793 60.162 L
296.087 59.788 L
297.381 59.416 L
298.675 59.047 L
299.969 58.681 L
301.262 58.318 L
302.556 57.957 L
303.85 57.6 L
305.144 57.245 L
306.438 56.893 L
307.732 56.543 L
309.026 56.196 L
310.32 55.853 L
311.614 55.511 L
312.908 55.172 L
314.202 54.836 L
315.496 54.503 L
316.79 54.172 L
318.084 53.844 L
319.378 53.519 L
320.672 53.196 L
321.966 52.877 L
323.26 52.56 L
324.554 52.245 L
325.847 51.933 L
327.141 51.623 L
328.435 51.317 L
329.729 51.013 L
331.023 50.712 L
332.317 50.413 L
333.611 50.116 L
334.905 49.822 L
336.199 49.532 L
337.493 49.243 L
338.787 48.957 L
340.081 48.674 L
341.375 48.393 L
342.669 48.115 L
343.963 47.84 L
345.257 47.567 L
346.551 47.296 L
347.845 47.028 L
349.139 46.762 L
350.432 46.5 L
351.726 46.24 L
353.02 45.981 L
354.314 45.726 L
355.608 45.474 L
356.902 45.223 L
358.196 44.975 L
359.49 44.73 L
360.784 44.487 L
362.078 44.247 L
363.372 44.009 L
364.666 43.773 L
365.96 43.54 L
367.254 43.309 L
368.548 43.081 L
369.842 42.855 L
371.136 42.632 L
372.43 42.412 L
373.724 42.193 L
375.017 41.977 L
376.311 41.764 L
377.605 41.552 L
378.899 41.343 L
380.193 41.137 L
381.487 40.933 L
382.781 40.731 L
384.075 40.532 L
385.369 40.334 L
386.663 40.14 L
387.957 39.948 L
389.251 39.758 L
390.545 39.571 L
391.839 39.385 L
393.133 39.202 L
394.427 39.021 L
395.721 38.843 L
397.015 38.667 L
398.309 38.494 L
399.602 38.322 L
400.896 38.154 L
402.19 37.987 L
403.484 37.822 L
404.778 37.66 L
406.072 37.5 L
407.366 37.342 L
408.66 37.187 L
409.954 37.033 L
411.248 36.882 L
412.542 36.733 L
413.836 36.587 L
415.13 36.443 L
416.424 36.301 L
417.718 36.161 L
419.012 36.023 L
420.306 35.888 L
421.6 35.754 L
422.893 35.624 L
424.187 35.494 L
425.481 35.368 L
426.775 35.243 L
428.069 35.121 L
429.363 35 L
430.657 34.882 L
431.951 34.767 L
433.245 34.653 L
434.539 34.541 L
435.833 34.431 L
437.127 34.324 L
438.421 34.218 L
439.715 34.115 L
441.009 34.014 L
442.303 33.915 L
443.597 33.819 L
444.891 33.724 L
446.185 33.63 L
447.478 33.54 L
448.772 33.451 L
450.066 33.365 L
451.36 33.28 L
452.654 33.198 L
453.948 33.117 L
455.242 33.039 L
456.536 32.962 L
457.83 32.888 L
459.124 32.815 L
460.418 32.745 L
461.712 32.677 L
463.006 32.611 L
464.3 32.546 L
465.594 32.484 L
466.888 32.423 L
468.182 32.365 L
469.476 32.308 L
470.77 32.254 L
472.063 32.202 L
473.357 32.151 L
474.651 32.103 L
475.945 32.056 L
477.239 32.011 L
478.533 31.968 L
479.827 31.927 L
481.121 31.888 L
482.415 31.851 L
483.709 31.816 L
485.003 31.783 L
486.297 31.751 L
487.591 31.721 L
488.885 31.694 L
490.179 31.668 L
491.473 31.644 L
492.767 31.622 L
494.061 31.602 L
495.354 31.584 L
496.648 31.567 L
497.942 31.552 L
499.236 31.539 L
500.53 31.528 L
501.824 31.519 L
503.118 31.512 L
504.412 31.506 L
505.706 31.502 L
507 31.5 L
S
GR
GS
0.467 0.675 0.188 RC
[10 6] 0 setdash
2 LJ
0.5 LW
N
73.323 344.233 M
74.617 289.675 L
75.911 253.884 L
77.205 228.249 L
78.499 208.968 L
79.793 198.016 L
81.087 191.786 L
82.381 186.193 L
83.674 181.2 L
84.968 176.769 L
86.262 172.86 L
87.556 169.434 L
88.85 166.452 L
90.144 163.876 L
91.438 161.666 L
92.732 159.784 L
94.026 158.19 L
95.32 156.847 L
96.614 155.709 L
97.908 154.635 L
99.202 153.569 L
100.496 152.512 L
101.79 151.464 L
103.084 150.424 L
104.378 149.394 L
105.672 148.373 L
106.965 147.359 L
108.259 146.355 L
109.553 145.359 L
110.847 144.372 L
112.141 143.393 L
113.435 142.423 L
114.729 141.461 L
116.023 140.509 L
117.317 139.565 L
118.611 138.628 L
119.905 137.701 L
121.199 136.782 L
122.493 135.871 L
123.787 134.969 L
125.081 134.076 L
126.375 133.19 L
127.669 132.313 L
128.963 131.443 L
130.257 130.583 L
131.55 129.73 L
132.844 128.886 L
134.138 128.05 L
135.432 127.221 L
136.726 126.401 L
138.02 125.59 L
139.314 124.786 L
140.608 123.99 L
141.902 123.204 L
143.196 122.424 L
144.49 121.652 L
145.784 120.888 L
147.078 120.133 L
148.372 119.385 L
149.666 118.645 L
150.96 117.913 L
152.254 117.189 L
153.548 116.472 L
154.842 115.764 L
156.135 115.063 L
157.429 114.37 L
158.723 113.684 L
160.017 113.007 L
161.311 112.336 L
162.605 111.674 L
163.899 111.019 L
165.193 110.372 L
166.487 109.732 L
167.781 109.101 L
169.075 108.475 L
170.369 107.859 L
171.663 107.248 L
172.957 106.647 L
174.251 106.052 L
175.545 105.464 L
176.839 104.884 L
178.133 104.311 L
179.427 103.746 L
180.72 103.188 L
182.014 102.637 L
183.308 102.094 L
184.602 101.557 L
185.896 101.028 L
187.19 100.506 L
188.484 99.991 L
189.778 99.483 L
191.072 98.982 L
192.366 98.489 L
193.66 98.002 L
194.954 97.523 L
196.248 97.05 L
197.542 96.585 L
198.836 96.125 L
200.13 95.674 L
201.424 95.229 L
202.718 94.791 L
204.011 94.36 L
205.305 93.936 L
206.599 93.518 L
207.893 93.107 L
209.187 92.703 L
210.481 92.306 L
211.775 91.915 L
213.069 91.531 L
214.363 91.154 L
215.657 90.783 L
216.951 90.419 L
218.245 90.061 L
219.539 89.711 L
220.833 89.366 L
222.127 89.029 L
223.421 88.697 L
224.715 88.372 L
226.009 88.053 L
227.303 87.741 L
228.596 87.435 L
229.89 87.136 L
231.184 86.843 L
232.478 86.556 L
233.772 86.275 L
235.066 86.001 L
236.36 85.733 L
237.654 85.471 L
238.948 85.215 L
240.242 84.965 L
241.536 84.722 L
242.83 84.485 L
244.124 84.253 L
245.418 84.028 L
246.712 83.809 L
248.006 83.596 L
249.3 83.389 L
250.594 83.187 L
251.888 82.992 L
253.181 82.803 L
254.475 82.619 L
255.769 82.441 L
257.063 82.269 L
258.357 82.103 L
259.651 81.943 L
260.945 81.789 L
262.239 81.64 L
263.533 81.496 L
264.827 81.359 L
266.121 81.227 L
267.415 81.102 L
268.709 80.981 L
270.003 80.866 L
271.297 80.757 L
272.591 80.653 L
273.885 80.554 L
275.179 80.462 L
276.473 80.374 L
277.766 80.293 L
279.06 80.216 L
280.354 80.145 L
281.648 80.079 L
282.942 80.018 L
284.236 79.963 L
285.53 79.914 L
286.824 79.869 L
288.118 79.829 L
289.412 79.795 L
290.706 79.766 L
292 79.743 L
293.294 79.724 L
294.588 79.71 L
295.882 79.701 L
297.176 79.698 L
S
GR
GS
0.302 0.745 0.933 RC
[10 6] 0 setdash
2 LJ
0.5 LW
N
73.217 347.971 M
74.511 292.347 L
75.805 256.005 L
77.099 230.113 L
78.393 210.851 L
79.687 199.92 L
80.981 192.97 L
82.275 186.763 L
83.569 181.258 L
84.863 176.415 L
86.157 172.192 L
87.451 168.551 L
88.745 165.451 L
90.038 162.849 L
91.332 160.706 L
92.626 158.982 L
93.92 157.637 L
95.214 156.491 L
96.508 155.355 L
97.802 154.229 L
99.096 153.114 L
100.39 152.008 L
101.684 150.912 L
102.978 149.827 L
104.272 148.751 L
105.566 147.684 L
106.86 146.628 L
108.154 145.581 L
109.448 144.544 L
110.742 143.517 L
112.036 142.499 L
113.33 141.49 L
114.623 140.491 L
115.917 139.502 L
117.211 138.523 L
118.505 137.552 L
119.799 136.591 L
121.093 135.639 L
122.387 134.697 L
123.681 133.764 L
124.975 132.841 L
126.269 131.926 L
127.563 131.021 L
128.857 130.125 L
130.151 129.239 L
131.445 128.361 L
132.739 127.491 L
134.033 126.632 L
135.327 125.781 L
136.621 124.94 L
137.914 124.107 L
139.208 123.283 L
140.502 122.468 L
141.796 121.661 L
143.09 120.864 L
144.384 120.075 L
145.678 119.295 L
146.972 118.524 L
148.266 117.761 L
149.56 117.007 L
150.854 116.262 L
152.148 115.525 L
153.442 114.796 L
154.736 114.077 L
156.03 113.365 L
157.324 112.663 L
158.618 111.967 L
159.912 111.281 L
161.206 110.603 L
162.499 109.934 L
163.793 109.272 L
165.087 108.619 L
166.381 107.973 L
167.675 107.337 L
168.969 106.708 L
170.263 106.087 L
171.557 105.474 L
172.851 104.87 L
174.145 104.273 L
175.439 103.684 L
176.733 103.103 L
178.027 102.53 L
179.321 101.965 L
180.615 101.407 L
181.909 100.858 L
183.203 100.315 L
184.497 99.781 L
185.791 99.255 L
187.084 98.735 L
188.378 98.224 L
189.672 97.72 L
190.966 97.224 L
192.26 96.735 L
193.554 96.253 L
194.848 95.779 L
196.142 95.313 L
197.436 94.854 L
198.73 94.402 L
200.024 93.957 L
201.318 93.52 L
202.612 93.089 L
203.906 92.667 L
205.2 92.25 L
206.494 91.842 L
207.788 91.44 L
209.082 91.046 L
210.376 90.658 L
211.669 90.277 L
212.963 89.904 L
214.257 89.537 L
215.551 89.177 L
216.845 88.824 L
218.139 88.478 L
219.433 88.138 L
220.727 87.805 L
222.021 87.479 L
223.315 87.16 L
224.609 86.847 L
225.903 86.541 L
227.197 86.241 L
228.491 85.948 L
229.785 85.661 L
231.079 85.381 L
232.373 85.107 L
233.667 84.84 L
234.96 84.579 L
236.254 84.324 L
237.548 84.076 L
238.842 83.834 L
240.136 83.598 L
241.43 83.368 L
242.724 83.145 L
244.018 82.927 L
245.312 82.716 L
246.606 82.51 L
247.9 82.311 L
249.194 82.117 L
250.488 81.93 L
251.782 81.749 L
253.076 81.573 L
254.37 81.403 L
255.664 81.24 L
256.958 81.081 L
258.252 80.928 L
259.545 80.782 L
260.839 80.641 L
262.133 80.506 L
263.427 80.376 L
264.721 80.251 L
266.015 80.132 L
267.309 80.019 L
268.603 79.912 L
269.897 79.81 L
271.191 79.712 L
272.485 79.62 L
273.779 79.535 L
275.073 79.454 L
276.367 79.378 L
277.661 79.308 L
278.955 79.242 L
280.249 79.182 L
281.543 79.127 L
282.837 79.077 L
284.13 79.032 L
285.424 78.992 L
286.718 78.957 L
288.012 78.928 L
289.306 78.902 L
290.6 78.882 L
291.894 78.867 L
293.188 78.857 L
294.482 78.851 L
S
GR
GS
0.635 0.078 0.184 RC
[10 6] 0 setdash
2 LJ
0.5 LW
N
73.322 341.432 M
74.616 292.214 L
75.91 257.474 L
77.204 230.405 L
78.498 209.127 L
79.792 196.762 L
81.086 190.707 L
82.38 185.286 L
83.674 180.448 L
84.968 176.155 L
86.262 172.37 L
87.555 169.053 L
88.849 166.167 L
90.143 163.671 L
91.437 161.529 L
92.731 159.701 L
94.025 158.151 L
95.319 156.837 L
96.613 155.723 L
97.907 154.731 L
99.201 153.75 L
100.495 152.776 L
101.789 151.808 L
103.083 150.848 L
104.377 149.894 L
105.671 148.946 L
106.965 148.005 L
108.259 147.07 L
109.553 146.142 L
110.847 145.222 L
112.14 144.307 L
113.434 143.399 L
114.728 142.497 L
116.022 141.601 L
117.316 140.713 L
118.61 139.83 L
119.904 138.954 L
121.198 138.084 L
122.492 137.221 L
123.786 136.364 L
125.08 135.514 L
126.374 134.67 L
127.668 133.833 L
128.962 133.001 L
130.256 132.176 L
131.55 131.357 L
132.844 130.544 L
134.138 129.738 L
135.431 128.938 L
136.725 128.144 L
138.019 127.356 L
139.313 126.575 L
140.607 125.8 L
141.901 125.03 L
143.195 124.267 L
144.489 123.51 L
145.783 122.758 L
147.077 122.014 L
148.371 121.275 L
149.665 120.542 L
150.959 119.816 L
152.253 119.095 L
153.547 118.38 L
154.841 117.671 L
156.135 116.969 L
157.429 116.272 L
158.723 115.581 L
160.016 114.895 L
161.31 114.217 L
162.604 113.543 L
163.898 112.876 L
165.192 112.214 L
166.486 111.558 L
167.78 110.908 L
169.074 110.264 L
170.368 109.626 L
171.662 108.993 L
172.956 108.366 L
174.25 107.745 L
175.544 107.13 L
176.838 106.519 L
178.132 105.915 L
179.426 105.317 L
180.72 104.724 L
182.014 104.136 L
183.308 103.555 L
184.601 102.979 L
185.895 102.408 L
187.189 101.843 L
188.483 101.284 L
189.777 100.73 L
191.071 100.182 L
192.365 99.64 L
193.659 99.102 L
194.953 98.57 L
196.247 98.044 L
197.541 97.523 L
198.835 97.006 L
200.129 96.496 L
201.423 95.992 L
202.717 95.492 L
204.011 94.998 L
205.305 94.509 L
206.599 94.025 L
207.892 93.547 L
209.186 93.074 L
210.48 92.606 L
211.774 92.143 L
213.068 91.686 L
214.362 91.234 L
215.656 90.786 L
216.95 90.345 L
218.244 89.909 L
219.538 89.477 L
220.832 89.051 L
222.126 88.629 L
223.42 88.213 L
224.714 87.802 L
226.008 87.396 L
227.302 86.995 L
228.596 86.598 L
229.89 86.208 L
231.184 85.821 L
232.477 85.44 L
233.771 85.064 L
235.065 84.693 L
236.359 84.327 L
237.653 83.965 L
238.947 83.609 L
240.241 83.257 L
241.535 82.91 L
242.829 82.568 L
244.123 82.231 L
245.417 81.899 L
246.711 81.572 L
248.005 81.249 L
249.299 80.93 L
250.593 80.617 L
251.887 80.308 L
253.181 80.004 L
254.475 79.705 L
255.769 79.411 L
257.062 79.121 L
258.356 78.835 L
259.65 78.554 L
260.944 78.279 L
262.238 78.007 L
263.532 77.74 L
264.826 77.478 L
266.12 77.22 L
267.414 76.967 L
268.708 76.718 L
270.002 76.474 L
271.296 76.233 L
272.59 75.998 L
273.884 75.767 L
275.178 75.541 L
276.472 75.319 L
277.766 75.101 L
279.06 74.887 L
280.354 74.678 L
281.647 74.473 L
282.941 74.272 L
284.235 74.076 L
285.529 73.884 L
286.823 73.697 L
288.117 73.514 L
289.411 73.334 L
290.705 73.159 L
291.999 72.988 L
293.293 72.822 L
294.587 72.659 L
295.881 72.501 L
297.175 72.347 L
298.469 72.197 L
299.763 72.05 L
301.057 71.909 L
302.351 71.771 L
303.645 71.638 L
304.938 71.507 L
306.232 71.382 L
307.526 71.26 L
308.82 71.142 L
310.114 71.028 L
311.408 70.918 L
312.702 70.813 L
313.996 70.71 L
315.29 70.612 L
316.584 70.518 L
317.878 70.428 L
319.172 70.341 L
320.466 70.259 L
321.76 70.179 L
323.054 70.104 L
324.348 70.033 L
325.642 69.966 L
326.936 69.901 L
328.23 69.842 L
329.523 69.785 L
330.817 69.732 L
332.111 69.683 L
333.405 69.638 L
334.699 69.596 L
335.993 69.558 L
337.287 69.523 L
338.581 69.492 L
339.875 69.465 L
341.169 69.441 L
342.463 69.421 L
343.757 69.404 L
345.051 69.391 L
346.345 69.381 L
347.639 69.374 L
348.933 69.372 L
S
GR
GS
1 GC
N
499 366 M
499 250.5 L
344.5 250.5 L
344.5 366 L
cp
f
GR
GS
[1 0 0 1 381.5 260.25] CT
/Helvetica 13 F
GS
[1 0 0 1 0 0] CT
0 5 moveto 
1 -1 scale
(Base Run) t 
GR
GR
GS
0 0.447 0.741 RC
1 LJ
0.5 LW
N
348.5 260.25 M
378.5 260.25 L
S
GR
GS
[1 0 0 1 381.5 276.25] CT
/Helvetica 13 F
GS
[1 0 0 1 0 0] CT
0 5 moveto 
1 -1 scale
(I & B Frames) t 
GR
GR
GS
0.851 0.325 0.098 RC
1 LJ
0.5 LW
N
348.5 276.25 M
378.5 276.25 L
S
GR
GS
[1 0 0 1 381.5 292.25] CT
/Helvetica 13 F
GS
[1 0 0 1 0 0] CT
0 5 moveto 
1 -1 scale
(I Frames Only) t 
GR
GR
GS
0.929 0.694 0.125 RC
1 LJ
0.5 LW
N
348.5 292.25 M
378.5 292.25 L
S
GR
GS
[1 0 0 1 381.5 308.25] CT
/Helvetica 13 F
GS
[1 0 0 1 0 0] CT
0 5 moveto 
1 -1 scale
(B Frames Only) t 
GR
GR
GS
0.494 0.184 0.557 RC
1 LJ
0.5 LW
N
348.5 308.25 M
378.5 308.25 L
S
GR
GS
[1 0 0 1 381.5 324.25] CT
/Helvetica 13 F
GS
[1 0 0 1 0 0] CT
0 5 moveto 
1 -1 scale
(Part I & B Frames) t 
GR
GR
GS
0.467 0.675 0.188 RC
[10 6] 0 setdash
2 LJ
0.5 LW
N
348.5 324.25 M
378.5 324.25 L
S
GR
GS
[1 0 0 1 381.5 340.25] CT
/Helvetica 13 F
GS
[1 0 0 1 0 0] CT
0 5 moveto 
1 -1 scale
(Part I Frames Only) t 
GR
GR
GS
0.302 0.745 0.933 RC
[10 6] 0 setdash
2 LJ
0.5 LW
N
348.5 340.25 M
378.5 340.25 L
S
GR
GS
[1 0 0 1 381.5 356.25] CT
/Helvetica 13 F
GS
[1 0 0 1 0 0] CT
0 5 moveto 
1 -1 scale
(Part B Frames Only) t 
GR
GR
GS
0.635 0.078 0.184 RC
[10 6] 0 setdash
2 LJ
0.5 LW
N
348.5 356.25 M
378.5 356.25 L
S
GR
GS
0.149 GC
10.0 ML
0.5 LW
N
344.5 366 M
344.5 250.5 L
499 250.5 L
499 366 L
cp
S
GR
%%Trailer
%%Pages: 1
%%EOF
