%!PS-Adobe-3.0 EPSF-3.0
%%Creator: (MATLAB, The Mathworks, Inc. Version 9.11.0.1837725 \(R2021b\) Update 2. Operating System: Mac OS X)
%%Title: plots/pchip/DinnerSceneCropped_1920x1080_2997fps_10bit_420.y4m-av1-DE2K.eps
%%CreationDate: 2022-02-03T19:12:56
%%Pages: (atend)
%%BoundingBox:    22   425   525   826
%%LanguageLevel: 3
%%EndComments
%%BeginProlog
%%BeginResource: procset (Apache XML Graphics Std ProcSet) 1.2 0
%%Version: 1.2 0
%%Copyright: (Copyright 2001-2003,2010 The Apache Software Foundation. License terms: http://www.apache.org/licenses/LICENSE-2.0)
/bd{bind def}bind def
/ld{load def}bd
/GR/grestore ld
/GS/gsave ld
/RM/rmoveto ld
/C/curveto ld
/t/show ld
/L/lineto ld
/ML/setmiterlimit ld
/CT/concat ld
/f/fill ld
/N/newpath ld
/S/stroke ld
/CC/setcmykcolor ld
/A/ashow ld
/cp/closepath ld
/RC/setrgbcolor ld
/LJ/setlinejoin ld
/GC/setgray ld
/LW/setlinewidth ld
/M/moveto ld
/re {4 2 roll M
1 index 0 rlineto
0 exch rlineto
neg 0 rlineto
cp } bd
/_ctm matrix def
/_tm matrix def
/BT { _ctm currentmatrix pop matrix _tm copy pop 0 0 moveto } bd
/ET { _ctm setmatrix } bd
/iTm { _ctm setmatrix _tm concat } bd
/Tm { _tm astore pop iTm 0 0 moveto } bd
/ux 0.0 def
/uy 0.0 def
/F {
  /Tp exch def
  /Tf exch def
  Tf findfont Tp scalefont setfont
  /cf Tf def  /cs Tp def
} bd
/ULS {currentpoint /uy exch def /ux exch def} bd
/ULE {
  /Tcx currentpoint pop def
  gsave
  newpath
  cf findfont cs scalefont dup
  /FontMatrix get 0 get /Ts exch def /FontInfo get dup
  /UnderlinePosition get Ts mul /To exch def
  /UnderlineThickness get Ts mul /Tt exch def
  ux uy To add moveto  Tcx uy To add lineto
  Tt setlinewidth stroke
  grestore
} bd
/OLE {
  /Tcx currentpoint pop def
  gsave
  newpath
  cf findfont cs scalefont dup
  /FontMatrix get 0 get /Ts exch def /FontInfo get dup
  /UnderlinePosition get Ts mul /To exch def
  /UnderlineThickness get Ts mul /Tt exch def
  ux uy To add cs add moveto Tcx uy To add cs add lineto
  Tt setlinewidth stroke
  grestore
} bd
/SOE {
  /Tcx currentpoint pop def
  gsave
  newpath
  cf findfont cs scalefont dup
  /FontMatrix get 0 get /Ts exch def /FontInfo get dup
  /UnderlinePosition get Ts mul /To exch def
  /UnderlineThickness get Ts mul /Tt exch def
  ux uy To add cs 10 mul 26 idiv add moveto Tcx uy To add cs 10 mul 26 idiv add lineto
  Tt setlinewidth stroke
  grestore
} bd
/QT {
/Y22 exch store
/X22 exch store
/Y21 exch store
/X21 exch store
currentpoint
/Y21 load 2 mul add 3 div exch
/X21 load 2 mul add 3 div exch
/X21 load 2 mul /X22 load add 3 div
/Y21 load 2 mul /Y22 load add 3 div
/X22 load /Y22 load curveto
} bd
/SSPD {
dup length /d exch dict def
{
/v exch def
/k exch def
currentpagedevice k known {
/cpdv currentpagedevice k get def
v cpdv ne {
/upd false def
/nullv v type /nulltype eq def
/nullcpdv cpdv type /nulltype eq def
nullv nullcpdv or
{
/upd true def
} {
/sametype v type cpdv type eq def
sametype {
v type /arraytype eq {
/vlen v length def
/cpdvlen cpdv length def
vlen cpdvlen eq {
0 1 vlen 1 sub {
/i exch def
/obj v i get def
/cpdobj cpdv i get def
obj cpdobj ne {
/upd true def
exit
} if
} for
} {
/upd true def
} ifelse
} {
v type /dicttype eq {
v {
/dv exch def
/dk exch def
/cpddv cpdv dk get def
dv cpddv ne {
/upd true def
exit
} if
} forall
} {
/upd true def
} ifelse
} ifelse
} if
} ifelse
upd true eq {
d k v put
} if
} if
} if
} forall
d length 0 gt {
d setpagedevice
} if
} bd
/RE { % /NewFontName [NewEncodingArray] /FontName RE -
  findfont dup length dict begin
  {
    1 index /FID ne
    {def} {pop pop} ifelse
  } forall
  /Encoding exch def
  /FontName 1 index def
  currentdict definefont pop
  end
} bind def
%%EndResource
%%BeginResource: procset (Apache XML Graphics EPS ProcSet) 1.0 0
%%Version: 1.0 0
%%Copyright: (Copyright 2002-2003 The Apache Software Foundation. License terms: http://www.apache.org/licenses/LICENSE-2.0)
/BeginEPSF { %def
/b4_Inc_state save def         % Save state for cleanup
/dict_count countdictstack def % Count objects on dict stack
/op_count count 1 sub def      % Count objects on operand stack
userdict begin                 % Push userdict on dict stack
/showpage { } def              % Redefine showpage, { } = null proc
0 setgray 0 setlinecap         % Prepare graphics state
1 setlinewidth 0 setlinejoin
10 setmiterlimit [ ] 0 setdash newpath
/languagelevel where           % If level not equal to 1 then
{pop languagelevel             % set strokeadjust and
1 ne                           % overprint to their defaults.
{false setstrokeadjust false setoverprint
} if
} if
} bd
/EndEPSF { %def
count op_count sub {pop} repeat            % Clean up stacks
countdictstack dict_count sub {end} repeat
b4_Inc_state restore
} bd
%%EndResource
%FOPBeginFontDict
%%IncludeResource: font Courier-Oblique
%%IncludeResource: font Courier-BoldOblique
%%IncludeResource: font Courier-Bold
%%IncludeResource: font ZapfDingbats
%%IncludeResource: font Symbol
%%IncludeResource: font Helvetica
%%IncludeResource: font Helvetica-Oblique
%%IncludeResource: font Helvetica-Bold
%%IncludeResource: font Helvetica-BoldOblique
%%IncludeResource: font Times-Roman
%%IncludeResource: font Times-Italic
%%IncludeResource: font Times-Bold
%%IncludeResource: font Times-BoldItalic
%%IncludeResource: font Courier
%FOPEndFontDict
%%BeginResource: encoding WinAnsiEncoding
/WinAnsiEncoding [
/.notdef /.notdef /.notdef /.notdef /.notdef
/.notdef /.notdef /.notdef /.notdef /.notdef
/.notdef /.notdef /.notdef /.notdef /.notdef
/.notdef /.notdef /.notdef /.notdef /.notdef
/.notdef /.notdef /.notdef /.notdef /.notdef
/.notdef /.notdef /.notdef /.notdef /.notdef
/.notdef /.notdef /space /exclam /quotedbl
/numbersign /dollar /percent /ampersand /quotesingle
/parenleft /parenright /asterisk /plus /comma
/hyphen /period /slash /zero /one
/two /three /four /five /six
/seven /eight /nine /colon /semicolon
/less /equal /greater /question /at
/A /B /C /D /E
/F /G /H /I /J
/K /L /M /N /O
/P /Q /R /S /T
/U /V /W /X /Y
/Z /bracketleft /backslash /bracketright /asciicircum
/underscore /quoteleft /a /b /c
/d /e /f /g /h
/i /j /k /l /m
/n /o /p /q /r
/s /t /u /v /w
/x /y /z /braceleft /bar
/braceright /asciitilde /bullet /Euro /bullet
/quotesinglbase /florin /quotedblbase /ellipsis /dagger
/daggerdbl /circumflex /perthousand /Scaron /guilsinglleft
/OE /bullet /Zcaron /bullet /bullet
/quoteleft /quoteright /quotedblleft /quotedblright /bullet
/endash /emdash /asciitilde /trademark /scaron
/guilsinglright /oe /bullet /zcaron /Ydieresis
/space /exclamdown /cent /sterling /currency
/yen /brokenbar /section /dieresis /copyright
/ordfeminine /guillemotleft /logicalnot /sfthyphen /registered
/macron /degree /plusminus /twosuperior /threesuperior
/acute /mu /paragraph /middot /cedilla
/onesuperior /ordmasculine /guillemotright /onequarter /onehalf
/threequarters /questiondown /Agrave /Aacute /Acircumflex
/Atilde /Adieresis /Aring /AE /Ccedilla
/Egrave /Eacute /Ecircumflex /Edieresis /Igrave
/Iacute /Icircumflex /Idieresis /Eth /Ntilde
/Ograve /Oacute /Ocircumflex /Otilde /Odieresis
/multiply /Oslash /Ugrave /Uacute /Ucircumflex
/Udieresis /Yacute /Thorn /germandbls /agrave
/aacute /acircumflex /atilde /adieresis /aring
/ae /ccedilla /egrave /eacute /ecircumflex
/edieresis /igrave /iacute /icircumflex /idieresis
/eth /ntilde /ograve /oacute /ocircumflex
/otilde /odieresis /divide /oslash /ugrave
/uacute /ucircumflex /udieresis /yacute /thorn
/ydieresis
] def
%%EndResource
%FOPBeginFontReencode
/Courier-Oblique findfont
dup length dict begin
  {1 index /FID ne {def} {pop pop} ifelse} forall
  /Encoding WinAnsiEncoding def
  currentdict
end
/Courier-Oblique exch definefont pop
/Courier-BoldOblique findfont
dup length dict begin
  {1 index /FID ne {def} {pop pop} ifelse} forall
  /Encoding WinAnsiEncoding def
  currentdict
end
/Courier-BoldOblique exch definefont pop
/Courier-Bold findfont
dup length dict begin
  {1 index /FID ne {def} {pop pop} ifelse} forall
  /Encoding WinAnsiEncoding def
  currentdict
end
/Courier-Bold exch definefont pop
/Helvetica findfont
dup length dict begin
  {1 index /FID ne {def} {pop pop} ifelse} forall
  /Encoding WinAnsiEncoding def
  currentdict
end
/Helvetica exch definefont pop
/Helvetica-Oblique findfont
dup length dict begin
  {1 index /FID ne {def} {pop pop} ifelse} forall
  /Encoding WinAnsiEncoding def
  currentdict
end
/Helvetica-Oblique exch definefont pop
/Helvetica-Bold findfont
dup length dict begin
  {1 index /FID ne {def} {pop pop} ifelse} forall
  /Encoding WinAnsiEncoding def
  currentdict
end
/Helvetica-Bold exch definefont pop
/Helvetica-BoldOblique findfont
dup length dict begin
  {1 index /FID ne {def} {pop pop} ifelse} forall
  /Encoding WinAnsiEncoding def
  currentdict
end
/Helvetica-BoldOblique exch definefont pop
/Times-Roman findfont
dup length dict begin
  {1 index /FID ne {def} {pop pop} ifelse} forall
  /Encoding WinAnsiEncoding def
  currentdict
end
/Times-Roman exch definefont pop
/Times-Italic findfont
dup length dict begin
  {1 index /FID ne {def} {pop pop} ifelse} forall
  /Encoding WinAnsiEncoding def
  currentdict
end
/Times-Italic exch definefont pop
/Times-Bold findfont
dup length dict begin
  {1 index /FID ne {def} {pop pop} ifelse} forall
  /Encoding WinAnsiEncoding def
  currentdict
end
/Times-Bold exch definefont pop
/Times-BoldItalic findfont
dup length dict begin
  {1 index /FID ne {def} {pop pop} ifelse} forall
  /Encoding WinAnsiEncoding def
  currentdict
end
/Times-BoldItalic exch definefont pop
/Courier findfont
dup length dict begin
  {1 index /FID ne {def} {pop pop} ifelse} forall
  /Encoding WinAnsiEncoding def
  currentdict
end
/Courier exch definefont pop
%FOPEndFontReencode
%%EndProlog
%%Page: 1 1
%%PageBoundingBox: 0 0 1120 840
%%BeginPageSetup
[1 0 0 -1 0 840] CT
%%EndPageSetup
GS
1 GC
N
0 0 1120 840 re
f
GR
GS
1 GC
N
73 374 M
507 374 L
507 31.5 L
73 31.5 L
cp
f
GR
GS
0.149 GC
2 setlinecap
1 LJ
0.5 LW
N
73 374 M
507 374 L
S
GR
GS
0.149 GC
2 setlinecap
1 LJ
0.5 LW
N
73 31.5 M
507 31.5 L
S
GR
GS
0.149 GC
2 setlinecap
1 LJ
0.5 LW
N
118.708 374 M
118.708 369.66 L
S
GR
GS
0.149 GC
2 setlinecap
1 LJ
0.5 LW
N
166.822 374 M
166.822 369.66 L
S
GR
GS
0.149 GC
2 setlinecap
1 LJ
0.5 LW
N
214.935 374 M
214.935 369.66 L
S
GR
GS
0.149 GC
2 setlinecap
1 LJ
0.5 LW
N
263.049 374 M
263.049 369.66 L
S
GR
GS
0.149 GC
2 setlinecap
1 LJ
0.5 LW
N
311.162 374 M
311.162 369.66 L
S
GR
GS
0.149 GC
2 setlinecap
1 LJ
0.5 LW
N
359.276 374 M
359.276 369.66 L
S
GR
GS
0.149 GC
2 setlinecap
1 LJ
0.5 LW
N
407.389 374 M
407.389 369.66 L
S
GR
GS
0.149 GC
2 setlinecap
1 LJ
0.5 LW
N
455.503 374 M
455.503 369.66 L
S
GR
GS
0.149 GC
2 setlinecap
1 LJ
0.5 LW
N
503.616 374 M
503.616 369.66 L
S
GR
GS
0.149 GC
2 setlinecap
1 LJ
0.5 LW
N
118.708 31.5 M
118.708 35.84 L
S
GR
GS
0.149 GC
2 setlinecap
1 LJ
0.5 LW
N
166.822 31.5 M
166.822 35.84 L
S
GR
GS
0.149 GC
2 setlinecap
1 LJ
0.5 LW
N
214.935 31.5 M
214.935 35.84 L
S
GR
GS
0.149 GC
2 setlinecap
1 LJ
0.5 LW
N
263.049 31.5 M
263.049 35.84 L
S
GR
GS
0.149 GC
2 setlinecap
1 LJ
0.5 LW
N
311.162 31.5 M
311.162 35.84 L
S
GR
GS
0.149 GC
2 setlinecap
1 LJ
0.5 LW
N
359.276 31.5 M
359.276 35.84 L
S
GR
GS
0.149 GC
2 setlinecap
1 LJ
0.5 LW
N
407.389 31.5 M
407.389 35.84 L
S
GR
GS
0.149 GC
2 setlinecap
1 LJ
0.5 LW
N
455.503 31.5 M
455.503 35.84 L
S
GR
GS
0.149 GC
2 setlinecap
1 LJ
0.5 LW
N
503.616 31.5 M
503.616 35.84 L
S
GR
GS
0.149 GC
2 setlinecap
1 LJ
0.5 LW
N
80.218 374 M
80.218 371.83 L
S
GR
GS
0.149 GC
2 setlinecap
1 LJ
0.5 LW
N
89.84 374 M
89.84 371.83 L
S
GR
GS
0.149 GC
2 setlinecap
1 LJ
0.5 LW
N
99.463 374 M
99.463 371.83 L
S
GR
GS
0.149 GC
2 setlinecap
1 LJ
0.5 LW
N
109.086 374 M
109.086 371.83 L
S
GR
GS
0.149 GC
2 setlinecap
1 LJ
0.5 LW
N
128.331 374 M
128.331 371.83 L
S
GR
GS
0.149 GC
2 setlinecap
1 LJ
0.5 LW
N
137.954 374 M
137.954 371.83 L
S
GR
GS
0.149 GC
2 setlinecap
1 LJ
0.5 LW
N
147.577 374 M
147.577 371.83 L
S
GR
GS
0.149 GC
2 setlinecap
1 LJ
0.5 LW
N
157.199 374 M
157.199 371.83 L
S
GR
GS
0.149 GC
2 setlinecap
1 LJ
0.5 LW
N
176.445 374 M
176.445 371.83 L
S
GR
GS
0.149 GC
2 setlinecap
1 LJ
0.5 LW
N
186.067 374 M
186.067 371.83 L
S
GR
GS
0.149 GC
2 setlinecap
1 LJ
0.5 LW
N
195.69 374 M
195.69 371.83 L
S
GR
GS
0.149 GC
2 setlinecap
1 LJ
0.5 LW
N
205.313 374 M
205.313 371.83 L
S
GR
GS
0.149 GC
2 setlinecap
1 LJ
0.5 LW
N
224.558 374 M
224.558 371.83 L
S
GR
GS
0.149 GC
2 setlinecap
1 LJ
0.5 LW
N
234.181 374 M
234.181 371.83 L
S
GR
GS
0.149 GC
2 setlinecap
1 LJ
0.5 LW
N
243.803 374 M
243.803 371.83 L
S
GR
GS
0.149 GC
2 setlinecap
1 LJ
0.5 LW
N
253.426 374 M
253.426 371.83 L
S
GR
GS
0.149 GC
2 setlinecap
1 LJ
0.5 LW
N
272.672 374 M
272.672 371.83 L
S
GR
GS
0.149 GC
2 setlinecap
1 LJ
0.5 LW
N
282.294 374 M
282.294 371.83 L
S
GR
GS
0.149 GC
2 setlinecap
1 LJ
0.5 LW
N
291.917 374 M
291.917 371.83 L
S
GR
GS
0.149 GC
2 setlinecap
1 LJ
0.5 LW
N
301.54 374 M
301.54 371.83 L
S
GR
GS
0.149 GC
2 setlinecap
1 LJ
0.5 LW
N
320.785 374 M
320.785 371.83 L
S
GR
GS
0.149 GC
2 setlinecap
1 LJ
0.5 LW
N
330.408 374 M
330.408 371.83 L
S
GR
GS
0.149 GC
2 setlinecap
1 LJ
0.5 LW
N
340.03 374 M
340.03 371.83 L
S
GR
GS
0.149 GC
2 setlinecap
1 LJ
0.5 LW
N
349.653 374 M
349.653 371.83 L
S
GR
GS
0.149 GC
2 setlinecap
1 LJ
0.5 LW
N
368.898 374 M
368.898 371.83 L
S
GR
GS
0.149 GC
2 setlinecap
1 LJ
0.5 LW
N
378.521 374 M
378.521 371.83 L
S
GR
GS
0.149 GC
2 setlinecap
1 LJ
0.5 LW
N
388.144 374 M
388.144 371.83 L
S
GR
GS
0.149 GC
2 setlinecap
1 LJ
0.5 LW
N
397.767 374 M
397.767 371.83 L
S
GR
GS
0.149 GC
2 setlinecap
1 LJ
0.5 LW
N
417.012 374 M
417.012 371.83 L
S
GR
GS
0.149 GC
2 setlinecap
1 LJ
0.5 LW
N
426.635 374 M
426.635 371.83 L
S
GR
GS
0.149 GC
2 setlinecap
1 LJ
0.5 LW
N
436.257 374 M
436.257 371.83 L
S
GR
GS
0.149 GC
2 setlinecap
1 LJ
0.5 LW
N
445.88 374 M
445.88 371.83 L
S
GR
GS
0.149 GC
2 setlinecap
1 LJ
0.5 LW
N
465.125 374 M
465.125 371.83 L
S
GR
GS
0.149 GC
2 setlinecap
1 LJ
0.5 LW
N
474.748 374 M
474.748 371.83 L
S
GR
GS
0.149 GC
2 setlinecap
1 LJ
0.5 LW
N
484.371 374 M
484.371 371.83 L
S
GR
GS
0.149 GC
2 setlinecap
1 LJ
0.5 LW
N
493.994 374 M
493.994 371.83 L
S
GR
GS
0.149 GC
2 setlinecap
1 LJ
0.5 LW
N
80.218 31.5 M
80.218 33.67 L
S
GR
GS
0.149 GC
2 setlinecap
1 LJ
0.5 LW
N
89.84 31.5 M
89.84 33.67 L
S
GR
GS
0.149 GC
2 setlinecap
1 LJ
0.5 LW
N
99.463 31.5 M
99.463 33.67 L
S
GR
GS
0.149 GC
2 setlinecap
1 LJ
0.5 LW
N
109.086 31.5 M
109.086 33.67 L
S
GR
GS
0.149 GC
2 setlinecap
1 LJ
0.5 LW
N
128.331 31.5 M
128.331 33.67 L
S
GR
GS
0.149 GC
2 setlinecap
1 LJ
0.5 LW
N
137.954 31.5 M
137.954 33.67 L
S
GR
GS
0.149 GC
2 setlinecap
1 LJ
0.5 LW
N
147.577 31.5 M
147.577 33.67 L
S
GR
GS
0.149 GC
2 setlinecap
1 LJ
0.5 LW
N
157.199 31.5 M
157.199 33.67 L
S
GR
GS
0.149 GC
2 setlinecap
1 LJ
0.5 LW
N
176.445 31.5 M
176.445 33.67 L
S
GR
GS
0.149 GC
2 setlinecap
1 LJ
0.5 LW
N
186.067 31.5 M
186.067 33.67 L
S
GR
GS
0.149 GC
2 setlinecap
1 LJ
0.5 LW
N
195.69 31.5 M
195.69 33.67 L
S
GR
GS
0.149 GC
2 setlinecap
1 LJ
0.5 LW
N
205.313 31.5 M
205.313 33.67 L
S
GR
GS
0.149 GC
2 setlinecap
1 LJ
0.5 LW
N
224.558 31.5 M
224.558 33.67 L
S
GR
GS
0.149 GC
2 setlinecap
1 LJ
0.5 LW
N
234.181 31.5 M
234.181 33.67 L
S
GR
GS
0.149 GC
2 setlinecap
1 LJ
0.5 LW
N
243.803 31.5 M
243.803 33.67 L
S
GR
GS
0.149 GC
2 setlinecap
1 LJ
0.5 LW
N
253.426 31.5 M
253.426 33.67 L
S
GR
GS
0.149 GC
2 setlinecap
1 LJ
0.5 LW
N
272.672 31.5 M
272.672 33.67 L
S
GR
GS
0.149 GC
2 setlinecap
1 LJ
0.5 LW
N
282.294 31.5 M
282.294 33.67 L
S
GR
GS
0.149 GC
2 setlinecap
1 LJ
0.5 LW
N
291.917 31.5 M
291.917 33.67 L
S
GR
GS
0.149 GC
2 setlinecap
1 LJ
0.5 LW
N
301.54 31.5 M
301.54 33.67 L
S
GR
GS
0.149 GC
2 setlinecap
1 LJ
0.5 LW
N
320.785 31.5 M
320.785 33.67 L
S
GR
GS
0.149 GC
2 setlinecap
1 LJ
0.5 LW
N
330.408 31.5 M
330.408 33.67 L
S
GR
GS
0.149 GC
2 setlinecap
1 LJ
0.5 LW
N
340.03 31.5 M
340.03 33.67 L
S
GR
GS
0.149 GC
2 setlinecap
1 LJ
0.5 LW
N
349.653 31.5 M
349.653 33.67 L
S
GR
GS
0.149 GC
2 setlinecap
1 LJ
0.5 LW
N
368.898 31.5 M
368.898 33.67 L
S
GR
GS
0.149 GC
2 setlinecap
1 LJ
0.5 LW
N
378.521 31.5 M
378.521 33.67 L
S
GR
GS
0.149 GC
2 setlinecap
1 LJ
0.5 LW
N
388.144 31.5 M
388.144 33.67 L
S
GR
GS
0.149 GC
2 setlinecap
1 LJ
0.5 LW
N
397.767 31.5 M
397.767 33.67 L
S
GR
GS
0.149 GC
2 setlinecap
1 LJ
0.5 LW
N
417.012 31.5 M
417.012 33.67 L
S
GR
GS
0.149 GC
2 setlinecap
1 LJ
0.5 LW
N
426.635 31.5 M
426.635 33.67 L
S
GR
GS
0.149 GC
2 setlinecap
1 LJ
0.5 LW
N
436.257 31.5 M
436.257 33.67 L
S
GR
GS
0.149 GC
2 setlinecap
1 LJ
0.5 LW
N
445.88 31.5 M
445.88 33.67 L
S
GR
GS
0.149 GC
2 setlinecap
1 LJ
0.5 LW
N
465.125 31.5 M
465.125 33.67 L
S
GR
GS
0.149 GC
2 setlinecap
1 LJ
0.5 LW
N
474.748 31.5 M
474.748 33.67 L
S
GR
GS
0.149 GC
2 setlinecap
1 LJ
0.5 LW
N
484.371 31.5 M
484.371 33.67 L
S
GR
GS
0.149 GC
2 setlinecap
1 LJ
0.5 LW
N
493.994 31.5 M
493.994 33.67 L
S
GR
GS
[1 0 0 1 118.70846 378.80008] CT
0.149 GC
/Helvetica 14 F
GS
[1 0 0 1 0 0] CT
-16 14 moveto 
1 -1 scale
(1000) t 
GR
GR
GS
[1 0 0 1 166.82193 378.80008] CT
0.149 GC
/Helvetica 14 F
GS
[1 0 0 1 0 0] CT
-16 14 moveto 
1 -1 scale
(2000) t 
GR
GR
GS
[1 0 0 1 214.93539 378.80008] CT
0.149 GC
/Helvetica 14 F
GS
[1 0 0 1 0 0] CT
-16 14 moveto 
1 -1 scale
(3000) t 
GR
GR
GS
[1 0 0 1 263.04886 378.80008] CT
0.149 GC
/Helvetica 14 F
GS
[1 0 0 1 0 0] CT
-16 14 moveto 
1 -1 scale
(4000) t 
GR
GR
GS
[1 0 0 1 311.16235 378.80008] CT
0.149 GC
/Helvetica 14 F
GS
[1 0 0 1 0 0] CT
-16 14 moveto 
1 -1 scale
(5000) t 
GR
GR
GS
[1 0 0 1 359.27582 378.80008] CT
0.149 GC
/Helvetica 14 F
GS
[1 0 0 1 0 0] CT
-16 14 moveto 
1 -1 scale
(6000) t 
GR
GR
GS
[1 0 0 1 407.38928 378.80008] CT
0.149 GC
/Helvetica 14 F
GS
[1 0 0 1 0 0] CT
-16 14 moveto 
1 -1 scale
(7000) t 
GR
GR
GS
[1 0 0 1 455.50275 378.80008] CT
0.149 GC
/Helvetica 14 F
GS
[1 0 0 1 0 0] CT
-16 14 moveto 
1 -1 scale
(8000) t 
GR
GR
GS
[1 0 0 1 503.61621 378.80008] CT
0.149 GC
/Helvetica 14 F
GS
[1 0 0 1 0 0] CT
-16 14 moveto 
1 -1 scale
(9000) t 
GR
GR
GS
[1 0 0 1 290.00021 396.3002] CT
0.149 GC
/Helvetica 15.4 F
GS
[1 0 0 1 0 0] CT
-42 15 moveto 
1 -1 scale
(Bitrate\(kb/s\)) t 
GR
GR
GS
0.149 GC
2 setlinecap
1 LJ
0.5 LW
N
73 374 M
73 31.5 L
S
GR
GS
0.149 GC
2 setlinecap
1 LJ
0.5 LW
N
507 374 M
507 31.5 L
S
GR
GS
0.149 GC
2 setlinecap
1 LJ
0.5 LW
N
73 364.24 M
77.34 364.24 L
S
GR
GS
0.149 GC
2 setlinecap
1 LJ
0.5 LW
N
73 329.866 M
77.34 329.866 L
S
GR
GS
0.149 GC
2 setlinecap
1 LJ
0.5 LW
N
73 295.492 M
77.34 295.492 L
S
GR
GS
0.149 GC
2 setlinecap
1 LJ
0.5 LW
N
73 261.118 M
77.34 261.118 L
S
GR
GS
0.149 GC
2 setlinecap
1 LJ
0.5 LW
N
73 226.744 M
77.34 226.744 L
S
GR
GS
0.149 GC
2 setlinecap
1 LJ
0.5 LW
N
73 192.37 M
77.34 192.37 L
S
GR
GS
0.149 GC
2 setlinecap
1 LJ
0.5 LW
N
73 157.996 M
77.34 157.996 L
S
GR
GS
0.149 GC
2 setlinecap
1 LJ
0.5 LW
N
73 123.622 M
77.34 123.622 L
S
GR
GS
0.149 GC
2 setlinecap
1 LJ
0.5 LW
N
73 89.248 M
77.34 89.248 L
S
GR
GS
0.149 GC
2 setlinecap
1 LJ
0.5 LW
N
73 54.874 M
77.34 54.874 L
S
GR
GS
0.149 GC
2 setlinecap
1 LJ
0.5 LW
N
507 364.24 M
502.66 364.24 L
S
GR
GS
0.149 GC
2 setlinecap
1 LJ
0.5 LW
N
507 329.866 M
502.66 329.866 L
S
GR
GS
0.149 GC
2 setlinecap
1 LJ
0.5 LW
N
507 295.492 M
502.66 295.492 L
S
GR
GS
0.149 GC
2 setlinecap
1 LJ
0.5 LW
N
507 261.118 M
502.66 261.118 L
S
GR
GS
0.149 GC
2 setlinecap
1 LJ
0.5 LW
N
507 226.744 M
502.66 226.744 L
S
GR
GS
0.149 GC
2 setlinecap
1 LJ
0.5 LW
N
507 192.37 M
502.66 192.37 L
S
GR
GS
0.149 GC
2 setlinecap
1 LJ
0.5 LW
N
507 157.996 M
502.66 157.996 L
S
GR
GS
0.149 GC
2 setlinecap
1 LJ
0.5 LW
N
507 123.622 M
502.66 123.622 L
S
GR
GS
0.149 GC
2 setlinecap
1 LJ
0.5 LW
N
507 89.248 M
502.66 89.248 L
S
GR
GS
0.149 GC
2 setlinecap
1 LJ
0.5 LW
N
507 54.874 M
502.66 54.874 L
S
GR
GS
0.149 GC
2 setlinecap
1 LJ
0.5 LW
N
73 372.834 M
75.17 372.834 L
S
GR
GS
0.149 GC
2 setlinecap
1 LJ
0.5 LW
N
73 355.646 M
75.17 355.646 L
S
GR
GS
0.149 GC
2 setlinecap
1 LJ
0.5 LW
N
73 347.053 M
75.17 347.053 L
S
GR
GS
0.149 GC
2 setlinecap
1 LJ
0.5 LW
N
73 338.46 M
75.17 338.46 L
S
GR
GS
0.149 GC
2 setlinecap
1 LJ
0.5 LW
N
73 321.273 M
75.17 321.273 L
S
GR
GS
0.149 GC
2 setlinecap
1 LJ
0.5 LW
N
73 312.679 M
75.17 312.679 L
S
GR
GS
0.149 GC
2 setlinecap
1 LJ
0.5 LW
N
73 304.086 M
75.17 304.086 L
S
GR
GS
0.149 GC
2 setlinecap
1 LJ
0.5 LW
N
73 286.899 M
75.17 286.899 L
S
GR
GS
0.149 GC
2 setlinecap
1 LJ
0.5 LW
N
73 278.305 M
75.17 278.305 L
S
GR
GS
0.149 GC
2 setlinecap
1 LJ
0.5 LW
N
73 269.711 M
75.17 269.711 L
S
GR
GS
0.149 GC
2 setlinecap
1 LJ
0.5 LW
N
73 252.525 M
75.17 252.525 L
S
GR
GS
0.149 GC
2 setlinecap
1 LJ
0.5 LW
N
73 243.931 M
75.17 243.931 L
S
GR
GS
0.149 GC
2 setlinecap
1 LJ
0.5 LW
N
73 235.338 M
75.17 235.338 L
S
GR
GS
0.149 GC
2 setlinecap
1 LJ
0.5 LW
N
73 218.151 M
75.17 218.151 L
S
GR
GS
0.149 GC
2 setlinecap
1 LJ
0.5 LW
N
73 209.557 M
75.17 209.557 L
S
GR
GS
0.149 GC
2 setlinecap
1 LJ
0.5 LW
N
73 200.964 M
75.17 200.964 L
S
GR
GS
0.149 GC
2 setlinecap
1 LJ
0.5 LW
N
73 183.776 M
75.17 183.776 L
S
GR
GS
0.149 GC
2 setlinecap
1 LJ
0.5 LW
N
73 175.183 M
75.17 175.183 L
S
GR
GS
0.149 GC
2 setlinecap
1 LJ
0.5 LW
N
73 166.59 M
75.17 166.59 L
S
GR
GS
0.149 GC
2 setlinecap
1 LJ
0.5 LW
N
73 149.403 M
75.17 149.403 L
S
GR
GS
0.149 GC
2 setlinecap
1 LJ
0.5 LW
N
73 140.809 M
75.17 140.809 L
S
GR
GS
0.149 GC
2 setlinecap
1 LJ
0.5 LW
N
73 132.216 M
75.17 132.216 L
S
GR
GS
0.149 GC
2 setlinecap
1 LJ
0.5 LW
N
73 115.029 M
75.17 115.029 L
S
GR
GS
0.149 GC
2 setlinecap
1 LJ
0.5 LW
N
73 106.435 M
75.17 106.435 L
S
GR
GS
0.149 GC
2 setlinecap
1 LJ
0.5 LW
N
73 97.841 M
75.17 97.841 L
S
GR
GS
0.149 GC
2 setlinecap
1 LJ
0.5 LW
N
73 80.655 M
75.17 80.655 L
S
GR
GS
0.149 GC
2 setlinecap
1 LJ
0.5 LW
N
73 72.061 M
75.17 72.061 L
S
GR
GS
0.149 GC
2 setlinecap
1 LJ
0.5 LW
N
73 63.468 M
75.17 63.468 L
S
GR
GS
0.149 GC
2 setlinecap
1 LJ
0.5 LW
N
73 46.28 M
75.17 46.28 L
S
GR
GS
0.149 GC
2 setlinecap
1 LJ
0.5 LW
N
73 37.687 M
75.17 37.687 L
S
GR
GS
0.149 GC
2 setlinecap
1 LJ
0.5 LW
N
507 372.834 M
504.83 372.834 L
S
GR
GS
0.149 GC
2 setlinecap
1 LJ
0.5 LW
N
507 355.646 M
504.83 355.646 L
S
GR
GS
0.149 GC
2 setlinecap
1 LJ
0.5 LW
N
507 347.053 M
504.83 347.053 L
S
GR
GS
0.149 GC
2 setlinecap
1 LJ
0.5 LW
N
507 338.46 M
504.83 338.46 L
S
GR
GS
0.149 GC
2 setlinecap
1 LJ
0.5 LW
N
507 321.273 M
504.83 321.273 L
S
GR
GS
0.149 GC
2 setlinecap
1 LJ
0.5 LW
N
507 312.679 M
504.83 312.679 L
S
GR
GS
0.149 GC
2 setlinecap
1 LJ
0.5 LW
N
507 304.086 M
504.83 304.086 L
S
GR
GS
0.149 GC
2 setlinecap
1 LJ
0.5 LW
N
507 286.899 M
504.83 286.899 L
S
GR
GS
0.149 GC
2 setlinecap
1 LJ
0.5 LW
N
507 278.305 M
504.83 278.305 L
S
GR
GS
0.149 GC
2 setlinecap
1 LJ
0.5 LW
N
507 269.711 M
504.83 269.711 L
S
GR
GS
0.149 GC
2 setlinecap
1 LJ
0.5 LW
N
507 252.525 M
504.83 252.525 L
S
GR
GS
0.149 GC
2 setlinecap
1 LJ
0.5 LW
N
507 243.931 M
504.83 243.931 L
S
GR
GS
0.149 GC
2 setlinecap
1 LJ
0.5 LW
N
507 235.338 M
504.83 235.338 L
S
GR
GS
0.149 GC
2 setlinecap
1 LJ
0.5 LW
N
507 218.151 M
504.83 218.151 L
S
GR
GS
0.149 GC
2 setlinecap
1 LJ
0.5 LW
N
507 209.557 M
504.83 209.557 L
S
GR
GS
0.149 GC
2 setlinecap
1 LJ
0.5 LW
N
507 200.964 M
504.83 200.964 L
S
GR
GS
0.149 GC
2 setlinecap
1 LJ
0.5 LW
N
507 183.776 M
504.83 183.776 L
S
GR
GS
0.149 GC
2 setlinecap
1 LJ
0.5 LW
N
507 175.183 M
504.83 175.183 L
S
GR
GS
0.149 GC
2 setlinecap
1 LJ
0.5 LW
N
507 166.59 M
504.83 166.59 L
S
GR
GS
0.149 GC
2 setlinecap
1 LJ
0.5 LW
N
507 149.403 M
504.83 149.403 L
S
GR
GS
0.149 GC
2 setlinecap
1 LJ
0.5 LW
N
507 140.809 M
504.83 140.809 L
S
GR
GS
0.149 GC
2 setlinecap
1 LJ
0.5 LW
N
507 132.216 M
504.83 132.216 L
S
GR
GS
0.149 GC
2 setlinecap
1 LJ
0.5 LW
N
507 115.029 M
504.83 115.029 L
S
GR
GS
0.149 GC
2 setlinecap
1 LJ
0.5 LW
N
507 106.435 M
504.83 106.435 L
S
GR
GS
0.149 GC
2 setlinecap
1 LJ
0.5 LW
N
507 97.841 M
504.83 97.841 L
S
GR
GS
0.149 GC
2 setlinecap
1 LJ
0.5 LW
N
507 80.655 M
504.83 80.655 L
S
GR
GS
0.149 GC
2 setlinecap
1 LJ
0.5 LW
N
507 72.061 M
504.83 72.061 L
S
GR
GS
0.149 GC
2 setlinecap
1 LJ
0.5 LW
N
507 63.468 M
504.83 63.468 L
S
GR
GS
0.149 GC
2 setlinecap
1 LJ
0.5 LW
N
507 46.28 M
504.83 46.28 L
S
GR
GS
0.149 GC
2 setlinecap
1 LJ
0.5 LW
N
507 37.687 M
504.83 37.687 L
S
GR
GS
[1 0 0 1 68.2 364.24045] CT
0.149 GC
/Helvetica 14 F
GS
[1 0 0 1 0 0] CT
-28 5.5 moveto 
1 -1 scale
(36.6) t 
GR
GR
GS
[1 0 0 1 68.2 329.8663] CT
0.149 GC
/Helvetica 14 F
GS
[1 0 0 1 0 0] CT
-28 5.5 moveto 
1 -1 scale
(36.8) t 
GR
GR
GS
[1 0 0 1 68.2 295.49219] CT
0.149 GC
/Helvetica 14 F
GS
[1 0 0 1 0 0] CT
-16 5.5 moveto 
1 -1 scale
(37) t 
GR
GR
GS
[1 0 0 1 68.2 261.11804] CT
0.149 GC
/Helvetica 14 F
GS
[1 0 0 1 0 0] CT
-28 5.5 moveto 
1 -1 scale
(37.2) t 
GR
GR
GS
[1 0 0 1 68.2 226.7439] CT
0.149 GC
/Helvetica 14 F
GS
[1 0 0 1 0 0] CT
-28 5.5 moveto 
1 -1 scale
(37.4) t 
GR
GR
GS
[1 0 0 1 68.2 192.37042] CT
0.149 GC
/Helvetica 14 F
GS
[1 0 0 1 0 0] CT
-28 5.5 moveto 
1 -1 scale
(37.6) t 
GR
GR
GS
[1 0 0 1 68.2 157.99628] CT
0.149 GC
/Helvetica 14 F
GS
[1 0 0 1 0 0] CT
-28 5.5 moveto 
1 -1 scale
(37.8) t 
GR
GR
GS
[1 0 0 1 68.2 123.62215] CT
0.149 GC
/Helvetica 14 F
GS
[1 0 0 1 0 0] CT
-16 5.5 moveto 
1 -1 scale
(38) t 
GR
GR
GS
[1 0 0 1 68.2 89.24801] CT
0.149 GC
/Helvetica 14 F
GS
[1 0 0 1 0 0] CT
-28 5.5 moveto 
1 -1 scale
(38.2) t 
GR
GR
GS
[1 0 0 1 68.2 54.87387] CT
0.149 GC
/Helvetica 14 F
GS
[1 0 0 1 0 0] CT
-28 5.5 moveto 
1 -1 scale
(38.4) t 
GR
GR
GS
[0 -1 1 0 37.7 202.74973] CT
0.149 GC
/Helvetica 15.4 F
GS
[1 0 0 1 0 0] CT
-55.5 -4 moveto 
1 -1 scale
(CIEDE2000 \(dB\)) t 
GR
GR
GS
[1 0 0 1 290.00027 29.57499] CT
/Helvetica-Bold 15.4 F
GS
[1 0 0 1 0 0] CT
-225.5 -4 moveto 
1 -1 scale
(DinnerSceneCropped_1920x1080_2997fps_10bit_420.y4m-av1) t 
GR
GR
GS
0 0.447 0.741 RC
1 LJ
0.5 LW
N
73.857 276.005 M
74.82 248.355 L
75.782 228.333 L
76.744 220.527 L
77.706 214.407 L
78.669 209.465 L
79.631 205.535 L
80.593 202.445 L
81.555 200.028 L
82.518 198.114 L
83.48 196.473 L
84.442 194.932 L
85.405 193.482 L
86.367 192.119 L
87.329 190.838 L
88.291 189.636 L
89.254 188.506 L
90.216 187.446 L
91.178 186.449 L
92.14 185.513 L
93.103 184.631 L
94.065 183.801 L
95.027 183.016 L
95.989 182.272 L
96.952 181.566 L
97.914 180.892 L
98.876 180.246 L
99.839 179.623 L
100.801 179.018 L
101.763 178.428 L
102.725 177.848 L
103.688 177.273 L
104.65 176.698 L
105.612 176.119 L
106.574 175.531 L
107.537 174.933 L
108.499 174.335 L
109.461 173.737 L
110.424 173.14 L
111.386 172.543 L
112.348 171.947 L
113.31 171.351 L
114.273 170.756 L
115.235 170.161 L
116.197 169.566 L
117.159 168.972 L
118.122 168.379 L
119.084 167.786 L
120.046 167.194 L
121.008 166.602 L
121.971 166.011 L
122.933 165.42 L
123.895 164.83 L
124.858 164.241 L
125.82 163.652 L
126.782 163.063 L
127.744 162.476 L
128.707 161.888 L
129.669 161.301 L
130.631 160.716 L
131.593 160.13 L
132.556 159.546 L
133.518 158.961 L
134.48 158.378 L
135.443 157.796 L
136.405 157.213 L
137.367 156.632 L
138.329 156.051 L
139.292 155.471 L
140.254 154.892 L
141.216 154.313 L
142.178 153.735 L
143.141 153.158 L
144.103 152.581 L
145.065 152.006 L
146.027 151.431 L
146.99 150.856 L
147.952 150.283 L
148.914 149.71 L
149.877 149.139 L
150.839 148.568 L
151.801 147.997 L
152.763 147.427 L
153.726 146.859 L
154.688 146.291 L
155.65 145.724 L
156.612 145.158 L
157.575 144.593 L
158.537 144.028 L
159.499 143.464 L
160.462 142.901 L
161.424 142.339 L
162.386 141.778 L
163.348 141.218 L
164.311 140.659 L
165.273 140.1 L
166.235 139.543 L
167.197 138.986 L
168.16 138.431 L
169.122 137.876 L
170.084 137.322 L
171.046 136.77 L
172.009 136.217 L
172.971 135.667 L
173.933 135.117 L
174.896 134.568 L
175.858 134.02 L
176.82 133.473 L
177.782 132.928 L
178.745 132.383 L
179.707 131.839 L
180.669 131.296 L
181.631 130.754 L
182.594 130.213 L
183.556 129.674 L
184.518 129.135 L
185.481 128.598 L
186.443 128.061 L
187.405 127.526 L
188.367 126.991 L
189.33 126.458 L
190.292 125.927 L
191.254 125.396 L
192.216 124.866 L
193.179 124.337 L
194.141 123.81 L
195.103 123.283 L
196.065 122.758 L
197.028 122.234 L
197.99 121.711 L
198.952 121.19 L
199.915 120.669 L
200.877 120.15 L
201.839 119.632 L
202.801 119.115 L
203.764 118.599 L
204.726 118.085 L
205.688 117.572 L
206.65 117.06 L
207.613 116.549 L
208.575 116.04 L
209.537 115.532 L
210.5 115.025 L
211.462 114.519 L
212.424 114.015 L
213.386 113.512 L
214.349 113.011 L
215.311 112.51 L
216.273 112.011 L
217.235 111.513 L
218.198 111.017 L
219.16 110.522 L
220.122 110.029 L
221.085 109.537 L
222.047 109.045 L
223.009 108.556 L
223.971 108.068 L
224.934 107.581 L
225.896 107.096 L
226.858 106.612 L
227.82 106.13 L
228.783 105.649 L
229.745 105.169 L
230.707 104.691 L
231.669 104.215 L
232.632 103.739 L
233.594 103.265 L
234.556 102.793 L
235.519 102.323 L
236.481 101.853 L
237.443 101.386 L
238.405 100.92 L
239.368 100.455 L
240.33 99.992 L
241.292 99.53 L
242.254 99.07 L
243.217 98.611 L
244.179 98.154 L
245.141 97.699 L
246.104 97.245 L
247.066 96.793 L
248.028 96.342 L
248.99 95.893 L
249.953 95.446 L
250.915 95 L
251.877 94.555 L
252.839 94.113 L
253.802 93.672 L
254.764 93.232 L
255.726 92.795 L
256.688 92.359 L
257.651 91.924 L
258.613 91.492 L
259.575 91.061 L
260.538 90.631 L
261.5 90.204 L
262.462 89.778 L
263.424 89.354 L
264.387 88.931 L
265.349 88.511 L
266.311 88.092 L
267.273 87.674 L
268.236 87.259 L
269.198 86.846 L
270.16 86.434 L
271.122 86.024 L
272.085 85.615 L
273.047 85.209 L
274.009 84.804 L
274.972 84.401 L
275.934 84 L
276.896 83.601 L
277.858 83.204 L
278.821 82.808 L
279.783 82.414 L
280.745 82.022 L
281.707 81.632 L
282.67 81.244 L
283.632 80.858 L
284.594 80.474 L
285.557 80.091 L
286.519 79.711 L
287.481 79.332 L
288.443 78.956 L
289.406 78.581 L
290.368 78.208 L
291.33 77.837 L
292.292 77.468 L
293.255 77.101 L
294.217 76.737 L
295.179 76.373 L
296.142 76.013 L
297.104 75.653 L
298.066 75.297 L
299.028 74.941 L
299.991 74.589 L
300.953 74.238 L
301.915 73.889 L
302.877 73.542 L
303.84 73.197 L
304.802 72.855 L
305.764 72.514 L
306.726 72.175 L
307.689 71.839 L
308.651 71.505 L
309.613 71.172 L
310.576 70.842 L
311.538 70.514 L
312.5 70.188 L
313.462 69.864 L
314.425 69.543 L
315.387 69.223 L
316.349 68.906 L
317.311 68.591 L
318.274 68.278 L
319.236 67.967 L
320.198 67.658 L
321.161 67.352 L
322.123 67.048 L
323.085 66.745 L
324.047 66.446 L
325.01 66.148 L
325.972 65.853 L
326.934 65.56 L
327.896 65.269 L
328.859 64.98 L
329.821 64.694 L
330.783 64.41 L
331.745 64.128 L
332.708 63.849 L
333.67 63.571 L
334.632 63.297 L
335.595 63.024 L
336.557 62.754 L
337.519 62.486 L
338.481 62.221 L
339.444 61.957 L
340.406 61.696 L
341.368 61.438 L
342.33 61.182 L
343.293 60.928 L
344.255 60.677 L
345.217 60.428 L
346.18 60.181 L
347.142 59.937 L
348.104 59.695 L
349.066 59.456 L
350.029 59.219 L
350.991 58.985 L
351.953 58.753 L
352.915 58.524 L
353.878 58.297 L
354.84 58.072 L
355.802 57.85 L
356.764 57.631 L
357.727 57.414 L
358.689 57.199 L
359.651 56.987 L
360.614 56.777 L
361.576 56.571 L
362.538 56.366 L
363.5 56.164 L
364.463 55.965 L
365.425 55.768 L
366.387 55.574 L
367.349 55.382 L
368.312 55.193 L
369.274 55.007 L
370.236 54.823 L
371.199 54.642 L
372.161 54.463 L
373.123 54.287 L
374.085 54.114 L
375.048 53.943 L
376.01 53.775 L
376.972 53.61 L
377.934 53.447 L
378.897 53.287 L
379.859 53.129 L
380.821 52.975 L
381.784 52.823 L
382.746 52.674 L
383.708 52.527 L
384.67 52.383 L
385.633 52.242 L
386.595 52.104 L
387.557 51.968 L
388.519 51.835 L
389.482 51.705 L
390.444 51.578 L
391.406 51.453 L
392.368 51.331 L
393.331 51.212 L
394.293 51.096 L
395.255 50.983 L
396.218 50.873 L
397.18 50.765 L
398.142 50.66 L
399.104 50.558 L
400.067 50.459 L
401.029 50.362 L
401.991 50.269 L
402.953 50.178 L
403.916 50.09 L
404.878 50.006 L
405.84 49.924 L
406.802 49.845 L
407.765 49.768 L
408.727 49.696 L
409.689 49.626 L
410.652 49.558 L
411.614 49.494 L
412.576 49.432 L
413.538 49.374 L
414.501 49.318 L
415.463 49.266 L
416.425 49.216 L
417.387 49.17 L
418.35 49.127 L
419.312 49.086 L
420.274 49.049 L
421.237 49.014 L
422.199 48.982 L
423.161 48.954 L
424.123 48.929 L
425.086 48.906 L
426.048 48.887 L
427.01 48.871 L
427.972 48.858 L
428.935 48.848 L
429.897 48.841 L
430.859 48.837 L
S
GR
GS
0.851 0.325 0.098 RC
1 LJ
0.5 LW
N
73.979 272.708 M
74.941 246.624 L
75.903 226.487 L
76.866 218.747 L
77.828 213.147 L
78.79 208.515 L
79.752 204.728 L
80.715 201.662 L
81.677 199.196 L
82.639 197.208 L
83.601 195.574 L
84.564 194.162 L
85.526 192.837 L
86.488 191.583 L
87.451 190.398 L
88.413 189.279 L
89.375 188.222 L
90.337 187.224 L
91.3 186.281 L
92.262 185.391 L
93.224 184.549 L
94.186 183.753 L
95.149 183 L
96.111 182.286 L
97.073 181.608 L
98.035 180.962 L
98.998 180.347 L
99.96 179.757 L
100.922 179.19 L
101.885 178.642 L
102.847 178.11 L
103.809 177.592 L
104.771 177.084 L
105.734 176.581 L
106.696 176.083 L
107.658 175.584 L
108.62 175.081 L
109.583 174.571 L
110.545 174.053 L
111.507 173.522 L
112.47 172.991 L
113.432 172.46 L
114.394 171.93 L
115.356 171.399 L
116.319 170.868 L
117.281 170.338 L
118.243 169.807 L
119.205 169.278 L
120.168 168.748 L
121.13 168.218 L
122.092 167.688 L
123.055 167.159 L
124.017 166.63 L
124.979 166.101 L
125.941 165.573 L
126.904 165.044 L
127.866 164.516 L
128.828 163.987 L
129.79 163.46 L
130.753 162.933 L
131.715 162.405 L
132.677 161.878 L
133.639 161.351 L
134.602 160.825 L
135.564 160.298 L
136.526 159.772 L
137.489 159.247 L
138.451 158.721 L
139.413 158.196 L
140.375 157.671 L
141.338 157.147 L
142.3 156.622 L
143.262 156.098 L
144.224 155.574 L
145.187 155.051 L
146.149 154.528 L
147.111 154.005 L
148.074 153.483 L
149.036 152.961 L
149.998 152.439 L
150.96 151.918 L
151.923 151.397 L
152.885 150.877 L
153.847 150.356 L
154.809 149.836 L
155.772 149.317 L
156.734 148.798 L
157.696 148.279 L
158.658 147.761 L
159.621 147.243 L
160.583 146.726 L
161.545 146.209 L
162.508 145.692 L
163.47 145.176 L
164.432 144.66 L
165.394 144.145 L
166.357 143.63 L
167.319 143.116 L
168.281 142.602 L
169.243 142.089 L
170.206 141.575 L
171.168 141.063 L
172.13 140.551 L
173.093 140.039 L
174.055 139.528 L
175.017 139.018 L
175.979 138.508 L
176.942 137.998 L
177.904 137.489 L
178.866 136.981 L
179.828 136.473 L
180.791 135.965 L
181.753 135.458 L
182.715 134.951 L
183.677 134.446 L
184.64 133.94 L
185.602 133.436 L
186.564 132.931 L
187.527 132.428 L
188.489 131.925 L
189.451 131.423 L
190.413 130.921 L
191.376 130.42 L
192.338 129.919 L
193.3 129.419 L
194.262 128.92 L
195.225 128.421 L
196.187 127.922 L
197.149 127.425 L
198.112 126.928 L
199.074 126.432 L
200.036 125.936 L
200.998 125.441 L
201.961 124.947 L
202.923 124.453 L
203.885 123.96 L
204.847 123.467 L
205.81 122.976 L
206.772 122.485 L
207.734 121.994 L
208.696 121.504 L
209.659 121.016 L
210.621 120.528 L
211.583 120.04 L
212.546 119.553 L
213.508 119.067 L
214.47 118.582 L
215.432 118.097 L
216.395 117.613 L
217.357 117.13 L
218.319 116.648 L
219.281 116.166 L
220.244 115.685 L
221.206 115.205 L
222.168 114.726 L
223.131 114.247 L
224.093 113.77 L
225.055 113.293 L
226.017 112.817 L
226.98 112.341 L
227.942 111.867 L
228.904 111.393 L
229.866 110.92 L
230.829 110.448 L
231.791 109.976 L
232.753 109.506 L
233.715 109.037 L
234.678 108.568 L
235.64 108.1 L
236.602 107.633 L
237.565 107.167 L
238.527 106.702 L
239.489 106.237 L
240.451 105.774 L
241.414 105.311 L
242.376 104.849 L
243.338 104.389 L
244.3 103.928 L
245.263 103.469 L
246.225 103.011 L
247.187 102.554 L
248.15 102.098 L
249.112 101.642 L
250.074 101.188 L
251.036 100.734 L
251.999 100.282 L
252.961 99.83 L
253.923 99.379 L
254.885 98.93 L
255.848 98.481 L
256.81 98.033 L
257.772 97.587 L
258.734 97.141 L
259.697 96.697 L
260.659 96.253 L
261.621 95.81 L
262.584 95.368 L
263.546 94.928 L
264.508 94.488 L
265.47 94.049 L
266.433 93.611 L
267.395 93.175 L
268.357 92.739 L
269.319 92.305 L
270.282 91.871 L
271.244 91.439 L
272.206 91.008 L
273.169 90.578 L
274.131 90.148 L
275.093 89.72 L
276.055 89.293 L
277.018 88.867 L
277.98 88.442 L
278.942 88.019 L
279.904 87.596 L
280.867 87.175 L
281.829 86.755 L
282.791 86.335 L
283.754 85.917 L
284.716 85.5 L
285.678 85.085 L
286.64 84.67 L
287.603 84.257 L
288.565 83.844 L
289.527 83.433 L
290.489 83.023 L
291.452 82.614 L
292.414 82.207 L
293.376 81.8 L
294.338 81.395 L
295.301 80.991 L
296.263 80.588 L
297.225 80.187 L
298.188 79.787 L
299.15 79.387 L
300.112 78.989 L
301.074 78.593 L
302.037 78.197 L
302.999 77.803 L
303.961 77.41 L
304.923 77.019 L
305.886 76.628 L
306.848 76.239 L
307.81 75.851 L
308.772 75.465 L
309.735 75.079 L
310.697 74.695 L
311.659 74.312 L
312.622 73.931 L
313.584 73.551 L
314.546 73.172 L
315.508 72.795 L
316.471 72.419 L
317.433 72.044 L
318.395 71.671 L
319.357 71.298 L
320.32 70.928 L
321.282 70.558 L
322.244 70.19 L
323.207 69.824 L
324.169 69.458 L
325.131 69.094 L
326.093 68.731 L
327.056 68.37 L
328.018 68.011 L
328.98 67.652 L
329.942 67.295 L
330.905 66.939 L
331.867 66.585 L
332.829 66.233 L
333.792 65.882 L
334.754 65.532 L
335.716 65.184 L
336.678 64.836 L
337.641 64.491 L
338.603 64.147 L
339.565 63.804 L
340.527 63.463 L
341.49 63.124 L
342.452 62.785 L
343.414 62.448 L
344.376 62.113 L
345.339 61.78 L
346.301 61.448 L
347.263 61.117 L
348.226 60.788 L
349.188 60.46 L
350.15 60.134 L
351.112 59.809 L
352.075 59.486 L
353.037 59.165 L
353.999 58.845 L
354.961 58.526 L
355.924 58.21 L
356.886 57.894 L
357.848 57.58 L
358.811 57.268 L
359.773 56.957 L
360.735 56.649 L
361.697 56.341 L
362.66 56.036 L
363.622 55.731 L
364.584 55.429 L
365.546 55.128 L
366.509 54.829 L
367.471 54.531 L
368.433 54.235 L
369.395 53.94 L
370.358 53.647 L
371.32 53.356 L
372.282 53.067 L
373.245 52.778 L
374.207 52.493 L
375.169 52.208 L
376.131 51.925 L
377.094 51.644 L
378.056 51.365 L
379.018 51.087 L
379.98 50.811 L
380.943 50.536 L
381.905 50.263 L
382.867 49.993 L
383.83 49.724 L
384.792 49.456 L
385.754 49.19 L
386.716 48.927 L
387.679 48.664 L
388.641 48.403 L
389.603 48.144 L
390.565 47.887 L
391.528 47.632 L
392.49 47.379 L
393.452 47.128 L
394.414 46.877 L
395.377 46.629 L
396.339 46.383 L
397.301 46.138 L
398.264 45.896 L
399.226 45.655 L
400.188 45.416 L
401.15 45.178 L
402.113 44.943 L
403.075 44.71 L
404.037 44.478 L
404.999 44.248 L
405.962 44.02 L
406.924 43.794 L
407.886 43.569 L
408.849 43.347 L
409.811 43.126 L
410.773 42.907 L
411.735 42.691 L
412.698 42.476 L
413.66 42.263 L
414.622 42.052 L
415.584 41.843 L
416.547 41.635 L
417.509 41.429 L
418.471 41.226 L
419.433 41.024 L
420.396 40.825 L
421.358 40.628 L
422.32 40.432 L
423.283 40.238 L
424.245 40.046 L
425.207 39.856 L
426.169 39.668 L
427.132 39.482 L
428.094 39.299 L
429.056 39.116 L
430.018 38.937 L
430.981 38.759 L
431.943 38.583 L
432.905 38.409 L
433.868 38.237 L
434.83 38.067 L
435.792 37.9 L
436.754 37.734 L
437.717 37.57 L
438.679 37.408 L
439.641 37.249 L
440.603 37.091 L
441.566 36.935 L
442.528 36.782 L
443.49 36.63 L
444.452 36.481 L
445.415 36.334 L
446.377 36.188 L
447.339 36.045 L
448.302 35.904 L
449.264 35.765 L
450.226 35.628 L
451.188 35.494 L
452.151 35.362 L
453.113 35.231 L
454.075 35.103 L
455.037 34.977 L
456 34.853 L
456.962 34.731 L
457.924 34.611 L
458.887 34.494 L
459.849 34.378 L
460.811 34.265 L
461.773 34.154 L
462.736 34.045 L
463.698 33.939 L
464.66 33.835 L
465.622 33.732 L
466.585 33.632 L
467.547 33.534 L
468.509 33.439 L
469.471 33.346 L
470.434 33.254 L
471.396 33.165 L
472.358 33.079 L
473.321 32.994 L
474.283 32.912 L
475.245 32.832 L
476.207 32.755 L
477.17 32.679 L
478.132 32.606 L
479.094 32.536 L
480.056 32.467 L
481.019 32.401 L
481.981 32.337 L
482.943 32.276 L
483.906 32.216 L
484.868 32.159 L
485.83 32.104 L
486.792 32.052 L
487.755 32.002 L
488.717 31.954 L
489.679 31.909 L
490.641 31.866 L
491.604 31.825 L
492.566 31.787 L
493.528 31.751 L
494.491 31.718 L
495.453 31.686 L
496.415 31.658 L
497.377 31.631 L
498.34 31.607 L
499.302 31.586 L
500.264 31.567 L
501.226 31.55 L
502.189 31.535 L
503.151 31.524 L
504.113 31.514 L
505.075 31.507 L
506.038 31.502 L
507 31.5 L
S
GR
GS
0.929 0.694 0.125 RC
1 LJ
0.5 LW
N
73.801 287.374 M
74.763 254.277 L
75.725 231.742 L
76.688 219.314 L
77.65 209.867 L
78.612 203.166 L
79.575 198.812 L
80.537 195.241 L
81.499 192.104 L
82.461 189.383 L
83.424 187.062 L
84.386 185.123 L
85.348 183.549 L
86.31 182.322 L
87.273 181.394 L
88.235 180.519 L
89.197 179.648 L
90.16 178.78 L
91.122 177.916 L
92.084 177.056 L
93.046 176.199 L
94.009 175.346 L
94.971 174.497 L
95.933 173.651 L
96.895 172.808 L
97.858 171.969 L
98.82 171.134 L
99.782 170.302 L
100.744 169.473 L
101.707 168.648 L
102.669 167.827 L
103.631 167.009 L
104.594 166.195 L
105.556 165.384 L
106.518 164.577 L
107.48 163.773 L
108.443 162.973 L
109.405 162.176 L
110.367 161.383 L
111.329 160.593 L
112.292 159.806 L
113.254 159.023 L
114.216 158.243 L
115.179 157.468 L
116.141 156.695 L
117.103 155.926 L
118.065 155.16 L
119.028 154.398 L
119.99 153.639 L
120.952 152.884 L
121.914 152.132 L
122.877 151.383 L
123.839 150.638 L
124.801 149.896 L
125.763 149.158 L
126.726 148.423 L
127.688 147.691 L
128.65 146.963 L
129.613 146.238 L
130.575 145.517 L
131.537 144.798 L
132.499 144.084 L
133.462 143.372 L
134.424 142.664 L
135.386 141.96 L
136.348 141.259 L
137.311 140.56 L
138.273 139.866 L
139.235 139.175 L
140.198 138.487 L
141.16 137.802 L
142.122 137.121 L
143.084 136.443 L
144.047 135.768 L
145.009 135.096 L
145.971 134.428 L
146.933 133.763 L
147.896 133.102 L
148.858 132.444 L
149.82 131.789 L
150.782 131.137 L
151.745 130.489 L
152.707 129.843 L
153.669 129.202 L
154.632 128.563 L
155.594 127.927 L
156.556 127.295 L
157.518 126.666 L
158.481 126.04 L
159.443 125.418 L
160.405 124.798 L
161.367 124.182 L
162.33 123.57 L
163.292 122.96 L
164.254 122.354 L
165.217 121.75 L
166.179 121.15 L
167.141 120.553 L
168.103 119.959 L
169.066 119.368 L
170.028 118.781 L
170.99 118.197 L
171.952 117.616 L
172.915 117.038 L
173.877 116.463 L
174.839 115.892 L
175.801 115.323 L
176.764 114.758 L
177.726 114.195 L
178.688 113.636 L
179.651 113.08 L
180.613 112.528 L
181.575 111.977 L
182.537 111.431 L
183.5 110.888 L
184.462 110.347 L
185.424 109.81 L
186.386 109.276 L
187.349 108.745 L
188.311 108.216 L
189.273 107.691 L
190.236 107.169 L
191.198 106.65 L
192.16 106.134 L
193.122 105.621 L
194.085 105.112 L
195.047 104.605 L
196.009 104.101 L
196.971 103.6 L
197.934 103.103 L
198.896 102.608 L
199.858 102.117 L
200.82 101.628 L
201.783 101.142 L
202.745 100.659 L
203.707 100.18 L
204.67 99.703 L
205.632 99.229 L
206.594 98.759 L
207.556 98.291 L
208.519 97.826 L
209.481 97.365 L
210.443 96.906 L
211.405 96.45 L
212.368 95.997 L
213.33 95.547 L
214.292 95.1 L
215.255 94.656 L
216.217 94.215 L
217.179 93.776 L
218.141 93.341 L
219.104 92.909 L
220.066 92.48 L
221.028 92.053 L
221.99 91.629 L
222.953 91.208 L
223.915 90.79 L
224.877 90.375 L
225.84 89.963 L
226.802 89.554 L
227.764 89.148 L
228.726 88.744 L
229.689 88.343 L
230.651 87.945 L
231.613 87.551 L
232.575 87.159 L
233.538 86.769 L
234.5 86.382 L
235.462 85.999 L
236.424 85.618 L
237.387 85.24 L
238.349 84.865 L
239.311 84.493 L
240.274 84.123 L
241.236 83.756 L
242.198 83.392 L
243.16 83.031 L
244.123 82.673 L
245.085 82.317 L
246.047 81.964 L
247.009 81.614 L
247.972 81.266 L
248.934 80.922 L
249.896 80.581 L
250.859 80.241 L
251.821 79.905 L
252.783 79.572 L
253.745 79.24 L
254.708 78.912 L
255.67 78.587 L
256.632 78.264 L
257.594 77.944 L
258.557 77.627 L
259.519 77.312 L
260.481 77.001 L
261.443 76.691 L
262.406 76.385 L
263.368 76.081 L
264.33 75.78 L
265.293 75.482 L
266.255 75.186 L
267.217 74.893 L
268.179 74.602 L
269.142 74.315 L
270.104 74.029 L
271.066 73.747 L
272.028 73.467 L
272.991 73.19 L
273.953 72.915 L
274.915 72.643 L
275.878 72.374 L
276.84 72.107 L
277.802 71.843 L
278.764 71.581 L
279.727 71.322 L
280.689 71.066 L
281.651 70.812 L
282.613 70.561 L
283.576 70.313 L
284.538 70.066 L
285.5 69.823 L
286.462 69.582 L
287.425 69.344 L
288.387 69.108 L
289.349 68.875 L
290.312 68.644 L
291.274 68.416 L
292.236 68.19 L
293.198 67.967 L
294.161 67.747 L
295.123 67.528 L
296.085 67.313 L
297.047 67.1 L
298.01 66.89 L
298.972 66.681 L
299.934 66.476 L
300.897 66.273 L
301.859 66.072 L
302.821 65.874 L
303.783 65.679 L
304.746 65.485 L
305.708 65.294 L
306.67 65.106 L
307.632 64.921 L
308.595 64.737 L
309.557 64.556 L
310.519 64.378 L
311.482 64.202 L
312.444 64.028 L
313.406 63.857 L
314.368 63.688 L
315.331 63.522 L
316.293 63.358 L
317.255 63.196 L
318.217 63.038 L
319.18 62.88 L
320.142 62.726 L
321.104 62.574 L
322.066 62.425 L
323.029 62.278 L
323.991 62.133 L
324.953 61.99 L
325.916 61.85 L
326.878 61.712 L
327.84 61.577 L
328.802 61.444 L
329.765 61.313 L
330.727 61.185 L
331.689 61.058 L
332.651 60.935 L
333.614 60.813 L
334.576 60.695 L
335.538 60.577 L
336.5 60.463 L
337.463 60.351 L
338.425 60.241 L
339.387 60.133 L
340.35 60.028 L
341.312 59.925 L
342.274 59.824 L
343.236 59.726 L
344.199 59.629 L
345.161 59.535 L
346.123 59.443 L
347.085 59.354 L
348.048 59.267 L
349.01 59.181 L
349.972 59.099 L
350.935 59.018 L
351.897 58.939 L
352.859 58.863 L
353.821 58.789 L
354.784 58.718 L
355.746 58.648 L
356.708 58.581 L
357.67 58.516 L
358.633 58.453 L
359.595 58.392 L
360.557 58.334 L
361.52 58.277 L
362.482 58.223 L
363.444 58.171 L
364.406 58.121 L
365.369 58.073 L
366.331 58.027 L
367.293 57.984 L
368.255 57.943 L
369.218 57.904 L
370.18 57.866 L
371.142 57.831 L
372.104 57.799 L
373.067 57.768 L
374.029 57.739 L
374.991 57.713 L
375.954 57.688 L
376.916 57.666 L
377.878 57.646 L
378.84 57.628 L
379.803 57.611 L
380.765 57.597 L
381.727 57.586 L
382.689 57.576 L
383.652 57.568 L
384.614 57.562 L
385.576 57.558 L
386.539 57.557 L
S
GR
GS
0.494 0.184 0.557 RC
1 LJ
0.5 LW
N
73.859 275.702 M
74.821 248.566 L
75.783 228.948 L
76.745 221.152 L
77.708 214.981 L
78.67 209.982 L
79.632 205.996 L
80.594 202.863 L
81.557 200.421 L
82.519 198.51 L
83.481 196.894 L
84.444 195.377 L
85.406 193.952 L
86.368 192.616 L
87.33 191.362 L
88.293 190.187 L
89.255 189.084 L
90.217 188.051 L
91.179 187.082 L
92.142 186.172 L
93.104 185.317 L
94.066 184.511 L
95.029 183.751 L
95.991 183.032 L
96.953 182.348 L
97.915 181.695 L
98.878 181.069 L
99.84 180.464 L
100.802 179.876 L
101.764 179.3 L
102.727 178.732 L
103.689 178.166 L
104.651 177.598 L
105.614 177.024 L
106.576 176.438 L
107.538 175.841 L
108.5 175.245 L
109.463 174.649 L
110.425 174.053 L
111.387 173.458 L
112.349 172.863 L
113.312 172.269 L
114.274 171.674 L
115.236 171.081 L
116.198 170.487 L
117.161 169.894 L
118.123 169.302 L
119.085 168.71 L
120.048 168.118 L
121.01 167.527 L
121.972 166.936 L
122.934 166.346 L
123.897 165.756 L
124.859 165.167 L
125.821 164.578 L
126.783 163.99 L
127.746 163.403 L
128.708 162.815 L
129.67 162.228 L
130.633 161.642 L
131.595 161.057 L
132.557 160.472 L
133.519 159.887 L
134.482 159.304 L
135.444 158.72 L
136.406 158.138 L
137.368 157.556 L
138.331 156.974 L
139.293 156.393 L
140.255 155.813 L
141.217 155.233 L
142.18 154.655 L
143.142 154.076 L
144.104 153.499 L
145.067 152.922 L
146.029 152.345 L
146.991 151.77 L
147.953 151.195 L
148.916 150.62 L
149.878 150.047 L
150.84 149.474 L
151.802 148.903 L
152.765 148.331 L
153.727 147.761 L
154.689 147.191 L
155.652 146.622 L
156.614 146.053 L
157.576 145.486 L
158.538 144.919 L
159.501 144.353 L
160.463 143.788 L
161.425 143.224 L
162.387 142.66 L
163.35 142.098 L
164.312 141.536 L
165.274 140.975 L
166.236 140.415 L
167.199 139.856 L
168.161 139.298 L
169.123 138.74 L
170.086 138.184 L
171.048 137.628 L
172.01 137.073 L
172.972 136.519 L
173.935 135.966 L
174.897 135.414 L
175.859 134.863 L
176.821 134.313 L
177.784 133.764 L
178.746 133.216 L
179.708 132.669 L
180.671 132.122 L
181.633 131.577 L
182.595 131.033 L
183.557 130.49 L
184.52 129.948 L
185.482 129.406 L
186.444 128.867 L
187.406 128.327 L
188.369 127.789 L
189.331 127.252 L
190.293 126.716 L
191.255 126.181 L
192.218 125.647 L
193.18 125.115 L
194.142 124.583 L
195.105 124.053 L
196.067 123.524 L
197.029 122.995 L
197.991 122.468 L
198.954 121.942 L
199.916 121.418 L
200.878 120.894 L
201.84 120.372 L
202.803 119.85 L
203.765 119.33 L
204.727 118.812 L
205.69 118.294 L
206.652 117.777 L
207.614 117.262 L
208.576 116.748 L
209.539 116.235 L
210.501 115.724 L
211.463 115.214 L
212.425 114.705 L
213.388 114.197 L
214.35 113.691 L
215.312 113.185 L
216.274 112.682 L
217.237 112.179 L
218.199 111.678 L
219.161 111.178 L
220.124 110.679 L
221.086 110.182 L
222.048 109.686 L
223.01 109.192 L
223.973 108.699 L
224.935 108.206 L
225.897 107.716 L
226.859 107.227 L
227.822 106.74 L
228.784 106.253 L
229.746 105.769 L
230.709 105.285 L
231.671 104.803 L
232.633 104.323 L
233.595 103.844 L
234.558 103.366 L
235.52 102.89 L
236.482 102.415 L
237.444 101.942 L
238.407 101.47 L
239.369 101 L
240.331 100.531 L
241.293 100.065 L
242.256 99.599 L
243.218 99.135 L
244.18 98.672 L
245.143 98.211 L
246.105 97.752 L
247.067 97.294 L
248.029 96.838 L
248.992 96.383 L
249.954 95.93 L
250.916 95.478 L
251.878 95.029 L
252.841 94.58 L
253.803 94.134 L
254.765 93.689 L
255.728 93.245 L
256.69 92.803 L
257.652 92.364 L
258.614 91.926 L
259.577 91.489 L
260.539 91.054 L
261.501 90.62 L
262.463 90.189 L
263.426 89.759 L
264.388 89.331 L
265.35 88.904 L
266.313 88.48 L
267.275 88.057 L
268.237 87.636 L
269.199 87.216 L
270.162 86.799 L
271.124 86.383 L
272.086 85.969 L
273.048 85.556 L
274.011 85.146 L
274.973 84.737 L
275.935 84.331 L
276.897 83.926 L
277.86 83.522 L
278.822 83.121 L
279.784 82.722 L
280.747 82.324 L
281.709 81.929 L
282.671 81.534 L
283.633 81.142 L
284.596 80.752 L
285.558 80.365 L
286.52 79.978 L
287.482 79.594 L
288.445 79.212 L
289.407 78.831 L
290.369 78.453 L
291.332 78.077 L
292.294 77.702 L
293.256 77.329 L
294.218 76.959 L
295.181 76.59 L
296.143 76.224 L
297.105 75.859 L
298.067 75.497 L
299.03 75.136 L
299.992 74.778 L
300.954 74.422 L
301.916 74.067 L
302.879 73.715 L
303.841 73.365 L
304.803 73.017 L
305.766 72.67 L
306.728 72.326 L
307.69 71.985 L
308.652 71.644 L
309.615 71.307 L
310.577 70.972 L
311.539 70.638 L
312.501 70.307 L
313.464 69.978 L
314.426 69.651 L
315.388 69.326 L
316.351 69.003 L
317.313 68.683 L
318.275 68.365 L
319.237 68.049 L
320.2 67.735 L
321.162 67.424 L
322.124 67.115 L
323.086 66.808 L
324.049 66.503 L
325.011 66.201 L
325.973 65.9 L
326.935 65.602 L
327.898 65.306 L
328.86 65.013 L
329.822 64.721 L
330.785 64.433 L
331.747 64.146 L
332.709 63.863 L
333.671 63.581 L
334.634 63.301 L
335.596 63.024 L
336.558 62.749 L
337.52 62.477 L
338.483 62.206 L
339.445 61.939 L
340.407 61.673 L
341.37 61.411 L
342.332 61.15 L
343.294 60.892 L
344.256 60.637 L
345.219 60.383 L
346.181 60.133 L
347.143 59.884 L
348.105 59.638 L
349.068 59.395 L
350.03 59.154 L
350.992 58.916 L
351.954 58.68 L
352.917 58.446 L
353.879 58.216 L
354.841 57.987 L
355.804 57.761 L
356.766 57.538 L
357.728 57.317 L
358.69 57.099 L
359.653 56.884 L
360.615 56.671 L
361.577 56.46 L
362.539 56.252 L
363.502 56.047 L
364.464 55.844 L
365.426 55.644 L
366.389 55.447 L
367.351 55.252 L
368.313 55.059 L
369.275 54.87 L
370.238 54.683 L
371.2 54.499 L
372.162 54.317 L
373.124 54.139 L
374.087 53.963 L
375.049 53.789 L
376.011 53.618 L
376.973 53.45 L
377.936 53.285 L
378.898 53.122 L
379.86 52.963 L
380.823 52.805 L
381.785 52.651 L
382.747 52.499 L
383.709 52.35 L
384.672 52.205 L
385.634 52.061 L
386.596 51.921 L
387.558 51.783 L
388.521 51.648 L
389.483 51.516 L
390.445 51.387 L
391.408 51.261 L
392.37 51.137 L
393.332 51.017 L
394.294 50.899 L
395.257 50.784 L
396.219 50.673 L
397.181 50.563 L
398.143 50.457 L
399.106 50.354 L
400.068 50.254 L
401.03 50.156 L
401.992 50.062 L
402.955 49.97 L
403.917 49.881 L
404.879 49.796 L
405.842 49.713 L
406.804 49.633 L
407.766 49.557 L
408.728 49.483 L
409.691 49.412 L
410.653 49.345 L
411.615 49.28 L
412.577 49.218 L
413.54 49.16 L
414.502 49.104 L
415.464 49.052 L
416.427 49.003 L
417.389 48.956 L
418.351 48.913 L
419.313 48.873 L
420.276 48.835 L
421.238 48.801 L
422.2 48.771 L
423.162 48.743 L
424.125 48.719 L
425.087 48.697 L
426.049 48.679 L
427.012 48.664 L
427.974 48.651 L
428.936 48.643 L
429.898 48.637 L
430.861 48.635 L
S
GR
GS
0.467 0.675 0.188 RC
1 LJ
0.5 LW
N
73 357.997 M
73.962 290.818 L
74.925 259.489 L
75.887 241.052 L
76.849 229.543 L
77.811 221.716 L
78.774 214.84 L
79.736 208.94 L
80.698 204.063 L
81.66 200.256 L
82.623 197.564 L
83.585 196.016 L
84.547 194.891 L
85.51 193.77 L
86.472 192.656 L
87.434 191.548 L
88.396 190.445 L
89.359 189.35 L
90.321 188.26 L
91.283 187.176 L
92.245 186.097 L
93.208 185.025 L
94.17 183.959 L
95.132 182.899 L
96.094 181.845 L
97.057 180.797 L
98.019 179.754 L
98.981 178.718 L
99.944 177.687 L
100.906 176.662 L
101.868 175.643 L
102.83 174.63 L
103.793 173.623 L
104.755 172.621 L
105.717 171.625 L
106.679 170.635 L
107.642 169.651 L
108.604 168.672 L
109.566 167.699 L
110.529 166.732 L
111.491 165.771 L
112.453 164.815 L
113.415 163.864 L
114.378 162.92 L
115.34 161.981 L
116.302 161.048 L
117.264 160.12 L
118.227 159.197 L
119.189 158.281 L
120.151 157.37 L
121.113 156.464 L
122.076 155.564 L
123.038 154.67 L
124 153.781 L
124.963 152.897 L
125.925 152.019 L
126.887 151.146 L
127.849 150.279 L
128.812 149.417 L
129.774 148.56 L
130.736 147.709 L
131.698 146.863 L
132.661 146.022 L
133.623 145.188 L
134.585 144.358 L
135.548 143.533 L
136.51 142.714 L
137.472 141.9 L
138.434 141.091 L
139.397 140.288 L
140.359 139.489 L
141.321 138.696 L
142.283 137.908 L
143.246 137.126 L
144.208 136.348 L
145.17 135.576 L
146.132 134.809 L
147.095 134.046 L
148.057 133.289 L
149.019 132.537 L
149.982 131.79 L
150.944 131.048 L
151.906 130.311 L
152.868 129.579 L
153.831 128.853 L
154.793 128.131 L
155.755 127.414 L
156.717 126.702 L
157.68 125.995 L
158.642 125.293 L
159.604 124.596 L
160.567 123.903 L
161.529 123.216 L
162.491 122.533 L
163.453 121.856 L
164.416 121.183 L
165.378 120.515 L
166.34 119.852 L
167.302 119.193 L
168.265 118.54 L
169.227 117.891 L
170.189 117.247 L
171.151 116.607 L
172.114 115.972 L
173.076 115.342 L
174.038 114.717 L
175.001 114.096 L
175.963 113.48 L
176.925 112.869 L
177.887 112.262 L
178.85 111.66 L
179.812 111.062 L
180.774 110.47 L
181.736 109.881 L
182.699 109.297 L
183.661 108.718 L
184.623 108.143 L
185.586 107.572 L
186.548 107.006 L
187.51 106.445 L
188.472 105.888 L
189.435 105.335 L
190.397 104.787 L
191.359 104.244 L
192.321 103.704 L
193.284 103.17 L
194.246 102.639 L
195.208 102.113 L
196.17 101.59 L
197.133 101.073 L
198.095 100.56 L
199.057 100.051 L
200.02 99.546 L
200.982 99.045 L
201.944 98.549 L
202.906 98.057 L
203.869 97.569 L
204.831 97.085 L
205.793 96.606 L
206.755 96.131 L
207.718 95.659 L
208.68 95.192 L
209.642 94.729 L
210.605 94.27 L
211.567 93.816 L
212.529 93.365 L
213.491 92.918 L
214.454 92.476 L
215.416 92.037 L
216.378 91.602 L
217.34 91.172 L
218.303 90.745 L
219.265 90.323 L
220.227 89.904 L
221.189 89.489 L
222.152 89.078 L
223.114 88.671 L
224.076 88.268 L
225.039 87.869 L
226.001 87.473 L
226.963 87.082 L
227.925 86.694 L
228.888 86.309 L
229.85 85.93 L
230.812 85.554 L
231.774 85.18 L
232.737 84.812 L
233.699 84.447 L
234.661 84.085 L
235.624 83.728 L
236.586 83.374 L
237.548 83.023 L
238.51 82.676 L
239.473 82.333 L
240.435 81.993 L
241.397 81.658 L
242.359 81.325 L
243.322 80.996 L
244.284 80.671 L
245.246 80.35 L
246.208 80.032 L
247.171 79.717 L
248.133 79.406 L
249.095 79.098 L
250.058 78.794 L
251.02 78.494 L
251.982 78.196 L
252.944 77.902 L
253.907 77.612 L
254.869 77.325 L
255.831 77.041 L
256.793 76.761 L
257.756 76.484 L
258.718 76.21 L
259.68 75.94 L
260.643 75.673 L
261.605 75.41 L
262.567 75.149 L
263.529 74.892 L
264.492 74.638 L
265.454 74.387 L
266.416 74.139 L
267.378 73.895 L
268.341 73.654 L
269.303 73.416 L
270.265 73.18 L
271.228 72.949 L
272.19 72.72 L
273.152 72.495 L
274.114 72.272 L
275.077 72.053 L
276.039 71.836 L
277.001 71.623 L
277.963 71.413 L
278.926 71.206 L
279.888 71.001 L
280.85 70.8 L
281.812 70.602 L
282.775 70.406 L
283.737 70.214 L
284.699 70.024 L
285.662 69.837 L
286.624 69.654 L
287.586 69.473 L
288.548 69.295 L
289.511 69.119 L
290.473 68.947 L
291.435 68.777 L
292.397 68.611 L
293.36 68.447 L
294.322 68.285 L
295.284 68.127 L
296.247 67.971 L
297.209 67.818 L
298.171 67.667 L
299.133 67.52 L
300.096 67.375 L
301.058 67.232 L
302.02 67.092 L
302.982 66.955 L
303.945 66.821 L
304.907 66.689 L
305.869 66.559 L
306.831 66.433 L
307.794 66.308 L
308.756 66.187 L
309.718 66.067 L
310.681 65.951 L
311.643 65.837 L
312.605 65.725 L
313.567 65.615 L
314.53 65.508 L
315.492 65.404 L
316.454 65.302 L
317.416 65.202 L
318.379 65.105 L
319.341 65.01 L
320.303 64.917 L
321.266 64.827 L
322.228 64.739 L
323.19 64.653 L
324.152 64.57 L
325.115 64.489 L
326.077 64.41 L
327.039 64.334 L
328.001 64.259 L
328.964 64.187 L
329.926 64.117 L
330.888 64.049 L
331.85 63.984 L
332.813 63.92 L
333.775 63.859 L
334.737 63.8 L
335.7 63.743 L
336.662 63.688 L
337.624 63.634 L
338.586 63.583 L
339.549 63.535 L
340.511 63.488 L
341.473 63.443 L
342.435 63.4 L
343.398 63.359 L
344.36 63.32 L
345.322 63.283 L
346.285 63.248 L
347.247 63.215 L
348.209 63.183 L
349.171 63.154 L
350.134 63.126 L
351.096 63.101 L
352.058 63.077 L
353.02 63.055 L
353.983 63.035 L
354.945 63.016 L
355.907 63 L
356.869 62.985 L
357.832 62.972 L
358.794 62.96 L
359.756 62.951 L
360.719 62.943 L
361.681 62.936 L
362.643 62.932 L
363.605 62.929 L
364.568 62.928 L
S
GR
GS
0.302 0.745 0.933 RC
[10 6] 0 setdash
2 LJ
0.5 LW
N
73.881 276.07 M
74.843 247.891 L
75.805 227.422 L
76.768 219.727 L
77.73 213.747 L
78.692 208.911 L
79.654 205.055 L
80.617 202.017 L
81.579 199.632 L
82.541 197.737 L
83.503 196.142 L
84.466 194.652 L
85.428 193.25 L
86.39 191.931 L
87.352 190.692 L
88.315 189.528 L
89.277 188.435 L
90.239 187.407 L
91.202 186.442 L
92.164 185.533 L
93.126 184.679 L
94.088 183.873 L
95.051 183.112 L
96.013 182.391 L
96.975 181.707 L
97.937 181.053 L
98.9 180.427 L
99.862 179.824 L
100.824 179.239 L
101.787 178.67 L
102.749 178.11 L
103.711 177.555 L
104.673 177.002 L
105.636 176.446 L
106.598 175.883 L
107.56 175.308 L
108.522 174.726 L
109.485 174.145 L
110.447 173.564 L
111.409 172.983 L
112.371 172.402 L
113.334 171.822 L
114.296 171.243 L
115.258 170.664 L
116.221 170.085 L
117.183 169.506 L
118.145 168.928 L
119.107 168.35 L
120.07 167.772 L
121.032 167.195 L
121.994 166.619 L
122.956 166.043 L
123.919 165.467 L
124.881 164.892 L
125.843 164.317 L
126.806 163.743 L
127.768 163.169 L
128.73 162.596 L
129.692 162.023 L
130.655 161.45 L
131.617 160.878 L
132.579 160.307 L
133.541 159.736 L
134.504 159.165 L
135.466 158.596 L
136.428 158.026 L
137.39 157.457 L
138.353 156.889 L
139.315 156.321 L
140.277 155.754 L
141.24 155.188 L
142.202 154.621 L
143.164 154.056 L
144.126 153.491 L
145.089 152.927 L
146.051 152.363 L
147.013 151.801 L
147.975 151.238 L
148.938 150.676 L
149.9 150.115 L
150.862 149.554 L
151.825 148.994 L
152.787 148.436 L
153.749 147.877 L
154.711 147.319 L
155.674 146.762 L
156.636 146.206 L
157.598 145.65 L
158.56 145.095 L
159.523 144.541 L
160.485 143.987 L
161.447 143.435 L
162.41 142.882 L
163.372 142.331 L
164.334 141.781 L
165.296 141.23 L
166.259 140.682 L
167.221 140.134 L
168.183 139.586 L
169.145 139.039 L
170.108 138.493 L
171.07 137.948 L
172.032 137.404 L
172.994 136.861 L
173.957 136.318 L
174.919 135.776 L
175.881 135.235 L
176.844 134.695 L
177.806 134.156 L
178.768 133.618 L
179.73 133.08 L
180.693 132.544 L
181.655 132.008 L
182.617 131.473 L
183.579 130.94 L
184.542 130.407 L
185.504 129.875 L
186.466 129.344 L
187.428 128.813 L
188.391 128.284 L
189.353 127.757 L
190.315 127.229 L
191.278 126.703 L
192.24 126.178 L
193.202 125.653 L
194.164 125.13 L
195.127 124.608 L
196.089 124.086 L
197.051 123.566 L
198.013 123.047 L
198.976 122.529 L
199.938 122.012 L
200.9 121.495 L
201.863 120.981 L
202.825 120.467 L
203.787 119.954 L
204.749 119.442 L
205.712 118.931 L
206.674 118.422 L
207.636 117.913 L
208.598 117.405 L
209.561 116.899 L
210.523 116.394 L
211.485 115.89 L
212.447 115.387 L
213.41 114.885 L
214.372 114.385 L
215.334 113.885 L
216.297 113.387 L
217.259 112.89 L
218.221 112.394 L
219.183 111.899 L
220.146 111.406 L
221.108 110.914 L
222.07 110.423 L
223.032 109.933 L
223.995 109.445 L
224.957 108.957 L
225.919 108.471 L
226.882 107.986 L
227.844 107.503 L
228.806 107.02 L
229.768 106.54 L
230.731 106.06 L
231.693 105.581 L
232.655 105.104 L
233.617 104.628 L
234.58 104.154 L
235.542 103.681 L
236.504 103.209 L
237.467 102.739 L
238.429 102.27 L
239.391 101.802 L
240.353 101.335 L
241.316 100.87 L
242.278 100.407 L
243.24 99.945 L
244.202 99.484 L
245.165 99.024 L
246.127 98.567 L
247.089 98.11 L
248.051 97.655 L
249.014 97.201 L
249.976 96.748 L
250.938 96.298 L
251.901 95.848 L
252.863 95.4 L
253.825 94.954 L
254.787 94.509 L
255.75 94.066 L
256.712 93.624 L
257.674 93.184 L
258.636 92.744 L
259.599 92.307 L
260.561 91.871 L
261.523 91.437 L
262.486 91.004 L
263.448 90.573 L
264.41 90.143 L
265.372 89.715 L
266.335 89.289 L
267.297 88.864 L
268.259 88.44 L
269.221 88.019 L
270.184 87.598 L
271.146 87.18 L
272.108 86.763 L
273.07 86.347 L
274.033 85.934 L
274.995 85.522 L
275.957 85.112 L
276.92 84.703 L
277.882 84.296 L
278.844 83.891 L
279.806 83.487 L
280.769 83.085 L
281.731 82.685 L
282.693 82.287 L
283.655 81.89 L
284.618 81.494 L
285.58 81.101 L
286.542 80.71 L
287.505 80.32 L
288.467 79.931 L
289.429 79.545 L
290.391 79.16 L
291.354 78.778 L
292.316 78.397 L
293.278 78.017 L
294.24 77.64 L
295.203 77.264 L
296.165 76.891 L
297.127 76.518 L
298.089 76.148 L
299.052 75.78 L
300.014 75.414 L
300.976 75.049 L
301.939 74.686 L
302.901 74.325 L
303.863 73.966 L
304.825 73.609 L
305.788 73.254 L
306.75 72.9 L
307.712 72.549 L
308.674 72.2 L
309.637 71.851 L
310.599 71.506 L
311.561 71.162 L
312.524 70.821 L
313.486 70.481 L
314.448 70.143 L
315.41 69.807 L
316.373 69.473 L
317.335 69.141 L
318.297 68.811 L
319.259 68.483 L
320.222 68.158 L
321.184 67.834 L
322.146 67.512 L
323.108 67.192 L
324.071 66.874 L
325.033 66.559 L
325.995 66.244 L
326.958 65.933 L
327.92 65.624 L
328.882 65.316 L
329.844 65.011 L
330.807 64.707 L
331.769 64.406 L
332.731 64.107 L
333.693 63.81 L
334.656 63.515 L
335.618 63.223 L
336.58 62.932 L
337.543 62.644 L
338.505 62.357 L
339.467 62.073 L
340.429 61.791 L
341.392 61.511 L
342.354 61.234 L
343.316 60.959 L
344.278 60.685 L
345.241 60.415 L
346.203 60.146 L
347.165 59.879 L
348.128 59.615 L
349.09 59.352 L
350.052 59.093 L
351.014 58.835 L
351.977 58.58 L
352.939 58.327 L
353.901 58.077 L
354.863 57.828 L
355.826 57.582 L
356.788 57.338 L
357.75 57.096 L
358.712 56.857 L
359.675 56.62 L
360.637 56.386 L
361.599 56.154 L
362.562 55.924 L
363.524 55.697 L
364.486 55.471 L
365.448 55.248 L
366.411 55.028 L
367.373 54.81 L
368.335 54.595 L
369.297 54.381 L
370.26 54.17 L
371.222 53.963 L
372.184 53.756 L
373.146 53.553 L
374.109 53.351 L
375.071 53.153 L
376.033 52.957 L
376.996 52.763 L
377.958 52.572 L
378.92 52.383 L
379.882 52.197 L
380.845 52.013 L
381.807 51.832 L
382.769 51.653 L
383.731 51.477 L
384.694 51.303 L
385.656 51.132 L
386.618 50.964 L
387.581 50.798 L
388.543 50.635 L
389.505 50.473 L
390.467 50.315 L
391.43 50.159 L
392.392 50.006 L
393.354 49.856 L
394.316 49.707 L
395.279 49.562 L
396.241 49.42 L
397.203 49.279 L
398.165 49.142 L
399.128 49.007 L
400.09 48.875 L
401.052 48.745 L
402.015 48.618 L
402.977 48.494 L
403.939 48.373 L
404.901 48.254 L
405.864 48.138 L
406.826 48.024 L
407.788 47.914 L
408.75 47.806 L
409.713 47.701 L
410.675 47.598 L
411.637 47.498 L
412.6 47.401 L
413.562 47.307 L
414.524 47.215 L
415.486 47.127 L
416.449 47.041 L
417.411 46.958 L
418.373 46.877 L
419.335 46.8 L
420.298 46.725 L
421.26 46.653 L
422.222 46.584 L
423.185 46.518 L
424.147 46.454 L
425.109 46.394 L
426.071 46.336 L
427.034 46.281 L
427.996 46.229 L
428.958 46.18 L
429.92 46.134 L
430.883 46.091 L
431.845 46.05 L
432.807 46.013 L
433.769 45.978 L
434.732 45.947 L
435.694 45.918 L
436.656 45.892 L
437.619 45.87 L
438.581 45.85 L
439.543 45.833 L
440.505 45.82 L
441.468 45.808 L
442.43 45.801 L
443.392 45.795 L
444.354 45.794 L
S
GR
GS
0.635 0.078 0.184 RC
[10 6] 0 setdash
2 LJ
0.5 LW
N
73.807 285.62 M
74.769 254.513 L
75.731 232.772 L
76.693 220.011 L
77.656 210.025 L
78.618 202.838 L
79.58 198.355 L
80.542 194.889 L
81.505 191.859 L
82.467 189.239 L
83.429 187.003 L
84.391 185.126 L
85.354 183.582 L
86.316 182.345 L
87.278 181.388 L
88.241 180.532 L
89.203 179.679 L
90.165 178.83 L
91.127 177.983 L
92.09 177.141 L
93.052 176.302 L
94.014 175.466 L
94.976 174.633 L
95.939 173.804 L
96.901 172.977 L
97.863 172.155 L
98.826 171.336 L
99.788 170.52 L
100.75 169.707 L
101.712 168.898 L
102.675 168.092 L
103.637 167.29 L
104.599 166.49 L
105.561 165.694 L
106.524 164.901 L
107.486 164.112 L
108.448 163.326 L
109.41 162.543 L
110.373 161.764 L
111.335 160.987 L
112.297 160.214 L
113.26 159.445 L
114.222 158.678 L
115.184 157.914 L
116.146 157.154 L
117.109 156.398 L
118.071 155.645 L
119.033 154.894 L
119.995 154.147 L
120.958 153.404 L
121.92 152.663 L
122.882 151.926 L
123.845 151.191 L
124.807 150.46 L
125.769 149.733 L
126.731 149.009 L
127.694 148.288 L
128.656 147.569 L
129.618 146.854 L
130.58 146.143 L
131.543 145.434 L
132.505 144.729 L
133.467 144.027 L
134.43 143.328 L
135.392 142.633 L
136.354 141.94 L
137.316 141.251 L
138.279 140.564 L
139.241 139.881 L
140.203 139.201 L
141.165 138.525 L
142.128 137.851 L
143.09 137.181 L
144.052 136.513 L
145.014 135.849 L
145.977 135.188 L
146.939 134.53 L
147.901 133.875 L
148.864 133.223 L
149.826 132.575 L
150.788 131.929 L
151.75 131.286 L
152.713 130.647 L
153.675 130.011 L
154.637 129.378 L
155.599 128.748 L
156.562 128.121 L
157.524 127.497 L
158.486 126.876 L
159.449 126.258 L
160.411 125.644 L
161.373 125.032 L
162.335 124.423 L
163.298 123.818 L
164.26 123.216 L
165.222 122.616 L
166.184 122.02 L
167.147 121.426 L
168.109 120.836 L
169.071 120.249 L
170.033 119.665 L
170.996 119.083 L
171.958 118.505 L
172.92 117.93 L
173.883 117.358 L
174.845 116.788 L
175.807 116.222 L
176.769 115.659 L
177.732 115.099 L
178.694 114.542 L
179.656 113.987 L
180.618 113.436 L
181.581 112.887 L
182.543 112.342 L
183.505 111.8 L
184.468 111.26 L
185.43 110.724 L
186.392 110.19 L
187.354 109.66 L
188.317 109.132 L
189.279 108.608 L
190.241 108.086 L
191.203 107.567 L
192.166 107.051 L
193.128 106.538 L
194.09 106.028 L
195.052 105.521 L
196.015 105.017 L
196.977 104.515 L
197.939 104.017 L
198.902 103.521 L
199.864 103.028 L
200.826 102.538 L
201.788 102.052 L
202.751 101.567 L
203.713 101.087 L
204.675 100.608 L
205.637 100.133 L
206.6 99.66 L
207.562 99.191 L
208.524 98.724 L
209.487 98.26 L
210.449 97.799 L
211.411 97.34 L
212.373 96.885 L
213.336 96.432 L
214.298 95.983 L
215.26 95.536 L
216.222 95.092 L
217.185 94.65 L
218.147 94.212 L
219.109 93.776 L
220.071 93.343 L
221.034 92.913 L
221.996 92.486 L
222.958 92.061 L
223.921 91.64 L
224.883 91.221 L
225.845 90.804 L
226.807 90.391 L
227.77 89.981 L
228.732 89.573 L
229.694 89.168 L
230.656 88.765 L
231.619 88.366 L
232.581 87.97 L
233.543 87.575 L
234.506 87.184 L
235.468 86.795 L
236.43 86.41 L
237.392 86.026 L
238.355 85.646 L
239.317 85.268 L
240.279 84.893 L
241.241 84.521 L
242.204 84.152 L
243.166 83.785 L
244.128 83.421 L
245.09 83.059 L
246.053 82.701 L
247.015 82.345 L
247.977 81.991 L
248.94 81.641 L
249.902 81.293 L
250.864 80.947 L
251.826 80.605 L
252.789 80.265 L
253.751 79.927 L
254.713 79.593 L
255.675 79.261 L
256.638 78.931 L
257.6 78.604 L
258.562 78.28 L
259.525 77.959 L
260.487 77.64 L
261.449 77.323 L
262.411 77.01 L
263.374 76.699 L
264.336 76.39 L
265.298 76.085 L
266.26 75.782 L
267.223 75.481 L
268.185 75.183 L
269.147 74.888 L
270.109 74.595 L
271.072 74.305 L
272.034 74.017 L
272.996 73.732 L
273.959 73.45 L
274.921 73.17 L
275.883 72.893 L
276.845 72.617 L
277.808 72.345 L
278.77 72.076 L
279.732 71.808 L
280.694 71.544 L
281.657 71.282 L
282.619 71.022 L
283.581 70.765 L
284.544 70.511 L
285.506 70.259 L
286.468 70.009 L
287.43 69.763 L
288.393 69.518 L
289.355 69.276 L
290.317 69.037 L
291.279 68.799 L
292.242 68.565 L
293.204 68.333 L
294.166 68.104 L
295.128 67.877 L
296.091 67.652 L
297.053 67.43 L
298.015 67.211 L
298.978 66.993 L
299.94 66.779 L
300.902 66.566 L
301.864 66.357 L
302.827 66.149 L
303.789 65.945 L
304.751 65.742 L
305.713 65.542 L
306.676 65.344 L
307.638 65.15 L
308.6 64.957 L
309.563 64.767 L
310.525 64.579 L
311.487 64.393 L
312.449 64.21 L
313.412 64.029 L
314.374 63.851 L
315.336 63.675 L
316.298 63.501 L
317.261 63.33 L
318.223 63.162 L
319.185 62.995 L
320.147 62.831 L
321.11 62.669 L
322.072 62.51 L
323.034 62.353 L
323.997 62.199 L
324.959 62.046 L
325.921 61.896 L
326.883 61.749 L
327.846 61.604 L
328.808 61.461 L
329.77 61.32 L
330.732 61.182 L
331.695 61.046 L
332.657 60.912 L
333.619 60.781 L
334.582 60.652 L
335.544 60.525 L
336.506 60.401 L
337.468 60.279 L
338.431 60.159 L
339.393 60.042 L
340.355 59.926 L
341.317 59.813 L
342.28 59.703 L
343.242 59.594 L
344.204 59.488 L
345.167 59.385 L
346.129 59.283 L
347.091 59.183 L
348.053 59.086 L
349.016 58.991 L
349.978 58.899 L
350.94 58.808 L
351.902 58.72 L
352.865 58.634 L
353.827 58.551 L
354.789 58.469 L
355.751 58.389 L
356.714 58.313 L
357.676 58.238 L
358.638 58.165 L
359.601 58.094 L
360.563 58.026 L
361.525 57.96 L
362.487 57.896 L
363.45 57.835 L
364.412 57.775 L
365.374 57.717 L
366.336 57.662 L
367.299 57.609 L
368.261 57.559 L
369.223 57.51 L
370.185 57.463 L
371.148 57.418 L
372.11 57.376 L
373.072 57.336 L
374.035 57.298 L
374.997 57.262 L
375.959 57.229 L
376.921 57.197 L
377.884 57.167 L
378.846 57.14 L
379.808 57.115 L
380.77 57.092 L
381.733 57.07 L
382.695 57.051 L
383.657 57.035 L
384.62 57.02 L
385.582 57.007 L
386.544 56.996 L
387.506 56.988 L
388.469 56.982 L
389.431 56.977 L
390.393 56.975 L
S
GR
GS
0 0.447 0.741 RC
[10 6] 0 setdash
2 LJ
0.5 LW
N
73.774 279.752 M
74.737 249.897 L
75.699 229.356 L
76.661 221.787 L
77.623 215.752 L
78.586 210.942 L
79.548 207.161 L
80.51 204.216 L
81.473 201.914 L
82.435 200.06 L
83.397 198.413 L
84.359 196.865 L
85.322 195.409 L
86.284 194.042 L
87.246 192.758 L
88.208 191.552 L
89.171 190.421 L
90.133 189.359 L
91.095 188.362 L
92.058 187.424 L
93.02 186.542 L
93.982 185.71 L
94.944 184.923 L
95.907 184.178 L
96.869 183.468 L
97.831 182.79 L
98.793 182.138 L
99.756 181.509 L
100.718 180.896 L
101.68 180.296 L
102.642 179.704 L
103.605 179.114 L
104.567 178.522 L
105.529 177.924 L
106.492 177.316 L
107.454 176.703 L
108.416 176.091 L
109.378 175.479 L
110.341 174.868 L
111.303 174.257 L
112.265 173.647 L
113.227 173.037 L
114.19 172.428 L
115.152 171.82 L
116.114 171.211 L
117.077 170.603 L
118.039 169.996 L
119.001 169.389 L
119.963 168.783 L
120.926 168.178 L
121.888 167.572 L
122.85 166.968 L
123.812 166.364 L
124.775 165.761 L
125.737 165.158 L
126.699 164.557 L
127.661 163.955 L
128.624 163.354 L
129.586 162.754 L
130.548 162.154 L
131.511 161.555 L
132.473 160.957 L
133.435 160.359 L
134.397 159.763 L
135.36 159.166 L
136.322 158.571 L
137.284 157.975 L
138.246 157.381 L
139.209 156.788 L
140.171 156.195 L
141.133 155.603 L
142.096 155.012 L
143.058 154.421 L
144.02 153.832 L
144.982 153.242 L
145.945 152.654 L
146.907 152.067 L
147.869 151.48 L
148.831 150.894 L
149.794 150.309 L
150.756 149.725 L
151.718 149.141 L
152.68 148.559 L
153.643 147.977 L
154.605 147.396 L
155.567 146.816 L
156.53 146.237 L
157.492 145.659 L
158.454 145.081 L
159.416 144.505 L
160.379 143.929 L
161.341 143.354 L
162.303 142.78 L
163.265 142.207 L
164.228 141.636 L
165.19 141.065 L
166.152 140.494 L
167.115 139.925 L
168.077 139.357 L
169.039 138.79 L
170.001 138.224 L
170.964 137.659 L
171.926 137.094 L
172.888 136.531 L
173.85 135.969 L
174.813 135.408 L
175.775 134.847 L
176.737 134.289 L
177.699 133.73 L
178.662 133.173 L
179.624 132.617 L
180.586 132.063 L
181.549 131.509 L
182.511 130.956 L
183.473 130.405 L
184.435 129.854 L
185.398 129.305 L
186.36 128.756 L
187.322 128.21 L
188.284 127.663 L
189.247 127.119 L
190.209 126.575 L
191.171 126.033 L
192.134 125.491 L
193.096 124.951 L
194.058 124.413 L
195.02 123.875 L
195.983 123.338 L
196.945 122.803 L
197.907 122.269 L
198.869 121.737 L
199.832 121.205 L
200.794 120.674 L
201.756 120.145 L
202.719 119.618 L
203.681 119.091 L
204.643 118.566 L
205.605 118.042 L
206.568 117.52 L
207.53 116.998 L
208.492 116.478 L
209.454 115.96 L
210.417 115.442 L
211.379 114.926 L
212.341 114.412 L
213.303 113.898 L
214.266 113.386 L
215.228 112.876 L
216.19 112.367 L
217.153 111.859 L
218.115 111.353 L
219.077 110.848 L
220.039 110.344 L
221.002 109.843 L
221.964 109.342 L
222.926 108.843 L
223.888 108.345 L
224.851 107.849 L
225.813 107.354 L
226.775 106.861 L
227.738 106.369 L
228.7 105.879 L
229.662 105.39 L
230.624 104.903 L
231.587 104.417 L
232.549 103.933 L
233.511 103.45 L
234.473 102.969 L
235.436 102.489 L
236.398 102.011 L
237.36 101.535 L
238.322 101.06 L
239.285 100.587 L
240.247 100.115 L
241.209 99.645 L
242.172 99.176 L
243.134 98.709 L
244.096 98.245 L
245.058 97.781 L
246.021 97.319 L
246.983 96.859 L
247.945 96.4 L
248.907 95.943 L
249.87 95.488 L
250.832 95.035 L
251.794 94.583 L
252.757 94.132 L
253.719 93.685 L
254.681 93.238 L
255.643 92.793 L
256.606 92.35 L
257.568 91.908 L
258.53 91.469 L
259.492 91.031 L
260.455 90.595 L
261.417 90.16 L
262.379 89.727 L
263.341 89.297 L
264.304 88.868 L
265.266 88.441 L
266.228 88.015 L
267.191 87.592 L
268.153 87.17 L
269.115 86.751 L
270.077 86.332 L
271.04 85.917 L
272.002 85.502 L
272.964 85.09 L
273.926 84.68 L
274.889 84.271 L
275.851 83.865 L
276.813 83.46 L
277.776 83.057 L
278.738 82.656 L
279.7 82.258 L
280.662 81.86 L
281.625 81.466 L
282.587 81.073 L
283.549 80.682 L
284.511 80.293 L
285.474 79.906 L
286.436 79.521 L
287.398 79.138 L
288.36 78.757 L
289.323 78.378 L
290.285 78.001 L
291.247 77.626 L
292.21 77.253 L
293.172 76.883 L
294.134 76.514 L
295.096 76.147 L
296.059 75.783 L
297.021 75.421 L
297.983 75.06 L
298.945 74.702 L
299.908 74.346 L
300.87 73.992 L
301.832 73.64 L
302.795 73.291 L
303.757 72.943 L
304.719 72.598 L
305.681 72.255 L
306.644 71.914 L
307.606 71.575 L
308.568 71.238 L
309.53 70.904 L
310.493 70.572 L
311.455 70.242 L
312.417 69.914 L
313.379 69.589 L
314.342 69.266 L
315.304 68.944 L
316.266 68.626 L
317.229 68.309 L
318.191 67.995 L
319.153 67.684 L
320.115 67.373 L
321.078 67.067 L
322.04 66.762 L
323.002 66.459 L
323.964 66.159 L
324.927 65.861 L
325.889 65.565 L
326.851 65.272 L
327.814 64.981 L
328.776 64.693 L
329.738 64.407 L
330.7 64.123 L
331.663 63.842 L
332.625 63.563 L
333.587 63.286 L
334.549 63.012 L
335.512 62.741 L
336.474 62.471 L
337.436 62.204 L
338.398 61.94 L
339.361 61.679 L
340.323 61.419 L
341.285 61.163 L
342.248 60.908 L
343.21 60.657 L
344.172 60.407 L
345.134 60.16 L
346.097 59.916 L
347.059 59.674 L
348.021 59.435 L
348.983 59.198 L
349.946 58.964 L
350.908 58.732 L
351.87 58.503 L
352.833 58.277 L
353.795 58.054 L
354.757 57.832 L
355.719 57.614 L
356.682 57.398 L
357.644 57.184 L
358.606 56.974 L
359.568 56.766 L
360.531 56.561 L
361.493 56.358 L
362.455 56.158 L
363.417 55.96 L
364.38 55.766 L
365.342 55.573 L
366.304 55.385 L
367.267 55.198 L
368.229 55.014 L
369.191 54.833 L
370.153 54.655 L
371.116 54.479 L
372.078 54.306 L
373.04 54.136 L
374.002 53.968 L
374.965 53.804 L
375.927 53.643 L
376.889 53.483 L
377.852 53.327 L
378.814 53.174 L
379.776 53.023 L
380.738 52.876 L
381.701 52.731 L
382.663 52.589 L
383.625 52.449 L
384.587 52.314 L
385.55 52.18 L
386.512 52.049 L
387.474 51.922 L
388.436 51.797 L
389.399 51.675 L
390.361 51.556 L
391.323 51.44 L
392.286 51.327 L
393.248 51.217 L
394.21 51.11 L
395.172 51.006 L
396.135 50.904 L
397.097 50.806 L
398.059 50.711 L
399.021 50.618 L
399.984 50.529 L
400.946 50.443 L
401.908 50.359 L
402.871 50.279 L
403.833 50.202 L
404.795 50.128 L
405.757 50.057 L
406.72 49.989 L
407.682 49.924 L
408.644 49.862 L
409.606 49.803 L
410.569 49.747 L
411.531 49.694 L
412.493 49.645 L
413.456 49.599 L
414.418 49.555 L
415.38 49.515 L
416.342 49.478 L
417.305 49.444 L
418.267 49.413 L
419.229 49.386 L
420.191 49.361 L
421.154 49.34 L
422.116 49.322 L
423.078 49.308 L
424.04 49.296 L
425.003 49.287 L
425.965 49.282 L
426.927 49.28 L
S
GR
GS
0.851 0.325 0.098 RC
[10 6] 0 setdash
2 LJ
0.5 LW
N
73.03 374 M
73.992 302.396 L
74.955 267.018 L
75.917 244.755 L
76.879 231.32 L
77.841 223.149 L
78.804 216.121 L
79.766 210.219 L
80.728 205.443 L
81.69 201.794 L
82.653 199.27 L
83.615 197.831 L
84.577 196.69 L
85.539 195.557 L
86.502 194.429 L
87.464 193.307 L
88.426 192.191 L
89.389 191.082 L
90.351 189.979 L
91.313 188.882 L
92.275 187.791 L
93.238 186.706 L
94.2 185.627 L
95.162 184.554 L
96.124 183.487 L
97.087 182.426 L
98.049 181.371 L
99.011 180.322 L
99.974 179.279 L
100.936 178.242 L
101.898 177.21 L
102.86 176.185 L
103.823 175.166 L
104.785 174.152 L
105.747 173.145 L
106.709 172.143 L
107.672 171.146 L
108.634 170.156 L
109.596 169.172 L
110.559 168.193 L
111.521 167.22 L
112.483 166.253 L
113.445 165.292 L
114.408 164.336 L
115.37 163.386 L
116.332 162.442 L
117.294 161.503 L
118.257 160.57 L
119.219 159.643 L
120.181 158.721 L
121.143 157.805 L
122.106 156.895 L
123.068 155.989 L
124.03 155.091 L
124.993 154.196 L
125.955 153.308 L
126.917 152.425 L
127.879 151.548 L
128.842 150.676 L
129.804 149.809 L
130.766 148.949 L
131.728 148.094 L
132.691 147.243 L
133.653 146.399 L
134.615 145.56 L
135.578 144.726 L
136.54 143.897 L
137.502 143.073 L
138.464 142.256 L
139.427 141.443 L
140.389 140.636 L
141.351 139.834 L
142.313 139.037 L
143.276 138.245 L
144.238 137.459 L
145.2 136.678 L
146.162 135.903 L
147.125 135.132 L
148.087 134.367 L
149.049 133.606 L
150.012 132.851 L
150.974 132.101 L
151.936 131.356 L
152.898 130.616 L
153.861 129.881 L
154.823 129.151 L
155.785 128.427 L
156.747 127.707 L
157.71 126.992 L
158.672 126.283 L
159.634 125.578 L
160.597 124.878 L
161.559 124.183 L
162.521 123.494 L
163.483 122.809 L
164.446 122.129 L
165.408 121.453 L
166.37 120.783 L
167.332 120.118 L
168.295 119.457 L
169.257 118.801 L
170.219 118.15 L
171.181 117.504 L
172.144 116.863 L
173.106 116.226 L
174.068 115.594 L
175.031 114.967 L
175.993 114.345 L
176.955 113.727 L
177.917 113.114 L
178.88 112.505 L
179.842 111.902 L
180.804 111.303 L
181.766 110.708 L
182.729 110.118 L
183.691 109.533 L
184.653 108.952 L
185.616 108.376 L
186.578 107.804 L
187.54 107.237 L
188.502 106.675 L
189.465 106.117 L
190.427 105.563 L
191.389 105.014 L
192.351 104.469 L
193.314 103.929 L
194.276 103.393 L
195.238 102.862 L
196.2 102.335 L
197.163 101.813 L
198.125 101.294 L
199.087 100.78 L
200.05 100.27 L
201.012 99.765 L
201.974 99.264 L
202.936 98.767 L
203.899 98.275 L
204.861 97.786 L
205.823 97.302 L
206.785 96.823 L
207.748 96.347 L
208.71 95.875 L
209.672 95.408 L
210.635 94.945 L
211.597 94.486 L
212.559 94.031 L
213.521 93.58 L
214.484 93.134 L
215.446 92.691 L
216.408 92.253 L
217.37 91.818 L
218.333 91.387 L
219.295 90.961 L
220.257 90.538 L
221.219 90.12 L
222.182 89.706 L
223.144 89.295 L
224.106 88.888 L
225.069 88.486 L
226.031 88.087 L
226.993 87.692 L
227.955 87.301 L
228.918 86.913 L
229.88 86.53 L
230.842 86.151 L
231.804 85.775 L
232.767 85.403 L
233.729 85.035 L
234.691 84.67 L
235.654 84.31 L
236.616 83.952 L
237.578 83.599 L
238.54 83.25 L
239.503 82.904 L
240.465 82.562 L
241.427 82.223 L
242.389 81.889 L
243.352 81.557 L
244.314 81.23 L
245.276 80.905 L
246.238 80.584 L
247.201 80.268 L
248.163 79.954 L
249.125 79.644 L
250.088 79.338 L
251.05 79.035 L
252.012 78.736 L
252.974 78.44 L
253.937 78.147 L
254.899 77.858 L
255.861 77.573 L
256.823 77.29 L
257.786 77.011 L
258.748 76.736 L
259.71 76.464 L
260.673 76.195 L
261.635 75.929 L
262.597 75.667 L
263.559 75.408 L
264.522 75.153 L
265.484 74.9 L
266.446 74.651 L
267.408 74.405 L
268.371 74.163 L
269.333 73.923 L
270.295 73.687 L
271.258 73.454 L
272.22 73.224 L
273.182 72.997 L
274.144 72.773 L
275.107 72.552 L
276.069 72.335 L
277.031 72.12 L
277.993 71.909 L
278.956 71.701 L
279.918 71.495 L
280.88 71.293 L
281.842 71.094 L
282.805 70.898 L
283.767 70.704 L
284.729 70.513 L
285.692 70.326 L
286.654 70.142 L
287.616 69.96 L
288.578 69.781 L
289.541 69.605 L
290.503 69.432 L
291.465 69.262 L
292.427 69.094 L
293.39 68.929 L
294.352 68.767 L
295.314 68.609 L
296.277 68.452 L
297.239 68.299 L
298.201 68.148 L
299.163 68 L
300.126 67.854 L
301.088 67.711 L
302.05 67.571 L
303.012 67.434 L
303.975 67.299 L
304.937 67.167 L
305.899 67.037 L
306.861 66.911 L
307.824 66.786 L
308.786 66.664 L
309.748 66.545 L
310.711 66.428 L
311.673 66.314 L
312.635 66.202 L
313.597 66.092 L
314.56 65.986 L
315.522 65.881 L
316.484 65.779 L
317.446 65.68 L
318.409 65.582 L
319.371 65.488 L
320.333 65.395 L
321.296 65.305 L
322.258 65.218 L
323.22 65.132 L
324.182 65.049 L
325.145 64.968 L
326.107 64.89 L
327.069 64.813 L
328.031 64.739 L
328.994 64.668 L
329.956 64.598 L
330.918 64.531 L
331.88 64.465 L
332.843 64.402 L
333.805 64.341 L
334.767 64.283 L
335.73 64.226 L
336.692 64.171 L
337.654 64.119 L
338.616 64.068 L
339.579 64.02 L
340.541 63.974 L
341.503 63.929 L
342.465 63.888 L
343.428 63.847 L
344.39 63.809 L
345.352 63.772 L
346.315 63.738 L
347.277 63.705 L
348.239 63.675 L
349.201 63.646 L
350.164 63.619 L
351.126 63.594 L
352.088 63.571 L
353.05 63.551 L
354.013 63.531 L
354.975 63.513 L
355.937 63.497 L
356.899 63.484 L
357.862 63.471 L
358.824 63.461 L
359.786 63.452 L
360.749 63.445 L
361.711 63.44 L
362.673 63.436 L
363.635 63.434 L
S
GR
GS
1 GC
N
499 366 M
499 218.5 L
327.5 218.5 L
327.5 366 L
cp
f
GR
GS
[1 0 0 1 364.5 228.25] CT
/Helvetica 13 F
GS
[1 0 0 1 0 0] CT
0 5 moveto 
1 -1 scale
(Base Run) t 
GR
GR
GS
0 0.447 0.741 RC
1 LJ
0.5 LW
N
331.5 228.25 M
361.5 228.25 L
S
GR
GS
[1 0 0 1 364.5 244.25] CT
/Helvetica 13 F
GS
[1 0 0 1 0 0] CT
0 5 moveto 
1 -1 scale
(All Frames) t 
GR
GR
GS
0.851 0.325 0.098 RC
1 LJ
0.5 LW
N
331.5 244.25 M
361.5 244.25 L
S
GR
GS
[1 0 0 1 364.5 260.25] CT
/Helvetica 13 F
GS
[1 0 0 1 0 0] CT
0 5 moveto 
1 -1 scale
(KF Only) t 
GR
GR
GS
0.929 0.694 0.125 RC
1 LJ
0.5 LW
N
331.5 260.25 M
361.5 260.25 L
S
GR
GS
[1 0 0 1 364.5 276.25] CT
/Helvetica 13 F
GS
[1 0 0 1 0 0] CT
0 5 moveto 
1 -1 scale
(GF, ARF Only) t 
GR
GR
GS
0.494 0.184 0.557 RC
1 LJ
0.5 LW
N
331.5 276.25 M
361.5 276.25 L
S
GR
GS
[1 0 0 1 364.5 292.25] CT
/Helvetica 13 F
GS
[1 0 0 1 0 0] CT
0 5 moveto 
1 -1 scale
(KF, GF, ARF Only) t 
GR
GR
GS
0.467 0.675 0.188 RC
1 LJ
0.5 LW
N
331.5 292.25 M
361.5 292.25 L
S
GR
GS
[1 0 0 1 364.5 308.25] CT
/Helvetica 13 F
GS
[1 0 0 1 0 0] CT
0 5 moveto 
1 -1 scale
(Part All Frames) t 
GR
GR
GS
0.302 0.745 0.933 RC
[10 6] 0 setdash
2 LJ
0.5 LW
N
331.5 308.25 M
361.5 308.25 L
S
GR
GS
[1 0 0 1 364.5 324.25] CT
/Helvetica 13 F
GS
[1 0 0 1 0 0] CT
0 5 moveto 
1 -1 scale
(Part KF Only) t 
GR
GR
GS
0.635 0.078 0.184 RC
[10 6] 0 setdash
2 LJ
0.5 LW
N
331.5 324.25 M
361.5 324.25 L
S
GR
GS
[1 0 0 1 364.5 340.25] CT
/Helvetica 13 F
GS
[1 0 0 1 0 0] CT
0 5 moveto 
1 -1 scale
(Part GF, ARF Only) t 
GR
GR
GS
0 0.447 0.741 RC
[10 6] 0 setdash
2 LJ
0.5 LW
N
331.5 340.25 M
361.5 340.25 L
S
GR
GS
[1 0 0 1 364.5 356.25] CT
/Helvetica 13 F
GS
[1 0 0 1 0 0] CT
0 5 moveto 
1 -1 scale
(Part KF, GF, ARF Only) t 
GR
GR
GS
0.851 0.325 0.098 RC
[10 6] 0 setdash
2 LJ
0.5 LW
N
331.5 356.25 M
361.5 356.25 L
S
GR
GS
0.149 GC
10.0 ML
0.5 LW
N
327.5 366 M
327.5 218.5 L
499 218.5 L
499 366 L
cp
S
GR
%%Trailer
%%Pages: 1
%%EOF
