%!PS-Adobe-3.0 EPSF-3.0
%%Creator: (MATLAB, The Mathworks, Inc. Version 9.11.0.1837725 \(R2021b\) Update 2. Operating System: Mac OS X)
%%Title: plots/rd/DinnerSceneCropped_1920x1080_2997fps_10bit_420.y4m-hevc-SSIM.eps
%%CreationDate: 2022-02-04T14:45:22
%%Pages: (atend)
%%BoundingBox:    22   425   531   826
%%LanguageLevel: 3
%%EndComments
%%BeginProlog
%%BeginResource: procset (Apache XML Graphics Std ProcSet) 1.2 0
%%Version: 1.2 0
%%Copyright: (Copyright 2001-2003,2010 The Apache Software Foundation. License terms: http://www.apache.org/licenses/LICENSE-2.0)
/bd{bind def}bind def
/ld{load def}bd
/GR/grestore ld
/GS/gsave ld
/RM/rmoveto ld
/C/curveto ld
/t/show ld
/L/lineto ld
/ML/setmiterlimit ld
/CT/concat ld
/f/fill ld
/N/newpath ld
/S/stroke ld
/CC/setcmykcolor ld
/A/ashow ld
/cp/closepath ld
/RC/setrgbcolor ld
/LJ/setlinejoin ld
/GC/setgray ld
/LW/setlinewidth ld
/M/moveto ld
/re {4 2 roll M
1 index 0 rlineto
0 exch rlineto
neg 0 rlineto
cp } bd
/_ctm matrix def
/_tm matrix def
/BT { _ctm currentmatrix pop matrix _tm copy pop 0 0 moveto } bd
/ET { _ctm setmatrix } bd
/iTm { _ctm setmatrix _tm concat } bd
/Tm { _tm astore pop iTm 0 0 moveto } bd
/ux 0.0 def
/uy 0.0 def
/F {
  /Tp exch def
  /Tf exch def
  Tf findfont Tp scalefont setfont
  /cf Tf def  /cs Tp def
} bd
/ULS {currentpoint /uy exch def /ux exch def} bd
/ULE {
  /Tcx currentpoint pop def
  gsave
  newpath
  cf findfont cs scalefont dup
  /FontMatrix get 0 get /Ts exch def /FontInfo get dup
  /UnderlinePosition get Ts mul /To exch def
  /UnderlineThickness get Ts mul /Tt exch def
  ux uy To add moveto  Tcx uy To add lineto
  Tt setlinewidth stroke
  grestore
} bd
/OLE {
  /Tcx currentpoint pop def
  gsave
  newpath
  cf findfont cs scalefont dup
  /FontMatrix get 0 get /Ts exch def /FontInfo get dup
  /UnderlinePosition get Ts mul /To exch def
  /UnderlineThickness get Ts mul /Tt exch def
  ux uy To add cs add moveto Tcx uy To add cs add lineto
  Tt setlinewidth stroke
  grestore
} bd
/SOE {
  /Tcx currentpoint pop def
  gsave
  newpath
  cf findfont cs scalefont dup
  /FontMatrix get 0 get /Ts exch def /FontInfo get dup
  /UnderlinePosition get Ts mul /To exch def
  /UnderlineThickness get Ts mul /Tt exch def
  ux uy To add cs 10 mul 26 idiv add moveto Tcx uy To add cs 10 mul 26 idiv add lineto
  Tt setlinewidth stroke
  grestore
} bd
/QT {
/Y22 exch store
/X22 exch store
/Y21 exch store
/X21 exch store
currentpoint
/Y21 load 2 mul add 3 div exch
/X21 load 2 mul add 3 div exch
/X21 load 2 mul /X22 load add 3 div
/Y21 load 2 mul /Y22 load add 3 div
/X22 load /Y22 load curveto
} bd
/SSPD {
dup length /d exch dict def
{
/v exch def
/k exch def
currentpagedevice k known {
/cpdv currentpagedevice k get def
v cpdv ne {
/upd false def
/nullv v type /nulltype eq def
/nullcpdv cpdv type /nulltype eq def
nullv nullcpdv or
{
/upd true def
} {
/sametype v type cpdv type eq def
sametype {
v type /arraytype eq {
/vlen v length def
/cpdvlen cpdv length def
vlen cpdvlen eq {
0 1 vlen 1 sub {
/i exch def
/obj v i get def
/cpdobj cpdv i get def
obj cpdobj ne {
/upd true def
exit
} if
} for
} {
/upd true def
} ifelse
} {
v type /dicttype eq {
v {
/dv exch def
/dk exch def
/cpddv cpdv dk get def
dv cpddv ne {
/upd true def
exit
} if
} forall
} {
/upd true def
} ifelse
} ifelse
} if
} ifelse
upd true eq {
d k v put
} if
} if
} if
} forall
d length 0 gt {
d setpagedevice
} if
} bd
/RE { % /NewFontName [NewEncodingArray] /FontName RE -
  findfont dup length dict begin
  {
    1 index /FID ne
    {def} {pop pop} ifelse
  } forall
  /Encoding exch def
  /FontName 1 index def
  currentdict definefont pop
  end
} bind def
%%EndResource
%%BeginResource: procset (Apache XML Graphics EPS ProcSet) 1.0 0
%%Version: 1.0 0
%%Copyright: (Copyright 2002-2003 The Apache Software Foundation. License terms: http://www.apache.org/licenses/LICENSE-2.0)
/BeginEPSF { %def
/b4_Inc_state save def         % Save state for cleanup
/dict_count countdictstack def % Count objects on dict stack
/op_count count 1 sub def      % Count objects on operand stack
userdict begin                 % Push userdict on dict stack
/showpage { } def              % Redefine showpage, { } = null proc
0 setgray 0 setlinecap         % Prepare graphics state
1 setlinewidth 0 setlinejoin
10 setmiterlimit [ ] 0 setdash newpath
/languagelevel where           % If level not equal to 1 then
{pop languagelevel             % set strokeadjust and
1 ne                           % overprint to their defaults.
{false setstrokeadjust false setoverprint
} if
} if
} bd
/EndEPSF { %def
count op_count sub {pop} repeat            % Clean up stacks
countdictstack dict_count sub {end} repeat
b4_Inc_state restore
} bd
%%EndResource
%FOPBeginFontDict
%%IncludeResource: font Courier-Oblique
%%IncludeResource: font Courier-BoldOblique
%%IncludeResource: font Courier-Bold
%%IncludeResource: font ZapfDingbats
%%IncludeResource: font Symbol
%%IncludeResource: font Helvetica
%%IncludeResource: font Helvetica-Oblique
%%IncludeResource: font Helvetica-Bold
%%IncludeResource: font Helvetica-BoldOblique
%%IncludeResource: font Times-Roman
%%IncludeResource: font Times-Italic
%%IncludeResource: font Times-Bold
%%IncludeResource: font Times-BoldItalic
%%IncludeResource: font Courier
%FOPEndFontDict
%%BeginResource: encoding WinAnsiEncoding
/WinAnsiEncoding [
/.notdef /.notdef /.notdef /.notdef /.notdef
/.notdef /.notdef /.notdef /.notdef /.notdef
/.notdef /.notdef /.notdef /.notdef /.notdef
/.notdef /.notdef /.notdef /.notdef /.notdef
/.notdef /.notdef /.notdef /.notdef /.notdef
/.notdef /.notdef /.notdef /.notdef /.notdef
/.notdef /.notdef /space /exclam /quotedbl
/numbersign /dollar /percent /ampersand /quotesingle
/parenleft /parenright /asterisk /plus /comma
/hyphen /period /slash /zero /one
/two /three /four /five /six
/seven /eight /nine /colon /semicolon
/less /equal /greater /question /at
/A /B /C /D /E
/F /G /H /I /J
/K /L /M /N /O
/P /Q /R /S /T
/U /V /W /X /Y
/Z /bracketleft /backslash /bracketright /asciicircum
/underscore /quoteleft /a /b /c
/d /e /f /g /h
/i /j /k /l /m
/n /o /p /q /r
/s /t /u /v /w
/x /y /z /braceleft /bar
/braceright /asciitilde /bullet /Euro /bullet
/quotesinglbase /florin /quotedblbase /ellipsis /dagger
/daggerdbl /circumflex /perthousand /Scaron /guilsinglleft
/OE /bullet /Zcaron /bullet /bullet
/quoteleft /quoteright /quotedblleft /quotedblright /bullet
/endash /emdash /asciitilde /trademark /scaron
/guilsinglright /oe /bullet /zcaron /Ydieresis
/space /exclamdown /cent /sterling /currency
/yen /brokenbar /section /dieresis /copyright
/ordfeminine /guillemotleft /logicalnot /sfthyphen /registered
/macron /degree /plusminus /twosuperior /threesuperior
/acute /mu /paragraph /middot /cedilla
/onesuperior /ordmasculine /guillemotright /onequarter /onehalf
/threequarters /questiondown /Agrave /Aacute /Acircumflex
/Atilde /Adieresis /Aring /AE /Ccedilla
/Egrave /Eacute /Ecircumflex /Edieresis /Igrave
/Iacute /Icircumflex /Idieresis /Eth /Ntilde
/Ograve /Oacute /Ocircumflex /Otilde /Odieresis
/multiply /Oslash /Ugrave /Uacute /Ucircumflex
/Udieresis /Yacute /Thorn /germandbls /agrave
/aacute /acircumflex /atilde /adieresis /aring
/ae /ccedilla /egrave /eacute /ecircumflex
/edieresis /igrave /iacute /icircumflex /idieresis
/eth /ntilde /ograve /oacute /ocircumflex
/otilde /odieresis /divide /oslash /ugrave
/uacute /ucircumflex /udieresis /yacute /thorn
/ydieresis
] def
%%EndResource
%FOPBeginFontReencode
/Courier-Oblique findfont
dup length dict begin
  {1 index /FID ne {def} {pop pop} ifelse} forall
  /Encoding WinAnsiEncoding def
  currentdict
end
/Courier-Oblique exch definefont pop
/Courier-BoldOblique findfont
dup length dict begin
  {1 index /FID ne {def} {pop pop} ifelse} forall
  /Encoding WinAnsiEncoding def
  currentdict
end
/Courier-BoldOblique exch definefont pop
/Courier-Bold findfont
dup length dict begin
  {1 index /FID ne {def} {pop pop} ifelse} forall
  /Encoding WinAnsiEncoding def
  currentdict
end
/Courier-Bold exch definefont pop
/Helvetica findfont
dup length dict begin
  {1 index /FID ne {def} {pop pop} ifelse} forall
  /Encoding WinAnsiEncoding def
  currentdict
end
/Helvetica exch definefont pop
/Helvetica-Oblique findfont
dup length dict begin
  {1 index /FID ne {def} {pop pop} ifelse} forall
  /Encoding WinAnsiEncoding def
  currentdict
end
/Helvetica-Oblique exch definefont pop
/Helvetica-Bold findfont
dup length dict begin
  {1 index /FID ne {def} {pop pop} ifelse} forall
  /Encoding WinAnsiEncoding def
  currentdict
end
/Helvetica-Bold exch definefont pop
/Helvetica-BoldOblique findfont
dup length dict begin
  {1 index /FID ne {def} {pop pop} ifelse} forall
  /Encoding WinAnsiEncoding def
  currentdict
end
/Helvetica-BoldOblique exch definefont pop
/Times-Roman findfont
dup length dict begin
  {1 index /FID ne {def} {pop pop} ifelse} forall
  /Encoding WinAnsiEncoding def
  currentdict
end
/Times-Roman exch definefont pop
/Times-Italic findfont
dup length dict begin
  {1 index /FID ne {def} {pop pop} ifelse} forall
  /Encoding WinAnsiEncoding def
  currentdict
end
/Times-Italic exch definefont pop
/Times-Bold findfont
dup length dict begin
  {1 index /FID ne {def} {pop pop} ifelse} forall
  /Encoding WinAnsiEncoding def
  currentdict
end
/Times-Bold exch definefont pop
/Times-BoldItalic findfont
dup length dict begin
  {1 index /FID ne {def} {pop pop} ifelse} forall
  /Encoding WinAnsiEncoding def
  currentdict
end
/Times-BoldItalic exch definefont pop
/Courier findfont
dup length dict begin
  {1 index /FID ne {def} {pop pop} ifelse} forall
  /Encoding WinAnsiEncoding def
  currentdict
end
/Courier exch definefont pop
%FOPEndFontReencode
%%EndProlog
%%Page: 1 1
%%PageBoundingBox: 0 0 1120 840
%%BeginPageSetup
[1 0 0 -1 0 840] CT
%%EndPageSetup
GS
1 GC
N
0 0 1120 840 re
f
GR
GS
1 GC
N
73 374 M
507 374 L
507 31.5 L
73 31.5 L
cp
f
GR
GS
0.149 GC
2 setlinecap
1 LJ
0.5 LW
N
73 374 M
507 374 L
S
GR
GS
0.149 GC
2 setlinecap
1 LJ
0.5 LW
N
73 31.5 M
507 31.5 L
S
GR
GS
0.149 GC
2 setlinecap
1 LJ
0.5 LW
N
134.348 374 M
134.348 369.66 L
S
GR
GS
0.149 GC
2 setlinecap
1 LJ
0.5 LW
N
198.919 374 M
198.919 369.66 L
S
GR
GS
0.149 GC
2 setlinecap
1 LJ
0.5 LW
N
263.491 374 M
263.491 369.66 L
S
GR
GS
0.149 GC
2 setlinecap
1 LJ
0.5 LW
N
328.062 374 M
328.062 369.66 L
S
GR
GS
0.149 GC
2 setlinecap
1 LJ
0.5 LW
N
392.633 374 M
392.633 369.66 L
S
GR
GS
0.149 GC
2 setlinecap
1 LJ
0.5 LW
N
457.204 374 M
457.204 369.66 L
S
GR
GS
0.149 GC
2 setlinecap
1 LJ
0.5 LW
N
134.348 31.5 M
134.348 35.84 L
S
GR
GS
0.149 GC
2 setlinecap
1 LJ
0.5 LW
N
198.919 31.5 M
198.919 35.84 L
S
GR
GS
0.149 GC
2 setlinecap
1 LJ
0.5 LW
N
263.491 31.5 M
263.491 35.84 L
S
GR
GS
0.149 GC
2 setlinecap
1 LJ
0.5 LW
N
328.062 31.5 M
328.062 35.84 L
S
GR
GS
0.149 GC
2 setlinecap
1 LJ
0.5 LW
N
392.633 31.5 M
392.633 35.84 L
S
GR
GS
0.149 GC
2 setlinecap
1 LJ
0.5 LW
N
457.204 31.5 M
457.204 35.84 L
S
GR
GS
0.149 GC
2 setlinecap
1 LJ
0.5 LW
N
82.691 374 M
82.691 371.83 L
S
GR
GS
0.149 GC
2 setlinecap
1 LJ
0.5 LW
N
95.605 374 M
95.605 371.83 L
S
GR
GS
0.149 GC
2 setlinecap
1 LJ
0.5 LW
N
108.52 374 M
108.52 371.83 L
S
GR
GS
0.149 GC
2 setlinecap
1 LJ
0.5 LW
N
121.434 374 M
121.434 371.83 L
S
GR
GS
0.149 GC
2 setlinecap
1 LJ
0.5 LW
N
147.262 374 M
147.262 371.83 L
S
GR
GS
0.149 GC
2 setlinecap
1 LJ
0.5 LW
N
160.177 374 M
160.177 371.83 L
S
GR
GS
0.149 GC
2 setlinecap
1 LJ
0.5 LW
N
173.091 374 M
173.091 371.83 L
S
GR
GS
0.149 GC
2 setlinecap
1 LJ
0.5 LW
N
186.005 374 M
186.005 371.83 L
S
GR
GS
0.149 GC
2 setlinecap
1 LJ
0.5 LW
N
211.834 374 M
211.834 371.83 L
S
GR
GS
0.149 GC
2 setlinecap
1 LJ
0.5 LW
N
224.748 374 M
224.748 371.83 L
S
GR
GS
0.149 GC
2 setlinecap
1 LJ
0.5 LW
N
237.662 374 M
237.662 371.83 L
S
GR
GS
0.149 GC
2 setlinecap
1 LJ
0.5 LW
N
250.576 374 M
250.576 371.83 L
S
GR
GS
0.149 GC
2 setlinecap
1 LJ
0.5 LW
N
276.405 374 M
276.405 371.83 L
S
GR
GS
0.149 GC
2 setlinecap
1 LJ
0.5 LW
N
289.319 374 M
289.319 371.83 L
S
GR
GS
0.149 GC
2 setlinecap
1 LJ
0.5 LW
N
302.233 374 M
302.233 371.83 L
S
GR
GS
0.149 GC
2 setlinecap
1 LJ
0.5 LW
N
315.148 374 M
315.148 371.83 L
S
GR
GS
0.149 GC
2 setlinecap
1 LJ
0.5 LW
N
340.976 374 M
340.976 371.83 L
S
GR
GS
0.149 GC
2 setlinecap
1 LJ
0.5 LW
N
353.89 374 M
353.89 371.83 L
S
GR
GS
0.149 GC
2 setlinecap
1 LJ
0.5 LW
N
366.805 374 M
366.805 371.83 L
S
GR
GS
0.149 GC
2 setlinecap
1 LJ
0.5 LW
N
379.719 374 M
379.719 371.83 L
S
GR
GS
0.149 GC
2 setlinecap
1 LJ
0.5 LW
N
405.547 374 M
405.547 371.83 L
S
GR
GS
0.149 GC
2 setlinecap
1 LJ
0.5 LW
N
418.462 374 M
418.462 371.83 L
S
GR
GS
0.149 GC
2 setlinecap
1 LJ
0.5 LW
N
431.376 374 M
431.376 371.83 L
S
GR
GS
0.149 GC
2 setlinecap
1 LJ
0.5 LW
N
444.29 374 M
444.29 371.83 L
S
GR
GS
0.149 GC
2 setlinecap
1 LJ
0.5 LW
N
470.118 374 M
470.118 371.83 L
S
GR
GS
0.149 GC
2 setlinecap
1 LJ
0.5 LW
N
483.033 374 M
483.033 371.83 L
S
GR
GS
0.149 GC
2 setlinecap
1 LJ
0.5 LW
N
495.947 374 M
495.947 371.83 L
S
GR
GS
0.149 GC
2 setlinecap
1 LJ
0.5 LW
N
82.691 31.5 M
82.691 33.67 L
S
GR
GS
0.149 GC
2 setlinecap
1 LJ
0.5 LW
N
95.605 31.5 M
95.605 33.67 L
S
GR
GS
0.149 GC
2 setlinecap
1 LJ
0.5 LW
N
108.52 31.5 M
108.52 33.67 L
S
GR
GS
0.149 GC
2 setlinecap
1 LJ
0.5 LW
N
121.434 31.5 M
121.434 33.67 L
S
GR
GS
0.149 GC
2 setlinecap
1 LJ
0.5 LW
N
147.262 31.5 M
147.262 33.67 L
S
GR
GS
0.149 GC
2 setlinecap
1 LJ
0.5 LW
N
160.177 31.5 M
160.177 33.67 L
S
GR
GS
0.149 GC
2 setlinecap
1 LJ
0.5 LW
N
173.091 31.5 M
173.091 33.67 L
S
GR
GS
0.149 GC
2 setlinecap
1 LJ
0.5 LW
N
186.005 31.5 M
186.005 33.67 L
S
GR
GS
0.149 GC
2 setlinecap
1 LJ
0.5 LW
N
211.834 31.5 M
211.834 33.67 L
S
GR
GS
0.149 GC
2 setlinecap
1 LJ
0.5 LW
N
224.748 31.5 M
224.748 33.67 L
S
GR
GS
0.149 GC
2 setlinecap
1 LJ
0.5 LW
N
237.662 31.5 M
237.662 33.67 L
S
GR
GS
0.149 GC
2 setlinecap
1 LJ
0.5 LW
N
250.576 31.5 M
250.576 33.67 L
S
GR
GS
0.149 GC
2 setlinecap
1 LJ
0.5 LW
N
276.405 31.5 M
276.405 33.67 L
S
GR
GS
0.149 GC
2 setlinecap
1 LJ
0.5 LW
N
289.319 31.5 M
289.319 33.67 L
S
GR
GS
0.149 GC
2 setlinecap
1 LJ
0.5 LW
N
302.233 31.5 M
302.233 33.67 L
S
GR
GS
0.149 GC
2 setlinecap
1 LJ
0.5 LW
N
315.148 31.5 M
315.148 33.67 L
S
GR
GS
0.149 GC
2 setlinecap
1 LJ
0.5 LW
N
340.976 31.5 M
340.976 33.67 L
S
GR
GS
0.149 GC
2 setlinecap
1 LJ
0.5 LW
N
353.89 31.5 M
353.89 33.67 L
S
GR
GS
0.149 GC
2 setlinecap
1 LJ
0.5 LW
N
366.805 31.5 M
366.805 33.67 L
S
GR
GS
0.149 GC
2 setlinecap
1 LJ
0.5 LW
N
379.719 31.5 M
379.719 33.67 L
S
GR
GS
0.149 GC
2 setlinecap
1 LJ
0.5 LW
N
405.547 31.5 M
405.547 33.67 L
S
GR
GS
0.149 GC
2 setlinecap
1 LJ
0.5 LW
N
418.462 31.5 M
418.462 33.67 L
S
GR
GS
0.149 GC
2 setlinecap
1 LJ
0.5 LW
N
431.376 31.5 M
431.376 33.67 L
S
GR
GS
0.149 GC
2 setlinecap
1 LJ
0.5 LW
N
444.29 31.5 M
444.29 33.67 L
S
GR
GS
0.149 GC
2 setlinecap
1 LJ
0.5 LW
N
470.118 31.5 M
470.118 33.67 L
S
GR
GS
0.149 GC
2 setlinecap
1 LJ
0.5 LW
N
483.033 31.5 M
483.033 33.67 L
S
GR
GS
0.149 GC
2 setlinecap
1 LJ
0.5 LW
N
495.947 31.5 M
495.947 33.67 L
S
GR
GS
[1 0 0 1 134.34818 378.80029] CT
0.149 GC
/Helvetica 14 F
GS
[1 0 0 1 0 0] CT
-16 14 moveto 
1 -1 scale
(1000) t 
GR
GR
GS
[1 0 0 1 198.91939 378.80029] CT
0.149 GC
/Helvetica 14 F
GS
[1 0 0 1 0 0] CT
-16 14 moveto 
1 -1 scale
(2000) t 
GR
GR
GS
[1 0 0 1 263.4906 378.80029] CT
0.149 GC
/Helvetica 14 F
GS
[1 0 0 1 0 0] CT
-16 14 moveto 
1 -1 scale
(3000) t 
GR
GR
GS
[1 0 0 1 328.06183 378.80029] CT
0.149 GC
/Helvetica 14 F
GS
[1 0 0 1 0 0] CT
-16 14 moveto 
1 -1 scale
(4000) t 
GR
GR
GS
[1 0 0 1 392.63303 378.80029] CT
0.149 GC
/Helvetica 14 F
GS
[1 0 0 1 0 0] CT
-16 14 moveto 
1 -1 scale
(5000) t 
GR
GR
GS
[1 0 0 1 457.20422 378.80029] CT
0.149 GC
/Helvetica 14 F
GS
[1 0 0 1 0 0] CT
-16 14 moveto 
1 -1 scale
(6000) t 
GR
GR
GS
[1 0 0 1 290.00021 396.30014] CT
0.149 GC
/Helvetica 15.4 F
GS
[1 0 0 1 0 0] CT
-42 15 moveto 
1 -1 scale
(Bitrate\(kb/s\)) t 
GR
GR
GS
0.149 GC
2 setlinecap
1 LJ
0.5 LW
N
73 374 M
73 31.5 L
S
GR
GS
0.149 GC
2 setlinecap
1 LJ
0.5 LW
N
507 374 M
507 31.5 L
S
GR
GS
0.149 GC
2 setlinecap
1 LJ
0.5 LW
N
73 370.507 M
77.34 370.507 L
S
GR
GS
0.149 GC
2 setlinecap
1 LJ
0.5 LW
N
73 339.64 M
77.34 339.64 L
S
GR
GS
0.149 GC
2 setlinecap
1 LJ
0.5 LW
N
73 308.773 M
77.34 308.773 L
S
GR
GS
0.149 GC
2 setlinecap
1 LJ
0.5 LW
N
73 277.906 M
77.34 277.906 L
S
GR
GS
0.149 GC
2 setlinecap
1 LJ
0.5 LW
N
73 247.039 M
77.34 247.039 L
S
GR
GS
0.149 GC
2 setlinecap
1 LJ
0.5 LW
N
73 216.171 M
77.34 216.171 L
S
GR
GS
0.149 GC
2 setlinecap
1 LJ
0.5 LW
N
73 185.304 M
77.34 185.304 L
S
GR
GS
0.149 GC
2 setlinecap
1 LJ
0.5 LW
N
73 154.437 M
77.34 154.437 L
S
GR
GS
0.149 GC
2 setlinecap
1 LJ
0.5 LW
N
73 123.57 M
77.34 123.57 L
S
GR
GS
0.149 GC
2 setlinecap
1 LJ
0.5 LW
N
73 92.703 M
77.34 92.703 L
S
GR
GS
0.149 GC
2 setlinecap
1 LJ
0.5 LW
N
73 61.835 M
77.34 61.835 L
S
GR
GS
0.149 GC
2 setlinecap
1 LJ
0.5 LW
N
507 370.507 M
502.66 370.507 L
S
GR
GS
0.149 GC
2 setlinecap
1 LJ
0.5 LW
N
507 339.64 M
502.66 339.64 L
S
GR
GS
0.149 GC
2 setlinecap
1 LJ
0.5 LW
N
507 308.773 M
502.66 308.773 L
S
GR
GS
0.149 GC
2 setlinecap
1 LJ
0.5 LW
N
507 277.906 M
502.66 277.906 L
S
GR
GS
0.149 GC
2 setlinecap
1 LJ
0.5 LW
N
507 247.039 M
502.66 247.039 L
S
GR
GS
0.149 GC
2 setlinecap
1 LJ
0.5 LW
N
507 216.171 M
502.66 216.171 L
S
GR
GS
0.149 GC
2 setlinecap
1 LJ
0.5 LW
N
507 185.304 M
502.66 185.304 L
S
GR
GS
0.149 GC
2 setlinecap
1 LJ
0.5 LW
N
507 154.437 M
502.66 154.437 L
S
GR
GS
0.149 GC
2 setlinecap
1 LJ
0.5 LW
N
507 123.57 M
502.66 123.57 L
S
GR
GS
0.149 GC
2 setlinecap
1 LJ
0.5 LW
N
507 92.703 M
502.66 92.703 L
S
GR
GS
0.149 GC
2 setlinecap
1 LJ
0.5 LW
N
507 61.835 M
502.66 61.835 L
S
GR
GS
0.149 GC
2 setlinecap
1 LJ
0.5 LW
N
73 362.791 M
75.17 362.791 L
S
GR
GS
0.149 GC
2 setlinecap
1 LJ
0.5 LW
N
73 355.074 M
75.17 355.074 L
S
GR
GS
0.149 GC
2 setlinecap
1 LJ
0.5 LW
N
73 347.357 M
75.17 347.357 L
S
GR
GS
0.149 GC
2 setlinecap
1 LJ
0.5 LW
N
73 331.923 M
75.17 331.923 L
S
GR
GS
0.149 GC
2 setlinecap
1 LJ
0.5 LW
N
73 324.207 M
75.17 324.207 L
S
GR
GS
0.149 GC
2 setlinecap
1 LJ
0.5 LW
N
73 316.49 M
75.17 316.49 L
S
GR
GS
0.149 GC
2 setlinecap
1 LJ
0.5 LW
N
73 301.056 M
75.17 301.056 L
S
GR
GS
0.149 GC
2 setlinecap
1 LJ
0.5 LW
N
73 293.339 M
75.17 293.339 L
S
GR
GS
0.149 GC
2 setlinecap
1 LJ
0.5 LW
N
73 285.623 M
75.17 285.623 L
S
GR
GS
0.149 GC
2 setlinecap
1 LJ
0.5 LW
N
73 270.189 M
75.17 270.189 L
S
GR
GS
0.149 GC
2 setlinecap
1 LJ
0.5 LW
N
73 262.472 M
75.17 262.472 L
S
GR
GS
0.149 GC
2 setlinecap
1 LJ
0.5 LW
N
73 254.755 M
75.17 254.755 L
S
GR
GS
0.149 GC
2 setlinecap
1 LJ
0.5 LW
N
73 239.322 M
75.17 239.322 L
S
GR
GS
0.149 GC
2 setlinecap
1 LJ
0.5 LW
N
73 231.605 M
75.17 231.605 L
S
GR
GS
0.149 GC
2 setlinecap
1 LJ
0.5 LW
N
73 223.888 M
75.17 223.888 L
S
GR
GS
0.149 GC
2 setlinecap
1 LJ
0.5 LW
N
73 208.455 M
75.17 208.455 L
S
GR
GS
0.149 GC
2 setlinecap
1 LJ
0.5 LW
N
73 200.738 M
75.17 200.738 L
S
GR
GS
0.149 GC
2 setlinecap
1 LJ
0.5 LW
N
73 193.021 M
75.17 193.021 L
S
GR
GS
0.149 GC
2 setlinecap
1 LJ
0.5 LW
N
73 177.587 M
75.17 177.587 L
S
GR
GS
0.149 GC
2 setlinecap
1 LJ
0.5 LW
N
73 169.871 M
75.17 169.871 L
S
GR
GS
0.149 GC
2 setlinecap
1 LJ
0.5 LW
N
73 162.154 M
75.17 162.154 L
S
GR
GS
0.149 GC
2 setlinecap
1 LJ
0.5 LW
N
73 146.72 M
75.17 146.72 L
S
GR
GS
0.149 GC
2 setlinecap
1 LJ
0.5 LW
N
73 139.003 M
75.17 139.003 L
S
GR
GS
0.149 GC
2 setlinecap
1 LJ
0.5 LW
N
73 131.287 M
75.17 131.287 L
S
GR
GS
0.149 GC
2 setlinecap
1 LJ
0.5 LW
N
73 115.853 M
75.17 115.853 L
S
GR
GS
0.149 GC
2 setlinecap
1 LJ
0.5 LW
N
73 108.136 M
75.17 108.136 L
S
GR
GS
0.149 GC
2 setlinecap
1 LJ
0.5 LW
N
73 100.419 M
75.17 100.419 L
S
GR
GS
0.149 GC
2 setlinecap
1 LJ
0.5 LW
N
73 84.986 M
75.17 84.986 L
S
GR
GS
0.149 GC
2 setlinecap
1 LJ
0.5 LW
N
73 77.269 M
75.17 77.269 L
S
GR
GS
0.149 GC
2 setlinecap
1 LJ
0.5 LW
N
73 69.552 M
75.17 69.552 L
S
GR
GS
0.149 GC
2 setlinecap
1 LJ
0.5 LW
N
73 54.119 M
75.17 54.119 L
S
GR
GS
0.149 GC
2 setlinecap
1 LJ
0.5 LW
N
73 46.402 M
75.17 46.402 L
S
GR
GS
0.149 GC
2 setlinecap
1 LJ
0.5 LW
N
73 38.685 M
75.17 38.685 L
S
GR
GS
0.149 GC
2 setlinecap
1 LJ
0.5 LW
N
507 362.791 M
504.83 362.791 L
S
GR
GS
0.149 GC
2 setlinecap
1 LJ
0.5 LW
N
507 355.074 M
504.83 355.074 L
S
GR
GS
0.149 GC
2 setlinecap
1 LJ
0.5 LW
N
507 347.357 M
504.83 347.357 L
S
GR
GS
0.149 GC
2 setlinecap
1 LJ
0.5 LW
N
507 331.923 M
504.83 331.923 L
S
GR
GS
0.149 GC
2 setlinecap
1 LJ
0.5 LW
N
507 324.207 M
504.83 324.207 L
S
GR
GS
0.149 GC
2 setlinecap
1 LJ
0.5 LW
N
507 316.49 M
504.83 316.49 L
S
GR
GS
0.149 GC
2 setlinecap
1 LJ
0.5 LW
N
507 301.056 M
504.83 301.056 L
S
GR
GS
0.149 GC
2 setlinecap
1 LJ
0.5 LW
N
507 293.339 M
504.83 293.339 L
S
GR
GS
0.149 GC
2 setlinecap
1 LJ
0.5 LW
N
507 285.623 M
504.83 285.623 L
S
GR
GS
0.149 GC
2 setlinecap
1 LJ
0.5 LW
N
507 270.189 M
504.83 270.189 L
S
GR
GS
0.149 GC
2 setlinecap
1 LJ
0.5 LW
N
507 262.472 M
504.83 262.472 L
S
GR
GS
0.149 GC
2 setlinecap
1 LJ
0.5 LW
N
507 254.755 M
504.83 254.755 L
S
GR
GS
0.149 GC
2 setlinecap
1 LJ
0.5 LW
N
507 239.322 M
504.83 239.322 L
S
GR
GS
0.149 GC
2 setlinecap
1 LJ
0.5 LW
N
507 231.605 M
504.83 231.605 L
S
GR
GS
0.149 GC
2 setlinecap
1 LJ
0.5 LW
N
507 223.888 M
504.83 223.888 L
S
GR
GS
0.149 GC
2 setlinecap
1 LJ
0.5 LW
N
507 208.455 M
504.83 208.455 L
S
GR
GS
0.149 GC
2 setlinecap
1 LJ
0.5 LW
N
507 200.738 M
504.83 200.738 L
S
GR
GS
0.149 GC
2 setlinecap
1 LJ
0.5 LW
N
507 193.021 M
504.83 193.021 L
S
GR
GS
0.149 GC
2 setlinecap
1 LJ
0.5 LW
N
507 177.587 M
504.83 177.587 L
S
GR
GS
0.149 GC
2 setlinecap
1 LJ
0.5 LW
N
507 169.871 M
504.83 169.871 L
S
GR
GS
0.149 GC
2 setlinecap
1 LJ
0.5 LW
N
507 162.154 M
504.83 162.154 L
S
GR
GS
0.149 GC
2 setlinecap
1 LJ
0.5 LW
N
507 146.72 M
504.83 146.72 L
S
GR
GS
0.149 GC
2 setlinecap
1 LJ
0.5 LW
N
507 139.003 M
504.83 139.003 L
S
GR
GS
0.149 GC
2 setlinecap
1 LJ
0.5 LW
N
507 131.287 M
504.83 131.287 L
S
GR
GS
0.149 GC
2 setlinecap
1 LJ
0.5 LW
N
507 115.853 M
504.83 115.853 L
S
GR
GS
0.149 GC
2 setlinecap
1 LJ
0.5 LW
N
507 108.136 M
504.83 108.136 L
S
GR
GS
0.149 GC
2 setlinecap
1 LJ
0.5 LW
N
507 100.419 M
504.83 100.419 L
S
GR
GS
0.149 GC
2 setlinecap
1 LJ
0.5 LW
N
507 84.986 M
504.83 84.986 L
S
GR
GS
0.149 GC
2 setlinecap
1 LJ
0.5 LW
N
507 77.269 M
504.83 77.269 L
S
GR
GS
0.149 GC
2 setlinecap
1 LJ
0.5 LW
N
507 69.552 M
504.83 69.552 L
S
GR
GS
0.149 GC
2 setlinecap
1 LJ
0.5 LW
N
507 54.119 M
504.83 54.119 L
S
GR
GS
0.149 GC
2 setlinecap
1 LJ
0.5 LW
N
507 46.402 M
504.83 46.402 L
S
GR
GS
0.149 GC
2 setlinecap
1 LJ
0.5 LW
N
507 38.685 M
504.83 38.685 L
S
GR
GS
[1 0 0 1 68.2 370.50723] CT
0.149 GC
/Helvetica 14 F
GS
[1 0 0 1 0 0] CT
-16 5.5 moveto 
1 -1 scale
(36) t 
GR
GR
GS
[1 0 0 1 68.2 339.63992] CT
0.149 GC
/Helvetica 14 F
GS
[1 0 0 1 0 0] CT
-28 5.5 moveto 
1 -1 scale
(36.2) t 
GR
GR
GS
[1 0 0 1 68.2 308.77264] CT
0.149 GC
/Helvetica 14 F
GS
[1 0 0 1 0 0] CT
-28 5.5 moveto 
1 -1 scale
(36.4) t 
GR
GR
GS
[1 0 0 1 68.2 277.90594] CT
0.149 GC
/Helvetica 14 F
GS
[1 0 0 1 0 0] CT
-28 5.5 moveto 
1 -1 scale
(36.6) t 
GR
GR
GS
[1 0 0 1 68.2 247.03865] CT
0.149 GC
/Helvetica 14 F
GS
[1 0 0 1 0 0] CT
-28 5.5 moveto 
1 -1 scale
(36.8) t 
GR
GR
GS
[1 0 0 1 68.2 216.17136] CT
0.149 GC
/Helvetica 14 F
GS
[1 0 0 1 0 0] CT
-16 5.5 moveto 
1 -1 scale
(37) t 
GR
GR
GS
[1 0 0 1 68.2 185.30406] CT
0.149 GC
/Helvetica 14 F
GS
[1 0 0 1 0 0] CT
-28 5.5 moveto 
1 -1 scale
(37.2) t 
GR
GR
GS
[1 0 0 1 68.2 154.43677] CT
0.149 GC
/Helvetica 14 F
GS
[1 0 0 1 0 0] CT
-28 5.5 moveto 
1 -1 scale
(37.4) t 
GR
GR
GS
[1 0 0 1 68.2 123.57007] CT
0.149 GC
/Helvetica 14 F
GS
[1 0 0 1 0 0] CT
-28 5.5 moveto 
1 -1 scale
(37.6) t 
GR
GR
GS
[1 0 0 1 68.2 92.70278] CT
0.149 GC
/Helvetica 14 F
GS
[1 0 0 1 0 0] CT
-28 5.5 moveto 
1 -1 scale
(37.8) t 
GR
GR
GS
[1 0 0 1 68.2 61.83549] CT
0.149 GC
/Helvetica 14 F
GS
[1 0 0 1 0 0] CT
-16 5.5 moveto 
1 -1 scale
(38) t 
GR
GR
GS
[0 -1 1 0 37.7 202.74974] CT
0.149 GC
/Helvetica 15.4 F
GS
[1 0 0 1 0 0] CT
-35 -4 moveto 
1 -1 scale
(SSIM \(dB\)) t 
GR
GR
GS
[1 0 0 1 290.00027 29.57464] CT
/Helvetica-Bold 15.4 F
GS
[1 0 0 1 0 0] CT
-230.5 -4 moveto 
1 -1 scale
(DinnerSceneCropped_1920x1080_2997fps_10bit_420.y4m-hevc) t 
GR
GR
GS
0 0.447 0.741 RC
[1 3] 0 setdash
2 LJ
0.5 LW
N
304.835 75.746 M
96.624 133.847 L
79.774 166.428 L
75.488 228.616 L
73.328 340.389 L
S
GR
GS
0.851 0.325 0.098 RC
1 LJ
0.5 LW
N
296.693 77.528 M
96.228 134.082 L
79.721 167.248 L
75.47 229.805 L
73.285 345.139 L
S
GR
GS
0.929 0.694 0.125 RC
1 LJ
0.5 LW
N
272.197 80.293 M
89.415 136.937 L
78.816 173.879 L
74.978 244.922 L
73 374 L
S
GR
GS
0.494 0.184 0.557 RC
1 LJ
0.5 LW
N
507 31.5 M
99.93 129.486 L
80.52 160.349 L
75.881 217.298 L
73.527 321.739 L
S
GR
GS
0.467 0.675 0.188 RC
[10 6] 0 setdash
2 LJ
0.5 LW
N
296.97 77.427 M
96.273 133.797 L
79.719 166.721 L
75.47 229.402 L
73.322 341.986 L
S
GR
GS
0.302 0.745 0.933 RC
[10 6] 0 setdash
2 LJ
0.5 LW
N
294.95 77.17 M
93.958 134.582 L
79.493 168.441 L
75.35 232.231 L
73.217 351.147 L
S
GR
GS
0.635 0.078 0.184 RC
[10 6] 0 setdash
2 LJ
0.5 LW
N
348.814 66.564 M
96.882 133.366 L
79.835 165.983 L
75.495 228.256 L
73.321 341.483 L
S
GR
GS
1 GC
N
499 366 M
499 250.5 L
344.5 250.5 L
344.5 366 L
cp
f
GR
GS
[1 0 0 1 381.5 260.25] CT
/Helvetica 13 F
GS
[1 0 0 1 0 0] CT
0 5 moveto 
1 -1 scale
(Base Run) t 
GR
GR
GS
0 0.447 0.741 RC
[1 3] 0 setdash
2 LJ
0.5 LW
N
348.5 260.25 M
378.5 260.25 L
S
GR
GS
[1 0 0 1 381.5 276.25] CT
/Helvetica 13 F
GS
[1 0 0 1 0 0] CT
0 5 moveto 
1 -1 scale
(I & B Frames) t 
GR
GR
GS
0.851 0.325 0.098 RC
1 LJ
0.5 LW
N
348.5 276.25 M
378.5 276.25 L
S
GR
GS
[1 0 0 1 381.5 292.25] CT
/Helvetica 13 F
GS
[1 0 0 1 0 0] CT
0 5 moveto 
1 -1 scale
(I Frames Only) t 
GR
GR
GS
0.929 0.694 0.125 RC
1 LJ
0.5 LW
N
348.5 292.25 M
378.5 292.25 L
S
GR
GS
[1 0 0 1 381.5 308.25] CT
/Helvetica 13 F
GS
[1 0 0 1 0 0] CT
0 5 moveto 
1 -1 scale
(B Frames Only) t 
GR
GR
GS
0.494 0.184 0.557 RC
1 LJ
0.5 LW
N
348.5 308.25 M
378.5 308.25 L
S
GR
GS
[1 0 0 1 381.5 324.25] CT
/Helvetica 13 F
GS
[1 0 0 1 0 0] CT
0 5 moveto 
1 -1 scale
(Part I & B Frames) t 
GR
GR
GS
0.467 0.675 0.188 RC
[10 6] 0 setdash
2 LJ
0.5 LW
N
348.5 324.25 M
378.5 324.25 L
S
GR
GS
[1 0 0 1 381.5 340.25] CT
/Helvetica 13 F
GS
[1 0 0 1 0 0] CT
0 5 moveto 
1 -1 scale
(Part I Frames Only) t 
GR
GR
GS
0.302 0.745 0.933 RC
[10 6] 0 setdash
2 LJ
0.5 LW
N
348.5 340.25 M
378.5 340.25 L
S
GR
GS
[1 0 0 1 381.5 356.25] CT
/Helvetica 13 F
GS
[1 0 0 1 0 0] CT
0 5 moveto 
1 -1 scale
(Part B Frames Only) t 
GR
GR
GS
0.635 0.078 0.184 RC
[10 6] 0 setdash
2 LJ
0.5 LW
N
348.5 356.25 M
378.5 356.25 L
S
GR
GS
0.149 GC
10.0 ML
0.5 LW
N
344.5 366 M
344.5 250.5 L
499 250.5 L
499 366 L
cp
S
GR
%%Trailer
%%Pages: 1
%%EOF
