%!PS-Adobe-3.0 EPSF-3.0
%%Creator: (MATLAB, The Mathworks, Inc. Version 9.11.0.1837725 \(R2021b\) Update 2. Operating System: Mac OS X)
%%Title: plots/pchip/CoverSong_1080P-1b0c.y4m-av1-APSNRU.eps
%%CreationDate: 2022-02-03T19:12:49
%%Pages: (atend)
%%BoundingBox:    33   425   508   826
%%LanguageLevel: 3
%%EndComments
%%BeginProlog
%%BeginResource: procset (Apache XML Graphics Std ProcSet) 1.2 0
%%Version: 1.2 0
%%Copyright: (Copyright 2001-2003,2010 The Apache Software Foundation. License terms: http://www.apache.org/licenses/LICENSE-2.0)
/bd{bind def}bind def
/ld{load def}bd
/GR/grestore ld
/GS/gsave ld
/RM/rmoveto ld
/C/curveto ld
/t/show ld
/L/lineto ld
/ML/setmiterlimit ld
/CT/concat ld
/f/fill ld
/N/newpath ld
/S/stroke ld
/CC/setcmykcolor ld
/A/ashow ld
/cp/closepath ld
/RC/setrgbcolor ld
/LJ/setlinejoin ld
/GC/setgray ld
/LW/setlinewidth ld
/M/moveto ld
/re {4 2 roll M
1 index 0 rlineto
0 exch rlineto
neg 0 rlineto
cp } bd
/_ctm matrix def
/_tm matrix def
/BT { _ctm currentmatrix pop matrix _tm copy pop 0 0 moveto } bd
/ET { _ctm setmatrix } bd
/iTm { _ctm setmatrix _tm concat } bd
/Tm { _tm astore pop iTm 0 0 moveto } bd
/ux 0.0 def
/uy 0.0 def
/F {
  /Tp exch def
  /Tf exch def
  Tf findfont Tp scalefont setfont
  /cf Tf def  /cs Tp def
} bd
/ULS {currentpoint /uy exch def /ux exch def} bd
/ULE {
  /Tcx currentpoint pop def
  gsave
  newpath
  cf findfont cs scalefont dup
  /FontMatrix get 0 get /Ts exch def /FontInfo get dup
  /UnderlinePosition get Ts mul /To exch def
  /UnderlineThickness get Ts mul /Tt exch def
  ux uy To add moveto  Tcx uy To add lineto
  Tt setlinewidth stroke
  grestore
} bd
/OLE {
  /Tcx currentpoint pop def
  gsave
  newpath
  cf findfont cs scalefont dup
  /FontMatrix get 0 get /Ts exch def /FontInfo get dup
  /UnderlinePosition get Ts mul /To exch def
  /UnderlineThickness get Ts mul /Tt exch def
  ux uy To add cs add moveto Tcx uy To add cs add lineto
  Tt setlinewidth stroke
  grestore
} bd
/SOE {
  /Tcx currentpoint pop def
  gsave
  newpath
  cf findfont cs scalefont dup
  /FontMatrix get 0 get /Ts exch def /FontInfo get dup
  /UnderlinePosition get Ts mul /To exch def
  /UnderlineThickness get Ts mul /Tt exch def
  ux uy To add cs 10 mul 26 idiv add moveto Tcx uy To add cs 10 mul 26 idiv add lineto
  Tt setlinewidth stroke
  grestore
} bd
/QT {
/Y22 exch store
/X22 exch store
/Y21 exch store
/X21 exch store
currentpoint
/Y21 load 2 mul add 3 div exch
/X21 load 2 mul add 3 div exch
/X21 load 2 mul /X22 load add 3 div
/Y21 load 2 mul /Y22 load add 3 div
/X22 load /Y22 load curveto
} bd
/SSPD {
dup length /d exch dict def
{
/v exch def
/k exch def
currentpagedevice k known {
/cpdv currentpagedevice k get def
v cpdv ne {
/upd false def
/nullv v type /nulltype eq def
/nullcpdv cpdv type /nulltype eq def
nullv nullcpdv or
{
/upd true def
} {
/sametype v type cpdv type eq def
sametype {
v type /arraytype eq {
/vlen v length def
/cpdvlen cpdv length def
vlen cpdvlen eq {
0 1 vlen 1 sub {
/i exch def
/obj v i get def
/cpdobj cpdv i get def
obj cpdobj ne {
/upd true def
exit
} if
} for
} {
/upd true def
} ifelse
} {
v type /dicttype eq {
v {
/dv exch def
/dk exch def
/cpddv cpdv dk get def
dv cpddv ne {
/upd true def
exit
} if
} forall
} {
/upd true def
} ifelse
} ifelse
} if
} ifelse
upd true eq {
d k v put
} if
} if
} if
} forall
d length 0 gt {
d setpagedevice
} if
} bd
/RE { % /NewFontName [NewEncodingArray] /FontName RE -
  findfont dup length dict begin
  {
    1 index /FID ne
    {def} {pop pop} ifelse
  } forall
  /Encoding exch def
  /FontName 1 index def
  currentdict definefont pop
  end
} bind def
%%EndResource
%%BeginResource: procset (Apache XML Graphics EPS ProcSet) 1.0 0
%%Version: 1.0 0
%%Copyright: (Copyright 2002-2003 The Apache Software Foundation. License terms: http://www.apache.org/licenses/LICENSE-2.0)
/BeginEPSF { %def
/b4_Inc_state save def         % Save state for cleanup
/dict_count countdictstack def % Count objects on dict stack
/op_count count 1 sub def      % Count objects on operand stack
userdict begin                 % Push userdict on dict stack
/showpage { } def              % Redefine showpage, { } = null proc
0 setgray 0 setlinecap         % Prepare graphics state
1 setlinewidth 0 setlinejoin
10 setmiterlimit [ ] 0 setdash newpath
/languagelevel where           % If level not equal to 1 then
{pop languagelevel             % set strokeadjust and
1 ne                           % overprint to their defaults.
{false setstrokeadjust false setoverprint
} if
} if
} bd
/EndEPSF { %def
count op_count sub {pop} repeat            % Clean up stacks
countdictstack dict_count sub {end} repeat
b4_Inc_state restore
} bd
%%EndResource
%FOPBeginFontDict
%%IncludeResource: font Courier-Oblique
%%IncludeResource: font Courier-BoldOblique
%%IncludeResource: font Courier-Bold
%%IncludeResource: font ZapfDingbats
%%IncludeResource: font Symbol
%%IncludeResource: font Helvetica
%%IncludeResource: font Helvetica-Oblique
%%IncludeResource: font Helvetica-Bold
%%IncludeResource: font Helvetica-BoldOblique
%%IncludeResource: font Times-Roman
%%IncludeResource: font Times-Italic
%%IncludeResource: font Times-Bold
%%IncludeResource: font Times-BoldItalic
%%IncludeResource: font Courier
%FOPEndFontDict
%%BeginResource: encoding WinAnsiEncoding
/WinAnsiEncoding [
/.notdef /.notdef /.notdef /.notdef /.notdef
/.notdef /.notdef /.notdef /.notdef /.notdef
/.notdef /.notdef /.notdef /.notdef /.notdef
/.notdef /.notdef /.notdef /.notdef /.notdef
/.notdef /.notdef /.notdef /.notdef /.notdef
/.notdef /.notdef /.notdef /.notdef /.notdef
/.notdef /.notdef /space /exclam /quotedbl
/numbersign /dollar /percent /ampersand /quotesingle
/parenleft /parenright /asterisk /plus /comma
/hyphen /period /slash /zero /one
/two /three /four /five /six
/seven /eight /nine /colon /semicolon
/less /equal /greater /question /at
/A /B /C /D /E
/F /G /H /I /J
/K /L /M /N /O
/P /Q /R /S /T
/U /V /W /X /Y
/Z /bracketleft /backslash /bracketright /asciicircum
/underscore /quoteleft /a /b /c
/d /e /f /g /h
/i /j /k /l /m
/n /o /p /q /r
/s /t /u /v /w
/x /y /z /braceleft /bar
/braceright /asciitilde /bullet /Euro /bullet
/quotesinglbase /florin /quotedblbase /ellipsis /dagger
/daggerdbl /circumflex /perthousand /Scaron /guilsinglleft
/OE /bullet /Zcaron /bullet /bullet
/quoteleft /quoteright /quotedblleft /quotedblright /bullet
/endash /emdash /asciitilde /trademark /scaron
/guilsinglright /oe /bullet /zcaron /Ydieresis
/space /exclamdown /cent /sterling /currency
/yen /brokenbar /section /dieresis /copyright
/ordfeminine /guillemotleft /logicalnot /sfthyphen /registered
/macron /degree /plusminus /twosuperior /threesuperior
/acute /mu /paragraph /middot /cedilla
/onesuperior /ordmasculine /guillemotright /onequarter /onehalf
/threequarters /questiondown /Agrave /Aacute /Acircumflex
/Atilde /Adieresis /Aring /AE /Ccedilla
/Egrave /Eacute /Ecircumflex /Edieresis /Igrave
/Iacute /Icircumflex /Idieresis /Eth /Ntilde
/Ograve /Oacute /Ocircumflex /Otilde /Odieresis
/multiply /Oslash /Ugrave /Uacute /Ucircumflex
/Udieresis /Yacute /Thorn /germandbls /agrave
/aacute /acircumflex /atilde /adieresis /aring
/ae /ccedilla /egrave /eacute /ecircumflex
/edieresis /igrave /iacute /icircumflex /idieresis
/eth /ntilde /ograve /oacute /ocircumflex
/otilde /odieresis /divide /oslash /ugrave
/uacute /ucircumflex /udieresis /yacute /thorn
/ydieresis
] def
%%EndResource
%FOPBeginFontReencode
/Courier-Oblique findfont
dup length dict begin
  {1 index /FID ne {def} {pop pop} ifelse} forall
  /Encoding WinAnsiEncoding def
  currentdict
end
/Courier-Oblique exch definefont pop
/Courier-BoldOblique findfont
dup length dict begin
  {1 index /FID ne {def} {pop pop} ifelse} forall
  /Encoding WinAnsiEncoding def
  currentdict
end
/Courier-BoldOblique exch definefont pop
/Courier-Bold findfont
dup length dict begin
  {1 index /FID ne {def} {pop pop} ifelse} forall
  /Encoding WinAnsiEncoding def
  currentdict
end
/Courier-Bold exch definefont pop
/Helvetica findfont
dup length dict begin
  {1 index /FID ne {def} {pop pop} ifelse} forall
  /Encoding WinAnsiEncoding def
  currentdict
end
/Helvetica exch definefont pop
/Helvetica-Oblique findfont
dup length dict begin
  {1 index /FID ne {def} {pop pop} ifelse} forall
  /Encoding WinAnsiEncoding def
  currentdict
end
/Helvetica-Oblique exch definefont pop
/Helvetica-Bold findfont
dup length dict begin
  {1 index /FID ne {def} {pop pop} ifelse} forall
  /Encoding WinAnsiEncoding def
  currentdict
end
/Helvetica-Bold exch definefont pop
/Helvetica-BoldOblique findfont
dup length dict begin
  {1 index /FID ne {def} {pop pop} ifelse} forall
  /Encoding WinAnsiEncoding def
  currentdict
end
/Helvetica-BoldOblique exch definefont pop
/Times-Roman findfont
dup length dict begin
  {1 index /FID ne {def} {pop pop} ifelse} forall
  /Encoding WinAnsiEncoding def
  currentdict
end
/Times-Roman exch definefont pop
/Times-Italic findfont
dup length dict begin
  {1 index /FID ne {def} {pop pop} ifelse} forall
  /Encoding WinAnsiEncoding def
  currentdict
end
/Times-Italic exch definefont pop
/Times-Bold findfont
dup length dict begin
  {1 index /FID ne {def} {pop pop} ifelse} forall
  /Encoding WinAnsiEncoding def
  currentdict
end
/Times-Bold exch definefont pop
/Times-BoldItalic findfont
dup length dict begin
  {1 index /FID ne {def} {pop pop} ifelse} forall
  /Encoding WinAnsiEncoding def
  currentdict
end
/Times-BoldItalic exch definefont pop
/Courier findfont
dup length dict begin
  {1 index /FID ne {def} {pop pop} ifelse} forall
  /Encoding WinAnsiEncoding def
  currentdict
end
/Courier exch definefont pop
%FOPEndFontReencode
%%EndProlog
%%Page: 1 1
%%PageBoundingBox: 0 0 1120 840
%%BeginPageSetup
[1 0 0 -1 0 840] CT
%%EndPageSetup
GS
1 GC
N
0 0 1120 840 re
f
GR
GS
1 GC
N
73 374 M
507 374 L
507 31.5 L
73 31.5 L
cp
f
GR
GS
0.149 GC
2 setlinecap
1 LJ
0.5 LW
N
73 374 M
507 374 L
S
GR
GS
0.149 GC
2 setlinecap
1 LJ
0.5 LW
N
73 31.5 M
507 31.5 L
S
GR
GS
0.149 GC
2 setlinecap
1 LJ
0.5 LW
N
117.551 374 M
117.551 369.66 L
S
GR
GS
0.149 GC
2 setlinecap
1 LJ
0.5 LW
N
188.557 374 M
188.557 369.66 L
S
GR
GS
0.149 GC
2 setlinecap
1 LJ
0.5 LW
N
259.563 374 M
259.563 369.66 L
S
GR
GS
0.149 GC
2 setlinecap
1 LJ
0.5 LW
N
330.569 374 M
330.569 369.66 L
S
GR
GS
0.149 GC
2 setlinecap
1 LJ
0.5 LW
N
401.575 374 M
401.575 369.66 L
S
GR
GS
0.149 GC
2 setlinecap
1 LJ
0.5 LW
N
472.581 374 M
472.581 369.66 L
S
GR
GS
0.149 GC
2 setlinecap
1 LJ
0.5 LW
N
117.551 31.5 M
117.551 35.84 L
S
GR
GS
0.149 GC
2 setlinecap
1 LJ
0.5 LW
N
188.557 31.5 M
188.557 35.84 L
S
GR
GS
0.149 GC
2 setlinecap
1 LJ
0.5 LW
N
259.563 31.5 M
259.563 35.84 L
S
GR
GS
0.149 GC
2 setlinecap
1 LJ
0.5 LW
N
330.569 31.5 M
330.569 35.84 L
S
GR
GS
0.149 GC
2 setlinecap
1 LJ
0.5 LW
N
401.575 31.5 M
401.575 35.84 L
S
GR
GS
0.149 GC
2 setlinecap
1 LJ
0.5 LW
N
472.581 31.5 M
472.581 35.84 L
S
GR
GS
0.149 GC
2 setlinecap
1 LJ
0.5 LW
N
74.947 374 M
74.947 371.83 L
S
GR
GS
0.149 GC
2 setlinecap
1 LJ
0.5 LW
N
89.148 374 M
89.148 371.83 L
S
GR
GS
0.149 GC
2 setlinecap
1 LJ
0.5 LW
N
103.349 374 M
103.349 371.83 L
S
GR
GS
0.149 GC
2 setlinecap
1 LJ
0.5 LW
N
131.752 374 M
131.752 371.83 L
S
GR
GS
0.149 GC
2 setlinecap
1 LJ
0.5 LW
N
145.953 374 M
145.953 371.83 L
S
GR
GS
0.149 GC
2 setlinecap
1 LJ
0.5 LW
N
160.154 374 M
160.154 371.83 L
S
GR
GS
0.149 GC
2 setlinecap
1 LJ
0.5 LW
N
174.355 374 M
174.355 371.83 L
S
GR
GS
0.149 GC
2 setlinecap
1 LJ
0.5 LW
N
202.758 374 M
202.758 371.83 L
S
GR
GS
0.149 GC
2 setlinecap
1 LJ
0.5 LW
N
216.959 374 M
216.959 371.83 L
S
GR
GS
0.149 GC
2 setlinecap
1 LJ
0.5 LW
N
231.16 374 M
231.16 371.83 L
S
GR
GS
0.149 GC
2 setlinecap
1 LJ
0.5 LW
N
245.361 374 M
245.361 371.83 L
S
GR
GS
0.149 GC
2 setlinecap
1 LJ
0.5 LW
N
273.764 374 M
273.764 371.83 L
S
GR
GS
0.149 GC
2 setlinecap
1 LJ
0.5 LW
N
287.965 374 M
287.965 371.83 L
S
GR
GS
0.149 GC
2 setlinecap
1 LJ
0.5 LW
N
302.166 374 M
302.166 371.83 L
S
GR
GS
0.149 GC
2 setlinecap
1 LJ
0.5 LW
N
316.367 374 M
316.367 371.83 L
S
GR
GS
0.149 GC
2 setlinecap
1 LJ
0.5 LW
N
344.77 374 M
344.77 371.83 L
S
GR
GS
0.149 GC
2 setlinecap
1 LJ
0.5 LW
N
358.971 374 M
358.971 371.83 L
S
GR
GS
0.149 GC
2 setlinecap
1 LJ
0.5 LW
N
373.172 374 M
373.172 371.83 L
S
GR
GS
0.149 GC
2 setlinecap
1 LJ
0.5 LW
N
387.373 374 M
387.373 371.83 L
S
GR
GS
0.149 GC
2 setlinecap
1 LJ
0.5 LW
N
415.776 374 M
415.776 371.83 L
S
GR
GS
0.149 GC
2 setlinecap
1 LJ
0.5 LW
N
429.977 374 M
429.977 371.83 L
S
GR
GS
0.149 GC
2 setlinecap
1 LJ
0.5 LW
N
444.178 374 M
444.178 371.83 L
S
GR
GS
0.149 GC
2 setlinecap
1 LJ
0.5 LW
N
458.379 374 M
458.379 371.83 L
S
GR
GS
0.149 GC
2 setlinecap
1 LJ
0.5 LW
N
486.782 374 M
486.782 371.83 L
S
GR
GS
0.149 GC
2 setlinecap
1 LJ
0.5 LW
N
500.983 374 M
500.983 371.83 L
S
GR
GS
0.149 GC
2 setlinecap
1 LJ
0.5 LW
N
74.947 31.5 M
74.947 33.67 L
S
GR
GS
0.149 GC
2 setlinecap
1 LJ
0.5 LW
N
89.148 31.5 M
89.148 33.67 L
S
GR
GS
0.149 GC
2 setlinecap
1 LJ
0.5 LW
N
103.349 31.5 M
103.349 33.67 L
S
GR
GS
0.149 GC
2 setlinecap
1 LJ
0.5 LW
N
131.752 31.5 M
131.752 33.67 L
S
GR
GS
0.149 GC
2 setlinecap
1 LJ
0.5 LW
N
145.953 31.5 M
145.953 33.67 L
S
GR
GS
0.149 GC
2 setlinecap
1 LJ
0.5 LW
N
160.154 31.5 M
160.154 33.67 L
S
GR
GS
0.149 GC
2 setlinecap
1 LJ
0.5 LW
N
174.355 31.5 M
174.355 33.67 L
S
GR
GS
0.149 GC
2 setlinecap
1 LJ
0.5 LW
N
202.758 31.5 M
202.758 33.67 L
S
GR
GS
0.149 GC
2 setlinecap
1 LJ
0.5 LW
N
216.959 31.5 M
216.959 33.67 L
S
GR
GS
0.149 GC
2 setlinecap
1 LJ
0.5 LW
N
231.16 31.5 M
231.16 33.67 L
S
GR
GS
0.149 GC
2 setlinecap
1 LJ
0.5 LW
N
245.361 31.5 M
245.361 33.67 L
S
GR
GS
0.149 GC
2 setlinecap
1 LJ
0.5 LW
N
273.764 31.5 M
273.764 33.67 L
S
GR
GS
0.149 GC
2 setlinecap
1 LJ
0.5 LW
N
287.965 31.5 M
287.965 33.67 L
S
GR
GS
0.149 GC
2 setlinecap
1 LJ
0.5 LW
N
302.166 31.5 M
302.166 33.67 L
S
GR
GS
0.149 GC
2 setlinecap
1 LJ
0.5 LW
N
316.367 31.5 M
316.367 33.67 L
S
GR
GS
0.149 GC
2 setlinecap
1 LJ
0.5 LW
N
344.77 31.5 M
344.77 33.67 L
S
GR
GS
0.149 GC
2 setlinecap
1 LJ
0.5 LW
N
358.971 31.5 M
358.971 33.67 L
S
GR
GS
0.149 GC
2 setlinecap
1 LJ
0.5 LW
N
373.172 31.5 M
373.172 33.67 L
S
GR
GS
0.149 GC
2 setlinecap
1 LJ
0.5 LW
N
387.373 31.5 M
387.373 33.67 L
S
GR
GS
0.149 GC
2 setlinecap
1 LJ
0.5 LW
N
415.776 31.5 M
415.776 33.67 L
S
GR
GS
0.149 GC
2 setlinecap
1 LJ
0.5 LW
N
429.977 31.5 M
429.977 33.67 L
S
GR
GS
0.149 GC
2 setlinecap
1 LJ
0.5 LW
N
444.178 31.5 M
444.178 33.67 L
S
GR
GS
0.149 GC
2 setlinecap
1 LJ
0.5 LW
N
458.379 31.5 M
458.379 33.67 L
S
GR
GS
0.149 GC
2 setlinecap
1 LJ
0.5 LW
N
486.782 31.5 M
486.782 33.67 L
S
GR
GS
0.149 GC
2 setlinecap
1 LJ
0.5 LW
N
500.983 31.5 M
500.983 33.67 L
S
GR
GS
[1 0 0 1 117.5506 378.79999] CT
0.149 GC
/Helvetica 14 F
GS
[1 0 0 1 0 0] CT
-16 14 moveto 
1 -1 scale
(1000) t 
GR
GR
GS
[1 0 0 1 188.55661 378.79999] CT
0.149 GC
/Helvetica 14 F
GS
[1 0 0 1 0 0] CT
-16 14 moveto 
1 -1 scale
(2000) t 
GR
GR
GS
[1 0 0 1 259.56262 378.79999] CT
0.149 GC
/Helvetica 14 F
GS
[1 0 0 1 0 0] CT
-16 14 moveto 
1 -1 scale
(3000) t 
GR
GR
GS
[1 0 0 1 330.56863 378.79999] CT
0.149 GC
/Helvetica 14 F
GS
[1 0 0 1 0 0] CT
-16 14 moveto 
1 -1 scale
(4000) t 
GR
GR
GS
[1 0 0 1 401.57465 378.79999] CT
0.149 GC
/Helvetica 14 F
GS
[1 0 0 1 0 0] CT
-16 14 moveto 
1 -1 scale
(5000) t 
GR
GR
GS
[1 0 0 1 472.58063 378.79999] CT
0.149 GC
/Helvetica 14 F
GS
[1 0 0 1 0 0] CT
-16 14 moveto 
1 -1 scale
(6000) t 
GR
GR
GS
[1 0 0 1 290.00021 396.30002] CT
0.149 GC
/Helvetica 15.4 F
GS
[1 0 0 1 0 0] CT
-42 15 moveto 
1 -1 scale
(Bitrate\(kb/s\)) t 
GR
GR
GS
0.149 GC
2 setlinecap
1 LJ
0.5 LW
N
73 374 M
73 31.5 L
S
GR
GS
0.149 GC
2 setlinecap
1 LJ
0.5 LW
N
507 374 M
507 31.5 L
S
GR
GS
0.149 GC
2 setlinecap
1 LJ
0.5 LW
N
73 360.006 M
77.34 360.006 L
S
GR
GS
0.149 GC
2 setlinecap
1 LJ
0.5 LW
N
73 322.149 M
77.34 322.149 L
S
GR
GS
0.149 GC
2 setlinecap
1 LJ
0.5 LW
N
73 284.292 M
77.34 284.292 L
S
GR
GS
0.149 GC
2 setlinecap
1 LJ
0.5 LW
N
73 246.435 M
77.34 246.435 L
S
GR
GS
0.149 GC
2 setlinecap
1 LJ
0.5 LW
N
73 208.577 M
77.34 208.577 L
S
GR
GS
0.149 GC
2 setlinecap
1 LJ
0.5 LW
N
73 170.72 M
77.34 170.72 L
S
GR
GS
0.149 GC
2 setlinecap
1 LJ
0.5 LW
N
73 132.863 M
77.34 132.863 L
S
GR
GS
0.149 GC
2 setlinecap
1 LJ
0.5 LW
N
73 95.006 M
77.34 95.006 L
S
GR
GS
0.149 GC
2 setlinecap
1 LJ
0.5 LW
N
73 57.149 M
77.34 57.149 L
S
GR
GS
0.149 GC
2 setlinecap
1 LJ
0.5 LW
N
507 360.006 M
502.66 360.006 L
S
GR
GS
0.149 GC
2 setlinecap
1 LJ
0.5 LW
N
507 322.149 M
502.66 322.149 L
S
GR
GS
0.149 GC
2 setlinecap
1 LJ
0.5 LW
N
507 284.292 M
502.66 284.292 L
S
GR
GS
0.149 GC
2 setlinecap
1 LJ
0.5 LW
N
507 246.435 M
502.66 246.435 L
S
GR
GS
0.149 GC
2 setlinecap
1 LJ
0.5 LW
N
507 208.577 M
502.66 208.577 L
S
GR
GS
0.149 GC
2 setlinecap
1 LJ
0.5 LW
N
507 170.72 M
502.66 170.72 L
S
GR
GS
0.149 GC
2 setlinecap
1 LJ
0.5 LW
N
507 132.863 M
502.66 132.863 L
S
GR
GS
0.149 GC
2 setlinecap
1 LJ
0.5 LW
N
507 95.006 M
502.66 95.006 L
S
GR
GS
0.149 GC
2 setlinecap
1 LJ
0.5 LW
N
507 57.149 M
502.66 57.149 L
S
GR
GS
0.149 GC
2 setlinecap
1 LJ
0.5 LW
N
73 367.577 M
75.17 367.577 L
S
GR
GS
0.149 GC
2 setlinecap
1 LJ
0.5 LW
N
73 352.434 M
75.17 352.434 L
S
GR
GS
0.149 GC
2 setlinecap
1 LJ
0.5 LW
N
73 344.863 M
75.17 344.863 L
S
GR
GS
0.149 GC
2 setlinecap
1 LJ
0.5 LW
N
73 337.292 M
75.17 337.292 L
S
GR
GS
0.149 GC
2 setlinecap
1 LJ
0.5 LW
N
73 329.72 M
75.17 329.72 L
S
GR
GS
0.149 GC
2 setlinecap
1 LJ
0.5 LW
N
73 314.577 M
75.17 314.577 L
S
GR
GS
0.149 GC
2 setlinecap
1 LJ
0.5 LW
N
73 307.006 M
75.17 307.006 L
S
GR
GS
0.149 GC
2 setlinecap
1 LJ
0.5 LW
N
73 299.435 M
75.17 299.435 L
S
GR
GS
0.149 GC
2 setlinecap
1 LJ
0.5 LW
N
73 291.863 M
75.17 291.863 L
S
GR
GS
0.149 GC
2 setlinecap
1 LJ
0.5 LW
N
73 276.72 M
75.17 276.72 L
S
GR
GS
0.149 GC
2 setlinecap
1 LJ
0.5 LW
N
73 269.149 M
75.17 269.149 L
S
GR
GS
0.149 GC
2 setlinecap
1 LJ
0.5 LW
N
73 261.577 M
75.17 261.577 L
S
GR
GS
0.149 GC
2 setlinecap
1 LJ
0.5 LW
N
73 254.006 M
75.17 254.006 L
S
GR
GS
0.149 GC
2 setlinecap
1 LJ
0.5 LW
N
73 238.863 M
75.17 238.863 L
S
GR
GS
0.149 GC
2 setlinecap
1 LJ
0.5 LW
N
73 231.292 M
75.17 231.292 L
S
GR
GS
0.149 GC
2 setlinecap
1 LJ
0.5 LW
N
73 223.72 M
75.17 223.72 L
S
GR
GS
0.149 GC
2 setlinecap
1 LJ
0.5 LW
N
73 216.149 M
75.17 216.149 L
S
GR
GS
0.149 GC
2 setlinecap
1 LJ
0.5 LW
N
73 201.006 M
75.17 201.006 L
S
GR
GS
0.149 GC
2 setlinecap
1 LJ
0.5 LW
N
73 193.434 M
75.17 193.434 L
S
GR
GS
0.149 GC
2 setlinecap
1 LJ
0.5 LW
N
73 185.863 M
75.17 185.863 L
S
GR
GS
0.149 GC
2 setlinecap
1 LJ
0.5 LW
N
73 178.292 M
75.17 178.292 L
S
GR
GS
0.149 GC
2 setlinecap
1 LJ
0.5 LW
N
73 163.149 M
75.17 163.149 L
S
GR
GS
0.149 GC
2 setlinecap
1 LJ
0.5 LW
N
73 155.577 M
75.17 155.577 L
S
GR
GS
0.149 GC
2 setlinecap
1 LJ
0.5 LW
N
73 148.006 M
75.17 148.006 L
S
GR
GS
0.149 GC
2 setlinecap
1 LJ
0.5 LW
N
73 140.435 M
75.17 140.435 L
S
GR
GS
0.149 GC
2 setlinecap
1 LJ
0.5 LW
N
73 125.292 M
75.17 125.292 L
S
GR
GS
0.149 GC
2 setlinecap
1 LJ
0.5 LW
N
73 117.72 M
75.17 117.72 L
S
GR
GS
0.149 GC
2 setlinecap
1 LJ
0.5 LW
N
73 110.149 M
75.17 110.149 L
S
GR
GS
0.149 GC
2 setlinecap
1 LJ
0.5 LW
N
73 102.577 M
75.17 102.577 L
S
GR
GS
0.149 GC
2 setlinecap
1 LJ
0.5 LW
N
73 87.435 M
75.17 87.435 L
S
GR
GS
0.149 GC
2 setlinecap
1 LJ
0.5 LW
N
73 79.863 M
75.17 79.863 L
S
GR
GS
0.149 GC
2 setlinecap
1 LJ
0.5 LW
N
73 72.292 M
75.17 72.292 L
S
GR
GS
0.149 GC
2 setlinecap
1 LJ
0.5 LW
N
73 64.72 M
75.17 64.72 L
S
GR
GS
0.149 GC
2 setlinecap
1 LJ
0.5 LW
N
73 49.577 M
75.17 49.577 L
S
GR
GS
0.149 GC
2 setlinecap
1 LJ
0.5 LW
N
73 42.006 M
75.17 42.006 L
S
GR
GS
0.149 GC
2 setlinecap
1 LJ
0.5 LW
N
73 34.435 M
75.17 34.435 L
S
GR
GS
0.149 GC
2 setlinecap
1 LJ
0.5 LW
N
507 367.577 M
504.83 367.577 L
S
GR
GS
0.149 GC
2 setlinecap
1 LJ
0.5 LW
N
507 352.434 M
504.83 352.434 L
S
GR
GS
0.149 GC
2 setlinecap
1 LJ
0.5 LW
N
507 344.863 M
504.83 344.863 L
S
GR
GS
0.149 GC
2 setlinecap
1 LJ
0.5 LW
N
507 337.292 M
504.83 337.292 L
S
GR
GS
0.149 GC
2 setlinecap
1 LJ
0.5 LW
N
507 329.72 M
504.83 329.72 L
S
GR
GS
0.149 GC
2 setlinecap
1 LJ
0.5 LW
N
507 314.577 M
504.83 314.577 L
S
GR
GS
0.149 GC
2 setlinecap
1 LJ
0.5 LW
N
507 307.006 M
504.83 307.006 L
S
GR
GS
0.149 GC
2 setlinecap
1 LJ
0.5 LW
N
507 299.435 M
504.83 299.435 L
S
GR
GS
0.149 GC
2 setlinecap
1 LJ
0.5 LW
N
507 291.863 M
504.83 291.863 L
S
GR
GS
0.149 GC
2 setlinecap
1 LJ
0.5 LW
N
507 276.72 M
504.83 276.72 L
S
GR
GS
0.149 GC
2 setlinecap
1 LJ
0.5 LW
N
507 269.149 M
504.83 269.149 L
S
GR
GS
0.149 GC
2 setlinecap
1 LJ
0.5 LW
N
507 261.577 M
504.83 261.577 L
S
GR
GS
0.149 GC
2 setlinecap
1 LJ
0.5 LW
N
507 254.006 M
504.83 254.006 L
S
GR
GS
0.149 GC
2 setlinecap
1 LJ
0.5 LW
N
507 238.863 M
504.83 238.863 L
S
GR
GS
0.149 GC
2 setlinecap
1 LJ
0.5 LW
N
507 231.292 M
504.83 231.292 L
S
GR
GS
0.149 GC
2 setlinecap
1 LJ
0.5 LW
N
507 223.72 M
504.83 223.72 L
S
GR
GS
0.149 GC
2 setlinecap
1 LJ
0.5 LW
N
507 216.149 M
504.83 216.149 L
S
GR
GS
0.149 GC
2 setlinecap
1 LJ
0.5 LW
N
507 201.006 M
504.83 201.006 L
S
GR
GS
0.149 GC
2 setlinecap
1 LJ
0.5 LW
N
507 193.434 M
504.83 193.434 L
S
GR
GS
0.149 GC
2 setlinecap
1 LJ
0.5 LW
N
507 185.863 M
504.83 185.863 L
S
GR
GS
0.149 GC
2 setlinecap
1 LJ
0.5 LW
N
507 178.292 M
504.83 178.292 L
S
GR
GS
0.149 GC
2 setlinecap
1 LJ
0.5 LW
N
507 163.149 M
504.83 163.149 L
S
GR
GS
0.149 GC
2 setlinecap
1 LJ
0.5 LW
N
507 155.577 M
504.83 155.577 L
S
GR
GS
0.149 GC
2 setlinecap
1 LJ
0.5 LW
N
507 148.006 M
504.83 148.006 L
S
GR
GS
0.149 GC
2 setlinecap
1 LJ
0.5 LW
N
507 140.435 M
504.83 140.435 L
S
GR
GS
0.149 GC
2 setlinecap
1 LJ
0.5 LW
N
507 125.292 M
504.83 125.292 L
S
GR
GS
0.149 GC
2 setlinecap
1 LJ
0.5 LW
N
507 117.72 M
504.83 117.72 L
S
GR
GS
0.149 GC
2 setlinecap
1 LJ
0.5 LW
N
507 110.149 M
504.83 110.149 L
S
GR
GS
0.149 GC
2 setlinecap
1 LJ
0.5 LW
N
507 102.577 M
504.83 102.577 L
S
GR
GS
0.149 GC
2 setlinecap
1 LJ
0.5 LW
N
507 87.435 M
504.83 87.435 L
S
GR
GS
0.149 GC
2 setlinecap
1 LJ
0.5 LW
N
507 79.863 M
504.83 79.863 L
S
GR
GS
0.149 GC
2 setlinecap
1 LJ
0.5 LW
N
507 72.292 M
504.83 72.292 L
S
GR
GS
0.149 GC
2 setlinecap
1 LJ
0.5 LW
N
507 64.72 M
504.83 64.72 L
S
GR
GS
0.149 GC
2 setlinecap
1 LJ
0.5 LW
N
507 49.577 M
504.83 49.577 L
S
GR
GS
0.149 GC
2 setlinecap
1 LJ
0.5 LW
N
507 42.006 M
504.83 42.006 L
S
GR
GS
0.149 GC
2 setlinecap
1 LJ
0.5 LW
N
507 34.435 M
504.83 34.435 L
S
GR
GS
[1 0 0 1 68.2 360.00589] CT
0.149 GC
/Helvetica 14 F
GS
[1 0 0 1 0 0] CT
-16 5.5 moveto 
1 -1 scale
(40) t 
GR
GR
GS
[1 0 0 1 68.2 322.14877] CT
0.149 GC
/Helvetica 14 F
GS
[1 0 0 1 0 0] CT
-16 5.5 moveto 
1 -1 scale
(41) t 
GR
GR
GS
[1 0 0 1 68.2 284.29163] CT
0.149 GC
/Helvetica 14 F
GS
[1 0 0 1 0 0] CT
-16 5.5 moveto 
1 -1 scale
(42) t 
GR
GR
GS
[1 0 0 1 68.2 246.43452] CT
0.149 GC
/Helvetica 14 F
GS
[1 0 0 1 0 0] CT
-16 5.5 moveto 
1 -1 scale
(43) t 
GR
GR
GS
[1 0 0 1 68.2 208.57739] CT
0.149 GC
/Helvetica 14 F
GS
[1 0 0 1 0 0] CT
-16 5.5 moveto 
1 -1 scale
(44) t 
GR
GR
GS
[1 0 0 1 68.2 170.72028] CT
0.149 GC
/Helvetica 14 F
GS
[1 0 0 1 0 0] CT
-16 5.5 moveto 
1 -1 scale
(45) t 
GR
GR
GS
[1 0 0 1 68.2 132.86314] CT
0.149 GC
/Helvetica 14 F
GS
[1 0 0 1 0 0] CT
-16 5.5 moveto 
1 -1 scale
(46) t 
GR
GR
GS
[1 0 0 1 68.2 95.00603] CT
0.149 GC
/Helvetica 14 F
GS
[1 0 0 1 0 0] CT
-16 5.5 moveto 
1 -1 scale
(47) t 
GR
GR
GS
[1 0 0 1 68.2 57.1489] CT
0.149 GC
/Helvetica 14 F
GS
[1 0 0 1 0 0] CT
-16 5.5 moveto 
1 -1 scale
(48) t 
GR
GR
GS
[0 -1 1 0 49.2 202.74988] CT
0.149 GC
/Helvetica 15.4 F
GS
[1 0 0 1 0 0] CT
-50.5 -4 moveto 
1 -1 scale
(APSNR-U \(dB\)) t 
GR
GR
GS
[1 0 0 1 290.00027 29.57503] CT
/Helvetica-Bold 15.4 F
GS
[1 0 0 1 0 0] CT
-121 -4 moveto 
1 -1 scale
(CoverSong_1080P-1b0c.y4m-av1) t 
GR
GR
GS
0 0.447 0.741 RC
1 LJ
0.5 LW
N
78.124 360.657 M
79.544 354.638 L
80.964 348.645 L
82.384 342.696 L
83.804 336.808 L
85.224 331 L
86.644 325.29 L
88.065 319.696 L
89.485 314.236 L
90.905 308.928 L
92.325 303.792 L
93.745 298.843 L
95.165 294.102 L
96.585 289.585 L
98.005 285.312 L
99.426 281.3 L
100.846 277.563 L
102.266 273.963 L
103.686 270.423 L
105.106 266.942 L
106.526 263.52 L
107.946 260.158 L
109.366 256.855 L
110.786 253.611 L
112.207 250.426 L
113.627 247.301 L
115.047 244.235 L
116.467 241.227 L
117.887 238.279 L
119.307 235.389 L
120.727 232.558 L
122.147 229.786 L
123.568 227.073 L
124.988 224.419 L
126.408 221.822 L
127.828 219.285 L
129.248 216.806 L
130.668 214.385 L
132.088 212.023 L
133.508 209.719 L
134.929 207.473 L
136.349 205.286 L
137.769 203.156 L
139.189 201.085 L
140.609 199.072 L
142.029 197.116 L
143.449 195.219 L
144.869 193.379 L
146.289 191.597 L
147.71 189.873 L
149.13 188.206 L
150.55 186.586 L
151.97 184.986 L
153.39 183.403 L
154.81 181.839 L
156.23 180.292 L
157.65 178.763 L
159.071 177.252 L
160.491 175.758 L
161.911 174.281 L
163.331 172.822 L
164.751 171.38 L
166.171 169.954 L
167.591 168.546 L
169.011 167.154 L
170.432 165.779 L
171.852 164.42 L
173.272 163.077 L
174.692 161.751 L
176.112 160.44 L
177.532 159.146 L
178.952 157.867 L
180.372 156.604 L
181.792 155.357 L
183.213 154.125 L
184.633 152.908 L
186.053 151.706 L
187.473 150.52 L
188.893 149.348 L
190.313 148.191 L
191.733 147.049 L
193.153 145.921 L
194.574 144.808 L
195.994 143.708 L
197.414 142.623 L
198.834 141.553 L
200.254 140.495 L
201.674 139.452 L
203.094 138.422 L
204.514 137.406 L
205.935 136.403 L
207.355 135.413 L
208.775 134.437 L
210.195 133.473 L
211.615 132.522 L
213.035 131.585 L
214.455 130.659 L
215.875 129.746 L
217.295 128.846 L
218.716 127.957 L
220.136 127.081 L
221.556 126.217 L
222.976 125.364 L
224.396 124.523 L
225.816 123.694 L
227.236 122.877 L
228.656 122.07 L
230.077 121.275 L
231.497 120.491 L
232.917 119.717 L
234.337 118.955 L
235.757 118.203 L
237.177 117.462 L
238.597 116.731 L
240.017 116.011 L
241.438 115.301 L
242.858 114.601 L
244.278 113.91 L
245.698 113.23 L
247.118 112.555 L
248.538 111.88 L
249.958 111.205 L
251.378 110.531 L
252.798 109.857 L
254.219 109.184 L
255.639 108.511 L
257.059 107.838 L
258.479 107.167 L
259.899 106.495 L
261.319 105.825 L
262.739 105.155 L
264.159 104.486 L
265.58 103.817 L
267 103.149 L
268.42 102.483 L
269.84 101.817 L
271.26 101.151 L
272.68 100.487 L
274.1 99.824 L
275.52 99.162 L
276.941 98.5 L
278.361 97.84 L
279.781 97.181 L
281.201 96.523 L
282.621 95.866 L
284.041 95.211 L
285.461 94.556 L
286.881 93.903 L
288.302 93.252 L
289.722 92.602 L
291.142 91.953 L
292.562 91.305 L
293.982 90.659 L
295.402 90.015 L
296.822 89.372 L
298.242 88.73 L
299.662 88.09 L
301.083 87.452 L
302.503 86.816 L
303.923 86.181 L
305.343 85.548 L
306.763 84.917 L
308.183 84.288 L
309.603 83.661 L
311.023 83.035 L
312.444 82.412 L
313.864 81.79 L
315.284 81.171 L
316.704 80.553 L
318.124 79.938 L
319.544 79.325 L
320.964 78.714 L
322.384 78.105 L
323.805 77.498 L
325.225 76.894 L
326.645 76.292 L
328.065 75.692 L
329.485 75.095 L
330.905 74.5 L
332.325 73.908 L
333.745 73.318 L
335.165 72.73 L
336.586 72.146 L
338.006 71.564 L
339.426 70.984 L
340.846 70.407 L
342.266 69.833 L
343.686 69.262 L
345.106 68.693 L
346.526 68.128 L
347.947 67.565 L
349.367 67.005 L
350.787 66.448 L
352.207 65.894 L
353.627 65.343 L
355.047 64.795 L
356.467 64.25 L
357.887 63.708 L
359.307 63.169 L
360.728 62.634 L
362.148 62.102 L
363.568 61.573 L
364.988 61.047 L
366.408 60.525 L
367.828 60.006 L
369.248 59.491 L
370.668 58.979 L
372.089 58.471 L
373.509 57.966 L
374.929 57.464 L
376.349 56.966 L
377.769 56.472 L
379.189 55.982 L
380.609 55.495 L
382.029 55.012 L
383.45 54.533 L
384.87 54.057 L
386.29 53.586 L
387.71 53.118 L
389.13 52.654 L
390.55 52.195 L
391.97 51.739 L
393.39 51.287 L
394.811 50.84 L
396.231 50.396 L
397.651 49.957 L
399.071 49.522 L
400.491 49.091 L
401.911 48.664 L
403.331 48.242 L
404.751 47.824 L
406.171 47.41 L
407.592 47.001 L
409.012 46.596 L
410.432 46.196 L
411.852 45.8 L
413.272 45.409 L
414.692 45.022 L
416.112 44.64 L
417.532 44.262 L
418.953 43.89 L
420.373 43.522 L
421.793 43.159 L
423.213 42.8 L
424.633 42.447 L
426.053 42.098 L
427.473 41.755 L
428.893 41.416 L
430.314 41.082 L
431.734 40.754 L
433.154 40.43 L
434.574 40.111 L
435.994 39.798 L
437.414 39.49 L
438.834 39.187 L
440.254 38.889 L
441.674 38.597 L
443.095 38.31 L
444.515 38.028 L
445.935 37.752 L
447.355 37.481 L
448.775 37.216 L
450.195 36.956 L
451.615 36.701 L
453.035 36.452 L
454.456 36.209 L
455.876 35.972 L
457.296 35.74 L
458.716 35.514 L
460.136 35.294 L
461.556 35.079 L
462.976 34.871 L
464.396 34.668 L
465.817 34.471 L
467.237 34.28 L
468.657 34.095 L
470.077 33.916 L
471.497 33.743 L
472.917 33.577 L
474.337 33.416 L
475.757 33.262 L
477.177 33.113 L
478.598 32.971 L
480.018 32.836 L
481.438 32.706 L
482.858 32.583 L
484.278 32.467 L
485.698 32.357 L
487.118 32.253 L
488.538 32.156 L
489.959 32.065 L
491.379 31.981 L
492.799 31.903 L
494.219 31.832 L
495.639 31.768 L
497.059 31.711 L
498.479 31.66 L
499.899 31.616 L
501.32 31.579 L
502.74 31.549 L
504.16 31.526 L
505.58 31.509 L
507 31.5 L
S
GR
GS
0.851 0.325 0.098 RC
1 LJ
0.5 LW
N
74.567 374 M
75.988 367.142 L
77.408 360.322 L
78.828 353.566 L
80.248 346.9 L
81.668 340.352 L
83.088 333.947 L
84.508 327.714 L
85.928 321.679 L
87.348 315.867 L
88.769 310.307 L
90.189 305.025 L
91.609 300.046 L
93.029 295.4 L
94.449 291.109 L
95.869 287.016 L
97.289 283.003 L
98.709 279.071 L
100.13 275.217 L
101.55 271.443 L
102.97 267.748 L
104.39 264.131 L
105.81 260.593 L
107.23 257.132 L
108.65 253.748 L
110.07 250.441 L
111.491 247.211 L
112.911 244.057 L
114.331 240.978 L
115.751 237.975 L
117.171 235.047 L
118.591 232.194 L
120.011 229.415 L
121.431 226.71 L
122.852 224.078 L
124.272 221.519 L
125.692 219.033 L
127.112 216.619 L
128.532 214.278 L
129.952 212.008 L
131.372 209.809 L
132.792 207.68 L
134.212 205.623 L
135.633 203.635 L
137.053 201.717 L
138.473 199.84 L
139.893 197.984 L
141.313 196.151 L
142.733 194.34 L
144.153 192.551 L
145.573 190.783 L
146.994 189.038 L
148.414 187.313 L
149.834 185.61 L
151.254 183.929 L
152.674 182.269 L
154.094 180.629 L
155.514 179.011 L
156.934 177.413 L
158.355 175.836 L
159.775 174.28 L
161.195 172.744 L
162.615 171.229 L
164.035 169.734 L
165.455 168.258 L
166.875 166.803 L
168.295 165.368 L
169.715 163.953 L
171.136 162.557 L
172.556 161.181 L
173.976 159.824 L
175.396 158.486 L
176.816 157.168 L
178.236 155.868 L
179.656 154.588 L
181.076 153.326 L
182.497 152.083 L
183.917 150.859 L
185.337 149.653 L
186.757 148.466 L
188.177 147.296 L
189.597 146.145 L
191.017 145.012 L
192.437 143.897 L
193.858 142.799 L
195.278 141.719 L
196.698 140.657 L
198.118 139.612 L
199.538 138.585 L
200.958 137.574 L
202.378 136.581 L
203.798 135.604 L
205.218 134.644 L
206.639 133.702 L
208.059 132.775 L
209.479 131.865 L
210.899 130.972 L
212.319 130.094 L
213.739 129.233 L
215.159 128.388 L
216.579 127.559 L
218 126.745 L
219.42 125.947 L
220.84 125.165 L
222.26 124.392 L
223.68 123.619 L
225.1 122.847 L
226.52 122.076 L
227.94 121.306 L
229.361 120.537 L
230.781 119.769 L
232.201 119.001 L
233.621 118.235 L
235.041 117.47 L
236.461 116.706 L
237.881 115.943 L
239.301 115.182 L
240.721 114.421 L
242.142 113.663 L
243.562 112.905 L
244.982 112.149 L
246.402 111.395 L
247.822 110.642 L
249.242 109.89 L
250.662 109.14 L
252.082 108.392 L
253.503 107.646 L
254.923 106.902 L
256.343 106.159 L
257.763 105.418 L
259.183 104.679 L
260.603 103.942 L
262.023 103.208 L
263.443 102.475 L
264.864 101.745 L
266.284 101.016 L
267.704 100.29 L
269.124 99.567 L
270.544 98.845 L
271.964 98.126 L
273.384 97.41 L
274.804 96.696 L
276.224 95.984 L
277.645 95.275 L
279.065 94.569 L
280.485 93.865 L
281.905 93.165 L
283.325 92.467 L
284.745 91.772 L
286.165 91.079 L
287.585 90.39 L
289.006 89.704 L
290.426 89.021 L
291.846 88.341 L
293.266 87.664 L
294.686 86.99 L
296.106 86.319 L
297.526 85.652 L
298.946 84.988 L
300.367 84.328 L
301.787 83.671 L
303.207 83.018 L
304.627 82.368 L
306.047 81.721 L
307.467 81.079 L
308.887 80.44 L
310.307 79.805 L
311.727 79.173 L
313.148 78.546 L
314.568 77.922 L
315.988 77.302 L
317.408 76.687 L
318.828 76.075 L
320.248 75.468 L
321.668 74.864 L
323.088 74.265 L
324.509 73.67 L
325.929 73.08 L
327.349 72.494 L
328.769 71.912 L
330.189 71.334 L
331.609 70.762 L
333.029 70.193 L
334.449 69.63 L
335.87 69.071 L
337.29 68.516 L
338.71 67.967 L
340.13 67.422 L
341.55 66.882 L
342.97 66.347 L
344.39 65.817 L
345.81 65.292 L
347.23 64.772 L
348.651 64.257 L
350.071 63.748 L
351.491 63.243 L
352.911 62.744 L
354.331 62.25 L
355.751 61.762 L
357.171 61.279 L
358.591 60.801 L
360.012 60.329 L
361.432 59.862 L
362.852 59.401 L
364.272 58.946 L
365.692 58.496 L
367.112 58.052 L
368.532 57.614 L
369.952 57.182 L
371.373 56.756 L
372.793 56.336 L
374.213 55.921 L
375.633 55.513 L
377.053 55.111 L
378.473 54.715 L
379.893 54.325 L
381.313 53.942 L
382.733 53.565 L
384.154 53.194 L
385.574 52.83 L
386.994 52.472 L
388.414 52.12 L
389.834 51.776 L
391.254 51.437 L
392.674 51.106 L
394.094 50.781 L
395.515 50.463 L
396.935 50.151 L
398.355 49.847 L
399.775 49.55 L
401.195 49.259 L
402.615 48.976 L
404.035 48.699 L
405.455 48.43 L
406.876 48.168 L
408.296 47.913 L
409.716 47.665 L
411.136 47.425 L
412.556 47.192 L
413.976 46.966 L
415.396 46.748 L
416.816 46.538 L
418.237 46.334 L
419.657 46.139 L
421.077 45.951 L
422.497 45.771 L
423.917 45.599 L
425.337 45.435 L
426.757 45.278 L
428.177 45.129 L
429.597 44.989 L
431.018 44.856 L
432.438 44.731 L
433.858 44.615 L
435.278 44.507 L
436.698 44.407 L
438.118 44.315 L
439.538 44.231 L
440.958 44.156 L
442.379 44.089 L
443.799 44.031 L
445.219 43.981 L
446.639 43.94 L
448.059 43.908 L
449.479 43.884 L
450.899 43.869 L
452.319 43.862 L
S
GR
GS
0.929 0.694 0.125 RC
1 LJ
0.5 LW
N
77.364 361.105 M
78.784 354.954 L
80.204 348.829 L
81.624 342.749 L
83.045 336.735 L
84.465 330.807 L
85.885 324.985 L
87.305 319.289 L
88.725 313.738 L
90.145 308.352 L
91.565 303.153 L
92.985 298.158 L
94.405 293.39 L
95.826 288.866 L
97.246 284.608 L
98.666 280.636 L
100.086 276.923 L
101.506 273.294 L
102.926 269.729 L
104.346 266.228 L
105.766 262.79 L
107.187 259.416 L
108.607 256.104 L
110.027 252.855 L
111.447 249.669 L
112.867 246.545 L
114.287 243.483 L
115.707 240.483 L
117.127 237.545 L
118.548 234.667 L
119.968 231.851 L
121.388 229.096 L
122.808 226.401 L
124.228 223.767 L
125.648 221.193 L
127.068 218.679 L
128.488 216.224 L
129.908 213.829 L
131.329 211.493 L
132.749 209.216 L
134.169 206.998 L
135.589 204.838 L
137.009 202.736 L
138.429 200.692 L
139.849 198.706 L
141.269 196.778 L
142.69 194.907 L
144.11 193.093 L
145.53 191.335 L
146.95 189.635 L
148.37 187.978 L
149.79 186.34 L
151.21 184.72 L
152.63 183.118 L
154.051 181.534 L
155.471 179.968 L
156.891 178.42 L
158.311 176.889 L
159.731 175.375 L
161.151 173.879 L
162.571 172.4 L
163.991 170.938 L
165.411 169.493 L
166.832 168.066 L
168.252 166.654 L
169.672 165.26 L
171.092 163.882 L
172.512 162.521 L
173.932 161.175 L
175.352 159.847 L
176.772 158.534 L
178.193 157.237 L
179.613 155.956 L
181.033 154.691 L
182.453 153.441 L
183.873 152.207 L
185.293 150.989 L
186.713 149.786 L
188.133 148.598 L
189.554 147.425 L
190.974 146.267 L
192.394 145.124 L
193.814 143.996 L
195.234 142.882 L
196.654 141.783 L
198.074 140.698 L
199.494 139.628 L
200.914 138.572 L
202.335 137.53 L
203.755 136.502 L
205.175 135.487 L
206.595 134.487 L
208.015 133.5 L
209.435 132.527 L
210.855 131.567 L
212.275 130.621 L
213.696 129.687 L
215.116 128.767 L
216.536 127.86 L
217.956 126.965 L
219.376 126.084 L
220.796 125.214 L
222.216 124.358 L
223.636 123.514 L
225.057 122.682 L
226.477 121.862 L
227.897 121.055 L
229.317 120.259 L
230.737 119.475 L
232.157 118.704 L
233.577 117.943 L
234.997 117.194 L
236.417 116.457 L
237.838 115.731 L
239.258 115.016 L
240.678 114.312 L
242.098 113.619 L
243.518 112.932 L
244.938 112.245 L
246.358 111.559 L
247.778 110.873 L
249.199 110.187 L
250.619 109.503 L
252.039 108.818 L
253.459 108.135 L
254.879 107.452 L
256.299 106.77 L
257.719 106.088 L
259.139 105.408 L
260.56 104.728 L
261.98 104.049 L
263.4 103.37 L
264.82 102.693 L
266.24 102.017 L
267.66 101.342 L
269.08 100.667 L
270.5 99.994 L
271.921 99.322 L
273.341 98.651 L
274.761 97.982 L
276.181 97.313 L
277.601 96.646 L
279.021 95.98 L
280.441 95.315 L
281.861 94.652 L
283.281 93.99 L
284.702 93.33 L
286.122 92.671 L
287.542 92.014 L
288.962 91.358 L
290.382 90.704 L
291.802 90.051 L
293.222 89.4 L
294.642 88.751 L
296.063 88.104 L
297.483 87.458 L
298.903 86.814 L
300.323 86.173 L
301.743 85.533 L
303.163 84.894 L
304.583 84.258 L
306.003 83.624 L
307.423 82.992 L
308.844 82.362 L
310.264 81.734 L
311.684 81.109 L
313.104 80.485 L
314.524 79.864 L
315.944 79.245 L
317.364 78.628 L
318.784 78.014 L
320.205 77.402 L
321.625 76.793 L
323.045 76.186 L
324.465 75.581 L
325.885 74.979 L
327.305 74.38 L
328.725 73.783 L
330.145 73.189 L
331.566 72.597 L
332.986 72.008 L
334.406 71.422 L
335.826 70.839 L
337.246 70.259 L
338.666 69.682 L
340.086 69.107 L
341.506 68.535 L
342.927 67.967 L
344.347 67.401 L
345.767 66.839 L
347.187 66.279 L
348.607 65.723 L
350.027 65.17 L
351.447 64.62 L
352.867 64.073 L
354.287 63.53 L
355.708 62.99 L
357.128 62.453 L
358.548 61.92 L
359.968 61.39 L
361.388 60.864 L
362.808 60.341 L
364.228 59.822 L
365.648 59.306 L
367.069 58.794 L
368.489 58.285 L
369.909 57.781 L
371.329 57.28 L
372.749 56.782 L
374.169 56.289 L
375.589 55.8 L
377.009 55.314 L
378.43 54.832 L
379.85 54.354 L
381.27 53.881 L
382.69 53.411 L
384.11 52.945 L
385.53 52.484 L
386.95 52.026 L
388.37 51.573 L
389.79 51.124 L
391.211 50.679 L
392.631 50.239 L
394.051 49.803 L
395.471 49.371 L
396.891 48.944 L
398.311 48.521 L
399.731 48.103 L
401.151 47.689 L
402.572 47.28 L
403.992 46.875 L
405.412 46.475 L
406.832 46.08 L
408.252 45.689 L
409.672 45.303 L
411.092 44.922 L
412.512 44.546 L
413.933 44.175 L
415.353 43.808 L
416.773 43.447 L
418.193 43.09 L
419.613 42.738 L
421.033 42.392 L
422.453 42.051 L
423.873 41.714 L
425.293 41.383 L
426.714 41.057 L
428.134 40.737 L
429.554 40.421 L
430.974 40.111 L
432.394 39.806 L
433.814 39.507 L
435.234 39.213 L
436.654 38.924 L
438.075 38.642 L
439.495 38.364 L
440.915 38.092 L
442.335 37.826 L
443.755 37.566 L
445.175 37.311 L
446.595 37.061 L
448.015 36.818 L
449.436 36.581 L
450.856 36.349 L
452.276 36.123 L
453.696 35.903 L
455.116 35.689 L
456.536 35.481 L
457.956 35.279 L
459.376 35.083 L
460.796 34.893 L
462.217 34.709 L
463.637 34.532 L
465.057 34.361 L
466.477 34.196 L
467.897 34.037 L
469.317 33.884 L
470.737 33.738 L
472.157 33.599 L
473.578 33.465 L
474.998 33.339 L
476.418 33.218 L
477.838 33.105 L
479.258 32.998 L
480.678 32.897 L
482.098 32.803 L
483.518 32.716 L
484.939 32.636 L
486.359 32.562 L
487.779 32.496 L
489.199 32.436 L
490.619 32.383 L
492.039 32.337 L
493.459 32.297 L
494.879 32.265 L
496.299 32.24 L
497.72 32.222 L
499.14 32.211 L
500.56 32.208 L
S
GR
GS
0.494 0.184 0.557 RC
1 LJ
0.5 LW
N
73.886 369.946 M
75.307 363.052 L
76.727 356.187 L
78.147 349.38 L
79.567 342.66 L
80.987 336.056 L
82.407 329.6 L
83.827 323.32 L
85.247 317.246 L
86.668 311.408 L
88.088 305.834 L
89.508 300.556 L
90.928 295.601 L
92.348 291.001 L
93.768 286.782 L
95.188 282.774 L
96.608 278.848 L
98.028 275.003 L
99.449 271.238 L
100.869 267.553 L
102.289 263.947 L
103.709 260.419 L
105.129 256.968 L
106.549 253.595 L
107.969 250.298 L
109.389 247.077 L
110.81 243.93 L
112.23 240.858 L
113.65 237.859 L
115.07 234.933 L
116.49 232.079 L
117.91 229.297 L
119.33 226.585 L
120.75 223.944 L
122.171 221.372 L
123.591 218.869 L
125.011 216.434 L
126.431 214.066 L
127.851 211.766 L
129.271 209.531 L
130.691 207.361 L
132.111 205.257 L
133.531 203.216 L
134.952 201.239 L
136.372 199.324 L
137.792 197.472 L
139.212 195.673 L
140.632 193.898 L
142.052 192.145 L
143.472 190.411 L
144.892 188.698 L
146.313 187.005 L
147.733 185.333 L
149.153 183.68 L
150.573 182.047 L
151.993 180.434 L
153.413 178.841 L
154.833 177.267 L
156.253 175.712 L
157.674 174.177 L
159.094 172.66 L
160.514 171.162 L
161.934 169.684 L
163.354 168.223 L
164.774 166.782 L
166.194 165.358 L
167.614 163.953 L
169.034 162.567 L
170.455 161.198 L
171.875 159.846 L
173.295 158.513 L
174.715 157.197 L
176.135 155.899 L
177.555 154.617 L
178.975 153.354 L
180.395 152.107 L
181.816 150.877 L
183.236 149.663 L
184.656 148.467 L
186.076 147.286 L
187.496 146.123 L
188.916 144.975 L
190.336 143.843 L
191.756 142.728 L
193.177 141.628 L
194.597 140.544 L
196.017 139.476 L
197.437 138.423 L
198.857 137.385 L
200.277 136.362 L
201.697 135.355 L
203.117 134.362 L
204.538 133.384 L
205.958 132.42 L
207.378 131.471 L
208.798 130.537 L
210.218 129.616 L
211.638 128.71 L
213.058 127.818 L
214.478 126.939 L
215.898 126.074 L
217.319 125.223 L
218.739 124.385 L
220.159 123.56 L
221.579 122.749 L
222.999 121.95 L
224.419 121.164 L
225.839 120.391 L
227.259 119.631 L
228.68 118.883 L
230.1 118.143 L
231.52 117.403 L
232.94 116.663 L
234.36 115.924 L
235.78 115.186 L
237.2 114.448 L
238.62 113.711 L
240.041 112.975 L
241.461 112.24 L
242.881 111.505 L
244.301 110.771 L
245.721 110.039 L
247.141 109.307 L
248.561 108.576 L
249.981 107.846 L
251.401 107.117 L
252.822 106.39 L
254.242 105.663 L
255.662 104.938 L
257.082 104.214 L
258.502 103.491 L
259.922 102.77 L
261.342 102.05 L
262.762 101.332 L
264.183 100.615 L
265.603 99.899 L
267.023 99.185 L
268.443 98.473 L
269.863 97.762 L
271.283 97.053 L
272.703 96.346 L
274.123 95.641 L
275.544 94.937 L
276.964 94.235 L
278.384 93.535 L
279.804 92.837 L
281.224 92.141 L
282.644 91.447 L
284.064 90.756 L
285.484 90.066 L
286.904 89.378 L
288.325 88.693 L
289.745 88.01 L
291.165 87.329 L
292.585 86.65 L
294.005 85.974 L
295.425 85.301 L
296.845 84.629 L
298.265 83.961 L
299.686 83.295 L
301.106 82.631 L
302.526 81.97 L
303.946 81.312 L
305.366 80.657 L
306.786 80.004 L
308.206 79.354 L
309.626 78.707 L
311.047 78.063 L
312.467 77.421 L
313.887 76.783 L
315.307 76.148 L
316.727 75.516 L
318.147 74.887 L
319.567 74.261 L
320.987 73.638 L
322.407 73.019 L
323.828 72.403 L
325.248 71.79 L
326.668 71.181 L
328.088 70.574 L
329.508 69.972 L
330.928 69.373 L
332.348 68.777 L
333.768 68.185 L
335.189 67.597 L
336.609 67.013 L
338.029 66.432 L
339.449 65.855 L
340.869 65.281 L
342.289 64.712 L
343.709 64.146 L
345.129 63.585 L
346.55 63.027 L
347.97 62.473 L
349.39 61.924 L
350.81 61.378 L
352.23 60.837 L
353.65 60.3 L
355.07 59.767 L
356.49 59.238 L
357.91 58.714 L
359.331 58.194 L
360.751 57.678 L
362.171 57.167 L
363.591 56.661 L
365.011 56.159 L
366.431 55.661 L
367.851 55.169 L
369.271 54.68 L
370.692 54.197 L
372.112 53.718 L
373.532 53.244 L
374.952 52.775 L
376.372 52.311 L
377.792 51.852 L
379.212 51.398 L
380.632 50.949 L
382.053 50.504 L
383.473 50.065 L
384.893 49.631 L
386.313 49.203 L
387.733 48.779 L
389.153 48.361 L
390.573 47.948 L
391.993 47.54 L
393.413 47.138 L
394.834 46.741 L
396.254 46.35 L
397.674 45.964 L
399.094 45.584 L
400.514 45.21 L
401.934 44.841 L
403.354 44.478 L
404.774 44.12 L
406.195 43.769 L
407.615 43.423 L
409.035 43.083 L
410.455 42.749 L
411.875 42.421 L
413.295 42.099 L
414.715 41.783 L
416.135 41.473 L
417.556 41.169 L
418.976 40.872 L
420.396 40.581 L
421.816 40.296 L
423.236 40.017 L
424.656 39.744 L
426.076 39.478 L
427.496 39.219 L
428.916 38.966 L
430.337 38.719 L
431.757 38.479 L
433.177 38.246 L
434.597 38.019 L
436.017 37.799 L
437.437 37.586 L
438.857 37.379 L
440.277 37.18 L
441.698 36.987 L
443.118 36.801 L
444.538 36.622 L
445.958 36.45 L
447.378 36.285 L
448.798 36.127 L
450.218 35.977 L
451.638 35.833 L
453.059 35.697 L
454.479 35.568 L
455.899 35.446 L
457.319 35.332 L
458.739 35.225 L
460.159 35.125 L
461.579 35.033 L
462.999 34.949 L
464.419 34.872 L
465.84 34.802 L
467.26 34.74 L
468.68 34.686 L
470.1 34.64 L
471.52 34.601 L
472.94 34.571 L
474.36 34.548 L
475.78 34.533 L
477.201 34.526 L
S
GR
GS
0.467 0.675 0.188 RC
1 LJ
0.5 LW
N
73 372.675 M
74.42 365.474 L
75.84 358.302 L
77.26 351.193 L
78.68 344.18 L
80.101 337.298 L
81.521 330.582 L
82.941 324.066 L
84.361 317.783 L
85.781 311.769 L
87.201 306.057 L
88.621 300.681 L
90.041 295.677 L
91.462 291.078 L
92.882 286.844 L
94.302 282.723 L
95.722 278.688 L
97.142 274.739 L
98.562 270.876 L
99.982 267.097 L
101.402 263.403 L
102.823 259.792 L
104.243 256.263 L
105.663 252.816 L
107.083 249.45 L
108.503 246.165 L
109.923 242.96 L
111.343 239.834 L
112.763 236.786 L
114.183 233.816 L
115.604 230.922 L
117.024 228.105 L
118.444 225.364 L
119.864 222.698 L
121.284 220.105 L
122.704 217.586 L
124.124 215.14 L
125.544 212.766 L
126.965 210.463 L
128.385 208.231 L
129.805 206.069 L
131.225 203.976 L
132.645 201.952 L
134.065 199.995 L
135.485 198.106 L
136.905 196.271 L
138.326 194.461 L
139.746 192.673 L
141.166 190.907 L
142.586 189.163 L
144.006 187.44 L
145.426 185.739 L
146.846 184.059 L
148.266 182.401 L
149.686 180.763 L
151.107 179.146 L
152.527 177.55 L
153.947 175.974 L
155.367 174.419 L
156.787 172.884 L
158.207 171.369 L
159.627 169.874 L
161.047 168.398 L
162.468 166.942 L
163.888 165.506 L
165.308 164.088 L
166.728 162.69 L
168.148 161.31 L
169.568 159.949 L
170.988 158.607 L
172.408 157.283 L
173.829 155.977 L
175.249 154.689 L
176.669 153.419 L
178.089 152.167 L
179.509 150.932 L
180.929 149.715 L
182.349 148.514 L
183.769 147.331 L
185.189 146.165 L
186.61 145.015 L
188.03 143.882 L
189.45 142.766 L
190.87 141.665 L
192.29 140.581 L
193.71 139.512 L
195.13 138.459 L
196.55 137.422 L
197.971 136.4 L
199.391 135.393 L
200.811 134.401 L
202.231 133.424 L
203.651 132.462 L
205.071 131.515 L
206.491 130.581 L
207.911 129.662 L
209.332 128.757 L
210.752 127.866 L
212.172 126.989 L
213.592 126.125 L
215.012 125.275 L
216.432 124.438 L
217.852 123.614 L
219.272 122.802 L
220.692 122.004 L
222.113 121.218 L
223.533 120.444 L
224.953 119.683 L
226.373 118.928 L
227.793 118.174 L
229.213 117.42 L
230.633 116.667 L
232.053 115.914 L
233.474 115.162 L
234.894 114.411 L
236.314 113.66 L
237.734 112.911 L
239.154 112.162 L
240.574 111.414 L
241.994 110.666 L
243.414 109.92 L
244.835 109.175 L
246.255 108.431 L
247.675 107.688 L
249.095 106.946 L
250.515 106.205 L
251.935 105.466 L
253.355 104.728 L
254.775 103.991 L
256.195 103.255 L
257.616 102.521 L
259.036 101.789 L
260.456 101.058 L
261.876 100.328 L
263.296 99.601 L
264.716 98.874 L
266.136 98.15 L
267.556 97.427 L
268.977 96.706 L
270.397 95.987 L
271.817 95.27 L
273.237 94.555 L
274.657 93.842 L
276.077 93.131 L
277.497 92.421 L
278.917 91.715 L
280.338 91.01 L
281.758 90.307 L
283.178 89.607 L
284.598 88.909 L
286.018 88.213 L
287.438 87.52 L
288.858 86.829 L
290.278 86.141 L
291.699 85.455 L
293.119 84.772 L
294.539 84.092 L
295.959 83.414 L
297.379 82.739 L
298.799 82.066 L
300.219 81.397 L
301.639 80.73 L
303.059 80.066 L
304.48 79.406 L
305.9 78.748 L
307.32 78.093 L
308.74 77.442 L
310.16 76.793 L
311.58 76.148 L
313 75.506 L
314.42 74.867 L
315.841 74.232 L
317.261 73.6 L
318.681 72.971 L
320.101 72.346 L
321.521 71.725 L
322.941 71.107 L
324.361 70.492 L
325.781 69.881 L
327.202 69.274 L
328.622 68.671 L
330.042 68.072 L
331.462 67.476 L
332.882 66.884 L
334.302 66.296 L
335.722 65.713 L
337.142 65.133 L
338.562 64.557 L
339.983 63.985 L
341.403 63.418 L
342.823 62.855 L
344.243 62.296 L
345.663 61.741 L
347.083 61.191 L
348.503 60.645 L
349.923 60.104 L
351.344 59.567 L
352.764 59.034 L
354.184 58.506 L
355.604 57.983 L
357.024 57.465 L
358.444 56.951 L
359.864 56.442 L
361.284 55.938 L
362.704 55.438 L
364.125 54.944 L
365.545 54.454 L
366.965 53.97 L
368.385 53.491 L
369.805 53.016 L
371.225 52.547 L
372.645 52.083 L
374.065 51.624 L
375.486 51.171 L
376.906 50.723 L
378.326 50.28 L
379.746 49.843 L
381.166 49.411 L
382.586 48.984 L
384.006 48.564 L
385.426 48.149 L
386.847 47.739 L
388.267 47.335 L
389.687 46.937 L
391.107 46.545 L
392.527 46.158 L
393.947 45.778 L
395.367 45.403 L
396.787 45.035 L
398.207 44.672 L
399.628 44.315 L
401.048 43.965 L
402.468 43.621 L
403.888 43.283 L
405.308 42.951 L
406.728 42.625 L
408.148 42.306 L
409.568 41.994 L
410.989 41.687 L
412.409 41.387 L
413.829 41.094 L
415.249 40.808 L
416.669 40.527 L
418.089 40.254 L
419.509 39.987 L
420.929 39.727 L
422.35 39.474 L
423.77 39.228 L
425.19 38.989 L
426.61 38.756 L
428.03 38.531 L
429.45 38.313 L
430.87 38.102 L
432.29 37.897 L
433.711 37.701 L
435.131 37.511 L
436.551 37.329 L
437.971 37.154 L
439.391 36.986 L
440.811 36.826 L
442.231 36.673 L
443.651 36.527 L
445.071 36.39 L
446.492 36.259 L
447.912 36.137 L
449.332 36.022 L
450.752 35.915 L
452.172 35.816 L
453.592 35.725 L
455.012 35.641 L
456.432 35.565 L
457.853 35.498 L
459.273 35.438 L
460.693 35.387 L
462.113 35.343 L
463.533 35.308 L
464.953 35.281 L
466.373 35.262 L
467.793 35.251 L
S
GR
GS
0.302 0.745 0.933 RC
[10 6] 0 setdash
2 LJ
0.5 LW
N
75.341 370.867 M
76.761 364.238 L
78.181 357.643 L
79.602 351.108 L
81.022 344.656 L
82.442 338.31 L
83.862 332.093 L
85.282 326.03 L
86.702 320.143 L
88.122 314.457 L
89.542 308.994 L
90.963 303.779 L
92.383 298.834 L
93.803 294.183 L
95.223 289.851 L
96.643 285.806 L
98.063 281.855 L
99.483 277.977 L
100.903 274.173 L
102.324 270.442 L
103.744 266.785 L
105.164 263.2 L
106.584 259.688 L
108.004 256.249 L
109.424 252.882 L
110.844 249.587 L
112.264 246.364 L
113.684 243.214 L
115.105 240.135 L
116.525 237.127 L
117.945 234.191 L
119.365 231.326 L
120.785 228.532 L
122.205 225.809 L
123.625 223.156 L
125.045 220.574 L
126.466 218.062 L
127.886 215.62 L
129.306 213.249 L
130.726 210.947 L
132.146 208.714 L
133.566 206.551 L
134.986 204.457 L
136.406 202.432 L
137.827 200.477 L
139.247 198.589 L
140.667 196.754 L
142.087 194.941 L
143.507 193.15 L
144.927 191.381 L
146.347 189.633 L
147.767 187.906 L
149.188 186.201 L
150.608 184.518 L
152.028 182.855 L
153.448 181.212 L
154.868 179.591 L
156.288 177.99 L
157.708 176.41 L
159.128 174.85 L
160.548 173.31 L
161.969 171.79 L
163.389 170.29 L
164.809 168.809 L
166.229 167.348 L
167.649 165.907 L
169.069 164.485 L
170.489 163.082 L
171.909 161.697 L
173.33 160.332 L
174.75 158.986 L
176.17 157.658 L
177.59 156.348 L
179.01 155.057 L
180.43 153.783 L
181.85 152.528 L
183.27 151.291 L
184.691 150.071 L
186.111 148.869 L
187.531 147.684 L
188.951 146.516 L
190.371 145.366 L
191.791 144.232 L
193.211 143.116 L
194.631 142.016 L
196.051 140.932 L
197.472 139.865 L
198.892 138.814 L
200.312 137.78 L
201.732 136.761 L
203.152 135.758 L
204.572 134.771 L
205.992 133.799 L
207.412 132.843 L
208.833 131.902 L
210.253 130.976 L
211.673 130.064 L
213.093 129.168 L
214.513 128.287 L
215.933 127.419 L
217.353 126.567 L
218.773 125.728 L
220.194 124.904 L
221.614 124.094 L
223.034 123.297 L
224.454 122.514 L
225.874 121.743 L
227.294 120.974 L
228.714 120.205 L
230.134 119.437 L
231.554 118.669 L
232.975 117.902 L
234.395 117.136 L
235.815 116.37 L
237.235 115.605 L
238.655 114.841 L
240.075 114.078 L
241.495 113.316 L
242.915 112.555 L
244.336 111.795 L
245.756 111.036 L
247.176 110.278 L
248.596 109.521 L
250.016 108.766 L
251.436 108.012 L
252.856 107.259 L
254.276 106.508 L
255.697 105.759 L
257.117 105.011 L
258.537 104.264 L
259.957 103.52 L
261.377 102.777 L
262.797 102.035 L
264.217 101.296 L
265.637 100.559 L
267.057 99.824 L
268.478 99.09 L
269.898 98.359 L
271.318 97.63 L
272.738 96.903 L
274.158 96.178 L
275.578 95.456 L
276.998 94.736 L
278.418 94.018 L
279.839 93.303 L
281.259 92.591 L
282.679 91.88 L
284.099 91.173 L
285.519 90.469 L
286.939 89.767 L
288.359 89.068 L
289.779 88.372 L
291.2 87.678 L
292.62 86.988 L
294.04 86.301 L
295.46 85.617 L
296.88 84.936 L
298.3 84.259 L
299.72 83.584 L
301.14 82.913 L
302.56 82.246 L
303.981 81.581 L
305.401 80.921 L
306.821 80.264 L
308.241 79.61 L
309.661 78.96 L
311.081 78.314 L
312.501 77.672 L
313.921 77.033 L
315.342 76.399 L
316.762 75.768 L
318.182 75.142 L
319.602 74.519 L
321.022 73.901 L
322.442 73.287 L
323.862 72.677 L
325.282 72.071 L
326.703 71.47 L
328.123 70.873 L
329.543 70.281 L
330.963 69.693 L
332.383 69.11 L
333.803 68.531 L
335.223 67.957 L
336.643 67.388 L
338.063 66.823 L
339.484 66.264 L
340.904 65.709 L
342.324 65.16 L
343.744 64.615 L
345.164 64.076 L
346.584 63.541 L
348.004 63.012 L
349.424 62.488 L
350.845 61.97 L
352.265 61.457 L
353.685 60.949 L
355.105 60.447 L
356.525 59.95 L
357.945 59.459 L
359.365 58.974 L
360.785 58.494 L
362.206 58.02 L
363.626 57.552 L
365.046 57.09 L
366.466 56.634 L
367.886 56.184 L
369.306 55.74 L
370.726 55.302 L
372.146 54.87 L
373.566 54.444 L
374.987 54.025 L
376.407 53.612 L
377.827 53.205 L
379.247 52.805 L
380.667 52.412 L
382.087 52.025 L
383.507 51.644 L
384.927 51.271 L
386.348 50.904 L
387.768 50.544 L
389.188 50.19 L
390.608 49.844 L
392.028 49.505 L
393.448 49.172 L
394.868 48.847 L
396.288 48.529 L
397.709 48.218 L
399.129 47.914 L
400.549 47.618 L
401.969 47.329 L
403.389 47.047 L
404.809 46.773 L
406.229 46.506 L
407.649 46.248 L
409.069 45.996 L
410.49 45.753 L
411.91 45.517 L
413.33 45.289 L
414.75 45.069 L
416.17 44.856 L
417.59 44.652 L
419.01 44.456 L
420.43 44.268 L
421.851 44.088 L
423.271 43.916 L
424.691 43.753 L
426.111 43.598 L
427.531 43.451 L
428.951 43.313 L
430.371 43.184 L
431.791 43.062 L
433.212 42.95 L
434.632 42.846 L
436.052 42.751 L
437.472 42.665 L
438.892 42.587 L
440.312 42.519 L
441.732 42.459 L
443.152 42.408 L
444.572 42.367 L
445.993 42.334 L
447.413 42.311 L
448.833 42.297 L
S
GR
GS
0.635 0.078 0.184 RC
[10 6] 0 setdash
2 LJ
0.5 LW
N
77.411 361.175 M
78.831 355.049 L
80.251 348.95 L
81.671 342.896 L
83.091 336.908 L
84.511 331.005 L
85.931 325.209 L
87.351 319.537 L
88.771 314.012 L
90.192 308.651 L
91.612 303.476 L
93.032 298.507 L
94.452 293.762 L
95.872 289.263 L
97.292 285.029 L
98.712 281.08 L
100.132 277.374 L
101.553 273.742 L
102.973 270.174 L
104.393 266.67 L
105.813 263.229 L
107.233 259.85 L
108.653 256.535 L
110.073 253.282 L
111.493 250.091 L
112.914 246.963 L
114.334 243.896 L
115.754 240.891 L
117.174 237.947 L
118.594 235.064 L
120.014 232.242 L
121.434 229.481 L
122.854 226.781 L
124.274 224.14 L
125.695 221.56 L
127.115 219.039 L
128.535 216.578 L
129.955 214.176 L
131.375 211.833 L
132.795 209.548 L
134.215 207.323 L
135.635 205.156 L
137.056 203.046 L
138.476 200.995 L
139.896 199.001 L
141.316 197.065 L
142.736 195.186 L
144.156 193.364 L
145.576 191.599 L
146.996 189.89 L
148.417 188.219 L
149.837 186.567 L
151.257 184.933 L
152.677 183.318 L
154.097 181.721 L
155.517 180.142 L
156.937 178.581 L
158.357 177.038 L
159.777 175.512 L
161.198 174.005 L
162.618 172.515 L
164.038 171.042 L
165.458 169.587 L
166.878 168.149 L
168.298 166.728 L
169.718 165.323 L
171.138 163.936 L
172.559 162.565 L
173.979 161.211 L
175.399 159.874 L
176.819 158.552 L
178.239 157.247 L
179.659 155.958 L
181.079 154.685 L
182.499 153.428 L
183.92 152.186 L
185.34 150.96 L
186.76 149.75 L
188.18 148.555 L
189.6 147.375 L
191.02 146.211 L
192.44 145.061 L
193.86 143.926 L
195.281 142.806 L
196.701 141.701 L
198.121 140.61 L
199.541 139.534 L
200.961 138.472 L
202.381 137.424 L
203.801 136.39 L
205.221 135.37 L
206.641 134.364 L
208.062 133.372 L
209.482 132.393 L
210.902 131.427 L
212.322 130.475 L
213.742 129.536 L
215.162 128.611 L
216.582 127.698 L
218.002 126.798 L
219.423 125.911 L
220.843 125.036 L
222.263 124.174 L
223.683 123.324 L
225.103 122.486 L
226.523 121.661 L
227.943 120.847 L
229.363 120.046 L
230.784 119.256 L
232.204 118.478 L
233.624 117.711 L
235.044 116.956 L
236.464 116.212 L
237.884 115.479 L
239.304 114.757 L
240.724 114.047 L
242.144 113.34 L
243.565 112.633 L
244.985 111.927 L
246.405 111.221 L
247.825 110.516 L
249.245 109.811 L
250.665 109.107 L
252.085 108.403 L
253.505 107.699 L
254.926 106.997 L
256.346 106.295 L
257.766 105.593 L
259.186 104.893 L
260.606 104.193 L
262.026 103.494 L
263.446 102.796 L
264.866 102.099 L
266.287 101.403 L
267.707 100.708 L
269.127 100.014 L
270.547 99.322 L
271.967 98.63 L
273.387 97.94 L
274.807 97.25 L
276.227 96.563 L
277.647 95.876 L
279.068 95.191 L
280.488 94.508 L
281.908 93.825 L
283.328 93.145 L
284.748 92.466 L
286.168 91.788 L
287.588 91.112 L
289.008 90.438 L
290.429 89.766 L
291.849 89.095 L
293.269 88.427 L
294.689 87.76 L
296.109 87.095 L
297.529 86.432 L
298.949 85.772 L
300.369 85.113 L
301.79 84.456 L
303.21 83.802 L
304.63 83.149 L
306.05 82.499 L
307.47 81.852 L
308.89 81.206 L
310.31 80.563 L
311.73 79.922 L
313.15 79.284 L
314.571 78.649 L
315.991 78.016 L
317.411 77.385 L
318.831 76.758 L
320.251 76.132 L
321.671 75.51 L
323.091 74.891 L
324.511 74.274 L
325.932 73.66 L
327.352 73.049 L
328.772 72.441 L
330.192 71.836 L
331.612 71.234 L
333.032 70.636 L
334.452 70.04 L
335.872 69.447 L
337.293 68.858 L
338.713 68.272 L
340.133 67.69 L
341.553 67.111 L
342.973 66.535 L
344.393 65.962 L
345.813 65.394 L
347.233 64.828 L
348.653 64.267 L
350.074 63.709 L
351.494 63.154 L
352.914 62.604 L
354.334 62.057 L
355.754 61.514 L
357.174 60.975 L
358.594 60.439 L
360.014 59.908 L
361.435 59.381 L
362.855 58.858 L
364.275 58.338 L
365.695 57.823 L
367.115 57.313 L
368.535 56.806 L
369.955 56.304 L
371.375 55.806 L
372.796 55.312 L
374.216 54.823 L
375.636 54.338 L
377.056 53.858 L
378.476 53.382 L
379.896 52.911 L
381.316 52.444 L
382.736 51.983 L
384.156 51.525 L
385.577 51.073 L
386.997 50.626 L
388.417 50.183 L
389.837 49.745 L
391.257 49.312 L
392.677 48.884 L
394.097 48.462 L
395.517 48.044 L
396.938 47.631 L
398.358 47.224 L
399.778 46.822 L
401.198 46.425 L
402.618 46.033 L
404.038 45.647 L
405.458 45.266 L
406.878 44.89 L
408.299 44.52 L
409.719 44.156 L
411.139 43.797 L
412.559 43.444 L
413.979 43.096 L
415.399 42.754 L
416.819 42.418 L
418.239 42.088 L
419.659 41.763 L
421.08 41.445 L
422.5 41.132 L
423.92 40.825 L
425.34 40.525 L
426.76 40.23 L
428.18 39.942 L
429.6 39.659 L
431.02 39.383 L
432.441 39.114 L
433.861 38.85 L
435.281 38.593 L
436.701 38.342 L
438.121 38.097 L
439.541 37.86 L
440.961 37.628 L
442.381 37.403 L
443.802 37.185 L
445.222 36.973 L
446.642 36.769 L
448.062 36.571 L
449.482 36.379 L
450.902 36.195 L
452.322 36.017 L
453.742 35.846 L
455.163 35.683 L
456.583 35.526 L
458.003 35.376 L
459.423 35.234 L
460.843 35.098 L
462.263 34.97 L
463.683 34.849 L
465.103 34.735 L
466.523 34.629 L
467.944 34.53 L
469.364 34.438 L
470.784 34.354 L
472.204 34.278 L
473.624 34.209 L
475.044 34.147 L
476.464 34.093 L
477.884 34.047 L
479.305 34.009 L
480.725 33.978 L
482.145 33.956 L
483.565 33.941 L
484.985 33.934 L
S
GR
GS
0 0.447 0.741 RC
[10 6] 0 setdash
2 LJ
0.5 LW
N
74.279 369.182 M
75.699 362.353 L
77.119 355.553 L
78.539 348.81 L
79.959 342.151 L
81.38 335.606 L
82.8 329.202 L
84.22 322.968 L
85.64 316.931 L
87.06 311.119 L
88.48 305.562 L
89.9 300.286 L
91.32 295.32 L
92.741 290.693 L
94.161 286.431 L
95.581 282.437 L
97.001 278.526 L
98.421 274.694 L
99.841 270.941 L
101.261 267.266 L
102.681 263.67 L
104.101 260.15 L
105.522 256.707 L
106.942 253.339 L
108.362 250.047 L
109.782 246.829 L
111.202 243.685 L
112.622 240.613 L
114.042 237.615 L
115.462 234.688 L
116.883 231.833 L
118.303 229.048 L
119.723 226.332 L
121.143 223.686 L
122.563 221.109 L
123.983 218.599 L
125.403 216.157 L
126.823 213.781 L
128.244 211.472 L
129.664 209.227 L
131.084 207.047 L
132.504 204.931 L
133.924 202.879 L
135.344 200.889 L
136.764 198.96 L
138.184 197.094 L
139.604 195.287 L
141.025 193.512 L
142.445 191.758 L
143.865 190.025 L
145.285 188.313 L
146.705 186.621 L
148.125 184.949 L
149.545 183.298 L
150.965 181.667 L
152.386 180.055 L
153.806 178.463 L
155.226 176.891 L
156.646 175.338 L
158.066 173.805 L
159.486 172.29 L
160.906 170.795 L
162.326 169.319 L
163.747 167.861 L
165.167 166.422 L
166.587 165.001 L
168.007 163.598 L
169.427 162.214 L
170.847 160.847 L
172.267 159.499 L
173.687 158.168 L
175.107 156.855 L
176.528 155.559 L
177.948 154.28 L
179.368 153.019 L
180.788 151.774 L
182.208 150.546 L
183.628 149.335 L
185.048 148.14 L
186.468 146.962 L
187.889 145.8 L
189.309 144.654 L
190.729 143.524 L
192.149 142.41 L
193.569 141.312 L
194.989 140.229 L
196.409 139.161 L
197.829 138.109 L
199.25 137.071 L
200.67 136.049 L
202.09 135.041 L
203.51 134.048 L
204.93 133.07 L
206.35 132.106 L
207.77 131.156 L
209.19 130.22 L
210.61 129.298 L
212.031 128.39 L
213.451 127.495 L
214.871 126.614 L
216.291 125.746 L
217.711 124.891 L
219.131 124.05 L
220.551 123.221 L
221.971 122.405 L
223.392 121.602 L
224.812 120.811 L
226.232 120.032 L
227.652 119.265 L
229.072 118.511 L
230.492 117.761 L
231.912 117.01 L
233.332 116.261 L
234.753 115.512 L
236.173 114.763 L
237.593 114.015 L
239.013 113.267 L
240.433 112.52 L
241.853 111.774 L
243.273 111.029 L
244.693 110.284 L
246.113 109.54 L
247.534 108.797 L
248.954 108.055 L
250.374 107.314 L
251.794 106.573 L
253.214 105.834 L
254.634 105.097 L
256.054 104.36 L
257.474 103.624 L
258.895 102.89 L
260.315 102.158 L
261.735 101.426 L
263.155 100.696 L
264.575 99.967 L
265.995 99.241 L
267.415 98.515 L
268.835 97.791 L
270.256 97.069 L
271.676 96.349 L
273.096 95.631 L
274.516 94.914 L
275.936 94.199 L
277.356 93.486 L
278.776 92.776 L
280.196 92.067 L
281.616 91.36 L
283.037 90.656 L
284.457 89.953 L
285.877 89.253 L
287.297 88.555 L
288.717 87.86 L
290.137 87.167 L
291.557 86.476 L
292.977 85.788 L
294.398 85.102 L
295.818 84.42 L
297.238 83.739 L
298.658 83.062 L
300.078 82.387 L
301.498 81.715 L
302.918 81.045 L
304.338 80.379 L
305.759 79.716 L
307.179 79.055 L
308.599 78.398 L
310.019 77.744 L
311.439 77.093 L
312.859 76.445 L
314.279 75.801 L
315.699 75.159 L
317.119 74.521 L
318.54 73.887 L
319.96 73.256 L
321.38 72.628 L
322.8 72.004 L
324.22 71.384 L
325.64 70.767 L
327.06 70.154 L
328.48 69.545 L
329.901 68.94 L
331.321 68.338 L
332.741 67.741 L
334.161 67.147 L
335.581 66.557 L
337.001 65.972 L
338.421 65.39 L
339.841 64.813 L
341.262 64.24 L
342.682 63.671 L
344.102 63.107 L
345.522 62.546 L
346.942 61.991 L
348.362 61.439 L
349.782 60.893 L
351.202 60.351 L
352.622 59.813 L
354.043 59.28 L
355.463 58.752 L
356.883 58.229 L
358.303 57.71 L
359.723 57.196 L
361.143 56.688 L
362.563 56.184 L
363.983 55.685 L
365.404 55.191 L
366.824 54.703 L
368.244 54.219 L
369.664 53.741 L
371.084 53.268 L
372.504 52.801 L
373.924 52.339 L
375.344 51.882 L
376.765 51.431 L
378.185 50.985 L
379.605 50.545 L
381.025 50.11 L
382.445 49.681 L
383.865 49.258 L
385.285 48.841 L
386.705 48.429 L
388.126 48.024 L
389.546 47.624 L
390.966 47.23 L
392.386 46.843 L
393.806 46.461 L
395.226 46.086 L
396.646 45.716 L
398.066 45.353 L
399.486 44.997 L
400.907 44.646 L
402.327 44.302 L
403.747 43.965 L
405.167 43.634 L
406.587 43.309 L
408.007 42.991 L
409.427 42.68 L
410.847 42.375 L
412.268 42.077 L
413.688 41.786 L
415.108 41.502 L
416.528 41.224 L
417.948 40.954 L
419.368 40.691 L
420.788 40.434 L
422.208 40.185 L
423.629 39.943 L
425.049 39.708 L
426.469 39.48 L
427.889 39.26 L
429.309 39.047 L
430.729 38.841 L
432.149 38.643 L
433.569 38.452 L
434.989 38.269 L
436.41 38.093 L
437.83 37.925 L
439.25 37.765 L
440.67 37.613 L
442.09 37.468 L
443.51 37.331 L
444.93 37.202 L
446.35 37.081 L
447.771 36.969 L
449.191 36.864 L
450.611 36.767 L
452.031 36.678 L
453.451 36.598 L
454.871 36.526 L
456.291 36.462 L
457.711 36.406 L
459.132 36.359 L
460.552 36.32 L
461.972 36.29 L
463.392 36.269 L
464.812 36.256 L
S
GR
GS
0.851 0.325 0.098 RC
[10 6] 0 setdash
2 LJ
0.5 LW
N
73.075 372.374 M
74.496 365.245 L
75.916 358.145 L
77.336 351.106 L
78.756 344.163 L
80.176 337.348 L
81.596 330.693 L
83.016 324.233 L
84.436 318 L
85.857 312.027 L
87.277 306.346 L
88.697 300.992 L
90.117 295.997 L
91.537 291.394 L
92.957 287.17 L
94.377 283.074 L
95.797 279.065 L
97.218 275.143 L
98.638 271.306 L
100.058 267.553 L
101.478 263.884 L
102.898 260.298 L
104.318 256.794 L
105.738 253.371 L
107.158 250.029 L
108.578 246.766 L
109.999 243.581 L
111.419 240.474 L
112.839 237.445 L
114.259 234.491 L
115.679 231.613 L
117.099 228.81 L
118.519 226.08 L
119.939 223.423 L
121.36 220.838 L
122.78 218.324 L
124.2 215.881 L
125.62 213.507 L
127.04 211.202 L
128.46 208.965 L
129.88 206.795 L
131.3 204.691 L
132.721 202.653 L
134.141 200.679 L
135.561 198.769 L
136.981 196.915 L
138.401 195.086 L
139.821 193.279 L
141.241 191.494 L
142.661 189.73 L
144.081 187.988 L
145.502 186.267 L
146.922 184.567 L
148.342 182.888 L
149.762 181.23 L
151.182 179.593 L
152.602 177.976 L
154.022 176.379 L
155.442 174.803 L
156.863 173.247 L
158.283 171.711 L
159.703 170.195 L
161.123 168.698 L
162.543 167.221 L
163.963 165.763 L
165.383 164.325 L
166.803 162.905 L
168.224 161.505 L
169.644 160.123 L
171.064 158.76 L
172.484 157.416 L
173.904 156.09 L
175.324 154.782 L
176.744 153.492 L
178.164 152.22 L
179.584 150.966 L
181.005 149.729 L
182.425 148.51 L
183.845 147.309 L
185.265 146.124 L
186.685 144.957 L
188.105 143.807 L
189.525 142.673 L
190.945 141.556 L
192.366 140.455 L
193.786 139.371 L
195.206 138.303 L
196.626 137.251 L
198.046 136.215 L
199.466 135.194 L
200.886 134.189 L
202.306 133.2 L
203.727 132.226 L
205.147 131.267 L
206.567 130.323 L
207.987 129.394 L
209.407 128.48 L
210.827 127.581 L
212.247 126.695 L
213.667 125.824 L
215.087 124.968 L
216.508 124.125 L
217.928 123.296 L
219.348 122.481 L
220.768 121.679 L
222.188 120.891 L
223.608 120.116 L
225.028 119.348 L
226.448 118.58 L
227.869 117.813 L
229.289 117.046 L
230.709 116.279 L
232.129 115.514 L
233.549 114.749 L
234.969 113.985 L
236.389 113.221 L
237.809 112.459 L
239.23 111.697 L
240.65 110.937 L
242.07 110.177 L
243.49 109.419 L
244.91 108.662 L
246.33 107.905 L
247.75 107.151 L
249.17 106.397 L
250.59 105.645 L
252.011 104.894 L
253.431 104.144 L
254.851 103.396 L
256.271 102.65 L
257.691 101.905 L
259.111 101.162 L
260.531 100.421 L
261.951 99.681 L
263.372 98.943 L
264.792 98.207 L
266.212 97.473 L
267.632 96.741 L
269.052 96.011 L
270.472 95.283 L
271.892 94.557 L
273.312 93.833 L
274.733 93.112 L
276.153 92.393 L
277.573 91.676 L
278.993 90.962 L
280.413 90.25 L
281.833 89.54 L
283.253 88.833 L
284.673 88.129 L
286.093 87.427 L
287.514 86.728 L
288.934 86.032 L
290.354 85.339 L
291.774 84.648 L
293.194 83.961 L
294.614 83.276 L
296.034 82.594 L
297.454 81.916 L
298.875 81.241 L
300.295 80.568 L
301.715 79.9 L
303.135 79.234 L
304.555 78.571 L
305.975 77.913 L
307.395 77.257 L
308.815 76.605 L
310.236 75.957 L
311.656 75.312 L
313.076 74.671 L
314.496 74.033 L
315.916 73.399 L
317.336 72.77 L
318.756 72.143 L
320.176 71.522 L
321.596 70.903 L
323.017 70.289 L
324.437 69.679 L
325.857 69.073 L
327.277 68.472 L
328.697 67.874 L
330.117 67.281 L
331.537 66.692 L
332.957 66.108 L
334.378 65.528 L
335.798 64.952 L
337.218 64.381 L
338.638 63.815 L
340.058 63.253 L
341.478 62.696 L
342.898 62.144 L
344.318 61.597 L
345.739 61.054 L
347.159 60.517 L
348.579 59.984 L
349.999 59.456 L
351.419 58.934 L
352.839 58.417 L
354.259 57.904 L
355.679 57.397 L
357.099 56.896 L
358.52 56.399 L
359.94 55.908 L
361.36 55.423 L
362.78 54.943 L
364.2 54.468 L
365.62 54 L
367.04 53.537 L
368.46 53.079 L
369.881 52.627 L
371.301 52.182 L
372.721 51.741 L
374.141 51.307 L
375.561 50.879 L
376.981 50.457 L
378.401 50.041 L
379.821 49.631 L
381.242 49.228 L
382.662 48.83 L
384.082 48.439 L
385.502 48.054 L
386.922 47.676 L
388.342 47.304 L
389.762 46.938 L
391.182 46.579 L
392.603 46.227 L
394.023 45.881 L
395.443 45.542 L
396.863 45.21 L
398.283 44.885 L
399.703 44.566 L
401.123 44.255 L
402.543 43.95 L
403.963 43.653 L
405.384 43.362 L
406.804 43.079 L
408.224 42.803 L
409.644 42.534 L
411.064 42.272 L
412.484 42.018 L
413.904 41.771 L
415.324 41.531 L
416.745 41.299 L
418.165 41.075 L
419.585 40.858 L
421.005 40.649 L
422.425 40.448 L
423.845 40.254 L
425.265 40.068 L
426.685 39.89 L
428.105 39.72 L
429.526 39.558 L
430.946 39.404 L
432.366 39.258 L
433.786 39.12 L
435.206 38.991 L
436.626 38.869 L
438.046 38.756 L
439.466 38.651 L
440.887 38.555 L
442.307 38.467 L
443.727 38.388 L
445.147 38.317 L
446.567 38.255 L
447.987 38.201 L
449.407 38.156 L
450.827 38.12 L
452.248 38.093 L
453.668 38.074 L
455.088 38.065 L
S
GR
GS
1 GC
N
499 366 M
499 218.5 L
327.5 218.5 L
327.5 366 L
cp
f
GR
GS
[1 0 0 1 364.5 228.25] CT
/Helvetica 13 F
GS
[1 0 0 1 0 0] CT
0 5 moveto 
1 -1 scale
(Base Run) t 
GR
GR
GS
0 0.447 0.741 RC
1 LJ
0.5 LW
N
331.5 228.25 M
361.5 228.25 L
S
GR
GS
[1 0 0 1 364.5 244.25] CT
/Helvetica 13 F
GS
[1 0 0 1 0 0] CT
0 5 moveto 
1 -1 scale
(All Frames) t 
GR
GR
GS
0.851 0.325 0.098 RC
1 LJ
0.5 LW
N
331.5 244.25 M
361.5 244.25 L
S
GR
GS
[1 0 0 1 364.5 260.25] CT
/Helvetica 13 F
GS
[1 0 0 1 0 0] CT
0 5 moveto 
1 -1 scale
(KF Only) t 
GR
GR
GS
0.929 0.694 0.125 RC
1 LJ
0.5 LW
N
331.5 260.25 M
361.5 260.25 L
S
GR
GS
[1 0 0 1 364.5 276.25] CT
/Helvetica 13 F
GS
[1 0 0 1 0 0] CT
0 5 moveto 
1 -1 scale
(GF, ARF Only) t 
GR
GR
GS
0.494 0.184 0.557 RC
1 LJ
0.5 LW
N
331.5 276.25 M
361.5 276.25 L
S
GR
GS
[1 0 0 1 364.5 292.25] CT
/Helvetica 13 F
GS
[1 0 0 1 0 0] CT
0 5 moveto 
1 -1 scale
(KF, GF, ARF Only) t 
GR
GR
GS
0.467 0.675 0.188 RC
1 LJ
0.5 LW
N
331.5 292.25 M
361.5 292.25 L
S
GR
GS
[1 0 0 1 364.5 308.25] CT
/Helvetica 13 F
GS
[1 0 0 1 0 0] CT
0 5 moveto 
1 -1 scale
(Part All Frames) t 
GR
GR
GS
0.302 0.745 0.933 RC
[10 6] 0 setdash
2 LJ
0.5 LW
N
331.5 308.25 M
361.5 308.25 L
S
GR
GS
[1 0 0 1 364.5 324.25] CT
/Helvetica 13 F
GS
[1 0 0 1 0 0] CT
0 5 moveto 
1 -1 scale
(Part KF Only) t 
GR
GR
GS
0.635 0.078 0.184 RC
[10 6] 0 setdash
2 LJ
0.5 LW
N
331.5 324.25 M
361.5 324.25 L
S
GR
GS
[1 0 0 1 364.5 340.25] CT
/Helvetica 13 F
GS
[1 0 0 1 0 0] CT
0 5 moveto 
1 -1 scale
(Part GF, ARF Only) t 
GR
GR
GS
0 0.447 0.741 RC
[10 6] 0 setdash
2 LJ
0.5 LW
N
331.5 340.25 M
361.5 340.25 L
S
GR
GS
[1 0 0 1 364.5 356.25] CT
/Helvetica 13 F
GS
[1 0 0 1 0 0] CT
0 5 moveto 
1 -1 scale
(Part KF, GF, ARF Only) t 
GR
GR
GS
0.851 0.325 0.098 RC
[10 6] 0 setdash
2 LJ
0.5 LW
N
331.5 356.25 M
361.5 356.25 L
S
GR
GS
0.149 GC
10.0 ML
0.5 LW
N
327.5 366 M
327.5 218.5 L
499 218.5 L
499 366 L
cp
S
GR
%%Trailer
%%Pages: 1
%%EOF
