%!PS-Adobe-3.0 EPSF-3.0
%%Creator: (MATLAB, The Mathworks, Inc. Version 9.11.0.1837725 \(R2021b\) Update 2. Operating System: Mac OS X)
%%Title: plots/pchip/CoverSong_1080P-1b0c.y4m-av1-VMAF.eps
%%CreationDate: 2022-02-03T19:12:46
%%Pages: (atend)
%%BoundingBox:    34   425   508   826
%%LanguageLevel: 3
%%EndComments
%%BeginProlog
%%BeginResource: procset (Apache XML Graphics Std ProcSet) 1.2 0
%%Version: 1.2 0
%%Copyright: (Copyright 2001-2003,2010 The Apache Software Foundation. License terms: http://www.apache.org/licenses/LICENSE-2.0)
/bd{bind def}bind def
/ld{load def}bd
/GR/grestore ld
/GS/gsave ld
/RM/rmoveto ld
/C/curveto ld
/t/show ld
/L/lineto ld
/ML/setmiterlimit ld
/CT/concat ld
/f/fill ld
/N/newpath ld
/S/stroke ld
/CC/setcmykcolor ld
/A/ashow ld
/cp/closepath ld
/RC/setrgbcolor ld
/LJ/setlinejoin ld
/GC/setgray ld
/LW/setlinewidth ld
/M/moveto ld
/re {4 2 roll M
1 index 0 rlineto
0 exch rlineto
neg 0 rlineto
cp } bd
/_ctm matrix def
/_tm matrix def
/BT { _ctm currentmatrix pop matrix _tm copy pop 0 0 moveto } bd
/ET { _ctm setmatrix } bd
/iTm { _ctm setmatrix _tm concat } bd
/Tm { _tm astore pop iTm 0 0 moveto } bd
/ux 0.0 def
/uy 0.0 def
/F {
  /Tp exch def
  /Tf exch def
  Tf findfont Tp scalefont setfont
  /cf Tf def  /cs Tp def
} bd
/ULS {currentpoint /uy exch def /ux exch def} bd
/ULE {
  /Tcx currentpoint pop def
  gsave
  newpath
  cf findfont cs scalefont dup
  /FontMatrix get 0 get /Ts exch def /FontInfo get dup
  /UnderlinePosition get Ts mul /To exch def
  /UnderlineThickness get Ts mul /Tt exch def
  ux uy To add moveto  Tcx uy To add lineto
  Tt setlinewidth stroke
  grestore
} bd
/OLE {
  /Tcx currentpoint pop def
  gsave
  newpath
  cf findfont cs scalefont dup
  /FontMatrix get 0 get /Ts exch def /FontInfo get dup
  /UnderlinePosition get Ts mul /To exch def
  /UnderlineThickness get Ts mul /Tt exch def
  ux uy To add cs add moveto Tcx uy To add cs add lineto
  Tt setlinewidth stroke
  grestore
} bd
/SOE {
  /Tcx currentpoint pop def
  gsave
  newpath
  cf findfont cs scalefont dup
  /FontMatrix get 0 get /Ts exch def /FontInfo get dup
  /UnderlinePosition get Ts mul /To exch def
  /UnderlineThickness get Ts mul /Tt exch def
  ux uy To add cs 10 mul 26 idiv add moveto Tcx uy To add cs 10 mul 26 idiv add lineto
  Tt setlinewidth stroke
  grestore
} bd
/QT {
/Y22 exch store
/X22 exch store
/Y21 exch store
/X21 exch store
currentpoint
/Y21 load 2 mul add 3 div exch
/X21 load 2 mul add 3 div exch
/X21 load 2 mul /X22 load add 3 div
/Y21 load 2 mul /Y22 load add 3 div
/X22 load /Y22 load curveto
} bd
/SSPD {
dup length /d exch dict def
{
/v exch def
/k exch def
currentpagedevice k known {
/cpdv currentpagedevice k get def
v cpdv ne {
/upd false def
/nullv v type /nulltype eq def
/nullcpdv cpdv type /nulltype eq def
nullv nullcpdv or
{
/upd true def
} {
/sametype v type cpdv type eq def
sametype {
v type /arraytype eq {
/vlen v length def
/cpdvlen cpdv length def
vlen cpdvlen eq {
0 1 vlen 1 sub {
/i exch def
/obj v i get def
/cpdobj cpdv i get def
obj cpdobj ne {
/upd true def
exit
} if
} for
} {
/upd true def
} ifelse
} {
v type /dicttype eq {
v {
/dv exch def
/dk exch def
/cpddv cpdv dk get def
dv cpddv ne {
/upd true def
exit
} if
} forall
} {
/upd true def
} ifelse
} ifelse
} if
} ifelse
upd true eq {
d k v put
} if
} if
} if
} forall
d length 0 gt {
d setpagedevice
} if
} bd
/RE { % /NewFontName [NewEncodingArray] /FontName RE -
  findfont dup length dict begin
  {
    1 index /FID ne
    {def} {pop pop} ifelse
  } forall
  /Encoding exch def
  /FontName 1 index def
  currentdict definefont pop
  end
} bind def
%%EndResource
%%BeginResource: procset (Apache XML Graphics EPS ProcSet) 1.0 0
%%Version: 1.0 0
%%Copyright: (Copyright 2002-2003 The Apache Software Foundation. License terms: http://www.apache.org/licenses/LICENSE-2.0)
/BeginEPSF { %def
/b4_Inc_state save def         % Save state for cleanup
/dict_count countdictstack def % Count objects on dict stack
/op_count count 1 sub def      % Count objects on operand stack
userdict begin                 % Push userdict on dict stack
/showpage { } def              % Redefine showpage, { } = null proc
0 setgray 0 setlinecap         % Prepare graphics state
1 setlinewidth 0 setlinejoin
10 setmiterlimit [ ] 0 setdash newpath
/languagelevel where           % If level not equal to 1 then
{pop languagelevel             % set strokeadjust and
1 ne                           % overprint to their defaults.
{false setstrokeadjust false setoverprint
} if
} if
} bd
/EndEPSF { %def
count op_count sub {pop} repeat            % Clean up stacks
countdictstack dict_count sub {end} repeat
b4_Inc_state restore
} bd
%%EndResource
%FOPBeginFontDict
%%IncludeResource: font Courier-Oblique
%%IncludeResource: font Courier-BoldOblique
%%IncludeResource: font Courier-Bold
%%IncludeResource: font ZapfDingbats
%%IncludeResource: font Symbol
%%IncludeResource: font Helvetica
%%IncludeResource: font Helvetica-Oblique
%%IncludeResource: font Helvetica-Bold
%%IncludeResource: font Helvetica-BoldOblique
%%IncludeResource: font Times-Roman
%%IncludeResource: font Times-Italic
%%IncludeResource: font Times-Bold
%%IncludeResource: font Times-BoldItalic
%%IncludeResource: font Courier
%FOPEndFontDict
%%BeginResource: encoding WinAnsiEncoding
/WinAnsiEncoding [
/.notdef /.notdef /.notdef /.notdef /.notdef
/.notdef /.notdef /.notdef /.notdef /.notdef
/.notdef /.notdef /.notdef /.notdef /.notdef
/.notdef /.notdef /.notdef /.notdef /.notdef
/.notdef /.notdef /.notdef /.notdef /.notdef
/.notdef /.notdef /.notdef /.notdef /.notdef
/.notdef /.notdef /space /exclam /quotedbl
/numbersign /dollar /percent /ampersand /quotesingle
/parenleft /parenright /asterisk /plus /comma
/hyphen /period /slash /zero /one
/two /three /four /five /six
/seven /eight /nine /colon /semicolon
/less /equal /greater /question /at
/A /B /C /D /E
/F /G /H /I /J
/K /L /M /N /O
/P /Q /R /S /T
/U /V /W /X /Y
/Z /bracketleft /backslash /bracketright /asciicircum
/underscore /quoteleft /a /b /c
/d /e /f /g /h
/i /j /k /l /m
/n /o /p /q /r
/s /t /u /v /w
/x /y /z /braceleft /bar
/braceright /asciitilde /bullet /Euro /bullet
/quotesinglbase /florin /quotedblbase /ellipsis /dagger
/daggerdbl /circumflex /perthousand /Scaron /guilsinglleft
/OE /bullet /Zcaron /bullet /bullet
/quoteleft /quoteright /quotedblleft /quotedblright /bullet
/endash /emdash /asciitilde /trademark /scaron
/guilsinglright /oe /bullet /zcaron /Ydieresis
/space /exclamdown /cent /sterling /currency
/yen /brokenbar /section /dieresis /copyright
/ordfeminine /guillemotleft /logicalnot /sfthyphen /registered
/macron /degree /plusminus /twosuperior /threesuperior
/acute /mu /paragraph /middot /cedilla
/onesuperior /ordmasculine /guillemotright /onequarter /onehalf
/threequarters /questiondown /Agrave /Aacute /Acircumflex
/Atilde /Adieresis /Aring /AE /Ccedilla
/Egrave /Eacute /Ecircumflex /Edieresis /Igrave
/Iacute /Icircumflex /Idieresis /Eth /Ntilde
/Ograve /Oacute /Ocircumflex /Otilde /Odieresis
/multiply /Oslash /Ugrave /Uacute /Ucircumflex
/Udieresis /Yacute /Thorn /germandbls /agrave
/aacute /acircumflex /atilde /adieresis /aring
/ae /ccedilla /egrave /eacute /ecircumflex
/edieresis /igrave /iacute /icircumflex /idieresis
/eth /ntilde /ograve /oacute /ocircumflex
/otilde /odieresis /divide /oslash /ugrave
/uacute /ucircumflex /udieresis /yacute /thorn
/ydieresis
] def
%%EndResource
%FOPBeginFontReencode
/Courier-Oblique findfont
dup length dict begin
  {1 index /FID ne {def} {pop pop} ifelse} forall
  /Encoding WinAnsiEncoding def
  currentdict
end
/Courier-Oblique exch definefont pop
/Courier-BoldOblique findfont
dup length dict begin
  {1 index /FID ne {def} {pop pop} ifelse} forall
  /Encoding WinAnsiEncoding def
  currentdict
end
/Courier-BoldOblique exch definefont pop
/Courier-Bold findfont
dup length dict begin
  {1 index /FID ne {def} {pop pop} ifelse} forall
  /Encoding WinAnsiEncoding def
  currentdict
end
/Courier-Bold exch definefont pop
/Helvetica findfont
dup length dict begin
  {1 index /FID ne {def} {pop pop} ifelse} forall
  /Encoding WinAnsiEncoding def
  currentdict
end
/Helvetica exch definefont pop
/Helvetica-Oblique findfont
dup length dict begin
  {1 index /FID ne {def} {pop pop} ifelse} forall
  /Encoding WinAnsiEncoding def
  currentdict
end
/Helvetica-Oblique exch definefont pop
/Helvetica-Bold findfont
dup length dict begin
  {1 index /FID ne {def} {pop pop} ifelse} forall
  /Encoding WinAnsiEncoding def
  currentdict
end
/Helvetica-Bold exch definefont pop
/Helvetica-BoldOblique findfont
dup length dict begin
  {1 index /FID ne {def} {pop pop} ifelse} forall
  /Encoding WinAnsiEncoding def
  currentdict
end
/Helvetica-BoldOblique exch definefont pop
/Times-Roman findfont
dup length dict begin
  {1 index /FID ne {def} {pop pop} ifelse} forall
  /Encoding WinAnsiEncoding def
  currentdict
end
/Times-Roman exch definefont pop
/Times-Italic findfont
dup length dict begin
  {1 index /FID ne {def} {pop pop} ifelse} forall
  /Encoding WinAnsiEncoding def
  currentdict
end
/Times-Italic exch definefont pop
/Times-Bold findfont
dup length dict begin
  {1 index /FID ne {def} {pop pop} ifelse} forall
  /Encoding WinAnsiEncoding def
  currentdict
end
/Times-Bold exch definefont pop
/Times-BoldItalic findfont
dup length dict begin
  {1 index /FID ne {def} {pop pop} ifelse} forall
  /Encoding WinAnsiEncoding def
  currentdict
end
/Times-BoldItalic exch definefont pop
/Courier findfont
dup length dict begin
  {1 index /FID ne {def} {pop pop} ifelse} forall
  /Encoding WinAnsiEncoding def
  currentdict
end
/Courier exch definefont pop
%FOPEndFontReencode
%%EndProlog
%%Page: 1 1
%%PageBoundingBox: 0 0 1120 840
%%BeginPageSetup
[1 0 0 -1 0 840] CT
%%EndPageSetup
GS
1 GC
N
0 0 1120 840 re
f
GR
GS
1 GC
N
73 374 M
507 374 L
507 31.5 L
73 31.5 L
cp
f
GR
GS
0.149 GC
2 setlinecap
1 LJ
0.5 LW
N
73 374 M
507 374 L
S
GR
GS
0.149 GC
2 setlinecap
1 LJ
0.5 LW
N
73 31.5 M
507 31.5 L
S
GR
GS
0.149 GC
2 setlinecap
1 LJ
0.5 LW
N
117.551 374 M
117.551 369.66 L
S
GR
GS
0.149 GC
2 setlinecap
1 LJ
0.5 LW
N
188.557 374 M
188.557 369.66 L
S
GR
GS
0.149 GC
2 setlinecap
1 LJ
0.5 LW
N
259.563 374 M
259.563 369.66 L
S
GR
GS
0.149 GC
2 setlinecap
1 LJ
0.5 LW
N
330.569 374 M
330.569 369.66 L
S
GR
GS
0.149 GC
2 setlinecap
1 LJ
0.5 LW
N
401.575 374 M
401.575 369.66 L
S
GR
GS
0.149 GC
2 setlinecap
1 LJ
0.5 LW
N
472.581 374 M
472.581 369.66 L
S
GR
GS
0.149 GC
2 setlinecap
1 LJ
0.5 LW
N
117.551 31.5 M
117.551 35.84 L
S
GR
GS
0.149 GC
2 setlinecap
1 LJ
0.5 LW
N
188.557 31.5 M
188.557 35.84 L
S
GR
GS
0.149 GC
2 setlinecap
1 LJ
0.5 LW
N
259.563 31.5 M
259.563 35.84 L
S
GR
GS
0.149 GC
2 setlinecap
1 LJ
0.5 LW
N
330.569 31.5 M
330.569 35.84 L
S
GR
GS
0.149 GC
2 setlinecap
1 LJ
0.5 LW
N
401.575 31.5 M
401.575 35.84 L
S
GR
GS
0.149 GC
2 setlinecap
1 LJ
0.5 LW
N
472.581 31.5 M
472.581 35.84 L
S
GR
GS
0.149 GC
2 setlinecap
1 LJ
0.5 LW
N
74.947 374 M
74.947 371.83 L
S
GR
GS
0.149 GC
2 setlinecap
1 LJ
0.5 LW
N
89.148 374 M
89.148 371.83 L
S
GR
GS
0.149 GC
2 setlinecap
1 LJ
0.5 LW
N
103.349 374 M
103.349 371.83 L
S
GR
GS
0.149 GC
2 setlinecap
1 LJ
0.5 LW
N
131.752 374 M
131.752 371.83 L
S
GR
GS
0.149 GC
2 setlinecap
1 LJ
0.5 LW
N
145.953 374 M
145.953 371.83 L
S
GR
GS
0.149 GC
2 setlinecap
1 LJ
0.5 LW
N
160.154 374 M
160.154 371.83 L
S
GR
GS
0.149 GC
2 setlinecap
1 LJ
0.5 LW
N
174.355 374 M
174.355 371.83 L
S
GR
GS
0.149 GC
2 setlinecap
1 LJ
0.5 LW
N
202.758 374 M
202.758 371.83 L
S
GR
GS
0.149 GC
2 setlinecap
1 LJ
0.5 LW
N
216.959 374 M
216.959 371.83 L
S
GR
GS
0.149 GC
2 setlinecap
1 LJ
0.5 LW
N
231.16 374 M
231.16 371.83 L
S
GR
GS
0.149 GC
2 setlinecap
1 LJ
0.5 LW
N
245.361 374 M
245.361 371.83 L
S
GR
GS
0.149 GC
2 setlinecap
1 LJ
0.5 LW
N
273.764 374 M
273.764 371.83 L
S
GR
GS
0.149 GC
2 setlinecap
1 LJ
0.5 LW
N
287.965 374 M
287.965 371.83 L
S
GR
GS
0.149 GC
2 setlinecap
1 LJ
0.5 LW
N
302.166 374 M
302.166 371.83 L
S
GR
GS
0.149 GC
2 setlinecap
1 LJ
0.5 LW
N
316.367 374 M
316.367 371.83 L
S
GR
GS
0.149 GC
2 setlinecap
1 LJ
0.5 LW
N
344.77 374 M
344.77 371.83 L
S
GR
GS
0.149 GC
2 setlinecap
1 LJ
0.5 LW
N
358.971 374 M
358.971 371.83 L
S
GR
GS
0.149 GC
2 setlinecap
1 LJ
0.5 LW
N
373.172 374 M
373.172 371.83 L
S
GR
GS
0.149 GC
2 setlinecap
1 LJ
0.5 LW
N
387.373 374 M
387.373 371.83 L
S
GR
GS
0.149 GC
2 setlinecap
1 LJ
0.5 LW
N
415.776 374 M
415.776 371.83 L
S
GR
GS
0.149 GC
2 setlinecap
1 LJ
0.5 LW
N
429.977 374 M
429.977 371.83 L
S
GR
GS
0.149 GC
2 setlinecap
1 LJ
0.5 LW
N
444.178 374 M
444.178 371.83 L
S
GR
GS
0.149 GC
2 setlinecap
1 LJ
0.5 LW
N
458.379 374 M
458.379 371.83 L
S
GR
GS
0.149 GC
2 setlinecap
1 LJ
0.5 LW
N
486.782 374 M
486.782 371.83 L
S
GR
GS
0.149 GC
2 setlinecap
1 LJ
0.5 LW
N
500.983 374 M
500.983 371.83 L
S
GR
GS
0.149 GC
2 setlinecap
1 LJ
0.5 LW
N
74.947 31.5 M
74.947 33.67 L
S
GR
GS
0.149 GC
2 setlinecap
1 LJ
0.5 LW
N
89.148 31.5 M
89.148 33.67 L
S
GR
GS
0.149 GC
2 setlinecap
1 LJ
0.5 LW
N
103.349 31.5 M
103.349 33.67 L
S
GR
GS
0.149 GC
2 setlinecap
1 LJ
0.5 LW
N
131.752 31.5 M
131.752 33.67 L
S
GR
GS
0.149 GC
2 setlinecap
1 LJ
0.5 LW
N
145.953 31.5 M
145.953 33.67 L
S
GR
GS
0.149 GC
2 setlinecap
1 LJ
0.5 LW
N
160.154 31.5 M
160.154 33.67 L
S
GR
GS
0.149 GC
2 setlinecap
1 LJ
0.5 LW
N
174.355 31.5 M
174.355 33.67 L
S
GR
GS
0.149 GC
2 setlinecap
1 LJ
0.5 LW
N
202.758 31.5 M
202.758 33.67 L
S
GR
GS
0.149 GC
2 setlinecap
1 LJ
0.5 LW
N
216.959 31.5 M
216.959 33.67 L
S
GR
GS
0.149 GC
2 setlinecap
1 LJ
0.5 LW
N
231.16 31.5 M
231.16 33.67 L
S
GR
GS
0.149 GC
2 setlinecap
1 LJ
0.5 LW
N
245.361 31.5 M
245.361 33.67 L
S
GR
GS
0.149 GC
2 setlinecap
1 LJ
0.5 LW
N
273.764 31.5 M
273.764 33.67 L
S
GR
GS
0.149 GC
2 setlinecap
1 LJ
0.5 LW
N
287.965 31.5 M
287.965 33.67 L
S
GR
GS
0.149 GC
2 setlinecap
1 LJ
0.5 LW
N
302.166 31.5 M
302.166 33.67 L
S
GR
GS
0.149 GC
2 setlinecap
1 LJ
0.5 LW
N
316.367 31.5 M
316.367 33.67 L
S
GR
GS
0.149 GC
2 setlinecap
1 LJ
0.5 LW
N
344.77 31.5 M
344.77 33.67 L
S
GR
GS
0.149 GC
2 setlinecap
1 LJ
0.5 LW
N
358.971 31.5 M
358.971 33.67 L
S
GR
GS
0.149 GC
2 setlinecap
1 LJ
0.5 LW
N
373.172 31.5 M
373.172 33.67 L
S
GR
GS
0.149 GC
2 setlinecap
1 LJ
0.5 LW
N
387.373 31.5 M
387.373 33.67 L
S
GR
GS
0.149 GC
2 setlinecap
1 LJ
0.5 LW
N
415.776 31.5 M
415.776 33.67 L
S
GR
GS
0.149 GC
2 setlinecap
1 LJ
0.5 LW
N
429.977 31.5 M
429.977 33.67 L
S
GR
GS
0.149 GC
2 setlinecap
1 LJ
0.5 LW
N
444.178 31.5 M
444.178 33.67 L
S
GR
GS
0.149 GC
2 setlinecap
1 LJ
0.5 LW
N
458.379 31.5 M
458.379 33.67 L
S
GR
GS
0.149 GC
2 setlinecap
1 LJ
0.5 LW
N
486.782 31.5 M
486.782 33.67 L
S
GR
GS
0.149 GC
2 setlinecap
1 LJ
0.5 LW
N
500.983 31.5 M
500.983 33.67 L
S
GR
GS
[1 0 0 1 117.5506 378.79999] CT
0.149 GC
/Helvetica 14 F
GS
[1 0 0 1 0 0] CT
-16 14 moveto 
1 -1 scale
(1000) t 
GR
GR
GS
[1 0 0 1 188.55661 378.79999] CT
0.149 GC
/Helvetica 14 F
GS
[1 0 0 1 0 0] CT
-16 14 moveto 
1 -1 scale
(2000) t 
GR
GR
GS
[1 0 0 1 259.56262 378.79999] CT
0.149 GC
/Helvetica 14 F
GS
[1 0 0 1 0 0] CT
-16 14 moveto 
1 -1 scale
(3000) t 
GR
GR
GS
[1 0 0 1 330.56863 378.79999] CT
0.149 GC
/Helvetica 14 F
GS
[1 0 0 1 0 0] CT
-16 14 moveto 
1 -1 scale
(4000) t 
GR
GR
GS
[1 0 0 1 401.57465 378.79999] CT
0.149 GC
/Helvetica 14 F
GS
[1 0 0 1 0 0] CT
-16 14 moveto 
1 -1 scale
(5000) t 
GR
GR
GS
[1 0 0 1 472.58063 378.79999] CT
0.149 GC
/Helvetica 14 F
GS
[1 0 0 1 0 0] CT
-16 14 moveto 
1 -1 scale
(6000) t 
GR
GR
GS
[1 0 0 1 290.00021 396.29999] CT
0.149 GC
/Helvetica 15.4 F
GS
[1 0 0 1 0 0] CT
-42 15 moveto 
1 -1 scale
(Bitrate\(kb/s\)) t 
GR
GR
GS
0.149 GC
2 setlinecap
1 LJ
0.5 LW
N
73 374 M
73 31.5 L
S
GR
GS
0.149 GC
2 setlinecap
1 LJ
0.5 LW
N
507 374 M
507 31.5 L
S
GR
GS
0.149 GC
2 setlinecap
1 LJ
0.5 LW
N
73 351.268 M
77.34 351.268 L
S
GR
GS
0.149 GC
2 setlinecap
1 LJ
0.5 LW
N
73 300.511 M
77.34 300.511 L
S
GR
GS
0.149 GC
2 setlinecap
1 LJ
0.5 LW
N
73 249.755 M
77.34 249.755 L
S
GR
GS
0.149 GC
2 setlinecap
1 LJ
0.5 LW
N
73 198.999 M
77.34 198.999 L
S
GR
GS
0.149 GC
2 setlinecap
1 LJ
0.5 LW
N
73 148.242 M
77.34 148.242 L
S
GR
GS
0.149 GC
2 setlinecap
1 LJ
0.5 LW
N
73 97.486 M
77.34 97.486 L
S
GR
GS
0.149 GC
2 setlinecap
1 LJ
0.5 LW
N
73 46.729 M
77.34 46.729 L
S
GR
GS
0.149 GC
2 setlinecap
1 LJ
0.5 LW
N
507 351.268 M
502.66 351.268 L
S
GR
GS
0.149 GC
2 setlinecap
1 LJ
0.5 LW
N
507 300.511 M
502.66 300.511 L
S
GR
GS
0.149 GC
2 setlinecap
1 LJ
0.5 LW
N
507 249.755 M
502.66 249.755 L
S
GR
GS
0.149 GC
2 setlinecap
1 LJ
0.5 LW
N
507 198.999 M
502.66 198.999 L
S
GR
GS
0.149 GC
2 setlinecap
1 LJ
0.5 LW
N
507 148.242 M
502.66 148.242 L
S
GR
GS
0.149 GC
2 setlinecap
1 LJ
0.5 LW
N
507 97.486 M
502.66 97.486 L
S
GR
GS
0.149 GC
2 setlinecap
1 LJ
0.5 LW
N
507 46.729 M
502.66 46.729 L
S
GR
GS
0.149 GC
2 setlinecap
1 LJ
0.5 LW
N
73 371.57 M
75.17 371.57 L
S
GR
GS
0.149 GC
2 setlinecap
1 LJ
0.5 LW
N
73 361.419 M
75.17 361.419 L
S
GR
GS
0.149 GC
2 setlinecap
1 LJ
0.5 LW
N
73 341.117 M
75.17 341.117 L
S
GR
GS
0.149 GC
2 setlinecap
1 LJ
0.5 LW
N
73 330.965 M
75.17 330.965 L
S
GR
GS
0.149 GC
2 setlinecap
1 LJ
0.5 LW
N
73 320.814 M
75.17 320.814 L
S
GR
GS
0.149 GC
2 setlinecap
1 LJ
0.5 LW
N
73 310.663 M
75.17 310.663 L
S
GR
GS
0.149 GC
2 setlinecap
1 LJ
0.5 LW
N
73 290.36 M
75.17 290.36 L
S
GR
GS
0.149 GC
2 setlinecap
1 LJ
0.5 LW
N
73 280.209 M
75.17 280.209 L
S
GR
GS
0.149 GC
2 setlinecap
1 LJ
0.5 LW
N
73 270.058 M
75.17 270.058 L
S
GR
GS
0.149 GC
2 setlinecap
1 LJ
0.5 LW
N
73 259.906 M
75.17 259.906 L
S
GR
GS
0.149 GC
2 setlinecap
1 LJ
0.5 LW
N
73 239.604 M
75.17 239.604 L
S
GR
GS
0.149 GC
2 setlinecap
1 LJ
0.5 LW
N
73 229.452 M
75.17 229.452 L
S
GR
GS
0.149 GC
2 setlinecap
1 LJ
0.5 LW
N
73 219.301 M
75.17 219.301 L
S
GR
GS
0.149 GC
2 setlinecap
1 LJ
0.5 LW
N
73 209.15 M
75.17 209.15 L
S
GR
GS
0.149 GC
2 setlinecap
1 LJ
0.5 LW
N
73 188.847 M
75.17 188.847 L
S
GR
GS
0.149 GC
2 setlinecap
1 LJ
0.5 LW
N
73 178.696 M
75.17 178.696 L
S
GR
GS
0.149 GC
2 setlinecap
1 LJ
0.5 LW
N
73 168.545 M
75.17 168.545 L
S
GR
GS
0.149 GC
2 setlinecap
1 LJ
0.5 LW
N
73 158.393 M
75.17 158.393 L
S
GR
GS
0.149 GC
2 setlinecap
1 LJ
0.5 LW
N
73 138.091 M
75.17 138.091 L
S
GR
GS
0.149 GC
2 setlinecap
1 LJ
0.5 LW
N
73 127.94 M
75.17 127.94 L
S
GR
GS
0.149 GC
2 setlinecap
1 LJ
0.5 LW
N
73 117.788 M
75.17 117.788 L
S
GR
GS
0.149 GC
2 setlinecap
1 LJ
0.5 LW
N
73 107.637 M
75.17 107.637 L
S
GR
GS
0.149 GC
2 setlinecap
1 LJ
0.5 LW
N
73 87.334 M
75.17 87.334 L
S
GR
GS
0.149 GC
2 setlinecap
1 LJ
0.5 LW
N
73 77.183 M
75.17 77.183 L
S
GR
GS
0.149 GC
2 setlinecap
1 LJ
0.5 LW
N
73 67.032 M
75.17 67.032 L
S
GR
GS
0.149 GC
2 setlinecap
1 LJ
0.5 LW
N
73 56.881 M
75.17 56.881 L
S
GR
GS
0.149 GC
2 setlinecap
1 LJ
0.5 LW
N
73 36.578 M
75.17 36.578 L
S
GR
GS
0.149 GC
2 setlinecap
1 LJ
0.5 LW
N
507 371.57 M
504.83 371.57 L
S
GR
GS
0.149 GC
2 setlinecap
1 LJ
0.5 LW
N
507 361.419 M
504.83 361.419 L
S
GR
GS
0.149 GC
2 setlinecap
1 LJ
0.5 LW
N
507 341.117 M
504.83 341.117 L
S
GR
GS
0.149 GC
2 setlinecap
1 LJ
0.5 LW
N
507 330.965 M
504.83 330.965 L
S
GR
GS
0.149 GC
2 setlinecap
1 LJ
0.5 LW
N
507 320.814 M
504.83 320.814 L
S
GR
GS
0.149 GC
2 setlinecap
1 LJ
0.5 LW
N
507 310.663 M
504.83 310.663 L
S
GR
GS
0.149 GC
2 setlinecap
1 LJ
0.5 LW
N
507 290.36 M
504.83 290.36 L
S
GR
GS
0.149 GC
2 setlinecap
1 LJ
0.5 LW
N
507 280.209 M
504.83 280.209 L
S
GR
GS
0.149 GC
2 setlinecap
1 LJ
0.5 LW
N
507 270.058 M
504.83 270.058 L
S
GR
GS
0.149 GC
2 setlinecap
1 LJ
0.5 LW
N
507 259.906 M
504.83 259.906 L
S
GR
GS
0.149 GC
2 setlinecap
1 LJ
0.5 LW
N
507 239.604 M
504.83 239.604 L
S
GR
GS
0.149 GC
2 setlinecap
1 LJ
0.5 LW
N
507 229.452 M
504.83 229.452 L
S
GR
GS
0.149 GC
2 setlinecap
1 LJ
0.5 LW
N
507 219.301 M
504.83 219.301 L
S
GR
GS
0.149 GC
2 setlinecap
1 LJ
0.5 LW
N
507 209.15 M
504.83 209.15 L
S
GR
GS
0.149 GC
2 setlinecap
1 LJ
0.5 LW
N
507 188.847 M
504.83 188.847 L
S
GR
GS
0.149 GC
2 setlinecap
1 LJ
0.5 LW
N
507 178.696 M
504.83 178.696 L
S
GR
GS
0.149 GC
2 setlinecap
1 LJ
0.5 LW
N
507 168.545 M
504.83 168.545 L
S
GR
GS
0.149 GC
2 setlinecap
1 LJ
0.5 LW
N
507 158.393 M
504.83 158.393 L
S
GR
GS
0.149 GC
2 setlinecap
1 LJ
0.5 LW
N
507 138.091 M
504.83 138.091 L
S
GR
GS
0.149 GC
2 setlinecap
1 LJ
0.5 LW
N
507 127.94 M
504.83 127.94 L
S
GR
GS
0.149 GC
2 setlinecap
1 LJ
0.5 LW
N
507 117.788 M
504.83 117.788 L
S
GR
GS
0.149 GC
2 setlinecap
1 LJ
0.5 LW
N
507 107.637 M
504.83 107.637 L
S
GR
GS
0.149 GC
2 setlinecap
1 LJ
0.5 LW
N
507 87.334 M
504.83 87.334 L
S
GR
GS
0.149 GC
2 setlinecap
1 LJ
0.5 LW
N
507 77.183 M
504.83 77.183 L
S
GR
GS
0.149 GC
2 setlinecap
1 LJ
0.5 LW
N
507 67.032 M
504.83 67.032 L
S
GR
GS
0.149 GC
2 setlinecap
1 LJ
0.5 LW
N
507 56.881 M
504.83 56.881 L
S
GR
GS
0.149 GC
2 setlinecap
1 LJ
0.5 LW
N
507 36.578 M
504.83 36.578 L
S
GR
GS
[1 0 0 1 68.2 351.26788] CT
0.149 GC
/Helvetica 14 F
GS
[1 0 0 1 0 0] CT
-16 5.5 moveto 
1 -1 scale
(65) t 
GR
GR
GS
[1 0 0 1 68.2 300.51144] CT
0.149 GC
/Helvetica 14 F
GS
[1 0 0 1 0 0] CT
-16 5.5 moveto 
1 -1 scale
(70) t 
GR
GR
GS
[1 0 0 1 68.2 249.755] CT
0.149 GC
/Helvetica 14 F
GS
[1 0 0 1 0 0] CT
-16 5.5 moveto 
1 -1 scale
(75) t 
GR
GR
GS
[1 0 0 1 68.2 198.99855] CT
0.149 GC
/Helvetica 14 F
GS
[1 0 0 1 0 0] CT
-16 5.5 moveto 
1 -1 scale
(80) t 
GR
GR
GS
[1 0 0 1 68.2 148.24211] CT
0.149 GC
/Helvetica 14 F
GS
[1 0 0 1 0 0] CT
-16 5.5 moveto 
1 -1 scale
(85) t 
GR
GR
GS
[1 0 0 1 68.2 97.48566] CT
0.149 GC
/Helvetica 14 F
GS
[1 0 0 1 0 0] CT
-16 5.5 moveto 
1 -1 scale
(90) t 
GR
GR
GS
[1 0 0 1 68.2 46.72922] CT
0.149 GC
/Helvetica 14 F
GS
[1 0 0 1 0 0] CT
-16 5.5 moveto 
1 -1 scale
(95) t 
GR
GR
GS
[0 -1 1 0 49.2 202.74983] CT
0.149 GC
/Helvetica 15.4 F
GS
[1 0 0 1 0 0] CT
-21 -4 moveto 
1 -1 scale
(VMAF) t 
GR
GR
GS
[1 0 0 1 290.00027 29.57499] CT
/Helvetica-Bold 15.4 F
GS
[1 0 0 1 0 0] CT
-121 -4 moveto 
1 -1 scale
(CoverSong_1080P-1b0c.y4m-av1) t 
GR
GR
GS
0 0.447 0.741 RC
1 LJ
0.5 LW
N
78.124 346.326 M
79.544 338.908 L
80.964 331.516 L
82.384 324.177 L
83.804 316.915 L
85.224 309.755 L
86.644 302.724 L
88.065 295.846 L
89.485 289.146 L
90.905 282.65 L
92.325 276.382 L
93.745 270.369 L
95.165 264.635 L
96.585 259.205 L
98.005 254.105 L
99.426 249.36 L
100.846 244.99 L
102.266 240.796 L
103.686 236.668 L
105.106 232.607 L
106.526 228.613 L
107.946 224.688 L
109.366 220.832 L
110.786 217.046 L
112.207 213.331 L
113.627 209.687 L
115.047 206.115 L
116.467 202.615 L
117.887 199.189 L
119.307 195.838 L
120.727 192.561 L
122.147 189.36 L
123.568 186.235 L
124.988 183.187 L
126.408 180.218 L
127.828 177.326 L
129.248 174.514 L
130.668 171.782 L
132.088 169.13 L
133.508 166.56 L
134.929 164.072 L
136.349 161.667 L
137.769 159.346 L
139.189 157.109 L
140.609 154.956 L
142.029 152.89 L
143.449 150.91 L
144.869 149.017 L
146.289 147.212 L
147.71 145.496 L
149.13 143.869 L
150.55 142.312 L
151.97 140.775 L
153.39 139.256 L
154.81 137.755 L
156.23 136.272 L
157.65 134.807 L
159.071 133.36 L
160.491 131.93 L
161.911 130.519 L
163.331 129.125 L
164.751 127.748 L
166.171 126.389 L
167.591 125.048 L
169.011 123.724 L
170.432 122.418 L
171.852 121.129 L
173.272 119.858 L
174.692 118.604 L
176.112 117.367 L
177.532 116.147 L
178.952 114.945 L
180.372 113.76 L
181.792 112.592 L
183.213 111.441 L
184.633 110.307 L
186.053 109.19 L
187.473 108.09 L
188.893 107.007 L
190.313 105.941 L
191.733 104.892 L
193.153 103.859 L
194.574 102.843 L
195.994 101.844 L
197.414 100.862 L
198.834 99.896 L
200.254 98.947 L
201.674 98.014 L
203.094 97.098 L
204.514 96.198 L
205.935 95.314 L
207.355 94.447 L
208.775 93.596 L
210.195 92.762 L
211.615 91.944 L
213.035 91.141 L
214.455 90.355 L
215.875 89.585 L
217.295 88.832 L
218.716 88.094 L
220.136 87.372 L
221.556 86.666 L
222.976 85.976 L
224.396 85.302 L
225.816 84.643 L
227.236 84 L
228.656 83.373 L
230.077 82.762 L
231.497 82.166 L
232.917 81.586 L
234.337 81.021 L
235.757 80.472 L
237.177 79.938 L
238.597 79.42 L
240.017 78.917 L
241.438 78.429 L
242.858 77.957 L
244.278 77.5 L
245.698 77.058 L
247.118 76.624 L
248.538 76.193 L
249.958 75.762 L
251.378 75.333 L
252.798 74.905 L
254.219 74.479 L
255.639 74.054 L
257.059 73.631 L
258.479 73.209 L
259.899 72.789 L
261.319 72.37 L
262.739 71.953 L
264.159 71.537 L
265.58 71.123 L
267 70.71 L
268.42 70.299 L
269.84 69.889 L
271.26 69.481 L
272.68 69.075 L
274.1 68.67 L
275.52 68.266 L
276.941 67.865 L
278.361 67.465 L
279.781 67.066 L
281.201 66.669 L
282.621 66.274 L
284.041 65.881 L
285.461 65.489 L
286.881 65.099 L
288.302 64.71 L
289.722 64.324 L
291.142 63.939 L
292.562 63.555 L
293.982 63.174 L
295.402 62.794 L
296.822 62.416 L
298.242 62.039 L
299.662 61.665 L
301.083 61.292 L
302.503 60.921 L
303.923 60.552 L
305.343 60.184 L
306.763 59.819 L
308.183 59.455 L
309.603 59.093 L
311.023 58.733 L
312.444 58.375 L
313.864 58.019 L
315.284 57.665 L
316.704 57.312 L
318.124 56.962 L
319.544 56.613 L
320.964 56.266 L
322.384 55.922 L
323.805 55.579 L
325.225 55.238 L
326.645 54.899 L
328.065 54.562 L
329.485 54.227 L
330.905 53.894 L
332.325 53.563 L
333.745 53.234 L
335.165 52.908 L
336.586 52.583 L
338.006 52.26 L
339.426 51.939 L
340.846 51.621 L
342.266 51.304 L
343.686 50.99 L
345.106 50.678 L
346.526 50.367 L
347.947 50.059 L
349.367 49.753 L
350.787 49.45 L
352.207 49.148 L
353.627 48.848 L
355.047 48.551 L
356.467 48.256 L
357.887 47.963 L
359.307 47.672 L
360.728 47.384 L
362.148 47.098 L
363.568 46.814 L
364.988 46.532 L
366.408 46.253 L
367.828 45.975 L
369.248 45.7 L
370.668 45.428 L
372.089 45.157 L
373.509 44.889 L
374.929 44.624 L
376.349 44.36 L
377.769 44.099 L
379.189 43.84 L
380.609 43.584 L
382.029 43.33 L
383.45 43.079 L
384.87 42.83 L
386.29 42.583 L
387.71 42.338 L
389.13 42.097 L
390.55 41.857 L
391.97 41.62 L
393.39 41.385 L
394.811 41.153 L
396.231 40.924 L
397.651 40.697 L
399.071 40.472 L
400.491 40.25 L
401.911 40.03 L
403.331 39.813 L
404.751 39.599 L
406.171 39.387 L
407.592 39.177 L
409.012 38.97 L
410.432 38.766 L
411.852 38.564 L
413.272 38.365 L
414.692 38.169 L
416.112 37.975 L
417.532 37.784 L
418.953 37.595 L
420.373 37.409 L
421.793 37.226 L
423.213 37.046 L
424.633 36.868 L
426.053 36.692 L
427.473 36.52 L
428.893 36.35 L
430.314 36.183 L
431.734 36.019 L
433.154 35.857 L
434.574 35.699 L
435.994 35.543 L
437.414 35.389 L
438.834 35.239 L
440.254 35.091 L
441.674 34.946 L
443.095 34.804 L
444.515 34.665 L
445.935 34.529 L
447.355 34.395 L
448.775 34.265 L
450.195 34.137 L
451.615 34.012 L
453.035 33.89 L
454.456 33.771 L
455.876 33.655 L
457.296 33.541 L
458.716 33.431 L
460.136 33.324 L
461.556 33.219 L
462.976 33.118 L
464.396 33.019 L
465.817 32.924 L
467.237 32.831 L
468.657 32.742 L
470.077 32.655 L
471.497 32.572 L
472.917 32.492 L
474.337 32.414 L
475.757 32.34 L
477.177 32.269 L
478.598 32.2 L
480.018 32.135 L
481.438 32.073 L
482.858 32.015 L
484.278 31.959 L
485.698 31.906 L
487.118 31.857 L
488.538 31.811 L
489.959 31.767 L
491.379 31.727 L
492.799 31.691 L
494.219 31.657 L
495.639 31.627 L
497.059 31.599 L
498.479 31.575 L
499.899 31.555 L
501.32 31.537 L
502.74 31.523 L
504.16 31.512 L
505.58 31.504 L
507 31.5 L
S
GR
GS
0.851 0.325 0.098 RC
1 LJ
0.5 LW
N
74.567 374 M
75.988 365.206 L
77.408 356.457 L
78.828 347.789 L
80.248 339.24 L
81.668 330.847 L
83.088 322.647 L
84.508 314.677 L
85.928 306.974 L
87.348 299.575 L
88.769 292.517 L
90.189 285.838 L
91.609 279.574 L
93.029 273.763 L
94.449 268.439 L
95.869 263.372 L
97.289 258.392 L
98.709 253.502 L
100.13 248.702 L
101.55 243.995 L
102.97 239.381 L
104.39 234.861 L
105.81 230.437 L
107.23 226.111 L
108.65 221.883 L
110.07 217.755 L
111.491 213.729 L
112.911 209.804 L
114.331 205.984 L
115.751 202.268 L
117.171 198.659 L
118.591 195.158 L
120.011 191.765 L
121.431 188.483 L
122.852 185.312 L
124.272 182.254 L
125.692 179.311 L
127.112 176.483 L
128.532 173.772 L
129.952 171.178 L
131.372 168.705 L
132.792 166.352 L
134.212 164.121 L
135.633 162.013 L
137.053 160.029 L
138.473 158.11 L
139.893 156.216 L
141.313 154.347 L
142.733 152.503 L
144.153 150.684 L
145.573 148.89 L
146.994 147.12 L
148.414 145.376 L
149.834 143.656 L
151.254 141.961 L
152.674 140.29 L
154.094 138.644 L
155.514 137.022 L
156.934 135.425 L
158.355 133.852 L
159.775 132.303 L
161.195 130.779 L
162.615 129.279 L
164.035 127.802 L
165.455 126.35 L
166.875 124.922 L
168.295 123.518 L
169.715 122.138 L
171.136 120.781 L
172.556 119.448 L
173.976 118.139 L
175.396 116.854 L
176.816 115.592 L
178.236 114.354 L
179.656 113.139 L
181.076 111.947 L
182.497 110.779 L
183.917 109.634 L
185.337 108.513 L
186.757 107.414 L
188.177 106.339 L
189.597 105.286 L
191.017 104.257 L
192.437 103.251 L
193.858 102.267 L
195.278 101.306 L
196.698 100.368 L
198.118 99.453 L
199.538 98.56 L
200.958 97.69 L
202.378 96.842 L
203.798 96.017 L
205.218 95.214 L
206.639 94.434 L
208.059 93.676 L
209.479 92.94 L
210.899 92.226 L
212.319 91.534 L
213.739 90.864 L
215.159 90.217 L
216.579 89.591 L
218 88.987 L
219.42 88.405 L
220.84 87.844 L
222.26 87.297 L
223.68 86.752 L
225.1 86.209 L
226.52 85.668 L
227.94 85.129 L
229.361 84.592 L
230.781 84.057 L
232.201 83.524 L
233.621 82.993 L
235.041 82.465 L
236.461 81.938 L
237.881 81.414 L
239.301 80.891 L
240.721 80.371 L
242.142 79.854 L
243.562 79.338 L
244.982 78.825 L
246.402 78.313 L
247.822 77.804 L
249.242 77.298 L
250.662 76.794 L
252.082 76.292 L
253.503 75.792 L
254.923 75.295 L
256.343 74.8 L
257.763 74.307 L
259.183 73.817 L
260.603 73.329 L
262.023 72.844 L
263.443 72.361 L
264.864 71.881 L
266.284 71.403 L
267.704 70.928 L
269.124 70.455 L
270.544 69.985 L
271.964 69.517 L
273.384 69.052 L
274.804 68.589 L
276.224 68.13 L
277.645 67.672 L
279.065 67.218 L
280.485 66.766 L
281.905 66.316 L
283.325 65.87 L
284.745 65.426 L
286.165 64.985 L
287.585 64.546 L
289.006 64.11 L
290.426 63.678 L
291.846 63.248 L
293.266 62.82 L
294.686 62.396 L
296.106 61.974 L
297.526 61.556 L
298.946 61.14 L
300.367 60.727 L
301.787 60.317 L
303.207 59.91 L
304.627 59.506 L
306.047 59.104 L
307.467 58.706 L
308.887 58.311 L
310.307 57.919 L
311.727 57.53 L
313.148 57.144 L
314.568 56.761 L
315.988 56.381 L
317.408 56.004 L
318.828 55.63 L
320.248 55.26 L
321.668 54.893 L
323.088 54.528 L
324.509 54.167 L
325.929 53.81 L
327.349 53.455 L
328.769 53.104 L
330.189 52.756 L
331.609 52.411 L
333.029 52.07 L
334.449 51.731 L
335.87 51.397 L
337.29 51.065 L
338.71 50.737 L
340.13 50.412 L
341.55 50.091 L
342.97 49.773 L
344.39 49.459 L
345.81 49.148 L
347.23 48.84 L
348.651 48.536 L
350.071 48.235 L
351.491 47.938 L
352.911 47.645 L
354.331 47.355 L
355.751 47.068 L
357.171 46.786 L
358.591 46.506 L
360.012 46.231 L
361.432 45.959 L
362.852 45.691 L
364.272 45.426 L
365.692 45.165 L
367.112 44.908 L
368.532 44.654 L
369.952 44.404 L
371.373 44.158 L
372.793 43.916 L
374.213 43.678 L
375.633 43.443 L
377.053 43.212 L
378.473 42.985 L
379.893 42.762 L
381.313 42.543 L
382.733 42.328 L
384.154 42.116 L
385.574 41.909 L
386.994 41.705 L
388.414 41.506 L
389.834 41.31 L
391.254 41.119 L
392.674 40.931 L
394.094 40.748 L
395.515 40.568 L
396.935 40.393 L
398.355 40.221 L
399.775 40.054 L
401.195 39.891 L
402.615 39.732 L
404.035 39.577 L
405.455 39.427 L
406.876 39.28 L
408.296 39.138 L
409.716 39 L
411.136 38.866 L
412.556 38.736 L
413.976 38.611 L
415.396 38.49 L
416.816 38.374 L
418.237 38.261 L
419.657 38.153 L
421.077 38.05 L
422.497 37.95 L
423.917 37.855 L
425.337 37.765 L
426.757 37.679 L
428.177 37.597 L
429.597 37.52 L
431.018 37.447 L
432.438 37.379 L
433.858 37.316 L
435.278 37.256 L
436.698 37.202 L
438.118 37.152 L
439.538 37.106 L
440.958 37.066 L
442.379 37.029 L
443.799 36.998 L
445.219 36.971 L
446.639 36.949 L
448.059 36.931 L
449.479 36.918 L
450.899 36.91 L
452.319 36.906 L
S
GR
GS
0.929 0.694 0.125 RC
1 LJ
0.5 LW
N
77.364 348.793 M
78.784 341.08 L
80.204 333.395 L
81.624 325.766 L
83.045 318.221 L
84.465 310.789 L
85.885 303.497 L
87.305 296.375 L
88.725 289.449 L
90.145 282.749 L
91.565 276.303 L
92.985 270.139 L
94.405 264.285 L
95.826 258.77 L
97.246 253.621 L
98.666 248.868 L
100.086 244.472 L
101.506 240.175 L
102.926 235.95 L
104.346 231.797 L
105.766 227.717 L
107.187 223.711 L
108.607 219.779 L
110.027 215.923 L
111.447 212.142 L
112.867 208.437 L
114.287 204.81 L
115.707 201.261 L
117.127 197.79 L
118.548 194.399 L
119.968 191.087 L
121.388 187.856 L
122.808 184.707 L
124.228 181.639 L
125.648 178.655 L
127.068 175.753 L
128.488 172.936 L
129.908 170.204 L
131.329 167.557 L
132.749 164.997 L
134.169 162.523 L
135.589 160.137 L
137.009 157.84 L
138.429 155.631 L
139.849 153.513 L
141.269 151.484 L
142.69 149.547 L
144.11 147.701 L
145.53 145.948 L
146.95 144.289 L
148.37 142.698 L
149.79 141.128 L
151.21 139.576 L
152.63 138.043 L
154.051 136.529 L
155.471 135.033 L
156.891 133.556 L
158.311 132.097 L
159.731 130.657 L
161.151 129.235 L
162.571 127.832 L
163.991 126.447 L
165.411 125.08 L
166.832 123.732 L
168.252 122.402 L
169.672 121.09 L
171.092 119.796 L
172.512 118.52 L
173.932 117.262 L
175.352 116.022 L
176.772 114.8 L
178.193 113.596 L
179.613 112.409 L
181.033 111.241 L
182.453 110.09 L
183.873 108.957 L
185.293 107.841 L
186.713 106.743 L
188.133 105.663 L
189.554 104.6 L
190.974 103.554 L
192.394 102.526 L
193.814 101.516 L
195.234 100.522 L
196.654 99.546 L
198.074 98.587 L
199.494 97.645 L
200.914 96.721 L
202.335 95.813 L
203.755 94.922 L
205.175 94.049 L
206.595 93.192 L
208.015 92.352 L
209.435 91.529 L
210.855 90.723 L
212.275 89.934 L
213.696 89.161 L
215.116 88.405 L
216.536 87.665 L
217.956 86.943 L
219.376 86.236 L
220.796 85.546 L
222.216 84.873 L
223.636 84.215 L
225.057 83.575 L
226.477 82.95 L
227.897 82.342 L
229.317 81.749 L
230.737 81.173 L
232.157 80.613 L
233.577 80.069 L
234.997 79.541 L
236.417 79.029 L
237.838 78.533 L
239.258 78.053 L
240.678 77.589 L
242.098 77.14 L
243.518 76.7 L
244.938 76.262 L
246.358 75.824 L
247.778 75.389 L
249.199 74.955 L
250.619 74.523 L
252.039 74.092 L
253.459 73.662 L
254.879 73.234 L
256.299 72.808 L
257.719 72.383 L
259.139 71.96 L
260.56 71.538 L
261.98 71.118 L
263.4 70.699 L
264.82 70.282 L
266.24 69.867 L
267.66 69.454 L
269.08 69.042 L
270.5 68.631 L
271.921 68.222 L
273.341 67.815 L
274.761 67.41 L
276.181 67.006 L
277.601 66.604 L
279.021 66.204 L
280.441 65.806 L
281.861 65.409 L
283.281 65.014 L
284.702 64.621 L
286.122 64.229 L
287.542 63.839 L
288.962 63.452 L
290.382 63.065 L
291.802 62.681 L
293.222 62.299 L
294.642 61.918 L
296.063 61.539 L
297.483 61.162 L
298.903 60.787 L
300.323 60.414 L
301.743 60.042 L
303.163 59.673 L
304.583 59.305 L
306.003 58.94 L
307.423 58.576 L
308.844 58.214 L
310.264 57.855 L
311.684 57.497 L
313.104 57.141 L
314.524 56.787 L
315.944 56.435 L
317.364 56.085 L
318.784 55.737 L
320.205 55.392 L
321.625 55.048 L
323.045 54.706 L
324.465 54.366 L
325.885 54.029 L
327.305 53.693 L
328.725 53.36 L
330.145 53.028 L
331.566 52.699 L
332.986 52.372 L
334.406 52.047 L
335.826 51.724 L
337.246 51.403 L
338.666 51.085 L
340.086 50.768 L
341.506 50.454 L
342.927 50.142 L
344.347 49.832 L
345.767 49.525 L
347.187 49.22 L
348.607 48.916 L
350.027 48.616 L
351.447 48.317 L
352.867 48.021 L
354.287 47.727 L
355.708 47.435 L
357.128 47.146 L
358.548 46.858 L
359.968 46.574 L
361.388 46.291 L
362.808 46.011 L
364.228 45.733 L
365.648 45.458 L
367.069 45.185 L
368.489 44.914 L
369.909 44.646 L
371.329 44.38 L
372.749 44.117 L
374.169 43.856 L
375.589 43.597 L
377.009 43.341 L
378.43 43.088 L
379.85 42.836 L
381.27 42.588 L
382.69 42.342 L
384.11 42.098 L
385.53 41.857 L
386.95 41.618 L
388.37 41.382 L
389.79 41.149 L
391.211 40.918 L
392.631 40.689 L
394.051 40.463 L
395.471 40.24 L
396.891 40.02 L
398.311 39.802 L
399.731 39.586 L
401.151 39.374 L
402.572 39.163 L
403.992 38.956 L
405.412 38.751 L
406.832 38.549 L
408.252 38.35 L
409.672 38.153 L
411.092 37.959 L
412.512 37.768 L
413.933 37.579 L
415.353 37.393 L
416.773 37.21 L
418.193 37.03 L
419.613 36.852 L
421.033 36.678 L
422.453 36.506 L
423.873 36.337 L
425.293 36.17 L
426.714 36.007 L
428.134 35.846 L
429.554 35.688 L
430.974 35.533 L
432.394 35.381 L
433.814 35.232 L
435.234 35.086 L
436.654 34.942 L
438.075 34.802 L
439.495 34.664 L
440.915 34.53 L
442.335 34.398 L
443.755 34.269 L
445.175 34.144 L
446.595 34.021 L
448.015 33.901 L
449.436 33.784 L
450.856 33.67 L
452.276 33.559 L
453.696 33.452 L
455.116 33.347 L
456.536 33.245 L
457.956 33.147 L
459.376 33.051 L
460.796 32.959 L
462.217 32.869 L
463.637 32.783 L
465.057 32.7 L
466.477 32.62 L
467.897 32.543 L
469.317 32.469 L
470.737 32.399 L
472.157 32.332 L
473.578 32.267 L
474.998 32.206 L
476.418 32.148 L
477.838 32.094 L
479.258 32.042 L
480.678 31.994 L
482.098 31.949 L
483.518 31.908 L
484.939 31.869 L
486.359 31.834 L
487.779 31.802 L
489.199 31.774 L
490.619 31.749 L
492.039 31.727 L
493.459 31.708 L
494.879 31.693 L
496.299 31.681 L
497.72 31.673 L
499.14 31.667 L
500.56 31.666 L
S
GR
GS
0.494 0.184 0.557 RC
1 LJ
0.5 LW
N
73.886 364.744 M
75.307 355.543 L
76.727 346.371 L
78.147 337.273 L
79.567 328.295 L
80.987 319.484 L
82.407 310.886 L
83.827 302.547 L
85.247 294.514 L
86.668 286.832 L
88.088 279.548 L
89.508 272.708 L
90.928 266.359 L
92.348 260.546 L
93.768 255.314 L
95.188 250.387 L
96.608 245.56 L
98.028 240.834 L
99.449 236.208 L
100.869 231.683 L
102.289 227.259 L
103.709 222.935 L
105.129 218.713 L
106.549 214.592 L
107.969 210.572 L
109.389 206.653 L
110.81 202.836 L
112.23 199.121 L
113.65 195.507 L
115.07 191.996 L
116.49 188.586 L
117.91 185.279 L
119.33 182.074 L
120.75 178.971 L
122.171 175.972 L
123.591 173.075 L
125.011 170.28 L
126.431 167.589 L
127.851 165.001 L
129.271 162.517 L
130.691 160.135 L
132.111 157.857 L
133.531 155.683 L
134.952 153.613 L
136.372 151.647 L
137.792 149.785 L
139.212 148.012 L
140.632 146.267 L
142.052 144.544 L
143.472 142.843 L
144.892 141.163 L
146.313 139.505 L
147.733 137.869 L
149.153 136.254 L
150.573 134.66 L
151.993 133.088 L
153.413 131.537 L
154.833 130.008 L
156.253 128.499 L
157.674 127.012 L
159.094 125.546 L
160.514 124.102 L
161.934 122.678 L
163.354 121.275 L
164.774 119.893 L
166.194 118.533 L
167.614 117.193 L
169.034 115.874 L
170.455 114.575 L
171.875 113.298 L
173.295 112.041 L
174.715 110.805 L
176.135 109.59 L
177.555 108.395 L
178.975 107.22 L
180.395 106.066 L
181.816 104.933 L
183.236 103.82 L
184.656 102.727 L
186.076 101.654 L
187.496 100.602 L
188.916 99.57 L
190.336 98.559 L
191.756 97.567 L
193.177 96.595 L
194.597 95.644 L
196.017 94.712 L
197.437 93.8 L
198.857 92.909 L
200.277 92.037 L
201.697 91.185 L
203.117 90.352 L
204.538 89.54 L
205.958 88.747 L
207.378 87.973 L
208.798 87.22 L
210.218 86.485 L
211.638 85.771 L
213.058 85.075 L
214.478 84.4 L
215.898 83.743 L
217.319 83.106 L
218.739 82.488 L
220.159 81.889 L
221.579 81.31 L
222.999 80.749 L
224.419 80.208 L
225.839 79.685 L
227.259 79.182 L
228.68 78.698 L
230.1 78.225 L
231.52 77.754 L
232.94 77.285 L
234.36 76.818 L
235.78 76.352 L
237.2 75.888 L
238.62 75.426 L
240.041 74.966 L
241.461 74.508 L
242.881 74.051 L
244.301 73.596 L
245.721 73.143 L
247.141 72.692 L
248.561 72.243 L
249.981 71.795 L
251.401 71.35 L
252.822 70.906 L
254.242 70.465 L
255.662 70.025 L
257.082 69.587 L
258.502 69.151 L
259.922 68.717 L
261.342 68.285 L
262.762 67.855 L
264.183 67.427 L
265.603 67.001 L
267.023 66.577 L
268.443 66.155 L
269.863 65.735 L
271.283 65.317 L
272.703 64.901 L
274.123 64.487 L
275.544 64.075 L
276.964 63.665 L
278.384 63.258 L
279.804 62.852 L
281.224 62.449 L
282.644 62.047 L
284.064 61.648 L
285.484 61.251 L
286.904 60.856 L
288.325 60.464 L
289.745 60.073 L
291.165 59.685 L
292.585 59.299 L
294.005 58.915 L
295.425 58.533 L
296.845 58.154 L
298.265 57.777 L
299.686 57.402 L
301.106 57.029 L
302.526 56.659 L
303.946 56.291 L
305.366 55.925 L
306.786 55.562 L
308.206 55.201 L
309.626 54.842 L
311.047 54.486 L
312.467 54.132 L
313.887 53.78 L
315.307 53.431 L
316.727 53.084 L
318.147 52.74 L
319.567 52.398 L
320.987 52.058 L
322.407 51.721 L
323.828 51.387 L
325.248 51.054 L
326.668 50.725 L
328.088 50.398 L
329.508 50.073 L
330.928 49.751 L
332.348 49.431 L
333.768 49.114 L
335.189 48.799 L
336.609 48.487 L
338.029 48.178 L
339.449 47.871 L
340.869 47.566 L
342.289 47.265 L
343.709 46.966 L
345.129 46.669 L
346.55 46.375 L
347.97 46.084 L
349.39 45.796 L
350.81 45.51 L
352.23 45.227 L
353.65 44.946 L
355.07 44.668 L
356.49 44.393 L
357.91 44.121 L
359.331 43.851 L
360.751 43.584 L
362.171 43.32 L
363.591 43.059 L
365.011 42.8 L
366.431 42.545 L
367.851 42.292 L
369.271 42.042 L
370.692 41.794 L
372.112 41.55 L
373.532 41.308 L
374.952 41.069 L
376.372 40.833 L
377.792 40.6 L
379.212 40.37 L
380.632 40.143 L
382.053 39.919 L
383.473 39.697 L
384.893 39.479 L
386.313 39.264 L
387.733 39.051 L
389.153 38.842 L
390.573 38.635 L
391.993 38.431 L
393.413 38.231 L
394.834 38.033 L
396.254 37.839 L
397.674 37.647 L
399.094 37.459 L
400.514 37.273 L
401.934 37.091 L
403.354 36.912 L
404.774 36.736 L
406.195 36.563 L
407.615 36.393 L
409.035 36.226 L
410.455 36.063 L
411.875 35.902 L
413.295 35.745 L
414.715 35.591 L
416.135 35.44 L
417.556 35.292 L
418.976 35.148 L
420.396 35.007 L
421.816 34.868 L
423.236 34.734 L
424.656 34.602 L
426.076 34.474 L
427.496 34.349 L
428.916 34.227 L
430.337 34.109 L
431.757 33.993 L
433.177 33.882 L
434.597 33.773 L
436.017 33.668 L
437.437 33.566 L
438.857 33.468 L
440.277 33.373 L
441.698 33.281 L
443.118 33.193 L
444.538 33.108 L
445.958 33.027 L
447.378 32.949 L
448.798 32.874 L
450.218 32.803 L
451.638 32.736 L
453.059 32.672 L
454.479 32.611 L
455.899 32.554 L
457.319 32.5 L
458.739 32.45 L
460.159 32.404 L
461.579 32.361 L
462.999 32.321 L
464.419 32.285 L
465.84 32.253 L
467.26 32.224 L
468.68 32.199 L
470.1 32.178 L
471.52 32.16 L
472.94 32.146 L
474.36 32.135 L
475.78 32.128 L
477.201 32.125 L
S
GR
GS
0.467 0.675 0.188 RC
1 LJ
0.5 LW
N
73 371.554 M
74.42 361.634 L
75.84 351.74 L
77.26 341.928 L
78.68 332.255 L
80.101 322.777 L
81.521 313.552 L
82.941 304.635 L
84.361 296.084 L
85.781 287.955 L
87.201 280.305 L
88.621 273.191 L
90.041 266.669 L
91.462 260.796 L
92.882 255.505 L
94.302 250.367 L
95.722 245.342 L
97.142 240.428 L
98.562 235.628 L
99.982 230.939 L
101.402 226.363 L
102.823 221.898 L
104.243 217.546 L
105.663 213.306 L
107.083 209.178 L
108.503 205.162 L
109.923 201.258 L
111.343 197.466 L
112.763 193.786 L
114.183 190.218 L
115.604 186.761 L
117.024 183.417 L
118.444 180.184 L
119.864 177.063 L
121.284 174.054 L
122.704 171.157 L
124.124 168.371 L
125.544 165.696 L
126.965 163.134 L
128.385 160.683 L
129.805 158.343 L
131.225 156.115 L
132.645 153.999 L
134.065 151.994 L
135.485 150.1 L
136.905 148.295 L
138.326 146.517 L
139.746 144.763 L
141.166 143.031 L
142.586 141.324 L
144.006 139.639 L
145.426 137.978 L
146.846 136.34 L
148.266 134.725 L
149.686 133.132 L
151.107 131.563 L
152.527 130.016 L
153.947 128.492 L
155.367 126.99 L
156.787 125.512 L
158.207 124.055 L
159.627 122.621 L
161.047 121.209 L
162.468 119.819 L
163.888 118.451 L
165.308 117.106 L
166.728 115.782 L
168.148 114.48 L
169.568 113.2 L
170.988 111.941 L
172.408 110.704 L
173.829 109.489 L
175.249 108.294 L
176.669 107.122 L
178.089 105.97 L
179.509 104.84 L
180.929 103.731 L
182.349 102.642 L
183.769 101.575 L
185.189 100.528 L
186.61 99.503 L
188.03 98.497 L
189.45 97.513 L
190.87 96.549 L
192.29 95.605 L
193.71 94.682 L
195.13 93.779 L
196.55 92.896 L
197.971 92.033 L
199.391 91.19 L
200.811 90.367 L
202.231 89.564 L
203.651 88.78 L
205.071 88.017 L
206.491 87.273 L
207.911 86.548 L
209.332 85.843 L
210.752 85.157 L
212.172 84.49 L
213.592 83.842 L
215.012 83.214 L
216.432 82.604 L
217.852 82.014 L
219.272 81.442 L
220.692 80.889 L
222.113 80.354 L
223.533 79.838 L
224.953 79.341 L
226.373 78.854 L
227.793 78.369 L
229.213 77.886 L
230.633 77.404 L
232.053 76.924 L
233.474 76.446 L
234.894 75.97 L
236.314 75.496 L
237.734 75.023 L
239.154 74.552 L
240.574 74.084 L
241.994 73.617 L
243.414 73.152 L
244.835 72.689 L
246.255 72.227 L
247.675 71.768 L
249.095 71.311 L
250.515 70.856 L
251.935 70.402 L
253.355 69.951 L
254.775 69.501 L
256.195 69.054 L
257.616 68.609 L
259.036 68.165 L
260.456 67.724 L
261.876 67.285 L
263.296 66.848 L
264.716 66.413 L
266.136 65.98 L
267.556 65.549 L
268.977 65.12 L
270.397 64.693 L
271.817 64.269 L
273.237 63.847 L
274.657 63.427 L
276.077 63.009 L
277.497 62.593 L
278.917 62.18 L
280.338 61.768 L
281.758 61.359 L
283.178 60.952 L
284.598 60.548 L
286.018 60.146 L
287.438 59.746 L
288.858 59.348 L
290.278 58.953 L
291.699 58.56 L
293.119 58.169 L
294.539 57.781 L
295.959 57.395 L
297.379 57.011 L
298.799 56.63 L
300.219 56.251 L
301.639 55.875 L
303.059 55.501 L
304.48 55.13 L
305.9 54.761 L
307.32 54.394 L
308.74 54.03 L
310.16 53.669 L
311.58 53.31 L
313 52.953 L
314.42 52.599 L
315.841 52.248 L
317.261 51.899 L
318.681 51.552 L
320.101 51.209 L
321.521 50.868 L
322.941 50.529 L
324.361 50.193 L
325.781 49.86 L
327.202 49.529 L
328.622 49.201 L
330.042 48.876 L
331.462 48.554 L
332.882 48.234 L
334.302 47.917 L
335.722 47.602 L
337.142 47.29 L
338.562 46.981 L
339.983 46.675 L
341.403 46.372 L
342.823 46.071 L
344.243 45.773 L
345.663 45.478 L
347.083 45.186 L
348.503 44.897 L
349.923 44.61 L
351.344 44.327 L
352.764 44.046 L
354.184 43.768 L
355.604 43.493 L
357.024 43.221 L
358.444 42.952 L
359.864 42.686 L
361.284 42.423 L
362.704 42.163 L
364.125 41.905 L
365.545 41.651 L
366.965 41.4 L
368.385 41.152 L
369.805 40.907 L
371.225 40.664 L
372.645 40.425 L
374.065 40.189 L
375.486 39.957 L
376.906 39.727 L
378.326 39.5 L
379.746 39.276 L
381.166 39.056 L
382.586 38.839 L
384.006 38.625 L
385.426 38.414 L
386.847 38.206 L
388.267 38.001 L
389.687 37.8 L
391.107 37.602 L
392.527 37.407 L
393.947 37.215 L
395.367 37.027 L
396.787 36.842 L
398.207 36.66 L
399.628 36.481 L
401.048 36.306 L
402.468 36.134 L
403.888 35.966 L
405.308 35.801 L
406.728 35.639 L
408.148 35.48 L
409.568 35.325 L
410.989 35.174 L
412.409 35.025 L
413.829 34.881 L
415.249 34.739 L
416.669 34.602 L
418.089 34.467 L
419.509 34.336 L
420.929 34.209 L
422.35 34.085 L
423.77 33.964 L
425.19 33.847 L
426.61 33.734 L
428.03 33.624 L
429.45 33.518 L
430.87 33.415 L
432.29 33.317 L
433.711 33.221 L
435.131 33.129 L
436.551 33.041 L
437.971 32.957 L
439.391 32.876 L
440.811 32.799 L
442.231 32.725 L
443.651 32.655 L
445.071 32.589 L
446.492 32.527 L
447.912 32.468 L
449.332 32.413 L
450.752 32.362 L
452.172 32.315 L
453.592 32.271 L
455.012 32.232 L
456.432 32.196 L
457.853 32.164 L
459.273 32.135 L
460.693 32.111 L
462.113 32.09 L
463.533 32.074 L
464.953 32.061 L
466.373 32.052 L
467.793 32.047 L
S
GR
GS
0.302 0.745 0.933 RC
[10 6] 0 setdash
2 LJ
0.5 LW
N
75.341 367.246 M
76.761 358.722 L
78.181 350.239 L
79.602 341.832 L
81.022 333.533 L
82.442 325.379 L
83.862 317.402 L
85.282 309.638 L
86.702 302.12 L
88.122 294.882 L
89.542 287.959 L
90.963 281.385 L
92.383 275.195 L
93.803 269.421 L
95.223 264.1 L
96.643 259.183 L
98.063 254.383 L
99.483 249.668 L
100.903 245.041 L
102.324 240.502 L
103.744 236.052 L
105.164 231.692 L
106.584 227.423 L
108.004 223.246 L
109.424 219.161 L
110.844 215.17 L
112.264 211.274 L
113.684 207.473 L
115.105 203.768 L
116.525 200.161 L
117.945 196.652 L
119.365 193.242 L
120.785 189.932 L
122.205 186.722 L
123.625 183.615 L
125.045 180.61 L
126.466 177.709 L
127.886 174.912 L
129.306 172.221 L
130.726 169.636 L
132.146 167.158 L
133.566 164.789 L
134.986 162.528 L
136.406 160.377 L
137.827 158.337 L
139.247 156.409 L
140.667 154.561 L
142.087 152.738 L
143.507 150.938 L
144.927 149.161 L
146.347 147.408 L
147.767 145.678 L
149.188 143.971 L
150.608 142.287 L
152.028 140.627 L
153.448 138.989 L
154.868 137.374 L
156.288 135.783 L
157.708 134.214 L
159.128 132.668 L
160.548 131.145 L
161.969 129.644 L
163.389 128.166 L
164.809 126.711 L
166.229 125.278 L
167.649 123.868 L
169.069 122.48 L
170.489 121.114 L
171.909 119.771 L
173.33 118.45 L
174.75 117.152 L
176.17 115.875 L
177.59 114.621 L
179.01 113.388 L
180.43 112.178 L
181.85 110.99 L
183.27 109.823 L
184.691 108.679 L
186.111 107.556 L
187.531 106.454 L
188.951 105.375 L
190.371 104.317 L
191.791 103.281 L
193.211 102.266 L
194.631 101.273 L
196.051 100.301 L
197.472 99.35 L
198.892 98.421 L
200.312 97.513 L
201.732 96.626 L
203.152 95.76 L
204.572 94.916 L
205.992 94.092 L
207.412 93.289 L
208.833 92.508 L
210.253 91.747 L
211.673 91.007 L
213.093 90.287 L
214.513 89.589 L
215.933 88.911 L
217.353 88.253 L
218.773 87.617 L
220.194 87 L
221.614 86.404 L
223.034 85.829 L
224.454 85.273 L
225.874 84.736 L
227.294 84.203 L
228.714 83.671 L
230.134 83.142 L
231.554 82.614 L
232.975 82.089 L
234.395 81.565 L
235.815 81.043 L
237.235 80.524 L
238.655 80.006 L
240.075 79.491 L
241.495 78.977 L
242.915 78.465 L
244.336 77.956 L
245.756 77.449 L
247.176 76.944 L
248.596 76.441 L
250.016 75.94 L
251.436 75.441 L
252.856 74.945 L
254.276 74.45 L
255.697 73.958 L
257.117 73.469 L
258.537 72.981 L
259.957 72.496 L
261.377 72.013 L
262.797 71.533 L
264.217 71.054 L
265.637 70.579 L
267.057 70.105 L
268.478 69.634 L
269.898 69.166 L
271.318 68.7 L
272.738 68.236 L
274.158 67.775 L
275.578 67.317 L
276.998 66.861 L
278.418 66.407 L
279.839 65.956 L
281.259 65.508 L
282.679 65.062 L
284.099 64.619 L
285.519 64.179 L
286.939 63.741 L
288.359 63.306 L
289.779 62.874 L
291.2 62.444 L
292.62 62.017 L
294.04 61.593 L
295.46 61.171 L
296.88 60.753 L
298.3 60.337 L
299.72 59.924 L
301.14 59.514 L
302.56 59.107 L
303.981 58.703 L
305.401 58.302 L
306.821 57.903 L
308.241 57.508 L
309.661 57.115 L
311.081 56.726 L
312.501 56.339 L
313.921 55.956 L
315.342 55.576 L
316.762 55.198 L
318.182 54.824 L
319.602 54.453 L
321.022 54.085 L
322.442 53.72 L
323.862 53.359 L
325.282 53 L
326.703 52.645 L
328.123 52.293 L
329.543 51.944 L
330.963 51.599 L
332.383 51.257 L
333.803 50.918 L
335.223 50.582 L
336.643 50.25 L
338.063 49.921 L
339.484 49.595 L
340.904 49.273 L
342.324 48.955 L
343.744 48.639 L
345.164 48.328 L
346.584 48.019 L
348.004 47.714 L
349.424 47.413 L
350.845 47.115 L
352.265 46.821 L
353.685 46.53 L
355.105 46.243 L
356.525 45.96 L
357.945 45.68 L
359.365 45.404 L
360.785 45.132 L
362.206 44.863 L
363.626 44.598 L
365.046 44.336 L
366.466 44.079 L
367.886 43.825 L
369.306 43.575 L
370.726 43.329 L
372.146 43.086 L
373.566 42.848 L
374.987 42.613 L
376.407 42.382 L
377.827 42.155 L
379.247 41.932 L
380.667 41.713 L
382.087 41.498 L
383.507 41.287 L
384.927 41.08 L
386.348 40.876 L
387.768 40.677 L
389.188 40.482 L
390.608 40.291 L
392.028 40.104 L
393.448 39.922 L
394.868 39.743 L
396.288 39.569 L
397.709 39.398 L
399.129 39.232 L
400.549 39.07 L
401.969 38.913 L
403.389 38.759 L
404.809 38.61 L
406.229 38.465 L
407.649 38.325 L
409.069 38.188 L
410.49 38.056 L
411.91 37.929 L
413.33 37.806 L
414.75 37.687 L
416.17 37.573 L
417.59 37.463 L
419.01 37.357 L
420.43 37.256 L
421.851 37.16 L
423.271 37.068 L
424.691 36.981 L
426.111 36.898 L
427.531 36.819 L
428.951 36.746 L
430.371 36.677 L
431.791 36.612 L
433.212 36.552 L
434.632 36.497 L
436.052 36.447 L
437.472 36.401 L
438.892 36.36 L
440.312 36.324 L
441.732 36.293 L
443.152 36.266 L
444.572 36.244 L
445.993 36.227 L
447.413 36.215 L
448.833 36.207 L
S
GR
GS
0.635 0.078 0.184 RC
[10 6] 0 setdash
2 LJ
0.5 LW
N
77.411 351.025 M
78.831 343.173 L
80.251 335.349 L
81.671 327.581 L
83.091 319.9 L
84.511 312.335 L
85.931 304.915 L
87.351 297.669 L
88.771 290.627 L
90.192 283.819 L
91.612 277.273 L
93.032 271.019 L
94.452 265.087 L
95.872 259.506 L
97.292 254.305 L
98.712 249.514 L
100.132 245.067 L
101.553 240.709 L
102.973 236.424 L
104.393 232.214 L
105.813 228.078 L
107.233 224.017 L
108.653 220.033 L
110.073 216.125 L
111.493 212.295 L
112.914 208.543 L
114.334 204.87 L
115.754 201.277 L
117.174 197.764 L
118.594 194.332 L
120.014 190.983 L
121.434 187.715 L
122.854 184.531 L
124.274 181.431 L
125.695 178.415 L
127.115 175.485 L
128.535 172.64 L
129.955 169.883 L
131.375 167.213 L
132.795 164.631 L
134.215 162.139 L
135.635 159.735 L
137.056 157.423 L
138.476 155.201 L
139.896 153.071 L
141.316 151.033 L
142.736 149.089 L
144.156 147.238 L
145.576 145.483 L
146.996 143.822 L
148.417 142.22 L
149.837 140.638 L
151.257 139.076 L
152.677 137.533 L
154.097 136.009 L
155.517 134.505 L
156.937 133.02 L
158.357 131.555 L
159.777 130.108 L
161.198 128.681 L
162.618 127.273 L
164.038 125.884 L
165.458 124.513 L
166.878 123.162 L
168.298 121.829 L
169.718 120.515 L
171.138 119.22 L
172.559 117.943 L
173.979 116.685 L
175.399 115.445 L
176.819 114.224 L
178.239 113.021 L
179.659 111.836 L
181.079 110.67 L
182.499 109.521 L
183.92 108.391 L
185.34 107.278 L
186.76 106.184 L
188.18 105.107 L
189.6 104.048 L
191.02 103.007 L
192.44 101.984 L
193.86 100.978 L
195.281 99.99 L
196.701 99.019 L
198.121 98.065 L
199.541 97.129 L
200.961 96.21 L
202.381 95.309 L
203.801 94.424 L
205.221 93.556 L
206.641 92.706 L
208.062 91.872 L
209.482 91.056 L
210.902 90.256 L
212.322 89.473 L
213.742 88.706 L
215.162 87.956 L
216.582 87.223 L
218.002 86.506 L
219.423 85.805 L
220.843 85.121 L
222.263 84.453 L
223.683 83.802 L
225.103 83.166 L
226.523 82.546 L
227.943 81.943 L
229.363 81.355 L
230.784 80.784 L
232.204 80.228 L
233.624 79.688 L
235.044 79.163 L
236.464 78.654 L
237.884 78.161 L
239.304 77.683 L
240.724 77.22 L
242.144 76.764 L
243.565 76.31 L
244.985 75.857 L
246.405 75.405 L
247.825 74.956 L
249.245 74.507 L
250.665 74.06 L
252.085 73.615 L
253.505 73.171 L
254.926 72.729 L
256.346 72.288 L
257.766 71.849 L
259.186 71.412 L
260.606 70.976 L
262.026 70.542 L
263.446 70.11 L
264.866 69.679 L
266.287 69.25 L
267.707 68.823 L
269.127 68.397 L
270.547 67.973 L
271.967 67.551 L
273.387 67.131 L
274.807 66.712 L
276.227 66.296 L
277.647 65.881 L
279.068 65.467 L
280.488 65.056 L
281.908 64.647 L
283.328 64.239 L
284.748 63.833 L
286.168 63.43 L
287.588 63.028 L
289.008 62.628 L
290.429 62.23 L
291.849 61.833 L
293.269 61.439 L
294.689 61.047 L
296.109 60.657 L
297.529 60.269 L
298.949 59.882 L
300.369 59.498 L
301.79 59.116 L
303.21 58.736 L
304.63 58.358 L
306.05 57.982 L
307.47 57.608 L
308.89 57.237 L
310.31 56.867 L
311.73 56.5 L
313.15 56.134 L
314.571 55.771 L
315.991 55.41 L
317.411 55.051 L
318.831 54.695 L
320.251 54.34 L
321.671 53.988 L
323.091 53.638 L
324.511 53.291 L
325.932 52.945 L
327.352 52.602 L
328.772 52.262 L
330.192 51.923 L
331.612 51.587 L
333.032 51.253 L
334.452 50.922 L
335.872 50.593 L
337.293 50.266 L
338.713 49.942 L
340.133 49.62 L
341.553 49.301 L
342.973 48.984 L
344.393 48.669 L
345.813 48.357 L
347.233 48.048 L
348.653 47.741 L
350.074 47.436 L
351.494 47.134 L
352.914 46.835 L
354.334 46.538 L
355.754 46.243 L
357.174 45.951 L
358.594 45.662 L
360.014 45.376 L
361.435 45.092 L
362.855 44.81 L
364.275 44.531 L
365.695 44.255 L
367.115 43.982 L
368.535 43.711 L
369.955 43.443 L
371.375 43.178 L
372.796 42.916 L
374.216 42.656 L
375.636 42.399 L
377.056 42.144 L
378.476 41.893 L
379.896 41.644 L
381.316 41.398 L
382.736 41.155 L
384.156 40.915 L
385.577 40.678 L
386.997 40.443 L
388.417 40.212 L
389.837 39.983 L
391.257 39.757 L
392.677 39.534 L
394.097 39.314 L
395.517 39.097 L
396.938 38.883 L
398.358 38.672 L
399.778 38.464 L
401.198 38.259 L
402.618 38.057 L
404.038 37.858 L
405.458 37.662 L
406.878 37.469 L
408.299 37.279 L
409.719 37.093 L
411.139 36.909 L
412.559 36.728 L
413.979 36.551 L
415.399 36.377 L
416.819 36.206 L
418.239 36.038 L
419.659 35.873 L
421.08 35.712 L
422.5 35.553 L
423.92 35.398 L
425.34 35.246 L
426.76 35.098 L
428.18 34.952 L
429.6 34.81 L
431.02 34.671 L
432.441 34.536 L
433.861 34.404 L
435.281 34.275 L
436.701 34.15 L
438.121 34.028 L
439.541 33.909 L
440.961 33.794 L
442.381 33.682 L
443.802 33.573 L
445.222 33.468 L
446.642 33.366 L
448.062 33.268 L
449.482 33.174 L
450.902 33.082 L
452.322 32.995 L
453.742 32.91 L
455.163 32.83 L
456.583 32.753 L
458.003 32.679 L
459.423 32.609 L
460.843 32.543 L
462.263 32.48 L
463.683 32.421 L
465.103 32.365 L
466.523 32.313 L
467.944 32.265 L
469.364 32.22 L
470.784 32.179 L
472.204 32.142 L
473.624 32.109 L
475.044 32.079 L
476.464 32.053 L
477.884 32.03 L
479.305 32.012 L
480.725 31.997 L
482.145 31.986 L
483.565 31.979 L
484.985 31.976 L
S
GR
GS
0 0.447 0.741 RC
[10 6] 0 setdash
2 LJ
0.5 LW
N
74.279 362.633 M
75.699 353.617 L
77.119 344.63 L
78.539 335.716 L
79.959 326.918 L
81.38 318.278 L
82.8 309.84 L
84.22 301.647 L
85.64 293.742 L
87.06 286.168 L
88.48 278.968 L
89.9 272.186 L
91.32 265.863 L
92.741 260.045 L
94.161 254.772 L
95.581 249.89 L
97.001 245.108 L
98.421 240.422 L
99.841 235.834 L
101.261 231.342 L
102.681 226.948 L
104.101 222.652 L
105.522 218.453 L
106.942 214.353 L
108.362 210.351 L
109.782 206.447 L
111.202 202.642 L
112.622 198.937 L
114.042 195.33 L
115.462 191.823 L
116.883 188.415 L
118.303 185.107 L
119.723 181.9 L
121.143 178.793 L
122.563 175.786 L
123.983 172.88 L
125.403 170.075 L
126.823 167.372 L
128.244 164.769 L
129.664 162.269 L
131.084 159.87 L
132.504 157.574 L
133.924 155.38 L
135.344 153.288 L
136.764 151.299 L
138.184 149.414 L
139.604 147.629 L
141.025 145.89 L
142.445 144.172 L
143.865 142.477 L
145.285 140.804 L
146.705 139.152 L
148.125 137.522 L
149.545 135.914 L
150.965 134.327 L
152.386 132.762 L
153.806 131.219 L
155.226 129.696 L
156.646 128.195 L
158.066 126.716 L
159.486 125.258 L
160.906 123.82 L
162.326 122.404 L
163.747 121.009 L
165.167 119.635 L
166.587 118.282 L
168.007 116.95 L
169.427 115.639 L
170.847 114.348 L
172.267 113.079 L
173.687 111.829 L
175.107 110.601 L
176.528 109.392 L
177.948 108.205 L
179.368 107.038 L
180.788 105.89 L
182.208 104.764 L
183.628 103.657 L
185.048 102.571 L
186.468 101.505 L
187.889 100.459 L
189.309 99.432 L
190.729 98.426 L
192.149 97.44 L
193.569 96.473 L
194.989 95.526 L
196.409 94.599 L
197.829 93.691 L
199.25 92.803 L
200.67 91.934 L
202.09 91.085 L
203.51 90.255 L
204.93 89.445 L
206.35 88.654 L
207.77 87.882 L
209.19 87.129 L
210.61 86.395 L
212.031 85.68 L
213.451 84.984 L
214.871 84.307 L
216.291 83.649 L
217.711 83.009 L
219.131 82.388 L
220.551 81.786 L
221.971 81.203 L
223.392 80.638 L
224.812 80.091 L
226.232 79.563 L
227.652 79.053 L
229.072 78.562 L
230.492 78.078 L
231.912 77.595 L
233.332 77.114 L
234.753 76.635 L
236.173 76.158 L
237.593 75.682 L
239.013 75.208 L
240.433 74.736 L
241.853 74.266 L
243.273 73.798 L
244.693 73.332 L
246.113 72.867 L
247.534 72.404 L
248.954 71.943 L
250.374 71.485 L
251.794 71.028 L
253.214 70.572 L
254.634 70.119 L
256.054 69.668 L
257.474 69.219 L
258.895 68.772 L
260.315 68.327 L
261.735 67.883 L
263.155 67.442 L
264.575 67.003 L
265.995 66.566 L
267.415 66.131 L
268.835 65.698 L
270.256 65.268 L
271.676 64.839 L
273.096 64.412 L
274.516 63.988 L
275.936 63.566 L
277.356 63.146 L
278.776 62.728 L
280.196 62.313 L
281.616 61.899 L
283.037 61.488 L
284.457 61.079 L
285.877 60.672 L
287.297 60.268 L
288.717 59.866 L
290.137 59.466 L
291.557 59.069 L
292.977 58.674 L
294.398 58.281 L
295.818 57.891 L
297.238 57.503 L
298.658 57.117 L
300.078 56.734 L
301.498 56.353 L
302.918 55.975 L
304.338 55.599 L
305.759 55.225 L
307.179 54.854 L
308.599 54.486 L
310.019 54.12 L
311.439 53.757 L
312.859 53.396 L
314.279 53.037 L
315.699 52.682 L
317.119 52.328 L
318.54 51.978 L
319.96 51.63 L
321.38 51.285 L
322.8 50.942 L
324.22 50.602 L
325.64 50.264 L
327.06 49.93 L
328.48 49.598 L
329.901 49.268 L
331.321 48.942 L
332.741 48.618 L
334.161 48.297 L
335.581 47.979 L
337.001 47.663 L
338.421 47.35 L
339.841 47.04 L
341.262 46.733 L
342.682 46.429 L
344.102 46.128 L
345.522 45.829 L
346.942 45.533 L
348.362 45.241 L
349.782 44.951 L
351.202 44.664 L
352.622 44.38 L
354.043 44.099 L
355.463 43.821 L
356.883 43.546 L
358.303 43.274 L
359.723 43.005 L
361.143 42.739 L
362.563 42.476 L
363.983 42.216 L
365.404 41.959 L
366.824 41.705 L
368.244 41.454 L
369.664 41.207 L
371.084 40.962 L
372.504 40.721 L
373.924 40.483 L
375.344 40.248 L
376.765 40.016 L
378.185 39.788 L
379.605 39.562 L
381.025 39.34 L
382.445 39.121 L
383.865 38.906 L
385.285 38.693 L
386.705 38.484 L
388.126 38.279 L
389.546 38.076 L
390.966 37.877 L
392.386 37.681 L
393.806 37.489 L
395.226 37.3 L
396.646 37.114 L
398.066 36.932 L
399.486 36.753 L
400.907 36.578 L
402.327 36.406 L
403.747 36.237 L
405.167 36.072 L
406.587 35.911 L
408.007 35.752 L
409.427 35.598 L
410.847 35.447 L
412.268 35.299 L
413.688 35.156 L
415.108 35.015 L
416.528 34.879 L
417.948 34.746 L
419.368 34.616 L
420.788 34.49 L
422.208 34.368 L
423.629 34.249 L
425.049 34.134 L
426.469 34.023 L
427.889 33.916 L
429.309 33.812 L
430.729 33.712 L
432.149 33.616 L
433.569 33.523 L
434.989 33.434 L
436.41 33.349 L
437.83 33.268 L
439.25 33.191 L
440.67 33.117 L
442.09 33.048 L
443.51 32.982 L
444.93 32.92 L
446.35 32.862 L
447.771 32.808 L
449.191 32.758 L
450.611 32.711 L
452.031 32.669 L
453.451 32.631 L
454.871 32.596 L
456.291 32.566 L
457.711 32.54 L
459.132 32.517 L
460.552 32.499 L
461.972 32.485 L
463.392 32.474 L
464.812 32.468 L
S
GR
GS
0.851 0.325 0.098 RC
[10 6] 0 setdash
2 LJ
0.5 LW
N
73.075 371.89 M
74.496 362.043 L
75.916 352.223 L
77.336 342.484 L
78.756 332.881 L
80.176 323.47 L
81.596 314.305 L
83.016 305.441 L
84.436 296.933 L
85.857 288.835 L
87.277 281.203 L
88.697 274.091 L
90.117 267.554 L
91.537 261.647 L
92.957 256.345 L
94.377 251.227 L
95.797 246.221 L
97.218 241.328 L
98.638 236.547 L
100.058 231.878 L
101.478 227.321 L
102.898 222.876 L
104.318 218.542 L
105.738 214.319 L
107.158 210.207 L
108.578 206.207 L
109.999 202.317 L
111.419 198.537 L
112.839 194.868 L
114.259 191.309 L
115.679 187.86 L
117.099 184.521 L
118.519 181.291 L
119.939 178.17 L
121.36 175.159 L
122.78 172.257 L
124.2 169.464 L
125.62 166.779 L
127.04 164.203 L
128.46 161.734 L
129.88 159.374 L
131.3 157.122 L
132.721 154.977 L
134.141 152.94 L
135.561 151.01 L
136.981 149.173 L
138.401 147.366 L
139.821 145.583 L
141.241 143.823 L
142.661 142.087 L
144.081 140.374 L
145.502 138.684 L
146.922 137.018 L
148.342 135.375 L
149.762 133.755 L
151.182 132.157 L
152.602 130.583 L
154.022 129.032 L
155.442 127.504 L
156.863 125.998 L
158.283 124.515 L
159.703 123.055 L
161.123 121.617 L
162.543 120.202 L
163.963 118.809 L
165.383 117.439 L
166.803 116.09 L
168.224 114.764 L
169.644 113.46 L
171.064 112.179 L
172.484 110.919 L
173.904 109.681 L
175.324 108.465 L
176.744 107.27 L
178.164 106.098 L
179.584 104.947 L
181.005 103.817 L
182.425 102.71 L
183.845 101.623 L
185.265 100.558 L
186.685 99.514 L
188.105 98.492 L
189.525 97.49 L
190.945 96.51 L
192.366 95.551 L
193.786 94.612 L
195.206 93.695 L
196.626 92.798 L
198.046 91.922 L
199.466 91.067 L
200.886 90.232 L
202.306 89.418 L
203.727 88.625 L
205.147 87.851 L
206.567 87.098 L
207.987 86.366 L
209.407 85.653 L
210.827 84.961 L
212.247 84.288 L
213.667 83.636 L
215.087 83.003 L
216.508 82.391 L
217.928 81.798 L
219.348 81.224 L
220.768 80.671 L
222.188 80.137 L
223.608 79.622 L
225.028 79.118 L
226.448 78.616 L
227.869 78.115 L
229.289 77.616 L
230.709 77.119 L
232.129 76.624 L
233.549 76.131 L
234.969 75.64 L
236.389 75.151 L
237.809 74.664 L
239.23 74.179 L
240.65 73.695 L
242.07 73.214 L
243.49 72.735 L
244.91 72.258 L
246.33 71.782 L
247.75 71.309 L
249.17 70.838 L
250.59 70.369 L
252.011 69.903 L
253.431 69.438 L
254.851 68.975 L
256.271 68.515 L
257.691 68.057 L
259.111 67.601 L
260.531 67.147 L
261.951 66.695 L
263.372 66.246 L
264.792 65.799 L
266.212 65.354 L
267.632 64.912 L
269.052 64.471 L
270.472 64.033 L
271.892 63.598 L
273.312 63.165 L
274.733 62.734 L
276.153 62.305 L
277.573 61.879 L
278.993 61.455 L
280.413 61.034 L
281.833 60.615 L
283.253 60.199 L
284.673 59.785 L
286.093 59.373 L
287.514 58.964 L
288.934 58.558 L
290.354 58.154 L
291.774 57.753 L
293.194 57.354 L
294.614 56.958 L
296.034 56.564 L
297.454 56.173 L
298.875 55.785 L
300.295 55.399 L
301.715 55.016 L
303.135 54.636 L
304.555 54.258 L
305.975 53.883 L
307.395 53.511 L
308.815 53.141 L
310.236 52.774 L
311.656 52.41 L
313.076 52.049 L
314.496 51.69 L
315.916 51.335 L
317.336 50.982 L
318.756 50.632 L
320.176 50.285 L
321.596 49.941 L
323.017 49.599 L
324.437 49.261 L
325.857 48.925 L
327.277 48.593 L
328.697 48.263 L
330.117 47.936 L
331.537 47.613 L
332.957 47.292 L
334.378 46.974 L
335.798 46.66 L
337.218 46.348 L
338.638 46.039 L
340.058 45.734 L
341.478 45.432 L
342.898 45.132 L
344.318 44.836 L
345.739 44.543 L
347.159 44.253 L
348.579 43.967 L
349.999 43.683 L
351.419 43.403 L
352.839 43.126 L
354.259 42.852 L
355.679 42.581 L
357.099 42.314 L
358.52 42.05 L
359.94 41.789 L
361.36 41.532 L
362.78 41.278 L
364.2 41.027 L
365.62 40.779 L
367.04 40.535 L
368.46 40.295 L
369.881 40.057 L
371.301 39.824 L
372.721 39.593 L
374.141 39.366 L
375.561 39.143 L
376.981 38.923 L
378.401 38.706 L
379.821 38.493 L
381.242 38.284 L
382.662 38.078 L
384.082 37.875 L
385.502 37.677 L
386.922 37.481 L
388.342 37.29 L
389.762 37.102 L
391.182 36.917 L
392.603 36.737 L
394.023 36.56 L
395.443 36.386 L
396.863 36.217 L
398.283 36.051 L
399.703 35.888 L
401.123 35.73 L
402.543 35.575 L
403.963 35.424 L
405.384 35.277 L
406.804 35.134 L
408.224 34.995 L
409.644 34.859 L
411.064 34.727 L
412.484 34.599 L
413.904 34.475 L
415.324 34.355 L
416.745 34.239 L
418.165 34.126 L
419.585 34.018 L
421.005 33.914 L
422.425 33.813 L
423.845 33.717 L
425.265 33.624 L
426.685 33.536 L
428.105 33.452 L
429.526 33.371 L
430.946 33.295 L
432.366 33.223 L
433.786 33.155 L
435.206 33.091 L
436.626 33.031 L
438.046 32.976 L
439.466 32.924 L
440.887 32.877 L
442.307 32.834 L
443.727 32.795 L
445.147 32.76 L
446.567 32.73 L
447.987 32.704 L
449.407 32.682 L
450.827 32.664 L
452.248 32.651 L
453.668 32.642 L
455.088 32.638 L
S
GR
GS
1 GC
N
499 366 M
499 218.5 L
327.5 218.5 L
327.5 366 L
cp
f
GR
GS
[1 0 0 1 364.5 228.25] CT
/Helvetica 13 F
GS
[1 0 0 1 0 0] CT
0 5 moveto 
1 -1 scale
(Base Run) t 
GR
GR
GS
0 0.447 0.741 RC
1 LJ
0.5 LW
N
331.5 228.25 M
361.5 228.25 L
S
GR
GS
[1 0 0 1 364.5 244.25] CT
/Helvetica 13 F
GS
[1 0 0 1 0 0] CT
0 5 moveto 
1 -1 scale
(All Frames) t 
GR
GR
GS
0.851 0.325 0.098 RC
1 LJ
0.5 LW
N
331.5 244.25 M
361.5 244.25 L
S
GR
GS
[1 0 0 1 364.5 260.25] CT
/Helvetica 13 F
GS
[1 0 0 1 0 0] CT
0 5 moveto 
1 -1 scale
(KF Only) t 
GR
GR
GS
0.929 0.694 0.125 RC
1 LJ
0.5 LW
N
331.5 260.25 M
361.5 260.25 L
S
GR
GS
[1 0 0 1 364.5 276.25] CT
/Helvetica 13 F
GS
[1 0 0 1 0 0] CT
0 5 moveto 
1 -1 scale
(GF, ARF Only) t 
GR
GR
GS
0.494 0.184 0.557 RC
1 LJ
0.5 LW
N
331.5 276.25 M
361.5 276.25 L
S
GR
GS
[1 0 0 1 364.5 292.25] CT
/Helvetica 13 F
GS
[1 0 0 1 0 0] CT
0 5 moveto 
1 -1 scale
(KF, GF, ARF Only) t 
GR
GR
GS
0.467 0.675 0.188 RC
1 LJ
0.5 LW
N
331.5 292.25 M
361.5 292.25 L
S
GR
GS
[1 0 0 1 364.5 308.25] CT
/Helvetica 13 F
GS
[1 0 0 1 0 0] CT
0 5 moveto 
1 -1 scale
(Part All Frames) t 
GR
GR
GS
0.302 0.745 0.933 RC
[10 6] 0 setdash
2 LJ
0.5 LW
N
331.5 308.25 M
361.5 308.25 L
S
GR
GS
[1 0 0 1 364.5 324.25] CT
/Helvetica 13 F
GS
[1 0 0 1 0 0] CT
0 5 moveto 
1 -1 scale
(Part KF Only) t 
GR
GR
GS
0.635 0.078 0.184 RC
[10 6] 0 setdash
2 LJ
0.5 LW
N
331.5 324.25 M
361.5 324.25 L
S
GR
GS
[1 0 0 1 364.5 340.25] CT
/Helvetica 13 F
GS
[1 0 0 1 0 0] CT
0 5 moveto 
1 -1 scale
(Part GF, ARF Only) t 
GR
GR
GS
0 0.447 0.741 RC
[10 6] 0 setdash
2 LJ
0.5 LW
N
331.5 340.25 M
361.5 340.25 L
S
GR
GS
[1 0 0 1 364.5 356.25] CT
/Helvetica 13 F
GS
[1 0 0 1 0 0] CT
0 5 moveto 
1 -1 scale
(Part KF, GF, ARF Only) t 
GR
GR
GS
0.851 0.325 0.098 RC
[10 6] 0 setdash
2 LJ
0.5 LW
N
331.5 356.25 M
361.5 356.25 L
S
GR
GS
0.149 GC
10.0 ML
0.5 LW
N
327.5 366 M
327.5 218.5 L
499 218.5 L
499 366 L
cp
S
GR
%%Trailer
%%Pages: 1
%%EOF
