%!PS-Adobe-3.0 EPSF-3.0
%%Creator: (MATLAB, The Mathworks, Inc. Version 9.11.0.1837725 \(R2021b\) Update 2. Operating System: Mac OS X)
%%Title: plots/pchip/CoverSong_1080P-1b0c.y4m-hevc-APSNRU.eps
%%CreationDate: 2022-02-03T19:13:57
%%Pages: (atend)
%%BoundingBox:    33   425   508   826
%%LanguageLevel: 3
%%EndComments
%%BeginProlog
%%BeginResource: procset (Apache XML Graphics Std ProcSet) 1.2 0
%%Version: 1.2 0
%%Copyright: (Copyright 2001-2003,2010 The Apache Software Foundation. License terms: http://www.apache.org/licenses/LICENSE-2.0)
/bd{bind def}bind def
/ld{load def}bd
/GR/grestore ld
/GS/gsave ld
/RM/rmoveto ld
/C/curveto ld
/t/show ld
/L/lineto ld
/ML/setmiterlimit ld
/CT/concat ld
/f/fill ld
/N/newpath ld
/S/stroke ld
/CC/setcmykcolor ld
/A/ashow ld
/cp/closepath ld
/RC/setrgbcolor ld
/LJ/setlinejoin ld
/GC/setgray ld
/LW/setlinewidth ld
/M/moveto ld
/re {4 2 roll M
1 index 0 rlineto
0 exch rlineto
neg 0 rlineto
cp } bd
/_ctm matrix def
/_tm matrix def
/BT { _ctm currentmatrix pop matrix _tm copy pop 0 0 moveto } bd
/ET { _ctm setmatrix } bd
/iTm { _ctm setmatrix _tm concat } bd
/Tm { _tm astore pop iTm 0 0 moveto } bd
/ux 0.0 def
/uy 0.0 def
/F {
  /Tp exch def
  /Tf exch def
  Tf findfont Tp scalefont setfont
  /cf Tf def  /cs Tp def
} bd
/ULS {currentpoint /uy exch def /ux exch def} bd
/ULE {
  /Tcx currentpoint pop def
  gsave
  newpath
  cf findfont cs scalefont dup
  /FontMatrix get 0 get /Ts exch def /FontInfo get dup
  /UnderlinePosition get Ts mul /To exch def
  /UnderlineThickness get Ts mul /Tt exch def
  ux uy To add moveto  Tcx uy To add lineto
  Tt setlinewidth stroke
  grestore
} bd
/OLE {
  /Tcx currentpoint pop def
  gsave
  newpath
  cf findfont cs scalefont dup
  /FontMatrix get 0 get /Ts exch def /FontInfo get dup
  /UnderlinePosition get Ts mul /To exch def
  /UnderlineThickness get Ts mul /Tt exch def
  ux uy To add cs add moveto Tcx uy To add cs add lineto
  Tt setlinewidth stroke
  grestore
} bd
/SOE {
  /Tcx currentpoint pop def
  gsave
  newpath
  cf findfont cs scalefont dup
  /FontMatrix get 0 get /Ts exch def /FontInfo get dup
  /UnderlinePosition get Ts mul /To exch def
  /UnderlineThickness get Ts mul /Tt exch def
  ux uy To add cs 10 mul 26 idiv add moveto Tcx uy To add cs 10 mul 26 idiv add lineto
  Tt setlinewidth stroke
  grestore
} bd
/QT {
/Y22 exch store
/X22 exch store
/Y21 exch store
/X21 exch store
currentpoint
/Y21 load 2 mul add 3 div exch
/X21 load 2 mul add 3 div exch
/X21 load 2 mul /X22 load add 3 div
/Y21 load 2 mul /Y22 load add 3 div
/X22 load /Y22 load curveto
} bd
/SSPD {
dup length /d exch dict def
{
/v exch def
/k exch def
currentpagedevice k known {
/cpdv currentpagedevice k get def
v cpdv ne {
/upd false def
/nullv v type /nulltype eq def
/nullcpdv cpdv type /nulltype eq def
nullv nullcpdv or
{
/upd true def
} {
/sametype v type cpdv type eq def
sametype {
v type /arraytype eq {
/vlen v length def
/cpdvlen cpdv length def
vlen cpdvlen eq {
0 1 vlen 1 sub {
/i exch def
/obj v i get def
/cpdobj cpdv i get def
obj cpdobj ne {
/upd true def
exit
} if
} for
} {
/upd true def
} ifelse
} {
v type /dicttype eq {
v {
/dv exch def
/dk exch def
/cpddv cpdv dk get def
dv cpddv ne {
/upd true def
exit
} if
} forall
} {
/upd true def
} ifelse
} ifelse
} if
} ifelse
upd true eq {
d k v put
} if
} if
} if
} forall
d length 0 gt {
d setpagedevice
} if
} bd
/RE { % /NewFontName [NewEncodingArray] /FontName RE -
  findfont dup length dict begin
  {
    1 index /FID ne
    {def} {pop pop} ifelse
  } forall
  /Encoding exch def
  /FontName 1 index def
  currentdict definefont pop
  end
} bind def
%%EndResource
%%BeginResource: procset (Apache XML Graphics EPS ProcSet) 1.0 0
%%Version: 1.0 0
%%Copyright: (Copyright 2002-2003 The Apache Software Foundation. License terms: http://www.apache.org/licenses/LICENSE-2.0)
/BeginEPSF { %def
/b4_Inc_state save def         % Save state for cleanup
/dict_count countdictstack def % Count objects on dict stack
/op_count count 1 sub def      % Count objects on operand stack
userdict begin                 % Push userdict on dict stack
/showpage { } def              % Redefine showpage, { } = null proc
0 setgray 0 setlinecap         % Prepare graphics state
1 setlinewidth 0 setlinejoin
10 setmiterlimit [ ] 0 setdash newpath
/languagelevel where           % If level not equal to 1 then
{pop languagelevel             % set strokeadjust and
1 ne                           % overprint to their defaults.
{false setstrokeadjust false setoverprint
} if
} if
} bd
/EndEPSF { %def
count op_count sub {pop} repeat            % Clean up stacks
countdictstack dict_count sub {end} repeat
b4_Inc_state restore
} bd
%%EndResource
%FOPBeginFontDict
%%IncludeResource: font Courier-Oblique
%%IncludeResource: font Courier-BoldOblique
%%IncludeResource: font Courier-Bold
%%IncludeResource: font ZapfDingbats
%%IncludeResource: font Symbol
%%IncludeResource: font Helvetica
%%IncludeResource: font Helvetica-Oblique
%%IncludeResource: font Helvetica-Bold
%%IncludeResource: font Helvetica-BoldOblique
%%IncludeResource: font Times-Roman
%%IncludeResource: font Times-Italic
%%IncludeResource: font Times-Bold
%%IncludeResource: font Times-BoldItalic
%%IncludeResource: font Courier
%FOPEndFontDict
%%BeginResource: encoding WinAnsiEncoding
/WinAnsiEncoding [
/.notdef /.notdef /.notdef /.notdef /.notdef
/.notdef /.notdef /.notdef /.notdef /.notdef
/.notdef /.notdef /.notdef /.notdef /.notdef
/.notdef /.notdef /.notdef /.notdef /.notdef
/.notdef /.notdef /.notdef /.notdef /.notdef
/.notdef /.notdef /.notdef /.notdef /.notdef
/.notdef /.notdef /space /exclam /quotedbl
/numbersign /dollar /percent /ampersand /quotesingle
/parenleft /parenright /asterisk /plus /comma
/hyphen /period /slash /zero /one
/two /three /four /five /six
/seven /eight /nine /colon /semicolon
/less /equal /greater /question /at
/A /B /C /D /E
/F /G /H /I /J
/K /L /M /N /O
/P /Q /R /S /T
/U /V /W /X /Y
/Z /bracketleft /backslash /bracketright /asciicircum
/underscore /quoteleft /a /b /c
/d /e /f /g /h
/i /j /k /l /m
/n /o /p /q /r
/s /t /u /v /w
/x /y /z /braceleft /bar
/braceright /asciitilde /bullet /Euro /bullet
/quotesinglbase /florin /quotedblbase /ellipsis /dagger
/daggerdbl /circumflex /perthousand /Scaron /guilsinglleft
/OE /bullet /Zcaron /bullet /bullet
/quoteleft /quoteright /quotedblleft /quotedblright /bullet
/endash /emdash /asciitilde /trademark /scaron
/guilsinglright /oe /bullet /zcaron /Ydieresis
/space /exclamdown /cent /sterling /currency
/yen /brokenbar /section /dieresis /copyright
/ordfeminine /guillemotleft /logicalnot /sfthyphen /registered
/macron /degree /plusminus /twosuperior /threesuperior
/acute /mu /paragraph /middot /cedilla
/onesuperior /ordmasculine /guillemotright /onequarter /onehalf
/threequarters /questiondown /Agrave /Aacute /Acircumflex
/Atilde /Adieresis /Aring /AE /Ccedilla
/Egrave /Eacute /Ecircumflex /Edieresis /Igrave
/Iacute /Icircumflex /Idieresis /Eth /Ntilde
/Ograve /Oacute /Ocircumflex /Otilde /Odieresis
/multiply /Oslash /Ugrave /Uacute /Ucircumflex
/Udieresis /Yacute /Thorn /germandbls /agrave
/aacute /acircumflex /atilde /adieresis /aring
/ae /ccedilla /egrave /eacute /ecircumflex
/edieresis /igrave /iacute /icircumflex /idieresis
/eth /ntilde /ograve /oacute /ocircumflex
/otilde /odieresis /divide /oslash /ugrave
/uacute /ucircumflex /udieresis /yacute /thorn
/ydieresis
] def
%%EndResource
%FOPBeginFontReencode
/Courier-Oblique findfont
dup length dict begin
  {1 index /FID ne {def} {pop pop} ifelse} forall
  /Encoding WinAnsiEncoding def
  currentdict
end
/Courier-Oblique exch definefont pop
/Courier-BoldOblique findfont
dup length dict begin
  {1 index /FID ne {def} {pop pop} ifelse} forall
  /Encoding WinAnsiEncoding def
  currentdict
end
/Courier-BoldOblique exch definefont pop
/Courier-Bold findfont
dup length dict begin
  {1 index /FID ne {def} {pop pop} ifelse} forall
  /Encoding WinAnsiEncoding def
  currentdict
end
/Courier-Bold exch definefont pop
/Helvetica findfont
dup length dict begin
  {1 index /FID ne {def} {pop pop} ifelse} forall
  /Encoding WinAnsiEncoding def
  currentdict
end
/Helvetica exch definefont pop
/Helvetica-Oblique findfont
dup length dict begin
  {1 index /FID ne {def} {pop pop} ifelse} forall
  /Encoding WinAnsiEncoding def
  currentdict
end
/Helvetica-Oblique exch definefont pop
/Helvetica-Bold findfont
dup length dict begin
  {1 index /FID ne {def} {pop pop} ifelse} forall
  /Encoding WinAnsiEncoding def
  currentdict
end
/Helvetica-Bold exch definefont pop
/Helvetica-BoldOblique findfont
dup length dict begin
  {1 index /FID ne {def} {pop pop} ifelse} forall
  /Encoding WinAnsiEncoding def
  currentdict
end
/Helvetica-BoldOblique exch definefont pop
/Times-Roman findfont
dup length dict begin
  {1 index /FID ne {def} {pop pop} ifelse} forall
  /Encoding WinAnsiEncoding def
  currentdict
end
/Times-Roman exch definefont pop
/Times-Italic findfont
dup length dict begin
  {1 index /FID ne {def} {pop pop} ifelse} forall
  /Encoding WinAnsiEncoding def
  currentdict
end
/Times-Italic exch definefont pop
/Times-Bold findfont
dup length dict begin
  {1 index /FID ne {def} {pop pop} ifelse} forall
  /Encoding WinAnsiEncoding def
  currentdict
end
/Times-Bold exch definefont pop
/Times-BoldItalic findfont
dup length dict begin
  {1 index /FID ne {def} {pop pop} ifelse} forall
  /Encoding WinAnsiEncoding def
  currentdict
end
/Times-BoldItalic exch definefont pop
/Courier findfont
dup length dict begin
  {1 index /FID ne {def} {pop pop} ifelse} forall
  /Encoding WinAnsiEncoding def
  currentdict
end
/Courier exch definefont pop
%FOPEndFontReencode
%%EndProlog
%%Page: 1 1
%%PageBoundingBox: 0 0 1120 840
%%BeginPageSetup
[1 0 0 -1 0 840] CT
%%EndPageSetup
GS
1 GC
N
0 0 1120 840 re
f
GR
GS
1 GC
N
73 374 M
507 374 L
507 31.5 L
73 31.5 L
cp
f
GR
GS
0.149 GC
2 setlinecap
1 LJ
0.5 LW
N
73 374 M
507 374 L
S
GR
GS
0.149 GC
2 setlinecap
1 LJ
0.5 LW
N
73 31.5 M
507 31.5 L
S
GR
GS
0.149 GC
2 setlinecap
1 LJ
0.5 LW
N
127.149 374 M
127.149 369.66 L
S
GR
GS
0.149 GC
2 setlinecap
1 LJ
0.5 LW
N
209.838 374 M
209.838 369.66 L
S
GR
GS
0.149 GC
2 setlinecap
1 LJ
0.5 LW
N
292.528 374 M
292.528 369.66 L
S
GR
GS
0.149 GC
2 setlinecap
1 LJ
0.5 LW
N
375.217 374 M
375.217 369.66 L
S
GR
GS
0.149 GC
2 setlinecap
1 LJ
0.5 LW
N
457.906 374 M
457.906 369.66 L
S
GR
GS
0.149 GC
2 setlinecap
1 LJ
0.5 LW
N
127.149 31.5 M
127.149 35.84 L
S
GR
GS
0.149 GC
2 setlinecap
1 LJ
0.5 LW
N
209.838 31.5 M
209.838 35.84 L
S
GR
GS
0.149 GC
2 setlinecap
1 LJ
0.5 LW
N
292.528 31.5 M
292.528 35.84 L
S
GR
GS
0.149 GC
2 setlinecap
1 LJ
0.5 LW
N
375.217 31.5 M
375.217 35.84 L
S
GR
GS
0.149 GC
2 setlinecap
1 LJ
0.5 LW
N
457.906 31.5 M
457.906 35.84 L
S
GR
GS
0.149 GC
2 setlinecap
1 LJ
0.5 LW
N
77.536 374 M
77.536 371.83 L
S
GR
GS
0.149 GC
2 setlinecap
1 LJ
0.5 LW
N
94.073 374 M
94.073 371.83 L
S
GR
GS
0.149 GC
2 setlinecap
1 LJ
0.5 LW
N
110.611 374 M
110.611 371.83 L
S
GR
GS
0.149 GC
2 setlinecap
1 LJ
0.5 LW
N
143.687 374 M
143.687 371.83 L
S
GR
GS
0.149 GC
2 setlinecap
1 LJ
0.5 LW
N
160.225 374 M
160.225 371.83 L
S
GR
GS
0.149 GC
2 setlinecap
1 LJ
0.5 LW
N
176.763 374 M
176.763 371.83 L
S
GR
GS
0.149 GC
2 setlinecap
1 LJ
0.5 LW
N
193.301 374 M
193.301 371.83 L
S
GR
GS
0.149 GC
2 setlinecap
1 LJ
0.5 LW
N
226.376 374 M
226.376 371.83 L
S
GR
GS
0.149 GC
2 setlinecap
1 LJ
0.5 LW
N
242.914 374 M
242.914 371.83 L
S
GR
GS
0.149 GC
2 setlinecap
1 LJ
0.5 LW
N
259.452 374 M
259.452 371.83 L
S
GR
GS
0.149 GC
2 setlinecap
1 LJ
0.5 LW
N
275.99 374 M
275.99 371.83 L
S
GR
GS
0.149 GC
2 setlinecap
1 LJ
0.5 LW
N
309.066 374 M
309.066 371.83 L
S
GR
GS
0.149 GC
2 setlinecap
1 LJ
0.5 LW
N
325.603 374 M
325.603 371.83 L
S
GR
GS
0.149 GC
2 setlinecap
1 LJ
0.5 LW
N
342.141 374 M
342.141 371.83 L
S
GR
GS
0.149 GC
2 setlinecap
1 LJ
0.5 LW
N
358.679 374 M
358.679 371.83 L
S
GR
GS
0.149 GC
2 setlinecap
1 LJ
0.5 LW
N
391.755 374 M
391.755 371.83 L
S
GR
GS
0.149 GC
2 setlinecap
1 LJ
0.5 LW
N
408.293 374 M
408.293 371.83 L
S
GR
GS
0.149 GC
2 setlinecap
1 LJ
0.5 LW
N
424.831 374 M
424.831 371.83 L
S
GR
GS
0.149 GC
2 setlinecap
1 LJ
0.5 LW
N
441.368 374 M
441.368 371.83 L
S
GR
GS
0.149 GC
2 setlinecap
1 LJ
0.5 LW
N
474.444 374 M
474.444 371.83 L
S
GR
GS
0.149 GC
2 setlinecap
1 LJ
0.5 LW
N
490.982 374 M
490.982 371.83 L
S
GR
GS
0.149 GC
2 setlinecap
1 LJ
0.5 LW
N
77.536 31.5 M
77.536 33.67 L
S
GR
GS
0.149 GC
2 setlinecap
1 LJ
0.5 LW
N
94.073 31.5 M
94.073 33.67 L
S
GR
GS
0.149 GC
2 setlinecap
1 LJ
0.5 LW
N
110.611 31.5 M
110.611 33.67 L
S
GR
GS
0.149 GC
2 setlinecap
1 LJ
0.5 LW
N
143.687 31.5 M
143.687 33.67 L
S
GR
GS
0.149 GC
2 setlinecap
1 LJ
0.5 LW
N
160.225 31.5 M
160.225 33.67 L
S
GR
GS
0.149 GC
2 setlinecap
1 LJ
0.5 LW
N
176.763 31.5 M
176.763 33.67 L
S
GR
GS
0.149 GC
2 setlinecap
1 LJ
0.5 LW
N
193.301 31.5 M
193.301 33.67 L
S
GR
GS
0.149 GC
2 setlinecap
1 LJ
0.5 LW
N
226.376 31.5 M
226.376 33.67 L
S
GR
GS
0.149 GC
2 setlinecap
1 LJ
0.5 LW
N
242.914 31.5 M
242.914 33.67 L
S
GR
GS
0.149 GC
2 setlinecap
1 LJ
0.5 LW
N
259.452 31.5 M
259.452 33.67 L
S
GR
GS
0.149 GC
2 setlinecap
1 LJ
0.5 LW
N
275.99 31.5 M
275.99 33.67 L
S
GR
GS
0.149 GC
2 setlinecap
1 LJ
0.5 LW
N
309.066 31.5 M
309.066 33.67 L
S
GR
GS
0.149 GC
2 setlinecap
1 LJ
0.5 LW
N
325.603 31.5 M
325.603 33.67 L
S
GR
GS
0.149 GC
2 setlinecap
1 LJ
0.5 LW
N
342.141 31.5 M
342.141 33.67 L
S
GR
GS
0.149 GC
2 setlinecap
1 LJ
0.5 LW
N
358.679 31.5 M
358.679 33.67 L
S
GR
GS
0.149 GC
2 setlinecap
1 LJ
0.5 LW
N
391.755 31.5 M
391.755 33.67 L
S
GR
GS
0.149 GC
2 setlinecap
1 LJ
0.5 LW
N
408.293 31.5 M
408.293 33.67 L
S
GR
GS
0.149 GC
2 setlinecap
1 LJ
0.5 LW
N
424.831 31.5 M
424.831 33.67 L
S
GR
GS
0.149 GC
2 setlinecap
1 LJ
0.5 LW
N
441.368 31.5 M
441.368 33.67 L
S
GR
GS
0.149 GC
2 setlinecap
1 LJ
0.5 LW
N
474.444 31.5 M
474.444 33.67 L
S
GR
GS
0.149 GC
2 setlinecap
1 LJ
0.5 LW
N
490.982 31.5 M
490.982 33.67 L
S
GR
GS
[1 0 0 1 127.14912 378.79996] CT
0.149 GC
/Helvetica 14 F
GS
[1 0 0 1 0 0] CT
-16 14 moveto 
1 -1 scale
(1000) t 
GR
GR
GS
[1 0 0 1 209.83844 378.79996] CT
0.149 GC
/Helvetica 14 F
GS
[1 0 0 1 0 0] CT
-16 14 moveto 
1 -1 scale
(2000) t 
GR
GR
GS
[1 0 0 1 292.52774 378.79996] CT
0.149 GC
/Helvetica 14 F
GS
[1 0 0 1 0 0] CT
-16 14 moveto 
1 -1 scale
(3000) t 
GR
GR
GS
[1 0 0 1 375.21704 378.79996] CT
0.149 GC
/Helvetica 14 F
GS
[1 0 0 1 0 0] CT
-16 14 moveto 
1 -1 scale
(4000) t 
GR
GR
GS
[1 0 0 1 457.90637 378.79996] CT
0.149 GC
/Helvetica 14 F
GS
[1 0 0 1 0 0] CT
-16 14 moveto 
1 -1 scale
(5000) t 
GR
GR
GS
[1 0 0 1 290.00021 396.29996] CT
0.149 GC
/Helvetica 15.4 F
GS
[1 0 0 1 0 0] CT
-42 15 moveto 
1 -1 scale
(Bitrate\(kb/s\)) t 
GR
GR
GS
0.149 GC
2 setlinecap
1 LJ
0.5 LW
N
73 374 M
73 31.5 L
S
GR
GS
0.149 GC
2 setlinecap
1 LJ
0.5 LW
N
507 374 M
507 31.5 L
S
GR
GS
0.149 GC
2 setlinecap
1 LJ
0.5 LW
N
73 352.269 M
77.34 352.269 L
S
GR
GS
0.149 GC
2 setlinecap
1 LJ
0.5 LW
N
73 309.548 M
77.34 309.548 L
S
GR
GS
0.149 GC
2 setlinecap
1 LJ
0.5 LW
N
73 266.828 M
77.34 266.828 L
S
GR
GS
0.149 GC
2 setlinecap
1 LJ
0.5 LW
N
73 224.108 M
77.34 224.108 L
S
GR
GS
0.149 GC
2 setlinecap
1 LJ
0.5 LW
N
73 181.388 M
77.34 181.388 L
S
GR
GS
0.149 GC
2 setlinecap
1 LJ
0.5 LW
N
73 138.667 M
77.34 138.667 L
S
GR
GS
0.149 GC
2 setlinecap
1 LJ
0.5 LW
N
73 95.947 M
77.34 95.947 L
S
GR
GS
0.149 GC
2 setlinecap
1 LJ
0.5 LW
N
73 53.227 M
77.34 53.227 L
S
GR
GS
0.149 GC
2 setlinecap
1 LJ
0.5 LW
N
507 352.269 M
502.66 352.269 L
S
GR
GS
0.149 GC
2 setlinecap
1 LJ
0.5 LW
N
507 309.548 M
502.66 309.548 L
S
GR
GS
0.149 GC
2 setlinecap
1 LJ
0.5 LW
N
507 266.828 M
502.66 266.828 L
S
GR
GS
0.149 GC
2 setlinecap
1 LJ
0.5 LW
N
507 224.108 M
502.66 224.108 L
S
GR
GS
0.149 GC
2 setlinecap
1 LJ
0.5 LW
N
507 181.388 M
502.66 181.388 L
S
GR
GS
0.149 GC
2 setlinecap
1 LJ
0.5 LW
N
507 138.667 M
502.66 138.667 L
S
GR
GS
0.149 GC
2 setlinecap
1 LJ
0.5 LW
N
507 95.947 M
502.66 95.947 L
S
GR
GS
0.149 GC
2 setlinecap
1 LJ
0.5 LW
N
507 53.227 M
502.66 53.227 L
S
GR
GS
0.149 GC
2 setlinecap
1 LJ
0.5 LW
N
73 369.357 M
75.17 369.357 L
S
GR
GS
0.149 GC
2 setlinecap
1 LJ
0.5 LW
N
73 360.813 M
75.17 360.813 L
S
GR
GS
0.149 GC
2 setlinecap
1 LJ
0.5 LW
N
73 343.725 M
75.17 343.725 L
S
GR
GS
0.149 GC
2 setlinecap
1 LJ
0.5 LW
N
73 335.18 M
75.17 335.18 L
S
GR
GS
0.149 GC
2 setlinecap
1 LJ
0.5 LW
N
73 326.637 M
75.17 326.637 L
S
GR
GS
0.149 GC
2 setlinecap
1 LJ
0.5 LW
N
73 318.092 M
75.17 318.092 L
S
GR
GS
0.149 GC
2 setlinecap
1 LJ
0.5 LW
N
73 301.004 M
75.17 301.004 L
S
GR
GS
0.149 GC
2 setlinecap
1 LJ
0.5 LW
N
73 292.46 M
75.17 292.46 L
S
GR
GS
0.149 GC
2 setlinecap
1 LJ
0.5 LW
N
73 283.916 M
75.17 283.916 L
S
GR
GS
0.149 GC
2 setlinecap
1 LJ
0.5 LW
N
73 275.372 M
75.17 275.372 L
S
GR
GS
0.149 GC
2 setlinecap
1 LJ
0.5 LW
N
73 258.284 M
75.17 258.284 L
S
GR
GS
0.149 GC
2 setlinecap
1 LJ
0.5 LW
N
73 249.74 M
75.17 249.74 L
S
GR
GS
0.149 GC
2 setlinecap
1 LJ
0.5 LW
N
73 241.196 M
75.17 241.196 L
S
GR
GS
0.149 GC
2 setlinecap
1 LJ
0.5 LW
N
73 232.652 M
75.17 232.652 L
S
GR
GS
0.149 GC
2 setlinecap
1 LJ
0.5 LW
N
73 215.564 M
75.17 215.564 L
S
GR
GS
0.149 GC
2 setlinecap
1 LJ
0.5 LW
N
73 207.02 M
75.17 207.02 L
S
GR
GS
0.149 GC
2 setlinecap
1 LJ
0.5 LW
N
73 198.476 M
75.17 198.476 L
S
GR
GS
0.149 GC
2 setlinecap
1 LJ
0.5 LW
N
73 189.932 M
75.17 189.932 L
S
GR
GS
0.149 GC
2 setlinecap
1 LJ
0.5 LW
N
73 172.844 M
75.17 172.844 L
S
GR
GS
0.149 GC
2 setlinecap
1 LJ
0.5 LW
N
73 164.299 M
75.17 164.299 L
S
GR
GS
0.149 GC
2 setlinecap
1 LJ
0.5 LW
N
73 155.756 M
75.17 155.756 L
S
GR
GS
0.149 GC
2 setlinecap
1 LJ
0.5 LW
N
73 147.211 M
75.17 147.211 L
S
GR
GS
0.149 GC
2 setlinecap
1 LJ
0.5 LW
N
73 130.123 M
75.17 130.123 L
S
GR
GS
0.149 GC
2 setlinecap
1 LJ
0.5 LW
N
73 121.579 M
75.17 121.579 L
S
GR
GS
0.149 GC
2 setlinecap
1 LJ
0.5 LW
N
73 113.035 M
75.17 113.035 L
S
GR
GS
0.149 GC
2 setlinecap
1 LJ
0.5 LW
N
73 104.491 M
75.17 104.491 L
S
GR
GS
0.149 GC
2 setlinecap
1 LJ
0.5 LW
N
73 87.403 M
75.17 87.403 L
S
GR
GS
0.149 GC
2 setlinecap
1 LJ
0.5 LW
N
73 78.859 M
75.17 78.859 L
S
GR
GS
0.149 GC
2 setlinecap
1 LJ
0.5 LW
N
73 70.315 M
75.17 70.315 L
S
GR
GS
0.149 GC
2 setlinecap
1 LJ
0.5 LW
N
73 61.771 M
75.17 61.771 L
S
GR
GS
0.149 GC
2 setlinecap
1 LJ
0.5 LW
N
73 44.683 M
75.17 44.683 L
S
GR
GS
0.149 GC
2 setlinecap
1 LJ
0.5 LW
N
73 36.139 M
75.17 36.139 L
S
GR
GS
0.149 GC
2 setlinecap
1 LJ
0.5 LW
N
507 369.357 M
504.83 369.357 L
S
GR
GS
0.149 GC
2 setlinecap
1 LJ
0.5 LW
N
507 360.813 M
504.83 360.813 L
S
GR
GS
0.149 GC
2 setlinecap
1 LJ
0.5 LW
N
507 343.725 M
504.83 343.725 L
S
GR
GS
0.149 GC
2 setlinecap
1 LJ
0.5 LW
N
507 335.18 M
504.83 335.18 L
S
GR
GS
0.149 GC
2 setlinecap
1 LJ
0.5 LW
N
507 326.637 M
504.83 326.637 L
S
GR
GS
0.149 GC
2 setlinecap
1 LJ
0.5 LW
N
507 318.092 M
504.83 318.092 L
S
GR
GS
0.149 GC
2 setlinecap
1 LJ
0.5 LW
N
507 301.004 M
504.83 301.004 L
S
GR
GS
0.149 GC
2 setlinecap
1 LJ
0.5 LW
N
507 292.46 M
504.83 292.46 L
S
GR
GS
0.149 GC
2 setlinecap
1 LJ
0.5 LW
N
507 283.916 M
504.83 283.916 L
S
GR
GS
0.149 GC
2 setlinecap
1 LJ
0.5 LW
N
507 275.372 M
504.83 275.372 L
S
GR
GS
0.149 GC
2 setlinecap
1 LJ
0.5 LW
N
507 258.284 M
504.83 258.284 L
S
GR
GS
0.149 GC
2 setlinecap
1 LJ
0.5 LW
N
507 249.74 M
504.83 249.74 L
S
GR
GS
0.149 GC
2 setlinecap
1 LJ
0.5 LW
N
507 241.196 M
504.83 241.196 L
S
GR
GS
0.149 GC
2 setlinecap
1 LJ
0.5 LW
N
507 232.652 M
504.83 232.652 L
S
GR
GS
0.149 GC
2 setlinecap
1 LJ
0.5 LW
N
507 215.564 M
504.83 215.564 L
S
GR
GS
0.149 GC
2 setlinecap
1 LJ
0.5 LW
N
507 207.02 M
504.83 207.02 L
S
GR
GS
0.149 GC
2 setlinecap
1 LJ
0.5 LW
N
507 198.476 M
504.83 198.476 L
S
GR
GS
0.149 GC
2 setlinecap
1 LJ
0.5 LW
N
507 189.932 M
504.83 189.932 L
S
GR
GS
0.149 GC
2 setlinecap
1 LJ
0.5 LW
N
507 172.844 M
504.83 172.844 L
S
GR
GS
0.149 GC
2 setlinecap
1 LJ
0.5 LW
N
507 164.299 M
504.83 164.299 L
S
GR
GS
0.149 GC
2 setlinecap
1 LJ
0.5 LW
N
507 155.756 M
504.83 155.756 L
S
GR
GS
0.149 GC
2 setlinecap
1 LJ
0.5 LW
N
507 147.211 M
504.83 147.211 L
S
GR
GS
0.149 GC
2 setlinecap
1 LJ
0.5 LW
N
507 130.123 M
504.83 130.123 L
S
GR
GS
0.149 GC
2 setlinecap
1 LJ
0.5 LW
N
507 121.579 M
504.83 121.579 L
S
GR
GS
0.149 GC
2 setlinecap
1 LJ
0.5 LW
N
507 113.035 M
504.83 113.035 L
S
GR
GS
0.149 GC
2 setlinecap
1 LJ
0.5 LW
N
507 104.491 M
504.83 104.491 L
S
GR
GS
0.149 GC
2 setlinecap
1 LJ
0.5 LW
N
507 87.403 M
504.83 87.403 L
S
GR
GS
0.149 GC
2 setlinecap
1 LJ
0.5 LW
N
507 78.859 M
504.83 78.859 L
S
GR
GS
0.149 GC
2 setlinecap
1 LJ
0.5 LW
N
507 70.315 M
504.83 70.315 L
S
GR
GS
0.149 GC
2 setlinecap
1 LJ
0.5 LW
N
507 61.771 M
504.83 61.771 L
S
GR
GS
0.149 GC
2 setlinecap
1 LJ
0.5 LW
N
507 44.683 M
504.83 44.683 L
S
GR
GS
0.149 GC
2 setlinecap
1 LJ
0.5 LW
N
507 36.139 M
504.83 36.139 L
S
GR
GS
[1 0 0 1 68.2 352.26865] CT
0.149 GC
/Helvetica 14 F
GS
[1 0 0 1 0 0] CT
-16 5.5 moveto 
1 -1 scale
(40) t 
GR
GR
GS
[1 0 0 1 68.2 309.54837] CT
0.149 GC
/Helvetica 14 F
GS
[1 0 0 1 0 0] CT
-16 5.5 moveto 
1 -1 scale
(41) t 
GR
GR
GS
[1 0 0 1 68.2 266.82813] CT
0.149 GC
/Helvetica 14 F
GS
[1 0 0 1 0 0] CT
-16 5.5 moveto 
1 -1 scale
(42) t 
GR
GR
GS
[1 0 0 1 68.2 224.10785] CT
0.149 GC
/Helvetica 14 F
GS
[1 0 0 1 0 0] CT
-16 5.5 moveto 
1 -1 scale
(43) t 
GR
GR
GS
[1 0 0 1 68.2 181.38759] CT
0.149 GC
/Helvetica 14 F
GS
[1 0 0 1 0 0] CT
-16 5.5 moveto 
1 -1 scale
(44) t 
GR
GR
GS
[1 0 0 1 68.2 138.66733] CT
0.149 GC
/Helvetica 14 F
GS
[1 0 0 1 0 0] CT
-16 5.5 moveto 
1 -1 scale
(45) t 
GR
GR
GS
[1 0 0 1 68.2 95.94707] CT
0.149 GC
/Helvetica 14 F
GS
[1 0 0 1 0 0] CT
-16 5.5 moveto 
1 -1 scale
(46) t 
GR
GR
GS
[1 0 0 1 68.2 53.22682] CT
0.149 GC
/Helvetica 14 F
GS
[1 0 0 1 0 0] CT
-16 5.5 moveto 
1 -1 scale
(47) t 
GR
GR
GS
[0 -1 1 0 49.2 202.74985] CT
0.149 GC
/Helvetica 15.4 F
GS
[1 0 0 1 0 0] CT
-50.5 -4 moveto 
1 -1 scale
(APSNR-U \(dB\)) t 
GR
GR
GS
[1 0 0 1 290.00027 29.57508] CT
/Helvetica-Bold 15.4 F
GS
[1 0 0 1 0 0] CT
-126 -4 moveto 
1 -1 scale
(CoverSong_1080P-1b0c.y4m-hevc) t 
GR
GR
GS
0 0.447 0.741 RC
1 LJ
0.5 LW
N
74.911 366.381 M
76.565 357.648 L
78.219 348.969 L
79.873 340.39 L
81.526 331.957 L
83.18 323.717 L
84.834 315.717 L
86.488 308.003 L
88.142 300.623 L
89.795 293.622 L
91.449 287.048 L
93.103 280.947 L
94.757 275.366 L
96.41 270.351 L
98.064 265.949 L
99.718 261.942 L
101.372 258.073 L
103.026 254.34 L
104.679 250.737 L
106.333 247.262 L
107.987 243.909 L
109.641 240.676 L
111.295 237.557 L
112.948 234.548 L
114.602 231.646 L
116.256 228.847 L
117.91 226.147 L
119.563 223.54 L
121.217 221.024 L
122.871 218.595 L
124.525 216.248 L
126.179 213.979 L
127.832 211.784 L
129.486 209.659 L
131.14 207.6 L
132.794 205.604 L
134.448 203.665 L
136.101 201.78 L
137.755 199.944 L
139.409 198.155 L
141.063 196.407 L
142.716 194.693 L
144.37 193.006 L
146.024 191.343 L
147.678 189.706 L
149.332 188.093 L
150.985 186.504 L
152.639 184.939 L
154.293 183.397 L
155.947 181.879 L
157.601 180.383 L
159.254 178.91 L
160.908 177.459 L
162.562 176.029 L
164.216 174.621 L
165.869 173.233 L
167.523 171.867 L
169.177 170.52 L
170.831 169.193 L
172.485 167.886 L
174.138 166.598 L
175.792 165.328 L
177.446 164.077 L
179.1 162.844 L
180.754 161.628 L
182.407 160.43 L
184.061 159.248 L
185.715 158.083 L
187.369 156.935 L
189.022 155.802 L
190.676 154.684 L
192.33 153.582 L
193.984 152.495 L
195.638 151.421 L
197.291 150.362 L
198.945 149.316 L
200.599 148.284 L
202.253 147.264 L
203.907 146.257 L
205.56 145.263 L
207.214 144.28 L
208.868 143.308 L
210.522 142.347 L
212.175 141.398 L
213.829 140.458 L
215.483 139.529 L
217.137 138.609 L
218.791 137.698 L
220.444 136.796 L
222.098 135.903 L
223.752 135.018 L
225.406 134.141 L
227.06 133.27 L
228.713 132.408 L
230.367 131.551 L
232.021 130.702 L
233.675 129.858 L
235.328 129.018 L
236.982 128.179 L
238.636 127.34 L
240.29 126.502 L
241.944 125.665 L
243.597 124.829 L
245.251 123.994 L
246.905 123.159 L
248.559 122.326 L
250.213 121.494 L
251.866 120.662 L
253.52 119.832 L
255.174 119.003 L
256.828 118.175 L
258.481 117.348 L
260.135 116.523 L
261.789 115.698 L
263.443 114.876 L
265.097 114.054 L
266.75 113.234 L
268.404 112.416 L
270.058 111.599 L
271.712 110.784 L
273.366 109.97 L
275.019 109.158 L
276.673 108.348 L
278.327 107.54 L
279.981 106.733 L
281.634 105.928 L
283.288 105.125 L
284.942 104.325 L
286.596 103.526 L
288.25 102.729 L
289.903 101.934 L
291.557 101.142 L
293.211 100.351 L
294.865 99.563 L
296.519 98.777 L
298.172 97.994 L
299.826 97.213 L
301.48 96.434 L
303.134 95.657 L
304.788 94.884 L
306.441 94.112 L
308.095 93.344 L
309.749 92.577 L
311.403 91.814 L
313.056 91.054 L
314.71 90.296 L
316.364 89.541 L
318.018 88.789 L
319.672 88.039 L
321.325 87.293 L
322.979 86.55 L
324.633 85.81 L
326.287 85.072 L
327.941 84.338 L
329.594 83.608 L
331.248 82.88 L
332.902 82.156 L
334.556 81.435 L
336.209 80.717 L
337.863 80.003 L
339.517 79.292 L
341.171 78.585 L
342.825 77.882 L
344.478 77.182 L
346.132 76.485 L
347.786 75.792 L
349.44 75.103 L
351.094 74.418 L
352.747 73.737 L
354.401 73.059 L
356.055 72.386 L
357.709 71.716 L
359.362 71.05 L
361.016 70.389 L
362.67 69.731 L
364.324 69.078 L
365.978 68.429 L
367.631 67.784 L
369.285 67.143 L
370.939 66.507 L
372.593 65.875 L
374.247 65.247 L
375.9 64.624 L
377.554 64.006 L
379.208 63.392 L
380.862 62.782 L
382.515 62.178 L
384.169 61.577 L
385.823 60.982 L
387.477 60.392 L
389.131 59.806 L
390.784 59.225 L
392.438 58.649 L
394.092 58.078 L
395.746 57.512 L
397.4 56.951 L
399.053 56.395 L
400.707 55.845 L
402.361 55.299 L
404.015 54.759 L
405.668 54.224 L
407.322 53.694 L
408.976 53.17 L
410.63 52.651 L
412.284 52.138 L
413.937 51.63 L
415.591 51.127 L
417.245 50.631 L
418.899 50.139 L
420.553 49.654 L
422.206 49.174 L
423.86 48.7 L
425.514 48.232 L
427.168 47.77 L
428.821 47.314 L
430.475 46.864 L
432.129 46.419 L
433.783 45.981 L
435.437 45.549 L
437.09 45.123 L
438.744 44.703 L
440.398 44.289 L
442.052 43.882 L
443.706 43.481 L
445.359 43.087 L
447.013 42.698 L
448.667 42.317 L
450.321 41.942 L
451.974 41.573 L
453.628 41.211 L
455.282 40.856 L
456.936 40.507 L
458.59 40.165 L
460.243 39.829 L
461.897 39.501 L
463.551 39.18 L
465.205 38.865 L
466.859 38.558 L
468.512 38.257 L
470.166 37.963 L
471.82 37.677 L
473.474 37.398 L
475.128 37.126 L
476.781 36.861 L
478.435 36.603 L
480.089 36.353 L
481.743 36.11 L
483.396 35.874 L
485.05 35.646 L
486.704 35.426 L
488.358 35.213 L
490.012 35.008 L
491.665 34.81 L
493.319 34.62 L
494.973 34.438 L
496.627 34.263 L
S
GR
GS
0.851 0.325 0.098 RC
1 LJ
0.5 LW
N
74.059 371.975 M
75.713 362.97 L
77.367 354.025 L
79.02 345.188 L
80.674 336.511 L
82.328 328.045 L
83.982 319.839 L
85.636 311.945 L
87.289 304.412 L
88.943 297.292 L
90.597 290.634 L
92.251 284.49 L
93.905 278.909 L
95.558 273.943 L
97.212 269.587 L
98.866 265.464 L
100.52 261.486 L
102.173 257.648 L
103.827 253.946 L
105.481 250.376 L
107.135 246.934 L
108.789 243.615 L
110.442 240.415 L
112.096 237.33 L
113.75 234.356 L
115.404 231.489 L
117.058 228.724 L
118.711 226.057 L
120.365 223.484 L
122.019 221 L
123.673 218.602 L
125.326 216.285 L
126.98 214.045 L
128.634 211.878 L
130.288 209.779 L
131.942 207.745 L
133.595 205.77 L
135.249 203.852 L
136.903 201.985 L
138.557 200.165 L
140.211 198.381 L
141.864 196.625 L
143.518 194.897 L
145.172 193.195 L
146.826 191.519 L
148.479 189.87 L
150.133 188.247 L
151.787 186.649 L
153.441 185.075 L
155.095 183.527 L
156.748 182.002 L
158.402 180.501 L
160.056 179.023 L
161.71 177.568 L
163.364 176.135 L
165.017 174.725 L
166.671 173.336 L
168.325 171.968 L
169.979 170.622 L
171.632 169.295 L
173.286 167.989 L
174.94 166.702 L
176.594 165.435 L
178.248 164.186 L
179.901 162.956 L
181.555 161.744 L
183.209 160.549 L
184.863 159.372 L
186.517 158.212 L
188.17 157.067 L
189.824 155.939 L
191.478 154.826 L
193.132 153.729 L
194.785 152.646 L
196.439 151.578 L
198.093 150.524 L
199.747 149.483 L
201.401 148.455 L
203.054 147.441 L
204.708 146.438 L
206.362 145.447 L
208.016 144.468 L
209.67 143.501 L
211.323 142.543 L
212.977 141.597 L
214.631 140.66 L
216.285 139.732 L
217.938 138.814 L
219.592 137.904 L
221.246 137.003 L
222.9 136.11 L
224.554 135.224 L
226.207 134.345 L
227.861 133.473 L
229.515 132.605 L
231.169 131.738 L
232.823 130.871 L
234.476 130.005 L
236.13 129.14 L
237.784 128.276 L
239.438 127.412 L
241.091 126.55 L
242.745 125.688 L
244.399 124.828 L
246.053 123.969 L
247.707 123.111 L
249.36 122.254 L
251.014 121.398 L
252.668 120.544 L
254.322 119.691 L
255.976 118.839 L
257.629 117.989 L
259.283 117.14 L
260.937 116.294 L
262.591 115.448 L
264.244 114.605 L
265.898 113.763 L
267.552 112.922 L
269.206 112.084 L
270.86 111.248 L
272.513 110.413 L
274.167 109.581 L
275.821 108.75 L
277.475 107.922 L
279.129 107.096 L
280.782 106.272 L
282.436 105.45 L
284.09 104.63 L
285.744 103.813 L
287.397 102.999 L
289.051 102.186 L
290.705 101.376 L
292.359 100.569 L
294.013 99.765 L
295.666 98.963 L
297.32 98.163 L
298.974 97.367 L
300.628 96.573 L
302.282 95.782 L
303.935 94.994 L
305.589 94.209 L
307.243 93.427 L
308.897 92.649 L
310.551 91.873 L
312.204 91.1 L
313.858 90.331 L
315.512 89.565 L
317.166 88.802 L
318.819 88.043 L
320.473 87.287 L
322.127 86.534 L
323.781 85.785 L
325.435 85.04 L
327.088 84.298 L
328.742 83.56 L
330.396 82.826 L
332.05 82.095 L
333.703 81.369 L
335.357 80.646 L
337.011 79.927 L
338.665 79.212 L
340.319 78.502 L
341.972 77.795 L
343.626 77.092 L
345.28 76.394 L
346.934 75.7 L
348.588 75.01 L
350.241 74.325 L
351.895 73.644 L
353.549 72.967 L
355.203 72.295 L
356.857 71.628 L
358.51 70.965 L
360.164 70.307 L
361.818 69.653 L
363.472 69.004 L
365.125 68.361 L
366.779 67.721 L
368.433 67.087 L
370.087 66.458 L
371.741 65.834 L
373.394 65.215 L
375.048 64.601 L
376.702 63.993 L
378.356 63.389 L
380.01 62.791 L
381.663 62.198 L
383.317 61.611 L
384.971 61.028 L
386.625 60.452 L
388.278 59.881 L
389.932 59.316 L
391.586 58.756 L
393.24 58.202 L
394.894 57.653 L
396.547 57.111 L
398.201 56.574 L
399.855 56.044 L
401.509 55.519 L
403.163 55 L
404.816 54.487 L
406.47 53.98 L
408.124 53.48 L
409.778 52.986 L
411.431 52.498 L
413.085 52.016 L
414.739 51.541 L
416.393 51.072 L
418.047 50.609 L
419.7 50.153 L
421.354 49.704 L
423.008 49.261 L
424.662 48.825 L
426.316 48.396 L
427.969 47.973 L
429.623 47.557 L
431.277 47.149 L
432.931 46.747 L
434.584 46.352 L
436.238 45.964 L
437.892 45.583 L
439.546 45.209 L
441.2 44.843 L
442.853 44.484 L
444.507 44.132 L
446.161 43.787 L
447.815 43.45 L
449.469 43.12 L
451.122 42.798 L
452.776 42.483 L
454.43 42.176 L
456.084 41.876 L
457.737 41.585 L
459.391 41.301 L
461.045 41.024 L
462.699 40.756 L
464.353 40.496 L
466.006 40.243 L
467.66 39.999 L
469.314 39.762 L
470.968 39.534 L
472.622 39.314 L
474.275 39.102 L
475.929 38.898 L
477.583 38.703 L
479.237 38.516 L
480.89 38.338 L
482.544 38.168 L
484.198 38.006 L
S
GR
GS
0.929 0.694 0.125 RC
1 LJ
0.5 LW
N
73 374 M
74.654 364.93 L
76.308 355.922 L
77.961 347.027 L
79.615 338.297 L
81.269 329.784 L
82.923 321.539 L
84.576 313.615 L
86.23 306.062 L
87.884 298.934 L
89.538 292.281 L
91.192 286.155 L
92.845 280.609 L
94.499 275.693 L
96.153 271.327 L
97.807 267.137 L
99.461 263.093 L
101.114 259.19 L
102.768 255.424 L
104.422 251.792 L
106.076 248.288 L
107.73 244.91 L
109.383 241.652 L
111.037 238.51 L
112.691 235.481 L
114.345 232.559 L
115.998 229.742 L
117.652 227.024 L
119.306 224.402 L
120.96 221.871 L
122.614 219.428 L
124.267 217.067 L
125.921 214.785 L
127.575 212.578 L
129.229 210.441 L
130.883 208.371 L
132.536 206.363 L
134.19 204.413 L
135.844 202.516 L
137.498 200.666 L
139.151 198.847 L
140.805 197.057 L
142.459 195.294 L
144.113 193.559 L
145.767 191.852 L
147.42 190.171 L
149.074 188.516 L
150.728 186.888 L
152.382 185.285 L
154.036 183.707 L
155.689 182.154 L
157.343 180.625 L
158.997 179.12 L
160.651 177.639 L
162.304 176.18 L
163.958 174.745 L
165.612 173.331 L
167.266 171.939 L
168.92 170.569 L
170.573 169.219 L
172.227 167.891 L
173.881 166.582 L
175.535 165.293 L
177.189 164.023 L
178.842 162.772 L
180.496 161.54 L
182.15 160.326 L
183.804 159.129 L
185.457 157.949 L
187.111 156.787 L
188.765 155.64 L
190.419 154.51 L
192.073 153.395 L
193.726 152.295 L
195.38 151.21 L
197.034 150.14 L
198.688 149.083 L
200.342 148.04 L
201.995 147.009 L
203.649 145.991 L
205.303 144.986 L
206.957 143.992 L
208.61 143.01 L
210.264 142.039 L
211.918 141.078 L
213.572 140.127 L
215.226 139.186 L
216.879 138.254 L
218.533 137.332 L
220.187 136.417 L
221.841 135.511 L
223.495 134.612 L
225.148 133.721 L
226.802 132.834 L
228.456 131.948 L
230.11 131.062 L
231.763 130.178 L
233.417 129.294 L
235.071 128.411 L
236.725 127.529 L
238.379 126.647 L
240.032 125.767 L
241.686 124.888 L
243.34 124.01 L
244.994 123.133 L
246.648 122.258 L
248.301 121.383 L
249.955 120.51 L
251.609 119.639 L
253.263 118.769 L
254.916 117.9 L
256.57 117.033 L
258.224 116.167 L
259.878 115.303 L
261.532 114.441 L
263.185 113.581 L
264.839 112.722 L
266.493 111.865 L
268.147 111.011 L
269.801 110.158 L
271.454 109.307 L
273.108 108.459 L
274.762 107.612 L
276.416 106.768 L
278.069 105.926 L
279.723 105.086 L
281.377 104.249 L
283.031 103.413 L
284.685 102.581 L
286.338 101.751 L
287.992 100.924 L
289.646 100.099 L
291.3 99.277 L
292.954 98.457 L
294.607 97.641 L
296.261 96.827 L
297.915 96.016 L
299.569 95.208 L
301.223 94.404 L
302.876 93.602 L
304.53 92.803 L
306.184 92.008 L
307.838 91.215 L
309.491 90.426 L
311.145 89.641 L
312.799 88.859 L
314.453 88.08 L
316.107 87.304 L
317.76 86.533 L
319.414 85.765 L
321.068 85 L
322.722 84.239 L
324.375 83.482 L
326.029 82.729 L
327.683 81.98 L
329.337 81.234 L
330.991 80.493 L
332.644 79.756 L
334.298 79.022 L
335.952 78.293 L
337.606 77.568 L
339.26 76.848 L
340.913 76.131 L
342.567 75.419 L
344.221 74.712 L
345.875 74.009 L
347.529 73.31 L
349.182 72.616 L
350.836 71.927 L
352.49 71.242 L
354.144 70.562 L
355.797 69.887 L
357.451 69.217 L
359.105 68.551 L
360.759 67.891 L
362.413 67.236 L
364.066 66.585 L
365.72 65.94 L
367.374 65.3 L
369.028 64.665 L
370.682 64.036 L
372.335 63.411 L
373.989 62.793 L
375.643 62.179 L
377.297 61.572 L
378.95 60.969 L
380.604 60.373 L
382.258 59.782 L
383.912 59.196 L
385.566 58.617 L
387.219 58.043 L
388.873 57.475 L
390.527 56.913 L
392.181 56.358 L
393.835 55.808 L
395.488 55.264 L
397.142 54.726 L
398.796 54.195 L
400.45 53.67 L
402.103 53.151 L
403.757 52.639 L
405.411 52.133 L
407.065 51.633 L
408.719 51.14 L
410.372 50.653 L
412.026 50.174 L
413.68 49.7 L
415.334 49.234 L
416.988 48.774 L
418.641 48.322 L
420.295 47.876 L
421.949 47.437 L
423.603 47.005 L
425.256 46.58 L
426.91 46.163 L
428.564 45.752 L
430.218 45.349 L
431.872 44.953 L
433.525 44.565 L
435.179 44.183 L
436.833 43.81 L
438.487 43.443 L
440.141 43.085 L
441.794 42.734 L
443.448 42.39 L
445.102 42.054 L
446.756 41.727 L
448.409 41.406 L
450.063 41.094 L
451.717 40.79 L
453.371 40.494 L
455.025 40.205 L
456.678 39.925 L
458.332 39.653 L
459.986 39.39 L
461.64 39.134 L
463.294 38.887 L
464.947 38.648 L
466.601 38.418 L
468.255 38.196 L
469.909 37.982 L
471.562 37.778 L
473.216 37.581 L
474.87 37.394 L
476.524 37.215 L
478.178 37.045 L
479.831 36.884 L
S
GR
GS
0.494 0.184 0.557 RC
1 LJ
0.5 LW
N
74.774 369.095 M
76.428 360.136 L
78.082 351.229 L
79.735 342.424 L
81.389 333.773 L
83.043 325.324 L
84.697 317.127 L
86.351 309.233 L
88.004 301.692 L
89.658 294.553 L
91.312 287.867 L
92.966 281.684 L
94.619 276.053 L
96.273 271.024 L
97.927 266.639 L
99.581 262.577 L
101.235 258.657 L
102.888 254.875 L
104.542 251.227 L
106.196 247.709 L
107.85 244.316 L
109.504 241.044 L
111.157 237.89 L
112.811 234.85 L
114.465 231.918 L
116.119 229.091 L
117.772 226.364 L
119.426 223.735 L
121.08 221.197 L
122.734 218.748 L
124.388 216.383 L
126.041 214.099 L
127.695 211.89 L
129.349 209.753 L
131.003 207.683 L
132.657 205.677 L
134.31 203.73 L
135.964 201.838 L
137.618 199.998 L
139.272 198.204 L
140.925 196.453 L
142.579 194.734 L
144.233 193.042 L
145.887 191.376 L
147.541 189.735 L
149.194 188.12 L
150.848 186.53 L
152.502 184.965 L
154.156 183.423 L
155.81 181.906 L
157.463 180.412 L
159.117 178.94 L
160.771 177.492 L
162.425 176.065 L
164.078 174.661 L
165.732 173.277 L
167.386 171.915 L
169.04 170.574 L
170.694 169.252 L
172.347 167.951 L
174.001 166.669 L
175.655 165.405 L
177.309 164.161 L
178.963 162.935 L
180.616 161.727 L
182.27 160.536 L
183.924 159.362 L
185.578 158.205 L
187.232 157.064 L
188.885 155.939 L
190.539 154.83 L
192.193 153.736 L
193.847 152.656 L
195.5 151.591 L
197.154 150.54 L
198.808 149.502 L
200.462 148.478 L
202.116 147.466 L
203.769 146.467 L
205.423 145.479 L
207.077 144.503 L
208.731 143.538 L
210.385 142.584 L
212.038 141.641 L
213.692 140.707 L
215.346 139.783 L
217 138.869 L
218.653 137.963 L
220.307 137.065 L
221.961 136.176 L
223.615 135.294 L
225.269 134.419 L
226.922 133.552 L
228.576 132.691 L
230.23 131.835 L
231.884 130.986 L
233.538 130.141 L
235.191 129.297 L
236.845 128.454 L
238.499 127.611 L
240.153 126.769 L
241.806 125.928 L
243.46 125.088 L
245.114 124.249 L
246.768 123.411 L
248.422 122.573 L
250.075 121.737 L
251.729 120.902 L
253.383 120.068 L
255.037 119.236 L
256.691 118.404 L
258.344 117.574 L
259.998 116.745 L
261.652 115.918 L
263.306 115.092 L
264.959 114.267 L
266.613 113.444 L
268.267 112.623 L
269.921 111.803 L
271.575 110.985 L
273.228 110.168 L
274.882 109.354 L
276.536 108.541 L
278.19 107.73 L
279.844 106.92 L
281.497 106.113 L
283.151 105.308 L
284.805 104.505 L
286.459 103.703 L
288.112 102.904 L
289.766 102.107 L
291.42 101.313 L
293.074 100.52 L
294.728 99.73 L
296.381 98.942 L
298.035 98.157 L
299.689 97.374 L
301.343 96.593 L
302.997 95.815 L
304.65 95.04 L
306.304 94.267 L
307.958 93.497 L
309.612 92.729 L
311.265 91.965 L
312.919 91.203 L
314.573 90.444 L
316.227 89.688 L
317.881 88.935 L
319.534 88.184 L
321.188 87.437 L
322.842 86.693 L
324.496 85.952 L
326.15 85.215 L
327.803 84.48 L
329.457 83.749 L
331.111 83.021 L
332.765 82.296 L
334.418 81.575 L
336.072 80.857 L
337.726 80.143 L
339.38 79.432 L
341.034 78.725 L
342.687 78.021 L
344.341 77.321 L
345.995 76.625 L
347.649 75.933 L
349.303 75.244 L
350.956 74.56 L
352.61 73.879 L
354.264 73.202 L
355.918 72.529 L
357.571 71.86 L
359.225 71.195 L
360.879 70.535 L
362.533 69.879 L
364.187 69.226 L
365.84 68.578 L
367.494 67.935 L
369.148 67.296 L
370.802 66.661 L
372.456 66.03 L
374.109 65.405 L
375.763 64.783 L
377.417 64.166 L
379.071 63.554 L
380.724 62.947 L
382.378 62.344 L
384.032 61.746 L
385.686 61.153 L
387.34 60.565 L
388.993 59.982 L
390.647 59.404 L
392.301 58.83 L
393.955 58.262 L
395.609 57.699 L
397.262 57.141 L
398.916 56.588 L
400.57 56.04 L
402.224 55.498 L
403.878 54.961 L
405.531 54.429 L
407.185 53.903 L
408.839 53.382 L
410.493 52.867 L
412.146 52.358 L
413.8 51.854 L
415.454 51.355 L
417.108 50.862 L
418.762 50.375 L
420.415 49.894 L
422.069 49.419 L
423.723 48.949 L
425.377 48.486 L
427.031 48.028 L
428.684 47.576 L
430.338 47.131 L
431.992 46.692 L
433.646 46.258 L
435.299 45.831 L
436.953 45.41 L
438.607 44.996 L
440.261 44.588 L
441.915 44.186 L
443.568 43.791 L
445.222 43.402 L
446.876 43.019 L
448.53 42.643 L
450.184 42.274 L
451.837 41.912 L
453.491 41.556 L
455.145 41.207 L
456.799 40.864 L
458.452 40.529 L
460.106 40.2 L
461.76 39.879 L
463.414 39.564 L
465.068 39.256 L
466.721 38.956 L
468.375 38.662 L
470.029 38.376 L
471.683 38.097 L
473.337 37.825 L
474.99 37.56 L
476.644 37.303 L
478.298 37.053 L
479.952 36.811 L
481.605 36.576 L
483.259 36.349 L
484.913 36.129 L
486.567 35.917 L
488.221 35.712 L
489.874 35.516 L
491.528 35.327 L
493.182 35.145 L
S
GR
GS
0.467 0.675 0.188 RC
[10 6] 0 setdash
2 LJ
0.5 LW
N
74.986 366.153 M
76.64 357.401 L
78.293 348.7 L
79.947 340.098 L
81.601 331.641 L
83.255 323.376 L
84.909 315.35 L
86.562 307.611 L
88.216 300.204 L
89.87 293.177 L
91.524 286.576 L
93.177 280.449 L
94.831 274.843 L
96.485 269.803 L
98.139 265.377 L
99.793 261.358 L
101.446 257.476 L
103.1 253.728 L
104.754 250.111 L
106.408 246.62 L
108.062 243.251 L
109.715 240 L
111.369 236.864 L
113.023 233.839 L
114.677 230.92 L
116.33 228.103 L
117.984 225.386 L
119.638 222.763 L
121.292 220.232 L
122.946 217.787 L
124.599 215.425 L
126.253 213.143 L
127.907 210.935 L
129.561 208.799 L
131.215 206.731 L
132.868 204.725 L
134.522 202.78 L
136.176 200.89 L
137.83 199.051 L
139.483 197.261 L
141.137 195.514 L
142.791 193.805 L
144.445 192.123 L
146.099 190.467 L
147.752 188.835 L
149.406 187.229 L
151.06 185.647 L
152.714 184.089 L
154.368 182.555 L
156.021 181.045 L
157.675 179.557 L
159.329 178.092 L
160.983 176.649 L
162.636 175.228 L
164.29 173.828 L
165.944 172.45 L
167.598 171.092 L
169.252 169.754 L
170.905 168.437 L
172.559 167.139 L
174.213 165.86 L
175.867 164.6 L
177.521 163.358 L
179.174 162.135 L
180.828 160.929 L
182.482 159.741 L
184.136 158.569 L
185.789 157.414 L
187.443 156.276 L
189.097 155.153 L
190.751 154.045 L
192.405 152.953 L
194.058 151.875 L
195.712 150.811 L
197.366 149.762 L
199.02 148.726 L
200.674 147.703 L
202.327 146.693 L
203.981 145.695 L
205.635 144.709 L
207.289 143.735 L
208.942 142.773 L
210.596 141.821 L
212.25 140.88 L
213.904 139.948 L
215.558 139.027 L
217.211 138.115 L
218.865 137.212 L
220.519 136.318 L
222.173 135.432 L
223.827 134.554 L
225.48 133.683 L
227.134 132.82 L
228.788 131.963 L
230.442 131.113 L
232.095 130.269 L
233.749 129.43 L
235.403 128.596 L
237.057 127.763 L
238.711 126.931 L
240.364 126.099 L
242.018 125.268 L
243.672 124.438 L
245.326 123.609 L
246.98 122.78 L
248.633 121.953 L
250.287 121.126 L
251.941 120.301 L
253.595 119.477 L
255.248 118.653 L
256.902 117.831 L
258.556 117.011 L
260.21 116.191 L
261.864 115.373 L
263.517 114.556 L
265.171 113.74 L
266.825 112.926 L
268.479 112.113 L
270.133 111.302 L
271.786 110.492 L
273.44 109.684 L
275.094 108.878 L
276.748 108.073 L
278.401 107.27 L
280.055 106.469 L
281.709 105.67 L
283.363 104.872 L
285.017 104.077 L
286.67 103.283 L
288.324 102.491 L
289.978 101.702 L
291.632 100.914 L
293.286 100.129 L
294.939 99.346 L
296.593 98.565 L
298.247 97.786 L
299.901 97.01 L
301.555 96.236 L
303.208 95.464 L
304.862 94.695 L
306.516 93.928 L
308.17 93.164 L
309.823 92.403 L
311.477 91.644 L
313.131 90.887 L
314.785 90.134 L
316.439 89.383 L
318.092 88.635 L
319.746 87.89 L
321.4 87.147 L
323.054 86.408 L
324.708 85.672 L
326.361 84.938 L
328.015 84.208 L
329.669 83.481 L
331.323 82.757 L
332.976 82.036 L
334.63 81.319 L
336.284 80.604 L
337.938 79.893 L
339.592 79.186 L
341.245 78.481 L
342.899 77.781 L
344.553 77.084 L
346.207 76.39 L
347.861 75.7 L
349.514 75.014 L
351.168 74.331 L
352.822 73.652 L
354.476 72.977 L
356.129 72.305 L
357.783 71.638 L
359.437 70.974 L
361.091 70.314 L
362.745 69.659 L
364.398 69.007 L
366.052 68.36 L
367.706 67.716 L
369.36 67.077 L
371.014 66.442 L
372.667 65.811 L
374.321 65.185 L
375.975 64.562 L
377.629 63.945 L
379.282 63.332 L
380.936 62.723 L
382.59 62.119 L
384.244 61.519 L
385.898 60.924 L
387.551 60.333 L
389.205 59.748 L
390.859 59.167 L
392.513 58.59 L
394.167 58.019 L
395.82 57.453 L
397.474 56.891 L
399.128 56.335 L
400.782 55.783 L
402.435 55.237 L
404.089 54.695 L
405.743 54.159 L
407.397 53.628 L
409.051 53.102 L
410.704 52.582 L
412.358 52.067 L
414.012 51.557 L
415.666 51.053 L
417.32 50.554 L
418.973 50.06 L
420.627 49.572 L
422.281 49.09 L
423.935 48.613 L
425.588 48.142 L
427.242 47.677 L
428.896 47.218 L
430.55 46.764 L
432.204 46.316 L
433.857 45.874 L
435.511 45.439 L
437.165 45.008 L
438.819 44.585 L
440.473 44.167 L
442.126 43.755 L
443.78 43.35 L
445.434 42.95 L
447.088 42.557 L
448.741 42.17 L
450.395 41.79 L
452.049 41.416 L
453.703 41.048 L
455.357 40.687 L
457.01 40.333 L
458.664 39.985 L
460.318 39.643 L
461.972 39.308 L
463.626 38.98 L
465.279 38.659 L
466.933 38.345 L
468.587 38.037 L
470.241 37.736 L
471.894 37.442 L
473.548 37.155 L
475.202 36.875 L
476.856 36.602 L
478.51 36.337 L
480.163 36.078 L
481.817 35.827 L
483.471 35.582 L
485.125 35.346 L
486.779 35.116 L
488.432 34.894 L
490.086 34.679 L
491.74 34.472 L
493.394 34.272 L
495.047 34.079 L
496.701 33.895 L
498.355 33.718 L
S
GR
GS
0.302 0.745 0.933 RC
[10 6] 0 setdash
2 LJ
0.5 LW
N
74.589 368.967 M
76.243 360.077 L
77.896 351.239 L
79.55 342.503 L
81.204 333.919 L
82.858 325.534 L
84.511 317.4 L
86.165 309.564 L
87.819 302.076 L
89.473 294.986 L
91.127 288.342 L
92.78 282.195 L
94.434 276.593 L
96.088 271.585 L
97.742 267.215 L
99.396 263.173 L
101.049 259.274 L
102.703 255.512 L
104.357 251.885 L
106.011 248.387 L
107.664 245.015 L
109.318 241.764 L
110.972 238.629 L
112.626 235.607 L
114.28 232.693 L
115.933 229.883 L
117.587 227.172 L
119.241 224.557 L
120.895 222.032 L
122.549 219.595 L
124.202 217.239 L
125.856 214.962 L
127.51 212.759 L
129.164 210.625 L
130.817 208.556 L
132.471 206.548 L
134.125 204.597 L
135.779 202.699 L
137.433 200.848 L
139.086 199.041 L
140.74 197.274 L
142.394 195.537 L
144.048 193.826 L
145.702 192.141 L
147.355 190.481 L
149.009 188.845 L
150.663 187.234 L
152.317 185.647 L
153.97 184.083 L
155.624 182.542 L
157.278 181.025 L
158.932 179.529 L
160.586 178.057 L
162.239 176.606 L
163.893 175.176 L
165.547 173.767 L
167.201 172.38 L
168.855 171.012 L
170.508 169.665 L
172.162 168.337 L
173.816 167.029 L
175.47 165.74 L
177.124 164.469 L
178.777 163.216 L
180.431 161.982 L
182.085 160.765 L
183.739 159.565 L
185.392 158.382 L
187.046 157.215 L
188.7 156.065 L
190.354 154.93 L
192.008 153.811 L
193.661 152.706 L
195.315 151.617 L
196.969 150.542 L
198.623 149.48 L
200.277 148.433 L
201.93 147.398 L
203.584 146.377 L
205.238 145.368 L
206.892 144.371 L
208.545 143.386 L
210.199 142.413 L
211.853 141.451 L
213.507 140.499 L
215.161 139.558 L
216.814 138.627 L
218.468 137.706 L
220.122 136.794 L
221.776 135.891 L
223.43 134.996 L
225.083 134.11 L
226.737 133.232 L
228.391 132.361 L
230.045 131.498 L
231.698 130.641 L
233.352 129.79 L
235.006 128.94 L
236.66 128.091 L
238.314 127.242 L
239.967 126.394 L
241.621 125.547 L
243.275 124.701 L
244.929 123.855 L
246.583 123.011 L
248.236 122.167 L
249.89 121.325 L
251.544 120.484 L
253.198 119.643 L
254.851 118.805 L
256.505 117.967 L
258.159 117.13 L
259.813 116.295 L
261.467 115.461 L
263.12 114.629 L
264.774 113.798 L
266.428 112.969 L
268.082 112.141 L
269.736 111.315 L
271.389 110.49 L
273.043 109.667 L
274.697 108.846 L
276.351 108.027 L
278.004 107.21 L
279.658 106.394 L
281.312 105.581 L
282.966 104.769 L
284.62 103.96 L
286.273 103.152 L
287.927 102.347 L
289.581 101.544 L
291.235 100.743 L
292.889 99.945 L
294.542 99.148 L
296.196 98.355 L
297.85 97.563 L
299.504 96.774 L
301.157 95.988 L
302.811 95.204 L
304.465 94.423 L
306.119 93.645 L
307.773 92.869 L
309.426 92.096 L
311.08 91.326 L
312.734 90.558 L
314.388 89.794 L
316.042 89.033 L
317.695 88.274 L
319.349 87.519 L
321.003 86.767 L
322.657 86.018 L
324.31 85.272 L
325.964 84.529 L
327.618 83.79 L
329.272 83.054 L
330.926 82.321 L
332.579 81.592 L
334.233 80.867 L
335.887 80.145 L
337.541 79.426 L
339.195 78.711 L
340.848 78 L
342.502 77.292 L
344.156 76.589 L
345.81 75.889 L
347.463 75.193 L
349.117 74.501 L
350.771 73.813 L
352.425 73.129 L
354.079 72.449 L
355.732 71.773 L
357.386 71.101 L
359.04 70.434 L
360.694 69.771 L
362.348 69.112 L
364.001 68.457 L
365.655 67.807 L
367.309 67.161 L
368.963 66.52 L
370.616 65.884 L
372.27 65.252 L
373.924 64.624 L
375.578 64.002 L
377.232 63.384 L
378.885 62.771 L
380.539 62.162 L
382.193 61.559 L
383.847 60.96 L
385.501 60.367 L
387.154 59.778 L
388.808 59.195 L
390.462 58.617 L
392.116 58.044 L
393.77 57.476 L
395.423 56.913 L
397.077 56.356 L
398.731 55.804 L
400.385 55.257 L
402.038 54.716 L
403.692 54.181 L
405.346 53.651 L
407 53.127 L
408.654 52.608 L
410.307 52.095 L
411.961 51.588 L
413.615 51.086 L
415.269 50.591 L
416.923 50.101 L
418.576 49.617 L
420.23 49.14 L
421.884 48.668 L
423.538 48.202 L
425.191 47.743 L
426.845 47.29 L
428.499 46.843 L
430.153 46.402 L
431.807 45.967 L
433.46 45.539 L
435.114 45.118 L
436.768 44.702 L
438.422 44.294 L
440.076 43.892 L
441.729 43.496 L
443.383 43.108 L
445.037 42.726 L
446.691 42.35 L
448.344 41.982 L
449.998 41.62 L
451.652 41.266 L
453.306 40.918 L
454.96 40.577 L
456.613 40.243 L
458.267 39.917 L
459.921 39.597 L
461.575 39.285 L
463.229 38.98 L
464.882 38.682 L
466.536 38.392 L
468.19 38.109 L
469.844 37.833 L
471.497 37.565 L
473.151 37.305 L
474.805 37.052 L
476.459 36.807 L
478.113 36.569 L
479.766 36.339 L
481.42 36.117 L
483.074 35.903 L
484.728 35.696 L
486.382 35.498 L
488.035 35.307 L
489.689 35.125 L
491.343 34.95 L
492.997 34.784 L
S
GR
GS
0.635 0.078 0.184 RC
[10 6] 0 setdash
2 LJ
0.5 LW
N
75.362 362.188 M
77.016 353.759 L
78.669 345.379 L
80.323 337.092 L
81.977 328.94 L
83.631 320.965 L
85.285 313.21 L
86.938 305.719 L
88.592 298.532 L
90.246 291.694 L
91.9 285.247 L
93.553 279.234 L
95.207 273.697 L
96.861 268.679 L
98.515 264.222 L
100.169 260.223 L
101.822 256.365 L
103.476 252.633 L
105.13 249.023 L
106.784 245.533 L
108.438 242.16 L
110.091 238.899 L
111.745 235.747 L
113.399 232.701 L
115.053 229.758 L
116.706 226.914 L
118.36 224.167 L
120.014 221.512 L
121.668 218.946 L
123.322 216.466 L
124.975 214.069 L
126.629 211.752 L
128.283 209.51 L
129.937 207.341 L
131.591 205.241 L
133.244 203.207 L
134.898 201.236 L
136.552 199.324 L
138.206 197.468 L
139.859 195.665 L
141.513 193.911 L
143.167 192.202 L
144.821 190.531 L
146.475 188.885 L
148.128 187.264 L
149.782 185.667 L
151.436 184.095 L
153.09 182.547 L
154.744 181.022 L
156.397 179.521 L
158.051 178.042 L
159.705 176.586 L
161.359 175.151 L
163.012 173.739 L
164.666 172.348 L
166.32 170.978 L
167.974 169.628 L
169.628 168.299 L
171.281 166.989 L
172.935 165.699 L
174.589 164.428 L
176.243 163.176 L
177.897 161.943 L
179.55 160.727 L
181.204 159.529 L
182.858 158.348 L
184.512 157.184 L
186.165 156.037 L
187.819 154.906 L
189.473 153.79 L
191.127 152.69 L
192.781 151.605 L
194.434 150.535 L
196.088 149.479 L
197.742 148.437 L
199.396 147.409 L
201.05 146.394 L
202.703 145.391 L
204.357 144.402 L
206.011 143.424 L
207.665 142.458 L
209.318 141.503 L
210.972 140.559 L
212.626 139.626 L
214.28 138.703 L
215.934 137.79 L
217.587 136.887 L
219.241 135.993 L
220.895 135.107 L
222.549 134.23 L
224.203 133.361 L
225.856 132.5 L
227.51 131.646 L
229.164 130.798 L
230.818 129.958 L
232.471 129.123 L
234.125 128.295 L
235.779 127.471 L
237.433 126.653 L
239.087 125.839 L
240.74 125.026 L
242.394 124.213 L
244.048 123.4 L
245.702 122.589 L
247.356 121.778 L
249.009 120.968 L
250.663 120.159 L
252.317 119.351 L
253.971 118.543 L
255.625 117.737 L
257.278 116.932 L
258.932 116.128 L
260.586 115.325 L
262.24 114.523 L
263.893 113.722 L
265.547 112.922 L
267.201 112.124 L
268.855 111.327 L
270.509 110.531 L
272.162 109.737 L
273.816 108.945 L
275.47 108.153 L
277.124 107.363 L
278.778 106.575 L
280.431 105.789 L
282.085 105.004 L
283.739 104.22 L
285.393 103.439 L
287.046 102.659 L
288.7 101.881 L
290.354 101.105 L
292.008 100.331 L
293.662 99.559 L
295.315 98.789 L
296.969 98.02 L
298.623 97.254 L
300.277 96.49 L
301.931 95.728 L
303.584 94.968 L
305.238 94.211 L
306.892 93.456 L
308.546 92.703 L
310.199 91.952 L
311.853 91.204 L
313.507 90.458 L
315.161 89.715 L
316.815 88.974 L
318.468 88.236 L
320.122 87.501 L
321.776 86.768 L
323.43 86.038 L
325.084 85.31 L
326.737 84.586 L
328.391 83.864 L
330.045 83.145 L
331.699 82.429 L
333.352 81.716 L
335.006 81.005 L
336.66 80.298 L
338.314 79.594 L
339.968 78.893 L
341.621 78.195 L
343.275 77.501 L
344.929 76.809 L
346.583 76.121 L
348.237 75.436 L
349.89 74.755 L
351.544 74.077 L
353.198 73.403 L
354.852 72.731 L
356.505 72.064 L
358.159 71.4 L
359.813 70.74 L
361.467 70.083 L
363.121 69.43 L
364.774 68.78 L
366.428 68.135 L
368.082 67.493 L
369.736 66.855 L
371.39 66.221 L
373.043 65.591 L
374.697 64.965 L
376.351 64.343 L
378.005 63.726 L
379.658 63.112 L
381.312 62.502 L
382.966 61.897 L
384.62 61.295 L
386.274 60.698 L
387.927 60.106 L
389.581 59.517 L
391.235 58.934 L
392.889 58.354 L
394.543 57.779 L
396.196 57.209 L
397.85 56.643 L
399.504 56.082 L
401.158 55.525 L
402.811 54.973 L
404.465 54.426 L
406.119 53.884 L
407.773 53.347 L
409.427 52.814 L
411.08 52.286 L
412.734 51.763 L
414.388 51.246 L
416.042 50.733 L
417.696 50.225 L
419.349 49.723 L
421.003 49.225 L
422.657 48.733 L
424.311 48.246 L
425.964 47.764 L
427.618 47.288 L
429.272 46.817 L
430.926 46.351 L
432.58 45.891 L
434.233 45.436 L
435.887 44.987 L
437.541 44.544 L
439.195 44.106 L
440.849 43.673 L
442.502 43.247 L
444.156 42.826 L
445.81 42.411 L
447.464 42.001 L
449.117 41.598 L
450.771 41.201 L
452.425 40.809 L
454.079 40.424 L
455.733 40.044 L
457.386 39.671 L
459.04 39.303 L
460.694 38.942 L
462.348 38.587 L
464.002 38.239 L
465.655 37.896 L
467.309 37.56 L
468.963 37.23 L
470.617 36.907 L
472.27 36.59 L
473.924 36.28 L
475.578 35.976 L
477.232 35.679 L
478.886 35.388 L
480.539 35.104 L
482.193 34.827 L
483.847 34.556 L
485.501 34.292 L
487.155 34.035 L
488.808 33.785 L
490.462 33.542 L
492.116 33.306 L
493.77 33.077 L
495.423 32.855 L
497.077 32.64 L
498.731 32.432 L
500.385 32.231 L
502.039 32.037 L
503.692 31.851 L
505.346 31.672 L
507 31.5 L
S
GR
GS
1 GC
N
499 366 M
499 250.5 L
344.5 250.5 L
344.5 366 L
cp
f
GR
GS
[1 0 0 1 381.5 260.25] CT
/Helvetica 13 F
GS
[1 0 0 1 0 0] CT
0 5 moveto 
1 -1 scale
(Base Run) t 
GR
GR
GS
0 0.447 0.741 RC
1 LJ
0.5 LW
N
348.5 260.25 M
378.5 260.25 L
S
GR
GS
[1 0 0 1 381.5 276.25] CT
/Helvetica 13 F
GS
[1 0 0 1 0 0] CT
0 5 moveto 
1 -1 scale
(I & B Frames) t 
GR
GR
GS
0.851 0.325 0.098 RC
1 LJ
0.5 LW
N
348.5 276.25 M
378.5 276.25 L
S
GR
GS
[1 0 0 1 381.5 292.25] CT
/Helvetica 13 F
GS
[1 0 0 1 0 0] CT
0 5 moveto 
1 -1 scale
(I Frames Only) t 
GR
GR
GS
0.929 0.694 0.125 RC
1 LJ
0.5 LW
N
348.5 292.25 M
378.5 292.25 L
S
GR
GS
[1 0 0 1 381.5 308.25] CT
/Helvetica 13 F
GS
[1 0 0 1 0 0] CT
0 5 moveto 
1 -1 scale
(B Frames Only) t 
GR
GR
GS
0.494 0.184 0.557 RC
1 LJ
0.5 LW
N
348.5 308.25 M
378.5 308.25 L
S
GR
GS
[1 0 0 1 381.5 324.25] CT
/Helvetica 13 F
GS
[1 0 0 1 0 0] CT
0 5 moveto 
1 -1 scale
(Part I & B Frames) t 
GR
GR
GS
0.467 0.675 0.188 RC
[10 6] 0 setdash
2 LJ
0.5 LW
N
348.5 324.25 M
378.5 324.25 L
S
GR
GS
[1 0 0 1 381.5 340.25] CT
/Helvetica 13 F
GS
[1 0 0 1 0 0] CT
0 5 moveto 
1 -1 scale
(Part I Frames Only) t 
GR
GR
GS
0.302 0.745 0.933 RC
[10 6] 0 setdash
2 LJ
0.5 LW
N
348.5 340.25 M
378.5 340.25 L
S
GR
GS
[1 0 0 1 381.5 356.25] CT
/Helvetica 13 F
GS
[1 0 0 1 0 0] CT
0 5 moveto 
1 -1 scale
(Part B Frames Only) t 
GR
GR
GS
0.635 0.078 0.184 RC
[10 6] 0 setdash
2 LJ
0.5 LW
N
348.5 356.25 M
378.5 356.25 L
S
GR
GS
0.149 GC
10.0 ML
0.5 LW
N
344.5 366 M
344.5 250.5 L
499 250.5 L
499 366 L
cp
S
GR
%%Trailer
%%Pages: 1
%%EOF
