%!PS-Adobe-3.0 EPSF-3.0
%%Creator: (MATLAB, The Mathworks, Inc. Version 9.11.0.1837725 \(R2021b\) Update 2. Operating System: Mac OS X)
%%Title: plots/pchip/CoverSong_1080P-1b0c.y4m-hevc-SSIM.eps
%%CreationDate: 2022-02-03T19:13:54
%%Pages: (atend)
%%BoundingBox:    33   425   508   826
%%LanguageLevel: 3
%%EndComments
%%BeginProlog
%%BeginResource: procset (Apache XML Graphics Std ProcSet) 1.2 0
%%Version: 1.2 0
%%Copyright: (Copyright 2001-2003,2010 The Apache Software Foundation. License terms: http://www.apache.org/licenses/LICENSE-2.0)
/bd{bind def}bind def
/ld{load def}bd
/GR/grestore ld
/GS/gsave ld
/RM/rmoveto ld
/C/curveto ld
/t/show ld
/L/lineto ld
/ML/setmiterlimit ld
/CT/concat ld
/f/fill ld
/N/newpath ld
/S/stroke ld
/CC/setcmykcolor ld
/A/ashow ld
/cp/closepath ld
/RC/setrgbcolor ld
/LJ/setlinejoin ld
/GC/setgray ld
/LW/setlinewidth ld
/M/moveto ld
/re {4 2 roll M
1 index 0 rlineto
0 exch rlineto
neg 0 rlineto
cp } bd
/_ctm matrix def
/_tm matrix def
/BT { _ctm currentmatrix pop matrix _tm copy pop 0 0 moveto } bd
/ET { _ctm setmatrix } bd
/iTm { _ctm setmatrix _tm concat } bd
/Tm { _tm astore pop iTm 0 0 moveto } bd
/ux 0.0 def
/uy 0.0 def
/F {
  /Tp exch def
  /Tf exch def
  Tf findfont Tp scalefont setfont
  /cf Tf def  /cs Tp def
} bd
/ULS {currentpoint /uy exch def /ux exch def} bd
/ULE {
  /Tcx currentpoint pop def
  gsave
  newpath
  cf findfont cs scalefont dup
  /FontMatrix get 0 get /Ts exch def /FontInfo get dup
  /UnderlinePosition get Ts mul /To exch def
  /UnderlineThickness get Ts mul /Tt exch def
  ux uy To add moveto  Tcx uy To add lineto
  Tt setlinewidth stroke
  grestore
} bd
/OLE {
  /Tcx currentpoint pop def
  gsave
  newpath
  cf findfont cs scalefont dup
  /FontMatrix get 0 get /Ts exch def /FontInfo get dup
  /UnderlinePosition get Ts mul /To exch def
  /UnderlineThickness get Ts mul /Tt exch def
  ux uy To add cs add moveto Tcx uy To add cs add lineto
  Tt setlinewidth stroke
  grestore
} bd
/SOE {
  /Tcx currentpoint pop def
  gsave
  newpath
  cf findfont cs scalefont dup
  /FontMatrix get 0 get /Ts exch def /FontInfo get dup
  /UnderlinePosition get Ts mul /To exch def
  /UnderlineThickness get Ts mul /Tt exch def
  ux uy To add cs 10 mul 26 idiv add moveto Tcx uy To add cs 10 mul 26 idiv add lineto
  Tt setlinewidth stroke
  grestore
} bd
/QT {
/Y22 exch store
/X22 exch store
/Y21 exch store
/X21 exch store
currentpoint
/Y21 load 2 mul add 3 div exch
/X21 load 2 mul add 3 div exch
/X21 load 2 mul /X22 load add 3 div
/Y21 load 2 mul /Y22 load add 3 div
/X22 load /Y22 load curveto
} bd
/SSPD {
dup length /d exch dict def
{
/v exch def
/k exch def
currentpagedevice k known {
/cpdv currentpagedevice k get def
v cpdv ne {
/upd false def
/nullv v type /nulltype eq def
/nullcpdv cpdv type /nulltype eq def
nullv nullcpdv or
{
/upd true def
} {
/sametype v type cpdv type eq def
sametype {
v type /arraytype eq {
/vlen v length def
/cpdvlen cpdv length def
vlen cpdvlen eq {
0 1 vlen 1 sub {
/i exch def
/obj v i get def
/cpdobj cpdv i get def
obj cpdobj ne {
/upd true def
exit
} if
} for
} {
/upd true def
} ifelse
} {
v type /dicttype eq {
v {
/dv exch def
/dk exch def
/cpddv cpdv dk get def
dv cpddv ne {
/upd true def
exit
} if
} forall
} {
/upd true def
} ifelse
} ifelse
} if
} ifelse
upd true eq {
d k v put
} if
} if
} if
} forall
d length 0 gt {
d setpagedevice
} if
} bd
/RE { % /NewFontName [NewEncodingArray] /FontName RE -
  findfont dup length dict begin
  {
    1 index /FID ne
    {def} {pop pop} ifelse
  } forall
  /Encoding exch def
  /FontName 1 index def
  currentdict definefont pop
  end
} bind def
%%EndResource
%%BeginResource: procset (Apache XML Graphics EPS ProcSet) 1.0 0
%%Version: 1.0 0
%%Copyright: (Copyright 2002-2003 The Apache Software Foundation. License terms: http://www.apache.org/licenses/LICENSE-2.0)
/BeginEPSF { %def
/b4_Inc_state save def         % Save state for cleanup
/dict_count countdictstack def % Count objects on dict stack
/op_count count 1 sub def      % Count objects on operand stack
userdict begin                 % Push userdict on dict stack
/showpage { } def              % Redefine showpage, { } = null proc
0 setgray 0 setlinecap         % Prepare graphics state
1 setlinewidth 0 setlinejoin
10 setmiterlimit [ ] 0 setdash newpath
/languagelevel where           % If level not equal to 1 then
{pop languagelevel             % set strokeadjust and
1 ne                           % overprint to their defaults.
{false setstrokeadjust false setoverprint
} if
} if
} bd
/EndEPSF { %def
count op_count sub {pop} repeat            % Clean up stacks
countdictstack dict_count sub {end} repeat
b4_Inc_state restore
} bd
%%EndResource
%FOPBeginFontDict
%%IncludeResource: font Courier-Oblique
%%IncludeResource: font Courier-BoldOblique
%%IncludeResource: font Courier-Bold
%%IncludeResource: font ZapfDingbats
%%IncludeResource: font Symbol
%%IncludeResource: font Helvetica
%%IncludeResource: font Helvetica-Oblique
%%IncludeResource: font Helvetica-Bold
%%IncludeResource: font Helvetica-BoldOblique
%%IncludeResource: font Times-Roman
%%IncludeResource: font Times-Italic
%%IncludeResource: font Times-Bold
%%IncludeResource: font Times-BoldItalic
%%IncludeResource: font Courier
%FOPEndFontDict
%%BeginResource: encoding WinAnsiEncoding
/WinAnsiEncoding [
/.notdef /.notdef /.notdef /.notdef /.notdef
/.notdef /.notdef /.notdef /.notdef /.notdef
/.notdef /.notdef /.notdef /.notdef /.notdef
/.notdef /.notdef /.notdef /.notdef /.notdef
/.notdef /.notdef /.notdef /.notdef /.notdef
/.notdef /.notdef /.notdef /.notdef /.notdef
/.notdef /.notdef /space /exclam /quotedbl
/numbersign /dollar /percent /ampersand /quotesingle
/parenleft /parenright /asterisk /plus /comma
/hyphen /period /slash /zero /one
/two /three /four /five /six
/seven /eight /nine /colon /semicolon
/less /equal /greater /question /at
/A /B /C /D /E
/F /G /H /I /J
/K /L /M /N /O
/P /Q /R /S /T
/U /V /W /X /Y
/Z /bracketleft /backslash /bracketright /asciicircum
/underscore /quoteleft /a /b /c
/d /e /f /g /h
/i /j /k /l /m
/n /o /p /q /r
/s /t /u /v /w
/x /y /z /braceleft /bar
/braceright /asciitilde /bullet /Euro /bullet
/quotesinglbase /florin /quotedblbase /ellipsis /dagger
/daggerdbl /circumflex /perthousand /Scaron /guilsinglleft
/OE /bullet /Zcaron /bullet /bullet
/quoteleft /quoteright /quotedblleft /quotedblright /bullet
/endash /emdash /asciitilde /trademark /scaron
/guilsinglright /oe /bullet /zcaron /Ydieresis
/space /exclamdown /cent /sterling /currency
/yen /brokenbar /section /dieresis /copyright
/ordfeminine /guillemotleft /logicalnot /sfthyphen /registered
/macron /degree /plusminus /twosuperior /threesuperior
/acute /mu /paragraph /middot /cedilla
/onesuperior /ordmasculine /guillemotright /onequarter /onehalf
/threequarters /questiondown /Agrave /Aacute /Acircumflex
/Atilde /Adieresis /Aring /AE /Ccedilla
/Egrave /Eacute /Ecircumflex /Edieresis /Igrave
/Iacute /Icircumflex /Idieresis /Eth /Ntilde
/Ograve /Oacute /Ocircumflex /Otilde /Odieresis
/multiply /Oslash /Ugrave /Uacute /Ucircumflex
/Udieresis /Yacute /Thorn /germandbls /agrave
/aacute /acircumflex /atilde /adieresis /aring
/ae /ccedilla /egrave /eacute /ecircumflex
/edieresis /igrave /iacute /icircumflex /idieresis
/eth /ntilde /ograve /oacute /ocircumflex
/otilde /odieresis /divide /oslash /ugrave
/uacute /ucircumflex /udieresis /yacute /thorn
/ydieresis
] def
%%EndResource
%FOPBeginFontReencode
/Courier-Oblique findfont
dup length dict begin
  {1 index /FID ne {def} {pop pop} ifelse} forall
  /Encoding WinAnsiEncoding def
  currentdict
end
/Courier-Oblique exch definefont pop
/Courier-BoldOblique findfont
dup length dict begin
  {1 index /FID ne {def} {pop pop} ifelse} forall
  /Encoding WinAnsiEncoding def
  currentdict
end
/Courier-BoldOblique exch definefont pop
/Courier-Bold findfont
dup length dict begin
  {1 index /FID ne {def} {pop pop} ifelse} forall
  /Encoding WinAnsiEncoding def
  currentdict
end
/Courier-Bold exch definefont pop
/Helvetica findfont
dup length dict begin
  {1 index /FID ne {def} {pop pop} ifelse} forall
  /Encoding WinAnsiEncoding def
  currentdict
end
/Helvetica exch definefont pop
/Helvetica-Oblique findfont
dup length dict begin
  {1 index /FID ne {def} {pop pop} ifelse} forall
  /Encoding WinAnsiEncoding def
  currentdict
end
/Helvetica-Oblique exch definefont pop
/Helvetica-Bold findfont
dup length dict begin
  {1 index /FID ne {def} {pop pop} ifelse} forall
  /Encoding WinAnsiEncoding def
  currentdict
end
/Helvetica-Bold exch definefont pop
/Helvetica-BoldOblique findfont
dup length dict begin
  {1 index /FID ne {def} {pop pop} ifelse} forall
  /Encoding WinAnsiEncoding def
  currentdict
end
/Helvetica-BoldOblique exch definefont pop
/Times-Roman findfont
dup length dict begin
  {1 index /FID ne {def} {pop pop} ifelse} forall
  /Encoding WinAnsiEncoding def
  currentdict
end
/Times-Roman exch definefont pop
/Times-Italic findfont
dup length dict begin
  {1 index /FID ne {def} {pop pop} ifelse} forall
  /Encoding WinAnsiEncoding def
  currentdict
end
/Times-Italic exch definefont pop
/Times-Bold findfont
dup length dict begin
  {1 index /FID ne {def} {pop pop} ifelse} forall
  /Encoding WinAnsiEncoding def
  currentdict
end
/Times-Bold exch definefont pop
/Times-BoldItalic findfont
dup length dict begin
  {1 index /FID ne {def} {pop pop} ifelse} forall
  /Encoding WinAnsiEncoding def
  currentdict
end
/Times-BoldItalic exch definefont pop
/Courier findfont
dup length dict begin
  {1 index /FID ne {def} {pop pop} ifelse} forall
  /Encoding WinAnsiEncoding def
  currentdict
end
/Courier exch definefont pop
%FOPEndFontReencode
%%EndProlog
%%Page: 1 1
%%PageBoundingBox: 0 0 1120 840
%%BeginPageSetup
[1 0 0 -1 0 840] CT
%%EndPageSetup
GS
1 GC
N
0 0 1120 840 re
f
GR
GS
1 GC
N
73 374 M
507 374 L
507 31.5 L
73 31.5 L
cp
f
GR
GS
0.149 GC
2 setlinecap
1 LJ
0.5 LW
N
73 374 M
507 374 L
S
GR
GS
0.149 GC
2 setlinecap
1 LJ
0.5 LW
N
73 31.5 M
507 31.5 L
S
GR
GS
0.149 GC
2 setlinecap
1 LJ
0.5 LW
N
127.149 374 M
127.149 369.66 L
S
GR
GS
0.149 GC
2 setlinecap
1 LJ
0.5 LW
N
209.838 374 M
209.838 369.66 L
S
GR
GS
0.149 GC
2 setlinecap
1 LJ
0.5 LW
N
292.528 374 M
292.528 369.66 L
S
GR
GS
0.149 GC
2 setlinecap
1 LJ
0.5 LW
N
375.217 374 M
375.217 369.66 L
S
GR
GS
0.149 GC
2 setlinecap
1 LJ
0.5 LW
N
457.906 374 M
457.906 369.66 L
S
GR
GS
0.149 GC
2 setlinecap
1 LJ
0.5 LW
N
127.149 31.5 M
127.149 35.84 L
S
GR
GS
0.149 GC
2 setlinecap
1 LJ
0.5 LW
N
209.838 31.5 M
209.838 35.84 L
S
GR
GS
0.149 GC
2 setlinecap
1 LJ
0.5 LW
N
292.528 31.5 M
292.528 35.84 L
S
GR
GS
0.149 GC
2 setlinecap
1 LJ
0.5 LW
N
375.217 31.5 M
375.217 35.84 L
S
GR
GS
0.149 GC
2 setlinecap
1 LJ
0.5 LW
N
457.906 31.5 M
457.906 35.84 L
S
GR
GS
0.149 GC
2 setlinecap
1 LJ
0.5 LW
N
77.536 374 M
77.536 371.83 L
S
GR
GS
0.149 GC
2 setlinecap
1 LJ
0.5 LW
N
94.073 374 M
94.073 371.83 L
S
GR
GS
0.149 GC
2 setlinecap
1 LJ
0.5 LW
N
110.611 374 M
110.611 371.83 L
S
GR
GS
0.149 GC
2 setlinecap
1 LJ
0.5 LW
N
143.687 374 M
143.687 371.83 L
S
GR
GS
0.149 GC
2 setlinecap
1 LJ
0.5 LW
N
160.225 374 M
160.225 371.83 L
S
GR
GS
0.149 GC
2 setlinecap
1 LJ
0.5 LW
N
176.763 374 M
176.763 371.83 L
S
GR
GS
0.149 GC
2 setlinecap
1 LJ
0.5 LW
N
193.301 374 M
193.301 371.83 L
S
GR
GS
0.149 GC
2 setlinecap
1 LJ
0.5 LW
N
226.376 374 M
226.376 371.83 L
S
GR
GS
0.149 GC
2 setlinecap
1 LJ
0.5 LW
N
242.914 374 M
242.914 371.83 L
S
GR
GS
0.149 GC
2 setlinecap
1 LJ
0.5 LW
N
259.452 374 M
259.452 371.83 L
S
GR
GS
0.149 GC
2 setlinecap
1 LJ
0.5 LW
N
275.99 374 M
275.99 371.83 L
S
GR
GS
0.149 GC
2 setlinecap
1 LJ
0.5 LW
N
309.066 374 M
309.066 371.83 L
S
GR
GS
0.149 GC
2 setlinecap
1 LJ
0.5 LW
N
325.603 374 M
325.603 371.83 L
S
GR
GS
0.149 GC
2 setlinecap
1 LJ
0.5 LW
N
342.141 374 M
342.141 371.83 L
S
GR
GS
0.149 GC
2 setlinecap
1 LJ
0.5 LW
N
358.679 374 M
358.679 371.83 L
S
GR
GS
0.149 GC
2 setlinecap
1 LJ
0.5 LW
N
391.755 374 M
391.755 371.83 L
S
GR
GS
0.149 GC
2 setlinecap
1 LJ
0.5 LW
N
408.293 374 M
408.293 371.83 L
S
GR
GS
0.149 GC
2 setlinecap
1 LJ
0.5 LW
N
424.831 374 M
424.831 371.83 L
S
GR
GS
0.149 GC
2 setlinecap
1 LJ
0.5 LW
N
441.368 374 M
441.368 371.83 L
S
GR
GS
0.149 GC
2 setlinecap
1 LJ
0.5 LW
N
474.444 374 M
474.444 371.83 L
S
GR
GS
0.149 GC
2 setlinecap
1 LJ
0.5 LW
N
490.982 374 M
490.982 371.83 L
S
GR
GS
0.149 GC
2 setlinecap
1 LJ
0.5 LW
N
77.536 31.5 M
77.536 33.67 L
S
GR
GS
0.149 GC
2 setlinecap
1 LJ
0.5 LW
N
94.073 31.5 M
94.073 33.67 L
S
GR
GS
0.149 GC
2 setlinecap
1 LJ
0.5 LW
N
110.611 31.5 M
110.611 33.67 L
S
GR
GS
0.149 GC
2 setlinecap
1 LJ
0.5 LW
N
143.687 31.5 M
143.687 33.67 L
S
GR
GS
0.149 GC
2 setlinecap
1 LJ
0.5 LW
N
160.225 31.5 M
160.225 33.67 L
S
GR
GS
0.149 GC
2 setlinecap
1 LJ
0.5 LW
N
176.763 31.5 M
176.763 33.67 L
S
GR
GS
0.149 GC
2 setlinecap
1 LJ
0.5 LW
N
193.301 31.5 M
193.301 33.67 L
S
GR
GS
0.149 GC
2 setlinecap
1 LJ
0.5 LW
N
226.376 31.5 M
226.376 33.67 L
S
GR
GS
0.149 GC
2 setlinecap
1 LJ
0.5 LW
N
242.914 31.5 M
242.914 33.67 L
S
GR
GS
0.149 GC
2 setlinecap
1 LJ
0.5 LW
N
259.452 31.5 M
259.452 33.67 L
S
GR
GS
0.149 GC
2 setlinecap
1 LJ
0.5 LW
N
275.99 31.5 M
275.99 33.67 L
S
GR
GS
0.149 GC
2 setlinecap
1 LJ
0.5 LW
N
309.066 31.5 M
309.066 33.67 L
S
GR
GS
0.149 GC
2 setlinecap
1 LJ
0.5 LW
N
325.603 31.5 M
325.603 33.67 L
S
GR
GS
0.149 GC
2 setlinecap
1 LJ
0.5 LW
N
342.141 31.5 M
342.141 33.67 L
S
GR
GS
0.149 GC
2 setlinecap
1 LJ
0.5 LW
N
358.679 31.5 M
358.679 33.67 L
S
GR
GS
0.149 GC
2 setlinecap
1 LJ
0.5 LW
N
391.755 31.5 M
391.755 33.67 L
S
GR
GS
0.149 GC
2 setlinecap
1 LJ
0.5 LW
N
408.293 31.5 M
408.293 33.67 L
S
GR
GS
0.149 GC
2 setlinecap
1 LJ
0.5 LW
N
424.831 31.5 M
424.831 33.67 L
S
GR
GS
0.149 GC
2 setlinecap
1 LJ
0.5 LW
N
441.368 31.5 M
441.368 33.67 L
S
GR
GS
0.149 GC
2 setlinecap
1 LJ
0.5 LW
N
474.444 31.5 M
474.444 33.67 L
S
GR
GS
0.149 GC
2 setlinecap
1 LJ
0.5 LW
N
490.982 31.5 M
490.982 33.67 L
S
GR
GS
[1 0 0 1 127.14912 378.79999] CT
0.149 GC
/Helvetica 14 F
GS
[1 0 0 1 0 0] CT
-16 14 moveto 
1 -1 scale
(1000) t 
GR
GR
GS
[1 0 0 1 209.83844 378.79999] CT
0.149 GC
/Helvetica 14 F
GS
[1 0 0 1 0 0] CT
-16 14 moveto 
1 -1 scale
(2000) t 
GR
GR
GS
[1 0 0 1 292.52774 378.79999] CT
0.149 GC
/Helvetica 14 F
GS
[1 0 0 1 0 0] CT
-16 14 moveto 
1 -1 scale
(3000) t 
GR
GR
GS
[1 0 0 1 375.21704 378.79999] CT
0.149 GC
/Helvetica 14 F
GS
[1 0 0 1 0 0] CT
-16 14 moveto 
1 -1 scale
(4000) t 
GR
GR
GS
[1 0 0 1 457.90637 378.79999] CT
0.149 GC
/Helvetica 14 F
GS
[1 0 0 1 0 0] CT
-16 14 moveto 
1 -1 scale
(5000) t 
GR
GR
GS
[1 0 0 1 290.00021 396.29999] CT
0.149 GC
/Helvetica 15.4 F
GS
[1 0 0 1 0 0] CT
-42 15 moveto 
1 -1 scale
(Bitrate\(kb/s\)) t 
GR
GR
GS
0.149 GC
2 setlinecap
1 LJ
0.5 LW
N
73 374 M
73 31.5 L
S
GR
GS
0.149 GC
2 setlinecap
1 LJ
0.5 LW
N
507 374 M
507 31.5 L
S
GR
GS
0.149 GC
2 setlinecap
1 LJ
0.5 LW
N
73 367.164 M
77.34 367.164 L
S
GR
GS
0.149 GC
2 setlinecap
1 LJ
0.5 LW
N
73 332.415 M
77.34 332.415 L
S
GR
GS
0.149 GC
2 setlinecap
1 LJ
0.5 LW
N
73 297.666 M
77.34 297.666 L
S
GR
GS
0.149 GC
2 setlinecap
1 LJ
0.5 LW
N
73 262.916 M
77.34 262.916 L
S
GR
GS
0.149 GC
2 setlinecap
1 LJ
0.5 LW
N
73 228.167 M
77.34 228.167 L
S
GR
GS
0.149 GC
2 setlinecap
1 LJ
0.5 LW
N
73 193.418 M
77.34 193.418 L
S
GR
GS
0.149 GC
2 setlinecap
1 LJ
0.5 LW
N
73 158.669 M
77.34 158.669 L
S
GR
GS
0.149 GC
2 setlinecap
1 LJ
0.5 LW
N
73 123.919 M
77.34 123.919 L
S
GR
GS
0.149 GC
2 setlinecap
1 LJ
0.5 LW
N
73 89.17 M
77.34 89.17 L
S
GR
GS
0.149 GC
2 setlinecap
1 LJ
0.5 LW
N
73 54.421 M
77.34 54.421 L
S
GR
GS
0.149 GC
2 setlinecap
1 LJ
0.5 LW
N
507 367.164 M
502.66 367.164 L
S
GR
GS
0.149 GC
2 setlinecap
1 LJ
0.5 LW
N
507 332.415 M
502.66 332.415 L
S
GR
GS
0.149 GC
2 setlinecap
1 LJ
0.5 LW
N
507 297.666 M
502.66 297.666 L
S
GR
GS
0.149 GC
2 setlinecap
1 LJ
0.5 LW
N
507 262.916 M
502.66 262.916 L
S
GR
GS
0.149 GC
2 setlinecap
1 LJ
0.5 LW
N
507 228.167 M
502.66 228.167 L
S
GR
GS
0.149 GC
2 setlinecap
1 LJ
0.5 LW
N
507 193.418 M
502.66 193.418 L
S
GR
GS
0.149 GC
2 setlinecap
1 LJ
0.5 LW
N
507 158.669 M
502.66 158.669 L
S
GR
GS
0.149 GC
2 setlinecap
1 LJ
0.5 LW
N
507 123.919 M
502.66 123.919 L
S
GR
GS
0.149 GC
2 setlinecap
1 LJ
0.5 LW
N
507 89.17 M
502.66 89.17 L
S
GR
GS
0.149 GC
2 setlinecap
1 LJ
0.5 LW
N
507 54.421 M
502.66 54.421 L
S
GR
GS
0.149 GC
2 setlinecap
1 LJ
0.5 LW
N
73 360.214 M
75.17 360.214 L
S
GR
GS
0.149 GC
2 setlinecap
1 LJ
0.5 LW
N
73 353.264 M
75.17 353.264 L
S
GR
GS
0.149 GC
2 setlinecap
1 LJ
0.5 LW
N
73 346.314 M
75.17 346.314 L
S
GR
GS
0.149 GC
2 setlinecap
1 LJ
0.5 LW
N
73 339.365 M
75.17 339.365 L
S
GR
GS
0.149 GC
2 setlinecap
1 LJ
0.5 LW
N
73 325.465 M
75.17 325.465 L
S
GR
GS
0.149 GC
2 setlinecap
1 LJ
0.5 LW
N
73 318.515 M
75.17 318.515 L
S
GR
GS
0.149 GC
2 setlinecap
1 LJ
0.5 LW
N
73 311.565 M
75.17 311.565 L
S
GR
GS
0.149 GC
2 setlinecap
1 LJ
0.5 LW
N
73 304.615 M
75.17 304.615 L
S
GR
GS
0.149 GC
2 setlinecap
1 LJ
0.5 LW
N
73 290.716 M
75.17 290.716 L
S
GR
GS
0.149 GC
2 setlinecap
1 LJ
0.5 LW
N
73 283.766 M
75.17 283.766 L
S
GR
GS
0.149 GC
2 setlinecap
1 LJ
0.5 LW
N
73 276.816 M
75.17 276.816 L
S
GR
GS
0.149 GC
2 setlinecap
1 LJ
0.5 LW
N
73 269.866 M
75.17 269.866 L
S
GR
GS
0.149 GC
2 setlinecap
1 LJ
0.5 LW
N
73 255.966 M
75.17 255.966 L
S
GR
GS
0.149 GC
2 setlinecap
1 LJ
0.5 LW
N
73 249.017 M
75.17 249.017 L
S
GR
GS
0.149 GC
2 setlinecap
1 LJ
0.5 LW
N
73 242.067 M
75.17 242.067 L
S
GR
GS
0.149 GC
2 setlinecap
1 LJ
0.5 LW
N
73 235.117 M
75.17 235.117 L
S
GR
GS
0.149 GC
2 setlinecap
1 LJ
0.5 LW
N
73 221.217 M
75.17 221.217 L
S
GR
GS
0.149 GC
2 setlinecap
1 LJ
0.5 LW
N
73 214.267 M
75.17 214.267 L
S
GR
GS
0.149 GC
2 setlinecap
1 LJ
0.5 LW
N
73 207.318 M
75.17 207.318 L
S
GR
GS
0.149 GC
2 setlinecap
1 LJ
0.5 LW
N
73 200.368 M
75.17 200.368 L
S
GR
GS
0.149 GC
2 setlinecap
1 LJ
0.5 LW
N
73 186.468 M
75.17 186.468 L
S
GR
GS
0.149 GC
2 setlinecap
1 LJ
0.5 LW
N
73 179.518 M
75.17 179.518 L
S
GR
GS
0.149 GC
2 setlinecap
1 LJ
0.5 LW
N
73 172.568 M
75.17 172.568 L
S
GR
GS
0.149 GC
2 setlinecap
1 LJ
0.5 LW
N
73 165.618 M
75.17 165.618 L
S
GR
GS
0.149 GC
2 setlinecap
1 LJ
0.5 LW
N
73 151.719 M
75.17 151.719 L
S
GR
GS
0.149 GC
2 setlinecap
1 LJ
0.5 LW
N
73 144.769 M
75.17 144.769 L
S
GR
GS
0.149 GC
2 setlinecap
1 LJ
0.5 LW
N
73 137.819 M
75.17 137.819 L
S
GR
GS
0.149 GC
2 setlinecap
1 LJ
0.5 LW
N
73 130.869 M
75.17 130.869 L
S
GR
GS
0.149 GC
2 setlinecap
1 LJ
0.5 LW
N
73 116.969 M
75.17 116.969 L
S
GR
GS
0.149 GC
2 setlinecap
1 LJ
0.5 LW
N
73 110.02 M
75.17 110.02 L
S
GR
GS
0.149 GC
2 setlinecap
1 LJ
0.5 LW
N
73 103.07 M
75.17 103.07 L
S
GR
GS
0.149 GC
2 setlinecap
1 LJ
0.5 LW
N
73 96.12 M
75.17 96.12 L
S
GR
GS
0.149 GC
2 setlinecap
1 LJ
0.5 LW
N
73 82.22 M
75.17 82.22 L
S
GR
GS
0.149 GC
2 setlinecap
1 LJ
0.5 LW
N
73 75.27 M
75.17 75.27 L
S
GR
GS
0.149 GC
2 setlinecap
1 LJ
0.5 LW
N
73 68.321 M
75.17 68.321 L
S
GR
GS
0.149 GC
2 setlinecap
1 LJ
0.5 LW
N
73 61.371 M
75.17 61.371 L
S
GR
GS
0.149 GC
2 setlinecap
1 LJ
0.5 LW
N
73 47.471 M
75.17 47.471 L
S
GR
GS
0.149 GC
2 setlinecap
1 LJ
0.5 LW
N
73 40.521 M
75.17 40.521 L
S
GR
GS
0.149 GC
2 setlinecap
1 LJ
0.5 LW
N
73 33.571 M
75.17 33.571 L
S
GR
GS
0.149 GC
2 setlinecap
1 LJ
0.5 LW
N
507 360.214 M
504.83 360.214 L
S
GR
GS
0.149 GC
2 setlinecap
1 LJ
0.5 LW
N
507 353.264 M
504.83 353.264 L
S
GR
GS
0.149 GC
2 setlinecap
1 LJ
0.5 LW
N
507 346.314 M
504.83 346.314 L
S
GR
GS
0.149 GC
2 setlinecap
1 LJ
0.5 LW
N
507 339.365 M
504.83 339.365 L
S
GR
GS
0.149 GC
2 setlinecap
1 LJ
0.5 LW
N
507 325.465 M
504.83 325.465 L
S
GR
GS
0.149 GC
2 setlinecap
1 LJ
0.5 LW
N
507 318.515 M
504.83 318.515 L
S
GR
GS
0.149 GC
2 setlinecap
1 LJ
0.5 LW
N
507 311.565 M
504.83 311.565 L
S
GR
GS
0.149 GC
2 setlinecap
1 LJ
0.5 LW
N
507 304.615 M
504.83 304.615 L
S
GR
GS
0.149 GC
2 setlinecap
1 LJ
0.5 LW
N
507 290.716 M
504.83 290.716 L
S
GR
GS
0.149 GC
2 setlinecap
1 LJ
0.5 LW
N
507 283.766 M
504.83 283.766 L
S
GR
GS
0.149 GC
2 setlinecap
1 LJ
0.5 LW
N
507 276.816 M
504.83 276.816 L
S
GR
GS
0.149 GC
2 setlinecap
1 LJ
0.5 LW
N
507 269.866 M
504.83 269.866 L
S
GR
GS
0.149 GC
2 setlinecap
1 LJ
0.5 LW
N
507 255.966 M
504.83 255.966 L
S
GR
GS
0.149 GC
2 setlinecap
1 LJ
0.5 LW
N
507 249.017 M
504.83 249.017 L
S
GR
GS
0.149 GC
2 setlinecap
1 LJ
0.5 LW
N
507 242.067 M
504.83 242.067 L
S
GR
GS
0.149 GC
2 setlinecap
1 LJ
0.5 LW
N
507 235.117 M
504.83 235.117 L
S
GR
GS
0.149 GC
2 setlinecap
1 LJ
0.5 LW
N
507 221.217 M
504.83 221.217 L
S
GR
GS
0.149 GC
2 setlinecap
1 LJ
0.5 LW
N
507 214.267 M
504.83 214.267 L
S
GR
GS
0.149 GC
2 setlinecap
1 LJ
0.5 LW
N
507 207.318 M
504.83 207.318 L
S
GR
GS
0.149 GC
2 setlinecap
1 LJ
0.5 LW
N
507 200.368 M
504.83 200.368 L
S
GR
GS
0.149 GC
2 setlinecap
1 LJ
0.5 LW
N
507 186.468 M
504.83 186.468 L
S
GR
GS
0.149 GC
2 setlinecap
1 LJ
0.5 LW
N
507 179.518 M
504.83 179.518 L
S
GR
GS
0.149 GC
2 setlinecap
1 LJ
0.5 LW
N
507 172.568 M
504.83 172.568 L
S
GR
GS
0.149 GC
2 setlinecap
1 LJ
0.5 LW
N
507 165.618 M
504.83 165.618 L
S
GR
GS
0.149 GC
2 setlinecap
1 LJ
0.5 LW
N
507 151.719 M
504.83 151.719 L
S
GR
GS
0.149 GC
2 setlinecap
1 LJ
0.5 LW
N
507 144.769 M
504.83 144.769 L
S
GR
GS
0.149 GC
2 setlinecap
1 LJ
0.5 LW
N
507 137.819 M
504.83 137.819 L
S
GR
GS
0.149 GC
2 setlinecap
1 LJ
0.5 LW
N
507 130.869 M
504.83 130.869 L
S
GR
GS
0.149 GC
2 setlinecap
1 LJ
0.5 LW
N
507 116.969 M
504.83 116.969 L
S
GR
GS
0.149 GC
2 setlinecap
1 LJ
0.5 LW
N
507 110.02 M
504.83 110.02 L
S
GR
GS
0.149 GC
2 setlinecap
1 LJ
0.5 LW
N
507 103.07 M
504.83 103.07 L
S
GR
GS
0.149 GC
2 setlinecap
1 LJ
0.5 LW
N
507 96.12 M
504.83 96.12 L
S
GR
GS
0.149 GC
2 setlinecap
1 LJ
0.5 LW
N
507 82.22 M
504.83 82.22 L
S
GR
GS
0.149 GC
2 setlinecap
1 LJ
0.5 LW
N
507 75.27 M
504.83 75.27 L
S
GR
GS
0.149 GC
2 setlinecap
1 LJ
0.5 LW
N
507 68.321 M
504.83 68.321 L
S
GR
GS
0.149 GC
2 setlinecap
1 LJ
0.5 LW
N
507 61.371 M
504.83 61.371 L
S
GR
GS
0.149 GC
2 setlinecap
1 LJ
0.5 LW
N
507 47.471 M
504.83 47.471 L
S
GR
GS
0.149 GC
2 setlinecap
1 LJ
0.5 LW
N
507 40.521 M
504.83 40.521 L
S
GR
GS
0.149 GC
2 setlinecap
1 LJ
0.5 LW
N
507 33.571 M
504.83 33.571 L
S
GR
GS
[1 0 0 1 68.2 367.16403] CT
0.149 GC
/Helvetica 14 F
GS
[1 0 0 1 0 0] CT
-16 5.5 moveto 
1 -1 scale
(13) t 
GR
GR
GS
[1 0 0 1 68.2 332.41479] CT
0.149 GC
/Helvetica 14 F
GS
[1 0 0 1 0 0] CT
-16 5.5 moveto 
1 -1 scale
(14) t 
GR
GR
GS
[1 0 0 1 68.2 297.66556] CT
0.149 GC
/Helvetica 14 F
GS
[1 0 0 1 0 0] CT
-16 5.5 moveto 
1 -1 scale
(15) t 
GR
GR
GS
[1 0 0 1 68.2 262.91632] CT
0.149 GC
/Helvetica 14 F
GS
[1 0 0 1 0 0] CT
-16 5.5 moveto 
1 -1 scale
(16) t 
GR
GR
GS
[1 0 0 1 68.2 228.16708] CT
0.149 GC
/Helvetica 14 F
GS
[1 0 0 1 0 0] CT
-16 5.5 moveto 
1 -1 scale
(17) t 
GR
GR
GS
[1 0 0 1 68.2 193.41785] CT
0.149 GC
/Helvetica 14 F
GS
[1 0 0 1 0 0] CT
-16 5.5 moveto 
1 -1 scale
(18) t 
GR
GR
GS
[1 0 0 1 68.2 158.66861] CT
0.149 GC
/Helvetica 14 F
GS
[1 0 0 1 0 0] CT
-16 5.5 moveto 
1 -1 scale
(19) t 
GR
GR
GS
[1 0 0 1 68.2 123.91936] CT
0.149 GC
/Helvetica 14 F
GS
[1 0 0 1 0 0] CT
-16 5.5 moveto 
1 -1 scale
(20) t 
GR
GR
GS
[1 0 0 1 68.2 89.17013] CT
0.149 GC
/Helvetica 14 F
GS
[1 0 0 1 0 0] CT
-16 5.5 moveto 
1 -1 scale
(21) t 
GR
GR
GS
[1 0 0 1 68.2 54.42089] CT
0.149 GC
/Helvetica 14 F
GS
[1 0 0 1 0 0] CT
-16 5.5 moveto 
1 -1 scale
(22) t 
GR
GR
GS
[0 -1 1 0 49.2 202.74985] CT
0.149 GC
/Helvetica 15.4 F
GS
[1 0 0 1 0 0] CT
-35 -4 moveto 
1 -1 scale
(SSIM \(dB\)) t 
GR
GR
GS
[1 0 0 1 290.00027 29.57498] CT
/Helvetica-Bold 15.4 F
GS
[1 0 0 1 0 0] CT
-126 -4 moveto 
1 -1 scale
(CoverSong_1080P-1b0c.y4m-hevc) t 
GR
GR
GS
0 0.447 0.741 RC
1 LJ
0.5 LW
N
74.911 367.039 M
76.565 361.122 L
78.219 355.256 L
79.873 349.457 L
81.526 343.742 L
83.18 338.126 L
84.834 332.626 L
86.488 327.259 L
88.142 322.04 L
89.795 316.987 L
91.449 312.115 L
93.103 307.441 L
94.757 302.981 L
96.41 298.752 L
98.064 294.77 L
99.718 290.949 L
101.372 287.19 L
103.026 283.495 L
104.679 279.865 L
106.333 276.3 L
107.987 272.802 L
109.641 269.37 L
111.295 266.008 L
112.948 262.714 L
114.602 259.49 L
116.256 256.337 L
117.91 253.257 L
119.563 250.248 L
121.217 247.314 L
122.871 244.454 L
124.525 241.669 L
126.179 238.96 L
127.832 236.329 L
129.486 233.776 L
131.14 231.302 L
132.794 228.908 L
134.448 226.595 L
136.101 224.363 L
137.755 222.214 L
139.409 220.149 L
141.063 218.168 L
142.716 216.252 L
144.37 214.365 L
146.024 212.506 L
147.678 210.674 L
149.332 208.868 L
150.985 207.088 L
152.639 205.335 L
154.293 203.607 L
155.947 201.904 L
157.601 200.226 L
159.254 198.572 L
160.908 196.942 L
162.562 195.336 L
164.216 193.753 L
165.869 192.193 L
167.523 190.655 L
169.177 189.14 L
170.831 187.646 L
172.485 186.173 L
174.138 184.722 L
175.792 183.291 L
177.446 181.88 L
179.1 180.489 L
180.754 179.118 L
182.407 177.765 L
184.061 176.431 L
185.715 175.116 L
187.369 173.818 L
189.022 172.538 L
190.676 171.275 L
192.33 170.029 L
193.984 168.799 L
195.638 167.586 L
197.291 166.388 L
198.945 165.205 L
200.599 164.037 L
202.253 162.883 L
203.907 161.744 L
205.56 160.618 L
207.214 159.506 L
208.868 158.407 L
210.522 157.32 L
212.175 156.246 L
213.829 155.183 L
215.483 154.132 L
217.137 153.092 L
218.791 152.062 L
220.444 151.043 L
222.098 150.034 L
223.752 149.034 L
225.406 148.044 L
227.06 147.062 L
228.713 146.089 L
230.367 145.124 L
232.021 144.166 L
233.675 143.216 L
235.328 142.271 L
236.982 141.326 L
238.636 140.382 L
240.29 139.439 L
241.944 138.497 L
243.597 137.556 L
245.251 136.616 L
246.905 135.676 L
248.559 134.738 L
250.213 133.801 L
251.866 132.865 L
253.52 131.931 L
255.174 130.998 L
256.828 130.066 L
258.481 129.135 L
260.135 128.206 L
261.789 127.278 L
263.443 126.352 L
265.097 125.428 L
266.75 124.505 L
268.404 123.583 L
270.058 122.664 L
271.712 121.746 L
273.366 120.831 L
275.019 119.917 L
276.673 119.005 L
278.327 118.095 L
279.981 117.187 L
281.634 116.281 L
283.288 115.377 L
284.942 114.476 L
286.596 113.576 L
288.25 112.68 L
289.903 111.785 L
291.557 110.893 L
293.211 110.003 L
294.865 109.116 L
296.519 108.231 L
298.172 107.349 L
299.826 106.47 L
301.48 105.594 L
303.134 104.72 L
304.788 103.849 L
306.441 102.981 L
308.095 102.115 L
309.749 101.253 L
311.403 100.394 L
313.056 99.538 L
314.71 98.685 L
316.364 97.835 L
318.018 96.988 L
319.672 96.145 L
321.325 95.305 L
322.979 94.469 L
324.633 93.635 L
326.287 92.806 L
327.941 91.98 L
329.594 91.157 L
331.248 90.338 L
332.902 89.523 L
334.556 88.712 L
336.209 87.904 L
337.863 87.1 L
339.517 86.3 L
341.171 85.504 L
342.825 84.712 L
344.478 83.924 L
346.132 83.141 L
347.786 82.361 L
349.44 81.586 L
351.094 80.814 L
352.747 80.048 L
354.401 79.285 L
356.055 78.527 L
357.709 77.773 L
359.362 77.024 L
361.016 76.28 L
362.67 75.54 L
364.324 74.805 L
365.978 74.074 L
367.631 73.348 L
369.285 72.627 L
370.939 71.911 L
372.593 71.2 L
374.247 70.494 L
375.9 69.793 L
377.554 69.097 L
379.208 68.406 L
380.862 67.72 L
382.515 67.04 L
384.169 66.365 L
385.823 65.695 L
387.477 65.03 L
389.131 64.371 L
390.784 63.718 L
392.438 63.07 L
394.092 62.427 L
395.746 61.791 L
397.4 61.16 L
399.053 60.534 L
400.707 59.915 L
402.361 59.301 L
404.015 58.693 L
405.668 58.092 L
407.322 57.496 L
408.976 56.906 L
410.63 56.322 L
412.284 55.745 L
413.937 55.174 L
415.591 54.609 L
417.245 54.05 L
418.899 53.498 L
420.553 52.952 L
422.206 52.412 L
423.86 51.879 L
425.514 51.353 L
427.168 50.833 L
428.821 50.32 L
430.475 49.814 L
432.129 49.314 L
433.783 48.822 L
435.437 48.336 L
437.09 47.857 L
438.744 47.385 L
440.398 46.92 L
442.052 46.462 L
443.706 46.011 L
445.359 45.568 L
447.013 45.132 L
448.667 44.703 L
450.321 44.281 L
451.974 43.867 L
453.628 43.46 L
455.282 43.061 L
456.936 42.669 L
458.59 42.285 L
460.243 41.908 L
461.897 41.539 L
463.551 41.178 L
465.205 40.825 L
466.859 40.48 L
468.512 40.142 L
470.166 39.813 L
471.82 39.491 L
473.474 39.178 L
475.128 38.872 L
476.781 38.575 L
478.435 38.286 L
480.089 38.005 L
481.743 37.733 L
483.396 37.469 L
485.05 37.213 L
486.704 36.966 L
488.358 36.727 L
490.012 36.497 L
491.665 36.276 L
493.319 36.063 L
494.973 35.859 L
496.627 35.664 L
S
GR
GS
0.851 0.325 0.098 RC
1 LJ
0.5 LW
N
74.059 370.291 M
75.713 364.224 L
77.367 358.21 L
79.02 352.267 L
80.674 346.414 L
82.328 340.668 L
83.982 335.046 L
85.636 329.566 L
87.289 324.247 L
88.943 319.105 L
90.597 314.158 L
92.251 309.424 L
93.905 304.921 L
95.558 300.667 L
97.212 296.658 L
98.866 292.746 L
100.52 288.9 L
102.173 285.122 L
103.827 281.411 L
105.481 277.77 L
107.135 274.199 L
108.789 270.699 L
110.442 267.272 L
112.096 263.918 L
113.75 260.639 L
115.404 257.435 L
117.058 254.307 L
118.711 251.258 L
120.365 248.287 L
122.019 245.395 L
123.673 242.585 L
125.326 239.856 L
126.98 237.21 L
128.634 234.648 L
130.288 232.172 L
131.942 229.781 L
133.595 227.477 L
135.249 225.262 L
136.903 223.135 L
138.557 221.099 L
140.211 219.122 L
141.864 217.175 L
143.518 215.256 L
145.172 213.366 L
146.826 211.503 L
148.479 209.669 L
150.133 207.861 L
151.787 206.08 L
153.441 204.326 L
155.095 202.598 L
156.748 200.895 L
158.402 199.217 L
160.056 197.565 L
161.71 195.936 L
163.364 194.332 L
165.017 192.752 L
166.671 191.194 L
168.325 189.66 L
169.979 188.148 L
171.632 186.658 L
173.286 185.19 L
174.94 183.743 L
176.594 182.317 L
178.248 180.911 L
179.901 179.526 L
181.555 178.16 L
183.209 176.813 L
184.863 175.486 L
186.517 174.177 L
188.17 172.886 L
189.824 171.613 L
191.478 170.357 L
193.132 169.118 L
194.785 167.896 L
196.439 166.69 L
198.093 165.499 L
199.747 164.324 L
201.401 163.164 L
203.054 162.019 L
204.708 160.887 L
206.362 159.77 L
208.016 158.666 L
209.67 157.574 L
211.323 156.496 L
212.977 155.43 L
214.631 154.375 L
216.285 153.332 L
217.938 152.3 L
219.592 151.279 L
221.246 150.267 L
222.9 149.266 L
224.554 148.274 L
226.207 147.291 L
227.861 146.317 L
229.515 145.348 L
231.169 144.38 L
232.823 143.412 L
234.476 142.446 L
236.13 141.48 L
237.784 140.515 L
239.438 139.551 L
241.091 138.588 L
242.745 137.626 L
244.399 136.666 L
246.053 135.706 L
247.707 134.748 L
249.36 133.791 L
251.014 132.836 L
252.668 131.882 L
254.322 130.93 L
255.976 129.979 L
257.629 129.03 L
259.283 128.082 L
260.937 127.136 L
262.591 126.193 L
264.244 125.25 L
265.898 124.31 L
267.552 123.372 L
269.206 122.436 L
270.86 121.502 L
272.513 120.57 L
274.167 119.641 L
275.821 118.713 L
277.475 117.788 L
279.129 116.866 L
280.782 115.946 L
282.436 115.028 L
284.09 114.113 L
285.744 113.201 L
287.397 112.291 L
289.051 111.384 L
290.705 110.48 L
292.359 109.578 L
294.013 108.68 L
295.666 107.785 L
297.32 106.892 L
298.974 106.003 L
300.628 105.117 L
302.282 104.234 L
303.935 103.354 L
305.589 102.478 L
307.243 101.605 L
308.897 100.736 L
310.551 99.87 L
312.204 99.007 L
313.858 98.149 L
315.512 97.294 L
317.166 96.442 L
318.819 95.595 L
320.473 94.751 L
322.127 93.911 L
323.781 93.075 L
325.435 92.244 L
327.088 91.416 L
328.742 90.593 L
330.396 89.773 L
332.05 88.958 L
333.703 88.148 L
335.357 87.341 L
337.011 86.539 L
338.665 85.742 L
340.319 84.949 L
341.972 84.161 L
343.626 83.378 L
345.28 82.599 L
346.934 81.825 L
348.588 81.056 L
350.241 80.292 L
351.895 79.532 L
353.549 78.778 L
355.203 78.029 L
356.857 77.285 L
358.51 76.546 L
360.164 75.813 L
361.818 75.085 L
363.472 74.362 L
365.125 73.644 L
366.779 72.932 L
368.433 72.226 L
370.087 71.525 L
371.741 70.83 L
373.394 70.141 L
375.048 69.458 L
376.702 68.78 L
378.356 68.108 L
380.01 67.442 L
381.663 66.783 L
383.317 66.129 L
384.971 65.481 L
386.625 64.84 L
388.278 64.205 L
389.932 63.576 L
391.586 62.954 L
393.24 62.338 L
394.894 61.728 L
396.547 61.125 L
398.201 60.529 L
399.855 59.94 L
401.509 59.357 L
403.163 58.78 L
404.816 58.211 L
406.47 57.649 L
408.124 57.093 L
409.778 56.545 L
411.431 56.004 L
413.085 55.469 L
414.739 54.942 L
416.393 54.423 L
418.047 53.91 L
419.7 53.405 L
421.354 52.907 L
423.008 52.417 L
424.662 51.935 L
426.316 51.46 L
427.969 50.992 L
429.623 50.533 L
431.277 50.081 L
432.931 49.637 L
434.584 49.201 L
436.238 48.773 L
437.892 48.352 L
439.546 47.94 L
441.2 47.536 L
442.853 47.141 L
444.507 46.753 L
446.161 46.374 L
447.815 46.003 L
449.469 45.641 L
451.122 45.287 L
452.776 44.941 L
454.43 44.604 L
456.084 44.276 L
457.737 43.957 L
459.391 43.646 L
461.045 43.344 L
462.699 43.051 L
464.353 42.767 L
466.006 42.492 L
467.66 42.227 L
469.314 41.97 L
470.968 41.722 L
472.622 41.484 L
474.275 41.255 L
475.929 41.035 L
477.583 40.825 L
479.237 40.624 L
480.89 40.433 L
482.544 40.251 L
484.198 40.079 L
S
GR
GS
0.929 0.694 0.125 RC
1 LJ
0.5 LW
N
73 374 M
74.654 367.691 L
76.308 361.439 L
77.961 355.264 L
79.615 349.184 L
81.269 343.219 L
82.923 337.39 L
84.576 331.715 L
86.23 326.214 L
87.884 320.908 L
89.538 315.815 L
91.192 310.955 L
92.845 306.348 L
94.499 302.013 L
96.153 297.915 L
97.807 293.899 L
99.461 289.954 L
101.114 286.082 L
102.768 282.283 L
104.422 278.559 L
106.076 274.91 L
107.73 271.337 L
109.383 267.842 L
111.037 264.424 L
112.691 261.086 L
114.345 257.828 L
115.998 254.651 L
117.652 251.556 L
119.306 248.544 L
120.96 245.615 L
122.614 242.772 L
124.267 240.014 L
125.921 237.343 L
127.575 234.76 L
129.229 232.265 L
130.883 229.859 L
132.536 227.545 L
134.19 225.321 L
135.844 223.19 L
137.498 221.142 L
139.151 219.131 L
140.805 217.149 L
142.459 215.197 L
144.113 213.274 L
145.767 211.38 L
147.42 209.514 L
149.074 207.676 L
150.728 205.865 L
152.382 204.081 L
154.036 202.324 L
155.689 200.594 L
157.343 198.889 L
158.997 197.209 L
160.651 195.555 L
162.304 193.925 L
163.958 192.32 L
165.612 190.738 L
167.266 189.18 L
168.92 187.644 L
170.573 186.131 L
172.227 184.641 L
173.881 183.172 L
175.535 181.724 L
177.189 180.298 L
178.842 178.892 L
180.496 177.506 L
182.15 176.14 L
183.804 174.793 L
185.457 173.465 L
187.111 172.156 L
188.765 170.864 L
190.419 169.591 L
192.073 168.334 L
193.726 167.095 L
195.38 165.872 L
197.034 164.665 L
198.688 163.474 L
200.342 162.298 L
201.995 161.137 L
203.649 159.99 L
205.303 158.857 L
206.957 157.738 L
208.61 156.633 L
210.264 155.54 L
211.918 154.459 L
213.572 153.39 L
215.226 152.333 L
216.879 151.287 L
218.533 150.252 L
220.187 149.228 L
221.841 148.213 L
223.495 147.207 L
225.148 146.211 L
226.802 145.221 L
228.456 144.232 L
230.11 143.243 L
231.763 142.256 L
233.417 141.269 L
235.071 140.283 L
236.725 139.298 L
238.379 138.314 L
240.032 137.331 L
241.686 136.35 L
243.34 135.37 L
244.994 134.391 L
246.648 133.413 L
248.301 132.437 L
249.955 131.462 L
251.609 130.489 L
253.263 129.517 L
254.916 128.547 L
256.57 127.579 L
258.224 126.612 L
259.878 125.648 L
261.532 124.685 L
263.185 123.724 L
264.839 122.766 L
266.493 121.809 L
268.147 120.854 L
269.801 119.902 L
271.454 118.952 L
273.108 118.005 L
274.762 117.059 L
276.416 116.117 L
278.069 115.176 L
279.723 114.239 L
281.377 113.304 L
283.031 112.371 L
284.685 111.442 L
286.338 110.515 L
287.992 109.591 L
289.646 108.67 L
291.3 107.752 L
292.954 106.837 L
294.607 105.926 L
296.261 105.017 L
297.915 104.112 L
299.569 103.21 L
301.223 102.311 L
302.876 101.416 L
304.53 100.524 L
306.184 99.636 L
307.838 98.752 L
309.491 97.871 L
311.145 96.994 L
312.799 96.121 L
314.453 95.251 L
316.107 94.386 L
317.76 93.524 L
319.414 92.667 L
321.068 91.813 L
322.722 90.964 L
324.375 90.119 L
326.029 89.278 L
327.683 88.442 L
329.337 87.61 L
330.991 86.782 L
332.644 85.959 L
334.298 85.141 L
335.952 84.327 L
337.606 83.518 L
339.26 82.714 L
340.913 81.915 L
342.567 81.12 L
344.221 80.331 L
345.875 79.546 L
347.529 78.767 L
349.182 77.993 L
350.836 77.223 L
352.49 76.46 L
354.144 75.701 L
355.797 74.948 L
357.451 74.2 L
359.105 73.458 L
360.759 72.722 L
362.413 71.991 L
364.066 71.265 L
365.72 70.546 L
367.374 69.832 L
369.028 69.124 L
370.682 68.422 L
372.335 67.726 L
373.989 67.036 L
375.643 66.353 L
377.297 65.675 L
378.95 65.004 L
380.604 64.339 L
382.258 63.68 L
383.912 63.028 L
385.566 62.382 L
387.219 61.743 L
388.873 61.11 L
390.527 60.484 L
392.181 59.865 L
393.835 59.253 L
395.488 58.647 L
397.142 58.048 L
398.796 57.457 L
400.45 56.872 L
402.103 56.294 L
403.757 55.724 L
405.411 55.161 L
407.065 54.605 L
408.719 54.056 L
410.372 53.515 L
412.026 52.981 L
413.68 52.455 L
415.334 51.936 L
416.988 51.425 L
418.641 50.922 L
420.295 50.426 L
421.949 49.939 L
423.603 49.459 L
425.256 48.987 L
426.91 48.523 L
428.564 48.067 L
430.218 47.619 L
431.872 47.18 L
433.525 46.749 L
435.179 46.326 L
436.833 45.911 L
438.487 45.505 L
440.141 45.107 L
441.794 44.718 L
443.448 44.338 L
445.102 43.966 L
446.756 43.603 L
448.409 43.249 L
450.063 42.903 L
451.717 42.567 L
453.371 42.239 L
455.025 41.921 L
456.678 41.611 L
458.332 41.311 L
459.986 41.02 L
461.64 40.739 L
463.294 40.466 L
464.947 40.203 L
466.601 39.95 L
468.255 39.706 L
469.909 39.472 L
471.562 39.247 L
473.216 39.032 L
474.87 38.827 L
476.524 38.632 L
478.178 38.446 L
479.831 38.271 L
S
GR
GS
0.494 0.184 0.557 RC
1 LJ
0.5 LW
N
74.774 367.238 M
76.428 361.302 L
78.082 355.416 L
79.735 349.599 L
81.389 343.866 L
83.043 338.235 L
84.697 332.723 L
86.351 327.346 L
88.004 322.124 L
89.658 317.071 L
91.312 312.205 L
92.966 307.545 L
94.619 303.105 L
96.273 298.904 L
97.927 294.956 L
99.581 291.138 L
101.235 287.386 L
102.888 283.7 L
104.542 280.08 L
106.196 276.527 L
107.85 273.043 L
109.504 269.627 L
111.157 266.28 L
112.811 263.004 L
114.465 259.798 L
116.119 256.664 L
117.772 253.603 L
119.426 250.614 L
121.08 247.699 L
122.734 244.859 L
124.388 242.094 L
126.041 239.404 L
127.695 236.791 L
129.349 234.256 L
131.003 231.799 L
132.657 229.42 L
134.31 227.121 L
135.964 224.903 L
137.618 222.765 L
139.272 220.709 L
140.925 218.735 L
142.579 216.811 L
144.233 214.915 L
145.887 213.047 L
147.541 211.205 L
149.194 209.389 L
150.848 207.6 L
152.502 205.836 L
154.156 204.097 L
155.81 202.384 L
157.463 200.695 L
159.117 199.03 L
160.771 197.389 L
162.425 195.771 L
164.078 194.177 L
165.732 192.605 L
167.386 191.056 L
169.04 189.529 L
170.694 188.023 L
172.347 186.539 L
174.001 185.076 L
175.655 183.633 L
177.309 182.21 L
178.963 180.807 L
180.616 179.424 L
182.27 178.06 L
183.924 176.715 L
185.578 175.388 L
187.232 174.079 L
188.885 172.787 L
190.539 171.513 L
192.193 170.256 L
193.847 169.015 L
195.5 167.791 L
197.154 166.582 L
198.808 165.389 L
200.462 164.211 L
202.116 163.048 L
203.769 161.899 L
205.423 160.764 L
207.077 159.643 L
208.731 158.535 L
210.385 157.44 L
212.038 156.357 L
213.692 155.287 L
215.346 154.229 L
217 153.182 L
218.653 152.146 L
220.307 151.121 L
221.961 150.106 L
223.615 149.101 L
225.269 148.106 L
226.922 147.12 L
228.576 146.143 L
230.23 145.175 L
231.884 144.214 L
233.538 143.261 L
235.191 142.308 L
236.845 141.357 L
238.499 140.406 L
240.153 139.456 L
241.806 138.506 L
243.46 137.558 L
245.114 136.611 L
246.768 135.665 L
248.422 134.72 L
250.075 133.776 L
251.729 132.833 L
253.383 131.892 L
255.037 130.952 L
256.691 130.013 L
258.344 129.076 L
259.998 128.14 L
261.652 127.206 L
263.306 126.274 L
264.959 125.343 L
266.613 124.413 L
268.267 123.486 L
269.921 122.56 L
271.575 121.637 L
273.228 120.715 L
274.882 119.795 L
276.536 118.877 L
278.19 117.961 L
279.844 117.048 L
281.497 116.136 L
283.151 115.227 L
284.805 114.32 L
286.459 113.415 L
288.112 112.513 L
289.766 111.613 L
291.42 110.716 L
293.074 109.822 L
294.728 108.93 L
296.381 108.04 L
298.035 107.154 L
299.689 106.27 L
301.343 105.389 L
302.997 104.511 L
304.65 103.635 L
306.304 102.763 L
307.958 101.894 L
309.612 101.028 L
311.265 100.165 L
312.919 99.305 L
314.573 98.449 L
316.227 97.596 L
317.881 96.746 L
319.534 95.9 L
321.188 95.057 L
322.842 94.217 L
324.496 93.382 L
326.15 92.55 L
327.803 91.721 L
329.457 90.896 L
331.111 90.076 L
332.765 89.258 L
334.418 88.445 L
336.072 87.636 L
337.726 86.831 L
339.38 86.03 L
341.034 85.233 L
342.687 84.44 L
344.341 83.651 L
345.995 82.867 L
347.649 82.087 L
349.303 81.311 L
350.956 80.54 L
352.61 79.773 L
354.264 79.011 L
355.918 78.254 L
357.571 77.501 L
359.225 76.753 L
360.879 76.009 L
362.533 75.271 L
364.187 74.537 L
365.84 73.808 L
367.494 73.084 L
369.148 72.365 L
370.802 71.651 L
372.456 70.943 L
374.109 70.239 L
375.763 69.541 L
377.417 68.848 L
379.071 68.161 L
380.724 67.479 L
382.378 66.802 L
384.032 66.131 L
385.686 65.465 L
387.34 64.805 L
388.993 64.151 L
390.647 63.502 L
392.301 62.859 L
393.955 62.222 L
395.609 61.591 L
397.262 60.966 L
398.916 60.347 L
400.57 59.734 L
402.224 59.127 L
403.878 58.526 L
405.531 57.931 L
407.185 57.343 L
408.839 56.761 L
410.493 56.185 L
412.146 55.616 L
413.8 55.053 L
415.454 54.496 L
417.108 53.947 L
418.762 53.404 L
420.415 52.867 L
422.069 52.337 L
423.723 51.815 L
425.377 51.299 L
427.031 50.789 L
428.684 50.287 L
430.338 49.792 L
431.992 49.304 L
433.646 48.823 L
435.299 48.349 L
436.953 47.883 L
438.607 47.423 L
440.261 46.971 L
441.915 46.527 L
443.568 46.09 L
445.222 45.66 L
446.876 45.238 L
448.53 44.823 L
450.184 44.416 L
451.837 44.017 L
453.491 43.626 L
455.145 43.242 L
456.799 42.866 L
458.452 42.499 L
460.106 42.139 L
461.76 41.787 L
463.414 41.443 L
465.068 41.108 L
466.721 40.78 L
468.375 40.461 L
470.029 40.15 L
471.683 39.848 L
473.337 39.554 L
474.99 39.268 L
476.644 38.991 L
478.298 38.722 L
479.952 38.462 L
481.605 38.211 L
483.259 37.968 L
484.913 37.734 L
486.567 37.509 L
488.221 37.293 L
489.874 37.086 L
491.528 36.888 L
493.182 36.699 L
S
GR
GS
0.467 0.675 0.188 RC
[10 6] 0 setdash
2 LJ
0.5 LW
N
74.986 366.6 M
76.64 360.703 L
78.293 354.856 L
79.947 349.075 L
81.601 343.376 L
83.255 337.777 L
84.909 332.294 L
86.562 326.942 L
88.216 321.739 L
89.87 316.701 L
91.524 311.845 L
93.177 307.187 L
94.831 302.743 L
96.485 298.53 L
98.139 294.564 L
99.793 290.764 L
101.446 287.029 L
103.1 283.357 L
104.754 279.751 L
106.408 276.211 L
108.062 272.738 L
109.715 269.331 L
111.369 265.993 L
113.023 262.724 L
114.677 259.524 L
116.33 256.394 L
117.984 253.335 L
119.638 250.347 L
121.292 247.431 L
122.946 244.589 L
124.599 241.82 L
126.253 239.125 L
127.907 236.506 L
129.561 233.962 L
131.215 231.494 L
132.868 229.104 L
134.522 226.791 L
136.176 224.557 L
137.83 222.402 L
139.483 220.327 L
141.137 218.333 L
142.791 216.41 L
144.445 214.518 L
146.099 212.654 L
147.752 210.815 L
149.406 209.003 L
151.06 207.217 L
152.714 205.456 L
154.368 203.72 L
156.021 202.009 L
157.675 200.322 L
159.329 198.659 L
160.983 197.02 L
162.636 195.404 L
164.29 193.811 L
165.944 192.241 L
167.598 190.692 L
169.252 189.166 L
170.905 187.661 L
172.559 186.177 L
174.213 184.715 L
175.867 183.272 L
177.521 181.85 L
179.174 180.447 L
180.828 179.064 L
182.482 177.699 L
184.136 176.353 L
185.789 175.026 L
187.443 173.717 L
189.097 172.425 L
190.751 171.15 L
192.405 169.892 L
194.058 168.651 L
195.712 167.426 L
197.366 166.216 L
199.02 165.023 L
200.674 163.844 L
202.327 162.68 L
203.981 161.53 L
205.635 160.394 L
207.289 159.272 L
208.942 158.164 L
210.596 157.068 L
212.25 155.985 L
213.904 154.914 L
215.558 153.855 L
217.211 152.807 L
218.865 151.771 L
220.519 150.745 L
222.173 149.73 L
223.827 148.725 L
225.48 147.73 L
227.134 146.744 L
228.788 145.768 L
230.442 144.799 L
232.095 143.84 L
233.749 142.888 L
235.403 141.943 L
237.057 140.999 L
238.711 140.055 L
240.364 139.113 L
242.018 138.171 L
243.672 137.23 L
245.326 136.291 L
246.98 135.352 L
248.633 134.414 L
250.287 133.477 L
251.941 132.542 L
253.595 131.607 L
255.248 130.674 L
256.902 129.742 L
258.556 128.812 L
260.21 127.883 L
261.864 126.955 L
263.517 126.029 L
265.171 125.104 L
266.825 124.181 L
268.479 123.26 L
270.133 122.34 L
271.786 121.422 L
273.44 120.506 L
275.094 119.592 L
276.748 118.68 L
278.401 117.77 L
280.055 116.861 L
281.709 115.955 L
283.363 115.051 L
285.017 114.149 L
286.67 113.249 L
288.324 112.352 L
289.978 111.457 L
291.632 110.564 L
293.286 109.674 L
294.939 108.786 L
296.593 107.901 L
298.247 107.018 L
299.901 106.138 L
301.555 105.261 L
303.208 104.386 L
304.862 103.515 L
306.516 102.646 L
308.17 101.78 L
309.823 100.917 L
311.477 100.057 L
313.131 99.199 L
314.785 98.346 L
316.439 97.495 L
318.092 96.647 L
319.746 95.803 L
321.4 94.962 L
323.054 94.124 L
324.708 93.29 L
326.361 92.459 L
328.015 91.632 L
329.669 90.809 L
331.323 89.989 L
332.976 89.172 L
334.63 88.36 L
336.284 87.551 L
337.938 86.746 L
339.592 85.945 L
341.245 85.148 L
342.899 84.354 L
344.553 83.565 L
346.207 82.78 L
347.861 81.999 L
349.514 81.223 L
351.168 80.45 L
352.822 79.682 L
354.476 78.918 L
356.129 78.159 L
357.783 77.404 L
359.437 76.653 L
361.091 75.908 L
362.745 75.166 L
364.398 74.43 L
366.052 73.698 L
367.706 72.971 L
369.36 72.248 L
371.014 71.531 L
372.667 70.818 L
374.321 70.111 L
375.975 69.408 L
377.629 68.71 L
379.282 68.018 L
380.936 67.331 L
382.59 66.649 L
384.244 65.972 L
385.898 65.301 L
387.551 64.635 L
389.205 63.974 L
390.859 63.319 L
392.513 62.67 L
394.167 62.026 L
395.82 61.388 L
397.474 60.755 L
399.128 60.128 L
400.782 59.507 L
402.435 58.892 L
404.089 58.283 L
405.743 57.68 L
407.397 57.082 L
409.051 56.491 L
410.704 55.906 L
412.358 55.327 L
414.012 54.754 L
415.666 54.188 L
417.32 53.628 L
418.973 53.074 L
420.627 52.526 L
422.281 51.986 L
423.935 51.451 L
425.588 50.923 L
427.242 50.402 L
428.896 49.888 L
430.55 49.38 L
432.204 48.879 L
433.857 48.385 L
435.511 47.897 L
437.165 47.417 L
438.819 46.944 L
440.473 46.477 L
442.126 46.018 L
443.78 45.566 L
445.434 45.121 L
447.088 44.684 L
448.741 44.253 L
450.395 43.83 L
452.049 43.415 L
453.703 43.007 L
455.357 42.606 L
457.01 42.213 L
458.664 41.828 L
460.318 41.45 L
461.972 41.08 L
463.626 40.718 L
465.279 40.363 L
466.933 40.017 L
468.587 39.678 L
470.241 39.347 L
471.894 39.025 L
473.548 38.71 L
475.202 38.403 L
476.856 38.105 L
478.51 37.815 L
480.163 37.533 L
481.817 37.26 L
483.471 36.995 L
485.125 36.738 L
486.779 36.49 L
488.432 36.251 L
490.086 36.02 L
491.74 35.797 L
493.394 35.584 L
495.047 35.379 L
496.701 35.183 L
498.355 34.995 L
S
GR
GS
0.302 0.745 0.933 RC
[10 6] 0 setdash
2 LJ
0.5 LW
N
74.589 368.411 M
76.243 362.42 L
77.896 356.48 L
79.55 350.609 L
81.204 344.823 L
82.858 339.139 L
84.511 333.576 L
86.165 328.149 L
87.819 322.877 L
89.473 317.777 L
91.127 312.865 L
92.78 308.16 L
94.434 303.678 L
96.088 299.436 L
97.742 295.45 L
99.396 291.598 L
101.049 287.812 L
102.703 284.092 L
104.357 280.438 L
106.011 276.852 L
107.664 273.334 L
109.318 269.885 L
110.972 266.505 L
112.626 263.197 L
114.28 259.96 L
115.933 256.795 L
117.587 253.704 L
119.241 250.686 L
120.895 247.743 L
122.549 244.876 L
124.202 242.085 L
125.856 239.371 L
127.51 236.735 L
129.164 234.178 L
130.817 231.7 L
132.471 229.303 L
134.125 226.987 L
135.779 224.754 L
137.433 222.603 L
139.086 220.535 L
140.74 218.552 L
142.394 216.624 L
144.048 214.723 L
145.702 212.85 L
147.355 211.004 L
149.009 209.185 L
150.663 207.393 L
152.317 205.626 L
153.97 203.886 L
155.624 202.17 L
157.278 200.48 L
158.932 198.814 L
160.586 197.173 L
162.239 195.555 L
163.893 193.96 L
165.547 192.389 L
167.201 190.84 L
168.855 189.314 L
170.508 187.81 L
172.162 186.327 L
173.816 184.865 L
175.47 183.424 L
177.124 182.003 L
178.777 180.603 L
180.431 179.222 L
182.085 177.86 L
183.739 176.517 L
185.392 175.193 L
187.046 173.887 L
188.7 172.598 L
190.354 171.327 L
192.008 170.073 L
193.661 168.835 L
195.315 167.614 L
196.969 166.408 L
198.623 165.218 L
200.277 164.043 L
201.93 162.883 L
203.584 161.737 L
205.238 160.605 L
206.892 159.486 L
208.545 158.381 L
210.199 157.288 L
211.853 156.208 L
213.507 155.14 L
215.161 154.083 L
216.814 153.038 L
218.468 152.004 L
220.122 150.98 L
221.776 149.966 L
223.43 148.962 L
225.083 147.967 L
226.737 146.982 L
228.391 146.005 L
230.045 145.036 L
231.698 144.075 L
233.352 143.12 L
235.006 142.167 L
236.66 141.214 L
238.314 140.262 L
239.967 139.311 L
241.621 138.361 L
243.275 137.412 L
244.929 136.464 L
246.583 135.517 L
248.236 134.571 L
249.89 133.627 L
251.544 132.683 L
253.198 131.741 L
254.851 130.8 L
256.505 129.861 L
258.159 128.923 L
259.813 127.986 L
261.467 127.051 L
263.12 126.118 L
264.774 125.186 L
266.428 124.256 L
268.082 123.328 L
269.736 122.401 L
271.389 121.477 L
273.043 120.554 L
274.697 119.633 L
276.351 118.715 L
278.004 117.798 L
279.658 116.884 L
281.312 115.971 L
282.966 115.061 L
284.62 114.154 L
286.273 113.248 L
287.927 112.345 L
289.581 111.445 L
291.235 110.547 L
292.889 109.651 L
294.542 108.758 L
296.196 107.868 L
297.85 106.981 L
299.504 106.096 L
301.157 105.214 L
302.811 104.335 L
304.465 103.459 L
306.119 102.586 L
307.773 101.716 L
309.426 100.849 L
311.08 99.986 L
312.734 99.125 L
314.388 98.268 L
316.042 97.414 L
317.695 96.563 L
319.349 95.716 L
321.003 94.872 L
322.657 94.032 L
324.31 93.195 L
325.964 92.362 L
327.618 91.533 L
329.272 90.707 L
330.926 89.885 L
332.579 89.067 L
334.233 88.253 L
335.887 87.443 L
337.541 86.637 L
339.195 85.835 L
340.848 85.037 L
342.502 84.243 L
344.156 83.453 L
345.81 82.668 L
347.463 81.886 L
349.117 81.11 L
350.771 80.337 L
352.425 79.57 L
354.079 78.806 L
355.732 78.048 L
357.386 77.294 L
359.04 76.544 L
360.694 75.8 L
362.348 75.06 L
364.001 74.325 L
365.655 73.595 L
367.309 72.869 L
368.963 72.149 L
370.616 71.434 L
372.27 70.724 L
373.924 70.02 L
375.578 69.32 L
377.232 68.626 L
378.885 67.937 L
380.539 67.253 L
382.193 66.575 L
383.847 65.903 L
385.501 65.235 L
387.154 64.574 L
388.808 63.918 L
390.462 63.268 L
392.116 62.624 L
393.77 61.985 L
395.423 61.352 L
397.077 60.725 L
398.731 60.104 L
400.385 59.49 L
402.038 58.881 L
403.692 58.278 L
405.346 57.682 L
407 57.092 L
408.654 56.508 L
410.307 55.93 L
411.961 55.359 L
413.615 54.794 L
415.269 54.236 L
416.923 53.684 L
418.576 53.139 L
420.23 52.601 L
421.884 52.069 L
423.538 51.544 L
425.191 51.026 L
426.845 50.515 L
428.499 50.01 L
430.153 49.513 L
431.807 49.022 L
433.46 48.539 L
435.114 48.063 L
436.768 47.594 L
438.422 47.133 L
440.076 46.678 L
441.729 46.231 L
443.383 45.792 L
445.037 45.359 L
446.691 44.935 L
448.344 44.518 L
449.998 44.108 L
451.652 43.706 L
453.306 43.312 L
454.96 42.926 L
456.613 42.548 L
458.267 42.177 L
459.921 41.814 L
461.575 41.46 L
463.229 41.113 L
464.882 40.775 L
466.536 40.444 L
468.19 40.122 L
469.844 39.808 L
471.497 39.503 L
473.151 39.205 L
474.805 38.916 L
476.459 38.636 L
478.113 38.364 L
479.766 38.101 L
481.42 37.846 L
483.074 37.6 L
484.728 37.363 L
486.382 37.135 L
488.035 36.915 L
489.689 36.705 L
491.343 36.503 L
492.997 36.31 L
S
GR
GS
0.635 0.078 0.184 RC
[10 6] 0 setdash
2 LJ
0.5 LW
N
75.362 364.614 M
77.016 358.824 L
78.669 353.082 L
80.323 347.403 L
81.977 341.803 L
83.631 336.297 L
85.285 330.902 L
86.938 325.633 L
88.592 320.506 L
90.246 315.537 L
91.9 310.741 L
93.553 306.135 L
95.207 301.734 L
96.861 297.554 L
98.515 293.611 L
100.169 289.861 L
101.822 286.177 L
103.476 282.556 L
105.13 278.998 L
106.784 275.503 L
108.438 272.072 L
110.091 268.706 L
111.745 265.406 L
113.399 262.171 L
115.053 259.004 L
116.706 255.903 L
118.36 252.871 L
120.014 249.907 L
121.668 247.012 L
123.322 244.187 L
124.975 241.433 L
126.629 238.749 L
128.283 236.138 L
129.937 233.598 L
131.591 231.132 L
133.244 228.739 L
134.898 226.421 L
136.552 224.177 L
138.206 222.009 L
139.859 219.917 L
141.513 217.902 L
143.167 215.964 L
144.821 214.084 L
146.475 212.23 L
148.128 210.402 L
149.782 208.6 L
151.436 206.823 L
153.09 205.071 L
154.744 203.343 L
156.397 201.639 L
158.051 199.96 L
159.705 198.303 L
161.359 196.67 L
163.012 195.06 L
164.666 193.472 L
166.32 191.906 L
167.974 190.362 L
169.628 188.839 L
171.281 187.337 L
172.935 185.856 L
174.589 184.396 L
176.243 182.955 L
177.897 181.534 L
179.55 180.133 L
181.204 178.75 L
182.858 177.387 L
184.512 176.041 L
186.165 174.713 L
187.819 173.404 L
189.473 172.111 L
191.127 170.835 L
192.781 169.576 L
194.434 168.333 L
196.088 167.107 L
197.742 165.895 L
199.396 164.699 L
201.05 163.518 L
202.703 162.351 L
204.357 161.199 L
206.011 160.06 L
207.665 158.935 L
209.318 157.823 L
210.972 156.724 L
212.626 155.638 L
214.28 154.563 L
215.934 153.501 L
217.587 152.45 L
219.241 151.41 L
220.895 150.38 L
222.549 149.362 L
224.203 148.353 L
225.856 147.354 L
227.51 146.364 L
229.164 145.384 L
230.818 144.412 L
232.471 143.449 L
234.125 142.493 L
235.779 141.546 L
237.433 140.605 L
239.087 139.67 L
240.74 138.737 L
242.394 137.803 L
244.048 136.871 L
245.702 135.939 L
247.356 135.009 L
249.009 134.079 L
250.663 133.15 L
252.317 132.222 L
253.971 131.296 L
255.625 130.37 L
257.278 129.446 L
258.932 128.522 L
260.586 127.6 L
262.24 126.68 L
263.893 125.761 L
265.547 124.843 L
267.201 123.926 L
268.855 123.011 L
270.509 122.098 L
272.162 121.186 L
273.816 120.276 L
275.47 119.368 L
277.124 118.461 L
278.778 117.556 L
280.431 116.653 L
282.085 115.752 L
283.739 114.853 L
285.393 113.956 L
287.046 113.061 L
288.7 112.168 L
290.354 111.277 L
292.008 110.388 L
293.662 109.501 L
295.315 108.617 L
296.969 107.735 L
298.623 106.856 L
300.277 105.979 L
301.931 105.104 L
303.584 104.232 L
305.238 103.362 L
306.892 102.495 L
308.546 101.631 L
310.199 100.769 L
311.853 99.911 L
313.507 99.055 L
315.161 98.201 L
316.815 97.351 L
318.468 96.504 L
320.122 95.66 L
321.776 94.818 L
323.43 93.98 L
325.084 93.145 L
326.737 92.313 L
328.391 91.485 L
330.045 90.66 L
331.699 89.838 L
333.352 89.019 L
335.006 88.204 L
336.66 87.392 L
338.314 86.584 L
339.968 85.78 L
341.621 84.979 L
343.275 84.182 L
344.929 83.388 L
346.583 82.598 L
348.237 81.813 L
349.89 81.031 L
351.544 80.252 L
353.198 79.478 L
354.852 78.708 L
356.505 77.942 L
358.159 77.18 L
359.813 76.422 L
361.467 75.669 L
363.121 74.92 L
364.774 74.175 L
366.428 73.434 L
368.082 72.698 L
369.736 71.966 L
371.39 71.238 L
373.043 70.516 L
374.697 69.798 L
376.351 69.084 L
378.005 68.375 L
379.658 67.671 L
381.312 66.972 L
382.966 66.277 L
384.62 65.588 L
386.274 64.903 L
387.927 64.223 L
389.581 63.549 L
391.235 62.879 L
392.889 62.214 L
394.543 61.555 L
396.196 60.901 L
397.85 60.252 L
399.504 59.609 L
401.158 58.971 L
402.811 58.338 L
404.465 57.711 L
406.119 57.089 L
407.773 56.473 L
409.427 55.862 L
411.08 55.257 L
412.734 54.658 L
414.388 54.065 L
416.042 53.477 L
417.696 52.895 L
419.349 52.319 L
421.003 51.749 L
422.657 51.185 L
424.311 50.628 L
425.964 50.076 L
427.618 49.53 L
429.272 48.99 L
430.926 48.457 L
432.58 47.93 L
434.233 47.41 L
435.887 46.895 L
437.541 46.387 L
439.195 45.886 L
440.849 45.391 L
442.502 44.903 L
444.156 44.421 L
445.81 43.946 L
447.464 43.478 L
449.117 43.016 L
450.771 42.562 L
452.425 42.114 L
454.079 41.673 L
455.733 41.239 L
457.386 40.812 L
459.04 40.392 L
460.694 39.979 L
462.348 39.573 L
464.002 39.175 L
465.655 38.784 L
467.309 38.4 L
468.963 38.023 L
470.617 37.654 L
472.27 37.292 L
473.924 36.938 L
475.578 36.591 L
477.232 36.252 L
478.886 35.921 L
480.539 35.597 L
482.193 35.281 L
483.847 34.973 L
485.501 34.672 L
487.155 34.379 L
488.808 34.095 L
490.462 33.818 L
492.116 33.549 L
493.77 33.289 L
495.423 33.036 L
497.077 32.792 L
498.731 32.556 L
500.385 32.328 L
502.039 32.108 L
503.692 31.897 L
505.346 31.694 L
507 31.5 L
S
GR
GS
1 GC
N
499 366 M
499 250.5 L
344.5 250.5 L
344.5 366 L
cp
f
GR
GS
[1 0 0 1 381.5 260.25] CT
/Helvetica 13 F
GS
[1 0 0 1 0 0] CT
0 5 moveto 
1 -1 scale
(Base Run) t 
GR
GR
GS
0 0.447 0.741 RC
1 LJ
0.5 LW
N
348.5 260.25 M
378.5 260.25 L
S
GR
GS
[1 0 0 1 381.5 276.25] CT
/Helvetica 13 F
GS
[1 0 0 1 0 0] CT
0 5 moveto 
1 -1 scale
(I & B Frames) t 
GR
GR
GS
0.851 0.325 0.098 RC
1 LJ
0.5 LW
N
348.5 276.25 M
378.5 276.25 L
S
GR
GS
[1 0 0 1 381.5 292.25] CT
/Helvetica 13 F
GS
[1 0 0 1 0 0] CT
0 5 moveto 
1 -1 scale
(I Frames Only) t 
GR
GR
GS
0.929 0.694 0.125 RC
1 LJ
0.5 LW
N
348.5 292.25 M
378.5 292.25 L
S
GR
GS
[1 0 0 1 381.5 308.25] CT
/Helvetica 13 F
GS
[1 0 0 1 0 0] CT
0 5 moveto 
1 -1 scale
(B Frames Only) t 
GR
GR
GS
0.494 0.184 0.557 RC
1 LJ
0.5 LW
N
348.5 308.25 M
378.5 308.25 L
S
GR
GS
[1 0 0 1 381.5 324.25] CT
/Helvetica 13 F
GS
[1 0 0 1 0 0] CT
0 5 moveto 
1 -1 scale
(Part I & B Frames) t 
GR
GR
GS
0.467 0.675 0.188 RC
[10 6] 0 setdash
2 LJ
0.5 LW
N
348.5 324.25 M
378.5 324.25 L
S
GR
GS
[1 0 0 1 381.5 340.25] CT
/Helvetica 13 F
GS
[1 0 0 1 0 0] CT
0 5 moveto 
1 -1 scale
(Part I Frames Only) t 
GR
GR
GS
0.302 0.745 0.933 RC
[10 6] 0 setdash
2 LJ
0.5 LW
N
348.5 340.25 M
378.5 340.25 L
S
GR
GS
[1 0 0 1 381.5 356.25] CT
/Helvetica 13 F
GS
[1 0 0 1 0 0] CT
0 5 moveto 
1 -1 scale
(Part B Frames Only) t 
GR
GR
GS
0.635 0.078 0.184 RC
[10 6] 0 setdash
2 LJ
0.5 LW
N
348.5 356.25 M
378.5 356.25 L
S
GR
GS
0.149 GC
10.0 ML
0.5 LW
N
344.5 366 M
344.5 250.5 L
499 250.5 L
499 366 L
cp
S
GR
%%Trailer
%%Pages: 1
%%EOF
