%!PS-Adobe-3.0 EPSF-3.0
%%Creator: (MATLAB, The Mathworks, Inc. Version 9.11.0.1837725 \(R2021b\) Update 2. Operating System: Mac OS X)
%%Title: plots/pchip/CoverSong_1080P-1b0c.y4m-av1-PSNRV.eps
%%CreationDate: 2022-02-03T19:12:43
%%Pages: (atend)
%%BoundingBox:    33   425   508   826
%%LanguageLevel: 3
%%EndComments
%%BeginProlog
%%BeginResource: procset (Apache XML Graphics Std ProcSet) 1.2 0
%%Version: 1.2 0
%%Copyright: (Copyright 2001-2003,2010 The Apache Software Foundation. License terms: http://www.apache.org/licenses/LICENSE-2.0)
/bd{bind def}bind def
/ld{load def}bd
/GR/grestore ld
/GS/gsave ld
/RM/rmoveto ld
/C/curveto ld
/t/show ld
/L/lineto ld
/ML/setmiterlimit ld
/CT/concat ld
/f/fill ld
/N/newpath ld
/S/stroke ld
/CC/setcmykcolor ld
/A/ashow ld
/cp/closepath ld
/RC/setrgbcolor ld
/LJ/setlinejoin ld
/GC/setgray ld
/LW/setlinewidth ld
/M/moveto ld
/re {4 2 roll M
1 index 0 rlineto
0 exch rlineto
neg 0 rlineto
cp } bd
/_ctm matrix def
/_tm matrix def
/BT { _ctm currentmatrix pop matrix _tm copy pop 0 0 moveto } bd
/ET { _ctm setmatrix } bd
/iTm { _ctm setmatrix _tm concat } bd
/Tm { _tm astore pop iTm 0 0 moveto } bd
/ux 0.0 def
/uy 0.0 def
/F {
  /Tp exch def
  /Tf exch def
  Tf findfont Tp scalefont setfont
  /cf Tf def  /cs Tp def
} bd
/ULS {currentpoint /uy exch def /ux exch def} bd
/ULE {
  /Tcx currentpoint pop def
  gsave
  newpath
  cf findfont cs scalefont dup
  /FontMatrix get 0 get /Ts exch def /FontInfo get dup
  /UnderlinePosition get Ts mul /To exch def
  /UnderlineThickness get Ts mul /Tt exch def
  ux uy To add moveto  Tcx uy To add lineto
  Tt setlinewidth stroke
  grestore
} bd
/OLE {
  /Tcx currentpoint pop def
  gsave
  newpath
  cf findfont cs scalefont dup
  /FontMatrix get 0 get /Ts exch def /FontInfo get dup
  /UnderlinePosition get Ts mul /To exch def
  /UnderlineThickness get Ts mul /Tt exch def
  ux uy To add cs add moveto Tcx uy To add cs add lineto
  Tt setlinewidth stroke
  grestore
} bd
/SOE {
  /Tcx currentpoint pop def
  gsave
  newpath
  cf findfont cs scalefont dup
  /FontMatrix get 0 get /Ts exch def /FontInfo get dup
  /UnderlinePosition get Ts mul /To exch def
  /UnderlineThickness get Ts mul /Tt exch def
  ux uy To add cs 10 mul 26 idiv add moveto Tcx uy To add cs 10 mul 26 idiv add lineto
  Tt setlinewidth stroke
  grestore
} bd
/QT {
/Y22 exch store
/X22 exch store
/Y21 exch store
/X21 exch store
currentpoint
/Y21 load 2 mul add 3 div exch
/X21 load 2 mul add 3 div exch
/X21 load 2 mul /X22 load add 3 div
/Y21 load 2 mul /Y22 load add 3 div
/X22 load /Y22 load curveto
} bd
/SSPD {
dup length /d exch dict def
{
/v exch def
/k exch def
currentpagedevice k known {
/cpdv currentpagedevice k get def
v cpdv ne {
/upd false def
/nullv v type /nulltype eq def
/nullcpdv cpdv type /nulltype eq def
nullv nullcpdv or
{
/upd true def
} {
/sametype v type cpdv type eq def
sametype {
v type /arraytype eq {
/vlen v length def
/cpdvlen cpdv length def
vlen cpdvlen eq {
0 1 vlen 1 sub {
/i exch def
/obj v i get def
/cpdobj cpdv i get def
obj cpdobj ne {
/upd true def
exit
} if
} for
} {
/upd true def
} ifelse
} {
v type /dicttype eq {
v {
/dv exch def
/dk exch def
/cpddv cpdv dk get def
dv cpddv ne {
/upd true def
exit
} if
} forall
} {
/upd true def
} ifelse
} ifelse
} if
} ifelse
upd true eq {
d k v put
} if
} if
} if
} forall
d length 0 gt {
d setpagedevice
} if
} bd
/RE { % /NewFontName [NewEncodingArray] /FontName RE -
  findfont dup length dict begin
  {
    1 index /FID ne
    {def} {pop pop} ifelse
  } forall
  /Encoding exch def
  /FontName 1 index def
  currentdict definefont pop
  end
} bind def
%%EndResource
%%BeginResource: procset (Apache XML Graphics EPS ProcSet) 1.0 0
%%Version: 1.0 0
%%Copyright: (Copyright 2002-2003 The Apache Software Foundation. License terms: http://www.apache.org/licenses/LICENSE-2.0)
/BeginEPSF { %def
/b4_Inc_state save def         % Save state for cleanup
/dict_count countdictstack def % Count objects on dict stack
/op_count count 1 sub def      % Count objects on operand stack
userdict begin                 % Push userdict on dict stack
/showpage { } def              % Redefine showpage, { } = null proc
0 setgray 0 setlinecap         % Prepare graphics state
1 setlinewidth 0 setlinejoin
10 setmiterlimit [ ] 0 setdash newpath
/languagelevel where           % If level not equal to 1 then
{pop languagelevel             % set strokeadjust and
1 ne                           % overprint to their defaults.
{false setstrokeadjust false setoverprint
} if
} if
} bd
/EndEPSF { %def
count op_count sub {pop} repeat            % Clean up stacks
countdictstack dict_count sub {end} repeat
b4_Inc_state restore
} bd
%%EndResource
%FOPBeginFontDict
%%IncludeResource: font Courier-Oblique
%%IncludeResource: font Courier-BoldOblique
%%IncludeResource: font Courier-Bold
%%IncludeResource: font ZapfDingbats
%%IncludeResource: font Symbol
%%IncludeResource: font Helvetica
%%IncludeResource: font Helvetica-Oblique
%%IncludeResource: font Helvetica-Bold
%%IncludeResource: font Helvetica-BoldOblique
%%IncludeResource: font Times-Roman
%%IncludeResource: font Times-Italic
%%IncludeResource: font Times-Bold
%%IncludeResource: font Times-BoldItalic
%%IncludeResource: font Courier
%FOPEndFontDict
%%BeginResource: encoding WinAnsiEncoding
/WinAnsiEncoding [
/.notdef /.notdef /.notdef /.notdef /.notdef
/.notdef /.notdef /.notdef /.notdef /.notdef
/.notdef /.notdef /.notdef /.notdef /.notdef
/.notdef /.notdef /.notdef /.notdef /.notdef
/.notdef /.notdef /.notdef /.notdef /.notdef
/.notdef /.notdef /.notdef /.notdef /.notdef
/.notdef /.notdef /space /exclam /quotedbl
/numbersign /dollar /percent /ampersand /quotesingle
/parenleft /parenright /asterisk /plus /comma
/hyphen /period /slash /zero /one
/two /three /four /five /six
/seven /eight /nine /colon /semicolon
/less /equal /greater /question /at
/A /B /C /D /E
/F /G /H /I /J
/K /L /M /N /O
/P /Q /R /S /T
/U /V /W /X /Y
/Z /bracketleft /backslash /bracketright /asciicircum
/underscore /quoteleft /a /b /c
/d /e /f /g /h
/i /j /k /l /m
/n /o /p /q /r
/s /t /u /v /w
/x /y /z /braceleft /bar
/braceright /asciitilde /bullet /Euro /bullet
/quotesinglbase /florin /quotedblbase /ellipsis /dagger
/daggerdbl /circumflex /perthousand /Scaron /guilsinglleft
/OE /bullet /Zcaron /bullet /bullet
/quoteleft /quoteright /quotedblleft /quotedblright /bullet
/endash /emdash /asciitilde /trademark /scaron
/guilsinglright /oe /bullet /zcaron /Ydieresis
/space /exclamdown /cent /sterling /currency
/yen /brokenbar /section /dieresis /copyright
/ordfeminine /guillemotleft /logicalnot /sfthyphen /registered
/macron /degree /plusminus /twosuperior /threesuperior
/acute /mu /paragraph /middot /cedilla
/onesuperior /ordmasculine /guillemotright /onequarter /onehalf
/threequarters /questiondown /Agrave /Aacute /Acircumflex
/Atilde /Adieresis /Aring /AE /Ccedilla
/Egrave /Eacute /Ecircumflex /Edieresis /Igrave
/Iacute /Icircumflex /Idieresis /Eth /Ntilde
/Ograve /Oacute /Ocircumflex /Otilde /Odieresis
/multiply /Oslash /Ugrave /Uacute /Ucircumflex
/Udieresis /Yacute /Thorn /germandbls /agrave
/aacute /acircumflex /atilde /adieresis /aring
/ae /ccedilla /egrave /eacute /ecircumflex
/edieresis /igrave /iacute /icircumflex /idieresis
/eth /ntilde /ograve /oacute /ocircumflex
/otilde /odieresis /divide /oslash /ugrave
/uacute /ucircumflex /udieresis /yacute /thorn
/ydieresis
] def
%%EndResource
%FOPBeginFontReencode
/Courier-Oblique findfont
dup length dict begin
  {1 index /FID ne {def} {pop pop} ifelse} forall
  /Encoding WinAnsiEncoding def
  currentdict
end
/Courier-Oblique exch definefont pop
/Courier-BoldOblique findfont
dup length dict begin
  {1 index /FID ne {def} {pop pop} ifelse} forall
  /Encoding WinAnsiEncoding def
  currentdict
end
/Courier-BoldOblique exch definefont pop
/Courier-Bold findfont
dup length dict begin
  {1 index /FID ne {def} {pop pop} ifelse} forall
  /Encoding WinAnsiEncoding def
  currentdict
end
/Courier-Bold exch definefont pop
/Helvetica findfont
dup length dict begin
  {1 index /FID ne {def} {pop pop} ifelse} forall
  /Encoding WinAnsiEncoding def
  currentdict
end
/Helvetica exch definefont pop
/Helvetica-Oblique findfont
dup length dict begin
  {1 index /FID ne {def} {pop pop} ifelse} forall
  /Encoding WinAnsiEncoding def
  currentdict
end
/Helvetica-Oblique exch definefont pop
/Helvetica-Bold findfont
dup length dict begin
  {1 index /FID ne {def} {pop pop} ifelse} forall
  /Encoding WinAnsiEncoding def
  currentdict
end
/Helvetica-Bold exch definefont pop
/Helvetica-BoldOblique findfont
dup length dict begin
  {1 index /FID ne {def} {pop pop} ifelse} forall
  /Encoding WinAnsiEncoding def
  currentdict
end
/Helvetica-BoldOblique exch definefont pop
/Times-Roman findfont
dup length dict begin
  {1 index /FID ne {def} {pop pop} ifelse} forall
  /Encoding WinAnsiEncoding def
  currentdict
end
/Times-Roman exch definefont pop
/Times-Italic findfont
dup length dict begin
  {1 index /FID ne {def} {pop pop} ifelse} forall
  /Encoding WinAnsiEncoding def
  currentdict
end
/Times-Italic exch definefont pop
/Times-Bold findfont
dup length dict begin
  {1 index /FID ne {def} {pop pop} ifelse} forall
  /Encoding WinAnsiEncoding def
  currentdict
end
/Times-Bold exch definefont pop
/Times-BoldItalic findfont
dup length dict begin
  {1 index /FID ne {def} {pop pop} ifelse} forall
  /Encoding WinAnsiEncoding def
  currentdict
end
/Times-BoldItalic exch definefont pop
/Courier findfont
dup length dict begin
  {1 index /FID ne {def} {pop pop} ifelse} forall
  /Encoding WinAnsiEncoding def
  currentdict
end
/Courier exch definefont pop
%FOPEndFontReencode
%%EndProlog
%%Page: 1 1
%%PageBoundingBox: 0 0 1120 840
%%BeginPageSetup
[1 0 0 -1 0 840] CT
%%EndPageSetup
GS
1 GC
N
0 0 1120 840 re
f
GR
GS
1 GC
N
73 374 M
507 374 L
507 31.5 L
73 31.5 L
cp
f
GR
GS
0.149 GC
2 setlinecap
1 LJ
0.5 LW
N
73 374 M
507 374 L
S
GR
GS
0.149 GC
2 setlinecap
1 LJ
0.5 LW
N
73 31.5 M
507 31.5 L
S
GR
GS
0.149 GC
2 setlinecap
1 LJ
0.5 LW
N
117.551 374 M
117.551 369.66 L
S
GR
GS
0.149 GC
2 setlinecap
1 LJ
0.5 LW
N
188.557 374 M
188.557 369.66 L
S
GR
GS
0.149 GC
2 setlinecap
1 LJ
0.5 LW
N
259.563 374 M
259.563 369.66 L
S
GR
GS
0.149 GC
2 setlinecap
1 LJ
0.5 LW
N
330.569 374 M
330.569 369.66 L
S
GR
GS
0.149 GC
2 setlinecap
1 LJ
0.5 LW
N
401.575 374 M
401.575 369.66 L
S
GR
GS
0.149 GC
2 setlinecap
1 LJ
0.5 LW
N
472.581 374 M
472.581 369.66 L
S
GR
GS
0.149 GC
2 setlinecap
1 LJ
0.5 LW
N
117.551 31.5 M
117.551 35.84 L
S
GR
GS
0.149 GC
2 setlinecap
1 LJ
0.5 LW
N
188.557 31.5 M
188.557 35.84 L
S
GR
GS
0.149 GC
2 setlinecap
1 LJ
0.5 LW
N
259.563 31.5 M
259.563 35.84 L
S
GR
GS
0.149 GC
2 setlinecap
1 LJ
0.5 LW
N
330.569 31.5 M
330.569 35.84 L
S
GR
GS
0.149 GC
2 setlinecap
1 LJ
0.5 LW
N
401.575 31.5 M
401.575 35.84 L
S
GR
GS
0.149 GC
2 setlinecap
1 LJ
0.5 LW
N
472.581 31.5 M
472.581 35.84 L
S
GR
GS
0.149 GC
2 setlinecap
1 LJ
0.5 LW
N
74.947 374 M
74.947 371.83 L
S
GR
GS
0.149 GC
2 setlinecap
1 LJ
0.5 LW
N
89.148 374 M
89.148 371.83 L
S
GR
GS
0.149 GC
2 setlinecap
1 LJ
0.5 LW
N
103.349 374 M
103.349 371.83 L
S
GR
GS
0.149 GC
2 setlinecap
1 LJ
0.5 LW
N
131.752 374 M
131.752 371.83 L
S
GR
GS
0.149 GC
2 setlinecap
1 LJ
0.5 LW
N
145.953 374 M
145.953 371.83 L
S
GR
GS
0.149 GC
2 setlinecap
1 LJ
0.5 LW
N
160.154 374 M
160.154 371.83 L
S
GR
GS
0.149 GC
2 setlinecap
1 LJ
0.5 LW
N
174.355 374 M
174.355 371.83 L
S
GR
GS
0.149 GC
2 setlinecap
1 LJ
0.5 LW
N
202.758 374 M
202.758 371.83 L
S
GR
GS
0.149 GC
2 setlinecap
1 LJ
0.5 LW
N
216.959 374 M
216.959 371.83 L
S
GR
GS
0.149 GC
2 setlinecap
1 LJ
0.5 LW
N
231.16 374 M
231.16 371.83 L
S
GR
GS
0.149 GC
2 setlinecap
1 LJ
0.5 LW
N
245.361 374 M
245.361 371.83 L
S
GR
GS
0.149 GC
2 setlinecap
1 LJ
0.5 LW
N
273.764 374 M
273.764 371.83 L
S
GR
GS
0.149 GC
2 setlinecap
1 LJ
0.5 LW
N
287.965 374 M
287.965 371.83 L
S
GR
GS
0.149 GC
2 setlinecap
1 LJ
0.5 LW
N
302.166 374 M
302.166 371.83 L
S
GR
GS
0.149 GC
2 setlinecap
1 LJ
0.5 LW
N
316.367 374 M
316.367 371.83 L
S
GR
GS
0.149 GC
2 setlinecap
1 LJ
0.5 LW
N
344.77 374 M
344.77 371.83 L
S
GR
GS
0.149 GC
2 setlinecap
1 LJ
0.5 LW
N
358.971 374 M
358.971 371.83 L
S
GR
GS
0.149 GC
2 setlinecap
1 LJ
0.5 LW
N
373.172 374 M
373.172 371.83 L
S
GR
GS
0.149 GC
2 setlinecap
1 LJ
0.5 LW
N
387.373 374 M
387.373 371.83 L
S
GR
GS
0.149 GC
2 setlinecap
1 LJ
0.5 LW
N
415.776 374 M
415.776 371.83 L
S
GR
GS
0.149 GC
2 setlinecap
1 LJ
0.5 LW
N
429.977 374 M
429.977 371.83 L
S
GR
GS
0.149 GC
2 setlinecap
1 LJ
0.5 LW
N
444.178 374 M
444.178 371.83 L
S
GR
GS
0.149 GC
2 setlinecap
1 LJ
0.5 LW
N
458.379 374 M
458.379 371.83 L
S
GR
GS
0.149 GC
2 setlinecap
1 LJ
0.5 LW
N
486.782 374 M
486.782 371.83 L
S
GR
GS
0.149 GC
2 setlinecap
1 LJ
0.5 LW
N
500.983 374 M
500.983 371.83 L
S
GR
GS
0.149 GC
2 setlinecap
1 LJ
0.5 LW
N
74.947 31.5 M
74.947 33.67 L
S
GR
GS
0.149 GC
2 setlinecap
1 LJ
0.5 LW
N
89.148 31.5 M
89.148 33.67 L
S
GR
GS
0.149 GC
2 setlinecap
1 LJ
0.5 LW
N
103.349 31.5 M
103.349 33.67 L
S
GR
GS
0.149 GC
2 setlinecap
1 LJ
0.5 LW
N
131.752 31.5 M
131.752 33.67 L
S
GR
GS
0.149 GC
2 setlinecap
1 LJ
0.5 LW
N
145.953 31.5 M
145.953 33.67 L
S
GR
GS
0.149 GC
2 setlinecap
1 LJ
0.5 LW
N
160.154 31.5 M
160.154 33.67 L
S
GR
GS
0.149 GC
2 setlinecap
1 LJ
0.5 LW
N
174.355 31.5 M
174.355 33.67 L
S
GR
GS
0.149 GC
2 setlinecap
1 LJ
0.5 LW
N
202.758 31.5 M
202.758 33.67 L
S
GR
GS
0.149 GC
2 setlinecap
1 LJ
0.5 LW
N
216.959 31.5 M
216.959 33.67 L
S
GR
GS
0.149 GC
2 setlinecap
1 LJ
0.5 LW
N
231.16 31.5 M
231.16 33.67 L
S
GR
GS
0.149 GC
2 setlinecap
1 LJ
0.5 LW
N
245.361 31.5 M
245.361 33.67 L
S
GR
GS
0.149 GC
2 setlinecap
1 LJ
0.5 LW
N
273.764 31.5 M
273.764 33.67 L
S
GR
GS
0.149 GC
2 setlinecap
1 LJ
0.5 LW
N
287.965 31.5 M
287.965 33.67 L
S
GR
GS
0.149 GC
2 setlinecap
1 LJ
0.5 LW
N
302.166 31.5 M
302.166 33.67 L
S
GR
GS
0.149 GC
2 setlinecap
1 LJ
0.5 LW
N
316.367 31.5 M
316.367 33.67 L
S
GR
GS
0.149 GC
2 setlinecap
1 LJ
0.5 LW
N
344.77 31.5 M
344.77 33.67 L
S
GR
GS
0.149 GC
2 setlinecap
1 LJ
0.5 LW
N
358.971 31.5 M
358.971 33.67 L
S
GR
GS
0.149 GC
2 setlinecap
1 LJ
0.5 LW
N
373.172 31.5 M
373.172 33.67 L
S
GR
GS
0.149 GC
2 setlinecap
1 LJ
0.5 LW
N
387.373 31.5 M
387.373 33.67 L
S
GR
GS
0.149 GC
2 setlinecap
1 LJ
0.5 LW
N
415.776 31.5 M
415.776 33.67 L
S
GR
GS
0.149 GC
2 setlinecap
1 LJ
0.5 LW
N
429.977 31.5 M
429.977 33.67 L
S
GR
GS
0.149 GC
2 setlinecap
1 LJ
0.5 LW
N
444.178 31.5 M
444.178 33.67 L
S
GR
GS
0.149 GC
2 setlinecap
1 LJ
0.5 LW
N
458.379 31.5 M
458.379 33.67 L
S
GR
GS
0.149 GC
2 setlinecap
1 LJ
0.5 LW
N
486.782 31.5 M
486.782 33.67 L
S
GR
GS
0.149 GC
2 setlinecap
1 LJ
0.5 LW
N
500.983 31.5 M
500.983 33.67 L
S
GR
GS
[1 0 0 1 117.5506 378.79999] CT
0.149 GC
/Helvetica 14 F
GS
[1 0 0 1 0 0] CT
-16 14 moveto 
1 -1 scale
(1000) t 
GR
GR
GS
[1 0 0 1 188.55661 378.79999] CT
0.149 GC
/Helvetica 14 F
GS
[1 0 0 1 0 0] CT
-16 14 moveto 
1 -1 scale
(2000) t 
GR
GR
GS
[1 0 0 1 259.56262 378.79999] CT
0.149 GC
/Helvetica 14 F
GS
[1 0 0 1 0 0] CT
-16 14 moveto 
1 -1 scale
(3000) t 
GR
GR
GS
[1 0 0 1 330.56863 378.79999] CT
0.149 GC
/Helvetica 14 F
GS
[1 0 0 1 0 0] CT
-16 14 moveto 
1 -1 scale
(4000) t 
GR
GR
GS
[1 0 0 1 401.57465 378.79999] CT
0.149 GC
/Helvetica 14 F
GS
[1 0 0 1 0 0] CT
-16 14 moveto 
1 -1 scale
(5000) t 
GR
GR
GS
[1 0 0 1 472.58063 378.79999] CT
0.149 GC
/Helvetica 14 F
GS
[1 0 0 1 0 0] CT
-16 14 moveto 
1 -1 scale
(6000) t 
GR
GR
GS
[1 0 0 1 290.00021 396.2999] CT
0.149 GC
/Helvetica 15.4 F
GS
[1 0 0 1 0 0] CT
-42 15 moveto 
1 -1 scale
(Bitrate\(kb/s\)) t 
GR
GR
GS
0.149 GC
2 setlinecap
1 LJ
0.5 LW
N
73 374 M
73 31.5 L
S
GR
GS
0.149 GC
2 setlinecap
1 LJ
0.5 LW
N
507 374 M
507 31.5 L
S
GR
GS
0.149 GC
2 setlinecap
1 LJ
0.5 LW
N
73 346.521 M
77.34 346.521 L
S
GR
GS
0.149 GC
2 setlinecap
1 LJ
0.5 LW
N
73 310.766 M
77.34 310.766 L
S
GR
GS
0.149 GC
2 setlinecap
1 LJ
0.5 LW
N
73 275.01 M
77.34 275.01 L
S
GR
GS
0.149 GC
2 setlinecap
1 LJ
0.5 LW
N
73 239.255 M
77.34 239.255 L
S
GR
GS
0.149 GC
2 setlinecap
1 LJ
0.5 LW
N
73 203.499 M
77.34 203.499 L
S
GR
GS
0.149 GC
2 setlinecap
1 LJ
0.5 LW
N
73 167.744 M
77.34 167.744 L
S
GR
GS
0.149 GC
2 setlinecap
1 LJ
0.5 LW
N
73 131.988 M
77.34 131.988 L
S
GR
GS
0.149 GC
2 setlinecap
1 LJ
0.5 LW
N
73 96.233 M
77.34 96.233 L
S
GR
GS
0.149 GC
2 setlinecap
1 LJ
0.5 LW
N
73 60.478 M
77.34 60.478 L
S
GR
GS
0.149 GC
2 setlinecap
1 LJ
0.5 LW
N
507 346.521 M
502.66 346.521 L
S
GR
GS
0.149 GC
2 setlinecap
1 LJ
0.5 LW
N
507 310.766 M
502.66 310.766 L
S
GR
GS
0.149 GC
2 setlinecap
1 LJ
0.5 LW
N
507 275.01 M
502.66 275.01 L
S
GR
GS
0.149 GC
2 setlinecap
1 LJ
0.5 LW
N
507 239.255 M
502.66 239.255 L
S
GR
GS
0.149 GC
2 setlinecap
1 LJ
0.5 LW
N
507 203.499 M
502.66 203.499 L
S
GR
GS
0.149 GC
2 setlinecap
1 LJ
0.5 LW
N
507 167.744 M
502.66 167.744 L
S
GR
GS
0.149 GC
2 setlinecap
1 LJ
0.5 LW
N
507 131.988 M
502.66 131.988 L
S
GR
GS
0.149 GC
2 setlinecap
1 LJ
0.5 LW
N
507 96.233 M
502.66 96.233 L
S
GR
GS
0.149 GC
2 setlinecap
1 LJ
0.5 LW
N
507 60.478 M
502.66 60.478 L
S
GR
GS
0.149 GC
2 setlinecap
1 LJ
0.5 LW
N
73 367.974 M
75.17 367.974 L
S
GR
GS
0.149 GC
2 setlinecap
1 LJ
0.5 LW
N
73 360.823 M
75.17 360.823 L
S
GR
GS
0.149 GC
2 setlinecap
1 LJ
0.5 LW
N
73 353.672 M
75.17 353.672 L
S
GR
GS
0.149 GC
2 setlinecap
1 LJ
0.5 LW
N
73 339.37 M
75.17 339.37 L
S
GR
GS
0.149 GC
2 setlinecap
1 LJ
0.5 LW
N
73 332.219 M
75.17 332.219 L
S
GR
GS
0.149 GC
2 setlinecap
1 LJ
0.5 LW
N
73 325.068 M
75.17 325.068 L
S
GR
GS
0.149 GC
2 setlinecap
1 LJ
0.5 LW
N
73 317.917 M
75.17 317.917 L
S
GR
GS
0.149 GC
2 setlinecap
1 LJ
0.5 LW
N
73 303.615 M
75.17 303.615 L
S
GR
GS
0.149 GC
2 setlinecap
1 LJ
0.5 LW
N
73 296.463 M
75.17 296.463 L
S
GR
GS
0.149 GC
2 setlinecap
1 LJ
0.5 LW
N
73 289.313 M
75.17 289.313 L
S
GR
GS
0.149 GC
2 setlinecap
1 LJ
0.5 LW
N
73 282.161 M
75.17 282.161 L
S
GR
GS
0.149 GC
2 setlinecap
1 LJ
0.5 LW
N
73 267.859 M
75.17 267.859 L
S
GR
GS
0.149 GC
2 setlinecap
1 LJ
0.5 LW
N
73 260.708 M
75.17 260.708 L
S
GR
GS
0.149 GC
2 setlinecap
1 LJ
0.5 LW
N
73 253.557 M
75.17 253.557 L
S
GR
GS
0.149 GC
2 setlinecap
1 LJ
0.5 LW
N
73 246.406 M
75.17 246.406 L
S
GR
GS
0.149 GC
2 setlinecap
1 LJ
0.5 LW
N
73 232.104 M
75.17 232.104 L
S
GR
GS
0.149 GC
2 setlinecap
1 LJ
0.5 LW
N
73 224.953 M
75.17 224.953 L
S
GR
GS
0.149 GC
2 setlinecap
1 LJ
0.5 LW
N
73 217.802 M
75.17 217.802 L
S
GR
GS
0.149 GC
2 setlinecap
1 LJ
0.5 LW
N
73 210.65 M
75.17 210.65 L
S
GR
GS
0.149 GC
2 setlinecap
1 LJ
0.5 LW
N
73 196.348 M
75.17 196.348 L
S
GR
GS
0.149 GC
2 setlinecap
1 LJ
0.5 LW
N
73 189.197 M
75.17 189.197 L
S
GR
GS
0.149 GC
2 setlinecap
1 LJ
0.5 LW
N
73 182.046 M
75.17 182.046 L
S
GR
GS
0.149 GC
2 setlinecap
1 LJ
0.5 LW
N
73 174.895 M
75.17 174.895 L
S
GR
GS
0.149 GC
2 setlinecap
1 LJ
0.5 LW
N
73 160.593 M
75.17 160.593 L
S
GR
GS
0.149 GC
2 setlinecap
1 LJ
0.5 LW
N
73 153.442 M
75.17 153.442 L
S
GR
GS
0.149 GC
2 setlinecap
1 LJ
0.5 LW
N
73 146.291 M
75.17 146.291 L
S
GR
GS
0.149 GC
2 setlinecap
1 LJ
0.5 LW
N
73 139.14 M
75.17 139.14 L
S
GR
GS
0.149 GC
2 setlinecap
1 LJ
0.5 LW
N
73 124.837 M
75.17 124.837 L
S
GR
GS
0.149 GC
2 setlinecap
1 LJ
0.5 LW
N
73 117.686 M
75.17 117.686 L
S
GR
GS
0.149 GC
2 setlinecap
1 LJ
0.5 LW
N
73 110.535 M
75.17 110.535 L
S
GR
GS
0.149 GC
2 setlinecap
1 LJ
0.5 LW
N
73 103.384 M
75.17 103.384 L
S
GR
GS
0.149 GC
2 setlinecap
1 LJ
0.5 LW
N
73 89.082 M
75.17 89.082 L
S
GR
GS
0.149 GC
2 setlinecap
1 LJ
0.5 LW
N
73 81.931 M
75.17 81.931 L
S
GR
GS
0.149 GC
2 setlinecap
1 LJ
0.5 LW
N
73 74.78 M
75.17 74.78 L
S
GR
GS
0.149 GC
2 setlinecap
1 LJ
0.5 LW
N
73 67.629 M
75.17 67.629 L
S
GR
GS
0.149 GC
2 setlinecap
1 LJ
0.5 LW
N
73 53.326 M
75.17 53.326 L
S
GR
GS
0.149 GC
2 setlinecap
1 LJ
0.5 LW
N
73 46.175 M
75.17 46.175 L
S
GR
GS
0.149 GC
2 setlinecap
1 LJ
0.5 LW
N
73 39.024 M
75.17 39.024 L
S
GR
GS
0.149 GC
2 setlinecap
1 LJ
0.5 LW
N
73 31.873 M
75.17 31.873 L
S
GR
GS
0.149 GC
2 setlinecap
1 LJ
0.5 LW
N
507 367.974 M
504.83 367.974 L
S
GR
GS
0.149 GC
2 setlinecap
1 LJ
0.5 LW
N
507 360.823 M
504.83 360.823 L
S
GR
GS
0.149 GC
2 setlinecap
1 LJ
0.5 LW
N
507 353.672 M
504.83 353.672 L
S
GR
GS
0.149 GC
2 setlinecap
1 LJ
0.5 LW
N
507 339.37 M
504.83 339.37 L
S
GR
GS
0.149 GC
2 setlinecap
1 LJ
0.5 LW
N
507 332.219 M
504.83 332.219 L
S
GR
GS
0.149 GC
2 setlinecap
1 LJ
0.5 LW
N
507 325.068 M
504.83 325.068 L
S
GR
GS
0.149 GC
2 setlinecap
1 LJ
0.5 LW
N
507 317.917 M
504.83 317.917 L
S
GR
GS
0.149 GC
2 setlinecap
1 LJ
0.5 LW
N
507 303.615 M
504.83 303.615 L
S
GR
GS
0.149 GC
2 setlinecap
1 LJ
0.5 LW
N
507 296.463 M
504.83 296.463 L
S
GR
GS
0.149 GC
2 setlinecap
1 LJ
0.5 LW
N
507 289.313 M
504.83 289.313 L
S
GR
GS
0.149 GC
2 setlinecap
1 LJ
0.5 LW
N
507 282.161 M
504.83 282.161 L
S
GR
GS
0.149 GC
2 setlinecap
1 LJ
0.5 LW
N
507 267.859 M
504.83 267.859 L
S
GR
GS
0.149 GC
2 setlinecap
1 LJ
0.5 LW
N
507 260.708 M
504.83 260.708 L
S
GR
GS
0.149 GC
2 setlinecap
1 LJ
0.5 LW
N
507 253.557 M
504.83 253.557 L
S
GR
GS
0.149 GC
2 setlinecap
1 LJ
0.5 LW
N
507 246.406 M
504.83 246.406 L
S
GR
GS
0.149 GC
2 setlinecap
1 LJ
0.5 LW
N
507 232.104 M
504.83 232.104 L
S
GR
GS
0.149 GC
2 setlinecap
1 LJ
0.5 LW
N
507 224.953 M
504.83 224.953 L
S
GR
GS
0.149 GC
2 setlinecap
1 LJ
0.5 LW
N
507 217.802 M
504.83 217.802 L
S
GR
GS
0.149 GC
2 setlinecap
1 LJ
0.5 LW
N
507 210.65 M
504.83 210.65 L
S
GR
GS
0.149 GC
2 setlinecap
1 LJ
0.5 LW
N
507 196.348 M
504.83 196.348 L
S
GR
GS
0.149 GC
2 setlinecap
1 LJ
0.5 LW
N
507 189.197 M
504.83 189.197 L
S
GR
GS
0.149 GC
2 setlinecap
1 LJ
0.5 LW
N
507 182.046 M
504.83 182.046 L
S
GR
GS
0.149 GC
2 setlinecap
1 LJ
0.5 LW
N
507 174.895 M
504.83 174.895 L
S
GR
GS
0.149 GC
2 setlinecap
1 LJ
0.5 LW
N
507 160.593 M
504.83 160.593 L
S
GR
GS
0.149 GC
2 setlinecap
1 LJ
0.5 LW
N
507 153.442 M
504.83 153.442 L
S
GR
GS
0.149 GC
2 setlinecap
1 LJ
0.5 LW
N
507 146.291 M
504.83 146.291 L
S
GR
GS
0.149 GC
2 setlinecap
1 LJ
0.5 LW
N
507 139.14 M
504.83 139.14 L
S
GR
GS
0.149 GC
2 setlinecap
1 LJ
0.5 LW
N
507 124.837 M
504.83 124.837 L
S
GR
GS
0.149 GC
2 setlinecap
1 LJ
0.5 LW
N
507 117.686 M
504.83 117.686 L
S
GR
GS
0.149 GC
2 setlinecap
1 LJ
0.5 LW
N
507 110.535 M
504.83 110.535 L
S
GR
GS
0.149 GC
2 setlinecap
1 LJ
0.5 LW
N
507 103.384 M
504.83 103.384 L
S
GR
GS
0.149 GC
2 setlinecap
1 LJ
0.5 LW
N
507 89.082 M
504.83 89.082 L
S
GR
GS
0.149 GC
2 setlinecap
1 LJ
0.5 LW
N
507 81.931 M
504.83 81.931 L
S
GR
GS
0.149 GC
2 setlinecap
1 LJ
0.5 LW
N
507 74.78 M
504.83 74.78 L
S
GR
GS
0.149 GC
2 setlinecap
1 LJ
0.5 LW
N
507 67.629 M
504.83 67.629 L
S
GR
GS
0.149 GC
2 setlinecap
1 LJ
0.5 LW
N
507 53.326 M
504.83 53.326 L
S
GR
GS
0.149 GC
2 setlinecap
1 LJ
0.5 LW
N
507 46.175 M
504.83 46.175 L
S
GR
GS
0.149 GC
2 setlinecap
1 LJ
0.5 LW
N
507 39.024 M
504.83 39.024 L
S
GR
GS
0.149 GC
2 setlinecap
1 LJ
0.5 LW
N
507 31.873 M
504.83 31.873 L
S
GR
GS
[1 0 0 1 68.2 346.52115] CT
0.149 GC
/Helvetica 14 F
GS
[1 0 0 1 0 0] CT
-16 5.5 moveto 
1 -1 scale
(39) t 
GR
GR
GS
[1 0 0 1 68.2 310.76572] CT
0.149 GC
/Helvetica 14 F
GS
[1 0 0 1 0 0] CT
-16 5.5 moveto 
1 -1 scale
(40) t 
GR
GR
GS
[1 0 0 1 68.2 275.01025] CT
0.149 GC
/Helvetica 14 F
GS
[1 0 0 1 0 0] CT
-16 5.5 moveto 
1 -1 scale
(41) t 
GR
GR
GS
[1 0 0 1 68.2 239.25482] CT
0.149 GC
/Helvetica 14 F
GS
[1 0 0 1 0 0] CT
-16 5.5 moveto 
1 -1 scale
(42) t 
GR
GR
GS
[1 0 0 1 68.2 203.49937] CT
0.149 GC
/Helvetica 14 F
GS
[1 0 0 1 0 0] CT
-16 5.5 moveto 
1 -1 scale
(43) t 
GR
GR
GS
[1 0 0 1 68.2 167.74393] CT
0.149 GC
/Helvetica 14 F
GS
[1 0 0 1 0 0] CT
-16 5.5 moveto 
1 -1 scale
(44) t 
GR
GR
GS
[1 0 0 1 68.2 131.98848] CT
0.149 GC
/Helvetica 14 F
GS
[1 0 0 1 0 0] CT
-16 5.5 moveto 
1 -1 scale
(45) t 
GR
GR
GS
[1 0 0 1 68.2 96.23303] CT
0.149 GC
/Helvetica 14 F
GS
[1 0 0 1 0 0] CT
-16 5.5 moveto 
1 -1 scale
(46) t 
GR
GR
GS
[1 0 0 1 68.2 60.47758] CT
0.149 GC
/Helvetica 14 F
GS
[1 0 0 1 0 0] CT
-16 5.5 moveto 
1 -1 scale
(47) t 
GR
GR
GS
[0 -1 1 0 49.2 202.74974] CT
0.149 GC
/Helvetica 15.4 F
GS
[1 0 0 1 0 0] CT
-44 -4 moveto 
1 -1 scale
(PSNR V \(dB\)) t 
GR
GR
GS
[1 0 0 1 290.00027 29.57498] CT
/Helvetica-Bold 15.4 F
GS
[1 0 0 1 0 0] CT
-121 -4 moveto 
1 -1 scale
(CoverSong_1080P-1b0c.y4m-av1) t 
GR
GR
GS
0 0.447 0.741 RC
1 LJ
0.5 LW
N
78.124 357.31 M
79.544 351.384 L
80.964 345.481 L
82.384 339.622 L
83.804 333.823 L
85.224 328.104 L
86.644 322.481 L
88.065 316.974 L
89.485 311.599 L
90.905 306.376 L
92.325 301.322 L
93.745 296.455 L
95.165 291.793 L
96.585 287.355 L
98.005 283.159 L
99.426 279.222 L
100.846 275.559 L
102.266 272.032 L
103.686 268.566 L
105.106 265.16 L
106.526 261.814 L
107.946 258.527 L
109.366 255.3 L
110.786 252.132 L
112.207 249.023 L
113.627 245.973 L
115.047 242.981 L
116.467 240.048 L
117.887 237.173 L
119.307 234.356 L
120.727 231.597 L
122.147 228.895 L
123.568 226.251 L
124.988 223.664 L
126.408 221.134 L
127.828 218.66 L
129.248 216.243 L
130.668 213.883 L
132.088 211.578 L
133.508 209.329 L
134.929 207.136 L
136.349 204.999 L
137.769 202.917 L
139.189 200.89 L
140.609 198.917 L
142.029 197 L
143.449 195.137 L
144.869 193.328 L
146.289 191.573 L
147.71 189.872 L
149.13 188.225 L
150.55 186.621 L
151.97 185.036 L
153.39 183.468 L
154.81 181.918 L
156.23 180.384 L
157.65 178.868 L
159.071 177.37 L
160.491 175.887 L
161.911 174.422 L
163.331 172.974 L
164.751 171.542 L
166.171 170.126 L
167.591 168.727 L
169.011 167.344 L
170.432 165.977 L
171.852 164.626 L
173.272 163.291 L
174.692 161.971 L
176.112 160.667 L
177.532 159.379 L
178.952 158.106 L
180.372 156.849 L
181.792 155.606 L
183.213 154.379 L
184.633 153.166 L
186.053 151.968 L
187.473 150.785 L
188.893 149.617 L
190.313 148.463 L
191.733 147.323 L
193.153 146.198 L
194.574 145.086 L
195.994 143.989 L
197.414 142.906 L
198.834 141.836 L
200.254 140.78 L
201.674 139.737 L
203.094 138.708 L
204.514 137.692 L
205.935 136.69 L
207.355 135.7 L
208.775 134.723 L
210.195 133.759 L
211.615 132.808 L
213.035 131.87 L
214.455 130.943 L
215.875 130.03 L
217.295 129.128 L
218.716 128.239 L
220.136 127.361 L
221.556 126.496 L
222.976 125.642 L
224.396 124.8 L
225.816 123.97 L
227.236 123.15 L
228.656 122.343 L
230.077 121.546 L
231.497 120.76 L
232.917 119.986 L
234.337 119.222 L
235.757 118.469 L
237.177 117.727 L
238.597 116.995 L
240.017 116.273 L
241.438 115.562 L
242.858 114.861 L
244.278 114.17 L
245.698 113.489 L
247.118 112.813 L
248.538 112.137 L
249.958 111.462 L
251.378 110.787 L
252.798 110.113 L
254.219 109.438 L
255.639 108.765 L
257.059 108.091 L
258.479 107.419 L
259.899 106.747 L
261.319 106.075 L
262.739 105.404 L
264.159 104.734 L
265.58 104.065 L
267 103.396 L
268.42 102.728 L
269.84 102.061 L
271.26 101.394 L
272.68 100.729 L
274.1 100.065 L
275.52 99.401 L
276.941 98.739 L
278.361 98.077 L
279.781 97.417 L
281.201 96.758 L
282.621 96.1 L
284.041 95.443 L
285.461 94.787 L
286.881 94.133 L
288.302 93.48 L
289.722 92.828 L
291.142 92.177 L
292.562 91.529 L
293.982 90.881 L
295.402 90.235 L
296.822 89.591 L
298.242 88.948 L
299.662 88.306 L
301.083 87.667 L
302.503 87.029 L
303.923 86.392 L
305.343 85.758 L
306.763 85.125 L
308.183 84.494 L
309.603 83.865 L
311.023 83.238 L
312.444 82.613 L
313.864 81.99 L
315.284 81.368 L
316.704 80.749 L
318.124 80.132 L
319.544 79.517 L
320.964 78.904 L
322.384 78.294 L
323.805 77.685 L
325.225 77.079 L
326.645 76.475 L
328.065 75.874 L
329.485 75.275 L
330.905 74.678 L
332.325 74.084 L
333.745 73.492 L
335.165 72.903 L
336.586 72.316 L
338.006 71.732 L
339.426 71.151 L
340.846 70.572 L
342.266 69.996 L
343.686 69.423 L
345.106 68.852 L
346.526 68.284 L
347.947 67.72 L
349.367 67.158 L
350.787 66.599 L
352.207 66.043 L
353.627 65.49 L
355.047 64.94 L
356.467 64.393 L
357.887 63.85 L
359.307 63.309 L
360.728 62.772 L
362.148 62.238 L
363.568 61.707 L
364.988 61.179 L
366.408 60.655 L
367.828 60.134 L
369.248 59.617 L
370.668 59.103 L
372.089 58.592 L
373.509 58.085 L
374.929 57.582 L
376.349 57.082 L
377.769 56.586 L
379.189 56.094 L
380.609 55.605 L
382.029 55.12 L
383.45 54.639 L
384.87 54.162 L
386.29 53.688 L
387.71 53.219 L
389.13 52.753 L
390.55 52.291 L
391.97 51.834 L
393.39 51.38 L
394.811 50.931 L
396.231 50.485 L
397.651 50.044 L
399.071 49.607 L
400.491 49.174 L
401.911 48.746 L
403.331 48.322 L
404.751 47.902 L
406.171 47.486 L
407.592 47.075 L
409.012 46.669 L
410.432 46.267 L
411.852 45.869 L
413.272 45.476 L
414.692 45.088 L
416.112 44.704 L
417.532 44.325 L
418.953 43.951 L
420.373 43.581 L
421.793 43.216 L
423.213 42.856 L
424.633 42.501 L
426.053 42.151 L
427.473 41.806 L
428.893 41.465 L
430.314 41.13 L
431.734 40.8 L
433.154 40.475 L
434.574 40.155 L
435.994 39.84 L
437.414 39.53 L
438.834 39.226 L
440.254 38.927 L
441.674 38.633 L
443.095 38.344 L
444.515 38.061 L
445.935 37.784 L
447.355 37.511 L
448.775 37.245 L
450.195 36.983 L
451.615 36.728 L
453.035 36.478 L
454.456 36.234 L
455.876 35.995 L
457.296 35.762 L
458.716 35.535 L
460.136 35.313 L
461.556 35.098 L
462.976 34.888 L
464.396 34.684 L
465.817 34.486 L
467.237 34.295 L
468.657 34.109 L
470.077 33.929 L
471.497 33.755 L
472.917 33.588 L
474.337 33.426 L
475.757 33.271 L
477.177 33.122 L
478.598 32.979 L
480.018 32.843 L
481.438 32.713 L
482.858 32.589 L
484.278 32.472 L
485.698 32.361 L
487.118 32.257 L
488.538 32.159 L
489.959 32.068 L
491.379 31.983 L
492.799 31.905 L
494.219 31.834 L
495.639 31.77 L
497.059 31.712 L
498.479 31.661 L
499.899 31.617 L
501.32 31.58 L
502.74 31.549 L
504.16 31.526 L
505.58 31.509 L
507 31.5 L
S
GR
GS
0.851 0.325 0.098 RC
1 LJ
0.5 LW
N
74.567 374 M
75.988 367.294 L
77.408 360.627 L
78.828 354.021 L
80.248 347.503 L
81.668 341.098 L
83.088 334.83 L
84.508 328.723 L
85.928 322.805 L
87.348 317.098 L
88.769 311.628 L
90.189 306.42 L
91.609 301.499 L
93.029 296.89 L
94.449 292.615 L
95.869 288.526 L
97.289 284.511 L
98.709 280.571 L
100.13 276.705 L
101.55 272.915 L
102.97 269.198 L
104.39 265.557 L
105.81 261.989 L
107.23 258.497 L
108.65 255.079 L
110.07 251.736 L
111.491 248.467 L
112.911 245.274 L
114.331 242.154 L
115.751 239.11 L
117.171 236.14 L
118.591 233.245 L
120.011 230.424 L
121.431 227.678 L
122.852 225.007 L
124.272 222.411 L
125.692 219.889 L
127.112 217.442 L
128.532 215.069 L
129.952 212.772 L
131.372 210.549 L
132.792 208.401 L
134.212 206.327 L
135.633 204.328 L
137.053 202.404 L
138.473 200.523 L
139.893 198.665 L
141.313 196.829 L
142.733 195.016 L
144.153 193.225 L
145.573 191.456 L
146.994 189.71 L
148.414 187.986 L
149.834 186.283 L
151.254 184.602 L
152.674 182.943 L
154.094 181.305 L
155.514 179.688 L
156.934 178.093 L
158.355 176.519 L
159.775 174.965 L
161.195 173.432 L
162.615 171.92 L
164.035 170.428 L
165.455 168.957 L
166.875 167.506 L
168.295 166.075 L
169.715 164.663 L
171.136 163.272 L
172.556 161.9 L
173.976 160.548 L
175.396 159.215 L
176.816 157.902 L
178.236 156.607 L
179.656 155.332 L
181.076 154.075 L
182.497 152.837 L
183.917 151.617 L
185.337 150.416 L
186.757 149.233 L
188.177 148.069 L
189.597 146.922 L
191.017 145.794 L
192.437 144.682 L
193.858 143.589 L
195.278 142.513 L
196.698 141.455 L
198.118 140.413 L
199.538 139.389 L
200.958 138.381 L
202.378 137.39 L
203.798 136.416 L
205.218 135.459 L
206.639 134.518 L
208.059 133.593 L
209.479 132.684 L
210.899 131.791 L
212.319 130.914 L
213.739 130.052 L
215.159 129.207 L
216.579 128.376 L
218 127.561 L
219.42 126.761 L
220.84 125.976 L
222.26 125.199 L
223.68 124.424 L
225.1 123.649 L
226.52 122.875 L
227.94 122.102 L
229.361 121.329 L
230.781 120.558 L
232.201 119.787 L
233.621 119.017 L
235.041 118.249 L
236.461 117.482 L
237.881 116.715 L
239.301 115.95 L
240.721 115.186 L
242.142 114.424 L
243.562 113.663 L
244.982 112.903 L
246.402 112.145 L
247.822 111.388 L
249.242 110.633 L
250.662 109.879 L
252.082 109.127 L
253.503 108.377 L
254.923 107.629 L
256.343 106.882 L
257.763 106.137 L
259.183 105.395 L
260.603 104.654 L
262.023 103.915 L
263.443 103.178 L
264.864 102.444 L
266.284 101.711 L
267.704 100.981 L
269.124 100.253 L
270.544 99.528 L
271.964 98.804 L
273.384 98.084 L
274.804 97.365 L
276.224 96.65 L
277.645 95.936 L
279.065 95.226 L
280.485 94.518 L
281.905 93.813 L
283.325 93.111 L
284.745 92.411 L
286.165 91.715 L
287.585 91.021 L
289.006 90.33 L
290.426 89.643 L
291.846 88.958 L
293.266 88.277 L
294.686 87.598 L
296.106 86.923 L
297.526 86.252 L
298.946 85.584 L
300.367 84.919 L
301.787 84.257 L
303.207 83.599 L
304.627 82.945 L
306.047 82.294 L
307.467 81.647 L
308.887 81.004 L
310.307 80.364 L
311.727 79.728 L
313.148 79.096 L
314.568 78.468 L
315.988 77.844 L
317.408 77.224 L
318.828 76.608 L
320.248 75.996 L
321.668 75.388 L
323.088 74.785 L
324.509 74.185 L
325.929 73.59 L
327.349 73 L
328.769 72.413 L
330.189 71.832 L
331.609 71.255 L
333.029 70.682 L
334.449 70.114 L
335.87 69.551 L
337.29 68.992 L
338.71 68.438 L
340.13 67.889 L
341.55 67.345 L
342.97 66.806 L
344.39 66.272 L
345.81 65.743 L
347.23 65.219 L
348.651 64.7 L
350.071 64.186 L
351.491 63.678 L
352.911 63.174 L
354.331 62.676 L
355.751 62.184 L
357.171 61.697 L
358.591 61.215 L
360.012 60.739 L
361.432 60.269 L
362.852 59.804 L
364.272 59.345 L
365.692 58.892 L
367.112 58.444 L
368.532 58.002 L
369.952 57.566 L
371.373 57.137 L
372.793 56.713 L
374.213 56.295 L
375.633 55.883 L
377.053 55.478 L
378.473 55.078 L
379.893 54.685 L
381.313 54.299 L
382.733 53.918 L
384.154 53.544 L
385.574 53.177 L
386.994 52.816 L
388.414 52.461 L
389.834 52.113 L
391.254 51.772 L
392.674 51.437 L
394.094 51.11 L
395.515 50.789 L
396.935 50.475 L
398.355 50.168 L
399.775 49.867 L
401.195 49.574 L
402.615 49.288 L
404.035 49.009 L
405.455 48.738 L
406.876 48.473 L
408.296 48.216 L
409.716 47.966 L
411.136 47.723 L
412.556 47.488 L
413.976 47.26 L
415.396 47.04 L
416.816 46.828 L
418.237 46.623 L
419.657 46.426 L
421.077 46.236 L
422.497 46.054 L
423.917 45.881 L
425.337 45.715 L
426.757 45.557 L
428.177 45.406 L
429.597 45.264 L
431.018 45.131 L
432.438 45.005 L
433.858 44.887 L
435.278 44.778 L
436.698 44.677 L
438.118 44.584 L
439.538 44.5 L
440.958 44.424 L
442.379 44.357 L
443.799 44.298 L
445.219 44.248 L
446.639 44.206 L
448.059 44.173 L
449.479 44.149 L
450.899 44.134 L
452.319 44.127 L
S
GR
GS
0.929 0.694 0.125 RC
1 LJ
0.5 LW
N
77.364 359.539 M
78.784 353.502 L
80.204 347.491 L
81.624 341.525 L
83.045 335.623 L
84.465 329.805 L
85.885 324.09 L
87.305 318.498 L
88.725 313.047 L
90.145 307.758 L
91.565 302.649 L
92.985 297.741 L
94.405 293.052 L
95.826 288.601 L
97.246 284.409 L
98.666 280.493 L
100.086 276.831 L
101.506 273.251 L
102.926 269.734 L
104.346 266.279 L
105.766 262.887 L
107.187 259.557 L
108.607 256.289 L
110.027 253.082 L
111.447 249.937 L
112.867 246.852 L
114.287 243.829 L
115.707 240.866 L
117.127 237.964 L
118.548 235.121 L
119.968 232.338 L
121.388 229.615 L
122.808 226.951 L
124.228 224.347 L
125.648 221.8 L
127.068 219.313 L
128.488 216.884 L
129.908 214.512 L
131.329 212.199 L
132.749 209.943 L
134.169 207.744 L
135.589 205.602 L
137.009 203.517 L
138.429 201.488 L
139.849 199.516 L
141.269 197.599 L
142.69 195.738 L
144.11 193.933 L
145.53 192.182 L
146.95 190.487 L
148.37 188.834 L
149.79 187.2 L
151.21 185.583 L
152.63 183.985 L
154.051 182.404 L
155.471 180.84 L
156.891 179.293 L
158.311 177.764 L
159.731 176.252 L
161.151 174.757 L
162.571 173.279 L
163.991 171.818 L
165.411 170.374 L
166.832 168.946 L
168.252 167.535 L
169.672 166.14 L
171.092 164.761 L
172.512 163.399 L
173.932 162.053 L
175.352 160.723 L
176.772 159.408 L
178.193 158.11 L
179.613 156.827 L
181.033 155.56 L
182.453 154.308 L
183.873 153.072 L
185.293 151.851 L
186.713 150.645 L
188.133 149.454 L
189.554 148.278 L
190.974 147.117 L
192.394 145.97 L
193.814 144.839 L
195.234 143.721 L
196.654 142.619 L
198.074 141.53 L
199.494 140.456 L
200.914 139.396 L
202.335 138.35 L
203.755 137.318 L
205.175 136.3 L
206.595 135.295 L
208.015 134.304 L
209.435 133.326 L
210.855 132.362 L
212.275 131.411 L
213.696 130.474 L
215.116 129.549 L
216.536 128.637 L
217.956 127.739 L
219.376 126.852 L
220.796 125.979 L
222.216 125.118 L
223.636 124.27 L
225.057 123.434 L
226.477 122.61 L
227.897 121.798 L
229.317 120.999 L
230.737 120.211 L
232.157 119.435 L
233.577 118.671 L
234.997 117.918 L
236.417 117.177 L
237.838 116.448 L
239.258 115.729 L
240.678 115.022 L
242.098 114.326 L
243.518 113.636 L
244.938 112.946 L
246.358 112.256 L
247.778 111.567 L
249.199 110.879 L
250.619 110.191 L
252.039 109.504 L
253.459 108.817 L
254.879 108.131 L
256.299 107.445 L
257.719 106.76 L
259.139 106.077 L
260.56 105.393 L
261.98 104.711 L
263.4 104.03 L
264.82 103.349 L
266.24 102.669 L
267.66 101.991 L
269.08 101.313 L
270.5 100.637 L
271.921 99.961 L
273.341 99.287 L
274.761 98.614 L
276.181 97.942 L
277.601 97.271 L
279.021 96.602 L
280.441 95.934 L
281.861 95.267 L
283.281 94.602 L
284.702 93.938 L
286.122 93.276 L
287.542 92.615 L
288.962 91.956 L
290.382 91.298 L
291.802 90.642 L
293.222 89.988 L
294.642 89.335 L
296.063 88.684 L
297.483 88.035 L
298.903 87.388 L
300.323 86.742 L
301.743 86.099 L
303.163 85.457 L
304.583 84.818 L
306.003 84.18 L
307.423 83.545 L
308.844 82.911 L
310.264 82.28 L
311.684 81.651 L
313.104 81.023 L
314.524 80.399 L
315.944 79.776 L
317.364 79.156 L
318.784 78.538 L
320.205 77.923 L
321.625 77.31 L
323.045 76.699 L
324.465 76.091 L
325.885 75.486 L
327.305 74.883 L
328.725 74.283 L
330.145 73.685 L
331.566 73.09 L
332.986 72.498 L
334.406 71.908 L
335.826 71.322 L
337.246 70.738 L
338.666 70.157 L
340.086 69.579 L
341.506 69.004 L
342.927 68.432 L
344.347 67.863 L
345.767 67.297 L
347.187 66.734 L
348.607 66.175 L
350.027 65.618 L
351.447 65.065 L
352.867 64.515 L
354.287 63.968 L
355.708 63.425 L
357.128 62.885 L
358.548 62.348 L
359.968 61.815 L
361.388 61.285 L
362.808 60.759 L
364.228 60.237 L
365.648 59.718 L
367.069 59.203 L
368.489 58.691 L
369.909 58.183 L
371.329 57.679 L
372.749 57.179 L
374.169 56.682 L
375.589 56.189 L
377.009 55.701 L
378.43 55.216 L
379.85 54.735 L
381.27 54.258 L
382.69 53.786 L
384.11 53.317 L
385.53 52.852 L
386.95 52.392 L
388.37 51.936 L
389.79 51.484 L
391.211 51.036 L
392.631 50.593 L
394.051 50.154 L
395.471 49.72 L
396.891 49.29 L
398.311 48.864 L
399.731 48.443 L
401.151 48.026 L
402.572 47.614 L
403.992 47.207 L
405.412 46.805 L
406.832 46.407 L
408.252 46.013 L
409.672 45.625 L
411.092 45.241 L
412.512 44.863 L
413.933 44.489 L
415.353 44.12 L
416.773 43.756 L
418.193 43.397 L
419.613 43.043 L
421.033 42.694 L
422.453 42.35 L
423.873 42.012 L
425.293 41.678 L
426.714 41.35 L
428.134 41.027 L
429.554 40.71 L
430.974 40.398 L
432.394 40.091 L
433.814 39.789 L
435.234 39.493 L
436.654 39.203 L
438.075 38.918 L
439.495 38.639 L
440.915 38.365 L
442.335 38.097 L
443.755 37.835 L
445.175 37.578 L
446.595 37.327 L
448.015 37.082 L
449.436 36.843 L
450.856 36.609 L
452.276 36.382 L
453.696 36.16 L
455.116 35.945 L
456.536 35.735 L
457.956 35.532 L
459.376 35.335 L
460.796 35.143 L
462.217 34.959 L
463.637 34.78 L
465.057 34.607 L
466.477 34.441 L
467.897 34.281 L
469.317 34.128 L
470.737 33.98 L
472.157 33.84 L
473.578 33.706 L
474.998 33.578 L
476.418 33.457 L
477.838 33.342 L
479.258 33.235 L
480.678 33.133 L
482.098 33.039 L
483.518 32.951 L
484.939 32.87 L
486.359 32.796 L
487.779 32.729 L
489.199 32.669 L
490.619 32.615 L
492.039 32.569 L
493.459 32.529 L
494.879 32.497 L
496.299 32.472 L
497.72 32.453 L
499.14 32.443 L
500.56 32.439 L
S
GR
GS
0.494 0.184 0.557 RC
1 LJ
0.5 LW
N
73.886 366.083 M
75.307 359.391 L
76.727 352.727 L
78.147 346.12 L
79.567 339.597 L
80.987 333.186 L
82.407 326.915 L
83.827 320.811 L
85.247 314.902 L
86.668 309.216 L
88.088 303.782 L
89.508 298.625 L
90.928 293.775 L
92.348 289.259 L
93.768 285.103 L
95.188 281.146 L
96.608 277.265 L
98.028 273.461 L
99.449 269.734 L
100.869 266.082 L
102.289 262.505 L
103.709 259.004 L
105.129 255.576 L
106.549 252.223 L
107.969 248.942 L
109.389 245.735 L
110.81 242.6 L
112.23 239.538 L
113.65 236.547 L
115.07 233.627 L
116.49 230.777 L
117.91 227.998 L
119.33 225.289 L
120.75 222.65 L
122.171 220.079 L
123.591 217.576 L
125.011 215.141 L
126.431 212.774 L
127.851 210.475 L
129.271 208.241 L
130.691 206.074 L
132.111 203.973 L
133.531 201.937 L
134.952 199.965 L
136.372 198.058 L
137.792 196.215 L
139.212 194.428 L
140.632 192.665 L
142.052 190.922 L
143.472 189.2 L
144.892 187.499 L
146.313 185.818 L
147.733 184.157 L
149.153 182.516 L
150.573 180.895 L
151.993 179.294 L
153.413 177.712 L
154.833 176.15 L
156.253 174.607 L
157.674 173.083 L
159.094 171.578 L
160.514 170.092 L
161.934 168.624 L
163.354 167.176 L
164.774 165.746 L
166.194 164.334 L
167.614 162.94 L
169.034 161.564 L
170.455 160.206 L
171.875 158.866 L
173.295 157.544 L
174.715 156.239 L
176.135 154.951 L
177.555 153.681 L
178.975 152.427 L
180.395 151.19 L
181.816 149.971 L
183.236 148.767 L
184.656 147.581 L
186.076 146.41 L
187.496 145.256 L
188.916 144.118 L
190.336 142.996 L
191.756 141.889 L
193.177 140.798 L
194.597 139.723 L
196.017 138.663 L
197.437 137.618 L
198.857 136.588 L
200.277 135.573 L
201.697 134.573 L
203.117 133.588 L
204.538 132.617 L
205.958 131.66 L
207.378 130.718 L
208.798 129.79 L
210.218 128.875 L
211.638 127.975 L
213.058 127.088 L
214.478 126.214 L
215.898 125.354 L
217.319 124.508 L
218.739 123.674 L
220.159 122.853 L
221.579 122.045 L
222.999 121.25 L
224.419 120.467 L
225.839 119.697 L
227.259 118.938 L
228.68 118.192 L
230.1 117.454 L
231.52 116.715 L
232.94 115.977 L
234.36 115.24 L
235.78 114.503 L
237.2 113.767 L
238.62 113.031 L
240.041 112.296 L
241.461 111.562 L
242.881 110.829 L
244.301 110.096 L
245.721 109.365 L
247.141 108.634 L
248.561 107.904 L
249.981 107.175 L
251.401 106.448 L
252.822 105.721 L
254.242 104.996 L
255.662 104.271 L
257.082 103.548 L
258.502 102.826 L
259.922 102.106 L
261.342 101.387 L
262.762 100.669 L
264.183 99.953 L
265.603 99.238 L
267.023 98.524 L
268.443 97.813 L
269.863 97.102 L
271.283 96.394 L
272.703 95.687 L
274.123 94.982 L
275.544 94.279 L
276.964 93.577 L
278.384 92.878 L
279.804 92.18 L
281.224 91.484 L
282.644 90.791 L
284.064 90.099 L
285.484 89.41 L
286.904 88.722 L
288.325 88.037 L
289.745 87.354 L
291.165 86.673 L
292.585 85.995 L
294.005 85.319 L
295.425 84.645 L
296.845 83.974 L
298.265 83.305 L
299.686 82.639 L
301.106 81.975 L
302.526 81.314 L
303.946 80.656 L
305.366 80 L
306.786 79.347 L
308.206 78.697 L
309.626 78.05 L
311.047 77.405 L
312.467 76.764 L
313.887 76.125 L
315.307 75.49 L
316.727 74.857 L
318.147 74.228 L
319.567 73.601 L
320.987 72.978 L
322.407 72.359 L
323.828 71.742 L
325.248 71.129 L
326.668 70.519 L
328.088 69.912 L
329.508 69.309 L
330.928 68.71 L
332.348 68.114 L
333.768 67.521 L
335.189 66.932 L
336.609 66.347 L
338.029 65.766 L
339.449 65.188 L
340.869 64.614 L
342.289 64.044 L
343.709 63.477 L
345.129 62.915 L
346.55 62.357 L
347.97 61.802 L
349.39 61.252 L
350.81 60.706 L
352.23 60.164 L
353.65 59.626 L
355.07 59.092 L
356.49 58.563 L
357.91 58.038 L
359.331 57.517 L
360.751 57.001 L
362.171 56.489 L
363.591 55.982 L
365.011 55.479 L
366.431 54.981 L
367.851 54.487 L
369.271 53.998 L
370.692 53.514 L
372.112 53.034 L
373.532 52.56 L
374.952 52.09 L
376.372 51.625 L
377.792 51.165 L
379.212 50.709 L
380.632 50.259 L
382.053 49.814 L
383.473 49.374 L
384.893 48.94 L
386.313 48.51 L
387.733 48.086 L
389.153 47.667 L
390.573 47.253 L
391.993 46.844 L
393.413 46.441 L
394.834 46.044 L
396.254 45.652 L
397.674 45.265 L
399.094 44.884 L
400.514 44.509 L
401.934 44.139 L
403.354 43.775 L
404.774 43.417 L
406.195 43.064 L
407.615 42.718 L
409.035 42.377 L
410.455 42.042 L
411.875 41.714 L
413.295 41.391 L
414.715 41.074 L
416.135 40.763 L
417.556 40.459 L
418.976 40.161 L
420.396 39.869 L
421.816 39.583 L
423.236 39.303 L
424.656 39.03 L
426.076 38.763 L
427.496 38.503 L
428.916 38.25 L
430.337 38.002 L
431.757 37.762 L
433.177 37.528 L
434.597 37.3 L
436.017 37.08 L
437.437 36.866 L
438.857 36.659 L
440.277 36.458 L
441.698 36.265 L
443.118 36.079 L
444.538 35.899 L
445.958 35.727 L
447.378 35.561 L
448.798 35.403 L
450.218 35.252 L
451.638 35.108 L
453.059 34.971 L
454.479 34.842 L
455.899 34.72 L
457.319 34.605 L
458.739 34.498 L
460.159 34.398 L
461.579 34.306 L
462.999 34.221 L
464.419 34.144 L
465.84 34.074 L
467.26 34.012 L
468.68 33.958 L
470.1 33.911 L
471.52 33.873 L
472.94 33.842 L
474.36 33.819 L
475.78 33.804 L
477.201 33.797 L
S
GR
GS
0.467 0.675 0.188 RC
1 LJ
0.5 LW
N
73 369.51 M
74.42 362.498 L
75.84 355.513 L
77.26 348.589 L
78.68 341.76 L
80.101 335.058 L
81.521 328.515 L
82.941 322.165 L
84.361 316.041 L
85.781 310.176 L
87.201 304.603 L
88.621 299.354 L
90.041 294.462 L
91.462 289.962 L
92.882 285.814 L
94.302 281.775 L
95.722 277.822 L
97.142 273.953 L
98.562 270.168 L
99.982 266.465 L
101.402 262.845 L
102.823 259.306 L
104.243 255.847 L
105.663 252.468 L
107.083 249.169 L
108.503 245.948 L
109.923 242.804 L
111.343 239.736 L
112.763 236.745 L
114.183 233.829 L
115.604 230.987 L
117.024 228.219 L
118.444 225.524 L
119.864 222.9 L
121.284 220.348 L
122.704 217.867 L
124.124 215.455 L
125.544 213.113 L
126.965 210.838 L
128.385 208.631 L
129.805 206.491 L
131.225 204.417 L
132.645 202.407 L
134.065 200.462 L
135.485 198.581 L
136.905 196.752 L
138.326 194.946 L
139.746 193.161 L
141.166 191.398 L
142.586 189.656 L
144.006 187.935 L
145.426 186.234 L
146.846 184.554 L
148.266 182.895 L
149.686 181.256 L
151.107 179.638 L
152.527 178.039 L
153.947 176.461 L
155.367 174.902 L
156.787 173.363 L
158.207 171.843 L
159.627 170.343 L
161.047 168.862 L
162.468 167.4 L
163.888 165.957 L
165.308 164.533 L
166.728 163.128 L
168.148 161.741 L
169.568 160.372 L
170.988 159.022 L
172.408 157.689 L
173.829 156.375 L
175.249 155.079 L
176.669 153.8 L
178.089 152.538 L
179.509 151.294 L
180.929 150.068 L
182.349 148.858 L
183.769 147.665 L
185.189 146.489 L
186.61 145.33 L
188.03 144.187 L
189.45 143.06 L
190.87 141.95 L
192.29 140.856 L
193.71 139.778 L
195.13 138.715 L
196.55 137.668 L
197.971 136.637 L
199.391 135.621 L
200.811 134.62 L
202.231 133.634 L
203.651 132.664 L
205.071 131.708 L
206.491 130.766 L
207.911 129.839 L
209.332 128.927 L
210.752 128.028 L
212.172 127.144 L
213.592 126.273 L
215.012 125.417 L
216.432 124.574 L
217.852 123.744 L
219.272 122.928 L
220.692 122.125 L
222.113 121.335 L
223.533 120.558 L
224.953 119.794 L
226.373 119.036 L
227.793 118.279 L
229.213 117.523 L
230.633 116.767 L
232.053 116.011 L
233.474 115.257 L
234.894 114.503 L
236.314 113.75 L
237.734 112.997 L
239.154 112.246 L
240.574 111.495 L
241.994 110.745 L
243.414 109.996 L
244.835 109.249 L
246.255 108.502 L
247.675 107.756 L
249.095 107.012 L
250.515 106.269 L
251.935 105.527 L
253.355 104.786 L
254.775 104.047 L
256.195 103.309 L
257.616 102.573 L
259.036 101.838 L
260.456 101.104 L
261.876 100.373 L
263.296 99.642 L
264.716 98.914 L
266.136 98.187 L
267.556 97.462 L
268.977 96.739 L
270.397 96.017 L
271.817 95.298 L
273.237 94.58 L
274.657 93.865 L
276.077 93.152 L
277.497 92.44 L
278.917 91.731 L
280.338 91.024 L
281.758 90.319 L
283.178 89.617 L
284.598 88.916 L
286.018 88.219 L
287.438 87.523 L
288.858 86.83 L
290.278 86.14 L
291.699 85.452 L
293.119 84.767 L
294.539 84.084 L
295.959 83.404 L
297.379 82.727 L
298.799 82.053 L
300.219 81.381 L
301.639 80.713 L
303.059 80.047 L
304.48 79.384 L
305.9 78.725 L
307.32 78.068 L
308.74 77.414 L
310.16 76.764 L
311.58 76.117 L
313 75.473 L
314.42 74.832 L
315.841 74.195 L
317.261 73.561 L
318.681 72.931 L
320.101 72.304 L
321.521 71.681 L
322.941 71.061 L
324.361 70.445 L
325.781 69.832 L
327.202 69.223 L
328.622 68.618 L
330.042 68.017 L
331.462 67.42 L
332.882 66.826 L
334.302 66.237 L
335.722 65.651 L
337.142 65.07 L
338.562 64.493 L
339.983 63.919 L
341.403 63.35 L
342.823 62.785 L
344.243 62.225 L
345.663 61.669 L
347.083 61.117 L
348.503 60.57 L
349.923 60.027 L
351.344 59.488 L
352.764 58.954 L
354.184 58.425 L
355.604 57.9 L
357.024 57.38 L
358.444 56.865 L
359.864 56.355 L
361.284 55.849 L
362.704 55.349 L
364.125 54.853 L
365.545 54.362 L
366.965 53.876 L
368.385 53.395 L
369.805 52.92 L
371.225 52.45 L
372.645 51.984 L
374.065 51.524 L
375.486 51.07 L
376.906 50.62 L
378.326 50.176 L
379.746 49.738 L
381.166 49.305 L
382.586 48.877 L
384.006 48.456 L
385.426 48.039 L
386.847 47.629 L
388.267 47.224 L
389.687 46.825 L
391.107 46.432 L
392.527 46.044 L
393.947 45.663 L
395.367 45.287 L
396.787 44.917 L
398.207 44.554 L
399.628 44.196 L
401.048 43.845 L
402.468 43.5 L
403.888 43.161 L
405.308 42.828 L
406.728 42.502 L
408.148 42.182 L
409.568 41.869 L
410.989 41.561 L
412.409 41.261 L
413.829 40.967 L
415.249 40.679 L
416.669 40.399 L
418.089 40.125 L
419.509 39.857 L
420.929 39.597 L
422.35 39.343 L
423.77 39.096 L
425.19 38.856 L
426.61 38.623 L
428.03 38.397 L
429.45 38.178 L
430.87 37.967 L
432.29 37.762 L
433.711 37.565 L
435.131 37.375 L
436.551 37.192 L
437.971 37.016 L
439.391 36.848 L
440.811 36.688 L
442.231 36.534 L
443.651 36.389 L
445.071 36.251 L
446.492 36.12 L
447.912 35.997 L
449.332 35.882 L
450.752 35.775 L
452.172 35.676 L
453.592 35.584 L
455.012 35.5 L
456.432 35.424 L
457.853 35.357 L
459.273 35.297 L
460.693 35.245 L
462.113 35.202 L
463.533 35.166 L
464.953 35.139 L
466.373 35.12 L
467.793 35.11 L
S
GR
GS
0.302 0.745 0.933 RC
[10 6] 0 setdash
2 LJ
0.5 LW
N
75.341 369.903 M
76.761 363.375 L
78.181 356.884 L
79.602 350.45 L
81.022 344.097 L
82.442 337.848 L
83.862 331.726 L
85.282 325.753 L
86.702 319.951 L
88.122 314.345 L
89.542 308.956 L
90.963 303.808 L
92.383 298.923 L
93.803 294.323 L
95.223 290.033 L
96.643 286.021 L
98.063 282.101 L
99.483 278.252 L
100.903 274.475 L
102.324 270.769 L
103.744 267.134 L
105.164 263.571 L
106.584 260.079 L
108.004 256.657 L
109.424 253.307 L
110.844 250.028 L
112.264 246.819 L
113.684 243.681 L
115.105 240.614 L
116.525 237.617 L
117.945 234.69 L
119.365 231.834 L
120.785 229.048 L
122.205 226.333 L
123.625 223.687 L
125.045 221.111 L
126.466 218.605 L
127.886 216.169 L
129.306 213.803 L
130.726 211.506 L
132.146 209.279 L
133.566 207.121 L
134.986 205.032 L
136.406 203.013 L
137.827 201.063 L
139.247 199.182 L
140.667 197.353 L
142.087 195.547 L
143.507 193.762 L
144.927 191.999 L
146.347 190.258 L
147.767 188.538 L
149.188 186.839 L
150.608 185.161 L
152.028 183.505 L
153.448 181.869 L
154.868 180.253 L
156.288 178.659 L
157.708 177.084 L
159.128 175.53 L
160.548 173.996 L
161.969 172.482 L
163.389 170.988 L
164.809 169.513 L
166.229 168.058 L
167.649 166.622 L
169.069 165.205 L
170.489 163.808 L
171.909 162.429 L
173.33 161.069 L
174.75 159.727 L
176.17 158.404 L
177.59 157.099 L
179.01 155.813 L
180.43 154.544 L
181.85 153.293 L
183.27 152.06 L
184.691 150.845 L
186.111 149.647 L
187.531 148.466 L
188.951 147.302 L
190.371 146.156 L
191.791 145.026 L
193.211 143.912 L
194.631 142.816 L
196.051 141.735 L
197.472 140.671 L
198.892 139.623 L
200.312 138.591 L
201.732 137.574 L
203.152 136.574 L
204.572 135.588 L
205.992 134.618 L
207.412 133.664 L
208.833 132.724 L
210.253 131.799 L
211.673 130.889 L
213.093 129.993 L
214.513 129.112 L
215.933 128.246 L
217.353 127.393 L
218.773 126.554 L
220.194 125.73 L
221.614 124.919 L
223.034 124.121 L
224.454 123.337 L
225.874 122.565 L
227.294 121.794 L
228.714 121.024 L
230.134 120.254 L
231.554 119.485 L
232.975 118.717 L
234.395 117.949 L
235.815 117.181 L
237.235 116.415 L
238.655 115.649 L
240.075 114.884 L
241.495 114.12 L
242.915 113.357 L
244.336 112.595 L
245.756 111.834 L
247.176 111.074 L
248.596 110.316 L
250.016 109.558 L
251.436 108.802 L
252.856 108.048 L
254.276 107.294 L
255.697 106.543 L
257.117 105.792 L
258.537 105.044 L
259.957 104.297 L
261.377 103.551 L
262.797 102.808 L
264.217 102.066 L
265.637 101.326 L
267.057 100.589 L
268.478 99.853 L
269.898 99.119 L
271.318 98.387 L
272.738 97.658 L
274.158 96.931 L
275.578 96.206 L
276.998 95.483 L
278.418 94.763 L
279.839 94.045 L
281.259 93.33 L
282.679 92.617 L
284.099 91.907 L
285.519 91.2 L
286.939 90.495 L
288.359 89.793 L
289.779 89.095 L
291.2 88.399 L
292.62 87.706 L
294.04 87.016 L
295.46 86.329 L
296.88 85.645 L
298.3 84.964 L
299.72 84.287 L
301.14 83.613 L
302.56 82.943 L
303.981 82.276 L
305.401 81.612 L
306.821 80.952 L
308.241 80.296 L
309.661 79.643 L
311.081 78.994 L
312.501 78.348 L
313.921 77.707 L
315.342 77.07 L
316.762 76.436 L
318.182 75.806 L
319.602 75.181 L
321.022 74.56 L
322.442 73.942 L
323.862 73.33 L
325.282 72.721 L
326.703 72.117 L
328.123 71.517 L
329.543 70.921 L
330.963 70.331 L
332.383 69.744 L
333.803 69.163 L
335.223 68.586 L
336.643 68.014 L
338.063 67.446 L
339.484 66.884 L
340.904 66.327 L
342.324 65.774 L
343.744 65.227 L
345.164 64.684 L
346.584 64.147 L
348.004 63.615 L
349.424 63.089 L
350.845 62.567 L
352.265 62.051 L
353.685 61.541 L
355.105 61.036 L
356.525 60.537 L
357.945 60.043 L
359.365 59.555 L
360.785 59.072 L
362.206 58.596 L
363.626 58.125 L
365.046 57.66 L
366.466 57.201 L
367.886 56.749 L
369.306 56.302 L
370.726 55.861 L
372.146 55.427 L
373.566 54.999 L
374.987 54.577 L
376.407 54.162 L
377.827 53.753 L
379.247 53.35 L
380.667 52.954 L
382.087 52.565 L
383.507 52.182 L
384.927 51.806 L
386.348 51.437 L
387.768 51.075 L
389.188 50.72 L
390.608 50.371 L
392.028 50.029 L
393.448 49.695 L
394.868 49.368 L
396.288 49.048 L
397.709 48.735 L
399.129 48.429 L
400.549 48.131 L
401.969 47.84 L
403.389 47.557 L
404.809 47.281 L
406.229 47.013 L
407.649 46.752 L
409.069 46.499 L
410.49 46.254 L
411.91 46.016 L
413.33 45.787 L
414.75 45.565 L
416.17 45.352 L
417.59 45.146 L
419.01 44.949 L
420.43 44.76 L
421.851 44.578 L
423.271 44.406 L
424.691 44.241 L
426.111 44.085 L
427.531 43.938 L
428.951 43.798 L
430.371 43.668 L
431.791 43.546 L
433.212 43.433 L
434.632 43.328 L
436.052 43.232 L
437.472 43.145 L
438.892 43.067 L
440.312 42.998 L
441.732 42.938 L
443.152 42.887 L
444.572 42.846 L
445.993 42.813 L
447.413 42.79 L
448.833 42.775 L
S
GR
GS
0.635 0.078 0.184 RC
[10 6] 0 setdash
2 LJ
0.5 LW
N
77.411 360.18 M
78.831 354.047 L
80.251 347.939 L
81.671 341.876 L
83.091 335.88 L
84.511 329.971 L
85.931 324.169 L
87.351 318.494 L
88.771 312.968 L
90.192 307.61 L
91.612 302.442 L
93.032 297.483 L
94.452 292.754 L
95.872 288.277 L
97.292 284.07 L
98.712 280.155 L
100.132 276.489 L
101.553 272.9 L
102.973 269.377 L
104.393 265.92 L
105.813 262.528 L
107.233 259.201 L
108.653 255.939 L
110.073 252.74 L
111.493 249.604 L
112.914 246.532 L
114.334 243.522 L
115.754 240.574 L
117.174 237.687 L
118.594 234.862 L
120.014 232.097 L
121.434 229.393 L
122.854 226.748 L
124.274 224.163 L
125.695 221.636 L
127.115 219.168 L
128.535 216.758 L
129.955 214.405 L
131.375 212.11 L
132.795 209.871 L
134.215 207.688 L
135.635 205.561 L
137.056 203.489 L
138.476 201.472 L
139.896 199.509 L
141.316 197.6 L
142.736 195.744 L
144.156 193.941 L
145.576 192.191 L
146.996 190.493 L
148.417 188.831 L
149.837 187.186 L
151.257 185.559 L
152.677 183.95 L
154.097 182.359 L
155.517 180.785 L
156.937 179.229 L
158.357 177.69 L
159.777 176.168 L
161.198 174.664 L
162.618 173.176 L
164.038 171.706 L
165.458 170.252 L
166.878 168.815 L
168.298 167.395 L
169.718 165.991 L
171.138 164.604 L
172.559 163.233 L
173.979 161.878 L
175.399 160.539 L
176.819 159.217 L
178.239 157.91 L
179.659 156.619 L
181.079 155.344 L
182.499 154.084 L
183.92 152.84 L
185.34 151.611 L
186.76 150.397 L
188.18 149.198 L
189.6 148.015 L
191.02 146.847 L
192.44 145.693 L
193.86 144.554 L
195.281 143.43 L
196.701 142.32 L
198.121 141.224 L
199.541 140.143 L
200.961 139.076 L
202.381 138.024 L
203.801 136.985 L
205.221 135.96 L
206.641 134.949 L
208.062 133.951 L
209.482 132.968 L
210.902 131.997 L
212.322 131.04 L
213.742 130.097 L
215.162 129.166 L
216.582 128.248 L
218.002 127.344 L
219.423 126.452 L
220.843 125.573 L
222.263 124.707 L
223.683 123.853 L
225.103 123.011 L
226.523 122.182 L
227.943 121.365 L
229.363 120.56 L
230.784 119.767 L
232.204 118.986 L
233.624 118.217 L
235.044 117.459 L
236.464 116.713 L
237.884 115.979 L
239.304 115.256 L
240.724 114.544 L
242.144 113.836 L
243.565 113.129 L
244.985 112.421 L
246.405 111.715 L
247.825 111.008 L
249.245 110.303 L
250.665 109.597 L
252.085 108.892 L
253.505 108.188 L
254.926 107.484 L
256.346 106.781 L
257.766 106.079 L
259.186 105.378 L
260.606 104.677 L
262.026 103.977 L
263.446 103.278 L
264.866 102.58 L
266.287 101.883 L
267.707 101.187 L
269.127 100.493 L
270.547 99.799 L
271.967 99.106 L
273.387 98.415 L
274.807 97.725 L
276.227 97.036 L
277.647 96.349 L
279.068 95.663 L
280.488 94.978 L
281.908 94.295 L
283.328 93.614 L
284.748 92.934 L
286.168 92.255 L
287.588 91.579 L
289.008 90.904 L
290.429 90.23 L
291.849 89.559 L
293.269 88.889 L
294.689 88.222 L
296.109 87.556 L
297.529 86.892 L
298.949 86.23 L
300.369 85.571 L
301.79 84.913 L
303.21 84.258 L
304.63 83.605 L
306.05 82.954 L
307.47 82.305 L
308.89 81.659 L
310.31 81.015 L
311.73 80.374 L
313.15 79.735 L
314.571 79.098 L
315.991 78.464 L
317.411 77.833 L
318.831 77.204 L
320.251 76.578 L
321.671 75.955 L
323.091 75.335 L
324.511 74.717 L
325.932 74.103 L
327.352 73.491 L
328.772 72.882 L
330.192 72.276 L
331.612 71.674 L
333.032 71.074 L
334.452 70.478 L
335.872 69.884 L
337.293 69.295 L
338.713 68.708 L
340.133 68.124 L
341.553 67.544 L
342.973 66.968 L
344.393 66.395 L
345.813 65.825 L
347.233 65.259 L
348.653 64.697 L
350.074 64.138 L
351.494 63.583 L
352.914 63.031 L
354.334 62.484 L
355.754 61.94 L
357.174 61.4 L
358.594 60.864 L
360.014 60.332 L
361.435 59.804 L
362.855 59.281 L
364.275 58.761 L
365.695 58.245 L
367.115 57.734 L
368.535 57.226 L
369.955 56.723 L
371.375 56.225 L
372.796 55.73 L
374.216 55.241 L
375.636 54.755 L
377.056 54.274 L
378.476 53.798 L
379.896 53.326 L
381.316 52.859 L
382.736 52.396 L
384.156 51.939 L
385.577 51.486 L
386.997 51.037 L
388.417 50.594 L
389.837 50.156 L
391.257 49.722 L
392.677 49.294 L
394.097 48.871 L
395.517 48.452 L
396.938 48.039 L
398.358 47.631 L
399.778 47.228 L
401.198 46.831 L
402.618 46.439 L
404.038 46.052 L
405.458 45.671 L
406.878 45.295 L
408.299 44.924 L
409.719 44.559 L
411.139 44.2 L
412.559 43.846 L
413.979 43.498 L
415.399 43.156 L
416.819 42.819 L
418.239 42.488 L
419.659 42.164 L
421.08 41.845 L
422.5 41.531 L
423.92 41.224 L
425.34 40.923 L
426.76 40.628 L
428.18 40.34 L
429.6 40.057 L
431.02 39.78 L
432.441 39.51 L
433.861 39.246 L
435.281 38.989 L
436.701 38.738 L
438.121 38.493 L
439.541 38.255 L
440.961 38.023 L
442.381 37.798 L
443.802 37.579 L
445.222 37.367 L
446.642 37.162 L
448.062 36.964 L
449.482 36.772 L
450.902 36.588 L
452.322 36.41 L
453.742 36.239 L
455.163 36.075 L
456.583 35.918 L
458.003 35.768 L
459.423 35.625 L
460.843 35.49 L
462.263 35.361 L
463.683 35.24 L
465.103 35.126 L
466.523 35.02 L
467.944 34.921 L
469.364 34.829 L
470.784 34.745 L
472.204 34.668 L
473.624 34.599 L
475.044 34.537 L
476.464 34.484 L
477.884 34.437 L
479.305 34.399 L
480.725 34.368 L
482.145 34.345 L
483.565 34.331 L
484.985 34.324 L
S
GR
GS
0 0.447 0.741 RC
[10 6] 0 setdash
2 LJ
0.5 LW
N
74.279 365.006 M
75.699 358.334 L
77.119 351.69 L
78.539 345.103 L
79.959 338.598 L
81.38 332.203 L
82.8 325.946 L
84.22 319.853 L
85.64 313.952 L
87.06 308.269 L
88.48 302.832 L
89.9 297.668 L
91.32 292.805 L
92.741 288.269 L
94.161 284.087 L
95.581 280.165 L
97.001 276.323 L
98.421 272.559 L
99.841 268.872 L
101.261 265.261 L
102.681 261.726 L
104.101 258.266 L
105.522 254.881 L
106.942 251.569 L
108.362 248.331 L
109.782 245.166 L
111.202 242.072 L
112.622 239.05 L
114.042 236.098 L
115.462 233.217 L
116.883 230.405 L
118.303 227.662 L
119.723 224.988 L
121.143 222.38 L
122.563 219.84 L
123.983 217.366 L
125.403 214.958 L
126.823 212.615 L
128.244 210.336 L
129.664 208.121 L
131.084 205.969 L
132.504 203.88 L
133.924 201.853 L
135.344 199.887 L
136.764 197.981 L
138.184 196.136 L
139.604 194.349 L
141.025 192.594 L
142.445 190.859 L
143.865 189.145 L
145.285 187.451 L
146.705 185.778 L
148.125 184.124 L
149.545 182.49 L
150.965 180.876 L
152.386 179.282 L
153.806 177.707 L
155.226 176.152 L
156.646 174.615 L
158.066 173.098 L
159.486 171.599 L
160.906 170.119 L
162.326 168.658 L
163.747 167.215 L
165.167 165.79 L
166.587 164.384 L
168.007 162.995 L
169.427 161.624 L
170.847 160.271 L
172.267 158.936 L
173.687 157.618 L
175.107 156.317 L
176.528 155.033 L
177.948 153.767 L
179.368 152.517 L
180.788 151.284 L
182.208 150.067 L
183.628 148.867 L
185.048 147.682 L
186.468 146.514 L
187.889 145.362 L
189.309 144.226 L
190.729 143.105 L
192.149 142 L
193.569 140.911 L
194.989 139.836 L
196.409 138.777 L
197.829 137.732 L
199.25 136.702 L
200.67 135.687 L
202.09 134.686 L
203.51 133.7 L
204.93 132.728 L
206.35 131.77 L
207.77 130.826 L
209.19 129.895 L
210.61 128.978 L
212.031 128.075 L
213.451 127.185 L
214.871 126.308 L
216.291 125.444 L
217.711 124.593 L
219.131 123.755 L
220.551 122.929 L
221.971 122.116 L
223.392 121.315 L
224.812 120.526 L
226.232 119.749 L
227.652 118.984 L
229.072 118.231 L
230.492 117.482 L
231.912 116.733 L
233.332 115.984 L
234.753 115.236 L
236.173 114.488 L
237.593 113.741 L
239.013 112.994 L
240.433 112.247 L
241.853 111.502 L
243.273 110.757 L
244.693 110.012 L
246.113 109.269 L
247.534 108.526 L
248.954 107.784 L
250.374 107.043 L
251.794 106.303 L
253.214 105.564 L
254.634 104.827 L
256.054 104.09 L
257.474 103.354 L
258.895 102.62 L
260.315 101.887 L
261.735 101.155 L
263.155 100.425 L
264.575 99.696 L
265.995 98.969 L
267.415 98.243 L
268.835 97.519 L
270.256 96.796 L
271.676 96.075 L
273.096 95.356 L
274.516 94.639 L
275.936 93.923 L
277.356 93.21 L
278.776 92.498 L
280.196 91.789 L
281.616 91.081 L
283.037 90.375 L
284.457 89.672 L
285.877 88.971 L
287.297 88.272 L
288.717 87.576 L
290.137 86.881 L
291.557 86.19 L
292.977 85.5 L
294.398 84.814 L
295.818 84.129 L
297.238 83.448 L
298.658 82.769 L
300.078 82.092 L
301.498 81.419 L
302.918 80.748 L
304.338 80.081 L
305.759 79.416 L
307.179 78.754 L
308.599 78.095 L
310.019 77.439 L
311.439 76.787 L
312.859 76.137 L
314.279 75.491 L
315.699 74.848 L
317.119 74.208 L
318.54 73.572 L
319.96 72.939 L
321.38 72.31 L
322.8 71.684 L
324.22 71.062 L
325.64 70.444 L
327.06 69.829 L
328.48 69.218 L
329.901 68.61 L
331.321 68.007 L
332.741 67.407 L
334.161 66.812 L
335.581 66.22 L
337.001 65.633 L
338.421 65.049 L
339.841 64.47 L
341.262 63.895 L
342.682 63.324 L
344.102 62.757 L
345.522 62.195 L
346.942 61.637 L
348.362 61.084 L
349.782 60.535 L
351.202 59.991 L
352.622 59.451 L
354.043 58.917 L
355.463 58.386 L
356.883 57.861 L
358.303 57.34 L
359.723 56.824 L
361.143 56.314 L
362.563 55.808 L
363.983 55.307 L
365.404 54.811 L
366.824 54.321 L
368.244 53.835 L
369.664 53.355 L
371.084 52.88 L
372.504 52.41 L
373.924 51.946 L
375.344 51.487 L
376.765 51.034 L
378.185 50.586 L
379.605 50.144 L
381.025 49.708 L
382.445 49.277 L
383.865 48.852 L
385.285 48.432 L
386.705 48.019 L
388.126 47.611 L
389.546 47.21 L
390.966 46.814 L
392.386 46.425 L
393.806 46.041 L
395.226 45.664 L
396.646 45.293 L
398.066 44.928 L
399.486 44.569 L
400.907 44.217 L
402.327 43.871 L
403.747 43.532 L
405.167 43.199 L
406.587 42.873 L
408.007 42.553 L
409.427 42.24 L
410.847 41.934 L
412.268 41.635 L
413.688 41.342 L
415.108 41.056 L
416.528 40.777 L
417.948 40.505 L
419.368 40.24 L
420.788 39.983 L
422.208 39.732 L
423.629 39.489 L
425.049 39.252 L
426.469 39.023 L
427.889 38.802 L
429.309 38.587 L
430.729 38.38 L
432.149 38.181 L
433.569 37.989 L
434.989 37.805 L
436.41 37.628 L
437.83 37.46 L
439.25 37.298 L
440.67 37.145 L
442.09 37 L
443.51 36.862 L
444.93 36.732 L
446.35 36.611 L
447.771 36.497 L
449.191 36.391 L
450.611 36.294 L
452.031 36.205 L
453.451 36.124 L
454.871 36.051 L
456.291 35.987 L
457.711 35.931 L
459.132 35.884 L
460.552 35.845 L
461.972 35.815 L
463.392 35.793 L
464.812 35.78 L
S
GR
GS
0.851 0.325 0.098 RC
[10 6] 0 setdash
2 LJ
0.5 LW
N
73.075 370.047 M
74.496 363.086 L
75.916 356.155 L
77.336 349.284 L
78.756 342.506 L
80.176 335.851 L
81.596 329.351 L
83.016 323.037 L
84.436 316.94 L
85.857 311.093 L
87.277 305.525 L
88.697 300.269 L
90.117 295.356 L
91.537 290.818 L
92.957 286.64 L
94.377 282.585 L
95.797 278.613 L
97.218 274.723 L
98.638 270.915 L
100.058 267.188 L
101.478 263.541 L
102.898 259.974 L
104.318 256.487 L
105.738 253.078 L
107.158 249.747 L
108.578 246.493 L
109.999 243.316 L
111.419 240.215 L
112.839 237.19 L
114.259 234.24 L
115.679 231.364 L
117.099 228.563 L
118.519 225.834 L
119.939 223.178 L
121.36 220.594 L
122.78 218.081 L
124.2 215.64 L
125.62 213.268 L
127.04 210.967 L
128.46 208.734 L
129.88 206.569 L
131.3 204.473 L
132.721 202.444 L
134.141 200.481 L
135.561 198.584 L
136.981 196.746 L
138.401 194.933 L
139.821 193.143 L
141.241 191.374 L
142.661 189.628 L
144.081 187.903 L
145.502 186.2 L
146.922 184.518 L
148.342 182.858 L
149.762 181.219 L
151.182 179.6 L
152.602 178.003 L
154.022 176.426 L
155.442 174.869 L
156.863 173.332 L
158.283 171.816 L
159.703 170.319 L
161.123 168.842 L
162.543 167.385 L
163.963 165.947 L
165.383 164.528 L
166.803 163.128 L
168.224 161.747 L
169.644 160.385 L
171.064 159.041 L
172.484 157.716 L
173.904 156.409 L
175.324 155.119 L
176.744 153.848 L
178.164 152.594 L
179.584 151.358 L
181.005 150.139 L
182.425 148.937 L
183.845 147.752 L
185.265 146.585 L
186.685 145.433 L
188.105 144.298 L
189.525 143.18 L
190.945 142.077 L
192.366 140.991 L
193.786 139.92 L
195.206 138.865 L
196.626 137.825 L
198.046 136.801 L
199.466 135.791 L
200.886 134.797 L
202.306 133.817 L
203.727 132.852 L
205.147 131.902 L
206.567 130.965 L
207.987 130.043 L
209.407 129.135 L
210.827 128.24 L
212.247 127.359 L
213.667 126.491 L
215.087 125.637 L
216.508 124.795 L
217.928 123.967 L
219.348 123.151 L
220.768 122.348 L
222.188 121.557 L
223.608 120.778 L
225.028 120.005 L
226.448 119.233 L
227.869 118.461 L
229.289 117.689 L
230.709 116.918 L
232.129 116.147 L
233.549 115.377 L
234.969 114.607 L
236.389 113.838 L
237.809 113.07 L
239.23 112.302 L
240.65 111.536 L
242.07 110.77 L
243.49 110.005 L
244.91 109.241 L
246.33 108.479 L
247.75 107.717 L
249.17 106.956 L
250.59 106.197 L
252.011 105.439 L
253.431 104.683 L
254.851 103.927 L
256.271 103.173 L
257.691 102.421 L
259.111 101.67 L
260.531 100.921 L
261.951 100.174 L
263.372 99.428 L
264.792 98.684 L
266.212 97.941 L
267.632 97.201 L
269.052 96.463 L
270.472 95.726 L
271.892 94.992 L
273.312 94.26 L
274.733 93.529 L
276.153 92.801 L
277.573 92.076 L
278.993 91.353 L
280.413 90.632 L
281.833 89.913 L
283.253 89.197 L
284.673 88.483 L
286.093 87.773 L
287.514 87.064 L
288.934 86.359 L
290.354 85.656 L
291.774 84.956 L
293.194 84.259 L
294.614 83.564 L
296.034 82.873 L
297.454 82.185 L
298.875 81.5 L
300.295 80.818 L
301.715 80.139 L
303.135 79.464 L
304.555 78.791 L
305.975 78.122 L
307.395 77.457 L
308.815 76.795 L
310.236 76.137 L
311.656 75.482 L
313.076 74.831 L
314.496 74.183 L
315.916 73.539 L
317.336 72.899 L
318.756 72.263 L
320.176 71.631 L
321.596 71.003 L
323.017 70.378 L
324.437 69.758 L
325.857 69.142 L
327.277 68.531 L
328.697 67.923 L
330.117 67.32 L
331.537 66.721 L
332.957 66.126 L
334.378 65.536 L
335.798 64.951 L
337.218 64.37 L
338.638 63.793 L
340.058 63.222 L
341.478 62.655 L
342.898 62.093 L
344.318 61.535 L
345.739 60.983 L
347.159 60.436 L
348.579 59.893 L
349.999 59.356 L
351.419 58.824 L
352.839 58.297 L
354.259 57.775 L
355.679 57.258 L
357.099 56.747 L
358.52 56.241 L
359.94 55.741 L
361.36 55.246 L
362.78 54.757 L
364.2 54.273 L
365.62 53.795 L
367.04 53.323 L
368.46 52.857 L
369.881 52.396 L
371.301 51.941 L
372.721 51.492 L
374.141 51.05 L
375.561 50.613 L
376.981 50.182 L
378.401 49.758 L
379.821 49.34 L
381.242 48.928 L
382.662 48.522 L
384.082 48.123 L
385.502 47.73 L
386.922 47.344 L
388.342 46.964 L
389.762 46.591 L
391.182 46.225 L
392.603 45.865 L
394.023 45.512 L
395.443 45.166 L
396.863 44.826 L
398.283 44.494 L
399.703 44.169 L
401.123 43.85 L
402.543 43.539 L
403.963 43.235 L
405.384 42.939 L
406.804 42.649 L
408.224 42.367 L
409.644 42.092 L
411.064 41.824 L
412.484 41.565 L
413.904 41.312 L
415.324 41.067 L
416.745 40.83 L
418.165 40.601 L
419.585 40.379 L
421.005 40.165 L
422.425 39.959 L
423.845 39.761 L
425.265 39.571 L
426.685 39.389 L
428.105 39.215 L
429.526 39.049 L
430.946 38.892 L
432.366 38.743 L
433.786 38.602 L
435.206 38.469 L
436.626 38.345 L
438.046 38.229 L
439.466 38.122 L
440.887 38.023 L
442.307 37.933 L
443.727 37.852 L
445.147 37.779 L
446.567 37.716 L
447.987 37.661 L
449.407 37.615 L
450.827 37.578 L
452.248 37.55 L
453.668 37.531 L
455.088 37.521 L
S
GR
GS
1 GC
N
499 366 M
499 218.5 L
327.5 218.5 L
327.5 366 L
cp
f
GR
GS
[1 0 0 1 364.5 228.25] CT
/Helvetica 13 F
GS
[1 0 0 1 0 0] CT
0 5 moveto 
1 -1 scale
(Base Run) t 
GR
GR
GS
0 0.447 0.741 RC
1 LJ
0.5 LW
N
331.5 228.25 M
361.5 228.25 L
S
GR
GS
[1 0 0 1 364.5 244.25] CT
/Helvetica 13 F
GS
[1 0 0 1 0 0] CT
0 5 moveto 
1 -1 scale
(All Frames) t 
GR
GR
GS
0.851 0.325 0.098 RC
1 LJ
0.5 LW
N
331.5 244.25 M
361.5 244.25 L
S
GR
GS
[1 0 0 1 364.5 260.25] CT
/Helvetica 13 F
GS
[1 0 0 1 0 0] CT
0 5 moveto 
1 -1 scale
(KF Only) t 
GR
GR
GS
0.929 0.694 0.125 RC
1 LJ
0.5 LW
N
331.5 260.25 M
361.5 260.25 L
S
GR
GS
[1 0 0 1 364.5 276.25] CT
/Helvetica 13 F
GS
[1 0 0 1 0 0] CT
0 5 moveto 
1 -1 scale
(GF, ARF Only) t 
GR
GR
GS
0.494 0.184 0.557 RC
1 LJ
0.5 LW
N
331.5 276.25 M
361.5 276.25 L
S
GR
GS
[1 0 0 1 364.5 292.25] CT
/Helvetica 13 F
GS
[1 0 0 1 0 0] CT
0 5 moveto 
1 -1 scale
(KF, GF, ARF Only) t 
GR
GR
GS
0.467 0.675 0.188 RC
1 LJ
0.5 LW
N
331.5 292.25 M
361.5 292.25 L
S
GR
GS
[1 0 0 1 364.5 308.25] CT
/Helvetica 13 F
GS
[1 0 0 1 0 0] CT
0 5 moveto 
1 -1 scale
(Part All Frames) t 
GR
GR
GS
0.302 0.745 0.933 RC
[10 6] 0 setdash
2 LJ
0.5 LW
N
331.5 308.25 M
361.5 308.25 L
S
GR
GS
[1 0 0 1 364.5 324.25] CT
/Helvetica 13 F
GS
[1 0 0 1 0 0] CT
0 5 moveto 
1 -1 scale
(Part KF Only) t 
GR
GR
GS
0.635 0.078 0.184 RC
[10 6] 0 setdash
2 LJ
0.5 LW
N
331.5 324.25 M
361.5 324.25 L
S
GR
GS
[1 0 0 1 364.5 340.25] CT
/Helvetica 13 F
GS
[1 0 0 1 0 0] CT
0 5 moveto 
1 -1 scale
(Part GF, ARF Only) t 
GR
GR
GS
0 0.447 0.741 RC
[10 6] 0 setdash
2 LJ
0.5 LW
N
331.5 340.25 M
361.5 340.25 L
S
GR
GS
[1 0 0 1 364.5 356.25] CT
/Helvetica 13 F
GS
[1 0 0 1 0 0] CT
0 5 moveto 
1 -1 scale
(Part KF, GF, ARF Only) t 
GR
GR
GS
0.851 0.325 0.098 RC
[10 6] 0 setdash
2 LJ
0.5 LW
N
331.5 356.25 M
361.5 356.25 L
S
GR
GS
0.149 GC
10.0 ML
0.5 LW
N
327.5 366 M
327.5 218.5 L
499 218.5 L
499 366 L
cp
S
GR
%%Trailer
%%Pages: 1
%%EOF
