%!PS-Adobe-3.0 EPSF-3.0
%%Creator: (MATLAB, The Mathworks, Inc. Version 9.11.0.1837725 \(R2021b\) Update 2. Operating System: Mac OS X)
%%Title: plots/pchip/CoverSong_1080P-1b0c.y4m-av1-APSNRY.eps
%%CreationDate: 2022-02-03T19:12:49
%%Pages: (atend)
%%BoundingBox:    33   425   508   826
%%LanguageLevel: 3
%%EndComments
%%BeginProlog
%%BeginResource: procset (Apache XML Graphics Std ProcSet) 1.2 0
%%Version: 1.2 0
%%Copyright: (Copyright 2001-2003,2010 The Apache Software Foundation. License terms: http://www.apache.org/licenses/LICENSE-2.0)
/bd{bind def}bind def
/ld{load def}bd
/GR/grestore ld
/GS/gsave ld
/RM/rmoveto ld
/C/curveto ld
/t/show ld
/L/lineto ld
/ML/setmiterlimit ld
/CT/concat ld
/f/fill ld
/N/newpath ld
/S/stroke ld
/CC/setcmykcolor ld
/A/ashow ld
/cp/closepath ld
/RC/setrgbcolor ld
/LJ/setlinejoin ld
/GC/setgray ld
/LW/setlinewidth ld
/M/moveto ld
/re {4 2 roll M
1 index 0 rlineto
0 exch rlineto
neg 0 rlineto
cp } bd
/_ctm matrix def
/_tm matrix def
/BT { _ctm currentmatrix pop matrix _tm copy pop 0 0 moveto } bd
/ET { _ctm setmatrix } bd
/iTm { _ctm setmatrix _tm concat } bd
/Tm { _tm astore pop iTm 0 0 moveto } bd
/ux 0.0 def
/uy 0.0 def
/F {
  /Tp exch def
  /Tf exch def
  Tf findfont Tp scalefont setfont
  /cf Tf def  /cs Tp def
} bd
/ULS {currentpoint /uy exch def /ux exch def} bd
/ULE {
  /Tcx currentpoint pop def
  gsave
  newpath
  cf findfont cs scalefont dup
  /FontMatrix get 0 get /Ts exch def /FontInfo get dup
  /UnderlinePosition get Ts mul /To exch def
  /UnderlineThickness get Ts mul /Tt exch def
  ux uy To add moveto  Tcx uy To add lineto
  Tt setlinewidth stroke
  grestore
} bd
/OLE {
  /Tcx currentpoint pop def
  gsave
  newpath
  cf findfont cs scalefont dup
  /FontMatrix get 0 get /Ts exch def /FontInfo get dup
  /UnderlinePosition get Ts mul /To exch def
  /UnderlineThickness get Ts mul /Tt exch def
  ux uy To add cs add moveto Tcx uy To add cs add lineto
  Tt setlinewidth stroke
  grestore
} bd
/SOE {
  /Tcx currentpoint pop def
  gsave
  newpath
  cf findfont cs scalefont dup
  /FontMatrix get 0 get /Ts exch def /FontInfo get dup
  /UnderlinePosition get Ts mul /To exch def
  /UnderlineThickness get Ts mul /Tt exch def
  ux uy To add cs 10 mul 26 idiv add moveto Tcx uy To add cs 10 mul 26 idiv add lineto
  Tt setlinewidth stroke
  grestore
} bd
/QT {
/Y22 exch store
/X22 exch store
/Y21 exch store
/X21 exch store
currentpoint
/Y21 load 2 mul add 3 div exch
/X21 load 2 mul add 3 div exch
/X21 load 2 mul /X22 load add 3 div
/Y21 load 2 mul /Y22 load add 3 div
/X22 load /Y22 load curveto
} bd
/SSPD {
dup length /d exch dict def
{
/v exch def
/k exch def
currentpagedevice k known {
/cpdv currentpagedevice k get def
v cpdv ne {
/upd false def
/nullv v type /nulltype eq def
/nullcpdv cpdv type /nulltype eq def
nullv nullcpdv or
{
/upd true def
} {
/sametype v type cpdv type eq def
sametype {
v type /arraytype eq {
/vlen v length def
/cpdvlen cpdv length def
vlen cpdvlen eq {
0 1 vlen 1 sub {
/i exch def
/obj v i get def
/cpdobj cpdv i get def
obj cpdobj ne {
/upd true def
exit
} if
} for
} {
/upd true def
} ifelse
} {
v type /dicttype eq {
v {
/dv exch def
/dk exch def
/cpddv cpdv dk get def
dv cpddv ne {
/upd true def
exit
} if
} forall
} {
/upd true def
} ifelse
} ifelse
} if
} ifelse
upd true eq {
d k v put
} if
} if
} if
} forall
d length 0 gt {
d setpagedevice
} if
} bd
/RE { % /NewFontName [NewEncodingArray] /FontName RE -
  findfont dup length dict begin
  {
    1 index /FID ne
    {def} {pop pop} ifelse
  } forall
  /Encoding exch def
  /FontName 1 index def
  currentdict definefont pop
  end
} bind def
%%EndResource
%%BeginResource: procset (Apache XML Graphics EPS ProcSet) 1.0 0
%%Version: 1.0 0
%%Copyright: (Copyright 2002-2003 The Apache Software Foundation. License terms: http://www.apache.org/licenses/LICENSE-2.0)
/BeginEPSF { %def
/b4_Inc_state save def         % Save state for cleanup
/dict_count countdictstack def % Count objects on dict stack
/op_count count 1 sub def      % Count objects on operand stack
userdict begin                 % Push userdict on dict stack
/showpage { } def              % Redefine showpage, { } = null proc
0 setgray 0 setlinecap         % Prepare graphics state
1 setlinewidth 0 setlinejoin
10 setmiterlimit [ ] 0 setdash newpath
/languagelevel where           % If level not equal to 1 then
{pop languagelevel             % set strokeadjust and
1 ne                           % overprint to their defaults.
{false setstrokeadjust false setoverprint
} if
} if
} bd
/EndEPSF { %def
count op_count sub {pop} repeat            % Clean up stacks
countdictstack dict_count sub {end} repeat
b4_Inc_state restore
} bd
%%EndResource
%FOPBeginFontDict
%%IncludeResource: font Courier-Oblique
%%IncludeResource: font Courier-BoldOblique
%%IncludeResource: font Courier-Bold
%%IncludeResource: font ZapfDingbats
%%IncludeResource: font Symbol
%%IncludeResource: font Helvetica
%%IncludeResource: font Helvetica-Oblique
%%IncludeResource: font Helvetica-Bold
%%IncludeResource: font Helvetica-BoldOblique
%%IncludeResource: font Times-Roman
%%IncludeResource: font Times-Italic
%%IncludeResource: font Times-Bold
%%IncludeResource: font Times-BoldItalic
%%IncludeResource: font Courier
%FOPEndFontDict
%%BeginResource: encoding WinAnsiEncoding
/WinAnsiEncoding [
/.notdef /.notdef /.notdef /.notdef /.notdef
/.notdef /.notdef /.notdef /.notdef /.notdef
/.notdef /.notdef /.notdef /.notdef /.notdef
/.notdef /.notdef /.notdef /.notdef /.notdef
/.notdef /.notdef /.notdef /.notdef /.notdef
/.notdef /.notdef /.notdef /.notdef /.notdef
/.notdef /.notdef /space /exclam /quotedbl
/numbersign /dollar /percent /ampersand /quotesingle
/parenleft /parenright /asterisk /plus /comma
/hyphen /period /slash /zero /one
/two /three /four /five /six
/seven /eight /nine /colon /semicolon
/less /equal /greater /question /at
/A /B /C /D /E
/F /G /H /I /J
/K /L /M /N /O
/P /Q /R /S /T
/U /V /W /X /Y
/Z /bracketleft /backslash /bracketright /asciicircum
/underscore /quoteleft /a /b /c
/d /e /f /g /h
/i /j /k /l /m
/n /o /p /q /r
/s /t /u /v /w
/x /y /z /braceleft /bar
/braceright /asciitilde /bullet /Euro /bullet
/quotesinglbase /florin /quotedblbase /ellipsis /dagger
/daggerdbl /circumflex /perthousand /Scaron /guilsinglleft
/OE /bullet /Zcaron /bullet /bullet
/quoteleft /quoteright /quotedblleft /quotedblright /bullet
/endash /emdash /asciitilde /trademark /scaron
/guilsinglright /oe /bullet /zcaron /Ydieresis
/space /exclamdown /cent /sterling /currency
/yen /brokenbar /section /dieresis /copyright
/ordfeminine /guillemotleft /logicalnot /sfthyphen /registered
/macron /degree /plusminus /twosuperior /threesuperior
/acute /mu /paragraph /middot /cedilla
/onesuperior /ordmasculine /guillemotright /onequarter /onehalf
/threequarters /questiondown /Agrave /Aacute /Acircumflex
/Atilde /Adieresis /Aring /AE /Ccedilla
/Egrave /Eacute /Ecircumflex /Edieresis /Igrave
/Iacute /Icircumflex /Idieresis /Eth /Ntilde
/Ograve /Oacute /Ocircumflex /Otilde /Odieresis
/multiply /Oslash /Ugrave /Uacute /Ucircumflex
/Udieresis /Yacute /Thorn /germandbls /agrave
/aacute /acircumflex /atilde /adieresis /aring
/ae /ccedilla /egrave /eacute /ecircumflex
/edieresis /igrave /iacute /icircumflex /idieresis
/eth /ntilde /ograve /oacute /ocircumflex
/otilde /odieresis /divide /oslash /ugrave
/uacute /ucircumflex /udieresis /yacute /thorn
/ydieresis
] def
%%EndResource
%FOPBeginFontReencode
/Courier-Oblique findfont
dup length dict begin
  {1 index /FID ne {def} {pop pop} ifelse} forall
  /Encoding WinAnsiEncoding def
  currentdict
end
/Courier-Oblique exch definefont pop
/Courier-BoldOblique findfont
dup length dict begin
  {1 index /FID ne {def} {pop pop} ifelse} forall
  /Encoding WinAnsiEncoding def
  currentdict
end
/Courier-BoldOblique exch definefont pop
/Courier-Bold findfont
dup length dict begin
  {1 index /FID ne {def} {pop pop} ifelse} forall
  /Encoding WinAnsiEncoding def
  currentdict
end
/Courier-Bold exch definefont pop
/Helvetica findfont
dup length dict begin
  {1 index /FID ne {def} {pop pop} ifelse} forall
  /Encoding WinAnsiEncoding def
  currentdict
end
/Helvetica exch definefont pop
/Helvetica-Oblique findfont
dup length dict begin
  {1 index /FID ne {def} {pop pop} ifelse} forall
  /Encoding WinAnsiEncoding def
  currentdict
end
/Helvetica-Oblique exch definefont pop
/Helvetica-Bold findfont
dup length dict begin
  {1 index /FID ne {def} {pop pop} ifelse} forall
  /Encoding WinAnsiEncoding def
  currentdict
end
/Helvetica-Bold exch definefont pop
/Helvetica-BoldOblique findfont
dup length dict begin
  {1 index /FID ne {def} {pop pop} ifelse} forall
  /Encoding WinAnsiEncoding def
  currentdict
end
/Helvetica-BoldOblique exch definefont pop
/Times-Roman findfont
dup length dict begin
  {1 index /FID ne {def} {pop pop} ifelse} forall
  /Encoding WinAnsiEncoding def
  currentdict
end
/Times-Roman exch definefont pop
/Times-Italic findfont
dup length dict begin
  {1 index /FID ne {def} {pop pop} ifelse} forall
  /Encoding WinAnsiEncoding def
  currentdict
end
/Times-Italic exch definefont pop
/Times-Bold findfont
dup length dict begin
  {1 index /FID ne {def} {pop pop} ifelse} forall
  /Encoding WinAnsiEncoding def
  currentdict
end
/Times-Bold exch definefont pop
/Times-BoldItalic findfont
dup length dict begin
  {1 index /FID ne {def} {pop pop} ifelse} forall
  /Encoding WinAnsiEncoding def
  currentdict
end
/Times-BoldItalic exch definefont pop
/Courier findfont
dup length dict begin
  {1 index /FID ne {def} {pop pop} ifelse} forall
  /Encoding WinAnsiEncoding def
  currentdict
end
/Courier exch definefont pop
%FOPEndFontReencode
%%EndProlog
%%Page: 1 1
%%PageBoundingBox: 0 0 1120 840
%%BeginPageSetup
[1 0 0 -1 0 840] CT
%%EndPageSetup
GS
1 GC
N
0 0 1120 840 re
f
GR
GS
1 GC
N
73 374 M
507 374 L
507 31.5 L
73 31.5 L
cp
f
GR
GS
0.149 GC
2 setlinecap
1 LJ
0.5 LW
N
73 374 M
507 374 L
S
GR
GS
0.149 GC
2 setlinecap
1 LJ
0.5 LW
N
73 31.5 M
507 31.5 L
S
GR
GS
0.149 GC
2 setlinecap
1 LJ
0.5 LW
N
117.551 374 M
117.551 369.66 L
S
GR
GS
0.149 GC
2 setlinecap
1 LJ
0.5 LW
N
188.557 374 M
188.557 369.66 L
S
GR
GS
0.149 GC
2 setlinecap
1 LJ
0.5 LW
N
259.563 374 M
259.563 369.66 L
S
GR
GS
0.149 GC
2 setlinecap
1 LJ
0.5 LW
N
330.569 374 M
330.569 369.66 L
S
GR
GS
0.149 GC
2 setlinecap
1 LJ
0.5 LW
N
401.575 374 M
401.575 369.66 L
S
GR
GS
0.149 GC
2 setlinecap
1 LJ
0.5 LW
N
472.581 374 M
472.581 369.66 L
S
GR
GS
0.149 GC
2 setlinecap
1 LJ
0.5 LW
N
117.551 31.5 M
117.551 35.84 L
S
GR
GS
0.149 GC
2 setlinecap
1 LJ
0.5 LW
N
188.557 31.5 M
188.557 35.84 L
S
GR
GS
0.149 GC
2 setlinecap
1 LJ
0.5 LW
N
259.563 31.5 M
259.563 35.84 L
S
GR
GS
0.149 GC
2 setlinecap
1 LJ
0.5 LW
N
330.569 31.5 M
330.569 35.84 L
S
GR
GS
0.149 GC
2 setlinecap
1 LJ
0.5 LW
N
401.575 31.5 M
401.575 35.84 L
S
GR
GS
0.149 GC
2 setlinecap
1 LJ
0.5 LW
N
472.581 31.5 M
472.581 35.84 L
S
GR
GS
0.149 GC
2 setlinecap
1 LJ
0.5 LW
N
74.947 374 M
74.947 371.83 L
S
GR
GS
0.149 GC
2 setlinecap
1 LJ
0.5 LW
N
89.148 374 M
89.148 371.83 L
S
GR
GS
0.149 GC
2 setlinecap
1 LJ
0.5 LW
N
103.349 374 M
103.349 371.83 L
S
GR
GS
0.149 GC
2 setlinecap
1 LJ
0.5 LW
N
131.752 374 M
131.752 371.83 L
S
GR
GS
0.149 GC
2 setlinecap
1 LJ
0.5 LW
N
145.953 374 M
145.953 371.83 L
S
GR
GS
0.149 GC
2 setlinecap
1 LJ
0.5 LW
N
160.154 374 M
160.154 371.83 L
S
GR
GS
0.149 GC
2 setlinecap
1 LJ
0.5 LW
N
174.355 374 M
174.355 371.83 L
S
GR
GS
0.149 GC
2 setlinecap
1 LJ
0.5 LW
N
202.758 374 M
202.758 371.83 L
S
GR
GS
0.149 GC
2 setlinecap
1 LJ
0.5 LW
N
216.959 374 M
216.959 371.83 L
S
GR
GS
0.149 GC
2 setlinecap
1 LJ
0.5 LW
N
231.16 374 M
231.16 371.83 L
S
GR
GS
0.149 GC
2 setlinecap
1 LJ
0.5 LW
N
245.361 374 M
245.361 371.83 L
S
GR
GS
0.149 GC
2 setlinecap
1 LJ
0.5 LW
N
273.764 374 M
273.764 371.83 L
S
GR
GS
0.149 GC
2 setlinecap
1 LJ
0.5 LW
N
287.965 374 M
287.965 371.83 L
S
GR
GS
0.149 GC
2 setlinecap
1 LJ
0.5 LW
N
302.166 374 M
302.166 371.83 L
S
GR
GS
0.149 GC
2 setlinecap
1 LJ
0.5 LW
N
316.367 374 M
316.367 371.83 L
S
GR
GS
0.149 GC
2 setlinecap
1 LJ
0.5 LW
N
344.77 374 M
344.77 371.83 L
S
GR
GS
0.149 GC
2 setlinecap
1 LJ
0.5 LW
N
358.971 374 M
358.971 371.83 L
S
GR
GS
0.149 GC
2 setlinecap
1 LJ
0.5 LW
N
373.172 374 M
373.172 371.83 L
S
GR
GS
0.149 GC
2 setlinecap
1 LJ
0.5 LW
N
387.373 374 M
387.373 371.83 L
S
GR
GS
0.149 GC
2 setlinecap
1 LJ
0.5 LW
N
415.776 374 M
415.776 371.83 L
S
GR
GS
0.149 GC
2 setlinecap
1 LJ
0.5 LW
N
429.977 374 M
429.977 371.83 L
S
GR
GS
0.149 GC
2 setlinecap
1 LJ
0.5 LW
N
444.178 374 M
444.178 371.83 L
S
GR
GS
0.149 GC
2 setlinecap
1 LJ
0.5 LW
N
458.379 374 M
458.379 371.83 L
S
GR
GS
0.149 GC
2 setlinecap
1 LJ
0.5 LW
N
486.782 374 M
486.782 371.83 L
S
GR
GS
0.149 GC
2 setlinecap
1 LJ
0.5 LW
N
500.983 374 M
500.983 371.83 L
S
GR
GS
0.149 GC
2 setlinecap
1 LJ
0.5 LW
N
74.947 31.5 M
74.947 33.67 L
S
GR
GS
0.149 GC
2 setlinecap
1 LJ
0.5 LW
N
89.148 31.5 M
89.148 33.67 L
S
GR
GS
0.149 GC
2 setlinecap
1 LJ
0.5 LW
N
103.349 31.5 M
103.349 33.67 L
S
GR
GS
0.149 GC
2 setlinecap
1 LJ
0.5 LW
N
131.752 31.5 M
131.752 33.67 L
S
GR
GS
0.149 GC
2 setlinecap
1 LJ
0.5 LW
N
145.953 31.5 M
145.953 33.67 L
S
GR
GS
0.149 GC
2 setlinecap
1 LJ
0.5 LW
N
160.154 31.5 M
160.154 33.67 L
S
GR
GS
0.149 GC
2 setlinecap
1 LJ
0.5 LW
N
174.355 31.5 M
174.355 33.67 L
S
GR
GS
0.149 GC
2 setlinecap
1 LJ
0.5 LW
N
202.758 31.5 M
202.758 33.67 L
S
GR
GS
0.149 GC
2 setlinecap
1 LJ
0.5 LW
N
216.959 31.5 M
216.959 33.67 L
S
GR
GS
0.149 GC
2 setlinecap
1 LJ
0.5 LW
N
231.16 31.5 M
231.16 33.67 L
S
GR
GS
0.149 GC
2 setlinecap
1 LJ
0.5 LW
N
245.361 31.5 M
245.361 33.67 L
S
GR
GS
0.149 GC
2 setlinecap
1 LJ
0.5 LW
N
273.764 31.5 M
273.764 33.67 L
S
GR
GS
0.149 GC
2 setlinecap
1 LJ
0.5 LW
N
287.965 31.5 M
287.965 33.67 L
S
GR
GS
0.149 GC
2 setlinecap
1 LJ
0.5 LW
N
302.166 31.5 M
302.166 33.67 L
S
GR
GS
0.149 GC
2 setlinecap
1 LJ
0.5 LW
N
316.367 31.5 M
316.367 33.67 L
S
GR
GS
0.149 GC
2 setlinecap
1 LJ
0.5 LW
N
344.77 31.5 M
344.77 33.67 L
S
GR
GS
0.149 GC
2 setlinecap
1 LJ
0.5 LW
N
358.971 31.5 M
358.971 33.67 L
S
GR
GS
0.149 GC
2 setlinecap
1 LJ
0.5 LW
N
373.172 31.5 M
373.172 33.67 L
S
GR
GS
0.149 GC
2 setlinecap
1 LJ
0.5 LW
N
387.373 31.5 M
387.373 33.67 L
S
GR
GS
0.149 GC
2 setlinecap
1 LJ
0.5 LW
N
415.776 31.5 M
415.776 33.67 L
S
GR
GS
0.149 GC
2 setlinecap
1 LJ
0.5 LW
N
429.977 31.5 M
429.977 33.67 L
S
GR
GS
0.149 GC
2 setlinecap
1 LJ
0.5 LW
N
444.178 31.5 M
444.178 33.67 L
S
GR
GS
0.149 GC
2 setlinecap
1 LJ
0.5 LW
N
458.379 31.5 M
458.379 33.67 L
S
GR
GS
0.149 GC
2 setlinecap
1 LJ
0.5 LW
N
486.782 31.5 M
486.782 33.67 L
S
GR
GS
0.149 GC
2 setlinecap
1 LJ
0.5 LW
N
500.983 31.5 M
500.983 33.67 L
S
GR
GS
[1 0 0 1 117.5506 378.79999] CT
0.149 GC
/Helvetica 14 F
GS
[1 0 0 1 0 0] CT
-16 14 moveto 
1 -1 scale
(1000) t 
GR
GR
GS
[1 0 0 1 188.55661 378.79999] CT
0.149 GC
/Helvetica 14 F
GS
[1 0 0 1 0 0] CT
-16 14 moveto 
1 -1 scale
(2000) t 
GR
GR
GS
[1 0 0 1 259.56262 378.79999] CT
0.149 GC
/Helvetica 14 F
GS
[1 0 0 1 0 0] CT
-16 14 moveto 
1 -1 scale
(3000) t 
GR
GR
GS
[1 0 0 1 330.56863 378.79999] CT
0.149 GC
/Helvetica 14 F
GS
[1 0 0 1 0 0] CT
-16 14 moveto 
1 -1 scale
(4000) t 
GR
GR
GS
[1 0 0 1 401.57465 378.79999] CT
0.149 GC
/Helvetica 14 F
GS
[1 0 0 1 0 0] CT
-16 14 moveto 
1 -1 scale
(5000) t 
GR
GR
GS
[1 0 0 1 472.58063 378.79999] CT
0.149 GC
/Helvetica 14 F
GS
[1 0 0 1 0 0] CT
-16 14 moveto 
1 -1 scale
(6000) t 
GR
GR
GS
[1 0 0 1 290.00021 396.29993] CT
0.149 GC
/Helvetica 15.4 F
GS
[1 0 0 1 0 0] CT
-42 15 moveto 
1 -1 scale
(Bitrate\(kb/s\)) t 
GR
GR
GS
0.149 GC
2 setlinecap
1 LJ
0.5 LW
N
73 374 M
73 31.5 L
S
GR
GS
0.149 GC
2 setlinecap
1 LJ
0.5 LW
N
507 374 M
507 31.5 L
S
GR
GS
0.149 GC
2 setlinecap
1 LJ
0.5 LW
N
73 358.54 M
77.34 358.54 L
S
GR
GS
0.149 GC
2 setlinecap
1 LJ
0.5 LW
N
73 323.535 M
77.34 323.535 L
S
GR
GS
0.149 GC
2 setlinecap
1 LJ
0.5 LW
N
73 288.53 M
77.34 288.53 L
S
GR
GS
0.149 GC
2 setlinecap
1 LJ
0.5 LW
N
73 253.525 M
77.34 253.525 L
S
GR
GS
0.149 GC
2 setlinecap
1 LJ
0.5 LW
N
73 218.519 M
77.34 218.519 L
S
GR
GS
0.149 GC
2 setlinecap
1 LJ
0.5 LW
N
73 183.514 M
77.34 183.514 L
S
GR
GS
0.149 GC
2 setlinecap
1 LJ
0.5 LW
N
73 148.509 M
77.34 148.509 L
S
GR
GS
0.149 GC
2 setlinecap
1 LJ
0.5 LW
N
73 113.504 M
77.34 113.504 L
S
GR
GS
0.149 GC
2 setlinecap
1 LJ
0.5 LW
N
73 78.498 M
77.34 78.498 L
S
GR
GS
0.149 GC
2 setlinecap
1 LJ
0.5 LW
N
73 43.493 M
77.34 43.493 L
S
GR
GS
0.149 GC
2 setlinecap
1 LJ
0.5 LW
N
507 358.54 M
502.66 358.54 L
S
GR
GS
0.149 GC
2 setlinecap
1 LJ
0.5 LW
N
507 323.535 M
502.66 323.535 L
S
GR
GS
0.149 GC
2 setlinecap
1 LJ
0.5 LW
N
507 288.53 M
502.66 288.53 L
S
GR
GS
0.149 GC
2 setlinecap
1 LJ
0.5 LW
N
507 253.525 M
502.66 253.525 L
S
GR
GS
0.149 GC
2 setlinecap
1 LJ
0.5 LW
N
507 218.519 M
502.66 218.519 L
S
GR
GS
0.149 GC
2 setlinecap
1 LJ
0.5 LW
N
507 183.514 M
502.66 183.514 L
S
GR
GS
0.149 GC
2 setlinecap
1 LJ
0.5 LW
N
507 148.509 M
502.66 148.509 L
S
GR
GS
0.149 GC
2 setlinecap
1 LJ
0.5 LW
N
507 113.504 M
502.66 113.504 L
S
GR
GS
0.149 GC
2 setlinecap
1 LJ
0.5 LW
N
507 78.498 M
502.66 78.498 L
S
GR
GS
0.149 GC
2 setlinecap
1 LJ
0.5 LW
N
507 43.493 M
502.66 43.493 L
S
GR
GS
0.149 GC
2 setlinecap
1 LJ
0.5 LW
N
73 372.542 M
75.17 372.542 L
S
GR
GS
0.149 GC
2 setlinecap
1 LJ
0.5 LW
N
73 365.541 M
75.17 365.541 L
S
GR
GS
0.149 GC
2 setlinecap
1 LJ
0.5 LW
N
73 351.539 M
75.17 351.539 L
S
GR
GS
0.149 GC
2 setlinecap
1 LJ
0.5 LW
N
73 344.538 M
75.17 344.538 L
S
GR
GS
0.149 GC
2 setlinecap
1 LJ
0.5 LW
N
73 337.537 M
75.17 337.537 L
S
GR
GS
0.149 GC
2 setlinecap
1 LJ
0.5 LW
N
73 330.536 M
75.17 330.536 L
S
GR
GS
0.149 GC
2 setlinecap
1 LJ
0.5 LW
N
73 316.534 M
75.17 316.534 L
S
GR
GS
0.149 GC
2 setlinecap
1 LJ
0.5 LW
N
73 309.533 M
75.17 309.533 L
S
GR
GS
0.149 GC
2 setlinecap
1 LJ
0.5 LW
N
73 302.532 M
75.17 302.532 L
S
GR
GS
0.149 GC
2 setlinecap
1 LJ
0.5 LW
N
73 295.531 M
75.17 295.531 L
S
GR
GS
0.149 GC
2 setlinecap
1 LJ
0.5 LW
N
73 281.529 M
75.17 281.529 L
S
GR
GS
0.149 GC
2 setlinecap
1 LJ
0.5 LW
N
73 274.528 M
75.17 274.528 L
S
GR
GS
0.149 GC
2 setlinecap
1 LJ
0.5 LW
N
73 267.527 M
75.17 267.527 L
S
GR
GS
0.149 GC
2 setlinecap
1 LJ
0.5 LW
N
73 260.526 M
75.17 260.526 L
S
GR
GS
0.149 GC
2 setlinecap
1 LJ
0.5 LW
N
73 246.523 M
75.17 246.523 L
S
GR
GS
0.149 GC
2 setlinecap
1 LJ
0.5 LW
N
73 239.522 M
75.17 239.522 L
S
GR
GS
0.149 GC
2 setlinecap
1 LJ
0.5 LW
N
73 232.521 M
75.17 232.521 L
S
GR
GS
0.149 GC
2 setlinecap
1 LJ
0.5 LW
N
73 225.52 M
75.17 225.52 L
S
GR
GS
0.149 GC
2 setlinecap
1 LJ
0.5 LW
N
73 211.518 M
75.17 211.518 L
S
GR
GS
0.149 GC
2 setlinecap
1 LJ
0.5 LW
N
73 204.517 M
75.17 204.517 L
S
GR
GS
0.149 GC
2 setlinecap
1 LJ
0.5 LW
N
73 197.516 M
75.17 197.516 L
S
GR
GS
0.149 GC
2 setlinecap
1 LJ
0.5 LW
N
73 190.515 M
75.17 190.515 L
S
GR
GS
0.149 GC
2 setlinecap
1 LJ
0.5 LW
N
73 176.513 M
75.17 176.513 L
S
GR
GS
0.149 GC
2 setlinecap
1 LJ
0.5 LW
N
73 169.512 M
75.17 169.512 L
S
GR
GS
0.149 GC
2 setlinecap
1 LJ
0.5 LW
N
73 162.511 M
75.17 162.511 L
S
GR
GS
0.149 GC
2 setlinecap
1 LJ
0.5 LW
N
73 155.51 M
75.17 155.51 L
S
GR
GS
0.149 GC
2 setlinecap
1 LJ
0.5 LW
N
73 141.508 M
75.17 141.508 L
S
GR
GS
0.149 GC
2 setlinecap
1 LJ
0.5 LW
N
73 134.507 M
75.17 134.507 L
S
GR
GS
0.149 GC
2 setlinecap
1 LJ
0.5 LW
N
73 127.506 M
75.17 127.506 L
S
GR
GS
0.149 GC
2 setlinecap
1 LJ
0.5 LW
N
73 120.505 M
75.17 120.505 L
S
GR
GS
0.149 GC
2 setlinecap
1 LJ
0.5 LW
N
73 106.503 M
75.17 106.503 L
S
GR
GS
0.149 GC
2 setlinecap
1 LJ
0.5 LW
N
73 99.502 M
75.17 99.502 L
S
GR
GS
0.149 GC
2 setlinecap
1 LJ
0.5 LW
N
73 92.501 M
75.17 92.501 L
S
GR
GS
0.149 GC
2 setlinecap
1 LJ
0.5 LW
N
73 85.499 M
75.17 85.499 L
S
GR
GS
0.149 GC
2 setlinecap
1 LJ
0.5 LW
N
73 71.497 M
75.17 71.497 L
S
GR
GS
0.149 GC
2 setlinecap
1 LJ
0.5 LW
N
73 64.496 M
75.17 64.496 L
S
GR
GS
0.149 GC
2 setlinecap
1 LJ
0.5 LW
N
73 57.495 M
75.17 57.495 L
S
GR
GS
0.149 GC
2 setlinecap
1 LJ
0.5 LW
N
73 50.494 M
75.17 50.494 L
S
GR
GS
0.149 GC
2 setlinecap
1 LJ
0.5 LW
N
73 36.492 M
75.17 36.492 L
S
GR
GS
0.149 GC
2 setlinecap
1 LJ
0.5 LW
N
507 372.542 M
504.83 372.542 L
S
GR
GS
0.149 GC
2 setlinecap
1 LJ
0.5 LW
N
507 365.541 M
504.83 365.541 L
S
GR
GS
0.149 GC
2 setlinecap
1 LJ
0.5 LW
N
507 351.539 M
504.83 351.539 L
S
GR
GS
0.149 GC
2 setlinecap
1 LJ
0.5 LW
N
507 344.538 M
504.83 344.538 L
S
GR
GS
0.149 GC
2 setlinecap
1 LJ
0.5 LW
N
507 337.537 M
504.83 337.537 L
S
GR
GS
0.149 GC
2 setlinecap
1 LJ
0.5 LW
N
507 330.536 M
504.83 330.536 L
S
GR
GS
0.149 GC
2 setlinecap
1 LJ
0.5 LW
N
507 316.534 M
504.83 316.534 L
S
GR
GS
0.149 GC
2 setlinecap
1 LJ
0.5 LW
N
507 309.533 M
504.83 309.533 L
S
GR
GS
0.149 GC
2 setlinecap
1 LJ
0.5 LW
N
507 302.532 M
504.83 302.532 L
S
GR
GS
0.149 GC
2 setlinecap
1 LJ
0.5 LW
N
507 295.531 M
504.83 295.531 L
S
GR
GS
0.149 GC
2 setlinecap
1 LJ
0.5 LW
N
507 281.529 M
504.83 281.529 L
S
GR
GS
0.149 GC
2 setlinecap
1 LJ
0.5 LW
N
507 274.528 M
504.83 274.528 L
S
GR
GS
0.149 GC
2 setlinecap
1 LJ
0.5 LW
N
507 267.527 M
504.83 267.527 L
S
GR
GS
0.149 GC
2 setlinecap
1 LJ
0.5 LW
N
507 260.526 M
504.83 260.526 L
S
GR
GS
0.149 GC
2 setlinecap
1 LJ
0.5 LW
N
507 246.523 M
504.83 246.523 L
S
GR
GS
0.149 GC
2 setlinecap
1 LJ
0.5 LW
N
507 239.522 M
504.83 239.522 L
S
GR
GS
0.149 GC
2 setlinecap
1 LJ
0.5 LW
N
507 232.521 M
504.83 232.521 L
S
GR
GS
0.149 GC
2 setlinecap
1 LJ
0.5 LW
N
507 225.52 M
504.83 225.52 L
S
GR
GS
0.149 GC
2 setlinecap
1 LJ
0.5 LW
N
507 211.518 M
504.83 211.518 L
S
GR
GS
0.149 GC
2 setlinecap
1 LJ
0.5 LW
N
507 204.517 M
504.83 204.517 L
S
GR
GS
0.149 GC
2 setlinecap
1 LJ
0.5 LW
N
507 197.516 M
504.83 197.516 L
S
GR
GS
0.149 GC
2 setlinecap
1 LJ
0.5 LW
N
507 190.515 M
504.83 190.515 L
S
GR
GS
0.149 GC
2 setlinecap
1 LJ
0.5 LW
N
507 176.513 M
504.83 176.513 L
S
GR
GS
0.149 GC
2 setlinecap
1 LJ
0.5 LW
N
507 169.512 M
504.83 169.512 L
S
GR
GS
0.149 GC
2 setlinecap
1 LJ
0.5 LW
N
507 162.511 M
504.83 162.511 L
S
GR
GS
0.149 GC
2 setlinecap
1 LJ
0.5 LW
N
507 155.51 M
504.83 155.51 L
S
GR
GS
0.149 GC
2 setlinecap
1 LJ
0.5 LW
N
507 141.508 M
504.83 141.508 L
S
GR
GS
0.149 GC
2 setlinecap
1 LJ
0.5 LW
N
507 134.507 M
504.83 134.507 L
S
GR
GS
0.149 GC
2 setlinecap
1 LJ
0.5 LW
N
507 127.506 M
504.83 127.506 L
S
GR
GS
0.149 GC
2 setlinecap
1 LJ
0.5 LW
N
507 120.505 M
504.83 120.505 L
S
GR
GS
0.149 GC
2 setlinecap
1 LJ
0.5 LW
N
507 106.503 M
504.83 106.503 L
S
GR
GS
0.149 GC
2 setlinecap
1 LJ
0.5 LW
N
507 99.502 M
504.83 99.502 L
S
GR
GS
0.149 GC
2 setlinecap
1 LJ
0.5 LW
N
507 92.501 M
504.83 92.501 L
S
GR
GS
0.149 GC
2 setlinecap
1 LJ
0.5 LW
N
507 85.499 M
504.83 85.499 L
S
GR
GS
0.149 GC
2 setlinecap
1 LJ
0.5 LW
N
507 71.497 M
504.83 71.497 L
S
GR
GS
0.149 GC
2 setlinecap
1 LJ
0.5 LW
N
507 64.496 M
504.83 64.496 L
S
GR
GS
0.149 GC
2 setlinecap
1 LJ
0.5 LW
N
507 57.495 M
504.83 57.495 L
S
GR
GS
0.149 GC
2 setlinecap
1 LJ
0.5 LW
N
507 50.494 M
504.83 50.494 L
S
GR
GS
0.149 GC
2 setlinecap
1 LJ
0.5 LW
N
507 36.492 M
504.83 36.492 L
S
GR
GS
[1 0 0 1 68.2 358.54016] CT
0.149 GC
/Helvetica 14 F
GS
[1 0 0 1 0 0] CT
-16 5.5 moveto 
1 -1 scale
(37) t 
GR
GR
GS
[1 0 0 1 68.2 323.53494] CT
0.149 GC
/Helvetica 14 F
GS
[1 0 0 1 0 0] CT
-16 5.5 moveto 
1 -1 scale
(38) t 
GR
GR
GS
[1 0 0 1 68.2 288.52972] CT
0.149 GC
/Helvetica 14 F
GS
[1 0 0 1 0 0] CT
-16 5.5 moveto 
1 -1 scale
(39) t 
GR
GR
GS
[1 0 0 1 68.2 253.52451] CT
0.149 GC
/Helvetica 14 F
GS
[1 0 0 1 0 0] CT
-16 5.5 moveto 
1 -1 scale
(40) t 
GR
GR
GS
[1 0 0 1 68.2 218.51929] CT
0.149 GC
/Helvetica 14 F
GS
[1 0 0 1 0 0] CT
-16 5.5 moveto 
1 -1 scale
(41) t 
GR
GR
GS
[1 0 0 1 68.2 183.51407] CT
0.149 GC
/Helvetica 14 F
GS
[1 0 0 1 0 0] CT
-16 5.5 moveto 
1 -1 scale
(42) t 
GR
GR
GS
[1 0 0 1 68.2 148.50885] CT
0.149 GC
/Helvetica 14 F
GS
[1 0 0 1 0 0] CT
-16 5.5 moveto 
1 -1 scale
(43) t 
GR
GR
GS
[1 0 0 1 68.2 113.50364] CT
0.149 GC
/Helvetica 14 F
GS
[1 0 0 1 0 0] CT
-16 5.5 moveto 
1 -1 scale
(44) t 
GR
GR
GS
[1 0 0 1 68.2 78.49842] CT
0.149 GC
/Helvetica 14 F
GS
[1 0 0 1 0 0] CT
-16 5.5 moveto 
1 -1 scale
(45) t 
GR
GR
GS
[1 0 0 1 68.2 43.49321] CT
0.149 GC
/Helvetica 14 F
GS
[1 0 0 1 0 0] CT
-16 5.5 moveto 
1 -1 scale
(46) t 
GR
GR
GS
[0 -1 1 0 49.2 202.74982] CT
0.149 GC
/Helvetica 15.4 F
GS
[1 0 0 1 0 0] CT
-47 -4 moveto 
1 -1 scale
(APSNR Y\(dB\)) t 
GR
GR
GS
[1 0 0 1 290.00027 29.57493] CT
/Helvetica-Bold 15.4 F
GS
[1 0 0 1 0 0] CT
-121 -4 moveto 
1 -1 scale
(CoverSong_1080P-1b0c.y4m-av1) t 
GR
GR
GS
0 0.447 0.741 RC
1 LJ
0.5 LW
N
78.124 358.232 M
79.544 353.361 L
80.964 348.514 L
82.384 343.702 L
83.804 338.938 L
85.224 334.234 L
86.644 329.604 L
88.065 325.058 L
89.485 320.611 L
90.905 316.273 L
92.325 312.058 L
93.745 307.979 L
95.165 304.046 L
96.585 300.274 L
98.005 296.674 L
99.426 293.259 L
100.846 290.039 L
102.266 286.92 L
103.686 283.85 L
105.106 280.829 L
106.526 277.857 L
107.946 274.934 L
109.366 272.058 L
110.786 269.23 L
112.207 266.449 L
113.627 263.716 L
115.047 261.029 L
116.467 258.389 L
117.887 255.795 L
119.307 253.247 L
120.727 250.744 L
122.147 248.287 L
123.568 245.875 L
124.988 243.507 L
126.408 241.184 L
127.828 238.905 L
129.248 236.669 L
130.668 234.477 L
132.088 232.328 L
133.508 230.222 L
134.929 228.158 L
136.349 226.137 L
137.769 224.157 L
139.189 222.219 L
140.609 220.322 L
142.029 218.467 L
143.449 216.652 L
144.869 214.877 L
146.289 213.142 L
147.71 211.447 L
149.13 209.792 L
150.55 208.169 L
151.97 206.561 L
153.39 204.969 L
154.81 203.392 L
156.23 201.829 L
157.65 200.281 L
159.071 198.748 L
160.491 197.23 L
161.911 195.725 L
163.331 194.236 L
164.751 192.761 L
166.171 191.299 L
167.591 189.853 L
169.011 188.42 L
170.432 187.001 L
171.852 185.597 L
173.272 184.206 L
174.692 182.829 L
176.112 181.466 L
177.532 180.116 L
178.952 178.78 L
180.372 177.458 L
181.792 176.149 L
183.213 174.853 L
184.633 173.571 L
186.053 172.302 L
187.473 171.046 L
188.893 169.803 L
190.313 168.573 L
191.733 167.356 L
193.153 166.152 L
194.574 164.96 L
195.994 163.781 L
197.414 162.615 L
198.834 161.462 L
200.254 160.32 L
201.674 159.191 L
203.094 158.075 L
204.514 156.971 L
205.935 155.878 L
207.355 154.798 L
208.775 153.73 L
210.195 152.674 L
211.615 151.63 L
213.035 150.597 L
214.455 149.576 L
215.875 148.567 L
217.295 147.569 L
218.716 146.583 L
220.136 145.608 L
221.556 144.645 L
222.976 143.692 L
224.396 142.751 L
225.816 141.821 L
227.236 140.902 L
228.656 139.994 L
230.077 139.096 L
231.497 138.21 L
232.917 137.334 L
234.337 136.469 L
235.757 135.614 L
237.177 134.77 L
238.597 133.936 L
240.017 133.112 L
241.438 132.299 L
242.858 131.496 L
244.278 130.703 L
245.698 129.92 L
247.118 129.142 L
248.538 128.365 L
249.958 127.588 L
251.378 126.811 L
252.798 126.035 L
254.219 125.259 L
255.639 124.484 L
257.059 123.709 L
258.479 122.935 L
259.899 122.161 L
261.319 121.388 L
262.739 120.615 L
264.159 119.844 L
265.58 119.073 L
267 118.302 L
268.42 117.533 L
269.84 116.764 L
271.26 115.997 L
272.68 115.23 L
274.1 114.464 L
275.52 113.7 L
276.941 112.936 L
278.361 112.174 L
279.781 111.412 L
281.201 110.652 L
282.621 109.893 L
284.041 109.135 L
285.461 108.379 L
286.881 107.623 L
288.302 106.87 L
289.722 106.117 L
291.142 105.366 L
292.562 104.617 L
293.982 103.869 L
295.402 103.123 L
296.822 102.378 L
298.242 101.635 L
299.662 100.894 L
301.083 100.154 L
302.503 99.416 L
303.923 98.68 L
305.343 97.946 L
306.763 97.214 L
308.183 96.483 L
309.603 95.755 L
311.023 95.028 L
312.444 94.304 L
313.864 93.581 L
315.284 92.861 L
316.704 92.143 L
318.124 91.427 L
319.544 90.713 L
320.964 90.002 L
322.384 89.293 L
323.805 88.586 L
325.225 87.882 L
326.645 87.18 L
328.065 86.48 L
329.485 85.784 L
330.905 85.089 L
332.325 84.397 L
333.745 83.708 L
335.165 83.022 L
336.586 82.338 L
338.006 81.657 L
339.426 80.979 L
340.846 80.303 L
342.266 79.631 L
343.686 78.961 L
345.106 78.294 L
346.526 77.63 L
347.947 76.97 L
349.367 76.312 L
350.787 75.657 L
352.207 75.006 L
353.627 74.358 L
355.047 73.713 L
356.467 73.071 L
357.887 72.432 L
359.307 71.797 L
360.728 71.165 L
362.148 70.537 L
363.568 69.912 L
364.988 69.29 L
366.408 68.672 L
367.828 68.058 L
369.248 67.447 L
370.668 66.84 L
372.089 66.237 L
373.509 65.637 L
374.929 65.041 L
376.349 64.449 L
377.769 63.861 L
379.189 63.276 L
380.609 62.696 L
382.029 62.119 L
383.45 61.547 L
384.87 60.978 L
386.29 60.414 L
387.71 59.854 L
389.13 59.297 L
390.55 58.745 L
391.97 58.198 L
393.39 57.654 L
394.811 57.115 L
396.231 56.58 L
397.651 56.05 L
399.071 55.524 L
400.491 55.003 L
401.911 54.486 L
403.331 53.973 L
404.751 53.465 L
406.171 52.962 L
407.592 52.464 L
409.012 51.97 L
410.432 51.481 L
411.852 50.996 L
413.272 50.517 L
414.692 50.042 L
416.112 49.573 L
417.532 49.108 L
418.953 48.648 L
420.373 48.193 L
421.793 47.743 L
423.213 47.299 L
424.633 46.859 L
426.053 46.425 L
427.473 45.996 L
428.893 45.572 L
430.314 45.154 L
431.734 44.74 L
433.154 44.332 L
434.574 43.93 L
435.994 43.533 L
437.414 43.142 L
438.834 42.756 L
440.254 42.375 L
441.674 42 L
443.095 41.631 L
444.515 41.268 L
445.935 40.91 L
447.355 40.558 L
448.775 40.212 L
450.195 39.872 L
451.615 39.537 L
453.035 39.209 L
454.456 38.886 L
455.876 38.57 L
457.296 38.259 L
458.716 37.955 L
460.136 37.656 L
461.556 37.364 L
462.976 37.078 L
464.396 36.798 L
465.817 36.525 L
467.237 36.258 L
468.657 35.997 L
470.077 35.743 L
471.497 35.495 L
472.917 35.253 L
474.337 35.018 L
475.757 34.79 L
477.177 34.568 L
478.598 34.353 L
480.018 34.144 L
481.438 33.942 L
482.858 33.747 L
484.278 33.559 L
485.698 33.377 L
487.118 33.203 L
488.538 33.035 L
489.959 32.874 L
491.379 32.72 L
492.799 32.573 L
494.219 32.434 L
495.639 32.301 L
497.059 32.176 L
498.479 32.057 L
499.899 31.946 L
501.32 31.842 L
502.74 31.746 L
504.16 31.656 L
505.58 31.574 L
507 31.5 L
S
GR
GS
0.851 0.325 0.098 RC
1 LJ
0.5 LW
N
74.567 374 M
75.988 368.415 L
77.408 362.863 L
78.828 357.362 L
80.248 351.931 L
81.668 346.589 L
83.088 341.353 L
84.508 336.241 L
85.928 331.273 L
87.348 326.465 L
88.769 321.838 L
90.189 317.408 L
91.609 313.194 L
93.029 309.214 L
94.449 305.485 L
95.869 301.9 L
97.289 298.377 L
98.709 294.918 L
100.13 291.521 L
101.55 288.186 L
102.97 284.913 L
104.39 281.701 L
105.81 278.551 L
107.23 275.461 L
108.65 272.433 L
110.07 269.465 L
111.491 266.557 L
112.911 263.708 L
114.331 260.92 L
115.751 258.191 L
117.171 255.52 L
118.591 252.909 L
120.011 250.356 L
121.431 247.861 L
122.852 245.424 L
124.272 243.044 L
125.692 240.722 L
127.112 238.456 L
128.532 236.248 L
129.952 234.096 L
131.372 232 L
132.792 229.96 L
134.212 227.975 L
135.633 226.046 L
137.053 224.171 L
138.473 222.33 L
139.893 220.51 L
141.313 218.71 L
142.733 216.93 L
144.153 215.17 L
145.573 213.429 L
146.994 211.708 L
148.414 210.007 L
149.834 208.325 L
151.254 206.663 L
152.674 205.019 L
154.094 203.394 L
155.514 201.789 L
156.934 200.201 L
158.355 198.633 L
159.775 197.082 L
161.195 195.55 L
162.615 194.037 L
164.035 192.541 L
165.455 191.063 L
166.875 189.602 L
168.295 188.159 L
169.715 186.734 L
171.136 185.326 L
172.556 183.935 L
173.976 182.561 L
175.396 181.204 L
176.816 179.864 L
178.236 178.54 L
179.656 177.233 L
181.076 175.942 L
182.497 174.667 L
183.917 173.409 L
185.337 172.166 L
186.757 170.939 L
188.177 169.727 L
189.597 168.532 L
191.017 167.351 L
192.437 166.186 L
193.858 165.036 L
195.278 163.9 L
196.698 162.78 L
198.118 161.674 L
199.538 160.583 L
200.958 159.506 L
202.378 158.443 L
203.798 157.395 L
205.218 156.36 L
206.639 155.339 L
208.059 154.332 L
209.479 153.339 L
210.899 152.359 L
212.319 151.392 L
213.739 150.438 L
215.159 149.498 L
216.579 148.57 L
218 147.655 L
219.42 146.752 L
220.84 145.862 L
222.26 144.98 L
223.68 144.097 L
225.1 143.215 L
226.52 142.334 L
227.94 141.453 L
229.361 140.573 L
230.781 139.693 L
232.201 138.814 L
233.621 137.936 L
235.041 137.058 L
236.461 136.182 L
237.881 135.306 L
239.301 134.431 L
240.721 133.558 L
242.142 132.685 L
243.562 131.814 L
244.982 130.944 L
246.402 130.075 L
247.822 129.208 L
249.242 128.341 L
250.662 127.477 L
252.082 126.614 L
253.503 125.752 L
254.923 124.892 L
256.343 124.034 L
257.763 123.177 L
259.183 122.322 L
260.603 121.469 L
262.023 120.618 L
263.443 119.769 L
264.864 118.922 L
266.284 118.077 L
267.704 117.234 L
269.124 116.393 L
270.544 115.554 L
271.964 114.718 L
273.384 113.884 L
274.804 113.053 L
276.224 112.224 L
277.645 111.398 L
279.065 110.574 L
280.485 109.752 L
281.905 108.934 L
283.325 108.118 L
284.745 107.305 L
286.165 106.495 L
287.585 105.688 L
289.006 104.883 L
290.426 104.082 L
291.846 103.284 L
293.266 102.489 L
294.686 101.697 L
296.106 100.909 L
297.526 100.124 L
298.946 99.342 L
300.367 98.564 L
301.787 97.789 L
303.207 97.017 L
304.627 96.25 L
306.047 95.486 L
307.467 94.726 L
308.887 93.969 L
310.307 93.216 L
311.727 92.467 L
313.148 91.722 L
314.568 90.982 L
315.988 90.245 L
317.408 89.512 L
318.828 88.784 L
320.248 88.059 L
321.668 87.339 L
323.088 86.624 L
324.509 85.912 L
325.929 85.206 L
327.349 84.503 L
328.769 83.806 L
330.189 83.113 L
331.609 82.424 L
333.029 81.741 L
334.449 81.062 L
335.87 80.388 L
337.29 79.719 L
338.71 79.055 L
340.13 78.395 L
341.55 77.741 L
342.97 77.093 L
344.39 76.449 L
345.81 75.811 L
347.23 75.178 L
348.651 74.55 L
350.071 73.928 L
351.491 73.311 L
352.911 72.699 L
354.331 72.094 L
355.751 71.494 L
357.171 70.9 L
358.591 70.311 L
360.012 69.728 L
361.432 69.151 L
362.852 68.581 L
364.272 68.016 L
365.692 67.457 L
367.112 66.904 L
368.532 66.357 L
369.952 65.817 L
371.373 65.283 L
372.793 64.755 L
374.213 64.234 L
375.633 63.719 L
377.053 63.211 L
378.473 62.709 L
379.893 62.214 L
381.313 61.725 L
382.733 61.244 L
384.154 60.769 L
385.574 60.301 L
386.994 59.839 L
388.414 59.385 L
389.834 58.938 L
391.254 58.498 L
392.674 58.065 L
394.094 57.639 L
395.515 57.22 L
396.935 56.809 L
398.355 56.405 L
399.775 56.009 L
401.195 55.62 L
402.615 55.238 L
404.035 54.864 L
405.455 54.498 L
406.876 54.139 L
408.296 53.789 L
409.716 53.446 L
411.136 53.11 L
412.556 52.783 L
413.976 52.464 L
415.396 52.153 L
416.816 51.85 L
418.237 51.555 L
419.657 51.269 L
421.077 50.99 L
422.497 50.72 L
423.917 50.458 L
425.337 50.205 L
426.757 49.96 L
428.177 49.724 L
429.597 49.497 L
431.018 49.278 L
432.438 49.068 L
433.858 48.866 L
435.278 48.674 L
436.698 48.49 L
438.118 48.315 L
439.538 48.15 L
440.958 47.993 L
442.379 47.846 L
443.799 47.707 L
445.219 47.578 L
446.639 47.459 L
448.059 47.348 L
449.479 47.247 L
450.899 47.156 L
452.319 47.074 L
S
GR
GS
0.929 0.694 0.125 RC
1 LJ
0.5 LW
N
77.364 359.74 M
78.784 354.666 L
80.204 349.616 L
81.624 344.605 L
83.045 339.645 L
84.465 334.753 L
85.885 329.941 L
87.305 325.225 L
88.725 320.618 L
90.145 316.135 L
91.565 311.789 L
92.985 307.597 L
94.405 303.57 L
95.826 299.725 L
97.246 296.074 L
98.666 292.633 L
100.086 289.384 L
101.506 286.202 L
102.926 283.075 L
104.346 280.001 L
105.766 276.979 L
107.187 274.01 L
108.607 271.093 L
110.027 268.228 L
111.447 265.414 L
112.867 262.65 L
114.287 259.937 L
115.707 257.273 L
117.127 254.659 L
118.548 252.094 L
119.968 249.577 L
121.388 247.108 L
122.808 244.687 L
124.228 242.312 L
125.648 239.985 L
127.068 237.703 L
128.488 235.467 L
129.908 233.277 L
131.329 231.132 L
132.749 229.031 L
134.169 226.973 L
135.589 224.96 L
137.009 222.989 L
138.429 221.062 L
139.849 219.176 L
141.269 217.332 L
142.69 215.53 L
144.11 213.768 L
145.53 212.047 L
146.95 210.365 L
148.37 208.716 L
149.79 207.082 L
151.21 205.465 L
152.63 203.862 L
154.051 202.275 L
155.471 200.704 L
156.891 199.147 L
158.311 197.606 L
159.731 196.08 L
161.151 194.569 L
162.571 193.073 L
163.991 191.592 L
165.411 190.125 L
166.832 188.673 L
168.252 187.236 L
169.672 185.813 L
171.092 184.405 L
172.512 183.011 L
173.932 181.631 L
175.352 180.265 L
176.772 178.913 L
178.193 177.576 L
179.613 176.252 L
181.033 174.942 L
182.453 173.646 L
183.873 172.363 L
185.293 171.094 L
186.713 169.839 L
188.133 168.597 L
189.554 167.368 L
190.974 166.152 L
192.394 164.95 L
193.814 163.761 L
195.234 162.584 L
196.654 161.421 L
198.074 160.27 L
199.494 159.132 L
200.914 158.007 L
202.335 156.894 L
203.755 155.794 L
205.175 154.706 L
206.595 153.63 L
208.015 152.567 L
209.435 151.516 L
210.855 150.477 L
212.275 149.449 L
213.696 148.434 L
215.116 147.43 L
216.536 146.439 L
217.956 145.458 L
219.376 144.49 L
220.796 143.532 L
222.216 142.587 L
223.636 141.652 L
225.057 140.729 L
226.477 139.816 L
227.897 138.915 L
229.317 138.025 L
230.737 137.145 L
232.157 136.277 L
233.577 135.419 L
234.997 134.571 L
236.417 133.735 L
237.838 132.908 L
239.258 132.092 L
240.678 131.287 L
242.098 130.491 L
243.518 129.701 L
244.938 128.911 L
246.358 128.122 L
247.778 127.332 L
249.199 126.544 L
250.619 125.755 L
252.039 124.967 L
253.459 124.18 L
254.879 123.393 L
256.299 122.607 L
257.719 121.822 L
259.139 121.037 L
260.56 120.253 L
261.98 119.47 L
263.4 118.687 L
264.82 117.906 L
266.24 117.125 L
267.66 116.345 L
269.08 115.567 L
270.5 114.789 L
271.921 114.012 L
273.341 113.237 L
274.761 112.462 L
276.181 111.689 L
277.601 110.917 L
279.021 110.146 L
280.441 109.377 L
281.861 108.609 L
283.281 107.842 L
284.702 107.077 L
286.122 106.313 L
287.542 105.551 L
288.962 104.791 L
290.382 104.031 L
291.802 103.274 L
293.222 102.518 L
294.642 101.764 L
296.063 101.012 L
297.483 100.261 L
298.903 99.513 L
300.323 98.766 L
301.743 98.021 L
303.163 97.279 L
304.583 96.538 L
306.003 95.799 L
307.423 95.062 L
308.844 94.328 L
310.264 93.595 L
311.684 92.865 L
313.104 92.137 L
314.524 91.412 L
315.944 90.688 L
317.364 89.967 L
318.784 89.249 L
320.205 88.533 L
321.625 87.819 L
323.045 87.108 L
324.465 86.4 L
325.885 85.694 L
327.305 84.991 L
328.725 84.29 L
330.145 83.593 L
331.566 82.898 L
332.986 82.206 L
334.406 81.517 L
335.826 80.83 L
337.246 80.147 L
338.666 79.467 L
340.086 78.789 L
341.506 78.115 L
342.927 77.444 L
344.347 76.776 L
345.767 76.111 L
347.187 75.45 L
348.607 74.791 L
350.027 74.136 L
351.447 73.485 L
352.867 72.837 L
354.287 72.192 L
355.708 71.55 L
357.128 70.913 L
358.548 70.279 L
359.968 69.648 L
361.388 69.021 L
362.808 68.398 L
364.228 67.778 L
365.648 67.163 L
367.069 66.551 L
368.489 65.943 L
369.909 65.338 L
371.329 64.738 L
372.749 64.142 L
374.169 63.55 L
375.589 62.961 L
377.009 62.377 L
378.43 61.797 L
379.85 61.221 L
381.27 60.65 L
382.69 60.082 L
384.11 59.519 L
385.53 58.961 L
386.95 58.406 L
388.37 57.857 L
389.79 57.311 L
391.211 56.77 L
392.631 56.234 L
394.051 55.702 L
395.471 55.175 L
396.891 54.653 L
398.311 54.135 L
399.731 53.622 L
401.151 53.114 L
402.572 52.61 L
403.992 52.112 L
405.412 51.618 L
406.832 51.129 L
408.252 50.646 L
409.672 50.167 L
411.092 49.694 L
412.512 49.225 L
413.933 48.762 L
415.353 48.304 L
416.773 47.851 L
418.193 47.404 L
419.613 46.962 L
421.033 46.525 L
422.453 46.093 L
423.873 45.667 L
425.293 45.247 L
426.714 44.832 L
428.134 44.423 L
429.554 44.019 L
430.974 43.621 L
432.394 43.228 L
433.814 42.842 L
435.234 42.461 L
436.654 42.086 L
438.075 41.717 L
439.495 41.353 L
440.915 40.996 L
442.335 40.644 L
443.755 40.299 L
445.175 39.96 L
446.595 39.626 L
448.015 39.299 L
449.436 38.978 L
450.856 38.664 L
452.276 38.355 L
453.696 38.053 L
455.116 37.758 L
456.536 37.468 L
457.956 37.185 L
459.376 36.909 L
460.796 36.639 L
462.217 36.376 L
463.637 36.119 L
465.057 35.869 L
466.477 35.625 L
467.897 35.388 L
469.317 35.158 L
470.737 34.935 L
472.157 34.719 L
473.578 34.509 L
474.998 34.307 L
476.418 34.111 L
477.838 33.923 L
479.258 33.741 L
480.678 33.567 L
482.098 33.399 L
483.518 33.239 L
484.939 33.086 L
486.359 32.941 L
487.779 32.802 L
489.199 32.671 L
490.619 32.547 L
492.039 32.431 L
493.459 32.322 L
494.879 32.221 L
496.299 32.127 L
497.72 32.041 L
499.14 31.962 L
500.56 31.891 L
S
GR
GS
0.494 0.184 0.557 RC
1 LJ
0.5 LW
N
73.886 366.923 M
75.307 361.192 L
76.727 355.488 L
78.147 349.833 L
79.567 344.247 L
80.987 338.753 L
82.407 333.372 L
83.827 328.125 L
85.247 323.033 L
86.668 318.118 L
88.088 313.402 L
89.508 308.905 L
90.928 304.648 L
92.348 300.655 L
93.768 296.943 L
95.188 293.392 L
96.608 289.909 L
98.028 286.493 L
99.449 283.143 L
100.869 279.859 L
102.289 276.64 L
103.709 273.485 L
105.129 270.394 L
106.549 267.366 L
107.969 264.4 L
109.389 261.495 L
110.81 258.652 L
112.23 255.868 L
113.65 253.144 L
115.07 250.478 L
116.49 247.871 L
117.91 245.32 L
119.33 242.826 L
120.75 240.388 L
122.171 238.005 L
123.591 235.677 L
125.011 233.402 L
126.431 231.18 L
127.851 229.011 L
129.271 226.893 L
130.691 224.826 L
132.111 222.81 L
133.531 220.842 L
134.952 218.924 L
136.372 217.054 L
137.792 215.231 L
139.212 213.449 L
140.632 211.689 L
142.052 209.946 L
143.472 208.222 L
144.892 206.516 L
146.313 204.829 L
147.733 203.159 L
149.153 201.506 L
150.573 199.872 L
151.993 198.255 L
153.413 196.656 L
154.833 195.073 L
156.253 193.508 L
157.674 191.961 L
159.094 190.43 L
160.514 188.916 L
161.934 187.419 L
163.354 185.938 L
164.774 184.474 L
166.194 183.026 L
167.614 181.595 L
169.034 180.18 L
170.455 178.781 L
171.875 177.397 L
173.295 176.03 L
174.715 174.678 L
176.135 173.342 L
177.555 172.022 L
178.975 170.716 L
180.395 169.426 L
181.816 168.151 L
183.236 166.892 L
184.656 165.647 L
186.076 164.417 L
187.496 163.201 L
188.916 162 L
190.336 160.814 L
191.756 159.641 L
193.177 158.484 L
194.597 157.34 L
196.017 156.21 L
197.437 155.094 L
198.857 153.992 L
200.277 152.903 L
201.697 151.828 L
203.117 150.766 L
204.538 149.718 L
205.958 148.682 L
207.378 147.66 L
208.798 146.651 L
210.218 145.654 L
211.638 144.671 L
213.058 143.699 L
214.478 142.741 L
215.898 141.794 L
217.319 140.86 L
218.739 139.938 L
220.159 139.028 L
221.579 138.13 L
222.999 137.244 L
224.419 136.369 L
225.839 135.506 L
227.259 134.655 L
228.68 133.814 L
230.1 132.981 L
231.52 132.147 L
232.94 131.314 L
234.36 130.481 L
235.78 129.649 L
237.2 128.817 L
238.62 127.986 L
240.041 127.155 L
241.461 126.325 L
242.881 125.495 L
244.301 124.666 L
245.721 123.838 L
247.141 123.011 L
248.561 122.184 L
249.981 121.359 L
251.401 120.534 L
252.822 119.71 L
254.242 118.887 L
255.662 118.066 L
257.082 117.245 L
258.502 116.426 L
259.922 115.608 L
261.342 114.791 L
262.762 113.975 L
264.183 113.161 L
265.603 112.348 L
267.023 111.537 L
268.443 110.727 L
269.863 109.919 L
271.283 109.113 L
272.703 108.308 L
274.123 107.504 L
275.544 106.703 L
276.964 105.903 L
278.384 105.105 L
279.804 104.309 L
281.224 103.515 L
282.644 102.723 L
284.064 101.933 L
285.484 101.146 L
286.904 100.36 L
288.325 99.576 L
289.745 98.795 L
291.165 98.016 L
292.585 97.239 L
294.005 96.465 L
295.425 95.693 L
296.845 94.924 L
298.265 94.157 L
299.686 93.393 L
301.106 92.631 L
302.526 91.872 L
303.946 91.116 L
305.366 90.362 L
306.786 89.612 L
308.206 88.864 L
309.626 88.119 L
311.047 87.377 L
312.467 86.638 L
313.887 85.902 L
315.307 85.169 L
316.727 84.44 L
318.147 83.713 L
319.567 82.99 L
320.987 82.27 L
322.407 81.554 L
323.828 80.841 L
325.248 80.131 L
326.668 79.425 L
328.088 78.722 L
329.508 78.023 L
330.928 77.328 L
332.348 76.636 L
333.768 75.948 L
335.189 75.264 L
336.609 74.584 L
338.029 73.908 L
339.449 73.235 L
340.869 72.567 L
342.289 71.902 L
343.709 71.242 L
345.129 70.585 L
346.55 69.933 L
347.97 69.285 L
349.39 68.642 L
350.81 68.002 L
352.23 67.367 L
353.65 66.737 L
355.07 66.111 L
356.49 65.489 L
357.91 64.872 L
359.331 64.26 L
360.751 63.652 L
362.171 63.049 L
363.591 62.451 L
365.011 61.858 L
366.431 61.269 L
367.851 60.685 L
369.271 60.106 L
370.692 59.533 L
372.112 58.964 L
373.532 58.4 L
374.952 57.842 L
376.372 57.288 L
377.792 56.74 L
379.212 56.198 L
380.632 55.66 L
382.053 55.128 L
383.473 54.601 L
384.893 54.08 L
386.313 53.565 L
387.733 53.055 L
389.153 52.55 L
390.573 52.051 L
391.993 51.558 L
393.413 51.071 L
394.834 50.59 L
396.254 50.114 L
397.674 49.644 L
399.094 49.181 L
400.514 48.723 L
401.934 48.271 L
403.354 47.826 L
404.774 47.387 L
406.195 46.953 L
407.615 46.527 L
409.035 46.106 L
410.455 45.692 L
411.875 45.284 L
413.295 44.882 L
414.715 44.488 L
416.135 44.099 L
417.556 43.718 L
418.976 43.342 L
420.396 42.974 L
421.816 42.612 L
423.236 42.257 L
424.656 41.909 L
426.076 41.568 L
427.496 41.234 L
428.916 40.907 L
430.337 40.586 L
431.757 40.273 L
433.177 39.967 L
434.597 39.668 L
436.017 39.377 L
437.437 39.092 L
438.857 38.815 L
440.277 38.545 L
441.698 38.283 L
443.118 38.028 L
444.538 37.781 L
445.958 37.541 L
447.378 37.309 L
448.798 37.085 L
450.218 36.868 L
451.638 36.659 L
453.059 36.458 L
454.479 36.264 L
455.899 36.079 L
457.319 35.901 L
458.739 35.732 L
460.159 35.57 L
461.579 35.417 L
462.999 35.272 L
464.419 35.135 L
465.84 35.006 L
467.26 34.885 L
468.68 34.773 L
470.1 34.669 L
471.52 34.574 L
472.94 34.487 L
474.36 34.409 L
475.78 34.339 L
477.201 34.278 L
S
GR
GS
0.467 0.675 0.188 RC
1 LJ
0.5 LW
N
73 369.045 M
74.42 363.014 L
75.84 357.01 L
77.26 351.059 L
78.68 345.187 L
80.101 339.419 L
81.521 333.78 L
82.941 328.297 L
84.361 322.995 L
85.781 317.9 L
87.201 313.037 L
88.621 308.432 L
90.041 304.11 L
91.462 300.097 L
92.882 296.365 L
94.302 292.726 L
95.722 289.162 L
97.142 285.672 L
98.562 282.255 L
99.982 278.909 L
101.402 275.634 L
102.823 272.429 L
104.243 269.293 L
105.663 266.226 L
107.083 263.225 L
108.503 260.291 L
109.923 257.421 L
111.343 254.617 L
112.763 251.875 L
114.183 249.196 L
115.604 246.578 L
117.024 244.021 L
118.444 241.524 L
119.864 239.085 L
121.284 236.704 L
122.704 234.38 L
124.124 232.111 L
125.544 229.898 L
126.965 227.738 L
128.385 225.632 L
129.805 223.577 L
131.225 221.574 L
132.645 219.621 L
134.065 217.717 L
135.485 215.862 L
136.905 214.047 L
138.326 212.252 L
139.746 210.477 L
141.166 208.721 L
142.586 206.984 L
144.006 205.266 L
145.426 203.567 L
146.846 201.887 L
148.266 200.225 L
149.686 198.582 L
151.107 196.957 L
152.527 195.35 L
153.947 193.761 L
155.367 192.19 L
156.787 190.637 L
158.207 189.102 L
159.627 187.584 L
161.047 186.083 L
162.468 184.6 L
163.888 183.133 L
165.308 181.684 L
166.728 180.252 L
168.148 178.836 L
169.568 177.437 L
170.988 176.054 L
172.408 174.688 L
173.829 173.338 L
175.249 172.004 L
176.669 170.685 L
178.089 169.383 L
179.509 168.096 L
180.929 166.825 L
182.349 165.569 L
183.769 164.328 L
185.189 163.103 L
186.61 161.892 L
188.03 160.697 L
189.45 159.516 L
190.87 158.35 L
192.29 157.198 L
193.71 156.06 L
195.13 154.937 L
196.55 153.827 L
197.971 152.732 L
199.391 151.65 L
200.811 150.583 L
202.231 149.528 L
203.651 148.487 L
205.071 147.459 L
206.491 146.445 L
207.911 145.443 L
209.332 144.454 L
210.752 143.478 L
212.172 142.515 L
213.592 141.564 L
215.012 140.625 L
216.432 139.699 L
217.852 138.784 L
219.272 137.882 L
220.692 136.991 L
222.113 136.112 L
223.533 135.245 L
224.953 134.389 L
226.373 133.539 L
227.793 132.689 L
229.213 131.84 L
230.633 130.991 L
232.053 130.142 L
233.474 129.294 L
234.894 128.447 L
236.314 127.6 L
237.734 126.754 L
239.154 125.908 L
240.574 125.063 L
241.994 124.219 L
243.414 123.376 L
244.835 122.533 L
246.255 121.692 L
247.675 120.852 L
249.095 120.012 L
250.515 119.174 L
251.935 118.337 L
253.355 117.501 L
254.775 116.667 L
256.195 115.833 L
257.616 115.001 L
259.036 114.171 L
260.456 113.342 L
261.876 112.514 L
263.296 111.688 L
264.716 110.864 L
266.136 110.041 L
267.556 109.22 L
268.977 108.4 L
270.397 107.583 L
271.817 106.767 L
273.237 105.953 L
274.657 105.142 L
276.077 104.332 L
277.497 103.524 L
278.917 102.719 L
280.338 101.915 L
281.758 101.114 L
283.178 100.315 L
284.598 99.519 L
286.018 98.724 L
287.438 97.933 L
288.858 97.143 L
290.278 96.357 L
291.699 95.572 L
293.119 94.791 L
294.539 94.012 L
295.959 93.236 L
297.379 92.462 L
298.799 91.692 L
300.219 90.924 L
301.639 90.159 L
303.059 89.397 L
304.48 88.639 L
305.9 87.883 L
307.32 87.13 L
308.74 86.381 L
310.16 85.635 L
311.58 84.892 L
313 84.153 L
314.42 83.417 L
315.841 82.684 L
317.261 81.955 L
318.681 81.229 L
320.101 80.507 L
321.521 79.789 L
322.941 79.074 L
324.361 78.363 L
325.781 77.656 L
327.202 76.953 L
328.622 76.254 L
330.042 75.558 L
331.462 74.867 L
332.882 74.179 L
334.302 73.496 L
335.722 72.817 L
337.142 72.142 L
338.562 71.471 L
339.983 70.805 L
341.403 70.143 L
342.823 69.486 L
344.243 68.832 L
345.663 68.184 L
347.083 67.54 L
348.503 66.9 L
349.923 66.265 L
351.344 65.635 L
352.764 65.01 L
354.184 64.39 L
355.604 63.774 L
357.024 63.163 L
358.444 62.558 L
359.864 61.957 L
361.284 61.361 L
362.704 60.771 L
364.125 60.186 L
365.545 59.605 L
366.965 59.031 L
368.385 58.461 L
369.805 57.897 L
371.225 57.338 L
372.645 56.785 L
374.065 56.237 L
375.486 55.695 L
376.906 55.159 L
378.326 54.628 L
379.746 54.103 L
381.166 53.583 L
382.586 53.07 L
384.006 52.562 L
385.426 52.061 L
386.847 51.565 L
388.267 51.076 L
389.687 50.592 L
391.107 50.115 L
392.527 49.643 L
393.947 49.178 L
395.367 48.72 L
396.787 48.267 L
398.207 47.822 L
399.628 47.382 L
401.048 46.949 L
402.468 46.523 L
403.888 46.103 L
405.308 45.69 L
406.728 45.283 L
408.148 44.883 L
409.568 44.491 L
410.989 44.105 L
412.409 43.725 L
413.829 43.353 L
415.249 42.988 L
416.669 42.63 L
418.089 42.279 L
419.509 41.935 L
420.929 41.598 L
422.35 41.269 L
423.77 40.947 L
425.19 40.632 L
426.61 40.325 L
428.03 40.025 L
429.45 39.732 L
430.87 39.448 L
432.29 39.17 L
433.711 38.901 L
435.131 38.639 L
436.551 38.385 L
437.971 38.139 L
439.391 37.901 L
440.811 37.67 L
442.231 37.448 L
443.651 37.233 L
445.071 37.027 L
446.492 36.829 L
447.912 36.639 L
449.332 36.457 L
450.752 36.284 L
452.172 36.119 L
453.592 35.962 L
455.012 35.813 L
456.432 35.673 L
457.853 35.542 L
459.273 35.419 L
460.693 35.305 L
462.113 35.2 L
463.533 35.103 L
464.953 35.015 L
466.373 34.936 L
467.793 34.866 L
S
GR
GS
0.302 0.745 0.933 RC
[10 6] 0 setdash
2 LJ
0.5 LW
N
75.341 369.777 M
76.761 364.41 L
78.181 359.074 L
79.602 353.786 L
81.022 348.561 L
82.442 343.416 L
83.862 338.367 L
85.282 333.429 L
86.702 328.619 L
88.122 323.953 L
89.542 319.447 L
90.963 315.116 L
92.383 310.978 L
93.803 307.048 L
95.223 303.343 L
96.643 299.841 L
98.063 296.412 L
99.483 293.042 L
100.903 289.73 L
102.324 286.477 L
103.744 283.282 L
105.164 280.145 L
106.584 277.065 L
108.004 274.042 L
109.424 271.076 L
110.844 268.167 L
112.264 265.313 L
113.684 262.516 L
115.105 259.774 L
116.525 257.088 L
117.945 254.456 L
119.365 251.88 L
120.785 249.357 L
122.205 246.889 L
123.625 244.474 L
125.045 242.113 L
126.466 239.805 L
127.886 237.55 L
129.306 235.348 L
130.726 233.198 L
132.146 231.1 L
133.566 229.053 L
134.986 227.058 L
136.406 225.114 L
137.827 223.221 L
139.247 221.378 L
140.667 219.575 L
142.087 217.791 L
143.507 216.026 L
144.927 214.28 L
146.347 212.553 L
147.767 210.845 L
149.188 209.156 L
150.608 207.485 L
152.028 205.833 L
153.448 204.199 L
154.868 202.583 L
156.288 200.985 L
157.708 199.405 L
159.128 197.842 L
160.548 196.297 L
161.969 194.77 L
163.389 193.26 L
164.809 191.767 L
166.229 190.291 L
167.649 188.832 L
169.069 187.39 L
170.489 185.964 L
171.909 184.555 L
173.33 183.162 L
174.75 181.786 L
176.17 180.425 L
177.59 179.081 L
179.01 177.752 L
180.43 176.44 L
181.85 175.142 L
183.27 173.86 L
184.691 172.594 L
186.111 171.342 L
187.531 170.106 L
188.951 168.884 L
190.371 167.678 L
191.791 166.486 L
193.211 165.308 L
194.631 164.145 L
196.051 162.995 L
197.472 161.86 L
198.892 160.739 L
200.312 159.632 L
201.732 158.538 L
203.152 157.458 L
204.572 156.392 L
205.992 155.338 L
207.412 154.298 L
208.833 153.271 L
210.253 152.256 L
211.673 151.255 L
213.093 150.266 L
214.513 149.289 L
215.933 148.325 L
217.353 147.373 L
218.773 146.433 L
220.194 145.504 L
221.614 144.588 L
223.034 143.683 L
224.454 142.79 L
225.874 141.907 L
227.294 141.026 L
228.714 140.145 L
230.134 139.265 L
231.554 138.385 L
232.975 137.506 L
234.395 136.628 L
235.815 135.751 L
237.235 134.875 L
238.655 133.999 L
240.075 133.125 L
241.495 132.251 L
242.915 131.379 L
244.336 130.508 L
245.756 129.638 L
247.176 128.769 L
248.596 127.902 L
250.016 127.036 L
251.436 126.171 L
252.856 125.308 L
254.276 124.446 L
255.697 123.586 L
257.117 122.728 L
258.537 121.871 L
259.957 121.017 L
261.377 120.164 L
262.797 119.313 L
264.217 118.463 L
265.637 117.616 L
267.057 116.771 L
268.478 115.928 L
269.898 115.087 L
271.318 114.248 L
272.738 113.411 L
274.158 112.577 L
275.578 111.746 L
276.998 110.916 L
278.418 110.089 L
279.839 109.265 L
281.259 108.443 L
282.679 107.624 L
284.099 106.808 L
285.519 105.994 L
286.939 105.183 L
288.359 104.375 L
289.779 103.57 L
291.2 102.768 L
292.62 101.969 L
294.04 101.173 L
295.46 100.381 L
296.88 99.591 L
298.3 98.805 L
299.72 98.022 L
301.14 97.243 L
302.56 96.466 L
303.981 95.694 L
305.401 94.924 L
306.821 94.159 L
308.241 93.397 L
309.661 92.639 L
311.081 91.885 L
312.501 91.134 L
313.921 90.387 L
315.342 89.644 L
316.762 88.906 L
318.182 88.171 L
319.602 87.44 L
321.022 86.714 L
322.442 85.991 L
323.862 85.273 L
325.282 84.559 L
326.703 83.85 L
328.123 83.145 L
329.543 82.445 L
330.963 81.749 L
332.383 81.057 L
333.803 80.371 L
335.223 79.689 L
336.643 79.011 L
338.063 78.339 L
339.484 77.672 L
340.904 77.009 L
342.324 76.351 L
343.744 75.699 L
345.164 75.051 L
346.584 74.409 L
348.004 73.772 L
349.424 73.14 L
350.845 72.513 L
352.265 71.892 L
353.685 71.276 L
355.105 70.666 L
356.525 70.061 L
357.945 69.462 L
359.365 68.869 L
360.785 68.281 L
362.206 67.699 L
363.626 67.123 L
365.046 66.552 L
366.466 65.988 L
367.886 65.429 L
369.306 64.877 L
370.726 64.331 L
372.146 63.79 L
373.566 63.256 L
374.987 62.729 L
376.407 62.207 L
377.827 61.692 L
379.247 61.184 L
380.667 60.681 L
382.087 60.186 L
383.507 59.697 L
384.927 59.215 L
386.348 58.739 L
387.768 58.27 L
389.188 57.808 L
390.608 57.353 L
392.028 56.904 L
393.448 56.463 L
394.868 56.029 L
396.288 55.602 L
397.709 55.182 L
399.129 54.769 L
400.549 54.363 L
401.969 53.965 L
403.389 53.574 L
404.809 53.191 L
406.229 52.815 L
407.649 52.446 L
409.069 52.085 L
410.49 51.732 L
411.91 51.387 L
413.33 51.049 L
414.75 50.719 L
416.17 50.397 L
417.59 50.083 L
419.01 49.777 L
420.43 49.479 L
421.851 49.189 L
423.271 48.907 L
424.691 48.633 L
426.111 48.368 L
427.531 48.111 L
428.951 47.862 L
430.371 47.621 L
431.791 47.39 L
433.212 47.166 L
434.632 46.952 L
436.052 46.745 L
437.472 46.548 L
438.892 46.36 L
440.312 46.18 L
441.732 46.009 L
443.152 45.847 L
444.572 45.694 L
445.993 45.55 L
447.413 45.415 L
448.833 45.289 L
S
GR
GS
0.635 0.078 0.184 RC
[10 6] 0 setdash
2 LJ
0.5 LW
N
77.411 359.786 M
78.831 354.709 L
80.251 349.657 L
81.671 344.643 L
83.091 339.682 L
84.511 334.788 L
85.931 329.975 L
87.351 325.257 L
88.771 320.65 L
90.192 316.168 L
91.612 311.824 L
93.032 307.634 L
94.452 303.611 L
95.872 299.771 L
97.292 296.127 L
98.712 292.693 L
100.132 289.441 L
101.553 286.25 L
102.973 283.114 L
104.393 280.031 L
105.813 277 L
107.233 274.023 L
108.653 271.097 L
110.073 268.223 L
111.493 265.4 L
112.914 262.628 L
114.334 259.906 L
115.754 257.234 L
117.174 254.611 L
118.594 252.037 L
120.014 249.511 L
121.434 247.034 L
122.854 244.604 L
124.274 242.221 L
125.695 239.885 L
127.115 237.595 L
128.535 235.351 L
129.955 233.152 L
131.375 230.998 L
132.795 228.888 L
134.215 226.822 L
135.635 224.8 L
137.056 222.821 L
138.476 220.884 L
139.896 218.989 L
141.316 217.137 L
142.736 215.325 L
144.156 213.554 L
145.576 211.824 L
146.996 210.133 L
148.417 208.471 L
149.837 206.825 L
151.257 205.194 L
152.677 203.58 L
154.097 201.982 L
155.517 200.399 L
156.937 198.832 L
158.357 197.28 L
159.777 195.744 L
161.198 194.223 L
162.618 192.717 L
164.038 191.227 L
165.458 189.751 L
166.878 188.291 L
168.298 186.845 L
169.718 185.414 L
171.138 183.998 L
172.559 182.596 L
173.979 181.209 L
175.399 179.836 L
176.819 178.478 L
178.239 177.134 L
179.659 175.803 L
181.079 174.487 L
182.499 173.185 L
183.92 171.896 L
185.34 170.621 L
186.76 169.36 L
188.18 168.112 L
189.6 166.878 L
191.02 165.657 L
192.44 164.449 L
193.86 163.255 L
195.281 162.073 L
196.701 160.904 L
198.121 159.748 L
199.541 158.605 L
200.961 157.475 L
202.381 156.357 L
203.801 155.252 L
205.221 154.159 L
206.641 153.078 L
208.062 152.009 L
209.482 150.953 L
210.902 149.908 L
212.322 148.875 L
213.742 147.855 L
215.162 146.845 L
216.582 145.848 L
218.002 144.862 L
219.423 143.887 L
220.843 142.924 L
222.263 141.971 L
223.683 141.03 L
225.103 140.1 L
226.523 139.181 L
227.943 138.273 L
229.363 137.375 L
230.784 136.489 L
232.204 135.612 L
233.624 134.746 L
235.044 133.891 L
236.464 133.045 L
237.884 132.21 L
239.304 131.385 L
240.724 130.57 L
242.144 129.759 L
243.565 128.948 L
244.985 128.138 L
246.405 127.328 L
247.825 126.518 L
249.245 125.709 L
250.665 124.901 L
252.085 124.094 L
253.505 123.287 L
254.926 122.481 L
256.346 121.676 L
257.766 120.872 L
259.186 120.068 L
260.606 119.266 L
262.026 118.465 L
263.446 117.664 L
264.866 116.865 L
266.287 116.067 L
267.707 115.27 L
269.127 114.474 L
270.547 113.679 L
271.967 112.886 L
273.387 112.094 L
274.807 111.303 L
276.227 110.514 L
277.647 109.726 L
279.068 108.94 L
280.488 108.155 L
281.908 107.372 L
283.328 106.591 L
284.748 105.811 L
286.168 105.033 L
287.588 104.257 L
289.008 103.483 L
290.429 102.71 L
291.849 101.94 L
293.269 101.171 L
294.689 100.404 L
296.109 99.64 L
297.529 98.877 L
298.949 98.116 L
300.369 97.358 L
301.79 96.602 L
303.21 95.848 L
304.63 95.097 L
306.05 94.348 L
307.47 93.601 L
308.89 92.857 L
310.31 92.115 L
311.73 91.375 L
313.15 90.639 L
314.571 89.904 L
315.991 89.173 L
317.411 88.444 L
318.831 87.718 L
320.251 86.995 L
321.671 86.274 L
323.091 85.556 L
324.511 84.842 L
325.932 84.13 L
327.352 83.421 L
328.772 82.715 L
330.192 82.013 L
331.612 81.313 L
333.032 80.617 L
334.452 79.924 L
335.872 79.234 L
337.293 78.547 L
338.713 77.864 L
340.133 77.184 L
341.553 76.508 L
342.973 75.835 L
344.393 75.166 L
345.813 74.5 L
347.233 73.838 L
348.653 73.179 L
350.074 72.524 L
351.494 71.873 L
352.914 71.226 L
354.334 70.582 L
355.754 69.943 L
357.174 69.307 L
358.594 68.675 L
360.014 68.047 L
361.435 67.424 L
362.855 66.804 L
364.275 66.189 L
365.695 65.577 L
367.115 64.97 L
368.535 64.368 L
369.955 63.769 L
371.375 63.175 L
372.796 62.585 L
374.216 62 L
375.636 61.419 L
377.056 60.843 L
378.476 60.271 L
379.896 59.704 L
381.316 59.142 L
382.736 58.584 L
384.156 58.031 L
385.577 57.483 L
386.997 56.939 L
388.417 56.401 L
389.837 55.867 L
391.257 55.339 L
392.677 54.815 L
394.097 54.297 L
395.517 53.783 L
396.938 53.275 L
398.358 52.772 L
399.778 52.274 L
401.198 51.782 L
402.618 51.294 L
404.038 50.812 L
405.458 50.336 L
406.878 49.865 L
408.299 49.399 L
409.719 48.939 L
411.139 48.485 L
412.559 48.036 L
413.979 47.593 L
415.399 47.156 L
416.819 46.724 L
418.239 46.298 L
419.659 45.878 L
421.08 45.464 L
422.5 45.055 L
423.92 44.653 L
425.34 44.257 L
426.76 43.867 L
428.18 43.483 L
429.6 43.105 L
431.02 42.733 L
432.441 42.368 L
433.861 42.008 L
435.281 41.655 L
436.701 41.309 L
438.121 40.969 L
439.541 40.635 L
440.961 40.308 L
442.381 39.987 L
443.802 39.673 L
445.222 39.366 L
446.642 39.065 L
448.062 38.771 L
449.482 38.484 L
450.902 38.203 L
452.322 37.93 L
453.742 37.663 L
455.163 37.403 L
456.583 37.15 L
458.003 36.904 L
459.423 36.666 L
460.843 36.434 L
462.263 36.21 L
463.683 35.992 L
465.103 35.782 L
466.523 35.58 L
467.944 35.384 L
469.364 35.196 L
470.784 35.016 L
472.204 34.842 L
473.624 34.677 L
475.044 34.519 L
476.464 34.368 L
477.884 34.225 L
479.305 34.09 L
480.725 33.963 L
482.145 33.843 L
483.565 33.731 L
484.985 33.627 L
S
GR
GS
0 0.447 0.741 RC
[10 6] 0 setdash
2 LJ
0.5 LW
N
74.279 365.541 M
75.699 359.939 L
77.119 354.364 L
78.539 348.836 L
79.959 343.375 L
81.38 338.001 L
82.8 332.732 L
84.22 327.589 L
85.64 322.592 L
87.06 317.759 L
88.48 313.11 L
89.9 308.666 L
91.32 304.445 L
92.741 300.468 L
94.161 296.753 L
95.581 293.233 L
97.001 289.779 L
98.421 286.39 L
99.841 283.065 L
101.261 279.802 L
102.681 276.603 L
104.101 273.465 L
105.522 270.389 L
106.942 267.374 L
108.362 264.418 L
109.782 261.522 L
111.202 258.685 L
112.622 255.906 L
114.042 253.185 L
115.462 250.521 L
116.883 247.913 L
118.303 245.361 L
119.723 242.864 L
121.143 240.422 L
122.563 238.033 L
123.983 235.698 L
125.403 233.416 L
126.823 231.186 L
128.244 229.007 L
129.664 226.878 L
131.084 224.8 L
132.504 222.772 L
133.924 220.793 L
135.344 218.861 L
136.764 216.978 L
138.184 215.142 L
139.604 213.351 L
141.025 211.587 L
142.445 209.842 L
143.865 208.114 L
145.285 206.405 L
146.705 204.715 L
148.125 203.042 L
149.545 201.387 L
150.965 199.749 L
152.386 198.13 L
153.806 196.528 L
155.226 194.943 L
156.646 193.375 L
158.066 191.825 L
159.486 190.291 L
160.906 188.775 L
162.326 187.275 L
163.747 185.792 L
165.167 184.325 L
166.587 182.875 L
168.007 181.441 L
169.427 180.023 L
170.847 178.621 L
172.267 177.235 L
173.687 175.865 L
175.107 174.511 L
176.528 173.172 L
177.948 171.848 L
179.368 170.54 L
180.788 169.246 L
182.208 167.968 L
183.628 166.705 L
185.048 165.457 L
186.468 164.223 L
187.889 163.004 L
189.309 161.799 L
190.729 160.609 L
192.149 159.432 L
193.569 158.27 L
194.989 157.122 L
196.409 155.987 L
197.829 154.866 L
199.25 153.759 L
200.67 152.665 L
202.09 151.585 L
203.51 150.518 L
204.93 149.463 L
206.35 148.422 L
207.77 147.394 L
209.19 146.378 L
210.61 145.375 L
212.031 144.384 L
213.451 143.406 L
214.871 142.44 L
216.291 141.486 L
217.711 140.544 L
219.131 139.613 L
220.551 138.695 L
221.971 137.788 L
223.392 136.893 L
224.812 136.008 L
226.232 135.136 L
227.652 134.274 L
229.072 133.423 L
230.492 132.576 L
231.912 131.73 L
233.332 130.884 L
234.753 130.038 L
236.173 129.193 L
237.593 128.349 L
239.013 127.505 L
240.433 126.662 L
241.853 125.82 L
243.273 124.978 L
244.693 124.138 L
246.113 123.298 L
247.534 122.459 L
248.954 121.621 L
250.374 120.784 L
251.794 119.949 L
253.214 119.114 L
254.634 118.281 L
256.054 117.449 L
257.474 116.618 L
258.895 115.789 L
260.315 114.961 L
261.735 114.134 L
263.155 113.309 L
264.575 112.486 L
265.995 111.664 L
267.415 110.844 L
268.835 110.025 L
270.256 109.209 L
271.676 108.394 L
273.096 107.581 L
274.516 106.77 L
275.936 105.96 L
277.356 105.153 L
278.776 104.348 L
280.196 103.545 L
281.616 102.744 L
283.037 101.946 L
284.457 101.15 L
285.877 100.355 L
287.297 99.564 L
288.717 98.775 L
290.137 97.988 L
291.557 97.204 L
292.977 96.422 L
294.398 95.643 L
295.818 94.867 L
297.238 94.093 L
298.658 93.322 L
300.078 92.554 L
301.498 91.789 L
302.918 91.027 L
304.338 90.267 L
305.759 89.511 L
307.179 88.758 L
308.599 88.008 L
310.019 87.261 L
311.439 86.518 L
312.859 85.777 L
314.279 85.04 L
315.699 84.306 L
317.119 83.576 L
318.54 82.85 L
319.96 82.127 L
321.38 81.407 L
322.8 80.691 L
324.22 79.979 L
325.64 79.27 L
327.06 78.565 L
328.48 77.865 L
329.901 77.167 L
331.321 76.474 L
332.741 75.785 L
334.161 75.1 L
335.581 74.419 L
337.001 73.743 L
338.421 73.07 L
339.841 72.402 L
341.262 71.737 L
342.682 71.078 L
344.102 70.422 L
345.522 69.772 L
346.942 69.125 L
348.362 68.483 L
349.782 67.846 L
351.202 67.213 L
352.622 66.586 L
354.043 65.962 L
355.463 65.344 L
356.883 64.73 L
358.303 64.122 L
359.723 63.518 L
361.143 62.92 L
362.563 62.326 L
363.983 61.738 L
365.404 61.154 L
366.824 60.576 L
368.244 60.003 L
369.664 59.436 L
371.084 58.874 L
372.504 58.317 L
373.924 57.766 L
375.344 57.22 L
376.765 56.68 L
378.185 56.145 L
379.605 55.616 L
381.025 55.093 L
382.445 54.575 L
383.865 54.064 L
385.285 53.558 L
386.705 53.058 L
388.126 52.564 L
389.546 52.076 L
390.966 51.594 L
392.386 51.118 L
393.806 50.649 L
395.226 50.186 L
396.646 49.728 L
398.066 49.278 L
399.486 48.833 L
400.907 48.395 L
402.327 47.964 L
403.747 47.539 L
405.167 47.121 L
406.587 46.709 L
408.007 46.304 L
409.427 45.906 L
410.847 45.514 L
412.268 45.129 L
413.688 44.751 L
415.108 44.38 L
416.528 44.017 L
417.948 43.66 L
419.368 43.31 L
420.788 42.967 L
422.208 42.632 L
423.629 42.303 L
425.049 41.982 L
426.469 41.669 L
427.889 41.362 L
429.309 41.063 L
430.729 40.772 L
432.149 40.488 L
433.569 40.212 L
434.989 39.943 L
436.41 39.683 L
437.83 39.429 L
439.25 39.184 L
440.67 38.947 L
442.09 38.717 L
443.51 38.495 L
444.93 38.282 L
446.35 38.076 L
447.771 37.878 L
449.191 37.689 L
450.611 37.508 L
452.031 37.335 L
453.451 37.17 L
454.871 37.014 L
456.291 36.866 L
457.711 36.726 L
459.132 36.595 L
460.552 36.473 L
461.972 36.359 L
463.392 36.254 L
464.812 36.158 L
S
GR
GS
0.851 0.325 0.098 RC
[10 6] 0 setdash
2 LJ
0.5 LW
N
73.075 368.793 M
74.496 362.829 L
75.916 356.892 L
77.336 351.008 L
78.756 345.201 L
80.176 339.495 L
81.596 333.915 L
83.016 328.484 L
84.436 323.227 L
85.857 318.169 L
87.277 313.334 L
88.697 308.746 L
90.117 304.43 L
91.537 300.41 L
92.957 296.676 L
94.377 293.047 L
95.797 289.491 L
97.218 286.008 L
98.638 282.597 L
100.058 279.256 L
101.478 275.985 L
102.898 272.783 L
104.318 269.649 L
105.738 266.582 L
107.158 263.581 L
108.578 260.645 L
109.999 257.774 L
111.419 254.965 L
112.839 252.22 L
114.259 249.536 L
115.679 246.912 L
117.099 244.349 L
118.519 241.844 L
119.939 239.397 L
121.36 237.007 L
122.78 234.673 L
124.2 232.394 L
125.62 230.169 L
127.04 227.998 L
128.46 225.878 L
129.88 223.811 L
131.3 221.794 L
132.721 219.826 L
134.141 217.908 L
135.561 216.037 L
136.981 214.208 L
138.401 212.401 L
139.821 210.614 L
141.241 208.846 L
142.661 207.097 L
144.081 205.367 L
145.502 203.657 L
146.922 201.965 L
148.342 200.293 L
149.762 198.638 L
151.182 197.003 L
152.602 195.385 L
154.022 193.786 L
155.442 192.205 L
156.863 190.642 L
158.283 189.096 L
159.703 187.568 L
161.123 186.058 L
162.543 184.565 L
163.963 183.09 L
165.383 181.631 L
166.803 180.19 L
168.224 178.765 L
169.644 177.357 L
171.064 175.966 L
172.484 174.591 L
173.904 173.232 L
175.324 171.89 L
176.744 170.564 L
178.164 169.253 L
179.584 167.959 L
181.005 166.68 L
182.425 165.416 L
183.845 164.168 L
185.265 162.935 L
186.685 161.717 L
188.105 160.514 L
189.525 159.326 L
190.945 158.152 L
192.366 156.994 L
193.786 155.849 L
195.206 154.719 L
196.626 153.603 L
198.046 152.501 L
199.466 151.413 L
200.886 150.339 L
202.306 149.278 L
203.727 148.23 L
205.147 147.196 L
206.567 146.176 L
207.987 145.168 L
209.407 144.173 L
210.827 143.191 L
212.247 142.222 L
213.667 141.265 L
215.087 140.321 L
216.508 139.388 L
217.928 138.468 L
219.348 137.56 L
220.768 136.664 L
222.188 135.78 L
223.608 134.907 L
225.028 134.039 L
226.448 133.173 L
227.869 132.306 L
229.289 131.44 L
230.709 130.575 L
232.129 129.71 L
233.549 128.846 L
234.969 127.983 L
236.389 127.12 L
237.809 126.259 L
239.23 125.398 L
240.65 124.538 L
242.07 123.679 L
243.49 122.821 L
244.91 121.964 L
246.33 121.108 L
247.75 120.254 L
249.17 119.401 L
250.59 118.549 L
252.011 117.698 L
253.431 116.849 L
254.851 116.002 L
256.271 115.156 L
257.691 114.311 L
259.111 113.469 L
260.531 112.627 L
261.951 111.788 L
263.372 110.951 L
264.792 110.115 L
266.212 109.281 L
267.632 108.449 L
269.052 107.62 L
270.472 106.792 L
271.892 105.966 L
273.312 105.143 L
274.733 104.322 L
276.153 103.503 L
277.573 102.687 L
278.993 101.873 L
280.413 101.061 L
281.833 100.252 L
283.253 99.446 L
284.673 98.642 L
286.093 97.841 L
287.514 97.043 L
288.934 96.247 L
290.354 95.454 L
291.774 94.664 L
293.194 93.878 L
294.614 93.094 L
296.034 92.313 L
297.454 91.535 L
298.875 90.761 L
300.295 89.99 L
301.715 89.222 L
303.135 88.457 L
304.555 87.696 L
305.975 86.938 L
307.395 86.184 L
308.815 85.433 L
310.236 84.686 L
311.656 83.942 L
313.076 83.203 L
314.496 82.467 L
315.916 81.735 L
317.336 81.007 L
318.756 80.282 L
320.176 79.562 L
321.596 78.846 L
323.017 78.134 L
324.437 77.426 L
325.857 76.722 L
327.277 76.023 L
328.697 75.328 L
330.117 74.637 L
331.537 73.951 L
332.957 73.269 L
334.378 72.592 L
335.798 71.919 L
337.218 71.251 L
338.638 70.587 L
340.058 69.929 L
341.478 69.275 L
342.898 68.626 L
344.318 67.982 L
345.739 67.344 L
347.159 66.71 L
348.579 66.081 L
349.999 65.457 L
351.419 64.839 L
352.839 64.226 L
354.259 63.618 L
355.679 63.015 L
357.099 62.418 L
358.52 61.827 L
359.94 61.24 L
361.36 60.66 L
362.78 60.085 L
364.2 59.516 L
365.62 58.952 L
367.04 58.395 L
368.46 57.843 L
369.881 57.297 L
371.301 56.757 L
372.721 56.223 L
374.141 55.696 L
375.561 55.174 L
376.981 54.659 L
378.401 54.149 L
379.821 53.646 L
381.242 53.15 L
382.662 52.66 L
384.082 52.176 L
385.502 51.699 L
386.922 51.228 L
388.342 50.764 L
389.762 50.307 L
391.182 49.856 L
392.603 49.412 L
394.023 48.975 L
395.443 48.545 L
396.863 48.122 L
398.283 47.706 L
399.703 47.297 L
401.123 46.895 L
402.543 46.5 L
403.963 46.113 L
405.384 45.732 L
406.804 45.359 L
408.224 44.994 L
409.644 44.636 L
411.064 44.285 L
412.484 43.942 L
413.904 43.607 L
415.324 43.279 L
416.745 42.959 L
418.165 42.647 L
419.585 42.342 L
421.005 42.046 L
422.425 41.757 L
423.845 41.476 L
425.265 41.204 L
426.685 40.939 L
428.105 40.683 L
429.526 40.435 L
430.946 40.195 L
432.366 39.963 L
433.786 39.74 L
435.206 39.526 L
436.626 39.319 L
438.046 39.121 L
439.466 38.932 L
440.887 38.752 L
442.307 38.58 L
443.727 38.417 L
445.147 38.263 L
446.567 38.117 L
447.987 37.981 L
449.407 37.854 L
450.827 37.735 L
452.248 37.626 L
453.668 37.526 L
455.088 37.435 L
S
GR
GS
1 GC
N
499 366 M
499 218.5 L
327.5 218.5 L
327.5 366 L
cp
f
GR
GS
[1 0 0 1 364.5 228.25] CT
/Helvetica 13 F
GS
[1 0 0 1 0 0] CT
0 5 moveto 
1 -1 scale
(Base Run) t 
GR
GR
GS
0 0.447 0.741 RC
1 LJ
0.5 LW
N
331.5 228.25 M
361.5 228.25 L
S
GR
GS
[1 0 0 1 364.5 244.25] CT
/Helvetica 13 F
GS
[1 0 0 1 0 0] CT
0 5 moveto 
1 -1 scale
(All Frames) t 
GR
GR
GS
0.851 0.325 0.098 RC
1 LJ
0.5 LW
N
331.5 244.25 M
361.5 244.25 L
S
GR
GS
[1 0 0 1 364.5 260.25] CT
/Helvetica 13 F
GS
[1 0 0 1 0 0] CT
0 5 moveto 
1 -1 scale
(KF Only) t 
GR
GR
GS
0.929 0.694 0.125 RC
1 LJ
0.5 LW
N
331.5 260.25 M
361.5 260.25 L
S
GR
GS
[1 0 0 1 364.5 276.25] CT
/Helvetica 13 F
GS
[1 0 0 1 0 0] CT
0 5 moveto 
1 -1 scale
(GF, ARF Only) t 
GR
GR
GS
0.494 0.184 0.557 RC
1 LJ
0.5 LW
N
331.5 276.25 M
361.5 276.25 L
S
GR
GS
[1 0 0 1 364.5 292.25] CT
/Helvetica 13 F
GS
[1 0 0 1 0 0] CT
0 5 moveto 
1 -1 scale
(KF, GF, ARF Only) t 
GR
GR
GS
0.467 0.675 0.188 RC
1 LJ
0.5 LW
N
331.5 292.25 M
361.5 292.25 L
S
GR
GS
[1 0 0 1 364.5 308.25] CT
/Helvetica 13 F
GS
[1 0 0 1 0 0] CT
0 5 moveto 
1 -1 scale
(Part All Frames) t 
GR
GR
GS
0.302 0.745 0.933 RC
[10 6] 0 setdash
2 LJ
0.5 LW
N
331.5 308.25 M
361.5 308.25 L
S
GR
GS
[1 0 0 1 364.5 324.25] CT
/Helvetica 13 F
GS
[1 0 0 1 0 0] CT
0 5 moveto 
1 -1 scale
(Part KF Only) t 
GR
GR
GS
0.635 0.078 0.184 RC
[10 6] 0 setdash
2 LJ
0.5 LW
N
331.5 324.25 M
361.5 324.25 L
S
GR
GS
[1 0 0 1 364.5 340.25] CT
/Helvetica 13 F
GS
[1 0 0 1 0 0] CT
0 5 moveto 
1 -1 scale
(Part GF, ARF Only) t 
GR
GR
GS
0 0.447 0.741 RC
[10 6] 0 setdash
2 LJ
0.5 LW
N
331.5 340.25 M
361.5 340.25 L
S
GR
GS
[1 0 0 1 364.5 356.25] CT
/Helvetica 13 F
GS
[1 0 0 1 0 0] CT
0 5 moveto 
1 -1 scale
(Part KF, GF, ARF Only) t 
GR
GR
GS
0.851 0.325 0.098 RC
[10 6] 0 setdash
2 LJ
0.5 LW
N
331.5 356.25 M
361.5 356.25 L
S
GR
GS
0.149 GC
10.0 ML
0.5 LW
N
327.5 366 M
327.5 218.5 L
499 218.5 L
499 366 L
cp
S
GR
%%Trailer
%%Pages: 1
%%EOF
