%!PS-Adobe-3.0 EPSF-3.0
%%Creator: (MATLAB, The Mathworks, Inc. Version 9.11.0.1837725 \(R2021b\) Update 2. Operating System: Mac OS X)
%%Title: plots/rd/FoodMarket_1920x1080_5994_10bit_420.y4m-hevc-PSNRV.eps
%%CreationDate: 2022-02-04T14:45:28
%%Pages: (atend)
%%BoundingBox:    33   425   508   826
%%LanguageLevel: 3
%%EndComments
%%BeginProlog
%%BeginResource: procset (Apache XML Graphics Std ProcSet) 1.2 0
%%Version: 1.2 0
%%Copyright: (Copyright 2001-2003,2010 The Apache Software Foundation. License terms: http://www.apache.org/licenses/LICENSE-2.0)
/bd{bind def}bind def
/ld{load def}bd
/GR/grestore ld
/GS/gsave ld
/RM/rmoveto ld
/C/curveto ld
/t/show ld
/L/lineto ld
/ML/setmiterlimit ld
/CT/concat ld
/f/fill ld
/N/newpath ld
/S/stroke ld
/CC/setcmykcolor ld
/A/ashow ld
/cp/closepath ld
/RC/setrgbcolor ld
/LJ/setlinejoin ld
/GC/setgray ld
/LW/setlinewidth ld
/M/moveto ld
/re {4 2 roll M
1 index 0 rlineto
0 exch rlineto
neg 0 rlineto
cp } bd
/_ctm matrix def
/_tm matrix def
/BT { _ctm currentmatrix pop matrix _tm copy pop 0 0 moveto } bd
/ET { _ctm setmatrix } bd
/iTm { _ctm setmatrix _tm concat } bd
/Tm { _tm astore pop iTm 0 0 moveto } bd
/ux 0.0 def
/uy 0.0 def
/F {
  /Tp exch def
  /Tf exch def
  Tf findfont Tp scalefont setfont
  /cf Tf def  /cs Tp def
} bd
/ULS {currentpoint /uy exch def /ux exch def} bd
/ULE {
  /Tcx currentpoint pop def
  gsave
  newpath
  cf findfont cs scalefont dup
  /FontMatrix get 0 get /Ts exch def /FontInfo get dup
  /UnderlinePosition get Ts mul /To exch def
  /UnderlineThickness get Ts mul /Tt exch def
  ux uy To add moveto  Tcx uy To add lineto
  Tt setlinewidth stroke
  grestore
} bd
/OLE {
  /Tcx currentpoint pop def
  gsave
  newpath
  cf findfont cs scalefont dup
  /FontMatrix get 0 get /Ts exch def /FontInfo get dup
  /UnderlinePosition get Ts mul /To exch def
  /UnderlineThickness get Ts mul /Tt exch def
  ux uy To add cs add moveto Tcx uy To add cs add lineto
  Tt setlinewidth stroke
  grestore
} bd
/SOE {
  /Tcx currentpoint pop def
  gsave
  newpath
  cf findfont cs scalefont dup
  /FontMatrix get 0 get /Ts exch def /FontInfo get dup
  /UnderlinePosition get Ts mul /To exch def
  /UnderlineThickness get Ts mul /Tt exch def
  ux uy To add cs 10 mul 26 idiv add moveto Tcx uy To add cs 10 mul 26 idiv add lineto
  Tt setlinewidth stroke
  grestore
} bd
/QT {
/Y22 exch store
/X22 exch store
/Y21 exch store
/X21 exch store
currentpoint
/Y21 load 2 mul add 3 div exch
/X21 load 2 mul add 3 div exch
/X21 load 2 mul /X22 load add 3 div
/Y21 load 2 mul /Y22 load add 3 div
/X22 load /Y22 load curveto
} bd
/SSPD {
dup length /d exch dict def
{
/v exch def
/k exch def
currentpagedevice k known {
/cpdv currentpagedevice k get def
v cpdv ne {
/upd false def
/nullv v type /nulltype eq def
/nullcpdv cpdv type /nulltype eq def
nullv nullcpdv or
{
/upd true def
} {
/sametype v type cpdv type eq def
sametype {
v type /arraytype eq {
/vlen v length def
/cpdvlen cpdv length def
vlen cpdvlen eq {
0 1 vlen 1 sub {
/i exch def
/obj v i get def
/cpdobj cpdv i get def
obj cpdobj ne {
/upd true def
exit
} if
} for
} {
/upd true def
} ifelse
} {
v type /dicttype eq {
v {
/dv exch def
/dk exch def
/cpddv cpdv dk get def
dv cpddv ne {
/upd true def
exit
} if
} forall
} {
/upd true def
} ifelse
} ifelse
} if
} ifelse
upd true eq {
d k v put
} if
} if
} if
} forall
d length 0 gt {
d setpagedevice
} if
} bd
/RE { % /NewFontName [NewEncodingArray] /FontName RE -
  findfont dup length dict begin
  {
    1 index /FID ne
    {def} {pop pop} ifelse
  } forall
  /Encoding exch def
  /FontName 1 index def
  currentdict definefont pop
  end
} bind def
%%EndResource
%%BeginResource: procset (Apache XML Graphics EPS ProcSet) 1.0 0
%%Version: 1.0 0
%%Copyright: (Copyright 2002-2003 The Apache Software Foundation. License terms: http://www.apache.org/licenses/LICENSE-2.0)
/BeginEPSF { %def
/b4_Inc_state save def         % Save state for cleanup
/dict_count countdictstack def % Count objects on dict stack
/op_count count 1 sub def      % Count objects on operand stack
userdict begin                 % Push userdict on dict stack
/showpage { } def              % Redefine showpage, { } = null proc
0 setgray 0 setlinecap         % Prepare graphics state
1 setlinewidth 0 setlinejoin
10 setmiterlimit [ ] 0 setdash newpath
/languagelevel where           % If level not equal to 1 then
{pop languagelevel             % set strokeadjust and
1 ne                           % overprint to their defaults.
{false setstrokeadjust false setoverprint
} if
} if
} bd
/EndEPSF { %def
count op_count sub {pop} repeat            % Clean up stacks
countdictstack dict_count sub {end} repeat
b4_Inc_state restore
} bd
%%EndResource
%FOPBeginFontDict
%%IncludeResource: font Courier-Oblique
%%IncludeResource: font Courier-BoldOblique
%%IncludeResource: font Courier-Bold
%%IncludeResource: font ZapfDingbats
%%IncludeResource: font Symbol
%%IncludeResource: font Helvetica
%%IncludeResource: font Helvetica-Oblique
%%IncludeResource: font Helvetica-Bold
%%IncludeResource: font Helvetica-BoldOblique
%%IncludeResource: font Times-Roman
%%IncludeResource: font Times-Italic
%%IncludeResource: font Times-Bold
%%IncludeResource: font Times-BoldItalic
%%IncludeResource: font Courier
%FOPEndFontDict
%%BeginResource: encoding WinAnsiEncoding
/WinAnsiEncoding [
/.notdef /.notdef /.notdef /.notdef /.notdef
/.notdef /.notdef /.notdef /.notdef /.notdef
/.notdef /.notdef /.notdef /.notdef /.notdef
/.notdef /.notdef /.notdef /.notdef /.notdef
/.notdef /.notdef /.notdef /.notdef /.notdef
/.notdef /.notdef /.notdef /.notdef /.notdef
/.notdef /.notdef /space /exclam /quotedbl
/numbersign /dollar /percent /ampersand /quotesingle
/parenleft /parenright /asterisk /plus /comma
/hyphen /period /slash /zero /one
/two /three /four /five /six
/seven /eight /nine /colon /semicolon
/less /equal /greater /question /at
/A /B /C /D /E
/F /G /H /I /J
/K /L /M /N /O
/P /Q /R /S /T
/U /V /W /X /Y
/Z /bracketleft /backslash /bracketright /asciicircum
/underscore /quoteleft /a /b /c
/d /e /f /g /h
/i /j /k /l /m
/n /o /p /q /r
/s /t /u /v /w
/x /y /z /braceleft /bar
/braceright /asciitilde /bullet /Euro /bullet
/quotesinglbase /florin /quotedblbase /ellipsis /dagger
/daggerdbl /circumflex /perthousand /Scaron /guilsinglleft
/OE /bullet /Zcaron /bullet /bullet
/quoteleft /quoteright /quotedblleft /quotedblright /bullet
/endash /emdash /asciitilde /trademark /scaron
/guilsinglright /oe /bullet /zcaron /Ydieresis
/space /exclamdown /cent /sterling /currency
/yen /brokenbar /section /dieresis /copyright
/ordfeminine /guillemotleft /logicalnot /sfthyphen /registered
/macron /degree /plusminus /twosuperior /threesuperior
/acute /mu /paragraph /middot /cedilla
/onesuperior /ordmasculine /guillemotright /onequarter /onehalf
/threequarters /questiondown /Agrave /Aacute /Acircumflex
/Atilde /Adieresis /Aring /AE /Ccedilla
/Egrave /Eacute /Ecircumflex /Edieresis /Igrave
/Iacute /Icircumflex /Idieresis /Eth /Ntilde
/Ograve /Oacute /Ocircumflex /Otilde /Odieresis
/multiply /Oslash /Ugrave /Uacute /Ucircumflex
/Udieresis /Yacute /Thorn /germandbls /agrave
/aacute /acircumflex /atilde /adieresis /aring
/ae /ccedilla /egrave /eacute /ecircumflex
/edieresis /igrave /iacute /icircumflex /idieresis
/eth /ntilde /ograve /oacute /ocircumflex
/otilde /odieresis /divide /oslash /ugrave
/uacute /ucircumflex /udieresis /yacute /thorn
/ydieresis
] def
%%EndResource
%FOPBeginFontReencode
/Courier-Oblique findfont
dup length dict begin
  {1 index /FID ne {def} {pop pop} ifelse} forall
  /Encoding WinAnsiEncoding def
  currentdict
end
/Courier-Oblique exch definefont pop
/Courier-BoldOblique findfont
dup length dict begin
  {1 index /FID ne {def} {pop pop} ifelse} forall
  /Encoding WinAnsiEncoding def
  currentdict
end
/Courier-BoldOblique exch definefont pop
/Courier-Bold findfont
dup length dict begin
  {1 index /FID ne {def} {pop pop} ifelse} forall
  /Encoding WinAnsiEncoding def
  currentdict
end
/Courier-Bold exch definefont pop
/Helvetica findfont
dup length dict begin
  {1 index /FID ne {def} {pop pop} ifelse} forall
  /Encoding WinAnsiEncoding def
  currentdict
end
/Helvetica exch definefont pop
/Helvetica-Oblique findfont
dup length dict begin
  {1 index /FID ne {def} {pop pop} ifelse} forall
  /Encoding WinAnsiEncoding def
  currentdict
end
/Helvetica-Oblique exch definefont pop
/Helvetica-Bold findfont
dup length dict begin
  {1 index /FID ne {def} {pop pop} ifelse} forall
  /Encoding WinAnsiEncoding def
  currentdict
end
/Helvetica-Bold exch definefont pop
/Helvetica-BoldOblique findfont
dup length dict begin
  {1 index /FID ne {def} {pop pop} ifelse} forall
  /Encoding WinAnsiEncoding def
  currentdict
end
/Helvetica-BoldOblique exch definefont pop
/Times-Roman findfont
dup length dict begin
  {1 index /FID ne {def} {pop pop} ifelse} forall
  /Encoding WinAnsiEncoding def
  currentdict
end
/Times-Roman exch definefont pop
/Times-Italic findfont
dup length dict begin
  {1 index /FID ne {def} {pop pop} ifelse} forall
  /Encoding WinAnsiEncoding def
  currentdict
end
/Times-Italic exch definefont pop
/Times-Bold findfont
dup length dict begin
  {1 index /FID ne {def} {pop pop} ifelse} forall
  /Encoding WinAnsiEncoding def
  currentdict
end
/Times-Bold exch definefont pop
/Times-BoldItalic findfont
dup length dict begin
  {1 index /FID ne {def} {pop pop} ifelse} forall
  /Encoding WinAnsiEncoding def
  currentdict
end
/Times-BoldItalic exch definefont pop
/Courier findfont
dup length dict begin
  {1 index /FID ne {def} {pop pop} ifelse} forall
  /Encoding WinAnsiEncoding def
  currentdict
end
/Courier exch definefont pop
%FOPEndFontReencode
%%EndProlog
%%Page: 1 1
%%PageBoundingBox: 0 0 1120 840
%%BeginPageSetup
[1 0 0 -1 0 840] CT
%%EndPageSetup
GS
1 GC
N
0 0 1120 840 re
f
GR
GS
1 GC
N
73 374 M
507 374 L
507 31.5 L
73 31.5 L
cp
f
GR
GS
0.149 GC
2 setlinecap
1 LJ
0.5 LW
N
73 374 M
507 374 L
S
GR
GS
0.149 GC
2 setlinecap
1 LJ
0.5 LW
N
73 31.5 M
507 31.5 L
S
GR
GS
0.149 GC
2 setlinecap
1 LJ
0.5 LW
N
131.172 374 M
131.172 369.66 L
S
GR
GS
0.149 GC
2 setlinecap
1 LJ
0.5 LW
N
209.977 374 M
209.977 369.66 L
S
GR
GS
0.149 GC
2 setlinecap
1 LJ
0.5 LW
N
288.782 374 M
288.782 369.66 L
S
GR
GS
0.149 GC
2 setlinecap
1 LJ
0.5 LW
N
367.587 374 M
367.587 369.66 L
S
GR
GS
0.149 GC
2 setlinecap
1 LJ
0.5 LW
N
446.393 374 M
446.393 369.66 L
S
GR
GS
0.149 GC
2 setlinecap
1 LJ
0.5 LW
N
131.172 31.5 M
131.172 35.84 L
S
GR
GS
0.149 GC
2 setlinecap
1 LJ
0.5 LW
N
209.977 31.5 M
209.977 35.84 L
S
GR
GS
0.149 GC
2 setlinecap
1 LJ
0.5 LW
N
288.782 31.5 M
288.782 35.84 L
S
GR
GS
0.149 GC
2 setlinecap
1 LJ
0.5 LW
N
367.587 31.5 M
367.587 35.84 L
S
GR
GS
0.149 GC
2 setlinecap
1 LJ
0.5 LW
N
446.393 31.5 M
446.393 35.84 L
S
GR
GS
0.149 GC
2 setlinecap
1 LJ
0.5 LW
N
91.769 374 M
91.769 371.83 L
S
GR
GS
0.149 GC
2 setlinecap
1 LJ
0.5 LW
N
111.471 374 M
111.471 371.83 L
S
GR
GS
0.149 GC
2 setlinecap
1 LJ
0.5 LW
N
150.873 374 M
150.873 371.83 L
S
GR
GS
0.149 GC
2 setlinecap
1 LJ
0.5 LW
N
170.574 374 M
170.574 371.83 L
S
GR
GS
0.149 GC
2 setlinecap
1 LJ
0.5 LW
N
190.276 374 M
190.276 371.83 L
S
GR
GS
0.149 GC
2 setlinecap
1 LJ
0.5 LW
N
229.678 374 M
229.678 371.83 L
S
GR
GS
0.149 GC
2 setlinecap
1 LJ
0.5 LW
N
249.38 374 M
249.38 371.83 L
S
GR
GS
0.149 GC
2 setlinecap
1 LJ
0.5 LW
N
269.081 374 M
269.081 371.83 L
S
GR
GS
0.149 GC
2 setlinecap
1 LJ
0.5 LW
N
308.484 374 M
308.484 371.83 L
S
GR
GS
0.149 GC
2 setlinecap
1 LJ
0.5 LW
N
328.185 374 M
328.185 371.83 L
S
GR
GS
0.149 GC
2 setlinecap
1 LJ
0.5 LW
N
347.886 374 M
347.886 371.83 L
S
GR
GS
0.149 GC
2 setlinecap
1 LJ
0.5 LW
N
387.289 374 M
387.289 371.83 L
S
GR
GS
0.149 GC
2 setlinecap
1 LJ
0.5 LW
N
406.99 374 M
406.99 371.83 L
S
GR
GS
0.149 GC
2 setlinecap
1 LJ
0.5 LW
N
426.691 374 M
426.691 371.83 L
S
GR
GS
0.149 GC
2 setlinecap
1 LJ
0.5 LW
N
466.094 374 M
466.094 371.83 L
S
GR
GS
0.149 GC
2 setlinecap
1 LJ
0.5 LW
N
485.795 374 M
485.795 371.83 L
S
GR
GS
0.149 GC
2 setlinecap
1 LJ
0.5 LW
N
505.497 374 M
505.497 371.83 L
S
GR
GS
0.149 GC
2 setlinecap
1 LJ
0.5 LW
N
91.769 31.5 M
91.769 33.67 L
S
GR
GS
0.149 GC
2 setlinecap
1 LJ
0.5 LW
N
111.471 31.5 M
111.471 33.67 L
S
GR
GS
0.149 GC
2 setlinecap
1 LJ
0.5 LW
N
150.873 31.5 M
150.873 33.67 L
S
GR
GS
0.149 GC
2 setlinecap
1 LJ
0.5 LW
N
170.574 31.5 M
170.574 33.67 L
S
GR
GS
0.149 GC
2 setlinecap
1 LJ
0.5 LW
N
190.276 31.5 M
190.276 33.67 L
S
GR
GS
0.149 GC
2 setlinecap
1 LJ
0.5 LW
N
229.678 31.5 M
229.678 33.67 L
S
GR
GS
0.149 GC
2 setlinecap
1 LJ
0.5 LW
N
249.38 31.5 M
249.38 33.67 L
S
GR
GS
0.149 GC
2 setlinecap
1 LJ
0.5 LW
N
269.081 31.5 M
269.081 33.67 L
S
GR
GS
0.149 GC
2 setlinecap
1 LJ
0.5 LW
N
308.484 31.5 M
308.484 33.67 L
S
GR
GS
0.149 GC
2 setlinecap
1 LJ
0.5 LW
N
328.185 31.5 M
328.185 33.67 L
S
GR
GS
0.149 GC
2 setlinecap
1 LJ
0.5 LW
N
347.886 31.5 M
347.886 33.67 L
S
GR
GS
0.149 GC
2 setlinecap
1 LJ
0.5 LW
N
387.289 31.5 M
387.289 33.67 L
S
GR
GS
0.149 GC
2 setlinecap
1 LJ
0.5 LW
N
406.99 31.5 M
406.99 33.67 L
S
GR
GS
0.149 GC
2 setlinecap
1 LJ
0.5 LW
N
426.691 31.5 M
426.691 33.67 L
S
GR
GS
0.149 GC
2 setlinecap
1 LJ
0.5 LW
N
466.094 31.5 M
466.094 33.67 L
S
GR
GS
0.149 GC
2 setlinecap
1 LJ
0.5 LW
N
485.795 31.5 M
485.795 33.67 L
S
GR
GS
0.149 GC
2 setlinecap
1 LJ
0.5 LW
N
505.497 31.5 M
505.497 33.67 L
S
GR
GS
[1 0 0 1 131.17184 378.80011] CT
0.149 GC
/Helvetica 14 F
GS
[1 0 0 1 0 0] CT
-16 14 moveto 
1 -1 scale
(2000) t 
GR
GR
GS
[1 0 0 1 209.97705 378.80011] CT
0.149 GC
/Helvetica 14 F
GS
[1 0 0 1 0 0] CT
-16 14 moveto 
1 -1 scale
(4000) t 
GR
GR
GS
[1 0 0 1 288.78226 378.80011] CT
0.149 GC
/Helvetica 14 F
GS
[1 0 0 1 0 0] CT
-16 14 moveto 
1 -1 scale
(6000) t 
GR
GR
GS
[1 0 0 1 367.58746 378.80011] CT
0.149 GC
/Helvetica 14 F
GS
[1 0 0 1 0 0] CT
-16 14 moveto 
1 -1 scale
(8000) t 
GR
GR
GS
[1 0 0 1 446.39267 378.80011] CT
0.149 GC
/Helvetica 14 F
GS
[1 0 0 1 0 0] CT
-19.5 14 moveto 
1 -1 scale
(10000) t 
GR
GR
GS
[1 0 0 1 290.00021 396.30011] CT
0.149 GC
/Helvetica 15.4 F
GS
[1 0 0 1 0 0] CT
-42 15 moveto 
1 -1 scale
(Bitrate\(kb/s\)) t 
GR
GR
GS
0.149 GC
2 setlinecap
1 LJ
0.5 LW
N
73 374 M
73 31.5 L
S
GR
GS
0.149 GC
2 setlinecap
1 LJ
0.5 LW
N
507 374 M
507 31.5 L
S
GR
GS
0.149 GC
2 setlinecap
1 LJ
0.5 LW
N
73 335.511 M
77.34 335.511 L
S
GR
GS
0.149 GC
2 setlinecap
1 LJ
0.5 LW
N
73 287.117 M
77.34 287.117 L
S
GR
GS
0.149 GC
2 setlinecap
1 LJ
0.5 LW
N
73 238.723 M
77.34 238.723 L
S
GR
GS
0.149 GC
2 setlinecap
1 LJ
0.5 LW
N
73 190.328 M
77.34 190.328 L
S
GR
GS
0.149 GC
2 setlinecap
1 LJ
0.5 LW
N
73 141.934 M
77.34 141.934 L
S
GR
GS
0.149 GC
2 setlinecap
1 LJ
0.5 LW
N
73 93.54 M
77.34 93.54 L
S
GR
GS
0.149 GC
2 setlinecap
1 LJ
0.5 LW
N
73 45.145 M
77.34 45.145 L
S
GR
GS
0.149 GC
2 setlinecap
1 LJ
0.5 LW
N
507 335.511 M
502.66 335.511 L
S
GR
GS
0.149 GC
2 setlinecap
1 LJ
0.5 LW
N
507 287.117 M
502.66 287.117 L
S
GR
GS
0.149 GC
2 setlinecap
1 LJ
0.5 LW
N
507 238.723 M
502.66 238.723 L
S
GR
GS
0.149 GC
2 setlinecap
1 LJ
0.5 LW
N
507 190.328 M
502.66 190.328 L
S
GR
GS
0.149 GC
2 setlinecap
1 LJ
0.5 LW
N
507 141.934 M
502.66 141.934 L
S
GR
GS
0.149 GC
2 setlinecap
1 LJ
0.5 LW
N
507 93.54 M
502.66 93.54 L
S
GR
GS
0.149 GC
2 setlinecap
1 LJ
0.5 LW
N
507 45.145 M
502.66 45.145 L
S
GR
GS
0.149 GC
2 setlinecap
1 LJ
0.5 LW
N
73 364.548 M
75.17 364.548 L
S
GR
GS
0.149 GC
2 setlinecap
1 LJ
0.5 LW
N
73 354.869 M
75.17 354.869 L
S
GR
GS
0.149 GC
2 setlinecap
1 LJ
0.5 LW
N
73 345.19 M
75.17 345.19 L
S
GR
GS
0.149 GC
2 setlinecap
1 LJ
0.5 LW
N
73 325.832 M
75.17 325.832 L
S
GR
GS
0.149 GC
2 setlinecap
1 LJ
0.5 LW
N
73 316.153 M
75.17 316.153 L
S
GR
GS
0.149 GC
2 setlinecap
1 LJ
0.5 LW
N
73 306.475 M
75.17 306.475 L
S
GR
GS
0.149 GC
2 setlinecap
1 LJ
0.5 LW
N
73 296.796 M
75.17 296.796 L
S
GR
GS
0.149 GC
2 setlinecap
1 LJ
0.5 LW
N
73 277.438 M
75.17 277.438 L
S
GR
GS
0.149 GC
2 setlinecap
1 LJ
0.5 LW
N
73 267.759 M
75.17 267.759 L
S
GR
GS
0.149 GC
2 setlinecap
1 LJ
0.5 LW
N
73 258.08 M
75.17 258.08 L
S
GR
GS
0.149 GC
2 setlinecap
1 LJ
0.5 LW
N
73 248.401 M
75.17 248.401 L
S
GR
GS
0.149 GC
2 setlinecap
1 LJ
0.5 LW
N
73 229.044 M
75.17 229.044 L
S
GR
GS
0.149 GC
2 setlinecap
1 LJ
0.5 LW
N
73 219.365 M
75.17 219.365 L
S
GR
GS
0.149 GC
2 setlinecap
1 LJ
0.5 LW
N
73 209.686 M
75.17 209.686 L
S
GR
GS
0.149 GC
2 setlinecap
1 LJ
0.5 LW
N
73 200.007 M
75.17 200.007 L
S
GR
GS
0.149 GC
2 setlinecap
1 LJ
0.5 LW
N
73 180.649 M
75.17 180.649 L
S
GR
GS
0.149 GC
2 setlinecap
1 LJ
0.5 LW
N
73 170.97 M
75.17 170.97 L
S
GR
GS
0.149 GC
2 setlinecap
1 LJ
0.5 LW
N
73 161.292 M
75.17 161.292 L
S
GR
GS
0.149 GC
2 setlinecap
1 LJ
0.5 LW
N
73 151.613 M
75.17 151.613 L
S
GR
GS
0.149 GC
2 setlinecap
1 LJ
0.5 LW
N
73 132.255 M
75.17 132.255 L
S
GR
GS
0.149 GC
2 setlinecap
1 LJ
0.5 LW
N
73 122.576 M
75.17 122.576 L
S
GR
GS
0.149 GC
2 setlinecap
1 LJ
0.5 LW
N
73 112.897 M
75.17 112.897 L
S
GR
GS
0.149 GC
2 setlinecap
1 LJ
0.5 LW
N
73 103.218 M
75.17 103.218 L
S
GR
GS
0.149 GC
2 setlinecap
1 LJ
0.5 LW
N
73 83.861 M
75.17 83.861 L
S
GR
GS
0.149 GC
2 setlinecap
1 LJ
0.5 LW
N
73 74.182 M
75.17 74.182 L
S
GR
GS
0.149 GC
2 setlinecap
1 LJ
0.5 LW
N
73 64.503 M
75.17 64.503 L
S
GR
GS
0.149 GC
2 setlinecap
1 LJ
0.5 LW
N
73 54.824 M
75.17 54.824 L
S
GR
GS
0.149 GC
2 setlinecap
1 LJ
0.5 LW
N
73 35.466 M
75.17 35.466 L
S
GR
GS
0.149 GC
2 setlinecap
1 LJ
0.5 LW
N
507 364.548 M
504.83 364.548 L
S
GR
GS
0.149 GC
2 setlinecap
1 LJ
0.5 LW
N
507 354.869 M
504.83 354.869 L
S
GR
GS
0.149 GC
2 setlinecap
1 LJ
0.5 LW
N
507 345.19 M
504.83 345.19 L
S
GR
GS
0.149 GC
2 setlinecap
1 LJ
0.5 LW
N
507 325.832 M
504.83 325.832 L
S
GR
GS
0.149 GC
2 setlinecap
1 LJ
0.5 LW
N
507 316.153 M
504.83 316.153 L
S
GR
GS
0.149 GC
2 setlinecap
1 LJ
0.5 LW
N
507 306.475 M
504.83 306.475 L
S
GR
GS
0.149 GC
2 setlinecap
1 LJ
0.5 LW
N
507 296.796 M
504.83 296.796 L
S
GR
GS
0.149 GC
2 setlinecap
1 LJ
0.5 LW
N
507 277.438 M
504.83 277.438 L
S
GR
GS
0.149 GC
2 setlinecap
1 LJ
0.5 LW
N
507 267.759 M
504.83 267.759 L
S
GR
GS
0.149 GC
2 setlinecap
1 LJ
0.5 LW
N
507 258.08 M
504.83 258.08 L
S
GR
GS
0.149 GC
2 setlinecap
1 LJ
0.5 LW
N
507 248.401 M
504.83 248.401 L
S
GR
GS
0.149 GC
2 setlinecap
1 LJ
0.5 LW
N
507 229.044 M
504.83 229.044 L
S
GR
GS
0.149 GC
2 setlinecap
1 LJ
0.5 LW
N
507 219.365 M
504.83 219.365 L
S
GR
GS
0.149 GC
2 setlinecap
1 LJ
0.5 LW
N
507 209.686 M
504.83 209.686 L
S
GR
GS
0.149 GC
2 setlinecap
1 LJ
0.5 LW
N
507 200.007 M
504.83 200.007 L
S
GR
GS
0.149 GC
2 setlinecap
1 LJ
0.5 LW
N
507 180.649 M
504.83 180.649 L
S
GR
GS
0.149 GC
2 setlinecap
1 LJ
0.5 LW
N
507 170.97 M
504.83 170.97 L
S
GR
GS
0.149 GC
2 setlinecap
1 LJ
0.5 LW
N
507 161.292 M
504.83 161.292 L
S
GR
GS
0.149 GC
2 setlinecap
1 LJ
0.5 LW
N
507 151.613 M
504.83 151.613 L
S
GR
GS
0.149 GC
2 setlinecap
1 LJ
0.5 LW
N
507 132.255 M
504.83 132.255 L
S
GR
GS
0.149 GC
2 setlinecap
1 LJ
0.5 LW
N
507 122.576 M
504.83 122.576 L
S
GR
GS
0.149 GC
2 setlinecap
1 LJ
0.5 LW
N
507 112.897 M
504.83 112.897 L
S
GR
GS
0.149 GC
2 setlinecap
1 LJ
0.5 LW
N
507 103.218 M
504.83 103.218 L
S
GR
GS
0.149 GC
2 setlinecap
1 LJ
0.5 LW
N
507 83.861 M
504.83 83.861 L
S
GR
GS
0.149 GC
2 setlinecap
1 LJ
0.5 LW
N
507 74.182 M
504.83 74.182 L
S
GR
GS
0.149 GC
2 setlinecap
1 LJ
0.5 LW
N
507 64.503 M
504.83 64.503 L
S
GR
GS
0.149 GC
2 setlinecap
1 LJ
0.5 LW
N
507 54.824 M
504.83 54.824 L
S
GR
GS
0.149 GC
2 setlinecap
1 LJ
0.5 LW
N
507 35.466 M
504.83 35.466 L
S
GR
GS
[1 0 0 1 68.2 335.51117] CT
0.149 GC
/Helvetica 14 F
GS
[1 0 0 1 0 0] CT
-16 5.5 moveto 
1 -1 scale
(33) t 
GR
GR
GS
[1 0 0 1 68.2 287.11685] CT
0.149 GC
/Helvetica 14 F
GS
[1 0 0 1 0 0] CT
-16 5.5 moveto 
1 -1 scale
(34) t 
GR
GR
GS
[1 0 0 1 68.2 238.72252] CT
0.149 GC
/Helvetica 14 F
GS
[1 0 0 1 0 0] CT
-16 5.5 moveto 
1 -1 scale
(35) t 
GR
GR
GS
[1 0 0 1 68.2 190.32819] CT
0.149 GC
/Helvetica 14 F
GS
[1 0 0 1 0 0] CT
-16 5.5 moveto 
1 -1 scale
(36) t 
GR
GR
GS
[1 0 0 1 68.2 141.93387] CT
0.149 GC
/Helvetica 14 F
GS
[1 0 0 1 0 0] CT
-16 5.5 moveto 
1 -1 scale
(37) t 
GR
GR
GS
[1 0 0 1 68.2 93.53954] CT
0.149 GC
/Helvetica 14 F
GS
[1 0 0 1 0 0] CT
-16 5.5 moveto 
1 -1 scale
(38) t 
GR
GR
GS
[1 0 0 1 68.2 45.14521] CT
0.149 GC
/Helvetica 14 F
GS
[1 0 0 1 0 0] CT
-16 5.5 moveto 
1 -1 scale
(39) t 
GR
GR
GS
[0 -1 1 0 49.2 202.74985] CT
0.149 GC
/Helvetica 15.4 F
GS
[1 0 0 1 0 0] CT
-44 -4 moveto 
1 -1 scale
(PSNR V \(dB\)) t 
GR
GR
GS
[1 0 0 1 290.00027 29.57505] CT
/Helvetica-Bold 15.4 F
GS
[1 0 0 1 0 0] CT
-184.5 -4 moveto 
1 -1 scale
(FoodMarket_1920x1080_5994_10bit_420.y4m-hevc) t 
GR
GR
GS
0 0.447 0.741 RC
[1 3] 0 setdash
2 LJ
0.5 LW
N
481.316 35.083 M
226.573 103.495 L
137.62 182.829 L
94.802 275.025 L
73.396 371.936 L
S
GR
GS
0.851 0.325 0.098 RC
1 LJ
0.5 LW
N
500.294 32.636 M
231.727 100.653 L
140.063 179.16 L
96.107 270.763 L
74.118 367.337 L
S
GR
GS
0.929 0.694 0.125 RC
1 LJ
0.5 LW
N
478.07 35.276 M
225.046 104.125 L
136.644 184.167 L
94.21 276.626 L
73 374 L
S
GR
GS
0.494 0.184 0.557 RC
1 LJ
0.5 LW
N
507 31.5 M
232.471 99.786 L
140.19 178.669 L
96.061 270.386 L
74.041 367.273 L
S
GR
GS
0.467 0.675 0.188 RC
[10 6] 0 setdash
2 LJ
0.5 LW
N
484.023 34.658 M
227.314 103.162 L
137.781 182.596 L
94.956 274.475 L
73.472 371.765 L
S
GR
GS
0.302 0.745 0.933 RC
[10 6] 0 setdash
2 LJ
0.5 LW
N
480.844 35.097 M
226.33 103.561 L
137.428 183.177 L
94.786 275.034 L
73.378 372.23 L
S
GR
GS
0.635 0.078 0.184 RC
[10 6] 0 setdash
2 LJ
0.5 LW
N
484.344 34.553 M
227.186 103.093 L
137.794 182.619 L
94.83 274.744 L
73.473 371.485 L
S
GR
GS
1 GC
N
499 366 M
499 250.5 L
344.5 250.5 L
344.5 366 L
cp
f
GR
GS
[1 0 0 1 381.5 260.25] CT
/Helvetica 13 F
GS
[1 0 0 1 0 0] CT
0 5 moveto 
1 -1 scale
(Base Run) t 
GR
GR
GS
0 0.447 0.741 RC
[1 3] 0 setdash
2 LJ
0.5 LW
N
348.5 260.25 M
378.5 260.25 L
S
GR
GS
[1 0 0 1 381.5 276.25] CT
/Helvetica 13 F
GS
[1 0 0 1 0 0] CT
0 5 moveto 
1 -1 scale
(I & B Frames) t 
GR
GR
GS
0.851 0.325 0.098 RC
1 LJ
0.5 LW
N
348.5 276.25 M
378.5 276.25 L
S
GR
GS
[1 0 0 1 381.5 292.25] CT
/Helvetica 13 F
GS
[1 0 0 1 0 0] CT
0 5 moveto 
1 -1 scale
(I Frames Only) t 
GR
GR
GS
0.929 0.694 0.125 RC
1 LJ
0.5 LW
N
348.5 292.25 M
378.5 292.25 L
S
GR
GS
[1 0 0 1 381.5 308.25] CT
/Helvetica 13 F
GS
[1 0 0 1 0 0] CT
0 5 moveto 
1 -1 scale
(B Frames Only) t 
GR
GR
GS
0.494 0.184 0.557 RC
1 LJ
0.5 LW
N
348.5 308.25 M
378.5 308.25 L
S
GR
GS
[1 0 0 1 381.5 324.25] CT
/Helvetica 13 F
GS
[1 0 0 1 0 0] CT
0 5 moveto 
1 -1 scale
(Part I & B Frames) t 
GR
GR
GS
0.467 0.675 0.188 RC
[10 6] 0 setdash
2 LJ
0.5 LW
N
348.5 324.25 M
378.5 324.25 L
S
GR
GS
[1 0 0 1 381.5 340.25] CT
/Helvetica 13 F
GS
[1 0 0 1 0 0] CT
0 5 moveto 
1 -1 scale
(Part I Frames Only) t 
GR
GR
GS
0.302 0.745 0.933 RC
[10 6] 0 setdash
2 LJ
0.5 LW
N
348.5 340.25 M
378.5 340.25 L
S
GR
GS
[1 0 0 1 381.5 356.25] CT
/Helvetica 13 F
GS
[1 0 0 1 0 0] CT
0 5 moveto 
1 -1 scale
(Part B Frames Only) t 
GR
GR
GS
0.635 0.078 0.184 RC
[10 6] 0 setdash
2 LJ
0.5 LW
N
348.5 356.25 M
378.5 356.25 L
S
GR
GS
0.149 GC
10.0 ML
0.5 LW
N
344.5 366 M
344.5 250.5 L
499 250.5 L
499 366 L
cp
S
GR
%%Trailer
%%Pages: 1
%%EOF
