%!PS-Adobe-3.0 EPSF-3.0
%%Creator: (MATLAB, The Mathworks, Inc. Version 9.11.0.1837725 \(R2021b\) Update 2. Operating System: Mac OS X)
%%Title: plots/pchip/TelevisionClip_1080P-39e3.y4m-hevc-SSIM.eps
%%CreationDate: 2022-02-03T19:14:49
%%Pages: (atend)
%%BoundingBox:    33   425   508   826
%%LanguageLevel: 3
%%EndComments
%%BeginProlog
%%BeginResource: procset (Apache XML Graphics Std ProcSet) 1.2 0
%%Version: 1.2 0
%%Copyright: (Copyright 2001-2003,2010 The Apache Software Foundation. License terms: http://www.apache.org/licenses/LICENSE-2.0)
/bd{bind def}bind def
/ld{load def}bd
/GR/grestore ld
/GS/gsave ld
/RM/rmoveto ld
/C/curveto ld
/t/show ld
/L/lineto ld
/ML/setmiterlimit ld
/CT/concat ld
/f/fill ld
/N/newpath ld
/S/stroke ld
/CC/setcmykcolor ld
/A/ashow ld
/cp/closepath ld
/RC/setrgbcolor ld
/LJ/setlinejoin ld
/GC/setgray ld
/LW/setlinewidth ld
/M/moveto ld
/re {4 2 roll M
1 index 0 rlineto
0 exch rlineto
neg 0 rlineto
cp } bd
/_ctm matrix def
/_tm matrix def
/BT { _ctm currentmatrix pop matrix _tm copy pop 0 0 moveto } bd
/ET { _ctm setmatrix } bd
/iTm { _ctm setmatrix _tm concat } bd
/Tm { _tm astore pop iTm 0 0 moveto } bd
/ux 0.0 def
/uy 0.0 def
/F {
  /Tp exch def
  /Tf exch def
  Tf findfont Tp scalefont setfont
  /cf Tf def  /cs Tp def
} bd
/ULS {currentpoint /uy exch def /ux exch def} bd
/ULE {
  /Tcx currentpoint pop def
  gsave
  newpath
  cf findfont cs scalefont dup
  /FontMatrix get 0 get /Ts exch def /FontInfo get dup
  /UnderlinePosition get Ts mul /To exch def
  /UnderlineThickness get Ts mul /Tt exch def
  ux uy To add moveto  Tcx uy To add lineto
  Tt setlinewidth stroke
  grestore
} bd
/OLE {
  /Tcx currentpoint pop def
  gsave
  newpath
  cf findfont cs scalefont dup
  /FontMatrix get 0 get /Ts exch def /FontInfo get dup
  /UnderlinePosition get Ts mul /To exch def
  /UnderlineThickness get Ts mul /Tt exch def
  ux uy To add cs add moveto Tcx uy To add cs add lineto
  Tt setlinewidth stroke
  grestore
} bd
/SOE {
  /Tcx currentpoint pop def
  gsave
  newpath
  cf findfont cs scalefont dup
  /FontMatrix get 0 get /Ts exch def /FontInfo get dup
  /UnderlinePosition get Ts mul /To exch def
  /UnderlineThickness get Ts mul /Tt exch def
  ux uy To add cs 10 mul 26 idiv add moveto Tcx uy To add cs 10 mul 26 idiv add lineto
  Tt setlinewidth stroke
  grestore
} bd
/QT {
/Y22 exch store
/X22 exch store
/Y21 exch store
/X21 exch store
currentpoint
/Y21 load 2 mul add 3 div exch
/X21 load 2 mul add 3 div exch
/X21 load 2 mul /X22 load add 3 div
/Y21 load 2 mul /Y22 load add 3 div
/X22 load /Y22 load curveto
} bd
/SSPD {
dup length /d exch dict def
{
/v exch def
/k exch def
currentpagedevice k known {
/cpdv currentpagedevice k get def
v cpdv ne {
/upd false def
/nullv v type /nulltype eq def
/nullcpdv cpdv type /nulltype eq def
nullv nullcpdv or
{
/upd true def
} {
/sametype v type cpdv type eq def
sametype {
v type /arraytype eq {
/vlen v length def
/cpdvlen cpdv length def
vlen cpdvlen eq {
0 1 vlen 1 sub {
/i exch def
/obj v i get def
/cpdobj cpdv i get def
obj cpdobj ne {
/upd true def
exit
} if
} for
} {
/upd true def
} ifelse
} {
v type /dicttype eq {
v {
/dv exch def
/dk exch def
/cpddv cpdv dk get def
dv cpddv ne {
/upd true def
exit
} if
} forall
} {
/upd true def
} ifelse
} ifelse
} if
} ifelse
upd true eq {
d k v put
} if
} if
} if
} forall
d length 0 gt {
d setpagedevice
} if
} bd
/RE { % /NewFontName [NewEncodingArray] /FontName RE -
  findfont dup length dict begin
  {
    1 index /FID ne
    {def} {pop pop} ifelse
  } forall
  /Encoding exch def
  /FontName 1 index def
  currentdict definefont pop
  end
} bind def
%%EndResource
%%BeginResource: procset (Apache XML Graphics EPS ProcSet) 1.0 0
%%Version: 1.0 0
%%Copyright: (Copyright 2002-2003 The Apache Software Foundation. License terms: http://www.apache.org/licenses/LICENSE-2.0)
/BeginEPSF { %def
/b4_Inc_state save def         % Save state for cleanup
/dict_count countdictstack def % Count objects on dict stack
/op_count count 1 sub def      % Count objects on operand stack
userdict begin                 % Push userdict on dict stack
/showpage { } def              % Redefine showpage, { } = null proc
0 setgray 0 setlinecap         % Prepare graphics state
1 setlinewidth 0 setlinejoin
10 setmiterlimit [ ] 0 setdash newpath
/languagelevel where           % If level not equal to 1 then
{pop languagelevel             % set strokeadjust and
1 ne                           % overprint to their defaults.
{false setstrokeadjust false setoverprint
} if
} if
} bd
/EndEPSF { %def
count op_count sub {pop} repeat            % Clean up stacks
countdictstack dict_count sub {end} repeat
b4_Inc_state restore
} bd
%%EndResource
%FOPBeginFontDict
%%IncludeResource: font Courier-Oblique
%%IncludeResource: font Courier-BoldOblique
%%IncludeResource: font Courier-Bold
%%IncludeResource: font ZapfDingbats
%%IncludeResource: font Symbol
%%IncludeResource: font Helvetica
%%IncludeResource: font Helvetica-Oblique
%%IncludeResource: font Helvetica-Bold
%%IncludeResource: font Helvetica-BoldOblique
%%IncludeResource: font Times-Roman
%%IncludeResource: font Times-Italic
%%IncludeResource: font Times-Bold
%%IncludeResource: font Times-BoldItalic
%%IncludeResource: font Courier
%FOPEndFontDict
%%BeginResource: encoding WinAnsiEncoding
/WinAnsiEncoding [
/.notdef /.notdef /.notdef /.notdef /.notdef
/.notdef /.notdef /.notdef /.notdef /.notdef
/.notdef /.notdef /.notdef /.notdef /.notdef
/.notdef /.notdef /.notdef /.notdef /.notdef
/.notdef /.notdef /.notdef /.notdef /.notdef
/.notdef /.notdef /.notdef /.notdef /.notdef
/.notdef /.notdef /space /exclam /quotedbl
/numbersign /dollar /percent /ampersand /quotesingle
/parenleft /parenright /asterisk /plus /comma
/hyphen /period /slash /zero /one
/two /three /four /five /six
/seven /eight /nine /colon /semicolon
/less /equal /greater /question /at
/A /B /C /D /E
/F /G /H /I /J
/K /L /M /N /O
/P /Q /R /S /T
/U /V /W /X /Y
/Z /bracketleft /backslash /bracketright /asciicircum
/underscore /quoteleft /a /b /c
/d /e /f /g /h
/i /j /k /l /m
/n /o /p /q /r
/s /t /u /v /w
/x /y /z /braceleft /bar
/braceright /asciitilde /bullet /Euro /bullet
/quotesinglbase /florin /quotedblbase /ellipsis /dagger
/daggerdbl /circumflex /perthousand /Scaron /guilsinglleft
/OE /bullet /Zcaron /bullet /bullet
/quoteleft /quoteright /quotedblleft /quotedblright /bullet
/endash /emdash /asciitilde /trademark /scaron
/guilsinglright /oe /bullet /zcaron /Ydieresis
/space /exclamdown /cent /sterling /currency
/yen /brokenbar /section /dieresis /copyright
/ordfeminine /guillemotleft /logicalnot /sfthyphen /registered
/macron /degree /plusminus /twosuperior /threesuperior
/acute /mu /paragraph /middot /cedilla
/onesuperior /ordmasculine /guillemotright /onequarter /onehalf
/threequarters /questiondown /Agrave /Aacute /Acircumflex
/Atilde /Adieresis /Aring /AE /Ccedilla
/Egrave /Eacute /Ecircumflex /Edieresis /Igrave
/Iacute /Icircumflex /Idieresis /Eth /Ntilde
/Ograve /Oacute /Ocircumflex /Otilde /Odieresis
/multiply /Oslash /Ugrave /Uacute /Ucircumflex
/Udieresis /Yacute /Thorn /germandbls /agrave
/aacute /acircumflex /atilde /adieresis /aring
/ae /ccedilla /egrave /eacute /ecircumflex
/edieresis /igrave /iacute /icircumflex /idieresis
/eth /ntilde /ograve /oacute /ocircumflex
/otilde /odieresis /divide /oslash /ugrave
/uacute /ucircumflex /udieresis /yacute /thorn
/ydieresis
] def
%%EndResource
%FOPBeginFontReencode
/Courier-Oblique findfont
dup length dict begin
  {1 index /FID ne {def} {pop pop} ifelse} forall
  /Encoding WinAnsiEncoding def
  currentdict
end
/Courier-Oblique exch definefont pop
/Courier-BoldOblique findfont
dup length dict begin
  {1 index /FID ne {def} {pop pop} ifelse} forall
  /Encoding WinAnsiEncoding def
  currentdict
end
/Courier-BoldOblique exch definefont pop
/Courier-Bold findfont
dup length dict begin
  {1 index /FID ne {def} {pop pop} ifelse} forall
  /Encoding WinAnsiEncoding def
  currentdict
end
/Courier-Bold exch definefont pop
/Helvetica findfont
dup length dict begin
  {1 index /FID ne {def} {pop pop} ifelse} forall
  /Encoding WinAnsiEncoding def
  currentdict
end
/Helvetica exch definefont pop
/Helvetica-Oblique findfont
dup length dict begin
  {1 index /FID ne {def} {pop pop} ifelse} forall
  /Encoding WinAnsiEncoding def
  currentdict
end
/Helvetica-Oblique exch definefont pop
/Helvetica-Bold findfont
dup length dict begin
  {1 index /FID ne {def} {pop pop} ifelse} forall
  /Encoding WinAnsiEncoding def
  currentdict
end
/Helvetica-Bold exch definefont pop
/Helvetica-BoldOblique findfont
dup length dict begin
  {1 index /FID ne {def} {pop pop} ifelse} forall
  /Encoding WinAnsiEncoding def
  currentdict
end
/Helvetica-BoldOblique exch definefont pop
/Times-Roman findfont
dup length dict begin
  {1 index /FID ne {def} {pop pop} ifelse} forall
  /Encoding WinAnsiEncoding def
  currentdict
end
/Times-Roman exch definefont pop
/Times-Italic findfont
dup length dict begin
  {1 index /FID ne {def} {pop pop} ifelse} forall
  /Encoding WinAnsiEncoding def
  currentdict
end
/Times-Italic exch definefont pop
/Times-Bold findfont
dup length dict begin
  {1 index /FID ne {def} {pop pop} ifelse} forall
  /Encoding WinAnsiEncoding def
  currentdict
end
/Times-Bold exch definefont pop
/Times-BoldItalic findfont
dup length dict begin
  {1 index /FID ne {def} {pop pop} ifelse} forall
  /Encoding WinAnsiEncoding def
  currentdict
end
/Times-BoldItalic exch definefont pop
/Courier findfont
dup length dict begin
  {1 index /FID ne {def} {pop pop} ifelse} forall
  /Encoding WinAnsiEncoding def
  currentdict
end
/Courier exch definefont pop
%FOPEndFontReencode
%%EndProlog
%%Page: 1 1
%%PageBoundingBox: 0 0 1120 840
%%BeginPageSetup
[1 0 0 -1 0 840] CT
%%EndPageSetup
GS
1 GC
N
0 0 1120 840 re
f
GR
GS
1 GC
N
73 374 M
507 374 L
507 31.5 L
73 31.5 L
cp
f
GR
GS
0.149 GC
2 setlinecap
1 LJ
0.5 LW
N
73 374 M
507 374 L
S
GR
GS
0.149 GC
2 setlinecap
1 LJ
0.5 LW
N
73 31.5 M
507 31.5 L
S
GR
GS
0.149 GC
2 setlinecap
1 LJ
0.5 LW
N
99.876 374 M
99.876 369.66 L
S
GR
GS
0.149 GC
2 setlinecap
1 LJ
0.5 LW
N
148.476 374 M
148.476 369.66 L
S
GR
GS
0.149 GC
2 setlinecap
1 LJ
0.5 LW
N
197.075 374 M
197.075 369.66 L
S
GR
GS
0.149 GC
2 setlinecap
1 LJ
0.5 LW
N
245.675 374 M
245.675 369.66 L
S
GR
GS
0.149 GC
2 setlinecap
1 LJ
0.5 LW
N
294.275 374 M
294.275 369.66 L
S
GR
GS
0.149 GC
2 setlinecap
1 LJ
0.5 LW
N
342.875 374 M
342.875 369.66 L
S
GR
GS
0.149 GC
2 setlinecap
1 LJ
0.5 LW
N
391.474 374 M
391.474 369.66 L
S
GR
GS
0.149 GC
2 setlinecap
1 LJ
0.5 LW
N
440.074 374 M
440.074 369.66 L
S
GR
GS
0.149 GC
2 setlinecap
1 LJ
0.5 LW
N
488.674 374 M
488.674 369.66 L
S
GR
GS
0.149 GC
2 setlinecap
1 LJ
0.5 LW
N
99.876 31.5 M
99.876 35.84 L
S
GR
GS
0.149 GC
2 setlinecap
1 LJ
0.5 LW
N
148.476 31.5 M
148.476 35.84 L
S
GR
GS
0.149 GC
2 setlinecap
1 LJ
0.5 LW
N
197.075 31.5 M
197.075 35.84 L
S
GR
GS
0.149 GC
2 setlinecap
1 LJ
0.5 LW
N
245.675 31.5 M
245.675 35.84 L
S
GR
GS
0.149 GC
2 setlinecap
1 LJ
0.5 LW
N
294.275 31.5 M
294.275 35.84 L
S
GR
GS
0.149 GC
2 setlinecap
1 LJ
0.5 LW
N
342.875 31.5 M
342.875 35.84 L
S
GR
GS
0.149 GC
2 setlinecap
1 LJ
0.5 LW
N
391.474 31.5 M
391.474 35.84 L
S
GR
GS
0.149 GC
2 setlinecap
1 LJ
0.5 LW
N
440.074 31.5 M
440.074 35.84 L
S
GR
GS
0.149 GC
2 setlinecap
1 LJ
0.5 LW
N
488.674 31.5 M
488.674 35.84 L
S
GR
GS
0.149 GC
2 setlinecap
1 LJ
0.5 LW
N
80.436 374 M
80.436 371.83 L
S
GR
GS
0.149 GC
2 setlinecap
1 LJ
0.5 LW
N
90.156 374 M
90.156 371.83 L
S
GR
GS
0.149 GC
2 setlinecap
1 LJ
0.5 LW
N
109.596 374 M
109.596 371.83 L
S
GR
GS
0.149 GC
2 setlinecap
1 LJ
0.5 LW
N
119.316 374 M
119.316 371.83 L
S
GR
GS
0.149 GC
2 setlinecap
1 LJ
0.5 LW
N
129.036 374 M
129.036 371.83 L
S
GR
GS
0.149 GC
2 setlinecap
1 LJ
0.5 LW
N
138.756 374 M
138.756 371.83 L
S
GR
GS
0.149 GC
2 setlinecap
1 LJ
0.5 LW
N
158.196 374 M
158.196 371.83 L
S
GR
GS
0.149 GC
2 setlinecap
1 LJ
0.5 LW
N
167.916 374 M
167.916 371.83 L
S
GR
GS
0.149 GC
2 setlinecap
1 LJ
0.5 LW
N
177.636 374 M
177.636 371.83 L
S
GR
GS
0.149 GC
2 setlinecap
1 LJ
0.5 LW
N
187.355 374 M
187.355 371.83 L
S
GR
GS
0.149 GC
2 setlinecap
1 LJ
0.5 LW
N
206.795 374 M
206.795 371.83 L
S
GR
GS
0.149 GC
2 setlinecap
1 LJ
0.5 LW
N
216.515 374 M
216.515 371.83 L
S
GR
GS
0.149 GC
2 setlinecap
1 LJ
0.5 LW
N
226.235 374 M
226.235 371.83 L
S
GR
GS
0.149 GC
2 setlinecap
1 LJ
0.5 LW
N
235.955 374 M
235.955 371.83 L
S
GR
GS
0.149 GC
2 setlinecap
1 LJ
0.5 LW
N
255.395 374 M
255.395 371.83 L
S
GR
GS
0.149 GC
2 setlinecap
1 LJ
0.5 LW
N
265.115 374 M
265.115 371.83 L
S
GR
GS
0.149 GC
2 setlinecap
1 LJ
0.5 LW
N
274.835 374 M
274.835 371.83 L
S
GR
GS
0.149 GC
2 setlinecap
1 LJ
0.5 LW
N
284.555 374 M
284.555 371.83 L
S
GR
GS
0.149 GC
2 setlinecap
1 LJ
0.5 LW
N
303.995 374 M
303.995 371.83 L
S
GR
GS
0.149 GC
2 setlinecap
1 LJ
0.5 LW
N
313.715 374 M
313.715 371.83 L
S
GR
GS
0.149 GC
2 setlinecap
1 LJ
0.5 LW
N
323.435 374 M
323.435 371.83 L
S
GR
GS
0.149 GC
2 setlinecap
1 LJ
0.5 LW
N
333.155 374 M
333.155 371.83 L
S
GR
GS
0.149 GC
2 setlinecap
1 LJ
0.5 LW
N
352.594 374 M
352.594 371.83 L
S
GR
GS
0.149 GC
2 setlinecap
1 LJ
0.5 LW
N
362.314 374 M
362.314 371.83 L
S
GR
GS
0.149 GC
2 setlinecap
1 LJ
0.5 LW
N
372.034 374 M
372.034 371.83 L
S
GR
GS
0.149 GC
2 setlinecap
1 LJ
0.5 LW
N
381.754 374 M
381.754 371.83 L
S
GR
GS
0.149 GC
2 setlinecap
1 LJ
0.5 LW
N
401.194 374 M
401.194 371.83 L
S
GR
GS
0.149 GC
2 setlinecap
1 LJ
0.5 LW
N
410.914 374 M
410.914 371.83 L
S
GR
GS
0.149 GC
2 setlinecap
1 LJ
0.5 LW
N
420.634 374 M
420.634 371.83 L
S
GR
GS
0.149 GC
2 setlinecap
1 LJ
0.5 LW
N
430.354 374 M
430.354 371.83 L
S
GR
GS
0.149 GC
2 setlinecap
1 LJ
0.5 LW
N
449.794 374 M
449.794 371.83 L
S
GR
GS
0.149 GC
2 setlinecap
1 LJ
0.5 LW
N
459.514 374 M
459.514 371.83 L
S
GR
GS
0.149 GC
2 setlinecap
1 LJ
0.5 LW
N
469.234 374 M
469.234 371.83 L
S
GR
GS
0.149 GC
2 setlinecap
1 LJ
0.5 LW
N
478.954 374 M
478.954 371.83 L
S
GR
GS
0.149 GC
2 setlinecap
1 LJ
0.5 LW
N
498.394 374 M
498.394 371.83 L
S
GR
GS
0.149 GC
2 setlinecap
1 LJ
0.5 LW
N
80.436 31.5 M
80.436 33.67 L
S
GR
GS
0.149 GC
2 setlinecap
1 LJ
0.5 LW
N
90.156 31.5 M
90.156 33.67 L
S
GR
GS
0.149 GC
2 setlinecap
1 LJ
0.5 LW
N
109.596 31.5 M
109.596 33.67 L
S
GR
GS
0.149 GC
2 setlinecap
1 LJ
0.5 LW
N
119.316 31.5 M
119.316 33.67 L
S
GR
GS
0.149 GC
2 setlinecap
1 LJ
0.5 LW
N
129.036 31.5 M
129.036 33.67 L
S
GR
GS
0.149 GC
2 setlinecap
1 LJ
0.5 LW
N
138.756 31.5 M
138.756 33.67 L
S
GR
GS
0.149 GC
2 setlinecap
1 LJ
0.5 LW
N
158.196 31.5 M
158.196 33.67 L
S
GR
GS
0.149 GC
2 setlinecap
1 LJ
0.5 LW
N
167.916 31.5 M
167.916 33.67 L
S
GR
GS
0.149 GC
2 setlinecap
1 LJ
0.5 LW
N
177.636 31.5 M
177.636 33.67 L
S
GR
GS
0.149 GC
2 setlinecap
1 LJ
0.5 LW
N
187.355 31.5 M
187.355 33.67 L
S
GR
GS
0.149 GC
2 setlinecap
1 LJ
0.5 LW
N
206.795 31.5 M
206.795 33.67 L
S
GR
GS
0.149 GC
2 setlinecap
1 LJ
0.5 LW
N
216.515 31.5 M
216.515 33.67 L
S
GR
GS
0.149 GC
2 setlinecap
1 LJ
0.5 LW
N
226.235 31.5 M
226.235 33.67 L
S
GR
GS
0.149 GC
2 setlinecap
1 LJ
0.5 LW
N
235.955 31.5 M
235.955 33.67 L
S
GR
GS
0.149 GC
2 setlinecap
1 LJ
0.5 LW
N
255.395 31.5 M
255.395 33.67 L
S
GR
GS
0.149 GC
2 setlinecap
1 LJ
0.5 LW
N
265.115 31.5 M
265.115 33.67 L
S
GR
GS
0.149 GC
2 setlinecap
1 LJ
0.5 LW
N
274.835 31.5 M
274.835 33.67 L
S
GR
GS
0.149 GC
2 setlinecap
1 LJ
0.5 LW
N
284.555 31.5 M
284.555 33.67 L
S
GR
GS
0.149 GC
2 setlinecap
1 LJ
0.5 LW
N
303.995 31.5 M
303.995 33.67 L
S
GR
GS
0.149 GC
2 setlinecap
1 LJ
0.5 LW
N
313.715 31.5 M
313.715 33.67 L
S
GR
GS
0.149 GC
2 setlinecap
1 LJ
0.5 LW
N
323.435 31.5 M
323.435 33.67 L
S
GR
GS
0.149 GC
2 setlinecap
1 LJ
0.5 LW
N
333.155 31.5 M
333.155 33.67 L
S
GR
GS
0.149 GC
2 setlinecap
1 LJ
0.5 LW
N
352.594 31.5 M
352.594 33.67 L
S
GR
GS
0.149 GC
2 setlinecap
1 LJ
0.5 LW
N
362.314 31.5 M
362.314 33.67 L
S
GR
GS
0.149 GC
2 setlinecap
1 LJ
0.5 LW
N
372.034 31.5 M
372.034 33.67 L
S
GR
GS
0.149 GC
2 setlinecap
1 LJ
0.5 LW
N
381.754 31.5 M
381.754 33.67 L
S
GR
GS
0.149 GC
2 setlinecap
1 LJ
0.5 LW
N
401.194 31.5 M
401.194 33.67 L
S
GR
GS
0.149 GC
2 setlinecap
1 LJ
0.5 LW
N
410.914 31.5 M
410.914 33.67 L
S
GR
GS
0.149 GC
2 setlinecap
1 LJ
0.5 LW
N
420.634 31.5 M
420.634 33.67 L
S
GR
GS
0.149 GC
2 setlinecap
1 LJ
0.5 LW
N
430.354 31.5 M
430.354 33.67 L
S
GR
GS
0.149 GC
2 setlinecap
1 LJ
0.5 LW
N
449.794 31.5 M
449.794 33.67 L
S
GR
GS
0.149 GC
2 setlinecap
1 LJ
0.5 LW
N
459.514 31.5 M
459.514 33.67 L
S
GR
GS
0.149 GC
2 setlinecap
1 LJ
0.5 LW
N
469.234 31.5 M
469.234 33.67 L
S
GR
GS
0.149 GC
2 setlinecap
1 LJ
0.5 LW
N
478.954 31.5 M
478.954 33.67 L
S
GR
GS
0.149 GC
2 setlinecap
1 LJ
0.5 LW
N
498.394 31.5 M
498.394 33.67 L
S
GR
GS
[1 0 0 1 99.87601 378.80002] CT
0.149 GC
/Helvetica 14 F
GS
[1 0 0 1 0 0] CT
-16 14 moveto 
1 -1 scale
(1000) t 
GR
GR
GS
[1 0 0 1 148.47571 378.80002] CT
0.149 GC
/Helvetica 14 F
GS
[1 0 0 1 0 0] CT
-16 14 moveto 
1 -1 scale
(2000) t 
GR
GR
GS
[1 0 0 1 197.07542 378.80002] CT
0.149 GC
/Helvetica 14 F
GS
[1 0 0 1 0 0] CT
-16 14 moveto 
1 -1 scale
(3000) t 
GR
GR
GS
[1 0 0 1 245.67513 378.80002] CT
0.149 GC
/Helvetica 14 F
GS
[1 0 0 1 0 0] CT
-16 14 moveto 
1 -1 scale
(4000) t 
GR
GR
GS
[1 0 0 1 294.27484 378.80002] CT
0.149 GC
/Helvetica 14 F
GS
[1 0 0 1 0 0] CT
-16 14 moveto 
1 -1 scale
(5000) t 
GR
GR
GS
[1 0 0 1 342.87454 378.80002] CT
0.149 GC
/Helvetica 14 F
GS
[1 0 0 1 0 0] CT
-16 14 moveto 
1 -1 scale
(6000) t 
GR
GR
GS
[1 0 0 1 391.47424 378.80002] CT
0.149 GC
/Helvetica 14 F
GS
[1 0 0 1 0 0] CT
-16 14 moveto 
1 -1 scale
(7000) t 
GR
GR
GS
[1 0 0 1 440.07394 378.80002] CT
0.149 GC
/Helvetica 14 F
GS
[1 0 0 1 0 0] CT
-16 14 moveto 
1 -1 scale
(8000) t 
GR
GR
GS
[1 0 0 1 488.67365 378.80002] CT
0.149 GC
/Helvetica 14 F
GS
[1 0 0 1 0 0] CT
-16 14 moveto 
1 -1 scale
(9000) t 
GR
GR
GS
[1 0 0 1 290.00021 396.29999] CT
0.149 GC
/Helvetica 15.4 F
GS
[1 0 0 1 0 0] CT
-42 15 moveto 
1 -1 scale
(Bitrate\(kb/s\)) t 
GR
GR
GS
0.149 GC
2 setlinecap
1 LJ
0.5 LW
N
73 374 M
73 31.5 L
S
GR
GS
0.149 GC
2 setlinecap
1 LJ
0.5 LW
N
507 374 M
507 31.5 L
S
GR
GS
0.149 GC
2 setlinecap
1 LJ
0.5 LW
N
73 355.102 M
77.34 355.102 L
S
GR
GS
0.149 GC
2 setlinecap
1 LJ
0.5 LW
N
73 309.935 M
77.34 309.935 L
S
GR
GS
0.149 GC
2 setlinecap
1 LJ
0.5 LW
N
73 264.769 M
77.34 264.769 L
S
GR
GS
0.149 GC
2 setlinecap
1 LJ
0.5 LW
N
73 219.603 M
77.34 219.603 L
S
GR
GS
0.149 GC
2 setlinecap
1 LJ
0.5 LW
N
73 174.437 M
77.34 174.437 L
S
GR
GS
0.149 GC
2 setlinecap
1 LJ
0.5 LW
N
73 129.27 M
77.34 129.27 L
S
GR
GS
0.149 GC
2 setlinecap
1 LJ
0.5 LW
N
73 84.104 M
77.34 84.104 L
S
GR
GS
0.149 GC
2 setlinecap
1 LJ
0.5 LW
N
73 38.938 M
77.34 38.938 L
S
GR
GS
0.149 GC
2 setlinecap
1 LJ
0.5 LW
N
507 355.102 M
502.66 355.102 L
S
GR
GS
0.149 GC
2 setlinecap
1 LJ
0.5 LW
N
507 309.935 M
502.66 309.935 L
S
GR
GS
0.149 GC
2 setlinecap
1 LJ
0.5 LW
N
507 264.769 M
502.66 264.769 L
S
GR
GS
0.149 GC
2 setlinecap
1 LJ
0.5 LW
N
507 219.603 M
502.66 219.603 L
S
GR
GS
0.149 GC
2 setlinecap
1 LJ
0.5 LW
N
507 174.437 M
502.66 174.437 L
S
GR
GS
0.149 GC
2 setlinecap
1 LJ
0.5 LW
N
507 129.27 M
502.66 129.27 L
S
GR
GS
0.149 GC
2 setlinecap
1 LJ
0.5 LW
N
507 84.104 M
502.66 84.104 L
S
GR
GS
0.149 GC
2 setlinecap
1 LJ
0.5 LW
N
507 38.938 M
502.66 38.938 L
S
GR
GS
0.149 GC
2 setlinecap
1 LJ
0.5 LW
N
73 366.393 M
75.17 366.393 L
S
GR
GS
0.149 GC
2 setlinecap
1 LJ
0.5 LW
N
73 343.81 M
75.17 343.81 L
S
GR
GS
0.149 GC
2 setlinecap
1 LJ
0.5 LW
N
73 332.519 M
75.17 332.519 L
S
GR
GS
0.149 GC
2 setlinecap
1 LJ
0.5 LW
N
73 321.227 M
75.17 321.227 L
S
GR
GS
0.149 GC
2 setlinecap
1 LJ
0.5 LW
N
73 298.644 M
75.17 298.644 L
S
GR
GS
0.149 GC
2 setlinecap
1 LJ
0.5 LW
N
73 287.352 M
75.17 287.352 L
S
GR
GS
0.149 GC
2 setlinecap
1 LJ
0.5 LW
N
73 276.061 M
75.17 276.061 L
S
GR
GS
0.149 GC
2 setlinecap
1 LJ
0.5 LW
N
73 253.478 M
75.17 253.478 L
S
GR
GS
0.149 GC
2 setlinecap
1 LJ
0.5 LW
N
73 242.186 M
75.17 242.186 L
S
GR
GS
0.149 GC
2 setlinecap
1 LJ
0.5 LW
N
73 230.895 M
75.17 230.895 L
S
GR
GS
0.149 GC
2 setlinecap
1 LJ
0.5 LW
N
73 208.311 M
75.17 208.311 L
S
GR
GS
0.149 GC
2 setlinecap
1 LJ
0.5 LW
N
73 197.02 M
75.17 197.02 L
S
GR
GS
0.149 GC
2 setlinecap
1 LJ
0.5 LW
N
73 185.728 M
75.17 185.728 L
S
GR
GS
0.149 GC
2 setlinecap
1 LJ
0.5 LW
N
73 163.145 M
75.17 163.145 L
S
GR
GS
0.149 GC
2 setlinecap
1 LJ
0.5 LW
N
73 151.854 M
75.17 151.854 L
S
GR
GS
0.149 GC
2 setlinecap
1 LJ
0.5 LW
N
73 140.562 M
75.17 140.562 L
S
GR
GS
0.149 GC
2 setlinecap
1 LJ
0.5 LW
N
73 117.979 M
75.17 117.979 L
S
GR
GS
0.149 GC
2 setlinecap
1 LJ
0.5 LW
N
73 106.687 M
75.17 106.687 L
S
GR
GS
0.149 GC
2 setlinecap
1 LJ
0.5 LW
N
73 95.396 M
75.17 95.396 L
S
GR
GS
0.149 GC
2 setlinecap
1 LJ
0.5 LW
N
73 72.813 M
75.17 72.813 L
S
GR
GS
0.149 GC
2 setlinecap
1 LJ
0.5 LW
N
73 61.521 M
75.17 61.521 L
S
GR
GS
0.149 GC
2 setlinecap
1 LJ
0.5 LW
N
73 50.23 M
75.17 50.23 L
S
GR
GS
0.149 GC
2 setlinecap
1 LJ
0.5 LW
N
507 366.393 M
504.83 366.393 L
S
GR
GS
0.149 GC
2 setlinecap
1 LJ
0.5 LW
N
507 343.81 M
504.83 343.81 L
S
GR
GS
0.149 GC
2 setlinecap
1 LJ
0.5 LW
N
507 332.519 M
504.83 332.519 L
S
GR
GS
0.149 GC
2 setlinecap
1 LJ
0.5 LW
N
507 321.227 M
504.83 321.227 L
S
GR
GS
0.149 GC
2 setlinecap
1 LJ
0.5 LW
N
507 298.644 M
504.83 298.644 L
S
GR
GS
0.149 GC
2 setlinecap
1 LJ
0.5 LW
N
507 287.352 M
504.83 287.352 L
S
GR
GS
0.149 GC
2 setlinecap
1 LJ
0.5 LW
N
507 276.061 M
504.83 276.061 L
S
GR
GS
0.149 GC
2 setlinecap
1 LJ
0.5 LW
N
507 253.478 M
504.83 253.478 L
S
GR
GS
0.149 GC
2 setlinecap
1 LJ
0.5 LW
N
507 242.186 M
504.83 242.186 L
S
GR
GS
0.149 GC
2 setlinecap
1 LJ
0.5 LW
N
507 230.895 M
504.83 230.895 L
S
GR
GS
0.149 GC
2 setlinecap
1 LJ
0.5 LW
N
507 208.311 M
504.83 208.311 L
S
GR
GS
0.149 GC
2 setlinecap
1 LJ
0.5 LW
N
507 197.02 M
504.83 197.02 L
S
GR
GS
0.149 GC
2 setlinecap
1 LJ
0.5 LW
N
507 185.728 M
504.83 185.728 L
S
GR
GS
0.149 GC
2 setlinecap
1 LJ
0.5 LW
N
507 163.145 M
504.83 163.145 L
S
GR
GS
0.149 GC
2 setlinecap
1 LJ
0.5 LW
N
507 151.854 M
504.83 151.854 L
S
GR
GS
0.149 GC
2 setlinecap
1 LJ
0.5 LW
N
507 140.562 M
504.83 140.562 L
S
GR
GS
0.149 GC
2 setlinecap
1 LJ
0.5 LW
N
507 117.979 M
504.83 117.979 L
S
GR
GS
0.149 GC
2 setlinecap
1 LJ
0.5 LW
N
507 106.687 M
504.83 106.687 L
S
GR
GS
0.149 GC
2 setlinecap
1 LJ
0.5 LW
N
507 95.396 M
504.83 95.396 L
S
GR
GS
0.149 GC
2 setlinecap
1 LJ
0.5 LW
N
507 72.813 M
504.83 72.813 L
S
GR
GS
0.149 GC
2 setlinecap
1 LJ
0.5 LW
N
507 61.521 M
504.83 61.521 L
S
GR
GS
0.149 GC
2 setlinecap
1 LJ
0.5 LW
N
507 50.23 M
504.83 50.23 L
S
GR
GS
[1 0 0 1 68.2 355.10172] CT
0.149 GC
/Helvetica 14 F
GS
[1 0 0 1 0 0] CT
-16 5.5 moveto 
1 -1 scale
(10) t 
GR
GR
GS
[1 0 0 1 68.2 309.93549] CT
0.149 GC
/Helvetica 14 F
GS
[1 0 0 1 0 0] CT
-16 5.5 moveto 
1 -1 scale
(12) t 
GR
GR
GS
[1 0 0 1 68.2 264.76923] CT
0.149 GC
/Helvetica 14 F
GS
[1 0 0 1 0 0] CT
-16 5.5 moveto 
1 -1 scale
(14) t 
GR
GR
GS
[1 0 0 1 68.2 219.60298] CT
0.149 GC
/Helvetica 14 F
GS
[1 0 0 1 0 0] CT
-16 5.5 moveto 
1 -1 scale
(16) t 
GR
GR
GS
[1 0 0 1 68.2 174.43674] CT
0.149 GC
/Helvetica 14 F
GS
[1 0 0 1 0 0] CT
-16 5.5 moveto 
1 -1 scale
(18) t 
GR
GR
GS
[1 0 0 1 68.2 129.27049] CT
0.149 GC
/Helvetica 14 F
GS
[1 0 0 1 0 0] CT
-16 5.5 moveto 
1 -1 scale
(20) t 
GR
GR
GS
[1 0 0 1 68.2 84.10425] CT
0.149 GC
/Helvetica 14 F
GS
[1 0 0 1 0 0] CT
-16 5.5 moveto 
1 -1 scale
(22) t 
GR
GR
GS
[1 0 0 1 68.2 38.938] CT
0.149 GC
/Helvetica 14 F
GS
[1 0 0 1 0 0] CT
-16 5.5 moveto 
1 -1 scale
(24) t 
GR
GR
GS
[0 -1 1 0 49.2 202.74985] CT
0.149 GC
/Helvetica 15.4 F
GS
[1 0 0 1 0 0] CT
-35 -4 moveto 
1 -1 scale
(SSIM \(dB\)) t 
GR
GR
GS
[1 0 0 1 290.00027 29.57499] CT
/Helvetica-Bold 15.4 F
GS
[1 0 0 1 0 0] CT
-136 -4 moveto 
1 -1 scale
(TelevisionClip_1080P-39e3.y4m-hevc) t 
GR
GR
GS
0 0.447 0.741 RC
1 LJ
0.5 LW
N
74.009 369.66 M
74.981 366.179 L
75.953 362.713 L
76.925 359.264 L
77.897 355.836 L
78.869 352.431 L
79.841 349.054 L
80.813 345.708 L
81.785 342.395 L
82.757 339.118 L
83.729 335.882 L
84.701 332.69 L
85.673 329.544 L
86.645 326.448 L
87.617 323.405 L
88.589 320.418 L
89.561 317.491 L
90.533 314.626 L
91.505 311.828 L
92.477 309.099 L
93.449 306.442 L
94.421 303.861 L
95.393 301.359 L
96.365 298.94 L
97.337 296.605 L
98.309 294.34 L
99.281 292.1 L
100.253 289.882 L
101.225 287.687 L
102.197 285.514 L
103.169 283.364 L
104.141 281.237 L
105.113 279.132 L
106.085 277.05 L
107.057 274.992 L
108.029 272.956 L
109.001 270.943 L
109.973 268.954 L
110.945 266.987 L
111.917 265.044 L
112.889 263.125 L
113.861 261.229 L
114.833 259.356 L
115.805 257.507 L
116.777 255.681 L
117.749 253.879 L
118.721 252.101 L
119.693 250.347 L
120.665 248.617 L
121.637 246.91 L
122.609 245.228 L
123.581 243.57 L
124.553 241.936 L
125.525 240.326 L
126.497 238.741 L
127.469 237.18 L
128.441 235.643 L
129.413 234.131 L
130.385 232.644 L
131.357 231.181 L
132.329 229.743 L
133.3 228.33 L
134.272 226.942 L
135.244 225.578 L
136.216 224.24 L
137.188 222.927 L
138.16 221.639 L
139.132 220.376 L
140.104 219.138 L
141.076 217.926 L
142.048 216.739 L
143.02 215.573 L
143.992 214.417 L
144.964 213.268 L
145.936 212.128 L
146.908 210.997 L
147.88 209.874 L
148.852 208.759 L
149.824 207.652 L
150.796 206.554 L
151.768 205.464 L
152.74 204.382 L
153.712 203.307 L
154.684 202.241 L
155.656 201.183 L
156.628 200.133 L
157.6 199.091 L
158.572 198.056 L
159.544 197.03 L
160.516 196.011 L
161.488 195 L
162.46 193.996 L
163.432 193 L
164.404 192.012 L
165.376 191.031 L
166.348 190.058 L
167.32 189.092 L
168.292 188.134 L
169.264 187.182 L
170.236 186.239 L
171.208 185.302 L
172.18 184.373 L
173.152 183.45 L
174.124 182.535 L
175.096 181.627 L
176.068 180.726 L
177.04 179.832 L
178.012 178.945 L
178.984 178.065 L
179.956 177.192 L
180.928 176.326 L
181.9 175.466 L
182.872 174.613 L
183.844 173.767 L
184.816 172.927 L
185.788 172.094 L
186.76 171.267 L
187.732 170.447 L
188.704 169.634 L
189.676 168.826 L
190.648 168.026 L
191.62 167.231 L
192.592 166.443 L
193.564 165.661 L
194.536 164.885 L
195.508 164.115 L
196.48 163.352 L
197.452 162.594 L
198.424 161.842 L
199.396 161.097 L
200.368 160.357 L
201.34 159.623 L
202.312 158.895 L
203.284 158.173 L
204.256 157.456 L
205.228 156.746 L
206.2 156.04 L
207.172 155.341 L
208.144 154.647 L
209.116 153.958 L
210.088 153.275 L
211.06 152.598 L
212.032 151.925 L
213.004 151.258 L
213.976 150.597 L
214.948 149.94 L
215.92 149.289 L
216.892 148.643 L
217.864 148.002 L
218.836 147.366 L
219.808 146.735 L
220.78 146.109 L
221.752 145.488 L
222.724 144.872 L
223.696 144.261 L
224.668 143.654 L
225.64 143.052 L
226.612 142.455 L
227.584 141.863 L
228.556 141.275 L
229.528 140.692 L
230.5 140.113 L
231.472 139.539 L
232.444 138.969 L
233.416 138.404 L
234.388 137.843 L
235.36 137.286 L
236.332 136.73 L
237.304 136.175 L
238.276 135.62 L
239.248 135.066 L
240.22 134.511 L
241.192 133.957 L
242.164 133.402 L
243.136 132.848 L
244.108 132.295 L
245.08 131.741 L
246.052 131.188 L
247.024 130.635 L
247.996 130.082 L
248.968 129.53 L
249.94 128.978 L
250.912 128.426 L
251.884 127.875 L
252.856 127.324 L
253.828 126.773 L
254.8 126.223 L
255.772 125.673 L
256.744 125.123 L
257.716 124.574 L
258.688 124.026 L
259.66 123.477 L
260.632 122.93 L
261.604 122.382 L
262.576 121.836 L
263.548 121.289 L
264.52 120.743 L
265.492 120.198 L
266.464 119.653 L
267.436 119.109 L
268.408 118.566 L
269.38 118.022 L
270.352 117.48 L
271.324 116.938 L
272.296 116.397 L
273.268 115.856 L
274.24 115.316 L
275.212 114.777 L
276.184 114.238 L
277.156 113.7 L
278.128 113.162 L
279.1 112.626 L
280.072 112.09 L
281.044 111.554 L
282.016 111.02 L
282.988 110.486 L
283.96 109.953 L
284.932 109.421 L
285.904 108.889 L
286.876 108.359 L
287.848 107.829 L
288.82 107.3 L
289.792 106.772 L
290.764 106.245 L
291.736 105.718 L
292.708 105.193 L
293.68 104.668 L
294.652 104.144 L
295.624 103.621 L
296.596 103.099 L
297.568 102.578 L
298.539 102.058 L
299.512 101.539 L
300.483 101.021 L
301.455 100.504 L
302.427 99.988 L
303.399 99.473 L
304.371 98.959 L
305.343 98.446 L
306.315 97.934 L
307.287 97.423 L
308.259 96.913 L
309.231 96.405 L
310.203 95.897 L
311.175 95.391 L
312.147 94.885 L
313.119 94.381 L
314.091 93.878 L
315.063 93.376 L
316.035 92.876 L
317.007 92.376 L
317.979 91.878 L
318.951 91.381 L
319.923 90.885 L
320.895 90.391 L
321.867 89.897 L
322.839 89.405 L
323.811 88.915 L
324.783 88.425 L
325.755 87.937 L
326.727 87.45 L
327.699 86.965 L
328.671 86.481 L
329.643 85.998 L
330.615 85.517 L
331.587 85.037 L
332.559 84.558 L
333.531 84.081 L
334.503 83.606 L
335.475 83.131 L
336.447 82.659 L
337.419 82.187 L
338.391 81.717 L
339.363 81.249 L
340.335 80.782 L
341.307 80.317 L
342.279 79.853 L
343.251 79.391 L
344.223 78.93 L
345.195 78.471 L
346.167 78.014 L
347.139 77.558 L
348.111 77.103 L
349.083 76.651 L
350.055 76.2 L
351.027 75.75 L
351.999 75.302 L
352.971 74.856 L
353.943 74.412 L
354.915 73.969 L
355.887 73.528 L
356.859 73.089 L
357.831 72.651 L
358.803 72.216 L
359.775 71.782 L
360.747 71.349 L
361.719 70.919 L
362.691 70.49 L
363.663 70.063 L
364.635 69.638 L
365.607 69.215 L
366.579 68.794 L
367.551 68.375 L
368.523 67.957 L
369.495 67.541 L
370.467 67.128 L
371.439 66.716 L
372.411 66.306 L
373.383 65.898 L
374.355 65.492 L
375.327 65.088 L
376.299 64.686 L
377.271 64.286 L
378.243 63.887 L
379.215 63.491 L
380.187 63.097 L
381.159 62.705 L
382.131 62.315 L
383.103 61.928 L
384.075 61.542 L
385.047 61.158 L
386.019 60.777 L
386.991 60.397 L
387.963 60.02 L
388.935 59.645 L
389.907 59.272 L
390.879 58.901 L
391.851 58.532 L
392.823 58.166 L
393.795 57.802 L
394.767 57.44 L
395.739 57.08 L
396.711 56.722 L
397.683 56.367 L
398.655 56.014 L
399.627 55.664 L
400.599 55.315 L
401.571 54.969 L
402.543 54.625 L
403.515 54.284 L
404.487 53.945 L
405.459 53.608 L
406.431 53.274 L
407.403 52.942 L
408.375 52.613 L
409.347 52.286 L
410.319 51.961 L
411.291 51.639 L
412.263 51.319 L
413.235 51.002 L
414.207 50.687 L
415.179 50.375 L
416.151 50.065 L
417.123 49.758 L
418.095 49.453 L
419.067 49.151 L
420.039 48.851 L
421.011 48.554 L
421.983 48.259 L
422.955 47.968 L
423.927 47.678 L
424.899 47.392 L
425.871 47.108 L
426.843 46.826 L
427.815 46.548 L
428.787 46.272 L
429.759 45.998 L
430.731 45.728 L
431.703 45.46 L
432.675 45.194 L
433.647 44.932 L
434.619 44.672 L
435.591 44.415 L
436.563 44.161 L
437.535 43.91 L
438.507 43.661 L
439.479 43.415 L
440.451 43.172 L
441.423 42.932 L
442.395 42.695 L
443.367 42.461 L
444.339 42.229 L
445.311 42.001 L
446.283 41.775 L
447.255 41.552 L
448.227 41.332 L
449.199 41.115 L
450.171 40.901 L
451.143 40.691 L
452.115 40.483 L
453.087 40.278 L
454.059 40.076 L
455.031 39.877 L
456.003 39.681 L
456.975 39.488 L
457.947 39.298 L
458.919 39.111 L
459.891 38.927 L
460.863 38.747 L
461.835 38.569 L
462.807 38.395 L
463.779 38.224 L
464.75 38.056 L
465.722 37.891 L
466.694 37.729 L
467.666 37.571 L
468.638 37.415 L
469.61 37.263 L
470.582 37.114 L
471.554 36.969 L
472.526 36.826 L
473.498 36.687 L
474.47 36.551 L
475.442 36.419 L
476.414 36.289 L
477.386 36.163 L
478.358 36.041 L
479.33 35.921 L
480.302 35.806 L
481.274 35.693 L
482.246 35.584 L
483.218 35.478 L
484.19 35.376 L
485.162 35.277 L
486.134 35.181 L
487.106 35.089 L
488.078 35 L
489.05 34.915 L
490.022 34.834 L
490.994 34.755 L
491.966 34.681 L
492.938 34.61 L
493.91 34.542 L
494.882 34.478 L
495.854 34.417 L
496.826 34.36 L
S
GR
GS
0.851 0.325 0.098 RC
1 LJ
0.5 LW
N
73.782 370.383 M
74.754 366.872 L
75.726 363.376 L
76.698 359.897 L
77.67 356.44 L
78.642 353.006 L
79.614 349.601 L
80.586 346.227 L
81.558 342.887 L
82.53 339.585 L
83.502 336.324 L
84.474 333.107 L
85.446 329.938 L
86.418 326.82 L
87.39 323.757 L
88.362 320.752 L
89.334 317.807 L
90.306 314.927 L
91.278 312.115 L
92.25 309.374 L
93.222 306.707 L
94.194 304.118 L
95.166 301.61 L
96.138 299.187 L
97.11 296.851 L
98.082 294.576 L
99.054 292.323 L
100.026 290.094 L
100.998 287.887 L
101.97 285.703 L
102.942 283.543 L
103.914 281.405 L
104.886 279.291 L
105.858 277.2 L
106.83 275.132 L
107.802 273.088 L
108.774 271.067 L
109.746 269.07 L
110.718 267.097 L
111.69 265.147 L
112.662 263.221 L
113.634 261.318 L
114.606 259.44 L
115.578 257.586 L
116.55 255.755 L
117.522 253.949 L
118.494 252.167 L
119.466 250.409 L
120.438 248.675 L
121.409 246.966 L
122.381 245.281 L
123.353 243.621 L
124.325 241.985 L
125.297 240.374 L
126.269 238.788 L
127.241 237.226 L
128.213 235.689 L
129.185 234.178 L
130.157 232.691 L
131.129 231.229 L
132.101 229.793 L
133.073 228.381 L
134.045 226.995 L
135.017 225.634 L
135.989 224.299 L
136.961 222.989 L
137.933 221.704 L
138.905 220.446 L
139.877 219.213 L
140.849 218.005 L
141.821 216.823 L
142.793 215.656 L
143.765 214.496 L
144.737 213.346 L
145.709 212.204 L
146.681 211.07 L
147.653 209.945 L
148.625 208.829 L
149.597 207.72 L
150.569 206.62 L
151.541 205.529 L
152.513 204.445 L
153.485 203.37 L
154.457 202.302 L
155.429 201.243 L
156.401 200.192 L
157.373 199.149 L
158.345 198.114 L
159.317 197.086 L
160.289 196.067 L
161.261 195.055 L
162.233 194.051 L
163.205 193.055 L
164.177 192.066 L
165.149 191.085 L
166.121 190.112 L
167.093 189.146 L
168.065 188.187 L
169.037 187.236 L
170.009 186.293 L
170.981 185.356 L
171.953 184.427 L
172.925 183.506 L
173.897 182.591 L
174.869 181.683 L
175.841 180.783 L
176.813 179.89 L
177.785 179.004 L
178.757 178.124 L
179.729 177.252 L
180.701 176.386 L
181.673 175.527 L
182.645 174.676 L
183.617 173.83 L
184.589 172.992 L
185.561 172.16 L
186.533 171.335 L
187.505 170.516 L
188.477 169.704 L
189.449 168.898 L
190.421 168.098 L
191.393 167.305 L
192.365 166.519 L
193.337 165.738 L
194.309 164.964 L
195.281 164.196 L
196.253 163.434 L
197.225 162.678 L
198.197 161.928 L
199.169 161.184 L
200.141 160.446 L
201.113 159.714 L
202.085 158.988 L
203.057 158.268 L
204.029 157.553 L
205.001 156.844 L
205.973 156.141 L
206.945 155.444 L
207.917 154.752 L
208.889 154.065 L
209.861 153.384 L
210.833 152.708 L
211.805 152.038 L
212.777 151.373 L
213.749 150.714 L
214.721 150.06 L
215.693 149.41 L
216.665 148.766 L
217.637 148.128 L
218.609 147.494 L
219.581 146.865 L
220.553 146.241 L
221.525 145.622 L
222.497 145.008 L
223.469 144.399 L
224.441 143.795 L
225.413 143.195 L
226.385 142.6 L
227.357 142.01 L
228.329 141.424 L
229.301 140.843 L
230.273 140.266 L
231.245 139.694 L
232.217 139.126 L
233.189 138.563 L
234.161 138.004 L
235.133 137.445 L
236.105 136.887 L
237.077 136.329 L
238.049 135.772 L
239.021 135.214 L
239.993 134.657 L
240.965 134.1 L
241.937 133.543 L
242.909 132.986 L
243.881 132.43 L
244.853 131.873 L
245.825 131.318 L
246.797 130.762 L
247.769 130.207 L
248.741 129.652 L
249.713 129.097 L
250.685 128.543 L
251.657 127.989 L
252.629 127.436 L
253.601 126.882 L
254.573 126.33 L
255.545 125.777 L
256.517 125.225 L
257.489 124.674 L
258.461 124.123 L
259.433 123.572 L
260.405 123.022 L
261.377 122.473 L
262.349 121.924 L
263.321 121.375 L
264.293 120.827 L
265.265 120.28 L
266.237 119.733 L
267.209 119.186 L
268.181 118.641 L
269.153 118.095 L
270.125 117.551 L
271.097 117.007 L
272.069 116.464 L
273.041 115.921 L
274.013 115.379 L
274.985 114.838 L
275.957 114.297 L
276.929 113.757 L
277.901 113.218 L
278.873 112.68 L
279.845 112.142 L
280.817 111.605 L
281.789 111.069 L
282.761 110.533 L
283.733 109.999 L
284.704 109.465 L
285.677 108.932 L
286.648 108.399 L
287.62 107.868 L
288.592 107.338 L
289.564 106.808 L
290.536 106.279 L
291.508 105.751 L
292.48 105.224 L
293.452 104.698 L
294.424 104.173 L
295.396 103.649 L
296.368 103.126 L
297.34 102.604 L
298.312 102.083 L
299.284 101.563 L
300.256 101.043 L
301.228 100.525 L
302.2 100.008 L
303.172 99.492 L
304.144 98.977 L
305.116 98.463 L
306.088 97.95 L
307.06 97.439 L
308.032 96.928 L
309.004 96.419 L
309.976 95.91 L
310.948 95.403 L
311.92 94.897 L
312.892 94.393 L
313.864 93.889 L
314.836 93.387 L
315.808 92.885 L
316.78 92.386 L
317.752 91.887 L
318.724 91.389 L
319.696 90.893 L
320.668 90.398 L
321.64 89.905 L
322.612 89.413 L
323.584 88.922 L
324.556 88.432 L
325.528 87.944 L
326.5 87.457 L
327.472 86.972 L
328.444 86.488 L
329.416 86.005 L
330.388 85.524 L
331.36 85.044 L
332.332 84.566 L
333.304 84.089 L
334.276 83.614 L
335.248 83.14 L
336.22 82.667 L
337.192 82.196 L
338.164 81.727 L
339.136 81.259 L
340.108 80.793 L
341.08 80.328 L
342.052 79.865 L
343.024 79.403 L
343.996 78.943 L
344.968 78.485 L
345.94 78.028 L
346.912 77.573 L
347.884 77.12 L
348.856 76.668 L
349.828 76.218 L
350.8 75.77 L
351.772 75.323 L
352.744 74.878 L
353.716 74.435 L
354.688 73.994 L
355.66 73.554 L
356.632 73.116 L
357.604 72.68 L
358.576 72.246 L
359.548 71.813 L
360.52 71.382 L
361.492 70.954 L
362.464 70.527 L
363.436 70.101 L
364.408 69.678 L
365.38 69.257 L
366.352 68.837 L
367.324 68.42 L
368.296 68.004 L
369.268 67.591 L
370.24 67.179 L
371.212 66.769 L
372.184 66.361 L
373.156 65.956 L
374.128 65.552 L
375.1 65.15 L
376.072 64.751 L
377.044 64.353 L
378.016 63.957 L
378.988 63.564 L
379.96 63.172 L
380.932 62.783 L
381.904 62.396 L
382.876 62.011 L
383.848 61.628 L
384.82 61.247 L
385.792 60.869 L
386.764 60.492 L
387.736 60.118 L
388.708 59.746 L
389.68 59.376 L
390.652 59.008 L
391.624 58.643 L
392.596 58.28 L
393.568 57.919 L
394.54 57.561 L
395.512 57.205 L
396.484 56.851 L
397.456 56.499 L
398.428 56.15 L
399.4 55.803 L
400.372 55.458 L
401.344 55.116 L
402.316 54.776 L
403.288 54.439 L
404.26 54.104 L
405.232 53.772 L
406.204 53.442 L
407.176 53.114 L
408.148 52.789 L
409.12 52.466 L
410.092 52.146 L
411.064 51.828 L
412.036 51.513 L
413.008 51.2 L
413.98 50.89 L
414.952 50.583 L
415.924 50.278 L
416.896 49.975 L
417.868 49.676 L
418.84 49.379 L
419.812 49.084 L
420.784 48.792 L
421.756 48.503 L
422.728 48.216 L
423.7 47.932 L
424.672 47.651 L
425.644 47.373 L
426.616 47.097 L
427.588 46.824 L
428.56 46.553 L
429.532 46.286 L
430.504 46.021 L
431.476 45.759 L
432.448 45.5 L
433.42 45.243 L
434.392 44.99 L
435.364 44.739 L
436.336 44.491 L
437.308 44.246 L
438.28 44.004 L
439.252 43.765 L
440.224 43.528 L
441.196 43.295 L
442.168 43.064 L
443.14 42.837 L
444.112 42.612 L
445.084 42.39 L
446.056 42.171 L
447.028 41.956 L
448 41.743 L
448.971 41.533 L
449.943 41.327 L
450.915 41.123 L
451.887 40.922 L
452.859 40.725 L
453.831 40.53 L
454.803 40.339 L
455.775 40.151 L
456.747 39.966 L
457.719 39.784 L
458.691 39.605 L
459.663 39.429 L
460.635 39.257 L
461.607 39.088 L
462.579 38.921 L
463.551 38.759 L
464.523 38.599 L
465.495 38.442 L
466.467 38.289 L
467.439 38.139 L
468.411 37.993 L
469.383 37.849 L
470.355 37.709 L
471.327 37.573 L
472.299 37.439 L
473.271 37.309 L
474.243 37.183 L
475.215 37.059 L
476.187 36.939 L
477.159 36.823 L
478.131 36.71 L
479.103 36.6 L
480.075 36.494 L
481.047 36.391 L
482.019 36.292 L
482.991 36.196 L
483.963 36.103 L
484.935 36.014 L
485.907 35.929 L
486.879 35.847 L
487.851 35.769 L
488.823 35.694 L
489.795 35.623 L
490.767 35.555 L
491.739 35.491 L
492.711 35.431 L
493.683 35.374 L
S
GR
GS
0.929 0.694 0.125 RC
1 LJ
0.5 LW
N
73 374 M
73.972 370.384 L
74.944 366.782 L
75.916 363.199 L
76.888 359.638 L
77.86 356.102 L
78.832 352.595 L
79.804 349.12 L
80.776 345.682 L
81.748 342.284 L
82.72 338.928 L
83.692 335.62 L
84.664 332.362 L
85.636 329.158 L
86.608 326.011 L
87.58 322.926 L
88.552 319.905 L
89.524 316.953 L
90.496 314.072 L
91.468 311.267 L
92.44 308.541 L
93.412 305.898 L
94.384 303.34 L
95.356 300.872 L
96.328 298.498 L
97.3 296.179 L
98.272 293.884 L
99.244 291.614 L
100.216 289.368 L
101.188 287.146 L
102.16 284.949 L
103.132 282.776 L
104.104 280.628 L
105.076 278.503 L
106.048 276.404 L
107.02 274.329 L
107.992 272.278 L
108.964 270.253 L
109.936 268.251 L
110.908 266.275 L
111.88 264.323 L
112.852 262.396 L
113.824 260.493 L
114.796 258.616 L
115.768 256.763 L
116.74 254.935 L
117.712 253.132 L
118.684 251.354 L
119.656 249.601 L
120.628 247.873 L
121.6 246.171 L
122.572 244.493 L
123.544 242.84 L
124.516 241.212 L
125.488 239.61 L
126.46 238.033 L
127.432 236.481 L
128.404 234.954 L
129.376 233.453 L
130.348 231.977 L
131.32 230.527 L
132.292 229.102 L
133.264 227.702 L
134.236 226.328 L
135.208 224.98 L
136.18 223.657 L
137.152 222.359 L
138.124 221.088 L
139.096 219.842 L
140.068 218.621 L
141.04 217.426 L
142.012 216.242 L
142.984 215.067 L
143.956 213.901 L
144.928 212.743 L
145.9 211.594 L
146.872 210.453 L
147.844 209.321 L
148.816 208.197 L
149.788 207.082 L
150.76 205.975 L
151.732 204.876 L
152.704 203.786 L
153.676 202.703 L
154.647 201.629 L
155.619 200.563 L
156.591 199.504 L
157.563 198.454 L
158.535 197.412 L
159.507 196.378 L
160.479 195.352 L
161.451 194.333 L
162.423 193.322 L
163.395 192.319 L
164.367 191.324 L
165.339 190.336 L
166.311 189.356 L
167.283 188.384 L
168.255 187.419 L
169.227 186.461 L
170.199 185.511 L
171.171 184.569 L
172.143 183.633 L
173.115 182.705 L
174.087 181.785 L
175.059 180.871 L
176.031 179.965 L
177.003 179.066 L
177.975 178.173 L
178.947 177.288 L
179.919 176.41 L
180.891 175.539 L
181.863 174.675 L
182.835 173.817 L
183.807 172.967 L
184.779 172.123 L
185.751 171.286 L
186.723 170.455 L
187.695 169.632 L
188.667 168.814 L
189.639 168.004 L
190.611 167.2 L
191.583 166.402 L
192.555 165.611 L
193.527 164.826 L
194.499 164.047 L
195.471 163.275 L
196.443 162.509 L
197.415 161.749 L
198.387 160.996 L
199.359 160.248 L
200.331 159.507 L
201.303 158.771 L
202.275 158.042 L
203.247 157.318 L
204.219 156.6 L
205.191 155.888 L
206.163 155.182 L
207.135 154.482 L
208.107 153.788 L
209.079 153.099 L
210.051 152.415 L
211.023 151.738 L
211.995 151.066 L
212.967 150.399 L
213.939 149.738 L
214.911 149.082 L
215.883 148.431 L
216.855 147.786 L
217.827 147.146 L
218.799 146.512 L
219.771 145.882 L
220.743 145.258 L
221.715 144.639 L
222.687 144.025 L
223.659 143.415 L
224.631 142.811 L
225.603 142.212 L
226.575 141.617 L
227.547 141.028 L
228.519 140.443 L
229.491 139.863 L
230.463 139.287 L
231.435 138.717 L
232.407 138.151 L
233.379 137.588 L
234.351 137.027 L
235.323 136.465 L
236.295 135.903 L
237.267 135.342 L
238.239 134.781 L
239.211 134.22 L
240.183 133.659 L
241.155 133.099 L
242.127 132.539 L
243.099 131.978 L
244.071 131.419 L
245.043 130.859 L
246.015 130.3 L
246.987 129.741 L
247.959 129.182 L
248.931 128.624 L
249.903 128.066 L
250.875 127.508 L
251.847 126.951 L
252.819 126.394 L
253.791 125.838 L
254.763 125.282 L
255.735 124.726 L
256.707 124.171 L
257.679 123.616 L
258.651 123.062 L
259.623 122.508 L
260.595 121.954 L
261.567 121.402 L
262.539 120.849 L
263.511 120.297 L
264.483 119.746 L
265.455 119.195 L
266.427 118.645 L
267.399 118.096 L
268.371 117.547 L
269.343 116.998 L
270.315 116.451 L
271.287 115.903 L
272.259 115.357 L
273.231 114.811 L
274.203 114.266 L
275.175 113.722 L
276.147 113.178 L
277.119 112.635 L
278.091 112.092 L
279.063 111.551 L
280.035 111.01 L
281.007 110.47 L
281.979 109.931 L
282.951 109.392 L
283.923 108.855 L
284.895 108.318 L
285.867 107.782 L
286.839 107.247 L
287.811 106.712 L
288.783 106.179 L
289.755 105.647 L
290.727 105.115 L
291.699 104.584 L
292.671 104.054 L
293.643 103.526 L
294.615 102.998 L
295.587 102.471 L
296.559 101.945 L
297.531 101.42 L
298.503 100.896 L
299.475 100.373 L
300.447 99.852 L
301.419 99.331 L
302.391 98.811 L
303.363 98.292 L
304.335 97.775 L
305.307 97.259 L
306.279 96.743 L
307.251 96.229 L
308.223 95.716 L
309.195 95.204 L
310.167 94.694 L
311.139 94.184 L
312.111 93.676 L
313.083 93.169 L
314.055 92.663 L
315.027 92.158 L
315.999 91.655 L
316.971 91.153 L
317.943 90.652 L
318.914 90.152 L
319.887 89.654 L
320.858 89.157 L
321.83 88.662 L
322.802 88.168 L
323.774 87.675 L
324.746 87.183 L
325.718 86.693 L
326.69 86.205 L
327.662 85.717 L
328.634 85.232 L
329.606 84.747 L
330.578 84.264 L
331.55 83.783 L
332.522 83.303 L
333.494 82.824 L
334.466 82.347 L
335.438 81.872 L
336.41 81.398 L
337.382 80.926 L
338.354 80.455 L
339.326 79.986 L
340.298 79.518 L
341.27 79.052 L
342.242 78.588 L
343.214 78.125 L
344.186 77.664 L
345.158 77.205 L
346.13 76.747 L
347.102 76.291 L
348.074 75.836 L
349.046 75.384 L
350.018 74.933 L
350.99 74.484 L
351.962 74.036 L
352.934 73.591 L
353.906 73.147 L
354.878 72.705 L
355.85 72.264 L
356.822 71.826 L
357.794 71.389 L
358.766 70.954 L
359.738 70.522 L
360.71 70.091 L
361.682 69.661 L
362.654 69.234 L
363.626 68.809 L
364.598 68.385 L
365.57 67.964 L
366.542 67.544 L
367.514 67.127 L
368.486 66.711 L
369.458 66.298 L
370.43 65.886 L
371.402 65.477 L
372.374 65.069 L
373.346 64.664 L
374.318 64.26 L
375.29 63.859 L
376.262 63.46 L
377.234 63.063 L
378.206 62.668 L
379.178 62.275 L
380.15 61.884 L
381.122 61.496 L
382.094 61.109 L
383.066 60.725 L
384.038 60.343 L
385.01 59.964 L
385.982 59.586 L
386.954 59.211 L
387.926 58.838 L
388.898 58.467 L
389.87 58.098 L
390.842 57.732 L
391.814 57.368 L
392.786 57.007 L
393.758 56.647 L
394.73 56.291 L
395.702 55.936 L
396.674 55.584 L
397.646 55.234 L
398.618 54.887 L
399.59 54.542 L
400.562 54.199 L
401.534 53.859 L
402.506 53.521 L
403.478 53.186 L
404.45 52.854 L
405.422 52.523 L
406.394 52.196 L
407.366 51.871 L
408.338 51.548 L
409.31 51.228 L
410.282 50.91 L
411.254 50.596 L
412.226 50.283 L
413.198 49.973 L
414.17 49.666 L
415.142 49.362 L
416.114 49.06 L
417.086 48.761 L
418.058 48.464 L
419.03 48.171 L
420.002 47.879 L
420.974 47.591 L
421.946 47.305 L
422.918 47.022 L
423.89 46.742 L
424.862 46.465 L
425.834 46.19 L
426.806 45.918 L
427.778 45.649 L
428.75 45.383 L
429.722 45.12 L
430.694 44.859 L
431.666 44.601 L
432.638 44.347 L
433.61 44.095 L
434.582 43.846 L
435.554 43.6 L
436.526 43.356 L
437.498 43.116 L
438.47 42.879 L
439.442 42.644 L
440.414 42.413 L
441.386 42.185 L
442.358 41.959 L
443.33 41.737 L
444.302 41.518 L
445.274 41.302 L
446.246 41.088 L
447.218 40.878 L
448.19 40.671 L
449.162 40.467 L
450.134 40.267 L
451.106 40.069 L
452.078 39.875 L
453.05 39.683 L
454.022 39.495 L
454.994 39.31 L
455.966 39.128 L
456.938 38.95 L
457.91 38.774 L
458.882 38.602 L
459.854 38.433 L
460.826 38.268 L
461.798 38.105 L
462.77 37.946 L
463.742 37.791 L
464.714 37.638 L
465.686 37.489 L
466.658 37.343 L
467.63 37.201 L
468.602 37.062 L
469.574 36.926 L
470.546 36.794 L
471.518 36.665 L
472.49 36.54 L
473.462 36.418 L
474.434 36.3 L
475.406 36.185 L
476.378 36.073 L
477.35 35.965 L
478.322 35.86 L
479.294 35.759 L
480.266 35.662 L
481.238 35.568 L
482.21 35.478 L
483.181 35.391 L
484.154 35.308 L
485.125 35.228 L
486.097 35.152 L
487.069 35.08 L
488.041 35.011 L
489.013 34.946 L
489.985 34.885 L
490.957 34.827 L
491.929 34.773 L
492.901 34.723 L
S
GR
GS
0.494 0.184 0.557 RC
1 LJ
0.5 LW
N
74.474 367.727 M
75.446 364.286 L
76.418 360.859 L
77.39 357.449 L
78.362 354.059 L
79.334 350.692 L
80.306 347.35 L
81.278 344.039 L
82.25 340.76 L
83.222 337.516 L
84.194 334.311 L
85.166 331.148 L
86.138 328.03 L
87.11 324.961 L
88.082 321.943 L
89.054 318.979 L
90.026 316.072 L
90.998 313.227 L
91.97 310.445 L
92.942 307.731 L
93.914 305.087 L
94.886 302.515 L
95.858 300.021 L
96.83 297.606 L
97.802 295.273 L
98.774 293.024 L
99.746 290.812 L
100.718 288.621 L
101.69 286.453 L
102.662 284.307 L
103.634 282.184 L
104.606 280.082 L
105.578 278.003 L
106.55 275.946 L
107.522 273.912 L
108.494 271.9 L
109.466 269.91 L
110.438 267.944 L
111.41 265.999 L
112.382 264.078 L
113.354 262.179 L
114.326 260.303 L
115.298 258.449 L
116.27 256.619 L
117.242 254.811 L
118.214 253.027 L
119.186 251.265 L
120.158 249.527 L
121.13 247.811 L
122.102 246.119 L
123.074 244.45 L
124.046 242.804 L
125.018 241.181 L
125.99 239.582 L
126.962 238.006 L
127.934 236.453 L
128.906 234.924 L
129.878 233.419 L
130.85 231.937 L
131.822 230.479 L
132.794 229.044 L
133.766 227.634 L
134.738 226.246 L
135.71 224.883 L
136.682 223.544 L
137.654 222.229 L
138.626 220.937 L
139.598 219.67 L
140.57 218.426 L
141.542 217.207 L
142.514 216.012 L
143.486 214.841 L
144.458 213.694 L
145.43 212.558 L
146.402 211.43 L
147.374 210.31 L
148.346 209.198 L
149.318 208.095 L
150.29 206.999 L
151.262 205.911 L
152.234 204.832 L
153.206 203.76 L
154.178 202.696 L
155.15 201.639 L
156.122 200.591 L
157.094 199.55 L
158.066 198.517 L
159.038 197.491 L
160.01 196.473 L
160.982 195.463 L
161.954 194.46 L
162.926 193.464 L
163.898 192.476 L
164.87 191.495 L
165.842 190.521 L
166.814 189.555 L
167.786 188.596 L
168.758 187.644 L
169.73 186.699 L
170.702 185.762 L
171.674 184.831 L
172.646 183.908 L
173.618 182.991 L
174.59 182.081 L
175.562 181.178 L
176.534 180.282 L
177.506 179.393 L
178.478 178.511 L
179.45 177.635 L
180.422 176.766 L
181.393 175.903 L
182.365 175.047 L
183.337 174.198 L
184.309 173.355 L
185.281 172.519 L
186.253 171.689 L
187.225 170.865 L
188.197 170.047 L
189.169 169.236 L
190.141 168.431 L
191.113 167.633 L
192.085 166.84 L
193.057 166.053 L
194.029 165.273 L
195.001 164.499 L
195.973 163.73 L
196.945 162.968 L
197.917 162.211 L
198.889 161.46 L
199.861 160.715 L
200.833 159.976 L
201.805 159.242 L
202.777 158.514 L
203.749 157.792 L
204.721 157.075 L
205.693 156.364 L
206.665 155.658 L
207.637 154.958 L
208.609 154.263 L
209.581 153.574 L
210.553 152.889 L
211.525 152.21 L
212.497 151.537 L
213.469 150.868 L
214.441 150.205 L
215.413 149.547 L
216.385 148.893 L
217.357 148.245 L
218.329 147.602 L
219.301 146.964 L
220.273 146.33 L
221.245 145.702 L
222.217 145.078 L
223.189 144.459 L
224.161 143.845 L
225.133 143.235 L
226.105 142.63 L
227.077 142.03 L
228.049 141.434 L
229.021 140.842 L
229.993 140.255 L
230.965 139.673 L
231.937 139.095 L
232.909 138.521 L
233.881 137.951 L
234.853 137.386 L
235.825 136.825 L
236.797 136.268 L
237.769 135.715 L
238.741 135.166 L
239.713 134.621 L
240.685 134.076 L
241.657 133.532 L
242.629 132.987 L
243.601 132.443 L
244.573 131.899 L
245.545 131.356 L
246.517 130.812 L
247.489 130.269 L
248.461 129.726 L
249.433 129.183 L
250.405 128.64 L
251.377 128.098 L
252.349 127.556 L
253.321 127.014 L
254.293 126.473 L
255.265 125.932 L
256.237 125.391 L
257.209 124.851 L
258.181 124.311 L
259.153 123.771 L
260.125 123.232 L
261.097 122.693 L
262.069 122.154 L
263.041 121.616 L
264.013 121.078 L
264.985 120.541 L
265.957 120.004 L
266.929 119.468 L
267.901 118.932 L
268.873 118.397 L
269.845 117.862 L
270.817 117.327 L
271.789 116.793 L
272.761 116.26 L
273.733 115.727 L
274.705 115.195 L
275.677 114.663 L
276.649 114.132 L
277.621 113.602 L
278.593 113.072 L
279.565 112.542 L
280.537 112.014 L
281.509 111.486 L
282.481 110.958 L
283.453 110.432 L
284.425 109.906 L
285.397 109.38 L
286.369 108.856 L
287.341 108.332 L
288.313 107.809 L
289.285 107.286 L
290.257 106.764 L
291.229 106.243 L
292.201 105.723 L
293.173 105.204 L
294.145 104.685 L
295.117 104.167 L
296.089 103.65 L
297.061 103.134 L
298.033 102.619 L
299.005 102.104 L
299.977 101.591 L
300.949 101.078 L
301.921 100.566 L
302.893 100.055 L
303.865 99.545 L
304.837 99.036 L
305.809 98.528 L
306.781 98.021 L
307.753 97.515 L
308.725 97.009 L
309.697 96.505 L
310.669 96.002 L
311.641 95.5 L
312.613 94.998 L
313.585 94.498 L
314.557 93.999 L
315.529 93.501 L
316.501 93.004 L
317.473 92.508 L
318.445 92.013 L
319.417 91.519 L
320.389 91.026 L
321.361 90.535 L
322.333 90.045 L
323.305 89.555 L
324.277 89.067 L
325.249 88.58 L
326.221 88.095 L
327.193 87.61 L
328.165 87.127 L
329.137 86.645 L
330.109 86.164 L
331.081 85.684 L
332.053 85.206 L
333.025 84.729 L
333.997 84.253 L
334.969 83.779 L
335.941 83.306 L
336.913 82.834 L
337.885 82.363 L
338.857 81.894 L
339.829 81.426 L
340.801 80.96 L
341.773 80.495 L
342.745 80.031 L
343.717 79.569 L
344.689 79.108 L
345.66 78.649 L
346.633 78.191 L
347.604 77.734 L
348.576 77.279 L
349.548 76.826 L
350.52 76.374 L
351.492 75.923 L
352.464 75.474 L
353.436 75.026 L
354.408 74.58 L
355.38 74.136 L
356.352 73.693 L
357.324 73.252 L
358.296 72.812 L
359.268 72.374 L
360.24 71.937 L
361.212 71.502 L
362.184 71.069 L
363.156 70.637 L
364.128 70.207 L
365.1 69.779 L
366.072 69.352 L
367.044 68.927 L
368.016 68.504 L
368.988 68.082 L
369.96 67.662 L
370.932 67.244 L
371.904 66.828 L
372.876 66.413 L
373.848 66 L
374.82 65.589 L
375.792 65.18 L
376.764 64.773 L
377.736 64.367 L
378.708 63.963 L
379.68 63.561 L
380.652 63.161 L
381.624 62.763 L
382.596 62.367 L
383.568 61.972 L
384.54 61.58 L
385.512 61.189 L
386.484 60.801 L
387.456 60.414 L
388.428 60.029 L
389.4 59.646 L
390.372 59.265 L
391.344 58.887 L
392.316 58.51 L
393.288 58.135 L
394.26 57.762 L
395.232 57.391 L
396.204 57.023 L
397.176 56.656 L
398.148 56.291 L
399.12 55.929 L
400.092 55.568 L
401.064 55.21 L
402.036 54.854 L
403.008 54.5 L
403.98 54.148 L
404.952 53.798 L
405.924 53.451 L
406.896 53.105 L
407.868 52.762 L
408.84 52.421 L
409.812 52.082 L
410.784 51.746 L
411.756 51.411 L
412.728 51.079 L
413.7 50.75 L
414.672 50.422 L
415.644 50.097 L
416.616 49.774 L
417.588 49.453 L
418.56 49.135 L
419.532 48.819 L
420.504 48.505 L
421.476 48.194 L
422.448 47.885 L
423.42 47.579 L
424.392 47.274 L
425.364 46.973 L
426.336 46.673 L
427.308 46.377 L
428.28 46.082 L
429.252 45.79 L
430.224 45.501 L
431.196 45.214 L
432.168 44.929 L
433.14 44.647 L
434.112 44.368 L
435.084 44.091 L
436.056 43.816 L
437.028 43.544 L
438 43.275 L
438.972 43.008 L
439.944 42.744 L
440.916 42.482 L
441.888 42.223 L
442.86 41.967 L
443.832 41.713 L
444.804 41.462 L
445.776 41.214 L
446.748 40.968 L
447.72 40.725 L
448.692 40.485 L
449.664 40.247 L
450.636 40.012 L
451.608 39.78 L
452.58 39.55 L
453.552 39.324 L
454.524 39.1 L
455.496 38.878 L
456.468 38.66 L
457.44 38.445 L
458.412 38.232 L
459.384 38.022 L
460.356 37.815 L
461.328 37.61 L
462.3 37.409 L
463.272 37.21 L
464.244 37.015 L
465.216 36.822 L
466.188 36.632 L
467.16 36.445 L
468.132 36.261 L
469.104 36.08 L
470.076 35.902 L
471.048 35.727 L
472.02 35.555 L
472.992 35.386 L
473.964 35.22 L
474.936 35.056 L
475.908 34.896 L
476.88 34.739 L
477.852 34.585 L
478.824 34.434 L
479.796 34.286 L
480.768 34.142 L
481.74 34 L
482.712 33.861 L
483.684 33.726 L
484.656 33.594 L
485.628 33.464 L
486.6 33.338 L
487.572 33.216 L
488.544 33.096 L
489.516 32.979 L
490.488 32.866 L
491.46 32.756 L
492.432 32.649 L
493.404 32.546 L
494.376 32.445 L
495.348 32.348 L
496.32 32.255 L
497.292 32.164 L
498.264 32.077 L
499.236 31.993 L
500.208 31.913 L
501.18 31.835 L
502.152 31.762 L
503.124 31.691 L
504.096 31.624 L
505.068 31.56 L
506.039 31.5 L
S
GR
GS
0.467 0.675 0.188 RC
[10 6] 0 setdash
2 LJ
0.5 LW
N
74.126 369.102 M
75.098 365.61 L
76.07 362.132 L
77.042 358.671 L
78.014 355.231 L
78.986 351.815 L
79.958 348.426 L
80.93 345.068 L
81.902 341.744 L
82.874 338.456 L
83.846 335.21 L
84.818 332.007 L
85.79 328.851 L
86.762 325.746 L
87.734 322.694 L
88.706 319.699 L
89.678 316.764 L
90.65 313.893 L
91.622 311.089 L
92.594 308.355 L
93.566 305.695 L
94.538 303.111 L
95.51 300.608 L
96.482 298.187 L
97.454 295.854 L
98.426 293.594 L
99.398 291.361 L
100.37 289.151 L
101.342 286.964 L
102.314 284.8 L
103.286 282.658 L
104.258 280.54 L
105.23 278.445 L
106.202 276.373 L
107.174 274.325 L
108.146 272.299 L
109.118 270.297 L
110.09 268.318 L
111.062 266.363 L
112.034 264.431 L
113.006 262.522 L
113.978 260.637 L
114.95 258.776 L
115.922 256.938 L
116.894 255.123 L
117.866 253.332 L
118.838 251.565 L
119.81 249.822 L
120.782 248.102 L
121.754 246.407 L
122.726 244.735 L
123.698 243.087 L
124.67 241.463 L
125.642 239.862 L
126.614 238.286 L
127.586 236.734 L
128.558 235.206 L
129.53 233.703 L
130.502 232.223 L
131.474 230.768 L
132.446 229.337 L
133.418 227.93 L
134.39 226.547 L
135.362 225.189 L
136.334 223.856 L
137.306 222.547 L
138.278 221.262 L
139.25 220.002 L
140.222 218.767 L
141.194 217.556 L
142.166 216.37 L
143.138 215.207 L
144.11 214.056 L
145.082 212.913 L
146.054 211.779 L
147.026 210.652 L
147.998 209.535 L
148.97 208.425 L
149.942 207.323 L
150.914 206.23 L
151.886 205.145 L
152.858 204.067 L
153.83 202.998 L
154.802 201.937 L
155.774 200.883 L
156.746 199.837 L
157.718 198.8 L
158.69 197.77 L
159.661 196.747 L
160.633 195.733 L
161.605 194.726 L
162.577 193.726 L
163.549 192.734 L
164.521 191.75 L
165.493 190.773 L
166.465 189.804 L
167.437 188.842 L
168.409 187.887 L
169.381 186.939 L
170.353 185.999 L
171.325 185.066 L
172.297 184.14 L
173.269 183.221 L
174.241 182.309 L
175.213 181.404 L
176.185 180.507 L
177.157 179.616 L
178.129 178.732 L
179.101 177.854 L
180.073 176.984 L
181.045 176.12 L
182.017 175.264 L
182.989 174.413 L
183.961 173.569 L
184.933 172.732 L
185.905 171.902 L
186.877 171.078 L
187.849 170.26 L
188.821 169.449 L
189.793 168.644 L
190.765 167.845 L
191.737 167.053 L
192.709 166.267 L
193.681 165.487 L
194.653 164.713 L
195.625 163.945 L
196.597 163.183 L
197.569 162.427 L
198.541 161.678 L
199.513 160.934 L
200.485 160.196 L
201.457 159.463 L
202.429 158.737 L
203.401 158.016 L
204.373 157.301 L
205.345 156.592 L
206.317 155.888 L
207.289 155.19 L
208.261 154.497 L
209.233 153.809 L
210.205 153.127 L
211.177 152.451 L
212.149 151.78 L
213.121 151.114 L
214.093 150.453 L
215.065 149.798 L
216.037 149.147 L
217.009 148.502 L
217.981 147.862 L
218.953 147.227 L
219.925 146.596 L
220.897 145.971 L
221.869 145.351 L
222.841 144.735 L
223.813 144.124 L
224.785 143.518 L
225.757 142.917 L
226.729 142.32 L
227.701 141.728 L
228.673 141.141 L
229.645 140.558 L
230.617 139.979 L
231.589 139.405 L
232.561 138.836 L
233.533 138.27 L
234.505 137.709 L
235.477 137.152 L
236.449 136.6 L
237.421 136.048 L
238.393 135.496 L
239.365 134.944 L
240.337 134.392 L
241.309 133.841 L
242.281 133.29 L
243.253 132.739 L
244.225 132.188 L
245.197 131.638 L
246.169 131.088 L
247.141 130.538 L
248.113 129.988 L
249.085 129.439 L
250.057 128.889 L
251.029 128.341 L
252.001 127.792 L
252.973 127.244 L
253.945 126.696 L
254.917 126.149 L
255.889 125.602 L
256.861 125.055 L
257.833 124.509 L
258.805 123.963 L
259.777 123.418 L
260.749 122.873 L
261.721 122.329 L
262.693 121.785 L
263.665 121.241 L
264.637 120.698 L
265.609 120.155 L
266.581 119.613 L
267.553 119.072 L
268.525 118.531 L
269.497 117.991 L
270.469 117.451 L
271.441 116.912 L
272.413 116.373 L
273.385 115.835 L
274.357 115.297 L
275.329 114.761 L
276.301 114.224 L
277.273 113.689 L
278.245 113.154 L
279.217 112.62 L
280.189 112.086 L
281.161 111.554 L
282.133 111.022 L
283.105 110.49 L
284.077 109.96 L
285.049 109.43 L
286.021 108.901 L
286.993 108.373 L
287.965 107.845 L
288.937 107.319 L
289.909 106.793 L
290.881 106.268 L
291.853 105.743 L
292.825 105.22 L
293.797 104.698 L
294.769 104.176 L
295.741 103.656 L
296.713 103.136 L
297.685 102.617 L
298.657 102.099 L
299.629 101.582 L
300.601 101.066 L
301.573 100.551 L
302.545 100.037 L
303.517 99.524 L
304.489 99.012 L
305.461 98.501 L
306.433 97.991 L
307.405 97.482 L
308.377 96.974 L
309.349 96.467 L
310.321 95.962 L
311.293 95.457 L
312.265 94.953 L
313.237 94.451 L
314.209 93.95 L
315.181 93.45 L
316.153 92.951 L
317.125 92.453 L
318.097 91.956 L
319.069 91.461 L
320.041 90.967 L
321.013 90.474 L
321.985 89.982 L
322.957 89.492 L
323.928 89.002 L
324.901 88.514 L
325.872 88.028 L
326.844 87.542 L
327.816 87.058 L
328.788 86.575 L
329.76 86.094 L
330.732 85.614 L
331.704 85.135 L
332.676 84.658 L
333.648 84.182 L
334.62 83.707 L
335.592 83.234 L
336.564 82.763 L
337.536 82.292 L
338.508 81.824 L
339.48 81.356 L
340.452 80.89 L
341.424 80.426 L
342.396 79.963 L
343.368 79.502 L
344.34 79.042 L
345.312 78.584 L
346.284 78.127 L
347.256 77.672 L
348.228 77.218 L
349.2 76.766 L
350.172 76.315 L
351.144 75.867 L
352.116 75.419 L
353.088 74.974 L
354.06 74.53 L
355.032 74.088 L
356.004 73.647 L
356.976 73.208 L
357.948 72.771 L
358.92 72.336 L
359.892 71.902 L
360.864 71.47 L
361.836 71.04 L
362.808 70.611 L
363.78 70.185 L
364.752 69.76 L
365.724 69.336 L
366.696 68.915 L
367.668 68.496 L
368.64 68.078 L
369.612 67.662 L
370.584 67.248 L
371.556 66.836 L
372.528 66.426 L
373.5 66.018 L
374.472 65.612 L
375.444 65.207 L
376.416 64.805 L
377.388 64.404 L
378.36 64.006 L
379.332 63.609 L
380.304 63.215 L
381.276 62.822 L
382.248 62.432 L
383.22 62.043 L
384.192 61.657 L
385.164 61.272 L
386.136 60.89 L
387.108 60.51 L
388.08 60.131 L
389.052 59.755 L
390.024 59.381 L
390.996 59.01 L
391.968 58.64 L
392.94 58.272 L
393.912 57.907 L
394.884 57.544 L
395.856 57.183 L
396.828 56.824 L
397.8 56.467 L
398.772 56.113 L
399.744 55.761 L
400.716 55.411 L
401.688 55.064 L
402.66 54.718 L
403.632 54.375 L
404.604 54.035 L
405.576 53.696 L
406.548 53.36 L
407.52 53.027 L
408.492 52.695 L
409.464 52.366 L
410.436 52.04 L
411.408 51.716 L
412.38 51.394 L
413.352 51.074 L
414.324 50.758 L
415.296 50.443 L
416.268 50.131 L
417.24 49.821 L
418.212 49.514 L
419.184 49.21 L
420.156 48.908 L
421.128 48.608 L
422.1 48.311 L
423.072 48.017 L
424.044 47.725 L
425.016 47.436 L
425.988 47.149 L
426.96 46.865 L
427.932 46.583 L
428.904 46.304 L
429.876 46.028 L
430.848 45.754 L
431.82 45.483 L
432.792 45.215 L
433.764 44.949 L
434.736 44.686 L
435.708 44.426 L
436.68 44.169 L
437.652 43.914 L
438.624 43.662 L
439.596 43.413 L
440.568 43.166 L
441.54 42.923 L
442.512 42.682 L
443.484 42.444 L
444.456 42.208 L
445.428 41.976 L
446.4 41.746 L
447.372 41.52 L
448.344 41.296 L
449.316 41.075 L
450.288 40.857 L
451.26 40.642 L
452.232 40.429 L
453.204 40.22 L
454.176 40.014 L
455.148 39.81 L
456.12 39.61 L
457.092 39.413 L
458.064 39.218 L
459.036 39.027 L
460.008 38.838 L
460.98 38.653 L
461.952 38.471 L
462.924 38.292 L
463.896 38.115 L
464.868 37.942 L
465.84 37.772 L
466.812 37.606 L
467.784 37.442 L
468.756 37.281 L
469.728 37.124 L
470.7 36.97 L
471.672 36.819 L
472.644 36.671 L
473.616 36.526 L
474.588 36.384 L
475.56 36.246 L
476.532 36.111 L
477.504 35.979 L
478.476 35.851 L
479.448 35.726 L
480.42 35.604 L
481.392 35.485 L
482.364 35.37 L
483.336 35.258 L
484.307 35.149 L
485.28 35.044 L
486.251 34.942 L
487.223 34.843 L
488.195 34.748 L
489.167 34.657 L
490.139 34.568 L
491.111 34.483 L
492.083 34.402 L
493.055 34.324 L
494.027 34.249 L
494.999 34.178 L
495.971 34.111 L
496.943 34.046 L
497.915 33.986 L
498.887 33.929 L
S
GR
GS
0.302 0.745 0.933 RC
[10 6] 0 setdash
2 LJ
0.5 LW
N
73.869 370.235 M
74.841 366.715 L
75.813 363.21 L
76.785 359.722 L
77.757 356.256 L
78.729 352.814 L
79.701 349.4 L
80.673 346.016 L
81.645 342.668 L
82.617 339.357 L
83.589 336.088 L
84.561 332.863 L
85.533 329.686 L
86.505 326.56 L
87.477 323.489 L
88.449 320.476 L
89.421 317.525 L
90.393 314.638 L
91.365 311.82 L
92.337 309.073 L
93.309 306.4 L
94.281 303.806 L
95.253 301.294 L
96.225 298.867 L
97.197 296.528 L
98.169 294.256 L
99.141 292.008 L
100.113 289.784 L
101.085 287.582 L
102.057 285.404 L
103.029 283.25 L
104.001 281.119 L
104.973 279.011 L
105.945 276.927 L
106.917 274.866 L
107.889 272.829 L
108.861 270.816 L
109.833 268.826 L
110.805 266.86 L
111.777 264.917 L
112.749 262.999 L
113.721 261.104 L
114.693 259.233 L
115.665 257.386 L
116.637 255.563 L
117.609 253.764 L
118.581 251.989 L
119.553 250.239 L
120.525 248.512 L
121.497 246.809 L
122.469 245.131 L
123.441 243.477 L
124.413 241.848 L
125.385 240.242 L
126.357 238.662 L
127.329 237.105 L
128.301 235.573 L
129.273 234.066 L
130.245 232.583 L
131.217 231.125 L
132.189 229.692 L
133.161 228.283 L
134.133 226.899 L
135.105 225.54 L
136.077 224.206 L
137.049 222.897 L
138.021 221.612 L
138.993 220.353 L
139.965 219.118 L
140.937 217.909 L
141.909 216.725 L
142.881 215.559 L
143.853 214.403 L
144.825 213.254 L
145.797 212.114 L
146.769 210.983 L
147.741 209.86 L
148.713 208.745 L
149.685 207.638 L
150.656 206.54 L
151.628 205.449 L
152.6 204.367 L
153.572 203.293 L
154.544 202.227 L
155.516 201.169 L
156.488 200.118 L
157.46 199.076 L
158.432 198.042 L
159.404 197.015 L
160.376 195.996 L
161.348 194.985 L
162.32 193.981 L
163.292 192.985 L
164.264 191.997 L
165.236 191.016 L
166.208 190.042 L
167.18 189.076 L
168.152 188.118 L
169.124 187.167 L
170.096 186.223 L
171.068 185.286 L
172.04 184.357 L
173.012 183.434 L
173.984 182.519 L
174.956 181.611 L
175.928 180.71 L
176.9 179.816 L
177.872 178.929 L
178.844 178.048 L
179.816 177.175 L
180.788 176.308 L
181.76 175.449 L
182.732 174.595 L
183.704 173.749 L
184.676 172.909 L
185.648 172.076 L
186.62 171.249 L
187.592 170.429 L
188.564 169.615 L
189.536 168.808 L
190.508 168.007 L
191.48 167.212 L
192.452 166.424 L
193.424 165.642 L
194.396 164.866 L
195.368 164.096 L
196.34 163.332 L
197.312 162.574 L
198.284 161.823 L
199.256 161.077 L
200.228 160.337 L
201.2 159.603 L
202.172 158.875 L
203.144 158.152 L
204.116 157.436 L
205.088 156.725 L
206.06 156.019 L
207.032 155.32 L
208.004 154.626 L
208.976 153.937 L
209.948 153.254 L
210.92 152.576 L
211.892 151.903 L
212.864 151.236 L
213.836 150.574 L
214.808 149.918 L
215.78 149.266 L
216.752 148.62 L
217.724 147.979 L
218.696 147.343 L
219.668 146.712 L
220.64 146.086 L
221.612 145.465 L
222.584 144.848 L
223.556 144.237 L
224.528 143.63 L
225.5 143.028 L
226.472 142.431 L
227.444 141.838 L
228.416 141.25 L
229.388 140.667 L
230.36 140.088 L
231.332 139.514 L
232.304 138.944 L
233.276 138.378 L
234.248 137.817 L
235.22 137.26 L
236.192 136.704 L
237.164 136.148 L
238.136 135.593 L
239.108 135.037 L
240.08 134.482 L
241.052 133.927 L
242.024 133.373 L
242.996 132.818 L
243.968 132.264 L
244.94 131.71 L
245.912 131.156 L
246.884 130.603 L
247.856 130.05 L
248.828 129.497 L
249.8 128.944 L
250.772 128.392 L
251.744 127.84 L
252.716 127.288 L
253.688 126.737 L
254.66 126.186 L
255.632 125.636 L
256.604 125.086 L
257.576 124.536 L
258.548 123.987 L
259.52 123.439 L
260.492 122.89 L
261.464 122.343 L
262.436 121.795 L
263.408 121.249 L
264.38 120.702 L
265.352 120.157 L
266.324 119.611 L
267.296 119.067 L
268.268 118.523 L
269.24 117.979 L
270.212 117.436 L
271.184 116.894 L
272.156 116.352 L
273.128 115.811 L
274.1 115.27 L
275.072 114.73 L
276.044 114.191 L
277.016 113.653 L
277.988 113.115 L
278.96 112.578 L
279.932 112.042 L
280.904 111.506 L
281.876 110.971 L
282.848 110.437 L
283.82 109.903 L
284.792 109.371 L
285.764 108.839 L
286.736 108.308 L
287.708 107.778 L
288.68 107.248 L
289.652 106.72 L
290.624 106.192 L
291.596 105.665 L
292.568 105.139 L
293.54 104.614 L
294.512 104.09 L
295.484 103.567 L
296.456 103.045 L
297.428 102.523 L
298.4 102.003 L
299.372 101.484 L
300.344 100.965 L
301.316 100.448 L
302.288 99.931 L
303.26 99.416 L
304.232 98.902 L
305.204 98.388 L
306.176 97.876 L
307.148 97.365 L
308.12 96.855 L
309.092 96.346 L
310.064 95.838 L
311.036 95.331 L
312.008 94.826 L
312.979 94.321 L
313.952 93.818 L
314.923 93.316 L
315.895 92.815 L
316.867 92.315 L
317.839 91.817 L
318.811 91.32 L
319.783 90.824 L
320.755 90.329 L
321.727 89.836 L
322.699 89.343 L
323.671 88.852 L
324.643 88.363 L
325.615 87.875 L
326.587 87.388 L
327.559 86.902 L
328.531 86.418 L
329.503 85.935 L
330.475 85.453 L
331.447 84.973 L
332.419 84.495 L
333.391 84.017 L
334.363 83.542 L
335.335 83.067 L
336.307 82.594 L
337.279 82.123 L
338.251 81.653 L
339.223 81.184 L
340.195 80.717 L
341.167 80.252 L
342.139 79.788 L
343.111 79.326 L
344.083 78.865 L
345.055 78.406 L
346.027 77.948 L
346.999 77.492 L
347.971 77.038 L
348.943 76.585 L
349.915 76.134 L
350.887 75.685 L
351.859 75.237 L
352.831 74.791 L
353.803 74.346 L
354.775 73.904 L
355.747 73.463 L
356.719 73.023 L
357.691 72.586 L
358.663 72.15 L
359.635 71.716 L
360.607 71.284 L
361.579 70.854 L
362.551 70.425 L
363.523 69.998 L
364.495 69.573 L
365.467 69.15 L
366.439 68.729 L
367.411 68.31 L
368.383 67.892 L
369.355 67.476 L
370.327 67.063 L
371.299 66.651 L
372.271 66.241 L
373.243 65.833 L
374.215 65.428 L
375.187 65.024 L
376.159 64.622 L
377.131 64.222 L
378.103 63.824 L
379.075 63.428 L
380.047 63.034 L
381.019 62.642 L
381.991 62.253 L
382.963 61.865 L
383.935 61.479 L
384.907 61.096 L
385.879 60.715 L
386.851 60.336 L
387.823 59.958 L
388.795 59.584 L
389.767 59.211 L
390.739 58.84 L
391.711 58.472 L
392.683 58.106 L
393.655 57.742 L
394.627 57.38 L
395.599 57.021 L
396.571 56.664 L
397.543 56.309 L
398.515 55.956 L
399.487 55.606 L
400.459 55.258 L
401.431 54.912 L
402.403 54.569 L
403.375 54.228 L
404.347 53.889 L
405.319 53.553 L
406.291 53.219 L
407.263 52.887 L
408.235 52.558 L
409.207 52.232 L
410.179 51.907 L
411.151 51.586 L
412.123 51.266 L
413.095 50.95 L
414.067 50.635 L
415.039 50.324 L
416.011 50.014 L
416.983 49.707 L
417.955 49.403 L
418.927 49.102 L
419.899 48.802 L
420.871 48.506 L
421.843 48.212 L
422.815 47.921 L
423.787 47.632 L
424.759 47.346 L
425.731 47.063 L
426.703 46.782 L
427.675 46.504 L
428.647 46.228 L
429.619 45.956 L
430.591 45.686 L
431.563 45.418 L
432.535 45.154 L
433.507 44.892 L
434.479 44.633 L
435.451 44.377 L
436.423 44.123 L
437.395 43.873 L
438.367 43.625 L
439.339 43.38 L
440.311 43.137 L
441.283 42.898 L
442.255 42.662 L
443.227 42.428 L
444.199 42.197 L
445.171 41.97 L
446.143 41.745 L
447.115 41.523 L
448.087 41.304 L
449.059 41.088 L
450.031 40.874 L
451.003 40.664 L
451.975 40.457 L
452.947 40.253 L
453.919 40.052 L
454.891 39.854 L
455.863 39.659 L
456.835 39.467 L
457.807 39.278 L
458.779 39.092 L
459.751 38.909 L
460.723 38.73 L
461.695 38.553 L
462.667 38.38 L
463.639 38.21 L
464.611 38.043 L
465.583 37.879 L
466.555 37.718 L
467.527 37.561 L
468.499 37.406 L
469.471 37.255 L
470.443 37.107 L
471.415 36.963 L
472.387 36.822 L
473.359 36.684 L
474.331 36.549 L
475.303 36.417 L
476.275 36.289 L
477.246 36.165 L
478.219 36.043 L
479.19 35.925 L
480.162 35.81 L
481.134 35.699 L
482.106 35.591 L
483.078 35.486 L
484.05 35.385 L
485.022 35.287 L
485.994 35.193 L
486.966 35.102 L
487.938 35.015 L
488.91 34.931 L
489.882 34.851 L
490.854 34.774 L
491.826 34.701 L
492.798 34.631 L
493.77 34.565 L
494.742 34.502 L
495.714 34.443 L
S
GR
GS
0.635 0.078 0.184 RC
[10 6] 0 setdash
2 LJ
0.5 LW
N
74.463 367.833 M
75.435 364.362 L
76.407 360.905 L
77.379 357.465 L
78.351 354.046 L
79.323 350.65 L
80.295 347.281 L
81.267 343.941 L
82.239 340.635 L
83.211 337.365 L
84.183 334.135 L
85.155 330.948 L
86.127 327.806 L
87.099 324.714 L
88.071 321.675 L
89.043 318.691 L
90.015 315.767 L
90.987 312.904 L
91.959 310.107 L
92.931 307.379 L
93.903 304.723 L
94.875 302.142 L
95.846 299.639 L
96.818 297.217 L
97.79 294.881 L
98.762 292.629 L
99.734 290.413 L
100.706 288.22 L
101.678 286.05 L
102.65 283.903 L
103.622 281.778 L
104.594 279.677 L
105.566 277.598 L
106.538 275.542 L
107.51 273.509 L
108.482 271.499 L
109.454 269.512 L
110.426 267.548 L
111.398 265.607 L
112.37 263.689 L
113.342 261.794 L
114.314 259.922 L
115.286 258.074 L
116.258 256.248 L
117.23 254.446 L
118.202 252.667 L
119.174 250.911 L
120.146 249.179 L
121.118 247.47 L
122.09 245.784 L
123.062 244.122 L
124.034 242.483 L
125.006 240.867 L
125.978 239.275 L
126.95 237.707 L
127.922 236.162 L
128.894 234.641 L
129.866 233.143 L
130.838 231.669 L
131.81 230.219 L
132.782 228.792 L
133.754 227.389 L
134.726 226.009 L
135.698 224.654 L
136.67 223.322 L
137.642 222.015 L
138.614 220.731 L
139.586 219.47 L
140.558 218.234 L
141.53 217.022 L
142.502 215.834 L
143.474 214.67 L
144.446 213.528 L
145.418 212.395 L
146.39 211.271 L
147.362 210.154 L
148.334 209.046 L
149.306 207.946 L
150.278 206.854 L
151.25 205.77 L
152.222 204.693 L
153.194 203.625 L
154.166 202.564 L
155.138 201.511 L
156.11 200.466 L
157.082 199.428 L
158.054 198.398 L
159.026 197.375 L
159.998 196.361 L
160.97 195.353 L
161.942 194.353 L
162.914 193.361 L
163.886 192.376 L
164.858 191.398 L
165.83 190.427 L
166.802 189.464 L
167.774 188.508 L
168.746 187.559 L
169.718 186.617 L
170.69 185.682 L
171.662 184.755 L
172.634 183.834 L
173.606 182.92 L
174.578 182.013 L
175.55 181.113 L
176.522 180.22 L
177.494 179.333 L
178.466 178.453 L
179.438 177.58 L
180.41 176.714 L
181.382 175.854 L
182.354 175.001 L
183.326 174.154 L
184.298 173.313 L
185.27 172.479 L
186.242 171.652 L
187.214 170.831 L
188.186 170.016 L
189.158 169.207 L
190.13 168.405 L
191.102 167.608 L
192.074 166.818 L
193.046 166.034 L
194.018 165.256 L
194.99 164.484 L
195.962 163.718 L
196.934 162.958 L
197.906 162.203 L
198.878 161.455 L
199.85 160.712 L
200.822 159.975 L
201.794 159.244 L
202.766 158.518 L
203.738 157.798 L
204.71 157.083 L
205.682 156.374 L
206.654 155.671 L
207.626 154.973 L
208.598 154.28 L
209.57 153.593 L
210.542 152.911 L
211.514 152.234 L
212.486 151.562 L
213.458 150.896 L
214.43 150.235 L
215.402 149.578 L
216.374 148.927 L
217.346 148.281 L
218.318 147.64 L
219.29 147.004 L
220.262 146.372 L
221.234 145.746 L
222.206 145.124 L
223.178 144.507 L
224.15 143.895 L
225.122 143.287 L
226.094 142.684 L
227.066 142.086 L
228.038 141.492 L
229.01 140.902 L
229.982 140.317 L
230.954 139.737 L
231.926 139.16 L
232.898 138.588 L
233.87 138.021 L
234.842 137.457 L
235.814 136.898 L
236.786 136.343 L
237.758 135.792 L
238.73 135.245 L
239.702 134.702 L
240.674 134.159 L
241.646 133.617 L
242.618 133.075 L
243.59 132.533 L
244.562 131.991 L
245.534 131.45 L
246.506 130.909 L
247.478 130.367 L
248.45 129.827 L
249.422 129.286 L
250.394 128.746 L
251.366 128.205 L
252.338 127.666 L
253.31 127.126 L
254.282 126.587 L
255.254 126.048 L
256.226 125.509 L
257.198 124.971 L
258.17 124.433 L
259.142 123.895 L
260.113 123.358 L
261.086 122.821 L
262.057 122.285 L
263.029 121.749 L
264.001 121.213 L
264.973 120.678 L
265.945 120.143 L
266.917 119.609 L
267.889 119.075 L
268.861 118.542 L
269.833 118.009 L
270.805 117.477 L
271.777 116.945 L
272.749 116.413 L
273.721 115.883 L
274.693 115.352 L
275.665 114.823 L
276.637 114.294 L
277.609 113.765 L
278.581 113.237 L
279.553 112.71 L
280.525 112.183 L
281.497 111.657 L
282.469 111.132 L
283.441 110.607 L
284.413 110.083 L
285.385 109.559 L
286.357 109.037 L
287.329 108.515 L
288.301 107.993 L
289.273 107.473 L
290.245 106.953 L
291.217 106.434 L
292.189 105.916 L
293.161 105.398 L
294.133 104.881 L
295.105 104.365 L
296.077 103.85 L
297.049 103.336 L
298.021 102.822 L
298.993 102.31 L
299.965 101.798 L
300.937 101.287 L
301.909 100.777 L
302.881 100.268 L
303.853 99.759 L
304.825 99.252 L
305.797 98.746 L
306.769 98.24 L
307.741 97.736 L
308.713 97.232 L
309.685 96.73 L
310.657 96.228 L
311.629 95.727 L
312.601 95.228 L
313.573 94.729 L
314.545 94.232 L
315.517 93.735 L
316.489 93.24 L
317.461 92.746 L
318.433 92.252 L
319.405 91.76 L
320.377 91.269 L
321.349 90.779 L
322.321 90.291 L
323.293 89.803 L
324.265 89.316 L
325.237 88.831 L
326.209 88.347 L
327.181 87.864 L
328.153 87.382 L
329.125 86.902 L
330.097 86.422 L
331.069 85.944 L
332.041 85.467 L
333.013 84.992 L
333.985 84.518 L
334.957 84.045 L
335.929 83.573 L
336.901 83.103 L
337.873 82.633 L
338.845 82.166 L
339.817 81.699 L
340.789 81.234 L
341.761 80.771 L
342.733 80.308 L
343.705 79.847 L
344.677 79.388 L
345.649 78.93 L
346.621 78.473 L
347.593 78.018 L
348.565 77.564 L
349.537 77.112 L
350.509 76.661 L
351.481 76.212 L
352.453 75.764 L
353.425 75.318 L
354.397 74.873 L
355.369 74.43 L
356.341 73.988 L
357.313 73.548 L
358.285 73.109 L
359.257 72.672 L
360.229 72.237 L
361.201 71.803 L
362.173 71.371 L
363.145 70.94 L
364.117 70.511 L
365.089 70.084 L
366.061 69.659 L
367.033 69.235 L
368.005 68.812 L
368.977 68.392 L
369.949 67.973 L
370.921 67.556 L
371.893 67.141 L
372.865 66.727 L
373.837 66.315 L
374.809 65.905 L
375.781 65.497 L
376.753 65.09 L
377.725 64.686 L
378.697 64.283 L
379.669 63.882 L
380.641 63.483 L
381.613 63.085 L
382.585 62.69 L
383.557 62.296 L
384.529 61.905 L
385.501 61.515 L
386.473 61.127 L
387.445 60.741 L
388.417 60.357 L
389.389 59.975 L
390.361 59.595 L
391.333 59.217 L
392.305 58.841 L
393.277 58.467 L
394.249 58.095 L
395.221 57.725 L
396.193 57.356 L
397.165 56.99 L
398.137 56.627 L
399.109 56.265 L
400.081 55.905 L
401.053 55.547 L
402.025 55.192 L
402.997 54.838 L
403.969 54.487 L
404.941 54.138 L
405.913 53.791 L
406.885 53.446 L
407.857 53.103 L
408.829 52.762 L
409.801 52.424 L
410.773 52.088 L
411.745 51.754 L
412.717 51.422 L
413.689 51.093 L
414.661 50.766 L
415.633 50.441 L
416.605 50.119 L
417.577 49.798 L
418.549 49.48 L
419.521 49.165 L
420.493 48.851 L
421.465 48.54 L
422.437 48.232 L
423.409 47.925 L
424.381 47.622 L
425.353 47.32 L
426.324 47.021 L
427.297 46.724 L
428.268 46.43 L
429.24 46.138 L
430.212 45.849 L
431.184 45.562 L
432.156 45.278 L
433.128 44.996 L
434.1 44.716 L
435.072 44.439 L
436.044 44.165 L
437.016 43.893 L
437.988 43.624 L
438.96 43.357 L
439.932 43.093 L
440.904 42.831 L
441.876 42.572 L
442.848 42.316 L
443.82 42.062 L
444.792 41.811 L
445.764 41.562 L
446.736 41.316 L
447.708 41.073 L
448.68 40.833 L
449.652 40.595 L
450.624 40.36 L
451.596 40.127 L
452.568 39.897 L
453.54 39.67 L
454.512 39.446 L
455.484 39.225 L
456.456 39.006 L
457.428 38.79 L
458.4 38.577 L
459.372 38.367 L
460.344 38.159 L
461.316 37.954 L
462.288 37.753 L
463.26 37.554 L
464.232 37.358 L
465.204 37.164 L
466.176 36.974 L
467.148 36.787 L
468.12 36.602 L
469.092 36.421 L
470.064 36.242 L
471.036 36.066 L
472.008 35.893 L
472.98 35.724 L
473.952 35.557 L
474.924 35.393 L
475.896 35.232 L
476.868 35.075 L
477.84 34.92 L
478.812 34.768 L
479.784 34.62 L
480.756 34.474 L
481.728 34.331 L
482.7 34.192 L
483.672 34.056 L
484.644 33.923 L
485.616 33.793 L
486.588 33.666 L
487.56 33.542 L
488.532 33.421 L
489.504 33.304 L
490.476 33.19 L
491.448 33.079 L
492.42 32.971 L
493.392 32.866 L
494.364 32.765 L
495.336 32.667 L
496.308 32.572 L
497.28 32.48 L
498.252 32.392 L
499.224 32.307 L
500.196 32.226 L
501.168 32.147 L
502.14 32.072 L
503.112 32 L
504.084 31.932 L
505.056 31.867 L
506.028 31.805 L
507 31.747 L
S
GR
GS
1 GC
N
499 366 M
499 250.5 L
344.5 250.5 L
344.5 366 L
cp
f
GR
GS
[1 0 0 1 381.5 260.25] CT
/Helvetica 13 F
GS
[1 0 0 1 0 0] CT
0 5 moveto 
1 -1 scale
(Base Run) t 
GR
GR
GS
0 0.447 0.741 RC
1 LJ
0.5 LW
N
348.5 260.25 M
378.5 260.25 L
S
GR
GS
[1 0 0 1 381.5 276.25] CT
/Helvetica 13 F
GS
[1 0 0 1 0 0] CT
0 5 moveto 
1 -1 scale
(I & B Frames) t 
GR
GR
GS
0.851 0.325 0.098 RC
1 LJ
0.5 LW
N
348.5 276.25 M
378.5 276.25 L
S
GR
GS
[1 0 0 1 381.5 292.25] CT
/Helvetica 13 F
GS
[1 0 0 1 0 0] CT
0 5 moveto 
1 -1 scale
(I Frames Only) t 
GR
GR
GS
0.929 0.694 0.125 RC
1 LJ
0.5 LW
N
348.5 292.25 M
378.5 292.25 L
S
GR
GS
[1 0 0 1 381.5 308.25] CT
/Helvetica 13 F
GS
[1 0 0 1 0 0] CT
0 5 moveto 
1 -1 scale
(B Frames Only) t 
GR
GR
GS
0.494 0.184 0.557 RC
1 LJ
0.5 LW
N
348.5 308.25 M
378.5 308.25 L
S
GR
GS
[1 0 0 1 381.5 324.25] CT
/Helvetica 13 F
GS
[1 0 0 1 0 0] CT
0 5 moveto 
1 -1 scale
(Part I & B Frames) t 
GR
GR
GS
0.467 0.675 0.188 RC
[10 6] 0 setdash
2 LJ
0.5 LW
N
348.5 324.25 M
378.5 324.25 L
S
GR
GS
[1 0 0 1 381.5 340.25] CT
/Helvetica 13 F
GS
[1 0 0 1 0 0] CT
0 5 moveto 
1 -1 scale
(Part I Frames Only) t 
GR
GR
GS
0.302 0.745 0.933 RC
[10 6] 0 setdash
2 LJ
0.5 LW
N
348.5 340.25 M
378.5 340.25 L
S
GR
GS
[1 0 0 1 381.5 356.25] CT
/Helvetica 13 F
GS
[1 0 0 1 0 0] CT
0 5 moveto 
1 -1 scale
(Part B Frames Only) t 
GR
GR
GS
0.635 0.078 0.184 RC
[10 6] 0 setdash
2 LJ
0.5 LW
N
348.5 356.25 M
378.5 356.25 L
S
GR
GS
0.149 GC
10.0 ML
0.5 LW
N
344.5 366 M
344.5 250.5 L
499 250.5 L
499 366 L
cp
S
GR
%%Trailer
%%Pages: 1
%%EOF
