%!PS-Adobe-3.0 EPSF-3.0
%%Creator: (MATLAB, The Mathworks, Inc. Version 9.11.0.1837725 \(R2021b\) Update 2. Operating System: Mac OS X)
%%Title: plots/pchip/TelevisionClip_1080P-39e3.y4m-hevc-DE2K.eps
%%CreationDate: 2022-02-03T19:14:51
%%Pages: (atend)
%%BoundingBox:    33   425   508   826
%%LanguageLevel: 3
%%EndComments
%%BeginProlog
%%BeginResource: procset (Apache XML Graphics Std ProcSet) 1.2 0
%%Version: 1.2 0
%%Copyright: (Copyright 2001-2003,2010 The Apache Software Foundation. License terms: http://www.apache.org/licenses/LICENSE-2.0)
/bd{bind def}bind def
/ld{load def}bd
/GR/grestore ld
/GS/gsave ld
/RM/rmoveto ld
/C/curveto ld
/t/show ld
/L/lineto ld
/ML/setmiterlimit ld
/CT/concat ld
/f/fill ld
/N/newpath ld
/S/stroke ld
/CC/setcmykcolor ld
/A/ashow ld
/cp/closepath ld
/RC/setrgbcolor ld
/LJ/setlinejoin ld
/GC/setgray ld
/LW/setlinewidth ld
/M/moveto ld
/re {4 2 roll M
1 index 0 rlineto
0 exch rlineto
neg 0 rlineto
cp } bd
/_ctm matrix def
/_tm matrix def
/BT { _ctm currentmatrix pop matrix _tm copy pop 0 0 moveto } bd
/ET { _ctm setmatrix } bd
/iTm { _ctm setmatrix _tm concat } bd
/Tm { _tm astore pop iTm 0 0 moveto } bd
/ux 0.0 def
/uy 0.0 def
/F {
  /Tp exch def
  /Tf exch def
  Tf findfont Tp scalefont setfont
  /cf Tf def  /cs Tp def
} bd
/ULS {currentpoint /uy exch def /ux exch def} bd
/ULE {
  /Tcx currentpoint pop def
  gsave
  newpath
  cf findfont cs scalefont dup
  /FontMatrix get 0 get /Ts exch def /FontInfo get dup
  /UnderlinePosition get Ts mul /To exch def
  /UnderlineThickness get Ts mul /Tt exch def
  ux uy To add moveto  Tcx uy To add lineto
  Tt setlinewidth stroke
  grestore
} bd
/OLE {
  /Tcx currentpoint pop def
  gsave
  newpath
  cf findfont cs scalefont dup
  /FontMatrix get 0 get /Ts exch def /FontInfo get dup
  /UnderlinePosition get Ts mul /To exch def
  /UnderlineThickness get Ts mul /Tt exch def
  ux uy To add cs add moveto Tcx uy To add cs add lineto
  Tt setlinewidth stroke
  grestore
} bd
/SOE {
  /Tcx currentpoint pop def
  gsave
  newpath
  cf findfont cs scalefont dup
  /FontMatrix get 0 get /Ts exch def /FontInfo get dup
  /UnderlinePosition get Ts mul /To exch def
  /UnderlineThickness get Ts mul /Tt exch def
  ux uy To add cs 10 mul 26 idiv add moveto Tcx uy To add cs 10 mul 26 idiv add lineto
  Tt setlinewidth stroke
  grestore
} bd
/QT {
/Y22 exch store
/X22 exch store
/Y21 exch store
/X21 exch store
currentpoint
/Y21 load 2 mul add 3 div exch
/X21 load 2 mul add 3 div exch
/X21 load 2 mul /X22 load add 3 div
/Y21 load 2 mul /Y22 load add 3 div
/X22 load /Y22 load curveto
} bd
/SSPD {
dup length /d exch dict def
{
/v exch def
/k exch def
currentpagedevice k known {
/cpdv currentpagedevice k get def
v cpdv ne {
/upd false def
/nullv v type /nulltype eq def
/nullcpdv cpdv type /nulltype eq def
nullv nullcpdv or
{
/upd true def
} {
/sametype v type cpdv type eq def
sametype {
v type /arraytype eq {
/vlen v length def
/cpdvlen cpdv length def
vlen cpdvlen eq {
0 1 vlen 1 sub {
/i exch def
/obj v i get def
/cpdobj cpdv i get def
obj cpdobj ne {
/upd true def
exit
} if
} for
} {
/upd true def
} ifelse
} {
v type /dicttype eq {
v {
/dv exch def
/dk exch def
/cpddv cpdv dk get def
dv cpddv ne {
/upd true def
exit
} if
} forall
} {
/upd true def
} ifelse
} ifelse
} if
} ifelse
upd true eq {
d k v put
} if
} if
} if
} forall
d length 0 gt {
d setpagedevice
} if
} bd
/RE { % /NewFontName [NewEncodingArray] /FontName RE -
  findfont dup length dict begin
  {
    1 index /FID ne
    {def} {pop pop} ifelse
  } forall
  /Encoding exch def
  /FontName 1 index def
  currentdict definefont pop
  end
} bind def
%%EndResource
%%BeginResource: procset (Apache XML Graphics EPS ProcSet) 1.0 0
%%Version: 1.0 0
%%Copyright: (Copyright 2002-2003 The Apache Software Foundation. License terms: http://www.apache.org/licenses/LICENSE-2.0)
/BeginEPSF { %def
/b4_Inc_state save def         % Save state for cleanup
/dict_count countdictstack def % Count objects on dict stack
/op_count count 1 sub def      % Count objects on operand stack
userdict begin                 % Push userdict on dict stack
/showpage { } def              % Redefine showpage, { } = null proc
0 setgray 0 setlinecap         % Prepare graphics state
1 setlinewidth 0 setlinejoin
10 setmiterlimit [ ] 0 setdash newpath
/languagelevel where           % If level not equal to 1 then
{pop languagelevel             % set strokeadjust and
1 ne                           % overprint to their defaults.
{false setstrokeadjust false setoverprint
} if
} if
} bd
/EndEPSF { %def
count op_count sub {pop} repeat            % Clean up stacks
countdictstack dict_count sub {end} repeat
b4_Inc_state restore
} bd
%%EndResource
%FOPBeginFontDict
%%IncludeResource: font Courier-Oblique
%%IncludeResource: font Courier-BoldOblique
%%IncludeResource: font Courier-Bold
%%IncludeResource: font ZapfDingbats
%%IncludeResource: font Symbol
%%IncludeResource: font Helvetica
%%IncludeResource: font Helvetica-Oblique
%%IncludeResource: font Helvetica-Bold
%%IncludeResource: font Helvetica-BoldOblique
%%IncludeResource: font Times-Roman
%%IncludeResource: font Times-Italic
%%IncludeResource: font Times-Bold
%%IncludeResource: font Times-BoldItalic
%%IncludeResource: font Courier
%FOPEndFontDict
%%BeginResource: encoding WinAnsiEncoding
/WinAnsiEncoding [
/.notdef /.notdef /.notdef /.notdef /.notdef
/.notdef /.notdef /.notdef /.notdef /.notdef
/.notdef /.notdef /.notdef /.notdef /.notdef
/.notdef /.notdef /.notdef /.notdef /.notdef
/.notdef /.notdef /.notdef /.notdef /.notdef
/.notdef /.notdef /.notdef /.notdef /.notdef
/.notdef /.notdef /space /exclam /quotedbl
/numbersign /dollar /percent /ampersand /quotesingle
/parenleft /parenright /asterisk /plus /comma
/hyphen /period /slash /zero /one
/two /three /four /five /six
/seven /eight /nine /colon /semicolon
/less /equal /greater /question /at
/A /B /C /D /E
/F /G /H /I /J
/K /L /M /N /O
/P /Q /R /S /T
/U /V /W /X /Y
/Z /bracketleft /backslash /bracketright /asciicircum
/underscore /quoteleft /a /b /c
/d /e /f /g /h
/i /j /k /l /m
/n /o /p /q /r
/s /t /u /v /w
/x /y /z /braceleft /bar
/braceright /asciitilde /bullet /Euro /bullet
/quotesinglbase /florin /quotedblbase /ellipsis /dagger
/daggerdbl /circumflex /perthousand /Scaron /guilsinglleft
/OE /bullet /Zcaron /bullet /bullet
/quoteleft /quoteright /quotedblleft /quotedblright /bullet
/endash /emdash /asciitilde /trademark /scaron
/guilsinglright /oe /bullet /zcaron /Ydieresis
/space /exclamdown /cent /sterling /currency
/yen /brokenbar /section /dieresis /copyright
/ordfeminine /guillemotleft /logicalnot /sfthyphen /registered
/macron /degree /plusminus /twosuperior /threesuperior
/acute /mu /paragraph /middot /cedilla
/onesuperior /ordmasculine /guillemotright /onequarter /onehalf
/threequarters /questiondown /Agrave /Aacute /Acircumflex
/Atilde /Adieresis /Aring /AE /Ccedilla
/Egrave /Eacute /Ecircumflex /Edieresis /Igrave
/Iacute /Icircumflex /Idieresis /Eth /Ntilde
/Ograve /Oacute /Ocircumflex /Otilde /Odieresis
/multiply /Oslash /Ugrave /Uacute /Ucircumflex
/Udieresis /Yacute /Thorn /germandbls /agrave
/aacute /acircumflex /atilde /adieresis /aring
/ae /ccedilla /egrave /eacute /ecircumflex
/edieresis /igrave /iacute /icircumflex /idieresis
/eth /ntilde /ograve /oacute /ocircumflex
/otilde /odieresis /divide /oslash /ugrave
/uacute /ucircumflex /udieresis /yacute /thorn
/ydieresis
] def
%%EndResource
%FOPBeginFontReencode
/Courier-Oblique findfont
dup length dict begin
  {1 index /FID ne {def} {pop pop} ifelse} forall
  /Encoding WinAnsiEncoding def
  currentdict
end
/Courier-Oblique exch definefont pop
/Courier-BoldOblique findfont
dup length dict begin
  {1 index /FID ne {def} {pop pop} ifelse} forall
  /Encoding WinAnsiEncoding def
  currentdict
end
/Courier-BoldOblique exch definefont pop
/Courier-Bold findfont
dup length dict begin
  {1 index /FID ne {def} {pop pop} ifelse} forall
  /Encoding WinAnsiEncoding def
  currentdict
end
/Courier-Bold exch definefont pop
/Helvetica findfont
dup length dict begin
  {1 index /FID ne {def} {pop pop} ifelse} forall
  /Encoding WinAnsiEncoding def
  currentdict
end
/Helvetica exch definefont pop
/Helvetica-Oblique findfont
dup length dict begin
  {1 index /FID ne {def} {pop pop} ifelse} forall
  /Encoding WinAnsiEncoding def
  currentdict
end
/Helvetica-Oblique exch definefont pop
/Helvetica-Bold findfont
dup length dict begin
  {1 index /FID ne {def} {pop pop} ifelse} forall
  /Encoding WinAnsiEncoding def
  currentdict
end
/Helvetica-Bold exch definefont pop
/Helvetica-BoldOblique findfont
dup length dict begin
  {1 index /FID ne {def} {pop pop} ifelse} forall
  /Encoding WinAnsiEncoding def
  currentdict
end
/Helvetica-BoldOblique exch definefont pop
/Times-Roman findfont
dup length dict begin
  {1 index /FID ne {def} {pop pop} ifelse} forall
  /Encoding WinAnsiEncoding def
  currentdict
end
/Times-Roman exch definefont pop
/Times-Italic findfont
dup length dict begin
  {1 index /FID ne {def} {pop pop} ifelse} forall
  /Encoding WinAnsiEncoding def
  currentdict
end
/Times-Italic exch definefont pop
/Times-Bold findfont
dup length dict begin
  {1 index /FID ne {def} {pop pop} ifelse} forall
  /Encoding WinAnsiEncoding def
  currentdict
end
/Times-Bold exch definefont pop
/Times-BoldItalic findfont
dup length dict begin
  {1 index /FID ne {def} {pop pop} ifelse} forall
  /Encoding WinAnsiEncoding def
  currentdict
end
/Times-BoldItalic exch definefont pop
/Courier findfont
dup length dict begin
  {1 index /FID ne {def} {pop pop} ifelse} forall
  /Encoding WinAnsiEncoding def
  currentdict
end
/Courier exch definefont pop
%FOPEndFontReencode
%%EndProlog
%%Page: 1 1
%%PageBoundingBox: 0 0 1120 840
%%BeginPageSetup
[1 0 0 -1 0 840] CT
%%EndPageSetup
GS
1 GC
N
0 0 1120 840 re
f
GR
GS
1 GC
N
73 374 M
507 374 L
507 31.5 L
73 31.5 L
cp
f
GR
GS
0.149 GC
2 setlinecap
1 LJ
0.5 LW
N
73 374 M
507 374 L
S
GR
GS
0.149 GC
2 setlinecap
1 LJ
0.5 LW
N
73 31.5 M
507 31.5 L
S
GR
GS
0.149 GC
2 setlinecap
1 LJ
0.5 LW
N
99.876 374 M
99.876 369.66 L
S
GR
GS
0.149 GC
2 setlinecap
1 LJ
0.5 LW
N
148.476 374 M
148.476 369.66 L
S
GR
GS
0.149 GC
2 setlinecap
1 LJ
0.5 LW
N
197.075 374 M
197.075 369.66 L
S
GR
GS
0.149 GC
2 setlinecap
1 LJ
0.5 LW
N
245.675 374 M
245.675 369.66 L
S
GR
GS
0.149 GC
2 setlinecap
1 LJ
0.5 LW
N
294.275 374 M
294.275 369.66 L
S
GR
GS
0.149 GC
2 setlinecap
1 LJ
0.5 LW
N
342.875 374 M
342.875 369.66 L
S
GR
GS
0.149 GC
2 setlinecap
1 LJ
0.5 LW
N
391.474 374 M
391.474 369.66 L
S
GR
GS
0.149 GC
2 setlinecap
1 LJ
0.5 LW
N
440.074 374 M
440.074 369.66 L
S
GR
GS
0.149 GC
2 setlinecap
1 LJ
0.5 LW
N
488.674 374 M
488.674 369.66 L
S
GR
GS
0.149 GC
2 setlinecap
1 LJ
0.5 LW
N
99.876 31.5 M
99.876 35.84 L
S
GR
GS
0.149 GC
2 setlinecap
1 LJ
0.5 LW
N
148.476 31.5 M
148.476 35.84 L
S
GR
GS
0.149 GC
2 setlinecap
1 LJ
0.5 LW
N
197.075 31.5 M
197.075 35.84 L
S
GR
GS
0.149 GC
2 setlinecap
1 LJ
0.5 LW
N
245.675 31.5 M
245.675 35.84 L
S
GR
GS
0.149 GC
2 setlinecap
1 LJ
0.5 LW
N
294.275 31.5 M
294.275 35.84 L
S
GR
GS
0.149 GC
2 setlinecap
1 LJ
0.5 LW
N
342.875 31.5 M
342.875 35.84 L
S
GR
GS
0.149 GC
2 setlinecap
1 LJ
0.5 LW
N
391.474 31.5 M
391.474 35.84 L
S
GR
GS
0.149 GC
2 setlinecap
1 LJ
0.5 LW
N
440.074 31.5 M
440.074 35.84 L
S
GR
GS
0.149 GC
2 setlinecap
1 LJ
0.5 LW
N
488.674 31.5 M
488.674 35.84 L
S
GR
GS
0.149 GC
2 setlinecap
1 LJ
0.5 LW
N
80.436 374 M
80.436 371.83 L
S
GR
GS
0.149 GC
2 setlinecap
1 LJ
0.5 LW
N
90.156 374 M
90.156 371.83 L
S
GR
GS
0.149 GC
2 setlinecap
1 LJ
0.5 LW
N
109.596 374 M
109.596 371.83 L
S
GR
GS
0.149 GC
2 setlinecap
1 LJ
0.5 LW
N
119.316 374 M
119.316 371.83 L
S
GR
GS
0.149 GC
2 setlinecap
1 LJ
0.5 LW
N
129.036 374 M
129.036 371.83 L
S
GR
GS
0.149 GC
2 setlinecap
1 LJ
0.5 LW
N
138.756 374 M
138.756 371.83 L
S
GR
GS
0.149 GC
2 setlinecap
1 LJ
0.5 LW
N
158.196 374 M
158.196 371.83 L
S
GR
GS
0.149 GC
2 setlinecap
1 LJ
0.5 LW
N
167.916 374 M
167.916 371.83 L
S
GR
GS
0.149 GC
2 setlinecap
1 LJ
0.5 LW
N
177.636 374 M
177.636 371.83 L
S
GR
GS
0.149 GC
2 setlinecap
1 LJ
0.5 LW
N
187.355 374 M
187.355 371.83 L
S
GR
GS
0.149 GC
2 setlinecap
1 LJ
0.5 LW
N
206.795 374 M
206.795 371.83 L
S
GR
GS
0.149 GC
2 setlinecap
1 LJ
0.5 LW
N
216.515 374 M
216.515 371.83 L
S
GR
GS
0.149 GC
2 setlinecap
1 LJ
0.5 LW
N
226.235 374 M
226.235 371.83 L
S
GR
GS
0.149 GC
2 setlinecap
1 LJ
0.5 LW
N
235.955 374 M
235.955 371.83 L
S
GR
GS
0.149 GC
2 setlinecap
1 LJ
0.5 LW
N
255.395 374 M
255.395 371.83 L
S
GR
GS
0.149 GC
2 setlinecap
1 LJ
0.5 LW
N
265.115 374 M
265.115 371.83 L
S
GR
GS
0.149 GC
2 setlinecap
1 LJ
0.5 LW
N
274.835 374 M
274.835 371.83 L
S
GR
GS
0.149 GC
2 setlinecap
1 LJ
0.5 LW
N
284.555 374 M
284.555 371.83 L
S
GR
GS
0.149 GC
2 setlinecap
1 LJ
0.5 LW
N
303.995 374 M
303.995 371.83 L
S
GR
GS
0.149 GC
2 setlinecap
1 LJ
0.5 LW
N
313.715 374 M
313.715 371.83 L
S
GR
GS
0.149 GC
2 setlinecap
1 LJ
0.5 LW
N
323.435 374 M
323.435 371.83 L
S
GR
GS
0.149 GC
2 setlinecap
1 LJ
0.5 LW
N
333.155 374 M
333.155 371.83 L
S
GR
GS
0.149 GC
2 setlinecap
1 LJ
0.5 LW
N
352.594 374 M
352.594 371.83 L
S
GR
GS
0.149 GC
2 setlinecap
1 LJ
0.5 LW
N
362.314 374 M
362.314 371.83 L
S
GR
GS
0.149 GC
2 setlinecap
1 LJ
0.5 LW
N
372.034 374 M
372.034 371.83 L
S
GR
GS
0.149 GC
2 setlinecap
1 LJ
0.5 LW
N
381.754 374 M
381.754 371.83 L
S
GR
GS
0.149 GC
2 setlinecap
1 LJ
0.5 LW
N
401.194 374 M
401.194 371.83 L
S
GR
GS
0.149 GC
2 setlinecap
1 LJ
0.5 LW
N
410.914 374 M
410.914 371.83 L
S
GR
GS
0.149 GC
2 setlinecap
1 LJ
0.5 LW
N
420.634 374 M
420.634 371.83 L
S
GR
GS
0.149 GC
2 setlinecap
1 LJ
0.5 LW
N
430.354 374 M
430.354 371.83 L
S
GR
GS
0.149 GC
2 setlinecap
1 LJ
0.5 LW
N
449.794 374 M
449.794 371.83 L
S
GR
GS
0.149 GC
2 setlinecap
1 LJ
0.5 LW
N
459.514 374 M
459.514 371.83 L
S
GR
GS
0.149 GC
2 setlinecap
1 LJ
0.5 LW
N
469.234 374 M
469.234 371.83 L
S
GR
GS
0.149 GC
2 setlinecap
1 LJ
0.5 LW
N
478.954 374 M
478.954 371.83 L
S
GR
GS
0.149 GC
2 setlinecap
1 LJ
0.5 LW
N
498.394 374 M
498.394 371.83 L
S
GR
GS
0.149 GC
2 setlinecap
1 LJ
0.5 LW
N
80.436 31.5 M
80.436 33.67 L
S
GR
GS
0.149 GC
2 setlinecap
1 LJ
0.5 LW
N
90.156 31.5 M
90.156 33.67 L
S
GR
GS
0.149 GC
2 setlinecap
1 LJ
0.5 LW
N
109.596 31.5 M
109.596 33.67 L
S
GR
GS
0.149 GC
2 setlinecap
1 LJ
0.5 LW
N
119.316 31.5 M
119.316 33.67 L
S
GR
GS
0.149 GC
2 setlinecap
1 LJ
0.5 LW
N
129.036 31.5 M
129.036 33.67 L
S
GR
GS
0.149 GC
2 setlinecap
1 LJ
0.5 LW
N
138.756 31.5 M
138.756 33.67 L
S
GR
GS
0.149 GC
2 setlinecap
1 LJ
0.5 LW
N
158.196 31.5 M
158.196 33.67 L
S
GR
GS
0.149 GC
2 setlinecap
1 LJ
0.5 LW
N
167.916 31.5 M
167.916 33.67 L
S
GR
GS
0.149 GC
2 setlinecap
1 LJ
0.5 LW
N
177.636 31.5 M
177.636 33.67 L
S
GR
GS
0.149 GC
2 setlinecap
1 LJ
0.5 LW
N
187.355 31.5 M
187.355 33.67 L
S
GR
GS
0.149 GC
2 setlinecap
1 LJ
0.5 LW
N
206.795 31.5 M
206.795 33.67 L
S
GR
GS
0.149 GC
2 setlinecap
1 LJ
0.5 LW
N
216.515 31.5 M
216.515 33.67 L
S
GR
GS
0.149 GC
2 setlinecap
1 LJ
0.5 LW
N
226.235 31.5 M
226.235 33.67 L
S
GR
GS
0.149 GC
2 setlinecap
1 LJ
0.5 LW
N
235.955 31.5 M
235.955 33.67 L
S
GR
GS
0.149 GC
2 setlinecap
1 LJ
0.5 LW
N
255.395 31.5 M
255.395 33.67 L
S
GR
GS
0.149 GC
2 setlinecap
1 LJ
0.5 LW
N
265.115 31.5 M
265.115 33.67 L
S
GR
GS
0.149 GC
2 setlinecap
1 LJ
0.5 LW
N
274.835 31.5 M
274.835 33.67 L
S
GR
GS
0.149 GC
2 setlinecap
1 LJ
0.5 LW
N
284.555 31.5 M
284.555 33.67 L
S
GR
GS
0.149 GC
2 setlinecap
1 LJ
0.5 LW
N
303.995 31.5 M
303.995 33.67 L
S
GR
GS
0.149 GC
2 setlinecap
1 LJ
0.5 LW
N
313.715 31.5 M
313.715 33.67 L
S
GR
GS
0.149 GC
2 setlinecap
1 LJ
0.5 LW
N
323.435 31.5 M
323.435 33.67 L
S
GR
GS
0.149 GC
2 setlinecap
1 LJ
0.5 LW
N
333.155 31.5 M
333.155 33.67 L
S
GR
GS
0.149 GC
2 setlinecap
1 LJ
0.5 LW
N
352.594 31.5 M
352.594 33.67 L
S
GR
GS
0.149 GC
2 setlinecap
1 LJ
0.5 LW
N
362.314 31.5 M
362.314 33.67 L
S
GR
GS
0.149 GC
2 setlinecap
1 LJ
0.5 LW
N
372.034 31.5 M
372.034 33.67 L
S
GR
GS
0.149 GC
2 setlinecap
1 LJ
0.5 LW
N
381.754 31.5 M
381.754 33.67 L
S
GR
GS
0.149 GC
2 setlinecap
1 LJ
0.5 LW
N
401.194 31.5 M
401.194 33.67 L
S
GR
GS
0.149 GC
2 setlinecap
1 LJ
0.5 LW
N
410.914 31.5 M
410.914 33.67 L
S
GR
GS
0.149 GC
2 setlinecap
1 LJ
0.5 LW
N
420.634 31.5 M
420.634 33.67 L
S
GR
GS
0.149 GC
2 setlinecap
1 LJ
0.5 LW
N
430.354 31.5 M
430.354 33.67 L
S
GR
GS
0.149 GC
2 setlinecap
1 LJ
0.5 LW
N
449.794 31.5 M
449.794 33.67 L
S
GR
GS
0.149 GC
2 setlinecap
1 LJ
0.5 LW
N
459.514 31.5 M
459.514 33.67 L
S
GR
GS
0.149 GC
2 setlinecap
1 LJ
0.5 LW
N
469.234 31.5 M
469.234 33.67 L
S
GR
GS
0.149 GC
2 setlinecap
1 LJ
0.5 LW
N
478.954 31.5 M
478.954 33.67 L
S
GR
GS
0.149 GC
2 setlinecap
1 LJ
0.5 LW
N
498.394 31.5 M
498.394 33.67 L
S
GR
GS
[1 0 0 1 99.87601 378.80002] CT
0.149 GC
/Helvetica 14 F
GS
[1 0 0 1 0 0] CT
-16 14 moveto 
1 -1 scale
(1000) t 
GR
GR
GS
[1 0 0 1 148.47571 378.80002] CT
0.149 GC
/Helvetica 14 F
GS
[1 0 0 1 0 0] CT
-16 14 moveto 
1 -1 scale
(2000) t 
GR
GR
GS
[1 0 0 1 197.07542 378.80002] CT
0.149 GC
/Helvetica 14 F
GS
[1 0 0 1 0 0] CT
-16 14 moveto 
1 -1 scale
(3000) t 
GR
GR
GS
[1 0 0 1 245.67513 378.80002] CT
0.149 GC
/Helvetica 14 F
GS
[1 0 0 1 0 0] CT
-16 14 moveto 
1 -1 scale
(4000) t 
GR
GR
GS
[1 0 0 1 294.27484 378.80002] CT
0.149 GC
/Helvetica 14 F
GS
[1 0 0 1 0 0] CT
-16 14 moveto 
1 -1 scale
(5000) t 
GR
GR
GS
[1 0 0 1 342.87454 378.80002] CT
0.149 GC
/Helvetica 14 F
GS
[1 0 0 1 0 0] CT
-16 14 moveto 
1 -1 scale
(6000) t 
GR
GR
GS
[1 0 0 1 391.47424 378.80002] CT
0.149 GC
/Helvetica 14 F
GS
[1 0 0 1 0 0] CT
-16 14 moveto 
1 -1 scale
(7000) t 
GR
GR
GS
[1 0 0 1 440.07394 378.80002] CT
0.149 GC
/Helvetica 14 F
GS
[1 0 0 1 0 0] CT
-16 14 moveto 
1 -1 scale
(8000) t 
GR
GR
GS
[1 0 0 1 488.67365 378.80002] CT
0.149 GC
/Helvetica 14 F
GS
[1 0 0 1 0 0] CT
-16 14 moveto 
1 -1 scale
(9000) t 
GR
GR
GS
[1 0 0 1 290.00021 396.29999] CT
0.149 GC
/Helvetica 15.4 F
GS
[1 0 0 1 0 0] CT
-42 15 moveto 
1 -1 scale
(Bitrate\(kb/s\)) t 
GR
GR
GS
0.149 GC
2 setlinecap
1 LJ
0.5 LW
N
73 374 M
73 31.5 L
S
GR
GS
0.149 GC
2 setlinecap
1 LJ
0.5 LW
N
507 374 M
507 31.5 L
S
GR
GS
0.149 GC
2 setlinecap
1 LJ
0.5 LW
N
73 346.866 M
77.34 346.866 L
S
GR
GS
0.149 GC
2 setlinecap
1 LJ
0.5 LW
N
73 313.344 M
77.34 313.344 L
S
GR
GS
0.149 GC
2 setlinecap
1 LJ
0.5 LW
N
73 279.822 M
77.34 279.822 L
S
GR
GS
0.149 GC
2 setlinecap
1 LJ
0.5 LW
N
73 246.299 M
77.34 246.299 L
S
GR
GS
0.149 GC
2 setlinecap
1 LJ
0.5 LW
N
73 212.777 M
77.34 212.777 L
S
GR
GS
0.149 GC
2 setlinecap
1 LJ
0.5 LW
N
73 179.255 M
77.34 179.255 L
S
GR
GS
0.149 GC
2 setlinecap
1 LJ
0.5 LW
N
73 145.732 M
77.34 145.732 L
S
GR
GS
0.149 GC
2 setlinecap
1 LJ
0.5 LW
N
73 112.21 M
77.34 112.21 L
S
GR
GS
0.149 GC
2 setlinecap
1 LJ
0.5 LW
N
73 78.688 M
77.34 78.688 L
S
GR
GS
0.149 GC
2 setlinecap
1 LJ
0.5 LW
N
73 45.166 M
77.34 45.166 L
S
GR
GS
0.149 GC
2 setlinecap
1 LJ
0.5 LW
N
507 346.866 M
502.66 346.866 L
S
GR
GS
0.149 GC
2 setlinecap
1 LJ
0.5 LW
N
507 313.344 M
502.66 313.344 L
S
GR
GS
0.149 GC
2 setlinecap
1 LJ
0.5 LW
N
507 279.822 M
502.66 279.822 L
S
GR
GS
0.149 GC
2 setlinecap
1 LJ
0.5 LW
N
507 246.299 M
502.66 246.299 L
S
GR
GS
0.149 GC
2 setlinecap
1 LJ
0.5 LW
N
507 212.777 M
502.66 212.777 L
S
GR
GS
0.149 GC
2 setlinecap
1 LJ
0.5 LW
N
507 179.255 M
502.66 179.255 L
S
GR
GS
0.149 GC
2 setlinecap
1 LJ
0.5 LW
N
507 145.732 M
502.66 145.732 L
S
GR
GS
0.149 GC
2 setlinecap
1 LJ
0.5 LW
N
507 112.21 M
502.66 112.21 L
S
GR
GS
0.149 GC
2 setlinecap
1 LJ
0.5 LW
N
507 78.688 M
502.66 78.688 L
S
GR
GS
0.149 GC
2 setlinecap
1 LJ
0.5 LW
N
507 45.166 M
502.66 45.166 L
S
GR
GS
0.149 GC
2 setlinecap
1 LJ
0.5 LW
N
73 373.684 M
75.17 373.684 L
S
GR
GS
0.149 GC
2 setlinecap
1 LJ
0.5 LW
N
73 366.98 M
75.17 366.98 L
S
GR
GS
0.149 GC
2 setlinecap
1 LJ
0.5 LW
N
73 360.275 M
75.17 360.275 L
S
GR
GS
0.149 GC
2 setlinecap
1 LJ
0.5 LW
N
73 353.571 M
75.17 353.571 L
S
GR
GS
0.149 GC
2 setlinecap
1 LJ
0.5 LW
N
73 340.162 M
75.17 340.162 L
S
GR
GS
0.149 GC
2 setlinecap
1 LJ
0.5 LW
N
73 333.457 M
75.17 333.457 L
S
GR
GS
0.149 GC
2 setlinecap
1 LJ
0.5 LW
N
73 326.753 M
75.17 326.753 L
S
GR
GS
0.149 GC
2 setlinecap
1 LJ
0.5 LW
N
73 320.049 M
75.17 320.049 L
S
GR
GS
0.149 GC
2 setlinecap
1 LJ
0.5 LW
N
73 306.64 M
75.17 306.64 L
S
GR
GS
0.149 GC
2 setlinecap
1 LJ
0.5 LW
N
73 299.935 M
75.17 299.935 L
S
GR
GS
0.149 GC
2 setlinecap
1 LJ
0.5 LW
N
73 293.231 M
75.17 293.231 L
S
GR
GS
0.149 GC
2 setlinecap
1 LJ
0.5 LW
N
73 286.526 M
75.17 286.526 L
S
GR
GS
0.149 GC
2 setlinecap
1 LJ
0.5 LW
N
73 273.117 M
75.17 273.117 L
S
GR
GS
0.149 GC
2 setlinecap
1 LJ
0.5 LW
N
73 266.413 M
75.17 266.413 L
S
GR
GS
0.149 GC
2 setlinecap
1 LJ
0.5 LW
N
73 259.708 M
75.17 259.708 L
S
GR
GS
0.149 GC
2 setlinecap
1 LJ
0.5 LW
N
73 253.004 M
75.17 253.004 L
S
GR
GS
0.149 GC
2 setlinecap
1 LJ
0.5 LW
N
73 239.595 M
75.17 239.595 L
S
GR
GS
0.149 GC
2 setlinecap
1 LJ
0.5 LW
N
73 232.89 M
75.17 232.89 L
S
GR
GS
0.149 GC
2 setlinecap
1 LJ
0.5 LW
N
73 226.186 M
75.17 226.186 L
S
GR
GS
0.149 GC
2 setlinecap
1 LJ
0.5 LW
N
73 219.482 M
75.17 219.482 L
S
GR
GS
0.149 GC
2 setlinecap
1 LJ
0.5 LW
N
73 206.073 M
75.17 206.073 L
S
GR
GS
0.149 GC
2 setlinecap
1 LJ
0.5 LW
N
73 199.368 M
75.17 199.368 L
S
GR
GS
0.149 GC
2 setlinecap
1 LJ
0.5 LW
N
73 192.664 M
75.17 192.664 L
S
GR
GS
0.149 GC
2 setlinecap
1 LJ
0.5 LW
N
73 185.959 M
75.17 185.959 L
S
GR
GS
0.149 GC
2 setlinecap
1 LJ
0.5 LW
N
73 172.55 M
75.17 172.55 L
S
GR
GS
0.149 GC
2 setlinecap
1 LJ
0.5 LW
N
73 165.846 M
75.17 165.846 L
S
GR
GS
0.149 GC
2 setlinecap
1 LJ
0.5 LW
N
73 159.141 M
75.17 159.141 L
S
GR
GS
0.149 GC
2 setlinecap
1 LJ
0.5 LW
N
73 152.437 M
75.17 152.437 L
S
GR
GS
0.149 GC
2 setlinecap
1 LJ
0.5 LW
N
73 139.028 M
75.17 139.028 L
S
GR
GS
0.149 GC
2 setlinecap
1 LJ
0.5 LW
N
73 132.323 M
75.17 132.323 L
S
GR
GS
0.149 GC
2 setlinecap
1 LJ
0.5 LW
N
73 125.619 M
75.17 125.619 L
S
GR
GS
0.149 GC
2 setlinecap
1 LJ
0.5 LW
N
73 118.915 M
75.17 118.915 L
S
GR
GS
0.149 GC
2 setlinecap
1 LJ
0.5 LW
N
73 105.506 M
75.17 105.506 L
S
GR
GS
0.149 GC
2 setlinecap
1 LJ
0.5 LW
N
73 98.801 M
75.17 98.801 L
S
GR
GS
0.149 GC
2 setlinecap
1 LJ
0.5 LW
N
73 92.097 M
75.17 92.097 L
S
GR
GS
0.149 GC
2 setlinecap
1 LJ
0.5 LW
N
73 85.392 M
75.17 85.392 L
S
GR
GS
0.149 GC
2 setlinecap
1 LJ
0.5 LW
N
73 71.983 M
75.17 71.983 L
S
GR
GS
0.149 GC
2 setlinecap
1 LJ
0.5 LW
N
73 65.279 M
75.17 65.279 L
S
GR
GS
0.149 GC
2 setlinecap
1 LJ
0.5 LW
N
73 58.575 M
75.17 58.575 L
S
GR
GS
0.149 GC
2 setlinecap
1 LJ
0.5 LW
N
73 51.87 M
75.17 51.87 L
S
GR
GS
0.149 GC
2 setlinecap
1 LJ
0.5 LW
N
73 38.461 M
75.17 38.461 L
S
GR
GS
0.149 GC
2 setlinecap
1 LJ
0.5 LW
N
73 31.757 M
75.17 31.757 L
S
GR
GS
0.149 GC
2 setlinecap
1 LJ
0.5 LW
N
507 373.684 M
504.83 373.684 L
S
GR
GS
0.149 GC
2 setlinecap
1 LJ
0.5 LW
N
507 366.98 M
504.83 366.98 L
S
GR
GS
0.149 GC
2 setlinecap
1 LJ
0.5 LW
N
507 360.275 M
504.83 360.275 L
S
GR
GS
0.149 GC
2 setlinecap
1 LJ
0.5 LW
N
507 353.571 M
504.83 353.571 L
S
GR
GS
0.149 GC
2 setlinecap
1 LJ
0.5 LW
N
507 340.162 M
504.83 340.162 L
S
GR
GS
0.149 GC
2 setlinecap
1 LJ
0.5 LW
N
507 333.457 M
504.83 333.457 L
S
GR
GS
0.149 GC
2 setlinecap
1 LJ
0.5 LW
N
507 326.753 M
504.83 326.753 L
S
GR
GS
0.149 GC
2 setlinecap
1 LJ
0.5 LW
N
507 320.049 M
504.83 320.049 L
S
GR
GS
0.149 GC
2 setlinecap
1 LJ
0.5 LW
N
507 306.64 M
504.83 306.64 L
S
GR
GS
0.149 GC
2 setlinecap
1 LJ
0.5 LW
N
507 299.935 M
504.83 299.935 L
S
GR
GS
0.149 GC
2 setlinecap
1 LJ
0.5 LW
N
507 293.231 M
504.83 293.231 L
S
GR
GS
0.149 GC
2 setlinecap
1 LJ
0.5 LW
N
507 286.526 M
504.83 286.526 L
S
GR
GS
0.149 GC
2 setlinecap
1 LJ
0.5 LW
N
507 273.117 M
504.83 273.117 L
S
GR
GS
0.149 GC
2 setlinecap
1 LJ
0.5 LW
N
507 266.413 M
504.83 266.413 L
S
GR
GS
0.149 GC
2 setlinecap
1 LJ
0.5 LW
N
507 259.708 M
504.83 259.708 L
S
GR
GS
0.149 GC
2 setlinecap
1 LJ
0.5 LW
N
507 253.004 M
504.83 253.004 L
S
GR
GS
0.149 GC
2 setlinecap
1 LJ
0.5 LW
N
507 239.595 M
504.83 239.595 L
S
GR
GS
0.149 GC
2 setlinecap
1 LJ
0.5 LW
N
507 232.89 M
504.83 232.89 L
S
GR
GS
0.149 GC
2 setlinecap
1 LJ
0.5 LW
N
507 226.186 M
504.83 226.186 L
S
GR
GS
0.149 GC
2 setlinecap
1 LJ
0.5 LW
N
507 219.482 M
504.83 219.482 L
S
GR
GS
0.149 GC
2 setlinecap
1 LJ
0.5 LW
N
507 206.073 M
504.83 206.073 L
S
GR
GS
0.149 GC
2 setlinecap
1 LJ
0.5 LW
N
507 199.368 M
504.83 199.368 L
S
GR
GS
0.149 GC
2 setlinecap
1 LJ
0.5 LW
N
507 192.664 M
504.83 192.664 L
S
GR
GS
0.149 GC
2 setlinecap
1 LJ
0.5 LW
N
507 185.959 M
504.83 185.959 L
S
GR
GS
0.149 GC
2 setlinecap
1 LJ
0.5 LW
N
507 172.55 M
504.83 172.55 L
S
GR
GS
0.149 GC
2 setlinecap
1 LJ
0.5 LW
N
507 165.846 M
504.83 165.846 L
S
GR
GS
0.149 GC
2 setlinecap
1 LJ
0.5 LW
N
507 159.141 M
504.83 159.141 L
S
GR
GS
0.149 GC
2 setlinecap
1 LJ
0.5 LW
N
507 152.437 M
504.83 152.437 L
S
GR
GS
0.149 GC
2 setlinecap
1 LJ
0.5 LW
N
507 139.028 M
504.83 139.028 L
S
GR
GS
0.149 GC
2 setlinecap
1 LJ
0.5 LW
N
507 132.323 M
504.83 132.323 L
S
GR
GS
0.149 GC
2 setlinecap
1 LJ
0.5 LW
N
507 125.619 M
504.83 125.619 L
S
GR
GS
0.149 GC
2 setlinecap
1 LJ
0.5 LW
N
507 118.915 M
504.83 118.915 L
S
GR
GS
0.149 GC
2 setlinecap
1 LJ
0.5 LW
N
507 105.506 M
504.83 105.506 L
S
GR
GS
0.149 GC
2 setlinecap
1 LJ
0.5 LW
N
507 98.801 M
504.83 98.801 L
S
GR
GS
0.149 GC
2 setlinecap
1 LJ
0.5 LW
N
507 92.097 M
504.83 92.097 L
S
GR
GS
0.149 GC
2 setlinecap
1 LJ
0.5 LW
N
507 85.392 M
504.83 85.392 L
S
GR
GS
0.149 GC
2 setlinecap
1 LJ
0.5 LW
N
507 71.983 M
504.83 71.983 L
S
GR
GS
0.149 GC
2 setlinecap
1 LJ
0.5 LW
N
507 65.279 M
504.83 65.279 L
S
GR
GS
0.149 GC
2 setlinecap
1 LJ
0.5 LW
N
507 58.575 M
504.83 58.575 L
S
GR
GS
0.149 GC
2 setlinecap
1 LJ
0.5 LW
N
507 51.87 M
504.83 51.87 L
S
GR
GS
0.149 GC
2 setlinecap
1 LJ
0.5 LW
N
507 38.461 M
504.83 38.461 L
S
GR
GS
0.149 GC
2 setlinecap
1 LJ
0.5 LW
N
507 31.757 M
504.83 31.757 L
S
GR
GS
[1 0 0 1 68.2 346.86633] CT
0.149 GC
/Helvetica 14 F
GS
[1 0 0 1 0 0] CT
-16 5.5 moveto 
1 -1 scale
(33) t 
GR
GR
GS
[1 0 0 1 68.2 313.34402] CT
0.149 GC
/Helvetica 14 F
GS
[1 0 0 1 0 0] CT
-16 5.5 moveto 
1 -1 scale
(34) t 
GR
GR
GS
[1 0 0 1 68.2 279.82172] CT
0.149 GC
/Helvetica 14 F
GS
[1 0 0 1 0 0] CT
-16 5.5 moveto 
1 -1 scale
(35) t 
GR
GR
GS
[1 0 0 1 68.2 246.29941] CT
0.149 GC
/Helvetica 14 F
GS
[1 0 0 1 0 0] CT
-16 5.5 moveto 
1 -1 scale
(36) t 
GR
GR
GS
[1 0 0 1 68.2 212.77708] CT
0.149 GC
/Helvetica 14 F
GS
[1 0 0 1 0 0] CT
-16 5.5 moveto 
1 -1 scale
(37) t 
GR
GR
GS
[1 0 0 1 68.2 179.25478] CT
0.149 GC
/Helvetica 14 F
GS
[1 0 0 1 0 0] CT
-16 5.5 moveto 
1 -1 scale
(38) t 
GR
GR
GS
[1 0 0 1 68.2 145.73247] CT
0.149 GC
/Helvetica 14 F
GS
[1 0 0 1 0 0] CT
-16 5.5 moveto 
1 -1 scale
(39) t 
GR
GR
GS
[1 0 0 1 68.2 112.21016] CT
0.149 GC
/Helvetica 14 F
GS
[1 0 0 1 0 0] CT
-16 5.5 moveto 
1 -1 scale
(40) t 
GR
GR
GS
[1 0 0 1 68.2 78.68784] CT
0.149 GC
/Helvetica 14 F
GS
[1 0 0 1 0 0] CT
-16 5.5 moveto 
1 -1 scale
(41) t 
GR
GR
GS
[1 0 0 1 68.2 45.16553] CT
0.149 GC
/Helvetica 14 F
GS
[1 0 0 1 0 0] CT
-16 5.5 moveto 
1 -1 scale
(42) t 
GR
GR
GS
[0 -1 1 0 49.2 202.74983] CT
0.149 GC
/Helvetica 15.4 F
GS
[1 0 0 1 0 0] CT
-55.5 -4 moveto 
1 -1 scale
(CIEDE2000 \(dB\)) t 
GR
GR
GS
[1 0 0 1 290.00027 29.57509] CT
/Helvetica-Bold 15.4 F
GS
[1 0 0 1 0 0] CT
-136 -4 moveto 
1 -1 scale
(TelevisionClip_1080P-39e3.y4m-hevc) t 
GR
GR
GS
0 0.447 0.741 RC
1 LJ
0.5 LW
N
74.009 369.401 M
74.981 366.045 L
75.953 362.702 L
76.925 359.377 L
77.897 356.071 L
78.869 352.788 L
79.841 349.531 L
80.813 346.301 L
81.785 343.103 L
82.757 339.939 L
83.729 336.812 L
84.701 333.726 L
85.673 330.682 L
86.645 327.683 L
87.617 324.733 L
88.589 321.835 L
89.561 318.991 L
90.533 316.204 L
91.505 313.477 L
92.477 310.814 L
93.449 308.216 L
94.421 305.687 L
95.393 303.23 L
96.365 300.847 L
97.337 298.542 L
98.309 296.299 L
99.281 294.079 L
100.253 291.878 L
101.225 289.697 L
102.197 287.537 L
103.169 285.397 L
104.141 283.277 L
105.113 281.178 L
106.085 279.1 L
107.057 277.043 L
108.029 275.008 L
109.001 272.993 L
109.973 271 L
110.945 269.029 L
111.917 267.08 L
112.889 265.152 L
113.861 263.247 L
114.833 261.364 L
115.805 259.504 L
116.777 257.666 L
117.749 255.851 L
118.721 254.059 L
119.693 252.289 L
120.665 250.544 L
121.637 248.821 L
122.609 247.123 L
123.581 245.447 L
124.553 243.796 L
125.525 242.169 L
126.497 240.566 L
127.469 238.988 L
128.441 237.434 L
129.413 235.904 L
130.385 234.4 L
131.357 232.921 L
132.329 231.466 L
133.3 230.037 L
134.272 228.634 L
135.244 227.256 L
136.216 225.904 L
137.188 224.578 L
138.16 223.279 L
139.132 222.005 L
140.104 220.758 L
141.076 219.537 L
142.048 218.344 L
143.02 217.172 L
143.992 216.009 L
144.964 214.855 L
145.936 213.709 L
146.908 212.572 L
147.88 211.443 L
148.852 210.323 L
149.824 209.21 L
150.796 208.106 L
151.768 207.01 L
152.74 205.923 L
153.712 204.843 L
154.684 203.771 L
155.656 202.708 L
156.628 201.652 L
157.6 200.605 L
158.572 199.565 L
159.544 198.533 L
160.516 197.509 L
161.488 196.492 L
162.46 195.483 L
163.432 194.482 L
164.404 193.489 L
165.376 192.503 L
166.348 191.524 L
167.32 190.553 L
168.292 189.59 L
169.264 188.633 L
170.236 187.684 L
171.208 186.743 L
172.18 185.809 L
173.152 184.881 L
174.124 183.961 L
175.096 183.049 L
176.068 182.143 L
177.04 181.244 L
178.012 180.352 L
178.984 179.467 L
179.956 178.589 L
180.928 177.718 L
181.9 176.854 L
182.872 175.996 L
183.844 175.145 L
184.816 174.301 L
185.788 173.463 L
186.76 172.632 L
187.732 171.807 L
188.704 170.989 L
189.676 170.177 L
190.648 169.372 L
191.62 168.573 L
192.592 167.78 L
193.564 166.994 L
194.536 166.213 L
195.508 165.439 L
196.48 164.671 L
197.452 163.909 L
198.424 163.154 L
199.396 162.404 L
200.368 161.66 L
201.34 160.922 L
202.312 160.189 L
203.284 159.463 L
204.256 158.742 L
205.228 158.027 L
206.2 157.318 L
207.172 156.614 L
208.144 155.916 L
209.116 155.224 L
210.088 154.537 L
211.06 153.855 L
212.032 153.179 L
213.004 152.508 L
213.976 151.842 L
214.948 151.182 L
215.92 150.526 L
216.892 149.876 L
217.864 149.232 L
218.836 148.592 L
219.808 147.957 L
220.78 147.327 L
221.752 146.702 L
222.724 146.082 L
223.696 145.467 L
224.668 144.857 L
225.64 144.252 L
226.612 143.651 L
227.584 143.055 L
228.556 142.463 L
229.528 141.876 L
230.5 141.294 L
231.472 140.716 L
232.444 140.143 L
233.416 139.574 L
234.388 139.009 L
235.36 138.448 L
236.332 137.889 L
237.304 137.331 L
238.276 136.772 L
239.248 136.214 L
240.22 135.656 L
241.192 135.098 L
242.164 134.54 L
243.136 133.982 L
244.108 133.425 L
245.08 132.868 L
246.052 132.311 L
247.024 131.755 L
247.996 131.199 L
248.968 130.643 L
249.94 130.087 L
250.912 129.532 L
251.884 128.977 L
252.856 128.422 L
253.828 127.868 L
254.8 127.314 L
255.772 126.761 L
256.744 126.208 L
257.716 125.655 L
258.688 125.103 L
259.66 124.552 L
260.632 124 L
261.604 123.45 L
262.576 122.899 L
263.548 122.349 L
264.52 121.8 L
265.492 121.251 L
266.464 120.703 L
267.436 120.155 L
268.408 119.608 L
269.38 119.062 L
270.352 118.516 L
271.324 117.97 L
272.296 117.426 L
273.268 116.882 L
274.24 116.338 L
275.212 115.795 L
276.184 115.253 L
277.156 114.712 L
278.128 114.171 L
279.1 113.631 L
280.072 113.091 L
281.044 112.553 L
282.016 112.015 L
282.988 111.478 L
283.96 110.941 L
284.932 110.406 L
285.904 109.871 L
286.876 109.337 L
287.848 108.803 L
288.82 108.271 L
289.792 107.74 L
290.764 107.209 L
291.736 106.679 L
292.708 106.15 L
293.68 105.622 L
294.652 105.095 L
295.624 104.569 L
296.596 104.044 L
297.568 103.519 L
298.539 102.996 L
299.512 102.474 L
300.483 101.952 L
301.455 101.432 L
302.427 100.913 L
303.399 100.394 L
304.371 99.877 L
305.343 99.361 L
306.315 98.845 L
307.287 98.331 L
308.259 97.818 L
309.231 97.306 L
310.203 96.796 L
311.175 96.286 L
312.147 95.777 L
313.119 95.27 L
314.091 94.764 L
315.063 94.259 L
316.035 93.755 L
317.007 93.252 L
317.979 92.751 L
318.951 92.251 L
319.923 91.752 L
320.895 91.254 L
321.867 90.757 L
322.839 90.262 L
323.811 89.768 L
324.783 89.276 L
325.755 88.785 L
326.727 88.295 L
327.699 87.806 L
328.671 87.319 L
329.643 86.833 L
330.615 86.349 L
331.587 85.866 L
332.559 85.384 L
333.531 84.904 L
334.503 84.425 L
335.475 83.948 L
336.447 83.472 L
337.419 82.998 L
338.391 82.525 L
339.363 82.053 L
340.335 81.584 L
341.307 81.115 L
342.279 80.648 L
343.251 80.183 L
344.223 79.719 L
345.195 79.257 L
346.167 78.797 L
347.139 78.338 L
348.111 77.881 L
349.083 77.425 L
350.055 76.971 L
351.027 76.519 L
351.999 76.068 L
352.971 75.619 L
353.943 75.172 L
354.915 74.726 L
355.887 74.282 L
356.859 73.84 L
357.831 73.399 L
358.803 72.961 L
359.775 72.524 L
360.747 72.089 L
361.719 71.655 L
362.691 71.224 L
363.663 70.794 L
364.635 70.366 L
365.607 69.941 L
366.579 69.516 L
367.551 69.094 L
368.523 68.674 L
369.495 68.255 L
370.467 67.839 L
371.439 67.424 L
372.411 67.011 L
373.383 66.601 L
374.355 66.192 L
375.327 65.785 L
376.299 65.38 L
377.271 64.978 L
378.243 64.577 L
379.215 64.178 L
380.187 63.781 L
381.159 63.387 L
382.131 62.994 L
383.103 62.604 L
384.075 62.215 L
385.047 61.829 L
386.019 61.445 L
386.991 61.063 L
387.963 60.683 L
388.935 60.305 L
389.907 59.929 L
390.879 59.556 L
391.851 59.185 L
392.823 58.816 L
393.795 58.449 L
394.767 58.084 L
395.739 57.722 L
396.711 57.362 L
397.683 57.004 L
398.655 56.649 L
399.627 56.296 L
400.599 55.945 L
401.571 55.596 L
402.543 55.25 L
403.515 54.906 L
404.487 54.565 L
405.459 54.226 L
406.431 53.889 L
407.403 53.555 L
408.375 53.223 L
409.347 52.893 L
410.319 52.566 L
411.291 52.242 L
412.263 51.92 L
413.235 51.6 L
414.207 51.283 L
415.179 50.968 L
416.151 50.656 L
417.123 50.346 L
418.095 50.039 L
419.067 49.735 L
420.039 49.433 L
421.011 49.134 L
421.983 48.837 L
422.955 48.543 L
423.927 48.251 L
424.899 47.962 L
425.871 47.676 L
426.843 47.393 L
427.815 47.112 L
428.787 46.834 L
429.759 46.558 L
430.731 46.285 L
431.703 46.015 L
432.675 45.748 L
433.647 45.483 L
434.619 45.221 L
435.591 44.962 L
436.563 44.706 L
437.535 44.453 L
438.507 44.202 L
439.479 43.954 L
440.451 43.709 L
441.423 43.467 L
442.395 43.228 L
443.367 42.991 L
444.339 42.758 L
445.311 42.527 L
446.283 42.3 L
447.255 42.075 L
448.227 41.853 L
449.199 41.634 L
450.171 41.419 L
451.143 41.206 L
452.115 40.996 L
453.087 40.789 L
454.059 40.585 L
455.031 40.384 L
456.003 40.186 L
456.975 39.992 L
457.947 39.8 L
458.919 39.611 L
459.891 39.426 L
460.863 39.244 L
461.835 39.064 L
462.807 38.888 L
463.779 38.715 L
464.75 38.546 L
465.722 38.379 L
466.694 38.216 L
467.666 38.055 L
468.638 37.898 L
469.61 37.744 L
470.582 37.594 L
471.554 37.447 L
472.526 37.303 L
473.498 37.162 L
474.47 37.024 L
475.442 36.89 L
476.414 36.759 L
477.386 36.632 L
478.358 36.508 L
479.33 36.387 L
480.302 36.269 L
481.274 36.155 L
482.246 36.045 L
483.218 35.937 L
484.19 35.834 L
485.162 35.733 L
486.134 35.636 L
487.106 35.543 L
488.078 35.453 L
489.05 35.366 L
490.022 35.283 L
490.994 35.203 L
491.966 35.127 L
492.938 35.055 L
493.91 34.986 L
494.882 34.921 L
495.854 34.859 L
496.826 34.8 L
S
GR
GS
0.851 0.325 0.098 RC
1 LJ
0.5 LW
N
73.782 370.841 M
74.754 367.423 L
75.726 364.02 L
76.698 360.633 L
77.67 357.267 L
78.642 353.925 L
79.614 350.609 L
80.586 347.322 L
81.558 344.069 L
82.53 340.851 L
83.502 337.672 L
84.474 334.535 L
85.446 331.443 L
86.418 328.399 L
87.39 325.407 L
88.362 322.469 L
89.334 319.588 L
90.306 316.768 L
91.278 314.011 L
92.25 311.321 L
93.222 308.701 L
94.194 306.153 L
95.166 303.682 L
96.138 301.289 L
97.11 298.979 L
98.082 296.725 L
99.054 294.493 L
100.026 292.282 L
100.998 290.093 L
101.97 287.925 L
102.942 285.779 L
103.914 283.655 L
104.886 281.553 L
105.858 279.473 L
106.83 277.416 L
107.802 275.38 L
108.774 273.367 L
109.746 271.376 L
110.718 269.409 L
111.69 267.463 L
112.662 265.541 L
113.634 263.641 L
114.606 261.765 L
115.578 259.911 L
116.55 258.081 L
117.522 256.274 L
118.494 254.491 L
119.466 252.731 L
120.438 250.995 L
121.409 249.282 L
122.381 247.593 L
123.353 245.929 L
124.325 244.288 L
125.297 242.671 L
126.269 241.079 L
127.241 239.511 L
128.213 237.967 L
129.185 236.448 L
130.157 234.954 L
131.129 233.485 L
132.101 232.04 L
133.073 230.62 L
134.045 229.225 L
135.017 227.856 L
135.989 226.512 L
136.961 225.193 L
137.933 223.9 L
138.905 222.632 L
139.877 221.39 L
140.849 220.174 L
141.821 218.983 L
142.793 217.806 L
143.765 216.638 L
144.737 215.478 L
145.709 214.327 L
146.681 213.184 L
147.653 212.049 L
148.625 210.923 L
149.597 209.804 L
150.569 208.694 L
151.541 207.592 L
152.513 206.499 L
153.485 205.413 L
154.457 204.335 L
155.429 203.265 L
156.401 202.203 L
157.373 201.149 L
158.345 200.103 L
159.317 199.065 L
160.289 198.034 L
161.261 197.011 L
162.233 195.996 L
163.205 194.989 L
164.177 193.989 L
165.149 192.996 L
166.121 192.011 L
167.093 191.034 L
168.065 190.063 L
169.037 189.101 L
170.009 188.145 L
170.981 187.197 L
171.953 186.256 L
172.925 185.323 L
173.897 184.396 L
174.869 183.477 L
175.841 182.565 L
176.813 181.66 L
177.785 180.761 L
178.757 179.87 L
179.729 178.986 L
180.701 178.108 L
181.673 177.237 L
182.645 176.374 L
183.617 175.516 L
184.589 174.666 L
185.561 173.822 L
186.533 172.985 L
187.505 172.154 L
188.477 171.33 L
189.449 170.513 L
190.421 169.702 L
191.393 168.897 L
192.365 168.099 L
193.337 167.307 L
194.309 166.521 L
195.281 165.741 L
196.253 164.968 L
197.225 164.201 L
198.197 163.44 L
199.169 162.685 L
200.141 161.936 L
201.113 161.193 L
202.085 160.456 L
203.057 159.725 L
204.029 159 L
205.001 158.28 L
205.973 157.566 L
206.945 156.859 L
207.917 156.156 L
208.889 155.46 L
209.861 154.769 L
210.833 154.083 L
211.805 153.403 L
212.777 152.729 L
213.749 152.06 L
214.721 151.396 L
215.693 150.738 L
216.665 150.085 L
217.637 149.438 L
218.609 148.795 L
219.581 148.158 L
220.553 147.526 L
221.525 146.899 L
222.497 146.277 L
223.469 145.66 L
224.441 145.048 L
225.413 144.441 L
226.385 143.839 L
227.357 143.242 L
228.329 142.649 L
229.301 142.061 L
230.273 141.478 L
231.245 140.9 L
232.217 140.326 L
233.189 139.757 L
234.161 139.192 L
235.133 138.629 L
236.105 138.065 L
237.077 137.502 L
238.049 136.939 L
239.021 136.376 L
239.993 135.813 L
240.965 135.25 L
241.937 134.688 L
242.909 134.126 L
243.881 133.564 L
244.853 133.002 L
245.825 132.441 L
246.797 131.88 L
247.769 131.319 L
248.741 130.759 L
249.713 130.199 L
250.685 129.639 L
251.657 129.08 L
252.629 128.521 L
253.601 127.962 L
254.573 127.404 L
255.545 126.846 L
256.517 126.289 L
257.489 125.732 L
258.461 125.176 L
259.433 124.62 L
260.405 124.064 L
261.377 123.509 L
262.349 122.954 L
263.321 122.4 L
264.293 121.847 L
265.265 121.294 L
266.237 120.742 L
267.209 120.19 L
268.181 119.639 L
269.153 119.088 L
270.125 118.538 L
271.097 117.989 L
272.069 117.44 L
273.041 116.892 L
274.013 116.345 L
274.985 115.798 L
275.957 115.252 L
276.929 114.707 L
277.901 114.162 L
278.873 113.618 L
279.845 113.075 L
280.817 112.533 L
281.789 111.991 L
282.761 111.451 L
283.733 110.911 L
284.704 110.371 L
285.677 109.833 L
286.648 109.296 L
287.62 108.759 L
288.592 108.223 L
289.564 107.688 L
290.536 107.154 L
291.508 106.621 L
292.48 106.089 L
293.452 105.558 L
294.424 105.027 L
295.396 104.498 L
296.368 103.97 L
297.34 103.442 L
298.312 102.916 L
299.284 102.391 L
300.256 101.866 L
301.228 101.343 L
302.2 100.821 L
303.172 100.3 L
304.144 99.779 L
305.116 99.261 L
306.088 98.743 L
307.06 98.226 L
308.032 97.71 L
309.004 97.196 L
309.976 96.682 L
310.948 96.17 L
311.92 95.659 L
312.892 95.149 L
313.864 94.641 L
314.836 94.134 L
315.808 93.628 L
316.78 93.123 L
317.752 92.619 L
318.724 92.117 L
319.696 91.616 L
320.668 91.116 L
321.64 90.618 L
322.612 90.121 L
323.584 89.625 L
324.556 89.131 L
325.528 88.638 L
326.5 88.146 L
327.472 87.656 L
328.444 87.167 L
329.416 86.68 L
330.388 86.194 L
331.36 85.71 L
332.332 85.227 L
333.304 84.745 L
334.276 84.265 L
335.248 83.787 L
336.22 83.31 L
337.192 82.834 L
338.164 82.36 L
339.136 81.888 L
340.108 81.417 L
341.08 80.948 L
342.052 80.481 L
343.024 80.015 L
343.996 79.55 L
344.968 79.088 L
345.94 78.627 L
346.912 78.167 L
347.884 77.71 L
348.856 77.254 L
349.828 76.799 L
350.8 76.347 L
351.772 75.896 L
352.744 75.447 L
353.716 75 L
354.688 74.554 L
355.66 74.11 L
356.632 73.668 L
357.604 73.228 L
358.576 72.79 L
359.548 72.354 L
360.52 71.919 L
361.492 71.486 L
362.464 71.055 L
363.436 70.626 L
364.408 70.199 L
365.38 69.774 L
366.352 69.351 L
367.324 68.93 L
368.296 68.51 L
369.268 68.093 L
370.24 67.678 L
371.212 67.264 L
372.184 66.853 L
373.156 66.444 L
374.128 66.036 L
375.1 65.631 L
376.072 65.228 L
377.044 64.827 L
378.016 64.428 L
378.988 64.031 L
379.96 63.636 L
380.932 63.244 L
381.904 62.853 L
382.876 62.465 L
383.848 62.079 L
384.82 61.695 L
385.792 61.313 L
386.764 60.934 L
387.736 60.556 L
388.708 60.181 L
389.68 59.808 L
390.652 59.438 L
391.624 59.07 L
392.596 58.704 L
393.568 58.34 L
394.54 57.979 L
395.512 57.62 L
396.484 57.263 L
397.456 56.909 L
398.428 56.557 L
399.4 56.207 L
400.372 55.86 L
401.344 55.515 L
402.316 55.173 L
403.288 54.833 L
404.26 54.496 L
405.232 54.161 L
406.204 53.828 L
407.176 53.498 L
408.148 53.171 L
409.12 52.846 L
410.092 52.524 L
411.064 52.204 L
412.036 51.886 L
413.008 51.572 L
413.98 51.26 L
414.952 50.95 L
415.924 50.643 L
416.896 50.339 L
417.868 50.037 L
418.84 49.738 L
419.812 49.442 L
420.784 49.148 L
421.756 48.857 L
422.728 48.569 L
423.7 48.283 L
424.672 48.001 L
425.644 47.721 L
426.616 47.443 L
427.588 47.169 L
428.56 46.897 L
429.532 46.628 L
430.504 46.362 L
431.476 46.099 L
432.448 45.838 L
433.42 45.581 L
434.392 45.326 L
435.364 45.074 L
436.336 44.825 L
437.308 44.579 L
438.28 44.336 L
439.252 44.096 L
440.224 43.858 L
441.196 43.624 L
442.168 43.393 L
443.14 43.165 L
444.112 42.939 L
445.084 42.717 L
446.056 42.498 L
447.028 42.281 L
448 42.068 L
448.971 41.858 L
449.943 41.651 L
450.915 41.447 L
451.887 41.246 L
452.859 41.048 L
453.831 40.854 L
454.803 40.662 L
455.775 40.474 L
456.747 40.289 L
457.719 40.107 L
458.691 39.928 L
459.663 39.753 L
460.635 39.58 L
461.607 39.411 L
462.579 39.246 L
463.551 39.083 L
464.523 38.924 L
465.495 38.768 L
466.467 38.615 L
467.439 38.466 L
468.411 38.32 L
469.383 38.177 L
470.355 38.038 L
471.327 37.902 L
472.299 37.77 L
473.271 37.64 L
474.243 37.515 L
475.215 37.393 L
476.187 37.274 L
477.159 37.158 L
478.131 37.046 L
479.103 36.938 L
480.075 36.833 L
481.047 36.732 L
482.019 36.634 L
482.991 36.539 L
483.963 36.448 L
484.935 36.361 L
485.907 36.277 L
486.879 36.197 L
487.851 36.121 L
488.823 36.048 L
489.795 35.978 L
490.767 35.913 L
491.739 35.851 L
492.711 35.792 L
493.683 35.738 L
S
GR
GS
0.929 0.694 0.125 RC
1 LJ
0.5 LW
N
73 374 M
73.972 370.514 L
74.944 367.043 L
75.916 363.589 L
76.888 360.156 L
77.86 356.747 L
78.832 353.365 L
79.804 350.015 L
80.776 346.698 L
81.748 343.419 L
82.72 340.18 L
83.692 336.984 L
84.664 333.836 L
85.636 330.738 L
86.608 327.694 L
87.58 324.707 L
88.552 321.779 L
89.524 318.916 L
90.496 316.118 L
91.468 313.391 L
92.44 310.737 L
93.412 308.159 L
94.384 305.661 L
95.356 303.246 L
96.328 300.918 L
97.3 298.641 L
98.272 296.387 L
99.244 294.156 L
100.216 291.947 L
101.188 289.762 L
102.16 287.6 L
103.132 285.46 L
104.104 283.344 L
105.076 281.251 L
106.048 279.181 L
107.02 277.134 L
107.992 275.11 L
108.964 273.11 L
109.936 271.134 L
110.908 269.18 L
111.88 267.25 L
112.852 265.344 L
113.824 263.461 L
114.796 261.603 L
115.768 259.767 L
116.74 257.956 L
117.712 256.168 L
118.684 254.404 L
119.656 252.664 L
120.628 250.948 L
121.6 249.256 L
122.572 247.588 L
123.544 245.944 L
124.516 244.324 L
125.488 242.729 L
126.46 241.158 L
127.432 239.611 L
128.404 238.088 L
129.376 236.59 L
130.348 235.117 L
131.32 233.668 L
132.292 232.243 L
133.264 230.843 L
134.236 229.468 L
135.208 228.118 L
136.18 226.792 L
137.152 225.491 L
138.124 224.216 L
139.096 222.965 L
140.068 221.739 L
141.04 220.537 L
142.012 219.346 L
142.984 218.164 L
143.956 216.991 L
144.928 215.825 L
145.9 214.668 L
146.872 213.519 L
147.844 212.378 L
148.816 211.245 L
149.788 210.12 L
150.76 209.003 L
151.732 207.894 L
152.704 206.793 L
153.676 205.7 L
154.647 204.614 L
155.619 203.537 L
156.591 202.467 L
157.563 201.405 L
158.535 200.351 L
159.507 199.305 L
160.479 198.266 L
161.451 197.235 L
162.423 196.211 L
163.395 195.195 L
164.367 194.187 L
165.339 193.186 L
166.311 192.192 L
167.283 191.206 L
168.255 190.227 L
169.227 189.255 L
170.199 188.291 L
171.171 187.334 L
172.143 186.385 L
173.115 185.442 L
174.087 184.507 L
175.059 183.578 L
176.031 182.657 L
177.003 181.743 L
177.975 180.836 L
178.947 179.936 L
179.919 179.043 L
180.891 178.157 L
181.863 177.277 L
182.835 176.405 L
183.807 175.539 L
184.779 174.68 L
185.751 173.828 L
186.723 172.983 L
187.695 172.144 L
188.667 171.311 L
189.639 170.486 L
190.611 169.667 L
191.583 168.854 L
192.555 168.048 L
193.527 167.248 L
194.499 166.455 L
195.471 165.668 L
196.443 164.888 L
197.415 164.114 L
198.387 163.346 L
199.359 162.584 L
200.331 161.829 L
201.303 161.079 L
202.275 160.336 L
203.247 159.599 L
204.219 158.868 L
205.191 158.143 L
206.163 157.424 L
207.135 156.711 L
208.107 156.004 L
209.079 155.303 L
210.051 154.607 L
211.023 153.918 L
211.995 153.234 L
212.967 152.556 L
213.939 151.884 L
214.911 151.217 L
215.883 150.556 L
216.855 149.9 L
217.827 149.251 L
218.799 148.606 L
219.771 147.967 L
220.743 147.334 L
221.715 146.706 L
222.687 146.083 L
223.659 145.466 L
224.631 144.854 L
225.603 144.247 L
226.575 143.646 L
227.547 143.05 L
228.519 142.459 L
229.491 141.873 L
230.463 141.292 L
231.435 140.716 L
232.407 140.146 L
233.379 139.579 L
234.351 139.013 L
235.323 138.447 L
236.295 137.882 L
237.267 137.316 L
238.239 136.751 L
239.211 136.186 L
240.183 135.621 L
241.155 135.056 L
242.127 134.491 L
243.099 133.927 L
244.071 133.363 L
245.043 132.799 L
246.015 132.235 L
246.987 131.672 L
247.959 131.109 L
248.931 130.547 L
249.903 129.984 L
250.875 129.422 L
251.847 128.861 L
252.819 128.299 L
253.791 127.738 L
254.763 127.178 L
255.735 126.618 L
256.707 126.058 L
257.679 125.499 L
258.651 124.94 L
259.623 124.382 L
260.595 123.824 L
261.567 123.267 L
262.539 122.71 L
263.511 122.154 L
264.483 121.598 L
265.455 121.043 L
266.427 120.489 L
267.399 119.934 L
268.371 119.381 L
269.343 118.828 L
270.315 118.276 L
271.287 117.724 L
272.259 117.174 L
273.231 116.623 L
274.203 116.074 L
275.175 115.525 L
276.147 114.977 L
277.119 114.429 L
278.091 113.883 L
279.063 113.337 L
280.035 112.791 L
281.007 112.247 L
281.979 111.703 L
282.951 111.16 L
283.923 110.618 L
284.895 110.077 L
285.867 109.537 L
286.839 108.997 L
287.811 108.459 L
288.783 107.921 L
289.755 107.384 L
290.727 106.848 L
291.699 106.313 L
292.671 105.779 L
293.643 105.246 L
294.615 104.714 L
295.587 104.183 L
296.559 103.652 L
297.531 103.123 L
298.503 102.595 L
299.475 102.068 L
300.447 101.542 L
301.419 101.017 L
302.391 100.493 L
303.363 99.97 L
304.335 99.449 L
305.307 98.928 L
306.279 98.409 L
307.251 97.89 L
308.223 97.373 L
309.195 96.857 L
310.167 96.343 L
311.139 95.829 L
312.111 95.317 L
313.083 94.806 L
314.055 94.296 L
315.027 93.787 L
315.999 93.28 L
316.971 92.774 L
317.943 92.269 L
318.914 91.766 L
319.887 91.264 L
320.858 90.763 L
321.83 90.264 L
322.802 89.766 L
323.774 89.269 L
324.746 88.774 L
325.718 88.28 L
326.69 87.788 L
327.662 87.297 L
328.634 86.807 L
329.606 86.319 L
330.578 85.833 L
331.55 85.348 L
332.522 84.864 L
333.494 84.382 L
334.466 83.902 L
335.438 83.423 L
336.41 82.946 L
337.382 82.47 L
338.354 81.996 L
339.326 81.523 L
340.298 81.052 L
341.27 80.583 L
342.242 80.115 L
343.214 79.649 L
344.186 79.185 L
345.158 78.722 L
346.13 78.261 L
347.102 77.802 L
348.074 77.345 L
349.046 76.889 L
350.018 76.435 L
350.99 75.983 L
351.962 75.533 L
352.934 75.084 L
353.906 74.637 L
354.878 74.192 L
355.85 73.749 L
356.822 73.308 L
357.794 72.869 L
358.766 72.431 L
359.738 71.996 L
360.71 71.562 L
361.682 71.13 L
362.654 70.7 L
363.626 70.273 L
364.598 69.847 L
365.57 69.423 L
366.542 69.001 L
367.514 68.581 L
368.486 68.163 L
369.458 67.748 L
370.43 67.334 L
371.402 66.922 L
372.374 66.513 L
373.346 66.105 L
374.318 65.7 L
375.29 65.296 L
376.262 64.895 L
377.234 64.496 L
378.206 64.099 L
379.178 63.705 L
380.15 63.312 L
381.122 62.922 L
382.094 62.534 L
383.066 62.148 L
384.038 61.765 L
385.01 61.383 L
385.982 61.004 L
386.954 60.628 L
387.926 60.253 L
388.898 59.881 L
389.87 59.511 L
390.842 59.144 L
391.814 58.779 L
392.786 58.416 L
393.758 58.056 L
394.73 57.698 L
395.702 57.342 L
396.674 56.989 L
397.646 56.639 L
398.618 56.291 L
399.59 55.945 L
400.562 55.602 L
401.534 55.261 L
402.506 54.923 L
403.478 54.587 L
404.45 54.254 L
405.422 53.923 L
406.394 53.595 L
407.366 53.27 L
408.338 52.947 L
409.31 52.627 L
410.282 52.309 L
411.254 51.994 L
412.226 51.682 L
413.198 51.372 L
414.17 51.065 L
415.142 50.761 L
416.114 50.459 L
417.086 50.161 L
418.058 49.865 L
419.03 49.571 L
420.002 49.281 L
420.974 48.993 L
421.946 48.708 L
422.918 48.425 L
423.89 48.146 L
424.862 47.869 L
425.834 47.596 L
426.806 47.325 L
427.778 47.057 L
428.75 46.791 L
429.722 46.529 L
430.694 46.27 L
431.666 46.013 L
432.638 45.76 L
433.61 45.51 L
434.582 45.262 L
435.554 45.018 L
436.526 44.776 L
437.498 44.537 L
438.47 44.302 L
439.442 44.069 L
440.414 43.84 L
441.386 43.614 L
442.358 43.39 L
443.33 43.17 L
444.302 42.953 L
445.274 42.739 L
446.246 42.529 L
447.218 42.321 L
448.19 42.116 L
449.162 41.915 L
450.134 41.717 L
451.106 41.522 L
452.078 41.33 L
453.05 41.142 L
454.022 40.957 L
454.994 40.775 L
455.966 40.596 L
456.938 40.421 L
457.91 40.249 L
458.882 40.08 L
459.854 39.915 L
460.826 39.752 L
461.798 39.594 L
462.77 39.438 L
463.742 39.286 L
464.714 39.138 L
465.686 38.993 L
466.658 38.851 L
467.63 38.713 L
468.602 38.578 L
469.574 38.447 L
470.546 38.319 L
471.518 38.194 L
472.49 38.074 L
473.462 37.956 L
474.434 37.843 L
475.406 37.732 L
476.378 37.626 L
477.35 37.523 L
478.322 37.423 L
479.294 37.327 L
480.266 37.235 L
481.238 37.146 L
482.21 37.061 L
483.181 36.98 L
484.154 36.902 L
485.125 36.829 L
486.097 36.758 L
487.069 36.692 L
488.041 36.629 L
489.013 36.57 L
489.985 36.515 L
490.957 36.463 L
491.929 36.416 L
492.901 36.372 L
S
GR
GS
0.494 0.184 0.557 RC
1 LJ
0.5 LW
N
74.474 367.457 M
75.446 364.102 L
76.418 360.761 L
77.39 357.436 L
78.362 354.131 L
79.334 350.848 L
80.306 347.59 L
81.278 344.36 L
82.25 341.161 L
83.222 337.997 L
84.194 334.869 L
85.166 331.781 L
86.138 328.737 L
87.11 325.738 L
88.082 322.788 L
89.054 319.89 L
90.026 317.047 L
90.998 314.261 L
91.97 311.536 L
92.942 308.874 L
93.914 306.28 L
94.886 303.754 L
95.858 301.301 L
96.83 298.924 L
97.802 296.624 L
98.774 294.404 L
99.746 292.218 L
100.718 290.054 L
101.69 287.91 L
102.662 285.788 L
103.634 283.687 L
104.606 281.608 L
105.578 279.55 L
106.55 277.513 L
107.522 275.498 L
108.494 273.504 L
109.466 271.532 L
110.438 269.582 L
111.41 267.653 L
112.382 265.747 L
113.354 263.862 L
114.326 261.999 L
115.298 260.158 L
116.27 258.34 L
117.242 256.543 L
118.214 254.769 L
119.186 253.017 L
120.158 251.287 L
121.13 249.58 L
122.102 247.895 L
123.074 246.233 L
124.046 244.593 L
125.018 242.977 L
125.99 241.382 L
126.962 239.811 L
127.934 238.263 L
128.906 236.737 L
129.878 235.235 L
130.85 233.755 L
131.822 232.299 L
132.794 230.866 L
133.766 229.456 L
134.738 228.07 L
135.71 226.707 L
136.682 225.367 L
137.654 224.051 L
138.626 222.758 L
139.598 221.49 L
140.57 220.244 L
141.542 219.023 L
142.514 217.826 L
143.486 216.652 L
144.458 215.502 L
145.43 214.363 L
146.402 213.231 L
147.374 212.108 L
148.346 210.993 L
149.318 209.886 L
150.29 208.786 L
151.262 207.694 L
152.234 206.61 L
153.206 205.534 L
154.178 204.465 L
155.15 203.405 L
156.122 202.351 L
157.094 201.306 L
158.066 200.267 L
159.038 199.237 L
160.01 198.213 L
160.982 197.198 L
161.954 196.189 L
162.926 195.188 L
163.898 194.194 L
164.87 193.207 L
165.842 192.228 L
166.814 191.256 L
167.786 190.291 L
168.758 189.333 L
169.73 188.382 L
170.702 187.438 L
171.674 186.501 L
172.646 185.571 L
173.618 184.648 L
174.59 183.731 L
175.562 182.822 L
176.534 181.919 L
177.506 181.023 L
178.478 180.134 L
179.45 179.251 L
180.422 178.375 L
181.393 177.505 L
182.365 176.642 L
183.337 175.786 L
184.309 174.936 L
185.281 174.092 L
186.253 173.255 L
187.225 172.424 L
188.197 171.599 L
189.169 170.78 L
190.141 169.968 L
191.113 169.162 L
192.085 168.362 L
193.057 167.568 L
194.029 166.78 L
195.001 165.998 L
195.973 165.223 L
196.945 164.453 L
197.917 163.689 L
198.889 162.93 L
199.861 162.178 L
200.833 161.431 L
201.805 160.69 L
202.777 159.955 L
203.749 159.225 L
204.721 158.501 L
205.693 157.783 L
206.665 157.07 L
207.637 156.363 L
208.609 155.66 L
209.581 154.964 L
210.553 154.273 L
211.525 153.587 L
212.497 152.906 L
213.469 152.23 L
214.441 151.56 L
215.413 150.895 L
216.385 150.235 L
217.357 149.58 L
218.329 148.931 L
219.301 148.286 L
220.273 147.646 L
221.245 147.011 L
222.217 146.381 L
223.189 145.755 L
224.161 145.135 L
225.133 144.519 L
226.105 143.908 L
227.077 143.302 L
228.049 142.7 L
229.021 142.103 L
229.993 141.511 L
230.965 140.923 L
231.937 140.339 L
232.909 139.76 L
233.881 139.185 L
234.853 138.615 L
235.825 138.049 L
236.797 137.487 L
237.769 136.93 L
238.741 136.376 L
239.713 135.827 L
240.685 135.278 L
241.657 134.729 L
242.629 134.181 L
243.601 133.632 L
244.573 133.084 L
245.545 132.536 L
246.517 131.988 L
247.489 131.44 L
248.461 130.893 L
249.433 130.346 L
250.405 129.799 L
251.377 129.252 L
252.349 128.706 L
253.321 128.16 L
254.293 127.614 L
255.265 127.069 L
256.237 126.524 L
257.209 125.979 L
258.181 125.435 L
259.153 124.891 L
260.125 124.347 L
261.097 123.804 L
262.069 123.261 L
263.041 122.719 L
264.013 122.177 L
264.985 121.635 L
265.957 121.094 L
266.929 120.554 L
267.901 120.013 L
268.873 119.474 L
269.845 118.935 L
270.817 118.396 L
271.789 117.858 L
272.761 117.32 L
273.733 116.783 L
274.705 116.247 L
275.677 115.711 L
276.649 115.176 L
277.621 114.641 L
278.593 114.107 L
279.565 113.573 L
280.537 113.04 L
281.509 112.508 L
282.481 111.977 L
283.453 111.446 L
284.425 110.916 L
285.397 110.386 L
286.369 109.857 L
287.341 109.329 L
288.313 108.802 L
289.285 108.275 L
290.257 107.749 L
291.229 107.224 L
292.201 106.7 L
293.173 106.176 L
294.145 105.654 L
295.117 105.132 L
296.089 104.611 L
297.061 104.09 L
298.033 103.571 L
299.005 103.052 L
299.977 102.535 L
300.949 102.018 L
301.921 101.502 L
302.893 100.987 L
303.865 100.473 L
304.837 99.96 L
305.809 99.448 L
306.781 98.936 L
307.753 98.426 L
308.725 97.917 L
309.697 97.409 L
310.669 96.901 L
311.641 96.395 L
312.613 95.89 L
313.585 95.386 L
314.557 94.883 L
315.529 94.38 L
316.501 93.88 L
317.473 93.38 L
318.445 92.881 L
319.417 92.383 L
320.389 91.887 L
321.361 91.391 L
322.333 90.897 L
323.305 90.404 L
324.277 89.912 L
325.249 89.421 L
326.221 88.931 L
327.193 88.443 L
328.165 87.956 L
329.137 87.47 L
330.109 86.985 L
331.081 86.502 L
332.053 86.02 L
333.025 85.539 L
333.997 85.06 L
334.969 84.581 L
335.941 84.104 L
336.913 83.629 L
337.885 83.155 L
338.857 82.682 L
339.829 82.21 L
340.801 81.74 L
341.773 81.271 L
342.745 80.804 L
343.717 80.338 L
344.689 79.873 L
345.66 79.41 L
346.633 78.949 L
347.604 78.488 L
348.576 78.03 L
349.548 77.573 L
350.52 77.117 L
351.492 76.663 L
352.464 76.21 L
353.436 75.759 L
354.408 75.309 L
355.38 74.861 L
356.352 74.415 L
357.324 73.97 L
358.296 73.527 L
359.268 73.085 L
360.24 72.645 L
361.212 72.206 L
362.184 71.77 L
363.156 71.335 L
364.128 70.901 L
365.1 70.469 L
366.072 70.039 L
367.044 69.611 L
368.016 69.184 L
368.988 68.759 L
369.96 68.336 L
370.932 67.914 L
371.904 67.495 L
372.876 67.077 L
373.848 66.66 L
374.82 66.246 L
375.792 65.834 L
376.764 65.423 L
377.736 65.014 L
378.708 64.607 L
379.68 64.202 L
380.652 63.799 L
381.624 63.397 L
382.596 62.998 L
383.568 62.6 L
384.54 62.204 L
385.512 61.81 L
386.484 61.419 L
387.456 61.029 L
388.428 60.641 L
389.4 60.255 L
390.372 59.871 L
391.344 59.489 L
392.316 59.109 L
393.288 58.731 L
394.26 58.355 L
395.232 57.982 L
396.204 57.61 L
397.176 57.24 L
398.148 56.873 L
399.12 56.507 L
400.092 56.144 L
401.064 55.782 L
402.036 55.423 L
403.008 55.066 L
403.98 54.712 L
404.952 54.359 L
405.924 54.009 L
406.896 53.66 L
407.868 53.314 L
408.84 52.97 L
409.812 52.629 L
410.784 52.289 L
411.756 51.952 L
412.728 51.618 L
413.7 51.285 L
414.672 50.955 L
415.644 50.627 L
416.616 50.301 L
417.588 49.978 L
418.56 49.657 L
419.532 49.338 L
420.504 49.022 L
421.476 48.708 L
422.448 48.397 L
423.42 48.088 L
424.392 47.781 L
425.364 47.477 L
426.336 47.175 L
427.308 46.875 L
428.28 46.578 L
429.252 46.284 L
430.224 45.992 L
431.196 45.703 L
432.168 45.416 L
433.14 45.131 L
434.112 44.849 L
435.084 44.57 L
436.056 44.293 L
437.028 44.019 L
438 43.747 L
438.972 43.478 L
439.944 43.212 L
440.916 42.948 L
441.888 42.687 L
442.86 42.428 L
443.832 42.172 L
444.804 41.919 L
445.776 41.668 L
446.748 41.42 L
447.72 41.175 L
448.692 40.933 L
449.664 40.693 L
450.636 40.456 L
451.608 40.222 L
452.58 39.99 L
453.552 39.761 L
454.524 39.535 L
455.496 39.312 L
456.468 39.092 L
457.44 38.874 L
458.412 38.66 L
459.384 38.448 L
460.356 38.239 L
461.328 38.033 L
462.3 37.829 L
463.272 37.629 L
464.244 37.432 L
465.216 37.237 L
466.188 37.046 L
467.16 36.857 L
468.132 36.671 L
469.104 36.488 L
470.076 36.309 L
471.048 36.132 L
472.02 35.958 L
472.992 35.787 L
473.964 35.62 L
474.936 35.455 L
475.908 35.293 L
476.88 35.135 L
477.852 34.979 L
478.824 34.827 L
479.796 34.677 L
480.768 34.531 L
481.74 34.388 L
482.712 34.248 L
483.684 34.111 L
484.656 33.977 L
485.628 33.847 L
486.6 33.72 L
487.572 33.595 L
488.544 33.475 L
489.516 33.357 L
490.488 33.242 L
491.46 33.131 L
492.432 33.023 L
493.404 32.918 L
494.376 32.817 L
495.348 32.719 L
496.32 32.624 L
497.292 32.532 L
498.264 32.444 L
499.236 32.359 L
500.208 32.278 L
501.18 32.2 L
502.152 32.125 L
503.124 32.053 L
504.096 31.985 L
505.068 31.921 L
506.039 31.859 L
S
GR
GS
0.467 0.675 0.188 RC
[10 6] 0 setdash
2 LJ
0.5 LW
N
74.126 368.855 M
75.098 365.471 L
76.07 362.1 L
77.042 358.747 L
78.014 355.413 L
78.986 352.102 L
79.958 348.817 L
80.93 345.561 L
81.902 342.336 L
82.874 339.147 L
83.846 335.996 L
84.818 332.886 L
85.79 329.82 L
86.762 326.801 L
87.734 323.832 L
88.706 320.916 L
89.678 318.057 L
90.65 315.256 L
91.622 312.518 L
92.594 309.845 L
93.566 307.24 L
94.538 304.707 L
95.51 302.248 L
96.482 299.866 L
97.454 297.565 L
98.426 295.332 L
99.398 293.124 L
100.37 290.938 L
101.342 288.773 L
102.314 286.629 L
103.286 284.507 L
104.258 282.407 L
105.23 280.328 L
106.202 278.272 L
107.174 276.237 L
108.146 274.224 L
109.118 272.233 L
110.09 270.265 L
111.062 268.318 L
112.034 266.394 L
113.006 264.493 L
113.978 262.613 L
114.95 260.756 L
115.922 258.922 L
116.894 257.111 L
117.866 255.322 L
118.838 253.556 L
119.81 251.813 L
120.782 250.093 L
121.754 248.396 L
122.726 246.722 L
123.698 245.071 L
124.67 243.443 L
125.642 241.839 L
126.614 240.258 L
127.586 238.701 L
128.558 237.167 L
129.53 235.657 L
130.502 234.171 L
131.474 232.708 L
132.446 231.269 L
133.418 229.855 L
134.39 228.464 L
135.362 227.097 L
136.334 225.755 L
137.306 224.436 L
138.278 223.142 L
139.25 221.873 L
140.222 220.628 L
141.194 219.407 L
142.166 218.211 L
143.138 217.039 L
144.11 215.877 L
145.082 214.724 L
146.054 213.579 L
147.026 212.443 L
147.998 211.314 L
148.97 210.193 L
149.942 209.081 L
150.914 207.976 L
151.886 206.879 L
152.858 205.79 L
153.83 204.709 L
154.802 203.636 L
155.774 202.571 L
156.746 201.513 L
157.718 200.463 L
158.69 199.42 L
159.661 198.385 L
160.633 197.358 L
161.605 196.338 L
162.577 195.326 L
163.549 194.321 L
164.521 193.324 L
165.493 192.334 L
166.465 191.351 L
167.437 190.376 L
168.409 189.407 L
169.381 188.446 L
170.353 187.493 L
171.325 186.546 L
172.297 185.606 L
173.269 184.674 L
174.241 183.748 L
175.213 182.83 L
176.185 181.918 L
177.157 181.013 L
178.129 180.115 L
179.101 179.224 L
180.073 178.34 L
181.045 177.462 L
182.017 176.591 L
182.989 175.727 L
183.961 174.869 L
184.933 174.018 L
185.905 173.174 L
186.877 172.336 L
187.849 171.504 L
188.821 170.679 L
189.793 169.86 L
190.765 169.048 L
191.737 168.242 L
192.709 167.442 L
193.681 166.648 L
194.653 165.861 L
195.625 165.079 L
196.597 164.304 L
197.569 163.535 L
198.541 162.771 L
199.513 162.014 L
200.485 161.263 L
201.457 160.518 L
202.429 159.778 L
203.401 159.044 L
204.373 158.316 L
205.345 157.594 L
206.317 156.878 L
207.289 156.167 L
208.261 155.462 L
209.233 154.762 L
210.205 154.068 L
211.177 153.379 L
212.149 152.696 L
213.121 152.019 L
214.093 151.346 L
215.065 150.679 L
216.037 150.018 L
217.009 149.361 L
217.981 148.71 L
218.953 148.064 L
219.925 147.424 L
220.897 146.788 L
221.869 146.157 L
222.841 145.532 L
223.813 144.911 L
224.785 144.295 L
225.757 143.685 L
226.729 143.079 L
227.701 142.478 L
228.673 141.881 L
229.645 141.29 L
230.617 140.703 L
231.589 140.121 L
232.561 139.543 L
233.533 138.97 L
234.505 138.402 L
235.477 137.838 L
236.449 137.278 L
237.421 136.72 L
238.393 136.161 L
239.365 135.602 L
240.337 135.044 L
241.309 134.486 L
242.281 133.928 L
243.253 133.37 L
244.225 132.813 L
245.197 132.255 L
246.169 131.698 L
247.141 131.141 L
248.113 130.585 L
249.085 130.028 L
250.057 129.473 L
251.029 128.917 L
252.001 128.362 L
252.973 127.807 L
253.945 127.252 L
254.917 126.698 L
255.889 126.144 L
256.861 125.591 L
257.833 125.038 L
258.805 124.485 L
259.777 123.933 L
260.749 123.381 L
261.721 122.83 L
262.693 122.279 L
263.665 121.728 L
264.637 121.179 L
265.609 120.629 L
266.581 120.08 L
267.553 119.532 L
268.525 118.984 L
269.497 118.437 L
270.469 117.891 L
271.441 117.345 L
272.413 116.799 L
273.385 116.254 L
274.357 115.71 L
275.329 115.167 L
276.301 114.624 L
277.273 114.081 L
278.245 113.54 L
279.217 112.999 L
280.189 112.459 L
281.161 111.919 L
282.133 111.38 L
283.105 110.843 L
284.077 110.305 L
285.049 109.769 L
286.021 109.233 L
286.993 108.698 L
287.965 108.164 L
288.937 107.631 L
289.909 107.098 L
290.881 106.567 L
291.853 106.036 L
292.825 105.506 L
293.797 104.977 L
294.769 104.449 L
295.741 103.922 L
296.713 103.395 L
297.685 102.87 L
298.657 102.346 L
299.629 101.822 L
300.601 101.3 L
301.573 100.778 L
302.545 100.258 L
303.517 99.738 L
304.489 99.22 L
305.461 98.702 L
306.433 98.186 L
307.405 97.67 L
308.377 97.156 L
309.349 96.643 L
310.321 96.131 L
311.293 95.62 L
312.265 95.11 L
313.237 94.602 L
314.209 94.094 L
315.181 93.588 L
316.153 93.082 L
317.125 92.578 L
318.097 92.076 L
319.069 91.574 L
320.041 91.074 L
321.013 90.574 L
321.985 90.077 L
322.957 89.58 L
323.928 89.085 L
324.901 88.591 L
325.872 88.098 L
326.844 87.607 L
327.816 87.117 L
328.788 86.628 L
329.76 86.14 L
330.732 85.654 L
331.704 85.17 L
332.676 84.687 L
333.648 84.205 L
334.62 83.724 L
335.592 83.245 L
336.564 82.768 L
337.536 82.292 L
338.508 81.817 L
339.48 81.344 L
340.452 80.873 L
341.424 80.402 L
342.396 79.934 L
343.368 79.467 L
344.34 79.001 L
345.312 78.537 L
346.284 78.075 L
347.256 77.614 L
348.228 77.155 L
349.2 76.698 L
350.172 76.242 L
351.144 75.788 L
352.116 75.335 L
353.088 74.884 L
354.06 74.435 L
355.032 73.987 L
356.004 73.541 L
356.976 73.097 L
357.948 72.655 L
358.92 72.214 L
359.892 71.775 L
360.864 71.338 L
361.836 70.903 L
362.808 70.469 L
363.78 70.037 L
364.752 69.607 L
365.724 69.179 L
366.696 68.753 L
367.668 68.328 L
368.64 67.906 L
369.612 67.485 L
370.584 67.067 L
371.556 66.65 L
372.528 66.235 L
373.5 65.822 L
374.472 65.411 L
375.444 65.002 L
376.416 64.595 L
377.388 64.189 L
378.36 63.786 L
379.332 63.385 L
380.304 62.986 L
381.276 62.589 L
382.248 62.194 L
383.22 61.801 L
384.192 61.41 L
385.164 61.022 L
386.136 60.635 L
387.108 60.25 L
388.08 59.868 L
389.052 59.488 L
390.024 59.11 L
390.996 58.734 L
391.968 58.36 L
392.94 57.988 L
393.912 57.619 L
394.884 57.252 L
395.856 56.887 L
396.828 56.524 L
397.8 56.164 L
398.772 55.806 L
399.744 55.45 L
400.716 55.096 L
401.688 54.745 L
402.66 54.396 L
403.632 54.049 L
404.604 53.705 L
405.576 53.363 L
406.548 53.024 L
407.52 52.687 L
408.492 52.352 L
409.464 52.02 L
410.436 51.69 L
411.408 51.362 L
412.38 51.037 L
413.352 50.715 L
414.324 50.395 L
415.296 50.077 L
416.268 49.762 L
417.24 49.449 L
418.212 49.139 L
419.184 48.832 L
420.156 48.527 L
421.128 48.224 L
422.1 47.925 L
423.072 47.628 L
424.044 47.333 L
425.016 47.041 L
425.988 46.752 L
426.96 46.465 L
427.932 46.181 L
428.904 45.899 L
429.876 45.621 L
430.848 45.345 L
431.82 45.071 L
432.792 44.801 L
433.764 44.533 L
434.736 44.268 L
435.708 44.006 L
436.68 43.746 L
437.652 43.489 L
438.624 43.235 L
439.596 42.984 L
440.568 42.736 L
441.54 42.49 L
442.512 42.247 L
443.484 42.008 L
444.456 41.771 L
445.428 41.537 L
446.4 41.306 L
447.372 41.077 L
448.344 40.852 L
449.316 40.63 L
450.288 40.41 L
451.26 40.194 L
452.232 39.98 L
453.204 39.77 L
454.176 39.562 L
455.148 39.358 L
456.12 39.157 L
457.092 38.958 L
458.064 38.763 L
459.036 38.571 L
460.008 38.381 L
460.98 38.195 L
461.952 38.012 L
462.924 37.832 L
463.896 37.656 L
464.868 37.482 L
465.84 37.312 L
466.812 37.144 L
467.784 36.98 L
468.756 36.819 L
469.728 36.662 L
470.7 36.507 L
471.672 36.356 L
472.644 36.208 L
473.616 36.063 L
474.588 35.922 L
475.56 35.784 L
476.532 35.649 L
477.504 35.518 L
478.476 35.389 L
479.448 35.264 L
480.42 35.143 L
481.392 35.025 L
482.364 34.91 L
483.336 34.799 L
484.307 34.691 L
485.28 34.586 L
486.251 34.485 L
487.223 34.387 L
488.195 34.293 L
489.167 34.202 L
490.139 34.115 L
491.111 34.031 L
492.083 33.951 L
493.055 33.874 L
494.027 33.801 L
494.999 33.731 L
495.971 33.665 L
496.943 33.602 L
497.915 33.543 L
498.887 33.488 L
S
GR
GS
0.302 0.745 0.933 RC
[10 6] 0 setdash
2 LJ
0.5 LW
N
73.869 370.641 M
74.841 367.193 L
75.813 363.76 L
76.785 360.344 L
77.757 356.949 L
78.729 353.577 L
79.701 350.232 L
80.673 346.917 L
81.645 343.635 L
82.617 340.39 L
83.589 337.184 L
84.561 334.021 L
85.533 330.904 L
86.505 327.835 L
87.477 324.819 L
88.449 321.859 L
89.421 318.957 L
90.393 316.117 L
91.365 313.341 L
92.337 310.634 L
93.309 307.998 L
94.281 305.437 L
95.253 302.953 L
96.225 300.55 L
97.197 298.231 L
98.169 295.976 L
99.141 293.743 L
100.113 291.533 L
101.085 289.345 L
102.057 287.179 L
103.029 285.036 L
104.001 282.915 L
104.973 280.816 L
105.945 278.74 L
106.917 276.686 L
107.889 274.655 L
108.861 272.647 L
109.833 270.662 L
110.805 268.699 L
111.777 266.76 L
112.749 264.843 L
113.721 262.95 L
114.693 261.08 L
115.665 259.233 L
116.637 257.41 L
117.609 255.61 L
118.581 253.834 L
119.553 252.081 L
120.525 250.352 L
121.497 248.646 L
122.469 246.965 L
123.441 245.307 L
124.413 243.674 L
125.385 242.064 L
126.357 240.479 L
127.329 238.917 L
128.301 237.38 L
129.273 235.868 L
130.245 234.38 L
131.217 232.916 L
132.189 231.477 L
133.161 230.063 L
134.133 228.673 L
135.105 227.309 L
136.077 225.969 L
137.049 224.654 L
138.021 223.364 L
138.993 222.1 L
139.965 220.86 L
140.937 219.646 L
141.909 218.457 L
142.881 217.288 L
143.853 216.126 L
144.825 214.974 L
145.797 213.829 L
146.769 212.693 L
147.741 211.565 L
148.713 210.445 L
149.685 209.334 L
150.656 208.23 L
151.628 207.135 L
152.6 206.048 L
153.572 204.968 L
154.544 203.897 L
155.516 202.834 L
156.488 201.778 L
157.46 200.731 L
158.432 199.691 L
159.404 198.659 L
160.376 197.634 L
161.348 196.618 L
162.32 195.609 L
163.292 194.607 L
164.264 193.613 L
165.236 192.627 L
166.208 191.648 L
167.18 190.676 L
168.152 189.712 L
169.124 188.755 L
170.096 187.805 L
171.068 186.863 L
172.04 185.928 L
173.012 184.999 L
173.984 184.078 L
174.956 183.165 L
175.928 182.258 L
176.9 181.358 L
177.872 180.465 L
178.844 179.579 L
179.816 178.699 L
180.788 177.827 L
181.76 176.961 L
182.732 176.102 L
183.704 175.25 L
184.676 174.404 L
185.648 173.565 L
186.62 172.733 L
187.592 171.907 L
188.564 171.087 L
189.536 170.274 L
190.508 169.467 L
191.48 168.667 L
192.452 167.872 L
193.424 167.084 L
194.396 166.303 L
195.368 165.527 L
196.34 164.758 L
197.312 163.994 L
198.284 163.237 L
199.256 162.486 L
200.228 161.74 L
201.2 161.001 L
202.172 160.267 L
203.144 159.539 L
204.116 158.817 L
205.088 158.101 L
206.06 157.39 L
207.032 156.685 L
208.004 155.985 L
208.976 155.291 L
209.948 154.603 L
210.92 153.92 L
211.892 153.243 L
212.864 152.57 L
213.836 151.904 L
214.808 151.242 L
215.78 150.586 L
216.752 149.935 L
217.724 149.289 L
218.696 148.648 L
219.668 148.013 L
220.64 147.382 L
221.612 146.757 L
222.584 146.136 L
223.556 145.52 L
224.528 144.909 L
225.5 144.303 L
226.472 143.702 L
227.444 143.105 L
228.416 142.513 L
229.388 141.926 L
230.36 141.343 L
231.332 140.765 L
232.304 140.192 L
233.276 139.623 L
234.248 139.058 L
235.22 138.498 L
236.192 137.939 L
237.164 137.38 L
238.136 136.821 L
239.108 136.263 L
240.08 135.704 L
241.052 135.146 L
242.024 134.588 L
242.996 134.03 L
243.968 133.473 L
244.94 132.915 L
245.912 132.359 L
246.884 131.802 L
247.856 131.245 L
248.828 130.689 L
249.8 130.133 L
250.772 129.578 L
251.744 129.023 L
252.716 128.468 L
253.688 127.914 L
254.66 127.36 L
255.632 126.806 L
256.604 126.253 L
257.576 125.7 L
258.548 125.148 L
259.52 124.596 L
260.492 124.044 L
261.464 123.493 L
262.436 122.943 L
263.408 122.393 L
264.38 121.843 L
265.352 121.294 L
266.324 120.746 L
267.296 120.198 L
268.268 119.651 L
269.24 119.104 L
270.212 118.558 L
271.184 118.012 L
272.156 117.467 L
273.128 116.923 L
274.1 116.379 L
275.072 115.836 L
276.044 115.294 L
277.016 114.752 L
277.988 114.211 L
278.96 113.671 L
279.932 113.131 L
280.904 112.593 L
281.876 112.055 L
282.848 111.517 L
283.82 110.981 L
284.792 110.445 L
285.764 109.91 L
286.736 109.376 L
287.708 108.842 L
288.68 108.31 L
289.652 107.778 L
290.624 107.247 L
291.596 106.718 L
292.568 106.189 L
293.54 105.66 L
294.512 105.133 L
295.484 104.607 L
296.456 104.082 L
297.428 103.557 L
298.4 103.034 L
299.372 102.511 L
300.344 101.99 L
301.316 101.469 L
302.288 100.95 L
303.26 100.431 L
304.232 99.914 L
305.204 99.398 L
306.176 98.883 L
307.148 98.368 L
308.12 97.855 L
309.092 97.343 L
310.064 96.833 L
311.036 96.323 L
312.008 95.814 L
312.979 95.307 L
313.952 94.801 L
314.923 94.296 L
315.895 93.792 L
316.867 93.289 L
317.839 92.788 L
318.811 92.288 L
319.783 91.789 L
320.755 91.291 L
321.727 90.795 L
322.699 90.3 L
323.671 89.806 L
324.643 89.313 L
325.615 88.822 L
326.587 88.332 L
327.559 87.844 L
328.531 87.357 L
329.503 86.871 L
330.475 86.387 L
331.447 85.904 L
332.419 85.423 L
333.391 84.942 L
334.363 84.464 L
335.335 83.987 L
336.307 83.511 L
337.279 83.037 L
338.251 82.564 L
339.223 82.093 L
340.195 81.623 L
341.167 81.155 L
342.139 80.688 L
343.111 80.224 L
344.083 79.76 L
345.055 79.298 L
346.027 78.838 L
346.999 78.379 L
347.971 77.922 L
348.943 77.467 L
349.915 77.013 L
350.887 76.561 L
351.859 76.111 L
352.831 75.662 L
353.803 75.215 L
354.775 74.77 L
355.747 74.326 L
356.719 73.884 L
357.691 73.444 L
358.663 73.006 L
359.635 72.57 L
360.607 72.135 L
361.579 71.702 L
362.551 71.271 L
363.523 70.842 L
364.495 70.414 L
365.467 69.989 L
366.439 69.565 L
367.411 69.143 L
368.383 68.724 L
369.355 68.306 L
370.327 67.889 L
371.299 67.475 L
372.271 67.063 L
373.243 66.653 L
374.215 66.245 L
375.187 65.839 L
376.159 65.434 L
377.131 65.032 L
378.103 64.632 L
379.075 64.234 L
380.047 63.838 L
381.019 63.444 L
381.991 63.052 L
382.963 62.662 L
383.935 62.274 L
384.907 61.889 L
385.879 61.505 L
386.851 61.124 L
387.823 60.745 L
388.795 60.368 L
389.767 59.993 L
390.739 59.62 L
391.711 59.25 L
392.683 58.882 L
393.655 58.516 L
394.627 58.152 L
395.599 57.79 L
396.571 57.431 L
397.543 57.074 L
398.515 56.72 L
399.487 56.367 L
400.459 56.018 L
401.431 55.67 L
402.403 55.325 L
403.375 54.982 L
404.347 54.641 L
405.319 54.303 L
406.291 53.967 L
407.263 53.634 L
408.235 53.303 L
409.207 52.975 L
410.179 52.649 L
411.151 52.325 L
412.123 52.004 L
413.095 51.686 L
414.067 51.37 L
415.039 51.056 L
416.011 50.745 L
416.983 50.437 L
417.955 50.131 L
418.927 49.828 L
419.899 49.527 L
420.871 49.229 L
421.843 48.933 L
422.815 48.641 L
423.787 48.35 L
424.759 48.063 L
425.731 47.778 L
426.703 47.496 L
427.675 47.216 L
428.647 46.939 L
429.619 46.665 L
430.591 46.394 L
431.563 46.125 L
432.535 45.859 L
433.507 45.596 L
434.479 45.336 L
435.451 45.078 L
436.423 44.823 L
437.395 44.571 L
438.367 44.322 L
439.339 44.076 L
440.311 43.833 L
441.283 43.592 L
442.255 43.354 L
443.227 43.119 L
444.199 42.888 L
445.171 42.659 L
446.143 42.433 L
447.115 42.21 L
448.087 41.99 L
449.059 41.773 L
450.031 41.558 L
451.003 41.347 L
451.975 41.139 L
452.947 40.934 L
453.919 40.732 L
454.891 40.533 L
455.863 40.337 L
456.835 40.144 L
457.807 39.955 L
458.779 39.768 L
459.751 39.584 L
460.723 39.404 L
461.695 39.227 L
462.667 39.053 L
463.639 38.882 L
464.611 38.714 L
465.583 38.549 L
466.555 38.388 L
467.527 38.23 L
468.499 38.075 L
469.471 37.923 L
470.443 37.775 L
471.415 37.63 L
472.387 37.488 L
473.359 37.349 L
474.331 37.214 L
475.303 37.082 L
476.275 36.954 L
477.246 36.829 L
478.219 36.707 L
479.19 36.588 L
480.162 36.473 L
481.134 36.361 L
482.106 36.253 L
483.078 36.148 L
484.05 36.047 L
485.022 35.949 L
485.994 35.855 L
486.966 35.764 L
487.938 35.676 L
488.91 35.592 L
489.882 35.512 L
490.854 35.435 L
491.826 35.361 L
492.798 35.291 L
493.77 35.225 L
494.742 35.162 L
495.714 35.103 L
S
GR
GS
0.635 0.078 0.184 RC
[10 6] 0 setdash
2 LJ
0.5 LW
N
74.463 368.209 M
75.435 364.815 L
76.407 361.435 L
77.379 358.072 L
78.351 354.729 L
79.323 351.408 L
80.295 348.113 L
81.267 344.847 L
82.239 341.612 L
83.211 338.413 L
84.183 335.251 L
85.155 332.131 L
86.127 329.055 L
87.099 326.025 L
88.071 323.046 L
89.043 320.12 L
90.015 317.25 L
90.987 314.439 L
91.959 311.69 L
92.931 309.007 L
93.903 306.392 L
94.875 303.849 L
95.846 301.379 L
96.818 298.988 L
97.79 296.677 L
98.762 294.445 L
99.734 292.249 L
100.706 290.075 L
101.678 287.922 L
102.65 285.792 L
103.622 283.683 L
104.594 281.596 L
105.566 279.531 L
106.538 277.488 L
107.51 275.467 L
108.482 273.469 L
109.454 271.492 L
110.426 269.538 L
111.398 267.606 L
112.37 265.696 L
113.342 263.809 L
114.314 261.944 L
115.286 260.102 L
116.258 258.282 L
117.23 256.484 L
118.202 254.709 L
119.174 252.957 L
120.146 251.227 L
121.118 249.52 L
122.09 247.836 L
123.062 246.174 L
124.034 244.536 L
125.006 242.92 L
125.978 241.327 L
126.95 239.757 L
127.922 238.211 L
128.894 236.687 L
129.866 235.186 L
130.838 233.708 L
131.81 232.254 L
132.782 230.823 L
133.754 229.415 L
134.726 228.031 L
135.698 226.669 L
136.67 225.332 L
137.642 224.017 L
138.614 222.726 L
139.586 221.459 L
140.558 220.215 L
141.53 218.995 L
142.502 217.799 L
143.474 216.626 L
144.446 215.475 L
145.418 214.334 L
146.39 213.2 L
147.362 212.074 L
148.334 210.957 L
149.306 209.847 L
150.278 208.745 L
151.25 207.65 L
152.222 206.564 L
153.194 205.485 L
154.166 204.414 L
155.138 203.35 L
156.11 202.294 L
157.082 201.246 L
158.054 200.205 L
159.026 199.172 L
159.998 198.145 L
160.97 197.127 L
161.942 196.116 L
162.914 195.112 L
163.886 194.115 L
164.858 193.125 L
165.83 192.143 L
166.802 191.168 L
167.774 190.2 L
168.746 189.239 L
169.718 188.285 L
170.69 187.338 L
171.662 186.398 L
172.634 185.465 L
173.606 184.539 L
174.578 183.619 L
175.55 182.707 L
176.522 181.801 L
177.494 180.902 L
178.466 180.01 L
179.438 179.124 L
180.41 178.245 L
181.382 177.373 L
182.354 176.507 L
183.326 175.647 L
184.298 174.794 L
185.27 173.947 L
186.242 173.107 L
187.214 172.273 L
188.186 171.446 L
189.158 170.624 L
190.13 169.809 L
191.102 169 L
192.074 168.197 L
193.046 167.401 L
194.018 166.61 L
194.99 165.825 L
195.962 165.047 L
196.934 164.274 L
197.906 163.507 L
198.878 162.746 L
199.85 161.991 L
200.822 161.242 L
201.794 160.498 L
202.766 159.761 L
203.738 159.029 L
204.71 158.302 L
205.682 157.581 L
206.654 156.866 L
207.626 156.156 L
208.598 155.452 L
209.57 154.753 L
210.542 154.059 L
211.514 153.371 L
212.486 152.688 L
213.458 152.011 L
214.43 151.339 L
215.402 150.672 L
216.374 150.01 L
217.346 149.353 L
218.318 148.701 L
219.29 148.055 L
220.262 147.413 L
221.234 146.777 L
222.206 146.145 L
223.178 145.518 L
224.15 144.896 L
225.122 144.279 L
226.094 143.667 L
227.066 143.059 L
228.038 142.456 L
229.01 141.858 L
229.982 141.265 L
230.954 140.676 L
231.926 140.091 L
232.898 139.511 L
233.87 138.936 L
234.842 138.365 L
235.814 137.798 L
236.786 137.236 L
237.758 136.678 L
238.73 136.125 L
239.702 135.575 L
240.674 135.026 L
241.646 134.477 L
242.618 133.929 L
243.59 133.38 L
244.562 132.832 L
245.534 132.284 L
246.506 131.736 L
247.478 131.189 L
248.45 130.641 L
249.422 130.094 L
250.394 129.547 L
251.366 129.001 L
252.338 128.454 L
253.31 127.908 L
254.282 127.363 L
255.254 126.817 L
256.226 126.272 L
257.198 125.727 L
258.17 125.183 L
259.142 124.639 L
260.113 124.095 L
261.086 123.552 L
262.057 123.009 L
263.029 122.466 L
264.001 121.924 L
264.973 121.383 L
265.945 120.842 L
266.917 120.301 L
267.889 119.761 L
268.861 119.221 L
269.833 118.682 L
270.805 118.143 L
271.777 117.604 L
272.749 117.067 L
273.721 116.529 L
274.693 115.993 L
275.665 115.457 L
276.637 114.921 L
277.609 114.386 L
278.581 113.852 L
279.553 113.318 L
280.525 112.785 L
281.497 112.253 L
282.469 111.721 L
283.441 111.19 L
284.413 110.66 L
285.385 110.13 L
286.357 109.601 L
287.329 109.072 L
288.301 108.545 L
289.273 108.018 L
290.245 107.492 L
291.217 106.966 L
292.189 106.442 L
293.161 105.918 L
294.133 105.395 L
295.105 104.873 L
296.077 104.351 L
297.049 103.831 L
298.021 103.311 L
298.993 102.792 L
299.965 102.274 L
300.937 101.757 L
301.909 101.241 L
302.881 100.726 L
303.853 100.211 L
304.825 99.698 L
305.797 99.185 L
306.769 98.674 L
307.741 98.163 L
308.713 97.653 L
309.685 97.145 L
310.657 96.637 L
311.629 96.131 L
312.601 95.625 L
313.573 95.12 L
314.545 94.617 L
315.517 94.114 L
316.489 93.613 L
317.461 93.113 L
318.433 92.614 L
319.405 92.116 L
320.377 91.619 L
321.349 91.123 L
322.321 90.628 L
323.293 90.135 L
324.265 89.642 L
325.237 89.151 L
326.209 88.661 L
327.181 88.172 L
328.153 87.685 L
329.125 87.199 L
330.097 86.714 L
331.069 86.23 L
332.041 85.747 L
333.013 85.266 L
333.985 84.786 L
334.957 84.307 L
335.929 83.83 L
336.901 83.354 L
337.873 82.879 L
338.845 82.406 L
339.817 81.934 L
340.789 81.463 L
341.761 80.994 L
342.733 80.526 L
343.705 80.06 L
344.677 79.595 L
345.649 79.132 L
346.621 78.67 L
347.593 78.209 L
348.565 77.75 L
349.537 77.292 L
350.509 76.836 L
351.481 76.381 L
352.453 75.928 L
353.425 75.477 L
354.397 75.027 L
355.369 74.578 L
356.341 74.131 L
357.313 73.686 L
358.285 73.242 L
359.257 72.8 L
360.229 72.36 L
361.201 71.921 L
362.173 71.483 L
363.145 71.048 L
364.117 70.614 L
365.089 70.182 L
366.061 69.751 L
367.033 69.322 L
368.005 68.895 L
368.977 68.47 L
369.949 68.046 L
370.921 67.624 L
371.893 67.204 L
372.865 66.786 L
373.837 66.369 L
374.809 65.954 L
375.781 65.542 L
376.753 65.13 L
377.725 64.721 L
378.697 64.314 L
379.669 63.908 L
380.641 63.504 L
381.613 63.103 L
382.585 62.703 L
383.557 62.305 L
384.529 61.908 L
385.501 61.514 L
386.473 61.122 L
387.445 60.732 L
388.417 60.343 L
389.389 59.957 L
390.361 59.573 L
391.333 59.19 L
392.305 58.81 L
393.277 58.432 L
394.249 58.056 L
395.221 57.682 L
396.193 57.309 L
397.165 56.939 L
398.137 56.571 L
399.109 56.206 L
400.081 55.842 L
401.053 55.48 L
402.025 55.121 L
402.997 54.764 L
403.969 54.408 L
404.941 54.055 L
405.913 53.705 L
406.885 53.356 L
407.857 53.01 L
408.829 52.666 L
409.801 52.324 L
410.773 51.984 L
411.745 51.647 L
412.717 51.311 L
413.689 50.979 L
414.661 50.648 L
415.633 50.32 L
416.605 49.994 L
417.577 49.67 L
418.549 49.349 L
419.521 49.03 L
420.493 48.714 L
421.465 48.4 L
422.437 48.088 L
423.409 47.778 L
424.381 47.472 L
425.353 47.167 L
426.324 46.865 L
427.297 46.565 L
428.268 46.268 L
429.24 45.974 L
430.212 45.681 L
431.184 45.392 L
432.156 45.105 L
433.128 44.82 L
434.1 44.538 L
435.072 44.258 L
436.044 43.981 L
437.016 43.707 L
437.988 43.435 L
438.96 43.166 L
439.932 42.899 L
440.904 42.635 L
441.876 42.374 L
442.848 42.115 L
443.82 41.859 L
444.792 41.606 L
445.764 41.355 L
446.736 41.107 L
447.708 40.862 L
448.68 40.619 L
449.652 40.38 L
450.624 40.143 L
451.596 39.908 L
452.568 39.677 L
453.54 39.448 L
454.512 39.222 L
455.484 38.999 L
456.456 38.778 L
457.428 38.561 L
458.4 38.346 L
459.372 38.134 L
460.344 37.925 L
461.316 37.719 L
462.288 37.516 L
463.26 37.316 L
464.232 37.118 L
465.204 36.924 L
466.176 36.732 L
467.148 36.544 L
468.12 36.358 L
469.092 36.175 L
470.064 35.996 L
471.036 35.819 L
472.008 35.645 L
472.98 35.475 L
473.952 35.307 L
474.924 35.142 L
475.896 34.981 L
476.868 34.823 L
477.84 34.667 L
478.812 34.515 L
479.784 34.366 L
480.756 34.22 L
481.728 34.077 L
482.7 33.937 L
483.672 33.8 L
484.644 33.667 L
485.616 33.537 L
486.588 33.41 L
487.56 33.286 L
488.532 33.165 L
489.504 33.048 L
490.476 32.934 L
491.448 32.823 L
492.42 32.715 L
493.392 32.611 L
494.364 32.509 L
495.336 32.412 L
496.308 32.317 L
497.28 32.226 L
498.252 32.138 L
499.224 32.054 L
500.196 31.973 L
501.168 31.895 L
502.14 31.821 L
503.112 31.75 L
504.084 31.682 L
505.056 31.618 L
506.028 31.557 L
507 31.5 L
S
GR
GS
1 GC
N
499 366 M
499 250.5 L
344.5 250.5 L
344.5 366 L
cp
f
GR
GS
[1 0 0 1 381.5 260.25] CT
/Helvetica 13 F
GS
[1 0 0 1 0 0] CT
0 5 moveto 
1 -1 scale
(Base Run) t 
GR
GR
GS
0 0.447 0.741 RC
1 LJ
0.5 LW
N
348.5 260.25 M
378.5 260.25 L
S
GR
GS
[1 0 0 1 381.5 276.25] CT
/Helvetica 13 F
GS
[1 0 0 1 0 0] CT
0 5 moveto 
1 -1 scale
(I & B Frames) t 
GR
GR
GS
0.851 0.325 0.098 RC
1 LJ
0.5 LW
N
348.5 276.25 M
378.5 276.25 L
S
GR
GS
[1 0 0 1 381.5 292.25] CT
/Helvetica 13 F
GS
[1 0 0 1 0 0] CT
0 5 moveto 
1 -1 scale
(I Frames Only) t 
GR
GR
GS
0.929 0.694 0.125 RC
1 LJ
0.5 LW
N
348.5 292.25 M
378.5 292.25 L
S
GR
GS
[1 0 0 1 381.5 308.25] CT
/Helvetica 13 F
GS
[1 0 0 1 0 0] CT
0 5 moveto 
1 -1 scale
(B Frames Only) t 
GR
GR
GS
0.494 0.184 0.557 RC
1 LJ
0.5 LW
N
348.5 308.25 M
378.5 308.25 L
S
GR
GS
[1 0 0 1 381.5 324.25] CT
/Helvetica 13 F
GS
[1 0 0 1 0 0] CT
0 5 moveto 
1 -1 scale
(Part I & B Frames) t 
GR
GR
GS
0.467 0.675 0.188 RC
[10 6] 0 setdash
2 LJ
0.5 LW
N
348.5 324.25 M
378.5 324.25 L
S
GR
GS
[1 0 0 1 381.5 340.25] CT
/Helvetica 13 F
GS
[1 0 0 1 0 0] CT
0 5 moveto 
1 -1 scale
(Part I Frames Only) t 
GR
GR
GS
0.302 0.745 0.933 RC
[10 6] 0 setdash
2 LJ
0.5 LW
N
348.5 340.25 M
378.5 340.25 L
S
GR
GS
[1 0 0 1 381.5 356.25] CT
/Helvetica 13 F
GS
[1 0 0 1 0 0] CT
0 5 moveto 
1 -1 scale
(Part B Frames Only) t 
GR
GR
GS
0.635 0.078 0.184 RC
[10 6] 0 setdash
2 LJ
0.5 LW
N
348.5 356.25 M
378.5 356.25 L
S
GR
GS
0.149 GC
10.0 ML
0.5 LW
N
344.5 366 M
344.5 250.5 L
499 250.5 L
499 366 L
cp
S
GR
%%Trailer
%%Pages: 1
%%EOF
