%!PS-Adobe-3.0 EPSF-3.0
%%Creator: (MATLAB, The Mathworks, Inc. Version 9.11.0.1837725 \(R2021b\) Update 2. Operating System: Mac OS X)
%%Title: plots/pchip/TelevisionClip_1080P-39e3.y4m-hevc-PSNRU.eps
%%CreationDate: 2022-02-03T19:14:47
%%Pages: (atend)
%%BoundingBox:    33   425   508   826
%%LanguageLevel: 3
%%EndComments
%%BeginProlog
%%BeginResource: procset (Apache XML Graphics Std ProcSet) 1.2 0
%%Version: 1.2 0
%%Copyright: (Copyright 2001-2003,2010 The Apache Software Foundation. License terms: http://www.apache.org/licenses/LICENSE-2.0)
/bd{bind def}bind def
/ld{load def}bd
/GR/grestore ld
/GS/gsave ld
/RM/rmoveto ld
/C/curveto ld
/t/show ld
/L/lineto ld
/ML/setmiterlimit ld
/CT/concat ld
/f/fill ld
/N/newpath ld
/S/stroke ld
/CC/setcmykcolor ld
/A/ashow ld
/cp/closepath ld
/RC/setrgbcolor ld
/LJ/setlinejoin ld
/GC/setgray ld
/LW/setlinewidth ld
/M/moveto ld
/re {4 2 roll M
1 index 0 rlineto
0 exch rlineto
neg 0 rlineto
cp } bd
/_ctm matrix def
/_tm matrix def
/BT { _ctm currentmatrix pop matrix _tm copy pop 0 0 moveto } bd
/ET { _ctm setmatrix } bd
/iTm { _ctm setmatrix _tm concat } bd
/Tm { _tm astore pop iTm 0 0 moveto } bd
/ux 0.0 def
/uy 0.0 def
/F {
  /Tp exch def
  /Tf exch def
  Tf findfont Tp scalefont setfont
  /cf Tf def  /cs Tp def
} bd
/ULS {currentpoint /uy exch def /ux exch def} bd
/ULE {
  /Tcx currentpoint pop def
  gsave
  newpath
  cf findfont cs scalefont dup
  /FontMatrix get 0 get /Ts exch def /FontInfo get dup
  /UnderlinePosition get Ts mul /To exch def
  /UnderlineThickness get Ts mul /Tt exch def
  ux uy To add moveto  Tcx uy To add lineto
  Tt setlinewidth stroke
  grestore
} bd
/OLE {
  /Tcx currentpoint pop def
  gsave
  newpath
  cf findfont cs scalefont dup
  /FontMatrix get 0 get /Ts exch def /FontInfo get dup
  /UnderlinePosition get Ts mul /To exch def
  /UnderlineThickness get Ts mul /Tt exch def
  ux uy To add cs add moveto Tcx uy To add cs add lineto
  Tt setlinewidth stroke
  grestore
} bd
/SOE {
  /Tcx currentpoint pop def
  gsave
  newpath
  cf findfont cs scalefont dup
  /FontMatrix get 0 get /Ts exch def /FontInfo get dup
  /UnderlinePosition get Ts mul /To exch def
  /UnderlineThickness get Ts mul /Tt exch def
  ux uy To add cs 10 mul 26 idiv add moveto Tcx uy To add cs 10 mul 26 idiv add lineto
  Tt setlinewidth stroke
  grestore
} bd
/QT {
/Y22 exch store
/X22 exch store
/Y21 exch store
/X21 exch store
currentpoint
/Y21 load 2 mul add 3 div exch
/X21 load 2 mul add 3 div exch
/X21 load 2 mul /X22 load add 3 div
/Y21 load 2 mul /Y22 load add 3 div
/X22 load /Y22 load curveto
} bd
/SSPD {
dup length /d exch dict def
{
/v exch def
/k exch def
currentpagedevice k known {
/cpdv currentpagedevice k get def
v cpdv ne {
/upd false def
/nullv v type /nulltype eq def
/nullcpdv cpdv type /nulltype eq def
nullv nullcpdv or
{
/upd true def
} {
/sametype v type cpdv type eq def
sametype {
v type /arraytype eq {
/vlen v length def
/cpdvlen cpdv length def
vlen cpdvlen eq {
0 1 vlen 1 sub {
/i exch def
/obj v i get def
/cpdobj cpdv i get def
obj cpdobj ne {
/upd true def
exit
} if
} for
} {
/upd true def
} ifelse
} {
v type /dicttype eq {
v {
/dv exch def
/dk exch def
/cpddv cpdv dk get def
dv cpddv ne {
/upd true def
exit
} if
} forall
} {
/upd true def
} ifelse
} ifelse
} if
} ifelse
upd true eq {
d k v put
} if
} if
} if
} forall
d length 0 gt {
d setpagedevice
} if
} bd
/RE { % /NewFontName [NewEncodingArray] /FontName RE -
  findfont dup length dict begin
  {
    1 index /FID ne
    {def} {pop pop} ifelse
  } forall
  /Encoding exch def
  /FontName 1 index def
  currentdict definefont pop
  end
} bind def
%%EndResource
%%BeginResource: procset (Apache XML Graphics EPS ProcSet) 1.0 0
%%Version: 1.0 0
%%Copyright: (Copyright 2002-2003 The Apache Software Foundation. License terms: http://www.apache.org/licenses/LICENSE-2.0)
/BeginEPSF { %def
/b4_Inc_state save def         % Save state for cleanup
/dict_count countdictstack def % Count objects on dict stack
/op_count count 1 sub def      % Count objects on operand stack
userdict begin                 % Push userdict on dict stack
/showpage { } def              % Redefine showpage, { } = null proc
0 setgray 0 setlinecap         % Prepare graphics state
1 setlinewidth 0 setlinejoin
10 setmiterlimit [ ] 0 setdash newpath
/languagelevel where           % If level not equal to 1 then
{pop languagelevel             % set strokeadjust and
1 ne                           % overprint to their defaults.
{false setstrokeadjust false setoverprint
} if
} if
} bd
/EndEPSF { %def
count op_count sub {pop} repeat            % Clean up stacks
countdictstack dict_count sub {end} repeat
b4_Inc_state restore
} bd
%%EndResource
%FOPBeginFontDict
%%IncludeResource: font Courier-Oblique
%%IncludeResource: font Courier-BoldOblique
%%IncludeResource: font Courier-Bold
%%IncludeResource: font ZapfDingbats
%%IncludeResource: font Symbol
%%IncludeResource: font Helvetica
%%IncludeResource: font Helvetica-Oblique
%%IncludeResource: font Helvetica-Bold
%%IncludeResource: font Helvetica-BoldOblique
%%IncludeResource: font Times-Roman
%%IncludeResource: font Times-Italic
%%IncludeResource: font Times-Bold
%%IncludeResource: font Times-BoldItalic
%%IncludeResource: font Courier
%FOPEndFontDict
%%BeginResource: encoding WinAnsiEncoding
/WinAnsiEncoding [
/.notdef /.notdef /.notdef /.notdef /.notdef
/.notdef /.notdef /.notdef /.notdef /.notdef
/.notdef /.notdef /.notdef /.notdef /.notdef
/.notdef /.notdef /.notdef /.notdef /.notdef
/.notdef /.notdef /.notdef /.notdef /.notdef
/.notdef /.notdef /.notdef /.notdef /.notdef
/.notdef /.notdef /space /exclam /quotedbl
/numbersign /dollar /percent /ampersand /quotesingle
/parenleft /parenright /asterisk /plus /comma
/hyphen /period /slash /zero /one
/two /three /four /five /six
/seven /eight /nine /colon /semicolon
/less /equal /greater /question /at
/A /B /C /D /E
/F /G /H /I /J
/K /L /M /N /O
/P /Q /R /S /T
/U /V /W /X /Y
/Z /bracketleft /backslash /bracketright /asciicircum
/underscore /quoteleft /a /b /c
/d /e /f /g /h
/i /j /k /l /m
/n /o /p /q /r
/s /t /u /v /w
/x /y /z /braceleft /bar
/braceright /asciitilde /bullet /Euro /bullet
/quotesinglbase /florin /quotedblbase /ellipsis /dagger
/daggerdbl /circumflex /perthousand /Scaron /guilsinglleft
/OE /bullet /Zcaron /bullet /bullet
/quoteleft /quoteright /quotedblleft /quotedblright /bullet
/endash /emdash /asciitilde /trademark /scaron
/guilsinglright /oe /bullet /zcaron /Ydieresis
/space /exclamdown /cent /sterling /currency
/yen /brokenbar /section /dieresis /copyright
/ordfeminine /guillemotleft /logicalnot /sfthyphen /registered
/macron /degree /plusminus /twosuperior /threesuperior
/acute /mu /paragraph /middot /cedilla
/onesuperior /ordmasculine /guillemotright /onequarter /onehalf
/threequarters /questiondown /Agrave /Aacute /Acircumflex
/Atilde /Adieresis /Aring /AE /Ccedilla
/Egrave /Eacute /Ecircumflex /Edieresis /Igrave
/Iacute /Icircumflex /Idieresis /Eth /Ntilde
/Ograve /Oacute /Ocircumflex /Otilde /Odieresis
/multiply /Oslash /Ugrave /Uacute /Ucircumflex
/Udieresis /Yacute /Thorn /germandbls /agrave
/aacute /acircumflex /atilde /adieresis /aring
/ae /ccedilla /egrave /eacute /ecircumflex
/edieresis /igrave /iacute /icircumflex /idieresis
/eth /ntilde /ograve /oacute /ocircumflex
/otilde /odieresis /divide /oslash /ugrave
/uacute /ucircumflex /udieresis /yacute /thorn
/ydieresis
] def
%%EndResource
%FOPBeginFontReencode
/Courier-Oblique findfont
dup length dict begin
  {1 index /FID ne {def} {pop pop} ifelse} forall
  /Encoding WinAnsiEncoding def
  currentdict
end
/Courier-Oblique exch definefont pop
/Courier-BoldOblique findfont
dup length dict begin
  {1 index /FID ne {def} {pop pop} ifelse} forall
  /Encoding WinAnsiEncoding def
  currentdict
end
/Courier-BoldOblique exch definefont pop
/Courier-Bold findfont
dup length dict begin
  {1 index /FID ne {def} {pop pop} ifelse} forall
  /Encoding WinAnsiEncoding def
  currentdict
end
/Courier-Bold exch definefont pop
/Helvetica findfont
dup length dict begin
  {1 index /FID ne {def} {pop pop} ifelse} forall
  /Encoding WinAnsiEncoding def
  currentdict
end
/Helvetica exch definefont pop
/Helvetica-Oblique findfont
dup length dict begin
  {1 index /FID ne {def} {pop pop} ifelse} forall
  /Encoding WinAnsiEncoding def
  currentdict
end
/Helvetica-Oblique exch definefont pop
/Helvetica-Bold findfont
dup length dict begin
  {1 index /FID ne {def} {pop pop} ifelse} forall
  /Encoding WinAnsiEncoding def
  currentdict
end
/Helvetica-Bold exch definefont pop
/Helvetica-BoldOblique findfont
dup length dict begin
  {1 index /FID ne {def} {pop pop} ifelse} forall
  /Encoding WinAnsiEncoding def
  currentdict
end
/Helvetica-BoldOblique exch definefont pop
/Times-Roman findfont
dup length dict begin
  {1 index /FID ne {def} {pop pop} ifelse} forall
  /Encoding WinAnsiEncoding def
  currentdict
end
/Times-Roman exch definefont pop
/Times-Italic findfont
dup length dict begin
  {1 index /FID ne {def} {pop pop} ifelse} forall
  /Encoding WinAnsiEncoding def
  currentdict
end
/Times-Italic exch definefont pop
/Times-Bold findfont
dup length dict begin
  {1 index /FID ne {def} {pop pop} ifelse} forall
  /Encoding WinAnsiEncoding def
  currentdict
end
/Times-Bold exch definefont pop
/Times-BoldItalic findfont
dup length dict begin
  {1 index /FID ne {def} {pop pop} ifelse} forall
  /Encoding WinAnsiEncoding def
  currentdict
end
/Times-BoldItalic exch definefont pop
/Courier findfont
dup length dict begin
  {1 index /FID ne {def} {pop pop} ifelse} forall
  /Encoding WinAnsiEncoding def
  currentdict
end
/Courier exch definefont pop
%FOPEndFontReencode
%%EndProlog
%%Page: 1 1
%%PageBoundingBox: 0 0 1120 840
%%BeginPageSetup
[1 0 0 -1 0 840] CT
%%EndPageSetup
GS
1 GC
N
0 0 1120 840 re
f
GR
GS
1 GC
N
73 374 M
507 374 L
507 31.5 L
73 31.5 L
cp
f
GR
GS
0.149 GC
2 setlinecap
1 LJ
0.5 LW
N
73 374 M
507 374 L
S
GR
GS
0.149 GC
2 setlinecap
1 LJ
0.5 LW
N
73 31.5 M
507 31.5 L
S
GR
GS
0.149 GC
2 setlinecap
1 LJ
0.5 LW
N
99.876 374 M
99.876 369.66 L
S
GR
GS
0.149 GC
2 setlinecap
1 LJ
0.5 LW
N
148.476 374 M
148.476 369.66 L
S
GR
GS
0.149 GC
2 setlinecap
1 LJ
0.5 LW
N
197.075 374 M
197.075 369.66 L
S
GR
GS
0.149 GC
2 setlinecap
1 LJ
0.5 LW
N
245.675 374 M
245.675 369.66 L
S
GR
GS
0.149 GC
2 setlinecap
1 LJ
0.5 LW
N
294.275 374 M
294.275 369.66 L
S
GR
GS
0.149 GC
2 setlinecap
1 LJ
0.5 LW
N
342.875 374 M
342.875 369.66 L
S
GR
GS
0.149 GC
2 setlinecap
1 LJ
0.5 LW
N
391.474 374 M
391.474 369.66 L
S
GR
GS
0.149 GC
2 setlinecap
1 LJ
0.5 LW
N
440.074 374 M
440.074 369.66 L
S
GR
GS
0.149 GC
2 setlinecap
1 LJ
0.5 LW
N
488.674 374 M
488.674 369.66 L
S
GR
GS
0.149 GC
2 setlinecap
1 LJ
0.5 LW
N
99.876 31.5 M
99.876 35.84 L
S
GR
GS
0.149 GC
2 setlinecap
1 LJ
0.5 LW
N
148.476 31.5 M
148.476 35.84 L
S
GR
GS
0.149 GC
2 setlinecap
1 LJ
0.5 LW
N
197.075 31.5 M
197.075 35.84 L
S
GR
GS
0.149 GC
2 setlinecap
1 LJ
0.5 LW
N
245.675 31.5 M
245.675 35.84 L
S
GR
GS
0.149 GC
2 setlinecap
1 LJ
0.5 LW
N
294.275 31.5 M
294.275 35.84 L
S
GR
GS
0.149 GC
2 setlinecap
1 LJ
0.5 LW
N
342.875 31.5 M
342.875 35.84 L
S
GR
GS
0.149 GC
2 setlinecap
1 LJ
0.5 LW
N
391.474 31.5 M
391.474 35.84 L
S
GR
GS
0.149 GC
2 setlinecap
1 LJ
0.5 LW
N
440.074 31.5 M
440.074 35.84 L
S
GR
GS
0.149 GC
2 setlinecap
1 LJ
0.5 LW
N
488.674 31.5 M
488.674 35.84 L
S
GR
GS
0.149 GC
2 setlinecap
1 LJ
0.5 LW
N
80.436 374 M
80.436 371.83 L
S
GR
GS
0.149 GC
2 setlinecap
1 LJ
0.5 LW
N
90.156 374 M
90.156 371.83 L
S
GR
GS
0.149 GC
2 setlinecap
1 LJ
0.5 LW
N
109.596 374 M
109.596 371.83 L
S
GR
GS
0.149 GC
2 setlinecap
1 LJ
0.5 LW
N
119.316 374 M
119.316 371.83 L
S
GR
GS
0.149 GC
2 setlinecap
1 LJ
0.5 LW
N
129.036 374 M
129.036 371.83 L
S
GR
GS
0.149 GC
2 setlinecap
1 LJ
0.5 LW
N
138.756 374 M
138.756 371.83 L
S
GR
GS
0.149 GC
2 setlinecap
1 LJ
0.5 LW
N
158.196 374 M
158.196 371.83 L
S
GR
GS
0.149 GC
2 setlinecap
1 LJ
0.5 LW
N
167.916 374 M
167.916 371.83 L
S
GR
GS
0.149 GC
2 setlinecap
1 LJ
0.5 LW
N
177.636 374 M
177.636 371.83 L
S
GR
GS
0.149 GC
2 setlinecap
1 LJ
0.5 LW
N
187.355 374 M
187.355 371.83 L
S
GR
GS
0.149 GC
2 setlinecap
1 LJ
0.5 LW
N
206.795 374 M
206.795 371.83 L
S
GR
GS
0.149 GC
2 setlinecap
1 LJ
0.5 LW
N
216.515 374 M
216.515 371.83 L
S
GR
GS
0.149 GC
2 setlinecap
1 LJ
0.5 LW
N
226.235 374 M
226.235 371.83 L
S
GR
GS
0.149 GC
2 setlinecap
1 LJ
0.5 LW
N
235.955 374 M
235.955 371.83 L
S
GR
GS
0.149 GC
2 setlinecap
1 LJ
0.5 LW
N
255.395 374 M
255.395 371.83 L
S
GR
GS
0.149 GC
2 setlinecap
1 LJ
0.5 LW
N
265.115 374 M
265.115 371.83 L
S
GR
GS
0.149 GC
2 setlinecap
1 LJ
0.5 LW
N
274.835 374 M
274.835 371.83 L
S
GR
GS
0.149 GC
2 setlinecap
1 LJ
0.5 LW
N
284.555 374 M
284.555 371.83 L
S
GR
GS
0.149 GC
2 setlinecap
1 LJ
0.5 LW
N
303.995 374 M
303.995 371.83 L
S
GR
GS
0.149 GC
2 setlinecap
1 LJ
0.5 LW
N
313.715 374 M
313.715 371.83 L
S
GR
GS
0.149 GC
2 setlinecap
1 LJ
0.5 LW
N
323.435 374 M
323.435 371.83 L
S
GR
GS
0.149 GC
2 setlinecap
1 LJ
0.5 LW
N
333.155 374 M
333.155 371.83 L
S
GR
GS
0.149 GC
2 setlinecap
1 LJ
0.5 LW
N
352.594 374 M
352.594 371.83 L
S
GR
GS
0.149 GC
2 setlinecap
1 LJ
0.5 LW
N
362.314 374 M
362.314 371.83 L
S
GR
GS
0.149 GC
2 setlinecap
1 LJ
0.5 LW
N
372.034 374 M
372.034 371.83 L
S
GR
GS
0.149 GC
2 setlinecap
1 LJ
0.5 LW
N
381.754 374 M
381.754 371.83 L
S
GR
GS
0.149 GC
2 setlinecap
1 LJ
0.5 LW
N
401.194 374 M
401.194 371.83 L
S
GR
GS
0.149 GC
2 setlinecap
1 LJ
0.5 LW
N
410.914 374 M
410.914 371.83 L
S
GR
GS
0.149 GC
2 setlinecap
1 LJ
0.5 LW
N
420.634 374 M
420.634 371.83 L
S
GR
GS
0.149 GC
2 setlinecap
1 LJ
0.5 LW
N
430.354 374 M
430.354 371.83 L
S
GR
GS
0.149 GC
2 setlinecap
1 LJ
0.5 LW
N
449.794 374 M
449.794 371.83 L
S
GR
GS
0.149 GC
2 setlinecap
1 LJ
0.5 LW
N
459.514 374 M
459.514 371.83 L
S
GR
GS
0.149 GC
2 setlinecap
1 LJ
0.5 LW
N
469.234 374 M
469.234 371.83 L
S
GR
GS
0.149 GC
2 setlinecap
1 LJ
0.5 LW
N
478.954 374 M
478.954 371.83 L
S
GR
GS
0.149 GC
2 setlinecap
1 LJ
0.5 LW
N
498.394 374 M
498.394 371.83 L
S
GR
GS
0.149 GC
2 setlinecap
1 LJ
0.5 LW
N
80.436 31.5 M
80.436 33.67 L
S
GR
GS
0.149 GC
2 setlinecap
1 LJ
0.5 LW
N
90.156 31.5 M
90.156 33.67 L
S
GR
GS
0.149 GC
2 setlinecap
1 LJ
0.5 LW
N
109.596 31.5 M
109.596 33.67 L
S
GR
GS
0.149 GC
2 setlinecap
1 LJ
0.5 LW
N
119.316 31.5 M
119.316 33.67 L
S
GR
GS
0.149 GC
2 setlinecap
1 LJ
0.5 LW
N
129.036 31.5 M
129.036 33.67 L
S
GR
GS
0.149 GC
2 setlinecap
1 LJ
0.5 LW
N
138.756 31.5 M
138.756 33.67 L
S
GR
GS
0.149 GC
2 setlinecap
1 LJ
0.5 LW
N
158.196 31.5 M
158.196 33.67 L
S
GR
GS
0.149 GC
2 setlinecap
1 LJ
0.5 LW
N
167.916 31.5 M
167.916 33.67 L
S
GR
GS
0.149 GC
2 setlinecap
1 LJ
0.5 LW
N
177.636 31.5 M
177.636 33.67 L
S
GR
GS
0.149 GC
2 setlinecap
1 LJ
0.5 LW
N
187.355 31.5 M
187.355 33.67 L
S
GR
GS
0.149 GC
2 setlinecap
1 LJ
0.5 LW
N
206.795 31.5 M
206.795 33.67 L
S
GR
GS
0.149 GC
2 setlinecap
1 LJ
0.5 LW
N
216.515 31.5 M
216.515 33.67 L
S
GR
GS
0.149 GC
2 setlinecap
1 LJ
0.5 LW
N
226.235 31.5 M
226.235 33.67 L
S
GR
GS
0.149 GC
2 setlinecap
1 LJ
0.5 LW
N
235.955 31.5 M
235.955 33.67 L
S
GR
GS
0.149 GC
2 setlinecap
1 LJ
0.5 LW
N
255.395 31.5 M
255.395 33.67 L
S
GR
GS
0.149 GC
2 setlinecap
1 LJ
0.5 LW
N
265.115 31.5 M
265.115 33.67 L
S
GR
GS
0.149 GC
2 setlinecap
1 LJ
0.5 LW
N
274.835 31.5 M
274.835 33.67 L
S
GR
GS
0.149 GC
2 setlinecap
1 LJ
0.5 LW
N
284.555 31.5 M
284.555 33.67 L
S
GR
GS
0.149 GC
2 setlinecap
1 LJ
0.5 LW
N
303.995 31.5 M
303.995 33.67 L
S
GR
GS
0.149 GC
2 setlinecap
1 LJ
0.5 LW
N
313.715 31.5 M
313.715 33.67 L
S
GR
GS
0.149 GC
2 setlinecap
1 LJ
0.5 LW
N
323.435 31.5 M
323.435 33.67 L
S
GR
GS
0.149 GC
2 setlinecap
1 LJ
0.5 LW
N
333.155 31.5 M
333.155 33.67 L
S
GR
GS
0.149 GC
2 setlinecap
1 LJ
0.5 LW
N
352.594 31.5 M
352.594 33.67 L
S
GR
GS
0.149 GC
2 setlinecap
1 LJ
0.5 LW
N
362.314 31.5 M
362.314 33.67 L
S
GR
GS
0.149 GC
2 setlinecap
1 LJ
0.5 LW
N
372.034 31.5 M
372.034 33.67 L
S
GR
GS
0.149 GC
2 setlinecap
1 LJ
0.5 LW
N
381.754 31.5 M
381.754 33.67 L
S
GR
GS
0.149 GC
2 setlinecap
1 LJ
0.5 LW
N
401.194 31.5 M
401.194 33.67 L
S
GR
GS
0.149 GC
2 setlinecap
1 LJ
0.5 LW
N
410.914 31.5 M
410.914 33.67 L
S
GR
GS
0.149 GC
2 setlinecap
1 LJ
0.5 LW
N
420.634 31.5 M
420.634 33.67 L
S
GR
GS
0.149 GC
2 setlinecap
1 LJ
0.5 LW
N
430.354 31.5 M
430.354 33.67 L
S
GR
GS
0.149 GC
2 setlinecap
1 LJ
0.5 LW
N
449.794 31.5 M
449.794 33.67 L
S
GR
GS
0.149 GC
2 setlinecap
1 LJ
0.5 LW
N
459.514 31.5 M
459.514 33.67 L
S
GR
GS
0.149 GC
2 setlinecap
1 LJ
0.5 LW
N
469.234 31.5 M
469.234 33.67 L
S
GR
GS
0.149 GC
2 setlinecap
1 LJ
0.5 LW
N
478.954 31.5 M
478.954 33.67 L
S
GR
GS
0.149 GC
2 setlinecap
1 LJ
0.5 LW
N
498.394 31.5 M
498.394 33.67 L
S
GR
GS
[1 0 0 1 99.87601 378.80005] CT
0.149 GC
/Helvetica 14 F
GS
[1 0 0 1 0 0] CT
-16 14 moveto 
1 -1 scale
(1000) t 
GR
GR
GS
[1 0 0 1 148.47571 378.80005] CT
0.149 GC
/Helvetica 14 F
GS
[1 0 0 1 0 0] CT
-16 14 moveto 
1 -1 scale
(2000) t 
GR
GR
GS
[1 0 0 1 197.07542 378.80005] CT
0.149 GC
/Helvetica 14 F
GS
[1 0 0 1 0 0] CT
-16 14 moveto 
1 -1 scale
(3000) t 
GR
GR
GS
[1 0 0 1 245.67513 378.80005] CT
0.149 GC
/Helvetica 14 F
GS
[1 0 0 1 0 0] CT
-16 14 moveto 
1 -1 scale
(4000) t 
GR
GR
GS
[1 0 0 1 294.27484 378.80005] CT
0.149 GC
/Helvetica 14 F
GS
[1 0 0 1 0 0] CT
-16 14 moveto 
1 -1 scale
(5000) t 
GR
GR
GS
[1 0 0 1 342.87454 378.80005] CT
0.149 GC
/Helvetica 14 F
GS
[1 0 0 1 0 0] CT
-16 14 moveto 
1 -1 scale
(6000) t 
GR
GR
GS
[1 0 0 1 391.47424 378.80005] CT
0.149 GC
/Helvetica 14 F
GS
[1 0 0 1 0 0] CT
-16 14 moveto 
1 -1 scale
(7000) t 
GR
GR
GS
[1 0 0 1 440.07394 378.80005] CT
0.149 GC
/Helvetica 14 F
GS
[1 0 0 1 0 0] CT
-16 14 moveto 
1 -1 scale
(8000) t 
GR
GR
GS
[1 0 0 1 488.67365 378.80005] CT
0.149 GC
/Helvetica 14 F
GS
[1 0 0 1 0 0] CT
-16 14 moveto 
1 -1 scale
(9000) t 
GR
GR
GS
[1 0 0 1 290.00021 396.29993] CT
0.149 GC
/Helvetica 15.4 F
GS
[1 0 0 1 0 0] CT
-42 15 moveto 
1 -1 scale
(Bitrate\(kb/s\)) t 
GR
GR
GS
0.149 GC
2 setlinecap
1 LJ
0.5 LW
N
73 374 M
73 31.5 L
S
GR
GS
0.149 GC
2 setlinecap
1 LJ
0.5 LW
N
507 374 M
507 31.5 L
S
GR
GS
0.149 GC
2 setlinecap
1 LJ
0.5 LW
N
73 340.234 M
77.34 340.234 L
S
GR
GS
0.149 GC
2 setlinecap
1 LJ
0.5 LW
N
73 290.356 M
77.34 290.356 L
S
GR
GS
0.149 GC
2 setlinecap
1 LJ
0.5 LW
N
73 240.479 M
77.34 240.479 L
S
GR
GS
0.149 GC
2 setlinecap
1 LJ
0.5 LW
N
73 190.601 M
77.34 190.601 L
S
GR
GS
0.149 GC
2 setlinecap
1 LJ
0.5 LW
N
73 140.723 M
77.34 140.723 L
S
GR
GS
0.149 GC
2 setlinecap
1 LJ
0.5 LW
N
73 90.846 M
77.34 90.846 L
S
GR
GS
0.149 GC
2 setlinecap
1 LJ
0.5 LW
N
73 40.968 M
77.34 40.968 L
S
GR
GS
0.149 GC
2 setlinecap
1 LJ
0.5 LW
N
507 340.234 M
502.66 340.234 L
S
GR
GS
0.149 GC
2 setlinecap
1 LJ
0.5 LW
N
507 290.356 M
502.66 290.356 L
S
GR
GS
0.149 GC
2 setlinecap
1 LJ
0.5 LW
N
507 240.479 M
502.66 240.479 L
S
GR
GS
0.149 GC
2 setlinecap
1 LJ
0.5 LW
N
507 190.601 M
502.66 190.601 L
S
GR
GS
0.149 GC
2 setlinecap
1 LJ
0.5 LW
N
507 140.723 M
502.66 140.723 L
S
GR
GS
0.149 GC
2 setlinecap
1 LJ
0.5 LW
N
507 90.846 M
502.66 90.846 L
S
GR
GS
0.149 GC
2 setlinecap
1 LJ
0.5 LW
N
507 40.968 M
502.66 40.968 L
S
GR
GS
0.149 GC
2 setlinecap
1 LJ
0.5 LW
N
73 370.16 M
75.17 370.16 L
S
GR
GS
0.149 GC
2 setlinecap
1 LJ
0.5 LW
N
73 360.185 M
75.17 360.185 L
S
GR
GS
0.149 GC
2 setlinecap
1 LJ
0.5 LW
N
73 350.209 M
75.17 350.209 L
S
GR
GS
0.149 GC
2 setlinecap
1 LJ
0.5 LW
N
73 330.258 M
75.17 330.258 L
S
GR
GS
0.149 GC
2 setlinecap
1 LJ
0.5 LW
N
73 320.282 M
75.17 320.282 L
S
GR
GS
0.149 GC
2 setlinecap
1 LJ
0.5 LW
N
73 310.307 M
75.17 310.307 L
S
GR
GS
0.149 GC
2 setlinecap
1 LJ
0.5 LW
N
73 300.332 M
75.17 300.332 L
S
GR
GS
0.149 GC
2 setlinecap
1 LJ
0.5 LW
N
73 280.38 M
75.17 280.38 L
S
GR
GS
0.149 GC
2 setlinecap
1 LJ
0.5 LW
N
73 270.405 M
75.17 270.405 L
S
GR
GS
0.149 GC
2 setlinecap
1 LJ
0.5 LW
N
73 260.43 M
75.17 260.43 L
S
GR
GS
0.149 GC
2 setlinecap
1 LJ
0.5 LW
N
73 250.454 M
75.17 250.454 L
S
GR
GS
0.149 GC
2 setlinecap
1 LJ
0.5 LW
N
73 230.503 M
75.17 230.503 L
S
GR
GS
0.149 GC
2 setlinecap
1 LJ
0.5 LW
N
73 220.527 M
75.17 220.527 L
S
GR
GS
0.149 GC
2 setlinecap
1 LJ
0.5 LW
N
73 210.552 M
75.17 210.552 L
S
GR
GS
0.149 GC
2 setlinecap
1 LJ
0.5 LW
N
73 200.577 M
75.17 200.577 L
S
GR
GS
0.149 GC
2 setlinecap
1 LJ
0.5 LW
N
73 180.625 M
75.17 180.625 L
S
GR
GS
0.149 GC
2 setlinecap
1 LJ
0.5 LW
N
73 170.65 M
75.17 170.65 L
S
GR
GS
0.149 GC
2 setlinecap
1 LJ
0.5 LW
N
73 160.675 M
75.17 160.675 L
S
GR
GS
0.149 GC
2 setlinecap
1 LJ
0.5 LW
N
73 150.699 M
75.17 150.699 L
S
GR
GS
0.149 GC
2 setlinecap
1 LJ
0.5 LW
N
73 130.748 M
75.17 130.748 L
S
GR
GS
0.149 GC
2 setlinecap
1 LJ
0.5 LW
N
73 120.772 M
75.17 120.772 L
S
GR
GS
0.149 GC
2 setlinecap
1 LJ
0.5 LW
N
73 110.797 M
75.17 110.797 L
S
GR
GS
0.149 GC
2 setlinecap
1 LJ
0.5 LW
N
73 100.821 M
75.17 100.821 L
S
GR
GS
0.149 GC
2 setlinecap
1 LJ
0.5 LW
N
73 80.87 M
75.17 80.87 L
S
GR
GS
0.149 GC
2 setlinecap
1 LJ
0.5 LW
N
73 70.895 M
75.17 70.895 L
S
GR
GS
0.149 GC
2 setlinecap
1 LJ
0.5 LW
N
73 60.919 M
75.17 60.919 L
S
GR
GS
0.149 GC
2 setlinecap
1 LJ
0.5 LW
N
73 50.944 M
75.17 50.944 L
S
GR
GS
0.149 GC
2 setlinecap
1 LJ
0.5 LW
N
507 370.16 M
504.83 370.16 L
S
GR
GS
0.149 GC
2 setlinecap
1 LJ
0.5 LW
N
507 360.185 M
504.83 360.185 L
S
GR
GS
0.149 GC
2 setlinecap
1 LJ
0.5 LW
N
507 350.209 M
504.83 350.209 L
S
GR
GS
0.149 GC
2 setlinecap
1 LJ
0.5 LW
N
507 330.258 M
504.83 330.258 L
S
GR
GS
0.149 GC
2 setlinecap
1 LJ
0.5 LW
N
507 320.282 M
504.83 320.282 L
S
GR
GS
0.149 GC
2 setlinecap
1 LJ
0.5 LW
N
507 310.307 M
504.83 310.307 L
S
GR
GS
0.149 GC
2 setlinecap
1 LJ
0.5 LW
N
507 300.332 M
504.83 300.332 L
S
GR
GS
0.149 GC
2 setlinecap
1 LJ
0.5 LW
N
507 280.38 M
504.83 280.38 L
S
GR
GS
0.149 GC
2 setlinecap
1 LJ
0.5 LW
N
507 270.405 M
504.83 270.405 L
S
GR
GS
0.149 GC
2 setlinecap
1 LJ
0.5 LW
N
507 260.43 M
504.83 260.43 L
S
GR
GS
0.149 GC
2 setlinecap
1 LJ
0.5 LW
N
507 250.454 M
504.83 250.454 L
S
GR
GS
0.149 GC
2 setlinecap
1 LJ
0.5 LW
N
507 230.503 M
504.83 230.503 L
S
GR
GS
0.149 GC
2 setlinecap
1 LJ
0.5 LW
N
507 220.527 M
504.83 220.527 L
S
GR
GS
0.149 GC
2 setlinecap
1 LJ
0.5 LW
N
507 210.552 M
504.83 210.552 L
S
GR
GS
0.149 GC
2 setlinecap
1 LJ
0.5 LW
N
507 200.577 M
504.83 200.577 L
S
GR
GS
0.149 GC
2 setlinecap
1 LJ
0.5 LW
N
507 180.625 M
504.83 180.625 L
S
GR
GS
0.149 GC
2 setlinecap
1 LJ
0.5 LW
N
507 170.65 M
504.83 170.65 L
S
GR
GS
0.149 GC
2 setlinecap
1 LJ
0.5 LW
N
507 160.675 M
504.83 160.675 L
S
GR
GS
0.149 GC
2 setlinecap
1 LJ
0.5 LW
N
507 150.699 M
504.83 150.699 L
S
GR
GS
0.149 GC
2 setlinecap
1 LJ
0.5 LW
N
507 130.748 M
504.83 130.748 L
S
GR
GS
0.149 GC
2 setlinecap
1 LJ
0.5 LW
N
507 120.772 M
504.83 120.772 L
S
GR
GS
0.149 GC
2 setlinecap
1 LJ
0.5 LW
N
507 110.797 M
504.83 110.797 L
S
GR
GS
0.149 GC
2 setlinecap
1 LJ
0.5 LW
N
507 100.821 M
504.83 100.821 L
S
GR
GS
0.149 GC
2 setlinecap
1 LJ
0.5 LW
N
507 80.87 M
504.83 80.87 L
S
GR
GS
0.149 GC
2 setlinecap
1 LJ
0.5 LW
N
507 70.895 M
504.83 70.895 L
S
GR
GS
0.149 GC
2 setlinecap
1 LJ
0.5 LW
N
507 60.919 M
504.83 60.919 L
S
GR
GS
0.149 GC
2 setlinecap
1 LJ
0.5 LW
N
507 50.944 M
504.83 50.944 L
S
GR
GS
[1 0 0 1 68.2 340.23355] CT
0.149 GC
/Helvetica 14 F
GS
[1 0 0 1 0 0] CT
-16 5.5 moveto 
1 -1 scale
(42) t 
GR
GR
GS
[1 0 0 1 68.2 290.35602] CT
0.149 GC
/Helvetica 14 F
GS
[1 0 0 1 0 0] CT
-16 5.5 moveto 
1 -1 scale
(43) t 
GR
GR
GS
[1 0 0 1 68.2 240.4785] CT
0.149 GC
/Helvetica 14 F
GS
[1 0 0 1 0 0] CT
-16 5.5 moveto 
1 -1 scale
(44) t 
GR
GR
GS
[1 0 0 1 68.2 190.60097] CT
0.149 GC
/Helvetica 14 F
GS
[1 0 0 1 0 0] CT
-16 5.5 moveto 
1 -1 scale
(45) t 
GR
GR
GS
[1 0 0 1 68.2 140.72343] CT
0.149 GC
/Helvetica 14 F
GS
[1 0 0 1 0 0] CT
-16 5.5 moveto 
1 -1 scale
(46) t 
GR
GR
GS
[1 0 0 1 68.2 90.84589] CT
0.149 GC
/Helvetica 14 F
GS
[1 0 0 1 0 0] CT
-16 5.5 moveto 
1 -1 scale
(47) t 
GR
GR
GS
[1 0 0 1 68.2 40.96836] CT
0.149 GC
/Helvetica 14 F
GS
[1 0 0 1 0 0] CT
-16 5.5 moveto 
1 -1 scale
(48) t 
GR
GR
GS
[0 -1 1 0 49.2 202.74994] CT
0.149 GC
/Helvetica 15.4 F
GS
[1 0 0 1 0 0] CT
-42.5 -4 moveto 
1 -1 scale
(PSNR U\(dB\)) t 
GR
GR
GS
[1 0 0 1 290.00027 29.57513] CT
/Helvetica-Bold 15.4 F
GS
[1 0 0 1 0 0] CT
-136 -4 moveto 
1 -1 scale
(TelevisionClip_1080P-39e3.y4m-hevc) t 
GR
GR
GS
0 0.447 0.741 RC
1 LJ
0.5 LW
N
74.009 364.326 M
74.981 361.632 L
75.953 358.948 L
76.925 356.277 L
77.897 353.62 L
78.869 350.978 L
79.841 348.353 L
80.813 345.746 L
81.785 343.16 L
82.757 340.595 L
83.729 338.053 L
84.701 335.535 L
85.673 333.044 L
86.645 330.58 L
87.617 328.145 L
88.589 325.74 L
89.561 323.368 L
90.533 321.03 L
91.505 318.726 L
92.477 316.46 L
93.449 314.231 L
94.421 312.043 L
95.393 309.895 L
96.365 307.79 L
97.337 305.73 L
98.309 303.704 L
99.281 301.689 L
100.253 299.683 L
101.225 297.687 L
102.197 295.701 L
103.169 293.726 L
104.141 291.761 L
105.113 289.808 L
106.085 287.867 L
107.057 285.938 L
108.029 284.022 L
109.001 282.12 L
109.973 280.23 L
110.945 278.355 L
111.917 276.494 L
112.889 274.648 L
113.861 272.818 L
114.833 271.003 L
115.805 269.204 L
116.777 267.422 L
117.749 265.657 L
118.721 263.909 L
119.693 262.179 L
120.665 260.468 L
121.637 258.775 L
122.609 257.102 L
123.581 255.448 L
124.553 253.814 L
125.525 252.2 L
126.497 250.608 L
127.469 249.037 L
128.441 247.487 L
129.413 245.96 L
130.385 244.455 L
131.357 242.973 L
132.329 241.515 L
133.3 240.08 L
134.272 238.67 L
135.244 237.285 L
136.216 235.924 L
137.188 234.59 L
138.16 233.281 L
139.132 231.999 L
140.104 230.744 L
141.076 229.516 L
142.048 228.316 L
143.02 227.138 L
143.992 225.969 L
144.964 224.807 L
145.936 223.654 L
146.908 222.508 L
147.88 221.37 L
148.852 220.239 L
149.824 219.116 L
150.796 218.001 L
151.768 216.893 L
152.74 215.793 L
153.712 214.7 L
154.684 213.615 L
155.656 212.537 L
156.628 211.466 L
157.6 210.402 L
158.572 209.347 L
159.544 208.298 L
160.516 207.256 L
161.488 206.222 L
162.46 205.195 L
163.432 204.175 L
164.404 203.162 L
165.376 202.156 L
166.348 201.157 L
167.32 200.166 L
168.292 199.181 L
169.264 198.203 L
170.236 197.231 L
171.208 196.267 L
172.18 195.31 L
173.152 194.359 L
174.124 193.415 L
175.096 192.478 L
176.068 191.548 L
177.04 190.624 L
178.012 189.707 L
178.984 188.796 L
179.956 187.892 L
180.928 186.994 L
181.9 186.103 L
182.872 185.218 L
183.844 184.34 L
184.816 183.468 L
185.788 182.602 L
186.76 181.743 L
187.732 180.89 L
188.704 180.043 L
189.676 179.202 L
190.648 178.368 L
191.62 177.54 L
192.592 176.717 L
193.564 175.901 L
194.536 175.091 L
195.508 174.287 L
196.48 173.488 L
197.452 172.696 L
198.424 171.91 L
199.396 171.129 L
200.368 170.354 L
201.34 169.585 L
202.312 168.822 L
203.284 168.064 L
204.256 167.313 L
205.228 166.566 L
206.2 165.826 L
207.172 165.091 L
208.144 164.361 L
209.116 163.637 L
210.088 162.919 L
211.06 162.205 L
212.032 161.498 L
213.004 160.795 L
213.976 160.098 L
214.948 159.406 L
215.92 158.72 L
216.892 158.039 L
217.864 157.363 L
218.836 156.692 L
219.808 156.026 L
220.78 155.365 L
221.752 154.71 L
222.724 154.059 L
223.696 153.413 L
224.668 152.773 L
225.64 152.137 L
226.612 151.506 L
227.584 150.88 L
228.556 150.258 L
229.528 149.642 L
230.5 149.03 L
231.472 148.423 L
232.444 147.821 L
233.416 147.223 L
234.388 146.63 L
235.36 146.041 L
236.332 145.455 L
237.304 144.868 L
238.276 144.281 L
239.248 143.695 L
240.22 143.109 L
241.192 142.523 L
242.164 141.938 L
243.136 141.353 L
244.108 140.768 L
245.08 140.183 L
246.052 139.599 L
247.024 139.015 L
247.996 138.431 L
248.968 137.848 L
249.94 137.265 L
250.912 136.682 L
251.884 136.1 L
252.856 135.518 L
253.828 134.937 L
254.8 134.356 L
255.772 133.775 L
256.744 133.195 L
257.716 132.616 L
258.688 132.037 L
259.66 131.458 L
260.632 130.88 L
261.604 130.302 L
262.576 129.725 L
263.548 129.149 L
264.52 128.573 L
265.492 127.998 L
266.464 127.423 L
267.436 126.848 L
268.408 126.275 L
269.38 125.702 L
270.352 125.129 L
271.324 124.558 L
272.296 123.987 L
273.268 123.416 L
274.24 122.846 L
275.212 122.277 L
276.184 121.709 L
277.156 121.141 L
278.128 120.574 L
279.1 120.008 L
280.072 119.443 L
281.044 118.878 L
282.016 118.314 L
282.988 117.751 L
283.96 117.189 L
284.932 116.628 L
285.904 116.067 L
286.876 115.507 L
287.848 114.948 L
288.82 114.39 L
289.792 113.833 L
290.764 113.277 L
291.736 112.721 L
292.708 112.167 L
293.68 111.613 L
294.652 111.061 L
295.624 110.509 L
296.596 109.958 L
297.568 109.409 L
298.539 108.86 L
299.512 108.312 L
300.483 107.766 L
301.455 107.22 L
302.427 106.676 L
303.399 106.132 L
304.371 105.59 L
305.343 105.048 L
306.315 104.508 L
307.287 103.969 L
308.259 103.431 L
309.231 102.894 L
310.203 102.358 L
311.175 101.823 L
312.147 101.29 L
313.119 100.758 L
314.091 100.227 L
315.063 99.697 L
316.035 99.168 L
317.007 98.641 L
317.979 98.115 L
318.951 97.59 L
319.923 97.066 L
320.895 96.544 L
321.867 96.023 L
322.839 95.503 L
323.811 94.984 L
324.783 94.467 L
325.755 93.952 L
326.727 93.437 L
327.699 92.924 L
328.671 92.413 L
329.643 91.902 L
330.615 91.393 L
331.587 90.886 L
332.559 90.38 L
333.531 89.876 L
334.503 89.373 L
335.475 88.871 L
336.447 88.371 L
337.419 87.872 L
338.391 87.375 L
339.363 86.88 L
340.335 86.386 L
341.307 85.893 L
342.279 85.402 L
343.251 84.913 L
344.223 84.425 L
345.195 83.939 L
346.167 83.455 L
347.139 82.972 L
348.111 82.49 L
349.083 82.011 L
350.055 81.533 L
351.027 81.056 L
351.999 80.582 L
352.971 80.109 L
353.943 79.638 L
354.915 79.168 L
355.887 78.7 L
356.859 78.234 L
357.831 77.77 L
358.803 77.308 L
359.775 76.847 L
360.747 76.388 L
361.719 75.931 L
362.691 75.476 L
363.663 75.022 L
364.635 74.571 L
365.607 74.121 L
366.579 73.673 L
367.551 73.228 L
368.523 72.784 L
369.495 72.341 L
370.467 71.901 L
371.439 71.463 L
372.411 71.027 L
373.383 70.592 L
374.355 70.16 L
375.327 69.73 L
376.299 69.302 L
377.271 68.875 L
378.243 68.451 L
379.215 68.028 L
380.187 67.608 L
381.159 67.19 L
382.131 66.774 L
383.103 66.36 L
384.075 65.948 L
385.047 65.538 L
386.019 65.131 L
386.991 64.725 L
387.963 64.322 L
388.935 63.921 L
389.907 63.522 L
390.879 63.125 L
391.851 62.73 L
392.823 62.338 L
393.795 61.948 L
394.767 61.56 L
395.739 61.174 L
396.711 60.791 L
397.683 60.41 L
398.655 60.031 L
399.627 59.654 L
400.599 59.28 L
401.571 58.908 L
402.543 58.539 L
403.515 58.171 L
404.487 57.807 L
405.459 57.444 L
406.431 57.084 L
407.403 56.727 L
408.375 56.371 L
409.347 56.019 L
410.319 55.668 L
411.291 55.32 L
412.263 54.975 L
413.235 54.632 L
414.207 54.291 L
415.179 53.954 L
416.151 53.618 L
417.123 53.285 L
418.095 52.955 L
419.067 52.627 L
420.039 52.302 L
421.011 51.979 L
421.983 51.659 L
422.955 51.342 L
423.927 51.027 L
424.899 50.715 L
425.871 50.405 L
426.843 50.098 L
427.815 49.794 L
428.787 49.492 L
429.759 49.194 L
430.731 48.897 L
431.703 48.604 L
432.675 48.313 L
433.647 48.025 L
434.619 47.74 L
435.591 47.458 L
436.563 47.178 L
437.535 46.901 L
438.507 46.627 L
439.479 46.356 L
440.451 46.088 L
441.423 45.822 L
442.395 45.56 L
443.367 45.3 L
444.339 45.043 L
445.311 44.789 L
446.283 44.538 L
447.255 44.289 L
448.227 44.044 L
449.199 43.802 L
450.171 43.562 L
451.143 43.326 L
452.115 43.093 L
453.087 42.862 L
454.059 42.635 L
455.031 42.411 L
456.003 42.189 L
456.975 41.971 L
457.947 41.756 L
458.919 41.544 L
459.891 41.335 L
460.863 41.129 L
461.835 40.926 L
462.807 40.726 L
463.779 40.529 L
464.75 40.336 L
465.722 40.146 L
466.694 39.959 L
467.666 39.775 L
468.638 39.594 L
469.61 39.417 L
470.582 39.242 L
471.554 39.071 L
472.526 38.903 L
473.498 38.739 L
474.47 38.577 L
475.442 38.42 L
476.414 38.265 L
477.386 38.113 L
478.358 37.965 L
479.33 37.821 L
480.302 37.679 L
481.274 37.541 L
482.246 37.407 L
483.218 37.275 L
484.19 37.148 L
485.162 37.023 L
486.134 36.902 L
487.106 36.785 L
488.078 36.671 L
489.05 36.56 L
490.022 36.453 L
490.994 36.349 L
491.966 36.249 L
492.938 36.152 L
493.91 36.059 L
494.882 35.969 L
495.854 35.883 L
496.826 35.801 L
S
GR
GS
0.851 0.325 0.098 RC
1 LJ
0.5 LW
N
73.782 366.561 M
74.754 363.914 L
75.726 361.278 L
76.698 358.654 L
77.67 356.043 L
78.642 353.446 L
79.614 350.865 L
80.586 348.301 L
81.558 345.756 L
82.53 343.231 L
83.502 340.728 L
84.474 338.247 L
85.446 335.79 L
86.418 333.359 L
87.39 330.955 L
88.362 328.579 L
89.334 326.232 L
90.306 323.916 L
91.278 321.633 L
92.25 319.383 L
93.222 317.169 L
94.194 314.991 L
95.166 312.851 L
96.138 310.749 L
97.11 308.689 L
98.082 306.654 L
99.054 304.627 L
100.026 302.607 L
100.998 300.594 L
101.97 298.591 L
102.942 296.596 L
103.914 294.61 L
104.886 292.635 L
105.858 290.67 L
106.83 288.716 L
107.802 286.773 L
108.774 284.843 L
109.746 282.925 L
110.718 281.02 L
111.69 279.129 L
112.662 277.252 L
113.634 275.389 L
114.606 273.542 L
115.578 271.71 L
116.55 269.895 L
117.522 268.096 L
118.494 266.314 L
119.466 264.55 L
120.438 262.804 L
121.409 261.077 L
122.381 259.37 L
123.353 257.682 L
124.325 256.014 L
125.297 254.367 L
126.269 252.741 L
127.241 251.138 L
128.213 249.556 L
129.185 247.998 L
130.157 246.463 L
131.129 244.951 L
132.101 243.465 L
133.073 242.003 L
134.045 240.566 L
135.017 239.156 L
135.989 237.772 L
136.961 236.415 L
137.933 235.086 L
138.905 233.784 L
139.877 232.511 L
140.849 231.267 L
141.821 230.053 L
142.793 228.853 L
143.765 227.661 L
144.737 226.477 L
145.709 225.3 L
146.681 224.132 L
147.653 222.971 L
148.625 221.817 L
149.597 220.672 L
150.569 219.534 L
151.541 218.403 L
152.513 217.28 L
153.485 216.165 L
154.457 215.057 L
155.429 213.957 L
156.401 212.864 L
157.373 211.778 L
158.345 210.7 L
159.317 209.629 L
160.289 208.565 L
161.261 207.509 L
162.233 206.46 L
163.205 205.418 L
164.177 204.384 L
165.149 203.356 L
166.121 202.336 L
167.093 201.323 L
168.065 200.317 L
169.037 199.318 L
170.009 198.326 L
170.981 197.341 L
171.953 196.362 L
172.925 195.391 L
173.897 194.427 L
174.869 193.47 L
175.841 192.519 L
176.813 191.575 L
177.785 190.638 L
178.757 189.708 L
179.729 188.784 L
180.701 187.868 L
181.673 186.957 L
182.645 186.054 L
183.617 185.157 L
184.589 184.266 L
185.561 183.382 L
186.533 182.505 L
187.505 181.634 L
188.477 180.769 L
189.449 179.912 L
190.421 179.06 L
191.393 178.214 L
192.365 177.375 L
193.337 176.543 L
194.309 175.716 L
195.281 174.896 L
196.253 174.082 L
197.225 173.274 L
198.197 172.472 L
199.169 171.677 L
200.141 170.887 L
201.113 170.104 L
202.085 169.326 L
203.057 168.555 L
204.029 167.789 L
205.001 167.03 L
205.973 166.276 L
206.945 165.528 L
207.917 164.786 L
208.889 164.05 L
209.861 163.32 L
210.833 162.595 L
211.805 161.876 L
212.777 161.163 L
213.749 160.456 L
214.721 159.754 L
215.693 159.058 L
216.665 158.367 L
217.637 157.682 L
218.609 157.002 L
219.581 156.328 L
220.553 155.659 L
221.525 154.996 L
222.497 154.338 L
223.469 153.685 L
224.441 153.038 L
225.413 152.396 L
226.385 151.76 L
227.357 151.128 L
228.329 150.502 L
229.301 149.881 L
230.273 149.265 L
231.245 148.654 L
232.217 148.049 L
233.189 147.448 L
234.161 146.852 L
235.133 146.258 L
236.105 145.663 L
237.077 145.069 L
238.049 144.475 L
239.021 143.881 L
239.993 143.287 L
240.965 142.694 L
241.937 142.101 L
242.909 141.508 L
243.881 140.916 L
244.853 140.324 L
245.825 139.732 L
246.797 139.14 L
247.769 138.549 L
248.741 137.958 L
249.713 137.368 L
250.685 136.778 L
251.657 136.188 L
252.629 135.599 L
253.601 135.01 L
254.573 134.422 L
255.545 133.834 L
256.517 133.246 L
257.489 132.659 L
258.461 132.073 L
259.433 131.487 L
260.405 130.901 L
261.377 130.316 L
262.349 129.732 L
263.321 129.148 L
264.293 128.565 L
265.265 127.982 L
266.237 127.4 L
267.209 126.819 L
268.181 126.238 L
269.153 125.657 L
270.125 125.078 L
271.097 124.499 L
272.069 123.921 L
273.041 123.343 L
274.013 122.767 L
274.985 122.191 L
275.957 121.615 L
276.929 121.041 L
277.901 120.467 L
278.873 119.894 L
279.845 119.322 L
280.817 118.75 L
281.789 118.18 L
282.761 117.61 L
283.733 117.041 L
284.704 116.473 L
285.677 115.905 L
286.648 115.339 L
287.62 114.774 L
288.592 114.209 L
289.564 113.645 L
290.536 113.083 L
291.508 112.521 L
292.48 111.96 L
293.452 111.401 L
294.424 110.842 L
295.396 110.284 L
296.368 109.727 L
297.34 109.172 L
298.312 108.617 L
299.284 108.063 L
300.256 107.511 L
301.228 106.959 L
302.2 106.409 L
303.172 105.86 L
304.144 105.312 L
305.116 104.765 L
306.088 104.219 L
307.06 103.674 L
308.032 103.131 L
309.004 102.588 L
309.976 102.047 L
310.948 101.507 L
311.92 100.969 L
312.892 100.431 L
313.864 99.895 L
314.836 99.36 L
315.808 98.827 L
316.78 98.294 L
317.752 97.764 L
318.724 97.234 L
319.696 96.706 L
320.668 96.179 L
321.64 95.653 L
322.612 95.129 L
323.584 94.607 L
324.556 94.085 L
325.528 93.565 L
326.5 93.047 L
327.472 92.53 L
328.444 92.014 L
329.416 91.5 L
330.388 90.987 L
331.36 90.476 L
332.332 89.967 L
333.304 89.459 L
334.276 88.952 L
335.248 88.447 L
336.22 87.944 L
337.192 87.442 L
338.164 86.942 L
339.136 86.443 L
340.108 85.947 L
341.08 85.451 L
342.052 84.957 L
343.024 84.465 L
343.996 83.975 L
344.968 83.487 L
345.94 83 L
346.912 82.514 L
347.884 82.031 L
348.856 81.549 L
349.828 81.069 L
350.8 80.591 L
351.772 80.115 L
352.744 79.64 L
353.716 79.167 L
354.688 78.697 L
355.66 78.228 L
356.632 77.76 L
357.604 77.295 L
358.576 76.831 L
359.548 76.37 L
360.52 75.91 L
361.492 75.452 L
362.464 74.997 L
363.436 74.543 L
364.408 74.091 L
365.38 73.641 L
366.352 73.193 L
367.324 72.747 L
368.296 72.303 L
369.268 71.861 L
370.24 71.421 L
371.212 70.984 L
372.184 70.548 L
373.156 70.114 L
374.128 69.683 L
375.1 69.253 L
376.072 68.826 L
377.044 68.401 L
378.016 67.978 L
378.988 67.557 L
379.96 67.138 L
380.932 66.722 L
381.904 66.308 L
382.876 65.896 L
383.848 65.486 L
384.82 65.078 L
385.792 64.673 L
386.764 64.27 L
387.736 63.869 L
388.708 63.471 L
389.68 63.075 L
390.652 62.681 L
391.624 62.289 L
392.596 61.9 L
393.568 61.513 L
394.54 61.129 L
395.512 60.747 L
396.484 60.368 L
397.456 59.991 L
398.428 59.616 L
399.4 59.244 L
400.372 58.874 L
401.344 58.507 L
402.316 58.142 L
403.288 57.779 L
404.26 57.42 L
405.232 57.062 L
406.204 56.708 L
407.176 56.356 L
408.148 56.006 L
409.12 55.659 L
410.092 55.315 L
411.064 54.973 L
412.036 54.634 L
413.008 54.297 L
413.98 53.963 L
414.952 53.632 L
415.924 53.303 L
416.896 52.977 L
417.868 52.654 L
418.84 52.334 L
419.812 52.016 L
420.784 51.701 L
421.756 51.389 L
422.728 51.08 L
423.7 50.773 L
424.672 50.469 L
425.644 50.168 L
426.616 49.87 L
427.588 49.575 L
428.56 49.282 L
429.532 48.993 L
430.504 48.706 L
431.476 48.422 L
432.448 48.141 L
433.42 47.863 L
434.392 47.588 L
435.364 47.316 L
436.336 47.047 L
437.308 46.78 L
438.28 46.517 L
439.252 46.257 L
440.224 46 L
441.196 45.746 L
442.168 45.495 L
443.14 45.247 L
444.112 45.001 L
445.084 44.76 L
446.056 44.521 L
447.028 44.285 L
448 44.053 L
448.971 43.823 L
449.943 43.597 L
450.915 43.374 L
451.887 43.154 L
452.859 42.937 L
453.831 42.723 L
454.803 42.513 L
455.775 42.306 L
456.747 42.102 L
457.719 41.901 L
458.691 41.704 L
459.663 41.51 L
460.635 41.319 L
461.607 41.132 L
462.579 40.948 L
463.551 40.767 L
464.523 40.59 L
465.495 40.416 L
466.467 40.245 L
467.439 40.078 L
468.411 39.914 L
469.383 39.753 L
470.355 39.596 L
471.327 39.443 L
472.299 39.293 L
473.271 39.146 L
474.243 39.003 L
475.215 38.863 L
476.187 38.727 L
477.159 38.595 L
478.131 38.465 L
479.103 38.34 L
480.075 38.218 L
481.047 38.1 L
482.019 37.985 L
482.991 37.874 L
483.963 37.766 L
484.935 37.662 L
485.907 37.562 L
486.879 37.466 L
487.851 37.373 L
488.823 37.283 L
489.795 37.198 L
490.767 37.116 L
491.739 37.038 L
492.711 36.964 L
493.683 36.893 L
S
GR
GS
0.929 0.694 0.125 RC
1 LJ
0.5 LW
N
73 374 M
73.972 371.165 L
74.944 368.342 L
75.916 365.532 L
76.888 362.737 L
77.86 359.96 L
78.832 357.202 L
79.804 354.464 L
80.776 351.75 L
81.748 349.059 L
82.72 346.395 L
83.692 343.759 L
84.664 341.154 L
85.636 338.579 L
86.608 336.039 L
87.58 333.534 L
88.552 331.066 L
89.524 328.637 L
90.496 326.25 L
91.468 323.905 L
92.44 321.604 L
93.412 319.35 L
94.384 317.145 L
95.356 314.989 L
96.328 312.886 L
97.3 310.813 L
98.272 308.753 L
99.244 306.706 L
100.216 304.674 L
101.188 302.655 L
102.16 300.65 L
103.132 298.659 L
104.104 296.684 L
105.076 294.723 L
106.048 292.777 L
107.02 290.847 L
107.992 288.933 L
108.964 287.034 L
109.936 285.152 L
110.908 283.286 L
111.88 281.437 L
112.852 279.605 L
113.824 277.791 L
114.796 275.993 L
115.768 274.214 L
116.74 272.452 L
117.712 270.709 L
118.684 268.985 L
119.656 267.279 L
120.628 265.593 L
121.6 263.925 L
122.572 262.278 L
123.544 260.65 L
124.516 259.042 L
125.488 257.455 L
126.46 255.889 L
127.432 254.343 L
128.404 252.818 L
129.376 251.315 L
130.348 249.834 L
131.32 248.375 L
132.292 246.937 L
133.264 245.522 L
134.236 244.13 L
135.208 242.762 L
136.18 241.416 L
137.152 240.094 L
138.124 238.795 L
139.096 237.521 L
140.068 236.271 L
141.04 235.044 L
142.012 233.827 L
142.984 232.619 L
143.956 231.417 L
144.928 230.222 L
145.9 229.034 L
146.872 227.853 L
147.844 226.68 L
148.816 225.513 L
149.788 224.353 L
150.76 223.201 L
151.732 222.055 L
152.704 220.916 L
153.676 219.785 L
154.647 218.66 L
155.619 217.542 L
156.591 216.432 L
157.563 215.328 L
158.535 214.23 L
159.507 213.14 L
160.479 212.057 L
161.451 210.981 L
162.423 209.911 L
163.395 208.849 L
164.367 207.793 L
165.339 206.744 L
166.311 205.702 L
167.283 204.666 L
168.255 203.638 L
169.227 202.616 L
170.199 201.601 L
171.171 200.592 L
172.143 199.591 L
173.115 198.596 L
174.087 197.608 L
175.059 196.626 L
176.031 195.652 L
177.003 194.684 L
177.975 193.722 L
178.947 192.767 L
179.919 191.819 L
180.891 190.878 L
181.863 189.943 L
182.835 189.014 L
183.807 188.093 L
184.779 187.177 L
185.751 186.269 L
186.723 185.367 L
187.695 184.471 L
188.667 183.582 L
189.639 182.7 L
190.611 181.824 L
191.583 180.954 L
192.555 180.091 L
193.527 179.235 L
194.499 178.384 L
195.471 177.541 L
196.443 176.703 L
197.415 175.873 L
198.387 175.048 L
199.359 174.23 L
200.331 173.418 L
201.303 172.613 L
202.275 171.814 L
203.247 171.021 L
204.219 170.235 L
205.191 169.455 L
206.163 168.681 L
207.135 167.914 L
208.107 167.153 L
209.079 166.398 L
210.051 165.649 L
211.023 164.907 L
211.995 164.171 L
212.967 163.44 L
213.939 162.717 L
214.911 161.999 L
215.883 161.288 L
216.855 160.582 L
217.827 159.883 L
218.799 159.19 L
219.771 158.504 L
220.743 157.823 L
221.715 157.148 L
222.687 156.479 L
223.659 155.817 L
224.631 155.161 L
225.603 154.51 L
226.575 153.866 L
227.547 153.228 L
228.519 152.595 L
229.491 151.969 L
230.463 151.349 L
231.435 150.735 L
232.407 150.126 L
233.379 149.523 L
234.351 148.92 L
235.323 148.318 L
236.295 147.715 L
237.267 147.113 L
238.239 146.511 L
239.211 145.909 L
240.183 145.308 L
241.155 144.706 L
242.127 144.105 L
243.099 143.505 L
244.071 142.904 L
245.043 142.304 L
246.015 141.704 L
246.987 141.104 L
247.959 140.505 L
248.931 139.906 L
249.903 139.307 L
250.875 138.709 L
251.847 138.112 L
252.819 137.514 L
253.791 136.917 L
254.763 136.321 L
255.735 135.725 L
256.707 135.129 L
257.679 134.534 L
258.651 133.939 L
259.623 133.345 L
260.595 132.752 L
261.567 132.159 L
262.539 131.566 L
263.511 130.974 L
264.483 130.383 L
265.455 129.792 L
266.427 129.202 L
267.399 128.613 L
268.371 128.024 L
269.343 127.435 L
270.315 126.848 L
271.287 126.261 L
272.259 125.675 L
273.231 125.089 L
274.203 124.504 L
275.175 123.921 L
276.147 123.337 L
277.119 122.755 L
278.091 122.173 L
279.063 121.592 L
280.035 121.012 L
281.007 120.433 L
281.979 119.854 L
282.951 119.277 L
283.923 118.7 L
284.895 118.124 L
285.867 117.549 L
286.839 116.975 L
287.811 116.402 L
288.783 115.83 L
289.755 115.259 L
290.727 114.689 L
291.699 114.119 L
292.671 113.551 L
293.643 112.984 L
294.615 112.418 L
295.587 111.853 L
296.559 111.289 L
297.531 110.725 L
298.503 110.164 L
299.475 109.603 L
300.447 109.043 L
301.419 108.484 L
302.391 107.927 L
303.363 107.371 L
304.335 106.815 L
305.307 106.262 L
306.279 105.709 L
307.251 105.157 L
308.223 104.607 L
309.195 104.058 L
310.167 103.51 L
311.139 102.963 L
312.111 102.418 L
313.083 101.874 L
314.055 101.332 L
315.027 100.79 L
315.999 100.25 L
316.971 99.712 L
317.943 99.175 L
318.914 98.639 L
319.887 98.104 L
320.858 97.571 L
321.83 97.04 L
322.802 96.51 L
323.774 95.981 L
324.746 95.454 L
325.718 94.928 L
326.69 94.404 L
327.662 93.881 L
328.634 93.36 L
329.606 92.84 L
330.578 92.322 L
331.55 91.805 L
332.522 91.291 L
333.494 90.777 L
334.466 90.266 L
335.438 89.755 L
336.41 89.247 L
337.382 88.74 L
338.354 88.235 L
339.326 87.732 L
340.298 87.23 L
341.27 86.73 L
342.242 86.232 L
343.214 85.735 L
344.186 85.241 L
345.158 84.748 L
346.13 84.256 L
347.102 83.767 L
348.074 83.28 L
349.046 82.794 L
350.018 82.31 L
350.99 81.828 L
351.962 81.348 L
352.934 80.869 L
353.906 80.393 L
354.878 79.919 L
355.85 79.446 L
356.822 78.976 L
357.794 78.507 L
358.766 78.04 L
359.738 77.576 L
360.71 77.113 L
361.682 76.652 L
362.654 76.194 L
363.626 75.738 L
364.598 75.283 L
365.57 74.831 L
366.542 74.38 L
367.514 73.932 L
368.486 73.486 L
369.458 73.042 L
370.43 72.601 L
371.402 72.161 L
372.374 71.723 L
373.346 71.288 L
374.318 70.855 L
375.29 70.424 L
376.262 69.996 L
377.234 69.569 L
378.206 69.145 L
379.178 68.724 L
380.15 68.304 L
381.122 67.887 L
382.094 67.472 L
383.066 67.06 L
384.038 66.649 L
385.01 66.241 L
385.982 65.836 L
386.954 65.433 L
387.926 65.032 L
388.898 64.634 L
389.87 64.238 L
390.842 63.845 L
391.814 63.454 L
392.786 63.066 L
393.758 62.68 L
394.73 62.297 L
395.702 61.916 L
396.674 61.537 L
397.646 61.162 L
398.618 60.788 L
399.59 60.418 L
400.562 60.05 L
401.534 59.684 L
402.506 59.322 L
403.478 58.961 L
404.45 58.604 L
405.422 58.249 L
406.394 57.897 L
407.366 57.548 L
408.338 57.201 L
409.31 56.857 L
410.282 56.516 L
411.254 56.177 L
412.226 55.841 L
413.198 55.508 L
414.17 55.178 L
415.142 54.851 L
416.114 54.526 L
417.086 54.204 L
418.058 53.885 L
419.03 53.569 L
420.002 53.256 L
420.974 52.946 L
421.946 52.639 L
422.918 52.335 L
423.89 52.033 L
424.862 51.735 L
425.834 51.439 L
426.806 51.147 L
427.778 50.857 L
428.75 50.57 L
429.722 50.287 L
430.694 50.006 L
431.666 49.729 L
432.638 49.455 L
433.61 49.184 L
434.582 48.915 L
435.554 48.65 L
436.526 48.388 L
437.498 48.13 L
438.47 47.874 L
439.442 47.622 L
440.414 47.372 L
441.386 47.126 L
442.358 46.884 L
443.33 46.644 L
444.302 46.408 L
445.274 46.174 L
446.246 45.945 L
447.218 45.718 L
448.19 45.495 L
449.162 45.275 L
450.134 45.058 L
451.106 44.845 L
452.078 44.635 L
453.05 44.428 L
454.022 44.225 L
454.994 44.026 L
455.966 43.829 L
456.938 43.636 L
457.91 43.447 L
458.882 43.261 L
459.854 43.078 L
460.826 42.899 L
461.798 42.724 L
462.77 42.552 L
463.742 42.383 L
464.714 42.218 L
465.686 42.057 L
466.658 41.899 L
467.63 41.745 L
468.602 41.594 L
469.574 41.447 L
470.546 41.303 L
471.518 41.164 L
472.49 41.028 L
473.462 40.895 L
474.434 40.766 L
475.406 40.641 L
476.378 40.52 L
477.35 40.403 L
478.322 40.289 L
479.294 40.179 L
480.266 40.072 L
481.238 39.97 L
482.21 39.871 L
483.181 39.776 L
484.154 39.685 L
485.125 39.598 L
486.097 39.515 L
487.069 39.435 L
488.041 39.359 L
489.013 39.288 L
489.985 39.22 L
490.957 39.156 L
491.929 39.096 L
492.901 39.04 L
S
GR
GS
0.494 0.184 0.557 RC
1 LJ
0.5 LW
N
74.474 361.814 M
75.446 359.106 L
76.418 356.408 L
77.39 353.723 L
78.362 351.053 L
79.334 348.398 L
80.306 345.76 L
81.278 343.142 L
82.25 340.545 L
83.222 337.971 L
84.194 335.42 L
85.166 332.895 L
86.138 330.398 L
87.11 327.93 L
88.082 325.493 L
89.054 323.089 L
90.026 320.718 L
90.998 318.384 L
91.97 316.087 L
92.942 313.829 L
93.914 311.612 L
94.886 309.437 L
95.858 307.307 L
96.83 305.223 L
97.802 303.186 L
98.774 301.196 L
99.746 299.227 L
100.718 297.271 L
101.69 295.326 L
102.662 293.394 L
103.634 291.475 L
104.606 289.569 L
105.578 287.677 L
106.55 285.798 L
107.522 283.932 L
108.494 282.081 L
109.466 280.244 L
110.438 278.422 L
111.41 276.615 L
112.382 274.823 L
113.354 273.046 L
114.326 271.284 L
115.298 269.539 L
116.27 267.81 L
117.242 266.097 L
118.214 264.4 L
119.186 262.721 L
120.158 261.059 L
121.13 259.414 L
122.102 257.787 L
123.074 256.177 L
124.046 254.586 L
125.018 253.014 L
125.99 251.46 L
126.962 249.924 L
127.934 248.408 L
128.906 246.912 L
129.878 245.435 L
130.85 243.978 L
131.822 242.541 L
132.794 241.125 L
133.766 239.729 L
134.738 238.354 L
135.71 237.001 L
136.682 235.669 L
137.654 234.359 L
138.626 233.07 L
139.598 231.804 L
140.57 230.56 L
141.542 229.339 L
142.514 228.142 L
143.486 226.967 L
144.458 225.814 L
145.43 224.673 L
146.402 223.538 L
147.374 222.41 L
148.346 221.289 L
149.318 220.176 L
150.29 219.069 L
151.262 217.969 L
152.234 216.876 L
153.206 215.79 L
154.178 214.711 L
155.15 213.639 L
156.122 212.573 L
157.094 211.515 L
158.066 210.463 L
159.038 209.417 L
160.01 208.379 L
160.982 207.347 L
161.954 206.322 L
162.926 205.303 L
163.898 204.291 L
164.87 203.286 L
165.842 202.287 L
166.814 201.295 L
167.786 200.309 L
168.758 199.329 L
169.73 198.356 L
170.702 197.39 L
171.674 196.43 L
172.646 195.476 L
173.618 194.529 L
174.59 193.587 L
175.562 192.653 L
176.534 191.724 L
177.506 190.801 L
178.478 189.885 L
179.45 188.976 L
180.422 188.072 L
181.393 187.174 L
182.365 186.282 L
183.337 185.397 L
184.309 184.517 L
185.281 183.644 L
186.253 182.776 L
187.225 181.915 L
188.197 181.059 L
189.169 180.209 L
190.141 179.366 L
191.113 178.528 L
192.085 177.695 L
193.057 176.869 L
194.029 176.049 L
195.001 175.234 L
195.973 174.425 L
196.945 173.622 L
197.917 172.824 L
198.889 172.032 L
199.861 171.246 L
200.833 170.465 L
201.805 169.69 L
202.777 168.92 L
203.749 168.156 L
204.721 167.397 L
205.693 166.644 L
206.665 165.896 L
207.637 165.154 L
208.609 164.417 L
209.581 163.685 L
210.553 162.959 L
211.525 162.238 L
212.497 161.522 L
213.469 160.812 L
214.441 160.107 L
215.413 159.407 L
216.385 158.712 L
217.357 158.022 L
218.329 157.338 L
219.301 156.658 L
220.273 155.984 L
221.245 155.314 L
222.217 154.65 L
223.189 153.991 L
224.161 153.336 L
225.133 152.687 L
226.105 152.042 L
227.077 151.403 L
228.049 150.768 L
229.021 150.138 L
229.993 149.513 L
230.965 148.893 L
231.937 148.277 L
232.909 147.666 L
233.881 147.06 L
234.853 146.458 L
235.825 145.862 L
236.797 145.27 L
237.769 144.682 L
238.741 144.099 L
239.713 143.52 L
240.685 142.942 L
241.657 142.364 L
242.629 141.786 L
243.601 141.208 L
244.573 140.631 L
245.545 140.054 L
246.517 139.477 L
247.489 138.9 L
248.461 138.324 L
249.433 137.748 L
250.405 137.172 L
251.377 136.597 L
252.349 136.022 L
253.321 135.447 L
254.293 134.873 L
255.265 134.299 L
256.237 133.725 L
257.209 133.152 L
258.181 132.579 L
259.153 132.007 L
260.125 131.435 L
261.097 130.863 L
262.069 130.292 L
263.041 129.722 L
264.013 129.152 L
264.985 128.582 L
265.957 128.013 L
266.929 127.444 L
267.901 126.876 L
268.873 126.308 L
269.845 125.741 L
270.817 125.175 L
271.789 124.609 L
272.761 124.044 L
273.733 123.479 L
274.705 122.915 L
275.677 122.351 L
276.649 121.788 L
277.621 121.226 L
278.593 120.664 L
279.565 120.103 L
280.537 119.543 L
281.509 118.983 L
282.481 118.424 L
283.453 117.866 L
284.425 117.309 L
285.397 116.752 L
286.369 116.196 L
287.341 115.641 L
288.313 115.086 L
289.285 114.533 L
290.257 113.98 L
291.229 113.428 L
292.201 112.876 L
293.173 112.326 L
294.145 111.776 L
295.117 111.227 L
296.089 110.679 L
297.061 110.132 L
298.033 109.586 L
299.005 109.041 L
299.977 108.497 L
300.949 107.953 L
301.921 107.411 L
302.893 106.869 L
303.865 106.329 L
304.837 105.789 L
305.809 105.25 L
306.781 104.712 L
307.753 104.176 L
308.725 103.64 L
309.697 103.106 L
310.669 102.572 L
311.641 102.039 L
312.613 101.508 L
313.585 100.977 L
314.557 100.448 L
315.529 99.92 L
316.501 99.393 L
317.473 98.867 L
318.445 98.342 L
319.417 97.818 L
320.389 97.296 L
321.361 96.774 L
322.333 96.254 L
323.305 95.735 L
324.277 95.217 L
325.249 94.701 L
326.221 94.185 L
327.193 93.671 L
328.165 93.158 L
329.137 92.647 L
330.109 92.136 L
331.081 91.627 L
332.053 91.119 L
333.025 90.613 L
333.997 90.108 L
334.969 89.604 L
335.941 89.102 L
336.913 88.601 L
337.885 88.101 L
338.857 87.602 L
339.829 87.105 L
340.801 86.61 L
341.773 86.116 L
342.745 85.623 L
343.717 85.132 L
344.689 84.642 L
345.66 84.154 L
346.633 83.667 L
347.604 83.181 L
348.576 82.697 L
349.548 82.215 L
350.52 81.734 L
351.492 81.255 L
352.464 80.777 L
353.436 80.301 L
354.408 79.826 L
355.38 79.353 L
356.352 78.881 L
357.324 78.412 L
358.296 77.943 L
359.268 77.477 L
360.24 77.012 L
361.212 76.548 L
362.184 76.086 L
363.156 75.627 L
364.128 75.168 L
365.1 74.712 L
366.072 74.257 L
367.044 73.803 L
368.016 73.352 L
368.988 72.902 L
369.96 72.454 L
370.932 72.008 L
371.904 71.564 L
372.876 71.121 L
373.848 70.68 L
374.82 70.241 L
375.792 69.804 L
376.764 69.368 L
377.736 68.935 L
378.708 68.503 L
379.68 68.074 L
380.652 67.646 L
381.624 67.22 L
382.596 66.796 L
383.568 66.373 L
384.54 65.953 L
385.512 65.535 L
386.484 65.119 L
387.456 64.704 L
388.428 64.292 L
389.4 63.882 L
390.372 63.473 L
391.344 63.067 L
392.316 62.663 L
393.288 62.26 L
394.26 61.86 L
395.232 61.462 L
396.204 61.066 L
397.176 60.672 L
398.148 60.28 L
399.12 59.89 L
400.092 59.503 L
401.064 59.117 L
402.036 58.734 L
403.008 58.352 L
403.98 57.973 L
404.952 57.596 L
405.924 57.222 L
406.896 56.849 L
407.868 56.479 L
408.84 56.111 L
409.812 55.745 L
410.784 55.382 L
411.756 55.02 L
412.728 54.661 L
413.7 54.305 L
414.672 53.95 L
415.644 53.598 L
416.616 53.248 L
417.588 52.901 L
418.56 52.556 L
419.532 52.213 L
420.504 51.872 L
421.476 51.535 L
422.448 51.199 L
423.42 50.866 L
424.392 50.535 L
425.364 50.206 L
426.336 49.881 L
427.308 49.557 L
428.28 49.236 L
429.252 48.918 L
430.224 48.602 L
431.196 48.288 L
432.168 47.977 L
433.14 47.668 L
434.112 47.362 L
435.084 47.059 L
436.056 46.758 L
437.028 46.46 L
438 46.164 L
438.972 45.871 L
439.944 45.58 L
440.916 45.293 L
441.888 45.007 L
442.86 44.725 L
443.832 44.445 L
444.804 44.167 L
445.776 43.893 L
446.748 43.621 L
447.72 43.351 L
448.692 43.085 L
449.664 42.821 L
450.636 42.56 L
451.608 42.302 L
452.58 42.046 L
453.552 41.793 L
454.524 41.543 L
455.496 41.296 L
456.468 41.052 L
457.44 40.81 L
458.412 40.571 L
459.384 40.335 L
460.356 40.102 L
461.328 39.872 L
462.3 39.644 L
463.272 39.42 L
464.244 39.198 L
465.216 38.98 L
466.188 38.764 L
467.16 38.551 L
468.132 38.342 L
469.104 38.135 L
470.076 37.931 L
471.048 37.73 L
472.02 37.532 L
472.992 37.337 L
473.964 37.145 L
474.936 36.956 L
475.908 36.77 L
476.88 36.587 L
477.852 36.408 L
478.824 36.231 L
479.796 36.057 L
480.768 35.887 L
481.74 35.72 L
482.712 35.555 L
483.684 35.394 L
484.656 35.236 L
485.628 35.081 L
486.6 34.93 L
487.572 34.781 L
488.544 34.636 L
489.516 34.494 L
490.488 34.355 L
491.46 34.22 L
492.432 34.087 L
493.404 33.958 L
494.376 33.832 L
495.348 33.71 L
496.32 33.591 L
497.292 33.475 L
498.264 33.362 L
499.236 33.253 L
500.208 33.147 L
501.18 33.044 L
502.152 32.945 L
503.124 32.849 L
504.096 32.756 L
505.068 32.667 L
506.039 32.581 L
S
GR
GS
0.467 0.675 0.188 RC
[10 6] 0 setdash
2 LJ
0.5 LW
N
74.126 363.454 M
75.098 360.759 L
76.07 358.076 L
77.042 355.405 L
78.014 352.748 L
78.986 350.106 L
79.958 347.482 L
80.93 344.876 L
81.902 342.29 L
82.874 339.725 L
83.846 337.184 L
84.818 334.668 L
85.79 332.178 L
86.762 329.716 L
87.734 327.283 L
88.706 324.882 L
89.678 322.513 L
90.65 320.178 L
91.622 317.878 L
92.594 315.616 L
93.566 313.393 L
94.538 311.21 L
95.51 309.069 L
96.482 306.971 L
97.454 304.919 L
98.426 302.904 L
99.398 300.901 L
100.37 298.909 L
101.342 296.927 L
102.314 294.957 L
103.286 292.998 L
104.258 291.051 L
105.23 289.115 L
106.202 287.193 L
107.174 285.283 L
108.146 283.387 L
109.118 281.504 L
110.09 279.635 L
111.062 277.78 L
112.034 275.94 L
113.006 274.115 L
113.978 272.305 L
114.95 270.511 L
115.922 268.733 L
116.894 266.971 L
117.866 265.226 L
118.838 263.498 L
119.81 261.788 L
120.782 260.095 L
121.754 258.42 L
122.726 256.764 L
123.698 255.126 L
124.67 253.508 L
125.642 251.909 L
126.614 250.33 L
127.586 248.771 L
128.558 247.233 L
129.53 245.716 L
130.502 244.22 L
131.474 242.745 L
132.446 241.293 L
133.418 239.862 L
134.39 238.455 L
135.362 237.07 L
136.334 235.709 L
137.306 234.372 L
138.278 233.058 L
139.25 231.769 L
140.222 230.505 L
141.194 229.266 L
142.166 228.052 L
143.138 226.863 L
144.11 225.684 L
145.082 224.512 L
146.054 223.348 L
147.026 222.191 L
147.998 221.041 L
148.97 219.898 L
149.942 218.763 L
150.914 217.634 L
151.886 216.513 L
152.858 215.398 L
153.83 214.291 L
154.802 213.19 L
155.774 212.097 L
156.746 211.01 L
157.718 209.931 L
158.69 208.858 L
159.661 207.792 L
160.633 206.734 L
161.605 205.682 L
162.577 204.637 L
163.549 203.598 L
164.521 202.567 L
165.493 201.542 L
166.465 200.524 L
167.437 199.513 L
168.409 198.508 L
169.381 197.511 L
170.353 196.519 L
171.325 195.535 L
172.297 194.557 L
173.269 193.586 L
174.241 192.621 L
175.213 191.663 L
176.185 190.711 L
177.157 189.766 L
178.129 188.828 L
179.101 187.896 L
180.073 186.97 L
181.045 186.051 L
182.017 185.138 L
182.989 184.232 L
183.961 183.332 L
184.933 182.438 L
185.905 181.551 L
186.877 180.67 L
187.849 179.795 L
188.821 178.927 L
189.793 178.064 L
190.765 177.208 L
191.737 176.358 L
192.709 175.515 L
193.681 174.677 L
194.653 173.846 L
195.625 173.021 L
196.597 172.202 L
197.569 171.389 L
198.541 170.582 L
199.513 169.781 L
200.485 168.986 L
201.457 168.198 L
202.429 167.415 L
203.401 166.638 L
204.373 165.867 L
205.345 165.102 L
206.317 164.342 L
207.289 163.589 L
208.261 162.841 L
209.233 162.1 L
210.205 161.364 L
211.177 160.634 L
212.149 159.91 L
213.121 159.191 L
214.093 158.478 L
215.065 157.771 L
216.037 157.07 L
217.009 156.374 L
217.981 155.683 L
218.953 154.999 L
219.925 154.32 L
220.897 153.646 L
221.869 152.979 L
222.841 152.316 L
223.813 151.659 L
224.785 151.008 L
225.757 150.362 L
226.729 149.722 L
227.701 149.087 L
228.673 148.457 L
229.645 147.833 L
230.617 147.214 L
231.589 146.6 L
232.561 145.992 L
233.533 145.389 L
234.505 144.792 L
235.477 144.199 L
236.449 143.612 L
237.421 143.025 L
238.393 142.439 L
239.365 141.852 L
240.337 141.266 L
241.309 140.681 L
242.281 140.095 L
243.253 139.51 L
244.225 138.925 L
245.197 138.34 L
246.169 137.755 L
247.141 137.171 L
248.113 136.587 L
249.085 136.003 L
250.057 135.42 L
251.029 134.837 L
252.001 134.254 L
252.973 133.672 L
253.945 133.09 L
254.917 132.508 L
255.889 131.927 L
256.861 131.347 L
257.833 130.766 L
258.805 130.187 L
259.777 129.607 L
260.749 129.028 L
261.721 128.45 L
262.693 127.872 L
263.665 127.295 L
264.637 126.718 L
265.609 126.142 L
266.581 125.566 L
267.553 124.991 L
268.525 124.416 L
269.497 123.842 L
270.469 123.268 L
271.441 122.696 L
272.413 122.123 L
273.385 121.552 L
274.357 120.981 L
275.329 120.411 L
276.301 119.841 L
277.273 119.272 L
278.245 118.705 L
279.217 118.137 L
280.189 117.57 L
281.161 117.004 L
282.133 116.439 L
283.105 115.875 L
284.077 115.311 L
285.049 114.749 L
286.021 114.187 L
286.993 113.626 L
287.965 113.065 L
288.937 112.506 L
289.909 111.947 L
290.881 111.39 L
291.853 110.833 L
292.825 110.277 L
293.797 109.722 L
294.769 109.168 L
295.741 108.615 L
296.713 108.063 L
297.685 107.512 L
298.657 106.962 L
299.629 106.413 L
300.601 105.865 L
301.573 105.317 L
302.545 104.771 L
303.517 104.226 L
304.489 103.683 L
305.461 103.14 L
306.433 102.598 L
307.405 102.057 L
308.377 101.518 L
309.349 100.98 L
310.321 100.442 L
311.293 99.906 L
312.265 99.371 L
313.237 98.838 L
314.209 98.305 L
315.181 97.774 L
316.153 97.244 L
317.125 96.715 L
318.097 96.187 L
319.069 95.661 L
320.041 95.136 L
321.013 94.612 L
321.985 94.09 L
322.957 93.569 L
323.928 93.049 L
324.901 92.531 L
325.872 92.014 L
326.844 91.498 L
327.816 90.983 L
328.788 90.47 L
329.76 89.959 L
330.732 89.449 L
331.704 88.94 L
332.676 88.433 L
333.648 87.927 L
334.62 87.423 L
335.592 86.92 L
336.564 86.419 L
337.536 85.919 L
338.508 85.421 L
339.48 84.925 L
340.452 84.429 L
341.424 83.936 L
342.396 83.444 L
343.368 82.954 L
344.34 82.465 L
345.312 81.978 L
346.284 81.492 L
347.256 81.008 L
348.228 80.526 L
349.2 80.046 L
350.172 79.567 L
351.144 79.09 L
352.116 78.615 L
353.088 78.141 L
354.06 77.669 L
355.032 77.199 L
356.004 76.731 L
356.976 76.264 L
357.948 75.799 L
358.92 75.336 L
359.892 74.875 L
360.864 74.416 L
361.836 73.958 L
362.808 73.503 L
363.78 73.049 L
364.752 72.597 L
365.724 72.147 L
366.696 71.699 L
367.668 71.253 L
368.64 70.809 L
369.612 70.366 L
370.584 69.926 L
371.556 69.488 L
372.528 69.052 L
373.5 68.617 L
374.472 68.185 L
375.444 67.755 L
376.416 67.327 L
377.388 66.901 L
378.36 66.477 L
379.332 66.055 L
380.304 65.635 L
381.276 65.217 L
382.248 64.801 L
383.22 64.388 L
384.192 63.977 L
385.164 63.568 L
386.136 63.161 L
387.108 62.756 L
388.08 62.353 L
389.052 61.953 L
390.024 61.555 L
390.996 61.159 L
391.968 60.765 L
392.94 60.374 L
393.912 59.985 L
394.884 59.598 L
395.856 59.214 L
396.828 58.831 L
397.8 58.452 L
398.772 58.074 L
399.744 57.699 L
400.716 57.326 L
401.688 56.956 L
402.66 56.588 L
403.632 56.223 L
404.604 55.86 L
405.576 55.499 L
406.548 55.141 L
407.52 54.785 L
408.492 54.432 L
409.464 54.081 L
410.436 53.733 L
411.408 53.388 L
412.38 53.044 L
413.352 52.704 L
414.324 52.366 L
415.296 52.03 L
416.268 51.697 L
417.24 51.367 L
418.212 51.04 L
419.184 50.715 L
420.156 50.392 L
421.128 50.072 L
422.1 49.755 L
423.072 49.441 L
424.044 49.129 L
425.016 48.821 L
425.988 48.514 L
426.96 48.211 L
427.932 47.91 L
428.904 47.612 L
429.876 47.317 L
430.848 47.024 L
431.82 46.735 L
432.792 46.448 L
433.764 46.164 L
434.736 45.883 L
435.708 45.604 L
436.68 45.329 L
437.652 45.056 L
438.624 44.787 L
439.596 44.52 L
440.568 44.256 L
441.54 43.995 L
442.512 43.738 L
443.484 43.482 L
444.456 43.23 L
445.428 42.981 L
446.4 42.735 L
447.372 42.492 L
448.344 42.252 L
449.316 42.015 L
450.288 41.782 L
451.26 41.551 L
452.232 41.323 L
453.204 41.098 L
454.176 40.877 L
455.148 40.658 L
456.12 40.443 L
457.092 40.231 L
458.064 40.022 L
459.036 39.816 L
460.008 39.613 L
460.98 39.414 L
461.952 39.218 L
462.924 39.025 L
463.896 38.835 L
464.868 38.648 L
465.84 38.465 L
466.812 38.285 L
467.784 38.108 L
468.756 37.935 L
469.728 37.765 L
470.7 37.598 L
471.672 37.435 L
472.644 37.275 L
473.616 37.118 L
474.588 36.965 L
475.56 36.815 L
476.532 36.669 L
477.504 36.525 L
478.476 36.386 L
479.448 36.25 L
480.42 36.117 L
481.392 35.988 L
482.364 35.862 L
483.336 35.74 L
484.307 35.621 L
485.28 35.506 L
486.251 35.394 L
487.223 35.286 L
488.195 35.181 L
489.167 35.081 L
490.139 34.983 L
491.111 34.889 L
492.083 34.799 L
493.055 34.713 L
494.027 34.63 L
494.999 34.551 L
495.971 34.475 L
496.943 34.403 L
497.915 34.335 L
498.887 34.271 L
S
GR
GS
0.302 0.745 0.933 RC
[10 6] 0 setdash
2 LJ
0.5 LW
N
73.869 367.865 M
74.841 365.019 L
75.813 362.185 L
76.785 359.365 L
77.757 356.56 L
78.729 353.772 L
79.701 351.004 L
80.673 348.258 L
81.645 345.534 L
82.617 342.835 L
83.589 340.163 L
84.561 337.52 L
85.533 334.908 L
86.505 332.328 L
87.477 329.783 L
88.449 327.274 L
89.421 324.804 L
90.393 322.373 L
91.365 319.985 L
92.337 317.641 L
93.309 315.342 L
94.281 313.091 L
95.253 310.89 L
96.225 308.741 L
97.197 306.644 L
98.169 304.589 L
99.141 302.547 L
100.113 300.52 L
101.085 298.506 L
102.057 296.507 L
103.029 294.523 L
104.001 292.553 L
104.973 290.599 L
105.945 288.659 L
106.917 286.736 L
107.889 284.828 L
108.861 282.936 L
109.833 281.06 L
110.805 279.201 L
111.777 277.359 L
112.749 275.533 L
113.721 273.725 L
114.693 271.935 L
115.665 270.161 L
116.637 268.406 L
117.609 266.67 L
118.581 264.951 L
119.553 263.251 L
120.525 261.57 L
121.497 259.909 L
122.469 258.266 L
123.441 256.643 L
124.413 255.041 L
125.385 253.458 L
126.357 251.895 L
127.329 250.353 L
128.301 248.832 L
129.273 247.332 L
130.245 245.853 L
131.217 244.396 L
132.189 242.96 L
133.161 241.547 L
134.133 240.155 L
135.105 238.787 L
136.077 237.44 L
137.049 236.117 L
138.021 234.817 L
138.993 233.541 L
139.965 232.288 L
140.937 231.059 L
141.909 229.854 L
142.881 228.667 L
143.853 227.487 L
144.825 226.315 L
145.797 225.15 L
146.769 223.992 L
147.741 222.841 L
148.713 221.697 L
149.685 220.561 L
150.656 219.431 L
151.628 218.309 L
152.6 217.194 L
153.572 216.085 L
154.544 214.984 L
155.516 213.89 L
156.488 212.803 L
157.46 211.723 L
158.432 210.65 L
159.404 209.583 L
160.376 208.524 L
161.348 207.471 L
162.32 206.426 L
163.292 205.387 L
164.264 204.355 L
165.236 203.33 L
166.208 202.312 L
167.18 201.3 L
168.152 200.295 L
169.124 199.297 L
170.096 198.305 L
171.068 197.321 L
172.04 196.342 L
173.012 195.371 L
173.984 194.406 L
174.956 193.448 L
175.928 192.496 L
176.9 191.551 L
177.872 190.612 L
178.844 189.68 L
179.816 188.755 L
180.788 187.835 L
181.76 186.923 L
182.732 186.016 L
183.704 185.116 L
184.676 184.223 L
185.648 183.336 L
186.62 182.455 L
187.592 181.58 L
188.564 180.712 L
189.536 179.85 L
190.508 178.995 L
191.48 178.145 L
192.452 177.302 L
193.424 176.465 L
194.396 175.634 L
195.368 174.809 L
196.34 173.991 L
197.312 173.178 L
198.284 172.372 L
199.256 171.572 L
200.228 170.777 L
201.2 169.989 L
202.172 169.207 L
203.144 168.43 L
204.116 167.66 L
205.088 166.896 L
206.06 166.137 L
207.032 165.385 L
208.004 164.638 L
208.976 163.897 L
209.948 163.162 L
210.92 162.433 L
211.892 161.71 L
212.864 160.992 L
213.836 160.28 L
214.808 159.574 L
215.78 158.874 L
216.752 158.179 L
217.724 157.49 L
218.696 156.807 L
219.668 156.129 L
220.64 155.457 L
221.612 154.79 L
222.584 154.129 L
223.556 153.474 L
224.528 152.824 L
225.5 152.179 L
226.472 151.54 L
227.444 150.907 L
228.416 150.278 L
229.388 149.656 L
230.36 149.039 L
231.332 148.427 L
232.304 147.82 L
233.276 147.219 L
234.248 146.623 L
235.22 146.032 L
236.192 145.443 L
237.164 144.854 L
238.136 144.265 L
239.108 143.676 L
240.08 143.088 L
241.052 142.499 L
242.024 141.911 L
242.996 141.324 L
243.968 140.736 L
244.94 140.149 L
245.912 139.562 L
246.884 138.975 L
247.856 138.389 L
248.828 137.803 L
249.8 137.217 L
250.772 136.632 L
251.744 136.047 L
252.716 135.462 L
253.688 134.878 L
254.66 134.294 L
255.632 133.711 L
256.604 133.128 L
257.576 132.546 L
258.548 131.964 L
259.52 131.382 L
260.492 130.802 L
261.464 130.221 L
262.436 129.641 L
263.408 129.062 L
264.38 128.483 L
265.352 127.904 L
266.324 127.326 L
267.296 126.749 L
268.268 126.173 L
269.24 125.597 L
270.212 125.021 L
271.184 124.447 L
272.156 123.873 L
273.128 123.299 L
274.1 122.727 L
275.072 122.154 L
276.044 121.583 L
277.016 121.012 L
277.988 120.443 L
278.96 119.874 L
279.932 119.305 L
280.904 118.738 L
281.876 118.171 L
282.848 117.605 L
283.82 117.039 L
284.792 116.475 L
285.764 115.912 L
286.736 115.349 L
287.708 114.787 L
288.68 114.226 L
289.652 113.666 L
290.624 113.107 L
291.596 112.549 L
292.568 111.991 L
293.54 111.435 L
294.512 110.88 L
295.484 110.325 L
296.456 109.772 L
297.428 109.219 L
298.4 108.668 L
299.372 108.118 L
300.344 107.568 L
301.316 107.02 L
302.288 106.473 L
303.26 105.927 L
304.232 105.382 L
305.204 104.838 L
306.176 104.295 L
307.148 103.753 L
308.12 103.213 L
309.092 102.673 L
310.064 102.135 L
311.036 101.598 L
312.008 101.062 L
312.979 100.528 L
313.952 99.994 L
314.923 99.462 L
315.895 98.931 L
316.867 98.402 L
317.839 97.873 L
318.811 97.346 L
319.783 96.821 L
320.755 96.296 L
321.727 95.773 L
322.699 95.252 L
323.671 94.731 L
324.643 94.212 L
325.615 93.695 L
326.587 93.178 L
327.559 92.664 L
328.531 92.15 L
329.503 91.638 L
330.475 91.128 L
331.447 90.619 L
332.419 90.111 L
333.391 89.605 L
334.363 89.101 L
335.335 88.598 L
336.307 88.097 L
337.279 87.597 L
338.251 87.098 L
339.223 86.602 L
340.195 86.107 L
341.167 85.613 L
342.139 85.121 L
343.111 84.631 L
344.083 84.142 L
345.055 83.655 L
346.027 83.17 L
346.999 82.686 L
347.971 82.204 L
348.943 81.724 L
349.915 81.245 L
350.887 80.769 L
351.859 80.294 L
352.831 79.82 L
353.803 79.349 L
354.775 78.879 L
355.747 78.411 L
356.719 77.945 L
357.691 77.481 L
358.663 77.019 L
359.635 76.558 L
360.607 76.099 L
361.579 75.643 L
362.551 75.188 L
363.523 74.735 L
364.495 74.284 L
365.467 73.835 L
366.439 73.388 L
367.411 72.942 L
368.383 72.499 L
369.355 72.058 L
370.327 71.619 L
371.299 71.181 L
372.271 70.746 L
373.243 70.313 L
374.215 69.882 L
375.187 69.453 L
376.159 69.026 L
377.131 68.601 L
378.103 68.179 L
379.075 67.758 L
380.047 67.34 L
381.019 66.924 L
381.991 66.509 L
382.963 66.097 L
383.935 65.688 L
384.907 65.28 L
385.879 64.875 L
386.851 64.472 L
387.823 64.071 L
388.795 63.672 L
389.767 63.276 L
390.739 62.882 L
391.711 62.49 L
392.683 62.101 L
393.655 61.714 L
394.627 61.329 L
395.599 60.947 L
396.571 60.567 L
397.543 60.189 L
398.515 59.814 L
399.487 59.441 L
400.459 59.071 L
401.431 58.703 L
402.403 58.337 L
403.375 57.974 L
404.347 57.614 L
405.319 57.256 L
406.291 56.9 L
407.263 56.547 L
408.235 56.196 L
409.207 55.848 L
410.179 55.503 L
411.151 55.16 L
412.123 54.82 L
413.095 54.482 L
414.067 54.147 L
415.039 53.815 L
416.011 53.485 L
416.983 53.158 L
417.955 52.833 L
418.927 52.511 L
419.899 52.192 L
420.871 51.876 L
421.843 51.562 L
422.815 51.251 L
423.787 50.943 L
424.759 50.637 L
425.731 50.334 L
426.703 50.034 L
427.675 49.737 L
428.647 49.443 L
429.619 49.151 L
430.591 48.863 L
431.563 48.577 L
432.535 48.294 L
433.507 48.014 L
434.479 47.737 L
435.451 47.462 L
436.423 47.191 L
437.395 46.922 L
438.367 46.657 L
439.339 46.394 L
440.311 46.135 L
441.283 45.878 L
442.255 45.625 L
443.227 45.374 L
444.199 45.126 L
445.171 44.882 L
446.143 44.641 L
447.115 44.402 L
448.087 44.167 L
449.059 43.934 L
450.031 43.705 L
451.003 43.479 L
451.975 43.256 L
452.947 43.037 L
453.919 42.82 L
454.891 42.607 L
455.863 42.397 L
456.835 42.19 L
457.807 41.986 L
458.779 41.785 L
459.751 41.588 L
460.723 41.394 L
461.695 41.203 L
462.667 41.015 L
463.639 40.831 L
464.611 40.65 L
465.583 40.472 L
466.555 40.298 L
467.527 40.127 L
468.499 39.959 L
469.471 39.795 L
470.443 39.634 L
471.415 39.477 L
472.387 39.323 L
473.359 39.172 L
474.331 39.025 L
475.303 38.882 L
476.275 38.741 L
477.246 38.604 L
478.219 38.471 L
479.19 38.341 L
480.162 38.215 L
481.134 38.092 L
482.106 37.973 L
483.078 37.858 L
484.05 37.746 L
485.022 37.637 L
485.994 37.532 L
486.966 37.431 L
487.938 37.333 L
488.91 37.24 L
489.882 37.149 L
490.854 37.063 L
491.826 36.98 L
492.798 36.9 L
493.77 36.825 L
494.742 36.753 L
495.714 36.685 L
S
GR
GS
0.635 0.078 0.184 RC
[10 6] 0 setdash
2 LJ
0.5 LW
N
74.463 362.006 M
75.435 359.309 L
76.407 356.623 L
77.379 353.949 L
78.351 351.29 L
79.323 348.646 L
80.295 346.019 L
81.267 343.411 L
82.239 340.824 L
83.211 338.258 L
84.183 335.716 L
85.155 333.2 L
86.127 330.71 L
87.099 328.249 L
88.071 325.818 L
89.043 323.419 L
90.015 321.053 L
90.987 318.722 L
91.959 316.427 L
92.931 314.17 L
93.903 311.953 L
94.875 309.778 L
95.846 307.645 L
96.818 305.557 L
97.79 303.515 L
98.762 301.519 L
99.734 299.541 L
100.706 297.575 L
101.678 295.621 L
102.65 293.679 L
103.622 291.749 L
104.594 289.831 L
105.566 287.926 L
106.538 286.035 L
107.51 284.157 L
108.482 282.292 L
109.454 280.442 L
110.426 278.605 L
111.398 276.784 L
112.37 274.977 L
113.342 273.185 L
114.314 271.408 L
115.286 269.647 L
116.258 267.903 L
117.23 266.174 L
118.202 264.462 L
119.174 262.766 L
120.146 261.088 L
121.118 259.427 L
122.09 257.784 L
123.062 256.159 L
124.034 254.552 L
125.006 252.963 L
125.978 251.394 L
126.95 249.843 L
127.922 248.312 L
128.894 246.8 L
129.866 245.309 L
130.838 243.837 L
131.81 242.386 L
132.782 240.956 L
133.754 239.547 L
134.726 238.159 L
135.698 236.793 L
136.67 235.449 L
137.642 234.127 L
138.614 232.828 L
139.586 231.551 L
140.558 230.298 L
141.53 229.067 L
142.502 227.861 L
143.474 226.678 L
144.446 225.517 L
145.418 224.365 L
146.39 223.22 L
147.362 222.082 L
148.334 220.951 L
149.306 219.827 L
150.278 218.71 L
151.25 217.6 L
152.222 216.497 L
153.194 215.4 L
154.166 214.31 L
155.138 213.228 L
156.11 212.152 L
157.082 211.083 L
158.054 210.02 L
159.026 208.964 L
159.998 207.915 L
160.97 206.873 L
161.942 205.837 L
162.914 204.808 L
163.886 203.786 L
164.858 202.77 L
165.83 201.761 L
166.802 200.758 L
167.774 199.761 L
168.746 198.772 L
169.718 197.788 L
170.69 196.811 L
171.662 195.841 L
172.634 194.877 L
173.606 193.919 L
174.578 192.968 L
175.55 192.023 L
176.522 191.084 L
177.494 190.152 L
178.466 189.226 L
179.438 188.306 L
180.41 187.392 L
181.382 186.484 L
182.354 185.583 L
183.326 184.687 L
184.298 183.798 L
185.27 182.915 L
186.242 182.038 L
187.214 181.167 L
188.186 180.302 L
189.158 179.443 L
190.13 178.59 L
191.102 177.743 L
192.074 176.902 L
193.046 176.067 L
194.018 175.237 L
194.99 174.414 L
195.962 173.596 L
196.934 172.784 L
197.906 171.978 L
198.878 171.178 L
199.85 170.383 L
200.822 169.594 L
201.794 168.811 L
202.766 168.034 L
203.738 167.262 L
204.71 166.495 L
205.682 165.734 L
206.654 164.979 L
207.626 164.23 L
208.598 163.486 L
209.57 162.747 L
210.542 162.014 L
211.514 161.286 L
212.486 160.564 L
213.458 159.847 L
214.43 159.135 L
215.402 158.429 L
216.374 157.729 L
217.346 157.033 L
218.318 156.343 L
219.29 155.658 L
220.262 154.978 L
221.234 154.304 L
222.206 153.634 L
223.178 152.97 L
224.15 152.311 L
225.122 151.657 L
226.094 151.008 L
227.066 150.365 L
228.038 149.726 L
229.01 149.092 L
229.982 148.464 L
230.954 147.84 L
231.926 147.221 L
232.898 146.607 L
233.87 145.998 L
234.842 145.394 L
235.814 144.795 L
236.786 144.201 L
237.758 143.611 L
238.73 143.026 L
239.702 142.446 L
240.674 141.867 L
241.646 141.288 L
242.618 140.709 L
243.59 140.13 L
244.562 139.552 L
245.534 138.973 L
246.506 138.395 L
247.478 137.817 L
248.45 137.24 L
249.422 136.663 L
250.394 136.086 L
251.366 135.509 L
252.338 134.933 L
253.31 134.357 L
254.282 133.781 L
255.254 133.206 L
256.226 132.631 L
257.198 132.057 L
258.17 131.482 L
259.142 130.909 L
260.113 130.335 L
261.086 129.762 L
262.057 129.19 L
263.029 128.618 L
264.001 128.046 L
264.973 127.475 L
265.945 126.905 L
266.917 126.334 L
267.889 125.765 L
268.861 125.196 L
269.833 124.627 L
270.805 124.059 L
271.777 123.492 L
272.749 122.925 L
273.721 122.359 L
274.693 121.793 L
275.665 121.228 L
276.637 120.664 L
277.609 120.1 L
278.581 119.537 L
279.553 118.974 L
280.525 118.412 L
281.497 117.851 L
282.469 117.291 L
283.441 116.731 L
284.413 116.172 L
285.385 115.613 L
286.357 115.056 L
287.329 114.499 L
288.301 113.943 L
289.273 113.387 L
290.245 112.833 L
291.217 112.279 L
292.189 111.726 L
293.161 111.174 L
294.133 110.623 L
295.105 110.073 L
296.077 109.523 L
297.049 108.975 L
298.021 108.427 L
298.993 107.88 L
299.965 107.334 L
300.937 106.789 L
301.909 106.245 L
302.881 105.702 L
303.853 105.159 L
304.825 104.618 L
305.797 104.078 L
306.769 103.539 L
307.741 103 L
308.713 102.463 L
309.685 101.927 L
310.657 101.392 L
311.629 100.858 L
312.601 100.324 L
313.573 99.793 L
314.545 99.262 L
315.517 98.732 L
316.489 98.203 L
317.461 97.676 L
318.433 97.149 L
319.405 96.624 L
320.377 96.1 L
321.349 95.577 L
322.321 95.055 L
323.293 94.535 L
324.265 94.016 L
325.237 93.497 L
326.209 92.981 L
327.181 92.465 L
328.153 91.951 L
329.125 91.438 L
330.097 90.926 L
331.069 90.415 L
332.041 89.906 L
333.013 89.398 L
333.985 88.892 L
334.957 88.386 L
335.929 87.883 L
336.901 87.38 L
337.873 86.879 L
338.845 86.379 L
339.817 85.881 L
340.789 85.384 L
341.761 84.889 L
342.733 84.395 L
343.705 83.902 L
344.677 83.411 L
345.649 82.922 L
346.621 82.433 L
347.593 81.947 L
348.565 81.462 L
349.537 80.978 L
350.509 80.496 L
351.481 80.016 L
352.453 79.537 L
353.425 79.059 L
354.397 78.584 L
355.369 78.109 L
356.341 77.637 L
357.313 77.166 L
358.285 76.697 L
359.257 76.229 L
360.229 75.763 L
361.201 75.299 L
362.173 74.836 L
363.145 74.375 L
364.117 73.916 L
365.089 73.458 L
366.061 73.002 L
367.033 72.548 L
368.005 72.096 L
368.977 71.646 L
369.949 71.197 L
370.921 70.75 L
371.893 70.305 L
372.865 69.861 L
373.837 69.42 L
374.809 68.98 L
375.781 68.542 L
376.753 68.106 L
377.725 67.672 L
378.697 67.24 L
379.669 66.81 L
380.641 66.381 L
381.613 65.955 L
382.585 65.53 L
383.557 65.108 L
384.529 64.687 L
385.501 64.269 L
386.473 63.852 L
387.445 63.437 L
388.417 63.025 L
389.389 62.614 L
390.361 62.205 L
391.333 61.799 L
392.305 61.394 L
393.277 60.992 L
394.249 60.591 L
395.221 60.193 L
396.193 59.797 L
397.165 59.403 L
398.137 59.011 L
399.109 58.621 L
400.081 58.234 L
401.053 57.848 L
402.025 57.465 L
402.997 57.084 L
403.969 56.705 L
404.941 56.328 L
405.913 55.954 L
406.885 55.582 L
407.857 55.212 L
408.829 54.844 L
409.801 54.479 L
410.773 54.116 L
411.745 53.755 L
412.717 53.396 L
413.689 53.04 L
414.661 52.686 L
415.633 52.335 L
416.605 51.986 L
417.577 51.639 L
418.549 51.295 L
419.521 50.953 L
420.493 50.613 L
421.465 50.276 L
422.437 49.941 L
423.409 49.609 L
424.381 49.279 L
425.353 48.952 L
426.324 48.627 L
427.297 48.304 L
428.268 47.984 L
429.24 47.667 L
430.212 47.352 L
431.184 47.04 L
432.156 46.73 L
433.128 46.423 L
434.1 46.118 L
435.072 45.816 L
436.044 45.517 L
437.016 45.22 L
437.988 44.926 L
438.96 44.634 L
439.932 44.345 L
440.904 44.059 L
441.876 43.776 L
442.848 43.495 L
443.82 43.217 L
444.792 42.941 L
445.764 42.668 L
446.736 42.398 L
447.708 42.131 L
448.68 41.867 L
449.652 41.605 L
450.624 41.346 L
451.596 41.09 L
452.568 40.837 L
453.54 40.586 L
454.512 40.338 L
455.484 40.093 L
456.456 39.851 L
457.428 39.612 L
458.4 39.376 L
459.372 39.143 L
460.344 38.912 L
461.316 38.684 L
462.288 38.46 L
463.26 38.238 L
464.232 38.019 L
465.204 37.804 L
466.176 37.591 L
467.148 37.381 L
468.12 37.174 L
469.092 36.97 L
470.064 36.77 L
471.036 36.572 L
472.008 36.377 L
472.98 36.186 L
473.952 35.997 L
474.924 35.812 L
475.896 35.629 L
476.868 35.45 L
477.84 35.274 L
478.812 35.101 L
479.784 34.931 L
480.756 34.764 L
481.728 34.6 L
482.7 34.44 L
483.672 34.283 L
484.644 34.129 L
485.616 33.978 L
486.588 33.831 L
487.56 33.686 L
488.532 33.545 L
489.504 33.408 L
490.476 33.273 L
491.448 33.142 L
492.42 33.014 L
493.392 32.889 L
494.364 32.768 L
495.336 32.65 L
496.308 32.536 L
497.28 32.425 L
498.252 32.317 L
499.224 32.212 L
500.196 32.111 L
501.168 32.014 L
502.14 31.919 L
503.112 31.828 L
504.084 31.741 L
505.056 31.657 L
506.028 31.577 L
507 31.5 L
S
GR
GS
1 GC
N
499 366 M
499 250.5 L
344.5 250.5 L
344.5 366 L
cp
f
GR
GS
[1 0 0 1 381.5 260.25] CT
/Helvetica 13 F
GS
[1 0 0 1 0 0] CT
0 5 moveto 
1 -1 scale
(Base Run) t 
GR
GR
GS
0 0.447 0.741 RC
1 LJ
0.5 LW
N
348.5 260.25 M
378.5 260.25 L
S
GR
GS
[1 0 0 1 381.5 276.25] CT
/Helvetica 13 F
GS
[1 0 0 1 0 0] CT
0 5 moveto 
1 -1 scale
(I & B Frames) t 
GR
GR
GS
0.851 0.325 0.098 RC
1 LJ
0.5 LW
N
348.5 276.25 M
378.5 276.25 L
S
GR
GS
[1 0 0 1 381.5 292.25] CT
/Helvetica 13 F
GS
[1 0 0 1 0 0] CT
0 5 moveto 
1 -1 scale
(I Frames Only) t 
GR
GR
GS
0.929 0.694 0.125 RC
1 LJ
0.5 LW
N
348.5 292.25 M
378.5 292.25 L
S
GR
GS
[1 0 0 1 381.5 308.25] CT
/Helvetica 13 F
GS
[1 0 0 1 0 0] CT
0 5 moveto 
1 -1 scale
(B Frames Only) t 
GR
GR
GS
0.494 0.184 0.557 RC
1 LJ
0.5 LW
N
348.5 308.25 M
378.5 308.25 L
S
GR
GS
[1 0 0 1 381.5 324.25] CT
/Helvetica 13 F
GS
[1 0 0 1 0 0] CT
0 5 moveto 
1 -1 scale
(Part I & B Frames) t 
GR
GR
GS
0.467 0.675 0.188 RC
[10 6] 0 setdash
2 LJ
0.5 LW
N
348.5 324.25 M
378.5 324.25 L
S
GR
GS
[1 0 0 1 381.5 340.25] CT
/Helvetica 13 F
GS
[1 0 0 1 0 0] CT
0 5 moveto 
1 -1 scale
(Part I Frames Only) t 
GR
GR
GS
0.302 0.745 0.933 RC
[10 6] 0 setdash
2 LJ
0.5 LW
N
348.5 340.25 M
378.5 340.25 L
S
GR
GS
[1 0 0 1 381.5 356.25] CT
/Helvetica 13 F
GS
[1 0 0 1 0 0] CT
0 5 moveto 
1 -1 scale
(Part B Frames Only) t 
GR
GR
GS
0.635 0.078 0.184 RC
[10 6] 0 setdash
2 LJ
0.5 LW
N
348.5 356.25 M
378.5 356.25 L
S
GR
GS
0.149 GC
10.0 ML
0.5 LW
N
344.5 366 M
344.5 250.5 L
499 250.5 L
499 366 L
cp
S
GR
%%Trailer
%%Pages: 1
%%EOF
