%!PS-Adobe-3.0 EPSF-3.0
%%Creator: (MATLAB, The Mathworks, Inc. Version 9.11.0.1837725 \(R2021b\) Update 2. Operating System: Mac OS X)
%%Title: plots/pchip/TelevisionClip_1080P-39e3.y4m-av1-SSIM.eps
%%CreationDate: 2022-02-03T19:13:40
%%Pages: (atend)
%%BoundingBox:    33   425   508   826
%%LanguageLevel: 3
%%EndComments
%%BeginProlog
%%BeginResource: procset (Apache XML Graphics Std ProcSet) 1.2 0
%%Version: 1.2 0
%%Copyright: (Copyright 2001-2003,2010 The Apache Software Foundation. License terms: http://www.apache.org/licenses/LICENSE-2.0)
/bd{bind def}bind def
/ld{load def}bd
/GR/grestore ld
/GS/gsave ld
/RM/rmoveto ld
/C/curveto ld
/t/show ld
/L/lineto ld
/ML/setmiterlimit ld
/CT/concat ld
/f/fill ld
/N/newpath ld
/S/stroke ld
/CC/setcmykcolor ld
/A/ashow ld
/cp/closepath ld
/RC/setrgbcolor ld
/LJ/setlinejoin ld
/GC/setgray ld
/LW/setlinewidth ld
/M/moveto ld
/re {4 2 roll M
1 index 0 rlineto
0 exch rlineto
neg 0 rlineto
cp } bd
/_ctm matrix def
/_tm matrix def
/BT { _ctm currentmatrix pop matrix _tm copy pop 0 0 moveto } bd
/ET { _ctm setmatrix } bd
/iTm { _ctm setmatrix _tm concat } bd
/Tm { _tm astore pop iTm 0 0 moveto } bd
/ux 0.0 def
/uy 0.0 def
/F {
  /Tp exch def
  /Tf exch def
  Tf findfont Tp scalefont setfont
  /cf Tf def  /cs Tp def
} bd
/ULS {currentpoint /uy exch def /ux exch def} bd
/ULE {
  /Tcx currentpoint pop def
  gsave
  newpath
  cf findfont cs scalefont dup
  /FontMatrix get 0 get /Ts exch def /FontInfo get dup
  /UnderlinePosition get Ts mul /To exch def
  /UnderlineThickness get Ts mul /Tt exch def
  ux uy To add moveto  Tcx uy To add lineto
  Tt setlinewidth stroke
  grestore
} bd
/OLE {
  /Tcx currentpoint pop def
  gsave
  newpath
  cf findfont cs scalefont dup
  /FontMatrix get 0 get /Ts exch def /FontInfo get dup
  /UnderlinePosition get Ts mul /To exch def
  /UnderlineThickness get Ts mul /Tt exch def
  ux uy To add cs add moveto Tcx uy To add cs add lineto
  Tt setlinewidth stroke
  grestore
} bd
/SOE {
  /Tcx currentpoint pop def
  gsave
  newpath
  cf findfont cs scalefont dup
  /FontMatrix get 0 get /Ts exch def /FontInfo get dup
  /UnderlinePosition get Ts mul /To exch def
  /UnderlineThickness get Ts mul /Tt exch def
  ux uy To add cs 10 mul 26 idiv add moveto Tcx uy To add cs 10 mul 26 idiv add lineto
  Tt setlinewidth stroke
  grestore
} bd
/QT {
/Y22 exch store
/X22 exch store
/Y21 exch store
/X21 exch store
currentpoint
/Y21 load 2 mul add 3 div exch
/X21 load 2 mul add 3 div exch
/X21 load 2 mul /X22 load add 3 div
/Y21 load 2 mul /Y22 load add 3 div
/X22 load /Y22 load curveto
} bd
/SSPD {
dup length /d exch dict def
{
/v exch def
/k exch def
currentpagedevice k known {
/cpdv currentpagedevice k get def
v cpdv ne {
/upd false def
/nullv v type /nulltype eq def
/nullcpdv cpdv type /nulltype eq def
nullv nullcpdv or
{
/upd true def
} {
/sametype v type cpdv type eq def
sametype {
v type /arraytype eq {
/vlen v length def
/cpdvlen cpdv length def
vlen cpdvlen eq {
0 1 vlen 1 sub {
/i exch def
/obj v i get def
/cpdobj cpdv i get def
obj cpdobj ne {
/upd true def
exit
} if
} for
} {
/upd true def
} ifelse
} {
v type /dicttype eq {
v {
/dv exch def
/dk exch def
/cpddv cpdv dk get def
dv cpddv ne {
/upd true def
exit
} if
} forall
} {
/upd true def
} ifelse
} ifelse
} if
} ifelse
upd true eq {
d k v put
} if
} if
} if
} forall
d length 0 gt {
d setpagedevice
} if
} bd
/RE { % /NewFontName [NewEncodingArray] /FontName RE -
  findfont dup length dict begin
  {
    1 index /FID ne
    {def} {pop pop} ifelse
  } forall
  /Encoding exch def
  /FontName 1 index def
  currentdict definefont pop
  end
} bind def
%%EndResource
%%BeginResource: procset (Apache XML Graphics EPS ProcSet) 1.0 0
%%Version: 1.0 0
%%Copyright: (Copyright 2002-2003 The Apache Software Foundation. License terms: http://www.apache.org/licenses/LICENSE-2.0)
/BeginEPSF { %def
/b4_Inc_state save def         % Save state for cleanup
/dict_count countdictstack def % Count objects on dict stack
/op_count count 1 sub def      % Count objects on operand stack
userdict begin                 % Push userdict on dict stack
/showpage { } def              % Redefine showpage, { } = null proc
0 setgray 0 setlinecap         % Prepare graphics state
1 setlinewidth 0 setlinejoin
10 setmiterlimit [ ] 0 setdash newpath
/languagelevel where           % If level not equal to 1 then
{pop languagelevel             % set strokeadjust and
1 ne                           % overprint to their defaults.
{false setstrokeadjust false setoverprint
} if
} if
} bd
/EndEPSF { %def
count op_count sub {pop} repeat            % Clean up stacks
countdictstack dict_count sub {end} repeat
b4_Inc_state restore
} bd
%%EndResource
%FOPBeginFontDict
%%IncludeResource: font Courier-Oblique
%%IncludeResource: font Courier-BoldOblique
%%IncludeResource: font Courier-Bold
%%IncludeResource: font ZapfDingbats
%%IncludeResource: font Symbol
%%IncludeResource: font Helvetica
%%IncludeResource: font Helvetica-Oblique
%%IncludeResource: font Helvetica-Bold
%%IncludeResource: font Helvetica-BoldOblique
%%IncludeResource: font Times-Roman
%%IncludeResource: font Times-Italic
%%IncludeResource: font Times-Bold
%%IncludeResource: font Times-BoldItalic
%%IncludeResource: font Courier
%FOPEndFontDict
%%BeginResource: encoding WinAnsiEncoding
/WinAnsiEncoding [
/.notdef /.notdef /.notdef /.notdef /.notdef
/.notdef /.notdef /.notdef /.notdef /.notdef
/.notdef /.notdef /.notdef /.notdef /.notdef
/.notdef /.notdef /.notdef /.notdef /.notdef
/.notdef /.notdef /.notdef /.notdef /.notdef
/.notdef /.notdef /.notdef /.notdef /.notdef
/.notdef /.notdef /space /exclam /quotedbl
/numbersign /dollar /percent /ampersand /quotesingle
/parenleft /parenright /asterisk /plus /comma
/hyphen /period /slash /zero /one
/two /three /four /five /six
/seven /eight /nine /colon /semicolon
/less /equal /greater /question /at
/A /B /C /D /E
/F /G /H /I /J
/K /L /M /N /O
/P /Q /R /S /T
/U /V /W /X /Y
/Z /bracketleft /backslash /bracketright /asciicircum
/underscore /quoteleft /a /b /c
/d /e /f /g /h
/i /j /k /l /m
/n /o /p /q /r
/s /t /u /v /w
/x /y /z /braceleft /bar
/braceright /asciitilde /bullet /Euro /bullet
/quotesinglbase /florin /quotedblbase /ellipsis /dagger
/daggerdbl /circumflex /perthousand /Scaron /guilsinglleft
/OE /bullet /Zcaron /bullet /bullet
/quoteleft /quoteright /quotedblleft /quotedblright /bullet
/endash /emdash /asciitilde /trademark /scaron
/guilsinglright /oe /bullet /zcaron /Ydieresis
/space /exclamdown /cent /sterling /currency
/yen /brokenbar /section /dieresis /copyright
/ordfeminine /guillemotleft /logicalnot /sfthyphen /registered
/macron /degree /plusminus /twosuperior /threesuperior
/acute /mu /paragraph /middot /cedilla
/onesuperior /ordmasculine /guillemotright /onequarter /onehalf
/threequarters /questiondown /Agrave /Aacute /Acircumflex
/Atilde /Adieresis /Aring /AE /Ccedilla
/Egrave /Eacute /Ecircumflex /Edieresis /Igrave
/Iacute /Icircumflex /Idieresis /Eth /Ntilde
/Ograve /Oacute /Ocircumflex /Otilde /Odieresis
/multiply /Oslash /Ugrave /Uacute /Ucircumflex
/Udieresis /Yacute /Thorn /germandbls /agrave
/aacute /acircumflex /atilde /adieresis /aring
/ae /ccedilla /egrave /eacute /ecircumflex
/edieresis /igrave /iacute /icircumflex /idieresis
/eth /ntilde /ograve /oacute /ocircumflex
/otilde /odieresis /divide /oslash /ugrave
/uacute /ucircumflex /udieresis /yacute /thorn
/ydieresis
] def
%%EndResource
%FOPBeginFontReencode
/Courier-Oblique findfont
dup length dict begin
  {1 index /FID ne {def} {pop pop} ifelse} forall
  /Encoding WinAnsiEncoding def
  currentdict
end
/Courier-Oblique exch definefont pop
/Courier-BoldOblique findfont
dup length dict begin
  {1 index /FID ne {def} {pop pop} ifelse} forall
  /Encoding WinAnsiEncoding def
  currentdict
end
/Courier-BoldOblique exch definefont pop
/Courier-Bold findfont
dup length dict begin
  {1 index /FID ne {def} {pop pop} ifelse} forall
  /Encoding WinAnsiEncoding def
  currentdict
end
/Courier-Bold exch definefont pop
/Helvetica findfont
dup length dict begin
  {1 index /FID ne {def} {pop pop} ifelse} forall
  /Encoding WinAnsiEncoding def
  currentdict
end
/Helvetica exch definefont pop
/Helvetica-Oblique findfont
dup length dict begin
  {1 index /FID ne {def} {pop pop} ifelse} forall
  /Encoding WinAnsiEncoding def
  currentdict
end
/Helvetica-Oblique exch definefont pop
/Helvetica-Bold findfont
dup length dict begin
  {1 index /FID ne {def} {pop pop} ifelse} forall
  /Encoding WinAnsiEncoding def
  currentdict
end
/Helvetica-Bold exch definefont pop
/Helvetica-BoldOblique findfont
dup length dict begin
  {1 index /FID ne {def} {pop pop} ifelse} forall
  /Encoding WinAnsiEncoding def
  currentdict
end
/Helvetica-BoldOblique exch definefont pop
/Times-Roman findfont
dup length dict begin
  {1 index /FID ne {def} {pop pop} ifelse} forall
  /Encoding WinAnsiEncoding def
  currentdict
end
/Times-Roman exch definefont pop
/Times-Italic findfont
dup length dict begin
  {1 index /FID ne {def} {pop pop} ifelse} forall
  /Encoding WinAnsiEncoding def
  currentdict
end
/Times-Italic exch definefont pop
/Times-Bold findfont
dup length dict begin
  {1 index /FID ne {def} {pop pop} ifelse} forall
  /Encoding WinAnsiEncoding def
  currentdict
end
/Times-Bold exch definefont pop
/Times-BoldItalic findfont
dup length dict begin
  {1 index /FID ne {def} {pop pop} ifelse} forall
  /Encoding WinAnsiEncoding def
  currentdict
end
/Times-BoldItalic exch definefont pop
/Courier findfont
dup length dict begin
  {1 index /FID ne {def} {pop pop} ifelse} forall
  /Encoding WinAnsiEncoding def
  currentdict
end
/Courier exch definefont pop
%FOPEndFontReencode
%%EndProlog
%%Page: 1 1
%%PageBoundingBox: 0 0 1120 840
%%BeginPageSetup
[1 0 0 -1 0 840] CT
%%EndPageSetup
GS
1 GC
N
0 0 1120 840 re
f
GR
GS
1 GC
N
73 374 M
507 374 L
507 31.5 L
73 31.5 L
cp
f
GR
GS
0.149 GC
2 setlinecap
1 LJ
0.5 LW
N
73 374 M
507 374 L
S
GR
GS
0.149 GC
2 setlinecap
1 LJ
0.5 LW
N
73 31.5 M
507 31.5 L
S
GR
GS
0.149 GC
2 setlinecap
1 LJ
0.5 LW
N
128.153 374 M
128.153 369.66 L
S
GR
GS
0.149 GC
2 setlinecap
1 LJ
0.5 LW
N
210.797 374 M
210.797 369.66 L
S
GR
GS
0.149 GC
2 setlinecap
1 LJ
0.5 LW
N
293.44 374 M
293.44 369.66 L
S
GR
GS
0.149 GC
2 setlinecap
1 LJ
0.5 LW
N
376.084 374 M
376.084 369.66 L
S
GR
GS
0.149 GC
2 setlinecap
1 LJ
0.5 LW
N
458.727 374 M
458.727 369.66 L
S
GR
GS
0.149 GC
2 setlinecap
1 LJ
0.5 LW
N
128.153 31.5 M
128.153 35.84 L
S
GR
GS
0.149 GC
2 setlinecap
1 LJ
0.5 LW
N
210.797 31.5 M
210.797 35.84 L
S
GR
GS
0.149 GC
2 setlinecap
1 LJ
0.5 LW
N
293.44 31.5 M
293.44 35.84 L
S
GR
GS
0.149 GC
2 setlinecap
1 LJ
0.5 LW
N
376.084 31.5 M
376.084 35.84 L
S
GR
GS
0.149 GC
2 setlinecap
1 LJ
0.5 LW
N
458.727 31.5 M
458.727 35.84 L
S
GR
GS
0.149 GC
2 setlinecap
1 LJ
0.5 LW
N
86.831 374 M
86.831 371.83 L
S
GR
GS
0.149 GC
2 setlinecap
1 LJ
0.5 LW
N
107.492 374 M
107.492 371.83 L
S
GR
GS
0.149 GC
2 setlinecap
1 LJ
0.5 LW
N
148.814 374 M
148.814 371.83 L
S
GR
GS
0.149 GC
2 setlinecap
1 LJ
0.5 LW
N
169.475 374 M
169.475 371.83 L
S
GR
GS
0.149 GC
2 setlinecap
1 LJ
0.5 LW
N
190.136 374 M
190.136 371.83 L
S
GR
GS
0.149 GC
2 setlinecap
1 LJ
0.5 LW
N
231.458 374 M
231.458 371.83 L
S
GR
GS
0.149 GC
2 setlinecap
1 LJ
0.5 LW
N
252.119 374 M
252.119 371.83 L
S
GR
GS
0.149 GC
2 setlinecap
1 LJ
0.5 LW
N
272.779 374 M
272.779 371.83 L
S
GR
GS
0.149 GC
2 setlinecap
1 LJ
0.5 LW
N
314.101 374 M
314.101 371.83 L
S
GR
GS
0.149 GC
2 setlinecap
1 LJ
0.5 LW
N
334.762 374 M
334.762 371.83 L
S
GR
GS
0.149 GC
2 setlinecap
1 LJ
0.5 LW
N
355.423 374 M
355.423 371.83 L
S
GR
GS
0.149 GC
2 setlinecap
1 LJ
0.5 LW
N
396.745 374 M
396.745 371.83 L
S
GR
GS
0.149 GC
2 setlinecap
1 LJ
0.5 LW
N
417.406 374 M
417.406 371.83 L
S
GR
GS
0.149 GC
2 setlinecap
1 LJ
0.5 LW
N
438.066 374 M
438.066 371.83 L
S
GR
GS
0.149 GC
2 setlinecap
1 LJ
0.5 LW
N
479.388 374 M
479.388 371.83 L
S
GR
GS
0.149 GC
2 setlinecap
1 LJ
0.5 LW
N
500.049 374 M
500.049 371.83 L
S
GR
GS
0.149 GC
2 setlinecap
1 LJ
0.5 LW
N
86.831 31.5 M
86.831 33.67 L
S
GR
GS
0.149 GC
2 setlinecap
1 LJ
0.5 LW
N
107.492 31.5 M
107.492 33.67 L
S
GR
GS
0.149 GC
2 setlinecap
1 LJ
0.5 LW
N
148.814 31.5 M
148.814 33.67 L
S
GR
GS
0.149 GC
2 setlinecap
1 LJ
0.5 LW
N
169.475 31.5 M
169.475 33.67 L
S
GR
GS
0.149 GC
2 setlinecap
1 LJ
0.5 LW
N
190.136 31.5 M
190.136 33.67 L
S
GR
GS
0.149 GC
2 setlinecap
1 LJ
0.5 LW
N
231.458 31.5 M
231.458 33.67 L
S
GR
GS
0.149 GC
2 setlinecap
1 LJ
0.5 LW
N
252.119 31.5 M
252.119 33.67 L
S
GR
GS
0.149 GC
2 setlinecap
1 LJ
0.5 LW
N
272.779 31.5 M
272.779 33.67 L
S
GR
GS
0.149 GC
2 setlinecap
1 LJ
0.5 LW
N
314.101 31.5 M
314.101 33.67 L
S
GR
GS
0.149 GC
2 setlinecap
1 LJ
0.5 LW
N
334.762 31.5 M
334.762 33.67 L
S
GR
GS
0.149 GC
2 setlinecap
1 LJ
0.5 LW
N
355.423 31.5 M
355.423 33.67 L
S
GR
GS
0.149 GC
2 setlinecap
1 LJ
0.5 LW
N
396.745 31.5 M
396.745 33.67 L
S
GR
GS
0.149 GC
2 setlinecap
1 LJ
0.5 LW
N
417.406 31.5 M
417.406 33.67 L
S
GR
GS
0.149 GC
2 setlinecap
1 LJ
0.5 LW
N
438.066 31.5 M
438.066 33.67 L
S
GR
GS
0.149 GC
2 setlinecap
1 LJ
0.5 LW
N
479.388 31.5 M
479.388 33.67 L
S
GR
GS
0.149 GC
2 setlinecap
1 LJ
0.5 LW
N
500.049 31.5 M
500.049 33.67 L
S
GR
GS
[1 0 0 1 128.15324 378.80002] CT
0.149 GC
/Helvetica 14 F
GS
[1 0 0 1 0 0] CT
-16 14 moveto 
1 -1 scale
(2000) t 
GR
GR
GS
[1 0 0 1 210.79677 378.80002] CT
0.149 GC
/Helvetica 14 F
GS
[1 0 0 1 0 0] CT
-16 14 moveto 
1 -1 scale
(4000) t 
GR
GR
GS
[1 0 0 1 293.44028 378.80002] CT
0.149 GC
/Helvetica 14 F
GS
[1 0 0 1 0 0] CT
-16 14 moveto 
1 -1 scale
(6000) t 
GR
GR
GS
[1 0 0 1 376.08383 378.80002] CT
0.149 GC
/Helvetica 14 F
GS
[1 0 0 1 0 0] CT
-16 14 moveto 
1 -1 scale
(8000) t 
GR
GR
GS
[1 0 0 1 458.72736 378.80002] CT
0.149 GC
/Helvetica 14 F
GS
[1 0 0 1 0 0] CT
-19.5 14 moveto 
1 -1 scale
(10000) t 
GR
GR
GS
[1 0 0 1 290.00021 396.29999] CT
0.149 GC
/Helvetica 15.4 F
GS
[1 0 0 1 0 0] CT
-42 15 moveto 
1 -1 scale
(Bitrate\(kb/s\)) t 
GR
GR
GS
0.149 GC
2 setlinecap
1 LJ
0.5 LW
N
73 374 M
73 31.5 L
S
GR
GS
0.149 GC
2 setlinecap
1 LJ
0.5 LW
N
507 374 M
507 31.5 L
S
GR
GS
0.149 GC
2 setlinecap
1 LJ
0.5 LW
N
73 370.86 M
77.34 370.86 L
S
GR
GS
0.149 GC
2 setlinecap
1 LJ
0.5 LW
N
73 320.055 M
77.34 320.055 L
S
GR
GS
0.149 GC
2 setlinecap
1 LJ
0.5 LW
N
73 269.25 M
77.34 269.25 L
S
GR
GS
0.149 GC
2 setlinecap
1 LJ
0.5 LW
N
73 218.444 M
77.34 218.444 L
S
GR
GS
0.149 GC
2 setlinecap
1 LJ
0.5 LW
N
73 167.639 M
77.34 167.639 L
S
GR
GS
0.149 GC
2 setlinecap
1 LJ
0.5 LW
N
73 116.834 M
77.34 116.834 L
S
GR
GS
0.149 GC
2 setlinecap
1 LJ
0.5 LW
N
73 66.029 M
77.34 66.029 L
S
GR
GS
0.149 GC
2 setlinecap
1 LJ
0.5 LW
N
507 370.86 M
502.66 370.86 L
S
GR
GS
0.149 GC
2 setlinecap
1 LJ
0.5 LW
N
507 320.055 M
502.66 320.055 L
S
GR
GS
0.149 GC
2 setlinecap
1 LJ
0.5 LW
N
507 269.25 M
502.66 269.25 L
S
GR
GS
0.149 GC
2 setlinecap
1 LJ
0.5 LW
N
507 218.444 M
502.66 218.444 L
S
GR
GS
0.149 GC
2 setlinecap
1 LJ
0.5 LW
N
507 167.639 M
502.66 167.639 L
S
GR
GS
0.149 GC
2 setlinecap
1 LJ
0.5 LW
N
507 116.834 M
502.66 116.834 L
S
GR
GS
0.149 GC
2 setlinecap
1 LJ
0.5 LW
N
507 66.029 M
502.66 66.029 L
S
GR
GS
0.149 GC
2 setlinecap
1 LJ
0.5 LW
N
73 358.159 M
75.17 358.159 L
S
GR
GS
0.149 GC
2 setlinecap
1 LJ
0.5 LW
N
73 345.457 M
75.17 345.457 L
S
GR
GS
0.149 GC
2 setlinecap
1 LJ
0.5 LW
N
73 332.756 M
75.17 332.756 L
S
GR
GS
0.149 GC
2 setlinecap
1 LJ
0.5 LW
N
73 307.353 M
75.17 307.353 L
S
GR
GS
0.149 GC
2 setlinecap
1 LJ
0.5 LW
N
73 294.652 M
75.17 294.652 L
S
GR
GS
0.149 GC
2 setlinecap
1 LJ
0.5 LW
N
73 281.951 M
75.17 281.951 L
S
GR
GS
0.149 GC
2 setlinecap
1 LJ
0.5 LW
N
73 256.548 M
75.17 256.548 L
S
GR
GS
0.149 GC
2 setlinecap
1 LJ
0.5 LW
N
73 243.847 M
75.17 243.847 L
S
GR
GS
0.149 GC
2 setlinecap
1 LJ
0.5 LW
N
73 231.146 M
75.17 231.146 L
S
GR
GS
0.149 GC
2 setlinecap
1 LJ
0.5 LW
N
73 205.743 M
75.17 205.743 L
S
GR
GS
0.149 GC
2 setlinecap
1 LJ
0.5 LW
N
73 193.042 M
75.17 193.042 L
S
GR
GS
0.149 GC
2 setlinecap
1 LJ
0.5 LW
N
73 180.341 M
75.17 180.341 L
S
GR
GS
0.149 GC
2 setlinecap
1 LJ
0.5 LW
N
73 154.938 M
75.17 154.938 L
S
GR
GS
0.149 GC
2 setlinecap
1 LJ
0.5 LW
N
73 142.237 M
75.17 142.237 L
S
GR
GS
0.149 GC
2 setlinecap
1 LJ
0.5 LW
N
73 129.535 M
75.17 129.535 L
S
GR
GS
0.149 GC
2 setlinecap
1 LJ
0.5 LW
N
73 104.133 M
75.17 104.133 L
S
GR
GS
0.149 GC
2 setlinecap
1 LJ
0.5 LW
N
73 91.432 M
75.17 91.432 L
S
GR
GS
0.149 GC
2 setlinecap
1 LJ
0.5 LW
N
73 78.73 M
75.17 78.73 L
S
GR
GS
0.149 GC
2 setlinecap
1 LJ
0.5 LW
N
73 53.328 M
75.17 53.328 L
S
GR
GS
0.149 GC
2 setlinecap
1 LJ
0.5 LW
N
73 40.627 M
75.17 40.627 L
S
GR
GS
0.149 GC
2 setlinecap
1 LJ
0.5 LW
N
507 358.159 M
504.83 358.159 L
S
GR
GS
0.149 GC
2 setlinecap
1 LJ
0.5 LW
N
507 345.457 M
504.83 345.457 L
S
GR
GS
0.149 GC
2 setlinecap
1 LJ
0.5 LW
N
507 332.756 M
504.83 332.756 L
S
GR
GS
0.149 GC
2 setlinecap
1 LJ
0.5 LW
N
507 307.353 M
504.83 307.353 L
S
GR
GS
0.149 GC
2 setlinecap
1 LJ
0.5 LW
N
507 294.652 M
504.83 294.652 L
S
GR
GS
0.149 GC
2 setlinecap
1 LJ
0.5 LW
N
507 281.951 M
504.83 281.951 L
S
GR
GS
0.149 GC
2 setlinecap
1 LJ
0.5 LW
N
507 256.548 M
504.83 256.548 L
S
GR
GS
0.149 GC
2 setlinecap
1 LJ
0.5 LW
N
507 243.847 M
504.83 243.847 L
S
GR
GS
0.149 GC
2 setlinecap
1 LJ
0.5 LW
N
507 231.146 M
504.83 231.146 L
S
GR
GS
0.149 GC
2 setlinecap
1 LJ
0.5 LW
N
507 205.743 M
504.83 205.743 L
S
GR
GS
0.149 GC
2 setlinecap
1 LJ
0.5 LW
N
507 193.042 M
504.83 193.042 L
S
GR
GS
0.149 GC
2 setlinecap
1 LJ
0.5 LW
N
507 180.341 M
504.83 180.341 L
S
GR
GS
0.149 GC
2 setlinecap
1 LJ
0.5 LW
N
507 154.938 M
504.83 154.938 L
S
GR
GS
0.149 GC
2 setlinecap
1 LJ
0.5 LW
N
507 142.237 M
504.83 142.237 L
S
GR
GS
0.149 GC
2 setlinecap
1 LJ
0.5 LW
N
507 129.535 M
504.83 129.535 L
S
GR
GS
0.149 GC
2 setlinecap
1 LJ
0.5 LW
N
507 104.133 M
504.83 104.133 L
S
GR
GS
0.149 GC
2 setlinecap
1 LJ
0.5 LW
N
507 91.432 M
504.83 91.432 L
S
GR
GS
0.149 GC
2 setlinecap
1 LJ
0.5 LW
N
507 78.73 M
504.83 78.73 L
S
GR
GS
0.149 GC
2 setlinecap
1 LJ
0.5 LW
N
507 53.328 M
504.83 53.328 L
S
GR
GS
0.149 GC
2 setlinecap
1 LJ
0.5 LW
N
507 40.627 M
504.83 40.627 L
S
GR
GS
[1 0 0 1 68.2 370.85986] CT
0.149 GC
/Helvetica 14 F
GS
[1 0 0 1 0 0] CT
-16 5.5 moveto 
1 -1 scale
(12) t 
GR
GR
GS
[1 0 0 1 68.2 320.05472] CT
0.149 GC
/Helvetica 14 F
GS
[1 0 0 1 0 0] CT
-16 5.5 moveto 
1 -1 scale
(14) t 
GR
GR
GS
[1 0 0 1 68.2 269.2496] CT
0.149 GC
/Helvetica 14 F
GS
[1 0 0 1 0 0] CT
-16 5.5 moveto 
1 -1 scale
(16) t 
GR
GR
GS
[1 0 0 1 68.2 218.44447] CT
0.149 GC
/Helvetica 14 F
GS
[1 0 0 1 0 0] CT
-16 5.5 moveto 
1 -1 scale
(18) t 
GR
GR
GS
[1 0 0 1 68.2 167.63934] CT
0.149 GC
/Helvetica 14 F
GS
[1 0 0 1 0 0] CT
-16 5.5 moveto 
1 -1 scale
(20) t 
GR
GR
GS
[1 0 0 1 68.2 116.83421] CT
0.149 GC
/Helvetica 14 F
GS
[1 0 0 1 0 0] CT
-16 5.5 moveto 
1 -1 scale
(22) t 
GR
GR
GS
[1 0 0 1 68.2 66.02908] CT
0.149 GC
/Helvetica 14 F
GS
[1 0 0 1 0 0] CT
-16 5.5 moveto 
1 -1 scale
(24) t 
GR
GR
GS
[0 -1 1 0 49.2 202.74985] CT
0.149 GC
/Helvetica 15.4 F
GS
[1 0 0 1 0 0] CT
-35 -4 moveto 
1 -1 scale
(SSIM \(dB\)) t 
GR
GR
GS
[1 0 0 1 290.00027 29.575] CT
/Helvetica-Bold 15.4 F
GS
[1 0 0 1 0 0] CT
-131.5 -4 moveto 
1 -1 scale
(TelevisionClip_1080P-39e3.y4m-av1) t 
GR
GR
GS
0 0.447 0.741 RC
1 LJ
0.5 LW
N
77.254 356.926 M
78.08 354.13 L
78.907 351.34 L
79.733 348.559 L
80.559 345.79 L
81.386 343.034 L
82.212 340.293 L
83.039 337.568 L
83.865 334.863 L
84.692 332.178 L
85.518 329.517 L
86.344 326.88 L
87.171 324.27 L
87.997 321.689 L
88.824 319.138 L
89.65 316.62 L
90.477 314.136 L
91.303 311.689 L
92.13 309.281 L
92.956 306.913 L
93.782 304.587 L
94.609 302.306 L
95.435 300.071 L
96.262 297.885 L
97.088 295.748 L
97.915 293.664 L
98.741 291.634 L
99.567 289.66 L
100.394 287.744 L
101.22 285.889 L
102.047 284.095 L
102.873 282.365 L
103.7 280.675 L
104.526 279.001 L
105.352 277.345 L
106.179 275.706 L
107.005 274.083 L
107.832 272.477 L
108.658 270.887 L
109.485 269.314 L
110.311 267.757 L
111.138 266.216 L
111.964 264.692 L
112.79 263.183 L
113.617 261.69 L
114.443 260.213 L
115.27 258.752 L
116.096 257.307 L
116.923 255.876 L
117.749 254.461 L
118.575 253.062 L
119.402 251.677 L
120.228 250.308 L
121.055 248.954 L
121.881 247.614 L
122.708 246.289 L
123.534 244.979 L
124.36 243.684 L
125.187 242.402 L
126.013 241.136 L
126.84 239.883 L
127.666 238.645 L
128.493 237.42 L
129.319 236.21 L
130.146 235.013 L
130.972 233.83 L
131.798 232.661 L
132.625 231.505 L
133.451 230.362 L
134.278 229.233 L
135.104 228.117 L
135.931 227.014 L
136.757 225.924 L
137.583 224.848 L
138.41 223.783 L
139.236 222.732 L
140.063 221.693 L
140.889 220.667 L
141.716 219.653 L
142.542 218.651 L
143.368 217.661 L
144.195 216.684 L
145.021 215.718 L
145.848 214.764 L
146.674 213.822 L
147.501 212.892 L
148.327 211.973 L
149.154 211.066 L
149.98 210.17 L
150.806 209.285 L
151.633 208.412 L
152.459 207.549 L
153.286 206.696 L
154.112 205.848 L
154.939 205.006 L
155.765 204.169 L
156.591 203.337 L
157.418 202.511 L
158.244 201.69 L
159.071 200.874 L
159.897 200.063 L
160.724 199.257 L
161.55 198.457 L
162.376 197.661 L
163.203 196.871 L
164.029 196.086 L
164.856 195.305 L
165.682 194.53 L
166.509 193.759 L
167.335 192.994 L
168.162 192.233 L
168.988 191.477 L
169.814 190.726 L
170.641 189.979 L
171.467 189.237 L
172.294 188.5 L
173.12 187.768 L
173.947 187.04 L
174.773 186.316 L
175.599 185.598 L
176.426 184.883 L
177.252 184.173 L
178.079 183.468 L
178.905 182.767 L
179.732 182.07 L
180.558 181.378 L
181.385 180.69 L
182.211 180.006 L
183.037 179.326 L
183.864 178.651 L
184.69 177.98 L
185.517 177.313 L
186.343 176.649 L
187.17 175.99 L
187.996 175.335 L
188.822 174.684 L
189.649 174.037 L
190.475 173.394 L
191.302 172.755 L
192.128 172.12 L
192.955 171.488 L
193.781 170.86 L
194.607 170.236 L
195.434 169.616 L
196.26 168.999 L
197.087 168.386 L
197.913 167.776 L
198.74 167.171 L
199.566 166.568 L
200.393 165.969 L
201.219 165.374 L
202.045 164.782 L
202.872 164.194 L
203.698 163.608 L
204.525 163.026 L
205.351 162.448 L
206.178 161.873 L
207.004 161.301 L
207.83 160.732 L
208.657 160.166 L
209.483 159.603 L
210.31 159.044 L
211.136 158.488 L
211.963 157.934 L
212.789 157.384 L
213.615 156.836 L
214.442 156.292 L
215.268 155.75 L
216.095 155.211 L
216.921 154.675 L
217.748 154.142 L
218.574 153.612 L
219.401 153.084 L
220.227 152.559 L
221.053 152.036 L
221.88 151.517 L
222.706 150.999 L
223.533 150.485 L
224.359 149.973 L
225.186 149.463 L
226.012 148.956 L
226.838 148.451 L
227.665 147.948 L
228.491 147.448 L
229.318 146.95 L
230.144 146.455 L
230.971 145.962 L
231.797 145.47 L
232.623 144.982 L
233.45 144.495 L
234.276 144.01 L
235.103 143.527 L
235.929 143.047 L
236.756 142.568 L
237.582 142.091 L
238.409 141.617 L
239.235 141.144 L
240.061 140.673 L
240.888 140.204 L
241.714 139.736 L
242.541 139.271 L
243.367 138.807 L
244.194 138.345 L
245.02 137.884 L
245.846 137.425 L
246.673 136.968 L
247.499 136.512 L
248.326 136.058 L
249.152 135.605 L
249.979 135.151 L
250.805 134.698 L
251.632 134.246 L
252.458 133.793 L
253.284 133.341 L
254.111 132.889 L
254.937 132.437 L
255.764 131.985 L
256.59 131.534 L
257.417 131.083 L
258.243 130.632 L
259.069 130.182 L
259.896 129.732 L
260.722 129.282 L
261.549 128.832 L
262.375 128.383 L
263.202 127.934 L
264.028 127.485 L
264.854 127.037 L
265.681 126.589 L
266.507 126.141 L
267.334 125.694 L
268.16 125.247 L
268.987 124.8 L
269.813 124.354 L
270.64 123.908 L
271.466 123.462 L
272.292 123.017 L
273.119 122.572 L
273.945 122.127 L
274.772 121.683 L
275.598 121.239 L
276.425 120.796 L
277.251 120.353 L
278.077 119.91 L
278.904 119.468 L
279.73 119.026 L
280.557 118.585 L
281.383 118.144 L
282.21 117.703 L
283.036 117.263 L
283.862 116.824 L
284.689 116.384 L
285.515 115.946 L
286.342 115.507 L
287.168 115.069 L
287.995 114.632 L
288.821 114.195 L
289.648 113.758 L
290.474 113.322 L
291.3 112.887 L
292.127 112.452 L
292.953 112.017 L
293.78 111.583 L
294.606 111.15 L
295.433 110.717 L
296.259 110.284 L
297.085 109.852 L
297.912 109.421 L
298.738 108.99 L
299.565 108.559 L
300.391 108.13 L
301.218 107.7 L
302.044 107.272 L
302.87 106.843 L
303.697 106.416 L
304.523 105.989 L
305.35 105.562 L
306.176 105.136 L
307.003 104.711 L
307.829 104.286 L
308.656 103.862 L
309.482 103.438 L
310.308 103.015 L
311.135 102.593 L
311.961 102.171 L
312.788 101.75 L
313.614 101.33 L
314.441 100.91 L
315.267 100.491 L
316.093 100.072 L
316.92 99.654 L
317.746 99.237 L
318.573 98.82 L
319.399 98.404 L
320.226 97.989 L
321.052 97.574 L
321.879 97.16 L
322.705 96.747 L
323.531 96.334 L
324.358 95.923 L
325.184 95.511 L
326.011 95.101 L
326.837 94.691 L
327.664 94.282 L
328.49 93.874 L
329.316 93.466 L
330.143 93.059 L
330.969 92.653 L
331.796 92.248 L
332.622 91.843 L
333.449 91.439 L
334.275 91.036 L
335.101 90.634 L
335.928 90.232 L
336.754 89.831 L
337.581 89.431 L
338.407 89.032 L
339.234 88.633 L
340.06 88.235 L
340.887 87.839 L
341.713 87.442 L
342.539 87.047 L
343.366 86.653 L
344.192 86.259 L
345.019 85.866 L
345.845 85.474 L
346.672 85.083 L
347.498 84.693 L
348.324 84.303 L
349.151 83.914 L
349.977 83.527 L
350.804 83.14 L
351.63 82.754 L
352.457 82.369 L
353.283 81.984 L
354.109 81.601 L
354.936 81.218 L
355.762 80.837 L
356.589 80.456 L
357.415 80.076 L
358.242 79.697 L
359.068 79.319 L
359.895 78.942 L
360.721 78.566 L
361.547 78.191 L
362.374 77.816 L
363.2 77.443 L
364.027 77.071 L
364.853 76.699 L
365.68 76.329 L
366.506 75.959 L
367.332 75.59 L
368.159 75.223 L
368.985 74.856 L
369.812 74.491 L
370.638 74.126 L
371.465 73.762 L
372.291 73.4 L
373.117 73.038 L
373.944 72.677 L
374.77 72.318 L
375.597 71.959 L
376.423 71.601 L
377.25 71.245 L
378.076 70.889 L
378.903 70.535 L
379.729 70.181 L
380.555 69.829 L
381.382 69.478 L
382.208 69.127 L
383.035 68.778 L
383.861 68.43 L
384.688 68.083 L
385.514 67.737 L
386.34 67.392 L
387.167 67.048 L
387.993 66.706 L
388.82 66.364 L
389.646 66.023 L
390.473 65.684 L
391.299 65.346 L
392.125 65.009 L
392.952 64.673 L
393.778 64.338 L
394.605 64.004 L
395.431 63.672 L
396.258 63.34 L
397.084 63.01 L
397.911 62.681 L
398.737 62.353 L
399.563 62.026 L
400.39 61.701 L
401.216 61.376 L
402.043 61.053 L
402.869 60.731 L
403.696 60.41 L
404.522 60.091 L
405.348 59.772 L
406.175 59.455 L
407.001 59.139 L
407.828 58.824 L
408.654 58.511 L
409.481 58.198 L
410.307 57.887 L
411.134 57.578 L
411.96 57.269 L
412.786 56.962 L
413.613 56.656 L
414.439 56.351 L
415.266 56.047 L
416.092 55.745 L
416.919 55.444 L
417.745 55.145 L
418.571 54.846 L
419.398 54.549 L
420.224 54.253 L
421.051 53.959 L
421.877 53.666 L
422.704 53.374 L
423.53 53.084 L
424.356 52.794 L
425.183 52.507 L
426.009 52.22 L
426.836 51.935 L
427.662 51.651 L
428.489 51.369 L
429.315 51.088 L
430.142 50.808 L
430.968 50.53 L
431.794 50.253 L
432.621 49.977 L
433.447 49.703 L
434.274 49.43 L
435.1 49.159 L
435.927 48.889 L
436.753 48.62 L
437.579 48.353 L
438.406 48.088 L
439.232 47.823 L
440.059 47.56 L
440.885 47.299 L
441.712 47.039 L
442.538 46.78 L
443.364 46.523 L
444.191 46.268 L
445.017 46.013 L
445.844 45.761 L
446.67 45.509 L
447.497 45.26 L
448.323 45.011 L
449.15 44.765 L
449.976 44.519 L
450.802 44.275 L
451.629 44.033 L
452.455 43.792 L
453.282 43.553 L
454.108 43.315 L
454.935 43.079 L
455.761 42.844 L
456.587 42.611 L
457.414 42.38 L
458.24 42.15 L
459.067 41.921 L
459.893 41.694 L
460.72 41.469 L
461.546 41.245 L
462.372 41.022 L
463.199 40.802 L
464.025 40.583 L
464.852 40.365 L
465.678 40.149 L
466.505 39.935 L
467.331 39.722 L
468.158 39.511 L
468.984 39.301 L
469.81 39.094 L
470.637 38.887 L
471.463 38.683 L
472.29 38.48 L
473.116 38.278 L
473.943 38.079 L
474.769 37.881 L
475.595 37.684 L
476.422 37.489 L
477.248 37.296 L
478.075 37.105 L
478.901 36.915 L
479.728 36.727 L
480.554 36.541 L
481.38 36.356 L
482.207 36.173 L
483.033 35.992 L
483.86 35.812 L
484.686 35.634 L
485.513 35.458 L
486.339 35.284 L
487.166 35.111 L
487.992 34.94 L
488.818 34.771 L
489.645 34.604 L
490.471 34.438 L
491.298 34.274 L
492.124 34.112 L
492.951 33.952 L
493.777 33.793 L
494.603 33.636 L
495.43 33.481 L
496.256 33.328 L
497.083 33.176 L
497.909 33.026 L
498.736 32.879 L
499.562 32.732 L
500.389 32.588 L
501.215 32.446 L
502.041 32.305 L
502.868 32.166 L
503.694 32.029 L
504.521 31.894 L
505.347 31.761 L
506.174 31.63 L
507 31.5 L
S
GR
GS
0.851 0.325 0.098 RC
1 LJ
0.5 LW
N
73 374 M
73.826 370.815 L
74.653 367.641 L
75.479 364.479 L
76.306 361.333 L
77.132 358.205 L
77.959 355.097 L
78.785 352.013 L
79.611 348.955 L
80.438 345.925 L
81.264 342.926 L
82.091 339.961 L
82.917 337.032 L
83.744 334.142 L
84.57 331.293 L
85.397 328.489 L
86.223 325.731 L
87.049 323.022 L
87.876 320.365 L
88.702 317.762 L
89.529 315.216 L
90.355 312.73 L
91.182 310.307 L
92.008 307.947 L
92.834 305.656 L
93.661 303.434 L
94.487 301.285 L
95.314 299.211 L
96.14 297.214 L
96.967 295.278 L
97.793 293.364 L
98.619 291.47 L
99.446 289.597 L
100.272 287.745 L
101.099 285.913 L
101.925 284.102 L
102.752 282.311 L
103.578 280.54 L
104.405 278.789 L
105.231 277.059 L
106.057 275.348 L
106.884 273.657 L
107.71 271.985 L
108.537 270.334 L
109.363 268.701 L
110.19 267.089 L
111.016 265.495 L
111.842 263.92 L
112.669 262.365 L
113.495 260.829 L
114.322 259.311 L
115.148 257.812 L
115.975 256.332 L
116.801 254.871 L
117.628 253.428 L
118.454 252.003 L
119.28 250.596 L
120.107 249.208 L
120.933 247.838 L
121.76 246.485 L
122.586 245.151 L
123.413 243.834 L
124.239 242.535 L
125.065 241.253 L
125.892 239.989 L
126.718 238.742 L
127.545 237.512 L
128.371 236.299 L
129.198 235.104 L
130.024 233.925 L
130.85 232.763 L
131.677 231.618 L
132.503 230.49 L
133.33 229.378 L
134.156 228.282 L
134.983 227.202 L
135.809 226.139 L
136.636 225.092 L
137.462 224.061 L
138.288 223.046 L
139.115 222.046 L
139.941 221.062 L
140.768 220.093 L
141.594 219.132 L
142.421 218.177 L
143.247 217.23 L
144.073 216.29 L
144.9 215.357 L
145.726 214.431 L
146.553 213.511 L
147.379 212.599 L
148.206 211.693 L
149.032 210.795 L
149.858 209.902 L
150.685 209.017 L
151.511 208.138 L
152.338 207.266 L
153.164 206.4 L
153.991 205.54 L
154.817 204.687 L
155.644 203.84 L
156.47 203 L
157.296 202.166 L
158.123 201.337 L
158.949 200.516 L
159.776 199.7 L
160.602 198.89 L
161.429 198.086 L
162.255 197.288 L
163.081 196.496 L
163.908 195.71 L
164.734 194.929 L
165.561 194.154 L
166.387 193.385 L
167.214 192.622 L
168.04 191.864 L
168.867 191.112 L
169.693 190.365 L
170.519 189.623 L
171.346 188.887 L
172.172 188.156 L
172.999 187.431 L
173.825 186.71 L
174.652 185.995 L
175.478 185.285 L
176.304 184.58 L
177.131 183.88 L
177.957 183.185 L
178.784 182.494 L
179.61 181.809 L
180.437 181.129 L
181.263 180.453 L
182.089 179.782 L
182.916 179.115 L
183.742 178.453 L
184.569 177.796 L
185.395 177.143 L
186.222 176.495 L
187.048 175.851 L
187.875 175.211 L
188.701 174.576 L
189.527 173.944 L
190.354 173.317 L
191.18 172.695 L
192.007 172.076 L
192.833 171.461 L
193.66 170.85 L
194.486 170.244 L
195.312 169.641 L
196.139 169.041 L
196.965 168.446 L
197.792 167.854 L
198.618 167.266 L
199.445 166.682 L
200.271 166.101 L
201.097 165.524 L
201.924 164.95 L
202.75 164.38 L
203.577 163.813 L
204.403 163.249 L
205.23 162.689 L
206.056 162.132 L
206.883 161.577 L
207.709 161.026 L
208.535 160.479 L
209.362 159.934 L
210.188 159.392 L
211.015 158.853 L
211.841 158.317 L
212.668 157.783 L
213.494 157.252 L
214.32 156.725 L
215.147 156.199 L
215.973 155.677 L
216.8 155.156 L
217.626 154.639 L
218.453 154.124 L
219.279 153.611 L
220.105 153.1 L
220.932 152.592 L
221.758 152.086 L
222.585 151.582 L
223.411 151.078 L
224.238 150.575 L
225.064 150.071 L
225.891 149.569 L
226.717 149.066 L
227.543 148.564 L
228.37 148.061 L
229.196 147.56 L
230.023 147.058 L
230.849 146.557 L
231.676 146.056 L
232.502 145.556 L
233.328 145.056 L
234.155 144.556 L
234.981 144.057 L
235.808 143.558 L
236.634 143.059 L
237.461 142.561 L
238.287 142.063 L
239.113 141.566 L
239.94 141.069 L
240.766 140.572 L
241.593 140.076 L
242.419 139.581 L
243.246 139.085 L
244.072 138.591 L
244.899 138.096 L
245.725 137.603 L
246.551 137.109 L
247.378 136.616 L
248.204 136.124 L
249.031 135.632 L
249.857 135.141 L
250.684 134.65 L
251.51 134.16 L
252.336 133.67 L
253.163 133.181 L
253.989 132.692 L
254.816 132.204 L
255.642 131.717 L
256.469 131.23 L
257.295 130.743 L
258.121 130.258 L
258.948 129.773 L
259.774 129.288 L
260.601 128.804 L
261.427 128.321 L
262.254 127.838 L
263.08 127.356 L
263.907 126.875 L
264.733 126.394 L
265.559 125.914 L
266.386 125.435 L
267.212 124.956 L
268.039 124.478 L
268.865 124.001 L
269.692 123.525 L
270.518 123.049 L
271.344 122.574 L
272.171 122.1 L
272.997 121.626 L
273.824 121.153 L
274.65 120.681 L
275.477 120.21 L
276.303 119.739 L
277.13 119.27 L
277.956 118.801 L
278.782 118.333 L
279.609 117.865 L
280.435 117.399 L
281.262 116.933 L
282.088 116.468 L
282.915 116.004 L
283.741 115.541 L
284.567 115.079 L
285.394 114.617 L
286.22 114.157 L
287.047 113.697 L
287.873 113.238 L
288.7 112.78 L
289.526 112.324 L
290.352 111.867 L
291.179 111.412 L
292.005 110.958 L
292.832 110.505 L
293.658 110.053 L
294.485 109.601 L
295.311 109.151 L
296.138 108.702 L
296.964 108.253 L
297.79 107.806 L
298.617 107.359 L
299.443 106.914 L
300.27 106.47 L
301.096 106.026 L
301.923 105.584 L
302.749 105.143 L
303.575 104.702 L
304.402 104.263 L
305.228 103.825 L
306.055 103.388 L
306.881 102.952 L
307.708 102.517 L
308.534 102.083 L
309.361 101.651 L
310.187 101.219 L
311.013 100.789 L
311.84 100.359 L
312.666 99.931 L
313.493 99.504 L
314.319 99.078 L
315.146 98.653 L
315.972 98.23 L
316.798 97.808 L
317.625 97.386 L
318.451 96.966 L
319.278 96.548 L
320.104 96.13 L
320.931 95.714 L
321.757 95.299 L
322.583 94.885 L
323.41 94.472 L
324.236 94.061 L
325.063 93.651 L
325.889 93.242 L
326.716 92.834 L
327.542 92.428 L
328.368 92.023 L
329.195 91.619 L
330.021 91.217 L
330.848 90.816 L
331.674 90.416 L
332.501 90.018 L
333.327 89.621 L
334.154 89.225 L
334.98 88.831 L
335.806 88.438 L
336.633 88.046 L
337.459 87.656 L
338.286 87.267 L
339.112 86.88 L
339.939 86.494 L
340.765 86.109 L
341.591 85.726 L
342.418 85.344 L
343.244 84.964 L
344.071 84.585 L
344.897 84.208 L
345.724 83.832 L
346.55 83.458 L
347.377 83.085 L
348.203 82.713 L
349.029 82.343 L
349.856 81.975 L
350.682 81.608 L
351.509 81.243 L
352.335 80.879 L
353.162 80.516 L
353.988 80.156 L
354.814 79.796 L
355.641 79.439 L
356.467 79.083 L
357.294 78.728 L
358.12 78.375 L
358.947 78.024 L
359.773 77.674 L
360.599 77.326 L
361.426 76.98 L
362.252 76.635 L
363.079 76.292 L
363.905 75.95 L
364.732 75.61 L
365.558 75.272 L
366.385 74.935 L
367.211 74.601 L
368.037 74.267 L
368.864 73.936 L
369.69 73.606 L
370.517 73.278 L
371.343 72.952 L
372.17 72.627 L
372.996 72.304 L
373.822 71.983 L
374.649 71.664 L
375.475 71.346 L
376.302 71.03 L
377.128 70.716 L
377.955 70.404 L
378.781 70.093 L
379.607 69.785 L
380.434 69.478 L
381.26 69.173 L
382.087 68.869 L
382.913 68.568 L
383.74 68.269 L
384.566 67.971 L
385.393 67.675 L
386.219 67.381 L
387.045 67.089 L
387.872 66.799 L
388.698 66.51 L
389.525 66.224 L
390.351 65.94 L
391.178 65.657 L
392.004 65.376 L
392.83 65.098 L
393.657 64.821 L
394.483 64.546 L
395.31 64.273 L
396.136 64.002 L
396.963 63.733 L
397.789 63.466 L
398.615 63.201 L
399.442 62.938 L
400.268 62.678 L
401.095 62.419 L
401.921 62.162 L
402.748 61.907 L
403.574 61.654 L
404.401 61.403 L
405.227 61.155 L
406.053 60.908 L
406.88 60.663 L
407.706 60.421 L
408.533 60.181 L
409.359 59.942 L
410.186 59.706 L
411.012 59.472 L
411.838 59.24 L
412.665 59.01 L
413.491 58.783 L
414.318 58.557 L
415.144 58.334 L
415.971 58.112 L
416.797 57.893 L
417.623 57.676 L
418.45 57.462 L
419.276 57.249 L
420.103 57.039 L
420.929 56.831 L
421.756 56.625 L
422.582 56.422 L
423.409 56.22 L
424.235 56.021 L
425.061 55.824 L
425.888 55.63 L
426.714 55.437 L
427.541 55.247 L
428.367 55.059 L
429.194 54.874 L
430.02 54.691 L
430.846 54.51 L
431.673 54.332 L
432.499 54.155 L
433.326 53.981 L
434.152 53.81 L
434.979 53.641 L
435.805 53.474 L
436.632 53.31 L
437.458 53.147 L
438.284 52.988 L
439.111 52.831 L
439.937 52.676 L
440.764 52.523 L
441.59 52.373 L
442.417 52.226 L
443.243 52.08 L
444.069 51.938 L
444.896 51.797 L
445.722 51.659 L
446.549 51.524 L
447.375 51.391 L
448.202 51.261 L
449.028 51.133 L
S
GR
GS
0.929 0.694 0.125 RC
1 LJ
0.5 LW
N
75.626 362.494 M
76.453 359.503 L
77.279 356.52 L
78.106 353.546 L
78.932 350.584 L
79.759 347.636 L
80.585 344.705 L
81.411 341.794 L
82.238 338.904 L
83.064 336.038 L
83.891 333.198 L
84.717 330.387 L
85.544 327.608 L
86.37 324.861 L
87.196 322.151 L
88.023 319.479 L
88.849 316.848 L
89.676 314.259 L
90.502 311.716 L
91.329 309.221 L
92.155 306.776 L
92.981 304.383 L
93.808 302.046 L
94.634 299.766 L
95.461 297.545 L
96.287 295.387 L
97.114 293.293 L
97.94 291.266 L
98.767 289.308 L
99.593 287.422 L
100.419 285.61 L
101.246 283.841 L
102.072 282.091 L
102.899 280.36 L
103.725 278.648 L
104.552 276.955 L
105.378 275.281 L
106.204 273.625 L
107.031 271.988 L
107.857 270.369 L
108.684 268.768 L
109.51 267.186 L
110.337 265.621 L
111.163 264.074 L
111.989 262.544 L
112.816 261.032 L
113.642 259.537 L
114.469 258.059 L
115.295 256.599 L
116.122 255.155 L
116.948 253.728 L
117.775 252.317 L
118.601 250.923 L
119.427 249.546 L
120.254 248.184 L
121.08 246.838 L
121.907 245.508 L
122.733 244.194 L
123.56 242.896 L
124.386 241.613 L
125.212 240.345 L
126.039 239.092 L
126.865 237.854 L
127.692 236.631 L
128.518 235.423 L
129.345 234.23 L
130.171 233.05 L
130.998 231.885 L
131.824 230.734 L
132.65 229.597 L
133.477 228.474 L
134.303 227.365 L
135.13 226.269 L
135.956 225.187 L
136.783 224.117 L
137.609 223.061 L
138.435 222.018 L
139.262 220.988 L
140.088 219.97 L
140.915 218.965 L
141.741 217.972 L
142.568 216.991 L
143.394 216.023 L
144.22 215.066 L
145.047 214.122 L
145.873 213.189 L
146.7 212.267 L
147.526 211.357 L
148.353 210.458 L
149.179 209.57 L
150.006 208.691 L
150.832 207.817 L
151.658 206.948 L
152.485 206.085 L
153.311 205.228 L
154.138 204.376 L
154.964 203.529 L
155.791 202.688 L
156.617 201.852 L
157.443 201.022 L
158.27 200.197 L
159.096 199.377 L
159.923 198.562 L
160.749 197.753 L
161.576 196.949 L
162.402 196.15 L
163.228 195.356 L
164.055 194.567 L
164.881 193.783 L
165.708 193.004 L
166.534 192.23 L
167.361 191.461 L
168.187 190.697 L
169.014 189.937 L
169.84 189.183 L
170.666 188.433 L
171.493 187.688 L
172.319 186.948 L
173.146 186.213 L
173.972 185.482 L
174.799 184.756 L
175.625 184.034 L
176.451 183.317 L
177.278 182.604 L
178.104 181.896 L
178.931 181.193 L
179.757 180.493 L
180.584 179.799 L
181.41 179.108 L
182.236 178.422 L
183.063 177.74 L
183.889 177.063 L
184.716 176.389 L
185.542 175.72 L
186.369 175.055 L
187.195 174.394 L
188.022 173.737 L
188.848 173.084 L
189.674 172.435 L
190.501 171.79 L
191.327 171.149 L
192.154 170.512 L
192.98 169.879 L
193.807 169.25 L
194.633 168.624 L
195.459 168.002 L
196.286 167.384 L
197.112 166.77 L
197.939 166.159 L
198.765 165.552 L
199.592 164.949 L
200.418 164.349 L
201.245 163.753 L
202.071 163.16 L
202.897 162.57 L
203.724 161.985 L
204.55 161.402 L
205.377 160.823 L
206.203 160.247 L
207.03 159.674 L
207.856 159.105 L
208.682 158.539 L
209.509 157.976 L
210.335 157.416 L
211.162 156.859 L
211.988 156.306 L
212.815 155.755 L
213.641 155.208 L
214.467 154.663 L
215.294 154.122 L
216.12 153.583 L
216.947 153.047 L
217.773 152.515 L
218.6 151.984 L
219.426 151.457 L
220.253 150.933 L
221.079 150.411 L
221.905 149.892 L
222.732 149.375 L
223.558 148.861 L
224.385 148.35 L
225.211 147.841 L
226.038 147.335 L
226.864 146.831 L
227.69 146.329 L
228.517 145.83 L
229.343 145.334 L
230.17 144.839 L
230.996 144.348 L
231.823 143.858 L
232.649 143.37 L
233.475 142.885 L
234.302 142.402 L
235.128 141.921 L
235.955 141.442 L
236.781 140.965 L
237.608 140.49 L
238.434 140.018 L
239.261 139.547 L
240.087 139.078 L
240.913 138.611 L
241.74 138.146 L
242.566 137.682 L
243.393 137.221 L
244.219 136.76 L
245.046 136.3 L
245.872 135.839 L
246.698 135.379 L
247.525 134.919 L
248.351 134.46 L
249.178 134 L
250.004 133.541 L
250.831 133.082 L
251.657 132.624 L
252.484 132.165 L
253.31 131.707 L
254.136 131.249 L
254.963 130.792 L
255.789 130.334 L
256.616 129.877 L
257.442 129.421 L
258.269 128.964 L
259.095 128.508 L
259.921 128.052 L
260.748 127.597 L
261.574 127.142 L
262.401 126.687 L
263.227 126.232 L
264.054 125.778 L
264.88 125.324 L
265.706 124.871 L
266.533 124.418 L
267.359 123.965 L
268.186 123.513 L
269.012 123.061 L
269.839 122.609 L
270.665 122.158 L
271.492 121.707 L
272.318 121.257 L
273.144 120.807 L
273.971 120.358 L
274.797 119.908 L
275.624 119.46 L
276.45 119.011 L
277.277 118.563 L
278.103 118.116 L
278.929 117.669 L
279.756 117.223 L
280.582 116.776 L
281.409 116.331 L
282.235 115.886 L
283.062 115.441 L
283.888 114.997 L
284.714 114.553 L
285.541 114.11 L
286.367 113.667 L
287.194 113.225 L
288.02 112.784 L
288.847 112.342 L
289.673 111.902 L
290.5 111.462 L
291.326 111.022 L
292.152 110.583 L
292.979 110.144 L
293.805 109.706 L
294.632 109.269 L
295.458 108.832 L
296.285 108.396 L
297.111 107.96 L
297.937 107.525 L
298.764 107.091 L
299.59 106.657 L
300.417 106.223 L
301.243 105.791 L
302.07 105.359 L
302.896 104.927 L
303.723 104.496 L
304.549 104.066 L
305.375 103.636 L
306.202 103.207 L
307.028 102.779 L
307.855 102.351 L
308.681 101.924 L
309.508 101.498 L
310.334 101.072 L
311.16 100.647 L
311.987 100.223 L
312.813 99.799 L
313.64 99.376 L
314.466 98.954 L
315.293 98.532 L
316.119 98.111 L
316.945 97.691 L
317.772 97.271 L
318.598 96.853 L
319.425 96.435 L
320.251 96.017 L
321.078 95.601 L
321.904 95.185 L
322.73 94.77 L
323.557 94.356 L
324.383 93.942 L
325.21 93.529 L
326.036 93.117 L
326.863 92.706 L
327.689 92.296 L
328.516 91.886 L
329.342 91.477 L
330.168 91.069 L
330.995 90.662 L
331.821 90.256 L
332.648 89.85 L
333.474 89.446 L
334.301 89.042 L
335.127 88.639 L
335.953 88.236 L
336.78 87.835 L
337.606 87.434 L
338.433 87.035 L
339.259 86.636 L
340.086 86.238 L
340.912 85.841 L
341.739 85.445 L
342.565 85.05 L
343.391 84.655 L
344.218 84.262 L
345.044 83.869 L
345.871 83.478 L
346.697 83.087 L
347.524 82.697 L
348.35 82.309 L
349.176 81.921 L
350.003 81.534 L
350.829 81.148 L
351.656 80.763 L
352.482 80.378 L
353.309 79.995 L
354.135 79.613 L
354.961 79.232 L
355.788 78.852 L
356.614 78.473 L
357.441 78.094 L
358.267 77.717 L
359.094 77.341 L
359.92 76.966 L
360.747 76.592 L
361.573 76.219 L
362.399 75.846 L
363.226 75.475 L
364.052 75.105 L
364.879 74.736 L
365.705 74.368 L
366.532 74.001 L
367.358 73.636 L
368.184 73.271 L
369.011 72.907 L
369.837 72.545 L
370.664 72.183 L
371.49 71.823 L
372.317 71.463 L
373.143 71.105 L
373.969 70.748 L
374.796 70.392 L
375.622 70.037 L
376.449 69.684 L
377.275 69.331 L
378.102 68.98 L
378.928 68.629 L
379.755 68.28 L
380.581 67.932 L
381.407 67.585 L
382.234 67.24 L
383.06 66.895 L
383.887 66.552 L
384.713 66.21 L
385.54 65.869 L
386.366 65.529 L
387.192 65.191 L
388.019 64.853 L
388.845 64.517 L
389.672 64.182 L
390.498 63.849 L
391.325 63.516 L
392.151 63.185 L
392.977 62.855 L
393.804 62.527 L
394.63 62.199 L
395.457 61.873 L
396.283 61.548 L
397.11 61.224 L
397.936 60.902 L
398.763 60.581 L
399.589 60.261 L
400.415 59.943 L
401.242 59.626 L
402.068 59.31 L
402.895 58.995 L
403.721 58.682 L
404.548 58.37 L
405.374 58.059 L
406.2 57.75 L
407.027 57.442 L
407.853 57.136 L
408.68 56.83 L
409.506 56.527 L
410.333 56.224 L
411.159 55.923 L
411.986 55.623 L
412.812 55.325 L
413.638 55.028 L
414.465 54.732 L
415.291 54.438 L
416.118 54.146 L
416.944 53.854 L
417.771 53.564 L
418.597 53.276 L
419.423 52.989 L
420.25 52.703 L
421.076 52.419 L
421.903 52.136 L
422.729 51.855 L
423.556 51.575 L
424.382 51.297 L
425.208 51.02 L
426.035 50.744 L
426.861 50.47 L
427.688 50.198 L
428.514 49.927 L
429.341 49.657 L
430.167 49.389 L
430.993 49.123 L
431.82 48.858 L
432.646 48.595 L
433.473 48.333 L
434.299 48.072 L
435.126 47.813 L
435.952 47.556 L
436.779 47.3 L
437.605 47.046 L
438.431 46.794 L
439.258 46.543 L
440.084 46.293 L
440.911 46.045 L
441.737 45.799 L
442.564 45.554 L
443.39 45.311 L
444.216 45.07 L
445.043 44.83 L
445.869 44.591 L
446.696 44.355 L
447.522 44.12 L
448.349 43.886 L
449.175 43.654 L
450.002 43.424 L
450.828 43.196 L
451.654 42.969 L
452.481 42.744 L
453.307 42.52 L
454.134 42.298 L
454.96 42.078 L
455.787 41.86 L
456.613 41.643 L
457.439 41.428 L
458.266 41.214 L
459.092 41.003 L
459.919 40.793 L
460.745 40.584 L
461.572 40.378 L
462.398 40.173 L
463.224 39.97 L
464.051 39.769 L
464.877 39.569 L
465.704 39.371 L
466.53 39.175 L
467.357 38.981 L
468.183 38.788 L
469.01 38.598 L
469.836 38.409 L
470.662 38.221 L
471.489 38.036 L
472.315 37.852 L
473.142 37.671 L
473.968 37.491 L
474.795 37.312 L
475.621 37.136 L
476.447 36.961 L
477.274 36.789 L
478.1 36.618 L
478.927 36.449 L
479.753 36.282 L
480.58 36.116 L
481.406 35.953 L
482.232 35.791 L
483.059 35.632 L
483.885 35.474 L
484.712 35.318 L
485.538 35.164 L
486.365 35.012 L
487.191 34.862 L
488.018 34.713 L
488.844 34.567 L
489.67 34.422 L
490.497 34.28 L
491.323 34.139 L
492.15 34 L
492.976 33.864 L
493.803 33.729 L
494.629 33.596 L
495.455 33.465 L
496.282 33.336 L
497.108 33.209 L
497.935 33.084 L
498.761 32.961 L
499.588 32.84 L
500.414 32.721 L
501.241 32.604 L
S
GR
GS
0.494 0.184 0.557 RC
1 LJ
0.5 LW
N
76.89 358.62 M
77.717 355.753 L
78.543 352.893 L
79.369 350.042 L
80.196 347.202 L
81.022 344.376 L
81.849 341.566 L
82.675 338.773 L
83.502 336 L
84.328 333.249 L
85.155 330.523 L
85.981 327.822 L
86.807 325.151 L
87.634 322.509 L
88.46 319.901 L
89.287 317.327 L
90.113 314.79 L
90.94 312.293 L
91.766 309.837 L
92.592 307.424 L
93.419 305.057 L
94.245 302.737 L
95.072 300.467 L
95.898 298.25 L
96.725 296.086 L
97.551 293.979 L
98.377 291.93 L
99.204 289.942 L
100.03 288.017 L
100.857 286.156 L
101.683 284.362 L
102.51 282.633 L
103.336 280.931 L
104.163 279.247 L
104.989 277.582 L
105.815 275.934 L
106.642 274.303 L
107.468 272.69 L
108.295 271.095 L
109.121 269.517 L
109.948 267.956 L
110.774 266.413 L
111.6 264.886 L
112.427 263.376 L
113.253 261.883 L
114.08 260.406 L
114.906 258.945 L
115.733 257.501 L
116.559 256.073 L
117.385 254.66 L
118.212 253.264 L
119.038 251.883 L
119.865 250.518 L
120.691 249.168 L
121.518 247.834 L
122.344 246.515 L
123.171 245.21 L
123.997 243.921 L
124.823 242.646 L
125.65 241.386 L
126.476 240.141 L
127.303 238.91 L
128.129 237.693 L
128.956 236.49 L
129.782 235.3 L
130.608 234.125 L
131.435 232.964 L
132.261 231.815 L
133.088 230.681 L
133.914 229.559 L
134.741 228.451 L
135.567 227.356 L
136.393 226.273 L
137.22 225.203 L
138.046 224.146 L
138.873 223.101 L
139.699 222.069 L
140.526 221.048 L
141.352 220.04 L
142.179 219.044 L
143.005 218.059 L
143.831 217.086 L
144.658 216.124 L
145.484 215.174 L
146.311 214.235 L
147.137 213.307 L
147.964 212.39 L
148.79 211.484 L
149.616 210.588 L
150.443 209.703 L
151.269 208.829 L
152.096 207.964 L
152.922 207.106 L
153.749 206.253 L
154.575 205.405 L
155.402 204.563 L
156.228 203.726 L
157.054 202.894 L
157.881 202.067 L
158.707 201.245 L
159.534 200.429 L
160.36 199.617 L
161.187 198.811 L
162.013 198.009 L
162.839 197.213 L
163.666 196.421 L
164.492 195.635 L
165.319 194.853 L
166.145 194.076 L
166.972 193.304 L
167.798 192.537 L
168.624 191.774 L
169.451 191.016 L
170.277 190.263 L
171.104 189.515 L
171.93 188.771 L
172.757 188.031 L
173.583 187.297 L
174.41 186.567 L
175.236 185.841 L
176.062 185.12 L
176.889 184.403 L
177.715 183.69 L
178.542 182.982 L
179.368 182.279 L
180.195 181.579 L
181.021 180.884 L
181.847 180.193 L
182.674 179.507 L
183.5 178.824 L
184.327 178.146 L
185.153 177.471 L
185.98 176.801 L
186.806 176.135 L
187.632 175.473 L
188.459 174.815 L
189.285 174.161 L
190.112 173.51 L
190.938 172.864 L
191.765 172.221 L
192.591 171.583 L
193.418 170.948 L
194.244 170.317 L
195.07 169.689 L
195.897 169.065 L
196.723 168.445 L
197.55 167.829 L
198.376 167.216 L
199.203 166.607 L
200.029 166.001 L
200.855 165.399 L
201.682 164.8 L
202.508 164.204 L
203.335 163.612 L
204.161 163.024 L
204.988 162.439 L
205.814 161.857 L
206.641 161.278 L
207.467 160.703 L
208.293 160.13 L
209.12 159.561 L
209.946 158.996 L
210.773 158.433 L
211.599 157.873 L
212.426 157.316 L
213.252 156.763 L
214.078 156.212 L
214.905 155.665 L
215.731 155.12 L
216.558 154.578 L
217.384 154.039 L
218.211 153.503 L
219.037 152.97 L
219.863 152.439 L
220.69 151.911 L
221.516 151.386 L
222.343 150.863 L
223.169 150.344 L
223.996 149.826 L
224.822 149.312 L
225.649 148.799 L
226.475 148.29 L
227.301 147.783 L
228.128 147.278 L
228.954 146.776 L
229.781 146.276 L
230.607 145.778 L
231.434 145.283 L
232.26 144.79 L
233.086 144.299 L
233.913 143.811 L
234.739 143.324 L
235.566 142.84 L
236.392 142.358 L
237.219 141.878 L
238.045 141.4 L
238.871 140.924 L
239.698 140.45 L
240.524 139.978 L
241.351 139.509 L
242.177 139.04 L
243.004 138.574 L
243.83 138.11 L
244.657 137.647 L
245.483 137.186 L
246.309 136.727 L
247.136 136.27 L
247.962 135.814 L
248.789 135.357 L
249.615 134.901 L
250.442 134.446 L
251.268 133.99 L
252.094 133.535 L
252.921 133.08 L
253.747 132.625 L
254.574 132.17 L
255.4 131.716 L
256.227 131.262 L
257.053 130.808 L
257.879 130.355 L
258.706 129.902 L
259.532 129.449 L
260.359 128.996 L
261.185 128.544 L
262.012 128.092 L
262.838 127.64 L
263.665 127.189 L
264.491 126.738 L
265.317 126.287 L
266.144 125.837 L
266.97 125.387 L
267.797 124.937 L
268.623 124.487 L
269.45 124.038 L
270.276 123.59 L
271.102 123.141 L
271.929 122.693 L
272.755 122.246 L
273.582 121.799 L
274.408 121.352 L
275.235 120.905 L
276.061 120.459 L
276.887 120.014 L
277.714 119.569 L
278.54 119.124 L
279.367 118.68 L
280.193 118.236 L
281.02 117.792 L
281.846 117.349 L
282.673 116.906 L
283.499 116.464 L
284.325 116.022 L
285.152 115.581 L
285.978 115.14 L
286.805 114.7 L
287.631 114.26 L
288.458 113.821 L
289.284 113.382 L
290.11 112.943 L
290.937 112.505 L
291.763 112.068 L
292.59 111.631 L
293.416 111.195 L
294.243 110.759 L
295.069 110.323 L
295.896 109.889 L
296.722 109.454 L
297.548 109.02 L
298.375 108.587 L
299.201 108.155 L
300.028 107.722 L
300.854 107.291 L
301.681 106.86 L
302.507 106.429 L
303.333 106 L
304.16 105.57 L
304.986 105.142 L
305.813 104.714 L
306.639 104.286 L
307.466 103.859 L
308.292 103.433 L
309.118 103.007 L
309.945 102.582 L
310.771 102.158 L
311.598 101.734 L
312.424 101.311 L
313.251 100.889 L
314.077 100.467 L
314.904 100.046 L
315.73 99.625 L
316.556 99.205 L
317.383 98.786 L
318.209 98.368 L
319.036 97.95 L
319.862 97.533 L
320.689 97.116 L
321.515 96.7 L
322.341 96.285 L
323.168 95.871 L
323.994 95.457 L
324.821 95.045 L
325.647 94.632 L
326.474 94.221 L
327.3 93.81 L
328.126 93.4 L
328.953 92.991 L
329.779 92.583 L
330.606 92.175 L
331.432 91.768 L
332.259 91.362 L
333.085 90.956 L
333.912 90.552 L
334.738 90.148 L
335.564 89.745 L
336.391 89.343 L
337.217 88.941 L
338.044 88.541 L
338.87 88.141 L
339.697 87.742 L
340.523 87.344 L
341.349 86.946 L
342.176 86.55 L
343.002 86.154 L
343.829 85.76 L
344.655 85.366 L
345.482 84.973 L
346.308 84.58 L
347.134 84.189 L
347.961 83.798 L
348.787 83.409 L
349.614 83.02 L
350.44 82.632 L
351.267 82.245 L
352.093 81.859 L
352.92 81.474 L
353.746 81.09 L
354.572 80.707 L
355.399 80.324 L
356.225 79.943 L
357.052 79.562 L
357.878 79.183 L
358.705 78.804 L
359.531 78.426 L
360.357 78.05 L
361.184 77.674 L
362.01 77.299 L
362.837 76.925 L
363.663 76.553 L
364.49 76.181 L
365.316 75.81 L
366.143 75.44 L
366.969 75.071 L
367.795 74.703 L
368.622 74.336 L
369.448 73.971 L
370.275 73.606 L
371.101 73.242 L
371.928 72.879 L
372.754 72.518 L
373.58 72.157 L
374.407 71.797 L
375.233 71.439 L
376.06 71.081 L
376.886 70.725 L
377.713 70.369 L
378.539 70.015 L
379.365 69.662 L
380.192 69.31 L
381.018 68.959 L
381.845 68.609 L
382.671 68.26 L
383.498 67.912 L
384.324 67.566 L
385.151 67.22 L
385.977 66.876 L
386.803 66.533 L
387.63 66.191 L
388.456 65.85 L
389.283 65.51 L
390.109 65.171 L
390.936 64.834 L
391.762 64.498 L
392.588 64.162 L
393.415 63.829 L
394.241 63.496 L
395.068 63.164 L
395.894 62.834 L
396.721 62.505 L
397.547 62.177 L
398.373 61.85 L
399.2 61.524 L
400.026 61.2 L
400.853 60.877 L
401.679 60.555 L
402.506 60.234 L
403.332 59.915 L
404.159 59.597 L
404.985 59.28 L
405.811 58.964 L
406.638 58.65 L
407.464 58.337 L
408.291 58.025 L
409.117 57.714 L
409.944 57.405 L
410.77 57.097 L
411.596 56.79 L
412.423 56.485 L
413.249 56.181 L
414.076 55.878 L
414.902 55.577 L
415.729 55.277 L
416.555 54.978 L
417.382 54.68 L
418.208 54.384 L
419.034 54.089 L
419.861 53.796 L
420.687 53.504 L
421.514 53.213 L
422.34 52.924 L
423.167 52.636 L
423.993 52.349 L
424.819 52.064 L
425.646 51.78 L
426.472 51.498 L
427.299 51.217 L
428.125 50.937 L
428.952 50.659 L
429.778 50.382 L
430.604 50.107 L
431.431 49.833 L
432.257 49.561 L
433.084 49.29 L
433.91 49.02 L
434.737 48.752 L
435.563 48.485 L
436.389 48.22 L
437.216 47.956 L
438.042 47.694 L
438.869 47.433 L
439.695 47.174 L
440.522 46.916 L
441.348 46.66 L
442.175 46.405 L
443.001 46.151 L
443.827 45.9 L
444.654 45.649 L
445.48 45.4 L
446.307 45.153 L
447.133 44.907 L
447.96 44.663 L
448.786 44.421 L
449.612 44.18 L
450.439 43.94 L
451.265 43.702 L
452.092 43.466 L
452.918 43.231 L
453.745 42.997 L
454.571 42.766 L
455.398 42.536 L
456.224 42.307 L
457.05 42.08 L
457.877 41.855 L
458.703 41.631 L
459.53 41.409 L
460.356 41.189 L
461.183 40.97 L
462.009 40.753 L
462.835 40.537 L
463.662 40.323 L
464.488 40.111 L
465.315 39.9 L
466.141 39.691 L
466.968 39.484 L
467.794 39.279 L
468.62 39.075 L
469.447 38.872 L
470.273 38.672 L
471.1 38.473 L
471.926 38.276 L
472.753 38.08 L
473.579 37.886 L
474.406 37.694 L
475.232 37.504 L
476.058 37.315 L
476.885 37.129 L
477.711 36.943 L
478.538 36.76 L
479.364 36.578 L
480.191 36.398 L
481.017 36.22 L
481.843 36.044 L
482.67 35.869 L
483.496 35.696 L
484.323 35.525 L
485.149 35.356 L
485.976 35.188 L
486.802 35.023 L
487.628 34.859 L
488.455 34.697 L
489.281 34.537 L
490.108 34.378 L
490.934 34.222 L
491.761 34.067 L
492.587 33.914 L
493.414 33.763 L
494.24 33.613 L
495.066 33.466 L
495.893 33.32 L
496.719 33.177 L
497.546 33.035 L
498.372 32.895 L
499.199 32.757 L
500.025 32.621 L
500.851 32.486 L
501.678 32.354 L
502.504 32.223 L
503.331 32.095 L
504.157 31.968 L
504.984 31.843 L
S
GR
GS
0.467 0.675 0.188 RC
1 LJ
0.5 LW
N
74.894 367.051 M
75.721 363.979 L
76.547 360.915 L
77.374 357.861 L
78.2 354.82 L
79.027 351.793 L
79.853 348.785 L
80.679 345.796 L
81.506 342.83 L
82.332 339.889 L
83.159 336.975 L
83.985 334.091 L
84.812 331.239 L
85.638 328.422 L
86.465 325.642 L
87.291 322.902 L
88.117 320.204 L
88.944 317.551 L
89.77 314.945 L
90.597 312.388 L
91.423 309.883 L
92.25 307.433 L
93.076 305.04 L
93.902 302.706 L
94.729 300.433 L
95.555 298.226 L
96.382 296.084 L
97.208 294.013 L
98.035 292.012 L
98.861 290.086 L
99.688 288.236 L
100.514 286.423 L
101.34 284.629 L
102.167 282.856 L
102.993 281.102 L
103.82 279.368 L
104.646 277.652 L
105.473 275.956 L
106.299 274.279 L
107.125 272.62 L
107.952 270.98 L
108.778 269.359 L
109.605 267.756 L
110.431 266.172 L
111.258 264.605 L
112.084 263.057 L
112.91 261.526 L
113.737 260.013 L
114.563 258.517 L
115.39 257.039 L
116.216 255.578 L
117.043 254.135 L
117.869 252.708 L
118.696 251.298 L
119.522 249.905 L
120.348 248.528 L
121.175 247.168 L
122.001 245.824 L
122.828 244.496 L
123.654 243.184 L
124.481 241.888 L
125.307 240.608 L
126.133 239.343 L
126.96 238.094 L
127.786 236.86 L
128.613 235.641 L
129.439 234.438 L
130.266 233.249 L
131.092 232.074 L
131.918 230.915 L
132.745 229.769 L
133.571 228.639 L
134.398 227.522 L
135.224 226.419 L
136.051 225.33 L
136.877 224.255 L
137.704 223.194 L
138.53 222.146 L
139.356 221.111 L
140.183 220.089 L
141.009 219.081 L
141.836 218.085 L
142.662 217.102 L
143.489 216.132 L
144.315 215.174 L
145.141 214.229 L
145.968 213.295 L
146.794 212.374 L
147.621 211.465 L
148.447 210.566 L
149.274 209.673 L
150.1 208.785 L
150.926 207.904 L
151.753 207.028 L
152.579 206.158 L
153.406 205.294 L
154.232 204.435 L
155.059 203.582 L
155.885 202.734 L
156.712 201.892 L
157.538 201.056 L
158.364 200.225 L
159.191 199.399 L
160.017 198.579 L
160.844 197.764 L
161.67 196.954 L
162.497 196.15 L
163.323 195.351 L
164.149 194.557 L
164.976 193.769 L
165.802 192.985 L
166.629 192.206 L
167.455 191.433 L
168.282 190.665 L
169.108 189.901 L
169.935 189.143 L
170.761 188.389 L
171.587 187.641 L
172.414 186.897 L
173.24 186.158 L
174.067 185.424 L
174.893 184.694 L
175.72 183.969 L
176.546 183.249 L
177.372 182.533 L
178.199 181.822 L
179.025 181.116 L
179.852 180.414 L
180.678 179.717 L
181.505 179.024 L
182.331 178.335 L
183.157 177.651 L
183.984 176.971 L
184.81 176.295 L
185.637 175.624 L
186.463 174.957 L
187.29 174.294 L
188.116 173.635 L
188.943 172.98 L
189.769 172.329 L
190.595 171.683 L
191.422 171.04 L
192.248 170.402 L
193.075 169.767 L
193.901 169.136 L
194.728 168.509 L
195.554 167.886 L
196.38 167.266 L
197.207 166.651 L
198.033 166.039 L
198.86 165.431 L
199.686 164.826 L
200.513 164.225 L
201.339 163.627 L
202.165 163.033 L
202.992 162.443 L
203.818 161.856 L
204.645 161.272 L
205.471 160.692 L
206.298 160.115 L
207.124 159.542 L
207.951 158.971 L
208.777 158.404 L
209.603 157.84 L
210.43 157.28 L
211.256 156.722 L
212.083 156.167 L
212.909 155.616 L
213.736 155.067 L
214.562 154.522 L
215.388 153.979 L
216.215 153.44 L
217.041 152.903 L
217.868 152.369 L
218.694 151.838 L
219.521 151.309 L
220.347 150.784 L
221.173 150.261 L
222 149.74 L
222.826 149.223 L
223.653 148.707 L
224.479 148.195 L
225.306 147.685 L
226.132 147.177 L
226.959 146.672 L
227.785 146.169 L
228.611 145.668 L
229.438 145.17 L
230.264 144.674 L
231.091 144.181 L
231.917 143.689 L
232.744 143.2 L
233.57 142.713 L
234.396 142.228 L
235.223 141.745 L
236.049 141.264 L
236.876 140.785 L
237.702 140.308 L
238.529 139.833 L
239.355 139.36 L
240.182 138.888 L
241.008 138.419 L
241.834 137.951 L
242.661 137.483 L
243.487 137.016 L
244.314 136.549 L
245.14 136.082 L
245.967 135.615 L
246.793 135.148 L
247.619 134.682 L
248.446 134.216 L
249.272 133.751 L
250.099 133.285 L
250.925 132.82 L
251.752 132.355 L
252.578 131.89 L
253.404 131.426 L
254.231 130.962 L
255.057 130.498 L
255.884 130.035 L
256.71 129.572 L
257.537 129.109 L
258.363 128.647 L
259.19 128.184 L
260.016 127.723 L
260.842 127.261 L
261.669 126.8 L
262.495 126.339 L
263.322 125.879 L
264.148 125.419 L
264.975 124.959 L
265.801 124.5 L
266.627 124.041 L
267.454 123.582 L
268.28 123.124 L
269.107 122.666 L
269.933 122.209 L
270.76 121.752 L
271.586 121.296 L
272.412 120.84 L
273.239 120.384 L
274.065 119.929 L
274.892 119.474 L
275.718 119.02 L
276.545 118.566 L
277.371 118.112 L
278.198 117.659 L
279.024 117.207 L
279.85 116.755 L
280.677 116.303 L
281.503 115.852 L
282.33 115.402 L
283.156 114.952 L
283.983 114.502 L
284.809 114.053 L
285.635 113.605 L
286.462 113.157 L
287.288 112.71 L
288.115 112.263 L
288.941 111.816 L
289.768 111.371 L
290.594 110.925 L
291.421 110.481 L
292.247 110.037 L
293.073 109.593 L
293.9 109.15 L
294.726 108.708 L
295.553 108.266 L
296.379 107.825 L
297.206 107.384 L
298.032 106.944 L
298.858 106.505 L
299.685 106.066 L
300.511 105.628 L
301.338 105.191 L
302.164 104.754 L
302.991 104.318 L
303.817 103.882 L
304.643 103.447 L
305.47 103.013 L
306.296 102.58 L
307.123 102.147 L
307.949 101.714 L
308.776 101.283 L
309.602 100.852 L
310.428 100.422 L
311.255 99.993 L
312.081 99.564 L
312.908 99.136 L
313.734 98.709 L
314.561 98.282 L
315.387 97.856 L
316.214 97.431 L
317.04 97.007 L
317.866 96.584 L
318.693 96.161 L
319.519 95.739 L
320.346 95.318 L
321.172 94.897 L
321.999 94.477 L
322.825 94.058 L
323.651 93.64 L
324.478 93.223 L
325.304 92.807 L
326.131 92.391 L
326.957 91.976 L
327.784 91.562 L
328.61 91.149 L
329.437 90.736 L
330.263 90.325 L
331.089 89.914 L
331.916 89.504 L
332.742 89.095 L
333.569 88.687 L
334.395 88.28 L
335.222 87.874 L
336.048 87.468 L
336.874 87.064 L
337.701 86.66 L
338.527 86.257 L
339.354 85.855 L
340.18 85.454 L
341.007 85.054 L
341.833 84.655 L
342.659 84.257 L
343.486 83.86 L
344.312 83.463 L
345.139 83.068 L
345.965 82.673 L
346.792 82.28 L
347.618 81.888 L
348.445 81.496 L
349.271 81.106 L
350.097 80.716 L
350.924 80.327 L
351.75 79.94 L
352.577 79.553 L
353.403 79.168 L
354.23 78.783 L
355.056 78.4 L
355.882 78.017 L
356.709 77.636 L
357.535 77.255 L
358.362 76.876 L
359.188 76.498 L
360.015 76.121 L
360.841 75.744 L
361.667 75.369 L
362.494 74.995 L
363.32 74.622 L
364.147 74.25 L
364.973 73.88 L
365.8 73.51 L
366.626 73.141 L
367.453 72.774 L
368.279 72.408 L
369.105 72.042 L
369.932 71.678 L
370.758 71.315 L
371.585 70.953 L
372.411 70.593 L
373.238 70.233 L
374.064 69.875 L
374.89 69.518 L
375.717 69.162 L
376.543 68.807 L
377.37 68.453 L
378.196 68.101 L
379.023 67.749 L
379.849 67.399 L
380.676 67.05 L
381.502 66.703 L
382.328 66.356 L
383.155 66.011 L
383.981 65.667 L
384.808 65.324 L
385.634 64.983 L
386.461 64.642 L
387.287 64.303 L
388.113 63.966 L
388.94 63.629 L
389.766 63.294 L
390.593 62.96 L
391.419 62.627 L
392.246 62.296 L
393.072 61.966 L
393.898 61.637 L
394.725 61.309 L
395.551 60.983 L
396.378 60.658 L
397.204 60.335 L
398.031 60.013 L
398.857 59.692 L
399.684 59.372 L
400.51 59.054 L
401.336 58.738 L
402.163 58.422 L
402.989 58.108 L
403.816 57.795 L
404.642 57.484 L
405.469 57.174 L
406.295 56.865 L
407.121 56.558 L
407.948 56.253 L
408.774 55.948 L
409.601 55.645 L
410.427 55.344 L
411.254 55.044 L
412.08 54.745 L
412.906 54.448 L
413.733 54.152 L
414.559 53.858 L
415.386 53.565 L
416.212 53.274 L
417.039 52.984 L
417.865 52.695 L
418.692 52.408 L
419.518 52.123 L
420.344 51.839 L
421.171 51.556 L
421.997 51.275 L
422.824 50.996 L
423.65 50.718 L
424.477 50.442 L
425.303 50.167 L
426.129 49.893 L
426.956 49.622 L
427.782 49.351 L
428.609 49.083 L
429.435 48.815 L
430.262 48.55 L
431.088 48.286 L
431.914 48.023 L
432.741 47.762 L
433.567 47.503 L
434.394 47.245 L
435.22 46.989 L
436.047 46.735 L
436.873 46.482 L
437.7 46.231 L
438.526 45.981 L
439.352 45.733 L
440.179 45.487 L
441.005 45.242 L
441.832 44.999 L
442.658 44.757 L
443.485 44.518 L
444.311 44.28 L
445.137 44.043 L
445.964 43.808 L
446.79 43.575 L
447.617 43.344 L
448.443 43.114 L
449.27 42.886 L
450.096 42.66 L
450.922 42.435 L
451.749 42.213 L
452.575 41.991 L
453.402 41.772 L
454.228 41.554 L
455.055 41.339 L
455.881 41.124 L
456.708 40.912 L
457.534 40.701 L
458.36 40.492 L
459.187 40.285 L
460.013 40.08 L
460.84 39.876 L
461.666 39.675 L
462.493 39.475 L
463.319 39.277 L
464.145 39.08 L
464.972 38.886 L
465.798 38.693 L
466.625 38.502 L
467.451 38.313 L
468.278 38.126 L
469.104 37.941 L
469.931 37.757 L
470.757 37.575 L
471.583 37.396 L
472.41 37.218 L
473.236 37.042 L
474.063 36.867 L
474.889 36.695 L
475.716 36.525 L
476.542 36.356 L
477.368 36.19 L
478.195 36.025 L
479.021 35.862 L
479.848 35.701 L
480.674 35.542 L
481.501 35.386 L
482.327 35.23 L
483.153 35.077 L
483.98 34.926 L
484.806 34.777 L
485.633 34.63 L
486.459 34.485 L
487.286 34.341 L
488.112 34.2 L
488.939 34.061 L
489.765 33.923 L
490.591 33.788 L
491.418 33.655 L
492.244 33.523 L
493.071 33.394 L
493.897 33.267 L
494.724 33.142 L
495.55 33.019 L
496.376 32.897 L
497.203 32.778 L
S
GR
GS
0.302 0.745 0.933 RC
[10 6] 0 setdash
2 LJ
0.5 LW
N
73.006 373.786 M
73.833 370.621 L
74.659 367.466 L
75.486 364.324 L
76.312 361.197 L
77.139 358.089 L
77.965 355.001 L
78.791 351.936 L
79.618 348.896 L
80.444 345.885 L
81.271 342.904 L
82.097 339.955 L
82.924 337.043 L
83.75 334.168 L
84.577 331.333 L
85.403 328.542 L
86.229 325.795 L
87.056 323.097 L
87.882 320.449 L
88.709 317.853 L
89.535 315.313 L
90.362 312.831 L
91.188 310.408 L
92.014 308.049 L
92.841 305.755 L
93.667 303.528 L
94.494 301.371 L
95.32 299.288 L
96.147 297.279 L
96.973 295.337 L
97.799 293.42 L
98.626 291.524 L
99.452 289.648 L
100.279 287.792 L
101.105 285.957 L
101.932 284.142 L
102.758 282.347 L
103.585 280.572 L
104.411 278.816 L
105.237 277.081 L
106.064 275.365 L
106.89 273.669 L
107.717 271.992 L
108.543 270.334 L
109.37 268.696 L
110.196 267.077 L
111.022 265.478 L
111.849 263.897 L
112.675 262.335 L
113.502 260.792 L
114.328 259.268 L
115.155 257.763 L
115.981 256.276 L
116.807 254.807 L
117.634 253.357 L
118.46 251.925 L
119.287 250.512 L
120.113 249.116 L
120.94 247.739 L
121.766 246.379 L
122.593 245.037 L
123.419 243.713 L
124.245 242.407 L
125.072 241.118 L
125.898 239.847 L
126.725 238.593 L
127.551 237.356 L
128.378 236.137 L
129.204 234.934 L
130.03 233.749 L
130.857 232.58 L
131.683 231.429 L
132.51 230.293 L
133.336 229.175 L
134.163 228.073 L
134.989 226.988 L
135.816 225.919 L
136.642 224.866 L
137.468 223.829 L
138.295 222.809 L
139.121 221.804 L
139.948 220.815 L
140.774 219.841 L
141.601 218.875 L
142.427 217.917 L
143.253 216.966 L
144.08 216.022 L
144.906 215.085 L
145.733 214.156 L
146.559 213.233 L
147.386 212.318 L
148.212 211.409 L
149.038 210.508 L
149.865 209.613 L
150.691 208.725 L
151.518 207.844 L
152.344 206.969 L
153.171 206.101 L
153.997 205.24 L
154.824 204.385 L
155.65 203.537 L
156.476 202.695 L
157.303 201.859 L
158.129 201.03 L
158.956 200.206 L
159.782 199.39 L
160.609 198.579 L
161.435 197.774 L
162.261 196.975 L
163.088 196.183 L
163.914 195.396 L
164.741 194.615 L
165.567 193.839 L
166.394 193.07 L
167.22 192.306 L
168.046 191.548 L
168.873 190.796 L
169.699 190.048 L
170.526 189.307 L
171.352 188.571 L
172.179 187.84 L
173.005 187.114 L
173.832 186.394 L
174.658 185.679 L
175.484 184.969 L
176.311 184.264 L
177.137 183.564 L
177.964 182.869 L
178.79 182.179 L
179.617 181.494 L
180.443 180.813 L
181.269 180.138 L
182.096 179.467 L
182.922 178.8 L
183.749 178.139 L
184.575 177.481 L
185.402 176.829 L
186.228 176.18 L
187.054 175.536 L
187.881 174.897 L
188.707 174.261 L
189.534 173.63 L
190.36 173.003 L
191.187 172.38 L
192.013 171.761 L
192.84 171.145 L
193.666 170.534 L
194.492 169.927 L
195.319 169.323 L
196.145 168.724 L
196.972 168.128 L
197.798 167.535 L
198.625 166.946 L
199.451 166.361 L
200.277 165.779 L
201.104 165.2 L
201.93 164.625 L
202.757 164.053 L
203.583 163.485 L
204.41 162.919 L
205.236 162.357 L
206.063 161.798 L
206.889 161.242 L
207.715 160.689 L
208.542 160.138 L
209.368 159.591 L
210.195 159.046 L
211.021 158.504 L
211.848 157.965 L
212.674 157.429 L
213.5 156.895 L
214.327 156.363 L
215.153 155.834 L
215.98 155.308 L
216.806 154.783 L
217.633 154.262 L
218.459 153.742 L
219.285 153.224 L
220.112 152.709 L
220.938 152.196 L
221.765 151.683 L
222.591 151.17 L
223.418 150.658 L
224.244 150.146 L
225.071 149.635 L
225.897 149.124 L
226.723 148.613 L
227.55 148.102 L
228.376 147.592 L
229.203 147.083 L
230.029 146.573 L
230.856 146.064 L
231.682 145.556 L
232.508 145.047 L
233.335 144.54 L
234.161 144.032 L
234.988 143.525 L
235.814 143.019 L
236.641 142.513 L
237.467 142.007 L
238.293 141.502 L
239.12 140.997 L
239.946 140.493 L
240.773 139.989 L
241.599 139.486 L
242.426 138.983 L
243.252 138.481 L
244.079 137.98 L
244.905 137.478 L
245.731 136.978 L
246.558 136.478 L
247.384 135.978 L
248.211 135.479 L
249.037 134.981 L
249.864 134.483 L
250.69 133.986 L
251.516 133.489 L
252.343 132.993 L
253.169 132.498 L
253.996 132.003 L
254.822 131.509 L
255.649 131.016 L
256.475 130.523 L
257.301 130.031 L
258.128 129.539 L
258.954 129.049 L
259.781 128.559 L
260.607 128.069 L
261.434 127.58 L
262.26 127.092 L
263.087 126.605 L
263.913 126.119 L
264.739 125.633 L
265.566 125.148 L
266.392 124.664 L
267.219 124.18 L
268.045 123.697 L
268.872 123.215 L
269.698 122.734 L
270.524 122.254 L
271.351 121.774 L
272.177 121.295 L
273.004 120.818 L
273.83 120.34 L
274.657 119.864 L
275.483 119.389 L
276.31 118.914 L
277.136 118.441 L
277.962 117.968 L
278.789 117.496 L
279.615 117.025 L
280.442 116.555 L
281.268 116.086 L
282.095 115.617 L
282.921 115.15 L
283.747 114.684 L
284.574 114.218 L
285.4 113.754 L
286.227 113.29 L
287.053 112.828 L
287.88 112.366 L
288.706 111.906 L
289.532 111.446 L
290.359 110.987 L
291.185 110.53 L
292.012 110.073 L
292.838 109.618 L
293.665 109.163 L
294.491 108.71 L
295.318 108.258 L
296.144 107.806 L
296.97 107.356 L
297.797 106.907 L
298.623 106.459 L
299.45 106.012 L
300.276 105.566 L
301.103 105.121 L
301.929 104.678 L
302.755 104.235 L
303.582 103.794 L
304.408 103.354 L
305.235 102.915 L
306.061 102.477 L
306.888 102.041 L
307.714 101.605 L
308.54 101.171 L
309.367 100.738 L
310.193 100.306 L
311.02 99.876 L
311.846 99.446 L
312.673 99.018 L
313.499 98.591 L
314.326 98.166 L
315.152 97.742 L
315.978 97.318 L
316.805 96.897 L
317.631 96.476 L
318.458 96.057 L
319.284 95.639 L
320.111 95.223 L
320.937 94.807 L
321.763 94.394 L
322.59 93.981 L
323.416 93.57 L
324.243 93.16 L
325.069 92.752 L
325.896 92.345 L
326.722 91.939 L
327.548 91.535 L
328.375 91.132 L
329.201 90.73 L
330.028 90.33 L
330.854 89.932 L
331.681 89.535 L
332.507 89.139 L
333.334 88.745 L
334.16 88.352 L
334.986 87.96 L
335.813 87.571 L
336.639 87.182 L
337.466 86.796 L
338.292 86.41 L
339.119 86.026 L
339.945 85.644 L
340.771 85.263 L
341.598 84.884 L
342.424 84.507 L
343.251 84.13 L
344.077 83.756 L
344.904 83.383 L
345.73 83.012 L
346.556 82.642 L
347.383 82.274 L
348.209 81.907 L
349.036 81.542 L
349.862 81.179 L
350.689 80.817 L
351.515 80.457 L
352.342 80.099 L
353.168 79.742 L
353.994 79.387 L
354.821 79.034 L
355.647 78.683 L
356.474 78.333 L
357.3 77.984 L
358.127 77.638 L
358.953 77.293 L
359.779 76.95 L
360.606 76.609 L
361.432 76.269 L
362.259 75.932 L
363.085 75.596 L
363.912 75.261 L
364.738 74.929 L
365.565 74.598 L
366.391 74.269 L
367.217 73.942 L
368.044 73.617 L
368.87 73.294 L
369.697 72.972 L
370.523 72.653 L
371.35 72.335 L
372.176 72.019 L
373.002 71.705 L
373.829 71.392 L
374.655 71.082 L
375.482 70.774 L
376.308 70.467 L
377.135 70.163 L
377.961 69.86 L
378.787 69.559 L
379.614 69.26 L
380.44 68.964 L
381.267 68.669 L
382.093 68.376 L
382.92 68.085 L
383.746 67.796 L
384.573 67.509 L
385.399 67.224 L
386.225 66.941 L
387.052 66.66 L
387.878 66.381 L
388.705 66.104 L
389.531 65.829 L
390.358 65.557 L
391.184 65.286 L
392.01 65.017 L
392.837 64.751 L
393.663 64.486 L
394.49 64.224 L
395.316 63.964 L
396.143 63.706 L
396.969 63.45 L
397.796 63.196 L
398.622 62.944 L
399.448 62.695 L
400.275 62.447 L
401.101 62.202 L
401.928 61.959 L
402.754 61.718 L
403.581 61.479 L
404.407 61.243 L
405.233 61.008 L
406.06 60.776 L
406.886 60.547 L
407.713 60.319 L
408.539 60.094 L
409.366 59.871 L
410.192 59.65 L
411.018 59.431 L
411.845 59.215 L
412.671 59.001 L
413.498 58.789 L
414.324 58.58 L
415.151 58.373 L
415.977 58.168 L
416.803 57.966 L
417.63 57.765 L
418.456 57.568 L
419.283 57.372 L
420.109 57.179 L
420.936 56.989 L
421.762 56.801 L
422.589 56.615 L
423.415 56.431 L
424.241 56.25 L
425.068 56.072 L
425.894 55.895 L
426.721 55.722 L
427.547 55.55 L
428.374 55.381 L
429.2 55.215 L
430.026 55.051 L
430.853 54.89 L
431.679 54.731 L
432.506 54.574 L
433.332 54.42 L
434.159 54.269 L
434.985 54.12 L
435.812 53.974 L
436.638 53.83 L
S
GR
GS
0.635 0.078 0.184 RC
[10 6] 0 setdash
2 LJ
0.5 LW
N
75.759 362.037 M
76.586 359.07 L
77.412 356.111 L
78.239 353.162 L
79.065 350.225 L
79.892 347.303 L
80.718 344.397 L
81.545 341.51 L
82.371 338.645 L
83.197 335.803 L
84.024 332.987 L
84.85 330.199 L
85.677 327.441 L
86.503 324.716 L
87.33 322.025 L
88.156 319.372 L
88.982 316.758 L
89.809 314.186 L
90.635 311.657 L
91.462 309.175 L
92.288 306.741 L
93.115 304.358 L
93.941 302.027 L
94.767 299.752 L
95.594 297.535 L
96.42 295.377 L
97.247 293.281 L
98.073 291.249 L
98.9 289.284 L
99.726 287.387 L
100.553 285.562 L
101.379 283.794 L
102.205 282.047 L
103.032 280.319 L
103.858 278.61 L
104.685 276.92 L
105.511 275.248 L
106.338 273.595 L
107.164 271.96 L
107.99 270.343 L
108.817 268.744 L
109.643 267.163 L
110.47 265.6 L
111.296 264.055 L
112.123 262.527 L
112.949 261.016 L
113.775 259.522 L
114.602 258.046 L
115.428 256.586 L
116.255 255.143 L
117.081 253.717 L
117.908 252.307 L
118.734 250.913 L
119.561 249.536 L
120.387 248.174 L
121.213 246.829 L
122.04 245.499 L
122.866 244.185 L
123.693 242.886 L
124.519 241.603 L
125.346 240.335 L
126.172 239.081 L
126.998 237.843 L
127.825 236.62 L
128.651 235.411 L
129.478 234.216 L
130.304 233.036 L
131.131 231.87 L
131.957 230.718 L
132.784 229.58 L
133.61 228.456 L
134.436 227.346 L
135.263 226.248 L
136.089 225.165 L
136.916 224.094 L
137.742 223.036 L
138.569 221.992 L
139.395 220.96 L
140.221 219.94 L
141.048 218.933 L
141.874 217.939 L
142.701 216.957 L
143.527 215.986 L
144.354 215.028 L
145.18 214.081 L
146.006 213.146 L
146.833 212.223 L
147.659 211.311 L
148.486 210.41 L
149.312 209.52 L
150.139 208.638 L
150.965 207.762 L
151.792 206.892 L
152.618 206.027 L
153.444 205.168 L
154.271 204.314 L
155.097 203.466 L
155.924 202.624 L
156.75 201.787 L
157.577 200.955 L
158.403 200.129 L
159.229 199.308 L
160.056 198.493 L
160.882 197.682 L
161.709 196.877 L
162.535 196.078 L
163.362 195.283 L
164.188 194.493 L
165.014 193.709 L
165.841 192.93 L
166.667 192.155 L
167.494 191.386 L
168.32 190.622 L
169.147 189.862 L
169.973 189.108 L
170.8 188.358 L
171.626 187.613 L
172.452 186.873 L
173.279 186.137 L
174.105 185.407 L
174.932 184.68 L
175.758 183.959 L
176.585 183.242 L
177.411 182.53 L
178.237 181.822 L
179.064 181.118 L
179.89 180.419 L
180.717 179.725 L
181.543 179.035 L
182.37 178.349 L
183.196 177.667 L
184.022 176.99 L
184.849 176.317 L
185.675 175.648 L
186.502 174.983 L
187.328 174.322 L
188.155 173.666 L
188.981 173.013 L
189.808 172.364 L
190.634 171.72 L
191.46 171.079 L
192.287 170.442 L
193.113 169.809 L
193.94 169.18 L
194.766 168.554 L
195.593 167.933 L
196.419 167.315 L
197.245 166.7 L
198.072 166.09 L
198.898 165.482 L
199.725 164.879 L
200.551 164.279 L
201.378 163.682 L
202.204 163.089 L
203.031 162.499 L
203.857 161.913 L
204.683 161.33 L
205.51 160.75 L
206.336 160.174 L
207.163 159.601 L
207.989 159.03 L
208.816 158.464 L
209.642 157.9 L
210.468 157.339 L
211.295 156.781 L
212.121 156.227 L
212.948 155.675 L
213.774 155.126 L
214.601 154.58 L
215.427 154.037 L
216.253 153.497 L
217.08 152.959 L
217.906 152.425 L
218.733 151.892 L
219.559 151.363 L
220.386 150.836 L
221.212 150.312 L
222.038 149.791 L
222.865 149.272 L
223.691 148.755 L
224.518 148.241 L
225.344 147.729 L
226.171 147.22 L
226.997 146.713 L
227.824 146.208 L
228.65 145.706 L
229.476 145.206 L
230.303 144.708 L
231.129 144.212 L
231.956 143.718 L
232.782 143.227 L
233.609 142.737 L
234.435 142.249 L
235.261 141.764 L
236.088 141.28 L
236.914 140.798 L
237.741 140.318 L
238.567 139.84 L
239.394 139.364 L
240.22 138.889 L
241.047 138.417 L
241.873 137.945 L
242.699 137.475 L
243.526 137.006 L
244.352 136.537 L
245.179 136.068 L
246.005 135.599 L
246.832 135.13 L
247.658 134.662 L
248.484 134.194 L
249.311 133.727 L
250.137 133.259 L
250.964 132.792 L
251.79 132.325 L
252.617 131.859 L
253.443 131.393 L
254.269 130.927 L
255.096 130.461 L
255.922 129.996 L
256.749 129.531 L
257.575 129.067 L
258.402 128.603 L
259.228 128.139 L
260.055 127.675 L
260.881 127.212 L
261.707 126.75 L
262.534 126.287 L
263.36 125.825 L
264.187 125.364 L
265.013 124.903 L
265.84 124.442 L
266.666 123.982 L
267.492 123.522 L
268.319 123.062 L
269.145 122.603 L
269.972 122.145 L
270.798 121.686 L
271.625 121.229 L
272.451 120.771 L
273.277 120.314 L
274.104 119.858 L
274.93 119.402 L
275.757 118.947 L
276.583 118.492 L
277.41 118.037 L
278.236 117.583 L
279.063 117.13 L
279.889 116.677 L
280.715 116.224 L
281.542 115.773 L
282.368 115.321 L
283.195 114.87 L
284.021 114.42 L
284.848 113.97 L
285.674 113.521 L
286.5 113.072 L
287.327 112.624 L
288.153 112.176 L
288.98 111.729 L
289.806 111.283 L
290.633 110.837 L
291.459 110.392 L
292.285 109.947 L
293.112 109.503 L
293.938 109.06 L
294.765 108.617 L
295.591 108.175 L
296.418 107.733 L
297.244 107.292 L
298.071 106.852 L
298.897 106.412 L
299.723 105.973 L
300.55 105.535 L
301.376 105.097 L
302.203 104.66 L
303.029 104.224 L
303.856 103.788 L
304.682 103.353 L
305.508 102.919 L
306.335 102.485 L
307.161 102.052 L
307.988 101.62 L
308.814 101.188 L
309.641 100.758 L
310.467 100.328 L
311.294 99.898 L
312.12 99.47 L
312.946 99.042 L
313.773 98.615 L
314.599 98.189 L
315.426 97.763 L
316.252 97.338 L
317.079 96.914 L
317.905 96.491 L
318.731 96.069 L
319.558 95.647 L
320.384 95.226 L
321.211 94.806 L
322.037 94.387 L
322.864 93.969 L
323.69 93.551 L
324.516 93.134 L
325.343 92.718 L
326.169 92.303 L
326.996 91.889 L
327.822 91.476 L
328.649 91.063 L
329.475 90.652 L
330.302 90.241 L
331.128 89.831 L
331.954 89.422 L
332.781 89.014 L
333.607 88.607 L
334.434 88.2 L
335.26 87.795 L
336.087 87.39 L
336.913 86.987 L
337.739 86.584 L
338.566 86.182 L
339.392 85.782 L
340.219 85.382 L
341.045 84.983 L
341.872 84.585 L
342.698 84.188 L
343.524 83.792 L
344.351 83.397 L
345.177 83.003 L
346.004 82.61 L
346.83 82.218 L
347.657 81.827 L
348.483 81.437 L
349.31 81.048 L
350.136 80.66 L
350.962 80.273 L
351.789 79.887 L
352.615 79.502 L
353.442 79.118 L
354.268 78.735 L
355.095 78.353 L
355.921 77.972 L
356.747 77.593 L
357.574 77.214 L
358.4 76.837 L
359.227 76.46 L
360.053 76.085 L
360.88 75.71 L
361.706 75.337 L
362.533 74.965 L
363.359 74.594 L
364.185 74.224 L
365.012 73.856 L
365.838 73.488 L
366.665 73.122 L
367.491 72.756 L
368.318 72.392 L
369.144 72.029 L
369.97 71.667 L
370.797 71.307 L
371.623 70.947 L
372.45 70.589 L
373.276 70.232 L
374.103 69.876 L
374.929 69.521 L
375.755 69.167 L
376.582 68.815 L
377.408 68.464 L
378.235 68.114 L
379.061 67.765 L
379.888 67.418 L
380.714 67.072 L
381.54 66.727 L
382.367 66.383 L
383.193 66.04 L
384.02 65.699 L
384.846 65.359 L
385.673 65.021 L
386.499 64.683 L
387.326 64.347 L
388.152 64.012 L
388.978 63.679 L
389.805 63.347 L
390.631 63.016 L
391.458 62.686 L
392.284 62.358 L
393.111 62.031 L
393.937 61.705 L
394.763 61.381 L
395.59 61.058 L
396.416 60.737 L
397.243 60.417 L
398.069 60.098 L
398.896 59.78 L
399.722 59.464 L
400.549 59.149 L
401.375 58.836 L
402.201 58.524 L
403.028 58.214 L
403.854 57.905 L
404.681 57.597 L
405.507 57.291 L
406.334 56.986 L
407.16 56.682 L
407.986 56.38 L
408.813 56.08 L
409.639 55.781 L
410.466 55.483 L
411.292 55.187 L
412.119 54.892 L
412.945 54.599 L
413.771 54.307 L
414.598 54.017 L
415.424 53.728 L
416.251 53.441 L
417.077 53.155 L
417.904 52.871 L
418.73 52.588 L
419.557 52.307 L
420.383 52.027 L
421.209 51.749 L
422.036 51.472 L
422.862 51.197 L
423.689 50.924 L
424.515 50.652 L
425.342 50.381 L
426.168 50.112 L
426.994 49.845 L
427.821 49.579 L
428.647 49.315 L
429.474 49.053 L
430.3 48.792 L
431.127 48.532 L
431.953 48.275 L
432.78 48.019 L
433.606 47.764 L
434.432 47.511 L
435.259 47.26 L
436.085 47.011 L
436.912 46.763 L
437.738 46.516 L
438.565 46.272 L
439.391 46.029 L
440.217 45.788 L
441.044 45.548 L
441.87 45.31 L
442.697 45.074 L
443.523 44.839 L
444.35 44.606 L
445.176 44.375 L
446.002 44.146 L
446.829 43.918 L
447.655 43.692 L
448.482 43.468 L
449.308 43.246 L
450.135 43.025 L
450.961 42.806 L
451.788 42.589 L
452.614 42.373 L
453.44 42.159 L
454.267 41.947 L
455.093 41.737 L
455.92 41.529 L
456.746 41.322 L
457.573 41.117 L
458.399 40.914 L
459.225 40.713 L
460.052 40.514 L
460.878 40.316 L
461.705 40.121 L
462.531 39.927 L
463.358 39.735 L
464.184 39.544 L
465.01 39.356 L
465.837 39.169 L
466.663 38.985 L
467.49 38.802 L
468.316 38.621 L
469.143 38.442 L
469.969 38.265 L
470.796 38.09 L
471.622 37.916 L
472.448 37.745 L
473.275 37.576 L
474.101 37.408 L
474.928 37.242 L
475.754 37.078 L
476.581 36.917 L
477.407 36.757 L
478.233 36.599 L
479.06 36.443 L
479.886 36.289 L
480.713 36.137 L
481.539 35.987 L
482.366 35.839 L
483.192 35.693 L
484.018 35.548 L
484.845 35.406 L
485.671 35.266 L
486.498 35.128 L
487.324 34.992 L
S
GR
GS
0 0.447 0.741 RC
[10 6] 0 setdash
2 LJ
0.5 LW
N
77.13 357.536 M
77.957 354.716 L
78.783 351.903 L
79.61 349.099 L
80.436 346.307 L
81.263 343.528 L
82.089 340.765 L
82.916 338.018 L
83.742 335.291 L
84.568 332.585 L
85.395 329.903 L
86.221 327.245 L
87.048 324.615 L
87.874 322.014 L
88.701 319.444 L
89.527 316.907 L
90.353 314.406 L
91.18 311.941 L
92.006 309.516 L
92.833 307.132 L
93.659 304.791 L
94.486 302.495 L
95.312 300.246 L
96.138 298.046 L
96.965 295.897 L
97.791 293.802 L
98.618 291.761 L
99.444 289.777 L
100.271 287.853 L
101.097 285.989 L
101.924 284.189 L
102.75 282.453 L
103.576 280.757 L
104.403 279.078 L
105.229 277.417 L
106.056 275.774 L
106.882 274.147 L
107.709 272.537 L
108.535 270.945 L
109.361 269.369 L
110.188 267.81 L
111.014 266.267 L
111.841 264.741 L
112.667 263.231 L
113.494 261.737 L
114.32 260.26 L
115.146 258.798 L
115.973 257.352 L
116.799 255.922 L
117.626 254.508 L
118.452 253.109 L
119.279 251.726 L
120.105 250.357 L
120.932 249.004 L
121.758 247.666 L
122.584 246.343 L
123.411 245.034 L
124.237 243.741 L
125.064 242.461 L
125.89 241.196 L
126.717 239.946 L
127.543 238.709 L
128.369 237.487 L
129.196 236.279 L
130.022 235.084 L
130.849 233.903 L
131.675 232.736 L
132.502 231.582 L
133.328 230.441 L
134.154 229.314 L
134.981 228.2 L
135.807 227.099 L
136.634 226.01 L
137.46 224.935 L
138.287 223.872 L
139.113 222.821 L
139.94 221.783 L
140.766 220.757 L
141.592 219.743 L
142.419 218.742 L
143.245 217.752 L
144.072 216.774 L
144.898 215.807 L
145.725 214.853 L
146.551 213.909 L
147.377 212.977 L
148.204 212.056 L
149.03 211.146 L
149.857 210.248 L
150.683 209.36 L
151.51 208.482 L
152.336 207.615 L
153.163 206.756 L
153.989 205.903 L
154.815 205.055 L
155.642 204.212 L
156.468 203.374 L
157.295 202.542 L
158.121 201.715 L
158.948 200.894 L
159.774 200.078 L
160.6 199.266 L
161.427 198.46 L
162.253 197.659 L
163.08 196.864 L
163.906 196.073 L
164.733 195.287 L
165.559 194.506 L
166.385 193.73 L
167.212 192.96 L
168.038 192.193 L
168.865 191.432 L
169.691 190.676 L
170.518 189.924 L
171.344 189.177 L
172.171 188.435 L
172.997 187.697 L
173.823 186.964 L
174.65 186.236 L
175.476 185.512 L
176.303 184.793 L
177.129 184.078 L
177.956 183.368 L
178.782 182.662 L
179.608 181.96 L
180.435 181.263 L
181.261 180.57 L
182.088 179.881 L
182.914 179.197 L
183.741 178.517 L
184.567 177.84 L
185.393 177.169 L
186.22 176.501 L
187.046 175.837 L
187.873 175.177 L
188.699 174.521 L
189.526 173.87 L
190.352 173.222 L
191.179 172.578 L
192.005 171.938 L
192.831 171.301 L
193.658 170.669 L
194.484 170.04 L
195.311 169.415 L
196.137 168.794 L
196.964 168.176 L
197.79 167.562 L
198.616 166.951 L
199.443 166.344 L
200.269 165.741 L
201.096 165.141 L
201.922 164.544 L
202.749 163.951 L
203.575 163.361 L
204.401 162.774 L
205.228 162.191 L
206.054 161.611 L
206.881 161.034 L
207.707 160.461 L
208.534 159.89 L
209.36 159.323 L
210.187 158.759 L
211.013 158.197 L
211.839 157.639 L
212.666 157.084 L
213.492 156.532 L
214.319 155.982 L
215.145 155.436 L
215.972 154.892 L
216.798 154.351 L
217.624 153.813 L
218.451 153.278 L
219.277 152.745 L
220.104 152.215 L
220.93 151.688 L
221.757 151.163 L
222.583 150.641 L
223.41 150.121 L
224.236 149.604 L
225.062 149.089 L
225.889 148.577 L
226.715 148.067 L
227.542 147.559 L
228.368 147.054 L
229.195 146.551 L
230.021 146.05 L
230.847 145.551 L
231.674 145.055 L
232.5 144.56 L
233.327 144.068 L
234.153 143.578 L
234.98 143.09 L
235.806 142.604 L
236.632 142.119 L
237.459 141.637 L
238.285 141.157 L
239.112 140.678 L
239.938 140.202 L
240.765 139.727 L
241.591 139.254 L
242.418 138.782 L
243.244 138.312 L
244.07 137.844 L
244.897 137.378 L
245.723 136.913 L
246.55 136.449 L
247.376 135.987 L
248.203 135.524 L
249.029 135.062 L
249.855 134.6 L
250.682 134.139 L
251.508 133.677 L
252.335 133.216 L
253.161 132.755 L
253.988 132.295 L
254.814 131.835 L
255.64 131.375 L
256.467 130.915 L
257.293 130.456 L
258.12 129.997 L
258.946 129.538 L
259.773 129.08 L
260.599 128.622 L
261.426 128.164 L
262.252 127.707 L
263.078 127.25 L
263.905 126.793 L
264.731 126.337 L
265.558 125.881 L
266.384 125.426 L
267.211 124.97 L
268.037 124.516 L
268.863 124.061 L
269.69 123.607 L
270.516 123.154 L
271.343 122.7 L
272.169 122.248 L
272.996 121.795 L
273.822 121.343 L
274.648 120.892 L
275.475 120.441 L
276.301 119.99 L
277.128 119.54 L
277.954 119.09 L
278.781 118.641 L
279.607 118.192 L
280.434 117.744 L
281.26 117.296 L
282.086 116.848 L
282.913 116.401 L
283.739 115.955 L
284.566 115.509 L
285.392 115.063 L
286.219 114.619 L
287.045 114.174 L
287.871 113.73 L
288.698 113.287 L
289.524 112.844 L
290.351 112.402 L
291.177 111.96 L
292.004 111.519 L
292.83 111.078 L
293.656 110.638 L
294.483 110.198 L
295.309 109.759 L
296.136 109.321 L
296.962 108.883 L
297.789 108.446 L
298.615 108.009 L
299.442 107.573 L
300.268 107.137 L
301.094 106.703 L
301.921 106.268 L
302.747 105.835 L
303.574 105.402 L
304.4 104.969 L
305.227 104.538 L
306.053 104.106 L
306.879 103.676 L
307.706 103.246 L
308.532 102.817 L
309.359 102.389 L
310.185 101.961 L
311.012 101.534 L
311.838 101.107 L
312.665 100.681 L
313.491 100.256 L
314.317 99.832 L
315.144 99.408 L
315.97 98.985 L
316.797 98.563 L
317.623 98.142 L
318.45 97.721 L
319.276 97.301 L
320.102 96.881 L
320.929 96.463 L
321.755 96.045 L
322.582 95.628 L
323.408 95.211 L
324.235 94.796 L
325.061 94.381 L
325.887 93.967 L
326.714 93.554 L
327.54 93.141 L
328.367 92.73 L
329.193 92.319 L
330.02 91.909 L
330.846 91.5 L
331.673 91.091 L
332.499 90.684 L
333.325 90.277 L
334.152 89.871 L
334.978 89.466 L
335.805 89.062 L
336.631 88.658 L
337.458 88.256 L
338.284 87.854 L
339.11 87.453 L
339.937 87.053 L
340.763 86.654 L
341.59 86.256 L
342.416 85.859 L
343.243 85.462 L
344.069 85.067 L
344.895 84.672 L
345.722 84.279 L
346.548 83.886 L
347.375 83.494 L
348.201 83.103 L
349.028 82.713 L
349.854 82.324 L
350.681 81.936 L
351.507 81.549 L
352.333 81.163 L
353.16 80.777 L
353.986 80.393 L
354.813 80.01 L
355.639 79.628 L
356.466 79.246 L
357.292 78.866 L
358.118 78.487 L
358.945 78.108 L
359.771 77.731 L
360.598 77.355 L
361.424 76.98 L
362.251 76.605 L
363.077 76.232 L
363.904 75.86 L
364.73 75.489 L
365.556 75.119 L
366.383 74.75 L
367.209 74.382 L
368.036 74.015 L
368.862 73.649 L
369.689 73.284 L
370.515 72.921 L
371.341 72.558 L
372.168 72.196 L
372.994 71.836 L
373.821 71.477 L
374.647 71.119 L
375.474 70.761 L
376.3 70.406 L
377.126 70.051 L
377.953 69.697 L
378.779 69.344 L
379.606 68.993 L
380.432 68.643 L
381.259 68.294 L
382.085 67.946 L
382.911 67.599 L
383.738 67.253 L
384.564 66.909 L
385.391 66.566 L
386.217 66.224 L
387.044 65.883 L
387.87 65.543 L
388.697 65.205 L
389.523 64.867 L
390.349 64.531 L
391.176 64.196 L
392.002 63.863 L
392.829 63.531 L
393.655 63.199 L
394.482 62.87 L
395.308 62.541 L
396.134 62.214 L
396.961 61.887 L
397.787 61.563 L
398.614 61.239 L
399.44 60.917 L
400.267 60.596 L
401.093 60.276 L
401.92 59.958 L
402.746 59.641 L
403.572 59.325 L
404.399 59.01 L
405.225 58.697 L
406.052 58.385 L
406.878 58.075 L
407.705 57.766 L
408.531 57.458 L
409.357 57.151 L
410.184 56.846 L
411.01 56.542 L
411.837 56.24 L
412.663 55.939 L
413.49 55.639 L
414.316 55.341 L
415.142 55.044 L
415.969 54.749 L
416.795 54.454 L
417.622 54.162 L
418.448 53.87 L
419.275 53.581 L
420.101 53.292 L
420.928 53.005 L
421.754 52.719 L
422.58 52.435 L
423.407 52.152 L
424.233 51.871 L
425.06 51.591 L
425.886 51.313 L
426.713 51.036 L
427.539 50.761 L
428.365 50.487 L
429.192 50.214 L
430.018 49.943 L
430.845 49.674 L
431.671 49.406 L
432.498 49.139 L
433.324 48.874 L
434.151 48.611 L
434.977 48.349 L
435.803 48.088 L
436.63 47.829 L
437.456 47.572 L
438.283 47.316 L
439.109 47.062 L
439.936 46.809 L
440.762 46.558 L
441.588 46.309 L
442.415 46.061 L
443.241 45.814 L
444.068 45.569 L
444.894 45.326 L
445.721 45.084 L
446.547 44.844 L
447.373 44.606 L
448.2 44.369 L
449.026 44.134 L
449.853 43.9 L
450.679 43.668 L
451.506 43.438 L
452.332 43.209 L
453.159 42.982 L
453.985 42.757 L
454.811 42.533 L
455.638 42.311 L
456.464 42.09 L
457.291 41.872 L
458.117 41.655 L
458.944 41.439 L
459.77 41.226 L
460.596 41.014 L
461.423 40.803 L
462.249 40.595 L
463.076 40.388 L
463.902 40.183 L
464.729 39.979 L
465.555 39.778 L
466.381 39.578 L
467.208 39.379 L
468.034 39.183 L
468.861 38.988 L
469.687 38.795 L
470.514 38.604 L
471.34 38.415 L
472.167 38.227 L
472.993 38.041 L
473.819 37.857 L
474.646 37.675 L
475.472 37.494 L
476.299 37.316 L
477.125 37.139 L
477.952 36.964 L
478.778 36.79 L
479.604 36.619 L
480.431 36.449 L
481.257 36.282 L
482.084 36.116 L
482.91 35.952 L
483.737 35.789 L
484.563 35.629 L
485.389 35.471 L
486.216 35.314 L
487.042 35.159 L
487.869 35.006 L
488.695 34.855 L
489.522 34.706 L
490.348 34.559 L
491.175 34.414 L
492.001 34.271 L
492.827 34.129 L
S
GR
GS
0.851 0.325 0.098 RC
[10 6] 0 setdash
2 LJ
0.5 LW
N
74.707 367.399 M
75.534 364.337 L
76.36 361.282 L
77.187 358.238 L
78.013 355.207 L
78.839 352.191 L
79.666 349.192 L
80.492 346.214 L
81.319 343.258 L
82.145 340.327 L
82.972 337.424 L
83.798 334.55 L
84.625 331.708 L
85.451 328.9 L
86.277 326.13 L
87.104 323.398 L
87.93 320.709 L
88.757 318.063 L
89.583 315.464 L
90.41 312.913 L
91.236 310.414 L
92.062 307.969 L
92.889 305.579 L
93.715 303.248 L
94.542 300.978 L
95.368 298.772 L
96.195 296.63 L
97.021 294.557 L
97.847 292.555 L
98.674 290.625 L
99.5 288.769 L
100.327 286.948 L
101.153 285.146 L
101.98 283.364 L
102.806 281.601 L
103.633 279.858 L
104.459 278.133 L
105.285 276.428 L
106.112 274.741 L
106.938 273.073 L
107.765 271.423 L
108.591 269.792 L
109.418 268.179 L
110.244 266.585 L
111.07 265.008 L
111.897 263.449 L
112.723 261.908 L
113.55 260.385 L
114.376 258.879 L
115.203 257.39 L
116.029 255.919 L
116.855 254.465 L
117.682 253.027 L
118.508 251.607 L
119.335 250.203 L
120.161 248.817 L
120.988 247.446 L
121.814 246.092 L
122.641 244.754 L
123.467 243.432 L
124.293 242.126 L
125.12 240.836 L
125.946 239.562 L
126.773 238.303 L
127.599 237.06 L
128.426 235.832 L
129.252 234.619 L
130.078 233.421 L
130.905 232.238 L
131.731 231.07 L
132.558 229.917 L
133.384 228.778 L
134.211 227.654 L
135.037 226.544 L
135.863 225.448 L
136.69 224.366 L
137.516 223.298 L
138.343 222.244 L
139.169 221.203 L
139.996 220.176 L
140.822 219.162 L
141.649 218.162 L
142.475 217.175 L
143.301 216.2 L
144.128 215.239 L
144.954 214.29 L
145.781 213.354 L
146.607 212.431 L
147.434 211.519 L
148.26 210.616 L
149.086 209.718 L
149.913 208.826 L
150.739 207.94 L
151.566 207.06 L
152.392 206.186 L
153.219 205.318 L
154.045 204.455 L
154.872 203.599 L
155.698 202.748 L
156.524 201.903 L
157.351 201.063 L
158.177 200.229 L
159.004 199.401 L
159.83 198.578 L
160.657 197.761 L
161.483 196.949 L
162.309 196.142 L
163.136 195.341 L
163.962 194.546 L
164.789 193.755 L
165.615 192.97 L
166.442 192.19 L
167.268 191.415 L
168.094 190.645 L
168.921 189.881 L
169.747 189.121 L
170.574 188.367 L
171.4 187.617 L
172.227 186.873 L
173.053 186.133 L
173.88 185.398 L
174.706 184.668 L
175.532 183.943 L
176.359 183.222 L
177.185 182.506 L
178.012 181.795 L
178.838 181.088 L
179.665 180.386 L
180.491 179.689 L
181.317 178.996 L
182.144 178.307 L
182.97 177.623 L
183.797 176.943 L
184.623 176.268 L
185.45 175.597 L
186.276 174.93 L
187.102 174.267 L
187.929 173.609 L
188.755 172.954 L
189.582 172.304 L
190.408 171.658 L
191.235 171.015 L
192.061 170.377 L
192.888 169.743 L
193.714 169.112 L
194.54 168.486 L
195.367 167.863 L
196.193 167.244 L
197.02 166.629 L
197.846 166.017 L
198.673 165.409 L
199.499 164.805 L
200.325 164.204 L
201.152 163.607 L
201.978 163.013 L
202.805 162.423 L
203.631 161.836 L
204.458 161.252 L
205.284 160.672 L
206.111 160.095 L
206.937 159.521 L
207.763 158.951 L
208.59 158.383 L
209.416 157.819 L
210.243 157.258 L
211.069 156.7 L
211.896 156.145 L
212.722 155.593 L
213.548 155.044 L
214.375 154.498 L
215.201 153.954 L
216.028 153.414 L
216.854 152.876 L
217.681 152.341 L
218.507 151.808 L
219.333 151.278 L
220.16 150.751 L
220.986 150.227 L
221.813 149.705 L
222.639 149.185 L
223.466 148.668 L
224.292 148.153 L
225.119 147.641 L
225.945 147.131 L
226.771 146.623 L
227.598 146.117 L
228.424 145.614 L
229.251 145.113 L
230.077 144.614 L
230.904 144.117 L
231.73 143.622 L
232.556 143.129 L
233.383 142.638 L
234.209 142.149 L
235.036 141.662 L
235.862 141.177 L
236.689 140.693 L
237.515 140.212 L
238.341 139.732 L
239.168 139.254 L
239.994 138.777 L
240.821 138.3 L
241.647 137.823 L
242.474 137.347 L
243.3 136.871 L
244.127 136.395 L
244.953 135.92 L
245.779 135.445 L
246.606 134.97 L
247.432 134.495 L
248.259 134.021 L
249.085 133.547 L
249.912 133.073 L
250.738 132.6 L
251.564 132.127 L
252.391 131.654 L
253.217 131.182 L
254.044 130.71 L
254.87 130.238 L
255.697 129.767 L
256.523 129.296 L
257.349 128.825 L
258.176 128.355 L
259.002 127.885 L
259.829 127.415 L
260.655 126.946 L
261.482 126.478 L
262.308 126.009 L
263.135 125.542 L
263.961 125.074 L
264.787 124.607 L
265.614 124.141 L
266.44 123.674 L
267.267 123.209 L
268.093 122.743 L
268.92 122.279 L
269.746 121.814 L
270.572 121.35 L
271.399 120.887 L
272.225 120.424 L
273.052 119.962 L
273.878 119.5 L
274.705 119.038 L
275.531 118.577 L
276.357 118.117 L
277.184 117.657 L
278.01 117.198 L
278.837 116.739 L
279.663 116.28 L
280.49 115.823 L
281.316 115.365 L
282.143 114.909 L
282.969 114.453 L
283.795 113.997 L
284.622 113.542 L
285.448 113.088 L
286.275 112.634 L
287.101 112.181 L
287.928 111.728 L
288.754 111.276 L
289.58 110.825 L
290.407 110.374 L
291.233 109.924 L
292.06 109.474 L
292.886 109.025 L
293.713 108.577 L
294.539 108.13 L
295.366 107.683 L
296.192 107.236 L
297.018 106.791 L
297.845 106.346 L
298.671 105.902 L
299.498 105.458 L
300.324 105.015 L
301.151 104.573 L
301.977 104.132 L
302.803 103.691 L
303.63 103.251 L
304.456 102.812 L
305.283 102.373 L
306.109 101.935 L
306.936 101.498 L
307.762 101.062 L
308.588 100.626 L
309.415 100.191 L
310.241 99.757 L
311.068 99.324 L
311.894 98.892 L
312.721 98.46 L
313.547 98.029 L
314.374 97.599 L
315.2 97.17 L
316.026 96.741 L
316.853 96.313 L
317.679 95.887 L
318.506 95.461 L
319.332 95.035 L
320.159 94.611 L
320.985 94.188 L
321.811 93.765 L
322.638 93.343 L
323.464 92.922 L
324.291 92.502 L
325.117 92.083 L
325.944 91.665 L
326.77 91.248 L
327.596 90.831 L
328.423 90.416 L
329.249 90.001 L
330.076 89.587 L
330.902 89.175 L
331.729 88.763 L
332.555 88.352 L
333.382 87.942 L
334.208 87.533 L
335.034 87.125 L
335.861 86.718 L
336.687 86.312 L
337.514 85.907 L
338.34 85.502 L
339.167 85.099 L
339.993 84.697 L
340.819 84.296 L
341.646 83.896 L
342.472 83.497 L
343.299 83.099 L
344.125 82.701 L
344.952 82.305 L
345.778 81.91 L
346.604 81.516 L
347.431 81.123 L
348.257 80.732 L
349.084 80.341 L
349.91 79.951 L
350.737 79.562 L
351.563 79.175 L
352.39 78.788 L
353.216 78.403 L
354.042 78.019 L
354.869 77.635 L
355.695 77.253 L
356.522 76.872 L
357.348 76.493 L
358.175 76.114 L
359.001 75.736 L
359.827 75.36 L
360.654 74.985 L
361.48 74.611 L
362.307 74.238 L
363.133 73.866 L
363.96 73.495 L
364.786 73.126 L
365.613 72.758 L
366.439 72.391 L
367.265 72.025 L
368.092 71.66 L
368.918 71.297 L
369.745 70.935 L
370.571 70.574 L
371.398 70.214 L
372.224 69.856 L
373.05 69.498 L
373.877 69.142 L
374.703 68.788 L
375.53 68.434 L
376.356 68.082 L
377.183 67.731 L
378.009 67.382 L
378.835 67.033 L
379.662 66.686 L
380.488 66.341 L
381.315 65.996 L
382.141 65.653 L
382.968 65.311 L
383.794 64.971 L
384.621 64.632 L
385.447 64.294 L
386.273 63.958 L
387.1 63.623 L
387.926 63.289 L
388.753 62.957 L
389.579 62.626 L
390.406 62.296 L
391.232 61.968 L
392.058 61.641 L
392.885 61.316 L
393.711 60.992 L
394.538 60.669 L
395.364 60.348 L
396.191 60.028 L
397.017 59.71 L
397.843 59.393 L
398.67 59.077 L
399.496 58.763 L
400.323 58.451 L
401.149 58.14 L
401.976 57.83 L
402.802 57.522 L
403.629 57.215 L
404.455 56.91 L
405.281 56.606 L
406.108 56.304 L
406.934 56.003 L
407.761 55.704 L
408.587 55.407 L
409.414 55.11 L
410.24 54.816 L
411.066 54.523 L
411.893 54.231 L
412.719 53.941 L
413.546 53.653 L
414.372 53.366 L
415.199 53.081 L
416.025 52.797 L
416.852 52.515 L
417.678 52.234 L
418.504 51.955 L
419.331 51.678 L
420.157 51.402 L
420.984 51.128 L
421.81 50.855 L
422.637 50.584 L
423.463 50.315 L
424.289 50.047 L
425.116 49.781 L
425.942 49.517 L
426.769 49.254 L
427.595 48.993 L
428.422 48.734 L
429.248 48.476 L
430.074 48.22 L
430.901 47.966 L
431.727 47.713 L
432.554 47.462 L
433.38 47.213 L
434.207 46.965 L
435.033 46.719 L
435.859 46.475 L
436.686 46.233 L
437.512 45.992 L
438.339 45.753 L
439.165 45.516 L
439.992 45.281 L
440.818 45.047 L
441.645 44.815 L
442.471 44.585 L
443.297 44.357 L
444.124 44.13 L
444.95 43.906 L
445.777 43.683 L
446.603 43.462 L
447.43 43.242 L
448.256 43.025 L
449.082 42.809 L
449.909 42.595 L
450.735 42.383 L
451.562 42.173 L
452.388 41.965 L
453.215 41.758 L
454.041 41.554 L
454.868 41.351 L
455.694 41.15 L
456.52 40.951 L
457.347 40.754 L
458.173 40.559 L
459 40.366 L
459.826 40.174 L
460.653 39.985 L
461.479 39.797 L
462.305 39.612 L
463.132 39.428 L
463.958 39.246 L
464.785 39.066 L
465.611 38.888 L
466.438 38.712 L
467.264 38.539 L
468.09 38.367 L
468.917 38.197 L
469.743 38.028 L
470.57 37.862 L
471.396 37.698 L
472.223 37.536 L
473.049 37.376 L
473.876 37.218 L
474.702 37.062 L
475.528 36.908 L
476.355 36.756 L
477.181 36.606 L
478.008 36.459 L
478.834 36.313 L
479.661 36.169 L
480.487 36.027 L
481.313 35.888 L
482.14 35.75 L
482.966 35.615 L
483.793 35.481 L
S
GR
GS
1 GC
N
499 366 M
499 218.5 L
327.5 218.5 L
327.5 366 L
cp
f
GR
GS
[1 0 0 1 364.5 228.25] CT
/Helvetica 13 F
GS
[1 0 0 1 0 0] CT
0 5 moveto 
1 -1 scale
(Base Run) t 
GR
GR
GS
0 0.447 0.741 RC
1 LJ
0.5 LW
N
331.5 228.25 M
361.5 228.25 L
S
GR
GS
[1 0 0 1 364.5 244.25] CT
/Helvetica 13 F
GS
[1 0 0 1 0 0] CT
0 5 moveto 
1 -1 scale
(All Frames) t 
GR
GR
GS
0.851 0.325 0.098 RC
1 LJ
0.5 LW
N
331.5 244.25 M
361.5 244.25 L
S
GR
GS
[1 0 0 1 364.5 260.25] CT
/Helvetica 13 F
GS
[1 0 0 1 0 0] CT
0 5 moveto 
1 -1 scale
(KF Only) t 
GR
GR
GS
0.929 0.694 0.125 RC
1 LJ
0.5 LW
N
331.5 260.25 M
361.5 260.25 L
S
GR
GS
[1 0 0 1 364.5 276.25] CT
/Helvetica 13 F
GS
[1 0 0 1 0 0] CT
0 5 moveto 
1 -1 scale
(GF, ARF Only) t 
GR
GR
GS
0.494 0.184 0.557 RC
1 LJ
0.5 LW
N
331.5 276.25 M
361.5 276.25 L
S
GR
GS
[1 0 0 1 364.5 292.25] CT
/Helvetica 13 F
GS
[1 0 0 1 0 0] CT
0 5 moveto 
1 -1 scale
(KF, GF, ARF Only) t 
GR
GR
GS
0.467 0.675 0.188 RC
1 LJ
0.5 LW
N
331.5 292.25 M
361.5 292.25 L
S
GR
GS
[1 0 0 1 364.5 308.25] CT
/Helvetica 13 F
GS
[1 0 0 1 0 0] CT
0 5 moveto 
1 -1 scale
(Part All Frames) t 
GR
GR
GS
0.302 0.745 0.933 RC
[10 6] 0 setdash
2 LJ
0.5 LW
N
331.5 308.25 M
361.5 308.25 L
S
GR
GS
[1 0 0 1 364.5 324.25] CT
/Helvetica 13 F
GS
[1 0 0 1 0 0] CT
0 5 moveto 
1 -1 scale
(Part KF Only) t 
GR
GR
GS
0.635 0.078 0.184 RC
[10 6] 0 setdash
2 LJ
0.5 LW
N
331.5 324.25 M
361.5 324.25 L
S
GR
GS
[1 0 0 1 364.5 340.25] CT
/Helvetica 13 F
GS
[1 0 0 1 0 0] CT
0 5 moveto 
1 -1 scale
(Part GF, ARF Only) t 
GR
GR
GS
0 0.447 0.741 RC
[10 6] 0 setdash
2 LJ
0.5 LW
N
331.5 340.25 M
361.5 340.25 L
S
GR
GS
[1 0 0 1 364.5 356.25] CT
/Helvetica 13 F
GS
[1 0 0 1 0 0] CT
0 5 moveto 
1 -1 scale
(Part KF, GF, ARF Only) t 
GR
GR
GS
0.851 0.325 0.098 RC
[10 6] 0 setdash
2 LJ
0.5 LW
N
331.5 356.25 M
361.5 356.25 L
S
GR
GS
0.149 GC
10.0 ML
0.5 LW
N
327.5 366 M
327.5 218.5 L
499 218.5 L
499 366 L
cp
S
GR
%%Trailer
%%Pages: 1
%%EOF
