%!PS-Adobe-3.0 EPSF-3.0
%%Creator: (MATLAB, The Mathworks, Inc. Version 9.11.0.1837725 \(R2021b\) Update 2. Operating System: Mac OS X)
%%Title: plots/pchip/TelevisionClip_1080P-39e3.y4m-hevc-APSNRU.eps
%%CreationDate: 2022-02-03T19:14:53
%%Pages: (atend)
%%BoundingBox:    33   425   508   826
%%LanguageLevel: 3
%%EndComments
%%BeginProlog
%%BeginResource: procset (Apache XML Graphics Std ProcSet) 1.2 0
%%Version: 1.2 0
%%Copyright: (Copyright 2001-2003,2010 The Apache Software Foundation. License terms: http://www.apache.org/licenses/LICENSE-2.0)
/bd{bind def}bind def
/ld{load def}bd
/GR/grestore ld
/GS/gsave ld
/RM/rmoveto ld
/C/curveto ld
/t/show ld
/L/lineto ld
/ML/setmiterlimit ld
/CT/concat ld
/f/fill ld
/N/newpath ld
/S/stroke ld
/CC/setcmykcolor ld
/A/ashow ld
/cp/closepath ld
/RC/setrgbcolor ld
/LJ/setlinejoin ld
/GC/setgray ld
/LW/setlinewidth ld
/M/moveto ld
/re {4 2 roll M
1 index 0 rlineto
0 exch rlineto
neg 0 rlineto
cp } bd
/_ctm matrix def
/_tm matrix def
/BT { _ctm currentmatrix pop matrix _tm copy pop 0 0 moveto } bd
/ET { _ctm setmatrix } bd
/iTm { _ctm setmatrix _tm concat } bd
/Tm { _tm astore pop iTm 0 0 moveto } bd
/ux 0.0 def
/uy 0.0 def
/F {
  /Tp exch def
  /Tf exch def
  Tf findfont Tp scalefont setfont
  /cf Tf def  /cs Tp def
} bd
/ULS {currentpoint /uy exch def /ux exch def} bd
/ULE {
  /Tcx currentpoint pop def
  gsave
  newpath
  cf findfont cs scalefont dup
  /FontMatrix get 0 get /Ts exch def /FontInfo get dup
  /UnderlinePosition get Ts mul /To exch def
  /UnderlineThickness get Ts mul /Tt exch def
  ux uy To add moveto  Tcx uy To add lineto
  Tt setlinewidth stroke
  grestore
} bd
/OLE {
  /Tcx currentpoint pop def
  gsave
  newpath
  cf findfont cs scalefont dup
  /FontMatrix get 0 get /Ts exch def /FontInfo get dup
  /UnderlinePosition get Ts mul /To exch def
  /UnderlineThickness get Ts mul /Tt exch def
  ux uy To add cs add moveto Tcx uy To add cs add lineto
  Tt setlinewidth stroke
  grestore
} bd
/SOE {
  /Tcx currentpoint pop def
  gsave
  newpath
  cf findfont cs scalefont dup
  /FontMatrix get 0 get /Ts exch def /FontInfo get dup
  /UnderlinePosition get Ts mul /To exch def
  /UnderlineThickness get Ts mul /Tt exch def
  ux uy To add cs 10 mul 26 idiv add moveto Tcx uy To add cs 10 mul 26 idiv add lineto
  Tt setlinewidth stroke
  grestore
} bd
/QT {
/Y22 exch store
/X22 exch store
/Y21 exch store
/X21 exch store
currentpoint
/Y21 load 2 mul add 3 div exch
/X21 load 2 mul add 3 div exch
/X21 load 2 mul /X22 load add 3 div
/Y21 load 2 mul /Y22 load add 3 div
/X22 load /Y22 load curveto
} bd
/SSPD {
dup length /d exch dict def
{
/v exch def
/k exch def
currentpagedevice k known {
/cpdv currentpagedevice k get def
v cpdv ne {
/upd false def
/nullv v type /nulltype eq def
/nullcpdv cpdv type /nulltype eq def
nullv nullcpdv or
{
/upd true def
} {
/sametype v type cpdv type eq def
sametype {
v type /arraytype eq {
/vlen v length def
/cpdvlen cpdv length def
vlen cpdvlen eq {
0 1 vlen 1 sub {
/i exch def
/obj v i get def
/cpdobj cpdv i get def
obj cpdobj ne {
/upd true def
exit
} if
} for
} {
/upd true def
} ifelse
} {
v type /dicttype eq {
v {
/dv exch def
/dk exch def
/cpddv cpdv dk get def
dv cpddv ne {
/upd true def
exit
} if
} forall
} {
/upd true def
} ifelse
} ifelse
} if
} ifelse
upd true eq {
d k v put
} if
} if
} if
} forall
d length 0 gt {
d setpagedevice
} if
} bd
/RE { % /NewFontName [NewEncodingArray] /FontName RE -
  findfont dup length dict begin
  {
    1 index /FID ne
    {def} {pop pop} ifelse
  } forall
  /Encoding exch def
  /FontName 1 index def
  currentdict definefont pop
  end
} bind def
%%EndResource
%%BeginResource: procset (Apache XML Graphics EPS ProcSet) 1.0 0
%%Version: 1.0 0
%%Copyright: (Copyright 2002-2003 The Apache Software Foundation. License terms: http://www.apache.org/licenses/LICENSE-2.0)
/BeginEPSF { %def
/b4_Inc_state save def         % Save state for cleanup
/dict_count countdictstack def % Count objects on dict stack
/op_count count 1 sub def      % Count objects on operand stack
userdict begin                 % Push userdict on dict stack
/showpage { } def              % Redefine showpage, { } = null proc
0 setgray 0 setlinecap         % Prepare graphics state
1 setlinewidth 0 setlinejoin
10 setmiterlimit [ ] 0 setdash newpath
/languagelevel where           % If level not equal to 1 then
{pop languagelevel             % set strokeadjust and
1 ne                           % overprint to their defaults.
{false setstrokeadjust false setoverprint
} if
} if
} bd
/EndEPSF { %def
count op_count sub {pop} repeat            % Clean up stacks
countdictstack dict_count sub {end} repeat
b4_Inc_state restore
} bd
%%EndResource
%FOPBeginFontDict
%%IncludeResource: font Courier-Oblique
%%IncludeResource: font Courier-BoldOblique
%%IncludeResource: font Courier-Bold
%%IncludeResource: font ZapfDingbats
%%IncludeResource: font Symbol
%%IncludeResource: font Helvetica
%%IncludeResource: font Helvetica-Oblique
%%IncludeResource: font Helvetica-Bold
%%IncludeResource: font Helvetica-BoldOblique
%%IncludeResource: font Times-Roman
%%IncludeResource: font Times-Italic
%%IncludeResource: font Times-Bold
%%IncludeResource: font Times-BoldItalic
%%IncludeResource: font Courier
%FOPEndFontDict
%%BeginResource: encoding WinAnsiEncoding
/WinAnsiEncoding [
/.notdef /.notdef /.notdef /.notdef /.notdef
/.notdef /.notdef /.notdef /.notdef /.notdef
/.notdef /.notdef /.notdef /.notdef /.notdef
/.notdef /.notdef /.notdef /.notdef /.notdef
/.notdef /.notdef /.notdef /.notdef /.notdef
/.notdef /.notdef /.notdef /.notdef /.notdef
/.notdef /.notdef /space /exclam /quotedbl
/numbersign /dollar /percent /ampersand /quotesingle
/parenleft /parenright /asterisk /plus /comma
/hyphen /period /slash /zero /one
/two /three /four /five /six
/seven /eight /nine /colon /semicolon
/less /equal /greater /question /at
/A /B /C /D /E
/F /G /H /I /J
/K /L /M /N /O
/P /Q /R /S /T
/U /V /W /X /Y
/Z /bracketleft /backslash /bracketright /asciicircum
/underscore /quoteleft /a /b /c
/d /e /f /g /h
/i /j /k /l /m
/n /o /p /q /r
/s /t /u /v /w
/x /y /z /braceleft /bar
/braceright /asciitilde /bullet /Euro /bullet
/quotesinglbase /florin /quotedblbase /ellipsis /dagger
/daggerdbl /circumflex /perthousand /Scaron /guilsinglleft
/OE /bullet /Zcaron /bullet /bullet
/quoteleft /quoteright /quotedblleft /quotedblright /bullet
/endash /emdash /asciitilde /trademark /scaron
/guilsinglright /oe /bullet /zcaron /Ydieresis
/space /exclamdown /cent /sterling /currency
/yen /brokenbar /section /dieresis /copyright
/ordfeminine /guillemotleft /logicalnot /sfthyphen /registered
/macron /degree /plusminus /twosuperior /threesuperior
/acute /mu /paragraph /middot /cedilla
/onesuperior /ordmasculine /guillemotright /onequarter /onehalf
/threequarters /questiondown /Agrave /Aacute /Acircumflex
/Atilde /Adieresis /Aring /AE /Ccedilla
/Egrave /Eacute /Ecircumflex /Edieresis /Igrave
/Iacute /Icircumflex /Idieresis /Eth /Ntilde
/Ograve /Oacute /Ocircumflex /Otilde /Odieresis
/multiply /Oslash /Ugrave /Uacute /Ucircumflex
/Udieresis /Yacute /Thorn /germandbls /agrave
/aacute /acircumflex /atilde /adieresis /aring
/ae /ccedilla /egrave /eacute /ecircumflex
/edieresis /igrave /iacute /icircumflex /idieresis
/eth /ntilde /ograve /oacute /ocircumflex
/otilde /odieresis /divide /oslash /ugrave
/uacute /ucircumflex /udieresis /yacute /thorn
/ydieresis
] def
%%EndResource
%FOPBeginFontReencode
/Courier-Oblique findfont
dup length dict begin
  {1 index /FID ne {def} {pop pop} ifelse} forall
  /Encoding WinAnsiEncoding def
  currentdict
end
/Courier-Oblique exch definefont pop
/Courier-BoldOblique findfont
dup length dict begin
  {1 index /FID ne {def} {pop pop} ifelse} forall
  /Encoding WinAnsiEncoding def
  currentdict
end
/Courier-BoldOblique exch definefont pop
/Courier-Bold findfont
dup length dict begin
  {1 index /FID ne {def} {pop pop} ifelse} forall
  /Encoding WinAnsiEncoding def
  currentdict
end
/Courier-Bold exch definefont pop
/Helvetica findfont
dup length dict begin
  {1 index /FID ne {def} {pop pop} ifelse} forall
  /Encoding WinAnsiEncoding def
  currentdict
end
/Helvetica exch definefont pop
/Helvetica-Oblique findfont
dup length dict begin
  {1 index /FID ne {def} {pop pop} ifelse} forall
  /Encoding WinAnsiEncoding def
  currentdict
end
/Helvetica-Oblique exch definefont pop
/Helvetica-Bold findfont
dup length dict begin
  {1 index /FID ne {def} {pop pop} ifelse} forall
  /Encoding WinAnsiEncoding def
  currentdict
end
/Helvetica-Bold exch definefont pop
/Helvetica-BoldOblique findfont
dup length dict begin
  {1 index /FID ne {def} {pop pop} ifelse} forall
  /Encoding WinAnsiEncoding def
  currentdict
end
/Helvetica-BoldOblique exch definefont pop
/Times-Roman findfont
dup length dict begin
  {1 index /FID ne {def} {pop pop} ifelse} forall
  /Encoding WinAnsiEncoding def
  currentdict
end
/Times-Roman exch definefont pop
/Times-Italic findfont
dup length dict begin
  {1 index /FID ne {def} {pop pop} ifelse} forall
  /Encoding WinAnsiEncoding def
  currentdict
end
/Times-Italic exch definefont pop
/Times-Bold findfont
dup length dict begin
  {1 index /FID ne {def} {pop pop} ifelse} forall
  /Encoding WinAnsiEncoding def
  currentdict
end
/Times-Bold exch definefont pop
/Times-BoldItalic findfont
dup length dict begin
  {1 index /FID ne {def} {pop pop} ifelse} forall
  /Encoding WinAnsiEncoding def
  currentdict
end
/Times-BoldItalic exch definefont pop
/Courier findfont
dup length dict begin
  {1 index /FID ne {def} {pop pop} ifelse} forall
  /Encoding WinAnsiEncoding def
  currentdict
end
/Courier exch definefont pop
%FOPEndFontReencode
%%EndProlog
%%Page: 1 1
%%PageBoundingBox: 0 0 1120 840
%%BeginPageSetup
[1 0 0 -1 0 840] CT
%%EndPageSetup
GS
1 GC
N
0 0 1120 840 re
f
GR
GS
1 GC
N
73 374 M
507 374 L
507 31.5 L
73 31.5 L
cp
f
GR
GS
0.149 GC
2 setlinecap
1 LJ
0.5 LW
N
73 374 M
507 374 L
S
GR
GS
0.149 GC
2 setlinecap
1 LJ
0.5 LW
N
73 31.5 M
507 31.5 L
S
GR
GS
0.149 GC
2 setlinecap
1 LJ
0.5 LW
N
99.876 374 M
99.876 369.66 L
S
GR
GS
0.149 GC
2 setlinecap
1 LJ
0.5 LW
N
148.476 374 M
148.476 369.66 L
S
GR
GS
0.149 GC
2 setlinecap
1 LJ
0.5 LW
N
197.075 374 M
197.075 369.66 L
S
GR
GS
0.149 GC
2 setlinecap
1 LJ
0.5 LW
N
245.675 374 M
245.675 369.66 L
S
GR
GS
0.149 GC
2 setlinecap
1 LJ
0.5 LW
N
294.275 374 M
294.275 369.66 L
S
GR
GS
0.149 GC
2 setlinecap
1 LJ
0.5 LW
N
342.875 374 M
342.875 369.66 L
S
GR
GS
0.149 GC
2 setlinecap
1 LJ
0.5 LW
N
391.474 374 M
391.474 369.66 L
S
GR
GS
0.149 GC
2 setlinecap
1 LJ
0.5 LW
N
440.074 374 M
440.074 369.66 L
S
GR
GS
0.149 GC
2 setlinecap
1 LJ
0.5 LW
N
488.674 374 M
488.674 369.66 L
S
GR
GS
0.149 GC
2 setlinecap
1 LJ
0.5 LW
N
99.876 31.5 M
99.876 35.84 L
S
GR
GS
0.149 GC
2 setlinecap
1 LJ
0.5 LW
N
148.476 31.5 M
148.476 35.84 L
S
GR
GS
0.149 GC
2 setlinecap
1 LJ
0.5 LW
N
197.075 31.5 M
197.075 35.84 L
S
GR
GS
0.149 GC
2 setlinecap
1 LJ
0.5 LW
N
245.675 31.5 M
245.675 35.84 L
S
GR
GS
0.149 GC
2 setlinecap
1 LJ
0.5 LW
N
294.275 31.5 M
294.275 35.84 L
S
GR
GS
0.149 GC
2 setlinecap
1 LJ
0.5 LW
N
342.875 31.5 M
342.875 35.84 L
S
GR
GS
0.149 GC
2 setlinecap
1 LJ
0.5 LW
N
391.474 31.5 M
391.474 35.84 L
S
GR
GS
0.149 GC
2 setlinecap
1 LJ
0.5 LW
N
440.074 31.5 M
440.074 35.84 L
S
GR
GS
0.149 GC
2 setlinecap
1 LJ
0.5 LW
N
488.674 31.5 M
488.674 35.84 L
S
GR
GS
0.149 GC
2 setlinecap
1 LJ
0.5 LW
N
80.436 374 M
80.436 371.83 L
S
GR
GS
0.149 GC
2 setlinecap
1 LJ
0.5 LW
N
90.156 374 M
90.156 371.83 L
S
GR
GS
0.149 GC
2 setlinecap
1 LJ
0.5 LW
N
109.596 374 M
109.596 371.83 L
S
GR
GS
0.149 GC
2 setlinecap
1 LJ
0.5 LW
N
119.316 374 M
119.316 371.83 L
S
GR
GS
0.149 GC
2 setlinecap
1 LJ
0.5 LW
N
129.036 374 M
129.036 371.83 L
S
GR
GS
0.149 GC
2 setlinecap
1 LJ
0.5 LW
N
138.756 374 M
138.756 371.83 L
S
GR
GS
0.149 GC
2 setlinecap
1 LJ
0.5 LW
N
158.196 374 M
158.196 371.83 L
S
GR
GS
0.149 GC
2 setlinecap
1 LJ
0.5 LW
N
167.916 374 M
167.916 371.83 L
S
GR
GS
0.149 GC
2 setlinecap
1 LJ
0.5 LW
N
177.636 374 M
177.636 371.83 L
S
GR
GS
0.149 GC
2 setlinecap
1 LJ
0.5 LW
N
187.355 374 M
187.355 371.83 L
S
GR
GS
0.149 GC
2 setlinecap
1 LJ
0.5 LW
N
206.795 374 M
206.795 371.83 L
S
GR
GS
0.149 GC
2 setlinecap
1 LJ
0.5 LW
N
216.515 374 M
216.515 371.83 L
S
GR
GS
0.149 GC
2 setlinecap
1 LJ
0.5 LW
N
226.235 374 M
226.235 371.83 L
S
GR
GS
0.149 GC
2 setlinecap
1 LJ
0.5 LW
N
235.955 374 M
235.955 371.83 L
S
GR
GS
0.149 GC
2 setlinecap
1 LJ
0.5 LW
N
255.395 374 M
255.395 371.83 L
S
GR
GS
0.149 GC
2 setlinecap
1 LJ
0.5 LW
N
265.115 374 M
265.115 371.83 L
S
GR
GS
0.149 GC
2 setlinecap
1 LJ
0.5 LW
N
274.835 374 M
274.835 371.83 L
S
GR
GS
0.149 GC
2 setlinecap
1 LJ
0.5 LW
N
284.555 374 M
284.555 371.83 L
S
GR
GS
0.149 GC
2 setlinecap
1 LJ
0.5 LW
N
303.995 374 M
303.995 371.83 L
S
GR
GS
0.149 GC
2 setlinecap
1 LJ
0.5 LW
N
313.715 374 M
313.715 371.83 L
S
GR
GS
0.149 GC
2 setlinecap
1 LJ
0.5 LW
N
323.435 374 M
323.435 371.83 L
S
GR
GS
0.149 GC
2 setlinecap
1 LJ
0.5 LW
N
333.155 374 M
333.155 371.83 L
S
GR
GS
0.149 GC
2 setlinecap
1 LJ
0.5 LW
N
352.594 374 M
352.594 371.83 L
S
GR
GS
0.149 GC
2 setlinecap
1 LJ
0.5 LW
N
362.314 374 M
362.314 371.83 L
S
GR
GS
0.149 GC
2 setlinecap
1 LJ
0.5 LW
N
372.034 374 M
372.034 371.83 L
S
GR
GS
0.149 GC
2 setlinecap
1 LJ
0.5 LW
N
381.754 374 M
381.754 371.83 L
S
GR
GS
0.149 GC
2 setlinecap
1 LJ
0.5 LW
N
401.194 374 M
401.194 371.83 L
S
GR
GS
0.149 GC
2 setlinecap
1 LJ
0.5 LW
N
410.914 374 M
410.914 371.83 L
S
GR
GS
0.149 GC
2 setlinecap
1 LJ
0.5 LW
N
420.634 374 M
420.634 371.83 L
S
GR
GS
0.149 GC
2 setlinecap
1 LJ
0.5 LW
N
430.354 374 M
430.354 371.83 L
S
GR
GS
0.149 GC
2 setlinecap
1 LJ
0.5 LW
N
449.794 374 M
449.794 371.83 L
S
GR
GS
0.149 GC
2 setlinecap
1 LJ
0.5 LW
N
459.514 374 M
459.514 371.83 L
S
GR
GS
0.149 GC
2 setlinecap
1 LJ
0.5 LW
N
469.234 374 M
469.234 371.83 L
S
GR
GS
0.149 GC
2 setlinecap
1 LJ
0.5 LW
N
478.954 374 M
478.954 371.83 L
S
GR
GS
0.149 GC
2 setlinecap
1 LJ
0.5 LW
N
498.394 374 M
498.394 371.83 L
S
GR
GS
0.149 GC
2 setlinecap
1 LJ
0.5 LW
N
80.436 31.5 M
80.436 33.67 L
S
GR
GS
0.149 GC
2 setlinecap
1 LJ
0.5 LW
N
90.156 31.5 M
90.156 33.67 L
S
GR
GS
0.149 GC
2 setlinecap
1 LJ
0.5 LW
N
109.596 31.5 M
109.596 33.67 L
S
GR
GS
0.149 GC
2 setlinecap
1 LJ
0.5 LW
N
119.316 31.5 M
119.316 33.67 L
S
GR
GS
0.149 GC
2 setlinecap
1 LJ
0.5 LW
N
129.036 31.5 M
129.036 33.67 L
S
GR
GS
0.149 GC
2 setlinecap
1 LJ
0.5 LW
N
138.756 31.5 M
138.756 33.67 L
S
GR
GS
0.149 GC
2 setlinecap
1 LJ
0.5 LW
N
158.196 31.5 M
158.196 33.67 L
S
GR
GS
0.149 GC
2 setlinecap
1 LJ
0.5 LW
N
167.916 31.5 M
167.916 33.67 L
S
GR
GS
0.149 GC
2 setlinecap
1 LJ
0.5 LW
N
177.636 31.5 M
177.636 33.67 L
S
GR
GS
0.149 GC
2 setlinecap
1 LJ
0.5 LW
N
187.355 31.5 M
187.355 33.67 L
S
GR
GS
0.149 GC
2 setlinecap
1 LJ
0.5 LW
N
206.795 31.5 M
206.795 33.67 L
S
GR
GS
0.149 GC
2 setlinecap
1 LJ
0.5 LW
N
216.515 31.5 M
216.515 33.67 L
S
GR
GS
0.149 GC
2 setlinecap
1 LJ
0.5 LW
N
226.235 31.5 M
226.235 33.67 L
S
GR
GS
0.149 GC
2 setlinecap
1 LJ
0.5 LW
N
235.955 31.5 M
235.955 33.67 L
S
GR
GS
0.149 GC
2 setlinecap
1 LJ
0.5 LW
N
255.395 31.5 M
255.395 33.67 L
S
GR
GS
0.149 GC
2 setlinecap
1 LJ
0.5 LW
N
265.115 31.5 M
265.115 33.67 L
S
GR
GS
0.149 GC
2 setlinecap
1 LJ
0.5 LW
N
274.835 31.5 M
274.835 33.67 L
S
GR
GS
0.149 GC
2 setlinecap
1 LJ
0.5 LW
N
284.555 31.5 M
284.555 33.67 L
S
GR
GS
0.149 GC
2 setlinecap
1 LJ
0.5 LW
N
303.995 31.5 M
303.995 33.67 L
S
GR
GS
0.149 GC
2 setlinecap
1 LJ
0.5 LW
N
313.715 31.5 M
313.715 33.67 L
S
GR
GS
0.149 GC
2 setlinecap
1 LJ
0.5 LW
N
323.435 31.5 M
323.435 33.67 L
S
GR
GS
0.149 GC
2 setlinecap
1 LJ
0.5 LW
N
333.155 31.5 M
333.155 33.67 L
S
GR
GS
0.149 GC
2 setlinecap
1 LJ
0.5 LW
N
352.594 31.5 M
352.594 33.67 L
S
GR
GS
0.149 GC
2 setlinecap
1 LJ
0.5 LW
N
362.314 31.5 M
362.314 33.67 L
S
GR
GS
0.149 GC
2 setlinecap
1 LJ
0.5 LW
N
372.034 31.5 M
372.034 33.67 L
S
GR
GS
0.149 GC
2 setlinecap
1 LJ
0.5 LW
N
381.754 31.5 M
381.754 33.67 L
S
GR
GS
0.149 GC
2 setlinecap
1 LJ
0.5 LW
N
401.194 31.5 M
401.194 33.67 L
S
GR
GS
0.149 GC
2 setlinecap
1 LJ
0.5 LW
N
410.914 31.5 M
410.914 33.67 L
S
GR
GS
0.149 GC
2 setlinecap
1 LJ
0.5 LW
N
420.634 31.5 M
420.634 33.67 L
S
GR
GS
0.149 GC
2 setlinecap
1 LJ
0.5 LW
N
430.354 31.5 M
430.354 33.67 L
S
GR
GS
0.149 GC
2 setlinecap
1 LJ
0.5 LW
N
449.794 31.5 M
449.794 33.67 L
S
GR
GS
0.149 GC
2 setlinecap
1 LJ
0.5 LW
N
459.514 31.5 M
459.514 33.67 L
S
GR
GS
0.149 GC
2 setlinecap
1 LJ
0.5 LW
N
469.234 31.5 M
469.234 33.67 L
S
GR
GS
0.149 GC
2 setlinecap
1 LJ
0.5 LW
N
478.954 31.5 M
478.954 33.67 L
S
GR
GS
0.149 GC
2 setlinecap
1 LJ
0.5 LW
N
498.394 31.5 M
498.394 33.67 L
S
GR
GS
[1 0 0 1 99.87601 378.80002] CT
0.149 GC
/Helvetica 14 F
GS
[1 0 0 1 0 0] CT
-16 14 moveto 
1 -1 scale
(1000) t 
GR
GR
GS
[1 0 0 1 148.47571 378.80002] CT
0.149 GC
/Helvetica 14 F
GS
[1 0 0 1 0 0] CT
-16 14 moveto 
1 -1 scale
(2000) t 
GR
GR
GS
[1 0 0 1 197.07542 378.80002] CT
0.149 GC
/Helvetica 14 F
GS
[1 0 0 1 0 0] CT
-16 14 moveto 
1 -1 scale
(3000) t 
GR
GR
GS
[1 0 0 1 245.67513 378.80002] CT
0.149 GC
/Helvetica 14 F
GS
[1 0 0 1 0 0] CT
-16 14 moveto 
1 -1 scale
(4000) t 
GR
GR
GS
[1 0 0 1 294.27484 378.80002] CT
0.149 GC
/Helvetica 14 F
GS
[1 0 0 1 0 0] CT
-16 14 moveto 
1 -1 scale
(5000) t 
GR
GR
GS
[1 0 0 1 342.87454 378.80002] CT
0.149 GC
/Helvetica 14 F
GS
[1 0 0 1 0 0] CT
-16 14 moveto 
1 -1 scale
(6000) t 
GR
GR
GS
[1 0 0 1 391.47424 378.80002] CT
0.149 GC
/Helvetica 14 F
GS
[1 0 0 1 0 0] CT
-16 14 moveto 
1 -1 scale
(7000) t 
GR
GR
GS
[1 0 0 1 440.07394 378.80002] CT
0.149 GC
/Helvetica 14 F
GS
[1 0 0 1 0 0] CT
-16 14 moveto 
1 -1 scale
(8000) t 
GR
GR
GS
[1 0 0 1 488.67365 378.80002] CT
0.149 GC
/Helvetica 14 F
GS
[1 0 0 1 0 0] CT
-16 14 moveto 
1 -1 scale
(9000) t 
GR
GR
GS
[1 0 0 1 290.00021 396.30008] CT
0.149 GC
/Helvetica 15.4 F
GS
[1 0 0 1 0 0] CT
-42 15 moveto 
1 -1 scale
(Bitrate\(kb/s\)) t 
GR
GR
GS
0.149 GC
2 setlinecap
1 LJ
0.5 LW
N
73 374 M
73 31.5 L
S
GR
GS
0.149 GC
2 setlinecap
1 LJ
0.5 LW
N
507 374 M
507 31.5 L
S
GR
GS
0.149 GC
2 setlinecap
1 LJ
0.5 LW
N
73 338.823 M
77.34 338.823 L
S
GR
GS
0.149 GC
2 setlinecap
1 LJ
0.5 LW
N
73 288.51 M
77.34 288.51 L
S
GR
GS
0.149 GC
2 setlinecap
1 LJ
0.5 LW
N
73 238.196 M
77.34 238.196 L
S
GR
GS
0.149 GC
2 setlinecap
1 LJ
0.5 LW
N
73 187.883 M
77.34 187.883 L
S
GR
GS
0.149 GC
2 setlinecap
1 LJ
0.5 LW
N
73 137.569 M
77.34 137.569 L
S
GR
GS
0.149 GC
2 setlinecap
1 LJ
0.5 LW
N
73 87.255 M
77.34 87.255 L
S
GR
GS
0.149 GC
2 setlinecap
1 LJ
0.5 LW
N
73 36.942 M
77.34 36.942 L
S
GR
GS
0.149 GC
2 setlinecap
1 LJ
0.5 LW
N
507 338.823 M
502.66 338.823 L
S
GR
GS
0.149 GC
2 setlinecap
1 LJ
0.5 LW
N
507 288.51 M
502.66 288.51 L
S
GR
GS
0.149 GC
2 setlinecap
1 LJ
0.5 LW
N
507 238.196 M
502.66 238.196 L
S
GR
GS
0.149 GC
2 setlinecap
1 LJ
0.5 LW
N
507 187.883 M
502.66 187.883 L
S
GR
GS
0.149 GC
2 setlinecap
1 LJ
0.5 LW
N
507 137.569 M
502.66 137.569 L
S
GR
GS
0.149 GC
2 setlinecap
1 LJ
0.5 LW
N
507 87.255 M
502.66 87.255 L
S
GR
GS
0.149 GC
2 setlinecap
1 LJ
0.5 LW
N
507 36.942 M
502.66 36.942 L
S
GR
GS
0.149 GC
2 setlinecap
1 LJ
0.5 LW
N
73 369.011 M
75.17 369.011 L
S
GR
GS
0.149 GC
2 setlinecap
1 LJ
0.5 LW
N
73 358.949 M
75.17 358.949 L
S
GR
GS
0.149 GC
2 setlinecap
1 LJ
0.5 LW
N
73 348.886 M
75.17 348.886 L
S
GR
GS
0.149 GC
2 setlinecap
1 LJ
0.5 LW
N
73 328.76 M
75.17 328.76 L
S
GR
GS
0.149 GC
2 setlinecap
1 LJ
0.5 LW
N
73 318.698 M
75.17 318.698 L
S
GR
GS
0.149 GC
2 setlinecap
1 LJ
0.5 LW
N
73 308.635 M
75.17 308.635 L
S
GR
GS
0.149 GC
2 setlinecap
1 LJ
0.5 LW
N
73 298.572 M
75.17 298.572 L
S
GR
GS
0.149 GC
2 setlinecap
1 LJ
0.5 LW
N
73 278.447 M
75.17 278.447 L
S
GR
GS
0.149 GC
2 setlinecap
1 LJ
0.5 LW
N
73 268.384 M
75.17 268.384 L
S
GR
GS
0.149 GC
2 setlinecap
1 LJ
0.5 LW
N
73 258.322 M
75.17 258.322 L
S
GR
GS
0.149 GC
2 setlinecap
1 LJ
0.5 LW
N
73 248.259 M
75.17 248.259 L
S
GR
GS
0.149 GC
2 setlinecap
1 LJ
0.5 LW
N
73 228.133 M
75.17 228.133 L
S
GR
GS
0.149 GC
2 setlinecap
1 LJ
0.5 LW
N
73 218.071 M
75.17 218.071 L
S
GR
GS
0.149 GC
2 setlinecap
1 LJ
0.5 LW
N
73 208.008 M
75.17 208.008 L
S
GR
GS
0.149 GC
2 setlinecap
1 LJ
0.5 LW
N
73 197.945 M
75.17 197.945 L
S
GR
GS
0.149 GC
2 setlinecap
1 LJ
0.5 LW
N
73 177.82 M
75.17 177.82 L
S
GR
GS
0.149 GC
2 setlinecap
1 LJ
0.5 LW
N
73 167.757 M
75.17 167.757 L
S
GR
GS
0.149 GC
2 setlinecap
1 LJ
0.5 LW
N
73 157.694 M
75.17 157.694 L
S
GR
GS
0.149 GC
2 setlinecap
1 LJ
0.5 LW
N
73 147.632 M
75.17 147.632 L
S
GR
GS
0.149 GC
2 setlinecap
1 LJ
0.5 LW
N
73 127.506 M
75.17 127.506 L
S
GR
GS
0.149 GC
2 setlinecap
1 LJ
0.5 LW
N
73 117.443 M
75.17 117.443 L
S
GR
GS
0.149 GC
2 setlinecap
1 LJ
0.5 LW
N
73 107.381 M
75.17 107.381 L
S
GR
GS
0.149 GC
2 setlinecap
1 LJ
0.5 LW
N
73 97.318 M
75.17 97.318 L
S
GR
GS
0.149 GC
2 setlinecap
1 LJ
0.5 LW
N
73 77.193 M
75.17 77.193 L
S
GR
GS
0.149 GC
2 setlinecap
1 LJ
0.5 LW
N
73 67.13 M
75.17 67.13 L
S
GR
GS
0.149 GC
2 setlinecap
1 LJ
0.5 LW
N
73 57.067 M
75.17 57.067 L
S
GR
GS
0.149 GC
2 setlinecap
1 LJ
0.5 LW
N
73 47.005 M
75.17 47.005 L
S
GR
GS
0.149 GC
2 setlinecap
1 LJ
0.5 LW
N
507 369.011 M
504.83 369.011 L
S
GR
GS
0.149 GC
2 setlinecap
1 LJ
0.5 LW
N
507 358.949 M
504.83 358.949 L
S
GR
GS
0.149 GC
2 setlinecap
1 LJ
0.5 LW
N
507 348.886 M
504.83 348.886 L
S
GR
GS
0.149 GC
2 setlinecap
1 LJ
0.5 LW
N
507 328.76 M
504.83 328.76 L
S
GR
GS
0.149 GC
2 setlinecap
1 LJ
0.5 LW
N
507 318.698 M
504.83 318.698 L
S
GR
GS
0.149 GC
2 setlinecap
1 LJ
0.5 LW
N
507 308.635 M
504.83 308.635 L
S
GR
GS
0.149 GC
2 setlinecap
1 LJ
0.5 LW
N
507 298.572 M
504.83 298.572 L
S
GR
GS
0.149 GC
2 setlinecap
1 LJ
0.5 LW
N
507 278.447 M
504.83 278.447 L
S
GR
GS
0.149 GC
2 setlinecap
1 LJ
0.5 LW
N
507 268.384 M
504.83 268.384 L
S
GR
GS
0.149 GC
2 setlinecap
1 LJ
0.5 LW
N
507 258.322 M
504.83 258.322 L
S
GR
GS
0.149 GC
2 setlinecap
1 LJ
0.5 LW
N
507 248.259 M
504.83 248.259 L
S
GR
GS
0.149 GC
2 setlinecap
1 LJ
0.5 LW
N
507 228.133 M
504.83 228.133 L
S
GR
GS
0.149 GC
2 setlinecap
1 LJ
0.5 LW
N
507 218.071 M
504.83 218.071 L
S
GR
GS
0.149 GC
2 setlinecap
1 LJ
0.5 LW
N
507 208.008 M
504.83 208.008 L
S
GR
GS
0.149 GC
2 setlinecap
1 LJ
0.5 LW
N
507 197.945 M
504.83 197.945 L
S
GR
GS
0.149 GC
2 setlinecap
1 LJ
0.5 LW
N
507 177.82 M
504.83 177.82 L
S
GR
GS
0.149 GC
2 setlinecap
1 LJ
0.5 LW
N
507 167.757 M
504.83 167.757 L
S
GR
GS
0.149 GC
2 setlinecap
1 LJ
0.5 LW
N
507 157.694 M
504.83 157.694 L
S
GR
GS
0.149 GC
2 setlinecap
1 LJ
0.5 LW
N
507 147.632 M
504.83 147.632 L
S
GR
GS
0.149 GC
2 setlinecap
1 LJ
0.5 LW
N
507 127.506 M
504.83 127.506 L
S
GR
GS
0.149 GC
2 setlinecap
1 LJ
0.5 LW
N
507 117.443 M
504.83 117.443 L
S
GR
GS
0.149 GC
2 setlinecap
1 LJ
0.5 LW
N
507 107.381 M
504.83 107.381 L
S
GR
GS
0.149 GC
2 setlinecap
1 LJ
0.5 LW
N
507 97.318 M
504.83 97.318 L
S
GR
GS
0.149 GC
2 setlinecap
1 LJ
0.5 LW
N
507 77.193 M
504.83 77.193 L
S
GR
GS
0.149 GC
2 setlinecap
1 LJ
0.5 LW
N
507 67.13 M
504.83 67.13 L
S
GR
GS
0.149 GC
2 setlinecap
1 LJ
0.5 LW
N
507 57.067 M
504.83 57.067 L
S
GR
GS
0.149 GC
2 setlinecap
1 LJ
0.5 LW
N
507 47.005 M
504.83 47.005 L
S
GR
GS
[1 0 0 1 68.2 338.82327] CT
0.149 GC
/Helvetica 14 F
GS
[1 0 0 1 0 0] CT
-16 5.5 moveto 
1 -1 scale
(42) t 
GR
GR
GS
[1 0 0 1 68.2 288.5097] CT
0.149 GC
/Helvetica 14 F
GS
[1 0 0 1 0 0] CT
-16 5.5 moveto 
1 -1 scale
(43) t 
GR
GR
GS
[1 0 0 1 68.2 238.19612] CT
0.149 GC
/Helvetica 14 F
GS
[1 0 0 1 0 0] CT
-16 5.5 moveto 
1 -1 scale
(44) t 
GR
GR
GS
[1 0 0 1 68.2 187.88254] CT
0.149 GC
/Helvetica 14 F
GS
[1 0 0 1 0 0] CT
-16 5.5 moveto 
1 -1 scale
(45) t 
GR
GR
GS
[1 0 0 1 68.2 137.56897] CT
0.149 GC
/Helvetica 14 F
GS
[1 0 0 1 0 0] CT
-16 5.5 moveto 
1 -1 scale
(46) t 
GR
GR
GS
[1 0 0 1 68.2 87.25539] CT
0.149 GC
/Helvetica 14 F
GS
[1 0 0 1 0 0] CT
-16 5.5 moveto 
1 -1 scale
(47) t 
GR
GR
GS
[1 0 0 1 68.2 36.94182] CT
0.149 GC
/Helvetica 14 F
GS
[1 0 0 1 0 0] CT
-16 5.5 moveto 
1 -1 scale
(48) t 
GR
GR
GS
[0 -1 1 0 49.2 202.74991] CT
0.149 GC
/Helvetica 15.4 F
GS
[1 0 0 1 0 0] CT
-50.5 -4 moveto 
1 -1 scale
(APSNR-U \(dB\)) t 
GR
GR
GS
[1 0 0 1 290.00027 29.57493] CT
/Helvetica-Bold 15.4 F
GS
[1 0 0 1 0 0] CT
-136 -4 moveto 
1 -1 scale
(TelevisionClip_1080P-39e3.y4m-hevc) t 
GR
GR
GS
0 0.447 0.741 RC
1 LJ
0.5 LW
N
74.009 364.424 M
74.981 361.691 L
75.953 358.97 L
76.925 356.262 L
77.897 353.567 L
78.869 350.889 L
79.841 348.228 L
80.813 345.586 L
81.785 342.965 L
82.757 340.366 L
83.729 337.791 L
84.701 335.242 L
85.673 332.72 L
86.645 330.227 L
87.617 327.764 L
88.589 325.332 L
89.561 322.935 L
90.533 320.573 L
91.505 318.247 L
92.477 315.959 L
93.449 313.712 L
94.421 311.507 L
95.393 309.344 L
96.365 307.226 L
97.337 305.155 L
98.309 303.12 L
99.281 301.097 L
100.253 299.083 L
101.225 297.08 L
102.197 295.088 L
103.169 293.106 L
104.141 291.137 L
105.113 289.18 L
106.085 287.234 L
107.057 285.303 L
108.029 283.384 L
109.001 281.479 L
109.973 279.588 L
110.945 277.712 L
111.917 275.85 L
112.889 274.005 L
113.861 272.174 L
114.833 270.36 L
115.805 268.563 L
116.777 266.783 L
117.749 265.02 L
118.721 263.275 L
119.693 261.548 L
120.665 259.84 L
121.637 258.151 L
122.609 256.481 L
123.581 254.832 L
124.553 253.203 L
125.525 251.594 L
126.497 250.007 L
127.469 248.441 L
128.441 246.897 L
129.413 245.376 L
130.385 243.877 L
131.357 242.402 L
132.329 240.95 L
133.3 239.523 L
134.272 238.12 L
135.244 236.741 L
136.216 235.388 L
137.188 234.061 L
138.16 232.76 L
139.132 231.485 L
140.104 230.237 L
141.076 229.017 L
142.048 227.824 L
143.02 226.654 L
143.992 225.493 L
144.964 224.34 L
145.936 223.194 L
146.908 222.057 L
147.88 220.927 L
148.852 219.805 L
149.824 218.691 L
150.796 217.585 L
151.768 216.486 L
152.74 215.395 L
153.712 214.311 L
154.684 213.235 L
155.656 212.167 L
156.628 211.106 L
157.6 210.053 L
158.572 209.007 L
159.544 207.968 L
160.516 206.936 L
161.488 205.912 L
162.46 204.896 L
163.432 203.886 L
164.404 202.883 L
165.376 201.888 L
166.348 200.9 L
167.32 199.918 L
168.292 198.944 L
169.264 197.977 L
170.236 197.017 L
171.208 196.063 L
172.18 195.116 L
173.152 194.177 L
174.124 193.244 L
175.096 192.317 L
176.068 191.398 L
177.04 190.485 L
178.012 189.578 L
178.984 188.678 L
179.956 187.785 L
180.928 186.898 L
181.9 186.018 L
182.872 185.144 L
183.844 184.276 L
184.816 183.415 L
185.788 182.56 L
186.76 181.711 L
187.732 180.869 L
188.704 180.032 L
189.676 179.202 L
190.648 178.378 L
191.62 177.56 L
192.592 176.748 L
193.564 175.942 L
194.536 175.142 L
195.508 174.347 L
196.48 173.559 L
197.452 172.776 L
198.424 171.999 L
199.396 171.228 L
200.368 170.463 L
201.34 169.703 L
202.312 168.949 L
203.284 168.2 L
204.256 167.457 L
205.228 166.72 L
206.2 165.987 L
207.172 165.261 L
208.144 164.54 L
209.116 163.823 L
210.088 163.113 L
211.06 162.407 L
212.032 161.707 L
213.004 161.012 L
213.976 160.322 L
214.948 159.637 L
215.92 158.957 L
216.892 158.283 L
217.864 157.613 L
218.836 156.948 L
219.808 156.288 L
220.78 155.633 L
221.752 154.983 L
222.724 154.337 L
223.696 153.696 L
224.668 153.06 L
225.64 152.429 L
226.612 151.802 L
227.584 151.18 L
228.556 150.562 L
229.528 149.949 L
230.5 149.34 L
231.472 148.736 L
232.444 148.136 L
233.416 147.54 L
234.388 146.949 L
235.36 146.362 L
236.332 145.776 L
237.304 145.191 L
238.276 144.606 L
239.248 144.021 L
240.22 143.437 L
241.192 142.852 L
242.164 142.268 L
243.136 141.685 L
244.108 141.101 L
245.08 140.518 L
246.052 139.935 L
247.024 139.353 L
247.996 138.771 L
248.968 138.189 L
249.94 137.608 L
250.912 137.027 L
251.884 136.446 L
252.856 135.866 L
253.828 135.286 L
254.8 134.707 L
255.772 134.128 L
256.744 133.55 L
257.716 132.972 L
258.688 132.395 L
259.66 131.818 L
260.632 131.241 L
261.604 130.665 L
262.576 130.09 L
263.548 129.515 L
264.52 128.941 L
265.492 128.367 L
266.464 127.794 L
267.436 127.221 L
268.408 126.649 L
269.38 126.078 L
270.352 125.507 L
271.324 124.937 L
272.296 124.368 L
273.268 123.799 L
274.24 123.231 L
275.212 122.664 L
276.184 122.097 L
277.156 121.531 L
278.128 120.966 L
279.1 120.402 L
280.072 119.838 L
281.044 119.275 L
282.016 118.713 L
282.988 118.152 L
283.96 117.591 L
284.932 117.031 L
285.904 116.472 L
286.876 115.914 L
287.848 115.357 L
288.82 114.801 L
289.792 114.245 L
290.764 113.691 L
291.736 113.137 L
292.708 112.584 L
293.68 112.032 L
294.652 111.482 L
295.624 110.931 L
296.596 110.383 L
297.568 109.834 L
298.539 109.287 L
299.512 108.741 L
300.483 108.196 L
301.455 107.652 L
302.427 107.109 L
303.399 106.567 L
304.371 106.026 L
305.343 105.487 L
306.315 104.948 L
307.287 104.41 L
308.259 103.874 L
309.231 103.338 L
310.203 102.804 L
311.175 102.271 L
312.147 101.739 L
313.119 101.208 L
314.091 100.678 L
315.063 100.15 L
316.035 99.623 L
317.007 99.097 L
317.979 98.572 L
318.951 98.048 L
319.923 97.526 L
320.895 97.005 L
321.867 96.485 L
322.839 95.967 L
323.811 95.45 L
324.783 94.934 L
325.755 94.419 L
326.727 93.906 L
327.699 93.394 L
328.671 92.884 L
329.643 92.375 L
330.615 91.867 L
331.587 91.361 L
332.559 90.856 L
333.531 90.352 L
334.503 89.85 L
335.475 89.35 L
336.447 88.851 L
337.419 88.353 L
338.391 87.857 L
339.363 87.362 L
340.335 86.869 L
341.307 86.378 L
342.279 85.888 L
343.251 85.399 L
344.223 84.912 L
345.195 84.427 L
346.167 83.943 L
347.139 83.461 L
348.111 82.98 L
349.083 82.501 L
350.055 82.024 L
351.027 81.548 L
351.999 81.074 L
352.971 80.602 L
353.943 80.131 L
354.915 79.662 L
355.887 79.194 L
356.859 78.729 L
357.831 78.265 L
358.803 77.803 L
359.775 77.343 L
360.747 76.884 L
361.719 76.427 L
362.691 75.972 L
363.663 75.519 L
364.635 75.068 L
365.607 74.618 L
366.579 74.17 L
367.551 73.724 L
368.523 73.28 L
369.495 72.838 L
370.467 72.398 L
371.439 71.96 L
372.411 71.523 L
373.383 71.089 L
374.355 70.656 L
375.327 70.226 L
376.299 69.797 L
377.271 69.37 L
378.243 68.946 L
379.215 68.523 L
380.187 68.102 L
381.159 67.684 L
382.131 67.267 L
383.103 66.852 L
384.075 66.44 L
385.047 66.03 L
386.019 65.621 L
386.991 65.215 L
387.963 64.811 L
388.935 64.409 L
389.907 64.009 L
390.879 63.611 L
391.851 63.215 L
392.823 62.822 L
393.795 62.431 L
394.767 62.042 L
395.739 61.655 L
396.711 61.27 L
397.683 60.888 L
398.655 60.508 L
399.627 60.13 L
400.599 59.755 L
401.571 59.381 L
402.543 59.01 L
403.515 58.642 L
404.487 58.275 L
405.459 57.911 L
406.431 57.549 L
407.403 57.19 L
408.375 56.833 L
409.347 56.478 L
410.319 56.126 L
411.291 55.776 L
412.263 55.429 L
413.235 55.084 L
414.207 54.741 L
415.179 54.401 L
416.151 54.063 L
417.123 53.728 L
418.095 53.396 L
419.067 53.065 L
420.039 52.738 L
421.011 52.413 L
421.983 52.09 L
422.955 51.77 L
423.927 51.453 L
424.899 51.138 L
425.871 50.825 L
426.843 50.516 L
427.815 50.208 L
428.787 49.904 L
429.759 49.602 L
430.731 49.303 L
431.703 49.006 L
432.675 48.712 L
433.647 48.421 L
434.619 48.133 L
435.591 47.847 L
436.563 47.564 L
437.535 47.283 L
438.507 47.006 L
439.479 46.731 L
440.451 46.459 L
441.423 46.19 L
442.395 45.923 L
443.367 45.66 L
444.339 45.399 L
445.311 45.141 L
446.283 44.885 L
447.255 44.633 L
448.227 44.384 L
449.199 44.137 L
450.171 43.893 L
451.143 43.652 L
452.115 43.415 L
453.087 43.18 L
454.059 42.948 L
455.031 42.719 L
456.003 42.492 L
456.975 42.269 L
457.947 42.049 L
458.919 41.832 L
459.891 41.618 L
460.863 41.407 L
461.835 41.199 L
462.807 40.994 L
463.779 40.792 L
464.75 40.593 L
465.722 40.397 L
466.694 40.205 L
467.666 40.015 L
468.638 39.829 L
469.61 39.645 L
470.582 39.465 L
471.554 39.288 L
472.526 39.114 L
473.498 38.944 L
474.47 38.776 L
475.442 38.612 L
476.414 38.451 L
477.386 38.293 L
478.358 38.139 L
479.33 37.988 L
480.302 37.84 L
481.274 37.695 L
482.246 37.554 L
483.218 37.416 L
484.19 37.281 L
485.162 37.149 L
486.134 37.021 L
487.106 36.896 L
488.078 36.775 L
489.05 36.657 L
490.022 36.542 L
490.994 36.431 L
491.966 36.323 L
492.938 36.219 L
493.91 36.118 L
494.882 36.021 L
495.854 35.927 L
496.826 35.836 L
S
GR
GS
0.851 0.325 0.098 RC
1 LJ
0.5 LW
N
73.782 366.747 M
74.754 364.051 L
75.726 361.367 L
76.698 358.695 L
77.67 356.036 L
78.642 353.393 L
79.614 350.767 L
80.586 348.158 L
81.558 345.569 L
82.53 343.002 L
83.502 340.457 L
84.474 337.936 L
85.446 335.44 L
86.418 332.972 L
87.39 330.532 L
88.362 328.122 L
89.334 325.743 L
90.306 323.398 L
91.278 321.086 L
92.25 318.811 L
93.222 316.573 L
94.194 314.374 L
95.166 312.215 L
96.138 310.098 L
97.11 308.024 L
98.082 305.978 L
99.054 303.94 L
100.026 301.911 L
100.998 299.891 L
101.97 297.88 L
102.942 295.879 L
103.914 293.888 L
104.886 291.908 L
105.858 289.94 L
106.83 287.983 L
107.802 286.039 L
108.774 284.107 L
109.746 282.189 L
110.718 280.284 L
111.69 278.394 L
112.662 276.519 L
113.634 274.659 L
114.606 272.814 L
115.578 270.986 L
116.55 269.175 L
117.522 267.381 L
118.494 265.604 L
119.466 263.846 L
120.438 262.106 L
121.409 260.385 L
122.381 258.684 L
123.353 257.003 L
124.325 255.343 L
125.297 253.704 L
126.269 252.087 L
127.241 250.491 L
128.213 248.918 L
129.185 247.368 L
130.157 245.842 L
131.129 244.34 L
132.101 242.862 L
133.073 241.409 L
134.045 239.982 L
135.017 238.58 L
135.989 237.205 L
136.961 235.857 L
137.933 234.537 L
138.905 233.244 L
139.877 231.98 L
140.849 230.745 L
141.821 229.538 L
142.793 228.347 L
143.765 227.163 L
144.737 225.988 L
145.709 224.82 L
146.681 223.66 L
147.653 222.508 L
148.625 221.364 L
149.597 220.228 L
150.569 219.1 L
151.541 217.979 L
152.513 216.866 L
153.485 215.76 L
154.457 214.662 L
155.429 213.572 L
156.401 212.489 L
157.373 211.414 L
158.345 210.347 L
159.317 209.286 L
160.289 208.233 L
161.261 207.188 L
162.233 206.149 L
163.205 205.119 L
164.177 204.095 L
165.149 203.078 L
166.121 202.069 L
167.093 201.067 L
168.065 200.072 L
169.037 199.084 L
170.009 198.103 L
170.981 197.129 L
171.953 196.162 L
172.925 195.202 L
173.897 194.249 L
174.869 193.303 L
175.841 192.364 L
176.813 191.431 L
177.785 190.505 L
178.757 189.586 L
179.729 188.674 L
180.701 187.768 L
181.673 186.869 L
182.645 185.976 L
183.617 185.09 L
184.589 184.211 L
185.561 183.338 L
186.533 182.471 L
187.505 181.611 L
188.477 180.757 L
189.449 179.91 L
190.421 179.068 L
191.393 178.234 L
192.365 177.405 L
193.337 176.582 L
194.309 175.766 L
195.281 174.956 L
196.253 174.152 L
197.225 173.354 L
198.197 172.562 L
199.169 171.776 L
200.141 170.996 L
201.113 170.222 L
202.085 169.453 L
203.057 168.691 L
204.029 167.934 L
205.001 167.183 L
205.973 166.438 L
206.945 165.699 L
207.917 164.965 L
208.889 164.237 L
209.861 163.514 L
210.833 162.797 L
211.805 162.086 L
212.777 161.38 L
213.749 160.679 L
214.721 159.984 L
215.693 159.294 L
216.665 158.61 L
217.637 157.931 L
218.609 157.257 L
219.581 156.589 L
220.553 155.925 L
221.525 155.267 L
222.497 154.614 L
223.469 153.966 L
224.441 153.323 L
225.413 152.685 L
226.385 152.052 L
227.357 151.424 L
228.329 150.801 L
229.301 150.183 L
230.273 149.57 L
231.245 148.962 L
232.217 148.358 L
233.189 147.759 L
234.161 147.165 L
235.133 146.571 L
236.105 145.978 L
237.077 145.386 L
238.049 144.793 L
239.021 144.201 L
239.993 143.608 L
240.965 143.017 L
241.937 142.425 L
242.909 141.834 L
243.881 141.243 L
244.853 140.652 L
245.825 140.062 L
246.797 139.472 L
247.769 138.882 L
248.741 138.293 L
249.713 137.704 L
250.685 137.115 L
251.657 136.527 L
252.629 135.94 L
253.601 135.352 L
254.573 134.766 L
255.545 134.179 L
256.517 133.594 L
257.489 133.008 L
258.461 132.423 L
259.433 131.839 L
260.405 131.255 L
261.377 130.672 L
262.349 130.089 L
263.321 129.507 L
264.293 128.925 L
265.265 128.344 L
266.237 127.764 L
267.209 127.184 L
268.181 126.605 L
269.153 126.026 L
270.125 125.449 L
271.097 124.872 L
272.069 124.295 L
273.041 123.719 L
274.013 123.144 L
274.985 122.57 L
275.957 121.996 L
276.929 121.423 L
277.901 120.851 L
278.873 120.28 L
279.845 119.709 L
280.817 119.14 L
281.789 118.571 L
282.761 118.003 L
283.733 117.435 L
284.704 116.869 L
285.677 116.303 L
286.648 115.739 L
287.62 115.175 L
288.592 114.612 L
289.564 114.05 L
290.536 113.489 L
291.508 112.929 L
292.48 112.37 L
293.452 111.812 L
294.424 111.255 L
295.396 110.699 L
296.368 110.143 L
297.34 109.589 L
298.312 109.036 L
299.284 108.484 L
300.256 107.933 L
301.228 107.383 L
302.2 106.834 L
303.172 106.287 L
304.144 105.74 L
305.116 105.195 L
306.088 104.65 L
307.06 104.107 L
308.032 103.565 L
309.004 103.024 L
309.976 102.485 L
310.948 101.947 L
311.92 101.409 L
312.892 100.873 L
313.864 100.339 L
314.836 99.805 L
315.808 99.273 L
316.78 98.742 L
317.752 98.213 L
318.724 97.684 L
319.696 97.157 L
320.668 96.632 L
321.64 96.107 L
322.612 95.584 L
323.584 95.063 L
324.556 94.543 L
325.528 94.024 L
326.5 93.507 L
327.472 92.991 L
328.444 92.476 L
329.416 91.963 L
330.388 91.452 L
331.36 90.942 L
332.332 90.433 L
333.304 89.926 L
334.276 89.421 L
335.248 88.917 L
336.22 88.414 L
337.192 87.914 L
338.164 87.414 L
339.136 86.917 L
340.108 86.42 L
341.08 85.926 L
342.052 85.433 L
343.024 84.942 L
343.996 84.452 L
344.968 83.964 L
345.94 83.478 L
346.912 82.994 L
347.884 82.511 L
348.856 82.03 L
349.828 81.55 L
350.8 81.073 L
351.772 80.597 L
352.744 80.123 L
353.716 79.65 L
354.688 79.18 L
355.66 78.711 L
356.632 78.244 L
357.604 77.779 L
358.576 77.316 L
359.548 76.854 L
360.52 76.395 L
361.492 75.937 L
362.464 75.482 L
363.436 75.028 L
364.408 74.576 L
365.38 74.126 L
366.352 73.678 L
367.324 73.232 L
368.296 72.788 L
369.268 72.346 L
370.24 71.906 L
371.212 71.468 L
372.184 71.032 L
373.156 70.598 L
374.128 70.166 L
375.1 69.736 L
376.072 69.309 L
377.044 68.883 L
378.016 68.46 L
378.988 68.038 L
379.96 67.619 L
380.932 67.202 L
381.904 66.787 L
382.876 66.374 L
383.848 65.964 L
384.82 65.555 L
385.792 65.149 L
386.764 64.745 L
387.736 64.343 L
388.708 63.944 L
389.68 63.547 L
390.652 63.152 L
391.624 62.759 L
392.596 62.369 L
393.568 61.981 L
394.54 61.595 L
395.512 61.212 L
396.484 60.831 L
397.456 60.453 L
398.428 60.076 L
399.4 59.703 L
400.372 59.331 L
401.344 58.962 L
402.316 58.596 L
403.288 58.232 L
404.26 57.87 L
405.232 57.511 L
406.204 57.154 L
407.176 56.8 L
408.148 56.449 L
409.12 56.1 L
410.092 55.753 L
411.064 55.409 L
412.036 55.068 L
413.008 54.729 L
413.98 54.393 L
414.952 54.059 L
415.924 53.728 L
416.896 53.4 L
417.868 53.074 L
418.84 52.751 L
419.812 52.43 L
420.784 52.113 L
421.756 51.798 L
422.728 51.486 L
423.7 51.176 L
424.672 50.869 L
425.644 50.565 L
426.616 50.264 L
427.588 49.965 L
428.56 49.67 L
429.532 49.376 L
430.504 49.086 L
431.476 48.799 L
432.448 48.515 L
433.42 48.233 L
434.392 47.954 L
435.364 47.678 L
436.336 47.406 L
437.308 47.135 L
438.28 46.868 L
439.252 46.604 L
440.224 46.343 L
441.196 46.085 L
442.168 45.829 L
443.14 45.577 L
444.112 45.328 L
445.084 45.081 L
446.056 44.838 L
447.028 44.598 L
448 44.361 L
448.971 44.127 L
449.943 43.896 L
450.915 43.668 L
451.887 43.443 L
452.859 43.221 L
453.831 43.002 L
454.803 42.787 L
455.775 42.575 L
456.747 42.366 L
457.719 42.16 L
458.691 41.957 L
459.663 41.757 L
460.635 41.561 L
461.607 41.368 L
462.579 41.178 L
463.551 40.992 L
464.523 40.808 L
465.495 40.628 L
466.467 40.452 L
467.439 40.278 L
468.411 40.108 L
469.383 39.942 L
470.355 39.778 L
471.327 39.618 L
472.299 39.462 L
473.271 39.308 L
474.243 39.159 L
475.215 39.012 L
476.187 38.869 L
477.159 38.73 L
478.131 38.594 L
479.103 38.461 L
480.075 38.332 L
481.047 38.206 L
482.019 38.084 L
482.991 37.966 L
483.963 37.851 L
484.935 37.739 L
485.907 37.631 L
486.879 37.527 L
487.851 37.426 L
488.823 37.329 L
489.795 37.235 L
490.767 37.145 L
491.739 37.059 L
492.711 36.977 L
493.683 36.898 L
S
GR
GS
0.929 0.694 0.125 RC
1 LJ
0.5 LW
N
73 374 M
73.972 371.123 L
74.944 368.259 L
75.916 365.408 L
76.888 362.573 L
77.86 359.755 L
78.832 356.957 L
79.804 354.181 L
80.776 351.428 L
81.748 348.701 L
82.72 346.001 L
83.692 343.33 L
84.664 340.69 L
85.636 338.083 L
86.608 335.511 L
87.58 332.976 L
88.552 330.48 L
89.524 328.025 L
90.496 325.612 L
91.468 323.244 L
92.44 320.923 L
93.412 318.65 L
94.384 316.427 L
95.356 314.257 L
96.328 312.141 L
97.3 310.057 L
98.272 307.987 L
99.244 305.931 L
100.216 303.889 L
101.188 301.862 L
102.16 299.85 L
103.132 297.853 L
104.104 295.871 L
105.076 293.904 L
106.048 291.954 L
107.02 290.019 L
107.992 288.101 L
108.964 286.199 L
109.936 284.315 L
110.908 282.447 L
111.88 280.596 L
112.852 278.763 L
113.824 276.947 L
114.796 275.15 L
115.768 273.371 L
116.74 271.61 L
117.712 269.868 L
118.684 268.144 L
119.656 266.44 L
120.628 264.756 L
121.6 263.091 L
122.572 261.446 L
123.544 259.821 L
124.516 258.217 L
125.488 256.633 L
126.46 255.07 L
127.432 253.528 L
128.404 252.008 L
129.376 250.509 L
130.348 249.032 L
131.32 247.577 L
132.292 246.145 L
133.264 244.735 L
134.236 243.348 L
135.208 241.984 L
136.18 240.643 L
137.152 239.326 L
138.124 238.032 L
139.096 236.763 L
140.068 235.518 L
141.04 234.296 L
142.012 233.085 L
142.984 231.881 L
143.956 230.684 L
144.928 229.495 L
145.9 228.313 L
146.872 227.138 L
147.844 225.97 L
148.816 224.81 L
149.788 223.656 L
150.76 222.51 L
151.732 221.37 L
152.704 220.238 L
153.676 219.113 L
154.647 217.995 L
155.619 216.884 L
156.591 215.78 L
157.563 214.683 L
158.535 213.593 L
159.507 212.511 L
160.479 211.434 L
161.451 210.365 L
162.423 209.303 L
163.395 208.248 L
164.367 207.2 L
165.339 206.158 L
166.311 205.124 L
167.283 204.096 L
168.255 203.075 L
169.227 202.06 L
170.199 201.053 L
171.171 200.053 L
172.143 199.059 L
173.115 198.072 L
174.087 197.091 L
175.059 196.118 L
176.031 195.151 L
177.003 194.191 L
177.975 193.237 L
178.947 192.29 L
179.919 191.35 L
180.891 190.416 L
181.863 189.489 L
182.835 188.568 L
183.807 187.654 L
184.779 186.747 L
185.751 185.846 L
186.723 184.952 L
187.695 184.064 L
188.667 183.182 L
189.639 182.307 L
190.611 181.439 L
191.583 180.577 L
192.555 179.721 L
193.527 178.872 L
194.499 178.029 L
195.471 177.193 L
196.443 176.362 L
197.415 175.538 L
198.387 174.721 L
199.359 173.91 L
200.331 173.105 L
201.303 172.306 L
202.275 171.514 L
203.247 170.728 L
204.219 169.948 L
205.191 169.174 L
206.163 168.406 L
207.135 167.645 L
208.107 166.89 L
209.079 166.141 L
210.051 165.398 L
211.023 164.661 L
211.995 163.93 L
212.967 163.205 L
213.939 162.486 L
214.911 161.774 L
215.883 161.067 L
216.855 160.367 L
217.827 159.672 L
218.799 158.983 L
219.771 158.301 L
220.743 157.624 L
221.715 156.953 L
222.687 156.288 L
223.659 155.629 L
224.631 154.976 L
225.603 154.328 L
226.575 153.687 L
227.547 153.051 L
228.519 152.421 L
229.491 151.797 L
230.463 151.179 L
231.435 150.566 L
232.407 149.959 L
233.379 149.358 L
234.351 148.756 L
235.323 148.155 L
236.295 147.554 L
237.267 146.953 L
238.239 146.353 L
239.211 145.752 L
240.183 145.152 L
241.155 144.552 L
242.127 143.952 L
243.099 143.353 L
244.071 142.754 L
245.043 142.155 L
246.015 141.557 L
246.987 140.958 L
247.959 140.361 L
248.931 139.763 L
249.903 139.166 L
250.875 138.57 L
251.847 137.973 L
252.819 137.377 L
253.791 136.782 L
254.763 136.187 L
255.735 135.592 L
256.707 134.998 L
257.679 134.405 L
258.651 133.812 L
259.623 133.219 L
260.595 132.627 L
261.567 132.035 L
262.539 131.444 L
263.511 130.854 L
264.483 130.264 L
265.455 129.675 L
266.427 129.087 L
267.399 128.499 L
268.371 127.911 L
269.343 127.324 L
270.315 126.738 L
271.287 126.153 L
272.259 125.569 L
273.231 124.985 L
274.203 124.402 L
275.175 123.819 L
276.147 123.237 L
277.119 122.657 L
278.091 122.076 L
279.063 121.497 L
280.035 120.919 L
281.007 120.341 L
281.979 119.764 L
282.951 119.188 L
283.923 118.613 L
284.895 118.038 L
285.867 117.465 L
286.839 116.893 L
287.811 116.321 L
288.783 115.75 L
289.755 115.181 L
290.727 114.612 L
291.699 114.045 L
292.671 113.478 L
293.643 112.912 L
294.615 112.347 L
295.587 111.784 L
296.559 111.221 L
297.531 110.66 L
298.503 110.099 L
299.475 109.54 L
300.447 108.982 L
301.419 108.424 L
302.391 107.868 L
303.363 107.314 L
304.335 106.76 L
305.307 106.207 L
306.279 105.656 L
307.251 105.106 L
308.223 104.557 L
309.195 104.009 L
310.167 103.463 L
311.139 102.918 L
312.111 102.374 L
313.083 101.831 L
314.055 101.29 L
315.027 100.75 L
315.999 100.212 L
316.971 99.674 L
317.943 99.138 L
318.914 98.604 L
319.887 98.071 L
320.858 97.539 L
321.83 97.009 L
322.802 96.48 L
323.774 95.952 L
324.746 95.426 L
325.718 94.902 L
326.69 94.379 L
327.662 93.857 L
328.634 93.337 L
329.606 92.819 L
330.578 92.302 L
331.55 91.786 L
332.522 91.272 L
333.494 90.76 L
334.466 90.25 L
335.438 89.741 L
336.41 89.233 L
337.382 88.727 L
338.354 88.223 L
339.326 87.721 L
340.298 87.22 L
341.27 86.721 L
342.242 86.224 L
343.214 85.728 L
344.186 85.234 L
345.158 84.742 L
346.13 84.252 L
347.102 83.763 L
348.074 83.277 L
349.046 82.792 L
350.018 82.309 L
350.99 81.827 L
351.962 81.348 L
352.934 80.871 L
353.906 80.395 L
354.878 79.921 L
355.85 79.449 L
356.822 78.98 L
357.794 78.511 L
358.766 78.045 L
359.738 77.581 L
360.71 77.119 L
361.682 76.659 L
362.654 76.201 L
363.626 75.745 L
364.598 75.291 L
365.57 74.839 L
366.542 74.389 L
367.514 73.942 L
368.486 73.496 L
369.458 73.052 L
370.43 72.611 L
371.402 72.172 L
372.374 71.734 L
373.346 71.299 L
374.318 70.866 L
375.29 70.436 L
376.262 70.007 L
377.234 69.581 L
378.206 69.157 L
379.178 68.736 L
380.15 68.316 L
381.122 67.899 L
382.094 67.484 L
383.066 67.071 L
384.038 66.661 L
385.01 66.253 L
385.982 65.848 L
386.954 65.444 L
387.926 65.044 L
388.898 64.645 L
389.87 64.249 L
390.842 63.856 L
391.814 63.464 L
392.786 63.076 L
393.758 62.689 L
394.73 62.306 L
395.702 61.924 L
396.674 61.545 L
397.646 61.169 L
398.618 60.795 L
399.59 60.424 L
400.562 60.056 L
401.534 59.689 L
402.506 59.326 L
403.478 58.965 L
404.45 58.607 L
405.422 58.251 L
406.394 57.898 L
407.366 57.548 L
408.338 57.2 L
409.31 56.855 L
410.282 56.513 L
411.254 56.174 L
412.226 55.837 L
413.198 55.503 L
414.17 55.171 L
415.142 54.843 L
416.114 54.517 L
417.086 54.194 L
418.058 53.874 L
419.03 53.557 L
420.002 53.242 L
420.974 52.931 L
421.946 52.622 L
422.918 52.316 L
423.89 52.013 L
424.862 51.713 L
425.834 51.416 L
426.806 51.122 L
427.778 50.831 L
428.75 50.543 L
429.722 50.257 L
430.694 49.975 L
431.666 49.696 L
432.638 49.42 L
433.61 49.147 L
434.582 48.876 L
435.554 48.609 L
436.526 48.345 L
437.498 48.085 L
438.47 47.827 L
439.442 47.572 L
440.414 47.321 L
441.386 47.072 L
442.358 46.827 L
443.33 46.585 L
444.302 46.346 L
445.274 46.111 L
446.246 45.879 L
447.218 45.65 L
448.19 45.424 L
449.162 45.201 L
450.134 44.982 L
451.106 44.766 L
452.078 44.553 L
453.05 44.344 L
454.022 44.138 L
454.994 43.935 L
455.966 43.736 L
456.938 43.54 L
457.91 43.347 L
458.882 43.158 L
459.854 42.972 L
460.826 42.79 L
461.798 42.611 L
462.77 42.436 L
463.742 42.264 L
464.714 42.096 L
465.686 41.931 L
466.658 41.769 L
467.63 41.612 L
468.602 41.457 L
469.574 41.307 L
470.546 41.159 L
471.518 41.016 L
472.49 40.876 L
473.462 40.74 L
474.434 40.607 L
475.406 40.478 L
476.378 40.352 L
477.35 40.231 L
478.322 40.113 L
479.294 39.999 L
480.266 39.888 L
481.238 39.781 L
482.21 39.678 L
483.181 39.579 L
484.154 39.483 L
485.125 39.391 L
486.097 39.303 L
487.069 39.219 L
488.041 39.139 L
489.013 39.062 L
489.985 38.99 L
490.957 38.921 L
491.929 38.856 L
492.901 38.795 L
S
GR
GS
0.494 0.184 0.557 RC
1 LJ
0.5 LW
N
74.474 361.94 M
75.446 359.184 L
76.418 356.439 L
77.39 353.707 L
78.362 350.99 L
79.334 348.289 L
80.306 345.607 L
81.278 342.944 L
82.25 340.304 L
83.222 337.687 L
84.194 335.095 L
85.166 332.53 L
86.138 329.995 L
87.11 327.49 L
88.082 325.018 L
89.054 322.58 L
90.026 320.178 L
90.998 317.813 L
91.97 315.489 L
92.942 313.206 L
93.914 310.966 L
94.886 308.771 L
95.858 306.623 L
96.83 304.523 L
97.802 302.474 L
98.774 300.474 L
99.746 298.497 L
100.718 296.534 L
101.69 294.583 L
102.662 292.646 L
103.634 290.723 L
104.606 288.814 L
105.578 286.919 L
106.55 285.039 L
107.522 283.173 L
108.494 281.322 L
109.466 279.487 L
110.438 277.666 L
111.41 275.862 L
112.382 274.073 L
113.354 272.3 L
114.326 270.543 L
115.298 268.802 L
116.27 267.079 L
117.242 265.372 L
118.214 263.682 L
119.186 262.01 L
120.158 260.355 L
121.13 258.718 L
122.102 257.099 L
123.074 255.498 L
124.046 253.915 L
125.018 252.352 L
125.99 250.807 L
126.962 249.281 L
127.934 247.774 L
128.906 246.287 L
129.878 244.82 L
130.85 243.373 L
131.822 241.946 L
132.794 240.539 L
133.766 239.153 L
134.738 237.788 L
135.71 236.444 L
136.682 235.122 L
137.654 233.82 L
138.626 232.541 L
139.598 231.284 L
140.57 230.048 L
141.542 228.835 L
142.514 227.645 L
143.486 226.478 L
144.458 225.332 L
145.43 224.197 L
146.402 223.07 L
147.374 221.949 L
148.346 220.836 L
149.318 219.729 L
150.29 218.63 L
151.262 217.538 L
152.234 216.452 L
153.206 215.374 L
154.178 214.302 L
155.15 213.238 L
156.122 212.18 L
157.094 211.129 L
158.066 210.085 L
159.038 209.048 L
160.01 208.018 L
160.982 206.994 L
161.954 205.977 L
162.926 204.966 L
163.898 203.963 L
164.87 202.965 L
165.842 201.975 L
166.814 200.991 L
167.786 200.013 L
168.758 199.042 L
169.73 198.078 L
170.702 197.12 L
171.674 196.168 L
172.646 195.223 L
173.618 194.283 L
174.59 193.351 L
175.562 192.424 L
176.534 191.504 L
177.506 190.59 L
178.478 189.682 L
179.45 188.781 L
180.422 187.885 L
181.393 186.996 L
182.365 186.113 L
183.337 185.235 L
184.309 184.364 L
185.281 183.499 L
186.253 182.64 L
187.225 181.786 L
188.197 180.939 L
189.169 180.097 L
190.141 179.261 L
191.113 178.431 L
192.085 177.607 L
193.057 176.789 L
194.029 175.976 L
195.001 175.169 L
195.973 174.368 L
196.945 173.572 L
197.917 172.782 L
198.889 171.997 L
199.861 171.218 L
200.833 170.445 L
201.805 169.677 L
202.777 168.914 L
203.749 168.157 L
204.721 167.405 L
205.693 166.659 L
206.665 165.918 L
207.637 165.182 L
208.609 164.452 L
209.581 163.726 L
210.553 163.006 L
211.525 162.292 L
212.497 161.582 L
213.469 160.877 L
214.441 160.178 L
215.413 159.484 L
216.385 158.794 L
217.357 158.11 L
218.329 157.431 L
219.301 156.756 L
220.273 156.087 L
221.245 155.422 L
222.217 154.763 L
223.189 154.108 L
224.161 153.458 L
225.133 152.813 L
226.105 152.172 L
227.077 151.536 L
228.049 150.905 L
229.021 150.278 L
229.993 149.657 L
230.965 149.039 L
231.937 148.427 L
232.909 147.819 L
233.881 147.215 L
234.853 146.616 L
235.825 146.021 L
236.797 145.431 L
237.769 144.845 L
238.741 144.263 L
239.713 143.686 L
240.685 143.109 L
241.657 142.532 L
242.629 141.956 L
243.601 141.379 L
244.573 140.803 L
245.545 140.228 L
246.517 139.652 L
247.489 139.077 L
248.461 138.502 L
249.433 137.928 L
250.405 137.353 L
251.377 136.779 L
252.349 136.206 L
253.321 135.633 L
254.293 135.06 L
255.265 134.487 L
256.237 133.915 L
257.209 133.343 L
258.181 132.772 L
259.153 132.201 L
260.125 131.631 L
261.097 131.061 L
262.069 130.491 L
263.041 129.922 L
264.013 129.353 L
264.985 128.785 L
265.957 128.218 L
266.929 127.65 L
267.901 127.084 L
268.873 126.518 L
269.845 125.952 L
270.817 125.387 L
271.789 124.823 L
272.761 124.259 L
273.733 123.696 L
274.705 123.133 L
275.677 122.571 L
276.649 122.01 L
277.621 121.449 L
278.593 120.889 L
279.565 120.33 L
280.537 119.771 L
281.509 119.213 L
282.481 118.655 L
283.453 118.099 L
284.425 117.543 L
285.397 116.988 L
286.369 116.433 L
287.341 115.879 L
288.313 115.326 L
289.285 114.774 L
290.257 114.223 L
291.229 113.672 L
292.201 113.123 L
293.173 112.573 L
294.145 112.025 L
295.117 111.478 L
296.089 110.932 L
297.061 110.386 L
298.033 109.841 L
299.005 109.298 L
299.977 108.755 L
300.949 108.213 L
301.921 107.672 L
302.893 107.132 L
303.865 106.592 L
304.837 106.054 L
305.809 105.517 L
306.781 104.981 L
307.753 104.446 L
308.725 103.911 L
309.697 103.378 L
310.669 102.846 L
311.641 102.315 L
312.613 101.785 L
313.585 101.256 L
314.557 100.728 L
315.529 100.201 L
316.501 99.675 L
317.473 99.15 L
318.445 98.627 L
319.417 98.104 L
320.389 97.583 L
321.361 97.063 L
322.333 96.544 L
323.305 96.026 L
324.277 95.51 L
325.249 94.994 L
326.221 94.48 L
327.193 93.967 L
328.165 93.456 L
329.137 92.945 L
330.109 92.436 L
331.081 91.928 L
332.053 91.421 L
333.025 90.916 L
333.997 90.412 L
334.969 89.909 L
335.941 89.408 L
336.913 88.908 L
337.885 88.409 L
338.857 87.912 L
339.829 87.416 L
340.801 86.921 L
341.773 86.428 L
342.745 85.937 L
343.717 85.446 L
344.689 84.957 L
345.66 84.47 L
346.633 83.984 L
347.604 83.499 L
348.576 83.016 L
349.548 82.535 L
350.52 82.055 L
351.492 81.576 L
352.464 81.099 L
353.436 80.624 L
354.408 80.15 L
355.38 79.677 L
356.352 79.206 L
357.324 78.737 L
358.296 78.27 L
359.268 77.804 L
360.24 77.339 L
361.212 76.876 L
362.184 76.415 L
363.156 75.956 L
364.128 75.498 L
365.1 75.042 L
366.072 74.587 L
367.044 74.134 L
368.016 73.683 L
368.988 73.234 L
369.96 72.786 L
370.932 72.34 L
371.904 71.896 L
372.876 71.454 L
373.848 71.013 L
374.82 70.575 L
375.792 70.138 L
376.764 69.703 L
377.736 69.269 L
378.708 68.838 L
379.68 68.408 L
380.652 67.98 L
381.624 67.554 L
382.596 67.13 L
383.568 66.708 L
384.54 66.288 L
385.512 65.869 L
386.484 65.453 L
387.456 65.038 L
388.428 64.626 L
389.4 64.215 L
390.372 63.807 L
391.344 63.4 L
392.316 62.996 L
393.288 62.593 L
394.26 62.192 L
395.232 61.794 L
396.204 61.397 L
397.176 61.003 L
398.148 60.611 L
399.12 60.22 L
400.092 59.832 L
401.064 59.446 L
402.036 59.062 L
403.008 58.68 L
403.98 58.3 L
404.952 57.923 L
405.924 57.547 L
406.896 57.174 L
407.868 56.803 L
408.84 56.434 L
409.812 56.067 L
410.784 55.703 L
411.756 55.34 L
412.728 54.98 L
413.7 54.623 L
414.672 54.267 L
415.644 53.914 L
416.616 53.563 L
417.588 53.214 L
418.56 52.868 L
419.532 52.524 L
420.504 52.182 L
421.476 51.843 L
422.448 51.506 L
423.42 51.171 L
424.392 50.839 L
425.364 50.509 L
426.336 50.181 L
427.308 49.856 L
428.28 49.534 L
429.252 49.213 L
430.224 48.896 L
431.196 48.58 L
432.168 48.267 L
433.14 47.957 L
434.112 47.649 L
435.084 47.344 L
436.056 47.041 L
437.028 46.741 L
438 46.443 L
438.972 46.148 L
439.944 45.855 L
440.916 45.565 L
441.888 45.277 L
442.86 44.992 L
443.832 44.71 L
444.804 44.43 L
445.776 44.153 L
446.748 43.879 L
447.72 43.607 L
448.692 43.338 L
449.664 43.071 L
450.636 42.808 L
451.608 42.547 L
452.58 42.288 L
453.552 42.033 L
454.524 41.78 L
455.496 41.53 L
456.468 41.282 L
457.44 41.037 L
458.412 40.796 L
459.384 40.556 L
460.356 40.32 L
461.328 40.087 L
462.3 39.856 L
463.272 39.628 L
464.244 39.404 L
465.216 39.181 L
466.188 38.962 L
467.16 38.746 L
468.132 38.533 L
469.104 38.322 L
470.076 38.114 L
471.048 37.91 L
472.02 37.708 L
472.992 37.509 L
473.964 37.313 L
474.936 37.121 L
475.908 36.931 L
476.88 36.744 L
477.852 36.56 L
478.824 36.379 L
479.796 36.201 L
480.768 36.027 L
481.74 35.855 L
482.712 35.686 L
483.684 35.521 L
484.656 35.358 L
485.628 35.199 L
486.6 35.042 L
487.572 34.889 L
488.544 34.739 L
489.516 34.593 L
490.488 34.449 L
491.46 34.308 L
492.432 34.171 L
493.404 34.037 L
494.376 33.906 L
495.348 33.778 L
496.32 33.654 L
497.292 33.533 L
498.264 33.415 L
499.236 33.3 L
500.208 33.188 L
501.18 33.08 L
502.152 32.975 L
503.124 32.874 L
504.096 32.775 L
505.068 32.681 L
506.039 32.589 L
S
GR
GS
0.467 0.675 0.188 RC
[10 6] 0 setdash
2 LJ
0.5 LW
N
74.126 363.572 M
75.098 360.832 L
76.07 358.103 L
77.042 355.387 L
78.014 352.685 L
78.986 350 L
79.958 347.332 L
80.93 344.684 L
81.902 342.056 L
82.874 339.452 L
83.846 336.872 L
84.818 334.318 L
85.79 331.791 L
86.762 329.294 L
87.734 326.828 L
88.706 324.394 L
89.678 321.996 L
90.65 319.633 L
91.622 317.307 L
92.594 315.021 L
93.566 312.776 L
94.538 310.574 L
95.51 308.416 L
96.482 306.304 L
97.454 304.24 L
98.426 302.216 L
99.398 300.205 L
100.37 298.206 L
101.342 296.218 L
102.314 294.242 L
103.286 292.279 L
104.258 290.329 L
105.23 288.391 L
106.202 286.467 L
107.174 284.557 L
108.146 282.66 L
109.118 280.778 L
110.09 278.91 L
111.062 277.058 L
112.034 275.22 L
113.006 273.399 L
113.978 271.593 L
114.95 269.803 L
115.922 268.03 L
116.894 266.274 L
117.866 264.535 L
118.838 262.813 L
119.81 261.109 L
120.782 259.423 L
121.754 257.756 L
122.726 256.108 L
123.698 254.479 L
124.67 252.869 L
125.642 251.279 L
126.614 249.709 L
127.586 248.159 L
128.558 246.63 L
129.53 245.122 L
130.502 243.635 L
131.474 242.17 L
132.446 240.727 L
133.418 239.306 L
134.39 237.908 L
135.362 236.533 L
136.334 235.181 L
137.306 233.852 L
138.278 232.548 L
139.25 231.267 L
140.222 230.012 L
141.194 228.781 L
142.166 227.575 L
143.138 226.393 L
144.11 225.222 L
145.082 224.058 L
146.054 222.902 L
147.026 221.753 L
147.998 220.612 L
148.97 219.477 L
149.942 218.35 L
150.914 217.23 L
151.886 216.117 L
152.858 215.011 L
153.83 213.913 L
154.802 212.821 L
155.774 211.737 L
156.746 210.66 L
157.718 209.589 L
158.69 208.526 L
159.661 207.47 L
160.633 206.42 L
161.605 205.378 L
162.577 204.342 L
163.549 203.314 L
164.521 202.292 L
165.493 201.277 L
166.465 200.268 L
167.437 199.267 L
168.409 198.272 L
169.381 197.284 L
170.353 196.303 L
171.325 195.328 L
172.297 194.36 L
173.269 193.399 L
174.241 192.444 L
175.213 191.496 L
176.185 190.554 L
177.157 189.619 L
178.129 188.69 L
179.101 187.768 L
180.073 186.852 L
181.045 185.943 L
182.017 185.04 L
182.989 184.143 L
183.961 183.253 L
184.933 182.369 L
185.905 181.491 L
186.877 180.619 L
187.849 179.754 L
188.821 178.895 L
189.793 178.042 L
190.765 177.196 L
191.737 176.355 L
192.709 175.521 L
193.681 174.692 L
194.653 173.87 L
195.625 173.054 L
196.597 172.244 L
197.569 171.439 L
198.541 170.641 L
199.513 169.849 L
200.485 169.062 L
201.457 168.281 L
202.429 167.507 L
203.401 166.738 L
204.373 165.975 L
205.345 165.217 L
206.317 164.466 L
207.289 163.72 L
208.261 162.979 L
209.233 162.245 L
210.205 161.516 L
211.177 160.793 L
212.149 160.075 L
213.121 159.363 L
214.093 158.656 L
215.065 157.956 L
216.037 157.26 L
217.009 156.57 L
217.981 155.885 L
218.953 155.206 L
219.925 154.532 L
220.897 153.864 L
221.869 153.201 L
222.841 152.543 L
223.813 151.89 L
224.785 151.243 L
225.757 150.601 L
226.729 149.964 L
227.701 149.333 L
228.673 148.707 L
229.645 148.085 L
230.617 147.469 L
231.589 146.858 L
232.561 146.252 L
233.533 145.651 L
234.505 145.055 L
235.477 144.464 L
236.449 143.878 L
237.421 143.292 L
238.393 142.707 L
239.365 142.122 L
240.337 141.537 L
241.309 140.953 L
242.281 140.368 L
243.253 139.784 L
244.225 139.2 L
245.197 138.616 L
246.169 138.033 L
247.141 137.45 L
248.113 136.867 L
249.085 136.285 L
250.057 135.703 L
251.029 135.121 L
252.001 134.54 L
252.973 133.959 L
253.945 133.378 L
254.917 132.798 L
255.889 132.219 L
256.861 131.639 L
257.833 131.06 L
258.805 130.482 L
259.777 129.904 L
260.749 129.326 L
261.721 128.749 L
262.693 128.173 L
263.665 127.597 L
264.637 127.022 L
265.609 126.447 L
266.581 125.872 L
267.553 125.298 L
268.525 124.725 L
269.497 124.153 L
270.469 123.581 L
271.441 123.009 L
272.413 122.439 L
273.385 121.869 L
274.357 121.299 L
275.329 120.73 L
276.301 120.162 L
277.273 119.595 L
278.245 119.028 L
279.217 118.463 L
280.189 117.897 L
281.161 117.333 L
282.133 116.769 L
283.105 116.206 L
284.077 115.644 L
285.049 115.083 L
286.021 114.522 L
286.993 113.963 L
287.965 113.404 L
288.937 112.846 L
289.909 112.289 L
290.881 111.733 L
291.853 111.177 L
292.825 110.623 L
293.797 110.069 L
294.769 109.517 L
295.741 108.965 L
296.713 108.415 L
297.685 107.865 L
298.657 107.316 L
299.629 106.768 L
300.601 106.222 L
301.573 105.676 L
302.545 105.131 L
303.517 104.588 L
304.489 104.045 L
305.461 103.504 L
306.433 102.963 L
307.405 102.424 L
308.377 101.886 L
309.349 101.349 L
310.321 100.813 L
311.293 100.278 L
312.265 99.744 L
313.237 99.212 L
314.209 98.681 L
315.181 98.151 L
316.153 97.622 L
317.125 97.094 L
318.097 96.568 L
319.069 96.043 L
320.041 95.519 L
321.013 94.996 L
321.985 94.475 L
322.957 93.955 L
323.928 93.436 L
324.901 92.919 L
325.872 92.403 L
326.844 91.888 L
327.816 91.375 L
328.788 90.863 L
329.76 90.353 L
330.732 89.843 L
331.704 89.336 L
332.676 88.829 L
333.648 88.325 L
334.62 87.821 L
335.592 87.319 L
336.564 86.819 L
337.536 86.32 L
338.508 85.823 L
339.48 85.327 L
340.452 84.833 L
341.424 84.34 L
342.396 83.849 L
343.368 83.359 L
344.34 82.871 L
345.312 82.385 L
346.284 81.9 L
347.256 81.416 L
348.228 80.935 L
349.2 80.455 L
350.172 79.977 L
351.144 79.5 L
352.116 79.025 L
353.088 78.552 L
354.06 78.081 L
355.032 77.611 L
356.004 77.143 L
356.976 76.677 L
357.948 76.212 L
358.92 75.75 L
359.892 75.289 L
360.864 74.83 L
361.836 74.372 L
362.808 73.917 L
363.78 73.463 L
364.752 73.012 L
365.724 72.562 L
366.696 72.114 L
367.668 71.668 L
368.64 71.223 L
369.612 70.781 L
370.584 70.341 L
371.556 69.903 L
372.528 69.466 L
373.5 69.032 L
374.472 68.599 L
375.444 68.169 L
376.416 67.74 L
377.388 67.314 L
378.36 66.889 L
379.332 66.467 L
380.304 66.047 L
381.276 65.629 L
382.248 65.213 L
383.22 64.799 L
384.192 64.387 L
385.164 63.977 L
386.136 63.569 L
387.108 63.164 L
388.08 62.761 L
389.052 62.359 L
390.024 61.961 L
390.996 61.564 L
391.968 61.169 L
392.94 60.777 L
393.912 60.387 L
394.884 59.999 L
395.856 59.614 L
396.828 59.231 L
397.8 58.85 L
398.772 58.471 L
399.744 58.095 L
400.716 57.721 L
401.688 57.349 L
402.66 56.98 L
403.632 56.613 L
404.604 56.249 L
405.576 55.887 L
406.548 55.527 L
407.52 55.17 L
408.492 54.815 L
409.464 54.462 L
410.436 54.113 L
411.408 53.765 L
412.38 53.42 L
413.352 53.078 L
414.324 52.738 L
415.296 52.401 L
416.268 52.066 L
417.24 51.733 L
418.212 51.404 L
419.184 51.076 L
420.156 50.752 L
421.128 50.43 L
422.1 50.111 L
423.072 49.794 L
424.044 49.48 L
425.016 49.168 L
425.988 48.86 L
426.96 48.553 L
427.932 48.25 L
428.904 47.949 L
429.876 47.652 L
430.848 47.356 L
431.82 47.064 L
432.792 46.774 L
433.764 46.487 L
434.736 46.203 L
435.708 45.922 L
436.68 45.643 L
437.652 45.368 L
438.624 45.095 L
439.596 44.825 L
440.568 44.557 L
441.54 44.293 L
442.512 44.032 L
443.484 43.773 L
444.456 43.518 L
445.428 43.265 L
446.4 43.015 L
447.372 42.768 L
448.344 42.525 L
449.316 42.284 L
450.288 42.046 L
451.26 41.811 L
452.232 41.579 L
453.204 41.351 L
454.176 41.125 L
455.148 40.902 L
456.12 40.683 L
457.092 40.466 L
458.064 40.253 L
459.036 40.042 L
460.008 39.835 L
460.98 39.631 L
461.952 39.43 L
462.924 39.232 L
463.896 39.038 L
464.868 38.846 L
465.84 38.658 L
466.812 38.473 L
467.784 38.291 L
468.756 38.113 L
469.728 37.937 L
470.7 37.765 L
471.672 37.596 L
472.644 37.431 L
473.616 37.269 L
474.588 37.11 L
475.56 36.954 L
476.532 36.802 L
477.504 36.653 L
478.476 36.508 L
479.448 36.366 L
480.42 36.227 L
481.392 36.092 L
482.364 35.96 L
483.336 35.831 L
484.307 35.706 L
485.28 35.584 L
486.251 35.466 L
487.223 35.352 L
488.195 35.241 L
489.167 35.133 L
490.139 35.029 L
491.111 34.928 L
492.083 34.831 L
493.055 34.738 L
494.027 34.648 L
494.999 34.561 L
495.971 34.479 L
496.943 34.4 L
497.915 34.324 L
498.887 34.252 L
S
GR
GS
0.302 0.745 0.933 RC
[10 6] 0 setdash
2 LJ
0.5 LW
N
73.869 368.053 M
74.841 365.163 L
75.813 362.284 L
76.785 359.42 L
77.757 356.572 L
78.729 353.741 L
79.701 350.931 L
80.673 348.142 L
81.645 345.378 L
82.617 342.64 L
83.589 339.93 L
84.561 337.25 L
85.533 334.602 L
86.505 331.988 L
87.477 329.411 L
88.449 326.871 L
89.421 324.371 L
90.393 321.914 L
91.365 319.501 L
92.337 317.134 L
93.309 314.815 L
94.281 312.546 L
95.253 310.329 L
96.225 308.167 L
97.197 306.061 L
98.169 303.997 L
99.141 301.949 L
100.113 299.916 L
101.085 297.897 L
102.057 295.894 L
103.029 293.907 L
104.001 291.935 L
104.973 289.979 L
105.945 288.039 L
106.917 286.116 L
107.889 284.209 L
108.861 282.319 L
109.833 280.445 L
110.805 278.589 L
111.777 276.75 L
112.749 274.929 L
113.721 273.126 L
114.693 271.34 L
115.665 269.573 L
116.637 267.824 L
117.609 266.094 L
118.581 264.383 L
119.553 262.69 L
120.525 261.017 L
121.497 259.363 L
122.469 257.729 L
123.441 256.114 L
124.413 254.52 L
125.385 252.946 L
126.357 251.392 L
127.329 249.859 L
128.301 248.347 L
129.273 246.856 L
130.245 245.386 L
131.217 243.938 L
132.189 242.511 L
133.161 241.107 L
134.133 239.724 L
135.105 238.364 L
136.077 237.026 L
137.049 235.711 L
138.021 234.418 L
138.993 233.149 L
139.965 231.903 L
140.937 230.681 L
141.909 229.483 L
142.881 228.302 L
143.853 227.128 L
144.825 225.962 L
145.797 224.804 L
146.769 223.652 L
147.741 222.508 L
148.713 221.371 L
149.685 220.241 L
150.656 219.118 L
151.628 218.003 L
152.6 216.895 L
153.572 215.794 L
154.544 214.7 L
155.516 213.612 L
156.488 212.532 L
157.46 211.46 L
158.432 210.394 L
159.404 209.335 L
160.376 208.283 L
161.348 207.237 L
162.32 206.199 L
163.292 205.168 L
164.264 204.143 L
165.236 203.126 L
166.208 202.115 L
167.18 201.111 L
168.152 200.113 L
169.124 199.123 L
170.096 198.139 L
171.068 197.162 L
172.04 196.191 L
173.012 195.227 L
173.984 194.27 L
174.956 193.319 L
175.928 192.375 L
176.9 191.437 L
177.872 190.506 L
178.844 189.582 L
179.816 188.663 L
180.788 187.752 L
181.76 186.846 L
182.732 185.947 L
183.704 185.055 L
184.676 184.168 L
185.648 183.288 L
186.62 182.415 L
187.592 181.547 L
188.564 180.686 L
189.536 179.831 L
190.508 178.983 L
191.48 178.14 L
192.452 177.304 L
193.424 176.474 L
194.396 175.649 L
195.368 174.831 L
196.34 174.019 L
197.312 173.213 L
198.284 172.413 L
199.256 171.619 L
200.228 170.831 L
201.2 170.049 L
202.172 169.273 L
203.144 168.502 L
204.116 167.738 L
205.088 166.979 L
206.06 166.226 L
207.032 165.479 L
208.004 164.738 L
208.976 164.002 L
209.948 163.272 L
210.92 162.548 L
211.892 161.829 L
212.864 161.116 L
213.836 160.409 L
214.808 159.707 L
215.78 159.011 L
216.752 158.321 L
217.724 157.636 L
218.696 156.956 L
219.668 156.282 L
220.64 155.613 L
221.612 154.95 L
222.584 154.292 L
223.556 153.639 L
224.528 152.992 L
225.5 152.35 L
226.472 151.714 L
227.444 151.082 L
228.416 150.457 L
229.388 149.836 L
230.36 149.22 L
231.332 148.61 L
232.304 148.004 L
233.276 147.404 L
234.248 146.809 L
235.22 146.219 L
236.192 145.63 L
237.164 145.042 L
238.136 144.454 L
239.108 143.866 L
240.08 143.278 L
241.052 142.69 L
242.024 142.103 L
242.996 141.516 L
243.968 140.929 L
244.94 140.343 L
245.912 139.757 L
246.884 139.171 L
247.856 138.585 L
248.828 138 L
249.8 137.415 L
250.772 136.831 L
251.744 136.246 L
252.716 135.663 L
253.688 135.079 L
254.66 134.497 L
255.632 133.914 L
256.604 133.332 L
257.576 132.75 L
258.548 132.169 L
259.52 131.589 L
260.492 131.009 L
261.464 130.429 L
262.436 129.85 L
263.408 129.271 L
264.38 128.693 L
265.352 128.116 L
266.324 127.539 L
267.296 126.963 L
268.268 126.387 L
269.24 125.812 L
270.212 125.237 L
271.184 124.664 L
272.156 124.09 L
273.128 123.518 L
274.1 122.946 L
275.072 122.375 L
276.044 121.805 L
277.016 121.235 L
277.988 120.666 L
278.96 120.098 L
279.932 119.53 L
280.904 118.964 L
281.876 118.398 L
282.848 117.833 L
283.82 117.268 L
284.792 116.705 L
285.764 116.142 L
286.736 115.581 L
287.708 115.02 L
288.68 114.46 L
289.652 113.9 L
290.624 113.342 L
291.596 112.785 L
292.568 112.229 L
293.54 111.673 L
294.512 111.119 L
295.484 110.565 L
296.456 110.012 L
297.428 109.461 L
298.4 108.91 L
299.372 108.361 L
300.344 107.812 L
301.316 107.265 L
302.288 106.719 L
303.26 106.173 L
304.232 105.629 L
305.204 105.086 L
306.176 104.544 L
307.148 104.003 L
308.12 103.463 L
309.092 102.925 L
310.064 102.387 L
311.036 101.851 L
312.008 101.316 L
312.979 100.782 L
313.952 100.25 L
314.923 99.718 L
315.895 99.188 L
316.867 98.659 L
317.839 98.132 L
318.811 97.605 L
319.783 97.08 L
320.755 96.557 L
321.727 96.034 L
322.699 95.513 L
323.671 94.993 L
324.643 94.475 L
325.615 93.958 L
326.587 93.442 L
327.559 92.928 L
328.531 92.415 L
329.503 91.904 L
330.475 91.394 L
331.447 90.886 L
332.419 90.379 L
333.391 89.873 L
334.363 89.369 L
335.335 88.867 L
336.307 88.366 L
337.279 87.866 L
338.251 87.368 L
339.223 86.872 L
340.195 86.377 L
341.167 85.884 L
342.139 85.393 L
343.111 84.903 L
344.083 84.414 L
345.055 83.928 L
346.027 83.442 L
346.999 82.959 L
347.971 82.477 L
348.943 81.997 L
349.915 81.519 L
350.887 81.042 L
351.859 80.567 L
352.831 80.094 L
353.803 79.623 L
354.775 79.153 L
355.747 78.685 L
356.719 78.219 L
357.691 77.755 L
358.663 77.293 L
359.635 76.832 L
360.607 76.373 L
361.579 75.917 L
362.551 75.462 L
363.523 75.009 L
364.495 74.557 L
365.467 74.108 L
366.439 73.661 L
367.411 73.215 L
368.383 72.772 L
369.355 72.33 L
370.327 71.891 L
371.299 71.454 L
372.271 71.018 L
373.243 70.584 L
374.215 70.153 L
375.187 69.723 L
376.159 69.296 L
377.131 68.871 L
378.103 68.448 L
379.075 68.027 L
380.047 67.608 L
381.019 67.191 L
381.991 66.776 L
382.963 66.363 L
383.935 65.953 L
384.907 65.545 L
385.879 65.139 L
386.851 64.735 L
387.823 64.333 L
388.795 63.934 L
389.767 63.537 L
390.739 63.142 L
391.711 62.749 L
392.683 62.359 L
393.655 61.971 L
394.627 61.585 L
395.599 61.201 L
396.571 60.82 L
397.543 60.441 L
398.515 60.065 L
399.487 59.691 L
400.459 59.319 L
401.431 58.95 L
402.403 58.583 L
403.375 58.219 L
404.347 57.857 L
405.319 57.497 L
406.291 57.14 L
407.263 56.786 L
408.235 56.434 L
409.207 56.084 L
410.179 55.737 L
411.151 55.393 L
412.123 55.051 L
413.095 54.711 L
414.067 54.374 L
415.039 54.04 L
416.011 53.709 L
416.983 53.379 L
417.955 53.053 L
418.927 52.729 L
419.899 52.408 L
420.871 52.09 L
421.843 51.774 L
422.815 51.461 L
423.787 51.15 L
424.759 50.842 L
425.731 50.537 L
426.703 50.235 L
427.675 49.936 L
428.647 49.639 L
429.619 49.345 L
430.591 49.054 L
431.563 48.766 L
432.535 48.48 L
433.507 48.197 L
434.479 47.917 L
435.451 47.64 L
436.423 47.366 L
437.395 47.095 L
438.367 46.827 L
439.339 46.561 L
440.311 46.299 L
441.283 46.039 L
442.255 45.783 L
443.227 45.529 L
444.199 45.278 L
445.171 45.031 L
446.143 44.786 L
447.115 44.544 L
448.087 44.306 L
449.059 44.07 L
450.031 43.838 L
451.003 43.608 L
451.975 43.382 L
452.947 43.158 L
453.919 42.938 L
454.891 42.721 L
455.863 42.507 L
456.835 42.297 L
457.807 42.089 L
458.779 41.884 L
459.751 41.683 L
460.723 41.485 L
461.695 41.29 L
462.667 41.099 L
463.639 40.91 L
464.611 40.725 L
465.583 40.543 L
466.555 40.365 L
467.527 40.189 L
468.499 40.017 L
469.471 39.849 L
470.443 39.683 L
471.415 39.521 L
472.387 39.363 L
473.359 39.208 L
474.331 39.056 L
475.303 38.907 L
476.275 38.762 L
477.246 38.62 L
478.219 38.482 L
479.19 38.348 L
480.162 38.216 L
481.134 38.088 L
482.106 37.964 L
483.078 37.843 L
484.05 37.726 L
485.022 37.612 L
485.994 37.502 L
486.966 37.395 L
487.938 37.292 L
488.91 37.192 L
489.882 37.097 L
490.854 37.004 L
491.826 36.915 L
492.798 36.83 L
493.77 36.749 L
494.742 36.671 L
495.714 36.597 L
S
GR
GS
0.635 0.078 0.184 RC
[10 6] 0 setdash
2 LJ
0.5 LW
N
74.463 362.079 M
75.435 359.34 L
76.407 356.612 L
77.379 353.897 L
78.351 351.197 L
79.323 348.512 L
80.295 345.845 L
81.267 343.199 L
82.239 340.573 L
83.211 337.97 L
84.183 335.392 L
85.155 332.84 L
86.127 330.316 L
87.099 327.823 L
88.071 325.36 L
89.043 322.931 L
90.015 320.537 L
90.987 318.179 L
91.959 315.86 L
92.931 313.581 L
93.903 311.343 L
94.875 309.148 L
95.846 306.999 L
96.818 304.897 L
97.79 302.843 L
98.762 300.837 L
99.734 298.852 L
100.706 296.878 L
101.678 294.918 L
102.65 292.97 L
103.622 291.035 L
104.594 289.113 L
105.566 287.205 L
106.538 285.311 L
107.51 283.431 L
108.482 281.565 L
109.454 279.714 L
110.426 277.878 L
111.398 276.057 L
112.37 274.252 L
113.342 272.462 L
114.314 270.688 L
115.286 268.93 L
116.258 267.188 L
117.23 265.463 L
118.202 263.756 L
119.174 262.065 L
120.146 260.392 L
121.118 258.736 L
122.09 257.099 L
123.062 255.48 L
124.034 253.879 L
125.006 252.297 L
125.978 250.734 L
126.95 249.191 L
127.922 247.666 L
128.894 246.162 L
129.866 244.678 L
130.838 243.214 L
131.81 241.77 L
132.782 240.348 L
133.754 238.946 L
134.726 237.566 L
135.698 236.208 L
136.67 234.871 L
137.642 233.557 L
138.614 232.264 L
139.586 230.995 L
140.558 229.748 L
141.53 228.525 L
142.502 227.325 L
143.474 226.148 L
144.446 224.994 L
145.418 223.848 L
146.39 222.709 L
147.362 221.577 L
148.334 220.453 L
149.306 219.335 L
150.278 218.225 L
151.25 217.121 L
152.222 216.024 L
153.194 214.935 L
154.166 213.852 L
155.138 212.776 L
156.11 211.708 L
157.082 210.646 L
158.054 209.59 L
159.026 208.542 L
159.998 207.5 L
160.97 206.465 L
161.942 205.437 L
162.914 204.415 L
163.886 203.4 L
164.858 202.392 L
165.83 201.39 L
166.802 200.395 L
167.774 199.406 L
168.746 198.424 L
169.718 197.449 L
170.69 196.48 L
171.662 195.517 L
172.634 194.561 L
173.606 193.611 L
174.578 192.667 L
175.55 191.73 L
176.522 190.799 L
177.494 189.874 L
178.466 188.956 L
179.438 188.044 L
180.41 187.138 L
181.382 186.238 L
182.354 185.344 L
183.326 184.457 L
184.298 183.576 L
185.27 182.7 L
186.242 181.831 L
187.214 180.967 L
188.186 180.11 L
189.158 179.259 L
190.13 178.413 L
191.102 177.574 L
192.074 176.74 L
193.046 175.912 L
194.018 175.09 L
194.99 174.274 L
195.962 173.464 L
196.934 172.659 L
197.906 171.86 L
198.878 171.066 L
199.85 170.279 L
200.822 169.497 L
201.794 168.721 L
202.766 167.95 L
203.738 167.185 L
204.71 166.425 L
205.682 165.671 L
206.654 164.922 L
207.626 164.178 L
208.598 163.441 L
209.57 162.708 L
210.542 161.981 L
211.514 161.259 L
212.486 160.543 L
213.458 159.831 L
214.43 159.126 L
215.402 158.425 L
216.374 157.729 L
217.346 157.039 L
218.318 156.354 L
219.29 155.674 L
220.262 154.999 L
221.234 154.329 L
222.206 153.664 L
223.178 153.004 L
224.15 152.35 L
225.122 151.7 L
226.094 151.055 L
227.066 150.415 L
228.038 149.78 L
229.01 149.15 L
229.982 148.524 L
230.954 147.904 L
231.926 147.288 L
232.898 146.677 L
233.87 146.07 L
234.842 145.469 L
235.814 144.872 L
236.786 144.279 L
237.758 143.692 L
238.73 143.108 L
239.702 142.53 L
240.674 141.952 L
241.646 141.374 L
242.618 140.796 L
243.59 140.219 L
244.562 139.642 L
245.534 139.065 L
246.506 138.489 L
247.478 137.913 L
248.45 137.336 L
249.422 136.761 L
250.394 136.185 L
251.366 135.61 L
252.338 135.035 L
253.31 134.461 L
254.282 133.887 L
255.254 133.313 L
256.226 132.74 L
257.198 132.167 L
258.17 131.594 L
259.142 131.022 L
260.113 130.45 L
261.086 129.879 L
262.057 129.308 L
263.029 128.737 L
264.001 128.167 L
264.973 127.598 L
265.945 127.029 L
266.917 126.46 L
267.889 125.892 L
268.861 125.325 L
269.833 124.758 L
270.805 124.192 L
271.777 123.626 L
272.749 123.061 L
273.721 122.496 L
274.693 121.932 L
275.665 121.368 L
276.637 120.806 L
277.609 120.243 L
278.581 119.682 L
279.553 119.121 L
280.525 118.561 L
281.497 118.001 L
282.469 117.442 L
283.441 116.884 L
284.413 116.326 L
285.385 115.77 L
286.357 115.214 L
287.329 114.659 L
288.301 114.104 L
289.273 113.55 L
290.245 112.997 L
291.217 112.445 L
292.189 111.894 L
293.161 111.344 L
294.133 110.794 L
295.105 110.245 L
296.077 109.697 L
297.049 109.15 L
298.021 108.604 L
298.993 108.058 L
299.965 107.514 L
300.937 106.971 L
301.909 106.428 L
302.881 105.886 L
303.853 105.346 L
304.825 104.806 L
305.797 104.267 L
306.769 103.729 L
307.741 103.193 L
308.713 102.657 L
309.685 102.122 L
310.657 101.589 L
311.629 101.056 L
312.601 100.524 L
313.573 99.994 L
314.545 99.465 L
315.517 98.936 L
316.489 98.409 L
317.461 97.883 L
318.433 97.358 L
319.405 96.834 L
320.377 96.311 L
321.349 95.79 L
322.321 95.269 L
323.293 94.75 L
324.265 94.232 L
325.237 93.715 L
326.209 93.2 L
327.181 92.686 L
328.153 92.173 L
329.125 91.661 L
330.097 91.15 L
331.069 90.641 L
332.041 90.133 L
333.013 89.627 L
333.985 89.121 L
334.957 88.617 L
335.929 88.115 L
336.901 87.613 L
337.873 87.114 L
338.845 86.615 L
339.817 86.118 L
340.789 85.622 L
341.761 85.128 L
342.733 84.635 L
343.705 84.143 L
344.677 83.653 L
345.649 83.165 L
346.621 82.678 L
347.593 82.192 L
348.565 81.708 L
349.537 81.225 L
350.509 80.744 L
351.481 80.265 L
352.453 79.787 L
353.425 79.31 L
354.397 78.835 L
355.369 78.362 L
356.341 77.89 L
357.313 77.42 L
358.285 76.952 L
359.257 76.485 L
360.229 76.02 L
361.201 75.556 L
362.173 75.094 L
363.145 74.634 L
364.117 74.175 L
365.089 73.718 L
366.061 73.263 L
367.033 72.81 L
368.005 72.358 L
368.977 71.908 L
369.949 71.46 L
370.921 71.014 L
371.893 70.569 L
372.865 70.126 L
373.837 69.685 L
374.809 69.246 L
375.781 68.809 L
376.753 68.373 L
377.725 67.939 L
378.697 67.507 L
379.669 67.077 L
380.641 66.649 L
381.613 66.223 L
382.585 65.799 L
383.557 65.376 L
384.529 64.956 L
385.501 64.537 L
386.473 64.121 L
387.445 63.706 L
388.417 63.294 L
389.389 62.883 L
390.361 62.475 L
391.333 62.068 L
392.305 61.664 L
393.277 61.261 L
394.249 60.861 L
395.221 60.462 L
396.193 60.066 L
397.165 59.672 L
398.137 59.28 L
399.109 58.89 L
400.081 58.502 L
401.053 58.116 L
402.025 57.733 L
402.997 57.351 L
403.969 56.972 L
404.941 56.595 L
405.913 56.22 L
406.885 55.847 L
407.857 55.477 L
408.829 55.109 L
409.801 54.743 L
410.773 54.379 L
411.745 54.017 L
412.717 53.658 L
413.689 53.301 L
414.661 52.947 L
415.633 52.594 L
416.605 52.244 L
417.577 51.897 L
418.549 51.552 L
419.521 51.209 L
420.493 50.868 L
421.465 50.53 L
422.437 50.194 L
423.409 49.861 L
424.381 49.53 L
425.353 49.201 L
426.324 48.876 L
427.297 48.552 L
428.268 48.231 L
429.24 47.912 L
430.212 47.596 L
431.184 47.282 L
432.156 46.971 L
433.128 46.663 L
434.1 46.356 L
435.072 46.053 L
436.044 45.752 L
437.016 45.454 L
437.988 45.158 L
438.96 44.865 L
439.932 44.574 L
440.904 44.286 L
441.876 44 L
442.848 43.718 L
443.82 43.438 L
444.792 43.16 L
445.764 42.886 L
446.736 42.614 L
447.708 42.344 L
448.68 42.078 L
449.652 41.814 L
450.624 41.553 L
451.596 41.294 L
452.568 41.039 L
453.54 40.786 L
454.512 40.536 L
455.484 40.289 L
456.456 40.044 L
457.428 39.803 L
458.4 39.564 L
459.372 39.328 L
460.344 39.095 L
461.316 38.865 L
462.288 38.637 L
463.26 38.413 L
464.232 38.191 L
465.204 37.973 L
466.176 37.757 L
467.148 37.544 L
468.12 37.335 L
469.092 37.128 L
470.064 36.924 L
471.036 36.723 L
472.008 36.525 L
472.98 36.33 L
473.952 36.139 L
474.924 35.95 L
475.896 35.764 L
476.868 35.581 L
477.84 35.402 L
478.812 35.225 L
479.784 35.052 L
480.756 34.881 L
481.728 34.714 L
482.7 34.55 L
483.672 34.389 L
484.644 34.231 L
485.616 34.077 L
486.588 33.925 L
487.56 33.777 L
488.532 33.632 L
489.504 33.49 L
490.476 33.352 L
491.448 33.216 L
492.42 33.084 L
493.392 32.955 L
494.364 32.83 L
495.336 32.707 L
496.308 32.588 L
497.28 32.473 L
498.252 32.36 L
499.224 32.251 L
500.196 32.145 L
501.168 32.043 L
502.14 31.944 L
503.112 31.848 L
504.084 31.756 L
505.056 31.667 L
506.028 31.582 L
507 31.5 L
S
GR
GS
1 GC
N
499 366 M
499 250.5 L
344.5 250.5 L
344.5 366 L
cp
f
GR
GS
[1 0 0 1 381.5 260.25] CT
/Helvetica 13 F
GS
[1 0 0 1 0 0] CT
0 5 moveto 
1 -1 scale
(Base Run) t 
GR
GR
GS
0 0.447 0.741 RC
1 LJ
0.5 LW
N
348.5 260.25 M
378.5 260.25 L
S
GR
GS
[1 0 0 1 381.5 276.25] CT
/Helvetica 13 F
GS
[1 0 0 1 0 0] CT
0 5 moveto 
1 -1 scale
(I & B Frames) t 
GR
GR
GS
0.851 0.325 0.098 RC
1 LJ
0.5 LW
N
348.5 276.25 M
378.5 276.25 L
S
GR
GS
[1 0 0 1 381.5 292.25] CT
/Helvetica 13 F
GS
[1 0 0 1 0 0] CT
0 5 moveto 
1 -1 scale
(I Frames Only) t 
GR
GR
GS
0.929 0.694 0.125 RC
1 LJ
0.5 LW
N
348.5 292.25 M
378.5 292.25 L
S
GR
GS
[1 0 0 1 381.5 308.25] CT
/Helvetica 13 F
GS
[1 0 0 1 0 0] CT
0 5 moveto 
1 -1 scale
(B Frames Only) t 
GR
GR
GS
0.494 0.184 0.557 RC
1 LJ
0.5 LW
N
348.5 308.25 M
378.5 308.25 L
S
GR
GS
[1 0 0 1 381.5 324.25] CT
/Helvetica 13 F
GS
[1 0 0 1 0 0] CT
0 5 moveto 
1 -1 scale
(Part I & B Frames) t 
GR
GR
GS
0.467 0.675 0.188 RC
[10 6] 0 setdash
2 LJ
0.5 LW
N
348.5 324.25 M
378.5 324.25 L
S
GR
GS
[1 0 0 1 381.5 340.25] CT
/Helvetica 13 F
GS
[1 0 0 1 0 0] CT
0 5 moveto 
1 -1 scale
(Part I Frames Only) t 
GR
GR
GS
0.302 0.745 0.933 RC
[10 6] 0 setdash
2 LJ
0.5 LW
N
348.5 340.25 M
378.5 340.25 L
S
GR
GS
[1 0 0 1 381.5 356.25] CT
/Helvetica 13 F
GS
[1 0 0 1 0 0] CT
0 5 moveto 
1 -1 scale
(Part B Frames Only) t 
GR
GR
GS
0.635 0.078 0.184 RC
[10 6] 0 setdash
2 LJ
0.5 LW
N
348.5 356.25 M
378.5 356.25 L
S
GR
GS
0.149 GC
10.0 ML
0.5 LW
N
344.5 366 M
344.5 250.5 L
499 250.5 L
499 366 L
cp
S
GR
%%Trailer
%%Pages: 1
%%EOF
