%!PS-Adobe-3.0 EPSF-3.0
%%Creator: (MATLAB, The Mathworks, Inc. Version 9.11.0.1837725 \(R2021b\) Update 2. Operating System: Mac OS X)
%%Title: plots/pchip/TelevisionClip_1080P-39e3.y4m-av1-PSNR_HVSY.eps
%%CreationDate: 2022-02-03T19:13:43
%%Pages: (atend)
%%BoundingBox:    33   425   508   826
%%LanguageLevel: 3
%%EndComments
%%BeginProlog
%%BeginResource: procset (Apache XML Graphics Std ProcSet) 1.2 0
%%Version: 1.2 0
%%Copyright: (Copyright 2001-2003,2010 The Apache Software Foundation. License terms: http://www.apache.org/licenses/LICENSE-2.0)
/bd{bind def}bind def
/ld{load def}bd
/GR/grestore ld
/GS/gsave ld
/RM/rmoveto ld
/C/curveto ld
/t/show ld
/L/lineto ld
/ML/setmiterlimit ld
/CT/concat ld
/f/fill ld
/N/newpath ld
/S/stroke ld
/CC/setcmykcolor ld
/A/ashow ld
/cp/closepath ld
/RC/setrgbcolor ld
/LJ/setlinejoin ld
/GC/setgray ld
/LW/setlinewidth ld
/M/moveto ld
/re {4 2 roll M
1 index 0 rlineto
0 exch rlineto
neg 0 rlineto
cp } bd
/_ctm matrix def
/_tm matrix def
/BT { _ctm currentmatrix pop matrix _tm copy pop 0 0 moveto } bd
/ET { _ctm setmatrix } bd
/iTm { _ctm setmatrix _tm concat } bd
/Tm { _tm astore pop iTm 0 0 moveto } bd
/ux 0.0 def
/uy 0.0 def
/F {
  /Tp exch def
  /Tf exch def
  Tf findfont Tp scalefont setfont
  /cf Tf def  /cs Tp def
} bd
/ULS {currentpoint /uy exch def /ux exch def} bd
/ULE {
  /Tcx currentpoint pop def
  gsave
  newpath
  cf findfont cs scalefont dup
  /FontMatrix get 0 get /Ts exch def /FontInfo get dup
  /UnderlinePosition get Ts mul /To exch def
  /UnderlineThickness get Ts mul /Tt exch def
  ux uy To add moveto  Tcx uy To add lineto
  Tt setlinewidth stroke
  grestore
} bd
/OLE {
  /Tcx currentpoint pop def
  gsave
  newpath
  cf findfont cs scalefont dup
  /FontMatrix get 0 get /Ts exch def /FontInfo get dup
  /UnderlinePosition get Ts mul /To exch def
  /UnderlineThickness get Ts mul /Tt exch def
  ux uy To add cs add moveto Tcx uy To add cs add lineto
  Tt setlinewidth stroke
  grestore
} bd
/SOE {
  /Tcx currentpoint pop def
  gsave
  newpath
  cf findfont cs scalefont dup
  /FontMatrix get 0 get /Ts exch def /FontInfo get dup
  /UnderlinePosition get Ts mul /To exch def
  /UnderlineThickness get Ts mul /Tt exch def
  ux uy To add cs 10 mul 26 idiv add moveto Tcx uy To add cs 10 mul 26 idiv add lineto
  Tt setlinewidth stroke
  grestore
} bd
/QT {
/Y22 exch store
/X22 exch store
/Y21 exch store
/X21 exch store
currentpoint
/Y21 load 2 mul add 3 div exch
/X21 load 2 mul add 3 div exch
/X21 load 2 mul /X22 load add 3 div
/Y21 load 2 mul /Y22 load add 3 div
/X22 load /Y22 load curveto
} bd
/SSPD {
dup length /d exch dict def
{
/v exch def
/k exch def
currentpagedevice k known {
/cpdv currentpagedevice k get def
v cpdv ne {
/upd false def
/nullv v type /nulltype eq def
/nullcpdv cpdv type /nulltype eq def
nullv nullcpdv or
{
/upd true def
} {
/sametype v type cpdv type eq def
sametype {
v type /arraytype eq {
/vlen v length def
/cpdvlen cpdv length def
vlen cpdvlen eq {
0 1 vlen 1 sub {
/i exch def
/obj v i get def
/cpdobj cpdv i get def
obj cpdobj ne {
/upd true def
exit
} if
} for
} {
/upd true def
} ifelse
} {
v type /dicttype eq {
v {
/dv exch def
/dk exch def
/cpddv cpdv dk get def
dv cpddv ne {
/upd true def
exit
} if
} forall
} {
/upd true def
} ifelse
} ifelse
} if
} ifelse
upd true eq {
d k v put
} if
} if
} if
} forall
d length 0 gt {
d setpagedevice
} if
} bd
/RE { % /NewFontName [NewEncodingArray] /FontName RE -
  findfont dup length dict begin
  {
    1 index /FID ne
    {def} {pop pop} ifelse
  } forall
  /Encoding exch def
  /FontName 1 index def
  currentdict definefont pop
  end
} bind def
%%EndResource
%%BeginResource: procset (Apache XML Graphics EPS ProcSet) 1.0 0
%%Version: 1.0 0
%%Copyright: (Copyright 2002-2003 The Apache Software Foundation. License terms: http://www.apache.org/licenses/LICENSE-2.0)
/BeginEPSF { %def
/b4_Inc_state save def         % Save state for cleanup
/dict_count countdictstack def % Count objects on dict stack
/op_count count 1 sub def      % Count objects on operand stack
userdict begin                 % Push userdict on dict stack
/showpage { } def              % Redefine showpage, { } = null proc
0 setgray 0 setlinecap         % Prepare graphics state
1 setlinewidth 0 setlinejoin
10 setmiterlimit [ ] 0 setdash newpath
/languagelevel where           % If level not equal to 1 then
{pop languagelevel             % set strokeadjust and
1 ne                           % overprint to their defaults.
{false setstrokeadjust false setoverprint
} if
} if
} bd
/EndEPSF { %def
count op_count sub {pop} repeat            % Clean up stacks
countdictstack dict_count sub {end} repeat
b4_Inc_state restore
} bd
%%EndResource
%FOPBeginFontDict
%%IncludeResource: font Courier-Oblique
%%IncludeResource: font Courier-BoldOblique
%%IncludeResource: font Courier-Bold
%%IncludeResource: font ZapfDingbats
%%IncludeResource: font Symbol
%%IncludeResource: font Helvetica
%%IncludeResource: font Helvetica-Oblique
%%IncludeResource: font Helvetica-Bold
%%IncludeResource: font Helvetica-BoldOblique
%%IncludeResource: font Times-Roman
%%IncludeResource: font Times-Italic
%%IncludeResource: font Times-Bold
%%IncludeResource: font Times-BoldItalic
%%IncludeResource: font Courier
%FOPEndFontDict
%%BeginResource: encoding WinAnsiEncoding
/WinAnsiEncoding [
/.notdef /.notdef /.notdef /.notdef /.notdef
/.notdef /.notdef /.notdef /.notdef /.notdef
/.notdef /.notdef /.notdef /.notdef /.notdef
/.notdef /.notdef /.notdef /.notdef /.notdef
/.notdef /.notdef /.notdef /.notdef /.notdef
/.notdef /.notdef /.notdef /.notdef /.notdef
/.notdef /.notdef /space /exclam /quotedbl
/numbersign /dollar /percent /ampersand /quotesingle
/parenleft /parenright /asterisk /plus /comma
/hyphen /period /slash /zero /one
/two /three /four /five /six
/seven /eight /nine /colon /semicolon
/less /equal /greater /question /at
/A /B /C /D /E
/F /G /H /I /J
/K /L /M /N /O
/P /Q /R /S /T
/U /V /W /X /Y
/Z /bracketleft /backslash /bracketright /asciicircum
/underscore /quoteleft /a /b /c
/d /e /f /g /h
/i /j /k /l /m
/n /o /p /q /r
/s /t /u /v /w
/x /y /z /braceleft /bar
/braceright /asciitilde /bullet /Euro /bullet
/quotesinglbase /florin /quotedblbase /ellipsis /dagger
/daggerdbl /circumflex /perthousand /Scaron /guilsinglleft
/OE /bullet /Zcaron /bullet /bullet
/quoteleft /quoteright /quotedblleft /quotedblright /bullet
/endash /emdash /asciitilde /trademark /scaron
/guilsinglright /oe /bullet /zcaron /Ydieresis
/space /exclamdown /cent /sterling /currency
/yen /brokenbar /section /dieresis /copyright
/ordfeminine /guillemotleft /logicalnot /sfthyphen /registered
/macron /degree /plusminus /twosuperior /threesuperior
/acute /mu /paragraph /middot /cedilla
/onesuperior /ordmasculine /guillemotright /onequarter /onehalf
/threequarters /questiondown /Agrave /Aacute /Acircumflex
/Atilde /Adieresis /Aring /AE /Ccedilla
/Egrave /Eacute /Ecircumflex /Edieresis /Igrave
/Iacute /Icircumflex /Idieresis /Eth /Ntilde
/Ograve /Oacute /Ocircumflex /Otilde /Odieresis
/multiply /Oslash /Ugrave /Uacute /Ucircumflex
/Udieresis /Yacute /Thorn /germandbls /agrave
/aacute /acircumflex /atilde /adieresis /aring
/ae /ccedilla /egrave /eacute /ecircumflex
/edieresis /igrave /iacute /icircumflex /idieresis
/eth /ntilde /ograve /oacute /ocircumflex
/otilde /odieresis /divide /oslash /ugrave
/uacute /ucircumflex /udieresis /yacute /thorn
/ydieresis
] def
%%EndResource
%FOPBeginFontReencode
/Courier-Oblique findfont
dup length dict begin
  {1 index /FID ne {def} {pop pop} ifelse} forall
  /Encoding WinAnsiEncoding def
  currentdict
end
/Courier-Oblique exch definefont pop
/Courier-BoldOblique findfont
dup length dict begin
  {1 index /FID ne {def} {pop pop} ifelse} forall
  /Encoding WinAnsiEncoding def
  currentdict
end
/Courier-BoldOblique exch definefont pop
/Courier-Bold findfont
dup length dict begin
  {1 index /FID ne {def} {pop pop} ifelse} forall
  /Encoding WinAnsiEncoding def
  currentdict
end
/Courier-Bold exch definefont pop
/Helvetica findfont
dup length dict begin
  {1 index /FID ne {def} {pop pop} ifelse} forall
  /Encoding WinAnsiEncoding def
  currentdict
end
/Helvetica exch definefont pop
/Helvetica-Oblique findfont
dup length dict begin
  {1 index /FID ne {def} {pop pop} ifelse} forall
  /Encoding WinAnsiEncoding def
  currentdict
end
/Helvetica-Oblique exch definefont pop
/Helvetica-Bold findfont
dup length dict begin
  {1 index /FID ne {def} {pop pop} ifelse} forall
  /Encoding WinAnsiEncoding def
  currentdict
end
/Helvetica-Bold exch definefont pop
/Helvetica-BoldOblique findfont
dup length dict begin
  {1 index /FID ne {def} {pop pop} ifelse} forall
  /Encoding WinAnsiEncoding def
  currentdict
end
/Helvetica-BoldOblique exch definefont pop
/Times-Roman findfont
dup length dict begin
  {1 index /FID ne {def} {pop pop} ifelse} forall
  /Encoding WinAnsiEncoding def
  currentdict
end
/Times-Roman exch definefont pop
/Times-Italic findfont
dup length dict begin
  {1 index /FID ne {def} {pop pop} ifelse} forall
  /Encoding WinAnsiEncoding def
  currentdict
end
/Times-Italic exch definefont pop
/Times-Bold findfont
dup length dict begin
  {1 index /FID ne {def} {pop pop} ifelse} forall
  /Encoding WinAnsiEncoding def
  currentdict
end
/Times-Bold exch definefont pop
/Times-BoldItalic findfont
dup length dict begin
  {1 index /FID ne {def} {pop pop} ifelse} forall
  /Encoding WinAnsiEncoding def
  currentdict
end
/Times-BoldItalic exch definefont pop
/Courier findfont
dup length dict begin
  {1 index /FID ne {def} {pop pop} ifelse} forall
  /Encoding WinAnsiEncoding def
  currentdict
end
/Courier exch definefont pop
%FOPEndFontReencode
%%EndProlog
%%Page: 1 1
%%PageBoundingBox: 0 0 1120 840
%%BeginPageSetup
[1 0 0 -1 0 840] CT
%%EndPageSetup
GS
1 GC
N
0 0 1120 840 re
f
GR
GS
1 GC
N
73 374 M
507 374 L
507 31.5 L
73 31.5 L
cp
f
GR
GS
0.149 GC
2 setlinecap
1 LJ
0.5 LW
N
73 374 M
507 374 L
S
GR
GS
0.149 GC
2 setlinecap
1 LJ
0.5 LW
N
73 31.5 M
507 31.5 L
S
GR
GS
0.149 GC
2 setlinecap
1 LJ
0.5 LW
N
128.153 374 M
128.153 369.66 L
S
GR
GS
0.149 GC
2 setlinecap
1 LJ
0.5 LW
N
210.797 374 M
210.797 369.66 L
S
GR
GS
0.149 GC
2 setlinecap
1 LJ
0.5 LW
N
293.44 374 M
293.44 369.66 L
S
GR
GS
0.149 GC
2 setlinecap
1 LJ
0.5 LW
N
376.084 374 M
376.084 369.66 L
S
GR
GS
0.149 GC
2 setlinecap
1 LJ
0.5 LW
N
458.727 374 M
458.727 369.66 L
S
GR
GS
0.149 GC
2 setlinecap
1 LJ
0.5 LW
N
128.153 31.5 M
128.153 35.84 L
S
GR
GS
0.149 GC
2 setlinecap
1 LJ
0.5 LW
N
210.797 31.5 M
210.797 35.84 L
S
GR
GS
0.149 GC
2 setlinecap
1 LJ
0.5 LW
N
293.44 31.5 M
293.44 35.84 L
S
GR
GS
0.149 GC
2 setlinecap
1 LJ
0.5 LW
N
376.084 31.5 M
376.084 35.84 L
S
GR
GS
0.149 GC
2 setlinecap
1 LJ
0.5 LW
N
458.727 31.5 M
458.727 35.84 L
S
GR
GS
0.149 GC
2 setlinecap
1 LJ
0.5 LW
N
86.831 374 M
86.831 371.83 L
S
GR
GS
0.149 GC
2 setlinecap
1 LJ
0.5 LW
N
107.492 374 M
107.492 371.83 L
S
GR
GS
0.149 GC
2 setlinecap
1 LJ
0.5 LW
N
148.814 374 M
148.814 371.83 L
S
GR
GS
0.149 GC
2 setlinecap
1 LJ
0.5 LW
N
169.475 374 M
169.475 371.83 L
S
GR
GS
0.149 GC
2 setlinecap
1 LJ
0.5 LW
N
190.136 374 M
190.136 371.83 L
S
GR
GS
0.149 GC
2 setlinecap
1 LJ
0.5 LW
N
231.458 374 M
231.458 371.83 L
S
GR
GS
0.149 GC
2 setlinecap
1 LJ
0.5 LW
N
252.119 374 M
252.119 371.83 L
S
GR
GS
0.149 GC
2 setlinecap
1 LJ
0.5 LW
N
272.779 374 M
272.779 371.83 L
S
GR
GS
0.149 GC
2 setlinecap
1 LJ
0.5 LW
N
314.101 374 M
314.101 371.83 L
S
GR
GS
0.149 GC
2 setlinecap
1 LJ
0.5 LW
N
334.762 374 M
334.762 371.83 L
S
GR
GS
0.149 GC
2 setlinecap
1 LJ
0.5 LW
N
355.423 374 M
355.423 371.83 L
S
GR
GS
0.149 GC
2 setlinecap
1 LJ
0.5 LW
N
396.745 374 M
396.745 371.83 L
S
GR
GS
0.149 GC
2 setlinecap
1 LJ
0.5 LW
N
417.406 374 M
417.406 371.83 L
S
GR
GS
0.149 GC
2 setlinecap
1 LJ
0.5 LW
N
438.066 374 M
438.066 371.83 L
S
GR
GS
0.149 GC
2 setlinecap
1 LJ
0.5 LW
N
479.388 374 M
479.388 371.83 L
S
GR
GS
0.149 GC
2 setlinecap
1 LJ
0.5 LW
N
500.049 374 M
500.049 371.83 L
S
GR
GS
0.149 GC
2 setlinecap
1 LJ
0.5 LW
N
86.831 31.5 M
86.831 33.67 L
S
GR
GS
0.149 GC
2 setlinecap
1 LJ
0.5 LW
N
107.492 31.5 M
107.492 33.67 L
S
GR
GS
0.149 GC
2 setlinecap
1 LJ
0.5 LW
N
148.814 31.5 M
148.814 33.67 L
S
GR
GS
0.149 GC
2 setlinecap
1 LJ
0.5 LW
N
169.475 31.5 M
169.475 33.67 L
S
GR
GS
0.149 GC
2 setlinecap
1 LJ
0.5 LW
N
190.136 31.5 M
190.136 33.67 L
S
GR
GS
0.149 GC
2 setlinecap
1 LJ
0.5 LW
N
231.458 31.5 M
231.458 33.67 L
S
GR
GS
0.149 GC
2 setlinecap
1 LJ
0.5 LW
N
252.119 31.5 M
252.119 33.67 L
S
GR
GS
0.149 GC
2 setlinecap
1 LJ
0.5 LW
N
272.779 31.5 M
272.779 33.67 L
S
GR
GS
0.149 GC
2 setlinecap
1 LJ
0.5 LW
N
314.101 31.5 M
314.101 33.67 L
S
GR
GS
0.149 GC
2 setlinecap
1 LJ
0.5 LW
N
334.762 31.5 M
334.762 33.67 L
S
GR
GS
0.149 GC
2 setlinecap
1 LJ
0.5 LW
N
355.423 31.5 M
355.423 33.67 L
S
GR
GS
0.149 GC
2 setlinecap
1 LJ
0.5 LW
N
396.745 31.5 M
396.745 33.67 L
S
GR
GS
0.149 GC
2 setlinecap
1 LJ
0.5 LW
N
417.406 31.5 M
417.406 33.67 L
S
GR
GS
0.149 GC
2 setlinecap
1 LJ
0.5 LW
N
438.066 31.5 M
438.066 33.67 L
S
GR
GS
0.149 GC
2 setlinecap
1 LJ
0.5 LW
N
479.388 31.5 M
479.388 33.67 L
S
GR
GS
0.149 GC
2 setlinecap
1 LJ
0.5 LW
N
500.049 31.5 M
500.049 33.67 L
S
GR
GS
[1 0 0 1 128.15324 378.79999] CT
0.149 GC
/Helvetica 14 F
GS
[1 0 0 1 0 0] CT
-16 14 moveto 
1 -1 scale
(2000) t 
GR
GR
GS
[1 0 0 1 210.79677 378.79999] CT
0.149 GC
/Helvetica 14 F
GS
[1 0 0 1 0 0] CT
-16 14 moveto 
1 -1 scale
(4000) t 
GR
GR
GS
[1 0 0 1 293.44028 378.79999] CT
0.149 GC
/Helvetica 14 F
GS
[1 0 0 1 0 0] CT
-16 14 moveto 
1 -1 scale
(6000) t 
GR
GR
GS
[1 0 0 1 376.08383 378.79999] CT
0.149 GC
/Helvetica 14 F
GS
[1 0 0 1 0 0] CT
-16 14 moveto 
1 -1 scale
(8000) t 
GR
GR
GS
[1 0 0 1 458.72736 378.79999] CT
0.149 GC
/Helvetica 14 F
GS
[1 0 0 1 0 0] CT
-19.5 14 moveto 
1 -1 scale
(10000) t 
GR
GR
GS
[1 0 0 1 290.00021 396.30002] CT
0.149 GC
/Helvetica 15.4 F
GS
[1 0 0 1 0 0] CT
-42 15 moveto 
1 -1 scale
(Bitrate\(kb/s\)) t 
GR
GR
GS
0.149 GC
2 setlinecap
1 LJ
0.5 LW
N
73 374 M
73 31.5 L
S
GR
GS
0.149 GC
2 setlinecap
1 LJ
0.5 LW
N
507 374 M
507 31.5 L
S
GR
GS
0.149 GC
2 setlinecap
1 LJ
0.5 LW
N
73 364.458 M
77.34 364.458 L
S
GR
GS
0.149 GC
2 setlinecap
1 LJ
0.5 LW
N
73 322.386 M
77.34 322.386 L
S
GR
GS
0.149 GC
2 setlinecap
1 LJ
0.5 LW
N
73 280.314 M
77.34 280.314 L
S
GR
GS
0.149 GC
2 setlinecap
1 LJ
0.5 LW
N
73 238.242 M
77.34 238.242 L
S
GR
GS
0.149 GC
2 setlinecap
1 LJ
0.5 LW
N
73 196.17 M
77.34 196.17 L
S
GR
GS
0.149 GC
2 setlinecap
1 LJ
0.5 LW
N
73 154.098 M
77.34 154.098 L
S
GR
GS
0.149 GC
2 setlinecap
1 LJ
0.5 LW
N
73 112.026 M
77.34 112.026 L
S
GR
GS
0.149 GC
2 setlinecap
1 LJ
0.5 LW
N
73 69.954 M
77.34 69.954 L
S
GR
GS
0.149 GC
2 setlinecap
1 LJ
0.5 LW
N
507 364.458 M
502.66 364.458 L
S
GR
GS
0.149 GC
2 setlinecap
1 LJ
0.5 LW
N
507 322.386 M
502.66 322.386 L
S
GR
GS
0.149 GC
2 setlinecap
1 LJ
0.5 LW
N
507 280.314 M
502.66 280.314 L
S
GR
GS
0.149 GC
2 setlinecap
1 LJ
0.5 LW
N
507 238.242 M
502.66 238.242 L
S
GR
GS
0.149 GC
2 setlinecap
1 LJ
0.5 LW
N
507 196.17 M
502.66 196.17 L
S
GR
GS
0.149 GC
2 setlinecap
1 LJ
0.5 LW
N
507 154.098 M
502.66 154.098 L
S
GR
GS
0.149 GC
2 setlinecap
1 LJ
0.5 LW
N
507 112.026 M
502.66 112.026 L
S
GR
GS
0.149 GC
2 setlinecap
1 LJ
0.5 LW
N
507 69.954 M
502.66 69.954 L
S
GR
GS
0.149 GC
2 setlinecap
1 LJ
0.5 LW
N
73 353.94 M
75.17 353.94 L
S
GR
GS
0.149 GC
2 setlinecap
1 LJ
0.5 LW
N
73 343.422 M
75.17 343.422 L
S
GR
GS
0.149 GC
2 setlinecap
1 LJ
0.5 LW
N
73 332.904 M
75.17 332.904 L
S
GR
GS
0.149 GC
2 setlinecap
1 LJ
0.5 LW
N
73 311.868 M
75.17 311.868 L
S
GR
GS
0.149 GC
2 setlinecap
1 LJ
0.5 LW
N
73 301.35 M
75.17 301.35 L
S
GR
GS
0.149 GC
2 setlinecap
1 LJ
0.5 LW
N
73 290.832 M
75.17 290.832 L
S
GR
GS
0.149 GC
2 setlinecap
1 LJ
0.5 LW
N
73 269.796 M
75.17 269.796 L
S
GR
GS
0.149 GC
2 setlinecap
1 LJ
0.5 LW
N
73 259.278 M
75.17 259.278 L
S
GR
GS
0.149 GC
2 setlinecap
1 LJ
0.5 LW
N
73 248.76 M
75.17 248.76 L
S
GR
GS
0.149 GC
2 setlinecap
1 LJ
0.5 LW
N
73 227.724 M
75.17 227.724 L
S
GR
GS
0.149 GC
2 setlinecap
1 LJ
0.5 LW
N
73 217.206 M
75.17 217.206 L
S
GR
GS
0.149 GC
2 setlinecap
1 LJ
0.5 LW
N
73 206.688 M
75.17 206.688 L
S
GR
GS
0.149 GC
2 setlinecap
1 LJ
0.5 LW
N
73 185.652 M
75.17 185.652 L
S
GR
GS
0.149 GC
2 setlinecap
1 LJ
0.5 LW
N
73 175.134 M
75.17 175.134 L
S
GR
GS
0.149 GC
2 setlinecap
1 LJ
0.5 LW
N
73 164.616 M
75.17 164.616 L
S
GR
GS
0.149 GC
2 setlinecap
1 LJ
0.5 LW
N
73 143.58 M
75.17 143.58 L
S
GR
GS
0.149 GC
2 setlinecap
1 LJ
0.5 LW
N
73 133.062 M
75.17 133.062 L
S
GR
GS
0.149 GC
2 setlinecap
1 LJ
0.5 LW
N
73 122.544 M
75.17 122.544 L
S
GR
GS
0.149 GC
2 setlinecap
1 LJ
0.5 LW
N
73 101.508 M
75.17 101.508 L
S
GR
GS
0.149 GC
2 setlinecap
1 LJ
0.5 LW
N
73 90.99 M
75.17 90.99 L
S
GR
GS
0.149 GC
2 setlinecap
1 LJ
0.5 LW
N
73 80.472 M
75.17 80.472 L
S
GR
GS
0.149 GC
2 setlinecap
1 LJ
0.5 LW
N
73 59.436 M
75.17 59.436 L
S
GR
GS
0.149 GC
2 setlinecap
1 LJ
0.5 LW
N
73 48.918 M
75.17 48.918 L
S
GR
GS
0.149 GC
2 setlinecap
1 LJ
0.5 LW
N
73 38.4 M
75.17 38.4 L
S
GR
GS
0.149 GC
2 setlinecap
1 LJ
0.5 LW
N
507 353.94 M
504.83 353.94 L
S
GR
GS
0.149 GC
2 setlinecap
1 LJ
0.5 LW
N
507 343.422 M
504.83 343.422 L
S
GR
GS
0.149 GC
2 setlinecap
1 LJ
0.5 LW
N
507 332.904 M
504.83 332.904 L
S
GR
GS
0.149 GC
2 setlinecap
1 LJ
0.5 LW
N
507 311.868 M
504.83 311.868 L
S
GR
GS
0.149 GC
2 setlinecap
1 LJ
0.5 LW
N
507 301.35 M
504.83 301.35 L
S
GR
GS
0.149 GC
2 setlinecap
1 LJ
0.5 LW
N
507 290.832 M
504.83 290.832 L
S
GR
GS
0.149 GC
2 setlinecap
1 LJ
0.5 LW
N
507 269.796 M
504.83 269.796 L
S
GR
GS
0.149 GC
2 setlinecap
1 LJ
0.5 LW
N
507 259.278 M
504.83 259.278 L
S
GR
GS
0.149 GC
2 setlinecap
1 LJ
0.5 LW
N
507 248.76 M
504.83 248.76 L
S
GR
GS
0.149 GC
2 setlinecap
1 LJ
0.5 LW
N
507 227.724 M
504.83 227.724 L
S
GR
GS
0.149 GC
2 setlinecap
1 LJ
0.5 LW
N
507 217.206 M
504.83 217.206 L
S
GR
GS
0.149 GC
2 setlinecap
1 LJ
0.5 LW
N
507 206.688 M
504.83 206.688 L
S
GR
GS
0.149 GC
2 setlinecap
1 LJ
0.5 LW
N
507 185.652 M
504.83 185.652 L
S
GR
GS
0.149 GC
2 setlinecap
1 LJ
0.5 LW
N
507 175.134 M
504.83 175.134 L
S
GR
GS
0.149 GC
2 setlinecap
1 LJ
0.5 LW
N
507 164.616 M
504.83 164.616 L
S
GR
GS
0.149 GC
2 setlinecap
1 LJ
0.5 LW
N
507 143.58 M
504.83 143.58 L
S
GR
GS
0.149 GC
2 setlinecap
1 LJ
0.5 LW
N
507 133.062 M
504.83 133.062 L
S
GR
GS
0.149 GC
2 setlinecap
1 LJ
0.5 LW
N
507 122.544 M
504.83 122.544 L
S
GR
GS
0.149 GC
2 setlinecap
1 LJ
0.5 LW
N
507 101.508 M
504.83 101.508 L
S
GR
GS
0.149 GC
2 setlinecap
1 LJ
0.5 LW
N
507 90.99 M
504.83 90.99 L
S
GR
GS
0.149 GC
2 setlinecap
1 LJ
0.5 LW
N
507 80.472 M
504.83 80.472 L
S
GR
GS
0.149 GC
2 setlinecap
1 LJ
0.5 LW
N
507 59.436 M
504.83 59.436 L
S
GR
GS
0.149 GC
2 setlinecap
1 LJ
0.5 LW
N
507 48.918 M
504.83 48.918 L
S
GR
GS
0.149 GC
2 setlinecap
1 LJ
0.5 LW
N
507 38.4 M
504.83 38.4 L
S
GR
GS
[1 0 0 1 68.2 364.45847] CT
0.149 GC
/Helvetica 14 F
GS
[1 0 0 1 0 0] CT
-16 5.5 moveto 
1 -1 scale
(28) t 
GR
GR
GS
[1 0 0 1 68.2 322.38641] CT
0.149 GC
/Helvetica 14 F
GS
[1 0 0 1 0 0] CT
-16 5.5 moveto 
1 -1 scale
(30) t 
GR
GR
GS
[1 0 0 1 68.2 280.31436] CT
0.149 GC
/Helvetica 14 F
GS
[1 0 0 1 0 0] CT
-16 5.5 moveto 
1 -1 scale
(32) t 
GR
GR
GS
[1 0 0 1 68.2 238.24231] CT
0.149 GC
/Helvetica 14 F
GS
[1 0 0 1 0 0] CT
-16 5.5 moveto 
1 -1 scale
(34) t 
GR
GR
GS
[1 0 0 1 68.2 196.17027] CT
0.149 GC
/Helvetica 14 F
GS
[1 0 0 1 0 0] CT
-16 5.5 moveto 
1 -1 scale
(36) t 
GR
GR
GS
[1 0 0 1 68.2 154.09822] CT
0.149 GC
/Helvetica 14 F
GS
[1 0 0 1 0 0] CT
-16 5.5 moveto 
1 -1 scale
(38) t 
GR
GR
GS
[1 0 0 1 68.2 112.02617] CT
0.149 GC
/Helvetica 14 F
GS
[1 0 0 1 0 0] CT
-16 5.5 moveto 
1 -1 scale
(40) t 
GR
GR
GS
[1 0 0 1 68.2 69.95412] CT
0.149 GC
/Helvetica 14 F
GS
[1 0 0 1 0 0] CT
-16 5.5 moveto 
1 -1 scale
(42) t 
GR
GR
GS
[0 -1 1 0 49.2 202.7498] CT
0.149 GC
/Helvetica 15.4 F
GS
[1 0 0 1 0 0] CT
-62.5 -4 moveto 
1 -1 scale
(PSNR-HVS Y \(dB\)) t 
GR
GR
GS
[1 0 0 1 290.00027 29.57494] CT
/Helvetica-Bold 15.4 F
GS
[1 0 0 1 0 0] CT
-131.5 -4 moveto 
1 -1 scale
(TelevisionClip_1080P-39e3.y4m-av1) t 
GR
GR
GS
0 0.447 0.741 RC
1 LJ
0.5 LW
N
77.254 358.87 M
78.08 356.35 L
78.907 353.836 L
79.733 351.331 L
80.559 348.836 L
81.386 346.353 L
82.212 343.882 L
83.039 341.426 L
83.865 338.986 L
84.692 336.563 L
85.518 334.158 L
86.344 331.774 L
87.171 329.411 L
87.997 327.072 L
88.824 324.756 L
89.65 322.467 L
90.477 320.205 L
91.303 317.972 L
92.13 315.768 L
92.956 313.597 L
93.782 311.458 L
94.609 309.354 L
95.435 307.286 L
96.262 305.256 L
97.088 303.264 L
97.915 301.312 L
98.741 299.402 L
99.567 297.535 L
100.394 295.713 L
101.22 293.937 L
102.047 292.208 L
102.873 290.528 L
103.7 288.878 L
104.526 287.242 L
105.352 285.62 L
106.179 284.01 L
107.005 282.414 L
107.832 280.832 L
108.658 279.263 L
109.485 277.707 L
110.311 276.164 L
111.138 274.635 L
111.964 273.119 L
112.79 271.616 L
113.617 270.126 L
114.443 268.65 L
115.27 267.186 L
116.096 265.736 L
116.923 264.298 L
117.749 262.874 L
118.575 261.463 L
119.402 260.064 L
120.228 258.679 L
121.055 257.306 L
121.881 255.947 L
122.708 254.6 L
123.534 253.267 L
124.36 251.946 L
125.187 250.637 L
126.013 249.342 L
126.84 248.059 L
127.666 246.79 L
128.493 245.532 L
129.319 244.288 L
130.146 243.056 L
130.972 241.837 L
131.798 240.63 L
132.625 239.436 L
133.451 238.255 L
134.278 237.086 L
135.104 235.929 L
135.931 234.785 L
136.757 233.654 L
137.583 232.535 L
138.41 231.428 L
139.236 230.334 L
140.063 229.252 L
140.889 228.182 L
141.716 227.125 L
142.542 226.079 L
143.368 225.046 L
144.195 224.026 L
145.021 223.017 L
145.848 222.021 L
146.674 221.037 L
147.501 220.065 L
148.327 219.105 L
149.154 218.157 L
149.98 217.221 L
150.806 216.297 L
151.633 215.385 L
152.459 214.485 L
153.286 213.595 L
154.112 212.71 L
154.939 211.831 L
155.765 210.956 L
156.591 210.086 L
157.418 209.222 L
158.244 208.362 L
159.071 207.507 L
159.897 206.657 L
160.724 205.813 L
161.55 204.973 L
162.376 204.137 L
163.203 203.307 L
164.029 202.481 L
164.856 201.66 L
165.682 200.844 L
166.509 200.033 L
167.335 199.226 L
168.162 198.424 L
168.988 197.627 L
169.814 196.834 L
170.641 196.045 L
171.467 195.262 L
172.294 194.483 L
173.12 193.708 L
173.947 192.938 L
174.773 192.172 L
175.599 191.411 L
176.426 190.654 L
177.252 189.901 L
178.079 189.153 L
178.905 188.409 L
179.732 187.67 L
180.558 186.935 L
181.385 186.204 L
182.211 185.477 L
183.037 184.754 L
183.864 184.036 L
184.69 183.321 L
185.517 182.611 L
186.343 181.905 L
187.17 181.203 L
187.996 180.505 L
188.822 179.811 L
189.649 179.121 L
190.475 178.435 L
191.302 177.753 L
192.128 177.075 L
192.955 176.401 L
193.781 175.73 L
194.607 175.064 L
195.434 174.401 L
196.26 173.742 L
197.087 173.087 L
197.913 172.435 L
198.74 171.788 L
199.566 171.143 L
200.393 170.503 L
201.219 169.866 L
202.045 169.233 L
202.872 168.603 L
203.698 167.977 L
204.525 167.355 L
205.351 166.735 L
206.178 166.12 L
207.004 165.508 L
207.83 164.899 L
208.657 164.294 L
209.483 163.692 L
210.31 163.093 L
211.136 162.498 L
211.963 161.906 L
212.789 161.317 L
213.615 160.732 L
214.442 160.149 L
215.268 159.57 L
216.095 158.994 L
216.921 158.422 L
217.748 157.852 L
218.574 157.285 L
219.401 156.722 L
220.227 156.161 L
221.053 155.604 L
221.88 155.049 L
222.706 154.498 L
223.533 153.949 L
224.359 153.404 L
225.186 152.861 L
226.012 152.321 L
226.838 151.784 L
227.665 151.249 L
228.491 150.718 L
229.318 150.189 L
230.144 149.663 L
230.971 149.14 L
231.797 148.619 L
232.623 148.101 L
233.45 147.586 L
234.276 147.073 L
235.103 146.563 L
235.929 146.055 L
236.756 145.55 L
237.582 145.047 L
238.409 144.547 L
239.235 144.049 L
240.061 143.554 L
240.888 143.061 L
241.714 142.57 L
242.541 142.082 L
243.367 141.596 L
244.194 141.113 L
245.02 140.631 L
245.846 140.152 L
246.673 139.675 L
247.499 139.2 L
248.326 138.728 L
249.152 138.256 L
249.979 137.785 L
250.805 137.314 L
251.632 136.843 L
252.458 136.373 L
253.284 135.902 L
254.111 135.432 L
254.937 134.962 L
255.764 134.493 L
256.59 134.023 L
257.417 133.554 L
258.243 133.085 L
259.069 132.617 L
259.896 132.149 L
260.722 131.681 L
261.549 131.213 L
262.375 130.745 L
263.202 130.278 L
264.028 129.812 L
264.854 129.345 L
265.681 128.879 L
266.507 128.413 L
267.334 127.948 L
268.16 127.483 L
268.987 127.018 L
269.813 126.553 L
270.64 126.089 L
271.466 125.626 L
272.292 125.162 L
273.119 124.699 L
273.945 124.237 L
274.772 123.775 L
275.598 123.313 L
276.425 122.851 L
277.251 122.39 L
278.077 121.93 L
278.904 121.47 L
279.73 121.01 L
280.557 120.551 L
281.383 120.092 L
282.21 119.633 L
283.036 119.175 L
283.862 118.718 L
284.689 118.261 L
285.515 117.804 L
286.342 117.348 L
287.168 116.893 L
287.995 116.437 L
288.821 115.983 L
289.648 115.529 L
290.474 115.075 L
291.3 114.622 L
292.127 114.169 L
292.953 113.717 L
293.78 113.265 L
294.606 112.814 L
295.433 112.364 L
296.259 111.914 L
297.085 111.464 L
297.912 111.015 L
298.738 110.567 L
299.565 110.119 L
300.391 109.672 L
301.218 109.225 L
302.044 108.779 L
302.87 108.334 L
303.697 107.889 L
304.523 107.445 L
305.35 107.001 L
306.176 106.558 L
307.003 106.116 L
307.829 105.674 L
308.656 105.233 L
309.482 104.792 L
310.308 104.352 L
311.135 103.913 L
311.961 103.475 L
312.788 103.037 L
313.614 102.6 L
314.441 102.163 L
315.267 101.727 L
316.093 101.292 L
316.92 100.858 L
317.746 100.424 L
318.573 99.991 L
319.399 99.558 L
320.226 99.127 L
321.052 98.696 L
321.879 98.265 L
322.705 97.836 L
323.531 97.407 L
324.358 96.979 L
325.184 96.552 L
326.011 96.125 L
326.837 95.7 L
327.664 95.275 L
328.49 94.851 L
329.316 94.427 L
330.143 94.005 L
330.969 93.583 L
331.796 93.162 L
332.622 92.741 L
333.449 92.322 L
334.275 91.903 L
335.101 91.486 L
335.928 91.069 L
336.754 90.653 L
337.581 90.237 L
338.407 89.823 L
339.234 89.409 L
340.06 88.997 L
340.887 88.585 L
341.713 88.174 L
342.539 87.764 L
343.366 87.354 L
344.192 86.946 L
345.019 86.539 L
345.845 86.132 L
346.672 85.726 L
347.498 85.322 L
348.324 84.918 L
349.151 84.515 L
349.977 84.113 L
350.804 83.712 L
351.63 83.312 L
352.457 82.913 L
353.283 82.515 L
354.109 82.117 L
354.936 81.721 L
355.762 81.326 L
356.589 80.932 L
357.415 80.538 L
358.242 80.146 L
359.068 79.755 L
359.895 79.364 L
360.721 78.975 L
361.547 78.587 L
362.374 78.199 L
363.2 77.813 L
364.027 77.428 L
364.853 77.043 L
365.68 76.66 L
366.506 76.278 L
367.332 75.897 L
368.159 75.517 L
368.985 75.138 L
369.812 74.76 L
370.638 74.383 L
371.465 74.008 L
372.291 73.633 L
373.117 73.26 L
373.944 72.887 L
374.77 72.516 L
375.597 72.146 L
376.423 71.777 L
377.25 71.409 L
378.076 71.042 L
378.903 70.676 L
379.729 70.311 L
380.555 69.948 L
381.382 69.586 L
382.208 69.225 L
383.035 68.865 L
383.861 68.506 L
384.688 68.149 L
385.514 67.792 L
386.34 67.437 L
387.167 67.083 L
387.993 66.73 L
388.82 66.379 L
389.646 66.028 L
390.473 65.679 L
391.299 65.331 L
392.125 64.984 L
392.952 64.639 L
393.778 64.295 L
394.605 63.952 L
395.431 63.61 L
396.258 63.27 L
397.084 62.93 L
397.911 62.593 L
398.737 62.256 L
399.563 61.921 L
400.39 61.587 L
401.216 61.254 L
402.043 60.922 L
402.869 60.592 L
403.696 60.263 L
404.522 59.936 L
405.348 59.61 L
406.175 59.285 L
407.001 58.961 L
407.828 58.639 L
408.654 58.318 L
409.481 57.999 L
410.307 57.681 L
411.134 57.364 L
411.96 57.049 L
412.786 56.735 L
413.613 56.422 L
414.439 56.111 L
415.266 55.801 L
416.092 55.493 L
416.919 55.186 L
417.745 54.88 L
418.571 54.576 L
419.398 54.274 L
420.224 53.972 L
421.051 53.673 L
421.877 53.374 L
422.704 53.077 L
423.53 52.782 L
424.356 52.488 L
425.183 52.195 L
426.009 51.904 L
426.836 51.615 L
427.662 51.327 L
428.489 51.04 L
429.315 50.755 L
430.142 50.471 L
430.968 50.189 L
431.794 49.909 L
432.621 49.63 L
433.447 49.352 L
434.274 49.076 L
435.1 48.802 L
435.927 48.529 L
436.753 48.257 L
437.579 47.988 L
438.406 47.719 L
439.232 47.453 L
440.059 47.188 L
440.885 46.924 L
441.712 46.662 L
442.538 46.402 L
443.364 46.143 L
444.191 45.886 L
445.017 45.631 L
445.844 45.377 L
446.67 45.125 L
447.497 44.874 L
448.323 44.625 L
449.15 44.378 L
449.976 44.132 L
450.802 43.888 L
451.629 43.646 L
452.455 43.405 L
453.282 43.166 L
454.108 42.929 L
454.935 42.693 L
455.761 42.459 L
456.587 42.227 L
457.414 41.996 L
458.24 41.767 L
459.067 41.54 L
459.893 41.315 L
460.72 41.091 L
461.546 40.869 L
462.372 40.649 L
463.199 40.43 L
464.025 40.213 L
464.852 39.999 L
465.678 39.785 L
466.505 39.574 L
467.331 39.364 L
468.158 39.156 L
468.984 38.95 L
469.81 38.746 L
470.637 38.543 L
471.463 38.342 L
472.29 38.143 L
473.116 37.946 L
473.943 37.751 L
474.769 37.558 L
475.595 37.366 L
476.422 37.176 L
477.248 36.988 L
478.075 36.802 L
478.901 36.618 L
479.728 36.435 L
480.554 36.255 L
481.38 36.076 L
482.207 35.9 L
483.033 35.725 L
483.86 35.552 L
484.686 35.381 L
485.513 35.211 L
486.339 35.044 L
487.166 34.879 L
487.992 34.715 L
488.818 34.554 L
489.645 34.394 L
490.471 34.237 L
491.298 34.081 L
492.124 33.927 L
492.951 33.775 L
493.777 33.625 L
494.603 33.478 L
495.43 33.332 L
496.256 33.188 L
497.083 33.046 L
497.909 32.906 L
498.736 32.768 L
499.562 32.632 L
500.389 32.498 L
501.215 32.366 L
502.041 32.236 L
502.868 32.109 L
503.694 31.983 L
504.521 31.859 L
505.347 31.737 L
506.174 31.618 L
507 31.5 L
S
GR
GS
0.851 0.325 0.098 RC
1 LJ
0.5 LW
N
73 374 M
73.826 371.196 L
74.653 368.401 L
75.479 365.618 L
76.306 362.849 L
77.132 360.094 L
77.959 357.357 L
78.785 354.639 L
79.611 351.941 L
80.438 349.266 L
81.264 346.615 L
82.091 343.991 L
82.917 341.394 L
83.744 338.828 L
84.57 336.293 L
85.397 333.791 L
86.223 331.325 L
87.049 328.896 L
87.876 326.506 L
88.702 324.156 L
89.529 321.85 L
90.355 319.587 L
91.182 317.371 L
92.008 315.203 L
92.834 313.085 L
93.661 311.019 L
94.487 309.006 L
95.314 307.049 L
96.14 305.148 L
96.967 303.293 L
97.793 301.453 L
98.619 299.63 L
99.446 297.822 L
100.272 296.031 L
101.099 294.255 L
101.925 292.496 L
102.752 290.752 L
103.578 289.024 L
104.405 287.312 L
105.231 285.617 L
106.057 283.937 L
106.884 282.273 L
107.71 280.625 L
108.537 278.993 L
109.363 277.378 L
110.19 275.778 L
111.016 274.194 L
111.842 272.626 L
112.669 271.075 L
113.495 269.539 L
114.322 268.019 L
115.148 266.516 L
115.975 265.028 L
116.801 263.557 L
117.628 262.101 L
118.454 260.662 L
119.28 259.239 L
120.107 257.832 L
120.933 256.44 L
121.76 255.065 L
122.586 253.706 L
123.413 252.364 L
124.239 251.037 L
125.065 249.726 L
125.892 248.432 L
126.718 247.154 L
127.545 245.891 L
128.371 244.645 L
129.198 243.415 L
130.024 242.202 L
130.85 241.004 L
131.677 239.823 L
132.503 238.657 L
133.33 237.508 L
134.156 236.375 L
134.983 235.259 L
135.809 234.158 L
136.636 233.074 L
137.462 232.006 L
138.288 230.954 L
139.115 229.918 L
139.941 228.898 L
140.768 227.894 L
141.594 226.897 L
142.421 225.906 L
143.247 224.923 L
144.073 223.945 L
144.9 222.975 L
145.726 222.01 L
146.553 221.052 L
147.379 220.101 L
148.206 219.156 L
149.032 218.217 L
149.858 217.285 L
150.685 216.359 L
151.511 215.439 L
152.338 214.525 L
153.164 213.617 L
153.991 212.716 L
154.817 211.82 L
155.644 210.931 L
156.47 210.047 L
157.296 209.17 L
158.123 208.298 L
158.949 207.432 L
159.776 206.572 L
160.602 205.718 L
161.429 204.87 L
162.255 204.027 L
163.081 203.19 L
163.908 202.359 L
164.734 201.533 L
165.561 200.713 L
166.387 199.898 L
167.214 199.089 L
168.04 198.286 L
168.867 197.487 L
169.693 196.695 L
170.519 195.907 L
171.346 195.125 L
172.172 194.348 L
172.999 193.576 L
173.825 192.81 L
174.652 192.048 L
175.478 191.292 L
176.304 190.541 L
177.131 189.795 L
177.957 189.054 L
178.784 188.317 L
179.61 187.586 L
180.437 186.86 L
181.263 186.138 L
182.089 185.422 L
182.916 184.71 L
183.742 184.003 L
184.569 183.3 L
185.395 182.603 L
186.222 181.909 L
187.048 181.221 L
187.875 180.537 L
188.701 179.857 L
189.527 179.182 L
190.354 178.512 L
191.18 177.845 L
192.007 177.184 L
192.833 176.526 L
193.66 175.873 L
194.486 175.224 L
195.312 174.579 L
196.139 173.939 L
196.965 173.302 L
197.792 172.67 L
198.618 172.042 L
199.445 171.417 L
200.271 170.797 L
201.097 170.181 L
201.924 169.568 L
202.75 168.96 L
203.577 168.355 L
204.403 167.754 L
205.23 167.157 L
206.056 166.563 L
206.883 165.974 L
207.709 165.388 L
208.535 164.805 L
209.362 164.226 L
210.188 163.651 L
211.015 163.079 L
211.841 162.51 L
212.668 161.945 L
213.494 161.384 L
214.32 160.825 L
215.147 160.27 L
215.973 159.719 L
216.8 159.17 L
217.626 158.625 L
218.453 158.083 L
219.279 157.543 L
220.105 157.007 L
220.932 156.475 L
221.758 155.945 L
222.585 155.417 L
223.411 154.89 L
224.238 154.363 L
225.064 153.837 L
225.891 153.311 L
226.717 152.785 L
227.543 152.259 L
228.37 151.734 L
229.196 151.209 L
230.023 150.684 L
230.849 150.16 L
231.676 149.635 L
232.502 149.112 L
233.328 148.588 L
234.155 148.065 L
234.981 147.543 L
235.808 147.021 L
236.634 146.499 L
237.461 145.977 L
238.287 145.456 L
239.113 144.936 L
239.94 144.416 L
240.766 143.896 L
241.593 143.377 L
242.419 142.858 L
243.246 142.339 L
244.072 141.822 L
244.899 141.304 L
245.725 140.787 L
246.551 140.271 L
247.378 139.755 L
248.204 139.24 L
249.031 138.725 L
249.857 138.21 L
250.684 137.697 L
251.51 137.183 L
252.336 136.671 L
253.163 136.159 L
253.989 135.647 L
254.816 135.136 L
255.642 134.626 L
256.469 134.116 L
257.295 133.607 L
258.121 133.099 L
258.948 132.591 L
259.774 132.084 L
260.601 131.577 L
261.427 131.071 L
262.254 130.566 L
263.08 130.062 L
263.907 129.558 L
264.733 129.055 L
265.559 128.552 L
266.386 128.051 L
267.212 127.55 L
268.039 127.049 L
268.865 126.55 L
269.692 126.051 L
270.518 125.553 L
271.344 125.056 L
272.171 124.56 L
272.997 124.064 L
273.824 123.569 L
274.65 123.075 L
275.477 122.582 L
276.303 122.09 L
277.13 121.598 L
277.956 121.107 L
278.782 120.617 L
279.609 120.128 L
280.435 119.64 L
281.262 119.153 L
282.088 118.667 L
282.915 118.181 L
283.741 117.697 L
284.567 117.213 L
285.394 116.73 L
286.22 116.248 L
287.047 115.767 L
287.873 115.288 L
288.7 114.809 L
289.526 114.331 L
290.352 113.854 L
291.179 113.378 L
292.005 112.903 L
292.832 112.429 L
293.658 111.956 L
294.485 111.484 L
295.311 111.013 L
296.138 110.543 L
296.964 110.074 L
297.79 109.606 L
298.617 109.139 L
299.443 108.674 L
300.27 108.209 L
301.096 107.746 L
301.923 107.283 L
302.749 106.822 L
303.575 106.362 L
304.402 105.903 L
305.228 105.445 L
306.055 104.988 L
306.881 104.533 L
307.708 104.078 L
308.534 103.625 L
309.361 103.173 L
310.187 102.722 L
311.013 102.272 L
311.84 101.824 L
312.666 101.377 L
313.493 100.931 L
314.319 100.486 L
315.146 100.043 L
315.972 99.6 L
316.798 99.159 L
317.625 98.72 L
318.451 98.281 L
319.278 97.844 L
320.104 97.408 L
320.931 96.974 L
321.757 96.54 L
322.583 96.109 L
323.41 95.678 L
324.236 95.249 L
325.063 94.821 L
325.889 94.395 L
326.716 93.969 L
327.542 93.546 L
328.368 93.123 L
329.195 92.702 L
330.021 92.283 L
330.848 91.865 L
331.674 91.448 L
332.501 91.033 L
333.327 90.619 L
334.154 90.207 L
334.98 89.796 L
335.806 89.386 L
336.633 88.978 L
337.459 88.572 L
338.286 88.167 L
339.112 87.764 L
339.939 87.362 L
340.765 86.961 L
341.591 86.562 L
342.418 86.165 L
343.244 85.769 L
344.071 85.375 L
344.897 84.983 L
345.724 84.592 L
346.55 84.202 L
347.377 83.814 L
348.203 83.428 L
349.029 83.043 L
349.856 82.66 L
350.682 82.279 L
351.509 81.899 L
352.335 81.521 L
353.162 81.145 L
353.988 80.77 L
354.814 80.397 L
355.641 80.025 L
356.467 79.656 L
357.294 79.288 L
358.12 78.921 L
358.947 78.557 L
359.773 78.194 L
360.599 77.833 L
361.426 77.474 L
362.252 77.116 L
363.079 76.76 L
363.905 76.406 L
364.732 76.054 L
365.558 75.704 L
366.385 75.355 L
367.211 75.008 L
368.037 74.663 L
368.864 74.32 L
369.69 73.979 L
370.517 73.639 L
371.343 73.301 L
372.17 72.966 L
372.996 72.632 L
373.822 72.3 L
374.649 71.97 L
375.475 71.641 L
376.302 71.315 L
377.128 70.991 L
377.955 70.668 L
378.781 70.348 L
379.607 70.029 L
380.434 69.713 L
381.26 69.398 L
382.087 69.085 L
382.913 68.775 L
383.74 68.466 L
384.566 68.159 L
385.393 67.855 L
386.219 67.552 L
387.045 67.252 L
387.872 66.953 L
388.698 66.656 L
389.525 66.362 L
390.351 66.07 L
391.178 65.779 L
392.004 65.491 L
392.83 65.205 L
393.657 64.921 L
394.483 64.639 L
395.31 64.359 L
396.136 64.081 L
396.963 63.806 L
397.789 63.532 L
398.615 63.261 L
399.442 62.992 L
400.268 62.725 L
401.095 62.46 L
401.921 62.198 L
402.748 61.937 L
403.574 61.679 L
404.401 61.423 L
405.227 61.17 L
406.053 60.918 L
406.88 60.669 L
407.706 60.422 L
408.533 60.177 L
409.359 59.935 L
410.186 59.695 L
411.012 59.457 L
411.838 59.221 L
412.665 58.988 L
413.491 58.757 L
414.318 58.528 L
415.144 58.302 L
415.971 58.078 L
416.797 57.857 L
417.623 57.637 L
418.45 57.42 L
419.276 57.206 L
420.103 56.994 L
420.929 56.784 L
421.756 56.577 L
422.582 56.372 L
423.409 56.17 L
424.235 55.97 L
425.061 55.772 L
425.888 55.577 L
426.714 55.384 L
427.541 55.194 L
428.367 55.006 L
429.194 54.821 L
430.02 54.639 L
430.846 54.458 L
431.673 54.281 L
432.499 54.105 L
433.326 53.933 L
434.152 53.763 L
434.979 53.595 L
435.805 53.43 L
436.632 53.268 L
437.458 53.108 L
438.284 52.951 L
439.111 52.796 L
439.937 52.644 L
440.764 52.495 L
441.59 52.348 L
442.417 52.203 L
443.243 52.062 L
444.069 51.923 L
444.896 51.787 L
445.722 51.653 L
446.549 51.522 L
447.375 51.394 L
448.202 51.269 L
449.028 51.146 L
S
GR
GS
0.929 0.694 0.125 RC
1 LJ
0.5 LW
N
75.626 362.353 M
76.453 359.707 L
77.279 357.069 L
78.106 354.439 L
78.932 351.82 L
79.759 349.214 L
80.585 346.622 L
81.411 344.046 L
82.238 341.488 L
83.064 338.948 L
83.891 336.43 L
84.717 333.935 L
85.544 331.464 L
86.37 329.019 L
87.196 326.602 L
88.023 324.214 L
88.849 321.858 L
89.676 319.535 L
90.502 317.246 L
91.329 314.993 L
92.155 312.779 L
92.981 310.604 L
93.808 308.471 L
94.634 306.381 L
95.461 304.335 L
96.287 302.336 L
97.114 300.386 L
97.94 298.485 L
98.767 296.636 L
99.593 294.84 L
100.419 293.099 L
101.246 291.39 L
102.072 289.697 L
102.899 288.018 L
103.725 286.354 L
104.552 284.705 L
105.378 283.071 L
106.204 281.452 L
107.031 279.848 L
107.857 278.258 L
108.684 276.682 L
109.51 275.122 L
110.337 273.576 L
111.163 272.044 L
111.989 270.527 L
112.816 269.024 L
113.642 267.536 L
114.469 266.061 L
115.295 264.601 L
116.122 263.155 L
116.948 261.724 L
117.775 260.306 L
118.601 258.902 L
119.427 257.513 L
120.254 256.137 L
121.08 254.775 L
121.907 253.427 L
122.733 252.092 L
123.56 250.771 L
124.386 249.464 L
125.212 248.171 L
126.039 246.891 L
126.865 245.625 L
127.692 244.372 L
128.518 243.132 L
129.345 241.906 L
130.171 240.693 L
130.998 239.493 L
131.824 238.307 L
132.65 237.133 L
133.477 235.973 L
134.303 234.825 L
135.13 233.691 L
135.956 232.57 L
136.783 231.461 L
137.609 230.366 L
138.435 229.283 L
139.262 228.212 L
140.088 227.155 L
140.915 226.11 L
141.741 225.078 L
142.568 224.058 L
143.394 223.05 L
144.22 222.055 L
145.047 221.073 L
145.873 220.103 L
146.7 219.145 L
147.526 218.199 L
148.353 217.265 L
149.179 216.343 L
150.006 215.43 L
150.832 214.523 L
151.658 213.62 L
152.485 212.723 L
153.311 211.83 L
154.138 210.943 L
154.964 210.061 L
155.791 209.184 L
156.617 208.312 L
157.443 207.446 L
158.27 206.584 L
159.096 205.727 L
159.923 204.875 L
160.749 204.028 L
161.576 203.186 L
162.402 202.349 L
163.228 201.517 L
164.055 200.69 L
164.881 199.867 L
165.708 199.049 L
166.534 198.236 L
167.361 197.428 L
168.187 196.625 L
169.014 195.826 L
169.84 195.032 L
170.666 194.242 L
171.493 193.457 L
172.319 192.677 L
173.146 191.901 L
173.972 191.13 L
174.799 190.363 L
175.625 189.601 L
176.451 188.843 L
177.278 188.09 L
178.104 187.341 L
178.931 186.596 L
179.757 185.856 L
180.584 185.12 L
181.41 184.389 L
182.236 183.662 L
183.063 182.939 L
183.889 182.22 L
184.716 181.505 L
185.542 180.795 L
186.369 180.089 L
187.195 179.387 L
188.022 178.689 L
188.848 177.995 L
189.674 177.305 L
190.501 176.619 L
191.327 175.938 L
192.154 175.26 L
192.98 174.586 L
193.807 173.916 L
194.633 173.25 L
195.459 172.588 L
196.286 171.93 L
197.112 171.275 L
197.939 170.625 L
198.765 169.978 L
199.592 169.335 L
200.418 168.696 L
201.245 168.06 L
202.071 167.428 L
202.897 166.8 L
203.724 166.175 L
204.55 165.554 L
205.377 164.937 L
206.203 164.323 L
207.03 163.712 L
207.856 163.106 L
208.682 162.502 L
209.509 161.902 L
210.335 161.306 L
211.162 160.713 L
211.988 160.123 L
212.815 159.537 L
213.641 158.954 L
214.467 158.374 L
215.294 157.797 L
216.12 157.224 L
216.947 156.654 L
217.773 156.088 L
218.6 155.524 L
219.426 154.964 L
220.253 154.406 L
221.079 153.852 L
221.905 153.301 L
222.732 152.753 L
223.558 152.208 L
224.385 151.666 L
225.211 151.127 L
226.038 150.59 L
226.864 150.057 L
227.69 149.527 L
228.517 149 L
229.343 148.475 L
230.17 147.953 L
230.996 147.434 L
231.823 146.918 L
232.649 146.405 L
233.475 145.894 L
234.302 145.386 L
235.128 144.881 L
235.955 144.378 L
236.781 143.878 L
237.608 143.381 L
238.434 142.886 L
239.261 142.393 L
240.087 141.903 L
240.913 141.416 L
241.74 140.931 L
242.566 140.449 L
243.393 139.969 L
244.219 139.49 L
245.046 139.011 L
245.872 138.533 L
246.698 138.054 L
247.525 137.576 L
248.351 137.098 L
249.178 136.621 L
250.004 136.143 L
250.831 135.666 L
251.657 135.189 L
252.484 134.712 L
253.31 134.236 L
254.136 133.76 L
254.963 133.284 L
255.789 132.809 L
256.616 132.333 L
257.442 131.858 L
258.269 131.384 L
259.095 130.909 L
259.921 130.435 L
260.748 129.961 L
261.574 129.488 L
262.401 129.015 L
263.227 128.542 L
264.054 128.07 L
264.88 127.598 L
265.706 127.126 L
266.533 126.655 L
267.359 126.184 L
268.186 125.714 L
269.012 125.243 L
269.839 124.774 L
270.665 124.304 L
271.492 123.835 L
272.318 123.367 L
273.144 122.899 L
273.971 122.431 L
274.797 121.964 L
275.624 121.497 L
276.45 121.031 L
277.277 120.565 L
278.103 120.099 L
278.929 119.634 L
279.756 119.17 L
280.582 118.706 L
281.409 118.242 L
282.235 117.779 L
283.062 117.316 L
283.888 116.854 L
284.714 116.393 L
285.541 115.932 L
286.367 115.471 L
287.194 115.011 L
288.02 114.552 L
288.847 114.093 L
289.673 113.634 L
290.5 113.176 L
291.326 112.719 L
292.152 112.262 L
292.979 111.806 L
293.805 111.351 L
294.632 110.896 L
295.458 110.441 L
296.285 109.988 L
297.111 109.534 L
297.937 109.082 L
298.764 108.63 L
299.59 108.179 L
300.417 107.728 L
301.243 107.278 L
302.07 106.828 L
302.896 106.38 L
303.723 105.931 L
304.549 105.484 L
305.375 105.037 L
306.202 104.591 L
307.028 104.146 L
307.855 103.701 L
308.681 103.257 L
309.508 102.814 L
310.334 102.371 L
311.16 101.929 L
311.987 101.488 L
312.813 101.047 L
313.64 100.608 L
314.466 100.169 L
315.293 99.73 L
316.119 99.293 L
316.945 98.856 L
317.772 98.42 L
318.598 97.985 L
319.425 97.55 L
320.251 97.117 L
321.078 96.684 L
321.904 96.252 L
322.73 95.821 L
323.557 95.39 L
324.383 94.961 L
325.21 94.532 L
326.036 94.104 L
326.863 93.677 L
327.689 93.25 L
328.516 92.825 L
329.342 92.4 L
330.168 91.977 L
330.995 91.554 L
331.821 91.132 L
332.648 90.711 L
333.474 90.29 L
334.301 89.871 L
335.127 89.453 L
335.953 89.035 L
336.78 88.618 L
337.606 88.203 L
338.433 87.788 L
339.259 87.374 L
340.086 86.961 L
340.912 86.549 L
341.739 86.138 L
342.565 85.728 L
343.391 85.319 L
344.218 84.911 L
345.044 84.504 L
345.871 84.098 L
346.697 83.692 L
347.524 83.288 L
348.35 82.885 L
349.176 82.483 L
350.003 82.082 L
350.829 81.682 L
351.656 81.283 L
352.482 80.884 L
353.309 80.487 L
354.135 80.091 L
354.961 79.697 L
355.788 79.303 L
356.614 78.91 L
357.441 78.518 L
358.267 78.128 L
359.094 77.738 L
359.92 77.349 L
360.747 76.962 L
361.573 76.576 L
362.399 76.191 L
363.226 75.807 L
364.052 75.424 L
364.879 75.042 L
365.705 74.661 L
366.532 74.282 L
367.358 73.903 L
368.184 73.526 L
369.011 73.15 L
369.837 72.775 L
370.664 72.401 L
371.49 72.029 L
372.317 71.658 L
373.143 71.287 L
373.969 70.919 L
374.796 70.551 L
375.622 70.184 L
376.449 69.819 L
377.275 69.455 L
378.102 69.092 L
378.928 68.73 L
379.755 68.37 L
380.581 68.011 L
381.407 67.653 L
382.234 67.297 L
383.06 66.941 L
383.887 66.587 L
384.713 66.234 L
385.54 65.883 L
386.366 65.533 L
387.192 65.184 L
388.019 64.836 L
388.845 64.49 L
389.672 64.145 L
390.498 63.802 L
391.325 63.459 L
392.151 63.119 L
392.977 62.779 L
393.804 62.441 L
394.63 62.104 L
395.457 61.768 L
396.283 61.434 L
397.11 61.102 L
397.936 60.77 L
398.763 60.44 L
399.589 60.112 L
400.415 59.785 L
401.242 59.459 L
402.068 59.135 L
402.895 58.812 L
403.721 58.49 L
404.548 58.17 L
405.374 57.852 L
406.2 57.535 L
407.027 57.219 L
407.853 56.905 L
408.68 56.592 L
409.506 56.281 L
410.333 55.971 L
411.159 55.663 L
411.986 55.356 L
412.812 55.051 L
413.638 54.747 L
414.465 54.444 L
415.291 54.144 L
416.118 53.844 L
416.944 53.547 L
417.771 53.251 L
418.597 52.956 L
419.423 52.663 L
420.25 52.371 L
421.076 52.082 L
421.903 51.793 L
422.729 51.506 L
423.556 51.221 L
424.382 50.938 L
425.208 50.656 L
426.035 50.375 L
426.861 50.097 L
427.688 49.819 L
428.514 49.544 L
429.341 49.27 L
430.167 48.998 L
430.993 48.727 L
431.82 48.458 L
432.646 48.191 L
433.473 47.925 L
434.299 47.661 L
435.126 47.399 L
435.952 47.138 L
436.779 46.879 L
437.605 46.622 L
438.431 46.366 L
439.258 46.112 L
440.084 45.86 L
440.911 45.61 L
441.737 45.361 L
442.564 45.114 L
443.39 44.869 L
444.216 44.625 L
445.043 44.384 L
445.869 44.144 L
446.696 43.906 L
447.522 43.669 L
448.349 43.434 L
449.175 43.202 L
450.002 42.97 L
450.828 42.741 L
451.654 42.514 L
452.481 42.288 L
453.307 42.064 L
454.134 41.842 L
454.96 41.622 L
455.787 41.403 L
456.613 41.187 L
457.439 40.972 L
458.266 40.759 L
459.092 40.548 L
459.919 40.339 L
460.745 40.132 L
461.572 39.927 L
462.398 39.723 L
463.224 39.522 L
464.051 39.322 L
464.877 39.124 L
465.704 38.928 L
466.53 38.734 L
467.357 38.542 L
468.183 38.352 L
469.01 38.164 L
469.836 37.978 L
470.662 37.794 L
471.489 37.611 L
472.315 37.431 L
473.142 37.253 L
473.968 37.076 L
474.795 36.902 L
475.621 36.729 L
476.447 36.559 L
477.274 36.391 L
478.1 36.224 L
478.927 36.06 L
479.753 35.897 L
480.58 35.737 L
481.406 35.579 L
482.232 35.422 L
483.059 35.268 L
483.885 35.116 L
484.712 34.966 L
485.538 34.818 L
486.365 34.672 L
487.191 34.528 L
488.018 34.386 L
488.844 34.246 L
489.67 34.109 L
490.497 33.973 L
491.323 33.84 L
492.15 33.708 L
492.976 33.579 L
493.803 33.452 L
494.629 33.327 L
495.455 33.204 L
496.282 33.084 L
497.108 32.965 L
497.935 32.849 L
498.761 32.735 L
499.588 32.623 L
500.414 32.513 L
501.241 32.406 L
S
GR
GS
0.494 0.184 0.557 RC
1 LJ
0.5 LW
N
76.89 360.155 M
77.717 357.58 L
78.543 355.011 L
79.369 352.451 L
80.196 349.901 L
81.022 347.363 L
81.849 344.839 L
82.675 342.33 L
83.502 339.837 L
84.328 337.362 L
85.155 334.907 L
85.981 332.473 L
86.807 330.063 L
87.634 327.676 L
88.46 325.316 L
89.287 322.983 L
90.113 320.679 L
90.94 318.406 L
91.766 316.165 L
92.592 313.958 L
93.419 311.787 L
94.245 309.652 L
95.072 307.556 L
95.898 305.5 L
96.725 303.486 L
97.551 301.515 L
98.377 299.588 L
99.204 297.708 L
100.03 295.876 L
100.857 294.094 L
101.683 292.363 L
102.51 290.68 L
103.336 289.019 L
104.163 287.372 L
104.989 285.74 L
105.815 284.122 L
106.642 282.518 L
107.468 280.928 L
108.295 279.353 L
109.121 277.791 L
109.948 276.244 L
110.774 274.71 L
111.6 273.191 L
112.427 271.685 L
113.253 270.193 L
114.08 268.715 L
114.906 267.25 L
115.733 265.8 L
116.559 264.363 L
117.385 262.939 L
118.212 261.529 L
119.038 260.133 L
119.865 258.749 L
120.691 257.38 L
121.518 256.023 L
122.344 254.68 L
123.171 253.35 L
123.997 252.033 L
124.823 250.73 L
125.65 249.439 L
126.476 248.162 L
127.303 246.897 L
128.129 245.645 L
128.956 244.406 L
129.782 243.18 L
130.608 241.967 L
131.435 240.766 L
132.261 239.578 L
133.088 238.403 L
133.914 237.24 L
134.741 236.09 L
135.567 234.952 L
136.393 233.827 L
137.22 232.714 L
138.046 231.613 L
138.873 230.525 L
139.699 229.449 L
140.526 228.384 L
141.352 227.332 L
142.179 226.292 L
143.005 225.264 L
143.831 224.248 L
144.658 223.244 L
145.484 222.252 L
146.311 221.272 L
147.137 220.303 L
147.964 219.346 L
148.79 218.4 L
149.616 217.467 L
150.443 216.544 L
151.269 215.633 L
152.096 214.734 L
152.922 213.84 L
153.749 212.952 L
154.575 212.069 L
155.402 211.19 L
156.228 210.317 L
157.054 209.449 L
157.881 208.585 L
158.707 207.727 L
159.534 206.873 L
160.36 206.024 L
161.187 205.18 L
162.013 204.341 L
162.839 203.507 L
163.666 202.677 L
164.492 201.852 L
165.319 201.032 L
166.145 200.216 L
166.972 199.405 L
167.798 198.599 L
168.624 197.798 L
169.451 197 L
170.277 196.208 L
171.104 195.42 L
171.93 194.637 L
172.757 193.858 L
173.583 193.083 L
174.41 192.313 L
175.236 191.547 L
176.062 190.786 L
176.889 190.029 L
177.715 189.277 L
178.542 188.528 L
179.368 187.784 L
180.195 187.045 L
181.021 186.309 L
181.847 185.578 L
182.674 184.851 L
183.5 184.128 L
184.327 183.409 L
185.153 182.695 L
185.98 181.984 L
186.806 181.278 L
187.632 180.575 L
188.459 179.877 L
189.285 179.183 L
190.112 178.492 L
190.938 177.806 L
191.765 177.123 L
192.591 176.445 L
193.418 175.77 L
194.244 175.099 L
195.07 174.432 L
195.897 173.768 L
196.723 173.109 L
197.55 172.453 L
198.376 171.801 L
199.203 171.153 L
200.029 170.508 L
200.855 169.867 L
201.682 169.23 L
202.508 168.596 L
203.335 167.966 L
204.161 167.339 L
204.988 166.716 L
205.814 166.096 L
206.641 165.48 L
207.467 164.868 L
208.293 164.258 L
209.12 163.653 L
209.946 163.05 L
210.773 162.451 L
211.599 161.855 L
212.426 161.263 L
213.252 160.674 L
214.078 160.088 L
214.905 159.505 L
215.731 158.926 L
216.558 158.35 L
217.384 157.777 L
218.211 157.207 L
219.037 156.64 L
219.863 156.076 L
220.69 155.516 L
221.516 154.958 L
222.343 154.404 L
223.169 153.852 L
223.996 153.303 L
224.822 152.758 L
225.649 152.215 L
226.475 151.675 L
227.301 151.138 L
228.128 150.604 L
228.954 150.073 L
229.781 149.544 L
230.607 149.019 L
231.434 148.496 L
232.26 147.975 L
233.086 147.458 L
233.913 146.943 L
234.739 146.431 L
235.566 145.921 L
236.392 145.414 L
237.219 144.91 L
238.045 144.408 L
238.871 143.909 L
239.698 143.412 L
240.524 142.917 L
241.351 142.426 L
242.177 141.936 L
243.004 141.449 L
243.83 140.964 L
244.657 140.482 L
245.483 140.002 L
246.309 139.524 L
247.136 139.049 L
247.962 138.575 L
248.789 138.101 L
249.615 137.627 L
250.442 137.154 L
251.268 136.681 L
252.094 136.208 L
252.921 135.735 L
253.747 135.262 L
254.574 134.79 L
255.4 134.318 L
256.227 133.846 L
257.053 133.375 L
257.879 132.903 L
258.706 132.432 L
259.532 131.962 L
260.359 131.491 L
261.185 131.021 L
262.012 130.552 L
262.838 130.082 L
263.665 129.613 L
264.491 129.144 L
265.317 128.676 L
266.144 128.208 L
266.97 127.74 L
267.797 127.272 L
268.623 126.805 L
269.45 126.338 L
270.276 125.872 L
271.102 125.406 L
271.929 124.94 L
272.755 124.475 L
273.582 124.01 L
274.408 123.546 L
275.235 123.082 L
276.061 122.618 L
276.887 122.155 L
277.714 121.692 L
278.54 121.23 L
279.367 120.768 L
280.193 120.306 L
281.02 119.845 L
281.846 119.385 L
282.673 118.925 L
283.499 118.465 L
284.325 118.006 L
285.152 117.547 L
285.978 117.089 L
286.805 116.631 L
287.631 116.174 L
288.458 115.717 L
289.284 115.26 L
290.11 114.805 L
290.937 114.35 L
291.763 113.895 L
292.59 113.441 L
293.416 112.987 L
294.243 112.534 L
295.069 112.081 L
295.896 111.629 L
296.722 111.178 L
297.548 110.727 L
298.375 110.277 L
299.201 109.827 L
300.028 109.378 L
300.854 108.929 L
301.681 108.482 L
302.507 108.034 L
303.333 107.588 L
304.16 107.141 L
304.986 106.696 L
305.813 106.251 L
306.639 105.807 L
307.466 105.363 L
308.292 104.92 L
309.118 104.478 L
309.945 104.036 L
310.771 103.596 L
311.598 103.155 L
312.424 102.716 L
313.251 102.277 L
314.077 101.839 L
314.904 101.401 L
315.73 100.964 L
316.556 100.528 L
317.383 100.093 L
318.209 99.658 L
319.036 99.224 L
319.862 98.791 L
320.689 98.358 L
321.515 97.927 L
322.341 97.496 L
323.168 97.065 L
323.994 96.636 L
324.821 96.207 L
325.647 95.779 L
326.474 95.352 L
327.3 94.926 L
328.126 94.5 L
328.953 94.076 L
329.779 93.652 L
330.606 93.228 L
331.432 92.806 L
332.259 92.385 L
333.085 91.964 L
333.912 91.544 L
334.738 91.125 L
335.564 90.707 L
336.391 90.29 L
337.217 89.873 L
338.044 89.458 L
338.87 89.043 L
339.697 88.629 L
340.523 88.216 L
341.349 87.804 L
342.176 87.393 L
343.002 86.983 L
343.829 86.574 L
344.655 86.165 L
345.482 85.758 L
346.308 85.351 L
347.134 84.946 L
347.961 84.541 L
348.787 84.137 L
349.614 83.735 L
350.44 83.333 L
351.267 82.932 L
352.093 82.532 L
352.92 82.133 L
353.746 81.735 L
354.572 81.338 L
355.399 80.942 L
356.225 80.547 L
357.052 80.153 L
357.878 79.761 L
358.705 79.369 L
359.531 78.978 L
360.357 78.588 L
361.184 78.199 L
362.01 77.811 L
362.837 77.425 L
363.663 77.039 L
364.49 76.655 L
365.316 76.271 L
366.143 75.889 L
366.969 75.507 L
367.795 75.127 L
368.622 74.748 L
369.448 74.37 L
370.275 73.993 L
371.101 73.617 L
371.928 73.242 L
372.754 72.868 L
373.58 72.496 L
374.407 72.125 L
375.233 71.754 L
376.06 71.385 L
376.886 71.018 L
377.713 70.651 L
378.539 70.285 L
379.365 69.921 L
380.192 69.558 L
381.018 69.195 L
381.845 68.835 L
382.671 68.475 L
383.498 68.116 L
384.324 67.759 L
385.151 67.403 L
385.977 67.048 L
386.803 66.695 L
387.63 66.342 L
388.456 65.991 L
389.283 65.642 L
390.109 65.293 L
390.936 64.946 L
391.762 64.599 L
392.588 64.255 L
393.415 63.911 L
394.241 63.569 L
395.068 63.228 L
395.894 62.888 L
396.721 62.55 L
397.547 62.213 L
398.373 61.877 L
399.2 61.543 L
400.026 61.209 L
400.853 60.878 L
401.679 60.547 L
402.506 60.218 L
403.332 59.89 L
404.159 59.564 L
404.985 59.239 L
405.811 58.915 L
406.638 58.593 L
407.464 58.272 L
408.291 57.953 L
409.117 57.634 L
409.944 57.318 L
410.77 57.002 L
411.596 56.688 L
412.423 56.376 L
413.249 56.065 L
414.076 55.755 L
414.902 55.447 L
415.729 55.14 L
416.555 54.835 L
417.382 54.531 L
418.208 54.229 L
419.034 53.928 L
419.861 53.628 L
420.687 53.33 L
421.514 53.034 L
422.34 52.739 L
423.167 52.445 L
423.993 52.153 L
424.819 51.862 L
425.646 51.573 L
426.472 51.286 L
427.299 51 L
428.125 50.716 L
428.952 50.433 L
429.778 50.151 L
430.604 49.872 L
431.431 49.593 L
432.257 49.317 L
433.084 49.042 L
433.91 48.768 L
434.737 48.496 L
435.563 48.226 L
436.389 47.957 L
437.216 47.69 L
438.042 47.424 L
438.869 47.16 L
439.695 46.898 L
440.522 46.637 L
441.348 46.378 L
442.175 46.121 L
443.001 45.865 L
443.827 45.611 L
444.654 45.358 L
445.48 45.107 L
446.307 44.858 L
447.133 44.611 L
447.96 44.365 L
448.786 44.121 L
449.612 43.878 L
450.439 43.638 L
451.265 43.399 L
452.092 43.161 L
452.918 42.926 L
453.745 42.692 L
454.571 42.46 L
455.398 42.229 L
456.224 42.001 L
457.05 41.774 L
457.877 41.548 L
458.703 41.325 L
459.53 41.103 L
460.356 40.883 L
461.183 40.665 L
462.009 40.449 L
462.835 40.235 L
463.662 40.022 L
464.488 39.811 L
465.315 39.602 L
466.141 39.394 L
466.968 39.189 L
467.794 38.985 L
468.62 38.783 L
469.447 38.583 L
470.273 38.385 L
471.1 38.189 L
471.926 37.994 L
472.753 37.802 L
473.579 37.611 L
474.406 37.422 L
475.232 37.235 L
476.058 37.05 L
476.885 36.867 L
477.711 36.686 L
478.538 36.506 L
479.364 36.329 L
480.191 36.153 L
481.017 35.98 L
481.843 35.808 L
482.67 35.638 L
483.496 35.47 L
484.323 35.304 L
485.149 35.141 L
485.976 34.979 L
486.802 34.819 L
487.628 34.661 L
488.455 34.505 L
489.281 34.35 L
490.108 34.198 L
490.934 34.048 L
491.761 33.9 L
492.587 33.754 L
493.414 33.61 L
494.24 33.468 L
495.066 33.328 L
495.893 33.19 L
496.719 33.054 L
497.546 32.92 L
498.372 32.788 L
499.199 32.659 L
500.025 32.531 L
500.851 32.405 L
501.678 32.282 L
502.504 32.16 L
503.331 32.041 L
504.157 31.924 L
504.984 31.808 L
S
GR
GS
0.467 0.675 0.188 RC
1 LJ
0.5 LW
N
74.894 365.925 M
75.721 363.205 L
76.547 360.493 L
77.374 357.791 L
78.2 355.099 L
79.027 352.421 L
79.853 349.758 L
80.679 347.112 L
81.506 344.484 L
82.332 341.876 L
83.159 339.29 L
83.985 336.728 L
84.812 334.191 L
85.638 331.682 L
86.465 329.202 L
87.291 326.753 L
88.117 324.336 L
88.944 321.954 L
89.77 319.608 L
90.597 317.3 L
91.423 315.032 L
92.25 312.805 L
93.076 310.622 L
93.902 308.484 L
94.729 306.393 L
95.555 304.35 L
96.382 302.358 L
97.208 300.419 L
98.035 298.533 L
98.861 296.703 L
99.688 294.929 L
100.514 293.185 L
101.34 291.456 L
102.167 289.743 L
102.993 288.045 L
103.82 286.363 L
104.646 284.696 L
105.473 283.045 L
106.299 281.409 L
107.125 279.788 L
107.952 278.182 L
108.778 276.592 L
109.605 275.017 L
110.431 273.456 L
111.258 271.911 L
112.084 270.381 L
112.91 268.865 L
113.737 267.365 L
114.563 265.879 L
115.39 264.408 L
116.216 262.951 L
117.043 261.509 L
117.869 260.082 L
118.696 258.669 L
119.522 257.271 L
120.348 255.887 L
121.175 254.517 L
122.001 253.161 L
122.828 251.82 L
123.654 250.493 L
124.481 249.18 L
125.307 247.882 L
126.133 246.597 L
126.96 245.326 L
127.786 244.069 L
128.613 242.826 L
129.439 241.596 L
130.266 240.381 L
131.092 239.179 L
131.918 237.99 L
132.745 236.815 L
133.571 235.654 L
134.398 234.506 L
135.224 233.372 L
136.051 232.251 L
136.877 231.143 L
137.704 230.048 L
138.53 228.967 L
139.356 227.899 L
140.183 226.843 L
141.009 225.801 L
141.836 224.772 L
142.662 223.756 L
143.489 222.752 L
144.315 221.761 L
145.141 220.783 L
145.968 219.818 L
146.794 218.866 L
147.621 217.925 L
148.447 216.996 L
149.274 216.072 L
150.1 215.154 L
150.926 214.241 L
151.753 213.333 L
152.579 212.431 L
153.406 211.534 L
154.232 210.642 L
155.059 209.755 L
155.885 208.874 L
156.712 207.998 L
157.538 207.127 L
158.364 206.261 L
159.191 205.4 L
160.017 204.545 L
160.844 203.694 L
161.67 202.848 L
162.497 202.008 L
163.323 201.172 L
164.149 200.342 L
164.976 199.516 L
165.802 198.695 L
166.629 197.879 L
167.455 197.068 L
168.282 196.262 L
169.108 195.46 L
169.935 194.664 L
170.761 193.872 L
171.587 193.084 L
172.414 192.302 L
173.24 191.524 L
174.067 190.751 L
174.893 189.982 L
175.72 189.218 L
176.546 188.458 L
177.372 187.703 L
178.199 186.952 L
179.025 186.206 L
179.852 185.465 L
180.678 184.727 L
181.505 183.994 L
182.331 183.266 L
183.157 182.542 L
183.984 181.822 L
184.81 181.106 L
185.637 180.395 L
186.463 179.688 L
187.29 178.985 L
188.116 178.286 L
188.943 177.592 L
189.769 176.901 L
190.595 176.215 L
191.422 175.532 L
192.248 174.854 L
193.075 174.18 L
193.901 173.51 L
194.728 172.843 L
195.554 172.181 L
196.38 171.522 L
197.207 170.868 L
198.033 170.217 L
198.86 169.57 L
199.686 168.927 L
200.513 168.287 L
201.339 167.652 L
202.165 167.02 L
202.992 166.392 L
203.818 165.767 L
204.645 165.146 L
205.471 164.529 L
206.298 163.915 L
207.124 163.305 L
207.951 162.698 L
208.777 162.095 L
209.603 161.495 L
210.43 160.899 L
211.256 160.306 L
212.083 159.717 L
212.909 159.131 L
213.736 158.548 L
214.562 157.968 L
215.388 157.392 L
216.215 156.819 L
217.041 156.25 L
217.868 155.683 L
218.694 155.12 L
219.521 154.56 L
220.347 154.003 L
221.173 153.449 L
222 152.898 L
222.826 152.351 L
223.653 151.806 L
224.479 151.264 L
225.306 150.725 L
226.132 150.19 L
226.959 149.657 L
227.785 149.126 L
228.611 148.599 L
229.438 148.075 L
230.264 147.553 L
231.091 147.035 L
231.917 146.519 L
232.744 146.005 L
233.57 145.495 L
234.396 144.987 L
235.223 144.481 L
236.049 143.979 L
236.876 143.479 L
237.702 142.981 L
238.529 142.486 L
239.355 141.994 L
240.182 141.504 L
241.008 141.016 L
241.834 140.531 L
242.661 140.046 L
243.487 139.561 L
244.314 139.076 L
245.14 138.592 L
245.967 138.108 L
246.793 137.624 L
247.619 137.141 L
248.446 136.657 L
249.272 136.174 L
250.099 135.691 L
250.925 135.209 L
251.752 134.726 L
252.578 134.244 L
253.404 133.763 L
254.231 133.281 L
255.057 132.8 L
255.884 132.319 L
256.71 131.839 L
257.537 131.358 L
258.363 130.879 L
259.19 130.399 L
260.016 129.92 L
260.842 129.441 L
261.669 128.962 L
262.495 128.484 L
263.322 128.006 L
264.148 127.529 L
264.975 127.052 L
265.801 126.575 L
266.627 126.099 L
267.454 125.623 L
268.28 125.148 L
269.107 124.673 L
269.933 124.198 L
270.76 123.724 L
271.586 123.25 L
272.412 122.777 L
273.239 122.304 L
274.065 121.831 L
274.892 121.359 L
275.718 120.888 L
276.545 120.417 L
277.371 119.946 L
278.198 119.476 L
279.024 119.006 L
279.85 118.537 L
280.677 118.069 L
281.503 117.6 L
282.33 117.133 L
283.156 116.666 L
283.983 116.199 L
284.809 115.733 L
285.635 115.268 L
286.462 114.803 L
287.288 114.339 L
288.115 113.875 L
288.941 113.412 L
289.768 112.949 L
290.594 112.487 L
291.421 112.025 L
292.247 111.565 L
293.073 111.104 L
293.9 110.645 L
294.726 110.186 L
295.553 109.727 L
296.379 109.269 L
297.206 108.812 L
298.032 108.356 L
298.858 107.9 L
299.685 107.445 L
300.511 106.99 L
301.338 106.536 L
302.164 106.083 L
302.991 105.63 L
303.817 105.179 L
304.643 104.728 L
305.47 104.277 L
306.296 103.827 L
307.123 103.378 L
307.949 102.93 L
308.776 102.482 L
309.602 102.036 L
310.428 101.59 L
311.255 101.144 L
312.081 100.7 L
312.908 100.256 L
313.734 99.813 L
314.561 99.37 L
315.387 98.929 L
316.214 98.488 L
317.04 98.048 L
317.866 97.609 L
318.693 97.171 L
319.519 96.733 L
320.346 96.296 L
321.172 95.861 L
321.999 95.426 L
322.825 94.991 L
323.651 94.558 L
324.478 94.126 L
325.304 93.694 L
326.131 93.263 L
326.957 92.833 L
327.784 92.404 L
328.61 91.976 L
329.437 91.549 L
330.263 91.123 L
331.089 90.697 L
331.916 90.273 L
332.742 89.849 L
333.569 89.426 L
334.395 89.005 L
335.222 88.584 L
336.048 88.164 L
336.874 87.745 L
337.701 87.327 L
338.527 86.91 L
339.354 86.494 L
340.18 86.079 L
341.007 85.665 L
341.833 85.252 L
342.659 84.84 L
343.486 84.429 L
344.312 84.019 L
345.139 83.61 L
345.965 83.202 L
346.792 82.795 L
347.618 82.389 L
348.445 81.984 L
349.271 81.58 L
350.097 81.177 L
350.924 80.775 L
351.75 80.375 L
352.577 79.975 L
353.403 79.577 L
354.23 79.179 L
355.056 78.783 L
355.882 78.388 L
356.709 77.994 L
357.535 77.601 L
358.362 77.209 L
359.188 76.818 L
360.015 76.429 L
360.841 76.04 L
361.667 75.653 L
362.494 75.267 L
363.32 74.882 L
364.147 74.498 L
364.973 74.115 L
365.8 73.734 L
366.626 73.354 L
367.453 72.975 L
368.279 72.597 L
369.105 72.22 L
369.932 71.844 L
370.758 71.47 L
371.585 71.097 L
372.411 70.726 L
373.238 70.355 L
374.064 69.986 L
374.89 69.618 L
375.717 69.251 L
376.543 68.886 L
377.37 68.521 L
378.196 68.158 L
379.023 67.797 L
379.849 67.436 L
380.676 67.077 L
381.502 66.72 L
382.328 66.363 L
383.155 66.008 L
383.981 65.654 L
384.808 65.302 L
385.634 64.951 L
386.461 64.601 L
387.287 64.253 L
388.113 63.906 L
388.94 63.56 L
389.766 63.216 L
390.593 62.873 L
391.419 62.531 L
392.246 62.191 L
393.072 61.852 L
393.898 61.515 L
394.725 61.179 L
395.551 60.845 L
396.378 60.512 L
397.204 60.18 L
398.031 59.85 L
398.857 59.521 L
399.684 59.194 L
400.51 58.868 L
401.336 58.543 L
402.163 58.221 L
402.989 57.899 L
403.816 57.579 L
404.642 57.261 L
405.469 56.944 L
406.295 56.628 L
407.121 56.314 L
407.948 56.002 L
408.774 55.691 L
409.601 55.382 L
410.427 55.074 L
411.254 54.768 L
412.08 54.463 L
412.906 54.16 L
413.733 53.858 L
414.559 53.558 L
415.386 53.26 L
416.212 52.963 L
417.039 52.668 L
417.865 52.374 L
418.692 52.082 L
419.518 51.791 L
420.344 51.503 L
421.171 51.215 L
421.997 50.93 L
422.824 50.646 L
423.65 50.363 L
424.477 50.083 L
425.303 49.804 L
426.129 49.526 L
426.956 49.251 L
427.782 48.977 L
428.609 48.704 L
429.435 48.434 L
430.262 48.165 L
431.088 47.898 L
431.914 47.632 L
432.741 47.368 L
433.567 47.106 L
434.394 46.846 L
435.22 46.587 L
436.047 46.331 L
436.873 46.075 L
437.7 45.822 L
438.526 45.571 L
439.352 45.321 L
440.179 45.073 L
441.005 44.826 L
441.832 44.582 L
442.658 44.339 L
443.485 44.098 L
444.311 43.859 L
445.137 43.622 L
445.964 43.387 L
446.79 43.153 L
447.617 42.921 L
448.443 42.691 L
449.27 42.463 L
450.096 42.237 L
450.922 42.013 L
451.749 41.79 L
452.575 41.569 L
453.402 41.351 L
454.228 41.134 L
455.055 40.919 L
455.881 40.706 L
456.708 40.495 L
457.534 40.285 L
458.36 40.078 L
459.187 39.873 L
460.013 39.669 L
460.84 39.468 L
461.666 39.268 L
462.493 39.071 L
463.319 38.875 L
464.145 38.681 L
464.972 38.49 L
465.798 38.3 L
466.625 38.112 L
467.451 37.926 L
468.278 37.743 L
469.104 37.561 L
469.931 37.381 L
470.757 37.203 L
471.583 37.028 L
472.41 36.854 L
473.236 36.682 L
474.063 36.513 L
474.889 36.345 L
475.716 36.18 L
476.542 36.016 L
477.368 35.855 L
478.195 35.696 L
479.021 35.539 L
479.848 35.384 L
480.674 35.231 L
481.501 35.08 L
482.327 34.931 L
483.153 34.784 L
483.98 34.64 L
484.806 34.498 L
485.633 34.357 L
486.459 34.219 L
487.286 34.083 L
488.112 33.949 L
488.939 33.818 L
489.765 33.688 L
490.591 33.561 L
491.418 33.436 L
492.244 33.313 L
493.071 33.192 L
493.897 33.074 L
494.724 32.958 L
495.55 32.844 L
496.376 32.732 L
497.203 32.622 L
S
GR
GS
0.302 0.745 0.933 RC
[10 6] 0 setdash
2 LJ
0.5 LW
N
73.006 373.829 M
73.833 371.039 L
74.659 368.26 L
75.486 365.493 L
76.312 362.739 L
77.139 360 L
77.965 357.278 L
78.791 354.575 L
79.618 351.892 L
80.444 349.231 L
81.271 346.594 L
82.097 343.983 L
82.924 341.4 L
83.75 338.846 L
84.577 336.322 L
85.403 333.831 L
86.229 331.375 L
87.056 328.955 L
87.882 326.573 L
88.709 324.231 L
89.535 321.93 L
90.362 319.672 L
91.188 317.459 L
92.014 315.293 L
92.841 313.175 L
93.667 311.108 L
94.494 309.092 L
95.32 307.131 L
96.147 305.224 L
96.973 303.367 L
97.799 301.53 L
98.626 299.708 L
99.452 297.901 L
100.279 296.111 L
101.105 294.337 L
101.932 292.578 L
102.758 290.835 L
103.585 289.108 L
104.411 287.397 L
105.237 285.702 L
106.064 284.023 L
106.89 282.359 L
107.717 280.712 L
108.543 279.08 L
109.37 277.464 L
110.196 275.864 L
111.022 274.28 L
111.849 272.712 L
112.675 271.16 L
113.502 269.623 L
114.328 268.103 L
115.155 266.598 L
115.981 265.11 L
116.807 263.637 L
117.634 262.18 L
118.46 260.739 L
119.287 259.314 L
120.113 257.905 L
120.94 256.512 L
121.766 255.135 L
122.593 253.774 L
123.419 252.428 L
124.245 251.099 L
125.072 249.786 L
125.898 248.488 L
126.725 247.207 L
127.551 245.941 L
128.378 244.692 L
129.204 243.458 L
130.03 242.24 L
130.857 241.039 L
131.683 239.853 L
132.51 238.683 L
133.336 237.529 L
134.163 236.392 L
134.989 235.27 L
135.816 234.164 L
136.642 233.074 L
137.468 232.001 L
138.295 230.943 L
139.121 229.901 L
139.948 228.875 L
140.774 227.864 L
141.601 226.861 L
142.427 225.865 L
143.253 224.875 L
144.08 223.892 L
144.906 222.915 L
145.733 221.945 L
146.559 220.981 L
147.386 220.024 L
148.212 219.074 L
149.038 218.13 L
149.865 217.192 L
150.691 216.26 L
151.518 215.335 L
152.344 214.416 L
153.171 213.503 L
153.997 212.597 L
154.824 211.696 L
155.65 210.802 L
156.476 209.914 L
157.303 209.031 L
158.129 208.155 L
158.956 207.284 L
159.782 206.42 L
160.609 205.561 L
161.435 204.708 L
162.261 203.861 L
163.088 203.02 L
163.914 202.184 L
164.741 201.354 L
165.567 200.53 L
166.394 199.711 L
167.22 198.897 L
168.046 198.09 L
168.873 197.287 L
169.699 196.49 L
170.526 195.699 L
171.352 194.912 L
172.179 194.131 L
173.005 193.355 L
173.832 192.585 L
174.658 191.82 L
175.484 191.059 L
176.311 190.304 L
177.137 189.554 L
177.964 188.809 L
178.79 188.069 L
179.617 187.334 L
180.443 186.604 L
181.269 185.879 L
182.096 185.158 L
182.922 184.442 L
183.749 183.731 L
184.575 183.025 L
185.402 182.323 L
186.228 181.626 L
187.054 180.934 L
187.881 180.246 L
188.707 179.563 L
189.534 178.884 L
190.36 178.209 L
191.187 177.539 L
192.013 176.873 L
192.84 176.212 L
193.666 175.555 L
194.492 174.902 L
195.319 174.253 L
196.145 173.608 L
196.972 172.968 L
197.798 172.331 L
198.625 171.699 L
199.451 171.07 L
200.277 170.446 L
201.104 169.825 L
201.93 169.209 L
202.757 168.596 L
203.583 167.987 L
204.41 167.382 L
205.236 166.78 L
206.063 166.182 L
206.889 165.588 L
207.715 164.997 L
208.542 164.41 L
209.368 163.826 L
210.195 163.246 L
211.021 162.669 L
211.848 162.096 L
212.674 161.526 L
213.5 160.96 L
214.327 160.396 L
215.153 159.836 L
215.98 159.279 L
216.806 158.725 L
217.633 158.175 L
218.459 157.627 L
219.285 157.083 L
220.112 156.541 L
220.938 156.002 L
221.765 155.464 L
222.591 154.927 L
223.418 154.39 L
224.244 153.853 L
225.071 153.316 L
225.897 152.779 L
226.723 152.243 L
227.55 151.708 L
228.376 151.172 L
229.203 150.638 L
230.029 150.103 L
230.856 149.569 L
231.682 149.035 L
232.508 148.502 L
233.335 147.969 L
234.161 147.436 L
234.988 146.904 L
235.814 146.373 L
236.641 145.842 L
237.467 145.311 L
238.293 144.781 L
239.12 144.251 L
239.946 143.722 L
240.773 143.193 L
241.599 142.665 L
242.426 142.137 L
243.252 141.61 L
244.079 141.084 L
244.905 140.558 L
245.731 140.032 L
246.558 139.507 L
247.384 138.983 L
248.211 138.459 L
249.037 137.936 L
249.864 137.414 L
250.69 136.892 L
251.516 136.371 L
252.343 135.85 L
253.169 135.33 L
253.996 134.811 L
254.822 134.292 L
255.649 133.774 L
256.475 133.257 L
257.301 132.74 L
258.128 132.225 L
258.954 131.71 L
259.781 131.195 L
260.607 130.682 L
261.434 130.169 L
262.26 129.656 L
263.087 129.145 L
263.913 128.634 L
264.739 128.125 L
265.566 127.616 L
266.392 127.107 L
267.219 126.6 L
268.045 126.093 L
268.872 125.588 L
269.698 125.083 L
270.524 124.579 L
271.351 124.076 L
272.177 123.573 L
273.004 123.072 L
273.83 122.571 L
274.657 122.072 L
275.483 121.573 L
276.31 121.075 L
277.136 120.578 L
277.962 120.082 L
278.789 119.587 L
279.615 119.093 L
280.442 118.6 L
281.268 118.108 L
282.095 117.617 L
282.921 117.127 L
283.747 116.638 L
284.574 116.149 L
285.4 115.662 L
286.227 115.176 L
287.053 114.691 L
287.88 114.207 L
288.706 113.724 L
289.532 113.243 L
290.359 112.762 L
291.185 112.282 L
292.012 111.804 L
292.838 111.326 L
293.665 110.85 L
294.491 110.375 L
295.318 109.901 L
296.144 109.428 L
296.97 108.956 L
297.797 108.486 L
298.623 108.016 L
299.45 107.548 L
300.276 107.081 L
301.103 106.615 L
301.929 106.151 L
302.755 105.687 L
303.582 105.225 L
304.408 104.764 L
305.235 104.305 L
306.061 103.846 L
306.888 103.389 L
307.714 102.933 L
308.54 102.479 L
309.367 102.026 L
310.193 101.574 L
311.02 101.123 L
311.846 100.674 L
312.673 100.226 L
313.499 99.78 L
314.326 99.335 L
315.152 98.891 L
315.978 98.448 L
316.805 98.007 L
317.631 97.568 L
318.458 97.129 L
319.284 96.693 L
320.111 96.257 L
320.937 95.823 L
321.763 95.391 L
322.59 94.96 L
323.416 94.53 L
324.243 94.102 L
325.069 93.675 L
325.896 93.25 L
326.722 92.826 L
327.548 92.404 L
328.375 91.984 L
329.201 91.565 L
330.028 91.147 L
330.854 90.731 L
331.681 90.317 L
332.507 89.904 L
333.334 89.493 L
334.16 89.083 L
334.986 88.675 L
335.813 88.269 L
336.639 87.864 L
337.466 87.46 L
338.292 87.059 L
339.119 86.659 L
339.945 86.261 L
340.771 85.864 L
341.598 85.469 L
342.424 85.076 L
343.251 84.684 L
344.077 84.295 L
344.904 83.906 L
345.73 83.52 L
346.556 83.135 L
347.383 82.752 L
348.209 82.371 L
349.036 81.992 L
349.862 81.614 L
350.689 81.238 L
351.515 80.864 L
352.342 80.492 L
353.168 80.122 L
353.994 79.753 L
354.821 79.386 L
355.647 79.021 L
356.474 78.658 L
357.3 78.297 L
358.127 77.937 L
358.953 77.58 L
359.779 77.224 L
360.606 76.871 L
361.432 76.519 L
362.259 76.169 L
363.085 75.821 L
363.912 75.475 L
364.738 75.131 L
365.565 74.788 L
366.391 74.448 L
367.217 74.11 L
368.044 73.774 L
368.87 73.44 L
369.697 73.107 L
370.523 72.777 L
371.35 72.449 L
372.176 72.123 L
373.002 71.799 L
373.829 71.477 L
374.655 71.157 L
375.482 70.839 L
376.308 70.523 L
377.135 70.209 L
377.961 69.897 L
378.787 69.588 L
379.614 69.28 L
380.44 68.975 L
381.267 68.672 L
382.093 68.371 L
382.92 68.072 L
383.746 67.775 L
384.573 67.48 L
385.399 67.188 L
386.225 66.898 L
387.052 66.61 L
387.878 66.324 L
388.705 66.041 L
389.531 65.759 L
390.358 65.48 L
391.184 65.203 L
392.01 64.929 L
392.837 64.657 L
393.663 64.386 L
394.49 64.119 L
395.316 63.853 L
396.143 63.59 L
396.969 63.329 L
397.796 63.071 L
398.622 62.815 L
399.448 62.561 L
400.275 62.31 L
401.101 62.061 L
401.928 61.814 L
402.754 61.57 L
403.581 61.328 L
404.407 61.088 L
405.233 60.851 L
406.06 60.616 L
406.886 60.384 L
407.713 60.154 L
408.539 59.927 L
409.366 59.702 L
410.192 59.48 L
411.018 59.26 L
411.845 59.043 L
412.671 58.828 L
413.498 58.615 L
414.324 58.405 L
415.151 58.198 L
415.977 57.993 L
416.803 57.791 L
417.63 57.591 L
418.456 57.394 L
419.283 57.199 L
420.109 57.007 L
420.936 56.818 L
421.762 56.631 L
422.589 56.447 L
423.415 56.265 L
424.241 56.086 L
425.068 55.91 L
425.894 55.737 L
426.721 55.566 L
427.547 55.397 L
428.374 55.232 L
429.2 55.069 L
430.026 54.909 L
430.853 54.751 L
431.679 54.596 L
432.506 54.444 L
433.332 54.295 L
434.159 54.148 L
434.985 54.005 L
435.812 53.864 L
436.638 53.725 L
S
GR
GS
0.635 0.078 0.184 RC
[10 6] 0 setdash
2 LJ
0.5 LW
N
75.759 362.187 M
76.586 359.549 L
77.412 356.918 L
78.239 354.296 L
79.065 351.686 L
79.892 349.088 L
80.718 346.504 L
81.545 343.937 L
82.371 341.386 L
83.197 338.855 L
84.024 336.345 L
84.85 333.856 L
85.677 331.392 L
86.503 328.954 L
87.33 326.543 L
88.156 324.16 L
88.982 321.809 L
89.809 319.489 L
90.635 317.203 L
91.462 314.953 L
92.288 312.74 L
93.115 310.565 L
93.941 308.431 L
94.767 306.339 L
95.594 304.29 L
96.42 302.286 L
97.247 300.33 L
98.073 298.422 L
98.9 296.564 L
99.726 294.757 L
100.553 293.004 L
101.379 291.295 L
102.205 289.602 L
103.032 287.923 L
103.858 286.26 L
104.685 284.612 L
105.511 282.979 L
106.338 281.36 L
107.164 279.756 L
107.99 278.167 L
108.817 276.592 L
109.643 275.032 L
110.47 273.487 L
111.296 271.956 L
112.123 270.439 L
112.949 268.937 L
113.775 267.449 L
114.602 265.976 L
115.428 264.516 L
116.255 263.071 L
117.081 261.64 L
117.908 260.222 L
118.734 258.819 L
119.561 257.43 L
120.387 256.054 L
121.213 254.693 L
122.04 253.345 L
122.866 252.011 L
123.693 250.69 L
124.519 249.383 L
125.346 248.09 L
126.172 246.81 L
126.998 245.544 L
127.825 244.291 L
128.651 243.051 L
129.478 241.824 L
130.304 240.611 L
131.131 239.411 L
131.957 238.224 L
132.784 237.05 L
133.61 235.889 L
134.436 234.741 L
135.263 233.606 L
136.089 232.483 L
136.916 231.374 L
137.742 230.277 L
138.569 229.192 L
139.395 228.121 L
140.221 227.062 L
141.048 226.015 L
141.874 224.981 L
142.701 223.959 L
143.527 222.95 L
144.354 221.953 L
145.18 220.968 L
146.006 219.995 L
146.833 219.034 L
147.659 218.086 L
148.486 217.149 L
149.312 216.224 L
150.139 215.308 L
150.965 214.397 L
151.792 213.492 L
152.618 212.592 L
153.444 211.697 L
154.271 210.807 L
155.097 209.922 L
155.924 209.043 L
156.75 208.168 L
157.577 207.299 L
158.403 206.435 L
159.229 205.576 L
160.056 204.722 L
160.882 203.873 L
161.709 203.029 L
162.535 202.19 L
163.362 201.356 L
164.188 200.527 L
165.014 199.703 L
165.841 198.883 L
166.667 198.068 L
167.494 197.259 L
168.32 196.453 L
169.147 195.653 L
169.973 194.857 L
170.8 194.066 L
171.626 193.28 L
172.452 192.498 L
173.279 191.721 L
174.105 190.949 L
174.932 190.181 L
175.758 189.417 L
176.585 188.658 L
177.411 187.904 L
178.237 187.154 L
179.064 186.408 L
179.89 185.667 L
180.717 184.93 L
181.543 184.197 L
182.37 183.469 L
183.196 182.745 L
184.022 182.025 L
184.849 181.309 L
185.675 180.598 L
186.502 179.891 L
187.328 179.188 L
188.155 178.489 L
188.981 177.794 L
189.808 177.103 L
190.634 176.416 L
191.46 175.733 L
192.287 175.054 L
193.113 174.379 L
193.94 173.708 L
194.766 173.041 L
195.593 172.378 L
196.419 171.719 L
197.245 171.063 L
198.072 170.411 L
198.898 169.763 L
199.725 169.119 L
200.551 168.478 L
201.378 167.841 L
202.204 167.208 L
203.031 166.578 L
203.857 165.952 L
204.683 165.329 L
205.51 164.71 L
206.336 164.095 L
207.163 163.483 L
207.989 162.874 L
208.816 162.269 L
209.642 161.667 L
210.468 161.069 L
211.295 160.474 L
212.121 159.882 L
212.948 159.293 L
213.774 158.708 L
214.601 158.126 L
215.427 157.548 L
216.253 156.972 L
217.08 156.4 L
217.906 155.83 L
218.733 155.264 L
219.559 154.701 L
220.386 154.141 L
221.212 153.584 L
222.038 153.03 L
222.865 152.479 L
223.691 151.93 L
224.518 151.385 L
225.344 150.843 L
226.171 150.303 L
226.997 149.766 L
227.824 149.232 L
228.65 148.701 L
229.476 148.173 L
230.303 147.647 L
231.129 147.124 L
231.956 146.604 L
232.782 146.086 L
233.609 145.571 L
234.435 145.058 L
235.261 144.548 L
236.088 144.041 L
236.914 143.536 L
237.741 143.033 L
238.567 142.533 L
239.394 142.036 L
240.22 141.541 L
241.047 141.048 L
241.873 140.557 L
242.699 140.068 L
243.526 139.58 L
244.352 139.092 L
245.179 138.604 L
246.005 138.116 L
246.832 137.629 L
247.658 137.142 L
248.484 136.655 L
249.311 136.169 L
250.137 135.682 L
250.964 135.196 L
251.79 134.711 L
252.617 134.225 L
253.443 133.74 L
254.269 133.256 L
255.096 132.771 L
255.922 132.287 L
256.749 131.804 L
257.575 131.32 L
258.402 130.837 L
259.228 130.355 L
260.055 129.872 L
260.881 129.39 L
261.707 128.909 L
262.534 128.428 L
263.36 127.947 L
264.187 127.467 L
265.013 126.987 L
265.84 126.507 L
266.666 126.028 L
267.492 125.549 L
268.319 125.071 L
269.145 124.594 L
269.972 124.116 L
270.798 123.639 L
271.625 123.163 L
272.451 122.687 L
273.277 122.211 L
274.104 121.736 L
274.93 121.262 L
275.757 120.788 L
276.583 120.314 L
277.41 119.841 L
278.236 119.369 L
279.063 118.897 L
279.889 118.426 L
280.715 117.955 L
281.542 117.484 L
282.368 117.015 L
283.195 116.545 L
284.021 116.077 L
284.848 115.609 L
285.674 115.141 L
286.5 114.674 L
287.327 114.208 L
288.153 113.742 L
288.98 113.277 L
289.806 112.812 L
290.633 112.348 L
291.459 111.885 L
292.285 111.422 L
293.112 110.96 L
293.938 110.499 L
294.765 110.038 L
295.591 109.578 L
296.418 109.119 L
297.244 108.66 L
298.071 108.202 L
298.897 107.744 L
299.723 107.288 L
300.55 106.832 L
301.376 106.376 L
302.203 105.922 L
303.029 105.468 L
303.856 105.015 L
304.682 104.562 L
305.508 104.111 L
306.335 103.66 L
307.161 103.209 L
307.988 102.76 L
308.814 102.311 L
309.641 101.863 L
310.467 101.416 L
311.294 100.97 L
312.12 100.524 L
312.946 100.08 L
313.773 99.636 L
314.599 99.192 L
315.426 98.75 L
316.252 98.309 L
317.079 97.868 L
317.905 97.428 L
318.731 96.989 L
319.558 96.551 L
320.384 96.114 L
321.211 95.677 L
322.037 95.242 L
322.864 94.807 L
323.69 94.373 L
324.516 93.94 L
325.343 93.508 L
326.169 93.077 L
326.996 92.647 L
327.822 92.218 L
328.649 91.79 L
329.475 91.362 L
330.302 90.936 L
331.128 90.51 L
331.954 90.086 L
332.781 89.662 L
333.607 89.239 L
334.434 88.818 L
335.26 88.397 L
336.087 87.977 L
336.913 87.559 L
337.739 87.141 L
338.566 86.724 L
339.392 86.308 L
340.219 85.894 L
341.045 85.48 L
341.872 85.068 L
342.698 84.656 L
343.524 84.245 L
344.351 83.836 L
345.177 83.427 L
346.004 83.02 L
346.83 82.614 L
347.657 82.209 L
348.483 81.804 L
349.31 81.401 L
350.136 80.999 L
350.962 80.599 L
351.789 80.199 L
352.615 79.8 L
353.442 79.403 L
354.268 79.007 L
355.095 78.611 L
355.921 78.217 L
356.747 77.824 L
357.574 77.433 L
358.4 77.042 L
359.227 76.653 L
360.053 76.264 L
360.88 75.877 L
361.706 75.492 L
362.533 75.107 L
363.359 74.723 L
364.185 74.341 L
365.012 73.96 L
365.838 73.58 L
366.665 73.202 L
367.491 72.825 L
368.318 72.448 L
369.144 72.074 L
369.97 71.7 L
370.797 71.328 L
371.623 70.957 L
372.45 70.587 L
373.276 70.219 L
374.103 69.852 L
374.929 69.486 L
375.755 69.121 L
376.582 68.758 L
377.408 68.396 L
378.235 68.035 L
379.061 67.676 L
379.888 67.318 L
380.714 66.962 L
381.54 66.607 L
382.367 66.253 L
383.193 65.9 L
384.02 65.549 L
384.846 65.199 L
385.673 64.851 L
386.499 64.504 L
387.326 64.159 L
388.152 63.814 L
388.978 63.472 L
389.805 63.13 L
390.631 62.791 L
391.458 62.452 L
392.284 62.115 L
393.111 61.78 L
393.937 61.446 L
394.763 61.113 L
395.59 60.782 L
396.416 60.452 L
397.243 60.124 L
398.069 59.797 L
398.896 59.472 L
399.722 59.148 L
400.549 58.826 L
401.375 58.505 L
402.201 58.186 L
403.028 57.869 L
403.854 57.552 L
404.681 57.238 L
405.507 56.925 L
406.334 56.613 L
407.16 56.303 L
407.986 55.995 L
408.813 55.688 L
409.639 55.383 L
410.466 55.08 L
411.292 54.778 L
412.119 54.477 L
412.945 54.178 L
413.771 53.881 L
414.598 53.586 L
415.424 53.292 L
416.251 52.999 L
417.077 52.709 L
417.904 52.42 L
418.73 52.132 L
419.557 51.847 L
420.383 51.563 L
421.209 51.28 L
422.036 51 L
422.862 50.721 L
423.689 50.444 L
424.515 50.168 L
425.342 49.894 L
426.168 49.622 L
426.994 49.352 L
427.821 49.083 L
428.647 48.816 L
429.474 48.551 L
430.3 48.287 L
431.127 48.026 L
431.953 47.766 L
432.78 47.507 L
433.606 47.251 L
434.432 46.996 L
435.259 46.744 L
436.085 46.493 L
436.912 46.243 L
437.738 45.996 L
438.565 45.75 L
439.391 45.507 L
440.217 45.265 L
441.044 45.025 L
441.87 44.786 L
442.697 44.55 L
443.523 44.315 L
444.35 44.083 L
445.176 43.852 L
446.002 43.623 L
446.829 43.396 L
447.655 43.171 L
448.482 42.947 L
449.308 42.726 L
450.135 42.507 L
450.961 42.289 L
451.788 42.073 L
452.614 41.86 L
453.44 41.648 L
454.267 41.438 L
455.093 41.23 L
455.92 41.024 L
456.746 40.82 L
457.573 40.619 L
458.399 40.419 L
459.225 40.221 L
460.052 40.025 L
460.878 39.831 L
461.705 39.639 L
462.531 39.449 L
463.358 39.261 L
464.184 39.075 L
465.01 38.891 L
465.837 38.709 L
466.663 38.529 L
467.49 38.351 L
468.316 38.175 L
469.143 38.002 L
469.969 37.83 L
470.796 37.661 L
471.622 37.493 L
472.448 37.328 L
473.275 37.165 L
474.101 37.003 L
474.928 36.844 L
475.754 36.687 L
476.581 36.533 L
477.407 36.38 L
478.233 36.23 L
479.06 36.081 L
479.886 35.935 L
480.713 35.791 L
481.539 35.649 L
482.366 35.509 L
483.192 35.372 L
484.018 35.236 L
484.845 35.103 L
485.671 34.972 L
486.498 34.843 L
487.324 34.717 L
S
GR
GS
0 0.447 0.741 RC
[10 6] 0 setdash
2 LJ
0.5 LW
N
77.13 359.426 M
77.957 356.887 L
78.783 354.356 L
79.61 351.833 L
80.436 349.321 L
81.263 346.82 L
82.089 344.332 L
82.916 341.859 L
83.742 339.402 L
84.568 336.963 L
85.395 334.543 L
86.221 332.142 L
87.048 329.764 L
87.874 327.409 L
88.701 325.079 L
89.527 322.775 L
90.353 320.499 L
91.18 318.252 L
92.006 316.036 L
92.833 313.851 L
93.659 311.7 L
94.486 309.584 L
95.312 307.505 L
96.138 305.463 L
96.965 303.461 L
97.791 301.499 L
98.618 299.58 L
99.444 297.704 L
100.271 295.874 L
101.097 294.09 L
101.924 292.354 L
102.75 290.667 L
103.576 289.012 L
104.403 287.369 L
105.229 285.741 L
106.056 284.127 L
106.882 282.526 L
107.709 280.939 L
108.535 279.365 L
109.361 277.806 L
110.188 276.259 L
111.014 274.727 L
111.841 273.208 L
112.667 271.702 L
113.494 270.209 L
114.32 268.731 L
115.146 267.265 L
115.973 265.813 L
116.799 264.374 L
117.626 262.948 L
118.452 261.535 L
119.279 260.136 L
120.105 258.75 L
120.932 257.376 L
121.758 256.016 L
122.584 254.669 L
123.411 253.335 L
124.237 252.014 L
125.064 250.705 L
125.89 249.41 L
126.717 248.127 L
127.543 246.857 L
128.369 245.6 L
129.196 244.356 L
130.022 243.124 L
130.849 241.905 L
131.675 240.698 L
132.502 239.504 L
133.328 238.323 L
134.154 237.154 L
134.981 235.997 L
135.807 234.853 L
136.634 233.721 L
137.46 232.602 L
138.287 231.494 L
139.113 230.399 L
139.94 229.317 L
140.766 228.246 L
141.592 227.188 L
142.419 226.141 L
143.245 225.107 L
144.072 224.085 L
144.898 223.074 L
145.725 222.076 L
146.551 221.09 L
147.377 220.115 L
148.204 219.152 L
149.03 218.201 L
149.857 217.262 L
150.683 216.335 L
151.51 215.419 L
152.336 214.515 L
153.163 213.618 L
153.989 212.727 L
154.815 211.842 L
155.642 210.961 L
156.468 210.085 L
157.295 209.214 L
158.121 208.349 L
158.948 207.488 L
159.774 206.632 L
160.6 205.781 L
161.427 204.936 L
162.253 204.095 L
163.08 203.259 L
163.906 202.427 L
164.733 201.601 L
165.559 200.779 L
166.385 199.962 L
167.212 199.15 L
168.038 198.343 L
168.865 197.54 L
169.691 196.742 L
170.518 195.948 L
171.344 195.159 L
172.171 194.375 L
172.997 193.595 L
173.823 192.82 L
174.65 192.049 L
175.476 191.283 L
176.303 190.521 L
177.129 189.763 L
177.956 189.01 L
178.782 188.261 L
179.608 187.517 L
180.435 186.777 L
181.261 186.041 L
182.088 185.309 L
182.914 184.582 L
183.741 183.859 L
184.567 183.14 L
185.393 182.425 L
186.22 181.714 L
187.046 181.007 L
187.873 180.305 L
188.699 179.606 L
189.526 178.912 L
190.352 178.221 L
191.179 177.534 L
192.005 176.852 L
192.831 176.173 L
193.658 175.498 L
194.484 174.827 L
195.311 174.16 L
196.137 173.496 L
196.964 172.836 L
197.79 172.18 L
198.616 171.528 L
199.443 170.88 L
200.269 170.235 L
201.096 169.594 L
201.922 168.956 L
202.749 168.322 L
203.575 167.691 L
204.401 167.064 L
205.228 166.441 L
206.054 165.821 L
206.881 165.205 L
207.707 164.591 L
208.534 163.982 L
209.36 163.375 L
210.187 162.772 L
211.013 162.173 L
211.839 161.576 L
212.666 160.983 L
213.492 160.393 L
214.319 159.806 L
215.145 159.223 L
215.972 158.643 L
216.798 158.065 L
217.624 157.491 L
218.451 156.92 L
219.277 156.352 L
220.104 155.787 L
220.93 155.225 L
221.757 154.666 L
222.583 154.11 L
223.41 153.557 L
224.236 153.007 L
225.062 152.459 L
225.889 151.915 L
226.715 151.373 L
227.542 150.834 L
228.368 150.298 L
229.195 149.764 L
230.021 149.234 L
230.847 148.705 L
231.674 148.18 L
232.5 147.657 L
233.327 147.137 L
234.153 146.619 L
234.98 146.104 L
235.806 145.591 L
236.632 145.081 L
237.459 144.574 L
238.285 144.068 L
239.112 143.566 L
239.938 143.065 L
240.765 142.567 L
241.591 142.071 L
242.418 141.578 L
243.244 141.087 L
244.07 140.598 L
244.897 140.111 L
245.723 139.627 L
246.55 139.144 L
247.376 138.663 L
248.203 138.182 L
249.029 137.701 L
249.855 137.22 L
250.682 136.74 L
251.508 136.26 L
252.335 135.78 L
253.161 135.301 L
253.988 134.822 L
254.814 134.343 L
255.64 133.864 L
256.467 133.386 L
257.293 132.908 L
258.12 132.43 L
258.946 131.953 L
259.773 131.476 L
260.599 130.999 L
261.426 130.522 L
262.252 130.046 L
263.078 129.571 L
263.905 129.095 L
264.731 128.621 L
265.558 128.146 L
266.384 127.672 L
267.211 127.198 L
268.037 126.725 L
268.863 126.252 L
269.69 125.779 L
270.516 125.307 L
271.343 124.835 L
272.169 124.364 L
272.996 123.893 L
273.822 123.422 L
274.648 122.952 L
275.475 122.483 L
276.301 122.014 L
277.128 121.545 L
277.954 121.077 L
278.781 120.609 L
279.607 120.142 L
280.434 119.675 L
281.26 119.209 L
282.086 118.743 L
282.913 118.278 L
283.739 117.813 L
284.566 117.349 L
285.392 116.885 L
286.219 116.422 L
287.045 115.959 L
287.871 115.497 L
288.698 115.035 L
289.524 114.575 L
290.351 114.114 L
291.177 113.654 L
292.004 113.195 L
292.83 112.736 L
293.656 112.278 L
294.483 111.821 L
295.309 111.364 L
296.136 110.908 L
296.962 110.452 L
297.789 109.997 L
298.615 109.542 L
299.442 109.089 L
300.268 108.635 L
301.094 108.183 L
301.921 107.731 L
302.747 107.28 L
303.574 106.829 L
304.4 106.379 L
305.227 105.93 L
306.053 105.482 L
306.879 105.034 L
307.706 104.587 L
308.532 104.141 L
309.359 103.695 L
310.185 103.25 L
311.012 102.806 L
311.838 102.362 L
312.665 101.919 L
313.491 101.477 L
314.317 101.036 L
315.144 100.595 L
315.97 100.156 L
316.797 99.717 L
317.623 99.278 L
318.45 98.841 L
319.276 98.404 L
320.102 97.968 L
320.929 97.533 L
321.755 97.099 L
322.582 96.666 L
323.408 96.233 L
324.235 95.801 L
325.061 95.37 L
325.887 94.94 L
326.714 94.511 L
327.54 94.082 L
328.367 93.655 L
329.193 93.228 L
330.02 92.802 L
330.846 92.377 L
331.673 91.953 L
332.499 91.53 L
333.325 91.107 L
334.152 90.686 L
334.978 90.265 L
335.805 89.846 L
336.631 89.427 L
337.458 89.009 L
338.284 88.592 L
339.11 88.176 L
339.937 87.762 L
340.763 87.347 L
341.59 86.934 L
342.416 86.522 L
343.243 86.111 L
344.069 85.701 L
344.895 85.292 L
345.722 84.884 L
346.548 84.477 L
347.375 84.07 L
348.201 83.665 L
349.028 83.261 L
349.854 82.858 L
350.681 82.456 L
351.507 82.055 L
352.333 81.655 L
353.16 81.256 L
353.986 80.858 L
354.813 80.461 L
355.639 80.065 L
356.466 79.671 L
357.292 79.277 L
358.118 78.884 L
358.945 78.493 L
359.771 78.103 L
360.598 77.713 L
361.424 77.325 L
362.251 76.938 L
363.077 76.552 L
363.904 76.167 L
364.73 75.784 L
365.556 75.401 L
366.383 75.02 L
367.209 74.64 L
368.036 74.261 L
368.862 73.883 L
369.689 73.506 L
370.515 73.13 L
371.341 72.756 L
372.168 72.383 L
372.994 72.011 L
373.821 71.64 L
374.647 71.271 L
375.474 70.902 L
376.3 70.535 L
377.126 70.169 L
377.953 69.805 L
378.779 69.441 L
379.606 69.079 L
380.432 68.718 L
381.259 68.359 L
382.085 68 L
382.911 67.643 L
383.738 67.288 L
384.564 66.933 L
385.391 66.58 L
386.217 66.228 L
387.044 65.877 L
387.87 65.528 L
388.697 65.18 L
389.523 64.834 L
390.349 64.488 L
391.176 64.144 L
392.002 63.802 L
392.829 63.46 L
393.655 63.12 L
394.482 62.782 L
395.308 62.445 L
396.134 62.109 L
396.961 61.774 L
397.787 61.441 L
398.614 61.11 L
399.44 60.78 L
400.267 60.451 L
401.093 60.123 L
401.92 59.797 L
402.746 59.473 L
403.572 59.15 L
404.399 58.828 L
405.225 58.508 L
406.052 58.189 L
406.878 57.872 L
407.705 57.556 L
408.531 57.241 L
409.357 56.929 L
410.184 56.617 L
411.01 56.307 L
411.837 55.999 L
412.663 55.692 L
413.49 55.386 L
414.316 55.082 L
415.142 54.78 L
415.969 54.479 L
416.795 54.18 L
417.622 53.882 L
418.448 53.586 L
419.275 53.291 L
420.101 52.998 L
420.928 52.707 L
421.754 52.417 L
422.58 52.128 L
423.407 51.841 L
424.233 51.556 L
425.06 51.273 L
425.886 50.99 L
426.713 50.71 L
427.539 50.431 L
428.365 50.154 L
429.192 49.879 L
430.018 49.605 L
430.845 49.332 L
431.671 49.062 L
432.498 48.793 L
433.324 48.526 L
434.151 48.26 L
434.977 47.996 L
435.803 47.734 L
436.63 47.473 L
437.456 47.214 L
438.283 46.957 L
439.109 46.702 L
439.936 46.448 L
440.762 46.196 L
441.588 45.946 L
442.415 45.697 L
443.241 45.45 L
444.068 45.205 L
444.894 44.962 L
445.721 44.72 L
446.547 44.481 L
447.373 44.242 L
448.2 44.006 L
449.026 43.772 L
449.853 43.539 L
450.679 43.308 L
451.506 43.079 L
452.332 42.852 L
453.159 42.626 L
453.985 42.403 L
454.811 42.181 L
455.638 41.961 L
456.464 41.743 L
457.291 41.526 L
458.117 41.312 L
458.944 41.099 L
459.77 40.889 L
460.596 40.68 L
461.423 40.473 L
462.249 40.268 L
463.076 40.065 L
463.902 39.863 L
464.729 39.664 L
465.555 39.466 L
466.381 39.271 L
467.208 39.077 L
468.034 38.885 L
468.861 38.696 L
469.687 38.508 L
470.514 38.322 L
471.34 38.138 L
472.167 37.956 L
472.993 37.776 L
473.819 37.598 L
474.646 37.422 L
475.472 37.248 L
476.299 37.076 L
477.125 36.906 L
477.952 36.738 L
478.778 36.572 L
479.604 36.407 L
480.431 36.245 L
481.257 36.085 L
482.084 35.928 L
482.91 35.772 L
483.737 35.618 L
484.563 35.466 L
485.389 35.316 L
486.216 35.169 L
487.042 35.023 L
487.869 34.879 L
488.695 34.738 L
489.522 34.599 L
490.348 34.462 L
491.175 34.326 L
492.001 34.193 L
492.827 34.062 L
S
GR
GS
0.851 0.325 0.098 RC
[10 6] 0 setdash
2 LJ
0.5 LW
N
74.707 366.339 M
75.534 363.621 L
76.36 360.911 L
77.187 358.211 L
78.013 355.522 L
78.839 352.846 L
79.666 350.186 L
80.492 347.542 L
81.319 344.917 L
82.145 342.311 L
82.972 339.728 L
83.798 337.168 L
84.625 334.634 L
85.451 332.127 L
86.277 329.649 L
87.104 327.201 L
87.93 324.786 L
88.757 322.404 L
89.583 320.059 L
90.41 317.751 L
91.236 315.482 L
92.062 313.255 L
92.889 311.07 L
93.715 308.929 L
94.542 306.835 L
95.368 304.789 L
96.195 302.792 L
97.021 300.847 L
97.847 298.955 L
98.674 297.118 L
99.5 295.337 L
100.327 293.582 L
101.153 291.843 L
101.98 290.119 L
102.806 288.41 L
103.633 286.717 L
104.459 285.039 L
105.285 283.376 L
106.112 281.728 L
106.938 280.096 L
107.765 278.478 L
108.591 276.876 L
109.418 275.288 L
110.244 273.716 L
111.07 272.158 L
111.897 270.615 L
112.723 269.087 L
113.55 267.574 L
114.376 266.076 L
115.203 264.592 L
116.029 263.123 L
116.855 261.669 L
117.682 260.229 L
118.508 258.804 L
119.335 257.393 L
120.161 255.997 L
120.988 254.615 L
121.814 253.247 L
122.641 251.894 L
123.467 250.555 L
124.293 249.231 L
125.12 247.92 L
125.946 246.624 L
126.773 245.342 L
127.599 244.074 L
128.426 242.82 L
129.252 241.58 L
130.078 240.354 L
130.905 239.142 L
131.731 237.944 L
132.558 236.759 L
133.384 235.589 L
134.211 234.432 L
135.037 233.289 L
135.863 232.159 L
136.69 231.044 L
137.516 229.941 L
138.343 228.853 L
139.169 227.778 L
139.996 226.716 L
140.822 225.668 L
141.649 224.633 L
142.475 223.611 L
143.301 222.603 L
144.128 221.608 L
144.954 220.626 L
145.781 219.658 L
146.607 218.702 L
147.434 217.76 L
148.26 216.824 L
149.086 215.895 L
149.913 214.971 L
150.739 214.052 L
151.566 213.139 L
152.392 212.232 L
153.219 211.33 L
154.045 210.433 L
154.872 209.542 L
155.698 208.656 L
156.524 207.776 L
157.351 206.901 L
158.177 206.031 L
159.004 205.167 L
159.83 204.308 L
160.657 203.454 L
161.483 202.605 L
162.309 201.761 L
163.136 200.923 L
163.962 200.089 L
164.789 199.261 L
165.615 198.437 L
166.442 197.619 L
167.268 196.805 L
168.094 195.997 L
168.921 195.193 L
169.747 194.395 L
170.574 193.601 L
171.4 192.812 L
172.227 192.027 L
173.053 191.248 L
173.88 190.473 L
174.706 189.703 L
175.532 188.938 L
176.359 188.177 L
177.185 187.421 L
178.012 186.669 L
178.838 185.922 L
179.665 185.18 L
180.491 184.442 L
181.317 183.708 L
182.144 182.979 L
182.97 182.254 L
183.797 181.534 L
184.623 180.818 L
185.45 180.106 L
186.276 179.399 L
187.102 178.695 L
187.929 177.996 L
188.755 177.302 L
189.582 176.611 L
190.408 175.924 L
191.235 175.242 L
192.061 174.563 L
192.888 173.889 L
193.714 173.219 L
194.54 172.552 L
195.367 171.89 L
196.193 171.232 L
197.02 170.577 L
197.846 169.926 L
198.673 169.279 L
199.499 168.636 L
200.325 167.997 L
201.152 167.361 L
201.978 166.729 L
202.805 166.101 L
203.631 165.476 L
204.458 164.855 L
205.284 164.238 L
206.111 163.624 L
206.937 163.014 L
207.763 162.407 L
208.59 161.803 L
209.416 161.203 L
210.243 160.607 L
211.069 160.014 L
211.896 159.424 L
212.722 158.837 L
213.548 158.254 L
214.375 157.674 L
215.201 157.097 L
216.028 156.524 L
216.854 155.954 L
217.681 155.386 L
218.507 154.822 L
219.333 154.261 L
220.16 153.703 L
220.986 153.148 L
221.813 152.596 L
222.639 152.047 L
223.466 151.501 L
224.292 150.957 L
225.119 150.417 L
225.945 149.879 L
226.771 149.345 L
227.598 148.812 L
228.424 148.283 L
229.251 147.757 L
230.077 147.233 L
230.904 146.712 L
231.73 146.193 L
232.556 145.677 L
233.383 145.164 L
234.209 144.653 L
235.036 144.144 L
235.862 143.638 L
236.689 143.135 L
237.515 142.634 L
238.341 142.135 L
239.168 141.639 L
239.994 141.144 L
240.821 140.65 L
241.647 140.156 L
242.474 139.662 L
243.3 139.168 L
244.127 138.675 L
244.953 138.182 L
245.779 137.689 L
246.606 137.196 L
247.432 136.704 L
248.259 136.212 L
249.085 135.721 L
249.912 135.229 L
250.738 134.738 L
251.564 134.248 L
252.391 133.757 L
253.217 133.267 L
254.044 132.778 L
254.87 132.288 L
255.697 131.799 L
256.523 131.311 L
257.349 130.823 L
258.176 130.335 L
259.002 129.847 L
259.829 129.36 L
260.655 128.874 L
261.482 128.388 L
262.308 127.902 L
263.135 127.416 L
263.961 126.931 L
264.787 126.447 L
265.614 125.963 L
266.44 125.479 L
267.267 124.996 L
268.093 124.513 L
268.92 124.031 L
269.746 123.549 L
270.572 123.068 L
271.399 122.587 L
272.225 122.107 L
273.052 121.627 L
273.878 121.148 L
274.705 120.669 L
275.531 120.191 L
276.357 119.713 L
277.184 119.236 L
278.01 118.759 L
278.837 118.283 L
279.663 117.808 L
280.49 117.333 L
281.316 116.858 L
282.143 116.384 L
282.969 115.911 L
283.795 115.439 L
284.622 114.967 L
285.448 114.495 L
286.275 114.025 L
287.101 113.554 L
287.928 113.085 L
288.754 112.616 L
289.58 112.148 L
290.407 111.68 L
291.233 111.213 L
292.06 110.747 L
292.886 110.281 L
293.713 109.817 L
294.539 109.352 L
295.366 108.889 L
296.192 108.426 L
297.018 107.964 L
297.845 107.502 L
298.671 107.042 L
299.498 106.582 L
300.324 106.123 L
301.151 105.664 L
301.977 105.206 L
302.803 104.749 L
303.63 104.293 L
304.456 103.838 L
305.283 103.383 L
306.109 102.929 L
306.936 102.476 L
307.762 102.024 L
308.588 101.572 L
309.415 101.122 L
310.241 100.672 L
311.068 100.223 L
311.894 99.775 L
312.721 99.327 L
313.547 98.881 L
314.374 98.435 L
315.2 97.99 L
316.026 97.546 L
316.853 97.103 L
317.679 96.661 L
318.506 96.22 L
319.332 95.779 L
320.159 95.34 L
320.985 94.901 L
321.811 94.464 L
322.638 94.027 L
323.464 93.591 L
324.291 93.156 L
325.117 92.722 L
325.944 92.289 L
326.77 91.857 L
327.596 91.426 L
328.423 90.996 L
329.249 90.567 L
330.076 90.139 L
330.902 89.712 L
331.729 89.286 L
332.555 88.86 L
333.382 88.436 L
334.208 88.013 L
335.034 87.591 L
335.861 87.17 L
336.687 86.75 L
337.514 86.331 L
338.34 85.913 L
339.167 85.497 L
339.993 85.081 L
340.819 84.666 L
341.646 84.253 L
342.472 83.84 L
343.299 83.429 L
344.125 83.018 L
344.952 82.609 L
345.778 82.201 L
346.604 81.794 L
347.431 81.388 L
348.257 80.984 L
349.084 80.58 L
349.91 80.178 L
350.737 79.777 L
351.563 79.377 L
352.39 78.978 L
353.216 78.58 L
354.042 78.184 L
354.869 77.788 L
355.695 77.394 L
356.522 77.001 L
357.348 76.609 L
358.175 76.219 L
359.001 75.83 L
359.827 75.442 L
360.654 75.055 L
361.48 74.67 L
362.307 74.285 L
363.133 73.902 L
363.96 73.521 L
364.786 73.14 L
365.613 72.761 L
366.439 72.383 L
367.265 72.007 L
368.092 71.631 L
368.918 71.257 L
369.745 70.885 L
370.571 70.514 L
371.398 70.144 L
372.224 69.775 L
373.05 69.408 L
373.877 69.042 L
374.703 68.677 L
375.53 68.314 L
376.356 67.952 L
377.183 67.592 L
378.009 67.233 L
378.835 66.875 L
379.662 66.519 L
380.488 66.164 L
381.315 65.811 L
382.141 65.459 L
382.968 65.108 L
383.794 64.759 L
384.621 64.412 L
385.447 64.065 L
386.273 63.721 L
387.1 63.377 L
387.926 63.036 L
388.753 62.695 L
389.579 62.356 L
390.406 62.019 L
391.232 61.683 L
392.058 61.349 L
392.885 61.016 L
393.711 60.685 L
394.538 60.355 L
395.364 60.027 L
396.191 59.7 L
397.017 59.375 L
397.843 59.051 L
398.67 58.729 L
399.496 58.409 L
400.323 58.09 L
401.149 57.773 L
401.976 57.457 L
402.802 57.143 L
403.629 56.831 L
404.455 56.52 L
405.281 56.21 L
406.108 55.903 L
406.934 55.597 L
407.761 55.292 L
408.587 54.99 L
409.414 54.689 L
410.24 54.389 L
411.066 54.091 L
411.893 53.795 L
412.719 53.501 L
413.546 53.208 L
414.372 52.917 L
415.199 52.628 L
416.025 52.341 L
416.852 52.055 L
417.678 51.771 L
418.504 51.488 L
419.331 51.208 L
420.157 50.929 L
420.984 50.652 L
421.81 50.376 L
422.637 50.103 L
423.463 49.831 L
424.289 49.561 L
425.116 49.292 L
425.942 49.026 L
426.769 48.761 L
427.595 48.498 L
428.422 48.237 L
429.248 47.978 L
430.074 47.721 L
430.901 47.465 L
431.727 47.211 L
432.554 46.959 L
433.38 46.709 L
434.207 46.461 L
435.033 46.215 L
435.859 45.97 L
436.686 45.728 L
437.512 45.487 L
438.339 45.248 L
439.165 45.011 L
439.992 44.777 L
440.818 44.544 L
441.645 44.312 L
442.471 44.083 L
443.297 43.856 L
444.124 43.631 L
444.95 43.408 L
445.777 43.186 L
446.603 42.967 L
447.43 42.749 L
448.256 42.534 L
449.082 42.321 L
449.909 42.109 L
450.735 41.9 L
451.562 41.692 L
452.388 41.487 L
453.215 41.283 L
454.041 41.082 L
454.868 40.883 L
455.694 40.685 L
456.52 40.49 L
457.347 40.297 L
458.173 40.106 L
459 39.917 L
459.826 39.73 L
460.653 39.545 L
461.479 39.362 L
462.305 39.182 L
463.132 39.003 L
463.958 38.827 L
464.785 38.652 L
465.611 38.48 L
466.438 38.31 L
467.264 38.142 L
468.09 37.976 L
468.917 37.813 L
469.743 37.651 L
470.57 37.492 L
471.396 37.335 L
472.223 37.18 L
473.049 37.027 L
473.876 36.877 L
474.702 36.728 L
475.528 36.582 L
476.355 36.438 L
477.181 36.297 L
478.008 36.157 L
478.834 36.02 L
479.661 35.885 L
480.487 35.752 L
481.313 35.622 L
482.14 35.494 L
482.966 35.368 L
483.793 35.244 L
S
GR
GS
1 GC
N
499 366 M
499 218.5 L
327.5 218.5 L
327.5 366 L
cp
f
GR
GS
[1 0 0 1 364.5 228.25] CT
/Helvetica 13 F
GS
[1 0 0 1 0 0] CT
0 5 moveto 
1 -1 scale
(Base Run) t 
GR
GR
GS
0 0.447 0.741 RC
1 LJ
0.5 LW
N
331.5 228.25 M
361.5 228.25 L
S
GR
GS
[1 0 0 1 364.5 244.25] CT
/Helvetica 13 F
GS
[1 0 0 1 0 0] CT
0 5 moveto 
1 -1 scale
(All Frames) t 
GR
GR
GS
0.851 0.325 0.098 RC
1 LJ
0.5 LW
N
331.5 244.25 M
361.5 244.25 L
S
GR
GS
[1 0 0 1 364.5 260.25] CT
/Helvetica 13 F
GS
[1 0 0 1 0 0] CT
0 5 moveto 
1 -1 scale
(KF Only) t 
GR
GR
GS
0.929 0.694 0.125 RC
1 LJ
0.5 LW
N
331.5 260.25 M
361.5 260.25 L
S
GR
GS
[1 0 0 1 364.5 276.25] CT
/Helvetica 13 F
GS
[1 0 0 1 0 0] CT
0 5 moveto 
1 -1 scale
(GF, ARF Only) t 
GR
GR
GS
0.494 0.184 0.557 RC
1 LJ
0.5 LW
N
331.5 276.25 M
361.5 276.25 L
S
GR
GS
[1 0 0 1 364.5 292.25] CT
/Helvetica 13 F
GS
[1 0 0 1 0 0] CT
0 5 moveto 
1 -1 scale
(KF, GF, ARF Only) t 
GR
GR
GS
0.467 0.675 0.188 RC
1 LJ
0.5 LW
N
331.5 292.25 M
361.5 292.25 L
S
GR
GS
[1 0 0 1 364.5 308.25] CT
/Helvetica 13 F
GS
[1 0 0 1 0 0] CT
0 5 moveto 
1 -1 scale
(Part All Frames) t 
GR
GR
GS
0.302 0.745 0.933 RC
[10 6] 0 setdash
2 LJ
0.5 LW
N
331.5 308.25 M
361.5 308.25 L
S
GR
GS
[1 0 0 1 364.5 324.25] CT
/Helvetica 13 F
GS
[1 0 0 1 0 0] CT
0 5 moveto 
1 -1 scale
(Part KF Only) t 
GR
GR
GS
0.635 0.078 0.184 RC
[10 6] 0 setdash
2 LJ
0.5 LW
N
331.5 324.25 M
361.5 324.25 L
S
GR
GS
[1 0 0 1 364.5 340.25] CT
/Helvetica 13 F
GS
[1 0 0 1 0 0] CT
0 5 moveto 
1 -1 scale
(Part GF, ARF Only) t 
GR
GR
GS
0 0.447 0.741 RC
[10 6] 0 setdash
2 LJ
0.5 LW
N
331.5 340.25 M
361.5 340.25 L
S
GR
GS
[1 0 0 1 364.5 356.25] CT
/Helvetica 13 F
GS
[1 0 0 1 0 0] CT
0 5 moveto 
1 -1 scale
(Part KF, GF, ARF Only) t 
GR
GR
GS
0.851 0.325 0.098 RC
[10 6] 0 setdash
2 LJ
0.5 LW
N
331.5 356.25 M
361.5 356.25 L
S
GR
GS
0.149 GC
10.0 ML
0.5 LW
N
327.5 366 M
327.5 218.5 L
499 218.5 L
499 366 L
cp
S
GR
%%Trailer
%%Pages: 1
%%EOF
