%!PS-Adobe-3.0 EPSF-3.0
%%Creator: (MATLAB, The Mathworks, Inc. Version 9.11.0.1837725 \(R2021b\) Update 2. Operating System: Mac OS X)
%%Title: plots/pchip/TelevisionClip_1080P-39e3.y4m-av1-nVMAF.eps
%%CreationDate: 2022-02-03T19:13:42
%%Pages: (atend)
%%BoundingBox:    33   425   508   826
%%LanguageLevel: 3
%%EndComments
%%BeginProlog
%%BeginResource: procset (Apache XML Graphics Std ProcSet) 1.2 0
%%Version: 1.2 0
%%Copyright: (Copyright 2001-2003,2010 The Apache Software Foundation. License terms: http://www.apache.org/licenses/LICENSE-2.0)
/bd{bind def}bind def
/ld{load def}bd
/GR/grestore ld
/GS/gsave ld
/RM/rmoveto ld
/C/curveto ld
/t/show ld
/L/lineto ld
/ML/setmiterlimit ld
/CT/concat ld
/f/fill ld
/N/newpath ld
/S/stroke ld
/CC/setcmykcolor ld
/A/ashow ld
/cp/closepath ld
/RC/setrgbcolor ld
/LJ/setlinejoin ld
/GC/setgray ld
/LW/setlinewidth ld
/M/moveto ld
/re {4 2 roll M
1 index 0 rlineto
0 exch rlineto
neg 0 rlineto
cp } bd
/_ctm matrix def
/_tm matrix def
/BT { _ctm currentmatrix pop matrix _tm copy pop 0 0 moveto } bd
/ET { _ctm setmatrix } bd
/iTm { _ctm setmatrix _tm concat } bd
/Tm { _tm astore pop iTm 0 0 moveto } bd
/ux 0.0 def
/uy 0.0 def
/F {
  /Tp exch def
  /Tf exch def
  Tf findfont Tp scalefont setfont
  /cf Tf def  /cs Tp def
} bd
/ULS {currentpoint /uy exch def /ux exch def} bd
/ULE {
  /Tcx currentpoint pop def
  gsave
  newpath
  cf findfont cs scalefont dup
  /FontMatrix get 0 get /Ts exch def /FontInfo get dup
  /UnderlinePosition get Ts mul /To exch def
  /UnderlineThickness get Ts mul /Tt exch def
  ux uy To add moveto  Tcx uy To add lineto
  Tt setlinewidth stroke
  grestore
} bd
/OLE {
  /Tcx currentpoint pop def
  gsave
  newpath
  cf findfont cs scalefont dup
  /FontMatrix get 0 get /Ts exch def /FontInfo get dup
  /UnderlinePosition get Ts mul /To exch def
  /UnderlineThickness get Ts mul /Tt exch def
  ux uy To add cs add moveto Tcx uy To add cs add lineto
  Tt setlinewidth stroke
  grestore
} bd
/SOE {
  /Tcx currentpoint pop def
  gsave
  newpath
  cf findfont cs scalefont dup
  /FontMatrix get 0 get /Ts exch def /FontInfo get dup
  /UnderlinePosition get Ts mul /To exch def
  /UnderlineThickness get Ts mul /Tt exch def
  ux uy To add cs 10 mul 26 idiv add moveto Tcx uy To add cs 10 mul 26 idiv add lineto
  Tt setlinewidth stroke
  grestore
} bd
/QT {
/Y22 exch store
/X22 exch store
/Y21 exch store
/X21 exch store
currentpoint
/Y21 load 2 mul add 3 div exch
/X21 load 2 mul add 3 div exch
/X21 load 2 mul /X22 load add 3 div
/Y21 load 2 mul /Y22 load add 3 div
/X22 load /Y22 load curveto
} bd
/SSPD {
dup length /d exch dict def
{
/v exch def
/k exch def
currentpagedevice k known {
/cpdv currentpagedevice k get def
v cpdv ne {
/upd false def
/nullv v type /nulltype eq def
/nullcpdv cpdv type /nulltype eq def
nullv nullcpdv or
{
/upd true def
} {
/sametype v type cpdv type eq def
sametype {
v type /arraytype eq {
/vlen v length def
/cpdvlen cpdv length def
vlen cpdvlen eq {
0 1 vlen 1 sub {
/i exch def
/obj v i get def
/cpdobj cpdv i get def
obj cpdobj ne {
/upd true def
exit
} if
} for
} {
/upd true def
} ifelse
} {
v type /dicttype eq {
v {
/dv exch def
/dk exch def
/cpddv cpdv dk get def
dv cpddv ne {
/upd true def
exit
} if
} forall
} {
/upd true def
} ifelse
} ifelse
} if
} ifelse
upd true eq {
d k v put
} if
} if
} if
} forall
d length 0 gt {
d setpagedevice
} if
} bd
/RE { % /NewFontName [NewEncodingArray] /FontName RE -
  findfont dup length dict begin
  {
    1 index /FID ne
    {def} {pop pop} ifelse
  } forall
  /Encoding exch def
  /FontName 1 index def
  currentdict definefont pop
  end
} bind def
%%EndResource
%%BeginResource: procset (Apache XML Graphics EPS ProcSet) 1.0 0
%%Version: 1.0 0
%%Copyright: (Copyright 2002-2003 The Apache Software Foundation. License terms: http://www.apache.org/licenses/LICENSE-2.0)
/BeginEPSF { %def
/b4_Inc_state save def         % Save state for cleanup
/dict_count countdictstack def % Count objects on dict stack
/op_count count 1 sub def      % Count objects on operand stack
userdict begin                 % Push userdict on dict stack
/showpage { } def              % Redefine showpage, { } = null proc
0 setgray 0 setlinecap         % Prepare graphics state
1 setlinewidth 0 setlinejoin
10 setmiterlimit [ ] 0 setdash newpath
/languagelevel where           % If level not equal to 1 then
{pop languagelevel             % set strokeadjust and
1 ne                           % overprint to their defaults.
{false setstrokeadjust false setoverprint
} if
} if
} bd
/EndEPSF { %def
count op_count sub {pop} repeat            % Clean up stacks
countdictstack dict_count sub {end} repeat
b4_Inc_state restore
} bd
%%EndResource
%FOPBeginFontDict
%%IncludeResource: font Courier-Oblique
%%IncludeResource: font Courier-BoldOblique
%%IncludeResource: font Courier-Bold
%%IncludeResource: font ZapfDingbats
%%IncludeResource: font Symbol
%%IncludeResource: font Helvetica
%%IncludeResource: font Helvetica-Oblique
%%IncludeResource: font Helvetica-Bold
%%IncludeResource: font Helvetica-BoldOblique
%%IncludeResource: font Times-Roman
%%IncludeResource: font Times-Italic
%%IncludeResource: font Times-Bold
%%IncludeResource: font Times-BoldItalic
%%IncludeResource: font Courier
%FOPEndFontDict
%%BeginResource: encoding WinAnsiEncoding
/WinAnsiEncoding [
/.notdef /.notdef /.notdef /.notdef /.notdef
/.notdef /.notdef /.notdef /.notdef /.notdef
/.notdef /.notdef /.notdef /.notdef /.notdef
/.notdef /.notdef /.notdef /.notdef /.notdef
/.notdef /.notdef /.notdef /.notdef /.notdef
/.notdef /.notdef /.notdef /.notdef /.notdef
/.notdef /.notdef /space /exclam /quotedbl
/numbersign /dollar /percent /ampersand /quotesingle
/parenleft /parenright /asterisk /plus /comma
/hyphen /period /slash /zero /one
/two /three /four /five /six
/seven /eight /nine /colon /semicolon
/less /equal /greater /question /at
/A /B /C /D /E
/F /G /H /I /J
/K /L /M /N /O
/P /Q /R /S /T
/U /V /W /X /Y
/Z /bracketleft /backslash /bracketright /asciicircum
/underscore /quoteleft /a /b /c
/d /e /f /g /h
/i /j /k /l /m
/n /o /p /q /r
/s /t /u /v /w
/x /y /z /braceleft /bar
/braceright /asciitilde /bullet /Euro /bullet
/quotesinglbase /florin /quotedblbase /ellipsis /dagger
/daggerdbl /circumflex /perthousand /Scaron /guilsinglleft
/OE /bullet /Zcaron /bullet /bullet
/quoteleft /quoteright /quotedblleft /quotedblright /bullet
/endash /emdash /asciitilde /trademark /scaron
/guilsinglright /oe /bullet /zcaron /Ydieresis
/space /exclamdown /cent /sterling /currency
/yen /brokenbar /section /dieresis /copyright
/ordfeminine /guillemotleft /logicalnot /sfthyphen /registered
/macron /degree /plusminus /twosuperior /threesuperior
/acute /mu /paragraph /middot /cedilla
/onesuperior /ordmasculine /guillemotright /onequarter /onehalf
/threequarters /questiondown /Agrave /Aacute /Acircumflex
/Atilde /Adieresis /Aring /AE /Ccedilla
/Egrave /Eacute /Ecircumflex /Edieresis /Igrave
/Iacute /Icircumflex /Idieresis /Eth /Ntilde
/Ograve /Oacute /Ocircumflex /Otilde /Odieresis
/multiply /Oslash /Ugrave /Uacute /Ucircumflex
/Udieresis /Yacute /Thorn /germandbls /agrave
/aacute /acircumflex /atilde /adieresis /aring
/ae /ccedilla /egrave /eacute /ecircumflex
/edieresis /igrave /iacute /icircumflex /idieresis
/eth /ntilde /ograve /oacute /ocircumflex
/otilde /odieresis /divide /oslash /ugrave
/uacute /ucircumflex /udieresis /yacute /thorn
/ydieresis
] def
%%EndResource
%FOPBeginFontReencode
/Courier-Oblique findfont
dup length dict begin
  {1 index /FID ne {def} {pop pop} ifelse} forall
  /Encoding WinAnsiEncoding def
  currentdict
end
/Courier-Oblique exch definefont pop
/Courier-BoldOblique findfont
dup length dict begin
  {1 index /FID ne {def} {pop pop} ifelse} forall
  /Encoding WinAnsiEncoding def
  currentdict
end
/Courier-BoldOblique exch definefont pop
/Courier-Bold findfont
dup length dict begin
  {1 index /FID ne {def} {pop pop} ifelse} forall
  /Encoding WinAnsiEncoding def
  currentdict
end
/Courier-Bold exch definefont pop
/Helvetica findfont
dup length dict begin
  {1 index /FID ne {def} {pop pop} ifelse} forall
  /Encoding WinAnsiEncoding def
  currentdict
end
/Helvetica exch definefont pop
/Helvetica-Oblique findfont
dup length dict begin
  {1 index /FID ne {def} {pop pop} ifelse} forall
  /Encoding WinAnsiEncoding def
  currentdict
end
/Helvetica-Oblique exch definefont pop
/Helvetica-Bold findfont
dup length dict begin
  {1 index /FID ne {def} {pop pop} ifelse} forall
  /Encoding WinAnsiEncoding def
  currentdict
end
/Helvetica-Bold exch definefont pop
/Helvetica-BoldOblique findfont
dup length dict begin
  {1 index /FID ne {def} {pop pop} ifelse} forall
  /Encoding WinAnsiEncoding def
  currentdict
end
/Helvetica-BoldOblique exch definefont pop
/Times-Roman findfont
dup length dict begin
  {1 index /FID ne {def} {pop pop} ifelse} forall
  /Encoding WinAnsiEncoding def
  currentdict
end
/Times-Roman exch definefont pop
/Times-Italic findfont
dup length dict begin
  {1 index /FID ne {def} {pop pop} ifelse} forall
  /Encoding WinAnsiEncoding def
  currentdict
end
/Times-Italic exch definefont pop
/Times-Bold findfont
dup length dict begin
  {1 index /FID ne {def} {pop pop} ifelse} forall
  /Encoding WinAnsiEncoding def
  currentdict
end
/Times-Bold exch definefont pop
/Times-BoldItalic findfont
dup length dict begin
  {1 index /FID ne {def} {pop pop} ifelse} forall
  /Encoding WinAnsiEncoding def
  currentdict
end
/Times-BoldItalic exch definefont pop
/Courier findfont
dup length dict begin
  {1 index /FID ne {def} {pop pop} ifelse} forall
  /Encoding WinAnsiEncoding def
  currentdict
end
/Courier exch definefont pop
%FOPEndFontReencode
%%EndProlog
%%Page: 1 1
%%PageBoundingBox: 0 0 1120 840
%%BeginPageSetup
[1 0 0 -1 0 840] CT
%%EndPageSetup
GS
1 GC
N
0 0 1120 840 re
f
GR
GS
1 GC
N
73 374 M
507 374 L
507 31.5 L
73 31.5 L
cp
f
GR
GS
0.149 GC
2 setlinecap
1 LJ
0.5 LW
N
73 374 M
507 374 L
S
GR
GS
0.149 GC
2 setlinecap
1 LJ
0.5 LW
N
73 31.5 M
507 31.5 L
S
GR
GS
0.149 GC
2 setlinecap
1 LJ
0.5 LW
N
128.153 374 M
128.153 369.66 L
S
GR
GS
0.149 GC
2 setlinecap
1 LJ
0.5 LW
N
210.797 374 M
210.797 369.66 L
S
GR
GS
0.149 GC
2 setlinecap
1 LJ
0.5 LW
N
293.44 374 M
293.44 369.66 L
S
GR
GS
0.149 GC
2 setlinecap
1 LJ
0.5 LW
N
376.084 374 M
376.084 369.66 L
S
GR
GS
0.149 GC
2 setlinecap
1 LJ
0.5 LW
N
458.727 374 M
458.727 369.66 L
S
GR
GS
0.149 GC
2 setlinecap
1 LJ
0.5 LW
N
128.153 31.5 M
128.153 35.84 L
S
GR
GS
0.149 GC
2 setlinecap
1 LJ
0.5 LW
N
210.797 31.5 M
210.797 35.84 L
S
GR
GS
0.149 GC
2 setlinecap
1 LJ
0.5 LW
N
293.44 31.5 M
293.44 35.84 L
S
GR
GS
0.149 GC
2 setlinecap
1 LJ
0.5 LW
N
376.084 31.5 M
376.084 35.84 L
S
GR
GS
0.149 GC
2 setlinecap
1 LJ
0.5 LW
N
458.727 31.5 M
458.727 35.84 L
S
GR
GS
0.149 GC
2 setlinecap
1 LJ
0.5 LW
N
86.831 374 M
86.831 371.83 L
S
GR
GS
0.149 GC
2 setlinecap
1 LJ
0.5 LW
N
107.492 374 M
107.492 371.83 L
S
GR
GS
0.149 GC
2 setlinecap
1 LJ
0.5 LW
N
148.814 374 M
148.814 371.83 L
S
GR
GS
0.149 GC
2 setlinecap
1 LJ
0.5 LW
N
169.475 374 M
169.475 371.83 L
S
GR
GS
0.149 GC
2 setlinecap
1 LJ
0.5 LW
N
190.136 374 M
190.136 371.83 L
S
GR
GS
0.149 GC
2 setlinecap
1 LJ
0.5 LW
N
231.458 374 M
231.458 371.83 L
S
GR
GS
0.149 GC
2 setlinecap
1 LJ
0.5 LW
N
252.119 374 M
252.119 371.83 L
S
GR
GS
0.149 GC
2 setlinecap
1 LJ
0.5 LW
N
272.779 374 M
272.779 371.83 L
S
GR
GS
0.149 GC
2 setlinecap
1 LJ
0.5 LW
N
314.101 374 M
314.101 371.83 L
S
GR
GS
0.149 GC
2 setlinecap
1 LJ
0.5 LW
N
334.762 374 M
334.762 371.83 L
S
GR
GS
0.149 GC
2 setlinecap
1 LJ
0.5 LW
N
355.423 374 M
355.423 371.83 L
S
GR
GS
0.149 GC
2 setlinecap
1 LJ
0.5 LW
N
396.745 374 M
396.745 371.83 L
S
GR
GS
0.149 GC
2 setlinecap
1 LJ
0.5 LW
N
417.406 374 M
417.406 371.83 L
S
GR
GS
0.149 GC
2 setlinecap
1 LJ
0.5 LW
N
438.066 374 M
438.066 371.83 L
S
GR
GS
0.149 GC
2 setlinecap
1 LJ
0.5 LW
N
479.388 374 M
479.388 371.83 L
S
GR
GS
0.149 GC
2 setlinecap
1 LJ
0.5 LW
N
500.049 374 M
500.049 371.83 L
S
GR
GS
0.149 GC
2 setlinecap
1 LJ
0.5 LW
N
86.831 31.5 M
86.831 33.67 L
S
GR
GS
0.149 GC
2 setlinecap
1 LJ
0.5 LW
N
107.492 31.5 M
107.492 33.67 L
S
GR
GS
0.149 GC
2 setlinecap
1 LJ
0.5 LW
N
148.814 31.5 M
148.814 33.67 L
S
GR
GS
0.149 GC
2 setlinecap
1 LJ
0.5 LW
N
169.475 31.5 M
169.475 33.67 L
S
GR
GS
0.149 GC
2 setlinecap
1 LJ
0.5 LW
N
190.136 31.5 M
190.136 33.67 L
S
GR
GS
0.149 GC
2 setlinecap
1 LJ
0.5 LW
N
231.458 31.5 M
231.458 33.67 L
S
GR
GS
0.149 GC
2 setlinecap
1 LJ
0.5 LW
N
252.119 31.5 M
252.119 33.67 L
S
GR
GS
0.149 GC
2 setlinecap
1 LJ
0.5 LW
N
272.779 31.5 M
272.779 33.67 L
S
GR
GS
0.149 GC
2 setlinecap
1 LJ
0.5 LW
N
314.101 31.5 M
314.101 33.67 L
S
GR
GS
0.149 GC
2 setlinecap
1 LJ
0.5 LW
N
334.762 31.5 M
334.762 33.67 L
S
GR
GS
0.149 GC
2 setlinecap
1 LJ
0.5 LW
N
355.423 31.5 M
355.423 33.67 L
S
GR
GS
0.149 GC
2 setlinecap
1 LJ
0.5 LW
N
396.745 31.5 M
396.745 33.67 L
S
GR
GS
0.149 GC
2 setlinecap
1 LJ
0.5 LW
N
417.406 31.5 M
417.406 33.67 L
S
GR
GS
0.149 GC
2 setlinecap
1 LJ
0.5 LW
N
438.066 31.5 M
438.066 33.67 L
S
GR
GS
0.149 GC
2 setlinecap
1 LJ
0.5 LW
N
479.388 31.5 M
479.388 33.67 L
S
GR
GS
0.149 GC
2 setlinecap
1 LJ
0.5 LW
N
500.049 31.5 M
500.049 33.67 L
S
GR
GS
[1 0 0 1 128.15324 378.79993] CT
0.149 GC
/Helvetica 14 F
GS
[1 0 0 1 0 0] CT
-16 14 moveto 
1 -1 scale
(2000) t 
GR
GR
GS
[1 0 0 1 210.79677 378.79993] CT
0.149 GC
/Helvetica 14 F
GS
[1 0 0 1 0 0] CT
-16 14 moveto 
1 -1 scale
(4000) t 
GR
GR
GS
[1 0 0 1 293.44028 378.79993] CT
0.149 GC
/Helvetica 14 F
GS
[1 0 0 1 0 0] CT
-16 14 moveto 
1 -1 scale
(6000) t 
GR
GR
GS
[1 0 0 1 376.08383 378.79993] CT
0.149 GC
/Helvetica 14 F
GS
[1 0 0 1 0 0] CT
-16 14 moveto 
1 -1 scale
(8000) t 
GR
GR
GS
[1 0 0 1 458.72736 378.79993] CT
0.149 GC
/Helvetica 14 F
GS
[1 0 0 1 0 0] CT
-19.5 14 moveto 
1 -1 scale
(10000) t 
GR
GR
GS
[1 0 0 1 290.00021 396.29996] CT
0.149 GC
/Helvetica 15.4 F
GS
[1 0 0 1 0 0] CT
-42 15 moveto 
1 -1 scale
(Bitrate\(kb/s\)) t 
GR
GR
GS
0.149 GC
2 setlinecap
1 LJ
0.5 LW
N
73 374 M
73 31.5 L
S
GR
GS
0.149 GC
2 setlinecap
1 LJ
0.5 LW
N
507 374 M
507 31.5 L
S
GR
GS
0.149 GC
2 setlinecap
1 LJ
0.5 LW
N
73 355.429 M
77.34 355.429 L
S
GR
GS
0.149 GC
2 setlinecap
1 LJ
0.5 LW
N
73 301.377 M
77.34 301.377 L
S
GR
GS
0.149 GC
2 setlinecap
1 LJ
0.5 LW
N
73 247.325 M
77.34 247.325 L
S
GR
GS
0.149 GC
2 setlinecap
1 LJ
0.5 LW
N
73 193.274 M
77.34 193.274 L
S
GR
GS
0.149 GC
2 setlinecap
1 LJ
0.5 LW
N
73 139.222 M
77.34 139.222 L
S
GR
GS
0.149 GC
2 setlinecap
1 LJ
0.5 LW
N
73 85.17 M
77.34 85.17 L
S
GR
GS
0.149 GC
2 setlinecap
1 LJ
0.5 LW
N
507 355.429 M
502.66 355.429 L
S
GR
GS
0.149 GC
2 setlinecap
1 LJ
0.5 LW
N
507 301.377 M
502.66 301.377 L
S
GR
GS
0.149 GC
2 setlinecap
1 LJ
0.5 LW
N
507 247.325 M
502.66 247.325 L
S
GR
GS
0.149 GC
2 setlinecap
1 LJ
0.5 LW
N
507 193.274 M
502.66 193.274 L
S
GR
GS
0.149 GC
2 setlinecap
1 LJ
0.5 LW
N
507 139.222 M
502.66 139.222 L
S
GR
GS
0.149 GC
2 setlinecap
1 LJ
0.5 LW
N
507 85.17 M
502.66 85.17 L
S
GR
GS
0.149 GC
2 setlinecap
1 LJ
0.5 LW
N
73 366.239 M
75.17 366.239 L
S
GR
GS
0.149 GC
2 setlinecap
1 LJ
0.5 LW
N
73 344.619 M
75.17 344.619 L
S
GR
GS
0.149 GC
2 setlinecap
1 LJ
0.5 LW
N
73 333.808 M
75.17 333.808 L
S
GR
GS
0.149 GC
2 setlinecap
1 LJ
0.5 LW
N
73 322.998 M
75.17 322.998 L
S
GR
GS
0.149 GC
2 setlinecap
1 LJ
0.5 LW
N
73 312.188 M
75.17 312.188 L
S
GR
GS
0.149 GC
2 setlinecap
1 LJ
0.5 LW
N
73 290.567 M
75.17 290.567 L
S
GR
GS
0.149 GC
2 setlinecap
1 LJ
0.5 LW
N
73 279.757 M
75.17 279.757 L
S
GR
GS
0.149 GC
2 setlinecap
1 LJ
0.5 LW
N
73 268.946 M
75.17 268.946 L
S
GR
GS
0.149 GC
2 setlinecap
1 LJ
0.5 LW
N
73 258.136 M
75.17 258.136 L
S
GR
GS
0.149 GC
2 setlinecap
1 LJ
0.5 LW
N
73 236.515 M
75.17 236.515 L
S
GR
GS
0.149 GC
2 setlinecap
1 LJ
0.5 LW
N
73 225.705 M
75.17 225.705 L
S
GR
GS
0.149 GC
2 setlinecap
1 LJ
0.5 LW
N
73 214.894 M
75.17 214.894 L
S
GR
GS
0.149 GC
2 setlinecap
1 LJ
0.5 LW
N
73 204.084 M
75.17 204.084 L
S
GR
GS
0.149 GC
2 setlinecap
1 LJ
0.5 LW
N
73 182.463 M
75.17 182.463 L
S
GR
GS
0.149 GC
2 setlinecap
1 LJ
0.5 LW
N
73 171.653 M
75.17 171.653 L
S
GR
GS
0.149 GC
2 setlinecap
1 LJ
0.5 LW
N
73 160.843 M
75.17 160.843 L
S
GR
GS
0.149 GC
2 setlinecap
1 LJ
0.5 LW
N
73 150.032 M
75.17 150.032 L
S
GR
GS
0.149 GC
2 setlinecap
1 LJ
0.5 LW
N
73 128.411 M
75.17 128.411 L
S
GR
GS
0.149 GC
2 setlinecap
1 LJ
0.5 LW
N
73 117.601 M
75.17 117.601 L
S
GR
GS
0.149 GC
2 setlinecap
1 LJ
0.5 LW
N
73 106.791 M
75.17 106.791 L
S
GR
GS
0.149 GC
2 setlinecap
1 LJ
0.5 LW
N
73 95.98 M
75.17 95.98 L
S
GR
GS
0.149 GC
2 setlinecap
1 LJ
0.5 LW
N
73 74.36 M
75.17 74.36 L
S
GR
GS
0.149 GC
2 setlinecap
1 LJ
0.5 LW
N
73 63.549 M
75.17 63.549 L
S
GR
GS
0.149 GC
2 setlinecap
1 LJ
0.5 LW
N
73 52.739 M
75.17 52.739 L
S
GR
GS
0.149 GC
2 setlinecap
1 LJ
0.5 LW
N
73 41.929 M
75.17 41.929 L
S
GR
GS
0.149 GC
2 setlinecap
1 LJ
0.5 LW
N
507 366.239 M
504.83 366.239 L
S
GR
GS
0.149 GC
2 setlinecap
1 LJ
0.5 LW
N
507 344.619 M
504.83 344.619 L
S
GR
GS
0.149 GC
2 setlinecap
1 LJ
0.5 LW
N
507 333.808 M
504.83 333.808 L
S
GR
GS
0.149 GC
2 setlinecap
1 LJ
0.5 LW
N
507 322.998 M
504.83 322.998 L
S
GR
GS
0.149 GC
2 setlinecap
1 LJ
0.5 LW
N
507 312.188 M
504.83 312.188 L
S
GR
GS
0.149 GC
2 setlinecap
1 LJ
0.5 LW
N
507 290.567 M
504.83 290.567 L
S
GR
GS
0.149 GC
2 setlinecap
1 LJ
0.5 LW
N
507 279.757 M
504.83 279.757 L
S
GR
GS
0.149 GC
2 setlinecap
1 LJ
0.5 LW
N
507 268.946 M
504.83 268.946 L
S
GR
GS
0.149 GC
2 setlinecap
1 LJ
0.5 LW
N
507 258.136 M
504.83 258.136 L
S
GR
GS
0.149 GC
2 setlinecap
1 LJ
0.5 LW
N
507 236.515 M
504.83 236.515 L
S
GR
GS
0.149 GC
2 setlinecap
1 LJ
0.5 LW
N
507 225.705 M
504.83 225.705 L
S
GR
GS
0.149 GC
2 setlinecap
1 LJ
0.5 LW
N
507 214.894 M
504.83 214.894 L
S
GR
GS
0.149 GC
2 setlinecap
1 LJ
0.5 LW
N
507 204.084 M
504.83 204.084 L
S
GR
GS
0.149 GC
2 setlinecap
1 LJ
0.5 LW
N
507 182.463 M
504.83 182.463 L
S
GR
GS
0.149 GC
2 setlinecap
1 LJ
0.5 LW
N
507 171.653 M
504.83 171.653 L
S
GR
GS
0.149 GC
2 setlinecap
1 LJ
0.5 LW
N
507 160.843 M
504.83 160.843 L
S
GR
GS
0.149 GC
2 setlinecap
1 LJ
0.5 LW
N
507 150.032 M
504.83 150.032 L
S
GR
GS
0.149 GC
2 setlinecap
1 LJ
0.5 LW
N
507 128.411 M
504.83 128.411 L
S
GR
GS
0.149 GC
2 setlinecap
1 LJ
0.5 LW
N
507 117.601 M
504.83 117.601 L
S
GR
GS
0.149 GC
2 setlinecap
1 LJ
0.5 LW
N
507 106.791 M
504.83 106.791 L
S
GR
GS
0.149 GC
2 setlinecap
1 LJ
0.5 LW
N
507 95.98 M
504.83 95.98 L
S
GR
GS
0.149 GC
2 setlinecap
1 LJ
0.5 LW
N
507 74.36 M
504.83 74.36 L
S
GR
GS
0.149 GC
2 setlinecap
1 LJ
0.5 LW
N
507 63.549 M
504.83 63.549 L
S
GR
GS
0.149 GC
2 setlinecap
1 LJ
0.5 LW
N
507 52.739 M
504.83 52.739 L
S
GR
GS
0.149 GC
2 setlinecap
1 LJ
0.5 LW
N
507 41.929 M
504.83 41.929 L
S
GR
GS
[1 0 0 1 68.2 355.42899] CT
0.149 GC
/Helvetica 14 F
GS
[1 0 0 1 0 0] CT
-16 5.5 moveto 
1 -1 scale
(70) t 
GR
GR
GS
[1 0 0 1 68.2 301.3772] CT
0.149 GC
/Helvetica 14 F
GS
[1 0 0 1 0 0] CT
-16 5.5 moveto 
1 -1 scale
(75) t 
GR
GR
GS
[1 0 0 1 68.2 247.32541] CT
0.149 GC
/Helvetica 14 F
GS
[1 0 0 1 0 0] CT
-16 5.5 moveto 
1 -1 scale
(80) t 
GR
GR
GS
[1 0 0 1 68.2 193.27364] CT
0.149 GC
/Helvetica 14 F
GS
[1 0 0 1 0 0] CT
-16 5.5 moveto 
1 -1 scale
(85) t 
GR
GR
GS
[1 0 0 1 68.2 139.22185] CT
0.149 GC
/Helvetica 14 F
GS
[1 0 0 1 0 0] CT
-16 5.5 moveto 
1 -1 scale
(90) t 
GR
GR
GS
[1 0 0 1 68.2 85.17006] CT
0.149 GC
/Helvetica 14 F
GS
[1 0 0 1 0 0] CT
-16 5.5 moveto 
1 -1 scale
(95) t 
GR
GR
GS
[0 -1 1 0 49.2 202.74985] CT
0.149 GC
/Helvetica 15.4 F
GS
[1 0 0 1 0 0] CT
-40 -4 moveto 
1 -1 scale
(VMAF-NEG) t 
GR
GR
GS
[1 0 0 1 290.00027 29.57498] CT
/Helvetica-Bold 15.4 F
GS
[1 0 0 1 0 0] CT
-131.5 -4 moveto 
1 -1 scale
(TelevisionClip_1080P-39e3.y4m-av1) t 
GR
GR
GS
0 0.447 0.741 RC
1 LJ
0.5 LW
N
77.254 335.96 M
78.08 330.569 L
78.907 325.187 L
79.733 319.819 L
80.559 314.471 L
81.386 309.147 L
82.212 303.852 L
83.039 298.592 L
83.865 293.373 L
84.692 288.198 L
85.518 283.074 L
86.344 278.006 L
87.171 272.998 L
87.997 268.056 L
88.824 263.186 L
89.65 258.392 L
90.477 253.68 L
91.303 249.054 L
92.13 244.521 L
92.956 240.085 L
93.782 235.751 L
94.609 231.525 L
95.435 227.412 L
96.262 223.417 L
97.088 219.545 L
97.915 215.801 L
98.741 212.192 L
99.567 208.721 L
100.394 205.394 L
101.22 202.217 L
102.047 199.194 L
102.873 196.33 L
103.7 193.555 L
104.526 190.8 L
105.352 188.067 L
106.179 185.356 L
107.005 182.667 L
107.832 180.001 L
108.658 177.359 L
109.485 174.74 L
110.311 172.146 L
111.138 169.576 L
111.964 167.031 L
112.79 164.512 L
113.617 162.019 L
114.443 159.553 L
115.27 157.113 L
116.096 154.701 L
116.923 152.317 L
117.749 149.961 L
118.575 147.634 L
119.402 145.336 L
120.228 143.068 L
121.055 140.829 L
121.881 138.622 L
122.708 136.445 L
123.534 134.3 L
124.36 132.187 L
125.187 130.107 L
126.013 128.059 L
126.84 126.044 L
127.666 124.063 L
128.493 122.117 L
129.319 120.205 L
130.146 118.328 L
130.972 116.487 L
131.798 114.682 L
132.625 112.913 L
133.451 111.181 L
134.278 109.487 L
135.104 107.83 L
135.931 106.212 L
136.757 104.633 L
137.583 103.092 L
138.41 101.592 L
139.236 100.131 L
140.063 98.711 L
140.889 97.332 L
141.716 95.995 L
142.542 94.699 L
143.368 93.446 L
144.195 92.236 L
145.021 91.069 L
145.848 89.946 L
146.674 88.867 L
147.501 87.832 L
148.327 86.843 L
149.154 85.899 L
149.98 85.001 L
150.806 84.15 L
151.633 83.345 L
152.459 82.588 L
153.286 81.866 L
154.112 81.149 L
154.939 80.436 L
155.765 79.727 L
156.591 79.023 L
157.418 78.323 L
158.244 77.627 L
159.071 76.936 L
159.897 76.249 L
160.724 75.566 L
161.55 74.889 L
162.376 74.215 L
163.203 73.546 L
164.029 72.882 L
164.856 72.222 L
165.682 71.567 L
166.509 70.917 L
167.335 70.271 L
168.162 69.63 L
168.988 68.994 L
169.814 68.362 L
170.641 67.736 L
171.467 67.114 L
172.294 66.497 L
173.12 65.885 L
173.947 65.279 L
174.773 64.677 L
175.599 64.08 L
176.426 63.488 L
177.252 62.901 L
178.079 62.32 L
178.905 61.743 L
179.732 61.172 L
180.558 60.606 L
181.385 60.045 L
182.211 59.489 L
183.037 58.939 L
183.864 58.394 L
184.69 57.855 L
185.517 57.321 L
186.343 56.792 L
187.17 56.269 L
187.996 55.751 L
188.822 55.239 L
189.649 54.733 L
190.475 54.232 L
191.302 53.736 L
192.128 53.247 L
192.955 52.763 L
193.781 52.285 L
194.607 51.812 L
195.434 51.346 L
196.26 50.885 L
197.087 50.43 L
197.913 49.981 L
198.74 49.538 L
199.566 49.1 L
200.393 48.669 L
201.219 48.244 L
202.045 47.825 L
202.872 47.412 L
203.698 47.005 L
204.525 46.604 L
205.351 46.209 L
206.178 45.821 L
207.004 45.439 L
207.83 45.063 L
208.657 44.693 L
209.483 44.33 L
210.31 43.973 L
211.136 43.623 L
211.963 43.279 L
212.789 42.941 L
213.615 42.61 L
214.442 42.286 L
215.268 41.968 L
216.095 41.656 L
216.921 41.352 L
217.748 41.053 L
218.574 40.762 L
219.401 40.477 L
220.227 40.2 L
221.053 39.928 L
221.88 39.664 L
222.706 39.407 L
223.533 39.156 L
224.359 38.913 L
225.186 38.676 L
226.012 38.446 L
226.838 38.223 L
227.665 38.008 L
228.491 37.799 L
229.318 37.598 L
230.144 37.403 L
230.971 37.216 L
231.797 37.036 L
232.623 36.864 L
233.45 36.698 L
234.276 36.54 L
235.103 36.389 L
235.929 36.246 L
236.756 36.11 L
237.582 35.981 L
238.409 35.86 L
239.235 35.746 L
240.061 35.64 L
240.888 35.542 L
241.714 35.451 L
242.541 35.367 L
243.367 35.292 L
244.194 35.224 L
245.02 35.163 L
245.846 35.111 L
246.673 35.066 L
247.499 35.029 L
248.326 35 L
249.152 34.975 L
249.979 34.949 L
250.805 34.924 L
251.632 34.899 L
252.458 34.874 L
253.284 34.849 L
254.111 34.825 L
254.937 34.8 L
255.764 34.776 L
256.59 34.751 L
257.417 34.727 L
258.243 34.703 L
259.069 34.679 L
259.896 34.655 L
260.722 34.631 L
261.549 34.607 L
262.375 34.584 L
263.202 34.56 L
264.028 34.537 L
264.854 34.513 L
265.681 34.49 L
266.507 34.467 L
267.334 34.444 L
268.16 34.421 L
268.987 34.398 L
269.813 34.376 L
270.64 34.353 L
271.466 34.331 L
272.292 34.308 L
273.119 34.286 L
273.945 34.264 L
274.772 34.242 L
275.598 34.22 L
276.425 34.198 L
277.251 34.177 L
278.077 34.155 L
278.904 34.133 L
279.73 34.112 L
280.557 34.091 L
281.383 34.069 L
282.21 34.048 L
283.036 34.027 L
283.862 34.006 L
284.689 33.986 L
285.515 33.965 L
286.342 33.944 L
287.168 33.924 L
287.995 33.904 L
288.821 33.883 L
289.648 33.863 L
290.474 33.843 L
291.3 33.823 L
292.127 33.803 L
292.953 33.783 L
293.78 33.764 L
294.606 33.744 L
295.433 33.725 L
296.259 33.705 L
297.085 33.686 L
297.912 33.667 L
298.738 33.648 L
299.565 33.629 L
300.391 33.61 L
301.218 33.591 L
302.044 33.573 L
302.87 33.554 L
303.697 33.535 L
304.523 33.517 L
305.35 33.499 L
306.176 33.481 L
307.003 33.463 L
307.829 33.445 L
308.656 33.427 L
309.482 33.409 L
310.308 33.391 L
311.135 33.374 L
311.961 33.356 L
312.788 33.339 L
313.614 33.321 L
314.441 33.304 L
315.267 33.287 L
316.093 33.27 L
316.92 33.253 L
317.746 33.236 L
318.573 33.219 L
319.399 33.203 L
320.226 33.186 L
321.052 33.17 L
321.879 33.153 L
322.705 33.137 L
323.531 33.121 L
324.358 33.105 L
325.184 33.089 L
326.011 33.073 L
326.837 33.057 L
327.664 33.041 L
328.49 33.026 L
329.316 33.01 L
330.143 32.995 L
330.969 32.98 L
331.796 32.964 L
332.622 32.949 L
333.449 32.934 L
334.275 32.919 L
335.101 32.904 L
335.928 32.889 L
336.754 32.875 L
337.581 32.86 L
338.407 32.846 L
339.234 32.831 L
340.06 32.817 L
340.887 32.803 L
341.713 32.788 L
342.539 32.774 L
343.366 32.76 L
344.192 32.746 L
345.019 32.733 L
345.845 32.719 L
346.672 32.705 L
347.498 32.692 L
348.324 32.678 L
349.151 32.665 L
349.977 32.652 L
350.804 32.638 L
351.63 32.625 L
352.457 32.612 L
353.283 32.599 L
354.109 32.587 L
354.936 32.574 L
355.762 32.561 L
356.589 32.549 L
357.415 32.536 L
358.242 32.524 L
359.068 32.511 L
359.895 32.499 L
360.721 32.487 L
361.547 32.475 L
362.374 32.463 L
363.2 32.451 L
364.027 32.439 L
364.853 32.427 L
365.68 32.416 L
366.506 32.404 L
367.332 32.393 L
368.159 32.381 L
368.985 32.37 L
369.812 32.359 L
370.638 32.348 L
371.465 32.337 L
372.291 32.326 L
373.117 32.315 L
373.944 32.304 L
374.77 32.293 L
375.597 32.283 L
376.423 32.272 L
377.25 32.261 L
378.076 32.251 L
378.903 32.241 L
379.729 32.23 L
380.555 32.22 L
381.382 32.21 L
382.208 32.2 L
383.035 32.19 L
383.861 32.18 L
384.688 32.171 L
385.514 32.161 L
386.34 32.151 L
387.167 32.142 L
387.993 32.132 L
388.82 32.123 L
389.646 32.114 L
390.473 32.105 L
391.299 32.095 L
392.125 32.086 L
392.952 32.077 L
393.778 32.068 L
394.605 32.06 L
395.431 32.051 L
396.258 32.042 L
397.084 32.034 L
397.911 32.025 L
398.737 32.017 L
399.563 32.008 L
400.39 32 L
401.216 31.992 L
402.043 31.984 L
402.869 31.976 L
403.696 31.968 L
404.522 31.96 L
405.348 31.952 L
406.175 31.944 L
407.001 31.936 L
407.828 31.929 L
408.654 31.921 L
409.481 31.914 L
410.307 31.907 L
411.134 31.899 L
411.96 31.892 L
412.786 31.885 L
413.613 31.878 L
414.439 31.871 L
415.266 31.864 L
416.092 31.857 L
416.919 31.85 L
417.745 31.843 L
418.571 31.837 L
419.398 31.83 L
420.224 31.824 L
421.051 31.817 L
421.877 31.811 L
422.704 31.804 L
423.53 31.798 L
424.356 31.792 L
425.183 31.786 L
426.009 31.78 L
426.836 31.774 L
427.662 31.768 L
428.489 31.762 L
429.315 31.756 L
430.142 31.751 L
430.968 31.745 L
431.794 31.74 L
432.621 31.734 L
433.447 31.729 L
434.274 31.723 L
435.1 31.718 L
435.927 31.713 L
436.753 31.708 L
437.579 31.703 L
438.406 31.698 L
439.232 31.693 L
440.059 31.688 L
440.885 31.683 L
441.712 31.679 L
442.538 31.674 L
443.364 31.669 L
444.191 31.665 L
445.017 31.66 L
445.844 31.656 L
446.67 31.652 L
447.497 31.647 L
448.323 31.643 L
449.15 31.639 L
449.976 31.635 L
450.802 31.631 L
451.629 31.627 L
452.455 31.623 L
453.282 31.619 L
454.108 31.616 L
454.935 31.612 L
455.761 31.608 L
456.587 31.605 L
457.414 31.601 L
458.24 31.598 L
459.067 31.594 L
459.893 31.591 L
460.72 31.588 L
461.546 31.585 L
462.372 31.582 L
463.199 31.579 L
464.025 31.576 L
464.852 31.573 L
465.678 31.57 L
466.505 31.567 L
467.331 31.564 L
468.158 31.562 L
468.984 31.559 L
469.81 31.556 L
470.637 31.554 L
471.463 31.551 L
472.29 31.549 L
473.116 31.547 L
473.943 31.544 L
474.769 31.542 L
475.595 31.54 L
476.422 31.538 L
477.248 31.536 L
478.075 31.534 L
478.901 31.532 L
479.728 31.53 L
480.554 31.528 L
481.38 31.527 L
482.207 31.525 L
483.033 31.523 L
483.86 31.522 L
484.686 31.52 L
485.513 31.519 L
486.339 31.517 L
487.166 31.516 L
487.992 31.515 L
488.818 31.513 L
489.645 31.512 L
490.471 31.511 L
491.298 31.51 L
492.124 31.509 L
492.951 31.508 L
493.777 31.507 L
494.603 31.506 L
495.43 31.506 L
496.256 31.505 L
497.083 31.504 L
497.909 31.504 L
498.736 31.503 L
499.562 31.502 L
500.389 31.502 L
501.215 31.501 L
502.041 31.501 L
502.868 31.501 L
503.694 31.501 L
504.521 31.5 L
505.347 31.5 L
506.174 31.5 L
507 31.5 L
S
GR
GS
0.851 0.325 0.098 RC
1 LJ
0.5 LW
N
73 374 M
73.826 367.649 L
74.653 361.313 L
75.479 355 L
76.306 348.716 L
77.132 342.468 L
77.959 336.264 L
78.785 330.11 L
79.611 324.013 L
80.438 317.98 L
81.264 312.019 L
82.091 306.135 L
82.917 300.336 L
83.744 294.629 L
84.57 289.022 L
85.397 283.519 L
86.223 278.13 L
87.049 272.86 L
87.876 267.717 L
88.702 262.708 L
89.529 257.839 L
90.355 253.117 L
91.182 248.55 L
92.008 244.145 L
92.834 239.907 L
93.661 235.845 L
94.487 231.965 L
95.314 228.275 L
96.14 224.78 L
96.967 221.43 L
97.793 218.114 L
98.619 214.83 L
99.446 211.578 L
100.272 208.359 L
101.099 205.174 L
101.925 202.022 L
102.752 198.904 L
103.578 195.822 L
104.405 192.774 L
105.231 189.762 L
106.057 186.786 L
106.884 183.847 L
107.71 180.944 L
108.537 178.079 L
109.363 175.252 L
110.19 172.464 L
111.016 169.714 L
111.842 167.004 L
112.669 164.333 L
113.495 161.703 L
114.322 159.113 L
115.148 156.565 L
115.975 154.058 L
116.801 151.593 L
117.628 149.171 L
118.454 146.791 L
119.28 144.456 L
120.107 142.164 L
120.933 139.916 L
121.76 137.714 L
122.586 135.556 L
123.413 133.445 L
124.239 131.379 L
125.065 129.361 L
125.892 127.389 L
126.718 125.465 L
127.545 123.59 L
128.371 121.762 L
129.198 119.984 L
130.024 118.255 L
130.85 116.576 L
131.677 114.948 L
132.503 113.37 L
133.33 111.844 L
134.156 110.37 L
134.983 108.947 L
135.809 107.578 L
136.636 106.261 L
137.462 104.998 L
138.288 103.789 L
139.115 102.635 L
139.941 101.536 L
140.768 100.485 L
141.594 99.444 L
142.421 98.41 L
143.247 97.381 L
144.073 96.357 L
144.9 95.34 L
145.726 94.329 L
146.553 93.324 L
147.379 92.325 L
148.206 91.332 L
149.032 90.346 L
149.858 89.366 L
150.685 88.393 L
151.511 87.426 L
152.338 86.466 L
153.164 85.513 L
153.991 84.567 L
154.817 83.628 L
155.644 82.696 L
156.47 81.771 L
157.296 80.853 L
158.123 79.943 L
158.949 79.04 L
159.776 78.145 L
160.602 77.257 L
161.429 76.377 L
162.255 75.505 L
163.081 74.641 L
163.908 73.785 L
164.734 72.937 L
165.561 72.097 L
166.387 71.265 L
167.214 70.442 L
168.04 69.627 L
168.867 68.82 L
169.693 68.023 L
170.519 67.234 L
171.346 66.453 L
172.172 65.682 L
172.999 64.92 L
173.825 64.166 L
174.652 63.422 L
175.478 62.687 L
176.304 61.961 L
177.131 61.245 L
177.957 60.539 L
178.784 59.842 L
179.61 59.154 L
180.437 58.477 L
181.263 57.809 L
182.089 57.151 L
182.916 56.504 L
183.742 55.866 L
184.569 55.239 L
185.395 54.622 L
186.222 54.015 L
187.048 53.419 L
187.875 52.834 L
188.701 52.259 L
189.527 51.695 L
190.354 51.142 L
191.18 50.6 L
192.007 50.068 L
192.833 49.548 L
193.66 49.04 L
194.486 48.542 L
195.312 48.056 L
196.139 47.581 L
196.965 47.118 L
197.792 46.667 L
198.618 46.228 L
199.445 45.8 L
200.271 45.384 L
201.097 44.98 L
201.924 44.589 L
202.75 44.209 L
203.577 43.842 L
204.403 43.487 L
205.23 43.145 L
206.056 42.816 L
206.883 42.498 L
207.709 42.194 L
208.535 41.903 L
209.362 41.624 L
210.188 41.359 L
211.015 41.106 L
211.841 40.867 L
212.668 40.641 L
213.494 40.429 L
214.32 40.23 L
215.147 40.044 L
215.973 39.872 L
216.8 39.714 L
217.626 39.57 L
218.453 39.44 L
219.279 39.323 L
220.105 39.221 L
220.932 39.133 L
221.758 39.059 L
222.585 38.997 L
223.411 38.936 L
224.238 38.876 L
225.064 38.815 L
225.891 38.756 L
226.717 38.696 L
227.543 38.637 L
228.37 38.578 L
229.196 38.519 L
230.023 38.46 L
230.849 38.402 L
231.676 38.344 L
232.502 38.287 L
233.328 38.229 L
234.155 38.172 L
234.981 38.116 L
235.808 38.059 L
236.634 38.003 L
237.461 37.947 L
238.287 37.891 L
239.113 37.836 L
239.94 37.781 L
240.766 37.726 L
241.593 37.672 L
242.419 37.618 L
243.246 37.564 L
244.072 37.51 L
244.899 37.457 L
245.725 37.404 L
246.551 37.351 L
247.378 37.298 L
248.204 37.246 L
249.031 37.194 L
249.857 37.142 L
250.684 37.091 L
251.51 37.04 L
252.336 36.989 L
253.163 36.938 L
253.989 36.888 L
254.816 36.838 L
255.642 36.788 L
256.469 36.739 L
257.295 36.689 L
258.121 36.64 L
258.948 36.592 L
259.774 36.543 L
260.601 36.495 L
261.427 36.447 L
262.254 36.4 L
263.08 36.352 L
263.907 36.305 L
264.733 36.258 L
265.559 36.212 L
266.386 36.166 L
267.212 36.12 L
268.039 36.074 L
268.865 36.028 L
269.692 35.983 L
270.518 35.938 L
271.344 35.894 L
272.171 35.849 L
272.997 35.805 L
273.824 35.761 L
274.65 35.717 L
275.477 35.674 L
276.303 35.631 L
277.13 35.588 L
277.956 35.545 L
278.782 35.503 L
279.609 35.461 L
280.435 35.419 L
281.262 35.377 L
282.088 35.336 L
282.915 35.295 L
283.741 35.254 L
284.567 35.214 L
285.394 35.173 L
286.22 35.133 L
287.047 35.093 L
287.873 35.054 L
288.7 35.014 L
289.526 34.975 L
290.352 34.937 L
291.179 34.898 L
292.005 34.86 L
292.832 34.822 L
293.658 34.784 L
294.485 34.746 L
295.311 34.709 L
296.138 34.672 L
296.964 34.635 L
297.79 34.599 L
298.617 34.562 L
299.443 34.526 L
300.27 34.49 L
301.096 34.455 L
301.923 34.419 L
302.749 34.384 L
303.575 34.349 L
304.402 34.315 L
305.228 34.28 L
306.055 34.246 L
306.881 34.212 L
307.708 34.179 L
308.534 34.145 L
309.361 34.112 L
310.187 34.079 L
311.013 34.046 L
311.84 34.014 L
312.666 33.982 L
313.493 33.95 L
314.319 33.918 L
315.146 33.887 L
315.972 33.855 L
316.798 33.824 L
317.625 33.793 L
318.451 33.763 L
319.278 33.732 L
320.104 33.702 L
320.931 33.672 L
321.757 33.643 L
322.583 33.613 L
323.41 33.584 L
324.236 33.555 L
325.063 33.526 L
325.889 33.498 L
326.716 33.47 L
327.542 33.442 L
328.368 33.414 L
329.195 33.386 L
330.021 33.359 L
330.848 33.332 L
331.674 33.305 L
332.501 33.278 L
333.327 33.251 L
334.154 33.225 L
334.98 33.199 L
335.806 33.173 L
336.633 33.148 L
337.459 33.122 L
338.286 33.097 L
339.112 33.072 L
339.939 33.048 L
340.765 33.023 L
341.591 32.999 L
342.418 32.975 L
343.244 32.951 L
344.071 32.927 L
344.897 32.904 L
345.724 32.881 L
346.55 32.858 L
347.377 32.835 L
348.203 32.813 L
349.029 32.79 L
349.856 32.768 L
350.682 32.746 L
351.509 32.725 L
352.335 32.703 L
353.162 32.682 L
353.988 32.661 L
354.814 32.64 L
355.641 32.619 L
356.467 32.599 L
357.294 32.579 L
358.12 32.559 L
358.947 32.539 L
359.773 32.519 L
360.599 32.5 L
361.426 32.481 L
362.252 32.462 L
363.079 32.443 L
363.905 32.424 L
364.732 32.406 L
365.558 32.388 L
366.385 32.37 L
367.211 32.352 L
368.037 32.335 L
368.864 32.317 L
369.69 32.3 L
370.517 32.283 L
371.343 32.267 L
372.17 32.25 L
372.996 32.234 L
373.822 32.218 L
374.649 32.202 L
375.475 32.186 L
376.302 32.17 L
377.128 32.155 L
377.955 32.14 L
378.781 32.125 L
379.607 32.11 L
380.434 32.096 L
381.26 32.081 L
382.087 32.067 L
382.913 32.053 L
383.74 32.039 L
384.566 32.026 L
385.393 32.012 L
386.219 31.999 L
387.045 31.986 L
387.872 31.973 L
388.698 31.96 L
389.525 31.948 L
390.351 31.936 L
391.178 31.924 L
392.004 31.912 L
392.83 31.9 L
393.657 31.889 L
394.483 31.877 L
395.31 31.866 L
396.136 31.855 L
396.963 31.844 L
397.789 31.834 L
398.615 31.823 L
399.442 31.813 L
400.268 31.803 L
401.095 31.793 L
401.921 31.783 L
402.748 31.774 L
403.574 31.765 L
404.401 31.755 L
405.227 31.746 L
406.053 31.738 L
406.88 31.729 L
407.706 31.721 L
408.533 31.712 L
409.359 31.704 L
410.186 31.696 L
411.012 31.689 L
411.838 31.681 L
412.665 31.674 L
413.491 31.666 L
414.318 31.659 L
415.144 31.652 L
415.971 31.646 L
416.797 31.639 L
417.623 31.633 L
418.45 31.627 L
419.276 31.621 L
420.103 31.615 L
420.929 31.609 L
421.756 31.604 L
422.582 31.598 L
423.409 31.593 L
424.235 31.588 L
425.061 31.583 L
425.888 31.579 L
426.714 31.574 L
427.541 31.57 L
428.367 31.566 L
429.194 31.562 L
430.02 31.558 L
430.846 31.554 L
431.673 31.551 L
432.499 31.547 L
433.326 31.544 L
434.152 31.541 L
434.979 31.538 L
435.805 31.536 L
436.632 31.533 L
437.458 31.531 L
438.284 31.528 L
439.111 31.526 L
439.937 31.524 L
440.764 31.523 L
441.59 31.521 L
442.417 31.52 L
443.243 31.518 L
444.069 31.517 L
444.896 31.516 L
445.722 31.515 L
446.549 31.515 L
447.375 31.514 L
448.202 31.514 L
449.028 31.514 L
S
GR
GS
0.929 0.694 0.125 RC
1 LJ
0.5 LW
N
75.626 344.342 M
76.453 338.525 L
77.279 332.716 L
78.106 326.921 L
78.932 321.146 L
79.759 315.398 L
80.585 309.684 L
81.411 304.009 L
82.238 298.381 L
83.064 292.804 L
83.891 287.286 L
84.717 281.834 L
85.544 276.453 L
86.37 271.149 L
87.196 265.93 L
88.023 260.801 L
88.849 255.77 L
89.676 250.841 L
90.502 246.022 L
91.329 241.319 L
92.155 236.739 L
92.981 232.287 L
93.808 227.97 L
94.634 223.795 L
95.461 219.767 L
96.287 215.894 L
97.114 212.181 L
97.94 208.635 L
98.767 205.262 L
99.593 202.069 L
100.419 199.062 L
101.246 196.148 L
102.072 193.259 L
102.899 190.396 L
103.725 187.558 L
104.552 184.746 L
105.378 181.961 L
106.204 179.203 L
107.031 176.472 L
107.857 173.769 L
108.684 171.094 L
109.51 168.448 L
110.337 165.831 L
111.163 163.244 L
111.989 160.687 L
112.816 158.159 L
113.642 155.663 L
114.469 153.198 L
115.295 150.765 L
116.122 148.363 L
116.948 145.994 L
117.775 143.658 L
118.601 141.356 L
119.427 139.087 L
120.254 136.852 L
121.08 134.652 L
121.907 132.487 L
122.733 130.358 L
123.56 128.264 L
124.386 126.207 L
125.212 124.186 L
126.039 122.203 L
126.865 120.257 L
127.692 118.349 L
128.518 116.48 L
129.345 114.649 L
130.171 112.858 L
130.998 111.106 L
131.824 109.395 L
132.65 107.724 L
133.477 106.094 L
134.303 104.506 L
135.13 102.959 L
135.956 101.454 L
136.783 99.993 L
137.609 98.574 L
138.435 97.199 L
139.262 95.868 L
140.088 94.581 L
140.915 93.339 L
141.741 92.142 L
142.568 90.991 L
143.394 89.886 L
144.22 88.827 L
145.047 87.816 L
145.873 86.851 L
146.7 85.935 L
147.526 85.066 L
148.353 84.247 L
149.179 83.476 L
150.006 82.731 L
150.832 81.99 L
151.658 81.254 L
152.485 80.522 L
153.311 79.795 L
154.138 79.073 L
154.964 78.355 L
155.791 77.642 L
156.617 76.933 L
157.443 76.23 L
158.27 75.53 L
159.096 74.836 L
159.923 74.147 L
160.749 73.462 L
161.576 72.783 L
162.402 72.108 L
163.228 71.438 L
164.055 70.773 L
164.881 70.113 L
165.708 69.459 L
166.534 68.809 L
167.361 68.164 L
168.187 67.525 L
169.014 66.891 L
169.84 66.262 L
170.666 65.638 L
171.493 65.02 L
172.319 64.407 L
173.146 63.799 L
173.972 63.197 L
174.799 62.6 L
175.625 62.008 L
176.451 61.422 L
177.278 60.842 L
178.104 60.267 L
178.931 59.698 L
179.757 59.134 L
180.584 58.576 L
181.41 58.024 L
182.236 57.477 L
183.063 56.936 L
183.889 56.401 L
184.716 55.872 L
185.542 55.349 L
186.369 54.831 L
187.195 54.32 L
188.022 53.814 L
188.848 53.314 L
189.674 52.821 L
190.501 52.333 L
191.327 51.852 L
192.154 51.377 L
192.98 50.907 L
193.807 50.444 L
194.633 49.988 L
195.459 49.537 L
196.286 49.093 L
197.112 48.655 L
197.939 48.224 L
198.765 47.799 L
199.592 47.38 L
200.418 46.968 L
201.245 46.562 L
202.071 46.163 L
202.897 45.77 L
203.724 45.384 L
204.55 45.005 L
205.377 44.632 L
206.203 44.266 L
207.03 43.907 L
207.856 43.554 L
208.682 43.209 L
209.509 42.87 L
210.335 42.538 L
211.162 42.212 L
211.988 41.894 L
212.815 41.583 L
213.641 41.279 L
214.467 40.981 L
215.294 40.691 L
216.12 40.408 L
216.947 40.132 L
217.773 39.863 L
218.6 39.602 L
219.426 39.347 L
220.253 39.1 L
221.079 38.86 L
221.905 38.628 L
222.732 38.403 L
223.558 38.185 L
224.385 37.975 L
225.211 37.772 L
226.038 37.577 L
226.864 37.389 L
227.69 37.209 L
228.517 37.036 L
229.343 36.871 L
230.17 36.713 L
230.996 36.564 L
231.823 36.422 L
232.649 36.288 L
233.475 36.161 L
234.302 36.043 L
235.128 35.932 L
235.955 35.829 L
236.781 35.735 L
237.608 35.648 L
238.434 35.569 L
239.261 35.498 L
240.087 35.435 L
240.913 35.381 L
241.74 35.334 L
242.566 35.296 L
243.393 35.266 L
244.219 35.239 L
245.046 35.212 L
245.872 35.185 L
246.698 35.158 L
247.525 35.132 L
248.351 35.105 L
249.178 35.079 L
250.004 35.053 L
250.831 35.026 L
251.657 35 L
252.484 34.975 L
253.31 34.949 L
254.136 34.923 L
254.963 34.898 L
255.789 34.872 L
256.616 34.847 L
257.442 34.822 L
258.269 34.797 L
259.095 34.772 L
259.921 34.747 L
260.748 34.722 L
261.574 34.698 L
262.401 34.673 L
263.227 34.649 L
264.054 34.625 L
264.88 34.6 L
265.706 34.576 L
266.533 34.553 L
267.359 34.529 L
268.186 34.505 L
269.012 34.481 L
269.839 34.458 L
270.665 34.435 L
271.492 34.411 L
272.318 34.388 L
273.144 34.365 L
273.971 34.342 L
274.797 34.32 L
275.624 34.297 L
276.45 34.274 L
277.277 34.252 L
278.103 34.229 L
278.929 34.207 L
279.756 34.185 L
280.582 34.163 L
281.409 34.141 L
282.235 34.119 L
283.062 34.098 L
283.888 34.076 L
284.714 34.055 L
285.541 34.033 L
286.367 34.012 L
287.194 33.991 L
288.02 33.97 L
288.847 33.949 L
289.673 33.928 L
290.5 33.907 L
291.326 33.887 L
292.152 33.866 L
292.979 33.846 L
293.805 33.826 L
294.632 33.805 L
295.458 33.785 L
296.285 33.765 L
297.111 33.745 L
297.937 33.726 L
298.764 33.706 L
299.59 33.686 L
300.417 33.667 L
301.243 33.648 L
302.07 33.628 L
302.896 33.609 L
303.723 33.59 L
304.549 33.571 L
305.375 33.552 L
306.202 33.534 L
307.028 33.515 L
307.855 33.497 L
308.681 33.478 L
309.508 33.46 L
310.334 33.442 L
311.16 33.424 L
311.987 33.406 L
312.813 33.388 L
313.64 33.37 L
314.466 33.352 L
315.293 33.335 L
316.119 33.317 L
316.945 33.3 L
317.772 33.282 L
318.598 33.265 L
319.425 33.248 L
320.251 33.231 L
321.078 33.214 L
321.904 33.198 L
322.73 33.181 L
323.557 33.164 L
324.383 33.148 L
325.21 33.131 L
326.036 33.115 L
326.863 33.099 L
327.689 33.083 L
328.516 33.067 L
329.342 33.051 L
330.168 33.035 L
330.995 33.019 L
331.821 33.004 L
332.648 32.988 L
333.474 32.973 L
334.301 32.957 L
335.127 32.942 L
335.953 32.927 L
336.78 32.912 L
337.606 32.897 L
338.433 32.882 L
339.259 32.868 L
340.086 32.853 L
340.912 32.838 L
341.739 32.824 L
342.565 32.809 L
343.391 32.795 L
344.218 32.781 L
345.044 32.767 L
345.871 32.753 L
346.697 32.739 L
347.524 32.725 L
348.35 32.711 L
349.176 32.698 L
350.003 32.684 L
350.829 32.671 L
351.656 32.658 L
352.482 32.644 L
353.309 32.631 L
354.135 32.618 L
354.961 32.605 L
355.788 32.592 L
356.614 32.579 L
357.441 32.567 L
358.267 32.554 L
359.094 32.541 L
359.92 32.529 L
360.747 32.517 L
361.573 32.504 L
362.399 32.492 L
363.226 32.48 L
364.052 32.468 L
364.879 32.456 L
365.705 32.444 L
366.532 32.433 L
367.358 32.421 L
368.184 32.41 L
369.011 32.398 L
369.837 32.387 L
370.664 32.376 L
371.49 32.364 L
372.317 32.353 L
373.143 32.342 L
373.969 32.331 L
374.796 32.32 L
375.622 32.31 L
376.449 32.299 L
377.275 32.288 L
378.102 32.278 L
378.928 32.267 L
379.755 32.257 L
380.581 32.247 L
381.407 32.237 L
382.234 32.227 L
383.06 32.217 L
383.887 32.207 L
384.713 32.197 L
385.54 32.187 L
386.366 32.178 L
387.192 32.168 L
388.019 32.158 L
388.845 32.149 L
389.672 32.14 L
390.498 32.13 L
391.325 32.121 L
392.151 32.112 L
392.977 32.103 L
393.804 32.094 L
394.63 32.085 L
395.457 32.077 L
396.283 32.068 L
397.11 32.059 L
397.936 32.051 L
398.763 32.043 L
399.589 32.034 L
400.415 32.026 L
401.242 32.018 L
402.068 32.01 L
402.895 32.002 L
403.721 31.994 L
404.548 31.986 L
405.374 31.978 L
406.2 31.97 L
407.027 31.963 L
407.853 31.955 L
408.68 31.947 L
409.506 31.94 L
410.333 31.933 L
411.159 31.926 L
411.986 31.918 L
412.812 31.911 L
413.638 31.904 L
414.465 31.897 L
415.291 31.89 L
416.118 31.884 L
416.944 31.877 L
417.771 31.87 L
418.597 31.864 L
419.423 31.857 L
420.25 31.851 L
421.076 31.844 L
421.903 31.838 L
422.729 31.832 L
423.556 31.826 L
424.382 31.82 L
425.208 31.814 L
426.035 31.808 L
426.861 31.802 L
427.688 31.796 L
428.514 31.791 L
429.341 31.785 L
430.167 31.78 L
430.993 31.774 L
431.82 31.769 L
432.646 31.764 L
433.473 31.758 L
434.299 31.753 L
435.126 31.748 L
435.952 31.743 L
436.779 31.738 L
437.605 31.733 L
438.431 31.728 L
439.258 31.724 L
440.084 31.719 L
440.911 31.714 L
441.737 31.71 L
442.564 31.705 L
443.39 31.701 L
444.216 31.697 L
445.043 31.692 L
445.869 31.688 L
446.696 31.684 L
447.522 31.68 L
448.349 31.676 L
449.175 31.672 L
450.002 31.668 L
450.828 31.665 L
451.654 31.661 L
452.481 31.657 L
453.307 31.654 L
454.134 31.65 L
454.96 31.647 L
455.787 31.643 L
456.613 31.64 L
457.439 31.637 L
458.266 31.634 L
459.092 31.631 L
459.919 31.628 L
460.745 31.625 L
461.572 31.622 L
462.398 31.619 L
463.224 31.616 L
464.051 31.613 L
464.877 31.611 L
465.704 31.608 L
466.53 31.606 L
467.357 31.603 L
468.183 31.601 L
469.01 31.598 L
469.836 31.596 L
470.662 31.594 L
471.489 31.592 L
472.315 31.59 L
473.142 31.588 L
473.968 31.586 L
474.795 31.584 L
475.621 31.582 L
476.447 31.58 L
477.274 31.578 L
478.1 31.577 L
478.927 31.575 L
479.753 31.574 L
480.58 31.572 L
481.406 31.571 L
482.232 31.569 L
483.059 31.568 L
483.885 31.567 L
484.712 31.566 L
485.538 31.564 L
486.365 31.563 L
487.191 31.562 L
488.018 31.562 L
488.844 31.561 L
489.67 31.56 L
490.497 31.559 L
491.323 31.558 L
492.15 31.558 L
492.976 31.557 L
493.803 31.556 L
494.629 31.556 L
495.455 31.556 L
496.282 31.555 L
497.108 31.555 L
497.935 31.555 L
498.761 31.554 L
499.588 31.554 L
500.414 31.554 L
501.241 31.554 L
S
GR
GS
0.494 0.184 0.557 RC
1 LJ
0.5 LW
N
76.89 337.513 M
77.717 332.054 L
78.543 326.603 L
79.369 321.166 L
80.196 315.749 L
81.022 310.356 L
81.849 304.994 L
82.675 299.667 L
83.502 294.381 L
84.328 289.142 L
85.155 283.955 L
85.981 278.826 L
86.807 273.76 L
87.634 268.762 L
88.46 263.838 L
89.287 258.994 L
90.113 254.234 L
90.94 249.565 L
91.766 244.992 L
92.592 240.52 L
93.419 236.155 L
94.245 231.902 L
95.072 227.766 L
95.898 223.754 L
96.725 219.871 L
97.551 216.121 L
98.377 212.511 L
99.204 209.046 L
100.03 205.732 L
100.857 202.573 L
101.683 199.576 L
102.51 196.733 L
103.336 193.937 L
104.163 191.162 L
104.989 188.41 L
105.815 185.681 L
106.642 182.976 L
107.468 180.294 L
108.295 177.637 L
109.121 175.005 L
109.948 172.397 L
110.774 169.816 L
111.6 167.26 L
112.427 164.731 L
113.253 162.228 L
114.08 159.753 L
114.906 157.306 L
115.733 154.887 L
116.559 152.497 L
117.385 150.136 L
118.212 147.804 L
119.038 145.503 L
119.865 143.232 L
120.691 140.991 L
121.518 138.783 L
122.344 136.605 L
123.171 134.46 L
123.997 132.348 L
124.823 130.268 L
125.65 128.223 L
126.476 126.211 L
127.303 124.233 L
128.129 122.29 L
128.956 120.383 L
129.782 118.511 L
130.608 116.675 L
131.435 114.876 L
132.261 113.114 L
133.088 111.389 L
133.914 109.702 L
134.741 108.053 L
135.567 106.443 L
136.393 104.873 L
137.22 103.342 L
138.046 101.851 L
138.873 100.4 L
139.699 98.991 L
140.526 97.622 L
141.352 96.296 L
142.179 95.012 L
143.005 93.77 L
143.831 92.572 L
144.658 91.417 L
145.484 90.306 L
146.311 89.24 L
147.137 88.218 L
147.964 87.242 L
148.79 86.312 L
149.616 85.428 L
150.443 84.59 L
151.269 83.799 L
152.096 83.053 L
152.922 82.321 L
153.749 81.592 L
154.575 80.868 L
155.402 80.148 L
156.228 79.433 L
157.054 78.721 L
157.881 78.015 L
158.707 77.312 L
159.534 76.615 L
160.36 75.921 L
161.187 75.233 L
162.013 74.548 L
162.839 73.869 L
163.666 73.194 L
164.492 72.524 L
165.319 71.858 L
166.145 71.197 L
166.972 70.541 L
167.798 69.89 L
168.624 69.244 L
169.451 68.602 L
170.277 67.966 L
171.104 67.334 L
171.93 66.708 L
172.757 66.086 L
173.583 65.47 L
174.41 64.858 L
175.236 64.252 L
176.062 63.651 L
176.889 63.055 L
177.715 62.465 L
178.542 61.879 L
179.368 61.299 L
180.195 60.724 L
181.021 60.155 L
181.847 59.591 L
182.674 59.032 L
183.5 58.479 L
184.327 57.931 L
185.153 57.389 L
185.98 56.853 L
186.806 56.322 L
187.632 55.797 L
188.459 55.277 L
189.285 54.763 L
190.112 54.255 L
190.938 53.753 L
191.765 53.256 L
192.591 52.766 L
193.418 52.281 L
194.244 51.802 L
195.07 51.329 L
195.897 50.862 L
196.723 50.401 L
197.55 49.946 L
198.376 49.497 L
199.203 49.054 L
200.029 48.618 L
200.855 48.187 L
201.682 47.763 L
202.508 47.345 L
203.335 46.934 L
204.161 46.528 L
204.988 46.129 L
205.814 45.737 L
206.641 45.351 L
207.467 44.971 L
208.293 44.598 L
209.12 44.231 L
209.946 43.871 L
210.773 43.517 L
211.599 43.17 L
212.426 42.83 L
213.252 42.497 L
214.078 42.17 L
214.905 41.85 L
215.731 41.536 L
216.558 41.23 L
217.384 40.931 L
218.211 40.638 L
219.037 40.352 L
219.863 40.073 L
220.69 39.802 L
221.516 39.537 L
222.343 39.279 L
223.169 39.029 L
223.996 38.785 L
224.822 38.549 L
225.649 38.32 L
226.475 38.098 L
227.301 37.884 L
228.128 37.677 L
228.954 37.477 L
229.781 37.284 L
230.607 37.099 L
231.434 36.922 L
232.26 36.752 L
233.086 36.589 L
233.913 36.434 L
234.739 36.287 L
235.566 36.147 L
236.392 36.014 L
237.219 35.89 L
238.045 35.773 L
238.871 35.664 L
239.698 35.563 L
240.524 35.469 L
241.351 35.384 L
242.177 35.306 L
243.004 35.236 L
243.83 35.174 L
244.657 35.121 L
245.483 35.075 L
246.309 35.037 L
247.136 35.007 L
247.962 34.982 L
248.789 34.956 L
249.615 34.931 L
250.442 34.906 L
251.268 34.881 L
252.094 34.856 L
252.921 34.831 L
253.747 34.806 L
254.574 34.782 L
255.4 34.757 L
256.227 34.733 L
257.053 34.709 L
257.879 34.684 L
258.706 34.66 L
259.532 34.636 L
260.359 34.613 L
261.185 34.589 L
262.012 34.565 L
262.838 34.542 L
263.665 34.518 L
264.491 34.495 L
265.317 34.472 L
266.144 34.449 L
266.97 34.426 L
267.797 34.403 L
268.623 34.38 L
269.45 34.357 L
270.276 34.335 L
271.102 34.312 L
271.929 34.29 L
272.755 34.268 L
273.582 34.246 L
274.408 34.223 L
275.235 34.202 L
276.061 34.18 L
276.887 34.158 L
277.714 34.136 L
278.54 34.115 L
279.367 34.093 L
280.193 34.072 L
281.02 34.051 L
281.846 34.03 L
282.673 34.009 L
283.499 33.988 L
284.325 33.967 L
285.152 33.947 L
285.978 33.926 L
286.805 33.905 L
287.631 33.885 L
288.458 33.865 L
289.284 33.845 L
290.11 33.825 L
290.937 33.805 L
291.763 33.785 L
292.59 33.765 L
293.416 33.745 L
294.243 33.726 L
295.069 33.706 L
295.896 33.687 L
296.722 33.668 L
297.548 33.649 L
298.375 33.63 L
299.201 33.611 L
300.028 33.592 L
300.854 33.573 L
301.681 33.554 L
302.507 33.536 L
303.333 33.517 L
304.16 33.499 L
304.986 33.481 L
305.813 33.463 L
306.639 33.445 L
307.466 33.427 L
308.292 33.409 L
309.118 33.391 L
309.945 33.373 L
310.771 33.356 L
311.598 33.338 L
312.424 33.321 L
313.251 33.304 L
314.077 33.286 L
314.904 33.269 L
315.73 33.252 L
316.556 33.235 L
317.383 33.219 L
318.209 33.202 L
319.036 33.185 L
319.862 33.169 L
320.689 33.152 L
321.515 33.136 L
322.341 33.12 L
323.168 33.104 L
323.994 33.088 L
324.821 33.072 L
325.647 33.056 L
326.474 33.04 L
327.3 33.024 L
328.126 33.009 L
328.953 32.993 L
329.779 32.978 L
330.606 32.963 L
331.432 32.947 L
332.259 32.932 L
333.085 32.917 L
333.912 32.902 L
334.738 32.887 L
335.564 32.873 L
336.391 32.858 L
337.217 32.844 L
338.044 32.829 L
338.87 32.815 L
339.697 32.8 L
340.523 32.786 L
341.349 32.772 L
342.176 32.758 L
343.002 32.744 L
343.829 32.73 L
344.655 32.717 L
345.482 32.703 L
346.308 32.689 L
347.134 32.676 L
347.961 32.662 L
348.787 32.649 L
349.614 32.636 L
350.44 32.623 L
351.267 32.61 L
352.093 32.597 L
352.92 32.584 L
353.746 32.571 L
354.572 32.558 L
355.399 32.546 L
356.225 32.533 L
357.052 32.521 L
357.878 32.508 L
358.705 32.496 L
359.531 32.484 L
360.357 32.472 L
361.184 32.46 L
362.01 32.448 L
362.837 32.436 L
363.663 32.424 L
364.49 32.413 L
365.316 32.401 L
366.143 32.39 L
366.969 32.378 L
367.795 32.367 L
368.622 32.356 L
369.448 32.345 L
370.275 32.333 L
371.101 32.322 L
371.928 32.312 L
372.754 32.301 L
373.58 32.29 L
374.407 32.279 L
375.233 32.269 L
376.06 32.258 L
376.886 32.248 L
377.713 32.237 L
378.539 32.227 L
379.365 32.217 L
380.192 32.207 L
381.018 32.197 L
381.845 32.187 L
382.671 32.177 L
383.498 32.167 L
384.324 32.158 L
385.151 32.148 L
385.977 32.139 L
386.803 32.129 L
387.63 32.12 L
388.456 32.11 L
389.283 32.101 L
390.109 32.092 L
390.936 32.083 L
391.762 32.074 L
392.588 32.065 L
393.415 32.056 L
394.241 32.048 L
395.068 32.039 L
395.894 32.03 L
396.721 32.022 L
397.547 32.013 L
398.373 32.005 L
399.2 31.997 L
400.026 31.988 L
400.853 31.98 L
401.679 31.972 L
402.506 31.964 L
403.332 31.956 L
404.159 31.949 L
404.985 31.941 L
405.811 31.933 L
406.638 31.926 L
407.464 31.918 L
408.291 31.911 L
409.117 31.903 L
409.944 31.896 L
410.77 31.889 L
411.596 31.881 L
412.423 31.874 L
413.249 31.867 L
414.076 31.86 L
414.902 31.854 L
415.729 31.847 L
416.555 31.84 L
417.382 31.833 L
418.208 31.827 L
419.034 31.82 L
419.861 31.814 L
420.687 31.808 L
421.514 31.801 L
422.34 31.795 L
423.167 31.789 L
423.993 31.783 L
424.819 31.777 L
425.646 31.771 L
426.472 31.765 L
427.299 31.759 L
428.125 31.754 L
428.952 31.748 L
429.778 31.742 L
430.604 31.737 L
431.431 31.731 L
432.257 31.726 L
433.084 31.721 L
433.91 31.715 L
434.737 31.71 L
435.563 31.705 L
436.389 31.7 L
437.216 31.695 L
438.042 31.69 L
438.869 31.685 L
439.695 31.681 L
440.522 31.676 L
441.348 31.671 L
442.175 31.667 L
443.001 31.662 L
443.827 31.658 L
444.654 31.653 L
445.48 31.649 L
446.307 31.645 L
447.133 31.641 L
447.96 31.637 L
448.786 31.633 L
449.612 31.629 L
450.439 31.625 L
451.265 31.621 L
452.092 31.617 L
452.918 31.613 L
453.745 31.61 L
454.571 31.606 L
455.398 31.603 L
456.224 31.599 L
457.05 31.596 L
457.877 31.592 L
458.703 31.589 L
459.53 31.586 L
460.356 31.583 L
461.183 31.58 L
462.009 31.577 L
462.835 31.574 L
463.662 31.571 L
464.488 31.568 L
465.315 31.565 L
466.141 31.562 L
466.968 31.56 L
467.794 31.557 L
468.62 31.555 L
469.447 31.552 L
470.273 31.55 L
471.1 31.547 L
471.926 31.545 L
472.753 31.543 L
473.579 31.541 L
474.406 31.539 L
475.232 31.537 L
476.058 31.535 L
476.885 31.533 L
477.711 31.531 L
478.538 31.529 L
479.364 31.527 L
480.191 31.525 L
481.017 31.524 L
481.843 31.522 L
482.67 31.521 L
483.496 31.519 L
484.323 31.518 L
485.149 31.516 L
485.976 31.515 L
486.802 31.514 L
487.628 31.513 L
488.455 31.511 L
489.281 31.51 L
490.108 31.509 L
490.934 31.508 L
491.761 31.507 L
492.587 31.507 L
493.414 31.506 L
494.24 31.505 L
495.066 31.504 L
495.893 31.504 L
496.719 31.503 L
497.546 31.502 L
498.372 31.502 L
499.199 31.502 L
500.025 31.501 L
500.851 31.501 L
501.678 31.501 L
502.504 31.5 L
503.331 31.5 L
504.157 31.5 L
504.984 31.5 L
S
GR
GS
0.467 0.675 0.188 RC
1 LJ
0.5 LW
N
74.894 350.776 M
75.721 344.829 L
76.547 338.89 L
77.374 332.967 L
78.2 327.065 L
79.027 321.192 L
79.853 315.353 L
80.679 309.555 L
81.506 303.805 L
82.332 298.109 L
83.159 292.473 L
83.985 286.904 L
84.812 281.409 L
85.638 275.994 L
86.465 270.665 L
87.291 265.43 L
88.117 260.293 L
88.944 255.262 L
89.77 250.344 L
90.597 245.545 L
91.423 240.871 L
92.25 236.328 L
93.076 231.924 L
93.902 227.665 L
94.729 223.557 L
95.555 219.606 L
96.382 215.82 L
97.208 212.205 L
98.035 208.766 L
98.861 205.511 L
99.688 202.442 L
100.514 199.451 L
101.34 196.485 L
102.167 193.545 L
102.993 190.632 L
103.82 187.745 L
104.646 184.886 L
105.473 182.054 L
106.299 179.251 L
107.125 176.476 L
107.952 173.731 L
108.778 171.015 L
109.605 168.329 L
110.431 165.673 L
111.258 163.049 L
112.084 160.456 L
112.91 157.895 L
113.737 155.366 L
114.563 152.869 L
115.39 150.406 L
116.216 147.977 L
117.043 145.582 L
117.869 143.221 L
118.696 140.896 L
119.522 138.605 L
120.348 136.351 L
121.175 134.133 L
122.001 131.952 L
122.828 129.808 L
123.654 127.703 L
124.481 125.635 L
125.307 123.605 L
126.133 121.615 L
126.96 119.665 L
127.786 117.754 L
128.613 115.884 L
129.439 114.055 L
130.266 112.267 L
131.092 110.521 L
131.918 108.818 L
132.745 107.157 L
133.571 105.539 L
134.398 103.965 L
135.224 102.435 L
136.051 100.949 L
136.877 99.509 L
137.704 98.114 L
138.53 96.764 L
139.356 95.461 L
140.183 94.205 L
141.009 92.997 L
141.836 91.835 L
142.662 90.722 L
143.489 89.658 L
144.315 88.643 L
145.141 87.677 L
145.968 86.761 L
146.794 85.896 L
147.621 85.082 L
148.447 84.305 L
149.274 83.536 L
150.1 82.77 L
150.926 82.01 L
151.753 81.254 L
152.579 80.502 L
153.406 79.756 L
154.232 79.014 L
155.059 78.277 L
155.885 77.545 L
156.712 76.818 L
157.538 76.096 L
158.364 75.379 L
159.191 74.667 L
160.017 73.959 L
160.844 73.257 L
161.67 72.561 L
162.497 71.869 L
163.323 71.182 L
164.149 70.501 L
164.976 69.825 L
165.802 69.154 L
166.629 68.489 L
167.455 67.829 L
168.282 67.174 L
169.108 66.525 L
169.935 65.881 L
170.761 65.243 L
171.587 64.611 L
172.414 63.984 L
173.24 63.362 L
174.067 62.747 L
174.893 62.137 L
175.72 61.533 L
176.546 60.934 L
177.372 60.342 L
178.199 59.755 L
179.025 59.174 L
179.852 58.599 L
180.678 58.03 L
181.505 57.467 L
182.331 56.91 L
183.157 56.36 L
183.984 55.815 L
184.81 55.276 L
185.637 54.744 L
186.463 54.218 L
187.29 53.698 L
188.116 53.184 L
188.943 52.677 L
189.769 52.176 L
190.595 51.681 L
191.422 51.193 L
192.248 50.712 L
193.075 50.237 L
193.901 49.768 L
194.728 49.306 L
195.554 48.851 L
196.38 48.402 L
197.207 47.96 L
198.033 47.525 L
198.86 47.097 L
199.686 46.675 L
200.513 46.26 L
201.339 45.852 L
202.165 45.451 L
202.992 45.057 L
203.818 44.67 L
204.645 44.29 L
205.471 43.917 L
206.298 43.551 L
207.124 43.192 L
207.951 42.841 L
208.777 42.496 L
209.603 42.159 L
210.43 41.829 L
211.256 41.507 L
212.083 41.192 L
212.909 40.884 L
213.736 40.584 L
214.562 40.291 L
215.388 40.005 L
216.215 39.728 L
217.041 39.457 L
217.868 39.195 L
218.694 38.94 L
219.521 38.692 L
220.347 38.453 L
221.173 38.221 L
222 37.997 L
222.826 37.78 L
223.653 37.572 L
224.479 37.372 L
225.306 37.179 L
226.132 36.994 L
226.959 36.818 L
227.785 36.649 L
228.611 36.489 L
229.438 36.337 L
230.264 36.193 L
231.091 36.057 L
231.917 35.929 L
232.744 35.81 L
233.57 35.698 L
234.396 35.596 L
235.223 35.501 L
236.049 35.415 L
236.876 35.338 L
237.702 35.269 L
238.529 35.208 L
239.355 35.156 L
240.182 35.113 L
241.008 35.078 L
241.834 35.051 L
242.661 35.025 L
243.487 34.999 L
244.314 34.973 L
245.14 34.947 L
245.967 34.922 L
246.793 34.896 L
247.619 34.871 L
248.446 34.846 L
249.272 34.821 L
250.099 34.796 L
250.925 34.771 L
251.752 34.746 L
252.578 34.721 L
253.404 34.697 L
254.231 34.672 L
255.057 34.648 L
255.884 34.624 L
256.71 34.599 L
257.537 34.575 L
258.363 34.552 L
259.19 34.528 L
260.016 34.504 L
260.842 34.481 L
261.669 34.457 L
262.495 34.434 L
263.322 34.411 L
264.148 34.387 L
264.975 34.364 L
265.801 34.342 L
266.627 34.319 L
267.454 34.296 L
268.28 34.274 L
269.107 34.251 L
269.933 34.229 L
270.76 34.207 L
271.586 34.184 L
272.412 34.162 L
273.239 34.14 L
274.065 34.119 L
274.892 34.097 L
275.718 34.075 L
276.545 34.054 L
277.371 34.033 L
278.198 34.011 L
279.024 33.99 L
279.85 33.969 L
280.677 33.948 L
281.503 33.927 L
282.33 33.907 L
283.156 33.886 L
283.983 33.865 L
284.809 33.845 L
285.635 33.825 L
286.462 33.805 L
287.288 33.784 L
288.115 33.764 L
288.941 33.744 L
289.768 33.725 L
290.594 33.705 L
291.421 33.685 L
292.247 33.666 L
293.073 33.647 L
293.9 33.627 L
294.726 33.608 L
295.553 33.589 L
296.379 33.57 L
297.206 33.551 L
298.032 33.533 L
298.858 33.514 L
299.685 33.495 L
300.511 33.477 L
301.338 33.459 L
302.164 33.44 L
302.991 33.422 L
303.817 33.404 L
304.643 33.386 L
305.47 33.368 L
306.296 33.351 L
307.123 33.333 L
307.949 33.315 L
308.776 33.298 L
309.602 33.281 L
310.428 33.263 L
311.255 33.246 L
312.081 33.229 L
312.908 33.212 L
313.734 33.195 L
314.561 33.179 L
315.387 33.162 L
316.214 33.145 L
317.04 33.129 L
317.866 33.113 L
318.693 33.096 L
319.519 33.08 L
320.346 33.064 L
321.172 33.048 L
321.999 33.032 L
322.825 33.016 L
323.651 33.001 L
324.478 32.985 L
325.304 32.97 L
326.131 32.954 L
326.957 32.939 L
327.784 32.924 L
328.61 32.909 L
329.437 32.894 L
330.263 32.879 L
331.089 32.864 L
331.916 32.849 L
332.742 32.835 L
333.569 32.82 L
334.395 32.806 L
335.222 32.791 L
336.048 32.777 L
336.874 32.763 L
337.701 32.749 L
338.527 32.735 L
339.354 32.721 L
340.18 32.707 L
341.007 32.693 L
341.833 32.68 L
342.659 32.666 L
343.486 32.653 L
344.312 32.639 L
345.139 32.626 L
345.965 32.613 L
346.792 32.6 L
347.618 32.587 L
348.445 32.574 L
349.271 32.561 L
350.097 32.548 L
350.924 32.536 L
351.75 32.523 L
352.577 32.511 L
353.403 32.498 L
354.23 32.486 L
355.056 32.474 L
355.882 32.462 L
356.709 32.45 L
357.535 32.438 L
358.362 32.426 L
359.188 32.414 L
360.015 32.403 L
360.841 32.391 L
361.667 32.379 L
362.494 32.368 L
363.32 32.357 L
364.147 32.345 L
364.973 32.334 L
365.8 32.323 L
366.626 32.312 L
367.453 32.301 L
368.279 32.291 L
369.105 32.28 L
369.932 32.269 L
370.758 32.259 L
371.585 32.248 L
372.411 32.238 L
373.238 32.228 L
374.064 32.217 L
374.89 32.207 L
375.717 32.197 L
376.543 32.187 L
377.37 32.177 L
378.196 32.167 L
379.023 32.158 L
379.849 32.148 L
380.676 32.138 L
381.502 32.129 L
382.328 32.12 L
383.155 32.11 L
383.981 32.101 L
384.808 32.092 L
385.634 32.083 L
386.461 32.074 L
387.287 32.065 L
388.113 32.056 L
388.94 32.047 L
389.766 32.039 L
390.593 32.03 L
391.419 32.022 L
392.246 32.013 L
393.072 32.005 L
393.898 31.996 L
394.725 31.988 L
395.551 31.98 L
396.378 31.972 L
397.204 31.964 L
398.031 31.956 L
398.857 31.948 L
399.684 31.941 L
400.51 31.933 L
401.336 31.925 L
402.163 31.918 L
402.989 31.911 L
403.816 31.903 L
404.642 31.896 L
405.469 31.889 L
406.295 31.882 L
407.121 31.875 L
407.948 31.867 L
408.774 31.861 L
409.601 31.854 L
410.427 31.847 L
411.254 31.84 L
412.08 31.834 L
412.906 31.827 L
413.733 31.821 L
414.559 31.814 L
415.386 31.808 L
416.212 31.802 L
417.039 31.796 L
417.865 31.79 L
418.692 31.784 L
419.518 31.778 L
420.344 31.772 L
421.171 31.766 L
421.997 31.76 L
422.824 31.755 L
423.65 31.749 L
424.477 31.744 L
425.303 31.738 L
426.129 31.733 L
426.956 31.727 L
427.782 31.722 L
428.609 31.717 L
429.435 31.712 L
430.262 31.707 L
431.088 31.702 L
431.914 31.697 L
432.741 31.692 L
433.567 31.687 L
434.394 31.683 L
435.22 31.678 L
436.047 31.674 L
436.873 31.669 L
437.7 31.665 L
438.526 31.66 L
439.352 31.656 L
440.179 31.652 L
441.005 31.648 L
441.832 31.644 L
442.658 31.64 L
443.485 31.636 L
444.311 31.632 L
445.137 31.628 L
445.964 31.624 L
446.79 31.621 L
447.617 31.617 L
448.443 31.614 L
449.27 31.61 L
450.096 31.607 L
450.922 31.603 L
451.749 31.6 L
452.575 31.597 L
453.402 31.594 L
454.228 31.591 L
455.055 31.587 L
455.881 31.585 L
456.708 31.582 L
457.534 31.579 L
458.36 31.576 L
459.187 31.573 L
460.013 31.571 L
460.84 31.568 L
461.666 31.565 L
462.493 31.563 L
463.319 31.561 L
464.145 31.558 L
464.972 31.556 L
465.798 31.554 L
466.625 31.552 L
467.451 31.549 L
468.278 31.547 L
469.104 31.546 L
469.931 31.544 L
470.757 31.542 L
471.583 31.54 L
472.41 31.538 L
473.236 31.536 L
474.063 31.535 L
474.889 31.533 L
475.716 31.532 L
476.542 31.53 L
477.368 31.529 L
478.195 31.528 L
479.021 31.526 L
479.848 31.525 L
480.674 31.524 L
481.501 31.523 L
482.327 31.522 L
483.153 31.521 L
483.98 31.52 L
484.806 31.519 L
485.633 31.518 L
486.459 31.517 L
487.286 31.517 L
488.112 31.516 L
488.939 31.515 L
489.765 31.515 L
490.591 31.514 L
491.418 31.514 L
492.244 31.514 L
493.071 31.513 L
493.897 31.513 L
494.724 31.513 L
495.55 31.513 L
496.376 31.512 L
497.203 31.512 L
S
GR
GS
0.302 0.745 0.933 RC
[10 6] 0 setdash
2 LJ
0.5 LW
N
73.006 373.454 M
73.833 367.094 L
74.659 360.751 L
75.486 354.43 L
76.312 348.139 L
77.139 341.884 L
77.965 335.673 L
78.791 329.513 L
79.618 323.409 L
80.444 317.37 L
81.271 311.401 L
82.097 305.51 L
82.924 299.703 L
83.75 293.988 L
84.577 288.372 L
85.403 282.86 L
86.229 277.46 L
87.056 272.179 L
87.882 267.023 L
88.709 262 L
89.535 257.117 L
90.362 252.379 L
91.188 247.795 L
92.014 243.37 L
92.841 239.112 L
93.667 235.028 L
94.494 231.124 L
95.32 227.408 L
96.147 223.885 L
96.973 220.532 L
97.799 217.223 L
98.626 213.948 L
99.452 210.704 L
100.279 207.495 L
101.105 204.318 L
101.932 201.176 L
102.758 198.069 L
103.585 194.996 L
104.411 191.959 L
105.237 188.958 L
106.064 185.993 L
106.89 183.065 L
107.717 180.174 L
108.543 177.32 L
109.37 174.505 L
110.196 171.728 L
111.022 168.99 L
111.849 166.291 L
112.675 163.632 L
113.502 161.013 L
114.328 158.434 L
115.155 155.897 L
115.981 153.401 L
116.807 150.947 L
117.634 148.536 L
118.46 146.167 L
119.287 143.841 L
120.113 141.559 L
120.94 139.321 L
121.766 137.128 L
122.593 134.98 L
123.419 132.876 L
124.245 130.819 L
125.072 128.808 L
125.898 126.844 L
126.725 124.926 L
127.551 123.057 L
128.378 121.235 L
129.204 119.461 L
130.03 117.737 L
130.857 116.061 L
131.683 114.436 L
132.51 112.86 L
133.336 111.335 L
134.163 109.861 L
134.989 108.439 L
135.816 107.068 L
136.642 105.75 L
137.468 104.484 L
138.295 103.271 L
139.121 102.112 L
139.948 101.007 L
140.774 99.95 L
141.601 98.904 L
142.427 97.863 L
143.253 96.829 L
144.08 95.8 L
144.906 94.776 L
145.733 93.759 L
146.559 92.748 L
147.386 91.744 L
148.212 90.745 L
149.038 89.753 L
149.865 88.767 L
150.691 87.788 L
151.518 86.816 L
152.344 85.851 L
153.171 84.892 L
153.997 83.94 L
154.824 82.996 L
155.65 82.058 L
156.476 81.128 L
157.303 80.205 L
158.129 79.29 L
158.956 78.382 L
159.782 77.482 L
160.609 76.59 L
161.435 75.705 L
162.261 74.829 L
163.088 73.96 L
163.914 73.1 L
164.741 72.248 L
165.567 71.404 L
166.394 70.569 L
167.22 69.742 L
168.046 68.924 L
168.873 68.114 L
169.699 67.313 L
170.526 66.522 L
171.352 65.739 L
172.179 64.965 L
173.005 64.201 L
173.832 63.446 L
174.658 62.7 L
175.484 61.964 L
176.311 61.237 L
177.137 60.52 L
177.964 59.813 L
178.79 59.116 L
179.617 58.428 L
180.443 57.751 L
181.269 57.084 L
182.096 56.427 L
182.922 55.781 L
183.749 55.145 L
184.575 54.519 L
185.402 53.905 L
186.228 53.301 L
187.054 52.708 L
187.881 52.125 L
188.707 51.554 L
189.534 50.994 L
190.36 50.446 L
191.187 49.908 L
192.013 49.382 L
192.84 48.868 L
193.666 48.365 L
194.492 47.874 L
195.319 47.395 L
196.145 46.927 L
196.972 46.472 L
197.798 46.029 L
198.625 45.598 L
199.451 45.179 L
200.277 44.773 L
201.104 44.379 L
201.93 43.997 L
202.757 43.629 L
203.583 43.273 L
204.41 42.93 L
205.236 42.6 L
206.063 42.284 L
206.889 41.98 L
207.715 41.69 L
208.542 41.413 L
209.368 41.149 L
210.195 40.899 L
211.021 40.663 L
211.848 40.44 L
212.674 40.232 L
213.5 40.037 L
214.327 39.856 L
215.153 39.69 L
215.98 39.537 L
216.806 39.399 L
217.633 39.276 L
218.459 39.167 L
219.285 39.073 L
220.112 38.993 L
220.938 38.927 L
221.765 38.864 L
222.591 38.802 L
223.418 38.74 L
224.244 38.678 L
225.071 38.616 L
225.897 38.555 L
226.723 38.494 L
227.55 38.434 L
228.376 38.374 L
229.203 38.314 L
230.029 38.254 L
230.856 38.195 L
231.682 38.136 L
232.508 38.077 L
233.335 38.018 L
234.161 37.96 L
234.988 37.903 L
235.814 37.845 L
236.641 37.788 L
237.467 37.731 L
238.293 37.674 L
239.12 37.618 L
239.946 37.562 L
240.773 37.506 L
241.599 37.451 L
242.426 37.396 L
243.252 37.341 L
244.079 37.287 L
244.905 37.232 L
245.731 37.178 L
246.558 37.125 L
247.384 37.072 L
248.211 37.019 L
249.037 36.966 L
249.864 36.913 L
250.69 36.861 L
251.516 36.809 L
252.343 36.758 L
253.169 36.707 L
253.996 36.656 L
254.822 36.605 L
255.649 36.555 L
256.475 36.505 L
257.301 36.455 L
258.128 36.405 L
258.954 36.356 L
259.781 36.307 L
260.607 36.258 L
261.434 36.21 L
262.26 36.162 L
263.087 36.114 L
263.913 36.067 L
264.739 36.02 L
265.566 35.973 L
266.392 35.926 L
267.219 35.88 L
268.045 35.833 L
268.872 35.788 L
269.698 35.742 L
270.524 35.697 L
271.351 35.652 L
272.177 35.607 L
273.004 35.563 L
273.83 35.519 L
274.657 35.475 L
275.483 35.431 L
276.31 35.388 L
277.136 35.345 L
277.962 35.302 L
278.789 35.26 L
279.615 35.218 L
280.442 35.176 L
281.268 35.134 L
282.095 35.093 L
282.921 35.051 L
283.747 35.011 L
284.574 34.97 L
285.4 34.93 L
286.227 34.89 L
287.053 34.85 L
287.88 34.811 L
288.706 34.771 L
289.532 34.732 L
290.359 34.694 L
291.185 34.655 L
292.012 34.617 L
292.838 34.579 L
293.665 34.542 L
294.491 34.504 L
295.318 34.467 L
296.144 34.43 L
296.97 34.394 L
297.797 34.358 L
298.623 34.321 L
299.45 34.286 L
300.276 34.25 L
301.103 34.215 L
301.929 34.18 L
302.755 34.145 L
303.582 34.111 L
304.408 34.076 L
305.235 34.042 L
306.061 34.009 L
306.888 33.975 L
307.714 33.942 L
308.54 33.909 L
309.367 33.876 L
310.193 33.844 L
311.02 33.812 L
311.846 33.78 L
312.673 33.748 L
313.499 33.717 L
314.326 33.686 L
315.152 33.655 L
315.978 33.624 L
316.805 33.594 L
317.631 33.563 L
318.458 33.533 L
319.284 33.504 L
320.111 33.474 L
320.937 33.445 L
321.763 33.416 L
322.59 33.387 L
323.416 33.359 L
324.243 33.331 L
325.069 33.303 L
325.896 33.275 L
326.722 33.248 L
327.548 33.22 L
328.375 33.193 L
329.201 33.167 L
330.028 33.14 L
330.854 33.114 L
331.681 33.088 L
332.507 33.062 L
333.334 33.036 L
334.16 33.011 L
334.986 32.986 L
335.813 32.961 L
336.639 32.936 L
337.466 32.912 L
338.292 32.888 L
339.119 32.864 L
339.945 32.84 L
340.771 32.817 L
341.598 32.794 L
342.424 32.771 L
343.251 32.748 L
344.077 32.725 L
344.904 32.703 L
345.73 32.681 L
346.556 32.659 L
347.383 32.638 L
348.209 32.616 L
349.036 32.595 L
349.862 32.574 L
350.689 32.554 L
351.515 32.533 L
352.342 32.513 L
353.168 32.493 L
353.994 32.473 L
354.821 32.453 L
355.647 32.434 L
356.474 32.415 L
357.3 32.396 L
358.127 32.377 L
358.953 32.359 L
359.779 32.341 L
360.606 32.323 L
361.432 32.305 L
362.259 32.287 L
363.085 32.27 L
363.912 32.253 L
364.738 32.236 L
365.565 32.219 L
366.391 32.203 L
367.217 32.186 L
368.044 32.17 L
368.87 32.154 L
369.697 32.139 L
370.523 32.123 L
371.35 32.108 L
372.176 32.093 L
373.002 32.078 L
373.829 32.064 L
374.655 32.049 L
375.482 32.035 L
376.308 32.021 L
377.135 32.007 L
377.961 31.994 L
378.787 31.98 L
379.614 31.967 L
380.44 31.954 L
381.267 31.942 L
382.093 31.929 L
382.92 31.917 L
383.746 31.905 L
384.573 31.893 L
385.399 31.881 L
386.225 31.87 L
387.052 31.858 L
387.878 31.847 L
388.705 31.836 L
389.531 31.826 L
390.358 31.815 L
391.184 31.805 L
392.01 31.795 L
392.837 31.785 L
393.663 31.775 L
394.49 31.766 L
395.316 31.756 L
396.143 31.747 L
396.969 31.738 L
397.796 31.73 L
398.622 31.721 L
399.448 31.713 L
400.275 31.705 L
401.101 31.697 L
401.928 31.689 L
402.754 31.681 L
403.581 31.674 L
404.407 31.667 L
405.233 31.66 L
406.06 31.653 L
406.886 31.646 L
407.713 31.64 L
408.539 31.634 L
409.366 31.627 L
410.192 31.622 L
411.018 31.616 L
411.845 31.61 L
412.671 31.605 L
413.498 31.6 L
414.324 31.595 L
415.151 31.59 L
415.977 31.586 L
416.803 31.581 L
417.63 31.577 L
418.456 31.573 L
419.283 31.569 L
420.109 31.565 L
420.936 31.562 L
421.762 31.559 L
422.589 31.555 L
423.415 31.552 L
424.241 31.55 L
425.068 31.547 L
425.894 31.545 L
426.721 31.542 L
427.547 31.54 L
428.374 31.538 L
429.2 31.537 L
430.026 31.535 L
430.853 31.534 L
431.679 31.532 L
432.506 31.531 L
433.332 31.53 L
434.159 31.53 L
434.985 31.529 L
435.812 31.529 L
436.638 31.528 L
S
GR
GS
0.635 0.078 0.184 RC
[10 6] 0 setdash
2 LJ
0.5 LW
N
75.759 343.3 M
76.586 337.547 L
77.412 331.804 L
78.239 326.076 L
79.065 320.368 L
79.892 314.688 L
80.718 309.04 L
81.545 303.432 L
82.371 297.869 L
83.197 292.357 L
84.024 286.903 L
84.85 281.512 L
85.677 276.19 L
86.503 270.943 L
87.33 265.778 L
88.156 260.7 L
88.982 255.716 L
89.809 250.831 L
90.635 246.052 L
91.462 241.385 L
92.288 236.835 L
93.115 232.408 L
93.941 228.112 L
94.767 223.951 L
95.594 219.932 L
96.42 216.061 L
97.247 212.344 L
98.073 208.786 L
98.9 205.395 L
99.726 202.175 L
100.553 199.134 L
101.379 196.23 L
102.205 193.356 L
103.032 190.507 L
103.858 187.683 L
104.685 184.885 L
105.511 182.113 L
106.338 179.368 L
107.164 176.649 L
107.99 173.958 L
108.817 171.295 L
109.643 168.66 L
110.47 166.054 L
111.296 163.477 L
112.123 160.93 L
112.949 158.412 L
113.775 155.925 L
114.602 153.469 L
115.428 151.044 L
116.255 148.65 L
117.081 146.289 L
117.908 143.96 L
118.734 141.664 L
119.561 139.402 L
120.387 137.173 L
121.213 134.978 L
122.04 132.818 L
122.866 130.693 L
123.693 128.604 L
124.519 126.55 L
125.346 124.533 L
126.172 122.552 L
126.998 120.609 L
127.825 118.703 L
128.651 116.835 L
129.478 115.006 L
130.304 113.215 L
131.131 111.464 L
131.957 109.752 L
132.784 108.081 L
133.61 106.45 L
134.436 104.86 L
135.263 103.311 L
136.089 101.804 L
136.916 100.339 L
137.742 98.917 L
138.569 97.538 L
139.395 96.203 L
140.221 94.911 L
141.048 93.664 L
141.874 92.462 L
142.701 91.304 L
143.527 90.193 L
144.354 89.127 L
145.18 88.108 L
146.006 87.135 L
146.833 86.21 L
147.659 85.333 L
148.486 84.503 L
149.312 83.723 L
150.139 82.967 L
150.965 82.217 L
151.792 81.47 L
152.618 80.728 L
153.444 79.991 L
154.271 79.258 L
155.097 78.53 L
155.924 77.807 L
156.75 77.088 L
157.577 76.374 L
158.403 75.665 L
159.229 74.961 L
160.056 74.261 L
160.882 73.567 L
161.709 72.877 L
162.535 72.192 L
163.362 71.513 L
164.188 70.838 L
165.014 70.168 L
165.841 69.504 L
166.667 68.845 L
167.494 68.191 L
168.32 67.542 L
169.147 66.898 L
169.973 66.26 L
170.8 65.627 L
171.626 64.999 L
172.452 64.377 L
173.279 63.76 L
174.105 63.149 L
174.932 62.544 L
175.758 61.943 L
176.585 61.349 L
177.411 60.76 L
178.237 60.177 L
179.064 59.599 L
179.89 59.028 L
180.717 58.462 L
181.543 57.901 L
182.37 57.347 L
183.196 56.799 L
184.022 56.256 L
184.849 55.72 L
185.675 55.189 L
186.502 54.665 L
187.328 54.147 L
188.155 53.634 L
188.981 53.128 L
189.808 52.628 L
190.634 52.135 L
191.46 51.647 L
192.287 51.166 L
193.113 50.691 L
193.94 50.223 L
194.766 49.761 L
195.593 49.306 L
196.419 48.857 L
197.245 48.414 L
198.072 47.978 L
198.898 47.549 L
199.725 47.126 L
200.551 46.71 L
201.378 46.301 L
202.204 45.898 L
203.031 45.503 L
203.857 45.114 L
204.683 44.732 L
205.51 44.357 L
206.336 43.988 L
207.163 43.627 L
207.989 43.273 L
208.816 42.926 L
209.642 42.586 L
210.468 42.253 L
211.295 41.927 L
212.121 41.608 L
212.948 41.297 L
213.774 40.993 L
214.601 40.696 L
215.427 40.406 L
216.253 40.124 L
217.08 39.849 L
217.906 39.582 L
218.733 39.322 L
219.559 39.07 L
220.386 38.825 L
221.212 38.588 L
222.038 38.359 L
222.865 38.137 L
223.691 37.923 L
224.518 37.717 L
225.344 37.518 L
226.171 37.328 L
226.997 37.145 L
227.824 36.97 L
228.65 36.803 L
229.476 36.644 L
230.303 36.493 L
231.129 36.35 L
231.956 36.215 L
232.782 36.089 L
233.609 35.97 L
234.435 35.86 L
235.261 35.758 L
236.088 35.664 L
236.914 35.578 L
237.741 35.501 L
238.567 35.432 L
239.394 35.372 L
240.22 35.32 L
241.047 35.276 L
241.873 35.241 L
242.699 35.213 L
243.526 35.185 L
244.352 35.158 L
245.179 35.13 L
246.005 35.103 L
246.832 35.076 L
247.658 35.049 L
248.484 35.022 L
249.311 34.995 L
250.137 34.968 L
250.964 34.942 L
251.79 34.915 L
252.617 34.889 L
253.443 34.863 L
254.269 34.837 L
255.096 34.811 L
255.922 34.785 L
256.749 34.759 L
257.575 34.734 L
258.402 34.708 L
259.228 34.683 L
260.055 34.658 L
260.881 34.633 L
261.707 34.608 L
262.534 34.583 L
263.36 34.558 L
264.187 34.534 L
265.013 34.509 L
265.84 34.485 L
266.666 34.46 L
267.492 34.436 L
268.319 34.412 L
269.145 34.389 L
269.972 34.365 L
270.798 34.341 L
271.625 34.318 L
272.451 34.294 L
273.277 34.271 L
274.104 34.248 L
274.93 34.225 L
275.757 34.202 L
276.583 34.179 L
277.41 34.156 L
278.236 34.134 L
279.063 34.111 L
279.889 34.089 L
280.715 34.067 L
281.542 34.045 L
282.368 34.023 L
283.195 34.001 L
284.021 33.979 L
284.848 33.957 L
285.674 33.936 L
286.5 33.914 L
287.327 33.893 L
288.153 33.872 L
288.98 33.851 L
289.806 33.83 L
290.633 33.809 L
291.459 33.788 L
292.285 33.768 L
293.112 33.747 L
293.938 33.727 L
294.765 33.706 L
295.591 33.686 L
296.418 33.666 L
297.244 33.646 L
298.071 33.626 L
298.897 33.607 L
299.723 33.587 L
300.55 33.567 L
301.376 33.548 L
302.203 33.529 L
303.029 33.51 L
303.856 33.491 L
304.682 33.472 L
305.508 33.453 L
306.335 33.434 L
307.161 33.415 L
307.988 33.397 L
308.814 33.379 L
309.641 33.36 L
310.467 33.342 L
311.294 33.324 L
312.12 33.306 L
312.946 33.288 L
313.773 33.271 L
314.599 33.253 L
315.426 33.235 L
316.252 33.218 L
317.079 33.201 L
317.905 33.183 L
318.731 33.166 L
319.558 33.149 L
320.384 33.132 L
321.211 33.116 L
322.037 33.099 L
322.864 33.082 L
323.69 33.066 L
324.516 33.049 L
325.343 33.033 L
326.169 33.017 L
326.996 33.001 L
327.822 32.985 L
328.649 32.969 L
329.475 32.953 L
330.302 32.938 L
331.128 32.922 L
331.954 32.907 L
332.781 32.891 L
333.607 32.876 L
334.434 32.861 L
335.26 32.846 L
336.087 32.831 L
336.913 32.816 L
337.739 32.802 L
338.566 32.787 L
339.392 32.772 L
340.219 32.758 L
341.045 32.744 L
341.872 32.729 L
342.698 32.715 L
343.524 32.701 L
344.351 32.687 L
345.177 32.674 L
346.004 32.66 L
346.83 32.646 L
347.657 32.633 L
348.483 32.619 L
349.31 32.606 L
350.136 32.593 L
350.962 32.58 L
351.789 32.566 L
352.615 32.553 L
353.442 32.541 L
354.268 32.528 L
355.095 32.515 L
355.921 32.503 L
356.747 32.49 L
357.574 32.478 L
358.4 32.466 L
359.227 32.453 L
360.053 32.441 L
360.88 32.429 L
361.706 32.417 L
362.533 32.406 L
363.359 32.394 L
364.185 32.382 L
365.012 32.371 L
365.838 32.359 L
366.665 32.348 L
367.491 32.337 L
368.318 32.326 L
369.144 32.315 L
369.97 32.304 L
370.797 32.293 L
371.623 32.282 L
372.45 32.271 L
373.276 32.261 L
374.103 32.25 L
374.929 32.24 L
375.755 32.23 L
376.582 32.219 L
377.408 32.209 L
378.235 32.199 L
379.061 32.189 L
379.888 32.179 L
380.714 32.17 L
381.54 32.16 L
382.367 32.15 L
383.193 32.141 L
384.02 32.131 L
384.846 32.122 L
385.673 32.113 L
386.499 32.104 L
387.326 32.095 L
388.152 32.086 L
388.978 32.077 L
389.805 32.068 L
390.631 32.059 L
391.458 32.051 L
392.284 32.042 L
393.111 32.034 L
393.937 32.025 L
394.763 32.017 L
395.59 32.009 L
396.416 32.001 L
397.243 31.993 L
398.069 31.985 L
398.896 31.977 L
399.722 31.969 L
400.549 31.961 L
401.375 31.954 L
402.201 31.946 L
403.028 31.939 L
403.854 31.931 L
404.681 31.924 L
405.507 31.917 L
406.334 31.91 L
407.16 31.903 L
407.986 31.896 L
408.813 31.889 L
409.639 31.882 L
410.466 31.876 L
411.292 31.869 L
412.119 31.863 L
412.945 31.856 L
413.771 31.85 L
414.598 31.843 L
415.424 31.837 L
416.251 31.831 L
417.077 31.825 L
417.904 31.819 L
418.73 31.813 L
419.557 31.807 L
420.383 31.802 L
421.209 31.796 L
422.036 31.79 L
422.862 31.785 L
423.689 31.779 L
424.515 31.774 L
425.342 31.769 L
426.168 31.764 L
426.994 31.759 L
427.821 31.754 L
428.647 31.749 L
429.474 31.744 L
430.3 31.739 L
431.127 31.734 L
431.953 31.73 L
432.78 31.725 L
433.606 31.72 L
434.432 31.716 L
435.259 31.712 L
436.085 31.707 L
436.912 31.703 L
437.738 31.699 L
438.565 31.695 L
439.391 31.691 L
440.217 31.687 L
441.044 31.683 L
441.87 31.68 L
442.697 31.676 L
443.523 31.672 L
444.35 31.669 L
445.176 31.665 L
446.002 31.662 L
446.829 31.658 L
447.655 31.655 L
448.482 31.652 L
449.308 31.649 L
450.135 31.646 L
450.961 31.643 L
451.788 31.64 L
452.614 31.637 L
453.44 31.634 L
454.267 31.632 L
455.093 31.629 L
455.92 31.627 L
456.746 31.624 L
457.573 31.622 L
458.399 31.619 L
459.225 31.617 L
460.052 31.615 L
460.878 31.613 L
461.705 31.611 L
462.531 31.609 L
463.358 31.607 L
464.184 31.605 L
465.01 31.603 L
465.837 31.601 L
466.663 31.6 L
467.49 31.598 L
468.316 31.597 L
469.143 31.595 L
469.969 31.594 L
470.796 31.592 L
471.622 31.591 L
472.448 31.59 L
473.275 31.589 L
474.101 31.588 L
474.928 31.587 L
475.754 31.586 L
476.581 31.585 L
477.407 31.584 L
478.233 31.583 L
479.06 31.582 L
479.886 31.582 L
480.713 31.581 L
481.539 31.581 L
482.366 31.58 L
483.192 31.58 L
484.018 31.58 L
484.845 31.579 L
485.671 31.579 L
486.498 31.579 L
487.324 31.579 L
S
GR
GS
0 0.447 0.741 RC
[10 6] 0 setdash
2 LJ
0.5 LW
N
77.13 336.766 M
77.957 331.363 L
78.783 325.97 L
79.61 320.591 L
80.436 315.231 L
81.263 309.896 L
82.089 304.591 L
82.916 299.321 L
83.742 294.091 L
84.568 288.907 L
85.395 283.773 L
86.221 278.695 L
87.048 273.679 L
87.874 268.728 L
88.701 263.849 L
89.527 259.047 L
90.353 254.326 L
91.18 249.693 L
92.006 245.152 L
92.833 240.708 L
93.659 236.367 L
94.486 232.133 L
95.312 228.013 L
96.138 224.011 L
96.965 220.132 L
97.791 216.382 L
98.618 212.765 L
99.444 209.288 L
100.271 205.954 L
101.097 202.77 L
101.924 199.741 L
102.75 196.871 L
103.576 194.086 L
104.403 191.323 L
105.229 188.583 L
106.056 185.864 L
106.882 183.168 L
107.709 180.496 L
108.535 177.847 L
109.361 175.222 L
110.188 172.622 L
111.014 170.047 L
111.841 167.497 L
112.667 164.973 L
113.494 162.476 L
114.32 160.005 L
115.146 157.562 L
115.973 155.146 L
116.799 152.759 L
117.626 150.4 L
118.452 148.07 L
119.279 145.769 L
120.105 143.499 L
120.932 141.258 L
121.758 139.049 L
122.584 136.871 L
123.411 134.724 L
124.237 132.609 L
125.064 130.527 L
125.89 128.478 L
126.717 126.463 L
127.543 124.481 L
128.369 122.534 L
129.196 120.622 L
130.022 118.744 L
130.849 116.902 L
131.675 115.097 L
132.502 113.328 L
133.328 111.596 L
134.154 109.901 L
134.981 108.245 L
135.807 106.626 L
136.634 105.046 L
137.46 103.506 L
138.287 102.005 L
139.113 100.544 L
139.94 99.124 L
140.766 97.745 L
141.592 96.407 L
142.419 95.111 L
143.245 93.857 L
144.072 92.647 L
144.898 91.479 L
145.725 90.355 L
146.551 89.275 L
147.377 88.239 L
148.204 87.249 L
149.03 86.304 L
149.857 85.404 L
150.683 84.551 L
151.51 83.745 L
152.336 82.986 L
153.163 82.25 L
153.989 81.518 L
154.815 80.79 L
155.642 80.067 L
156.468 79.348 L
157.295 78.633 L
158.121 77.923 L
158.948 77.217 L
159.774 76.516 L
160.6 75.819 L
161.427 75.127 L
162.253 74.44 L
163.08 73.757 L
163.906 73.078 L
164.733 72.405 L
165.559 71.736 L
166.385 71.072 L
167.212 70.413 L
168.038 69.758 L
168.865 69.109 L
169.691 68.464 L
170.518 67.825 L
171.344 67.19 L
172.171 66.56 L
172.997 65.936 L
173.823 65.316 L
174.65 64.702 L
175.476 64.093 L
176.303 63.489 L
177.129 62.89 L
177.956 62.297 L
178.782 61.709 L
179.608 61.126 L
180.435 60.548 L
181.261 59.976 L
182.088 59.41 L
182.914 58.849 L
183.741 58.294 L
184.567 57.744 L
185.393 57.199 L
186.22 56.661 L
187.046 56.128 L
187.873 55.601 L
188.699 55.079 L
189.526 54.563 L
190.352 54.053 L
191.179 53.549 L
192.005 53.051 L
192.831 52.559 L
193.658 52.072 L
194.484 51.592 L
195.311 51.118 L
196.137 50.65 L
196.964 50.188 L
197.79 49.732 L
198.616 49.282 L
199.443 48.839 L
200.269 48.401 L
201.096 47.97 L
201.922 47.546 L
202.749 47.127 L
203.575 46.715 L
204.401 46.31 L
205.228 45.911 L
206.054 45.518 L
206.881 45.132 L
207.707 44.753 L
208.534 44.38 L
209.36 44.014 L
210.187 43.654 L
211.013 43.302 L
211.839 42.956 L
212.666 42.616 L
213.492 42.284 L
214.319 41.959 L
215.145 41.64 L
215.972 41.328 L
216.798 41.024 L
217.624 40.726 L
218.451 40.435 L
219.277 40.152 L
220.104 39.875 L
220.93 39.606 L
221.757 39.344 L
222.583 39.089 L
223.41 38.841 L
224.236 38.601 L
225.062 38.368 L
225.889 38.142 L
226.715 37.924 L
227.542 37.713 L
228.368 37.51 L
229.195 37.314 L
230.021 37.125 L
230.847 36.945 L
231.674 36.772 L
232.5 36.606 L
233.327 36.448 L
234.153 36.298 L
234.98 36.156 L
235.806 36.022 L
236.632 35.895 L
237.459 35.776 L
238.285 35.665 L
239.112 35.562 L
239.938 35.468 L
240.765 35.381 L
241.591 35.302 L
242.418 35.231 L
243.244 35.168 L
244.07 35.114 L
244.897 35.067 L
245.723 35.029 L
246.55 34.999 L
247.376 34.973 L
248.203 34.947 L
249.029 34.921 L
249.855 34.895 L
250.682 34.869 L
251.508 34.843 L
252.335 34.817 L
253.161 34.792 L
253.988 34.766 L
254.814 34.741 L
255.64 34.716 L
256.467 34.691 L
257.293 34.666 L
258.12 34.641 L
258.946 34.616 L
259.773 34.592 L
260.599 34.567 L
261.426 34.543 L
262.252 34.519 L
263.078 34.494 L
263.905 34.47 L
264.731 34.446 L
265.558 34.423 L
266.384 34.399 L
267.211 34.375 L
268.037 34.352 L
268.863 34.329 L
269.69 34.305 L
270.516 34.282 L
271.343 34.259 L
272.169 34.236 L
272.996 34.214 L
273.822 34.191 L
274.648 34.169 L
275.475 34.146 L
276.301 34.124 L
277.128 34.102 L
277.954 34.079 L
278.781 34.057 L
279.607 34.036 L
280.434 34.014 L
281.26 33.992 L
282.086 33.971 L
282.913 33.949 L
283.739 33.928 L
284.566 33.907 L
285.392 33.886 L
286.219 33.865 L
287.045 33.844 L
287.871 33.823 L
288.698 33.802 L
289.524 33.782 L
290.351 33.761 L
291.177 33.741 L
292.004 33.721 L
292.83 33.701 L
293.656 33.681 L
294.483 33.661 L
295.309 33.641 L
296.136 33.621 L
296.962 33.602 L
297.789 33.582 L
298.615 33.563 L
299.442 33.544 L
300.268 33.524 L
301.094 33.505 L
301.921 33.487 L
302.747 33.468 L
303.574 33.449 L
304.4 33.43 L
305.227 33.412 L
306.053 33.393 L
306.879 33.375 L
307.706 33.357 L
308.532 33.339 L
309.359 33.321 L
310.185 33.303 L
311.012 33.285 L
311.838 33.267 L
312.665 33.25 L
313.491 33.232 L
314.317 33.215 L
315.144 33.198 L
315.97 33.181 L
316.797 33.163 L
317.623 33.146 L
318.45 33.13 L
319.276 33.113 L
320.102 33.096 L
320.929 33.08 L
321.755 33.063 L
322.582 33.047 L
323.408 33.031 L
324.235 33.014 L
325.061 32.998 L
325.887 32.982 L
326.714 32.966 L
327.54 32.951 L
328.367 32.935 L
329.193 32.92 L
330.02 32.904 L
330.846 32.889 L
331.673 32.873 L
332.499 32.858 L
333.325 32.843 L
334.152 32.828 L
334.978 32.813 L
335.805 32.799 L
336.631 32.784 L
337.458 32.769 L
338.284 32.755 L
339.11 32.74 L
339.937 32.726 L
340.763 32.712 L
341.59 32.698 L
342.416 32.684 L
343.243 32.67 L
344.069 32.656 L
344.895 32.642 L
345.722 32.629 L
346.548 32.615 L
347.375 32.602 L
348.201 32.588 L
349.028 32.575 L
349.854 32.562 L
350.681 32.549 L
351.507 32.536 L
352.333 32.523 L
353.16 32.51 L
353.986 32.498 L
354.813 32.485 L
355.639 32.473 L
356.466 32.46 L
357.292 32.448 L
358.118 32.436 L
358.945 32.423 L
359.771 32.411 L
360.598 32.399 L
361.424 32.388 L
362.251 32.376 L
363.077 32.364 L
363.904 32.353 L
364.73 32.341 L
365.556 32.33 L
366.383 32.318 L
367.209 32.307 L
368.036 32.296 L
368.862 32.285 L
369.689 32.274 L
370.515 32.263 L
371.341 32.252 L
372.168 32.242 L
372.994 32.231 L
373.821 32.22 L
374.647 32.21 L
375.474 32.2 L
376.3 32.189 L
377.126 32.179 L
377.953 32.169 L
378.779 32.159 L
379.606 32.149 L
380.432 32.139 L
381.259 32.13 L
382.085 32.12 L
382.911 32.11 L
383.738 32.101 L
384.564 32.091 L
385.391 32.082 L
386.217 32.073 L
387.044 32.064 L
387.87 32.055 L
388.697 32.046 L
389.523 32.037 L
390.349 32.028 L
391.176 32.019 L
392.002 32.011 L
392.829 32.002 L
393.655 31.993 L
394.482 31.985 L
395.308 31.977 L
396.134 31.968 L
396.961 31.96 L
397.787 31.952 L
398.614 31.944 L
399.44 31.936 L
400.267 31.929 L
401.093 31.921 L
401.92 31.913 L
402.746 31.906 L
403.572 31.898 L
404.399 31.891 L
405.225 31.883 L
406.052 31.876 L
406.878 31.869 L
407.705 31.862 L
408.531 31.855 L
409.357 31.848 L
410.184 31.841 L
411.01 31.834 L
411.837 31.827 L
412.663 31.821 L
413.49 31.814 L
414.316 31.808 L
415.142 31.801 L
415.969 31.795 L
416.795 31.789 L
417.622 31.782 L
418.448 31.776 L
419.275 31.77 L
420.101 31.764 L
420.928 31.758 L
421.754 31.753 L
422.58 31.747 L
423.407 31.741 L
424.233 31.736 L
425.06 31.73 L
425.886 31.725 L
426.713 31.719 L
427.539 31.714 L
428.365 31.709 L
429.192 31.704 L
430.018 31.699 L
430.845 31.694 L
431.671 31.689 L
432.498 31.684 L
433.324 31.679 L
434.151 31.675 L
434.977 31.67 L
435.803 31.665 L
436.63 31.661 L
437.456 31.657 L
438.283 31.652 L
439.109 31.648 L
439.936 31.644 L
440.762 31.64 L
441.588 31.636 L
442.415 31.632 L
443.241 31.628 L
444.068 31.624 L
444.894 31.62 L
445.721 31.616 L
446.547 31.613 L
447.373 31.609 L
448.2 31.606 L
449.026 31.602 L
449.853 31.599 L
450.679 31.596 L
451.506 31.593 L
452.332 31.589 L
453.159 31.586 L
453.985 31.583 L
454.811 31.58 L
455.638 31.577 L
456.464 31.575 L
457.291 31.572 L
458.117 31.569 L
458.944 31.567 L
459.77 31.564 L
460.596 31.562 L
461.423 31.559 L
462.249 31.557 L
463.076 31.554 L
463.902 31.552 L
464.729 31.55 L
465.555 31.548 L
466.381 31.546 L
467.208 31.544 L
468.034 31.542 L
468.861 31.54 L
469.687 31.539 L
470.514 31.537 L
471.34 31.535 L
472.167 31.534 L
472.993 31.532 L
473.819 31.531 L
474.646 31.529 L
475.472 31.528 L
476.299 31.527 L
477.125 31.525 L
477.952 31.524 L
478.778 31.523 L
479.604 31.522 L
480.431 31.521 L
481.257 31.52 L
482.084 31.52 L
482.91 31.519 L
483.737 31.518 L
484.563 31.517 L
485.389 31.517 L
486.216 31.516 L
487.042 31.516 L
487.869 31.515 L
488.695 31.515 L
489.522 31.515 L
490.348 31.514 L
491.175 31.514 L
492.001 31.514 L
492.827 31.514 L
S
GR
GS
0.851 0.325 0.098 RC
[10 6] 0 setdash
2 LJ
0.5 LW
N
74.707 351.994 M
75.534 345.982 L
76.36 339.979 L
77.187 333.992 L
78.013 328.027 L
78.839 322.091 L
79.666 316.191 L
80.492 310.333 L
81.319 304.524 L
82.145 298.77 L
82.972 293.077 L
83.798 287.453 L
84.625 281.903 L
85.451 276.435 L
86.277 271.055 L
87.104 265.769 L
87.93 260.584 L
88.757 255.507 L
89.583 250.544 L
90.41 245.702 L
91.236 240.986 L
92.062 236.405 L
92.889 231.963 L
93.715 227.669 L
94.542 223.528 L
95.368 219.547 L
96.195 215.732 L
97.021 212.09 L
97.847 208.628 L
98.674 205.352 L
99.5 202.263 L
100.327 199.247 L
101.153 196.257 L
101.98 193.293 L
102.806 190.356 L
103.633 187.447 L
104.459 184.566 L
105.285 181.713 L
106.112 178.889 L
106.938 176.094 L
107.765 173.329 L
108.591 170.594 L
109.418 167.889 L
110.244 165.216 L
111.07 162.574 L
111.897 159.965 L
112.723 157.388 L
113.55 154.844 L
114.376 152.333 L
115.203 149.856 L
116.029 147.414 L
116.855 145.006 L
117.682 142.634 L
118.508 140.298 L
119.335 137.997 L
120.161 135.734 L
120.988 133.507 L
121.814 131.318 L
122.641 129.167 L
123.467 127.055 L
124.293 124.981 L
125.12 122.947 L
125.946 120.953 L
126.773 119 L
127.599 117.087 L
128.426 115.215 L
129.252 113.385 L
130.078 111.598 L
130.905 109.853 L
131.731 108.151 L
132.558 106.493 L
133.384 104.879 L
134.211 103.309 L
135.037 101.784 L
135.863 100.305 L
136.69 98.872 L
137.516 97.485 L
138.343 96.145 L
139.169 94.852 L
139.996 93.607 L
140.822 92.41 L
141.649 91.262 L
142.475 90.163 L
143.301 89.114 L
144.128 88.114 L
144.954 87.166 L
145.781 86.268 L
146.607 85.421 L
147.434 84.625 L
148.26 83.843 L
149.086 83.067 L
149.913 82.295 L
150.739 81.528 L
151.566 80.766 L
152.392 80.009 L
153.219 79.257 L
154.045 78.509 L
154.872 77.767 L
155.698 77.029 L
156.524 76.297 L
157.351 75.57 L
158.177 74.848 L
159.004 74.131 L
159.83 73.419 L
160.657 72.712 L
161.483 72.011 L
162.309 71.315 L
163.136 70.624 L
163.962 69.939 L
164.789 69.259 L
165.615 68.585 L
166.442 67.916 L
167.268 67.253 L
168.094 66.595 L
168.921 65.943 L
169.747 65.297 L
170.574 64.656 L
171.4 64.021 L
172.227 63.392 L
173.053 62.769 L
173.88 62.151 L
174.706 61.539 L
175.532 60.934 L
176.359 60.334 L
177.185 59.74 L
178.012 59.153 L
178.838 58.571 L
179.665 57.996 L
180.491 57.426 L
181.317 56.863 L
182.144 56.306 L
182.97 55.756 L
183.797 55.211 L
184.623 54.673 L
185.45 54.142 L
186.276 53.617 L
187.102 53.098 L
187.929 52.586 L
188.755 52.08 L
189.582 51.581 L
190.408 51.089 L
191.235 50.603 L
192.061 50.124 L
192.888 49.652 L
193.714 49.186 L
194.54 48.727 L
195.367 48.275 L
196.193 47.83 L
197.02 47.392 L
197.846 46.961 L
198.673 46.537 L
199.499 46.12 L
200.325 45.71 L
201.152 45.307 L
201.978 44.911 L
202.805 44.523 L
203.631 44.141 L
204.458 43.767 L
205.284 43.401 L
206.111 43.041 L
206.937 42.689 L
207.763 42.345 L
208.59 42.008 L
209.416 41.678 L
210.243 41.356 L
211.069 41.041 L
211.896 40.734 L
212.722 40.435 L
213.548 40.144 L
214.375 39.86 L
215.201 39.584 L
216.028 39.316 L
216.854 39.055 L
217.681 38.803 L
218.507 38.558 L
219.333 38.321 L
220.16 38.093 L
220.986 37.872 L
221.813 37.659 L
222.639 37.455 L
223.466 37.259 L
224.292 37.071 L
225.119 36.891 L
225.945 36.719 L
226.771 36.556 L
227.598 36.401 L
228.424 36.254 L
229.251 36.116 L
230.077 35.987 L
230.904 35.865 L
231.73 35.753 L
232.556 35.649 L
233.383 35.553 L
234.209 35.466 L
235.036 35.388 L
235.862 35.319 L
236.689 35.258 L
237.515 35.206 L
238.341 35.163 L
239.168 35.129 L
239.994 35.101 L
240.821 35.074 L
241.647 35.047 L
242.474 35.019 L
243.3 34.992 L
244.127 34.966 L
244.953 34.939 L
245.779 34.912 L
246.606 34.886 L
247.432 34.859 L
248.259 34.833 L
249.085 34.807 L
249.912 34.781 L
250.738 34.755 L
251.564 34.729 L
252.391 34.704 L
253.217 34.678 L
254.044 34.653 L
254.87 34.628 L
255.697 34.602 L
256.523 34.578 L
257.349 34.553 L
258.176 34.528 L
259.002 34.503 L
259.829 34.479 L
260.655 34.454 L
261.482 34.43 L
262.308 34.406 L
263.135 34.382 L
263.961 34.358 L
264.787 34.334 L
265.614 34.31 L
266.44 34.287 L
267.267 34.263 L
268.093 34.24 L
268.92 34.217 L
269.746 34.194 L
270.572 34.171 L
271.399 34.148 L
272.225 34.125 L
273.052 34.102 L
273.878 34.08 L
274.705 34.057 L
275.531 34.035 L
276.357 34.013 L
277.184 33.991 L
278.01 33.969 L
278.837 33.947 L
279.663 33.926 L
280.49 33.904 L
281.316 33.883 L
282.143 33.861 L
282.969 33.84 L
283.795 33.819 L
284.622 33.798 L
285.448 33.777 L
286.275 33.756 L
287.101 33.736 L
287.928 33.715 L
288.754 33.695 L
289.58 33.674 L
290.407 33.654 L
291.233 33.634 L
292.06 33.614 L
292.886 33.594 L
293.713 33.574 L
294.539 33.555 L
295.366 33.535 L
296.192 33.516 L
297.018 33.496 L
297.845 33.477 L
298.671 33.458 L
299.498 33.439 L
300.324 33.42 L
301.151 33.401 L
301.977 33.383 L
302.803 33.364 L
303.63 33.346 L
304.456 33.327 L
305.283 33.309 L
306.109 33.291 L
306.936 33.273 L
307.762 33.255 L
308.588 33.237 L
309.415 33.22 L
310.241 33.202 L
311.068 33.184 L
311.894 33.167 L
312.721 33.15 L
313.547 33.133 L
314.374 33.116 L
315.2 33.099 L
316.026 33.082 L
316.853 33.065 L
317.679 33.049 L
318.506 33.032 L
319.332 33.016 L
320.159 32.999 L
320.985 32.983 L
321.811 32.967 L
322.638 32.951 L
323.464 32.935 L
324.291 32.919 L
325.117 32.904 L
325.944 32.888 L
326.77 32.873 L
327.596 32.857 L
328.423 32.842 L
329.249 32.827 L
330.076 32.812 L
330.902 32.797 L
331.729 32.782 L
332.555 32.767 L
333.382 32.752 L
334.208 32.738 L
335.034 32.723 L
335.861 32.709 L
336.687 32.695 L
337.514 32.68 L
338.34 32.666 L
339.167 32.652 L
339.993 32.639 L
340.819 32.625 L
341.646 32.611 L
342.472 32.597 L
343.299 32.584 L
344.125 32.571 L
344.952 32.557 L
345.778 32.544 L
346.604 32.531 L
347.431 32.518 L
348.257 32.505 L
349.084 32.492 L
349.91 32.48 L
350.737 32.467 L
351.563 32.455 L
352.39 32.442 L
353.216 32.43 L
354.042 32.418 L
354.869 32.405 L
355.695 32.393 L
356.522 32.382 L
357.348 32.37 L
358.175 32.358 L
359.001 32.346 L
359.827 32.335 L
360.654 32.323 L
361.48 32.312 L
362.307 32.301 L
363.133 32.289 L
363.96 32.278 L
364.786 32.267 L
365.613 32.256 L
366.439 32.246 L
367.265 32.235 L
368.092 32.224 L
368.918 32.214 L
369.745 32.203 L
370.571 32.193 L
371.398 32.183 L
372.224 32.172 L
373.05 32.162 L
373.877 32.152 L
374.703 32.142 L
375.53 32.132 L
376.356 32.123 L
377.183 32.113 L
378.009 32.104 L
378.835 32.094 L
379.662 32.085 L
380.488 32.075 L
381.315 32.066 L
382.141 32.057 L
382.968 32.048 L
383.794 32.039 L
384.621 32.03 L
385.447 32.021 L
386.273 32.013 L
387.1 32.004 L
387.926 31.996 L
388.753 31.987 L
389.579 31.979 L
390.406 31.971 L
391.232 31.963 L
392.058 31.954 L
392.885 31.946 L
393.711 31.939 L
394.538 31.931 L
395.364 31.923 L
396.191 31.915 L
397.017 31.908 L
397.843 31.9 L
398.67 31.893 L
399.496 31.885 L
400.323 31.878 L
401.149 31.871 L
401.976 31.864 L
402.802 31.857 L
403.629 31.85 L
404.455 31.843 L
405.281 31.836 L
406.108 31.83 L
406.934 31.823 L
407.761 31.817 L
408.587 31.81 L
409.414 31.804 L
410.24 31.798 L
411.066 31.791 L
411.893 31.785 L
412.719 31.779 L
413.546 31.773 L
414.372 31.767 L
415.199 31.762 L
416.025 31.756 L
416.852 31.75 L
417.678 31.745 L
418.504 31.739 L
419.331 31.734 L
420.157 31.728 L
420.984 31.723 L
421.81 31.718 L
422.637 31.713 L
423.463 31.708 L
424.289 31.703 L
425.116 31.698 L
425.942 31.693 L
426.769 31.688 L
427.595 31.684 L
428.422 31.679 L
429.248 31.675 L
430.074 31.67 L
430.901 31.666 L
431.727 31.662 L
432.554 31.658 L
433.38 31.653 L
434.207 31.649 L
435.033 31.645 L
435.859 31.641 L
436.686 31.638 L
437.512 31.634 L
438.339 31.63 L
439.165 31.626 L
439.992 31.623 L
440.818 31.619 L
441.645 31.616 L
442.471 31.613 L
443.297 31.61 L
444.124 31.606 L
444.95 31.603 L
445.777 31.6 L
446.603 31.597 L
447.43 31.594 L
448.256 31.591 L
449.082 31.589 L
449.909 31.586 L
450.735 31.583 L
451.562 31.581 L
452.388 31.578 L
453.215 31.576 L
454.041 31.573 L
454.868 31.571 L
455.694 31.569 L
456.52 31.567 L
457.347 31.565 L
458.173 31.563 L
459 31.561 L
459.826 31.559 L
460.653 31.557 L
461.479 31.555 L
462.305 31.553 L
463.132 31.552 L
463.958 31.55 L
464.785 31.549 L
465.611 31.547 L
466.438 31.546 L
467.264 31.545 L
468.09 31.543 L
468.917 31.542 L
469.743 31.541 L
470.57 31.54 L
471.396 31.539 L
472.223 31.538 L
473.049 31.537 L
473.876 31.537 L
474.702 31.536 L
475.528 31.535 L
476.355 31.535 L
477.181 31.534 L
478.008 31.533 L
478.834 31.533 L
479.661 31.533 L
480.487 31.532 L
481.313 31.532 L
482.14 31.532 L
482.966 31.532 L
483.793 31.532 L
S
GR
GS
1 GC
N
499 366 M
499 218.5 L
327.5 218.5 L
327.5 366 L
cp
f
GR
GS
[1 0 0 1 364.5 228.25] CT
/Helvetica 13 F
GS
[1 0 0 1 0 0] CT
0 5 moveto 
1 -1 scale
(Base Run) t 
GR
GR
GS
0 0.447 0.741 RC
1 LJ
0.5 LW
N
331.5 228.25 M
361.5 228.25 L
S
GR
GS
[1 0 0 1 364.5 244.25] CT
/Helvetica 13 F
GS
[1 0 0 1 0 0] CT
0 5 moveto 
1 -1 scale
(All Frames) t 
GR
GR
GS
0.851 0.325 0.098 RC
1 LJ
0.5 LW
N
331.5 244.25 M
361.5 244.25 L
S
GR
GS
[1 0 0 1 364.5 260.25] CT
/Helvetica 13 F
GS
[1 0 0 1 0 0] CT
0 5 moveto 
1 -1 scale
(KF Only) t 
GR
GR
GS
0.929 0.694 0.125 RC
1 LJ
0.5 LW
N
331.5 260.25 M
361.5 260.25 L
S
GR
GS
[1 0 0 1 364.5 276.25] CT
/Helvetica 13 F
GS
[1 0 0 1 0 0] CT
0 5 moveto 
1 -1 scale
(GF, ARF Only) t 
GR
GR
GS
0.494 0.184 0.557 RC
1 LJ
0.5 LW
N
331.5 276.25 M
361.5 276.25 L
S
GR
GS
[1 0 0 1 364.5 292.25] CT
/Helvetica 13 F
GS
[1 0 0 1 0 0] CT
0 5 moveto 
1 -1 scale
(KF, GF, ARF Only) t 
GR
GR
GS
0.467 0.675 0.188 RC
1 LJ
0.5 LW
N
331.5 292.25 M
361.5 292.25 L
S
GR
GS
[1 0 0 1 364.5 308.25] CT
/Helvetica 13 F
GS
[1 0 0 1 0 0] CT
0 5 moveto 
1 -1 scale
(Part All Frames) t 
GR
GR
GS
0.302 0.745 0.933 RC
[10 6] 0 setdash
2 LJ
0.5 LW
N
331.5 308.25 M
361.5 308.25 L
S
GR
GS
[1 0 0 1 364.5 324.25] CT
/Helvetica 13 F
GS
[1 0 0 1 0 0] CT
0 5 moveto 
1 -1 scale
(Part KF Only) t 
GR
GR
GS
0.635 0.078 0.184 RC
[10 6] 0 setdash
2 LJ
0.5 LW
N
331.5 324.25 M
361.5 324.25 L
S
GR
GS
[1 0 0 1 364.5 340.25] CT
/Helvetica 13 F
GS
[1 0 0 1 0 0] CT
0 5 moveto 
1 -1 scale
(Part GF, ARF Only) t 
GR
GR
GS
0 0.447 0.741 RC
[10 6] 0 setdash
2 LJ
0.5 LW
N
331.5 340.25 M
361.5 340.25 L
S
GR
GS
[1 0 0 1 364.5 356.25] CT
/Helvetica 13 F
GS
[1 0 0 1 0 0] CT
0 5 moveto 
1 -1 scale
(Part KF, GF, ARF Only) t 
GR
GR
GS
0.851 0.325 0.098 RC
[10 6] 0 setdash
2 LJ
0.5 LW
N
331.5 356.25 M
361.5 356.25 L
S
GR
GS
0.149 GC
10.0 ML
0.5 LW
N
327.5 366 M
327.5 218.5 L
499 218.5 L
499 366 L
cp
S
GR
%%Trailer
%%Pages: 1
%%EOF
