%!PS-Adobe-3.0 EPSF-3.0
%%Creator: (MATLAB, The Mathworks, Inc. Version 9.11.0.1837725 \(R2021b\) Update 2. Operating System: Mac OS X)
%%Title: plots/pchip/OldTownCross_1920x1080p50.y4m-hevc-PSNR_HVSY.eps
%%CreationDate: 2022-02-03T19:14:29
%%Pages: (atend)
%%BoundingBox:    33   425   520   826
%%LanguageLevel: 3
%%EndComments
%%BeginProlog
%%BeginResource: procset (Apache XML Graphics Std ProcSet) 1.2 0
%%Version: 1.2 0
%%Copyright: (Copyright 2001-2003,2010 The Apache Software Foundation. License terms: http://www.apache.org/licenses/LICENSE-2.0)
/bd{bind def}bind def
/ld{load def}bd
/GR/grestore ld
/GS/gsave ld
/RM/rmoveto ld
/C/curveto ld
/t/show ld
/L/lineto ld
/ML/setmiterlimit ld
/CT/concat ld
/f/fill ld
/N/newpath ld
/S/stroke ld
/CC/setcmykcolor ld
/A/ashow ld
/cp/closepath ld
/RC/setrgbcolor ld
/LJ/setlinejoin ld
/GC/setgray ld
/LW/setlinewidth ld
/M/moveto ld
/re {4 2 roll M
1 index 0 rlineto
0 exch rlineto
neg 0 rlineto
cp } bd
/_ctm matrix def
/_tm matrix def
/BT { _ctm currentmatrix pop matrix _tm copy pop 0 0 moveto } bd
/ET { _ctm setmatrix } bd
/iTm { _ctm setmatrix _tm concat } bd
/Tm { _tm astore pop iTm 0 0 moveto } bd
/ux 0.0 def
/uy 0.0 def
/F {
  /Tp exch def
  /Tf exch def
  Tf findfont Tp scalefont setfont
  /cf Tf def  /cs Tp def
} bd
/ULS {currentpoint /uy exch def /ux exch def} bd
/ULE {
  /Tcx currentpoint pop def
  gsave
  newpath
  cf findfont cs scalefont dup
  /FontMatrix get 0 get /Ts exch def /FontInfo get dup
  /UnderlinePosition get Ts mul /To exch def
  /UnderlineThickness get Ts mul /Tt exch def
  ux uy To add moveto  Tcx uy To add lineto
  Tt setlinewidth stroke
  grestore
} bd
/OLE {
  /Tcx currentpoint pop def
  gsave
  newpath
  cf findfont cs scalefont dup
  /FontMatrix get 0 get /Ts exch def /FontInfo get dup
  /UnderlinePosition get Ts mul /To exch def
  /UnderlineThickness get Ts mul /Tt exch def
  ux uy To add cs add moveto Tcx uy To add cs add lineto
  Tt setlinewidth stroke
  grestore
} bd
/SOE {
  /Tcx currentpoint pop def
  gsave
  newpath
  cf findfont cs scalefont dup
  /FontMatrix get 0 get /Ts exch def /FontInfo get dup
  /UnderlinePosition get Ts mul /To exch def
  /UnderlineThickness get Ts mul /Tt exch def
  ux uy To add cs 10 mul 26 idiv add moveto Tcx uy To add cs 10 mul 26 idiv add lineto
  Tt setlinewidth stroke
  grestore
} bd
/QT {
/Y22 exch store
/X22 exch store
/Y21 exch store
/X21 exch store
currentpoint
/Y21 load 2 mul add 3 div exch
/X21 load 2 mul add 3 div exch
/X21 load 2 mul /X22 load add 3 div
/Y21 load 2 mul /Y22 load add 3 div
/X22 load /Y22 load curveto
} bd
/SSPD {
dup length /d exch dict def
{
/v exch def
/k exch def
currentpagedevice k known {
/cpdv currentpagedevice k get def
v cpdv ne {
/upd false def
/nullv v type /nulltype eq def
/nullcpdv cpdv type /nulltype eq def
nullv nullcpdv or
{
/upd true def
} {
/sametype v type cpdv type eq def
sametype {
v type /arraytype eq {
/vlen v length def
/cpdvlen cpdv length def
vlen cpdvlen eq {
0 1 vlen 1 sub {
/i exch def
/obj v i get def
/cpdobj cpdv i get def
obj cpdobj ne {
/upd true def
exit
} if
} for
} {
/upd true def
} ifelse
} {
v type /dicttype eq {
v {
/dv exch def
/dk exch def
/cpddv cpdv dk get def
dv cpddv ne {
/upd true def
exit
} if
} forall
} {
/upd true def
} ifelse
} ifelse
} if
} ifelse
upd true eq {
d k v put
} if
} if
} if
} forall
d length 0 gt {
d setpagedevice
} if
} bd
/RE { % /NewFontName [NewEncodingArray] /FontName RE -
  findfont dup length dict begin
  {
    1 index /FID ne
    {def} {pop pop} ifelse
  } forall
  /Encoding exch def
  /FontName 1 index def
  currentdict definefont pop
  end
} bind def
%%EndResource
%%BeginResource: procset (Apache XML Graphics EPS ProcSet) 1.0 0
%%Version: 1.0 0
%%Copyright: (Copyright 2002-2003 The Apache Software Foundation. License terms: http://www.apache.org/licenses/LICENSE-2.0)
/BeginEPSF { %def
/b4_Inc_state save def         % Save state for cleanup
/dict_count countdictstack def % Count objects on dict stack
/op_count count 1 sub def      % Count objects on operand stack
userdict begin                 % Push userdict on dict stack
/showpage { } def              % Redefine showpage, { } = null proc
0 setgray 0 setlinecap         % Prepare graphics state
1 setlinewidth 0 setlinejoin
10 setmiterlimit [ ] 0 setdash newpath
/languagelevel where           % If level not equal to 1 then
{pop languagelevel             % set strokeadjust and
1 ne                           % overprint to their defaults.
{false setstrokeadjust false setoverprint
} if
} if
} bd
/EndEPSF { %def
count op_count sub {pop} repeat            % Clean up stacks
countdictstack dict_count sub {end} repeat
b4_Inc_state restore
} bd
%%EndResource
%FOPBeginFontDict
%%IncludeResource: font Courier-Oblique
%%IncludeResource: font Courier-BoldOblique
%%IncludeResource: font Courier-Bold
%%IncludeResource: font ZapfDingbats
%%IncludeResource: font Symbol
%%IncludeResource: font Helvetica
%%IncludeResource: font Helvetica-Oblique
%%IncludeResource: font Helvetica-Bold
%%IncludeResource: font Helvetica-BoldOblique
%%IncludeResource: font Times-Roman
%%IncludeResource: font Times-Italic
%%IncludeResource: font Times-Bold
%%IncludeResource: font Times-BoldItalic
%%IncludeResource: font Courier
%FOPEndFontDict
%%BeginResource: encoding WinAnsiEncoding
/WinAnsiEncoding [
/.notdef /.notdef /.notdef /.notdef /.notdef
/.notdef /.notdef /.notdef /.notdef /.notdef
/.notdef /.notdef /.notdef /.notdef /.notdef
/.notdef /.notdef /.notdef /.notdef /.notdef
/.notdef /.notdef /.notdef /.notdef /.notdef
/.notdef /.notdef /.notdef /.notdef /.notdef
/.notdef /.notdef /space /exclam /quotedbl
/numbersign /dollar /percent /ampersand /quotesingle
/parenleft /parenright /asterisk /plus /comma
/hyphen /period /slash /zero /one
/two /three /four /five /six
/seven /eight /nine /colon /semicolon
/less /equal /greater /question /at
/A /B /C /D /E
/F /G /H /I /J
/K /L /M /N /O
/P /Q /R /S /T
/U /V /W /X /Y
/Z /bracketleft /backslash /bracketright /asciicircum
/underscore /quoteleft /a /b /c
/d /e /f /g /h
/i /j /k /l /m
/n /o /p /q /r
/s /t /u /v /w
/x /y /z /braceleft /bar
/braceright /asciitilde /bullet /Euro /bullet
/quotesinglbase /florin /quotedblbase /ellipsis /dagger
/daggerdbl /circumflex /perthousand /Scaron /guilsinglleft
/OE /bullet /Zcaron /bullet /bullet
/quoteleft /quoteright /quotedblleft /quotedblright /bullet
/endash /emdash /asciitilde /trademark /scaron
/guilsinglright /oe /bullet /zcaron /Ydieresis
/space /exclamdown /cent /sterling /currency
/yen /brokenbar /section /dieresis /copyright
/ordfeminine /guillemotleft /logicalnot /sfthyphen /registered
/macron /degree /plusminus /twosuperior /threesuperior
/acute /mu /paragraph /middot /cedilla
/onesuperior /ordmasculine /guillemotright /onequarter /onehalf
/threequarters /questiondown /Agrave /Aacute /Acircumflex
/Atilde /Adieresis /Aring /AE /Ccedilla
/Egrave /Eacute /Ecircumflex /Edieresis /Igrave
/Iacute /Icircumflex /Idieresis /Eth /Ntilde
/Ograve /Oacute /Ocircumflex /Otilde /Odieresis
/multiply /Oslash /Ugrave /Uacute /Ucircumflex
/Udieresis /Yacute /Thorn /germandbls /agrave
/aacute /acircumflex /atilde /adieresis /aring
/ae /ccedilla /egrave /eacute /ecircumflex
/edieresis /igrave /iacute /icircumflex /idieresis
/eth /ntilde /ograve /oacute /ocircumflex
/otilde /odieresis /divide /oslash /ugrave
/uacute /ucircumflex /udieresis /yacute /thorn
/ydieresis
] def
%%EndResource
%FOPBeginFontReencode
/Courier-Oblique findfont
dup length dict begin
  {1 index /FID ne {def} {pop pop} ifelse} forall
  /Encoding WinAnsiEncoding def
  currentdict
end
/Courier-Oblique exch definefont pop
/Courier-BoldOblique findfont
dup length dict begin
  {1 index /FID ne {def} {pop pop} ifelse} forall
  /Encoding WinAnsiEncoding def
  currentdict
end
/Courier-BoldOblique exch definefont pop
/Courier-Bold findfont
dup length dict begin
  {1 index /FID ne {def} {pop pop} ifelse} forall
  /Encoding WinAnsiEncoding def
  currentdict
end
/Courier-Bold exch definefont pop
/Helvetica findfont
dup length dict begin
  {1 index /FID ne {def} {pop pop} ifelse} forall
  /Encoding WinAnsiEncoding def
  currentdict
end
/Helvetica exch definefont pop
/Helvetica-Oblique findfont
dup length dict begin
  {1 index /FID ne {def} {pop pop} ifelse} forall
  /Encoding WinAnsiEncoding def
  currentdict
end
/Helvetica-Oblique exch definefont pop
/Helvetica-Bold findfont
dup length dict begin
  {1 index /FID ne {def} {pop pop} ifelse} forall
  /Encoding WinAnsiEncoding def
  currentdict
end
/Helvetica-Bold exch definefont pop
/Helvetica-BoldOblique findfont
dup length dict begin
  {1 index /FID ne {def} {pop pop} ifelse} forall
  /Encoding WinAnsiEncoding def
  currentdict
end
/Helvetica-BoldOblique exch definefont pop
/Times-Roman findfont
dup length dict begin
  {1 index /FID ne {def} {pop pop} ifelse} forall
  /Encoding WinAnsiEncoding def
  currentdict
end
/Times-Roman exch definefont pop
/Times-Italic findfont
dup length dict begin
  {1 index /FID ne {def} {pop pop} ifelse} forall
  /Encoding WinAnsiEncoding def
  currentdict
end
/Times-Italic exch definefont pop
/Times-Bold findfont
dup length dict begin
  {1 index /FID ne {def} {pop pop} ifelse} forall
  /Encoding WinAnsiEncoding def
  currentdict
end
/Times-Bold exch definefont pop
/Times-BoldItalic findfont
dup length dict begin
  {1 index /FID ne {def} {pop pop} ifelse} forall
  /Encoding WinAnsiEncoding def
  currentdict
end
/Times-BoldItalic exch definefont pop
/Courier findfont
dup length dict begin
  {1 index /FID ne {def} {pop pop} ifelse} forall
  /Encoding WinAnsiEncoding def
  currentdict
end
/Courier exch definefont pop
%FOPEndFontReencode
%%EndProlog
%%Page: 1 1
%%PageBoundingBox: 0 0 1120 840
%%BeginPageSetup
[1 0 0 -1 0 840] CT
%%EndPageSetup
GS
1 GC
N
0 0 1120 840 re
f
GR
GS
1 GC
N
73 374 M
507 374 L
507 31.5 L
73 31.5 L
cp
f
GR
GS
0.149 GC
2 setlinecap
1 LJ
0.5 LW
N
73 374 M
507 374 L
S
GR
GS
0.149 GC
2 setlinecap
1 LJ
0.5 LW
N
73 31.5 M
507 31.5 L
S
GR
GS
0.149 GC
2 setlinecap
1 LJ
0.5 LW
N
110.609 374 M
110.609 369.66 L
S
GR
GS
0.149 GC
2 setlinecap
1 LJ
0.5 LW
N
159.242 374 M
159.242 369.66 L
S
GR
GS
0.149 GC
2 setlinecap
1 LJ
0.5 LW
N
207.874 374 M
207.874 369.66 L
S
GR
GS
0.149 GC
2 setlinecap
1 LJ
0.5 LW
N
256.506 374 M
256.506 369.66 L
S
GR
GS
0.149 GC
2 setlinecap
1 LJ
0.5 LW
N
305.138 374 M
305.138 369.66 L
S
GR
GS
0.149 GC
2 setlinecap
1 LJ
0.5 LW
N
353.77 374 M
353.77 369.66 L
S
GR
GS
0.149 GC
2 setlinecap
1 LJ
0.5 LW
N
402.402 374 M
402.402 369.66 L
S
GR
GS
0.149 GC
2 setlinecap
1 LJ
0.5 LW
N
451.034 374 M
451.034 369.66 L
S
GR
GS
0.149 GC
2 setlinecap
1 LJ
0.5 LW
N
499.667 374 M
499.667 369.66 L
S
GR
GS
0.149 GC
2 setlinecap
1 LJ
0.5 LW
N
110.609 31.5 M
110.609 35.84 L
S
GR
GS
0.149 GC
2 setlinecap
1 LJ
0.5 LW
N
159.242 31.5 M
159.242 35.84 L
S
GR
GS
0.149 GC
2 setlinecap
1 LJ
0.5 LW
N
207.874 31.5 M
207.874 35.84 L
S
GR
GS
0.149 GC
2 setlinecap
1 LJ
0.5 LW
N
256.506 31.5 M
256.506 35.84 L
S
GR
GS
0.149 GC
2 setlinecap
1 LJ
0.5 LW
N
305.138 31.5 M
305.138 35.84 L
S
GR
GS
0.149 GC
2 setlinecap
1 LJ
0.5 LW
N
353.77 31.5 M
353.77 35.84 L
S
GR
GS
0.149 GC
2 setlinecap
1 LJ
0.5 LW
N
402.402 31.5 M
402.402 35.84 L
S
GR
GS
0.149 GC
2 setlinecap
1 LJ
0.5 LW
N
451.034 31.5 M
451.034 35.84 L
S
GR
GS
0.149 GC
2 setlinecap
1 LJ
0.5 LW
N
499.667 31.5 M
499.667 35.84 L
S
GR
GS
0.149 GC
2 setlinecap
1 LJ
0.5 LW
N
74.135 374 M
74.135 371.83 L
S
GR
GS
0.149 GC
2 setlinecap
1 LJ
0.5 LW
N
86.293 374 M
86.293 371.83 L
S
GR
GS
0.149 GC
2 setlinecap
1 LJ
0.5 LW
N
98.451 374 M
98.451 371.83 L
S
GR
GS
0.149 GC
2 setlinecap
1 LJ
0.5 LW
N
122.767 374 M
122.767 371.83 L
S
GR
GS
0.149 GC
2 setlinecap
1 LJ
0.5 LW
N
134.925 374 M
134.925 371.83 L
S
GR
GS
0.149 GC
2 setlinecap
1 LJ
0.5 LW
N
147.083 374 M
147.083 371.83 L
S
GR
GS
0.149 GC
2 setlinecap
1 LJ
0.5 LW
N
171.4 374 M
171.4 371.83 L
S
GR
GS
0.149 GC
2 setlinecap
1 LJ
0.5 LW
N
183.558 374 M
183.558 371.83 L
S
GR
GS
0.149 GC
2 setlinecap
1 LJ
0.5 LW
N
195.716 374 M
195.716 371.83 L
S
GR
GS
0.149 GC
2 setlinecap
1 LJ
0.5 LW
N
220.032 374 M
220.032 371.83 L
S
GR
GS
0.149 GC
2 setlinecap
1 LJ
0.5 LW
N
232.19 374 M
232.19 371.83 L
S
GR
GS
0.149 GC
2 setlinecap
1 LJ
0.5 LW
N
244.348 374 M
244.348 371.83 L
S
GR
GS
0.149 GC
2 setlinecap
1 LJ
0.5 LW
N
268.664 374 M
268.664 371.83 L
S
GR
GS
0.149 GC
2 setlinecap
1 LJ
0.5 LW
N
280.822 374 M
280.822 371.83 L
S
GR
GS
0.149 GC
2 setlinecap
1 LJ
0.5 LW
N
292.98 374 M
292.98 371.83 L
S
GR
GS
0.149 GC
2 setlinecap
1 LJ
0.5 LW
N
317.296 374 M
317.296 371.83 L
S
GR
GS
0.149 GC
2 setlinecap
1 LJ
0.5 LW
N
329.454 374 M
329.454 371.83 L
S
GR
GS
0.149 GC
2 setlinecap
1 LJ
0.5 LW
N
341.612 374 M
341.612 371.83 L
S
GR
GS
0.149 GC
2 setlinecap
1 LJ
0.5 LW
N
365.928 374 M
365.928 371.83 L
S
GR
GS
0.149 GC
2 setlinecap
1 LJ
0.5 LW
N
378.086 374 M
378.086 371.83 L
S
GR
GS
0.149 GC
2 setlinecap
1 LJ
0.5 LW
N
390.244 374 M
390.244 371.83 L
S
GR
GS
0.149 GC
2 setlinecap
1 LJ
0.5 LW
N
414.56 374 M
414.56 371.83 L
S
GR
GS
0.149 GC
2 setlinecap
1 LJ
0.5 LW
N
426.718 374 M
426.718 371.83 L
S
GR
GS
0.149 GC
2 setlinecap
1 LJ
0.5 LW
N
438.876 374 M
438.876 371.83 L
S
GR
GS
0.149 GC
2 setlinecap
1 LJ
0.5 LW
N
463.192 374 M
463.192 371.83 L
S
GR
GS
0.149 GC
2 setlinecap
1 LJ
0.5 LW
N
475.35 374 M
475.35 371.83 L
S
GR
GS
0.149 GC
2 setlinecap
1 LJ
0.5 LW
N
487.509 374 M
487.509 371.83 L
S
GR
GS
0.149 GC
2 setlinecap
1 LJ
0.5 LW
N
74.135 31.5 M
74.135 33.67 L
S
GR
GS
0.149 GC
2 setlinecap
1 LJ
0.5 LW
N
86.293 31.5 M
86.293 33.67 L
S
GR
GS
0.149 GC
2 setlinecap
1 LJ
0.5 LW
N
98.451 31.5 M
98.451 33.67 L
S
GR
GS
0.149 GC
2 setlinecap
1 LJ
0.5 LW
N
122.767 31.5 M
122.767 33.67 L
S
GR
GS
0.149 GC
2 setlinecap
1 LJ
0.5 LW
N
134.925 31.5 M
134.925 33.67 L
S
GR
GS
0.149 GC
2 setlinecap
1 LJ
0.5 LW
N
147.083 31.5 M
147.083 33.67 L
S
GR
GS
0.149 GC
2 setlinecap
1 LJ
0.5 LW
N
171.4 31.5 M
171.4 33.67 L
S
GR
GS
0.149 GC
2 setlinecap
1 LJ
0.5 LW
N
183.558 31.5 M
183.558 33.67 L
S
GR
GS
0.149 GC
2 setlinecap
1 LJ
0.5 LW
N
195.716 31.5 M
195.716 33.67 L
S
GR
GS
0.149 GC
2 setlinecap
1 LJ
0.5 LW
N
220.032 31.5 M
220.032 33.67 L
S
GR
GS
0.149 GC
2 setlinecap
1 LJ
0.5 LW
N
232.19 31.5 M
232.19 33.67 L
S
GR
GS
0.149 GC
2 setlinecap
1 LJ
0.5 LW
N
244.348 31.5 M
244.348 33.67 L
S
GR
GS
0.149 GC
2 setlinecap
1 LJ
0.5 LW
N
268.664 31.5 M
268.664 33.67 L
S
GR
GS
0.149 GC
2 setlinecap
1 LJ
0.5 LW
N
280.822 31.5 M
280.822 33.67 L
S
GR
GS
0.149 GC
2 setlinecap
1 LJ
0.5 LW
N
292.98 31.5 M
292.98 33.67 L
S
GR
GS
0.149 GC
2 setlinecap
1 LJ
0.5 LW
N
317.296 31.5 M
317.296 33.67 L
S
GR
GS
0.149 GC
2 setlinecap
1 LJ
0.5 LW
N
329.454 31.5 M
329.454 33.67 L
S
GR
GS
0.149 GC
2 setlinecap
1 LJ
0.5 LW
N
341.612 31.5 M
341.612 33.67 L
S
GR
GS
0.149 GC
2 setlinecap
1 LJ
0.5 LW
N
365.928 31.5 M
365.928 33.67 L
S
GR
GS
0.149 GC
2 setlinecap
1 LJ
0.5 LW
N
378.086 31.5 M
378.086 33.67 L
S
GR
GS
0.149 GC
2 setlinecap
1 LJ
0.5 LW
N
390.244 31.5 M
390.244 33.67 L
S
GR
GS
0.149 GC
2 setlinecap
1 LJ
0.5 LW
N
414.56 31.5 M
414.56 33.67 L
S
GR
GS
0.149 GC
2 setlinecap
1 LJ
0.5 LW
N
426.718 31.5 M
426.718 33.67 L
S
GR
GS
0.149 GC
2 setlinecap
1 LJ
0.5 LW
N
438.876 31.5 M
438.876 33.67 L
S
GR
GS
0.149 GC
2 setlinecap
1 LJ
0.5 LW
N
463.192 31.5 M
463.192 33.67 L
S
GR
GS
0.149 GC
2 setlinecap
1 LJ
0.5 LW
N
475.35 31.5 M
475.35 33.67 L
S
GR
GS
0.149 GC
2 setlinecap
1 LJ
0.5 LW
N
487.509 31.5 M
487.509 33.67 L
S
GR
GS
[1 0 0 1 110.60934 378.79999] CT
0.149 GC
/Helvetica 14 F
GS
[1 0 0 1 0 0] CT
-16 14 moveto 
1 -1 scale
(2000) t 
GR
GR
GS
[1 0 0 1 159.2415 378.79999] CT
0.149 GC
/Helvetica 14 F
GS
[1 0 0 1 0 0] CT
-16 14 moveto 
1 -1 scale
(4000) t 
GR
GR
GS
[1 0 0 1 207.87364 378.79999] CT
0.149 GC
/Helvetica 14 F
GS
[1 0 0 1 0 0] CT
-16 14 moveto 
1 -1 scale
(6000) t 
GR
GR
GS
[1 0 0 1 256.5058 378.79999] CT
0.149 GC
/Helvetica 14 F
GS
[1 0 0 1 0 0] CT
-16 14 moveto 
1 -1 scale
(8000) t 
GR
GR
GS
[1 0 0 1 305.13797 378.79999] CT
0.149 GC
/Helvetica 14 F
GS
[1 0 0 1 0 0] CT
-19.5 14 moveto 
1 -1 scale
(10000) t 
GR
GR
GS
[1 0 0 1 353.77011 378.79999] CT
0.149 GC
/Helvetica 14 F
GS
[1 0 0 1 0 0] CT
-19.5 14 moveto 
1 -1 scale
(12000) t 
GR
GR
GS
[1 0 0 1 402.40225 378.79999] CT
0.149 GC
/Helvetica 14 F
GS
[1 0 0 1 0 0] CT
-19.5 14 moveto 
1 -1 scale
(14000) t 
GR
GR
GS
[1 0 0 1 451.03442 378.79999] CT
0.149 GC
/Helvetica 14 F
GS
[1 0 0 1 0 0] CT
-19.5 14 moveto 
1 -1 scale
(16000) t 
GR
GR
GS
[1 0 0 1 499.66656 378.79999] CT
0.149 GC
/Helvetica 14 F
GS
[1 0 0 1 0 0] CT
-19.5 14 moveto 
1 -1 scale
(18000) t 
GR
GR
GS
[1 0 0 1 290.00021 396.30002] CT
0.149 GC
/Helvetica 15.4 F
GS
[1 0 0 1 0 0] CT
-42 15 moveto 
1 -1 scale
(Bitrate\(kb/s\)) t 
GR
GR
GS
0.149 GC
2 setlinecap
1 LJ
0.5 LW
N
73 374 M
73 31.5 L
S
GR
GS
0.149 GC
2 setlinecap
1 LJ
0.5 LW
N
507 374 M
507 31.5 L
S
GR
GS
0.149 GC
2 setlinecap
1 LJ
0.5 LW
N
73 344.829 M
77.34 344.829 L
S
GR
GS
0.149 GC
2 setlinecap
1 LJ
0.5 LW
N
73 314.103 M
77.34 314.103 L
S
GR
GS
0.149 GC
2 setlinecap
1 LJ
0.5 LW
N
73 283.376 M
77.34 283.376 L
S
GR
GS
0.149 GC
2 setlinecap
1 LJ
0.5 LW
N
73 252.65 M
77.34 252.65 L
S
GR
GS
0.149 GC
2 setlinecap
1 LJ
0.5 LW
N
73 221.924 M
77.34 221.924 L
S
GR
GS
0.149 GC
2 setlinecap
1 LJ
0.5 LW
N
73 191.197 M
77.34 191.197 L
S
GR
GS
0.149 GC
2 setlinecap
1 LJ
0.5 LW
N
73 160.471 M
77.34 160.471 L
S
GR
GS
0.149 GC
2 setlinecap
1 LJ
0.5 LW
N
73 129.744 M
77.34 129.744 L
S
GR
GS
0.149 GC
2 setlinecap
1 LJ
0.5 LW
N
73 99.018 M
77.34 99.018 L
S
GR
GS
0.149 GC
2 setlinecap
1 LJ
0.5 LW
N
73 68.292 M
77.34 68.292 L
S
GR
GS
0.149 GC
2 setlinecap
1 LJ
0.5 LW
N
73 37.565 M
77.34 37.565 L
S
GR
GS
0.149 GC
2 setlinecap
1 LJ
0.5 LW
N
507 344.829 M
502.66 344.829 L
S
GR
GS
0.149 GC
2 setlinecap
1 LJ
0.5 LW
N
507 314.103 M
502.66 314.103 L
S
GR
GS
0.149 GC
2 setlinecap
1 LJ
0.5 LW
N
507 283.376 M
502.66 283.376 L
S
GR
GS
0.149 GC
2 setlinecap
1 LJ
0.5 LW
N
507 252.65 M
502.66 252.65 L
S
GR
GS
0.149 GC
2 setlinecap
1 LJ
0.5 LW
N
507 221.924 M
502.66 221.924 L
S
GR
GS
0.149 GC
2 setlinecap
1 LJ
0.5 LW
N
507 191.197 M
502.66 191.197 L
S
GR
GS
0.149 GC
2 setlinecap
1 LJ
0.5 LW
N
507 160.471 M
502.66 160.471 L
S
GR
GS
0.149 GC
2 setlinecap
1 LJ
0.5 LW
N
507 129.744 M
502.66 129.744 L
S
GR
GS
0.149 GC
2 setlinecap
1 LJ
0.5 LW
N
507 99.018 M
502.66 99.018 L
S
GR
GS
0.149 GC
2 setlinecap
1 LJ
0.5 LW
N
507 68.292 M
502.66 68.292 L
S
GR
GS
0.149 GC
2 setlinecap
1 LJ
0.5 LW
N
507 37.565 M
502.66 37.565 L
S
GR
GS
0.149 GC
2 setlinecap
1 LJ
0.5 LW
N
73 369.41 M
75.17 369.41 L
S
GR
GS
0.149 GC
2 setlinecap
1 LJ
0.5 LW
N
73 363.265 M
75.17 363.265 L
S
GR
GS
0.149 GC
2 setlinecap
1 LJ
0.5 LW
N
73 357.12 M
75.17 357.12 L
S
GR
GS
0.149 GC
2 setlinecap
1 LJ
0.5 LW
N
73 350.974 M
75.17 350.974 L
S
GR
GS
0.149 GC
2 setlinecap
1 LJ
0.5 LW
N
73 338.684 M
75.17 338.684 L
S
GR
GS
0.149 GC
2 setlinecap
1 LJ
0.5 LW
N
73 332.538 M
75.17 332.538 L
S
GR
GS
0.149 GC
2 setlinecap
1 LJ
0.5 LW
N
73 326.393 M
75.17 326.393 L
S
GR
GS
0.149 GC
2 setlinecap
1 LJ
0.5 LW
N
73 320.248 M
75.17 320.248 L
S
GR
GS
0.149 GC
2 setlinecap
1 LJ
0.5 LW
N
73 307.957 M
75.17 307.957 L
S
GR
GS
0.149 GC
2 setlinecap
1 LJ
0.5 LW
N
73 301.812 M
75.17 301.812 L
S
GR
GS
0.149 GC
2 setlinecap
1 LJ
0.5 LW
N
73 295.667 M
75.17 295.667 L
S
GR
GS
0.149 GC
2 setlinecap
1 LJ
0.5 LW
N
73 289.522 M
75.17 289.522 L
S
GR
GS
0.149 GC
2 setlinecap
1 LJ
0.5 LW
N
73 277.231 M
75.17 277.231 L
S
GR
GS
0.149 GC
2 setlinecap
1 LJ
0.5 LW
N
73 271.086 M
75.17 271.086 L
S
GR
GS
0.149 GC
2 setlinecap
1 LJ
0.5 LW
N
73 264.941 M
75.17 264.941 L
S
GR
GS
0.149 GC
2 setlinecap
1 LJ
0.5 LW
N
73 258.795 M
75.17 258.795 L
S
GR
GS
0.149 GC
2 setlinecap
1 LJ
0.5 LW
N
73 246.505 M
75.17 246.505 L
S
GR
GS
0.149 GC
2 setlinecap
1 LJ
0.5 LW
N
73 240.359 M
75.17 240.359 L
S
GR
GS
0.149 GC
2 setlinecap
1 LJ
0.5 LW
N
73 234.214 M
75.17 234.214 L
S
GR
GS
0.149 GC
2 setlinecap
1 LJ
0.5 LW
N
73 228.069 M
75.17 228.069 L
S
GR
GS
0.149 GC
2 setlinecap
1 LJ
0.5 LW
N
73 215.778 M
75.17 215.778 L
S
GR
GS
0.149 GC
2 setlinecap
1 LJ
0.5 LW
N
73 209.633 M
75.17 209.633 L
S
GR
GS
0.149 GC
2 setlinecap
1 LJ
0.5 LW
N
73 203.488 M
75.17 203.488 L
S
GR
GS
0.149 GC
2 setlinecap
1 LJ
0.5 LW
N
73 197.342 M
75.17 197.342 L
S
GR
GS
0.149 GC
2 setlinecap
1 LJ
0.5 LW
N
73 185.052 M
75.17 185.052 L
S
GR
GS
0.149 GC
2 setlinecap
1 LJ
0.5 LW
N
73 178.907 M
75.17 178.907 L
S
GR
GS
0.149 GC
2 setlinecap
1 LJ
0.5 LW
N
73 172.761 M
75.17 172.761 L
S
GR
GS
0.149 GC
2 setlinecap
1 LJ
0.5 LW
N
73 166.616 M
75.17 166.616 L
S
GR
GS
0.149 GC
2 setlinecap
1 LJ
0.5 LW
N
73 154.326 M
75.17 154.326 L
S
GR
GS
0.149 GC
2 setlinecap
1 LJ
0.5 LW
N
73 148.18 M
75.17 148.18 L
S
GR
GS
0.149 GC
2 setlinecap
1 LJ
0.5 LW
N
73 142.035 M
75.17 142.035 L
S
GR
GS
0.149 GC
2 setlinecap
1 LJ
0.5 LW
N
73 135.89 M
75.17 135.89 L
S
GR
GS
0.149 GC
2 setlinecap
1 LJ
0.5 LW
N
73 123.599 M
75.17 123.599 L
S
GR
GS
0.149 GC
2 setlinecap
1 LJ
0.5 LW
N
73 117.454 M
75.17 117.454 L
S
GR
GS
0.149 GC
2 setlinecap
1 LJ
0.5 LW
N
73 111.309 M
75.17 111.309 L
S
GR
GS
0.149 GC
2 setlinecap
1 LJ
0.5 LW
N
73 105.163 M
75.17 105.163 L
S
GR
GS
0.149 GC
2 setlinecap
1 LJ
0.5 LW
N
73 92.873 M
75.17 92.873 L
S
GR
GS
0.149 GC
2 setlinecap
1 LJ
0.5 LW
N
73 86.727 M
75.17 86.727 L
S
GR
GS
0.149 GC
2 setlinecap
1 LJ
0.5 LW
N
73 80.582 M
75.17 80.582 L
S
GR
GS
0.149 GC
2 setlinecap
1 LJ
0.5 LW
N
73 74.437 M
75.17 74.437 L
S
GR
GS
0.149 GC
2 setlinecap
1 LJ
0.5 LW
N
73 62.146 M
75.17 62.146 L
S
GR
GS
0.149 GC
2 setlinecap
1 LJ
0.5 LW
N
73 56.001 M
75.17 56.001 L
S
GR
GS
0.149 GC
2 setlinecap
1 LJ
0.5 LW
N
73 49.856 M
75.17 49.856 L
S
GR
GS
0.149 GC
2 setlinecap
1 LJ
0.5 LW
N
73 43.711 M
75.17 43.711 L
S
GR
GS
0.149 GC
2 setlinecap
1 LJ
0.5 LW
N
507 369.41 M
504.83 369.41 L
S
GR
GS
0.149 GC
2 setlinecap
1 LJ
0.5 LW
N
507 363.265 M
504.83 363.265 L
S
GR
GS
0.149 GC
2 setlinecap
1 LJ
0.5 LW
N
507 357.12 M
504.83 357.12 L
S
GR
GS
0.149 GC
2 setlinecap
1 LJ
0.5 LW
N
507 350.974 M
504.83 350.974 L
S
GR
GS
0.149 GC
2 setlinecap
1 LJ
0.5 LW
N
507 338.684 M
504.83 338.684 L
S
GR
GS
0.149 GC
2 setlinecap
1 LJ
0.5 LW
N
507 332.538 M
504.83 332.538 L
S
GR
GS
0.149 GC
2 setlinecap
1 LJ
0.5 LW
N
507 326.393 M
504.83 326.393 L
S
GR
GS
0.149 GC
2 setlinecap
1 LJ
0.5 LW
N
507 320.248 M
504.83 320.248 L
S
GR
GS
0.149 GC
2 setlinecap
1 LJ
0.5 LW
N
507 307.957 M
504.83 307.957 L
S
GR
GS
0.149 GC
2 setlinecap
1 LJ
0.5 LW
N
507 301.812 M
504.83 301.812 L
S
GR
GS
0.149 GC
2 setlinecap
1 LJ
0.5 LW
N
507 295.667 M
504.83 295.667 L
S
GR
GS
0.149 GC
2 setlinecap
1 LJ
0.5 LW
N
507 289.522 M
504.83 289.522 L
S
GR
GS
0.149 GC
2 setlinecap
1 LJ
0.5 LW
N
507 277.231 M
504.83 277.231 L
S
GR
GS
0.149 GC
2 setlinecap
1 LJ
0.5 LW
N
507 271.086 M
504.83 271.086 L
S
GR
GS
0.149 GC
2 setlinecap
1 LJ
0.5 LW
N
507 264.941 M
504.83 264.941 L
S
GR
GS
0.149 GC
2 setlinecap
1 LJ
0.5 LW
N
507 258.795 M
504.83 258.795 L
S
GR
GS
0.149 GC
2 setlinecap
1 LJ
0.5 LW
N
507 246.505 M
504.83 246.505 L
S
GR
GS
0.149 GC
2 setlinecap
1 LJ
0.5 LW
N
507 240.359 M
504.83 240.359 L
S
GR
GS
0.149 GC
2 setlinecap
1 LJ
0.5 LW
N
507 234.214 M
504.83 234.214 L
S
GR
GS
0.149 GC
2 setlinecap
1 LJ
0.5 LW
N
507 228.069 M
504.83 228.069 L
S
GR
GS
0.149 GC
2 setlinecap
1 LJ
0.5 LW
N
507 215.778 M
504.83 215.778 L
S
GR
GS
0.149 GC
2 setlinecap
1 LJ
0.5 LW
N
507 209.633 M
504.83 209.633 L
S
GR
GS
0.149 GC
2 setlinecap
1 LJ
0.5 LW
N
507 203.488 M
504.83 203.488 L
S
GR
GS
0.149 GC
2 setlinecap
1 LJ
0.5 LW
N
507 197.342 M
504.83 197.342 L
S
GR
GS
0.149 GC
2 setlinecap
1 LJ
0.5 LW
N
507 185.052 M
504.83 185.052 L
S
GR
GS
0.149 GC
2 setlinecap
1 LJ
0.5 LW
N
507 178.907 M
504.83 178.907 L
S
GR
GS
0.149 GC
2 setlinecap
1 LJ
0.5 LW
N
507 172.761 M
504.83 172.761 L
S
GR
GS
0.149 GC
2 setlinecap
1 LJ
0.5 LW
N
507 166.616 M
504.83 166.616 L
S
GR
GS
0.149 GC
2 setlinecap
1 LJ
0.5 LW
N
507 154.326 M
504.83 154.326 L
S
GR
GS
0.149 GC
2 setlinecap
1 LJ
0.5 LW
N
507 148.18 M
504.83 148.18 L
S
GR
GS
0.149 GC
2 setlinecap
1 LJ
0.5 LW
N
507 142.035 M
504.83 142.035 L
S
GR
GS
0.149 GC
2 setlinecap
1 LJ
0.5 LW
N
507 135.89 M
504.83 135.89 L
S
GR
GS
0.149 GC
2 setlinecap
1 LJ
0.5 LW
N
507 123.599 M
504.83 123.599 L
S
GR
GS
0.149 GC
2 setlinecap
1 LJ
0.5 LW
N
507 117.454 M
504.83 117.454 L
S
GR
GS
0.149 GC
2 setlinecap
1 LJ
0.5 LW
N
507 111.309 M
504.83 111.309 L
S
GR
GS
0.149 GC
2 setlinecap
1 LJ
0.5 LW
N
507 105.163 M
504.83 105.163 L
S
GR
GS
0.149 GC
2 setlinecap
1 LJ
0.5 LW
N
507 92.873 M
504.83 92.873 L
S
GR
GS
0.149 GC
2 setlinecap
1 LJ
0.5 LW
N
507 86.727 M
504.83 86.727 L
S
GR
GS
0.149 GC
2 setlinecap
1 LJ
0.5 LW
N
507 80.582 M
504.83 80.582 L
S
GR
GS
0.149 GC
2 setlinecap
1 LJ
0.5 LW
N
507 74.437 M
504.83 74.437 L
S
GR
GS
0.149 GC
2 setlinecap
1 LJ
0.5 LW
N
507 62.146 M
504.83 62.146 L
S
GR
GS
0.149 GC
2 setlinecap
1 LJ
0.5 LW
N
507 56.001 M
504.83 56.001 L
S
GR
GS
0.149 GC
2 setlinecap
1 LJ
0.5 LW
N
507 49.856 M
504.83 49.856 L
S
GR
GS
0.149 GC
2 setlinecap
1 LJ
0.5 LW
N
507 43.711 M
504.83 43.711 L
S
GR
GS
[1 0 0 1 68.2 344.82904] CT
0.149 GC
/Helvetica 14 F
GS
[1 0 0 1 0 0] CT
-16 5.5 moveto 
1 -1 scale
(30) t 
GR
GR
GS
[1 0 0 1 68.2 314.10266] CT
0.149 GC
/Helvetica 14 F
GS
[1 0 0 1 0 0] CT
-16 5.5 moveto 
1 -1 scale
(31) t 
GR
GR
GS
[1 0 0 1 68.2 283.37628] CT
0.149 GC
/Helvetica 14 F
GS
[1 0 0 1 0 0] CT
-16 5.5 moveto 
1 -1 scale
(32) t 
GR
GR
GS
[1 0 0 1 68.2 252.64992] CT
0.149 GC
/Helvetica 14 F
GS
[1 0 0 1 0 0] CT
-16 5.5 moveto 
1 -1 scale
(33) t 
GR
GR
GS
[1 0 0 1 68.2 221.92355] CT
0.149 GC
/Helvetica 14 F
GS
[1 0 0 1 0 0] CT
-16 5.5 moveto 
1 -1 scale
(34) t 
GR
GR
GS
[1 0 0 1 68.2 191.19719] CT
0.149 GC
/Helvetica 14 F
GS
[1 0 0 1 0 0] CT
-16 5.5 moveto 
1 -1 scale
(35) t 
GR
GR
GS
[1 0 0 1 68.2 160.47083] CT
0.149 GC
/Helvetica 14 F
GS
[1 0 0 1 0 0] CT
-16 5.5 moveto 
1 -1 scale
(36) t 
GR
GR
GS
[1 0 0 1 68.2 129.74445] CT
0.149 GC
/Helvetica 14 F
GS
[1 0 0 1 0 0] CT
-16 5.5 moveto 
1 -1 scale
(37) t 
GR
GR
GS
[1 0 0 1 68.2 99.01808] CT
0.149 GC
/Helvetica 14 F
GS
[1 0 0 1 0 0] CT
-16 5.5 moveto 
1 -1 scale
(38) t 
GR
GR
GS
[1 0 0 1 68.2 68.29171] CT
0.149 GC
/Helvetica 14 F
GS
[1 0 0 1 0 0] CT
-16 5.5 moveto 
1 -1 scale
(39) t 
GR
GR
GS
[1 0 0 1 68.2 37.56534] CT
0.149 GC
/Helvetica 14 F
GS
[1 0 0 1 0 0] CT
-16 5.5 moveto 
1 -1 scale
(40) t 
GR
GR
GS
[0 -1 1 0 49.2 202.74982] CT
0.149 GC
/Helvetica 15.4 F
GS
[1 0 0 1 0 0] CT
-62.5 -4 moveto 
1 -1 scale
(PSNR-HVS Y \(dB\)) t 
GR
GR
GS
[1 0 0 1 290.00027 29.57502] CT
/Helvetica-Bold 15.4 F
GS
[1 0 0 1 0 0] CT
-148.5 -4 moveto 
1 -1 scale
(OldTownCross_1920x1080p50.y4m-hevc) t 
GR
GR
GS
0 0.447 0.741 RC
1 LJ
0.5 LW
N
73.65 365.38 M
74.136 358.905 L
74.623 352.463 L
75.109 346.064 L
75.595 339.718 L
76.082 333.435 L
76.568 327.224 L
77.054 321.096 L
77.541 315.059 L
78.027 309.123 L
78.513 303.298 L
78.999 297.595 L
79.486 292.022 L
79.972 286.589 L
80.458 281.306 L
80.945 276.182 L
81.431 271.228 L
81.917 266.453 L
82.404 261.867 L
82.89 257.479 L
83.376 253.299 L
83.863 249.337 L
84.349 245.602 L
84.835 242.037 L
85.322 238.518 L
85.808 235.042 L
86.294 231.61 L
86.781 228.224 L
87.267 224.884 L
87.753 221.591 L
88.24 218.347 L
88.726 215.152 L
89.212 212.007 L
89.699 208.913 L
90.185 205.872 L
90.671 202.883 L
91.158 199.949 L
91.644 197.07 L
92.13 194.247 L
92.616 191.481 L
93.103 188.773 L
93.589 186.124 L
94.075 183.534 L
94.562 181.006 L
95.048 178.539 L
95.534 176.136 L
96.021 173.796 L
96.507 171.521 L
96.993 169.312 L
97.48 167.169 L
97.966 165.094 L
98.452 163.087 L
98.939 161.151 L
99.425 159.285 L
99.911 157.49 L
100.398 155.768 L
100.884 154.119 L
101.37 152.545 L
101.857 151.046 L
102.343 149.624 L
102.829 148.279 L
103.316 147.005 L
103.802 145.751 L
104.288 144.508 L
104.775 143.276 L
105.261 142.056 L
105.747 140.847 L
106.233 139.65 L
106.72 138.464 L
107.206 137.29 L
107.692 136.127 L
108.179 134.976 L
108.665 133.837 L
109.151 132.709 L
109.638 131.593 L
110.124 130.489 L
110.61 129.397 L
111.097 128.317 L
111.583 127.249 L
112.069 126.192 L
112.556 125.148 L
113.042 124.116 L
113.528 123.097 L
114.015 122.089 L
114.501 121.094 L
114.987 120.111 L
115.474 119.141 L
115.96 118.183 L
116.446 117.237 L
116.933 116.304 L
117.419 115.384 L
117.905 114.476 L
118.392 113.581 L
118.878 112.699 L
119.364 111.83 L
119.85 110.973 L
120.337 110.129 L
120.823 109.299 L
121.309 108.481 L
121.796 107.676 L
122.282 106.885 L
122.768 106.106 L
123.255 105.341 L
123.741 104.589 L
124.227 103.851 L
124.714 103.125 L
125.2 102.413 L
125.686 101.715 L
126.173 101.03 L
126.659 100.359 L
127.145 99.701 L
127.632 99.057 L
128.118 98.427 L
128.604 97.81 L
129.091 97.208 L
129.577 96.619 L
130.063 96.044 L
130.55 95.483 L
131.036 94.936 L
131.522 94.403 L
132.009 93.884 L
132.495 93.38 L
132.981 92.889 L
133.467 92.413 L
133.954 91.951 L
134.44 91.504 L
134.926 91.071 L
135.413 90.652 L
135.899 90.248 L
136.385 89.859 L
136.872 89.484 L
137.358 89.124 L
137.844 88.779 L
138.331 88.448 L
138.817 88.132 L
139.303 87.831 L
139.79 87.545 L
140.276 87.274 L
140.762 87.019 L
141.249 86.778 L
141.735 86.544 L
142.221 86.312 L
142.708 86.08 L
143.194 85.849 L
143.68 85.618 L
144.167 85.388 L
144.653 85.159 L
145.139 84.931 L
145.626 84.703 L
146.112 84.477 L
146.598 84.251 L
147.085 84.025 L
147.571 83.801 L
148.057 83.577 L
148.543 83.354 L
149.03 83.131 L
149.516 82.909 L
150.002 82.688 L
150.489 82.468 L
150.975 82.249 L
151.461 82.03 L
151.948 81.812 L
152.434 81.594 L
152.92 81.378 L
153.407 81.162 L
153.893 80.947 L
154.379 80.732 L
154.866 80.518 L
155.352 80.305 L
155.838 80.093 L
156.325 79.882 L
156.811 79.671 L
157.297 79.46 L
157.784 79.251 L
158.27 79.042 L
158.756 78.834 L
159.243 78.627 L
159.729 78.421 L
160.215 78.215 L
160.702 78.01 L
161.188 77.805 L
161.674 77.601 L
162.16 77.398 L
162.647 77.196 L
163.133 76.995 L
163.619 76.794 L
164.106 76.594 L
164.592 76.394 L
165.078 76.196 L
165.565 75.998 L
166.051 75.801 L
166.537 75.604 L
167.024 75.408 L
167.51 75.213 L
167.996 75.018 L
168.483 74.825 L
168.969 74.632 L
169.455 74.44 L
169.942 74.248 L
170.428 74.057 L
170.914 73.867 L
171.401 73.677 L
171.887 73.489 L
172.373 73.301 L
172.86 73.113 L
173.346 72.927 L
173.832 72.741 L
174.319 72.556 L
174.805 72.371 L
175.291 72.187 L
175.777 72.004 L
176.264 71.822 L
176.75 71.64 L
177.236 71.459 L
177.723 71.279 L
178.209 71.099 L
178.695 70.92 L
179.182 70.742 L
179.668 70.565 L
180.154 70.388 L
180.641 70.212 L
181.127 70.037 L
181.613 69.862 L
182.1 69.688 L
182.586 69.515 L
183.072 69.342 L
183.559 69.17 L
184.045 68.999 L
184.531 68.829 L
185.018 68.659 L
185.504 68.49 L
185.99 68.321 L
186.477 68.154 L
186.963 67.986 L
187.449 67.82 L
187.936 67.655 L
188.422 67.49 L
188.908 67.325 L
189.394 67.162 L
189.881 66.999 L
190.367 66.837 L
190.853 66.675 L
191.34 66.515 L
191.826 66.355 L
192.312 66.195 L
192.799 66.037 L
193.285 65.879 L
193.771 65.721 L
194.258 65.565 L
194.744 65.409 L
195.23 65.253 L
195.717 65.099 L
196.203 64.945 L
196.689 64.792 L
197.176 64.639 L
197.662 64.487 L
198.148 64.336 L
198.635 64.186 L
199.121 64.036 L
199.607 63.887 L
200.094 63.739 L
200.58 63.591 L
201.066 63.444 L
201.553 63.298 L
202.039 63.152 L
202.525 63.007 L
203.011 62.863 L
203.498 62.719 L
203.984 62.576 L
204.47 62.434 L
204.957 62.292 L
205.443 62.151 L
205.929 62.011 L
206.416 61.872 L
206.902 61.733 L
207.388 61.594 L
207.875 61.457 L
208.361 61.32 L
208.847 61.184 L
209.334 61.048 L
209.82 60.914 L
210.306 60.78 L
210.793 60.646 L
211.279 60.513 L
211.765 60.381 L
212.252 60.25 L
212.738 60.119 L
213.224 59.989 L
213.711 59.86 L
214.197 59.731 L
214.683 59.603 L
215.17 59.476 L
215.656 59.349 L
216.142 59.223 L
216.628 59.097 L
217.115 58.973 L
217.601 58.849 L
218.087 58.725 L
218.574 58.603 L
219.06 58.48 L
219.546 58.359 L
220.033 58.238 L
220.519 58.118 L
221.005 57.999 L
221.492 57.88 L
221.978 57.762 L
222.464 57.645 L
222.951 57.528 L
223.437 57.412 L
223.923 57.297 L
224.41 57.182 L
224.896 57.068 L
225.382 56.955 L
225.869 56.842 L
226.355 56.73 L
226.841 56.619 L
227.328 56.508 L
227.814 56.398 L
228.3 56.288 L
228.787 56.18 L
229.273 56.072 L
229.759 55.964 L
230.245 55.857 L
230.732 55.751 L
231.218 55.646 L
231.704 55.541 L
232.191 55.437 L
232.677 55.333 L
233.163 55.23 L
233.65 55.128 L
234.136 55.027 L
234.622 54.926 L
235.109 54.826 L
235.595 54.726 L
236.081 54.627 L
236.568 54.529 L
237.054 54.432 L
237.54 54.335 L
238.027 54.238 L
238.513 54.143 L
238.999 54.048 L
239.486 53.953 L
239.972 53.86 L
240.458 53.767 L
240.945 53.674 L
241.431 53.583 L
241.917 53.491 L
242.404 53.401 L
242.89 53.311 L
243.376 53.222 L
243.862 53.134 L
244.349 53.046 L
244.835 52.959 L
245.321 52.872 L
245.808 52.786 L
246.294 52.701 L
246.78 52.616 L
247.267 52.532 L
247.753 52.449 L
248.239 52.366 L
248.726 52.284 L
249.212 52.203 L
249.698 52.122 L
250.185 52.042 L
250.671 51.963 L
251.157 51.884 L
251.644 51.806 L
252.13 51.728 L
252.616 51.651 L
253.103 51.575 L
253.589 51.499 L
254.075 51.424 L
254.562 51.35 L
255.048 51.276 L
255.534 51.203 L
256.021 51.131 L
256.507 51.059 L
256.993 50.988 L
257.479 50.917 L
257.966 50.847 L
258.452 50.778 L
258.938 50.71 L
259.425 50.642 L
259.911 50.574 L
260.397 50.508 L
260.884 50.442 L
261.37 50.376 L
261.856 50.311 L
262.343 50.247 L
262.829 50.184 L
263.315 50.121 L
263.802 50.058 L
264.288 49.997 L
264.774 49.936 L
265.261 49.875 L
265.747 49.815 L
266.233 49.756 L
266.72 49.698 L
267.206 49.64 L
267.692 49.583 L
268.179 49.526 L
268.665 49.47 L
269.151 49.415 L
269.638 49.36 L
270.124 49.306 L
270.61 49.252 L
271.096 49.2 L
271.583 49.147 L
272.069 49.096 L
272.555 49.045 L
273.042 48.994 L
273.528 48.945 L
274.014 48.896 L
274.501 48.847 L
274.987 48.799 L
275.473 48.752 L
275.96 48.705 L
276.446 48.659 L
276.932 48.614 L
277.419 48.569 L
277.905 48.525 L
278.391 48.481 L
278.878 48.438 L
279.364 48.396 L
279.85 48.354 L
280.337 48.313 L
280.823 48.273 L
281.309 48.233 L
281.796 48.194 L
282.282 48.155 L
282.768 48.117 L
283.255 48.08 L
283.741 48.043 L
284.227 48.007 L
284.714 47.971 L
285.2 47.936 L
285.686 47.902 L
286.172 47.868 L
286.659 47.835 L
287.145 47.803 L
287.631 47.771 L
288.118 47.74 L
288.604 47.709 L
289.09 47.679 L
289.577 47.65 L
290.063 47.621 L
290.549 47.593 L
291.036 47.565 L
291.522 47.538 L
292.008 47.512 L
292.495 47.486 L
292.981 47.461 L
293.467 47.436 L
293.954 47.412 L
294.44 47.389 L
294.926 47.366 L
295.413 47.344 L
295.899 47.323 L
296.385 47.302 L
296.872 47.281 L
297.358 47.262 L
297.844 47.242 L
298.331 47.224 L
298.817 47.206 L
299.303 47.189 L
299.789 47.172 L
300.276 47.156 L
300.762 47.14 L
301.248 47.125 L
301.735 47.111 L
302.221 47.097 L
302.707 47.084 L
303.194 47.072 L
303.68 47.06 L
304.166 47.049 L
304.653 47.038 L
305.139 47.028 L
305.625 47.018 L
306.112 47.009 L
306.598 47.001 L
307.084 46.993 L
307.571 46.986 L
308.057 46.98 L
308.543 46.974 L
309.03 46.968 L
309.516 46.963 L
310.002 46.959 L
310.489 46.956 L
310.975 46.953 L
311.461 46.95 L
311.948 46.948 L
312.434 46.947 L
312.92 46.947 L
S
GR
GS
0.851 0.325 0.098 RC
1 LJ
0.5 LW
N
74.053 359.546 M
74.54 353.216 L
75.026 346.916 L
75.512 340.657 L
75.999 334.448 L
76.485 328.297 L
76.971 322.216 L
77.457 316.212 L
77.944 310.297 L
78.43 304.478 L
78.916 298.766 L
79.403 293.17 L
79.889 287.699 L
80.375 282.363 L
80.862 277.172 L
81.348 272.135 L
81.834 267.26 L
82.321 262.559 L
82.807 258.04 L
83.293 253.713 L
83.78 249.587 L
84.266 245.672 L
84.752 241.977 L
85.239 238.494 L
85.725 235.083 L
86.211 231.713 L
86.698 228.387 L
87.184 225.103 L
87.67 221.864 L
88.157 218.67 L
88.643 215.522 L
89.129 212.421 L
89.616 209.368 L
90.102 206.363 L
90.588 203.408 L
91.074 200.503 L
91.561 197.649 L
92.047 194.846 L
92.533 192.097 L
93.02 189.402 L
93.506 186.761 L
93.992 184.175 L
94.479 181.646 L
94.965 179.173 L
95.451 176.759 L
95.938 174.403 L
96.424 172.107 L
96.91 169.872 L
97.397 167.698 L
97.883 165.586 L
98.369 163.537 L
98.856 161.552 L
99.342 159.632 L
99.828 157.778 L
100.315 155.99 L
100.801 154.269 L
101.287 152.617 L
101.774 151.033 L
102.26 149.52 L
102.746 148.077 L
103.233 146.706 L
103.719 145.407 L
104.205 144.181 L
104.691 142.993 L
105.178 141.814 L
105.664 140.646 L
106.15 139.489 L
106.637 138.342 L
107.123 137.206 L
107.609 136.08 L
108.096 134.965 L
108.582 133.86 L
109.068 132.766 L
109.555 131.683 L
110.041 130.611 L
110.527 129.55 L
111.014 128.499 L
111.5 127.46 L
111.986 126.431 L
112.473 125.414 L
112.959 124.408 L
113.445 123.412 L
113.932 122.428 L
114.418 121.455 L
114.904 120.494 L
115.391 119.544 L
115.877 118.605 L
116.363 117.677 L
116.85 116.761 L
117.336 115.856 L
117.822 114.963 L
118.308 114.082 L
118.795 113.212 L
119.281 112.354 L
119.767 111.507 L
120.254 110.672 L
120.74 109.849 L
121.226 109.038 L
121.713 108.239 L
122.199 107.451 L
122.685 106.676 L
123.172 105.912 L
123.658 105.161 L
124.144 104.422 L
124.631 103.695 L
125.117 102.98 L
125.603 102.277 L
126.09 101.587 L
126.576 100.909 L
127.062 100.243 L
127.549 99.59 L
128.035 98.949 L
128.521 98.321 L
129.008 97.705 L
129.494 97.102 L
129.98 96.512 L
130.467 95.934 L
130.953 95.369 L
131.439 94.816 L
131.925 94.277 L
132.412 93.75 L
132.898 93.236 L
133.384 92.736 L
133.871 92.248 L
134.357 91.773 L
134.843 91.311 L
135.33 90.863 L
135.816 90.427 L
136.302 90.005 L
136.789 89.596 L
137.275 89.201 L
137.761 88.818 L
138.248 88.45 L
138.734 88.094 L
139.22 87.752 L
139.707 87.424 L
140.193 87.109 L
140.679 86.808 L
141.166 86.52 L
141.652 86.246 L
142.138 85.986 L
142.625 85.74 L
143.111 85.507 L
143.597 85.289 L
144.084 85.077 L
144.57 84.866 L
145.056 84.655 L
145.542 84.445 L
146.029 84.236 L
146.515 84.027 L
147.001 83.819 L
147.488 83.611 L
147.974 83.404 L
148.46 83.198 L
148.947 82.992 L
149.433 82.787 L
149.919 82.582 L
150.406 82.378 L
150.892 82.175 L
151.378 81.972 L
151.865 81.77 L
152.351 81.568 L
152.837 81.367 L
153.324 81.167 L
153.81 80.967 L
154.296 80.768 L
154.783 80.569 L
155.269 80.371 L
155.755 80.174 L
156.242 79.977 L
156.728 79.781 L
157.214 79.585 L
157.701 79.39 L
158.187 79.196 L
158.673 79.002 L
159.159 78.809 L
159.646 78.616 L
160.132 78.424 L
160.618 78.233 L
161.105 78.042 L
161.591 77.852 L
162.077 77.662 L
162.564 77.473 L
163.05 77.284 L
163.536 77.096 L
164.023 76.909 L
164.509 76.722 L
164.995 76.536 L
165.482 76.351 L
165.968 76.166 L
166.454 75.981 L
166.941 75.798 L
167.427 75.615 L
167.913 75.432 L
168.4 75.25 L
168.886 75.068 L
169.372 74.888 L
169.859 74.707 L
170.345 74.528 L
170.831 74.349 L
171.318 74.17 L
171.804 73.992 L
172.29 73.815 L
172.777 73.638 L
173.263 73.462 L
173.749 73.286 L
174.235 73.111 L
174.722 72.937 L
175.208 72.763 L
175.694 72.59 L
176.181 72.417 L
176.667 72.245 L
177.153 72.074 L
177.64 71.903 L
178.126 71.732 L
178.612 71.563 L
179.099 71.393 L
179.585 71.225 L
180.071 71.057 L
180.558 70.889 L
181.044 70.722 L
181.53 70.556 L
182.017 70.39 L
182.503 70.225 L
182.989 70.061 L
183.476 69.896 L
183.962 69.733 L
184.448 69.57 L
184.935 69.408 L
185.421 69.246 L
185.907 69.085 L
186.394 68.924 L
186.88 68.764 L
187.366 68.605 L
187.852 68.446 L
188.339 68.288 L
188.825 68.13 L
189.311 67.973 L
189.798 67.816 L
190.284 67.66 L
190.77 67.505 L
191.257 67.35 L
191.743 67.196 L
192.229 67.042 L
192.716 66.889 L
193.202 66.736 L
193.688 66.584 L
194.175 66.432 L
194.661 66.281 L
195.147 66.131 L
195.634 65.981 L
196.12 65.832 L
196.606 65.683 L
197.093 65.535 L
197.579 65.388 L
198.065 65.241 L
198.552 65.094 L
199.038 64.948 L
199.524 64.803 L
200.011 64.658 L
200.497 64.514 L
200.983 64.37 L
201.469 64.227 L
201.956 64.085 L
202.442 63.943 L
202.928 63.801 L
203.415 63.661 L
203.901 63.52 L
204.387 63.381 L
204.874 63.241 L
205.36 63.103 L
205.846 62.965 L
206.333 62.827 L
206.819 62.69 L
207.305 62.554 L
207.792 62.418 L
208.278 62.282 L
208.764 62.148 L
209.251 62.014 L
209.737 61.88 L
210.223 61.747 L
210.71 61.614 L
211.196 61.482 L
211.682 61.351 L
212.169 61.22 L
212.655 61.09 L
213.141 60.96 L
213.628 60.83 L
214.114 60.702 L
214.6 60.574 L
215.086 60.446 L
215.573 60.319 L
216.059 60.192 L
216.545 60.066 L
217.032 59.941 L
217.518 59.816 L
218.004 59.692 L
218.491 59.568 L
218.977 59.445 L
219.463 59.322 L
219.95 59.2 L
220.436 59.078 L
220.922 58.957 L
221.409 58.837 L
221.895 58.717 L
222.381 58.597 L
222.868 58.478 L
223.354 58.36 L
223.84 58.242 L
224.327 58.125 L
224.813 58.008 L
225.299 57.892 L
225.786 57.776 L
226.272 57.661 L
226.758 57.546 L
227.245 57.432 L
227.731 57.319 L
228.217 57.206 L
228.703 57.093 L
229.19 56.981 L
229.676 56.87 L
230.162 56.759 L
230.649 56.649 L
231.135 56.539 L
231.621 56.43 L
232.108 56.321 L
232.594 56.213 L
233.08 56.105 L
233.567 55.998 L
234.053 55.891 L
234.539 55.785 L
235.026 55.679 L
235.512 55.574 L
235.998 55.47 L
236.485 55.366 L
236.971 55.263 L
237.457 55.16 L
237.944 55.057 L
238.43 54.955 L
238.916 54.854 L
239.403 54.753 L
239.889 54.653 L
240.375 54.553 L
240.862 54.454 L
241.348 54.355 L
241.834 54.257 L
242.32 54.159 L
242.807 54.062 L
243.293 53.966 L
243.779 53.87 L
244.266 53.774 L
244.752 53.679 L
245.238 53.584 L
245.725 53.49 L
246.211 53.397 L
246.697 53.304 L
247.184 53.212 L
247.67 53.12 L
248.156 53.028 L
248.643 52.937 L
249.129 52.847 L
249.615 52.757 L
250.102 52.668 L
250.588 52.579 L
251.074 52.491 L
251.561 52.403 L
252.047 52.316 L
252.533 52.229 L
253.02 52.143 L
253.506 52.057 L
253.992 51.972 L
254.479 51.887 L
254.965 51.803 L
255.451 51.719 L
255.937 51.636 L
256.424 51.553 L
256.91 51.471 L
257.396 51.39 L
257.883 51.308 L
258.369 51.228 L
258.855 51.148 L
259.342 51.068 L
259.828 50.989 L
260.314 50.91 L
260.801 50.832 L
261.287 50.755 L
261.773 50.678 L
262.26 50.601 L
262.746 50.525 L
263.232 50.449 L
263.719 50.374 L
264.205 50.3 L
264.691 50.226 L
265.178 50.152 L
265.664 50.079 L
266.15 50.007 L
266.637 49.935 L
267.123 49.863 L
267.609 49.792 L
268.096 49.722 L
268.582 49.652 L
269.068 49.582 L
269.554 49.513 L
270.041 49.445 L
270.527 49.377 L
271.013 49.309 L
271.5 49.242 L
271.986 49.176 L
272.472 49.11 L
272.959 49.044 L
273.445 48.979 L
273.931 48.915 L
274.418 48.851 L
274.904 48.787 L
275.39 48.724 L
275.877 48.662 L
276.363 48.6 L
276.849 48.538 L
277.336 48.477 L
277.822 48.416 L
278.308 48.356 L
278.795 48.297 L
279.281 48.238 L
279.767 48.179 L
280.254 48.121 L
280.74 48.063 L
281.226 48.006 L
281.713 47.95 L
282.199 47.894 L
282.685 47.838 L
283.171 47.783 L
283.658 47.728 L
284.144 47.674 L
284.63 47.62 L
285.117 47.567 L
285.603 47.514 L
286.089 47.462 L
286.576 47.41 L
287.062 47.359 L
287.548 47.308 L
288.035 47.258 L
288.521 47.208 L
289.007 47.159 L
289.494 47.11 L
289.98 47.061 L
290.466 47.014 L
290.953 46.966 L
291.439 46.919 L
291.925 46.873 L
292.412 46.827 L
292.898 46.781 L
293.384 46.736 L
293.871 46.692 L
294.357 46.648 L
294.843 46.604 L
295.33 46.561 L
295.816 46.519 L
296.302 46.476 L
296.788 46.435 L
297.275 46.394 L
297.761 46.353 L
298.247 46.313 L
298.734 46.273 L
299.22 46.234 L
299.706 46.195 L
300.193 46.156 L
300.679 46.119 L
301.165 46.081 L
301.652 46.044 L
302.138 46.008 L
302.624 45.972 L
303.111 45.936 L
303.597 45.902 L
304.083 45.867 L
304.57 45.833 L
305.056 45.799 L
305.542 45.766 L
306.029 45.733 L
306.515 45.701 L
307.001 45.669 L
307.488 45.638 L
307.974 45.607 L
308.46 45.577 L
308.947 45.547 L
309.433 45.518 L
309.919 45.489 L
310.405 45.46 L
310.892 45.432 L
311.378 45.405 L
311.864 45.378 L
312.351 45.351 L
312.837 45.325 L
313.323 45.299 L
313.81 45.274 L
314.296 45.25 L
314.782 45.225 L
315.269 45.201 L
315.755 45.178 L
316.241 45.155 L
316.728 45.133 L
317.214 45.111 L
317.7 45.089 L
318.187 45.068 L
318.673 45.047 L
319.159 45.027 L
319.646 45.007 L
320.132 44.988 L
320.618 44.969 L
321.105 44.951 L
321.591 44.933 L
322.077 44.916 L
322.564 44.899 L
323.05 44.882 L
323.536 44.866 L
324.022 44.851 L
324.509 44.836 L
324.995 44.821 L
325.481 44.807 L
325.968 44.793 L
326.454 44.779 L
326.94 44.767 L
327.427 44.754 L
327.913 44.742 L
328.399 44.731 L
328.886 44.719 L
329.372 44.709 L
329.858 44.699 L
330.345 44.689 L
330.831 44.68 L
331.317 44.671 L
331.804 44.662 L
332.29 44.654 L
332.776 44.647 L
333.263 44.64 L
333.749 44.633 L
334.235 44.627 L
334.722 44.621 L
335.208 44.616 L
335.694 44.611 L
336.181 44.607 L
336.667 44.603 L
337.153 44.599 L
337.639 44.596 L
338.126 44.594 L
338.612 44.591 L
339.098 44.59 L
339.585 44.588 L
340.071 44.588 L
340.557 44.587 L
S
GR
GS
0.929 0.694 0.125 RC
1 LJ
0.5 LW
N
73 374 M
73.486 367.225 L
73.973 360.487 L
74.459 353.796 L
74.945 347.163 L
75.432 340.599 L
75.918 334.113 L
76.404 327.717 L
76.891 321.42 L
77.377 315.235 L
77.863 309.17 L
78.35 303.238 L
78.836 297.448 L
79.322 291.81 L
79.809 286.336 L
80.295 281.036 L
80.781 275.921 L
81.267 271.001 L
81.754 266.286 L
82.24 261.788 L
82.726 257.517 L
83.213 253.483 L
83.699 249.674 L
84.185 245.941 L
84.672 242.254 L
85.158 238.614 L
85.644 235.023 L
86.131 231.482 L
86.617 227.991 L
87.103 224.553 L
87.59 221.166 L
88.076 217.834 L
88.562 214.557 L
89.049 211.336 L
89.535 208.172 L
90.021 205.066 L
90.508 202.019 L
90.994 199.033 L
91.48 196.108 L
91.967 193.245 L
92.453 190.447 L
92.939 187.712 L
93.426 185.044 L
93.912 182.442 L
94.398 179.908 L
94.884 177.442 L
95.371 175.047 L
95.857 172.723 L
96.343 170.471 L
96.83 168.292 L
97.316 166.187 L
97.802 164.158 L
98.289 162.205 L
98.775 160.329 L
99.261 158.532 L
99.748 156.815 L
100.234 155.178 L
100.72 153.623 L
101.207 152.151 L
101.693 150.762 L
102.179 149.408 L
102.666 148.067 L
103.152 146.737 L
103.638 145.42 L
104.125 144.115 L
104.611 142.822 L
105.097 141.542 L
105.584 140.275 L
106.07 139.02 L
106.556 137.777 L
107.043 136.548 L
107.529 135.331 L
108.015 134.127 L
108.501 132.936 L
108.988 131.759 L
109.474 130.594 L
109.96 129.443 L
110.447 128.305 L
110.933 127.18 L
111.419 126.069 L
111.906 124.972 L
112.392 123.888 L
112.878 122.818 L
113.365 121.761 L
113.851 120.719 L
114.337 119.69 L
114.824 118.676 L
115.31 117.675 L
115.796 116.689 L
116.283 115.717 L
116.769 114.759 L
117.255 113.816 L
117.742 112.887 L
118.228 111.973 L
118.714 111.074 L
119.201 110.189 L
119.687 109.319 L
120.173 108.464 L
120.66 107.624 L
121.146 106.799 L
121.632 105.99 L
122.118 105.195 L
122.605 104.416 L
123.091 103.652 L
123.577 102.904 L
124.064 102.171 L
124.55 101.453 L
125.036 100.752 L
125.523 100.066 L
126.009 99.396 L
126.495 98.742 L
126.982 98.104 L
127.468 97.482 L
127.954 96.876 L
128.441 96.287 L
128.927 95.714 L
129.413 95.157 L
129.9 94.617 L
130.386 94.093 L
130.872 93.586 L
131.359 93.095 L
131.845 92.622 L
132.331 92.165 L
132.818 91.726 L
133.304 91.303 L
133.79 90.897 L
134.277 90.509 L
134.763 90.138 L
135.249 89.784 L
135.735 89.448 L
136.222 89.129 L
136.708 88.828 L
137.194 88.544 L
137.681 88.279 L
138.167 88.029 L
138.653 87.782 L
139.14 87.536 L
139.626 87.291 L
140.112 87.047 L
140.599 86.803 L
141.085 86.561 L
141.571 86.319 L
142.058 86.078 L
142.544 85.837 L
143.03 85.598 L
143.517 85.36 L
144.003 85.122 L
144.489 84.885 L
144.976 84.648 L
145.462 84.413 L
145.948 84.178 L
146.435 83.945 L
146.921 83.712 L
147.407 83.479 L
147.894 83.248 L
148.38 83.017 L
148.866 82.787 L
149.352 82.558 L
149.839 82.33 L
150.325 82.103 L
150.811 81.876 L
151.298 81.65 L
151.784 81.425 L
152.27 81.201 L
152.757 80.977 L
153.243 80.755 L
153.729 80.533 L
154.216 80.312 L
154.702 80.092 L
155.188 79.872 L
155.675 79.653 L
156.161 79.436 L
156.647 79.218 L
157.134 79.002 L
157.62 78.787 L
158.106 78.572 L
158.593 78.358 L
159.079 78.145 L
159.565 77.932 L
160.052 77.721 L
160.538 77.51 L
161.024 77.3 L
161.511 77.09 L
161.997 76.882 L
162.483 76.674 L
162.969 76.467 L
163.456 76.261 L
163.942 76.056 L
164.428 75.851 L
164.915 75.648 L
165.401 75.445 L
165.887 75.242 L
166.374 75.041 L
166.86 74.84 L
167.346 74.64 L
167.833 74.441 L
168.319 74.243 L
168.805 74.045 L
169.292 73.849 L
169.778 73.653 L
170.264 73.457 L
170.751 73.263 L
171.237 73.069 L
171.723 72.876 L
172.21 72.684 L
172.696 72.493 L
173.182 72.302 L
173.669 72.112 L
174.155 71.923 L
174.641 71.735 L
175.128 71.548 L
175.614 71.361 L
176.1 71.175 L
176.586 70.99 L
177.073 70.805 L
177.559 70.621 L
178.045 70.439 L
178.532 70.256 L
179.018 70.075 L
179.504 69.894 L
179.991 69.715 L
180.477 69.535 L
180.963 69.357 L
181.45 69.18 L
181.936 69.003 L
182.422 68.827 L
182.909 68.651 L
183.395 68.477 L
183.881 68.303 L
184.368 68.13 L
184.854 67.958 L
185.34 67.786 L
185.827 67.616 L
186.313 67.446 L
186.799 67.276 L
187.286 67.108 L
187.772 66.94 L
188.258 66.773 L
188.745 66.607 L
189.231 66.442 L
189.717 66.277 L
190.203 66.113 L
190.69 65.95 L
191.176 65.787 L
191.662 65.626 L
192.149 65.465 L
192.635 65.305 L
193.121 65.145 L
193.608 64.986 L
194.094 64.828 L
194.58 64.671 L
195.067 64.515 L
195.553 64.359 L
196.039 64.204 L
196.526 64.05 L
197.012 63.896 L
197.498 63.744 L
197.985 63.592 L
198.471 63.44 L
198.957 63.29 L
199.444 63.14 L
199.93 62.991 L
200.416 62.843 L
200.903 62.695 L
201.389 62.548 L
201.875 62.402 L
202.362 62.257 L
202.848 62.113 L
203.334 61.969 L
203.82 61.826 L
204.307 61.683 L
204.793 61.541 L
205.279 61.401 L
205.766 61.26 L
206.252 61.121 L
206.738 60.982 L
207.225 60.844 L
207.711 60.707 L
208.197 60.571 L
208.684 60.435 L
209.17 60.3 L
209.656 60.165 L
210.143 60.032 L
210.629 59.899 L
211.115 59.767 L
211.602 59.636 L
212.088 59.505 L
212.574 59.375 L
213.061 59.246 L
213.547 59.117 L
214.033 58.989 L
214.52 58.862 L
215.006 58.736 L
215.492 58.61 L
215.979 58.486 L
216.465 58.361 L
216.951 58.238 L
217.438 58.115 L
217.924 57.993 L
218.41 57.872 L
218.896 57.751 L
219.383 57.632 L
219.869 57.512 L
220.355 57.394 L
220.842 57.276 L
221.328 57.16 L
221.814 57.043 L
222.301 56.928 L
222.787 56.813 L
223.273 56.699 L
223.76 56.585 L
224.246 56.473 L
224.732 56.361 L
225.219 56.249 L
225.705 56.139 L
226.191 56.029 L
226.678 55.92 L
227.164 55.812 L
227.65 55.704 L
228.137 55.597 L
228.623 55.491 L
229.109 55.385 L
229.596 55.28 L
230.082 55.176 L
230.568 55.073 L
231.055 54.97 L
231.541 54.868 L
232.027 54.767 L
232.513 54.666 L
233 54.566 L
233.486 54.467 L
233.972 54.368 L
234.459 54.271 L
234.945 54.174 L
235.431 54.077 L
235.918 53.981 L
236.404 53.886 L
236.89 53.792 L
237.377 53.698 L
237.863 53.606 L
238.349 53.513 L
238.836 53.422 L
239.322 53.331 L
239.808 53.241 L
240.295 53.151 L
240.781 53.063 L
241.267 52.975 L
241.754 52.887 L
242.24 52.801 L
242.726 52.715 L
243.213 52.63 L
243.699 52.545 L
244.185 52.461 L
244.672 52.378 L
245.158 52.295 L
245.644 52.214 L
246.13 52.132 L
246.617 52.052 L
247.103 51.972 L
247.589 51.893 L
248.076 51.815 L
248.562 51.737 L
249.048 51.66 L
249.535 51.584 L
250.021 51.508 L
250.507 51.433 L
250.994 51.359 L
251.48 51.285 L
251.966 51.213 L
252.453 51.14 L
252.939 51.069 L
253.425 50.998 L
253.912 50.928 L
254.398 50.858 L
254.884 50.79 L
255.371 50.721 L
255.857 50.654 L
256.343 50.587 L
256.83 50.521 L
257.316 50.456 L
257.802 50.391 L
258.289 50.327 L
258.775 50.263 L
259.261 50.201 L
259.747 50.139 L
260.234 50.077 L
260.72 50.017 L
261.206 49.957 L
261.693 49.897 L
262.179 49.838 L
262.665 49.78 L
263.152 49.723 L
263.638 49.666 L
264.124 49.61 L
264.611 49.555 L
265.097 49.5 L
265.583 49.446 L
266.07 49.393 L
266.556 49.34 L
267.042 49.288 L
267.529 49.237 L
268.015 49.186 L
268.501 49.136 L
268.988 49.087 L
269.474 49.038 L
269.96 48.99 L
270.447 48.943 L
270.933 48.896 L
271.419 48.85 L
271.905 48.805 L
272.392 48.76 L
272.878 48.716 L
273.364 48.672 L
273.851 48.63 L
274.337 48.588 L
274.823 48.546 L
275.31 48.505 L
275.796 48.465 L
276.282 48.426 L
276.769 48.387 L
277.255 48.349 L
277.741 48.311 L
278.228 48.275 L
278.714 48.238 L
279.2 48.203 L
279.687 48.168 L
280.173 48.134 L
280.659 48.1 L
281.146 48.067 L
281.632 48.035 L
282.118 48.003 L
282.605 47.972 L
283.091 47.942 L
283.577 47.912 L
284.064 47.883 L
284.55 47.855 L
285.036 47.827 L
285.522 47.8 L
286.009 47.773 L
286.495 47.747 L
286.981 47.722 L
287.468 47.698 L
287.954 47.674 L
288.44 47.65 L
288.927 47.628 L
289.413 47.606 L
289.899 47.584 L
290.386 47.564 L
290.872 47.544 L
291.358 47.524 L
291.845 47.505 L
292.331 47.487 L
292.817 47.47 L
293.304 47.453 L
293.79 47.437 L
294.276 47.421 L
294.763 47.406 L
295.249 47.392 L
295.735 47.378 L
296.222 47.365 L
296.708 47.352 L
297.194 47.34 L
297.681 47.329 L
298.167 47.319 L
298.653 47.309 L
299.139 47.3 L
299.626 47.291 L
300.112 47.283 L
300.598 47.275 L
301.085 47.269 L
301.571 47.262 L
302.057 47.257 L
302.544 47.252 L
303.03 47.248 L
303.516 47.244 L
304.003 47.241 L
304.489 47.239 L
304.975 47.237 L
305.462 47.236 L
305.948 47.235 L
S
GR
GS
0.494 0.184 0.557 RC
1 LJ
0.5 LW
N
74.174 355.268 M
74.66 349.07 L
75.146 342.901 L
75.633 336.77 L
76.119 330.685 L
76.605 324.656 L
77.092 318.692 L
77.578 312.801 L
78.064 306.992 L
78.551 301.275 L
79.037 295.657 L
79.523 290.147 L
80.01 284.756 L
80.496 279.49 L
80.982 274.36 L
81.469 269.374 L
81.955 264.541 L
82.441 259.87 L
82.928 255.37 L
83.414 251.048 L
83.9 246.916 L
84.387 242.98 L
84.873 239.251 L
85.359 235.736 L
85.846 232.376 L
86.332 229.056 L
86.818 225.774 L
87.305 222.533 L
87.791 219.332 L
88.277 216.173 L
88.763 213.056 L
89.25 209.982 L
89.736 206.953 L
90.222 203.969 L
90.709 201.031 L
91.195 198.141 L
91.681 195.297 L
92.168 192.503 L
92.654 189.759 L
93.14 187.065 L
93.627 184.423 L
94.113 181.833 L
94.599 179.296 L
95.086 176.814 L
95.572 174.387 L
96.058 172.016 L
96.545 169.701 L
97.031 167.445 L
97.517 165.248 L
98.004 163.11 L
98.49 161.032 L
98.976 159.017 L
99.463 157.063 L
99.949 155.173 L
100.435 153.347 L
100.922 151.586 L
101.408 149.891 L
101.894 148.263 L
102.38 146.703 L
102.867 145.212 L
103.353 143.79 L
103.839 142.439 L
104.326 141.159 L
104.812 139.952 L
105.298 138.81 L
105.785 137.686 L
106.271 136.571 L
106.757 135.464 L
107.244 134.367 L
107.73 133.279 L
108.216 132.2 L
108.703 131.13 L
109.189 130.07 L
109.675 129.019 L
110.162 127.977 L
110.648 126.945 L
111.134 125.923 L
111.621 124.91 L
112.107 123.906 L
112.593 122.913 L
113.08 121.929 L
113.566 120.955 L
114.052 119.991 L
114.539 119.037 L
115.025 118.093 L
115.511 117.159 L
115.997 116.235 L
116.484 115.322 L
116.97 114.418 L
117.456 113.525 L
117.943 112.643 L
118.429 111.77 L
118.915 110.909 L
119.402 110.057 L
119.888 109.217 L
120.374 108.387 L
120.861 107.568 L
121.347 106.759 L
121.833 105.962 L
122.32 105.175 L
122.806 104.399 L
123.292 103.635 L
123.779 102.881 L
124.265 102.138 L
124.751 101.407 L
125.238 100.687 L
125.724 99.978 L
126.21 99.281 L
126.697 98.595 L
127.183 97.921 L
127.669 97.258 L
128.156 96.607 L
128.642 95.967 L
129.128 95.339 L
129.614 94.723 L
130.101 94.119 L
130.587 93.526 L
131.073 92.946 L
131.56 92.378 L
132.046 91.821 L
132.532 91.277 L
133.019 90.745 L
133.505 90.225 L
133.991 89.718 L
134.478 89.223 L
134.964 88.74 L
135.45 88.27 L
135.937 87.813 L
136.423 87.368 L
136.909 86.935 L
137.396 86.516 L
137.882 86.109 L
138.368 85.715 L
138.855 85.334 L
139.341 84.966 L
139.827 84.611 L
140.314 84.269 L
140.8 83.94 L
141.286 83.625 L
141.773 83.322 L
142.259 83.033 L
142.745 82.758 L
143.231 82.495 L
143.718 82.246 L
144.204 82.011 L
144.69 81.79 L
145.177 81.582 L
145.663 81.387 L
146.149 81.207 L
146.636 81.04 L
147.122 80.884 L
147.608 80.73 L
148.095 80.575 L
148.581 80.421 L
149.067 80.266 L
149.554 80.113 L
150.04 79.959 L
150.526 79.806 L
151.013 79.653 L
151.499 79.501 L
151.985 79.348 L
152.472 79.196 L
152.958 79.044 L
153.444 78.893 L
153.931 78.742 L
154.417 78.591 L
154.903 78.441 L
155.39 78.29 L
155.876 78.141 L
156.362 77.991 L
156.848 77.842 L
157.335 77.692 L
157.821 77.544 L
158.307 77.395 L
158.794 77.247 L
159.28 77.099 L
159.766 76.952 L
160.253 76.804 L
160.739 76.657 L
161.225 76.51 L
161.712 76.364 L
162.198 76.218 L
162.684 76.072 L
163.171 75.926 L
163.657 75.781 L
164.143 75.636 L
164.63 75.491 L
165.116 75.347 L
165.602 75.203 L
166.089 75.059 L
166.575 74.916 L
167.061 74.772 L
167.548 74.629 L
168.034 74.487 L
168.52 74.344 L
169.007 74.202 L
169.493 74.06 L
169.979 73.919 L
170.465 73.778 L
170.952 73.637 L
171.438 73.496 L
171.924 73.355 L
172.411 73.215 L
172.897 73.076 L
173.383 72.936 L
173.87 72.797 L
174.356 72.658 L
174.842 72.519 L
175.329 72.381 L
175.815 72.243 L
176.301 72.105 L
176.788 71.967 L
177.274 71.83 L
177.76 71.693 L
178.247 71.556 L
178.733 71.42 L
179.219 71.284 L
179.706 71.148 L
180.192 71.012 L
180.678 70.877 L
181.165 70.742 L
181.651 70.607 L
182.137 70.473 L
182.624 70.339 L
183.11 70.205 L
183.596 70.071 L
184.083 69.938 L
184.569 69.805 L
185.055 69.672 L
185.541 69.54 L
186.028 69.407 L
186.514 69.275 L
187 69.144 L
187.487 69.012 L
187.973 68.881 L
188.459 68.75 L
188.946 68.62 L
189.432 68.49 L
189.918 68.36 L
190.405 68.23 L
190.891 68.101 L
191.377 67.971 L
191.864 67.842 L
192.35 67.714 L
192.836 67.586 L
193.323 67.458 L
193.809 67.33 L
194.295 67.202 L
194.782 67.075 L
195.268 66.948 L
195.754 66.821 L
196.241 66.695 L
196.727 66.569 L
197.213 66.443 L
197.7 66.317 L
198.186 66.192 L
198.672 66.067 L
199.158 65.942 L
199.645 65.818 L
200.131 65.693 L
200.617 65.569 L
201.104 65.446 L
201.59 65.322 L
202.076 65.199 L
202.563 65.076 L
203.049 64.954 L
203.535 64.831 L
204.022 64.709 L
204.508 64.587 L
204.994 64.466 L
205.481 64.345 L
205.967 64.224 L
206.453 64.103 L
206.94 63.983 L
207.426 63.862 L
207.912 63.742 L
208.399 63.623 L
208.885 63.503 L
209.371 63.384 L
209.858 63.265 L
210.344 63.147 L
210.83 63.029 L
211.317 62.911 L
211.803 62.793 L
212.289 62.675 L
212.775 62.558 L
213.262 62.441 L
213.748 62.324 L
214.234 62.208 L
214.721 62.092 L
215.207 61.976 L
215.693 61.86 L
216.18 61.745 L
216.666 61.63 L
217.152 61.515 L
217.639 61.4 L
218.125 61.286 L
218.611 61.172 L
219.098 61.058 L
219.584 60.944 L
220.07 60.831 L
220.557 60.718 L
221.043 60.605 L
221.529 60.493 L
222.016 60.38 L
222.502 60.268 L
222.988 60.157 L
223.475 60.045 L
223.961 59.934 L
224.447 59.823 L
224.934 59.712 L
225.42 59.602 L
225.906 59.492 L
226.392 59.382 L
226.879 59.272 L
227.365 59.163 L
227.851 59.054 L
228.338 58.945 L
228.824 58.836 L
229.31 58.728 L
229.797 58.62 L
230.283 58.512 L
230.769 58.404 L
231.256 58.297 L
231.742 58.19 L
232.228 58.083 L
232.715 57.976 L
233.201 57.87 L
233.687 57.764 L
234.174 57.658 L
234.66 57.553 L
235.146 57.448 L
235.633 57.342 L
236.119 57.238 L
236.605 57.133 L
237.092 57.029 L
237.578 56.925 L
238.064 56.821 L
238.551 56.718 L
239.037 56.614 L
239.523 56.511 L
240.009 56.409 L
240.496 56.306 L
240.982 56.204 L
241.468 56.102 L
241.955 56 L
242.441 55.899 L
242.927 55.797 L
243.414 55.696 L
243.9 55.596 L
244.386 55.495 L
244.873 55.395 L
245.359 55.295 L
245.845 55.195 L
246.332 55.096 L
246.818 54.996 L
247.304 54.897 L
247.791 54.799 L
248.277 54.7 L
248.763 54.602 L
249.25 54.504 L
249.736 54.406 L
250.222 54.309 L
250.709 54.211 L
251.195 54.114 L
251.681 54.018 L
252.168 53.921 L
252.654 53.825 L
253.14 53.729 L
253.626 53.633 L
254.113 53.537 L
254.599 53.442 L
255.085 53.347 L
255.572 53.252 L
256.058 53.158 L
256.544 53.063 L
257.031 52.969 L
257.517 52.875 L
258.003 52.782 L
258.49 52.689 L
258.976 52.595 L
259.462 52.503 L
259.949 52.41 L
260.435 52.318 L
260.921 52.225 L
261.408 52.134 L
261.894 52.042 L
262.38 51.951 L
262.867 51.859 L
263.353 51.768 L
263.839 51.678 L
264.326 51.587 L
264.812 51.497 L
265.298 51.407 L
265.785 51.317 L
266.271 51.228 L
266.757 51.139 L
267.243 51.05 L
267.73 50.961 L
268.216 50.872 L
268.702 50.784 L
269.189 50.696 L
269.675 50.608 L
270.161 50.521 L
270.648 50.433 L
271.134 50.346 L
271.62 50.259 L
272.107 50.173 L
272.593 50.086 L
273.079 50 L
273.566 49.914 L
274.052 49.829 L
274.538 49.743 L
275.025 49.658 L
275.511 49.573 L
275.997 49.488 L
276.484 49.404 L
276.97 49.319 L
277.456 49.235 L
277.943 49.152 L
278.429 49.068 L
278.915 48.985 L
279.402 48.902 L
279.888 48.819 L
280.374 48.736 L
280.861 48.654 L
281.347 48.572 L
281.833 48.49 L
282.319 48.408 L
282.806 48.326 L
283.292 48.245 L
283.778 48.164 L
284.265 48.083 L
284.751 48.003 L
285.237 47.922 L
285.724 47.842 L
286.21 47.762 L
286.696 47.683 L
287.183 47.603 L
287.669 47.524 L
288.155 47.445 L
288.642 47.367 L
289.128 47.288 L
289.614 47.21 L
290.101 47.132 L
290.587 47.054 L
291.073 46.976 L
291.56 46.899 L
292.046 46.822 L
292.532 46.745 L
293.019 46.668 L
293.505 46.592 L
293.991 46.516 L
294.477 46.44 L
294.964 46.364 L
295.45 46.288 L
295.936 46.213 L
296.423 46.138 L
296.909 46.063 L
297.395 45.988 L
297.882 45.914 L
298.368 45.84 L
298.854 45.766 L
299.341 45.692 L
299.827 45.618 L
300.313 45.545 L
300.8 45.472 L
301.286 45.399 L
301.772 45.327 L
302.259 45.254 L
302.745 45.182 L
303.231 45.11 L
303.718 45.038 L
304.204 44.967 L
304.69 44.895 L
305.177 44.824 L
305.663 44.753 L
306.149 44.683 L
306.636 44.612 L
307.122 44.542 L
307.608 44.472 L
308.094 44.402 L
308.581 44.333 L
309.067 44.263 L
309.553 44.194 L
310.04 44.125 L
310.526 44.057 L
311.012 43.988 L
311.499 43.92 L
311.985 43.852 L
312.471 43.784 L
312.958 43.717 L
313.444 43.649 L
313.93 43.582 L
314.417 43.515 L
314.903 43.448 L
315.389 43.382 L
315.876 43.316 L
316.362 43.249 L
316.848 43.184 L
317.335 43.118 L
317.821 43.052 L
318.307 42.987 L
318.794 42.922 L
319.28 42.857 L
319.766 42.793 L
320.253 42.728 L
320.739 42.664 L
321.225 42.6 L
321.711 42.537 L
322.198 42.473 L
322.684 42.41 L
323.17 42.347 L
323.657 42.284 L
324.143 42.221 L
324.629 42.159 L
325.116 42.096 L
325.602 42.034 L
326.088 41.973 L
326.575 41.911 L
327.061 41.849 L
327.547 41.788 L
328.034 41.727 L
328.52 41.666 L
329.006 41.606 L
329.493 41.546 L
329.979 41.485 L
330.465 41.425 L
330.952 41.366 L
331.438 41.306 L
331.924 41.247 L
332.411 41.188 L
332.897 41.129 L
333.383 41.07 L
333.87 41.011 L
334.356 40.953 L
334.842 40.895 L
335.328 40.837 L
335.815 40.78 L
336.301 40.722 L
336.787 40.665 L
337.274 40.608 L
337.76 40.551 L
338.246 40.494 L
338.733 40.438 L
339.219 40.381 L
339.705 40.325 L
340.192 40.27 L
340.678 40.214 L
341.164 40.158 L
341.651 40.103 L
342.137 40.048 L
342.623 39.993 L
343.11 39.939 L
343.596 39.884 L
344.082 39.83 L
344.569 39.776 L
345.055 39.722 L
345.541 39.669 L
346.028 39.615 L
346.514 39.562 L
347 39.509 L
347.487 39.456 L
347.973 39.403 L
348.459 39.351 L
348.945 39.299 L
349.432 39.247 L
349.918 39.195 L
350.404 39.143 L
350.891 39.092 L
351.377 39.041 L
351.863 38.99 L
352.35 38.939 L
352.836 38.888 L
353.322 38.838 L
353.809 38.788 L
354.295 38.737 L
354.781 38.688 L
355.268 38.638 L
355.754 38.588 L
356.24 38.539 L
356.727 38.49 L
357.213 38.441 L
357.699 38.393 L
358.186 38.344 L
358.672 38.296 L
359.158 38.248 L
359.645 38.2 L
360.131 38.152 L
360.617 38.105 L
361.104 38.057 L
361.59 38.01 L
362.076 37.963 L
362.563 37.916 L
363.049 37.87 L
363.535 37.824 L
364.021 37.777 L
364.508 37.731 L
364.994 37.686 L
365.48 37.64 L
365.967 37.595 L
366.453 37.549 L
366.939 37.504 L
367.426 37.459 L
367.912 37.415 L
368.398 37.37 L
368.885 37.326 L
369.371 37.282 L
369.857 37.238 L
370.344 37.194 L
370.83 37.151 L
371.316 37.108 L
371.803 37.064 L
372.289 37.022 L
372.775 36.979 L
373.262 36.936 L
373.748 36.894 L
374.234 36.852 L
374.721 36.81 L
375.207 36.768 L
375.693 36.726 L
376.18 36.685 L
376.666 36.643 L
377.152 36.602 L
377.638 36.561 L
378.125 36.521 L
378.611 36.48 L
379.097 36.44 L
379.584 36.4 L
380.07 36.36 L
380.556 36.32 L
381.043 36.28 L
381.529 36.241 L
382.015 36.202 L
382.502 36.163 L
382.988 36.124 L
383.474 36.085 L
383.961 36.047 L
384.447 36.008 L
384.933 35.97 L
385.42 35.932 L
385.906 35.894 L
386.392 35.857 L
386.879 35.819 L
387.365 35.782 L
387.851 35.745 L
388.338 35.708 L
388.824 35.671 L
389.31 35.635 L
389.797 35.598 L
390.283 35.562 L
390.769 35.526 L
391.255 35.49 L
391.742 35.455 L
392.228 35.419 L
392.714 35.384 L
393.201 35.349 L
393.687 35.314 L
394.173 35.279 L
394.66 35.245 L
395.146 35.21 L
395.632 35.176 L
396.119 35.142 L
396.605 35.108 L
397.091 35.074 L
397.578 35.041 L
398.064 35.008 L
398.55 34.974 L
399.037 34.941 L
399.523 34.909 L
400.009 34.876 L
400.496 34.844 L
400.982 34.811 L
401.468 34.779 L
401.955 34.747 L
402.441 34.715 L
402.927 34.684 L
403.414 34.652 L
403.9 34.621 L
404.386 34.59 L
404.872 34.559 L
405.359 34.528 L
405.845 34.498 L
406.331 34.467 L
406.818 34.437 L
407.304 34.407 L
407.79 34.377 L
408.277 34.348 L
408.763 34.318 L
409.249 34.289 L
409.736 34.259 L
410.222 34.23 L
410.708 34.201 L
411.195 34.173 L
411.681 34.144 L
412.167 34.116 L
412.654 34.088 L
413.14 34.06 L
413.626 34.032 L
414.113 34.004 L
414.599 33.977 L
415.085 33.949 L
415.572 33.922 L
416.058 33.895 L
416.544 33.868 L
417.031 33.841 L
417.517 33.815 L
418.003 33.788 L
418.489 33.762 L
418.976 33.736 L
419.462 33.71 L
419.948 33.685 L
420.435 33.659 L
420.921 33.634 L
421.407 33.609 L
421.894 33.583 L
422.38 33.559 L
422.866 33.534 L
423.353 33.509 L
423.839 33.485 L
424.325 33.461 L
424.812 33.437 L
425.298 33.413 L
425.784 33.389 L
426.271 33.365 L
426.757 33.342 L
427.243 33.319 L
427.73 33.295 L
428.216 33.272 L
428.702 33.25 L
429.189 33.227 L
429.675 33.205 L
430.161 33.182 L
430.648 33.16 L
431.134 33.138 L
431.62 33.116 L
432.106 33.095 L
432.593 33.073 L
433.079 33.052 L
433.565 33.031 L
434.052 33.01 L
434.538 32.989 L
435.024 32.968 L
435.511 32.947 L
435.997 32.927 L
436.483 32.907 L
436.97 32.886 L
437.456 32.867 L
437.942 32.847 L
438.429 32.827 L
438.915 32.808 L
439.401 32.788 L
439.888 32.769 L
440.374 32.75 L
440.86 32.731 L
441.347 32.713 L
441.833 32.694 L
442.319 32.676 L
442.806 32.657 L
443.292 32.639 L
443.778 32.621 L
444.265 32.604 L
444.751 32.586 L
445.237 32.568 L
445.723 32.551 L
446.21 32.534 L
446.696 32.517 L
447.182 32.5 L
447.669 32.483 L
448.155 32.467 L
448.641 32.45 L
449.128 32.434 L
449.614 32.418 L
450.1 32.402 L
450.587 32.386 L
451.073 32.37 L
451.559 32.355 L
452.046 32.339 L
452.532 32.324 L
453.018 32.309 L
453.505 32.294 L
453.991 32.279 L
454.477 32.265 L
454.964 32.25 L
455.45 32.236 L
455.936 32.222 L
456.423 32.208 L
456.909 32.194 L
457.395 32.18 L
457.882 32.166 L
458.368 32.153 L
458.854 32.139 L
459.34 32.126 L
459.827 32.113 L
460.313 32.1 L
460.799 32.088 L
461.286 32.075 L
461.772 32.063 L
462.258 32.05 L
462.745 32.038 L
463.231 32.026 L
463.717 32.014 L
464.204 32.002 L
464.69 31.991 L
465.176 31.979 L
465.663 31.968 L
466.149 31.957 L
466.635 31.946 L
467.122 31.935 L
467.608 31.924 L
468.094 31.914 L
468.581 31.903 L
469.067 31.893 L
469.553 31.883 L
470.04 31.872 L
470.526 31.863 L
471.012 31.853 L
471.499 31.843 L
471.985 31.834 L
472.471 31.824 L
472.957 31.815 L
473.444 31.806 L
473.93 31.797 L
474.416 31.788 L
474.903 31.78 L
475.389 31.771 L
475.875 31.763 L
476.362 31.754 L
476.848 31.746 L
477.334 31.738 L
477.821 31.731 L
478.307 31.723 L
478.793 31.715 L
479.28 31.708 L
479.766 31.701 L
480.252 31.693 L
480.739 31.686 L
481.225 31.679 L
481.711 31.673 L
482.198 31.666 L
482.684 31.66 L
483.17 31.653 L
483.657 31.647 L
484.143 31.641 L
484.629 31.635 L
485.116 31.629 L
485.602 31.623 L
486.088 31.618 L
486.574 31.612 L
487.061 31.607 L
487.547 31.602 L
488.033 31.597 L
488.52 31.592 L
489.006 31.587 L
489.492 31.583 L
489.979 31.578 L
490.465 31.574 L
490.951 31.569 L
491.438 31.565 L
491.924 31.561 L
492.41 31.557 L
492.897 31.554 L
493.383 31.55 L
493.869 31.547 L
494.356 31.543 L
494.842 31.54 L
495.328 31.537 L
495.815 31.534 L
496.301 31.531 L
496.787 31.528 L
497.274 31.526 L
497.76 31.523 L
498.246 31.521 L
498.733 31.519 L
499.219 31.517 L
499.705 31.515 L
500.191 31.513 L
500.678 31.511 L
501.164 31.509 L
501.65 31.508 L
502.137 31.507 L
502.623 31.505 L
503.109 31.504 L
503.596 31.503 L
504.082 31.503 L
504.568 31.502 L
505.055 31.501 L
505.541 31.501 L
506.027 31.5 L
506.514 31.5 L
507 31.5 L
S
GR
GS
0.467 0.675 0.188 RC
[10 6] 0 setdash
2 LJ
0.5 LW
N
73.624 365.599 M
74.11 359.117 L
74.596 352.668 L
75.083 346.263 L
75.569 339.911 L
76.055 333.621 L
76.542 327.404 L
77.028 321.27 L
77.514 315.227 L
78.001 309.287 L
78.487 303.458 L
78.973 297.75 L
79.46 292.174 L
79.946 286.738 L
80.432 281.454 L
80.919 276.329 L
81.405 271.376 L
81.891 266.602 L
82.377 262.018 L
82.864 257.633 L
83.35 253.458 L
83.836 249.502 L
84.323 245.775 L
84.809 242.208 L
85.295 238.686 L
85.782 235.206 L
86.268 231.772 L
86.754 228.383 L
87.241 225.04 L
87.727 221.746 L
88.213 218.499 L
88.7 215.303 L
89.186 212.156 L
89.672 209.062 L
90.159 206.019 L
90.645 203.03 L
91.131 200.095 L
91.618 197.215 L
92.104 194.392 L
92.59 191.625 L
93.077 188.917 L
93.563 186.268 L
94.049 183.679 L
94.536 181.151 L
95.022 178.684 L
95.508 176.281 L
95.994 173.942 L
96.481 171.667 L
96.967 169.458 L
97.453 167.316 L
97.94 165.242 L
98.426 163.237 L
98.912 161.301 L
99.399 159.435 L
99.885 157.641 L
100.371 155.92 L
100.858 154.272 L
101.344 152.699 L
101.83 151.2 L
102.317 149.779 L
102.803 148.434 L
103.289 147.158 L
103.776 145.899 L
104.262 144.652 L
104.748 143.416 L
105.235 142.192 L
105.721 140.979 L
106.207 139.777 L
106.694 138.587 L
107.18 137.409 L
107.666 136.242 L
108.153 135.087 L
108.639 133.944 L
109.125 132.812 L
109.611 131.693 L
110.098 130.585 L
110.584 129.49 L
111.07 128.406 L
111.557 127.335 L
112.043 126.275 L
112.529 125.228 L
113.016 124.193 L
113.502 123.17 L
113.988 122.16 L
114.475 121.162 L
114.961 120.177 L
115.447 119.204 L
115.934 118.243 L
116.42 117.296 L
116.906 116.36 L
117.393 115.438 L
117.879 114.528 L
118.365 113.631 L
118.852 112.747 L
119.338 111.876 L
119.824 111.018 L
120.311 110.173 L
120.797 109.34 L
121.283 108.521 L
121.77 107.716 L
122.256 106.923 L
122.742 106.144 L
123.228 105.378 L
123.715 104.625 L
124.201 103.886 L
124.687 103.16 L
125.174 102.448 L
125.66 101.749 L
126.146 101.064 L
126.633 100.393 L
127.119 99.736 L
127.605 99.092 L
128.092 98.462 L
128.578 97.846 L
129.064 97.244 L
129.551 96.656 L
130.037 96.082 L
130.523 95.522 L
131.01 94.976 L
131.496 94.445 L
131.982 93.928 L
132.469 93.425 L
132.955 92.936 L
133.441 92.462 L
133.928 92.002 L
134.414 91.557 L
134.9 91.126 L
135.387 90.71 L
135.873 90.309 L
136.359 89.922 L
136.845 89.55 L
137.332 89.193 L
137.818 88.851 L
138.304 88.524 L
138.791 88.212 L
139.277 87.915 L
139.763 87.633 L
140.25 87.366 L
140.736 87.114 L
141.222 86.876 L
141.709 86.64 L
142.195 86.404 L
142.681 86.17 L
143.168 85.936 L
143.654 85.704 L
144.14 85.471 L
144.627 85.24 L
145.113 85.009 L
145.599 84.779 L
146.086 84.55 L
146.572 84.322 L
147.058 84.094 L
147.545 83.867 L
148.031 83.641 L
148.517 83.415 L
149.004 83.191 L
149.49 82.967 L
149.976 82.743 L
150.462 82.521 L
150.949 82.299 L
151.435 82.078 L
151.921 81.858 L
152.408 81.638 L
152.894 81.419 L
153.38 81.201 L
153.867 80.984 L
154.353 80.767 L
154.839 80.552 L
155.326 80.337 L
155.812 80.122 L
156.298 79.908 L
156.785 79.695 L
157.271 79.483 L
157.757 79.272 L
158.244 79.061 L
158.73 78.851 L
159.216 78.642 L
159.703 78.434 L
160.189 78.226 L
160.675 78.019 L
161.162 77.812 L
161.648 77.607 L
162.134 77.402 L
162.621 77.198 L
163.107 76.995 L
163.593 76.792 L
164.079 76.59 L
164.566 76.389 L
165.052 76.188 L
165.538 75.989 L
166.025 75.79 L
166.511 75.591 L
166.997 75.394 L
167.484 75.197 L
167.97 75.001 L
168.456 74.806 L
168.943 74.611 L
169.429 74.417 L
169.915 74.224 L
170.402 74.031 L
170.888 73.84 L
171.374 73.649 L
171.861 73.458 L
172.347 73.269 L
172.833 73.08 L
173.32 72.892 L
173.806 72.704 L
174.292 72.518 L
174.779 72.332 L
175.265 72.147 L
175.751 71.962 L
176.238 71.778 L
176.724 71.595 L
177.21 71.413 L
177.696 71.231 L
178.183 71.05 L
178.669 70.87 L
179.155 70.691 L
179.642 70.512 L
180.128 70.334 L
180.614 70.156 L
181.101 69.98 L
181.587 69.804 L
182.073 69.629 L
182.56 69.454 L
183.046 69.281 L
183.532 69.108 L
184.019 68.935 L
184.505 68.764 L
184.991 68.593 L
185.478 68.423 L
185.964 68.253 L
186.45 68.084 L
186.937 67.916 L
187.423 67.749 L
187.909 67.582 L
188.396 67.416 L
188.882 67.251 L
189.368 67.087 L
189.855 66.923 L
190.341 66.76 L
190.827 66.597 L
191.313 66.436 L
191.8 66.275 L
192.286 66.115 L
192.772 65.955 L
193.259 65.796 L
193.745 65.638 L
194.231 65.481 L
194.718 65.324 L
195.204 65.168 L
195.69 65.013 L
196.177 64.858 L
196.663 64.704 L
197.149 64.551 L
197.636 64.398 L
198.122 64.247 L
198.608 64.096 L
199.095 63.945 L
199.581 63.795 L
200.067 63.646 L
200.554 63.498 L
201.04 63.351 L
201.526 63.204 L
202.013 63.058 L
202.499 62.912 L
202.985 62.767 L
203.472 62.623 L
203.958 62.48 L
204.444 62.337 L
204.93 62.195 L
205.417 62.054 L
205.903 61.913 L
206.389 61.773 L
206.876 61.634 L
207.362 61.496 L
207.848 61.358 L
208.335 61.221 L
208.821 61.084 L
209.307 60.948 L
209.794 60.813 L
210.28 60.679 L
210.766 60.545 L
211.253 60.412 L
211.739 60.28 L
212.225 60.148 L
212.712 60.018 L
213.198 59.887 L
213.684 59.758 L
214.171 59.629 L
214.657 59.501 L
215.143 59.373 L
215.63 59.247 L
216.116 59.121 L
216.602 58.995 L
217.089 58.87 L
217.575 58.746 L
218.061 58.623 L
218.548 58.5 L
219.034 58.379 L
219.52 58.257 L
220.006 58.137 L
220.493 58.017 L
220.979 57.897 L
221.465 57.779 L
221.952 57.661 L
222.438 57.544 L
222.924 57.427 L
223.411 57.312 L
223.897 57.197 L
224.383 57.082 L
224.87 56.968 L
225.356 56.855 L
225.842 56.743 L
226.329 56.631 L
226.815 56.52 L
227.301 56.41 L
227.788 56.3 L
228.274 56.191 L
228.76 56.083 L
229.247 55.975 L
229.733 55.868 L
230.219 55.762 L
230.706 55.656 L
231.192 55.551 L
231.678 55.447 L
232.165 55.343 L
232.651 55.24 L
233.137 55.138 L
233.623 55.036 L
234.11 54.936 L
234.596 54.835 L
235.082 54.736 L
235.569 54.637 L
236.055 54.539 L
236.541 54.441 L
237.028 54.344 L
237.514 54.248 L
238 54.153 L
238.487 54.058 L
238.973 53.964 L
239.459 53.87 L
239.946 53.777 L
240.432 53.685 L
240.918 53.593 L
241.405 53.503 L
241.891 53.412 L
242.377 53.323 L
242.864 53.234 L
243.35 53.146 L
243.836 53.058 L
244.323 52.971 L
244.809 52.885 L
245.295 52.8 L
245.782 52.715 L
246.268 52.631 L
246.754 52.547 L
247.24 52.464 L
247.727 52.382 L
248.213 52.301 L
248.699 52.22 L
249.186 52.139 L
249.672 52.06 L
250.158 51.981 L
250.645 51.903 L
251.131 51.825 L
251.617 51.748 L
252.104 51.672 L
252.59 51.596 L
253.076 51.521 L
253.563 51.447 L
254.049 51.373 L
254.535 51.3 L
255.022 51.228 L
255.508 51.156 L
255.994 51.085 L
256.481 51.015 L
256.967 50.945 L
257.453 50.876 L
257.94 50.808 L
258.426 50.74 L
258.912 50.673 L
259.398 50.607 L
259.885 50.541 L
260.371 50.476 L
260.857 50.411 L
261.344 50.347 L
261.83 50.284 L
262.316 50.222 L
262.803 50.16 L
263.289 50.098 L
263.775 50.038 L
264.262 49.978 L
264.748 49.919 L
265.234 49.86 L
265.721 49.802 L
266.207 49.745 L
266.693 49.688 L
267.18 49.632 L
267.666 49.577 L
268.152 49.522 L
268.639 49.468 L
269.125 49.414 L
269.611 49.361 L
270.098 49.309 L
270.584 49.258 L
271.07 49.207 L
271.557 49.157 L
272.043 49.107 L
272.529 49.058 L
273.016 49.01 L
273.502 48.962 L
273.988 48.915 L
274.474 48.869 L
274.961 48.823 L
275.447 48.778 L
275.933 48.733 L
276.42 48.689 L
276.906 48.646 L
277.392 48.604 L
277.879 48.562 L
278.365 48.52 L
278.851 48.48 L
279.338 48.44 L
279.824 48.4 L
280.31 48.362 L
280.797 48.324 L
281.283 48.286 L
281.769 48.249 L
282.256 48.213 L
282.742 48.177 L
283.228 48.143 L
283.715 48.108 L
284.201 48.075 L
284.687 48.042 L
285.174 48.009 L
285.66 47.977 L
286.146 47.946 L
286.633 47.916 L
287.119 47.886 L
287.605 47.857 L
288.091 47.828 L
288.578 47.8 L
289.064 47.772 L
289.55 47.746 L
290.037 47.72 L
290.523 47.694 L
291.009 47.669 L
291.496 47.645 L
291.982 47.622 L
292.468 47.599 L
292.955 47.576 L
293.441 47.554 L
293.927 47.533 L
294.414 47.513 L
294.9 47.493 L
295.386 47.474 L
295.873 47.455 L
296.359 47.437 L
296.845 47.42 L
297.332 47.403 L
297.818 47.387 L
298.304 47.372 L
298.791 47.357 L
299.277 47.342 L
299.763 47.329 L
300.25 47.316 L
300.736 47.303 L
301.222 47.292 L
301.708 47.28 L
302.195 47.27 L
302.681 47.26 L
303.167 47.251 L
303.654 47.242 L
304.14 47.234 L
304.626 47.226 L
305.113 47.22 L
305.599 47.213 L
306.085 47.208 L
306.572 47.203 L
307.058 47.198 L
307.544 47.195 L
308.031 47.191 L
308.517 47.189 L
309.003 47.187 L
309.49 47.186 L
309.976 47.185 L
S
GR
GS
0.302 0.745 0.933 RC
[10 6] 0 setdash
2 LJ
0.5 LW
N
73.45 368.248 M
73.937 361.675 L
74.423 355.136 L
74.909 348.642 L
75.396 342.202 L
75.882 335.827 L
76.368 329.526 L
76.855 323.31 L
77.341 317.188 L
77.827 311.17 L
78.314 305.267 L
78.8 299.489 L
79.286 293.845 L
79.773 288.346 L
80.259 283.001 L
80.745 277.82 L
81.232 272.815 L
81.718 267.993 L
82.204 263.366 L
82.691 258.944 L
83.177 254.736 L
83.663 250.753 L
84.149 247.003 L
84.636 243.382 L
85.122 239.805 L
85.608 236.272 L
86.095 232.785 L
86.581 229.344 L
87.067 225.952 L
87.554 222.608 L
88.04 219.314 L
88.526 216.071 L
89.013 212.88 L
89.499 209.742 L
89.985 206.657 L
90.472 203.627 L
90.958 200.653 L
91.444 197.735 L
91.931 194.876 L
92.417 192.075 L
92.903 189.334 L
93.39 186.654 L
93.876 184.036 L
94.362 181.48 L
94.849 178.989 L
95.335 176.562 L
95.821 174.201 L
96.308 171.907 L
96.794 169.68 L
97.28 167.523 L
97.766 165.435 L
98.253 163.419 L
98.739 161.474 L
99.225 159.601 L
99.712 157.803 L
100.198 156.08 L
100.684 154.432 L
101.171 152.861 L
101.657 151.368 L
102.143 149.954 L
102.63 148.62 L
103.116 147.327 L
103.602 146.045 L
104.089 144.775 L
104.575 143.516 L
105.061 142.269 L
105.548 141.034 L
106.034 139.811 L
106.52 138.599 L
107.007 137.4 L
107.493 136.213 L
107.979 135.038 L
108.466 133.874 L
108.952 132.724 L
109.438 131.585 L
109.925 130.459 L
110.411 129.345 L
110.897 128.243 L
111.383 127.155 L
111.87 126.078 L
112.356 125.015 L
112.842 123.964 L
113.329 122.926 L
113.815 121.9 L
114.301 120.888 L
114.788 119.888 L
115.274 118.902 L
115.76 117.928 L
116.247 116.968 L
116.733 116.021 L
117.219 115.087 L
117.706 114.167 L
118.192 113.259 L
118.678 112.366 L
119.165 111.485 L
119.651 110.619 L
120.137 109.766 L
120.624 108.926 L
121.11 108.101 L
121.596 107.289 L
122.083 106.491 L
122.569 105.707 L
123.055 104.937 L
123.542 104.181 L
124.028 103.439 L
124.514 102.712 L
125 101.998 L
125.487 101.299 L
125.973 100.614 L
126.459 99.944 L
126.946 99.288 L
127.432 98.647 L
127.918 98.02 L
128.405 97.408 L
128.891 96.81 L
129.377 96.228 L
129.864 95.66 L
130.35 95.107 L
130.836 94.569 L
131.323 94.047 L
131.809 93.539 L
132.295 93.046 L
132.782 92.569 L
133.268 92.107 L
133.754 91.66 L
134.241 91.229 L
134.727 90.813 L
135.213 90.413 L
135.7 90.028 L
136.186 89.659 L
136.672 89.305 L
137.159 88.968 L
137.645 88.646 L
138.131 88.34 L
138.617 88.05 L
139.104 87.776 L
139.59 87.518 L
140.076 87.275 L
140.563 87.036 L
141.049 86.797 L
141.535 86.56 L
142.022 86.323 L
142.508 86.087 L
142.994 85.852 L
143.481 85.617 L
143.967 85.383 L
144.453 85.15 L
144.94 84.918 L
145.426 84.686 L
145.912 84.456 L
146.399 84.226 L
146.885 83.997 L
147.371 83.768 L
147.858 83.54 L
148.344 83.313 L
148.83 83.087 L
149.317 82.862 L
149.803 82.637 L
150.289 82.413 L
150.776 82.19 L
151.262 81.968 L
151.748 81.746 L
152.234 81.525 L
152.721 81.305 L
153.207 81.085 L
153.693 80.867 L
154.18 80.649 L
154.666 80.432 L
155.152 80.215 L
155.639 80 L
156.125 79.785 L
156.611 79.571 L
157.098 79.357 L
157.584 79.145 L
158.07 78.933 L
158.557 78.722 L
159.043 78.511 L
159.529 78.301 L
160.016 78.093 L
160.502 77.884 L
160.988 77.677 L
161.475 77.47 L
161.961 77.264 L
162.447 77.059 L
162.934 76.855 L
163.42 76.651 L
163.906 76.448 L
164.393 76.246 L
164.879 76.044 L
165.365 75.844 L
165.852 75.644 L
166.338 75.444 L
166.824 75.246 L
167.31 75.048 L
167.797 74.851 L
168.283 74.655 L
168.769 74.459 L
169.256 74.264 L
169.742 74.07 L
170.228 73.877 L
170.715 73.684 L
171.201 73.492 L
171.687 73.301 L
172.174 73.111 L
172.66 72.921 L
173.146 72.732 L
173.633 72.544 L
174.119 72.357 L
174.605 72.17 L
175.092 71.984 L
175.578 71.799 L
176.064 71.614 L
176.551 71.43 L
177.037 71.247 L
177.523 71.065 L
178.01 70.883 L
178.496 70.702 L
178.982 70.522 L
179.469 70.343 L
179.955 70.164 L
180.441 69.986 L
180.927 69.809 L
181.414 69.632 L
181.9 69.456 L
182.386 69.281 L
182.873 69.107 L
183.359 68.933 L
183.845 68.76 L
184.332 68.588 L
184.818 68.417 L
185.304 68.246 L
185.791 68.076 L
186.277 67.907 L
186.763 67.738 L
187.25 67.57 L
187.736 67.403 L
188.222 67.237 L
188.709 67.071 L
189.195 66.906 L
189.681 66.742 L
190.168 66.578 L
190.654 66.415 L
191.14 66.253 L
191.627 66.092 L
192.113 65.931 L
192.599 65.771 L
193.086 65.612 L
193.572 65.454 L
194.058 65.296 L
194.544 65.139 L
195.031 64.982 L
195.517 64.827 L
196.003 64.672 L
196.49 64.517 L
196.976 64.364 L
197.462 64.211 L
197.949 64.059 L
198.435 63.908 L
198.921 63.757 L
199.408 63.607 L
199.894 63.458 L
200.38 63.309 L
200.867 63.161 L
201.353 63.014 L
201.839 62.868 L
202.326 62.722 L
202.812 62.577 L
203.298 62.433 L
203.785 62.289 L
204.271 62.146 L
204.757 62.004 L
205.244 61.862 L
205.73 61.722 L
206.216 61.581 L
206.703 61.442 L
207.189 61.303 L
207.675 61.165 L
208.161 61.028 L
208.648 60.891 L
209.134 60.756 L
209.62 60.62 L
210.107 60.486 L
210.593 60.352 L
211.079 60.219 L
211.566 60.087 L
212.052 59.955 L
212.538 59.824 L
213.025 59.694 L
213.511 59.564 L
213.997 59.435 L
214.484 59.307 L
214.97 59.179 L
215.456 59.052 L
215.943 58.926 L
216.429 58.801 L
216.915 58.676 L
217.402 58.552 L
217.888 58.429 L
218.374 58.306 L
218.861 58.184 L
219.347 58.063 L
219.833 57.942 L
220.32 57.822 L
220.806 57.703 L
221.292 57.585 L
221.778 57.467 L
222.265 57.35 L
222.751 57.233 L
223.237 57.117 L
223.724 57.002 L
224.21 56.888 L
224.696 56.774 L
225.183 56.661 L
225.669 56.549 L
226.155 56.437 L
226.642 56.326 L
227.128 56.216 L
227.614 56.106 L
228.101 55.997 L
228.587 55.889 L
229.073 55.782 L
229.56 55.675 L
230.046 55.569 L
230.532 55.463 L
231.019 55.358 L
231.505 55.254 L
231.991 55.151 L
232.478 55.048 L
232.964 54.946 L
233.45 54.844 L
233.937 54.743 L
234.423 54.643 L
234.909 54.544 L
235.395 54.445 L
235.882 54.347 L
236.368 54.25 L
236.854 54.153 L
237.341 54.057 L
237.827 53.962 L
238.313 53.867 L
238.8 53.773 L
239.286 53.68 L
239.772 53.587 L
240.259 53.495 L
240.745 53.403 L
241.231 53.313 L
241.718 53.223 L
242.204 53.134 L
242.69 53.045 L
243.177 52.957 L
243.663 52.87 L
244.149 52.783 L
244.636 52.697 L
245.122 52.612 L
245.608 52.527 L
246.095 52.443 L
246.581 52.36 L
247.067 52.277 L
247.554 52.195 L
248.04 52.114 L
248.526 52.033 L
249.012 51.953 L
249.499 51.874 L
249.985 51.795 L
250.471 51.717 L
250.958 51.64 L
251.444 51.563 L
251.93 51.487 L
252.417 51.412 L
252.903 51.337 L
253.389 51.263 L
253.876 51.189 L
254.362 51.117 L
254.848 51.045 L
255.335 50.973 L
255.821 50.902 L
256.307 50.832 L
256.794 50.763 L
257.28 50.694 L
257.766 50.626 L
258.253 50.558 L
258.739 50.492 L
259.225 50.425 L
259.712 50.36 L
260.198 50.295 L
260.684 50.231 L
261.171 50.167 L
261.657 50.104 L
262.143 50.042 L
262.629 49.98 L
263.116 49.919 L
263.602 49.859 L
264.088 49.799 L
264.575 49.74 L
265.061 49.682 L
265.547 49.624 L
266.034 49.567 L
266.52 49.511 L
267.006 49.455 L
267.493 49.4 L
267.979 49.345 L
268.465 49.292 L
268.952 49.238 L
269.438 49.186 L
269.924 49.134 L
270.411 49.083 L
270.897 49.032 L
271.383 48.982 L
271.87 48.933 L
272.356 48.884 L
272.842 48.836 L
273.329 48.788 L
273.815 48.742 L
274.301 48.696 L
274.788 48.65 L
275.274 48.605 L
275.76 48.561 L
276.246 48.517 L
276.733 48.474 L
277.219 48.432 L
277.705 48.39 L
278.192 48.349 L
278.678 48.309 L
279.164 48.269 L
279.651 48.23 L
280.137 48.192 L
280.623 48.154 L
281.11 48.117 L
281.596 48.08 L
282.082 48.044 L
282.569 48.009 L
283.055 47.974 L
283.541 47.94 L
284.028 47.906 L
284.514 47.874 L
285 47.841 L
285.487 47.81 L
285.973 47.779 L
286.459 47.749 L
286.946 47.719 L
287.432 47.69 L
287.918 47.661 L
288.405 47.634 L
288.891 47.606 L
289.377 47.58 L
289.863 47.554 L
290.35 47.529 L
290.836 47.504 L
291.322 47.48 L
291.809 47.457 L
292.295 47.434 L
292.781 47.412 L
293.268 47.39 L
293.754 47.369 L
294.24 47.349 L
294.727 47.329 L
295.213 47.31 L
295.699 47.292 L
296.186 47.274 L
296.672 47.257 L
297.158 47.24 L
297.645 47.224 L
298.131 47.209 L
298.617 47.194 L
299.104 47.18 L
299.59 47.166 L
300.076 47.153 L
300.563 47.141 L
301.049 47.129 L
301.535 47.118 L
302.022 47.108 L
302.508 47.098 L
302.994 47.089 L
303.48 47.08 L
303.967 47.072 L
304.453 47.065 L
304.939 47.058 L
305.426 47.052 L
305.912 47.046 L
306.398 47.042 L
306.885 47.037 L
307.371 47.033 L
307.857 47.03 L
308.344 47.028 L
308.83 47.026 L
309.316 47.025 L
309.803 47.024 L
S
GR
GS
0.635 0.078 0.184 RC
[10 6] 0 setdash
2 LJ
0.5 LW
N
73.661 365.208 M
74.148 358.739 L
74.634 352.303 L
75.12 345.91 L
75.607 339.569 L
76.093 333.291 L
76.579 327.085 L
77.066 320.961 L
77.552 314.927 L
78.038 308.995 L
78.525 303.174 L
79.011 297.473 L
79.497 291.902 L
79.984 286.471 L
80.47 281.189 L
80.956 276.066 L
81.443 271.112 L
81.929 266.337 L
82.415 261.75 L
82.902 257.361 L
83.388 253.179 L
83.874 249.215 L
84.36 245.478 L
84.847 241.912 L
85.333 238.393 L
85.819 234.917 L
86.306 231.484 L
86.792 228.097 L
87.278 224.756 L
87.765 221.461 L
88.251 218.215 L
88.737 215.017 L
89.224 211.869 L
89.71 208.773 L
90.196 205.728 L
90.683 202.736 L
91.169 199.798 L
91.655 196.914 L
92.142 194.087 L
92.628 191.316 L
93.114 188.603 L
93.601 185.948 L
94.087 183.354 L
94.573 180.82 L
95.06 178.348 L
95.546 175.938 L
96.032 173.592 L
96.519 171.311 L
97.005 169.095 L
97.491 166.946 L
97.977 164.865 L
98.464 162.852 L
98.95 160.909 L
99.436 159.036 L
99.923 157.234 L
100.409 155.506 L
100.895 153.85 L
101.382 152.269 L
101.868 150.764 L
102.354 149.335 L
102.841 147.983 L
103.327 146.706 L
103.813 145.457 L
104.3 144.218 L
104.786 142.99 L
105.272 141.773 L
105.759 140.567 L
106.245 139.373 L
106.731 138.189 L
107.218 137.018 L
107.704 135.857 L
108.19 134.708 L
108.677 133.57 L
109.163 132.444 L
109.649 131.33 L
110.136 130.227 L
110.622 129.136 L
111.108 128.056 L
111.594 126.989 L
112.081 125.933 L
112.567 124.89 L
113.053 123.858 L
113.54 122.838 L
114.026 121.831 L
114.512 120.835 L
114.999 119.852 L
115.485 118.881 L
115.971 117.923 L
116.458 116.977 L
116.944 116.043 L
117.43 115.122 L
117.917 114.214 L
118.403 113.318 L
118.889 112.434 L
119.376 111.564 L
119.862 110.706 L
120.348 109.861 L
120.835 109.029 L
121.321 108.21 L
121.807 107.404 L
122.294 106.612 L
122.78 105.832 L
123.266 105.065 L
123.753 104.312 L
124.239 103.572 L
124.725 102.845 L
125.211 102.132 L
125.698 101.433 L
126.184 100.746 L
126.67 100.074 L
127.157 99.415 L
127.643 98.77 L
128.129 98.138 L
128.616 97.521 L
129.102 96.917 L
129.588 96.327 L
130.075 95.751 L
130.561 95.19 L
131.047 94.642 L
131.534 94.109 L
132.02 93.589 L
132.506 93.084 L
132.993 92.594 L
133.479 92.118 L
133.965 91.656 L
134.452 91.208 L
134.938 90.776 L
135.424 90.358 L
135.911 89.954 L
136.397 89.566 L
136.883 89.192 L
137.37 88.833 L
137.856 88.489 L
138.342 88.16 L
138.828 87.845 L
139.315 87.546 L
139.801 87.262 L
140.287 86.994 L
140.774 86.74 L
141.26 86.502 L
141.746 86.278 L
142.233 86.056 L
142.719 85.835 L
143.205 85.614 L
143.692 85.394 L
144.178 85.175 L
144.664 84.957 L
145.151 84.739 L
145.637 84.522 L
146.123 84.305 L
146.61 84.09 L
147.096 83.875 L
147.582 83.66 L
148.069 83.446 L
148.555 83.233 L
149.041 83.021 L
149.528 82.809 L
150.014 82.598 L
150.5 82.387 L
150.987 82.178 L
151.473 81.968 L
151.959 81.76 L
152.445 81.552 L
152.932 81.345 L
153.418 81.138 L
153.904 80.933 L
154.391 80.727 L
154.877 80.523 L
155.363 80.319 L
155.85 80.116 L
156.336 79.913 L
156.822 79.711 L
157.309 79.51 L
157.795 79.31 L
158.281 79.11 L
158.768 78.91 L
159.254 78.712 L
159.74 78.514 L
160.227 78.316 L
160.713 78.12 L
161.199 77.924 L
161.686 77.728 L
162.172 77.534 L
162.658 77.34 L
163.145 77.146 L
163.631 76.954 L
164.117 76.761 L
164.604 76.57 L
165.09 76.379 L
165.576 76.189 L
166.062 76 L
166.549 75.811 L
167.035 75.622 L
167.521 75.435 L
168.008 75.248 L
168.494 75.062 L
168.98 74.876 L
169.467 74.691 L
169.953 74.507 L
170.439 74.323 L
170.926 74.14 L
171.412 73.958 L
171.898 73.776 L
172.385 73.595 L
172.871 73.414 L
173.357 73.235 L
173.844 73.055 L
174.33 72.877 L
174.816 72.699 L
175.303 72.522 L
175.789 72.345 L
176.275 72.169 L
176.762 71.993 L
177.248 71.819 L
177.734 71.645 L
178.221 71.471 L
178.707 71.298 L
179.193 71.126 L
179.679 70.955 L
180.166 70.784 L
180.652 70.613 L
181.138 70.444 L
181.625 70.275 L
182.111 70.106 L
182.597 69.939 L
183.084 69.772 L
183.57 69.605 L
184.056 69.439 L
184.543 69.274 L
185.029 69.109 L
185.515 68.945 L
186.002 68.782 L
186.488 68.619 L
186.974 68.457 L
187.461 68.296 L
187.947 68.135 L
188.433 67.975 L
188.92 67.815 L
189.406 67.656 L
189.892 67.498 L
190.379 67.34 L
190.865 67.183 L
191.351 67.026 L
191.838 66.871 L
192.324 66.715 L
192.81 66.561 L
193.296 66.407 L
193.783 66.253 L
194.269 66.101 L
194.755 65.949 L
195.242 65.797 L
195.728 65.646 L
196.214 65.496 L
196.701 65.346 L
197.187 65.197 L
197.673 65.049 L
198.16 64.901 L
198.646 64.754 L
199.132 64.607 L
199.619 64.461 L
200.105 64.316 L
200.591 64.171 L
201.078 64.027 L
201.564 63.883 L
202.05 63.741 L
202.537 63.598 L
203.023 63.457 L
203.509 63.316 L
203.996 63.175 L
204.482 63.035 L
204.968 62.896 L
205.455 62.758 L
205.941 62.619 L
206.427 62.482 L
206.913 62.345 L
207.4 62.209 L
207.886 62.074 L
208.372 61.939 L
208.859 61.804 L
209.345 61.67 L
209.831 61.537 L
210.318 61.405 L
210.804 61.273 L
211.29 61.141 L
211.777 61.011 L
212.263 60.881 L
212.749 60.751 L
213.236 60.622 L
213.722 60.494 L
214.208 60.366 L
214.695 60.239 L
215.181 60.112 L
215.667 59.986 L
216.154 59.861 L
216.64 59.736 L
217.126 59.612 L
217.613 59.489 L
218.099 59.366 L
218.585 59.243 L
219.072 59.122 L
219.558 59 L
220.044 58.88 L
220.531 58.76 L
221.017 58.64 L
221.503 58.522 L
221.989 58.403 L
222.476 58.286 L
222.962 58.169 L
223.448 58.053 L
223.935 57.937 L
224.421 57.821 L
224.907 57.707 L
225.394 57.593 L
225.88 57.479 L
226.366 57.366 L
226.853 57.254 L
227.339 57.142 L
227.825 57.031 L
228.312 56.921 L
228.798 56.811 L
229.284 56.701 L
229.771 56.593 L
230.257 56.485 L
230.743 56.377 L
231.23 56.27 L
231.716 56.163 L
232.202 56.057 L
232.689 55.952 L
233.175 55.848 L
233.661 55.743 L
234.148 55.64 L
234.634 55.537 L
235.12 55.435 L
235.606 55.333 L
236.093 55.232 L
236.579 55.131 L
237.065 55.031 L
237.552 54.931 L
238.038 54.833 L
238.524 54.734 L
239.011 54.636 L
239.497 54.539 L
239.983 54.443 L
240.47 54.347 L
240.956 54.251 L
241.442 54.156 L
241.929 54.062 L
242.415 53.968 L
242.901 53.875 L
243.388 53.783 L
243.874 53.691 L
244.36 53.599 L
244.847 53.508 L
245.333 53.418 L
245.819 53.328 L
246.306 53.239 L
246.792 53.15 L
247.278 53.062 L
247.765 52.975 L
248.251 52.888 L
248.737 52.802 L
249.223 52.716 L
249.71 52.631 L
250.196 52.546 L
250.682 52.462 L
251.169 52.378 L
251.655 52.296 L
252.141 52.213 L
252.628 52.131 L
253.114 52.05 L
253.6 51.969 L
254.087 51.889 L
254.573 51.81 L
255.059 51.731 L
255.546 51.652 L
256.032 51.574 L
256.518 51.497 L
257.005 51.42 L
257.491 51.344 L
257.977 51.268 L
258.464 51.193 L
258.95 51.119 L
259.436 51.045 L
259.923 50.971 L
260.409 50.898 L
260.895 50.826 L
261.382 50.754 L
261.868 50.683 L
262.354 50.612 L
262.84 50.542 L
263.327 50.473 L
263.813 50.404 L
264.299 50.335 L
264.786 50.267 L
265.272 50.2 L
265.758 50.133 L
266.245 50.067 L
266.731 50.001 L
267.217 49.936 L
267.704 49.871 L
268.19 49.807 L
268.676 49.744 L
269.163 49.681 L
269.649 49.618 L
270.135 49.557 L
270.622 49.495 L
271.108 49.434 L
271.594 49.374 L
272.081 49.314 L
272.567 49.255 L
273.053 49.197 L
273.54 49.139 L
274.026 49.081 L
274.512 49.024 L
274.999 48.968 L
275.485 48.912 L
275.971 48.856 L
276.457 48.802 L
276.944 48.747 L
277.43 48.693 L
277.916 48.64 L
278.403 48.587 L
278.889 48.535 L
279.375 48.484 L
279.862 48.433 L
280.348 48.382 L
280.834 48.332 L
281.321 48.283 L
281.807 48.234 L
282.293 48.185 L
282.78 48.137 L
283.266 48.09 L
283.752 48.043 L
284.239 47.997 L
284.725 47.951 L
285.211 47.906 L
285.698 47.861 L
286.184 47.817 L
286.67 47.774 L
287.157 47.73 L
287.643 47.688 L
288.129 47.646 L
288.616 47.604 L
289.102 47.563 L
289.588 47.523 L
290.074 47.483 L
290.561 47.443 L
291.047 47.405 L
291.533 47.366 L
292.02 47.328 L
292.506 47.291 L
292.992 47.254 L
293.479 47.218 L
293.965 47.182 L
294.451 47.147 L
294.938 47.112 L
295.424 47.078 L
295.91 47.044 L
296.397 47.011 L
296.883 46.979 L
297.369 46.947 L
297.856 46.915 L
298.342 46.884 L
298.828 46.853 L
299.315 46.823 L
299.801 46.794 L
300.287 46.765 L
300.774 46.736 L
301.26 46.708 L
301.746 46.681 L
302.233 46.654 L
302.719 46.627 L
303.205 46.601 L
303.691 46.576 L
304.178 46.551 L
304.664 46.527 L
305.15 46.503 L
305.637 46.479 L
306.123 46.457 L
306.609 46.434 L
307.096 46.412 L
307.582 46.391 L
308.068 46.37 L
308.555 46.35 L
309.041 46.33 L
309.527 46.311 L
310.014 46.292 L
310.5 46.274 L
310.986 46.256 L
311.473 46.239 L
311.959 46.222 L
312.445 46.206 L
312.932 46.19 L
313.418 46.175 L
313.904 46.16 L
314.391 46.145 L
314.877 46.132 L
315.363 46.118 L
315.85 46.106 L
316.336 46.093 L
316.822 46.082 L
317.308 46.07 L
317.795 46.06 L
318.281 46.049 L
318.767 46.04 L
319.254 46.03 L
319.74 46.021 L
320.226 46.013 L
320.713 46.005 L
321.199 45.998 L
321.685 45.991 L
322.172 45.985 L
322.658 45.979 L
323.144 45.974 L
323.631 45.969 L
324.117 45.965 L
324.603 45.961 L
325.09 45.958 L
325.576 45.955 L
326.062 45.952 L
326.549 45.95 L
327.035 45.949 L
327.521 45.948 L
328.008 45.948 L
S
GR
GS
1 GC
N
499 366 M
499 250.5 L
344.5 250.5 L
344.5 366 L
cp
f
GR
GS
[1 0 0 1 381.5 260.25] CT
/Helvetica 13 F
GS
[1 0 0 1 0 0] CT
0 5 moveto 
1 -1 scale
(Base Run) t 
GR
GR
GS
0 0.447 0.741 RC
1 LJ
0.5 LW
N
348.5 260.25 M
378.5 260.25 L
S
GR
GS
[1 0 0 1 381.5 276.25] CT
/Helvetica 13 F
GS
[1 0 0 1 0 0] CT
0 5 moveto 
1 -1 scale
(I & B Frames) t 
GR
GR
GS
0.851 0.325 0.098 RC
1 LJ
0.5 LW
N
348.5 276.25 M
378.5 276.25 L
S
GR
GS
[1 0 0 1 381.5 292.25] CT
/Helvetica 13 F
GS
[1 0 0 1 0 0] CT
0 5 moveto 
1 -1 scale
(I Frames Only) t 
GR
GR
GS
0.929 0.694 0.125 RC
1 LJ
0.5 LW
N
348.5 292.25 M
378.5 292.25 L
S
GR
GS
[1 0 0 1 381.5 308.25] CT
/Helvetica 13 F
GS
[1 0 0 1 0 0] CT
0 5 moveto 
1 -1 scale
(B Frames Only) t 
GR
GR
GS
0.494 0.184 0.557 RC
1 LJ
0.5 LW
N
348.5 308.25 M
378.5 308.25 L
S
GR
GS
[1 0 0 1 381.5 324.25] CT
/Helvetica 13 F
GS
[1 0 0 1 0 0] CT
0 5 moveto 
1 -1 scale
(Part I & B Frames) t 
GR
GR
GS
0.467 0.675 0.188 RC
[10 6] 0 setdash
2 LJ
0.5 LW
N
348.5 324.25 M
378.5 324.25 L
S
GR
GS
[1 0 0 1 381.5 340.25] CT
/Helvetica 13 F
GS
[1 0 0 1 0 0] CT
0 5 moveto 
1 -1 scale
(Part I Frames Only) t 
GR
GR
GS
0.302 0.745 0.933 RC
[10 6] 0 setdash
2 LJ
0.5 LW
N
348.5 340.25 M
378.5 340.25 L
S
GR
GS
[1 0 0 1 381.5 356.25] CT
/Helvetica 13 F
GS
[1 0 0 1 0 0] CT
0 5 moveto 
1 -1 scale
(Part B Frames Only) t 
GR
GR
GS
0.635 0.078 0.184 RC
[10 6] 0 setdash
2 LJ
0.5 LW
N
348.5 356.25 M
378.5 356.25 L
S
GR
GS
0.149 GC
10.0 ML
0.5 LW
N
344.5 366 M
344.5 250.5 L
499 250.5 L
499 366 L
cp
S
GR
%%Trailer
%%Pages: 1
%%EOF
