%!PS-Adobe-3.0 EPSF-3.0
%%Creator: (MATLAB, The Mathworks, Inc. Version 9.11.0.1837725 \(R2021b\) Update 2. Operating System: Mac OS X)
%%Title: plots/pchip/OldTownCross_1920x1080p50.y4m-hevc-PSNRV.eps
%%CreationDate: 2022-02-03T19:14:26
%%Pages: (atend)
%%BoundingBox:    22   425   520   826
%%LanguageLevel: 3
%%EndComments
%%BeginProlog
%%BeginResource: procset (Apache XML Graphics Std ProcSet) 1.2 0
%%Version: 1.2 0
%%Copyright: (Copyright 2001-2003,2010 The Apache Software Foundation. License terms: http://www.apache.org/licenses/LICENSE-2.0)
/bd{bind def}bind def
/ld{load def}bd
/GR/grestore ld
/GS/gsave ld
/RM/rmoveto ld
/C/curveto ld
/t/show ld
/L/lineto ld
/ML/setmiterlimit ld
/CT/concat ld
/f/fill ld
/N/newpath ld
/S/stroke ld
/CC/setcmykcolor ld
/A/ashow ld
/cp/closepath ld
/RC/setrgbcolor ld
/LJ/setlinejoin ld
/GC/setgray ld
/LW/setlinewidth ld
/M/moveto ld
/re {4 2 roll M
1 index 0 rlineto
0 exch rlineto
neg 0 rlineto
cp } bd
/_ctm matrix def
/_tm matrix def
/BT { _ctm currentmatrix pop matrix _tm copy pop 0 0 moveto } bd
/ET { _ctm setmatrix } bd
/iTm { _ctm setmatrix _tm concat } bd
/Tm { _tm astore pop iTm 0 0 moveto } bd
/ux 0.0 def
/uy 0.0 def
/F {
  /Tp exch def
  /Tf exch def
  Tf findfont Tp scalefont setfont
  /cf Tf def  /cs Tp def
} bd
/ULS {currentpoint /uy exch def /ux exch def} bd
/ULE {
  /Tcx currentpoint pop def
  gsave
  newpath
  cf findfont cs scalefont dup
  /FontMatrix get 0 get /Ts exch def /FontInfo get dup
  /UnderlinePosition get Ts mul /To exch def
  /UnderlineThickness get Ts mul /Tt exch def
  ux uy To add moveto  Tcx uy To add lineto
  Tt setlinewidth stroke
  grestore
} bd
/OLE {
  /Tcx currentpoint pop def
  gsave
  newpath
  cf findfont cs scalefont dup
  /FontMatrix get 0 get /Ts exch def /FontInfo get dup
  /UnderlinePosition get Ts mul /To exch def
  /UnderlineThickness get Ts mul /Tt exch def
  ux uy To add cs add moveto Tcx uy To add cs add lineto
  Tt setlinewidth stroke
  grestore
} bd
/SOE {
  /Tcx currentpoint pop def
  gsave
  newpath
  cf findfont cs scalefont dup
  /FontMatrix get 0 get /Ts exch def /FontInfo get dup
  /UnderlinePosition get Ts mul /To exch def
  /UnderlineThickness get Ts mul /Tt exch def
  ux uy To add cs 10 mul 26 idiv add moveto Tcx uy To add cs 10 mul 26 idiv add lineto
  Tt setlinewidth stroke
  grestore
} bd
/QT {
/Y22 exch store
/X22 exch store
/Y21 exch store
/X21 exch store
currentpoint
/Y21 load 2 mul add 3 div exch
/X21 load 2 mul add 3 div exch
/X21 load 2 mul /X22 load add 3 div
/Y21 load 2 mul /Y22 load add 3 div
/X22 load /Y22 load curveto
} bd
/SSPD {
dup length /d exch dict def
{
/v exch def
/k exch def
currentpagedevice k known {
/cpdv currentpagedevice k get def
v cpdv ne {
/upd false def
/nullv v type /nulltype eq def
/nullcpdv cpdv type /nulltype eq def
nullv nullcpdv or
{
/upd true def
} {
/sametype v type cpdv type eq def
sametype {
v type /arraytype eq {
/vlen v length def
/cpdvlen cpdv length def
vlen cpdvlen eq {
0 1 vlen 1 sub {
/i exch def
/obj v i get def
/cpdobj cpdv i get def
obj cpdobj ne {
/upd true def
exit
} if
} for
} {
/upd true def
} ifelse
} {
v type /dicttype eq {
v {
/dv exch def
/dk exch def
/cpddv cpdv dk get def
dv cpddv ne {
/upd true def
exit
} if
} forall
} {
/upd true def
} ifelse
} ifelse
} if
} ifelse
upd true eq {
d k v put
} if
} if
} if
} forall
d length 0 gt {
d setpagedevice
} if
} bd
/RE { % /NewFontName [NewEncodingArray] /FontName RE -
  findfont dup length dict begin
  {
    1 index /FID ne
    {def} {pop pop} ifelse
  } forall
  /Encoding exch def
  /FontName 1 index def
  currentdict definefont pop
  end
} bind def
%%EndResource
%%BeginResource: procset (Apache XML Graphics EPS ProcSet) 1.0 0
%%Version: 1.0 0
%%Copyright: (Copyright 2002-2003 The Apache Software Foundation. License terms: http://www.apache.org/licenses/LICENSE-2.0)
/BeginEPSF { %def
/b4_Inc_state save def         % Save state for cleanup
/dict_count countdictstack def % Count objects on dict stack
/op_count count 1 sub def      % Count objects on operand stack
userdict begin                 % Push userdict on dict stack
/showpage { } def              % Redefine showpage, { } = null proc
0 setgray 0 setlinecap         % Prepare graphics state
1 setlinewidth 0 setlinejoin
10 setmiterlimit [ ] 0 setdash newpath
/languagelevel where           % If level not equal to 1 then
{pop languagelevel             % set strokeadjust and
1 ne                           % overprint to their defaults.
{false setstrokeadjust false setoverprint
} if
} if
} bd
/EndEPSF { %def
count op_count sub {pop} repeat            % Clean up stacks
countdictstack dict_count sub {end} repeat
b4_Inc_state restore
} bd
%%EndResource
%FOPBeginFontDict
%%IncludeResource: font Courier-Oblique
%%IncludeResource: font Courier-BoldOblique
%%IncludeResource: font Courier-Bold
%%IncludeResource: font ZapfDingbats
%%IncludeResource: font Symbol
%%IncludeResource: font Helvetica
%%IncludeResource: font Helvetica-Oblique
%%IncludeResource: font Helvetica-Bold
%%IncludeResource: font Helvetica-BoldOblique
%%IncludeResource: font Times-Roman
%%IncludeResource: font Times-Italic
%%IncludeResource: font Times-Bold
%%IncludeResource: font Times-BoldItalic
%%IncludeResource: font Courier
%FOPEndFontDict
%%BeginResource: encoding WinAnsiEncoding
/WinAnsiEncoding [
/.notdef /.notdef /.notdef /.notdef /.notdef
/.notdef /.notdef /.notdef /.notdef /.notdef
/.notdef /.notdef /.notdef /.notdef /.notdef
/.notdef /.notdef /.notdef /.notdef /.notdef
/.notdef /.notdef /.notdef /.notdef /.notdef
/.notdef /.notdef /.notdef /.notdef /.notdef
/.notdef /.notdef /space /exclam /quotedbl
/numbersign /dollar /percent /ampersand /quotesingle
/parenleft /parenright /asterisk /plus /comma
/hyphen /period /slash /zero /one
/two /three /four /five /six
/seven /eight /nine /colon /semicolon
/less /equal /greater /question /at
/A /B /C /D /E
/F /G /H /I /J
/K /L /M /N /O
/P /Q /R /S /T
/U /V /W /X /Y
/Z /bracketleft /backslash /bracketright /asciicircum
/underscore /quoteleft /a /b /c
/d /e /f /g /h
/i /j /k /l /m
/n /o /p /q /r
/s /t /u /v /w
/x /y /z /braceleft /bar
/braceright /asciitilde /bullet /Euro /bullet
/quotesinglbase /florin /quotedblbase /ellipsis /dagger
/daggerdbl /circumflex /perthousand /Scaron /guilsinglleft
/OE /bullet /Zcaron /bullet /bullet
/quoteleft /quoteright /quotedblleft /quotedblright /bullet
/endash /emdash /asciitilde /trademark /scaron
/guilsinglright /oe /bullet /zcaron /Ydieresis
/space /exclamdown /cent /sterling /currency
/yen /brokenbar /section /dieresis /copyright
/ordfeminine /guillemotleft /logicalnot /sfthyphen /registered
/macron /degree /plusminus /twosuperior /threesuperior
/acute /mu /paragraph /middot /cedilla
/onesuperior /ordmasculine /guillemotright /onequarter /onehalf
/threequarters /questiondown /Agrave /Aacute /Acircumflex
/Atilde /Adieresis /Aring /AE /Ccedilla
/Egrave /Eacute /Ecircumflex /Edieresis /Igrave
/Iacute /Icircumflex /Idieresis /Eth /Ntilde
/Ograve /Oacute /Ocircumflex /Otilde /Odieresis
/multiply /Oslash /Ugrave /Uacute /Ucircumflex
/Udieresis /Yacute /Thorn /germandbls /agrave
/aacute /acircumflex /atilde /adieresis /aring
/ae /ccedilla /egrave /eacute /ecircumflex
/edieresis /igrave /iacute /icircumflex /idieresis
/eth /ntilde /ograve /oacute /ocircumflex
/otilde /odieresis /divide /oslash /ugrave
/uacute /ucircumflex /udieresis /yacute /thorn
/ydieresis
] def
%%EndResource
%FOPBeginFontReencode
/Courier-Oblique findfont
dup length dict begin
  {1 index /FID ne {def} {pop pop} ifelse} forall
  /Encoding WinAnsiEncoding def
  currentdict
end
/Courier-Oblique exch definefont pop
/Courier-BoldOblique findfont
dup length dict begin
  {1 index /FID ne {def} {pop pop} ifelse} forall
  /Encoding WinAnsiEncoding def
  currentdict
end
/Courier-BoldOblique exch definefont pop
/Courier-Bold findfont
dup length dict begin
  {1 index /FID ne {def} {pop pop} ifelse} forall
  /Encoding WinAnsiEncoding def
  currentdict
end
/Courier-Bold exch definefont pop
/Helvetica findfont
dup length dict begin
  {1 index /FID ne {def} {pop pop} ifelse} forall
  /Encoding WinAnsiEncoding def
  currentdict
end
/Helvetica exch definefont pop
/Helvetica-Oblique findfont
dup length dict begin
  {1 index /FID ne {def} {pop pop} ifelse} forall
  /Encoding WinAnsiEncoding def
  currentdict
end
/Helvetica-Oblique exch definefont pop
/Helvetica-Bold findfont
dup length dict begin
  {1 index /FID ne {def} {pop pop} ifelse} forall
  /Encoding WinAnsiEncoding def
  currentdict
end
/Helvetica-Bold exch definefont pop
/Helvetica-BoldOblique findfont
dup length dict begin
  {1 index /FID ne {def} {pop pop} ifelse} forall
  /Encoding WinAnsiEncoding def
  currentdict
end
/Helvetica-BoldOblique exch definefont pop
/Times-Roman findfont
dup length dict begin
  {1 index /FID ne {def} {pop pop} ifelse} forall
  /Encoding WinAnsiEncoding def
  currentdict
end
/Times-Roman exch definefont pop
/Times-Italic findfont
dup length dict begin
  {1 index /FID ne {def} {pop pop} ifelse} forall
  /Encoding WinAnsiEncoding def
  currentdict
end
/Times-Italic exch definefont pop
/Times-Bold findfont
dup length dict begin
  {1 index /FID ne {def} {pop pop} ifelse} forall
  /Encoding WinAnsiEncoding def
  currentdict
end
/Times-Bold exch definefont pop
/Times-BoldItalic findfont
dup length dict begin
  {1 index /FID ne {def} {pop pop} ifelse} forall
  /Encoding WinAnsiEncoding def
  currentdict
end
/Times-BoldItalic exch definefont pop
/Courier findfont
dup length dict begin
  {1 index /FID ne {def} {pop pop} ifelse} forall
  /Encoding WinAnsiEncoding def
  currentdict
end
/Courier exch definefont pop
%FOPEndFontReencode
%%EndProlog
%%Page: 1 1
%%PageBoundingBox: 0 0 1120 840
%%BeginPageSetup
[1 0 0 -1 0 840] CT
%%EndPageSetup
GS
1 GC
N
0 0 1120 840 re
f
GR
GS
1 GC
N
73 374 M
507 374 L
507 31.5 L
73 31.5 L
cp
f
GR
GS
0.149 GC
2 setlinecap
1 LJ
0.5 LW
N
73 374 M
507 374 L
S
GR
GS
0.149 GC
2 setlinecap
1 LJ
0.5 LW
N
73 31.5 M
507 31.5 L
S
GR
GS
0.149 GC
2 setlinecap
1 LJ
0.5 LW
N
110.609 374 M
110.609 369.66 L
S
GR
GS
0.149 GC
2 setlinecap
1 LJ
0.5 LW
N
159.242 374 M
159.242 369.66 L
S
GR
GS
0.149 GC
2 setlinecap
1 LJ
0.5 LW
N
207.874 374 M
207.874 369.66 L
S
GR
GS
0.149 GC
2 setlinecap
1 LJ
0.5 LW
N
256.506 374 M
256.506 369.66 L
S
GR
GS
0.149 GC
2 setlinecap
1 LJ
0.5 LW
N
305.138 374 M
305.138 369.66 L
S
GR
GS
0.149 GC
2 setlinecap
1 LJ
0.5 LW
N
353.77 374 M
353.77 369.66 L
S
GR
GS
0.149 GC
2 setlinecap
1 LJ
0.5 LW
N
402.402 374 M
402.402 369.66 L
S
GR
GS
0.149 GC
2 setlinecap
1 LJ
0.5 LW
N
451.034 374 M
451.034 369.66 L
S
GR
GS
0.149 GC
2 setlinecap
1 LJ
0.5 LW
N
499.667 374 M
499.667 369.66 L
S
GR
GS
0.149 GC
2 setlinecap
1 LJ
0.5 LW
N
110.609 31.5 M
110.609 35.84 L
S
GR
GS
0.149 GC
2 setlinecap
1 LJ
0.5 LW
N
159.242 31.5 M
159.242 35.84 L
S
GR
GS
0.149 GC
2 setlinecap
1 LJ
0.5 LW
N
207.874 31.5 M
207.874 35.84 L
S
GR
GS
0.149 GC
2 setlinecap
1 LJ
0.5 LW
N
256.506 31.5 M
256.506 35.84 L
S
GR
GS
0.149 GC
2 setlinecap
1 LJ
0.5 LW
N
305.138 31.5 M
305.138 35.84 L
S
GR
GS
0.149 GC
2 setlinecap
1 LJ
0.5 LW
N
353.77 31.5 M
353.77 35.84 L
S
GR
GS
0.149 GC
2 setlinecap
1 LJ
0.5 LW
N
402.402 31.5 M
402.402 35.84 L
S
GR
GS
0.149 GC
2 setlinecap
1 LJ
0.5 LW
N
451.034 31.5 M
451.034 35.84 L
S
GR
GS
0.149 GC
2 setlinecap
1 LJ
0.5 LW
N
499.667 31.5 M
499.667 35.84 L
S
GR
GS
0.149 GC
2 setlinecap
1 LJ
0.5 LW
N
74.135 374 M
74.135 371.83 L
S
GR
GS
0.149 GC
2 setlinecap
1 LJ
0.5 LW
N
86.293 374 M
86.293 371.83 L
S
GR
GS
0.149 GC
2 setlinecap
1 LJ
0.5 LW
N
98.451 374 M
98.451 371.83 L
S
GR
GS
0.149 GC
2 setlinecap
1 LJ
0.5 LW
N
122.767 374 M
122.767 371.83 L
S
GR
GS
0.149 GC
2 setlinecap
1 LJ
0.5 LW
N
134.925 374 M
134.925 371.83 L
S
GR
GS
0.149 GC
2 setlinecap
1 LJ
0.5 LW
N
147.083 374 M
147.083 371.83 L
S
GR
GS
0.149 GC
2 setlinecap
1 LJ
0.5 LW
N
171.4 374 M
171.4 371.83 L
S
GR
GS
0.149 GC
2 setlinecap
1 LJ
0.5 LW
N
183.558 374 M
183.558 371.83 L
S
GR
GS
0.149 GC
2 setlinecap
1 LJ
0.5 LW
N
195.716 374 M
195.716 371.83 L
S
GR
GS
0.149 GC
2 setlinecap
1 LJ
0.5 LW
N
220.032 374 M
220.032 371.83 L
S
GR
GS
0.149 GC
2 setlinecap
1 LJ
0.5 LW
N
232.19 374 M
232.19 371.83 L
S
GR
GS
0.149 GC
2 setlinecap
1 LJ
0.5 LW
N
244.348 374 M
244.348 371.83 L
S
GR
GS
0.149 GC
2 setlinecap
1 LJ
0.5 LW
N
268.664 374 M
268.664 371.83 L
S
GR
GS
0.149 GC
2 setlinecap
1 LJ
0.5 LW
N
280.822 374 M
280.822 371.83 L
S
GR
GS
0.149 GC
2 setlinecap
1 LJ
0.5 LW
N
292.98 374 M
292.98 371.83 L
S
GR
GS
0.149 GC
2 setlinecap
1 LJ
0.5 LW
N
317.296 374 M
317.296 371.83 L
S
GR
GS
0.149 GC
2 setlinecap
1 LJ
0.5 LW
N
329.454 374 M
329.454 371.83 L
S
GR
GS
0.149 GC
2 setlinecap
1 LJ
0.5 LW
N
341.612 374 M
341.612 371.83 L
S
GR
GS
0.149 GC
2 setlinecap
1 LJ
0.5 LW
N
365.928 374 M
365.928 371.83 L
S
GR
GS
0.149 GC
2 setlinecap
1 LJ
0.5 LW
N
378.086 374 M
378.086 371.83 L
S
GR
GS
0.149 GC
2 setlinecap
1 LJ
0.5 LW
N
390.244 374 M
390.244 371.83 L
S
GR
GS
0.149 GC
2 setlinecap
1 LJ
0.5 LW
N
414.56 374 M
414.56 371.83 L
S
GR
GS
0.149 GC
2 setlinecap
1 LJ
0.5 LW
N
426.718 374 M
426.718 371.83 L
S
GR
GS
0.149 GC
2 setlinecap
1 LJ
0.5 LW
N
438.876 374 M
438.876 371.83 L
S
GR
GS
0.149 GC
2 setlinecap
1 LJ
0.5 LW
N
463.192 374 M
463.192 371.83 L
S
GR
GS
0.149 GC
2 setlinecap
1 LJ
0.5 LW
N
475.35 374 M
475.35 371.83 L
S
GR
GS
0.149 GC
2 setlinecap
1 LJ
0.5 LW
N
487.509 374 M
487.509 371.83 L
S
GR
GS
0.149 GC
2 setlinecap
1 LJ
0.5 LW
N
74.135 31.5 M
74.135 33.67 L
S
GR
GS
0.149 GC
2 setlinecap
1 LJ
0.5 LW
N
86.293 31.5 M
86.293 33.67 L
S
GR
GS
0.149 GC
2 setlinecap
1 LJ
0.5 LW
N
98.451 31.5 M
98.451 33.67 L
S
GR
GS
0.149 GC
2 setlinecap
1 LJ
0.5 LW
N
122.767 31.5 M
122.767 33.67 L
S
GR
GS
0.149 GC
2 setlinecap
1 LJ
0.5 LW
N
134.925 31.5 M
134.925 33.67 L
S
GR
GS
0.149 GC
2 setlinecap
1 LJ
0.5 LW
N
147.083 31.5 M
147.083 33.67 L
S
GR
GS
0.149 GC
2 setlinecap
1 LJ
0.5 LW
N
171.4 31.5 M
171.4 33.67 L
S
GR
GS
0.149 GC
2 setlinecap
1 LJ
0.5 LW
N
183.558 31.5 M
183.558 33.67 L
S
GR
GS
0.149 GC
2 setlinecap
1 LJ
0.5 LW
N
195.716 31.5 M
195.716 33.67 L
S
GR
GS
0.149 GC
2 setlinecap
1 LJ
0.5 LW
N
220.032 31.5 M
220.032 33.67 L
S
GR
GS
0.149 GC
2 setlinecap
1 LJ
0.5 LW
N
232.19 31.5 M
232.19 33.67 L
S
GR
GS
0.149 GC
2 setlinecap
1 LJ
0.5 LW
N
244.348 31.5 M
244.348 33.67 L
S
GR
GS
0.149 GC
2 setlinecap
1 LJ
0.5 LW
N
268.664 31.5 M
268.664 33.67 L
S
GR
GS
0.149 GC
2 setlinecap
1 LJ
0.5 LW
N
280.822 31.5 M
280.822 33.67 L
S
GR
GS
0.149 GC
2 setlinecap
1 LJ
0.5 LW
N
292.98 31.5 M
292.98 33.67 L
S
GR
GS
0.149 GC
2 setlinecap
1 LJ
0.5 LW
N
317.296 31.5 M
317.296 33.67 L
S
GR
GS
0.149 GC
2 setlinecap
1 LJ
0.5 LW
N
329.454 31.5 M
329.454 33.67 L
S
GR
GS
0.149 GC
2 setlinecap
1 LJ
0.5 LW
N
341.612 31.5 M
341.612 33.67 L
S
GR
GS
0.149 GC
2 setlinecap
1 LJ
0.5 LW
N
365.928 31.5 M
365.928 33.67 L
S
GR
GS
0.149 GC
2 setlinecap
1 LJ
0.5 LW
N
378.086 31.5 M
378.086 33.67 L
S
GR
GS
0.149 GC
2 setlinecap
1 LJ
0.5 LW
N
390.244 31.5 M
390.244 33.67 L
S
GR
GS
0.149 GC
2 setlinecap
1 LJ
0.5 LW
N
414.56 31.5 M
414.56 33.67 L
S
GR
GS
0.149 GC
2 setlinecap
1 LJ
0.5 LW
N
426.718 31.5 M
426.718 33.67 L
S
GR
GS
0.149 GC
2 setlinecap
1 LJ
0.5 LW
N
438.876 31.5 M
438.876 33.67 L
S
GR
GS
0.149 GC
2 setlinecap
1 LJ
0.5 LW
N
463.192 31.5 M
463.192 33.67 L
S
GR
GS
0.149 GC
2 setlinecap
1 LJ
0.5 LW
N
475.35 31.5 M
475.35 33.67 L
S
GR
GS
0.149 GC
2 setlinecap
1 LJ
0.5 LW
N
487.509 31.5 M
487.509 33.67 L
S
GR
GS
[1 0 0 1 110.60934 378.79977] CT
0.149 GC
/Helvetica 14 F
GS
[1 0 0 1 0 0] CT
-16 14 moveto 
1 -1 scale
(2000) t 
GR
GR
GS
[1 0 0 1 159.2415 378.79977] CT
0.149 GC
/Helvetica 14 F
GS
[1 0 0 1 0 0] CT
-16 14 moveto 
1 -1 scale
(4000) t 
GR
GR
GS
[1 0 0 1 207.87364 378.79977] CT
0.149 GC
/Helvetica 14 F
GS
[1 0 0 1 0 0] CT
-16 14 moveto 
1 -1 scale
(6000) t 
GR
GR
GS
[1 0 0 1 256.5058 378.79977] CT
0.149 GC
/Helvetica 14 F
GS
[1 0 0 1 0 0] CT
-16 14 moveto 
1 -1 scale
(8000) t 
GR
GR
GS
[1 0 0 1 305.13797 378.79977] CT
0.149 GC
/Helvetica 14 F
GS
[1 0 0 1 0 0] CT
-19.5 14 moveto 
1 -1 scale
(10000) t 
GR
GR
GS
[1 0 0 1 353.77011 378.79977] CT
0.149 GC
/Helvetica 14 F
GS
[1 0 0 1 0 0] CT
-19.5 14 moveto 
1 -1 scale
(12000) t 
GR
GR
GS
[1 0 0 1 402.40225 378.79977] CT
0.149 GC
/Helvetica 14 F
GS
[1 0 0 1 0 0] CT
-19.5 14 moveto 
1 -1 scale
(14000) t 
GR
GR
GS
[1 0 0 1 451.03442 378.79977] CT
0.149 GC
/Helvetica 14 F
GS
[1 0 0 1 0 0] CT
-19.5 14 moveto 
1 -1 scale
(16000) t 
GR
GR
GS
[1 0 0 1 499.66656 378.79977] CT
0.149 GC
/Helvetica 14 F
GS
[1 0 0 1 0 0] CT
-19.5 14 moveto 
1 -1 scale
(18000) t 
GR
GR
GS
[1 0 0 1 290.00021 396.29987] CT
0.149 GC
/Helvetica 15.4 F
GS
[1 0 0 1 0 0] CT
-42 15 moveto 
1 -1 scale
(Bitrate\(kb/s\)) t 
GR
GR
GS
0.149 GC
2 setlinecap
1 LJ
0.5 LW
N
73 374 M
73 31.5 L
S
GR
GS
0.149 GC
2 setlinecap
1 LJ
0.5 LW
N
507 374 M
507 31.5 L
S
GR
GS
0.149 GC
2 setlinecap
1 LJ
0.5 LW
N
73 358.162 M
77.34 358.162 L
S
GR
GS
0.149 GC
2 setlinecap
1 LJ
0.5 LW
N
73 314.478 M
77.34 314.478 L
S
GR
GS
0.149 GC
2 setlinecap
1 LJ
0.5 LW
N
73 270.795 M
77.34 270.795 L
S
GR
GS
0.149 GC
2 setlinecap
1 LJ
0.5 LW
N
73 227.111 M
77.34 227.111 L
S
GR
GS
0.149 GC
2 setlinecap
1 LJ
0.5 LW
N
73 183.428 M
77.34 183.428 L
S
GR
GS
0.149 GC
2 setlinecap
1 LJ
0.5 LW
N
73 139.744 M
77.34 139.744 L
S
GR
GS
0.149 GC
2 setlinecap
1 LJ
0.5 LW
N
73 96.061 M
77.34 96.061 L
S
GR
GS
0.149 GC
2 setlinecap
1 LJ
0.5 LW
N
73 52.378 M
77.34 52.378 L
S
GR
GS
0.149 GC
2 setlinecap
1 LJ
0.5 LW
N
507 358.162 M
502.66 358.162 L
S
GR
GS
0.149 GC
2 setlinecap
1 LJ
0.5 LW
N
507 314.478 M
502.66 314.478 L
S
GR
GS
0.149 GC
2 setlinecap
1 LJ
0.5 LW
N
507 270.795 M
502.66 270.795 L
S
GR
GS
0.149 GC
2 setlinecap
1 LJ
0.5 LW
N
507 227.111 M
502.66 227.111 L
S
GR
GS
0.149 GC
2 setlinecap
1 LJ
0.5 LW
N
507 183.428 M
502.66 183.428 L
S
GR
GS
0.149 GC
2 setlinecap
1 LJ
0.5 LW
N
507 139.744 M
502.66 139.744 L
S
GR
GS
0.149 GC
2 setlinecap
1 LJ
0.5 LW
N
507 96.061 M
502.66 96.061 L
S
GR
GS
0.149 GC
2 setlinecap
1 LJ
0.5 LW
N
507 52.378 M
502.66 52.378 L
S
GR
GS
0.149 GC
2 setlinecap
1 LJ
0.5 LW
N
73 366.898 M
75.17 366.898 L
S
GR
GS
0.149 GC
2 setlinecap
1 LJ
0.5 LW
N
73 349.425 M
75.17 349.425 L
S
GR
GS
0.149 GC
2 setlinecap
1 LJ
0.5 LW
N
73 340.688 M
75.17 340.688 L
S
GR
GS
0.149 GC
2 setlinecap
1 LJ
0.5 LW
N
73 331.952 M
75.17 331.952 L
S
GR
GS
0.149 GC
2 setlinecap
1 LJ
0.5 LW
N
73 323.215 M
75.17 323.215 L
S
GR
GS
0.149 GC
2 setlinecap
1 LJ
0.5 LW
N
73 305.742 M
75.17 305.742 L
S
GR
GS
0.149 GC
2 setlinecap
1 LJ
0.5 LW
N
73 297.005 M
75.17 297.005 L
S
GR
GS
0.149 GC
2 setlinecap
1 LJ
0.5 LW
N
73 288.268 M
75.17 288.268 L
S
GR
GS
0.149 GC
2 setlinecap
1 LJ
0.5 LW
N
73 279.531 M
75.17 279.531 L
S
GR
GS
0.149 GC
2 setlinecap
1 LJ
0.5 LW
N
73 262.058 M
75.17 262.058 L
S
GR
GS
0.149 GC
2 setlinecap
1 LJ
0.5 LW
N
73 253.321 M
75.17 253.321 L
S
GR
GS
0.149 GC
2 setlinecap
1 LJ
0.5 LW
N
73 244.585 M
75.17 244.585 L
S
GR
GS
0.149 GC
2 setlinecap
1 LJ
0.5 LW
N
73 235.848 M
75.17 235.848 L
S
GR
GS
0.149 GC
2 setlinecap
1 LJ
0.5 LW
N
73 218.375 M
75.17 218.375 L
S
GR
GS
0.149 GC
2 setlinecap
1 LJ
0.5 LW
N
73 209.638 M
75.17 209.638 L
S
GR
GS
0.149 GC
2 setlinecap
1 LJ
0.5 LW
N
73 200.901 M
75.17 200.901 L
S
GR
GS
0.149 GC
2 setlinecap
1 LJ
0.5 LW
N
73 192.164 M
75.17 192.164 L
S
GR
GS
0.149 GC
2 setlinecap
1 LJ
0.5 LW
N
73 174.691 M
75.17 174.691 L
S
GR
GS
0.149 GC
2 setlinecap
1 LJ
0.5 LW
N
73 165.954 M
75.17 165.954 L
S
GR
GS
0.149 GC
2 setlinecap
1 LJ
0.5 LW
N
73 157.218 M
75.17 157.218 L
S
GR
GS
0.149 GC
2 setlinecap
1 LJ
0.5 LW
N
73 148.481 M
75.17 148.481 L
S
GR
GS
0.149 GC
2 setlinecap
1 LJ
0.5 LW
N
73 131.008 M
75.17 131.008 L
S
GR
GS
0.149 GC
2 setlinecap
1 LJ
0.5 LW
N
73 122.271 M
75.17 122.271 L
S
GR
GS
0.149 GC
2 setlinecap
1 LJ
0.5 LW
N
73 113.535 M
75.17 113.535 L
S
GR
GS
0.149 GC
2 setlinecap
1 LJ
0.5 LW
N
73 104.798 M
75.17 104.798 L
S
GR
GS
0.149 GC
2 setlinecap
1 LJ
0.5 LW
N
73 87.325 M
75.17 87.325 L
S
GR
GS
0.149 GC
2 setlinecap
1 LJ
0.5 LW
N
73 78.588 M
75.17 78.588 L
S
GR
GS
0.149 GC
2 setlinecap
1 LJ
0.5 LW
N
73 69.851 M
75.17 69.851 L
S
GR
GS
0.149 GC
2 setlinecap
1 LJ
0.5 LW
N
73 61.114 M
75.17 61.114 L
S
GR
GS
0.149 GC
2 setlinecap
1 LJ
0.5 LW
N
73 43.641 M
75.17 43.641 L
S
GR
GS
0.149 GC
2 setlinecap
1 LJ
0.5 LW
N
73 34.904 M
75.17 34.904 L
S
GR
GS
0.149 GC
2 setlinecap
1 LJ
0.5 LW
N
507 366.898 M
504.83 366.898 L
S
GR
GS
0.149 GC
2 setlinecap
1 LJ
0.5 LW
N
507 349.425 M
504.83 349.425 L
S
GR
GS
0.149 GC
2 setlinecap
1 LJ
0.5 LW
N
507 340.688 M
504.83 340.688 L
S
GR
GS
0.149 GC
2 setlinecap
1 LJ
0.5 LW
N
507 331.952 M
504.83 331.952 L
S
GR
GS
0.149 GC
2 setlinecap
1 LJ
0.5 LW
N
507 323.215 M
504.83 323.215 L
S
GR
GS
0.149 GC
2 setlinecap
1 LJ
0.5 LW
N
507 305.742 M
504.83 305.742 L
S
GR
GS
0.149 GC
2 setlinecap
1 LJ
0.5 LW
N
507 297.005 M
504.83 297.005 L
S
GR
GS
0.149 GC
2 setlinecap
1 LJ
0.5 LW
N
507 288.268 M
504.83 288.268 L
S
GR
GS
0.149 GC
2 setlinecap
1 LJ
0.5 LW
N
507 279.531 M
504.83 279.531 L
S
GR
GS
0.149 GC
2 setlinecap
1 LJ
0.5 LW
N
507 262.058 M
504.83 262.058 L
S
GR
GS
0.149 GC
2 setlinecap
1 LJ
0.5 LW
N
507 253.321 M
504.83 253.321 L
S
GR
GS
0.149 GC
2 setlinecap
1 LJ
0.5 LW
N
507 244.585 M
504.83 244.585 L
S
GR
GS
0.149 GC
2 setlinecap
1 LJ
0.5 LW
N
507 235.848 M
504.83 235.848 L
S
GR
GS
0.149 GC
2 setlinecap
1 LJ
0.5 LW
N
507 218.375 M
504.83 218.375 L
S
GR
GS
0.149 GC
2 setlinecap
1 LJ
0.5 LW
N
507 209.638 M
504.83 209.638 L
S
GR
GS
0.149 GC
2 setlinecap
1 LJ
0.5 LW
N
507 200.901 M
504.83 200.901 L
S
GR
GS
0.149 GC
2 setlinecap
1 LJ
0.5 LW
N
507 192.164 M
504.83 192.164 L
S
GR
GS
0.149 GC
2 setlinecap
1 LJ
0.5 LW
N
507 174.691 M
504.83 174.691 L
S
GR
GS
0.149 GC
2 setlinecap
1 LJ
0.5 LW
N
507 165.954 M
504.83 165.954 L
S
GR
GS
0.149 GC
2 setlinecap
1 LJ
0.5 LW
N
507 157.218 M
504.83 157.218 L
S
GR
GS
0.149 GC
2 setlinecap
1 LJ
0.5 LW
N
507 148.481 M
504.83 148.481 L
S
GR
GS
0.149 GC
2 setlinecap
1 LJ
0.5 LW
N
507 131.008 M
504.83 131.008 L
S
GR
GS
0.149 GC
2 setlinecap
1 LJ
0.5 LW
N
507 122.271 M
504.83 122.271 L
S
GR
GS
0.149 GC
2 setlinecap
1 LJ
0.5 LW
N
507 113.535 M
504.83 113.535 L
S
GR
GS
0.149 GC
2 setlinecap
1 LJ
0.5 LW
N
507 104.798 M
504.83 104.798 L
S
GR
GS
0.149 GC
2 setlinecap
1 LJ
0.5 LW
N
507 87.325 M
504.83 87.325 L
S
GR
GS
0.149 GC
2 setlinecap
1 LJ
0.5 LW
N
507 78.588 M
504.83 78.588 L
S
GR
GS
0.149 GC
2 setlinecap
1 LJ
0.5 LW
N
507 69.851 M
504.83 69.851 L
S
GR
GS
0.149 GC
2 setlinecap
1 LJ
0.5 LW
N
507 61.114 M
504.83 61.114 L
S
GR
GS
0.149 GC
2 setlinecap
1 LJ
0.5 LW
N
507 43.641 M
504.83 43.641 L
S
GR
GS
0.149 GC
2 setlinecap
1 LJ
0.5 LW
N
507 34.904 M
504.83 34.904 L
S
GR
GS
[1 0 0 1 68.2 358.16153] CT
0.149 GC
/Helvetica 14 F
GS
[1 0 0 1 0 0] CT
-16 5.5 moveto 
1 -1 scale
(38) t 
GR
GR
GS
[1 0 0 1 68.2 314.47812] CT
0.149 GC
/Helvetica 14 F
GS
[1 0 0 1 0 0] CT
-28 5.5 moveto 
1 -1 scale
(38.5) t 
GR
GR
GS
[1 0 0 1 68.2 270.79471] CT
0.149 GC
/Helvetica 14 F
GS
[1 0 0 1 0 0] CT
-16 5.5 moveto 
1 -1 scale
(39) t 
GR
GR
GS
[1 0 0 1 68.2 227.11131] CT
0.149 GC
/Helvetica 14 F
GS
[1 0 0 1 0 0] CT
-28 5.5 moveto 
1 -1 scale
(39.5) t 
GR
GR
GS
[1 0 0 1 68.2 183.4279] CT
0.149 GC
/Helvetica 14 F
GS
[1 0 0 1 0 0] CT
-16 5.5 moveto 
1 -1 scale
(40) t 
GR
GR
GS
[1 0 0 1 68.2 139.74449] CT
0.149 GC
/Helvetica 14 F
GS
[1 0 0 1 0 0] CT
-28 5.5 moveto 
1 -1 scale
(40.5) t 
GR
GR
GS
[1 0 0 1 68.2 96.06109] CT
0.149 GC
/Helvetica 14 F
GS
[1 0 0 1 0 0] CT
-16 5.5 moveto 
1 -1 scale
(41) t 
GR
GR
GS
[1 0 0 1 68.2 52.37768] CT
0.149 GC
/Helvetica 14 F
GS
[1 0 0 1 0 0] CT
-28 5.5 moveto 
1 -1 scale
(41.5) t 
GR
GR
GS
[0 -1 1 0 37.7 202.75003] CT
0.149 GC
/Helvetica 15.4 F
GS
[1 0 0 1 0 0] CT
-44 -4 moveto 
1 -1 scale
(PSNR V \(dB\)) t 
GR
GR
GS
[1 0 0 1 290.00027 29.57514] CT
/Helvetica-Bold 15.4 F
GS
[1 0 0 1 0 0] CT
-148.5 -4 moveto 
1 -1 scale
(OldTownCross_1920x1080p50.y4m-hevc) t 
GR
GR
GS
0 0.447 0.741 RC
1 LJ
0.5 LW
N
73.65 361.177 M
74.136 359.169 L
74.623 357.151 L
75.109 355.123 L
75.595 353.085 L
76.082 351.036 L
76.568 348.977 L
77.054 346.907 L
77.541 344.826 L
78.027 342.734 L
78.513 340.63 L
78.999 338.515 L
79.486 336.388 L
79.972 334.249 L
80.458 332.098 L
80.945 329.933 L
81.431 327.757 L
81.917 325.567 L
82.404 323.364 L
82.89 321.147 L
83.376 318.917 L
83.863 316.674 L
84.349 314.416 L
84.835 312.13 L
85.322 309.792 L
85.808 307.404 L
86.294 304.971 L
86.781 302.495 L
87.267 299.982 L
87.753 297.432 L
88.24 294.852 L
88.726 292.243 L
89.212 289.61 L
89.699 286.957 L
90.185 284.286 L
90.671 281.602 L
91.158 278.907 L
91.644 276.206 L
92.13 273.503 L
92.616 270.8 L
93.103 268.101 L
93.589 265.41 L
94.075 262.731 L
94.562 260.066 L
95.048 257.421 L
95.534 254.797 L
96.021 252.199 L
96.507 249.631 L
96.993 247.095 L
97.48 244.595 L
97.966 242.136 L
98.452 239.721 L
98.939 237.352 L
99.425 235.035 L
99.911 232.771 L
100.398 230.566 L
100.884 228.422 L
101.37 226.343 L
101.857 224.333 L
102.343 222.395 L
102.829 220.533 L
103.316 218.741 L
103.802 216.961 L
104.288 215.183 L
104.775 213.406 L
105.261 211.633 L
105.747 209.862 L
106.233 208.094 L
106.72 206.331 L
107.206 204.571 L
107.692 202.816 L
108.179 201.066 L
108.665 199.322 L
109.151 197.583 L
109.638 195.85 L
110.124 194.124 L
110.61 192.404 L
111.097 190.693 L
111.583 188.989 L
112.069 187.293 L
112.556 185.606 L
113.042 183.927 L
113.528 182.258 L
114.015 180.599 L
114.501 178.951 L
114.987 177.313 L
115.474 175.686 L
115.96 174.07 L
116.446 172.466 L
116.933 170.875 L
117.419 169.296 L
117.905 167.73 L
118.392 166.178 L
118.878 164.64 L
119.364 163.116 L
119.85 161.606 L
120.337 160.112 L
120.823 158.633 L
121.309 157.171 L
121.796 155.724 L
122.282 154.294 L
122.768 152.882 L
123.255 151.487 L
123.741 150.11 L
124.227 148.751 L
124.714 147.412 L
125.2 146.091 L
125.686 144.79 L
126.173 143.509 L
126.659 142.248 L
127.145 141.008 L
127.632 139.789 L
128.118 138.592 L
128.604 137.417 L
129.091 136.265 L
129.577 135.135 L
130.063 134.028 L
130.55 132.946 L
131.036 131.887 L
131.522 130.853 L
132.009 129.843 L
132.495 128.859 L
132.981 127.9 L
133.467 126.968 L
133.954 126.062 L
134.44 125.183 L
134.926 124.332 L
135.413 123.508 L
135.899 122.712 L
136.385 121.945 L
136.872 121.207 L
137.358 120.498 L
137.844 119.818 L
138.331 119.169 L
138.817 118.551 L
139.303 117.963 L
139.79 117.407 L
140.276 116.883 L
140.762 116.391 L
141.249 115.931 L
141.735 115.488 L
142.221 115.046 L
142.708 114.605 L
143.194 114.166 L
143.68 113.728 L
144.167 113.291 L
144.653 112.855 L
145.139 112.421 L
145.626 111.988 L
146.112 111.556 L
146.598 111.126 L
147.085 110.697 L
147.571 110.269 L
148.057 109.842 L
148.543 109.417 L
149.03 108.993 L
149.516 108.571 L
150.002 108.149 L
150.489 107.729 L
150.975 107.311 L
151.461 106.893 L
151.948 106.477 L
152.434 106.062 L
152.92 105.648 L
153.407 105.236 L
153.893 104.825 L
154.379 104.415 L
154.866 104.007 L
155.352 103.6 L
155.838 103.194 L
156.325 102.789 L
156.811 102.386 L
157.297 101.984 L
157.784 101.584 L
158.27 101.184 L
158.756 100.786 L
159.243 100.389 L
159.729 99.993 L
160.215 99.599 L
160.702 99.206 L
161.188 98.815 L
161.674 98.424 L
162.16 98.035 L
162.647 97.647 L
163.133 97.261 L
163.619 96.876 L
164.106 96.492 L
164.592 96.109 L
165.078 95.727 L
165.565 95.348 L
166.051 94.969 L
166.537 94.591 L
167.024 94.215 L
167.51 93.84 L
167.996 93.466 L
168.483 93.094 L
168.969 92.723 L
169.455 92.353 L
169.942 91.984 L
170.428 91.617 L
170.914 91.251 L
171.401 90.886 L
171.887 90.523 L
172.373 90.161 L
172.86 89.8 L
173.346 89.44 L
173.832 89.082 L
174.319 88.725 L
174.805 88.369 L
175.291 88.015 L
175.777 87.661 L
176.264 87.31 L
176.75 86.959 L
177.236 86.61 L
177.723 86.262 L
178.209 85.915 L
178.695 85.569 L
179.182 85.225 L
179.668 84.882 L
180.154 84.541 L
180.641 84.2 L
181.127 83.861 L
181.613 83.523 L
182.1 83.187 L
182.586 82.851 L
183.072 82.517 L
183.559 82.185 L
184.045 81.853 L
184.531 81.523 L
185.018 81.194 L
185.504 80.867 L
185.99 80.54 L
186.477 80.215 L
186.963 79.891 L
187.449 79.569 L
187.936 79.248 L
188.422 78.928 L
188.908 78.609 L
189.394 78.291 L
189.881 77.975 L
190.367 77.66 L
190.853 77.347 L
191.34 77.035 L
191.826 76.723 L
192.312 76.414 L
192.799 76.105 L
193.285 75.798 L
193.771 75.492 L
194.258 75.187 L
194.744 74.884 L
195.23 74.582 L
195.717 74.281 L
196.203 73.981 L
196.689 73.683 L
197.176 73.386 L
197.662 73.09 L
198.148 72.795 L
198.635 72.502 L
199.121 72.21 L
199.607 71.919 L
200.094 71.63 L
200.58 71.342 L
201.066 71.055 L
201.553 70.769 L
202.039 70.485 L
202.525 70.202 L
203.011 69.92 L
203.498 69.639 L
203.984 69.36 L
204.47 69.082 L
204.957 68.805 L
205.443 68.53 L
205.929 68.255 L
206.416 67.982 L
206.902 67.71 L
207.388 67.44 L
207.875 67.171 L
208.361 66.903 L
208.847 66.636 L
209.334 66.371 L
209.82 66.107 L
210.306 65.844 L
210.793 65.582 L
211.279 65.322 L
211.765 65.063 L
212.252 64.805 L
212.738 64.549 L
213.224 64.293 L
213.711 64.039 L
214.197 63.786 L
214.683 63.535 L
215.17 63.285 L
215.656 63.036 L
216.142 62.788 L
216.628 62.542 L
217.115 62.296 L
217.601 62.052 L
218.087 61.81 L
218.574 61.568 L
219.06 61.328 L
219.546 61.089 L
220.033 60.852 L
220.519 60.615 L
221.005 60.38 L
221.492 60.146 L
221.978 59.914 L
222.464 59.682 L
222.951 59.452 L
223.437 59.224 L
223.923 58.996 L
224.41 58.77 L
224.896 58.545 L
225.382 58.321 L
225.869 58.098 L
226.355 57.877 L
226.841 57.657 L
227.328 57.438 L
227.814 57.221 L
228.3 57.004 L
228.787 56.789 L
229.273 56.576 L
229.759 56.363 L
230.245 56.152 L
230.732 55.942 L
231.218 55.733 L
231.704 55.525 L
232.191 55.32 L
232.677 55.114 L
233.163 54.911 L
233.65 54.708 L
234.136 54.507 L
234.622 54.307 L
235.109 54.108 L
235.595 53.911 L
236.081 53.715 L
236.568 53.52 L
237.054 53.326 L
237.54 53.134 L
238.027 52.942 L
238.513 52.752 L
238.999 52.564 L
239.486 52.376 L
239.972 52.19 L
240.458 52.005 L
240.945 51.821 L
241.431 51.639 L
241.917 51.458 L
242.404 51.278 L
242.89 51.099 L
243.376 50.922 L
243.862 50.745 L
244.349 50.57 L
244.835 50.397 L
245.321 50.224 L
245.808 50.053 L
246.294 49.883 L
246.78 49.714 L
247.267 49.547 L
247.753 49.381 L
248.239 49.216 L
248.726 49.052 L
249.212 48.889 L
249.698 48.728 L
250.185 48.568 L
250.671 48.409 L
251.157 48.252 L
251.644 48.095 L
252.13 47.94 L
252.616 47.787 L
253.103 47.634 L
253.589 47.483 L
254.075 47.333 L
254.562 47.184 L
255.048 47.037 L
255.534 46.89 L
256.021 46.745 L
256.507 46.601 L
256.993 46.459 L
257.479 46.317 L
257.966 46.177 L
258.452 46.038 L
258.938 45.9 L
259.425 45.764 L
259.911 45.629 L
260.397 45.495 L
260.884 45.363 L
261.37 45.231 L
261.856 45.101 L
262.343 44.972 L
262.829 44.844 L
263.315 44.718 L
263.802 44.592 L
264.288 44.468 L
264.774 44.346 L
265.261 44.224 L
265.747 44.104 L
266.233 43.985 L
266.72 43.867 L
267.206 43.75 L
267.692 43.635 L
268.179 43.521 L
268.665 43.408 L
269.151 43.297 L
269.638 43.186 L
270.124 43.077 L
270.61 42.969 L
271.096 42.862 L
271.583 42.757 L
272.069 42.653 L
272.555 42.55 L
273.042 42.448 L
273.528 42.347 L
274.014 42.248 L
274.501 42.15 L
274.987 42.053 L
275.473 41.958 L
275.96 41.863 L
276.446 41.77 L
276.932 41.678 L
277.419 41.588 L
277.905 41.498 L
278.391 41.41 L
278.878 41.323 L
279.364 41.238 L
279.85 41.153 L
280.337 41.07 L
280.823 40.988 L
281.309 40.907 L
281.796 40.827 L
282.282 40.749 L
282.768 40.672 L
283.255 40.596 L
283.741 40.521 L
284.227 40.448 L
284.714 40.376 L
285.2 40.305 L
285.686 40.235 L
286.172 40.166 L
286.659 40.099 L
287.145 40.033 L
287.631 39.968 L
288.118 39.905 L
288.604 39.842 L
289.09 39.781 L
289.577 39.721 L
290.063 39.662 L
290.549 39.605 L
291.036 39.549 L
291.522 39.494 L
292.008 39.44 L
292.495 39.388 L
292.981 39.336 L
293.467 39.286 L
293.954 39.237 L
294.44 39.19 L
294.926 39.143 L
295.413 39.098 L
295.899 39.054 L
296.385 39.011 L
296.872 38.97 L
297.358 38.929 L
297.844 38.89 L
298.331 38.852 L
298.817 38.816 L
299.303 38.78 L
299.789 38.746 L
300.276 38.713 L
300.762 38.681 L
301.248 38.651 L
301.735 38.621 L
302.221 38.593 L
302.707 38.566 L
303.194 38.541 L
303.68 38.516 L
304.166 38.493 L
304.653 38.471 L
305.139 38.45 L
305.625 38.431 L
306.112 38.412 L
306.598 38.395 L
307.084 38.379 L
307.571 38.365 L
308.057 38.351 L
308.543 38.339 L
309.03 38.328 L
309.516 38.318 L
310.002 38.309 L
310.489 38.302 L
310.975 38.296 L
311.461 38.291 L
311.948 38.287 L
312.434 38.284 L
312.92 38.283 L
S
GR
GS
0.851 0.325 0.098 RC
1 LJ
0.5 LW
N
74.053 356.211 M
74.54 354.238 L
75.026 352.257 L
75.512 350.267 L
75.999 348.267 L
76.485 346.258 L
76.971 344.239 L
77.457 342.21 L
77.944 340.17 L
78.43 338.121 L
78.916 336.06 L
79.403 333.989 L
79.889 331.907 L
80.375 329.813 L
80.862 327.708 L
81.348 325.591 L
81.834 323.462 L
82.321 321.321 L
82.807 319.168 L
83.293 317.003 L
83.78 314.824 L
84.266 312.633 L
84.752 310.429 L
85.239 308.207 L
85.725 305.941 L
86.211 303.625 L
86.698 301.263 L
87.184 298.86 L
87.67 296.417 L
88.157 293.94 L
88.643 291.43 L
89.129 288.892 L
89.616 286.328 L
90.102 283.743 L
90.588 281.139 L
91.074 278.52 L
91.561 275.89 L
92.047 273.25 L
92.533 270.606 L
93.02 267.961 L
93.506 265.317 L
93.992 262.678 L
94.479 260.047 L
94.965 257.429 L
95.451 254.825 L
95.938 252.241 L
96.424 249.678 L
96.91 247.141 L
97.397 244.632 L
97.883 242.156 L
98.369 239.715 L
98.856 237.313 L
99.342 234.953 L
99.828 232.639 L
100.315 230.373 L
100.801 228.16 L
101.287 226.003 L
101.774 223.905 L
102.26 221.87 L
102.746 219.9 L
103.233 217.999 L
103.719 216.171 L
104.205 214.419 L
104.691 212.701 L
105.178 210.983 L
105.664 209.267 L
106.15 207.554 L
106.637 205.843 L
107.123 204.134 L
107.609 202.429 L
108.096 200.728 L
108.582 199.031 L
109.068 197.338 L
109.555 195.649 L
110.041 193.966 L
110.527 192.289 L
111.014 190.617 L
111.5 188.952 L
111.986 187.293 L
112.473 185.641 L
112.959 183.997 L
113.445 182.361 L
113.932 180.733 L
114.418 179.113 L
114.904 177.502 L
115.391 175.901 L
115.877 174.309 L
116.363 172.728 L
116.85 171.157 L
117.336 169.597 L
117.822 168.048 L
118.308 166.51 L
118.795 164.985 L
119.281 163.472 L
119.767 161.972 L
120.254 160.485 L
120.74 159.012 L
121.226 157.552 L
121.713 156.107 L
122.199 154.676 L
122.685 153.261 L
123.172 151.86 L
123.658 150.476 L
124.144 149.108 L
124.631 147.756 L
125.117 146.422 L
125.603 145.104 L
126.09 143.805 L
126.576 142.523 L
127.062 141.26 L
127.549 140.016 L
128.035 138.791 L
128.521 137.586 L
129.008 136.401 L
129.494 135.236 L
129.98 134.091 L
130.467 132.969 L
130.953 131.867 L
131.439 130.787 L
131.925 129.73 L
132.412 128.695 L
132.898 127.684 L
133.384 126.696 L
133.871 125.731 L
134.357 124.791 L
134.843 123.875 L
135.33 122.985 L
135.816 122.119 L
136.302 121.28 L
136.789 120.466 L
137.275 119.679 L
137.761 118.919 L
138.248 118.186 L
138.734 117.481 L
139.22 116.803 L
139.707 116.154 L
140.193 115.534 L
140.679 114.943 L
141.166 114.381 L
141.652 113.849 L
142.138 113.348 L
142.625 112.877 L
143.111 112.438 L
143.597 112.029 L
144.084 111.636 L
144.57 111.244 L
145.056 110.853 L
145.542 110.463 L
146.029 110.075 L
146.515 109.687 L
147.001 109.301 L
147.488 108.915 L
147.974 108.531 L
148.46 108.147 L
148.947 107.765 L
149.433 107.384 L
149.919 107.004 L
150.406 106.625 L
150.892 106.247 L
151.378 105.87 L
151.865 105.494 L
152.351 105.119 L
152.837 104.746 L
153.324 104.373 L
153.81 104.001 L
154.296 103.631 L
154.783 103.262 L
155.269 102.894 L
155.755 102.526 L
156.242 102.16 L
156.728 101.795 L
157.214 101.431 L
157.701 101.068 L
158.187 100.706 L
158.673 100.346 L
159.159 99.986 L
159.646 99.627 L
160.132 99.27 L
160.618 98.913 L
161.105 98.558 L
161.591 98.203 L
162.077 97.85 L
162.564 97.498 L
163.05 97.147 L
163.536 96.797 L
164.023 96.447 L
164.509 96.099 L
164.995 95.752 L
165.482 95.407 L
165.968 95.062 L
166.454 94.718 L
166.941 94.375 L
167.427 94.034 L
167.913 93.693 L
168.4 93.354 L
168.886 93.015 L
169.372 92.678 L
169.859 92.341 L
170.345 92.006 L
170.831 91.672 L
171.318 91.339 L
171.804 91.007 L
172.29 90.676 L
172.777 90.345 L
173.263 90.016 L
173.749 89.688 L
174.235 89.362 L
174.722 89.036 L
175.208 88.711 L
175.694 88.387 L
176.181 88.065 L
176.667 87.743 L
177.153 87.423 L
177.64 87.103 L
178.126 86.785 L
178.612 86.467 L
179.099 86.151 L
179.585 85.835 L
180.071 85.521 L
180.558 85.208 L
181.044 84.896 L
181.53 84.585 L
182.017 84.274 L
182.503 83.965 L
182.989 83.657 L
183.476 83.35 L
183.962 83.044 L
184.448 82.739 L
184.935 82.435 L
185.421 82.133 L
185.907 81.831 L
186.394 81.53 L
186.88 81.23 L
187.366 80.932 L
187.852 80.634 L
188.339 80.337 L
188.825 80.042 L
189.311 79.747 L
189.798 79.454 L
190.284 79.161 L
190.77 78.87 L
191.257 78.579 L
191.743 78.29 L
192.229 78.001 L
192.716 77.714 L
193.202 77.428 L
193.688 77.142 L
194.175 76.858 L
194.661 76.575 L
195.147 76.293 L
195.634 76.011 L
196.12 75.731 L
196.606 75.452 L
197.093 75.174 L
197.579 74.897 L
198.065 74.621 L
198.552 74.346 L
199.038 74.072 L
199.524 73.799 L
200.011 73.527 L
200.497 73.256 L
200.983 72.986 L
201.469 72.717 L
201.956 72.449 L
202.442 72.182 L
202.928 71.916 L
203.415 71.651 L
203.901 71.388 L
204.387 71.125 L
204.874 70.863 L
205.36 70.602 L
205.846 70.342 L
206.333 70.084 L
206.819 69.826 L
207.305 69.569 L
207.792 69.314 L
208.278 69.059 L
208.764 68.805 L
209.251 68.552 L
209.737 68.301 L
210.223 68.05 L
210.71 67.8 L
211.196 67.552 L
211.682 67.304 L
212.169 67.057 L
212.655 66.812 L
213.141 66.567 L
213.628 66.323 L
214.114 66.081 L
214.6 65.839 L
215.086 65.598 L
215.573 65.359 L
216.059 65.12 L
216.545 64.883 L
217.032 64.646 L
217.518 64.411 L
218.004 64.176 L
218.491 63.942 L
218.977 63.71 L
219.463 63.478 L
219.95 63.248 L
220.436 63.018 L
220.922 62.789 L
221.409 62.562 L
221.895 62.335 L
222.381 62.109 L
222.868 61.885 L
223.354 61.661 L
223.84 61.438 L
224.327 61.217 L
224.813 60.996 L
225.299 60.776 L
225.786 60.558 L
226.272 60.34 L
226.758 60.123 L
227.245 59.907 L
227.731 59.693 L
228.217 59.479 L
228.703 59.266 L
229.19 59.055 L
229.676 58.844 L
230.162 58.634 L
230.649 58.425 L
231.135 58.217 L
231.621 58.01 L
232.108 57.804 L
232.594 57.599 L
233.08 57.396 L
233.567 57.193 L
234.053 56.991 L
234.539 56.79 L
235.026 56.59 L
235.512 56.391 L
235.998 56.193 L
236.485 55.996 L
236.971 55.8 L
237.457 55.604 L
237.944 55.411 L
238.43 55.217 L
238.916 55.025 L
239.403 54.834 L
239.889 54.644 L
240.375 54.455 L
240.862 54.266 L
241.348 54.079 L
241.834 53.893 L
242.32 53.707 L
242.807 53.523 L
243.293 53.34 L
243.779 53.157 L
244.266 52.976 L
244.752 52.795 L
245.238 52.616 L
245.725 52.437 L
246.211 52.259 L
246.697 52.083 L
247.184 51.907 L
247.67 51.732 L
248.156 51.558 L
248.643 51.386 L
249.129 51.214 L
249.615 51.043 L
250.102 50.873 L
250.588 50.704 L
251.074 50.536 L
251.561 50.369 L
252.047 50.203 L
252.533 50.038 L
253.02 49.874 L
253.506 49.711 L
253.992 49.549 L
254.479 49.388 L
254.965 49.227 L
255.451 49.068 L
255.937 48.91 L
256.424 48.752 L
256.91 48.596 L
257.396 48.44 L
257.883 48.285 L
258.369 48.132 L
258.855 47.979 L
259.342 47.827 L
259.828 47.677 L
260.314 47.527 L
260.801 47.378 L
261.287 47.23 L
261.773 47.083 L
262.26 46.937 L
262.746 46.792 L
263.232 46.648 L
263.719 46.505 L
264.205 46.362 L
264.691 46.221 L
265.178 46.081 L
265.664 45.941 L
266.15 45.803 L
266.637 45.665 L
267.123 45.529 L
267.609 45.393 L
268.096 45.259 L
268.582 45.125 L
269.068 44.992 L
269.554 44.86 L
270.041 44.729 L
270.527 44.599 L
271.013 44.47 L
271.5 44.342 L
271.986 44.215 L
272.472 44.088 L
272.959 43.963 L
273.445 43.839 L
273.931 43.715 L
274.418 43.593 L
274.904 43.471 L
275.39 43.351 L
275.877 43.231 L
276.363 43.112 L
276.849 42.994 L
277.336 42.877 L
277.822 42.761 L
278.308 42.646 L
278.795 42.532 L
279.281 42.419 L
279.767 42.307 L
280.254 42.195 L
280.74 42.085 L
281.226 41.975 L
281.713 41.867 L
282.199 41.759 L
282.685 41.652 L
283.171 41.547 L
283.658 41.442 L
284.144 41.338 L
284.63 41.235 L
285.117 41.133 L
285.603 41.032 L
286.089 40.931 L
286.576 40.832 L
287.062 40.734 L
287.548 40.636 L
288.035 40.539 L
288.521 40.444 L
289.007 40.349 L
289.494 40.255 L
289.98 40.162 L
290.466 40.07 L
290.953 39.979 L
291.439 39.889 L
291.925 39.799 L
292.412 39.711 L
292.898 39.624 L
293.384 39.537 L
293.871 39.451 L
294.357 39.367 L
294.843 39.283 L
295.33 39.2 L
295.816 39.118 L
296.302 39.037 L
296.788 38.957 L
297.275 38.878 L
297.761 38.799 L
298.247 38.722 L
298.734 38.645 L
299.22 38.57 L
299.706 38.495 L
300.193 38.421 L
300.679 38.348 L
301.165 38.276 L
301.652 38.205 L
302.138 38.135 L
302.624 38.065 L
303.111 37.997 L
303.597 37.929 L
304.083 37.863 L
304.57 37.797 L
305.056 37.732 L
305.542 37.668 L
306.029 37.605 L
306.515 37.543 L
307.001 37.482 L
307.488 37.421 L
307.974 37.362 L
308.46 37.304 L
308.947 37.246 L
309.433 37.189 L
309.919 37.133 L
310.405 37.078 L
310.892 37.024 L
311.378 36.971 L
311.864 36.919 L
312.351 36.867 L
312.837 36.817 L
313.323 36.767 L
313.81 36.718 L
314.296 36.67 L
314.782 36.623 L
315.269 36.577 L
315.755 36.532 L
316.241 36.488 L
316.728 36.444 L
317.214 36.402 L
317.7 36.36 L
318.187 36.319 L
318.673 36.279 L
319.159 36.24 L
319.646 36.202 L
320.132 36.165 L
320.618 36.128 L
321.105 36.093 L
321.591 36.058 L
322.077 36.024 L
322.564 35.991 L
323.05 35.959 L
323.536 35.928 L
324.022 35.898 L
324.509 35.868 L
324.995 35.84 L
325.481 35.812 L
325.968 35.786 L
326.454 35.76 L
326.94 35.735 L
327.427 35.71 L
327.913 35.687 L
328.399 35.665 L
328.886 35.643 L
329.372 35.623 L
329.858 35.603 L
330.345 35.584 L
330.831 35.566 L
331.317 35.549 L
331.804 35.532 L
332.29 35.517 L
332.776 35.502 L
333.263 35.488 L
333.749 35.476 L
334.235 35.464 L
334.722 35.452 L
335.208 35.442 L
335.694 35.433 L
336.181 35.424 L
336.667 35.417 L
337.153 35.41 L
337.639 35.404 L
338.126 35.399 L
338.612 35.395 L
339.098 35.391 L
339.585 35.389 L
340.071 35.387 L
340.557 35.386 L
S
GR
GS
0.929 0.694 0.125 RC
1 LJ
0.5 LW
N
73 374 M
73.486 371.812 L
73.973 369.617 L
74.459 367.414 L
74.945 365.204 L
75.432 362.985 L
75.918 360.759 L
76.404 358.524 L
76.891 356.281 L
77.377 354.029 L
77.863 351.768 L
78.35 349.498 L
78.836 347.219 L
79.322 344.93 L
79.809 342.631 L
80.295 340.323 L
80.781 338.004 L
81.267 335.675 L
81.754 333.336 L
82.24 330.985 L
82.726 328.624 L
83.213 326.251 L
83.699 323.863 L
84.185 321.433 L
84.672 318.956 L
85.158 316.439 L
85.644 313.883 L
86.131 311.292 L
86.617 308.669 L
87.103 306.019 L
87.59 303.344 L
88.076 300.647 L
88.562 297.934 L
89.049 295.205 L
89.535 292.465 L
90.021 289.718 L
90.508 286.967 L
90.994 284.215 L
91.48 281.466 L
91.967 278.723 L
92.453 275.989 L
92.939 273.269 L
93.426 270.564 L
93.912 267.88 L
94.398 265.218 L
94.884 262.583 L
95.371 259.979 L
95.857 257.407 L
96.343 254.873 L
96.83 252.378 L
97.316 249.928 L
97.802 247.525 L
98.289 245.171 L
98.775 242.872 L
99.261 240.631 L
99.748 238.45 L
100.234 236.333 L
100.72 234.284 L
101.207 232.305 L
101.693 230.4 L
102.179 228.52 L
102.666 226.639 L
103.152 224.759 L
103.638 222.879 L
104.125 221.001 L
104.611 219.125 L
105.097 217.251 L
105.584 215.38 L
106.07 213.512 L
106.556 211.648 L
107.043 209.789 L
107.529 207.935 L
108.015 206.087 L
108.501 204.244 L
108.988 202.408 L
109.474 200.579 L
109.96 198.758 L
110.447 196.946 L
110.933 195.141 L
111.419 193.346 L
111.906 191.561 L
112.392 189.786 L
112.878 188.022 L
113.365 186.269 L
113.851 184.528 L
114.337 182.799 L
114.824 181.083 L
115.31 179.381 L
115.796 177.692 L
116.283 176.018 L
116.769 174.359 L
117.255 172.716 L
117.742 171.088 L
118.228 169.477 L
118.714 167.883 L
119.201 166.307 L
119.687 164.749 L
120.173 163.21 L
120.66 161.689 L
121.146 160.189 L
121.632 158.708 L
122.118 157.249 L
122.605 155.81 L
123.091 154.394 L
123.577 153 L
124.064 151.629 L
124.55 150.281 L
125.036 148.957 L
125.523 147.657 L
126.009 146.382 L
126.495 145.133 L
126.982 143.91 L
127.468 142.713 L
127.954 141.544 L
128.441 140.402 L
128.927 139.288 L
129.413 138.202 L
129.9 137.146 L
130.386 136.12 L
130.872 135.124 L
131.359 134.158 L
131.845 133.224 L
132.331 132.321 L
132.818 131.451 L
133.304 130.613 L
133.79 129.809 L
134.277 129.039 L
134.763 128.303 L
135.249 127.602 L
135.735 126.937 L
136.222 126.307 L
136.708 125.714 L
137.194 125.158 L
137.681 124.64 L
138.167 124.155 L
138.653 123.677 L
139.14 123.2 L
139.626 122.725 L
140.112 122.251 L
140.599 121.778 L
141.085 121.308 L
141.571 120.838 L
142.058 120.37 L
142.544 119.903 L
143.03 119.438 L
143.517 118.974 L
144.003 118.512 L
144.489 118.051 L
144.976 117.592 L
145.462 117.134 L
145.948 116.677 L
146.435 116.222 L
146.921 115.768 L
147.407 115.316 L
147.894 114.865 L
148.38 114.416 L
148.866 113.967 L
149.352 113.521 L
149.839 113.076 L
150.325 112.632 L
150.811 112.19 L
151.298 111.749 L
151.784 111.31 L
152.27 110.872 L
152.757 110.435 L
153.243 110 L
153.729 109.567 L
154.216 109.134 L
154.702 108.704 L
155.188 108.274 L
155.675 107.846 L
156.161 107.42 L
156.647 106.995 L
157.134 106.571 L
157.62 106.149 L
158.106 105.728 L
158.593 105.309 L
159.079 104.891 L
159.565 104.474 L
160.052 104.059 L
160.538 103.645 L
161.024 103.233 L
161.511 102.822 L
161.997 102.413 L
162.483 102.005 L
162.969 101.598 L
163.456 101.193 L
163.942 100.79 L
164.428 100.387 L
164.915 99.986 L
165.401 99.587 L
165.887 99.189 L
166.374 98.792 L
166.86 98.397 L
167.346 98.003 L
167.833 97.611 L
168.319 97.22 L
168.805 96.831 L
169.292 96.443 L
169.778 96.056 L
170.264 95.671 L
170.751 95.287 L
171.237 94.905 L
171.723 94.524 L
172.21 94.144 L
172.696 93.766 L
173.182 93.39 L
173.669 93.014 L
174.155 92.64 L
174.641 92.268 L
175.128 91.897 L
175.614 91.527 L
176.1 91.159 L
176.586 90.792 L
177.073 90.427 L
177.559 90.063 L
178.045 89.7 L
178.532 89.34 L
179.018 88.98 L
179.504 88.621 L
179.991 88.264 L
180.477 87.909 L
180.963 87.555 L
181.45 87.202 L
181.936 86.851 L
182.422 86.501 L
182.909 86.153 L
183.395 85.806 L
183.881 85.461 L
184.368 85.116 L
184.854 84.774 L
185.34 84.432 L
185.827 84.092 L
186.313 83.754 L
186.799 83.417 L
187.286 83.081 L
187.772 82.747 L
188.258 82.414 L
188.745 82.082 L
189.231 81.752 L
189.717 81.424 L
190.203 81.096 L
190.69 80.77 L
191.176 80.446 L
191.662 80.123 L
192.149 79.801 L
192.635 79.481 L
193.121 79.162 L
193.608 78.845 L
194.094 78.529 L
194.58 78.214 L
195.067 77.901 L
195.553 77.589 L
196.039 77.279 L
196.526 76.97 L
197.012 76.662 L
197.498 76.356 L
197.985 76.051 L
198.471 75.748 L
198.957 75.446 L
199.444 75.145 L
199.93 74.846 L
200.416 74.548 L
200.903 74.252 L
201.389 73.957 L
201.875 73.663 L
202.362 73.371 L
202.848 73.081 L
203.334 72.791 L
203.82 72.503 L
204.307 72.217 L
204.793 71.931 L
205.279 71.648 L
205.766 71.365 L
206.252 71.084 L
206.738 70.805 L
207.225 70.526 L
207.711 70.25 L
208.197 69.974 L
208.684 69.7 L
209.17 69.428 L
209.656 69.157 L
210.143 68.887 L
210.629 68.618 L
211.115 68.351 L
211.602 68.085 L
212.088 67.821 L
212.574 67.558 L
213.061 67.297 L
213.547 67.037 L
214.033 66.778 L
214.52 66.521 L
215.006 66.265 L
215.492 66.01 L
215.979 65.757 L
216.465 65.506 L
216.951 65.255 L
217.438 65.006 L
217.924 64.759 L
218.41 64.513 L
218.896 64.268 L
219.383 64.024 L
219.869 63.782 L
220.355 63.542 L
220.842 63.303 L
221.328 63.065 L
221.814 62.828 L
222.301 62.593 L
222.787 62.36 L
223.273 62.127 L
223.76 61.896 L
224.246 61.667 L
224.732 61.439 L
225.219 61.212 L
225.705 60.987 L
226.191 60.763 L
226.678 60.54 L
227.164 60.319 L
227.65 60.099 L
228.137 59.881 L
228.623 59.663 L
229.109 59.448 L
229.596 59.234 L
230.082 59.021 L
230.568 58.809 L
231.055 58.599 L
231.541 58.39 L
232.027 58.183 L
232.513 57.977 L
233 57.772 L
233.486 57.569 L
233.972 57.367 L
234.459 57.167 L
234.945 56.968 L
235.431 56.77 L
235.918 56.573 L
236.404 56.378 L
236.89 56.185 L
237.377 55.992 L
237.863 55.802 L
238.349 55.612 L
238.836 55.424 L
239.322 55.238 L
239.808 55.052 L
240.295 54.868 L
240.781 54.685 L
241.267 54.504 L
241.754 54.324 L
242.24 54.146 L
242.726 53.969 L
243.213 53.793 L
243.699 53.619 L
244.185 53.446 L
244.672 53.274 L
245.158 53.104 L
245.644 52.935 L
246.13 52.768 L
246.617 52.601 L
247.103 52.437 L
247.589 52.273 L
248.076 52.111 L
248.562 51.951 L
249.048 51.791 L
249.535 51.633 L
250.021 51.477 L
250.507 51.322 L
250.994 51.168 L
251.48 51.016 L
251.966 50.865 L
252.453 50.715 L
252.939 50.566 L
253.425 50.419 L
253.912 50.274 L
254.398 50.13 L
254.884 49.987 L
255.371 49.845 L
255.857 49.705 L
256.343 49.566 L
256.83 49.429 L
257.316 49.293 L
257.802 49.158 L
258.289 49.025 L
258.775 48.893 L
259.261 48.763 L
259.747 48.633 L
260.234 48.505 L
260.72 48.379 L
261.206 48.254 L
261.693 48.13 L
262.179 48.008 L
262.665 47.886 L
263.152 47.767 L
263.638 47.648 L
264.124 47.531 L
264.611 47.416 L
265.097 47.302 L
265.583 47.189 L
266.07 47.077 L
266.556 46.967 L
267.042 46.858 L
267.529 46.751 L
268.015 46.645 L
268.501 46.54 L
268.988 46.437 L
269.474 46.335 L
269.96 46.234 L
270.447 46.135 L
270.933 46.037 L
271.419 45.94 L
271.905 45.845 L
272.392 45.751 L
272.878 45.658 L
273.364 45.567 L
273.851 45.477 L
274.337 45.389 L
274.823 45.302 L
275.31 45.216 L
275.796 45.132 L
276.282 45.049 L
276.769 44.967 L
277.255 44.886 L
277.741 44.807 L
278.228 44.73 L
278.714 44.653 L
279.2 44.578 L
279.687 44.505 L
280.173 44.432 L
280.659 44.362 L
281.146 44.292 L
281.632 44.224 L
282.118 44.157 L
282.605 44.091 L
283.091 44.027 L
283.577 43.964 L
284.064 43.903 L
284.55 43.843 L
285.036 43.784 L
285.522 43.726 L
286.009 43.67 L
286.495 43.616 L
286.981 43.562 L
287.468 43.51 L
287.954 43.459 L
288.44 43.41 L
288.927 43.362 L
289.413 43.316 L
289.899 43.27 L
290.386 43.226 L
290.872 43.184 L
291.358 43.142 L
291.845 43.102 L
292.331 43.064 L
292.817 43.026 L
293.304 42.99 L
293.79 42.956 L
294.276 42.923 L
294.763 42.891 L
295.249 42.86 L
295.735 42.831 L
296.222 42.803 L
296.708 42.776 L
297.194 42.751 L
297.681 42.727 L
298.167 42.705 L
298.653 42.684 L
299.139 42.664 L
299.626 42.645 L
300.112 42.628 L
300.598 42.612 L
301.085 42.598 L
301.571 42.584 L
302.057 42.572 L
302.544 42.562 L
303.03 42.553 L
303.516 42.545 L
304.003 42.538 L
304.489 42.533 L
304.975 42.529 L
305.462 42.527 L
305.948 42.526 L
S
GR
GS
0.494 0.184 0.557 RC
1 LJ
0.5 LW
N
74.174 355.828 M
74.66 353.873 L
75.146 351.913 L
75.633 349.947 L
76.119 347.974 L
76.605 345.995 L
77.092 344.009 L
77.578 342.016 L
78.064 340.016 L
78.551 338.009 L
79.037 335.995 L
79.523 333.973 L
80.01 331.943 L
80.496 329.906 L
80.982 327.861 L
81.469 325.807 L
81.955 323.745 L
82.441 321.675 L
82.928 319.596 L
83.414 317.509 L
83.9 315.412 L
84.387 313.306 L
84.873 311.191 L
85.359 309.067 L
85.846 306.92 L
86.332 304.732 L
86.818 302.506 L
87.305 300.243 L
87.791 297.948 L
88.277 295.621 L
88.763 293.267 L
89.25 290.888 L
89.736 288.487 L
90.222 286.066 L
90.709 283.63 L
91.195 281.179 L
91.681 278.718 L
92.168 276.248 L
92.654 273.774 L
93.14 271.296 L
93.627 268.819 L
94.113 266.345 L
94.599 263.877 L
95.086 261.418 L
95.572 258.97 L
96.058 256.537 L
96.545 254.12 L
97.031 251.724 L
97.517 249.35 L
98.004 247.002 L
98.49 244.682 L
98.976 242.393 L
99.463 240.138 L
99.949 237.92 L
100.435 235.741 L
100.922 233.605 L
101.408 231.513 L
101.894 229.47 L
102.38 227.477 L
102.867 225.538 L
103.353 223.655 L
103.839 221.831 L
104.326 220.069 L
104.812 218.372 L
105.298 216.734 L
105.785 215.103 L
106.271 213.471 L
106.757 211.838 L
107.244 210.205 L
107.73 208.571 L
108.216 206.938 L
108.703 205.306 L
109.189 203.674 L
109.675 202.044 L
110.162 200.416 L
110.648 198.791 L
111.134 197.168 L
111.621 195.549 L
112.107 193.933 L
112.593 192.321 L
113.08 190.714 L
113.566 189.112 L
114.052 187.515 L
114.539 185.923 L
115.025 184.338 L
115.511 182.76 L
115.997 181.188 L
116.484 179.624 L
116.97 178.067 L
117.456 176.519 L
117.943 174.98 L
118.429 173.449 L
118.915 171.928 L
119.402 170.417 L
119.888 168.917 L
120.374 167.427 L
120.861 165.948 L
121.347 164.481 L
121.833 163.026 L
122.32 161.583 L
122.806 160.153 L
123.292 158.736 L
123.779 157.333 L
124.265 155.944 L
124.751 154.57 L
125.238 153.21 L
125.724 151.866 L
126.21 150.537 L
126.697 149.225 L
127.183 147.929 L
127.669 146.651 L
128.156 145.39 L
128.642 144.146 L
129.128 142.921 L
129.614 141.715 L
130.101 140.527 L
130.587 139.36 L
131.073 138.212 L
131.56 137.084 L
132.046 135.977 L
132.532 134.892 L
133.019 133.828 L
133.505 132.786 L
133.991 131.766 L
134.478 130.77 L
134.964 129.796 L
135.45 128.847 L
135.937 127.921 L
136.423 127.02 L
136.909 126.144 L
137.396 125.293 L
137.882 124.468 L
138.368 123.669 L
138.855 122.897 L
139.341 122.152 L
139.827 121.435 L
140.314 120.745 L
140.8 120.083 L
141.286 119.45 L
141.773 118.847 L
142.259 118.272 L
142.745 117.728 L
143.231 117.215 L
143.718 116.731 L
144.204 116.28 L
144.69 115.859 L
145.177 115.471 L
145.663 115.116 L
146.149 114.793 L
146.636 114.503 L
147.122 114.24 L
147.608 113.978 L
148.095 113.717 L
148.581 113.457 L
149.067 113.197 L
149.554 112.937 L
150.04 112.678 L
150.526 112.419 L
151.013 112.161 L
151.499 111.904 L
151.985 111.647 L
152.472 111.39 L
152.958 111.134 L
153.444 110.879 L
153.931 110.624 L
154.417 110.369 L
154.903 110.115 L
155.39 109.862 L
155.876 109.609 L
156.362 109.357 L
156.848 109.105 L
157.335 108.853 L
157.821 108.602 L
158.307 108.351 L
158.794 108.101 L
159.28 107.852 L
159.766 107.603 L
160.253 107.355 L
160.739 107.107 L
161.225 106.859 L
161.712 106.612 L
162.198 106.366 L
162.684 106.12 L
163.171 105.874 L
163.657 105.629 L
164.143 105.385 L
164.63 105.141 L
165.116 104.897 L
165.602 104.654 L
166.089 104.412 L
166.575 104.169 L
167.061 103.928 L
167.548 103.687 L
168.034 103.446 L
168.52 103.206 L
169.007 102.967 L
169.493 102.728 L
169.979 102.489 L
170.465 102.251 L
170.952 102.013 L
171.438 101.776 L
171.924 101.54 L
172.411 101.303 L
172.897 101.068 L
173.383 100.832 L
173.87 100.598 L
174.356 100.363 L
174.842 100.13 L
175.329 99.896 L
175.815 99.664 L
176.301 99.432 L
176.788 99.2 L
177.274 98.968 L
177.76 98.737 L
178.247 98.507 L
178.733 98.277 L
179.219 98.048 L
179.706 97.819 L
180.192 97.59 L
180.678 97.363 L
181.165 97.135 L
181.651 96.908 L
182.137 96.682 L
182.624 96.456 L
183.11 96.23 L
183.596 96.005 L
184.083 95.78 L
184.569 95.556 L
185.055 95.333 L
185.541 95.11 L
186.028 94.887 L
186.514 94.665 L
187 94.443 L
187.487 94.221 L
187.973 94.001 L
188.459 93.78 L
188.946 93.561 L
189.432 93.341 L
189.918 93.122 L
190.405 92.904 L
190.891 92.686 L
191.377 92.468 L
191.864 92.251 L
192.35 92.035 L
192.836 91.819 L
193.323 91.603 L
193.809 91.388 L
194.295 91.174 L
194.782 90.959 L
195.268 90.746 L
195.754 90.532 L
196.241 90.319 L
196.727 90.107 L
197.213 89.895 L
197.7 89.684 L
198.186 89.473 L
198.672 89.263 L
199.158 89.053 L
199.645 88.843 L
200.131 88.634 L
200.617 88.425 L
201.104 88.217 L
201.59 88.009 L
202.076 87.802 L
202.563 87.595 L
203.049 87.389 L
203.535 87.183 L
204.022 86.978 L
204.508 86.773 L
204.994 86.569 L
205.481 86.365 L
205.967 86.161 L
206.453 85.958 L
206.94 85.755 L
207.426 85.553 L
207.912 85.352 L
208.399 85.15 L
208.885 84.949 L
209.371 84.749 L
209.858 84.549 L
210.344 84.35 L
210.83 84.151 L
211.317 83.952 L
211.803 83.754 L
212.289 83.556 L
212.775 83.359 L
213.262 83.163 L
213.748 82.966 L
214.234 82.771 L
214.721 82.575 L
215.207 82.38 L
215.693 82.186 L
216.18 81.992 L
216.666 81.798 L
217.152 81.605 L
217.639 81.413 L
218.125 81.22 L
218.611 81.029 L
219.098 80.837 L
219.584 80.646 L
220.07 80.456 L
220.557 80.266 L
221.043 80.076 L
221.529 79.887 L
222.016 79.698 L
222.502 79.511 L
222.988 79.323 L
223.475 79.135 L
223.961 78.949 L
224.447 78.762 L
224.934 78.576 L
225.42 78.39 L
225.906 78.205 L
226.392 78.021 L
226.879 77.836 L
227.365 77.653 L
227.851 77.47 L
228.338 77.287 L
228.824 77.104 L
229.31 76.922 L
229.797 76.74 L
230.283 76.559 L
230.769 76.379 L
231.256 76.198 L
231.742 76.018 L
232.228 75.839 L
232.715 75.66 L
233.201 75.482 L
233.687 75.304 L
234.174 75.126 L
234.66 74.949 L
235.146 74.772 L
235.633 74.595 L
236.119 74.419 L
236.605 74.244 L
237.092 74.069 L
237.578 73.894 L
238.064 73.72 L
238.551 73.546 L
239.037 73.373 L
239.523 73.2 L
240.009 73.028 L
240.496 72.856 L
240.982 72.684 L
241.468 72.513 L
241.955 72.342 L
242.441 72.171 L
242.927 72.002 L
243.414 71.832 L
243.9 71.663 L
244.386 71.495 L
244.873 71.326 L
245.359 71.159 L
245.845 70.991 L
246.332 70.824 L
246.818 70.658 L
247.304 70.491 L
247.791 70.326 L
248.277 70.16 L
248.763 69.996 L
249.25 69.831 L
249.736 69.667 L
250.222 69.504 L
250.709 69.341 L
251.195 69.178 L
251.681 69.016 L
252.168 68.854 L
252.654 68.692 L
253.14 68.531 L
253.626 68.37 L
254.113 68.21 L
254.599 68.05 L
255.085 67.891 L
255.572 67.732 L
256.058 67.573 L
256.544 67.416 L
257.031 67.258 L
257.517 67.1 L
258.003 66.944 L
258.49 66.787 L
258.976 66.631 L
259.462 66.475 L
259.949 66.32 L
260.435 66.165 L
260.921 66.011 L
261.408 65.857 L
261.894 65.703 L
262.38 65.55 L
262.867 65.397 L
263.353 65.245 L
263.839 65.093 L
264.326 64.941 L
264.812 64.79 L
265.298 64.639 L
265.785 64.489 L
266.271 64.339 L
266.757 64.189 L
267.243 64.04 L
267.73 63.892 L
268.216 63.743 L
268.702 63.595 L
269.189 63.448 L
269.675 63.301 L
270.161 63.154 L
270.648 63.008 L
271.134 62.862 L
271.62 62.717 L
272.107 62.571 L
272.593 62.427 L
273.079 62.282 L
273.566 62.139 L
274.052 61.995 L
274.538 61.852 L
275.025 61.709 L
275.511 61.567 L
275.997 61.425 L
276.484 61.284 L
276.97 61.143 L
277.456 61.002 L
277.943 60.862 L
278.429 60.722 L
278.915 60.582 L
279.402 60.443 L
279.888 60.304 L
280.374 60.166 L
280.861 60.028 L
281.347 59.89 L
281.833 59.753 L
282.319 59.616 L
282.806 59.48 L
283.292 59.344 L
283.778 59.209 L
284.265 59.074 L
284.751 58.939 L
285.237 58.804 L
285.724 58.67 L
286.21 58.537 L
286.696 58.403 L
287.183 58.271 L
287.669 58.138 L
288.155 58.006 L
288.642 57.874 L
289.128 57.743 L
289.614 57.612 L
290.101 57.482 L
290.587 57.352 L
291.073 57.222 L
291.56 57.093 L
292.046 56.964 L
292.532 56.835 L
293.019 56.707 L
293.505 56.579 L
293.991 56.451 L
294.477 56.324 L
294.964 56.198 L
295.45 56.071 L
295.936 55.945 L
296.423 55.82 L
296.909 55.695 L
297.395 55.57 L
297.882 55.446 L
298.368 55.322 L
298.854 55.198 L
299.341 55.075 L
299.827 54.952 L
300.313 54.829 L
300.8 54.707 L
301.286 54.585 L
301.772 54.464 L
302.259 54.343 L
302.745 54.222 L
303.231 54.102 L
303.718 53.982 L
304.204 53.862 L
304.69 53.743 L
305.177 53.624 L
305.663 53.506 L
306.149 53.388 L
306.636 53.271 L
307.122 53.153 L
307.608 53.036 L
308.094 52.92 L
308.581 52.804 L
309.067 52.688 L
309.553 52.572 L
310.04 52.457 L
310.526 52.343 L
311.012 52.228 L
311.499 52.114 L
311.985 52.001 L
312.471 51.887 L
312.958 51.775 L
313.444 51.662 L
313.93 51.55 L
314.417 51.438 L
314.903 51.327 L
315.389 51.216 L
315.876 51.105 L
316.362 50.995 L
316.848 50.885 L
317.335 50.775 L
317.821 50.666 L
318.307 50.557 L
318.794 50.449 L
319.28 50.341 L
319.766 50.233 L
320.253 50.125 L
320.739 50.018 L
321.225 49.912 L
321.711 49.805 L
322.198 49.699 L
322.684 49.594 L
323.17 49.488 L
323.657 49.384 L
324.143 49.279 L
324.629 49.175 L
325.116 49.071 L
325.602 48.968 L
326.088 48.865 L
326.575 48.762 L
327.061 48.659 L
327.547 48.557 L
328.034 48.456 L
328.52 48.354 L
329.006 48.253 L
329.493 48.152 L
329.979 48.052 L
330.465 47.952 L
330.952 47.853 L
331.438 47.753 L
331.924 47.654 L
332.411 47.556 L
332.897 47.458 L
333.383 47.36 L
333.87 47.263 L
334.356 47.165 L
334.842 47.069 L
335.328 46.972 L
335.815 46.876 L
336.301 46.78 L
336.787 46.685 L
337.274 46.59 L
337.76 46.495 L
338.246 46.401 L
338.733 46.306 L
339.219 46.213 L
339.705 46.119 L
340.192 46.026 L
340.678 45.934 L
341.164 45.841 L
341.651 45.749 L
342.137 45.658 L
342.623 45.566 L
343.11 45.475 L
343.596 45.385 L
344.082 45.295 L
344.569 45.205 L
345.055 45.115 L
345.541 45.026 L
346.028 44.937 L
346.514 44.848 L
347 44.76 L
347.487 44.672 L
347.973 44.584 L
348.459 44.497 L
348.945 44.41 L
349.432 44.324 L
349.918 44.237 L
350.404 44.152 L
350.891 44.066 L
351.377 43.981 L
351.863 43.896 L
352.35 43.811 L
352.836 43.727 L
353.322 43.643 L
353.809 43.559 L
354.295 43.476 L
354.781 43.393 L
355.268 43.311 L
355.754 43.229 L
356.24 43.147 L
356.727 43.065 L
357.213 42.984 L
357.699 42.903 L
358.186 42.822 L
358.672 42.742 L
359.158 42.662 L
359.645 42.582 L
360.131 42.503 L
360.617 42.424 L
361.104 42.345 L
361.59 42.267 L
362.076 42.189 L
362.563 42.111 L
363.049 42.034 L
363.535 41.957 L
364.021 41.88 L
364.508 41.803 L
364.994 41.727 L
365.48 41.652 L
365.967 41.576 L
366.453 41.501 L
366.939 41.426 L
367.426 41.352 L
367.912 41.278 L
368.398 41.204 L
368.885 41.13 L
369.371 41.057 L
369.857 40.984 L
370.344 40.912 L
370.83 40.839 L
371.316 40.767 L
371.803 40.696 L
372.289 40.624 L
372.775 40.553 L
373.262 40.483 L
373.748 40.412 L
374.234 40.342 L
374.721 40.272 L
375.207 40.203 L
375.693 40.134 L
376.18 40.065 L
376.666 39.997 L
377.152 39.928 L
377.638 39.86 L
378.125 39.793 L
378.611 39.726 L
379.097 39.659 L
379.584 39.592 L
380.07 39.526 L
380.556 39.46 L
381.043 39.394 L
381.529 39.329 L
382.015 39.264 L
382.502 39.199 L
382.988 39.134 L
383.474 39.07 L
383.961 39.006 L
384.447 38.943 L
384.933 38.879 L
385.42 38.816 L
385.906 38.754 L
386.392 38.691 L
386.879 38.629 L
387.365 38.568 L
387.851 38.506 L
388.338 38.445 L
388.824 38.384 L
389.31 38.324 L
389.797 38.263 L
390.283 38.203 L
390.769 38.144 L
391.255 38.084 L
391.742 38.025 L
392.228 37.966 L
392.714 37.908 L
393.201 37.85 L
393.687 37.792 L
394.173 37.734 L
394.66 37.677 L
395.146 37.62 L
395.632 37.563 L
396.119 37.507 L
396.605 37.451 L
397.091 37.395 L
397.578 37.34 L
398.064 37.285 L
398.55 37.23 L
399.037 37.175 L
399.523 37.121 L
400.009 37.067 L
400.496 37.013 L
400.982 36.959 L
401.468 36.906 L
401.955 36.853 L
402.441 36.801 L
402.927 36.748 L
403.414 36.696 L
403.9 36.645 L
404.386 36.593 L
404.872 36.542 L
405.359 36.491 L
405.845 36.44 L
406.331 36.39 L
406.818 36.34 L
407.304 36.29 L
407.79 36.241 L
408.277 36.192 L
408.763 36.143 L
409.249 36.094 L
409.736 36.046 L
410.222 35.998 L
410.708 35.95 L
411.195 35.903 L
411.681 35.856 L
412.167 35.809 L
412.654 35.762 L
413.14 35.716 L
413.626 35.67 L
414.113 35.624 L
414.599 35.578 L
415.085 35.533 L
415.572 35.488 L
416.058 35.443 L
416.544 35.399 L
417.031 35.355 L
417.517 35.311 L
418.003 35.268 L
418.489 35.224 L
418.976 35.181 L
419.462 35.139 L
419.948 35.096 L
420.435 35.054 L
420.921 35.012 L
421.407 34.97 L
421.894 34.929 L
422.38 34.888 L
422.866 34.847 L
423.353 34.806 L
423.839 34.766 L
424.325 34.726 L
424.812 34.686 L
425.298 34.647 L
425.784 34.608 L
426.271 34.569 L
426.757 34.53 L
427.243 34.492 L
427.73 34.453 L
428.216 34.416 L
428.702 34.378 L
429.189 34.341 L
429.675 34.303 L
430.161 34.267 L
430.648 34.23 L
431.134 34.194 L
431.62 34.158 L
432.106 34.122 L
432.593 34.087 L
433.079 34.051 L
433.565 34.016 L
434.052 33.982 L
434.538 33.947 L
435.024 33.913 L
435.511 33.879 L
435.997 33.845 L
436.483 33.812 L
436.97 33.779 L
437.456 33.746 L
437.942 33.713 L
438.429 33.681 L
438.915 33.649 L
439.401 33.617 L
439.888 33.585 L
440.374 33.554 L
440.86 33.523 L
441.347 33.492 L
441.833 33.461 L
442.319 33.431 L
442.806 33.401 L
443.292 33.372 L
443.778 33.342 L
444.265 33.313 L
444.751 33.284 L
445.237 33.255 L
445.723 33.226 L
446.21 33.198 L
446.696 33.17 L
447.182 33.142 L
447.669 33.115 L
448.155 33.087 L
448.641 33.06 L
449.128 33.033 L
449.614 33.007 L
450.1 32.981 L
450.587 32.954 L
451.073 32.929 L
451.559 32.903 L
452.046 32.878 L
452.532 32.853 L
453.018 32.828 L
453.505 32.803 L
453.991 32.779 L
454.477 32.755 L
454.964 32.731 L
455.45 32.707 L
455.936 32.684 L
456.423 32.661 L
456.909 32.638 L
457.395 32.615 L
457.882 32.593 L
458.368 32.571 L
458.854 32.549 L
459.34 32.527 L
459.827 32.506 L
460.313 32.485 L
460.799 32.464 L
461.286 32.443 L
461.772 32.422 L
462.258 32.402 L
462.745 32.382 L
463.231 32.362 L
463.717 32.343 L
464.204 32.324 L
464.69 32.305 L
465.176 32.286 L
465.663 32.267 L
466.149 32.249 L
466.635 32.231 L
467.122 32.213 L
467.608 32.195 L
468.094 32.178 L
468.581 32.16 L
469.067 32.144 L
469.553 32.127 L
470.04 32.11 L
470.526 32.094 L
471.012 32.078 L
471.499 32.062 L
471.985 32.047 L
472.471 32.031 L
472.957 32.016 L
473.444 32.001 L
473.93 31.987 L
474.416 31.972 L
474.903 31.958 L
475.389 31.944 L
475.875 31.93 L
476.362 31.917 L
476.848 31.903 L
477.334 31.89 L
477.821 31.877 L
478.307 31.865 L
478.793 31.852 L
479.28 31.84 L
479.766 31.828 L
480.252 31.816 L
480.739 31.805 L
481.225 31.794 L
481.711 31.782 L
482.198 31.772 L
482.684 31.761 L
483.17 31.751 L
483.657 31.74 L
484.143 31.73 L
484.629 31.721 L
485.116 31.711 L
485.602 31.702 L
486.088 31.693 L
486.574 31.684 L
487.061 31.675 L
487.547 31.667 L
488.033 31.658 L
488.52 31.65 L
489.006 31.642 L
489.492 31.635 L
489.979 31.627 L
490.465 31.62 L
490.951 31.613 L
491.438 31.606 L
491.924 31.6 L
492.41 31.594 L
492.897 31.587 L
493.383 31.582 L
493.869 31.576 L
494.356 31.57 L
494.842 31.565 L
495.328 31.56 L
495.815 31.555 L
496.301 31.55 L
496.787 31.546 L
497.274 31.542 L
497.76 31.538 L
498.246 31.534 L
498.733 31.53 L
499.219 31.527 L
499.705 31.524 L
500.191 31.521 L
500.678 31.518 L
501.164 31.515 L
501.65 31.513 L
502.137 31.511 L
502.623 31.509 L
503.109 31.507 L
503.596 31.505 L
504.082 31.504 L
504.568 31.503 L
505.055 31.502 L
505.541 31.501 L
506.027 31.5 L
506.514 31.5 L
507 31.5 L
S
GR
GS
0.467 0.675 0.188 RC
[10 6] 0 setdash
2 LJ
0.5 LW
N
73.624 363.481 M
74.11 361.485 L
74.596 359.477 L
75.083 357.459 L
75.569 355.429 L
76.055 353.388 L
76.542 351.336 L
77.028 349.272 L
77.514 347.195 L
78.001 345.107 L
78.487 343.005 L
78.973 340.892 L
79.46 338.765 L
79.946 336.625 L
80.432 334.471 L
80.919 332.304 L
81.405 330.123 L
81.891 327.928 L
82.377 325.719 L
82.864 323.495 L
83.35 321.256 L
83.836 319.002 L
84.323 316.733 L
84.809 314.433 L
85.295 312.077 L
85.782 309.67 L
86.268 307.215 L
86.754 304.716 L
87.241 302.177 L
87.727 299.602 L
88.213 296.993 L
88.7 294.355 L
89.186 291.691 L
89.672 289.006 L
90.159 286.302 L
90.645 283.584 L
91.131 280.856 L
91.618 278.12 L
92.104 275.38 L
92.59 272.641 L
93.077 269.907 L
93.563 267.179 L
94.049 264.463 L
94.536 261.763 L
95.022 259.081 L
95.508 256.421 L
95.994 253.788 L
96.481 251.184 L
96.967 248.614 L
97.453 246.082 L
97.94 243.59 L
98.426 241.143 L
98.912 238.745 L
99.399 236.398 L
99.885 234.107 L
100.371 231.876 L
100.858 229.708 L
101.344 227.606 L
101.83 225.575 L
102.317 223.619 L
102.803 221.74 L
103.289 219.93 L
103.776 218.129 L
104.262 216.331 L
104.748 214.535 L
105.235 212.741 L
105.721 210.951 L
106.207 209.163 L
106.694 207.38 L
107.18 205.601 L
107.666 203.827 L
108.153 202.058 L
108.639 200.294 L
109.125 198.536 L
109.611 196.785 L
110.098 195.04 L
110.584 193.303 L
111.07 191.573 L
111.557 189.852 L
112.043 188.138 L
112.529 186.434 L
113.016 184.738 L
113.502 183.053 L
113.988 181.377 L
114.475 179.712 L
114.961 178.058 L
115.447 176.415 L
115.934 174.784 L
116.42 173.166 L
116.906 171.559 L
117.393 169.966 L
117.879 168.386 L
118.365 166.82 L
118.852 165.268 L
119.338 163.731 L
119.824 162.208 L
120.311 160.701 L
120.797 159.211 L
121.283 157.736 L
121.77 156.278 L
122.256 154.837 L
122.742 153.414 L
123.228 152.008 L
123.715 150.622 L
124.201 149.254 L
124.687 147.904 L
125.174 146.575 L
125.66 145.266 L
126.146 143.976 L
126.633 142.708 L
127.119 141.462 L
127.605 140.236 L
128.092 139.033 L
128.578 137.852 L
129.064 136.695 L
129.551 135.56 L
130.037 134.45 L
130.523 133.363 L
131.01 132.301 L
131.496 131.264 L
131.982 130.252 L
132.469 129.267 L
132.955 128.307 L
133.441 127.374 L
133.928 126.468 L
134.414 125.59 L
134.9 124.739 L
135.387 123.917 L
135.873 123.123 L
136.359 122.359 L
136.845 121.624 L
137.332 120.919 L
137.818 120.244 L
138.304 119.601 L
138.791 118.988 L
139.277 118.407 L
139.763 117.857 L
140.25 117.341 L
140.736 116.857 L
141.222 116.402 L
141.709 115.953 L
142.195 115.505 L
142.681 115.058 L
143.168 114.612 L
143.654 114.168 L
144.14 113.725 L
144.627 113.283 L
145.113 112.843 L
145.599 112.404 L
146.086 111.966 L
146.572 111.53 L
147.058 111.095 L
147.545 110.662 L
148.031 110.229 L
148.517 109.798 L
149.004 109.369 L
149.49 108.941 L
149.976 108.513 L
150.462 108.088 L
150.949 107.663 L
151.435 107.241 L
151.921 106.819 L
152.408 106.398 L
152.894 105.979 L
153.38 105.562 L
153.867 105.145 L
154.353 104.73 L
154.839 104.316 L
155.326 103.904 L
155.812 103.493 L
156.298 103.083 L
156.785 102.675 L
157.271 102.267 L
157.757 101.861 L
158.244 101.457 L
158.73 101.054 L
159.216 100.652 L
159.703 100.252 L
160.189 99.852 L
160.675 99.455 L
161.162 99.058 L
161.648 98.663 L
162.134 98.269 L
162.621 97.876 L
163.107 97.485 L
163.593 97.095 L
164.079 96.706 L
164.566 96.319 L
165.052 95.933 L
165.538 95.548 L
166.025 95.165 L
166.511 94.783 L
166.997 94.402 L
167.484 94.023 L
167.97 93.644 L
168.456 93.268 L
168.943 92.892 L
169.429 92.518 L
169.915 92.145 L
170.402 91.774 L
170.888 91.404 L
171.374 91.035 L
171.861 90.667 L
172.347 90.301 L
172.833 89.936 L
173.32 89.573 L
173.806 89.21 L
174.292 88.849 L
174.779 88.49 L
175.265 88.131 L
175.751 87.774 L
176.238 87.419 L
176.724 87.064 L
177.21 86.711 L
177.696 86.359 L
178.183 86.009 L
178.669 85.66 L
179.155 85.312 L
179.642 84.965 L
180.128 84.62 L
180.614 84.276 L
181.101 83.934 L
181.587 83.592 L
182.073 83.253 L
182.56 82.914 L
183.046 82.577 L
183.532 82.24 L
184.019 81.906 L
184.505 81.572 L
184.991 81.24 L
185.478 80.91 L
185.964 80.58 L
186.45 80.252 L
186.937 79.925 L
187.423 79.599 L
187.909 79.276 L
188.396 78.953 L
188.882 78.631 L
189.368 78.311 L
189.855 77.992 L
190.341 77.674 L
190.827 77.358 L
191.313 77.043 L
191.8 76.729 L
192.286 76.416 L
192.772 76.105 L
193.259 75.795 L
193.745 75.487 L
194.231 75.18 L
194.718 74.874 L
195.204 74.569 L
195.69 74.266 L
196.177 73.964 L
196.663 73.663 L
197.149 73.364 L
197.636 73.066 L
198.122 72.769 L
198.608 72.474 L
199.095 72.18 L
199.581 71.887 L
200.067 71.595 L
200.554 71.305 L
201.04 71.016 L
201.526 70.729 L
202.013 70.442 L
202.499 70.157 L
202.985 69.874 L
203.472 69.591 L
203.958 69.31 L
204.444 69.031 L
204.93 68.752 L
205.417 68.475 L
205.903 68.199 L
206.389 67.924 L
206.876 67.651 L
207.362 67.379 L
207.848 67.109 L
208.335 66.839 L
208.821 66.571 L
209.307 66.304 L
209.794 66.039 L
210.28 65.775 L
210.766 65.512 L
211.253 65.251 L
211.739 64.99 L
212.225 64.731 L
212.712 64.474 L
213.198 64.217 L
213.684 63.962 L
214.171 63.708 L
214.657 63.456 L
215.143 63.205 L
215.63 62.955 L
216.116 62.707 L
216.602 62.459 L
217.089 62.213 L
217.575 61.969 L
218.061 61.725 L
218.548 61.484 L
219.034 61.243 L
219.52 61.003 L
220.006 60.765 L
220.493 60.528 L
220.979 60.293 L
221.465 60.058 L
221.952 59.825 L
222.438 59.594 L
222.924 59.363 L
223.411 59.134 L
223.897 58.907 L
224.383 58.68 L
224.87 58.455 L
225.356 58.231 L
225.842 58.008 L
226.329 57.787 L
226.815 57.567 L
227.301 57.348 L
227.788 57.131 L
228.274 56.915 L
228.76 56.7 L
229.247 56.486 L
229.733 56.274 L
230.219 56.063 L
230.706 55.853 L
231.192 55.645 L
231.678 55.438 L
232.165 55.232 L
232.651 55.028 L
233.137 54.825 L
233.623 54.623 L
234.11 54.422 L
234.596 54.223 L
235.082 54.025 L
235.569 53.828 L
236.055 53.632 L
236.541 53.438 L
237.028 53.246 L
237.514 53.054 L
238 52.864 L
238.487 52.675 L
238.973 52.487 L
239.459 52.3 L
239.946 52.115 L
240.432 51.931 L
240.918 51.749 L
241.405 51.568 L
241.891 51.388 L
242.377 51.209 L
242.864 51.032 L
243.35 50.856 L
243.836 50.681 L
244.323 50.507 L
244.809 50.335 L
245.295 50.164 L
245.782 49.994 L
246.268 49.826 L
246.754 49.659 L
247.24 49.493 L
247.727 49.329 L
248.213 49.165 L
248.699 49.003 L
249.186 48.843 L
249.672 48.683 L
250.158 48.525 L
250.645 48.368 L
251.131 48.213 L
251.617 48.059 L
252.104 47.906 L
252.59 47.754 L
253.076 47.604 L
253.563 47.454 L
254.049 47.307 L
254.535 47.16 L
255.022 47.015 L
255.508 46.871 L
255.994 46.728 L
256.481 46.587 L
256.967 46.447 L
257.453 46.308 L
257.94 46.17 L
258.426 46.034 L
258.912 45.899 L
259.398 45.765 L
259.885 45.633 L
260.371 45.502 L
260.857 45.372 L
261.344 45.244 L
261.83 45.116 L
262.316 44.99 L
262.803 44.866 L
263.289 44.742 L
263.775 44.62 L
264.262 44.499 L
264.748 44.379 L
265.234 44.261 L
265.721 44.144 L
266.207 44.028 L
266.693 43.914 L
267.18 43.8 L
267.666 43.688 L
268.152 43.578 L
268.639 43.468 L
269.125 43.361 L
269.611 43.254 L
270.098 43.148 L
270.584 43.044 L
271.07 42.941 L
271.557 42.839 L
272.043 42.739 L
272.529 42.639 L
273.016 42.542 L
273.502 42.445 L
273.988 42.35 L
274.474 42.256 L
274.961 42.163 L
275.447 42.071 L
275.933 41.981 L
276.42 41.892 L
276.906 41.804 L
277.392 41.718 L
277.879 41.633 L
278.365 41.549 L
278.851 41.466 L
279.338 41.385 L
279.824 41.305 L
280.31 41.226 L
280.797 41.149 L
281.283 41.073 L
281.769 40.998 L
282.256 40.924 L
282.742 40.852 L
283.228 40.78 L
283.715 40.711 L
284.201 40.642 L
284.687 40.575 L
285.174 40.509 L
285.66 40.444 L
286.146 40.38 L
286.633 40.318 L
287.119 40.257 L
287.605 40.197 L
288.091 40.139 L
288.578 40.082 L
289.064 40.026 L
289.55 39.971 L
290.037 39.918 L
290.523 39.866 L
291.009 39.815 L
291.496 39.766 L
291.982 39.717 L
292.468 39.67 L
292.955 39.625 L
293.441 39.58 L
293.927 39.537 L
294.414 39.495 L
294.9 39.454 L
295.386 39.415 L
295.873 39.377 L
296.359 39.34 L
296.845 39.305 L
297.332 39.27 L
297.818 39.237 L
298.304 39.206 L
298.791 39.175 L
299.277 39.146 L
299.763 39.118 L
300.25 39.091 L
300.736 39.066 L
301.222 39.041 L
301.708 39.018 L
302.195 38.997 L
302.681 38.976 L
303.167 38.957 L
303.654 38.939 L
304.14 38.923 L
304.626 38.907 L
305.113 38.893 L
305.599 38.881 L
306.085 38.869 L
306.572 38.859 L
307.058 38.85 L
307.544 38.842 L
308.031 38.835 L
308.517 38.83 L
309.003 38.826 L
309.49 38.823 L
309.976 38.822 L
S
GR
GS
0.302 0.745 0.933 RC
[10 6] 0 setdash
2 LJ
0.5 LW
N
73.45 367.681 M
73.937 365.627 L
74.423 363.563 L
74.909 361.491 L
75.396 359.409 L
75.882 357.318 L
76.368 355.216 L
76.855 353.105 L
77.341 350.983 L
77.827 348.851 L
78.314 346.708 L
78.8 344.554 L
79.286 342.389 L
79.773 340.213 L
80.259 338.025 L
80.745 335.825 L
81.232 333.614 L
81.718 331.389 L
82.204 329.153 L
82.691 326.903 L
83.177 324.641 L
83.663 322.366 L
84.149 320.077 L
84.636 317.754 L
85.122 315.381 L
85.608 312.964 L
86.095 310.504 L
86.581 308.006 L
87.067 305.473 L
87.554 302.908 L
88.04 300.315 L
88.526 297.697 L
89.013 295.057 L
89.499 292.399 L
89.985 289.726 L
90.472 287.042 L
90.958 284.35 L
91.444 281.653 L
91.931 278.955 L
92.417 276.258 L
92.903 273.568 L
93.39 270.886 L
93.876 268.216 L
94.362 265.562 L
94.849 262.927 L
95.335 260.314 L
95.821 257.728 L
96.308 255.17 L
96.794 252.645 L
97.28 250.155 L
97.766 247.705 L
98.253 245.298 L
98.739 242.937 L
99.225 240.625 L
99.712 238.365 L
100.198 236.163 L
100.684 234.02 L
101.171 231.939 L
101.657 229.925 L
102.143 227.981 L
102.63 226.109 L
103.116 224.27 L
103.602 222.429 L
104.089 220.589 L
104.575 218.75 L
105.061 216.911 L
105.548 215.074 L
106.034 213.239 L
106.52 211.407 L
107.007 209.577 L
107.493 207.751 L
107.979 205.929 L
108.466 204.111 L
108.952 202.299 L
109.438 200.492 L
109.925 198.691 L
110.411 196.896 L
110.897 195.108 L
111.383 193.328 L
111.87 191.556 L
112.356 189.792 L
112.842 188.037 L
113.329 186.292 L
113.815 184.556 L
114.301 182.831 L
114.788 181.117 L
115.274 179.415 L
115.76 177.724 L
116.247 176.045 L
116.733 174.38 L
117.219 172.728 L
117.706 171.09 L
118.192 169.466 L
118.678 167.857 L
119.165 166.264 L
119.651 164.686 L
120.137 163.125 L
120.624 161.581 L
121.11 160.054 L
121.596 158.545 L
122.083 157.054 L
122.569 155.582 L
123.055 154.13 L
123.542 152.697 L
124.028 151.285 L
124.514 149.893 L
125 148.523 L
125.487 147.175 L
125.973 145.848 L
126.459 144.545 L
126.946 143.266 L
127.432 142.009 L
127.918 140.778 L
128.405 139.571 L
128.891 138.389 L
129.377 137.233 L
129.864 136.103 L
130.35 135.001 L
130.836 133.925 L
131.323 132.877 L
131.809 131.858 L
132.295 130.867 L
132.782 129.905 L
133.268 128.974 L
133.754 128.072 L
134.241 127.201 L
134.727 126.362 L
135.213 125.554 L
135.7 124.778 L
136.186 124.035 L
136.672 123.326 L
137.159 122.65 L
137.645 122.008 L
138.131 121.401 L
138.617 120.829 L
139.104 120.293 L
139.59 119.793 L
140.076 119.327 L
140.563 118.87 L
141.049 118.414 L
141.535 117.959 L
142.022 117.506 L
142.508 117.054 L
142.994 116.603 L
143.481 116.154 L
143.967 115.706 L
144.453 115.259 L
144.94 114.814 L
145.426 114.37 L
145.912 113.928 L
146.399 113.487 L
146.885 113.047 L
147.371 112.609 L
147.858 112.172 L
148.344 111.737 L
148.83 111.303 L
149.317 110.87 L
149.803 110.438 L
150.289 110.008 L
150.776 109.58 L
151.262 109.152 L
151.748 108.726 L
152.234 108.302 L
152.721 107.879 L
153.207 107.457 L
153.693 107.036 L
154.18 106.617 L
154.666 106.199 L
155.152 105.783 L
155.639 105.368 L
156.125 104.955 L
156.611 104.542 L
157.098 104.131 L
157.584 103.722 L
158.07 103.314 L
158.557 102.907 L
159.043 102.501 L
159.529 102.097 L
160.016 101.694 L
160.502 101.293 L
160.988 100.893 L
161.475 100.494 L
161.961 100.097 L
162.447 99.701 L
162.934 99.307 L
163.42 98.913 L
163.906 98.522 L
164.393 98.131 L
164.879 97.742 L
165.365 97.354 L
165.852 96.968 L
166.338 96.583 L
166.824 96.199 L
167.31 95.816 L
167.797 95.436 L
168.283 95.056 L
168.769 94.678 L
169.256 94.301 L
169.742 93.925 L
170.228 93.551 L
170.715 93.178 L
171.201 92.807 L
171.687 92.436 L
172.174 92.067 L
172.66 91.7 L
173.146 91.334 L
173.633 90.969 L
174.119 90.606 L
174.605 90.244 L
175.092 89.883 L
175.578 89.524 L
176.064 89.166 L
176.551 88.809 L
177.037 88.454 L
177.523 88.1 L
178.01 87.747 L
178.496 87.396 L
178.982 87.046 L
179.469 86.697 L
179.955 86.35 L
180.441 86.004 L
180.927 85.66 L
181.414 85.317 L
181.9 84.975 L
182.386 84.634 L
182.873 84.295 L
183.359 83.957 L
183.845 83.621 L
184.332 83.286 L
184.818 82.952 L
185.304 82.619 L
185.791 82.288 L
186.277 81.958 L
186.763 81.63 L
187.25 81.303 L
187.736 80.977 L
188.222 80.653 L
188.709 80.33 L
189.195 80.008 L
189.681 79.687 L
190.168 79.369 L
190.654 79.051 L
191.14 78.734 L
191.627 78.419 L
192.113 78.106 L
192.599 77.793 L
193.086 77.482 L
193.572 77.173 L
194.058 76.864 L
194.544 76.557 L
195.031 76.251 L
195.517 75.947 L
196.003 75.644 L
196.49 75.343 L
196.976 75.042 L
197.462 74.743 L
197.949 74.445 L
198.435 74.149 L
198.921 73.854 L
199.408 73.56 L
199.894 73.268 L
200.38 72.977 L
200.867 72.687 L
201.353 72.399 L
201.839 72.112 L
202.326 71.826 L
202.812 71.542 L
203.298 71.259 L
203.785 70.977 L
204.271 70.697 L
204.757 70.417 L
205.244 70.14 L
205.73 69.863 L
206.216 69.588 L
206.703 69.314 L
207.189 69.042 L
207.675 68.771 L
208.161 68.501 L
208.648 68.232 L
209.134 67.965 L
209.62 67.699 L
210.107 67.435 L
210.593 67.172 L
211.079 66.91 L
211.566 66.649 L
212.052 66.39 L
212.538 66.132 L
213.025 65.876 L
213.511 65.62 L
213.997 65.367 L
214.484 65.114 L
214.97 64.863 L
215.456 64.613 L
215.943 64.364 L
216.429 64.116 L
216.915 63.87 L
217.402 63.626 L
217.888 63.382 L
218.374 63.14 L
218.861 62.9 L
219.347 62.66 L
219.833 62.422 L
220.32 62.185 L
220.806 61.949 L
221.292 61.715 L
221.778 61.483 L
222.265 61.251 L
222.751 61.021 L
223.237 60.792 L
223.724 60.564 L
224.21 60.338 L
224.696 60.113 L
225.183 59.889 L
225.669 59.667 L
226.155 59.446 L
226.642 59.226 L
227.128 59.007 L
227.614 58.79 L
228.101 58.574 L
228.587 58.36 L
229.073 58.147 L
229.56 57.935 L
230.046 57.724 L
230.532 57.515 L
231.019 57.307 L
231.505 57.1 L
231.991 56.895 L
232.478 56.691 L
232.964 56.488 L
233.45 56.286 L
233.937 56.086 L
234.423 55.887 L
234.909 55.69 L
235.395 55.493 L
235.882 55.299 L
236.368 55.105 L
236.854 54.913 L
237.341 54.722 L
237.827 54.532 L
238.313 54.343 L
238.8 54.156 L
239.286 53.97 L
239.772 53.786 L
240.259 53.602 L
240.745 53.421 L
241.231 53.24 L
241.718 53.061 L
242.204 52.883 L
242.69 52.706 L
243.177 52.53 L
243.663 52.356 L
244.149 52.183 L
244.636 52.012 L
245.122 51.841 L
245.608 51.672 L
246.095 51.505 L
246.581 51.338 L
247.067 51.173 L
247.554 51.009 L
248.04 50.847 L
248.526 50.686 L
249.012 50.526 L
249.499 50.367 L
249.985 50.21 L
250.471 50.054 L
250.958 49.899 L
251.444 49.745 L
251.93 49.593 L
252.417 49.442 L
252.903 49.293 L
253.389 49.144 L
253.876 48.997 L
254.362 48.852 L
254.848 48.707 L
255.335 48.564 L
255.821 48.422 L
256.307 48.281 L
256.794 48.142 L
257.28 48.004 L
257.766 47.867 L
258.253 47.732 L
258.739 47.598 L
259.225 47.465 L
259.712 47.333 L
260.198 47.203 L
260.684 47.074 L
261.171 46.946 L
261.657 46.82 L
262.143 46.695 L
262.629 46.571 L
263.116 46.448 L
263.602 46.327 L
264.088 46.207 L
264.575 46.088 L
265.061 45.97 L
265.547 45.854 L
266.034 45.739 L
266.52 45.625 L
267.006 45.513 L
267.493 45.402 L
267.979 45.292 L
268.465 45.184 L
268.952 45.076 L
269.438 44.97 L
269.924 44.866 L
270.411 44.762 L
270.897 44.66 L
271.383 44.559 L
271.87 44.459 L
272.356 44.361 L
272.842 44.264 L
273.329 44.168 L
273.815 44.074 L
274.301 43.98 L
274.788 43.888 L
275.274 43.798 L
275.76 43.708 L
276.246 43.62 L
276.733 43.533 L
277.219 43.447 L
277.705 43.363 L
278.192 43.28 L
278.678 43.198 L
279.164 43.118 L
279.651 43.039 L
280.137 42.96 L
280.623 42.884 L
281.11 42.808 L
281.596 42.734 L
282.082 42.661 L
282.569 42.589 L
283.055 42.519 L
283.541 42.45 L
284.028 42.382 L
284.514 42.315 L
285 42.25 L
285.487 42.186 L
285.973 42.123 L
286.459 42.061 L
286.946 42.001 L
287.432 41.942 L
287.918 41.884 L
288.405 41.828 L
288.891 41.772 L
289.377 41.718 L
289.863 41.666 L
290.35 41.614 L
290.836 41.564 L
291.322 41.515 L
291.809 41.467 L
292.295 41.421 L
292.781 41.376 L
293.268 41.332 L
293.754 41.289 L
294.24 41.248 L
294.727 41.208 L
295.213 41.169 L
295.699 41.131 L
296.186 41.095 L
296.672 41.059 L
297.158 41.026 L
297.645 40.993 L
298.131 40.962 L
298.617 40.931 L
299.104 40.903 L
299.59 40.875 L
300.076 40.849 L
300.563 40.823 L
301.049 40.8 L
301.535 40.777 L
302.022 40.756 L
302.508 40.736 L
302.994 40.717 L
303.48 40.699 L
303.967 40.683 L
304.453 40.668 L
304.939 40.654 L
305.426 40.641 L
305.912 40.63 L
306.398 40.62 L
306.885 40.611 L
307.371 40.603 L
307.857 40.597 L
308.344 40.592 L
308.83 40.588 L
309.316 40.585 L
309.803 40.584 L
S
GR
GS
0.635 0.078 0.184 RC
[10 6] 0 setdash
2 LJ
0.5 LW
N
73.661 361.071 M
74.148 359.056 L
74.634 357.033 L
75.12 354.999 L
75.607 352.956 L
76.093 350.903 L
76.579 348.84 L
77.066 346.766 L
77.552 344.682 L
78.038 342.587 L
78.525 340.481 L
79.011 338.364 L
79.497 336.235 L
79.984 334.095 L
80.47 331.943 L
80.956 329.778 L
81.443 327.601 L
81.929 325.412 L
82.415 323.21 L
82.902 320.995 L
83.388 318.767 L
83.874 316.525 L
84.36 314.27 L
84.847 311.988 L
85.333 309.655 L
85.819 307.273 L
86.306 304.847 L
86.792 302.378 L
87.278 299.873 L
87.765 297.332 L
88.251 294.761 L
88.737 292.162 L
89.224 289.539 L
89.71 286.896 L
90.196 284.236 L
90.683 281.563 L
91.169 278.879 L
91.655 276.19 L
92.142 273.497 L
92.628 270.806 L
93.114 268.118 L
93.601 265.438 L
94.087 262.77 L
94.573 260.116 L
95.06 257.48 L
95.546 254.866 L
96.032 252.278 L
96.519 249.718 L
97.005 247.191 L
97.491 244.699 L
97.977 242.247 L
98.464 239.837 L
98.95 237.474 L
99.436 235.161 L
99.923 232.901 L
100.409 230.698 L
100.895 228.555 L
101.382 226.477 L
101.868 224.465 L
102.354 222.525 L
102.841 220.659 L
103.327 218.867 L
103.813 217.095 L
104.3 215.323 L
104.786 213.553 L
105.272 211.785 L
105.759 210.019 L
106.245 208.256 L
106.731 206.497 L
107.218 204.741 L
107.704 202.989 L
108.19 201.241 L
108.677 199.499 L
109.163 197.762 L
109.649 196.03 L
110.136 194.305 L
110.622 192.586 L
111.108 190.874 L
111.594 189.17 L
112.081 187.474 L
112.567 185.786 L
113.053 184.106 L
113.54 182.436 L
114.026 180.775 L
114.512 179.125 L
114.999 177.484 L
115.485 175.855 L
115.971 174.236 L
116.458 172.63 L
116.944 171.035 L
117.43 169.453 L
117.917 167.884 L
118.403 166.328 L
118.889 164.786 L
119.376 163.258 L
119.862 161.744 L
120.348 160.246 L
120.835 158.763 L
121.321 157.296 L
121.807 155.845 L
122.294 154.411 L
122.78 152.994 L
123.266 151.595 L
123.753 150.213 L
124.239 148.85 L
124.725 147.506 L
125.211 146.181 L
125.698 144.875 L
126.184 143.59 L
126.67 142.325 L
127.157 141.081 L
127.643 139.858 L
128.129 138.657 L
128.616 137.479 L
129.102 136.323 L
129.588 135.19 L
130.075 134.08 L
130.561 132.994 L
131.047 131.932 L
131.534 130.896 L
132.02 129.884 L
132.506 128.898 L
132.993 127.937 L
133.479 127.003 L
133.965 126.096 L
134.452 125.217 L
134.938 124.364 L
135.424 123.54 L
135.911 122.744 L
136.397 121.977 L
136.883 121.24 L
137.37 120.532 L
137.856 119.855 L
138.342 119.208 L
138.828 118.592 L
139.315 118.007 L
139.801 117.455 L
140.287 116.934 L
140.774 116.447 L
141.26 115.992 L
141.746 115.567 L
142.233 115.148 L
142.719 114.73 L
143.205 114.313 L
143.692 113.898 L
144.178 113.483 L
144.664 113.07 L
145.151 112.658 L
145.637 112.247 L
146.123 111.837 L
146.61 111.429 L
147.096 111.022 L
147.582 110.616 L
148.069 110.211 L
148.555 109.807 L
149.041 109.405 L
149.528 109.003 L
150.014 108.603 L
150.5 108.204 L
150.987 107.806 L
151.473 107.41 L
151.959 107.015 L
152.445 106.62 L
152.932 106.227 L
153.418 105.836 L
153.904 105.445 L
154.391 105.056 L
154.877 104.667 L
155.363 104.28 L
155.85 103.894 L
156.336 103.51 L
156.822 103.126 L
157.309 102.744 L
157.795 102.362 L
158.281 101.982 L
158.768 101.604 L
159.254 101.226 L
159.74 100.849 L
160.227 100.474 L
160.713 100.1 L
161.199 99.727 L
161.686 99.355 L
162.172 98.985 L
162.658 98.615 L
163.145 98.247 L
163.631 97.88 L
164.117 97.514 L
164.604 97.149 L
165.09 96.786 L
165.576 96.423 L
166.062 96.062 L
166.549 95.702 L
167.035 95.343 L
167.521 94.985 L
168.008 94.629 L
168.494 94.273 L
168.98 93.919 L
169.467 93.566 L
169.953 93.214 L
170.439 92.864 L
170.926 92.514 L
171.412 92.166 L
171.898 91.818 L
172.385 91.472 L
172.871 91.127 L
173.357 90.784 L
173.844 90.441 L
174.33 90.1 L
174.816 89.759 L
175.303 89.42 L
175.789 89.082 L
176.275 88.746 L
176.762 88.41 L
177.248 88.075 L
177.734 87.742 L
178.221 87.41 L
178.707 87.079 L
179.193 86.749 L
179.679 86.421 L
180.166 86.093 L
180.652 85.767 L
181.138 85.442 L
181.625 85.117 L
182.111 84.795 L
182.597 84.473 L
183.084 84.152 L
183.57 83.833 L
184.056 83.515 L
184.543 83.197 L
185.029 82.881 L
185.515 82.566 L
186.002 82.253 L
186.488 81.94 L
186.974 81.629 L
187.461 81.319 L
187.947 81.009 L
188.433 80.701 L
188.92 80.394 L
189.406 80.089 L
189.892 79.784 L
190.379 79.481 L
190.865 79.179 L
191.351 78.878 L
191.838 78.578 L
192.324 78.279 L
192.81 77.981 L
193.296 77.684 L
193.783 77.389 L
194.269 77.095 L
194.755 76.802 L
195.242 76.51 L
195.728 76.219 L
196.214 75.929 L
196.701 75.641 L
197.187 75.353 L
197.673 75.067 L
198.16 74.782 L
198.646 74.498 L
199.132 74.215 L
199.619 73.933 L
200.105 73.652 L
200.591 73.373 L
201.078 73.095 L
201.564 72.817 L
202.05 72.541 L
202.537 72.266 L
203.023 71.992 L
203.509 71.72 L
203.996 71.448 L
204.482 71.178 L
204.968 70.908 L
205.455 70.64 L
205.941 70.373 L
206.427 70.107 L
206.913 69.842 L
207.4 69.579 L
207.886 69.316 L
208.372 69.055 L
208.859 68.794 L
209.345 68.535 L
209.831 68.277 L
210.318 68.02 L
210.804 67.764 L
211.29 67.509 L
211.777 67.256 L
212.263 67.004 L
212.749 66.752 L
213.236 66.502 L
213.722 66.253 L
214.208 66.005 L
214.695 65.758 L
215.181 65.512 L
215.667 65.268 L
216.154 65.024 L
216.64 64.782 L
217.126 64.54 L
217.613 64.3 L
218.099 64.061 L
218.585 63.823 L
219.072 63.586 L
219.558 63.351 L
220.044 63.116 L
220.531 62.883 L
221.017 62.65 L
221.503 62.419 L
221.989 62.189 L
222.476 61.96 L
222.962 61.732 L
223.448 61.505 L
223.935 61.279 L
224.421 61.055 L
224.907 60.831 L
225.394 60.609 L
225.88 60.387 L
226.366 60.167 L
226.853 59.948 L
227.339 59.73 L
227.825 59.513 L
228.312 59.297 L
228.798 59.083 L
229.284 58.869 L
229.771 58.656 L
230.257 58.445 L
230.743 58.235 L
231.23 58.025 L
231.716 57.817 L
232.202 57.61 L
232.689 57.405 L
233.175 57.2 L
233.661 56.996 L
234.148 56.794 L
234.634 56.592 L
235.12 56.392 L
235.606 56.192 L
236.093 55.994 L
236.579 55.797 L
237.065 55.601 L
237.552 55.406 L
238.038 55.212 L
238.524 55.019 L
239.011 54.828 L
239.497 54.637 L
239.983 54.448 L
240.47 54.259 L
240.956 54.072 L
241.442 53.886 L
241.929 53.7 L
242.415 53.516 L
242.901 53.334 L
243.388 53.152 L
243.874 52.971 L
244.36 52.791 L
244.847 52.613 L
245.333 52.435 L
245.819 52.259 L
246.306 52.083 L
246.792 51.909 L
247.278 51.736 L
247.765 51.563 L
248.251 51.393 L
248.737 51.223 L
249.223 51.054 L
249.71 50.886 L
250.196 50.719 L
250.682 50.554 L
251.169 50.389 L
251.655 50.225 L
252.141 50.063 L
252.628 49.902 L
253.114 49.741 L
253.6 49.582 L
254.087 49.424 L
254.573 49.267 L
255.059 49.111 L
255.546 48.956 L
256.032 48.803 L
256.518 48.65 L
257.005 48.498 L
257.491 48.348 L
257.977 48.198 L
258.464 48.05 L
258.95 47.902 L
259.436 47.756 L
259.923 47.611 L
260.409 47.466 L
260.895 47.324 L
261.382 47.181 L
261.868 47.04 L
262.354 46.901 L
262.84 46.762 L
263.327 46.624 L
263.813 46.487 L
264.299 46.351 L
264.786 46.217 L
265.272 46.083 L
265.758 45.951 L
266.245 45.819 L
266.731 45.689 L
267.217 45.56 L
267.704 45.431 L
268.19 45.305 L
268.676 45.178 L
269.163 45.053 L
269.649 44.929 L
270.135 44.806 L
270.622 44.685 L
271.108 44.564 L
271.594 44.444 L
272.081 44.325 L
272.567 44.208 L
273.053 44.091 L
273.54 43.975 L
274.026 43.861 L
274.512 43.747 L
274.999 43.635 L
275.485 43.524 L
275.971 43.414 L
276.457 43.304 L
276.944 43.196 L
277.43 43.089 L
277.916 42.983 L
278.403 42.878 L
278.889 42.774 L
279.375 42.671 L
279.862 42.569 L
280.348 42.468 L
280.834 42.368 L
281.321 42.27 L
281.807 42.172 L
282.293 42.075 L
282.78 41.98 L
283.266 41.885 L
283.752 41.792 L
284.239 41.699 L
284.725 41.608 L
285.211 41.517 L
285.698 41.428 L
286.184 41.34 L
286.67 41.252 L
287.157 41.166 L
287.643 41.081 L
288.129 40.997 L
288.616 40.914 L
289.102 40.832 L
289.588 40.75 L
290.074 40.67 L
290.561 40.591 L
291.047 40.513 L
291.533 40.436 L
292.02 40.361 L
292.506 40.286 L
292.992 40.212 L
293.479 40.139 L
293.965 40.067 L
294.451 39.997 L
294.938 39.927 L
295.424 39.858 L
295.91 39.791 L
296.397 39.724 L
296.883 39.658 L
297.369 39.594 L
297.856 39.53 L
298.342 39.468 L
298.828 39.407 L
299.315 39.346 L
299.801 39.287 L
300.287 39.228 L
300.774 39.171 L
301.26 39.115 L
301.746 39.059 L
302.233 39.005 L
302.719 38.952 L
303.205 38.899 L
303.691 38.848 L
304.178 38.798 L
304.664 38.749 L
305.15 38.701 L
305.637 38.653 L
306.123 38.607 L
306.609 38.562 L
307.096 38.518 L
307.582 38.475 L
308.068 38.433 L
308.555 38.392 L
309.041 38.352 L
309.527 38.313 L
310.014 38.275 L
310.5 38.238 L
310.986 38.202 L
311.473 38.167 L
311.959 38.133 L
312.445 38.1 L
312.932 38.068 L
313.418 38.037 L
313.904 38.007 L
314.391 37.978 L
314.877 37.95 L
315.363 37.923 L
315.85 37.898 L
316.336 37.873 L
316.822 37.849 L
317.308 37.826 L
317.795 37.804 L
318.281 37.783 L
318.767 37.763 L
319.254 37.745 L
319.74 37.727 L
320.226 37.71 L
320.713 37.694 L
321.199 37.679 L
321.685 37.665 L
322.172 37.653 L
322.658 37.641 L
323.144 37.63 L
323.631 37.62 L
324.117 37.611 L
324.603 37.603 L
325.09 37.597 L
325.576 37.591 L
326.062 37.586 L
326.549 37.582 L
327.035 37.579 L
327.521 37.577 L
328.008 37.577 L
S
GR
GS
1 GC
N
499 366 M
499 250.5 L
344.5 250.5 L
344.5 366 L
cp
f
GR
GS
[1 0 0 1 381.5 260.25] CT
/Helvetica 13 F
GS
[1 0 0 1 0 0] CT
0 5 moveto 
1 -1 scale
(Base Run) t 
GR
GR
GS
0 0.447 0.741 RC
1 LJ
0.5 LW
N
348.5 260.25 M
378.5 260.25 L
S
GR
GS
[1 0 0 1 381.5 276.25] CT
/Helvetica 13 F
GS
[1 0 0 1 0 0] CT
0 5 moveto 
1 -1 scale
(I & B Frames) t 
GR
GR
GS
0.851 0.325 0.098 RC
1 LJ
0.5 LW
N
348.5 276.25 M
378.5 276.25 L
S
GR
GS
[1 0 0 1 381.5 292.25] CT
/Helvetica 13 F
GS
[1 0 0 1 0 0] CT
0 5 moveto 
1 -1 scale
(I Frames Only) t 
GR
GR
GS
0.929 0.694 0.125 RC
1 LJ
0.5 LW
N
348.5 292.25 M
378.5 292.25 L
S
GR
GS
[1 0 0 1 381.5 308.25] CT
/Helvetica 13 F
GS
[1 0 0 1 0 0] CT
0 5 moveto 
1 -1 scale
(B Frames Only) t 
GR
GR
GS
0.494 0.184 0.557 RC
1 LJ
0.5 LW
N
348.5 308.25 M
378.5 308.25 L
S
GR
GS
[1 0 0 1 381.5 324.25] CT
/Helvetica 13 F
GS
[1 0 0 1 0 0] CT
0 5 moveto 
1 -1 scale
(Part I & B Frames) t 
GR
GR
GS
0.467 0.675 0.188 RC
[10 6] 0 setdash
2 LJ
0.5 LW
N
348.5 324.25 M
378.5 324.25 L
S
GR
GS
[1 0 0 1 381.5 340.25] CT
/Helvetica 13 F
GS
[1 0 0 1 0 0] CT
0 5 moveto 
1 -1 scale
(Part I Frames Only) t 
GR
GR
GS
0.302 0.745 0.933 RC
[10 6] 0 setdash
2 LJ
0.5 LW
N
348.5 340.25 M
378.5 340.25 L
S
GR
GS
[1 0 0 1 381.5 356.25] CT
/Helvetica 13 F
GS
[1 0 0 1 0 0] CT
0 5 moveto 
1 -1 scale
(Part B Frames Only) t 
GR
GR
GS
0.635 0.078 0.184 RC
[10 6] 0 setdash
2 LJ
0.5 LW
N
348.5 356.25 M
378.5 356.25 L
S
GR
GS
0.149 GC
10.0 ML
0.5 LW
N
344.5 366 M
344.5 250.5 L
499 250.5 L
499 366 L
cp
S
GR
%%Trailer
%%Pages: 1
%%EOF
