%!PS-Adobe-3.0 EPSF-3.0
%%Creator: (MATLAB, The Mathworks, Inc. Version 9.11.0.1837725 \(R2021b\) Update 2. Operating System: Mac OS X)
%%Title: plots/pchip/OldTownCross_1920x1080p50.y4m-hevc-APSNRY.eps
%%CreationDate: 2022-02-03T19:14:30
%%Pages: (atend)
%%BoundingBox:    33   425   520   826
%%LanguageLevel: 3
%%EndComments
%%BeginProlog
%%BeginResource: procset (Apache XML Graphics Std ProcSet) 1.2 0
%%Version: 1.2 0
%%Copyright: (Copyright 2001-2003,2010 The Apache Software Foundation. License terms: http://www.apache.org/licenses/LICENSE-2.0)
/bd{bind def}bind def
/ld{load def}bd
/GR/grestore ld
/GS/gsave ld
/RM/rmoveto ld
/C/curveto ld
/t/show ld
/L/lineto ld
/ML/setmiterlimit ld
/CT/concat ld
/f/fill ld
/N/newpath ld
/S/stroke ld
/CC/setcmykcolor ld
/A/ashow ld
/cp/closepath ld
/RC/setrgbcolor ld
/LJ/setlinejoin ld
/GC/setgray ld
/LW/setlinewidth ld
/M/moveto ld
/re {4 2 roll M
1 index 0 rlineto
0 exch rlineto
neg 0 rlineto
cp } bd
/_ctm matrix def
/_tm matrix def
/BT { _ctm currentmatrix pop matrix _tm copy pop 0 0 moveto } bd
/ET { _ctm setmatrix } bd
/iTm { _ctm setmatrix _tm concat } bd
/Tm { _tm astore pop iTm 0 0 moveto } bd
/ux 0.0 def
/uy 0.0 def
/F {
  /Tp exch def
  /Tf exch def
  Tf findfont Tp scalefont setfont
  /cf Tf def  /cs Tp def
} bd
/ULS {currentpoint /uy exch def /ux exch def} bd
/ULE {
  /Tcx currentpoint pop def
  gsave
  newpath
  cf findfont cs scalefont dup
  /FontMatrix get 0 get /Ts exch def /FontInfo get dup
  /UnderlinePosition get Ts mul /To exch def
  /UnderlineThickness get Ts mul /Tt exch def
  ux uy To add moveto  Tcx uy To add lineto
  Tt setlinewidth stroke
  grestore
} bd
/OLE {
  /Tcx currentpoint pop def
  gsave
  newpath
  cf findfont cs scalefont dup
  /FontMatrix get 0 get /Ts exch def /FontInfo get dup
  /UnderlinePosition get Ts mul /To exch def
  /UnderlineThickness get Ts mul /Tt exch def
  ux uy To add cs add moveto Tcx uy To add cs add lineto
  Tt setlinewidth stroke
  grestore
} bd
/SOE {
  /Tcx currentpoint pop def
  gsave
  newpath
  cf findfont cs scalefont dup
  /FontMatrix get 0 get /Ts exch def /FontInfo get dup
  /UnderlinePosition get Ts mul /To exch def
  /UnderlineThickness get Ts mul /Tt exch def
  ux uy To add cs 10 mul 26 idiv add moveto Tcx uy To add cs 10 mul 26 idiv add lineto
  Tt setlinewidth stroke
  grestore
} bd
/QT {
/Y22 exch store
/X22 exch store
/Y21 exch store
/X21 exch store
currentpoint
/Y21 load 2 mul add 3 div exch
/X21 load 2 mul add 3 div exch
/X21 load 2 mul /X22 load add 3 div
/Y21 load 2 mul /Y22 load add 3 div
/X22 load /Y22 load curveto
} bd
/SSPD {
dup length /d exch dict def
{
/v exch def
/k exch def
currentpagedevice k known {
/cpdv currentpagedevice k get def
v cpdv ne {
/upd false def
/nullv v type /nulltype eq def
/nullcpdv cpdv type /nulltype eq def
nullv nullcpdv or
{
/upd true def
} {
/sametype v type cpdv type eq def
sametype {
v type /arraytype eq {
/vlen v length def
/cpdvlen cpdv length def
vlen cpdvlen eq {
0 1 vlen 1 sub {
/i exch def
/obj v i get def
/cpdobj cpdv i get def
obj cpdobj ne {
/upd true def
exit
} if
} for
} {
/upd true def
} ifelse
} {
v type /dicttype eq {
v {
/dv exch def
/dk exch def
/cpddv cpdv dk get def
dv cpddv ne {
/upd true def
exit
} if
} forall
} {
/upd true def
} ifelse
} ifelse
} if
} ifelse
upd true eq {
d k v put
} if
} if
} if
} forall
d length 0 gt {
d setpagedevice
} if
} bd
/RE { % /NewFontName [NewEncodingArray] /FontName RE -
  findfont dup length dict begin
  {
    1 index /FID ne
    {def} {pop pop} ifelse
  } forall
  /Encoding exch def
  /FontName 1 index def
  currentdict definefont pop
  end
} bind def
%%EndResource
%%BeginResource: procset (Apache XML Graphics EPS ProcSet) 1.0 0
%%Version: 1.0 0
%%Copyright: (Copyright 2002-2003 The Apache Software Foundation. License terms: http://www.apache.org/licenses/LICENSE-2.0)
/BeginEPSF { %def
/b4_Inc_state save def         % Save state for cleanup
/dict_count countdictstack def % Count objects on dict stack
/op_count count 1 sub def      % Count objects on operand stack
userdict begin                 % Push userdict on dict stack
/showpage { } def              % Redefine showpage, { } = null proc
0 setgray 0 setlinecap         % Prepare graphics state
1 setlinewidth 0 setlinejoin
10 setmiterlimit [ ] 0 setdash newpath
/languagelevel where           % If level not equal to 1 then
{pop languagelevel             % set strokeadjust and
1 ne                           % overprint to their defaults.
{false setstrokeadjust false setoverprint
} if
} if
} bd
/EndEPSF { %def
count op_count sub {pop} repeat            % Clean up stacks
countdictstack dict_count sub {end} repeat
b4_Inc_state restore
} bd
%%EndResource
%FOPBeginFontDict
%%IncludeResource: font Courier-Oblique
%%IncludeResource: font Courier-BoldOblique
%%IncludeResource: font Courier-Bold
%%IncludeResource: font ZapfDingbats
%%IncludeResource: font Symbol
%%IncludeResource: font Helvetica
%%IncludeResource: font Helvetica-Oblique
%%IncludeResource: font Helvetica-Bold
%%IncludeResource: font Helvetica-BoldOblique
%%IncludeResource: font Times-Roman
%%IncludeResource: font Times-Italic
%%IncludeResource: font Times-Bold
%%IncludeResource: font Times-BoldItalic
%%IncludeResource: font Courier
%FOPEndFontDict
%%BeginResource: encoding WinAnsiEncoding
/WinAnsiEncoding [
/.notdef /.notdef /.notdef /.notdef /.notdef
/.notdef /.notdef /.notdef /.notdef /.notdef
/.notdef /.notdef /.notdef /.notdef /.notdef
/.notdef /.notdef /.notdef /.notdef /.notdef
/.notdef /.notdef /.notdef /.notdef /.notdef
/.notdef /.notdef /.notdef /.notdef /.notdef
/.notdef /.notdef /space /exclam /quotedbl
/numbersign /dollar /percent /ampersand /quotesingle
/parenleft /parenright /asterisk /plus /comma
/hyphen /period /slash /zero /one
/two /three /four /five /six
/seven /eight /nine /colon /semicolon
/less /equal /greater /question /at
/A /B /C /D /E
/F /G /H /I /J
/K /L /M /N /O
/P /Q /R /S /T
/U /V /W /X /Y
/Z /bracketleft /backslash /bracketright /asciicircum
/underscore /quoteleft /a /b /c
/d /e /f /g /h
/i /j /k /l /m
/n /o /p /q /r
/s /t /u /v /w
/x /y /z /braceleft /bar
/braceright /asciitilde /bullet /Euro /bullet
/quotesinglbase /florin /quotedblbase /ellipsis /dagger
/daggerdbl /circumflex /perthousand /Scaron /guilsinglleft
/OE /bullet /Zcaron /bullet /bullet
/quoteleft /quoteright /quotedblleft /quotedblright /bullet
/endash /emdash /asciitilde /trademark /scaron
/guilsinglright /oe /bullet /zcaron /Ydieresis
/space /exclamdown /cent /sterling /currency
/yen /brokenbar /section /dieresis /copyright
/ordfeminine /guillemotleft /logicalnot /sfthyphen /registered
/macron /degree /plusminus /twosuperior /threesuperior
/acute /mu /paragraph /middot /cedilla
/onesuperior /ordmasculine /guillemotright /onequarter /onehalf
/threequarters /questiondown /Agrave /Aacute /Acircumflex
/Atilde /Adieresis /Aring /AE /Ccedilla
/Egrave /Eacute /Ecircumflex /Edieresis /Igrave
/Iacute /Icircumflex /Idieresis /Eth /Ntilde
/Ograve /Oacute /Ocircumflex /Otilde /Odieresis
/multiply /Oslash /Ugrave /Uacute /Ucircumflex
/Udieresis /Yacute /Thorn /germandbls /agrave
/aacute /acircumflex /atilde /adieresis /aring
/ae /ccedilla /egrave /eacute /ecircumflex
/edieresis /igrave /iacute /icircumflex /idieresis
/eth /ntilde /ograve /oacute /ocircumflex
/otilde /odieresis /divide /oslash /ugrave
/uacute /ucircumflex /udieresis /yacute /thorn
/ydieresis
] def
%%EndResource
%FOPBeginFontReencode
/Courier-Oblique findfont
dup length dict begin
  {1 index /FID ne {def} {pop pop} ifelse} forall
  /Encoding WinAnsiEncoding def
  currentdict
end
/Courier-Oblique exch definefont pop
/Courier-BoldOblique findfont
dup length dict begin
  {1 index /FID ne {def} {pop pop} ifelse} forall
  /Encoding WinAnsiEncoding def
  currentdict
end
/Courier-BoldOblique exch definefont pop
/Courier-Bold findfont
dup length dict begin
  {1 index /FID ne {def} {pop pop} ifelse} forall
  /Encoding WinAnsiEncoding def
  currentdict
end
/Courier-Bold exch definefont pop
/Helvetica findfont
dup length dict begin
  {1 index /FID ne {def} {pop pop} ifelse} forall
  /Encoding WinAnsiEncoding def
  currentdict
end
/Helvetica exch definefont pop
/Helvetica-Oblique findfont
dup length dict begin
  {1 index /FID ne {def} {pop pop} ifelse} forall
  /Encoding WinAnsiEncoding def
  currentdict
end
/Helvetica-Oblique exch definefont pop
/Helvetica-Bold findfont
dup length dict begin
  {1 index /FID ne {def} {pop pop} ifelse} forall
  /Encoding WinAnsiEncoding def
  currentdict
end
/Helvetica-Bold exch definefont pop
/Helvetica-BoldOblique findfont
dup length dict begin
  {1 index /FID ne {def} {pop pop} ifelse} forall
  /Encoding WinAnsiEncoding def
  currentdict
end
/Helvetica-BoldOblique exch definefont pop
/Times-Roman findfont
dup length dict begin
  {1 index /FID ne {def} {pop pop} ifelse} forall
  /Encoding WinAnsiEncoding def
  currentdict
end
/Times-Roman exch definefont pop
/Times-Italic findfont
dup length dict begin
  {1 index /FID ne {def} {pop pop} ifelse} forall
  /Encoding WinAnsiEncoding def
  currentdict
end
/Times-Italic exch definefont pop
/Times-Bold findfont
dup length dict begin
  {1 index /FID ne {def} {pop pop} ifelse} forall
  /Encoding WinAnsiEncoding def
  currentdict
end
/Times-Bold exch definefont pop
/Times-BoldItalic findfont
dup length dict begin
  {1 index /FID ne {def} {pop pop} ifelse} forall
  /Encoding WinAnsiEncoding def
  currentdict
end
/Times-BoldItalic exch definefont pop
/Courier findfont
dup length dict begin
  {1 index /FID ne {def} {pop pop} ifelse} forall
  /Encoding WinAnsiEncoding def
  currentdict
end
/Courier exch definefont pop
%FOPEndFontReencode
%%EndProlog
%%Page: 1 1
%%PageBoundingBox: 0 0 1120 840
%%BeginPageSetup
[1 0 0 -1 0 840] CT
%%EndPageSetup
GS
1 GC
N
0 0 1120 840 re
f
GR
GS
1 GC
N
73 374 M
507 374 L
507 31.5 L
73 31.5 L
cp
f
GR
GS
0.149 GC
2 setlinecap
1 LJ
0.5 LW
N
73 374 M
507 374 L
S
GR
GS
0.149 GC
2 setlinecap
1 LJ
0.5 LW
N
73 31.5 M
507 31.5 L
S
GR
GS
0.149 GC
2 setlinecap
1 LJ
0.5 LW
N
110.609 374 M
110.609 369.66 L
S
GR
GS
0.149 GC
2 setlinecap
1 LJ
0.5 LW
N
159.242 374 M
159.242 369.66 L
S
GR
GS
0.149 GC
2 setlinecap
1 LJ
0.5 LW
N
207.874 374 M
207.874 369.66 L
S
GR
GS
0.149 GC
2 setlinecap
1 LJ
0.5 LW
N
256.506 374 M
256.506 369.66 L
S
GR
GS
0.149 GC
2 setlinecap
1 LJ
0.5 LW
N
305.138 374 M
305.138 369.66 L
S
GR
GS
0.149 GC
2 setlinecap
1 LJ
0.5 LW
N
353.77 374 M
353.77 369.66 L
S
GR
GS
0.149 GC
2 setlinecap
1 LJ
0.5 LW
N
402.402 374 M
402.402 369.66 L
S
GR
GS
0.149 GC
2 setlinecap
1 LJ
0.5 LW
N
451.034 374 M
451.034 369.66 L
S
GR
GS
0.149 GC
2 setlinecap
1 LJ
0.5 LW
N
499.667 374 M
499.667 369.66 L
S
GR
GS
0.149 GC
2 setlinecap
1 LJ
0.5 LW
N
110.609 31.5 M
110.609 35.84 L
S
GR
GS
0.149 GC
2 setlinecap
1 LJ
0.5 LW
N
159.242 31.5 M
159.242 35.84 L
S
GR
GS
0.149 GC
2 setlinecap
1 LJ
0.5 LW
N
207.874 31.5 M
207.874 35.84 L
S
GR
GS
0.149 GC
2 setlinecap
1 LJ
0.5 LW
N
256.506 31.5 M
256.506 35.84 L
S
GR
GS
0.149 GC
2 setlinecap
1 LJ
0.5 LW
N
305.138 31.5 M
305.138 35.84 L
S
GR
GS
0.149 GC
2 setlinecap
1 LJ
0.5 LW
N
353.77 31.5 M
353.77 35.84 L
S
GR
GS
0.149 GC
2 setlinecap
1 LJ
0.5 LW
N
402.402 31.5 M
402.402 35.84 L
S
GR
GS
0.149 GC
2 setlinecap
1 LJ
0.5 LW
N
451.034 31.5 M
451.034 35.84 L
S
GR
GS
0.149 GC
2 setlinecap
1 LJ
0.5 LW
N
499.667 31.5 M
499.667 35.84 L
S
GR
GS
0.149 GC
2 setlinecap
1 LJ
0.5 LW
N
74.135 374 M
74.135 371.83 L
S
GR
GS
0.149 GC
2 setlinecap
1 LJ
0.5 LW
N
86.293 374 M
86.293 371.83 L
S
GR
GS
0.149 GC
2 setlinecap
1 LJ
0.5 LW
N
98.451 374 M
98.451 371.83 L
S
GR
GS
0.149 GC
2 setlinecap
1 LJ
0.5 LW
N
122.767 374 M
122.767 371.83 L
S
GR
GS
0.149 GC
2 setlinecap
1 LJ
0.5 LW
N
134.925 374 M
134.925 371.83 L
S
GR
GS
0.149 GC
2 setlinecap
1 LJ
0.5 LW
N
147.083 374 M
147.083 371.83 L
S
GR
GS
0.149 GC
2 setlinecap
1 LJ
0.5 LW
N
171.4 374 M
171.4 371.83 L
S
GR
GS
0.149 GC
2 setlinecap
1 LJ
0.5 LW
N
183.558 374 M
183.558 371.83 L
S
GR
GS
0.149 GC
2 setlinecap
1 LJ
0.5 LW
N
195.716 374 M
195.716 371.83 L
S
GR
GS
0.149 GC
2 setlinecap
1 LJ
0.5 LW
N
220.032 374 M
220.032 371.83 L
S
GR
GS
0.149 GC
2 setlinecap
1 LJ
0.5 LW
N
232.19 374 M
232.19 371.83 L
S
GR
GS
0.149 GC
2 setlinecap
1 LJ
0.5 LW
N
244.348 374 M
244.348 371.83 L
S
GR
GS
0.149 GC
2 setlinecap
1 LJ
0.5 LW
N
268.664 374 M
268.664 371.83 L
S
GR
GS
0.149 GC
2 setlinecap
1 LJ
0.5 LW
N
280.822 374 M
280.822 371.83 L
S
GR
GS
0.149 GC
2 setlinecap
1 LJ
0.5 LW
N
292.98 374 M
292.98 371.83 L
S
GR
GS
0.149 GC
2 setlinecap
1 LJ
0.5 LW
N
317.296 374 M
317.296 371.83 L
S
GR
GS
0.149 GC
2 setlinecap
1 LJ
0.5 LW
N
329.454 374 M
329.454 371.83 L
S
GR
GS
0.149 GC
2 setlinecap
1 LJ
0.5 LW
N
341.612 374 M
341.612 371.83 L
S
GR
GS
0.149 GC
2 setlinecap
1 LJ
0.5 LW
N
365.928 374 M
365.928 371.83 L
S
GR
GS
0.149 GC
2 setlinecap
1 LJ
0.5 LW
N
378.086 374 M
378.086 371.83 L
S
GR
GS
0.149 GC
2 setlinecap
1 LJ
0.5 LW
N
390.244 374 M
390.244 371.83 L
S
GR
GS
0.149 GC
2 setlinecap
1 LJ
0.5 LW
N
414.56 374 M
414.56 371.83 L
S
GR
GS
0.149 GC
2 setlinecap
1 LJ
0.5 LW
N
426.718 374 M
426.718 371.83 L
S
GR
GS
0.149 GC
2 setlinecap
1 LJ
0.5 LW
N
438.876 374 M
438.876 371.83 L
S
GR
GS
0.149 GC
2 setlinecap
1 LJ
0.5 LW
N
463.192 374 M
463.192 371.83 L
S
GR
GS
0.149 GC
2 setlinecap
1 LJ
0.5 LW
N
475.35 374 M
475.35 371.83 L
S
GR
GS
0.149 GC
2 setlinecap
1 LJ
0.5 LW
N
487.509 374 M
487.509 371.83 L
S
GR
GS
0.149 GC
2 setlinecap
1 LJ
0.5 LW
N
74.135 31.5 M
74.135 33.67 L
S
GR
GS
0.149 GC
2 setlinecap
1 LJ
0.5 LW
N
86.293 31.5 M
86.293 33.67 L
S
GR
GS
0.149 GC
2 setlinecap
1 LJ
0.5 LW
N
98.451 31.5 M
98.451 33.67 L
S
GR
GS
0.149 GC
2 setlinecap
1 LJ
0.5 LW
N
122.767 31.5 M
122.767 33.67 L
S
GR
GS
0.149 GC
2 setlinecap
1 LJ
0.5 LW
N
134.925 31.5 M
134.925 33.67 L
S
GR
GS
0.149 GC
2 setlinecap
1 LJ
0.5 LW
N
147.083 31.5 M
147.083 33.67 L
S
GR
GS
0.149 GC
2 setlinecap
1 LJ
0.5 LW
N
171.4 31.5 M
171.4 33.67 L
S
GR
GS
0.149 GC
2 setlinecap
1 LJ
0.5 LW
N
183.558 31.5 M
183.558 33.67 L
S
GR
GS
0.149 GC
2 setlinecap
1 LJ
0.5 LW
N
195.716 31.5 M
195.716 33.67 L
S
GR
GS
0.149 GC
2 setlinecap
1 LJ
0.5 LW
N
220.032 31.5 M
220.032 33.67 L
S
GR
GS
0.149 GC
2 setlinecap
1 LJ
0.5 LW
N
232.19 31.5 M
232.19 33.67 L
S
GR
GS
0.149 GC
2 setlinecap
1 LJ
0.5 LW
N
244.348 31.5 M
244.348 33.67 L
S
GR
GS
0.149 GC
2 setlinecap
1 LJ
0.5 LW
N
268.664 31.5 M
268.664 33.67 L
S
GR
GS
0.149 GC
2 setlinecap
1 LJ
0.5 LW
N
280.822 31.5 M
280.822 33.67 L
S
GR
GS
0.149 GC
2 setlinecap
1 LJ
0.5 LW
N
292.98 31.5 M
292.98 33.67 L
S
GR
GS
0.149 GC
2 setlinecap
1 LJ
0.5 LW
N
317.296 31.5 M
317.296 33.67 L
S
GR
GS
0.149 GC
2 setlinecap
1 LJ
0.5 LW
N
329.454 31.5 M
329.454 33.67 L
S
GR
GS
0.149 GC
2 setlinecap
1 LJ
0.5 LW
N
341.612 31.5 M
341.612 33.67 L
S
GR
GS
0.149 GC
2 setlinecap
1 LJ
0.5 LW
N
365.928 31.5 M
365.928 33.67 L
S
GR
GS
0.149 GC
2 setlinecap
1 LJ
0.5 LW
N
378.086 31.5 M
378.086 33.67 L
S
GR
GS
0.149 GC
2 setlinecap
1 LJ
0.5 LW
N
390.244 31.5 M
390.244 33.67 L
S
GR
GS
0.149 GC
2 setlinecap
1 LJ
0.5 LW
N
414.56 31.5 M
414.56 33.67 L
S
GR
GS
0.149 GC
2 setlinecap
1 LJ
0.5 LW
N
426.718 31.5 M
426.718 33.67 L
S
GR
GS
0.149 GC
2 setlinecap
1 LJ
0.5 LW
N
438.876 31.5 M
438.876 33.67 L
S
GR
GS
0.149 GC
2 setlinecap
1 LJ
0.5 LW
N
463.192 31.5 M
463.192 33.67 L
S
GR
GS
0.149 GC
2 setlinecap
1 LJ
0.5 LW
N
475.35 31.5 M
475.35 33.67 L
S
GR
GS
0.149 GC
2 setlinecap
1 LJ
0.5 LW
N
487.509 31.5 M
487.509 33.67 L
S
GR
GS
[1 0 0 1 110.60934 378.79999] CT
0.149 GC
/Helvetica 14 F
GS
[1 0 0 1 0 0] CT
-16 14 moveto 
1 -1 scale
(2000) t 
GR
GR
GS
[1 0 0 1 159.2415 378.79999] CT
0.149 GC
/Helvetica 14 F
GS
[1 0 0 1 0 0] CT
-16 14 moveto 
1 -1 scale
(4000) t 
GR
GR
GS
[1 0 0 1 207.87364 378.79999] CT
0.149 GC
/Helvetica 14 F
GS
[1 0 0 1 0 0] CT
-16 14 moveto 
1 -1 scale
(6000) t 
GR
GR
GS
[1 0 0 1 256.5058 378.79999] CT
0.149 GC
/Helvetica 14 F
GS
[1 0 0 1 0 0] CT
-16 14 moveto 
1 -1 scale
(8000) t 
GR
GR
GS
[1 0 0 1 305.13797 378.79999] CT
0.149 GC
/Helvetica 14 F
GS
[1 0 0 1 0 0] CT
-19.5 14 moveto 
1 -1 scale
(10000) t 
GR
GR
GS
[1 0 0 1 353.77011 378.79999] CT
0.149 GC
/Helvetica 14 F
GS
[1 0 0 1 0 0] CT
-19.5 14 moveto 
1 -1 scale
(12000) t 
GR
GR
GS
[1 0 0 1 402.40225 378.79999] CT
0.149 GC
/Helvetica 14 F
GS
[1 0 0 1 0 0] CT
-19.5 14 moveto 
1 -1 scale
(14000) t 
GR
GR
GS
[1 0 0 1 451.03442 378.79999] CT
0.149 GC
/Helvetica 14 F
GS
[1 0 0 1 0 0] CT
-19.5 14 moveto 
1 -1 scale
(16000) t 
GR
GR
GS
[1 0 0 1 499.66656 378.79999] CT
0.149 GC
/Helvetica 14 F
GS
[1 0 0 1 0 0] CT
-19.5 14 moveto 
1 -1 scale
(18000) t 
GR
GR
GS
[1 0 0 1 290.00021 396.29999] CT
0.149 GC
/Helvetica 15.4 F
GS
[1 0 0 1 0 0] CT
-42 15 moveto 
1 -1 scale
(Bitrate\(kb/s\)) t 
GR
GR
GS
0.149 GC
2 setlinecap
1 LJ
0.5 LW
N
73 374 M
73 31.5 L
S
GR
GS
0.149 GC
2 setlinecap
1 LJ
0.5 LW
N
507 374 M
507 31.5 L
S
GR
GS
0.149 GC
2 setlinecap
1 LJ
0.5 LW
N
73 319.108 M
77.34 319.108 L
S
GR
GS
0.149 GC
2 setlinecap
1 LJ
0.5 LW
N
73 262.534 M
77.34 262.534 L
S
GR
GS
0.149 GC
2 setlinecap
1 LJ
0.5 LW
N
73 205.961 M
77.34 205.961 L
S
GR
GS
0.149 GC
2 setlinecap
1 LJ
0.5 LW
N
73 149.387 M
77.34 149.387 L
S
GR
GS
0.149 GC
2 setlinecap
1 LJ
0.5 LW
N
73 92.813 M
77.34 92.813 L
S
GR
GS
0.149 GC
2 setlinecap
1 LJ
0.5 LW
N
73 36.24 M
77.34 36.24 L
S
GR
GS
0.149 GC
2 setlinecap
1 LJ
0.5 LW
N
507 319.108 M
502.66 319.108 L
S
GR
GS
0.149 GC
2 setlinecap
1 LJ
0.5 LW
N
507 262.534 M
502.66 262.534 L
S
GR
GS
0.149 GC
2 setlinecap
1 LJ
0.5 LW
N
507 205.961 M
502.66 205.961 L
S
GR
GS
0.149 GC
2 setlinecap
1 LJ
0.5 LW
N
507 149.387 M
502.66 149.387 L
S
GR
GS
0.149 GC
2 setlinecap
1 LJ
0.5 LW
N
507 92.813 M
502.66 92.813 L
S
GR
GS
0.149 GC
2 setlinecap
1 LJ
0.5 LW
N
507 36.24 M
502.66 36.24 L
S
GR
GS
0.149 GC
2 setlinecap
1 LJ
0.5 LW
N
73 364.366 M
75.17 364.366 L
S
GR
GS
0.149 GC
2 setlinecap
1 LJ
0.5 LW
N
73 353.052 M
75.17 353.052 L
S
GR
GS
0.149 GC
2 setlinecap
1 LJ
0.5 LW
N
73 341.737 M
75.17 341.737 L
S
GR
GS
0.149 GC
2 setlinecap
1 LJ
0.5 LW
N
73 330.422 M
75.17 330.422 L
S
GR
GS
0.149 GC
2 setlinecap
1 LJ
0.5 LW
N
73 307.793 M
75.17 307.793 L
S
GR
GS
0.149 GC
2 setlinecap
1 LJ
0.5 LW
N
73 296.478 M
75.17 296.478 L
S
GR
GS
0.149 GC
2 setlinecap
1 LJ
0.5 LW
N
73 285.164 M
75.17 285.164 L
S
GR
GS
0.149 GC
2 setlinecap
1 LJ
0.5 LW
N
73 273.849 M
75.17 273.849 L
S
GR
GS
0.149 GC
2 setlinecap
1 LJ
0.5 LW
N
73 251.219 M
75.17 251.219 L
S
GR
GS
0.149 GC
2 setlinecap
1 LJ
0.5 LW
N
73 239.905 M
75.17 239.905 L
S
GR
GS
0.149 GC
2 setlinecap
1 LJ
0.5 LW
N
73 228.59 M
75.17 228.59 L
S
GR
GS
0.149 GC
2 setlinecap
1 LJ
0.5 LW
N
73 217.275 M
75.17 217.275 L
S
GR
GS
0.149 GC
2 setlinecap
1 LJ
0.5 LW
N
73 194.646 M
75.17 194.646 L
S
GR
GS
0.149 GC
2 setlinecap
1 LJ
0.5 LW
N
73 183.331 M
75.17 183.331 L
S
GR
GS
0.149 GC
2 setlinecap
1 LJ
0.5 LW
N
73 172.016 M
75.17 172.016 L
S
GR
GS
0.149 GC
2 setlinecap
1 LJ
0.5 LW
N
73 160.702 M
75.17 160.702 L
S
GR
GS
0.149 GC
2 setlinecap
1 LJ
0.5 LW
N
73 138.072 M
75.17 138.072 L
S
GR
GS
0.149 GC
2 setlinecap
1 LJ
0.5 LW
N
73 126.757 M
75.17 126.757 L
S
GR
GS
0.149 GC
2 setlinecap
1 LJ
0.5 LW
N
73 115.443 M
75.17 115.443 L
S
GR
GS
0.149 GC
2 setlinecap
1 LJ
0.5 LW
N
73 104.128 M
75.17 104.128 L
S
GR
GS
0.149 GC
2 setlinecap
1 LJ
0.5 LW
N
73 81.499 M
75.17 81.499 L
S
GR
GS
0.149 GC
2 setlinecap
1 LJ
0.5 LW
N
73 70.184 M
75.17 70.184 L
S
GR
GS
0.149 GC
2 setlinecap
1 LJ
0.5 LW
N
73 58.869 M
75.17 58.869 L
S
GR
GS
0.149 GC
2 setlinecap
1 LJ
0.5 LW
N
73 47.555 M
75.17 47.555 L
S
GR
GS
0.149 GC
2 setlinecap
1 LJ
0.5 LW
N
507 364.366 M
504.83 364.366 L
S
GR
GS
0.149 GC
2 setlinecap
1 LJ
0.5 LW
N
507 353.052 M
504.83 353.052 L
S
GR
GS
0.149 GC
2 setlinecap
1 LJ
0.5 LW
N
507 341.737 M
504.83 341.737 L
S
GR
GS
0.149 GC
2 setlinecap
1 LJ
0.5 LW
N
507 330.422 M
504.83 330.422 L
S
GR
GS
0.149 GC
2 setlinecap
1 LJ
0.5 LW
N
507 307.793 M
504.83 307.793 L
S
GR
GS
0.149 GC
2 setlinecap
1 LJ
0.5 LW
N
507 296.478 M
504.83 296.478 L
S
GR
GS
0.149 GC
2 setlinecap
1 LJ
0.5 LW
N
507 285.164 M
504.83 285.164 L
S
GR
GS
0.149 GC
2 setlinecap
1 LJ
0.5 LW
N
507 273.849 M
504.83 273.849 L
S
GR
GS
0.149 GC
2 setlinecap
1 LJ
0.5 LW
N
507 251.219 M
504.83 251.219 L
S
GR
GS
0.149 GC
2 setlinecap
1 LJ
0.5 LW
N
507 239.905 M
504.83 239.905 L
S
GR
GS
0.149 GC
2 setlinecap
1 LJ
0.5 LW
N
507 228.59 M
504.83 228.59 L
S
GR
GS
0.149 GC
2 setlinecap
1 LJ
0.5 LW
N
507 217.275 M
504.83 217.275 L
S
GR
GS
0.149 GC
2 setlinecap
1 LJ
0.5 LW
N
507 194.646 M
504.83 194.646 L
S
GR
GS
0.149 GC
2 setlinecap
1 LJ
0.5 LW
N
507 183.331 M
504.83 183.331 L
S
GR
GS
0.149 GC
2 setlinecap
1 LJ
0.5 LW
N
507 172.016 M
504.83 172.016 L
S
GR
GS
0.149 GC
2 setlinecap
1 LJ
0.5 LW
N
507 160.702 M
504.83 160.702 L
S
GR
GS
0.149 GC
2 setlinecap
1 LJ
0.5 LW
N
507 138.072 M
504.83 138.072 L
S
GR
GS
0.149 GC
2 setlinecap
1 LJ
0.5 LW
N
507 126.757 M
504.83 126.757 L
S
GR
GS
0.149 GC
2 setlinecap
1 LJ
0.5 LW
N
507 115.443 M
504.83 115.443 L
S
GR
GS
0.149 GC
2 setlinecap
1 LJ
0.5 LW
N
507 104.128 M
504.83 104.128 L
S
GR
GS
0.149 GC
2 setlinecap
1 LJ
0.5 LW
N
507 81.499 M
504.83 81.499 L
S
GR
GS
0.149 GC
2 setlinecap
1 LJ
0.5 LW
N
507 70.184 M
504.83 70.184 L
S
GR
GS
0.149 GC
2 setlinecap
1 LJ
0.5 LW
N
507 58.869 M
504.83 58.869 L
S
GR
GS
0.149 GC
2 setlinecap
1 LJ
0.5 LW
N
507 47.555 M
504.83 47.555 L
S
GR
GS
[1 0 0 1 68.2 319.10754] CT
0.149 GC
/Helvetica 14 F
GS
[1 0 0 1 0 0] CT
-16 5.5 moveto 
1 -1 scale
(32) t 
GR
GR
GS
[1 0 0 1 68.2 262.53403] CT
0.149 GC
/Helvetica 14 F
GS
[1 0 0 1 0 0] CT
-16 5.5 moveto 
1 -1 scale
(33) t 
GR
GR
GS
[1 0 0 1 68.2 205.96051] CT
0.149 GC
/Helvetica 14 F
GS
[1 0 0 1 0 0] CT
-16 5.5 moveto 
1 -1 scale
(34) t 
GR
GR
GS
[1 0 0 1 68.2 149.38699] CT
0.149 GC
/Helvetica 14 F
GS
[1 0 0 1 0 0] CT
-16 5.5 moveto 
1 -1 scale
(35) t 
GR
GR
GS
[1 0 0 1 68.2 92.81347] CT
0.149 GC
/Helvetica 14 F
GS
[1 0 0 1 0 0] CT
-16 5.5 moveto 
1 -1 scale
(36) t 
GR
GR
GS
[1 0 0 1 68.2 36.23994] CT
0.149 GC
/Helvetica 14 F
GS
[1 0 0 1 0 0] CT
-16 5.5 moveto 
1 -1 scale
(37) t 
GR
GR
GS
[0 -1 1 0 49.2 202.74989] CT
0.149 GC
/Helvetica 15.4 F
GS
[1 0 0 1 0 0] CT
-47 -4 moveto 
1 -1 scale
(APSNR Y\(dB\)) t 
GR
GR
GS
[1 0 0 1 290.00027 29.57505] CT
/Helvetica-Bold 15.4 F
GS
[1 0 0 1 0 0] CT
-148.5 -4 moveto 
1 -1 scale
(OldTownCross_1920x1080p50.y4m-hevc) t 
GR
GR
GS
0 0.447 0.741 RC
1 LJ
0.5 LW
N
73.65 364.236 M
74.136 357.676 L
74.623 351.148 L
75.109 344.663 L
75.595 338.231 L
76.082 331.864 L
76.568 325.572 L
77.054 319.366 L
77.541 313.258 L
78.027 307.257 L
78.513 301.375 L
78.999 295.624 L
79.486 290.013 L
79.972 284.553 L
80.458 279.256 L
80.945 274.132 L
81.431 269.192 L
81.917 264.447 L
82.404 259.908 L
82.89 255.586 L
83.376 251.492 L
83.863 247.636 L
84.349 244.03 L
84.835 240.61 L
85.322 237.242 L
85.808 233.924 L
86.294 230.654 L
86.781 227.435 L
87.267 224.266 L
87.753 221.149 L
88.24 218.083 L
88.726 215.069 L
89.212 212.109 L
89.699 209.201 L
90.185 206.348 L
90.671 203.548 L
91.158 200.804 L
91.644 198.115 L
92.13 195.482 L
92.616 192.906 L
93.103 190.387 L
93.589 187.925 L
94.075 185.522 L
94.562 183.177 L
95.048 180.891 L
95.534 178.666 L
96.021 176.5 L
96.507 174.396 L
96.993 172.353 L
97.48 170.371 L
97.966 168.452 L
98.452 166.596 L
98.939 164.804 L
99.425 163.076 L
99.911 161.412 L
100.398 159.813 L
100.884 158.28 L
101.37 156.814 L
101.857 155.414 L
102.343 154.081 L
102.829 152.816 L
103.316 151.614 L
103.802 150.429 L
104.288 149.256 L
104.775 148.094 L
105.261 146.942 L
105.747 145.802 L
106.233 144.673 L
106.72 143.555 L
107.206 142.448 L
107.692 141.352 L
108.179 140.268 L
108.665 139.195 L
109.151 138.133 L
109.638 137.082 L
110.124 136.043 L
110.61 135.015 L
111.097 133.998 L
111.583 132.993 L
112.069 132 L
112.556 131.018 L
113.042 130.047 L
113.528 129.088 L
114.015 128.14 L
114.501 127.204 L
114.987 126.28 L
115.474 125.368 L
115.96 124.467 L
116.446 123.578 L
116.933 122.701 L
117.419 121.835 L
117.905 120.982 L
118.392 120.14 L
118.878 119.31 L
119.364 118.492 L
119.85 117.686 L
120.337 116.892 L
120.823 116.11 L
121.309 115.34 L
121.796 114.582 L
122.282 113.836 L
122.768 113.103 L
123.255 112.382 L
123.741 111.673 L
124.227 110.975 L
124.714 110.291 L
125.2 109.619 L
125.686 108.959 L
126.173 108.311 L
126.659 107.676 L
127.145 107.053 L
127.632 106.443 L
128.118 105.845 L
128.604 105.259 L
129.091 104.687 L
129.577 104.127 L
130.063 103.579 L
130.55 103.044 L
131.036 102.522 L
131.522 102.013 L
132.009 101.516 L
132.495 101.032 L
132.981 100.561 L
133.467 100.102 L
133.954 99.657 L
134.44 99.225 L
134.926 98.805 L
135.413 98.398 L
135.899 98.005 L
136.385 97.624 L
136.872 97.256 L
137.358 96.902 L
137.844 96.561 L
138.331 96.232 L
138.817 95.917 L
139.303 95.616 L
139.79 95.327 L
140.276 95.052 L
140.762 94.79 L
141.249 94.541 L
141.735 94.299 L
142.221 94.058 L
142.708 93.817 L
143.194 93.577 L
143.68 93.338 L
144.167 93.1 L
144.653 92.862 L
145.139 92.625 L
145.626 92.389 L
146.112 92.154 L
146.598 91.919 L
147.085 91.685 L
147.571 91.451 L
148.057 91.219 L
148.543 90.987 L
149.03 90.755 L
149.516 90.525 L
150.002 90.295 L
150.489 90.066 L
150.975 89.838 L
151.461 89.61 L
151.948 89.383 L
152.434 89.157 L
152.92 88.931 L
153.407 88.707 L
153.893 88.482 L
154.379 88.259 L
154.866 88.036 L
155.352 87.814 L
155.838 87.593 L
156.325 87.373 L
156.811 87.153 L
157.297 86.934 L
157.784 86.715 L
158.27 86.498 L
158.756 86.281 L
159.243 86.064 L
159.729 85.849 L
160.215 85.634 L
160.702 85.42 L
161.188 85.206 L
161.674 84.994 L
162.16 84.782 L
162.647 84.57 L
163.133 84.36 L
163.619 84.15 L
164.106 83.941 L
164.592 83.732 L
165.078 83.524 L
165.565 83.317 L
166.051 83.111 L
166.537 82.905 L
167.024 82.7 L
167.51 82.496 L
167.996 82.293 L
168.483 82.09 L
168.969 81.888 L
169.455 81.686 L
169.942 81.486 L
170.428 81.286 L
170.914 81.087 L
171.401 80.888 L
171.887 80.69 L
172.373 80.493 L
172.86 80.296 L
173.346 80.101 L
173.832 79.906 L
174.319 79.711 L
174.805 79.518 L
175.291 79.325 L
175.777 79.133 L
176.264 78.941 L
176.75 78.75 L
177.236 78.56 L
177.723 78.371 L
178.209 78.182 L
178.695 77.994 L
179.182 77.807 L
179.668 77.62 L
180.154 77.434 L
180.641 77.249 L
181.127 77.065 L
181.613 76.881 L
182.1 76.698 L
182.586 76.515 L
183.072 76.334 L
183.559 76.153 L
184.045 75.972 L
184.531 75.793 L
185.018 75.614 L
185.504 75.436 L
185.99 75.258 L
186.477 75.082 L
186.963 74.905 L
187.449 74.73 L
187.936 74.555 L
188.422 74.381 L
188.908 74.208 L
189.394 74.036 L
189.881 73.864 L
190.367 73.693 L
190.853 73.522 L
191.34 73.353 L
191.826 73.183 L
192.312 73.015 L
192.799 72.847 L
193.285 72.68 L
193.771 72.514 L
194.258 72.349 L
194.744 72.184 L
195.23 72.019 L
195.717 71.856 L
196.203 71.693 L
196.689 71.531 L
197.176 71.37 L
197.662 71.209 L
198.148 71.049 L
198.635 70.89 L
199.121 70.731 L
199.607 70.573 L
200.094 70.416 L
200.58 70.259 L
201.066 70.103 L
201.553 69.948 L
202.039 69.794 L
202.525 69.64 L
203.011 69.487 L
203.498 69.335 L
203.984 69.183 L
204.47 69.032 L
204.957 68.882 L
205.443 68.732 L
205.929 68.583 L
206.416 68.435 L
206.902 68.288 L
207.388 68.141 L
207.875 67.995 L
208.361 67.849 L
208.847 67.705 L
209.334 67.561 L
209.82 67.417 L
210.306 67.275 L
210.793 67.133 L
211.279 66.991 L
211.765 66.851 L
212.252 66.711 L
212.738 66.572 L
213.224 66.433 L
213.711 66.295 L
214.197 66.158 L
214.683 66.022 L
215.17 65.886 L
215.656 65.751 L
216.142 65.617 L
216.628 65.483 L
217.115 65.35 L
217.601 65.218 L
218.087 65.086 L
218.574 64.955 L
219.06 64.825 L
219.546 64.695 L
220.033 64.566 L
220.519 64.438 L
221.005 64.311 L
221.492 64.184 L
221.978 64.058 L
222.464 63.932 L
222.951 63.808 L
223.437 63.684 L
223.923 63.56 L
224.41 63.438 L
224.896 63.316 L
225.382 63.194 L
225.869 63.074 L
226.355 62.954 L
226.841 62.835 L
227.328 62.716 L
227.814 62.598 L
228.3 62.481 L
228.787 62.364 L
229.273 62.249 L
229.759 62.133 L
230.245 62.019 L
230.732 61.905 L
231.218 61.792 L
231.704 61.68 L
232.191 61.568 L
232.677 61.457 L
233.163 61.347 L
233.65 61.237 L
234.136 61.128 L
234.622 61.02 L
235.109 60.912 L
235.595 60.805 L
236.081 60.699 L
236.568 60.593 L
237.054 60.488 L
237.54 60.384 L
238.027 60.281 L
238.513 60.178 L
238.999 60.076 L
239.486 59.974 L
239.972 59.873 L
240.458 59.773 L
240.945 59.674 L
241.431 59.575 L
241.917 59.477 L
242.404 59.38 L
242.89 59.283 L
243.376 59.187 L
243.862 59.092 L
244.349 58.997 L
244.835 58.903 L
245.321 58.809 L
245.808 58.717 L
246.294 58.625 L
246.78 58.534 L
247.267 58.443 L
247.753 58.353 L
248.239 58.264 L
248.726 58.175 L
249.212 58.087 L
249.698 58 L
250.185 57.914 L
250.671 57.828 L
251.157 57.742 L
251.644 57.658 L
252.13 57.574 L
252.616 57.491 L
253.103 57.409 L
253.589 57.327 L
254.075 57.246 L
254.562 57.165 L
255.048 57.085 L
255.534 57.006 L
256.021 56.928 L
256.507 56.85 L
256.993 56.773 L
257.479 56.697 L
257.966 56.621 L
258.452 56.546 L
258.938 56.471 L
259.425 56.398 L
259.911 56.325 L
260.397 56.252 L
260.884 56.181 L
261.37 56.11 L
261.856 56.039 L
262.343 55.97 L
262.829 55.901 L
263.315 55.832 L
263.802 55.765 L
264.288 55.698 L
264.774 55.631 L
265.261 55.566 L
265.747 55.501 L
266.233 55.436 L
266.72 55.373 L
267.206 55.31 L
267.692 55.247 L
268.179 55.186 L
268.665 55.125 L
269.151 55.065 L
269.638 55.005 L
270.124 54.946 L
270.61 54.888 L
271.096 54.83 L
271.583 54.773 L
272.069 54.717 L
272.555 54.661 L
273.042 54.607 L
273.528 54.552 L
274.014 54.499 L
274.501 54.446 L
274.987 54.394 L
275.473 54.342 L
275.96 54.291 L
276.446 54.241 L
276.932 54.191 L
277.419 54.142 L
277.905 54.094 L
278.391 54.046 L
278.878 53.999 L
279.364 53.953 L
279.85 53.908 L
280.337 53.863 L
280.823 53.818 L
281.309 53.775 L
281.796 53.732 L
282.282 53.69 L
282.768 53.648 L
283.255 53.607 L
283.741 53.567 L
284.227 53.527 L
284.714 53.488 L
285.2 53.45 L
285.686 53.413 L
286.172 53.376 L
286.659 53.339 L
287.145 53.304 L
287.631 53.269 L
288.118 53.234 L
288.604 53.201 L
289.09 53.168 L
289.577 53.136 L
290.063 53.104 L
290.549 53.073 L
291.036 53.043 L
291.522 53.013 L
292.008 52.984 L
292.495 52.956 L
292.981 52.928 L
293.467 52.901 L
293.954 52.875 L
294.44 52.849 L
294.926 52.824 L
295.413 52.8 L
295.899 52.776 L
296.385 52.753 L
296.872 52.73 L
297.358 52.709 L
297.844 52.688 L
298.331 52.667 L
298.817 52.648 L
299.303 52.629 L
299.789 52.61 L
300.276 52.592 L
300.762 52.575 L
301.248 52.559 L
301.735 52.543 L
302.221 52.528 L
302.707 52.513 L
303.194 52.5 L
303.68 52.486 L
304.166 52.474 L
304.653 52.462 L
305.139 52.451 L
305.625 52.44 L
306.112 52.431 L
306.598 52.421 L
307.084 52.413 L
307.571 52.405 L
308.057 52.397 L
308.543 52.391 L
309.03 52.385 L
309.516 52.38 L
310.002 52.375 L
310.489 52.371 L
310.975 52.368 L
311.461 52.365 L
311.948 52.363 L
312.434 52.362 L
312.92 52.361 L
S
GR
GS
0.851 0.325 0.098 RC
1 LJ
0.5 LW
N
74.053 357.776 M
74.54 351.402 L
75.026 345.058 L
75.512 338.752 L
75.999 332.496 L
76.485 326.301 L
76.971 320.177 L
77.457 314.134 L
77.944 308.183 L
78.43 302.334 L
78.916 296.598 L
79.403 290.985 L
79.889 285.506 L
80.375 280.171 L
80.862 274.991 L
81.348 269.976 L
81.834 265.136 L
82.321 260.483 L
82.807 256.026 L
83.293 251.776 L
83.78 247.744 L
84.266 243.94 L
84.752 240.374 L
85.239 237.037 L
85.725 233.781 L
86.211 230.571 L
86.698 227.408 L
87.184 224.293 L
87.67 221.226 L
88.157 218.207 L
88.643 215.237 L
89.129 212.317 L
89.616 209.447 L
90.102 206.626 L
90.588 203.857 L
91.074 201.139 L
91.561 198.473 L
92.047 195.859 L
92.533 193.298 L
93.02 190.79 L
93.506 188.335 L
93.992 185.935 L
94.479 183.589 L
94.965 181.299 L
95.451 179.063 L
95.938 176.884 L
96.424 174.762 L
96.91 172.696 L
97.397 170.688 L
97.883 168.737 L
98.369 166.845 L
98.856 165.012 L
99.342 163.238 L
99.828 161.523 L
100.315 159.869 L
100.801 158.276 L
101.287 156.744 L
101.774 155.273 L
102.26 153.865 L
102.746 152.519 L
103.233 151.236 L
103.719 150.017 L
104.205 148.861 L
104.691 147.738 L
105.178 146.626 L
105.664 145.523 L
106.15 144.431 L
106.637 143.349 L
107.123 142.277 L
107.609 141.216 L
108.096 140.165 L
108.582 139.124 L
109.068 138.093 L
109.555 137.073 L
110.041 136.063 L
110.527 135.064 L
111.014 134.075 L
111.5 133.096 L
111.986 132.128 L
112.473 131.171 L
112.959 130.224 L
113.445 129.288 L
113.932 128.362 L
114.418 127.447 L
114.904 126.543 L
115.391 125.649 L
115.877 124.766 L
116.363 123.894 L
116.85 123.032 L
117.336 122.181 L
117.822 121.342 L
118.308 120.513 L
118.795 119.695 L
119.281 118.887 L
119.767 118.091 L
120.254 117.306 L
120.74 116.531 L
121.226 115.768 L
121.713 115.016 L
122.199 114.275 L
122.685 113.544 L
123.172 112.825 L
123.658 112.117 L
124.144 111.421 L
124.631 110.735 L
125.117 110.061 L
125.603 109.398 L
126.09 108.746 L
126.576 108.105 L
127.062 107.476 L
127.549 106.858 L
128.035 106.252 L
128.521 105.657 L
129.008 105.073 L
129.494 104.501 L
129.98 103.941 L
130.467 103.391 L
130.953 102.854 L
131.439 102.328 L
131.925 101.813 L
132.412 101.311 L
132.898 100.819 L
133.384 100.34 L
133.871 99.872 L
134.357 99.416 L
134.843 98.972 L
135.33 98.539 L
135.816 98.119 L
136.302 97.71 L
136.789 97.312 L
137.275 96.927 L
137.761 96.554 L
138.248 96.193 L
138.734 95.843 L
139.22 95.506 L
139.707 95.181 L
140.193 94.868 L
140.679 94.566 L
141.166 94.277 L
141.652 94 L
142.138 93.735 L
142.625 93.483 L
143.111 93.242 L
143.597 93.014 L
144.084 92.792 L
144.57 92.57 L
145.056 92.349 L
145.542 92.128 L
146.029 91.909 L
146.515 91.69 L
147.001 91.471 L
147.488 91.253 L
147.974 91.035 L
148.46 90.819 L
148.947 90.602 L
149.433 90.386 L
149.919 90.172 L
150.406 89.957 L
150.892 89.743 L
151.378 89.53 L
151.865 89.317 L
152.351 89.105 L
152.837 88.894 L
153.324 88.683 L
153.81 88.472 L
154.296 88.263 L
154.783 88.054 L
155.269 87.845 L
155.755 87.637 L
156.242 87.43 L
156.728 87.223 L
157.214 87.017 L
157.701 86.812 L
158.187 86.607 L
158.673 86.402 L
159.159 86.198 L
159.646 85.995 L
160.132 85.793 L
160.618 85.591 L
161.105 85.389 L
161.591 85.188 L
162.077 84.988 L
162.564 84.789 L
163.05 84.59 L
163.536 84.391 L
164.023 84.193 L
164.509 83.996 L
164.995 83.799 L
165.482 83.603 L
165.968 83.408 L
166.454 83.213 L
166.941 83.019 L
167.427 82.825 L
167.913 82.632 L
168.4 82.439 L
168.886 82.247 L
169.372 82.056 L
169.859 81.865 L
170.345 81.675 L
170.831 81.485 L
171.318 81.296 L
171.804 81.108 L
172.29 80.92 L
172.777 80.733 L
173.263 80.546 L
173.749 80.36 L
174.235 80.174 L
174.722 79.989 L
175.208 79.805 L
175.694 79.621 L
176.181 79.438 L
176.667 79.256 L
177.153 79.073 L
177.64 78.892 L
178.126 78.711 L
178.612 78.531 L
179.099 78.351 L
179.585 78.172 L
180.071 77.994 L
180.558 77.816 L
181.044 77.638 L
181.53 77.462 L
182.017 77.285 L
182.503 77.11 L
182.989 76.935 L
183.476 76.76 L
183.962 76.586 L
184.448 76.413 L
184.935 76.24 L
185.421 76.068 L
185.907 75.897 L
186.394 75.726 L
186.88 75.555 L
187.366 75.385 L
187.852 75.216 L
188.339 75.048 L
188.825 74.88 L
189.311 74.712 L
189.798 74.545 L
190.284 74.379 L
190.77 74.213 L
191.257 74.048 L
191.743 73.883 L
192.229 73.719 L
192.716 73.556 L
193.202 73.393 L
193.688 73.23 L
194.175 73.068 L
194.661 72.907 L
195.147 72.747 L
195.634 72.587 L
196.12 72.427 L
196.606 72.268 L
197.093 72.11 L
197.579 71.952 L
198.065 71.795 L
198.552 71.639 L
199.038 71.483 L
199.524 71.327 L
200.011 71.172 L
200.497 71.018 L
200.983 70.864 L
201.469 70.711 L
201.956 70.558 L
202.442 70.406 L
202.928 70.255 L
203.415 70.104 L
203.901 69.953 L
204.387 69.804 L
204.874 69.655 L
205.36 69.506 L
205.846 69.358 L
206.333 69.21 L
206.819 69.063 L
207.305 68.917 L
207.792 68.771 L
208.278 68.626 L
208.764 68.481 L
209.251 68.337 L
209.737 68.194 L
210.223 68.051 L
210.71 67.908 L
211.196 67.767 L
211.682 67.626 L
212.169 67.485 L
212.655 67.345 L
213.141 67.205 L
213.628 67.066 L
214.114 66.928 L
214.6 66.79 L
215.086 66.652 L
215.573 66.516 L
216.059 66.379 L
216.545 66.244 L
217.032 66.109 L
217.518 65.974 L
218.004 65.84 L
218.491 65.707 L
218.977 65.574 L
219.463 65.442 L
219.95 65.31 L
220.436 65.179 L
220.922 65.049 L
221.409 64.919 L
221.895 64.789 L
222.381 64.66 L
222.868 64.532 L
223.354 64.404 L
223.84 64.277 L
224.327 64.15 L
224.813 64.024 L
225.299 63.899 L
225.786 63.774 L
226.272 63.649 L
226.758 63.525 L
227.245 63.402 L
227.731 63.279 L
228.217 63.157 L
228.703 63.035 L
229.19 62.914 L
229.676 62.794 L
230.162 62.674 L
230.649 62.554 L
231.135 62.436 L
231.621 62.317 L
232.108 62.2 L
232.594 62.082 L
233.08 61.966 L
233.567 61.85 L
234.053 61.734 L
234.539 61.619 L
235.026 61.505 L
235.512 61.391 L
235.998 61.277 L
236.485 61.165 L
236.971 61.053 L
237.457 60.941 L
237.944 60.83 L
238.43 60.719 L
238.916 60.609 L
239.403 60.5 L
239.889 60.391 L
240.375 60.282 L
240.862 60.174 L
241.348 60.067 L
241.834 59.961 L
242.32 59.854 L
242.807 59.749 L
243.293 59.644 L
243.779 59.539 L
244.266 59.435 L
244.752 59.332 L
245.238 59.229 L
245.725 59.126 L
246.211 59.025 L
246.697 58.924 L
247.184 58.823 L
247.67 58.723 L
248.156 58.623 L
248.643 58.524 L
249.129 58.426 L
249.615 58.328 L
250.102 58.23 L
250.588 58.133 L
251.074 58.037 L
251.561 57.941 L
252.047 57.846 L
252.533 57.751 L
253.02 57.657 L
253.506 57.564 L
253.992 57.47 L
254.479 57.378 L
254.965 57.286 L
255.451 57.195 L
255.937 57.103 L
256.424 57.013 L
256.91 56.923 L
257.396 56.834 L
257.883 56.745 L
258.369 56.657 L
258.855 56.57 L
259.342 56.482 L
259.828 56.396 L
260.314 56.31 L
260.801 56.224 L
261.287 56.139 L
261.773 56.055 L
262.26 55.971 L
262.746 55.888 L
263.232 55.805 L
263.719 55.723 L
264.205 55.641 L
264.691 55.56 L
265.178 55.479 L
265.664 55.399 L
266.15 55.319 L
266.637 55.24 L
267.123 55.162 L
267.609 55.084 L
268.096 55.006 L
268.582 54.93 L
269.068 54.853 L
269.554 54.777 L
270.041 54.702 L
270.527 54.627 L
271.013 54.553 L
271.5 54.479 L
271.986 54.406 L
272.472 54.334 L
272.959 54.262 L
273.445 54.19 L
273.931 54.119 L
274.418 54.048 L
274.904 53.979 L
275.39 53.909 L
275.877 53.84 L
276.363 53.772 L
276.849 53.704 L
277.336 53.637 L
277.822 53.57 L
278.308 53.504 L
278.795 53.438 L
279.281 53.373 L
279.767 53.308 L
280.254 53.244 L
280.74 53.18 L
281.226 53.117 L
281.713 53.055 L
282.199 52.993 L
282.685 52.931 L
283.171 52.87 L
283.658 52.81 L
284.144 52.75 L
284.63 52.691 L
285.117 52.632 L
285.603 52.573 L
286.089 52.516 L
286.576 52.458 L
287.062 52.402 L
287.548 52.345 L
288.035 52.29 L
288.521 52.235 L
289.007 52.18 L
289.494 52.126 L
289.98 52.072 L
290.466 52.019 L
290.953 51.967 L
291.439 51.915 L
291.925 51.863 L
292.412 51.812 L
292.898 51.761 L
293.384 51.712 L
293.871 51.662 L
294.357 51.613 L
294.843 51.565 L
295.33 51.517 L
295.816 51.47 L
296.302 51.423 L
296.788 51.377 L
297.275 51.331 L
297.761 51.286 L
298.247 51.241 L
298.734 51.197 L
299.22 51.153 L
299.706 51.11 L
300.193 51.067 L
300.679 51.025 L
301.165 50.983 L
301.652 50.942 L
302.138 50.902 L
302.624 50.862 L
303.111 50.822 L
303.597 50.783 L
304.083 50.745 L
304.57 50.707 L
305.056 50.669 L
305.542 50.632 L
306.029 50.596 L
306.515 50.56 L
307.001 50.524 L
307.488 50.49 L
307.974 50.455 L
308.46 50.421 L
308.947 50.388 L
309.433 50.355 L
309.919 50.323 L
310.405 50.291 L
310.892 50.26 L
311.378 50.229 L
311.864 50.199 L
312.351 50.169 L
312.837 50.14 L
313.323 50.111 L
313.81 50.083 L
314.296 50.055 L
314.782 50.028 L
315.269 50.001 L
315.755 49.975 L
316.241 49.949 L
316.728 49.924 L
317.214 49.899 L
317.7 49.875 L
318.187 49.852 L
318.673 49.828 L
319.159 49.806 L
319.646 49.784 L
320.132 49.762 L
320.618 49.741 L
321.105 49.72 L
321.591 49.7 L
322.077 49.681 L
322.564 49.662 L
323.05 49.643 L
323.536 49.625 L
324.022 49.607 L
324.509 49.591 L
324.995 49.574 L
325.481 49.558 L
325.968 49.543 L
326.454 49.527 L
326.94 49.513 L
327.427 49.499 L
327.913 49.485 L
328.399 49.472 L
328.886 49.46 L
329.372 49.448 L
329.858 49.437 L
330.345 49.426 L
330.831 49.415 L
331.317 49.405 L
331.804 49.396 L
332.29 49.386 L
332.776 49.378 L
333.263 49.37 L
333.749 49.363 L
334.235 49.356 L
334.722 49.349 L
335.208 49.343 L
335.694 49.338 L
336.181 49.333 L
336.667 49.328 L
337.153 49.324 L
337.639 49.321 L
338.126 49.318 L
338.612 49.315 L
339.098 49.314 L
339.585 49.312 L
340.071 49.311 L
340.557 49.311 L
S
GR
GS
0.929 0.694 0.125 RC
1 LJ
0.5 LW
N
73 374 M
73.486 367.102 L
73.973 360.238 L
74.459 353.422 L
74.945 346.665 L
75.432 339.979 L
75.918 333.376 L
76.404 326.868 L
76.891 320.466 L
77.377 314.184 L
77.863 308.033 L
78.35 302.025 L
78.836 296.172 L
79.322 290.485 L
79.809 284.978 L
80.295 279.661 L
80.781 274.548 L
81.267 269.649 L
81.754 264.977 L
82.24 260.544 L
82.726 256.362 L
83.213 252.443 L
83.699 248.773 L
84.185 245.19 L
84.672 241.66 L
85.158 238.183 L
85.644 234.761 L
86.131 231.394 L
86.617 228.083 L
87.103 224.827 L
87.59 221.629 L
88.076 218.487 L
88.562 215.403 L
89.049 212.378 L
89.535 209.412 L
90.021 206.504 L
90.508 203.657 L
90.994 200.871 L
91.48 198.146 L
91.967 195.482 L
92.453 192.88 L
92.939 190.341 L
93.426 187.866 L
93.912 185.454 L
94.398 183.107 L
94.884 180.825 L
95.371 178.609 L
95.857 176.458 L
96.343 174.374 L
96.83 172.357 L
97.316 170.409 L
97.802 168.528 L
98.289 166.716 L
98.775 164.974 L
99.261 163.302 L
99.748 161.7 L
100.234 160.169 L
100.72 158.71 L
101.207 157.323 L
101.693 156.008 L
102.179 154.725 L
102.666 153.454 L
103.152 152.194 L
103.638 150.946 L
104.125 149.71 L
104.611 148.486 L
105.097 147.275 L
105.584 146.075 L
106.07 144.888 L
106.556 143.712 L
107.043 142.549 L
107.529 141.399 L
108.015 140.26 L
108.501 139.135 L
108.988 138.021 L
109.474 136.92 L
109.96 135.832 L
110.447 134.757 L
110.933 133.694 L
111.419 132.644 L
111.906 131.607 L
112.392 130.583 L
112.878 129.572 L
113.365 128.574 L
113.851 127.589 L
114.337 126.617 L
114.824 125.658 L
115.31 124.712 L
115.796 123.78 L
116.283 122.861 L
116.769 121.956 L
117.255 121.064 L
117.742 120.186 L
118.228 119.321 L
118.714 118.47 L
119.201 117.632 L
119.687 116.809 L
120.173 115.999 L
120.66 115.203 L
121.146 114.421 L
121.632 113.653 L
122.118 112.899 L
122.605 112.159 L
123.091 111.433 L
123.577 110.721 L
124.064 110.024 L
124.55 109.341 L
125.036 108.673 L
125.523 108.019 L
126.009 107.379 L
126.495 106.754 L
126.982 106.144 L
127.468 105.548 L
127.954 104.967 L
128.441 104.401 L
128.927 103.849 L
129.413 103.313 L
129.9 102.791 L
130.386 102.285 L
130.872 101.794 L
131.359 101.317 L
131.845 100.856 L
132.331 100.41 L
132.818 99.98 L
133.304 99.565 L
133.79 99.165 L
134.277 98.781 L
134.763 98.412 L
135.249 98.059 L
135.735 97.721 L
136.222 97.4 L
136.708 97.093 L
137.194 96.803 L
137.681 96.529 L
138.167 96.269 L
138.653 96.012 L
139.14 95.755 L
139.626 95.499 L
140.112 95.245 L
140.599 94.99 L
141.085 94.737 L
141.571 94.485 L
142.058 94.233 L
142.544 93.982 L
143.03 93.732 L
143.517 93.483 L
144.003 93.234 L
144.489 92.987 L
144.976 92.74 L
145.462 92.493 L
145.948 92.248 L
146.435 92.004 L
146.921 91.76 L
147.407 91.517 L
147.894 91.275 L
148.38 91.033 L
148.866 90.793 L
149.352 90.553 L
149.839 90.314 L
150.325 90.076 L
150.811 89.839 L
151.298 89.602 L
151.784 89.366 L
152.27 89.131 L
152.757 88.897 L
153.243 88.664 L
153.729 88.431 L
154.216 88.199 L
154.702 87.968 L
155.188 87.738 L
155.675 87.508 L
156.161 87.28 L
156.647 87.052 L
157.134 86.825 L
157.62 86.598 L
158.106 86.373 L
158.593 86.148 L
159.079 85.924 L
159.565 85.701 L
160.052 85.478 L
160.538 85.257 L
161.024 85.036 L
161.511 84.816 L
161.997 84.597 L
162.483 84.378 L
162.969 84.161 L
163.456 83.944 L
163.942 83.728 L
164.428 83.512 L
164.915 83.298 L
165.401 83.084 L
165.887 82.871 L
166.374 82.659 L
166.86 82.447 L
167.346 82.237 L
167.833 82.027 L
168.319 81.818 L
168.805 81.609 L
169.292 81.402 L
169.778 81.195 L
170.264 80.989 L
170.751 80.784 L
171.237 80.58 L
171.723 80.376 L
172.21 80.173 L
172.696 79.971 L
173.182 79.77 L
173.669 79.569 L
174.155 79.369 L
174.641 79.17 L
175.128 78.972 L
175.614 78.775 L
176.1 78.578 L
176.586 78.382 L
177.073 78.187 L
177.559 77.993 L
178.045 77.799 L
178.532 77.607 L
179.018 77.415 L
179.504 77.224 L
179.991 77.033 L
180.477 76.843 L
180.963 76.654 L
181.45 76.466 L
181.936 76.279 L
182.422 76.092 L
182.909 75.907 L
183.395 75.721 L
183.881 75.537 L
184.368 75.354 L
184.854 75.171 L
185.34 74.989 L
185.827 74.808 L
186.313 74.628 L
186.799 74.448 L
187.286 74.269 L
187.772 74.091 L
188.258 73.913 L
188.745 73.737 L
189.231 73.561 L
189.717 73.386 L
190.203 73.212 L
190.69 73.038 L
191.176 72.865 L
191.662 72.694 L
192.149 72.522 L
192.635 72.352 L
193.121 72.182 L
193.608 72.013 L
194.094 71.845 L
194.58 71.678 L
195.067 71.511 L
195.553 71.345 L
196.039 71.18 L
196.526 71.016 L
197.012 70.852 L
197.498 70.689 L
197.985 70.527 L
198.471 70.366 L
198.957 70.206 L
199.444 70.046 L
199.93 69.887 L
200.416 69.729 L
200.903 69.571 L
201.389 69.414 L
201.875 69.258 L
202.362 69.103 L
202.848 68.949 L
203.334 68.795 L
203.82 68.642 L
204.307 68.49 L
204.793 68.339 L
205.279 68.188 L
205.766 68.038 L
206.252 67.889 L
206.738 67.74 L
207.225 67.593 L
207.711 67.446 L
208.197 67.3 L
208.684 67.154 L
209.17 67.01 L
209.656 66.866 L
210.143 66.723 L
210.629 66.58 L
211.115 66.439 L
211.602 66.298 L
212.088 66.158 L
212.574 66.019 L
213.061 65.88 L
213.547 65.742 L
214.033 65.605 L
214.52 65.469 L
215.006 65.333 L
215.492 65.198 L
215.979 65.064 L
216.465 64.931 L
216.951 64.798 L
217.438 64.666 L
217.924 64.535 L
218.41 64.405 L
218.896 64.275 L
219.383 64.147 L
219.869 64.018 L
220.355 63.891 L
220.842 63.764 L
221.328 63.639 L
221.814 63.514 L
222.301 63.389 L
222.787 63.266 L
223.273 63.143 L
223.76 63.021 L
224.246 62.899 L
224.732 62.779 L
225.219 62.659 L
225.705 62.54 L
226.191 62.421 L
226.678 62.304 L
227.164 62.187 L
227.65 62.071 L
228.137 61.955 L
228.623 61.84 L
229.109 61.726 L
229.596 61.613 L
230.082 61.501 L
230.568 61.389 L
231.055 61.278 L
231.541 61.168 L
232.027 61.058 L
232.513 60.95 L
233 60.842 L
233.486 60.734 L
233.972 60.628 L
234.459 60.522 L
234.945 60.417 L
235.431 60.313 L
235.918 60.209 L
236.404 60.106 L
236.89 60.004 L
237.377 59.903 L
237.863 59.802 L
238.349 59.702 L
238.836 59.603 L
239.322 59.504 L
239.808 59.407 L
240.295 59.31 L
240.781 59.214 L
241.267 59.118 L
241.754 59.023 L
242.24 58.929 L
242.726 58.836 L
243.213 58.743 L
243.699 58.652 L
244.185 58.56 L
244.672 58.47 L
245.158 58.38 L
245.644 58.291 L
246.13 58.203 L
246.617 58.116 L
247.103 58.029 L
247.589 57.943 L
248.076 57.858 L
248.562 57.774 L
249.048 57.69 L
249.535 57.607 L
250.021 57.524 L
250.507 57.443 L
250.994 57.362 L
251.48 57.282 L
251.966 57.202 L
252.453 57.124 L
252.939 57.046 L
253.425 56.968 L
253.912 56.892 L
254.398 56.816 L
254.884 56.741 L
255.371 56.667 L
255.857 56.593 L
256.343 56.52 L
256.83 56.448 L
257.316 56.377 L
257.802 56.306 L
258.289 56.236 L
258.775 56.167 L
259.261 56.098 L
259.747 56.03 L
260.234 55.963 L
260.72 55.897 L
261.206 55.831 L
261.693 55.766 L
262.179 55.702 L
262.665 55.638 L
263.152 55.576 L
263.638 55.514 L
264.124 55.452 L
264.611 55.392 L
265.097 55.332 L
265.583 55.273 L
266.07 55.214 L
266.556 55.156 L
267.042 55.099 L
267.529 55.043 L
268.015 54.987 L
268.501 54.932 L
268.988 54.878 L
269.474 54.825 L
269.96 54.772 L
270.447 54.72 L
270.933 54.669 L
271.419 54.618 L
271.905 54.568 L
272.392 54.519 L
272.878 54.471 L
273.364 54.423 L
273.851 54.376 L
274.337 54.33 L
274.823 54.284 L
275.31 54.239 L
275.796 54.195 L
276.282 54.152 L
276.769 54.109 L
277.255 54.067 L
277.741 54.026 L
278.228 53.985 L
278.714 53.945 L
279.2 53.906 L
279.687 53.867 L
280.173 53.83 L
280.659 53.793 L
281.146 53.756 L
281.632 53.721 L
282.118 53.686 L
282.605 53.652 L
283.091 53.618 L
283.577 53.585 L
284.064 53.553 L
284.55 53.522 L
285.036 53.491 L
285.522 53.461 L
286.009 53.432 L
286.495 53.403 L
286.981 53.375 L
287.468 53.348 L
287.954 53.322 L
288.44 53.296 L
288.927 53.271 L
289.413 53.246 L
289.899 53.223 L
290.386 53.2 L
290.872 53.178 L
291.358 53.156 L
291.845 53.135 L
292.331 53.115 L
292.817 53.096 L
293.304 53.077 L
293.79 53.059 L
294.276 53.042 L
294.763 53.025 L
295.249 53.009 L
295.735 52.994 L
296.222 52.979 L
296.708 52.965 L
297.194 52.952 L
297.681 52.94 L
298.167 52.928 L
298.653 52.917 L
299.139 52.907 L
299.626 52.897 L
300.112 52.888 L
300.598 52.88 L
301.085 52.872 L
301.571 52.866 L
302.057 52.859 L
302.544 52.854 L
303.03 52.849 L
303.516 52.845 L
304.003 52.842 L
304.489 52.839 L
304.975 52.837 L
305.462 52.836 L
305.948 52.835 L
S
GR
GS
0.494 0.184 0.557 RC
1 LJ
0.5 LW
N
74.174 354.048 M
74.66 347.84 L
75.146 341.659 L
75.633 335.515 L
76.119 329.418 L
76.605 323.377 L
77.092 317.402 L
77.578 311.503 L
78.064 305.69 L
78.551 299.971 L
79.037 294.358 L
79.523 288.859 L
80.01 283.484 L
80.496 278.244 L
80.982 273.147 L
81.469 268.204 L
81.955 263.424 L
82.441 258.817 L
82.928 254.392 L
83.414 250.16 L
83.9 246.13 L
84.387 242.312 L
84.873 238.715 L
85.359 235.349 L
85.846 232.151 L
86.332 228.999 L
86.818 225.889 L
87.305 222.824 L
87.791 219.804 L
88.277 216.829 L
88.763 213.9 L
89.25 211.017 L
89.736 208.18 L
90.222 205.391 L
90.709 202.649 L
91.195 199.955 L
91.681 197.31 L
92.168 194.715 L
92.654 192.169 L
93.14 189.673 L
93.627 187.227 L
94.113 184.833 L
94.599 182.491 L
95.086 180.2 L
95.572 177.963 L
96.058 175.778 L
96.545 173.647 L
97.031 171.57 L
97.517 169.548 L
98.004 167.581 L
98.49 165.669 L
98.976 163.814 L
99.463 162.015 L
99.949 160.274 L
100.435 158.589 L
100.922 156.963 L
101.408 155.396 L
101.894 153.888 L
102.38 152.439 L
102.867 151.05 L
103.353 149.722 L
103.839 148.455 L
104.326 147.25 L
104.812 146.106 L
105.298 145.019 L
105.785 143.948 L
106.271 142.885 L
106.757 141.832 L
107.244 140.787 L
107.73 139.751 L
108.216 138.724 L
108.703 137.706 L
109.189 136.698 L
109.675 135.698 L
110.162 134.707 L
110.648 133.726 L
111.134 132.754 L
111.621 131.791 L
112.107 130.837 L
112.593 129.893 L
113.08 128.958 L
113.566 128.032 L
114.052 127.116 L
114.539 126.21 L
115.025 125.313 L
115.511 124.425 L
115.997 123.547 L
116.484 122.679 L
116.97 121.821 L
117.456 120.972 L
117.943 120.134 L
118.429 119.304 L
118.915 118.485 L
119.402 117.676 L
119.888 116.877 L
120.374 116.088 L
120.861 115.309 L
121.347 114.54 L
121.833 113.781 L
122.32 113.032 L
122.806 112.294 L
123.292 111.565 L
123.779 110.848 L
124.265 110.14 L
124.751 109.443 L
125.238 108.756 L
125.724 108.08 L
126.21 107.414 L
126.697 106.759 L
127.183 106.114 L
127.669 105.48 L
128.156 104.857 L
128.642 104.245 L
129.128 103.643 L
129.614 103.052 L
130.101 102.471 L
130.587 101.902 L
131.073 101.344 L
131.56 100.797 L
132.046 100.26 L
132.532 99.735 L
133.019 99.221 L
133.505 98.718 L
133.991 98.226 L
134.478 97.745 L
134.964 97.276 L
135.45 96.818 L
135.937 96.371 L
136.423 95.936 L
136.909 95.512 L
137.396 95.1 L
137.882 94.699 L
138.368 94.31 L
138.855 93.932 L
139.341 93.566 L
139.827 93.212 L
140.314 92.869 L
140.8 92.538 L
141.286 92.219 L
141.773 91.912 L
142.259 91.617 L
142.745 91.334 L
143.231 91.062 L
143.718 90.803 L
144.204 90.556 L
144.69 90.321 L
145.177 90.098 L
145.663 89.887 L
146.149 89.688 L
146.636 89.502 L
147.122 89.325 L
147.608 89.149 L
148.095 88.974 L
148.581 88.798 L
149.067 88.623 L
149.554 88.449 L
150.04 88.274 L
150.526 88.1 L
151.013 87.927 L
151.499 87.753 L
151.985 87.58 L
152.472 87.407 L
152.958 87.235 L
153.444 87.063 L
153.931 86.891 L
154.417 86.72 L
154.903 86.548 L
155.39 86.378 L
155.876 86.207 L
156.362 86.037 L
156.848 85.867 L
157.335 85.697 L
157.821 85.528 L
158.307 85.359 L
158.794 85.191 L
159.28 85.022 L
159.766 84.854 L
160.253 84.686 L
160.739 84.519 L
161.225 84.352 L
161.712 84.185 L
162.198 84.019 L
162.684 83.853 L
163.171 83.687 L
163.657 83.521 L
164.143 83.356 L
164.63 83.191 L
165.116 83.026 L
165.602 82.862 L
166.089 82.698 L
166.575 82.534 L
167.061 82.371 L
167.548 82.208 L
168.034 82.045 L
168.52 81.883 L
169.007 81.721 L
169.493 81.559 L
169.979 81.397 L
170.465 81.236 L
170.952 81.075 L
171.438 80.915 L
171.924 80.754 L
172.411 80.594 L
172.897 80.435 L
173.383 80.276 L
173.87 80.116 L
174.356 79.958 L
174.842 79.799 L
175.329 79.641 L
175.815 79.483 L
176.301 79.326 L
176.788 79.169 L
177.274 79.012 L
177.76 78.855 L
178.247 78.699 L
178.733 78.543 L
179.219 78.387 L
179.706 78.232 L
180.192 78.077 L
180.678 77.922 L
181.165 77.767 L
181.651 77.613 L
182.137 77.459 L
182.624 77.306 L
183.11 77.153 L
183.596 76.999 L
184.083 76.847 L
184.569 76.695 L
185.055 76.542 L
185.541 76.391 L
186.028 76.239 L
186.514 76.088 L
187 75.937 L
187.487 75.787 L
187.973 75.636 L
188.459 75.486 L
188.946 75.337 L
189.432 75.188 L
189.918 75.038 L
190.405 74.89 L
190.891 74.741 L
191.377 74.593 L
191.864 74.445 L
192.35 74.298 L
192.836 74.15 L
193.323 74.003 L
193.809 73.857 L
194.295 73.71 L
194.782 73.564 L
195.268 73.419 L
195.754 73.273 L
196.241 73.128 L
196.727 72.983 L
197.213 72.838 L
197.7 72.694 L
198.186 72.55 L
198.672 72.406 L
199.158 72.263 L
199.645 72.12 L
200.131 71.977 L
200.617 71.834 L
201.104 71.692 L
201.59 71.55 L
202.076 71.409 L
202.563 71.267 L
203.049 71.126 L
203.535 70.986 L
204.022 70.845 L
204.508 70.705 L
204.994 70.565 L
205.481 70.425 L
205.967 70.286 L
206.453 70.147 L
206.94 70.009 L
207.426 69.87 L
207.912 69.732 L
208.399 69.594 L
208.885 69.457 L
209.371 69.319 L
209.858 69.182 L
210.344 69.046 L
210.83 68.909 L
211.317 68.773 L
211.803 68.637 L
212.289 68.502 L
212.775 68.367 L
213.262 68.232 L
213.748 68.097 L
214.234 67.963 L
214.721 67.829 L
215.207 67.695 L
215.693 67.561 L
216.18 67.428 L
216.666 67.295 L
217.152 67.163 L
217.639 67.03 L
218.125 66.898 L
218.611 66.766 L
219.098 66.635 L
219.584 66.504 L
220.07 66.373 L
220.557 66.242 L
221.043 66.112 L
221.529 65.982 L
222.016 65.852 L
222.502 65.723 L
222.988 65.593 L
223.475 65.464 L
223.961 65.336 L
224.447 65.207 L
224.934 65.079 L
225.42 64.952 L
225.906 64.824 L
226.392 64.697 L
226.879 64.57 L
227.365 64.443 L
227.851 64.317 L
228.338 64.191 L
228.824 64.065 L
229.31 63.939 L
229.797 63.814 L
230.283 63.689 L
230.769 63.565 L
231.256 63.44 L
231.742 63.316 L
232.228 63.192 L
232.715 63.069 L
233.201 62.945 L
233.687 62.822 L
234.174 62.7 L
234.66 62.577 L
235.146 62.455 L
235.633 62.333 L
236.119 62.212 L
236.605 62.09 L
237.092 61.969 L
237.578 61.848 L
238.064 61.728 L
238.551 61.608 L
239.037 61.488 L
239.523 61.368 L
240.009 61.249 L
240.496 61.13 L
240.982 61.011 L
241.468 60.892 L
241.955 60.774 L
242.441 60.656 L
242.927 60.539 L
243.414 60.421 L
243.9 60.304 L
244.386 60.187 L
244.873 60.07 L
245.359 59.954 L
245.845 59.838 L
246.332 59.722 L
246.818 59.607 L
247.304 59.491 L
247.791 59.376 L
248.277 59.262 L
248.763 59.147 L
249.25 59.033 L
249.736 58.919 L
250.222 58.806 L
250.709 58.692 L
251.195 58.579 L
251.681 58.467 L
252.168 58.354 L
252.654 58.242 L
253.14 58.13 L
253.626 58.018 L
254.113 57.906 L
254.599 57.795 L
255.085 57.684 L
255.572 57.574 L
256.058 57.463 L
256.544 57.353 L
257.031 57.244 L
257.517 57.134 L
258.003 57.025 L
258.49 56.916 L
258.976 56.807 L
259.462 56.699 L
259.949 56.59 L
260.435 56.482 L
260.921 56.375 L
261.408 56.267 L
261.894 56.16 L
262.38 56.053 L
262.867 55.947 L
263.353 55.84 L
263.839 55.734 L
264.326 55.628 L
264.812 55.523 L
265.298 55.418 L
265.785 55.313 L
266.271 55.208 L
266.757 55.103 L
267.243 54.999 L
267.73 54.895 L
268.216 54.792 L
268.702 54.688 L
269.189 54.585 L
269.675 54.482 L
270.161 54.379 L
270.648 54.277 L
271.134 54.175 L
271.62 54.073 L
272.107 53.972 L
272.593 53.87 L
273.079 53.769 L
273.566 53.668 L
274.052 53.568 L
274.538 53.468 L
275.025 53.368 L
275.511 53.268 L
275.997 53.168 L
276.484 53.069 L
276.97 52.97 L
277.456 52.872 L
277.943 52.773 L
278.429 52.675 L
278.915 52.577 L
279.402 52.479 L
279.888 52.382 L
280.374 52.285 L
280.861 52.188 L
281.347 52.091 L
281.833 51.995 L
282.319 51.899 L
282.806 51.803 L
283.292 51.707 L
283.778 51.612 L
284.265 51.517 L
284.751 51.422 L
285.237 51.327 L
285.724 51.233 L
286.21 51.139 L
286.696 51.045 L
287.183 50.952 L
287.669 50.859 L
288.155 50.766 L
288.642 50.673 L
289.128 50.58 L
289.614 50.488 L
290.101 50.396 L
290.587 50.304 L
291.073 50.213 L
291.56 50.122 L
292.046 50.03 L
292.532 49.94 L
293.019 49.849 L
293.505 49.759 L
293.991 49.669 L
294.477 49.579 L
294.964 49.49 L
295.45 49.401 L
295.936 49.312 L
296.423 49.223 L
296.909 49.134 L
297.395 49.046 L
297.882 48.958 L
298.368 48.87 L
298.854 48.783 L
299.341 48.696 L
299.827 48.609 L
300.313 48.522 L
300.8 48.436 L
301.286 48.35 L
301.772 48.264 L
302.259 48.178 L
302.745 48.092 L
303.231 48.007 L
303.718 47.922 L
304.204 47.837 L
304.69 47.753 L
305.177 47.669 L
305.663 47.585 L
306.149 47.501 L
306.636 47.418 L
307.122 47.334 L
307.608 47.251 L
308.094 47.169 L
308.581 47.086 L
309.067 47.004 L
309.553 46.922 L
310.04 46.84 L
310.526 46.759 L
311.012 46.677 L
311.499 46.596 L
311.985 46.516 L
312.471 46.435 L
312.958 46.355 L
313.444 46.275 L
313.93 46.195 L
314.417 46.115 L
314.903 46.036 L
315.389 45.957 L
315.876 45.878 L
316.362 45.799 L
316.848 45.721 L
317.335 45.643 L
317.821 45.565 L
318.307 45.488 L
318.794 45.41 L
319.28 45.333 L
319.766 45.256 L
320.253 45.18 L
320.739 45.103 L
321.225 45.027 L
321.711 44.951 L
322.198 44.875 L
322.684 44.8 L
323.17 44.725 L
323.657 44.65 L
324.143 44.575 L
324.629 44.501 L
325.116 44.426 L
325.602 44.352 L
326.088 44.278 L
326.575 44.205 L
327.061 44.132 L
327.547 44.059 L
328.034 43.986 L
328.52 43.913 L
329.006 43.841 L
329.493 43.769 L
329.979 43.697 L
330.465 43.625 L
330.952 43.554 L
331.438 43.483 L
331.924 43.412 L
332.411 43.341 L
332.897 43.271 L
333.383 43.2 L
333.87 43.13 L
334.356 43.061 L
334.842 42.991 L
335.328 42.922 L
335.815 42.853 L
336.301 42.784 L
336.787 42.715 L
337.274 42.647 L
337.76 42.579 L
338.246 42.511 L
338.733 42.443 L
339.219 42.376 L
339.705 42.309 L
340.192 42.242 L
340.678 42.175 L
341.164 42.109 L
341.651 42.042 L
342.137 41.976 L
342.623 41.911 L
343.11 41.845 L
343.596 41.78 L
344.082 41.715 L
344.569 41.65 L
345.055 41.585 L
345.541 41.521 L
346.028 41.457 L
346.514 41.393 L
347 41.329 L
347.487 41.265 L
347.973 41.202 L
348.459 41.139 L
348.945 41.076 L
349.432 41.014 L
349.918 40.951 L
350.404 40.889 L
350.891 40.827 L
351.377 40.766 L
351.863 40.704 L
352.35 40.643 L
352.836 40.582 L
353.322 40.521 L
353.809 40.461 L
354.295 40.4 L
354.781 40.34 L
355.268 40.28 L
355.754 40.221 L
356.24 40.161 L
356.727 40.102 L
357.213 40.043 L
357.699 39.984 L
358.186 39.926 L
358.672 39.868 L
359.158 39.81 L
359.645 39.752 L
360.131 39.694 L
360.617 39.637 L
361.104 39.58 L
361.59 39.523 L
362.076 39.466 L
362.563 39.409 L
363.049 39.353 L
363.535 39.297 L
364.021 39.241 L
364.508 39.186 L
364.994 39.13 L
365.48 39.075 L
365.967 39.02 L
366.453 38.965 L
366.939 38.911 L
367.426 38.856 L
367.912 38.802 L
368.398 38.749 L
368.885 38.695 L
369.371 38.641 L
369.857 38.588 L
370.344 38.535 L
370.83 38.483 L
371.316 38.43 L
371.803 38.378 L
372.289 38.326 L
372.775 38.274 L
373.262 38.222 L
373.748 38.171 L
374.234 38.119 L
374.721 38.068 L
375.207 38.018 L
375.693 37.967 L
376.18 37.917 L
376.666 37.867 L
377.152 37.816 L
377.638 37.767 L
378.125 37.717 L
378.611 37.668 L
379.097 37.619 L
379.584 37.57 L
380.07 37.521 L
380.556 37.473 L
381.043 37.425 L
381.529 37.377 L
382.015 37.329 L
382.502 37.281 L
382.988 37.234 L
383.474 37.187 L
383.961 37.14 L
384.447 37.093 L
384.933 37.047 L
385.42 37 L
385.906 36.954 L
386.392 36.908 L
386.879 36.863 L
387.365 36.817 L
387.851 36.772 L
388.338 36.727 L
388.824 36.682 L
389.31 36.637 L
389.797 36.593 L
390.283 36.549 L
390.769 36.505 L
391.255 36.461 L
391.742 36.418 L
392.228 36.374 L
392.714 36.331 L
393.201 36.288 L
393.687 36.245 L
394.173 36.203 L
394.66 36.16 L
395.146 36.118 L
395.632 36.076 L
396.119 36.035 L
396.605 35.993 L
397.091 35.952 L
397.578 35.911 L
398.064 35.87 L
398.55 35.829 L
399.037 35.789 L
399.523 35.749 L
400.009 35.709 L
400.496 35.669 L
400.982 35.629 L
401.468 35.59 L
401.955 35.55 L
402.441 35.511 L
402.927 35.473 L
403.414 35.434 L
403.9 35.395 L
404.386 35.357 L
404.872 35.319 L
405.359 35.282 L
405.845 35.244 L
406.331 35.206 L
406.818 35.169 L
407.304 35.132 L
407.79 35.095 L
408.277 35.059 L
408.763 35.023 L
409.249 34.986 L
409.736 34.95 L
410.222 34.914 L
410.708 34.879 L
411.195 34.844 L
411.681 34.808 L
412.167 34.773 L
412.654 34.739 L
413.14 34.704 L
413.626 34.67 L
414.113 34.635 L
414.599 34.602 L
415.085 34.568 L
415.572 34.534 L
416.058 34.501 L
416.544 34.467 L
417.031 34.434 L
417.517 34.402 L
418.003 34.369 L
418.489 34.337 L
418.976 34.305 L
419.462 34.272 L
419.948 34.241 L
420.435 34.209 L
420.921 34.178 L
421.407 34.146 L
421.894 34.115 L
422.38 34.084 L
422.866 34.054 L
423.353 34.023 L
423.839 33.993 L
424.325 33.963 L
424.812 33.933 L
425.298 33.904 L
425.784 33.874 L
426.271 33.845 L
426.757 33.816 L
427.243 33.787 L
427.73 33.758 L
428.216 33.73 L
428.702 33.701 L
429.189 33.673 L
429.675 33.645 L
430.161 33.618 L
430.648 33.59 L
431.134 33.563 L
431.62 33.535 L
432.106 33.508 L
432.593 33.482 L
433.079 33.455 L
433.565 33.429 L
434.052 33.402 L
434.538 33.377 L
435.024 33.351 L
435.511 33.325 L
435.997 33.3 L
436.483 33.274 L
436.97 33.249 L
437.456 33.224 L
437.942 33.2 L
438.429 33.175 L
438.915 33.151 L
439.401 33.127 L
439.888 33.103 L
440.374 33.079 L
440.86 33.055 L
441.347 33.032 L
441.833 33.009 L
442.319 32.986 L
442.806 32.963 L
443.292 32.94 L
443.778 32.918 L
444.265 32.896 L
444.751 32.874 L
445.237 32.852 L
445.723 32.83 L
446.21 32.808 L
446.696 32.787 L
447.182 32.766 L
447.669 32.745 L
448.155 32.724 L
448.641 32.703 L
449.128 32.683 L
449.614 32.663 L
450.1 32.643 L
450.587 32.623 L
451.073 32.603 L
451.559 32.584 L
452.046 32.564 L
452.532 32.545 L
453.018 32.526 L
453.505 32.507 L
453.991 32.489 L
454.477 32.471 L
454.964 32.452 L
455.45 32.434 L
455.936 32.416 L
456.423 32.399 L
456.909 32.381 L
457.395 32.364 L
457.882 32.347 L
458.368 32.33 L
458.854 32.313 L
459.34 32.296 L
459.827 32.28 L
460.313 32.264 L
460.799 32.247 L
461.286 32.231 L
461.772 32.216 L
462.258 32.2 L
462.745 32.185 L
463.231 32.17 L
463.717 32.155 L
464.204 32.14 L
464.69 32.125 L
465.176 32.111 L
465.663 32.096 L
466.149 32.082 L
466.635 32.068 L
467.122 32.055 L
467.608 32.041 L
468.094 32.027 L
468.581 32.014 L
469.067 32.001 L
469.553 31.988 L
470.04 31.975 L
470.526 31.963 L
471.012 31.95 L
471.499 31.938 L
471.985 31.926 L
472.471 31.914 L
472.957 31.903 L
473.444 31.891 L
473.93 31.88 L
474.416 31.868 L
474.903 31.857 L
475.389 31.847 L
475.875 31.836 L
476.362 31.826 L
476.848 31.815 L
477.334 31.805 L
477.821 31.795 L
478.307 31.785 L
478.793 31.776 L
479.28 31.766 L
479.766 31.757 L
480.252 31.748 L
480.739 31.739 L
481.225 31.73 L
481.711 31.721 L
482.198 31.713 L
482.684 31.704 L
483.17 31.696 L
483.657 31.688 L
484.143 31.681 L
484.629 31.673 L
485.116 31.666 L
485.602 31.658 L
486.088 31.651 L
486.574 31.644 L
487.061 31.638 L
487.547 31.631 L
488.033 31.624 L
488.52 31.618 L
489.006 31.612 L
489.492 31.606 L
489.979 31.6 L
490.465 31.595 L
490.951 31.589 L
491.438 31.584 L
491.924 31.579 L
492.41 31.574 L
492.897 31.569 L
493.383 31.564 L
493.869 31.56 L
494.356 31.556 L
494.842 31.551 L
495.328 31.547 L
495.815 31.544 L
496.301 31.54 L
496.787 31.536 L
497.274 31.533 L
497.76 31.53 L
498.246 31.527 L
498.733 31.524 L
499.219 31.521 L
499.705 31.519 L
500.191 31.516 L
500.678 31.514 L
501.164 31.512 L
501.65 31.51 L
502.137 31.509 L
502.623 31.507 L
503.109 31.505 L
503.596 31.504 L
504.082 31.503 L
504.568 31.502 L
505.055 31.502 L
505.541 31.501 L
506.027 31.501 L
506.514 31.5 L
507 31.5 L
S
GR
GS
0.467 0.675 0.188 RC
[10 6] 0 setdash
2 LJ
0.5 LW
N
73.624 364.292 M
74.11 357.732 L
74.596 351.204 L
75.083 344.719 L
75.569 338.287 L
76.055 331.92 L
76.542 325.628 L
77.028 319.423 L
77.514 313.315 L
78.001 307.316 L
78.487 301.436 L
78.973 295.686 L
79.46 290.077 L
79.946 284.621 L
80.432 279.327 L
80.919 274.207 L
81.405 269.272 L
81.891 264.533 L
82.377 260.001 L
82.864 255.687 L
83.35 251.601 L
83.836 247.754 L
84.323 244.159 L
84.809 240.739 L
85.295 237.369 L
85.782 234.048 L
86.268 230.777 L
86.754 227.556 L
87.241 224.386 L
87.727 221.267 L
88.213 218.2 L
88.7 215.186 L
89.186 212.224 L
89.672 209.316 L
90.159 206.461 L
90.645 203.661 L
91.131 200.916 L
91.618 198.227 L
92.104 195.594 L
92.59 193.017 L
93.077 190.497 L
93.563 188.036 L
94.049 185.632 L
94.536 183.287 L
95.022 181.002 L
95.508 178.776 L
95.994 176.611 L
96.481 174.507 L
96.967 172.464 L
97.453 170.482 L
97.94 168.564 L
98.426 166.709 L
98.912 164.917 L
99.399 163.189 L
99.885 161.526 L
100.371 159.928 L
100.858 158.396 L
101.344 156.93 L
101.83 155.531 L
102.317 154.2 L
102.803 152.936 L
103.289 151.731 L
103.776 150.544 L
104.262 149.367 L
104.748 148.202 L
105.235 147.047 L
105.721 145.904 L
106.207 144.772 L
106.694 143.651 L
107.18 142.541 L
107.666 141.442 L
108.153 140.355 L
108.639 139.279 L
109.125 138.214 L
109.611 137.161 L
110.098 136.12 L
110.584 135.089 L
111.07 134.07 L
111.557 133.063 L
112.043 132.067 L
112.529 131.083 L
113.016 130.11 L
113.502 129.149 L
113.988 128.2 L
114.475 127.262 L
114.961 126.336 L
115.447 125.422 L
115.934 124.52 L
116.42 123.629 L
116.906 122.75 L
117.393 121.884 L
117.879 121.029 L
118.365 120.186 L
118.852 119.355 L
119.338 118.536 L
119.824 117.729 L
120.311 116.934 L
120.797 116.152 L
121.283 115.381 L
121.77 114.623 L
122.256 113.877 L
122.742 113.143 L
123.228 112.422 L
123.715 111.713 L
124.201 111.016 L
124.687 110.331 L
125.174 109.659 L
125.66 109 L
126.146 108.353 L
126.633 107.718 L
127.119 107.096 L
127.605 106.487 L
128.092 105.89 L
128.578 105.305 L
129.064 104.734 L
129.551 104.175 L
130.037 103.629 L
130.523 103.096 L
131.01 102.575 L
131.496 102.067 L
131.982 101.572 L
132.469 101.09 L
132.955 100.622 L
133.441 100.165 L
133.928 99.722 L
134.414 99.292 L
134.9 98.875 L
135.387 98.472 L
135.873 98.081 L
136.359 97.703 L
136.845 97.339 L
137.332 96.988 L
137.818 96.65 L
138.304 96.325 L
138.791 96.014 L
139.277 95.716 L
139.763 95.431 L
140.25 95.16 L
140.736 94.903 L
141.222 94.657 L
141.709 94.413 L
142.195 94.17 L
142.681 93.928 L
143.168 93.687 L
143.654 93.446 L
144.14 93.206 L
144.627 92.967 L
145.113 92.728 L
145.599 92.491 L
146.086 92.254 L
146.572 92.017 L
147.058 91.782 L
147.545 91.547 L
148.031 91.313 L
148.517 91.079 L
149.004 90.847 L
149.49 90.615 L
149.976 90.383 L
150.462 90.153 L
150.949 89.923 L
151.435 89.694 L
151.921 89.466 L
152.408 89.238 L
152.894 89.012 L
153.38 88.785 L
153.867 88.56 L
154.353 88.335 L
154.839 88.111 L
155.326 87.888 L
155.812 87.666 L
156.298 87.444 L
156.785 87.223 L
157.271 87.003 L
157.757 86.783 L
158.244 86.564 L
158.73 86.346 L
159.216 86.129 L
159.703 85.912 L
160.189 85.696 L
160.675 85.481 L
161.162 85.266 L
161.648 85.052 L
162.134 84.839 L
162.621 84.627 L
163.107 84.415 L
163.593 84.204 L
164.079 83.994 L
164.566 83.785 L
165.052 83.576 L
165.538 83.368 L
166.025 83.161 L
166.511 82.954 L
166.997 82.748 L
167.484 82.543 L
167.97 82.339 L
168.456 82.135 L
168.943 81.932 L
169.429 81.73 L
169.915 81.528 L
170.402 81.327 L
170.888 81.127 L
171.374 80.928 L
171.861 80.729 L
172.347 80.531 L
172.833 80.334 L
173.32 80.138 L
173.806 79.942 L
174.292 79.747 L
174.779 79.553 L
175.265 79.359 L
175.751 79.166 L
176.238 78.974 L
176.724 78.783 L
177.21 78.592 L
177.696 78.402 L
178.183 78.212 L
178.669 78.024 L
179.155 77.836 L
179.642 77.649 L
180.128 77.462 L
180.614 77.277 L
181.101 77.092 L
181.587 76.907 L
182.073 76.724 L
182.56 76.541 L
183.046 76.359 L
183.532 76.177 L
184.019 75.997 L
184.505 75.817 L
184.991 75.638 L
185.478 75.459 L
185.964 75.281 L
186.45 75.104 L
186.937 74.927 L
187.423 74.752 L
187.909 74.577 L
188.396 74.403 L
188.882 74.229 L
189.368 74.056 L
189.855 73.884 L
190.341 73.713 L
190.827 73.542 L
191.313 73.372 L
191.8 73.203 L
192.286 73.034 L
192.772 72.867 L
193.259 72.699 L
193.745 72.533 L
194.231 72.367 L
194.718 72.202 L
195.204 72.038 L
195.69 71.874 L
196.177 71.711 L
196.663 71.549 L
197.149 71.388 L
197.636 71.227 L
198.122 71.067 L
198.608 70.908 L
199.095 70.749 L
199.581 70.591 L
200.067 70.434 L
200.554 70.278 L
201.04 70.122 L
201.526 69.967 L
202.013 69.813 L
202.499 69.659 L
202.985 69.506 L
203.472 69.354 L
203.958 69.202 L
204.444 69.052 L
204.93 68.902 L
205.417 68.752 L
205.903 68.604 L
206.389 68.456 L
206.876 68.309 L
207.362 68.162 L
207.848 68.016 L
208.335 67.871 L
208.821 67.727 L
209.307 67.583 L
209.794 67.44 L
210.28 67.298 L
210.766 67.156 L
211.253 67.015 L
211.739 66.875 L
212.225 66.736 L
212.712 66.597 L
213.198 66.459 L
213.684 66.322 L
214.171 66.185 L
214.657 66.049 L
215.143 65.914 L
215.63 65.779 L
216.116 65.645 L
216.602 65.512 L
217.089 65.38 L
217.575 65.248 L
218.061 65.117 L
218.548 64.987 L
219.034 64.857 L
219.52 64.728 L
220.006 64.6 L
220.493 64.473 L
220.979 64.346 L
221.465 64.22 L
221.952 64.095 L
222.438 63.97 L
222.924 63.846 L
223.411 63.723 L
223.897 63.6 L
224.383 63.479 L
224.87 63.357 L
225.356 63.237 L
225.842 63.117 L
226.329 62.998 L
226.815 62.88 L
227.301 62.762 L
227.788 62.645 L
228.274 62.529 L
228.76 62.413 L
229.247 62.298 L
229.733 62.185 L
230.219 62.071 L
230.706 61.958 L
231.192 61.846 L
231.678 61.735 L
232.165 61.624 L
232.651 61.514 L
233.137 61.405 L
233.623 61.297 L
234.11 61.189 L
234.596 61.082 L
235.082 60.975 L
235.569 60.869 L
236.055 60.764 L
236.541 60.66 L
237.028 60.556 L
237.514 60.453 L
238 60.351 L
238.487 60.25 L
238.973 60.149 L
239.459 60.049 L
239.946 59.949 L
240.432 59.851 L
240.918 59.752 L
241.405 59.655 L
241.891 59.558 L
242.377 59.462 L
242.864 59.367 L
243.35 59.273 L
243.836 59.179 L
244.323 59.085 L
244.809 58.993 L
245.295 58.901 L
245.782 58.81 L
246.268 58.72 L
246.754 58.63 L
247.24 58.541 L
247.727 58.453 L
248.213 58.365 L
248.699 58.278 L
249.186 58.192 L
249.672 58.106 L
250.158 58.022 L
250.645 57.937 L
251.131 57.854 L
251.617 57.771 L
252.104 57.689 L
252.59 57.608 L
253.076 57.527 L
253.563 57.447 L
254.049 57.368 L
254.535 57.289 L
255.022 57.211 L
255.508 57.134 L
255.994 57.057 L
256.481 56.981 L
256.967 56.906 L
257.453 56.832 L
257.94 56.758 L
258.426 56.685 L
258.912 56.612 L
259.398 56.541 L
259.885 56.47 L
260.371 56.399 L
260.857 56.33 L
261.344 56.261 L
261.83 56.193 L
262.316 56.125 L
262.803 56.058 L
263.289 55.992 L
263.775 55.926 L
264.262 55.862 L
264.748 55.798 L
265.234 55.734 L
265.721 55.671 L
266.207 55.609 L
266.693 55.548 L
267.18 55.487 L
267.666 55.427 L
268.152 55.368 L
268.639 55.309 L
269.125 55.251 L
269.611 55.194 L
270.098 55.138 L
270.584 55.082 L
271.07 55.027 L
271.557 54.972 L
272.043 54.918 L
272.529 54.865 L
273.016 54.813 L
273.502 54.761 L
273.988 54.71 L
274.474 54.66 L
274.961 54.61 L
275.447 54.561 L
275.933 54.513 L
276.42 54.465 L
276.906 54.418 L
277.392 54.372 L
277.879 54.326 L
278.365 54.281 L
278.851 54.237 L
279.338 54.193 L
279.824 54.151 L
280.31 54.108 L
280.797 54.067 L
281.283 54.026 L
281.769 53.986 L
282.256 53.947 L
282.742 53.908 L
283.228 53.87 L
283.715 53.832 L
284.201 53.796 L
284.687 53.76 L
285.174 53.724 L
285.66 53.69 L
286.146 53.656 L
286.633 53.622 L
287.119 53.59 L
287.605 53.558 L
288.091 53.527 L
288.578 53.496 L
289.064 53.466 L
289.55 53.437 L
290.037 53.409 L
290.523 53.381 L
291.009 53.354 L
291.496 53.327 L
291.982 53.301 L
292.468 53.276 L
292.955 53.252 L
293.441 53.228 L
293.927 53.205 L
294.414 53.182 L
294.9 53.161 L
295.386 53.14 L
295.873 53.119 L
296.359 53.1 L
296.845 53.081 L
297.332 53.062 L
297.818 53.044 L
298.304 53.027 L
298.791 53.011 L
299.277 52.995 L
299.763 52.981 L
300.25 52.966 L
300.736 52.953 L
301.222 52.94 L
301.708 52.928 L
302.195 52.916 L
302.681 52.905 L
303.167 52.895 L
303.654 52.885 L
304.14 52.876 L
304.626 52.868 L
305.113 52.861 L
305.599 52.854 L
306.085 52.848 L
306.572 52.842 L
307.058 52.837 L
307.544 52.833 L
308.031 52.83 L
308.517 52.827 L
309.003 52.825 L
309.49 52.823 L
309.976 52.823 L
S
GR
GS
0.302 0.745 0.933 RC
[10 6] 0 setdash
2 LJ
0.5 LW
N
73.45 367.325 M
73.937 360.654 L
74.423 354.016 L
74.909 347.422 L
75.396 340.884 L
75.882 334.412 L
76.368 328.018 L
76.855 321.713 L
77.341 315.509 L
77.827 309.417 L
78.314 303.447 L
78.8 297.613 L
79.286 291.924 L
79.773 286.393 L
80.259 281.029 L
80.745 275.846 L
81.232 270.854 L
81.718 266.064 L
82.204 261.487 L
82.691 257.136 L
83.177 253.021 L
83.663 249.153 L
84.149 245.544 L
84.636 242.078 L
85.122 238.662 L
85.608 235.297 L
86.095 231.983 L
86.581 228.722 L
87.067 225.513 L
87.554 222.358 L
88.04 219.256 L
88.526 216.207 L
89.013 213.214 L
89.499 210.276 L
89.985 207.393 L
90.472 204.566 L
90.958 201.796 L
91.444 199.083 L
91.931 196.427 L
92.417 193.83 L
92.903 191.291 L
93.39 188.811 L
93.876 186.391 L
94.362 184.031 L
94.849 181.732 L
95.335 179.493 L
95.821 177.317 L
96.308 175.202 L
96.794 173.151 L
97.28 171.162 L
97.766 169.237 L
98.253 167.376 L
98.739 165.58 L
99.225 163.849 L
99.712 162.184 L
100.198 160.585 L
100.684 159.052 L
101.171 157.587 L
101.657 156.189 L
102.143 154.86 L
102.63 153.599 L
103.116 152.374 L
103.602 151.161 L
104.089 149.958 L
104.575 148.767 L
105.061 147.586 L
105.548 146.418 L
106.034 145.26 L
106.52 144.115 L
107.007 142.98 L
107.493 141.857 L
107.979 140.746 L
108.466 139.646 L
108.952 138.558 L
109.438 137.482 L
109.925 136.417 L
110.411 135.364 L
110.897 134.323 L
111.383 133.294 L
111.87 132.277 L
112.356 131.271 L
112.842 130.278 L
113.329 129.297 L
113.815 128.328 L
114.301 127.371 L
114.788 126.426 L
115.274 125.493 L
115.76 124.573 L
116.247 123.665 L
116.733 122.769 L
117.219 121.886 L
117.706 121.015 L
118.192 120.157 L
118.678 119.311 L
119.165 118.478 L
119.651 117.657 L
120.137 116.849 L
120.624 116.054 L
121.11 115.272 L
121.596 114.502 L
122.083 113.745 L
122.569 113.001 L
123.055 112.271 L
123.542 111.553 L
124.028 110.847 L
124.514 110.156 L
125 109.477 L
125.487 108.811 L
125.973 108.159 L
126.459 107.52 L
126.946 106.894 L
127.432 106.281 L
127.918 105.682 L
128.405 105.097 L
128.891 104.524 L
129.377 103.966 L
129.864 103.42 L
130.35 102.889 L
130.836 102.371 L
131.323 101.867 L
131.809 101.376 L
132.295 100.899 L
132.782 100.437 L
133.268 99.988 L
133.754 99.553 L
134.241 99.131 L
134.727 98.724 L
135.213 98.331 L
135.7 97.952 L
136.186 97.587 L
136.672 97.237 L
137.159 96.9 L
137.645 96.578 L
138.131 96.27 L
138.617 95.976 L
139.104 95.697 L
139.59 95.433 L
140.076 95.182 L
140.563 94.934 L
141.049 94.687 L
141.535 94.441 L
142.022 94.195 L
142.508 93.95 L
142.994 93.706 L
143.481 93.463 L
143.967 93.221 L
144.453 92.979 L
144.94 92.738 L
145.426 92.498 L
145.912 92.258 L
146.399 92.02 L
146.885 91.781 L
147.371 91.544 L
147.858 91.308 L
148.344 91.072 L
148.83 90.837 L
149.317 90.603 L
149.803 90.369 L
150.289 90.137 L
150.776 89.905 L
151.262 89.673 L
151.748 89.443 L
152.234 89.213 L
152.721 88.984 L
153.207 88.756 L
153.693 88.528 L
154.18 88.301 L
154.666 88.075 L
155.152 87.85 L
155.639 87.625 L
156.125 87.402 L
156.611 87.178 L
157.098 86.956 L
157.584 86.735 L
158.07 86.514 L
158.557 86.294 L
159.043 86.074 L
159.529 85.856 L
160.016 85.638 L
160.502 85.421 L
160.988 85.204 L
161.475 84.988 L
161.961 84.774 L
162.447 84.559 L
162.934 84.346 L
163.42 84.133 L
163.906 83.921 L
164.393 83.71 L
164.879 83.499 L
165.365 83.29 L
165.852 83.081 L
166.338 82.873 L
166.824 82.665 L
167.31 82.458 L
167.797 82.252 L
168.283 82.047 L
168.769 81.842 L
169.256 81.639 L
169.742 81.435 L
170.228 81.233 L
170.715 81.031 L
171.201 80.831 L
171.687 80.63 L
172.174 80.431 L
172.66 80.232 L
173.146 80.034 L
173.633 79.837 L
174.119 79.641 L
174.605 79.445 L
175.092 79.25 L
175.578 79.056 L
176.064 78.862 L
176.551 78.669 L
177.037 78.477 L
177.523 78.286 L
178.01 78.095 L
178.496 77.905 L
178.982 77.716 L
179.469 77.528 L
179.955 77.34 L
180.441 77.153 L
180.927 76.967 L
181.414 76.781 L
181.9 76.597 L
182.386 76.413 L
182.873 76.229 L
183.359 76.047 L
183.845 75.865 L
184.332 75.684 L
184.818 75.503 L
185.304 75.324 L
185.791 75.145 L
186.277 74.967 L
186.763 74.789 L
187.25 74.612 L
187.736 74.437 L
188.222 74.261 L
188.709 74.087 L
189.195 73.913 L
189.681 73.74 L
190.168 73.567 L
190.654 73.396 L
191.14 73.225 L
191.627 73.055 L
192.113 72.885 L
192.599 72.717 L
193.086 72.548 L
193.572 72.381 L
194.058 72.215 L
194.544 72.049 L
195.031 71.884 L
195.517 71.719 L
196.003 71.556 L
196.49 71.393 L
196.976 71.23 L
197.462 71.069 L
197.949 70.908 L
198.435 70.748 L
198.921 70.589 L
199.408 70.43 L
199.894 70.272 L
200.38 70.115 L
200.867 69.959 L
201.353 69.803 L
201.839 69.648 L
202.326 69.494 L
202.812 69.34 L
203.298 69.187 L
203.785 69.035 L
204.271 68.884 L
204.757 68.733 L
205.244 68.583 L
205.73 68.434 L
206.216 68.285 L
206.703 68.138 L
207.189 67.991 L
207.675 67.844 L
208.161 67.699 L
208.648 67.554 L
209.134 67.41 L
209.62 67.266 L
210.107 67.123 L
210.593 66.981 L
211.079 66.84 L
211.566 66.699 L
212.052 66.559 L
212.538 66.42 L
213.025 66.282 L
213.511 66.144 L
213.997 66.007 L
214.484 65.871 L
214.97 65.735 L
215.456 65.6 L
215.943 65.466 L
216.429 65.332 L
216.915 65.2 L
217.402 65.068 L
217.888 64.936 L
218.374 64.806 L
218.861 64.676 L
219.347 64.547 L
219.833 64.418 L
220.32 64.29 L
220.806 64.163 L
221.292 64.037 L
221.778 63.911 L
222.265 63.786 L
222.751 63.662 L
223.237 63.539 L
223.724 63.416 L
224.21 63.294 L
224.696 63.172 L
225.183 63.052 L
225.669 62.932 L
226.155 62.813 L
226.642 62.694 L
227.128 62.576 L
227.614 62.459 L
228.101 62.343 L
228.587 62.227 L
229.073 62.112 L
229.56 61.998 L
230.046 61.884 L
230.532 61.771 L
231.019 61.659 L
231.505 61.548 L
231.991 61.437 L
232.478 61.327 L
232.964 61.218 L
233.45 61.109 L
233.937 61.001 L
234.423 60.894 L
234.909 60.788 L
235.395 60.682 L
235.882 60.576 L
236.368 60.472 L
236.854 60.368 L
237.341 60.266 L
237.827 60.163 L
238.313 60.062 L
238.8 59.961 L
239.286 59.861 L
239.772 59.761 L
240.259 59.662 L
240.745 59.564 L
241.231 59.467 L
241.718 59.37 L
242.204 59.274 L
242.69 59.179 L
243.177 59.085 L
243.663 58.991 L
244.149 58.897 L
244.636 58.805 L
245.122 58.713 L
245.608 58.622 L
246.095 58.532 L
246.581 58.442 L
247.067 58.353 L
247.554 58.265 L
248.04 58.177 L
248.526 58.091 L
249.012 58.004 L
249.499 57.919 L
249.985 57.834 L
250.471 57.75 L
250.958 57.667 L
251.444 57.584 L
251.93 57.502 L
252.417 57.421 L
252.903 57.34 L
253.389 57.26 L
253.876 57.181 L
254.362 57.103 L
254.848 57.025 L
255.335 56.948 L
255.821 56.871 L
256.307 56.796 L
256.794 56.721 L
257.28 56.646 L
257.766 56.573 L
258.253 56.5 L
258.739 56.428 L
259.225 56.356 L
259.712 56.285 L
260.198 56.215 L
260.684 56.145 L
261.171 56.077 L
261.657 56.008 L
262.143 55.941 L
262.629 55.874 L
263.116 55.808 L
263.602 55.743 L
264.088 55.678 L
264.575 55.615 L
265.061 55.551 L
265.547 55.489 L
266.034 55.427 L
266.52 55.366 L
267.006 55.305 L
267.493 55.245 L
267.979 55.186 L
268.465 55.128 L
268.952 55.07 L
269.438 55.013 L
269.924 54.957 L
270.411 54.901 L
270.897 54.846 L
271.383 54.792 L
271.87 54.738 L
272.356 54.685 L
272.842 54.633 L
273.329 54.581 L
273.815 54.53 L
274.301 54.48 L
274.788 54.431 L
275.274 54.382 L
275.76 54.334 L
276.246 54.286 L
276.733 54.24 L
277.219 54.194 L
277.705 54.148 L
278.192 54.103 L
278.678 54.059 L
279.164 54.016 L
279.651 53.974 L
280.137 53.931 L
280.623 53.89 L
281.11 53.85 L
281.596 53.81 L
282.082 53.77 L
282.569 53.732 L
283.055 53.694 L
283.541 53.657 L
284.028 53.62 L
284.514 53.584 L
285 53.549 L
285.487 53.515 L
285.973 53.481 L
286.459 53.448 L
286.946 53.415 L
287.432 53.384 L
287.918 53.353 L
288.405 53.322 L
288.891 53.293 L
289.377 53.264 L
289.863 53.235 L
290.35 53.208 L
290.836 53.18 L
291.322 53.154 L
291.809 53.129 L
292.295 53.104 L
292.781 53.079 L
293.268 53.056 L
293.754 53.033 L
294.24 53.01 L
294.727 52.989 L
295.213 52.968 L
295.699 52.948 L
296.186 52.928 L
296.672 52.909 L
297.158 52.891 L
297.645 52.874 L
298.131 52.857 L
298.617 52.841 L
299.104 52.825 L
299.59 52.81 L
300.076 52.796 L
300.563 52.782 L
301.049 52.77 L
301.535 52.757 L
302.022 52.746 L
302.508 52.735 L
302.994 52.725 L
303.48 52.716 L
303.967 52.707 L
304.453 52.699 L
304.939 52.691 L
305.426 52.685 L
305.912 52.678 L
306.398 52.673 L
306.885 52.668 L
307.371 52.664 L
307.857 52.661 L
308.344 52.658 L
308.83 52.656 L
309.316 52.655 L
309.803 52.654 L
S
GR
GS
0.635 0.078 0.184 RC
[10 6] 0 setdash
2 LJ
0.5 LW
N
73.661 364.048 M
74.148 357.491 L
74.634 350.966 L
75.12 344.483 L
75.607 338.053 L
76.093 331.688 L
76.579 325.398 L
77.066 319.194 L
77.552 313.086 L
78.038 307.087 L
78.525 301.206 L
79.011 295.455 L
79.497 289.844 L
79.984 284.385 L
80.47 279.088 L
80.956 273.964 L
81.443 269.025 L
81.929 264.28 L
82.415 259.741 L
82.902 255.42 L
83.388 251.325 L
83.874 247.47 L
84.36 243.864 L
84.847 240.449 L
85.333 237.086 L
85.819 233.771 L
86.306 230.507 L
86.792 227.292 L
87.278 224.127 L
87.765 221.014 L
88.251 217.952 L
88.737 214.943 L
89.224 211.986 L
89.71 209.082 L
90.196 206.232 L
90.683 203.436 L
91.169 200.694 L
91.655 198.008 L
92.142 195.377 L
92.628 192.803 L
93.114 190.286 L
93.601 187.826 L
94.087 185.424 L
94.573 183.08 L
95.06 180.795 L
95.546 178.57 L
96.032 176.404 L
96.519 174.299 L
97.005 172.255 L
97.491 170.273 L
97.977 168.353 L
98.464 166.495 L
98.95 164.7 L
99.436 162.969 L
99.923 161.303 L
100.409 159.7 L
100.895 158.164 L
101.382 156.692 L
101.868 155.288 L
102.354 153.949 L
102.841 152.679 L
103.327 151.473 L
103.813 150.291 L
104.3 149.12 L
104.786 147.96 L
105.272 146.811 L
105.759 145.672 L
106.245 144.544 L
106.731 143.428 L
107.218 142.322 L
107.704 141.227 L
108.19 140.143 L
108.677 139.07 L
109.163 138.008 L
109.649 136.958 L
110.136 135.918 L
110.622 134.89 L
111.108 133.873 L
111.594 132.867 L
112.081 131.872 L
112.567 130.889 L
113.053 129.917 L
113.54 128.957 L
114.026 128.008 L
114.512 127.071 L
114.999 126.145 L
115.485 125.23 L
115.971 124.328 L
116.458 123.437 L
116.944 122.557 L
117.43 121.69 L
117.917 120.834 L
118.403 119.99 L
118.889 119.158 L
119.376 118.337 L
119.862 117.529 L
120.348 116.732 L
120.835 115.947 L
121.321 115.175 L
121.807 114.414 L
122.294 113.666 L
122.78 112.93 L
123.266 112.206 L
123.753 111.494 L
124.239 110.794 L
124.725 110.107 L
125.211 109.432 L
125.698 108.769 L
126.184 108.119 L
126.67 107.481 L
127.157 106.855 L
127.643 106.242 L
128.129 105.642 L
128.616 105.054 L
129.102 104.479 L
129.588 103.916 L
130.075 103.366 L
130.561 102.829 L
131.047 102.305 L
131.534 101.794 L
132.02 101.295 L
132.506 100.809 L
132.993 100.336 L
133.479 99.876 L
133.965 99.429 L
134.452 98.995 L
134.938 98.574 L
135.424 98.166 L
135.911 97.772 L
136.397 97.39 L
136.883 97.022 L
137.37 96.667 L
137.856 96.325 L
138.342 95.997 L
138.828 95.682 L
139.315 95.38 L
139.801 95.092 L
140.287 94.817 L
140.774 94.556 L
141.26 94.309 L
141.746 94.073 L
142.233 93.84 L
142.719 93.607 L
143.205 93.376 L
143.692 93.145 L
144.178 92.914 L
144.664 92.684 L
145.151 92.455 L
145.637 92.227 L
146.123 91.999 L
146.61 91.772 L
147.096 91.545 L
147.582 91.319 L
148.069 91.094 L
148.555 90.87 L
149.041 90.646 L
149.528 90.423 L
150.014 90.2 L
150.5 89.978 L
150.987 89.757 L
151.473 89.537 L
151.959 89.317 L
152.445 89.097 L
152.932 88.879 L
153.418 88.661 L
153.904 88.444 L
154.391 88.227 L
154.877 88.011 L
155.363 87.796 L
155.85 87.581 L
156.336 87.367 L
156.822 87.154 L
157.309 86.941 L
157.795 86.73 L
158.281 86.518 L
158.768 86.307 L
159.254 86.097 L
159.74 85.888 L
160.227 85.679 L
160.713 85.471 L
161.199 85.264 L
161.686 85.057 L
162.172 84.851 L
162.658 84.646 L
163.145 84.441 L
163.631 84.237 L
164.117 84.033 L
164.604 83.83 L
165.09 83.628 L
165.576 83.427 L
166.062 83.226 L
166.549 83.025 L
167.035 82.826 L
167.521 82.627 L
168.008 82.429 L
168.494 82.231 L
168.98 82.034 L
169.467 81.838 L
169.953 81.642 L
170.439 81.447 L
170.926 81.252 L
171.412 81.059 L
171.898 80.866 L
172.385 80.673 L
172.871 80.481 L
173.357 80.29 L
173.844 80.1 L
174.33 79.91 L
174.816 79.721 L
175.303 79.532 L
175.789 79.344 L
176.275 79.157 L
176.762 78.97 L
177.248 78.784 L
177.734 78.599 L
178.221 78.414 L
178.707 78.23 L
179.193 78.047 L
179.679 77.864 L
180.166 77.682 L
180.652 77.5 L
181.138 77.32 L
181.625 77.139 L
182.111 76.96 L
182.597 76.781 L
183.084 76.602 L
183.57 76.425 L
184.056 76.248 L
184.543 76.072 L
185.029 75.896 L
185.515 75.721 L
186.002 75.546 L
186.488 75.372 L
186.974 75.199 L
187.461 75.027 L
187.947 74.855 L
188.433 74.683 L
188.92 74.513 L
189.406 74.343 L
189.892 74.173 L
190.379 74.005 L
190.865 73.837 L
191.351 73.669 L
191.838 73.502 L
192.324 73.336 L
192.81 73.171 L
193.296 73.006 L
193.783 72.841 L
194.269 72.678 L
194.755 72.515 L
195.242 72.352 L
195.728 72.191 L
196.214 72.03 L
196.701 71.869 L
197.187 71.709 L
197.673 71.55 L
198.16 71.392 L
198.646 71.234 L
199.132 71.076 L
199.619 70.92 L
200.105 70.764 L
200.591 70.608 L
201.078 70.453 L
201.564 70.299 L
202.05 70.146 L
202.537 69.993 L
203.023 69.84 L
203.509 69.689 L
203.996 69.538 L
204.482 69.387 L
204.968 69.238 L
205.455 69.089 L
205.941 68.94 L
206.427 68.792 L
206.913 68.645 L
207.4 68.498 L
207.886 68.352 L
208.372 68.207 L
208.859 68.062 L
209.345 67.918 L
209.831 67.774 L
210.318 67.631 L
210.804 67.489 L
211.29 67.348 L
211.777 67.206 L
212.263 67.066 L
212.749 66.926 L
213.236 66.787 L
213.722 66.649 L
214.208 66.511 L
214.695 66.373 L
215.181 66.237 L
215.667 66.101 L
216.154 65.965 L
216.64 65.831 L
217.126 65.696 L
217.613 65.563 L
218.099 65.43 L
218.585 65.298 L
219.072 65.166 L
219.558 65.035 L
220.044 64.904 L
220.531 64.774 L
221.017 64.645 L
221.503 64.517 L
221.989 64.389 L
222.476 64.261 L
222.962 64.135 L
223.448 64.008 L
223.935 63.883 L
224.421 63.758 L
224.907 63.634 L
225.394 63.51 L
225.88 63.387 L
226.366 63.264 L
226.853 63.142 L
227.339 63.021 L
227.825 62.901 L
228.312 62.781 L
228.798 62.661 L
229.284 62.543 L
229.771 62.424 L
230.257 62.307 L
230.743 62.19 L
231.23 62.074 L
231.716 61.958 L
232.202 61.843 L
232.689 61.728 L
233.175 61.614 L
233.661 61.501 L
234.148 61.388 L
234.634 61.276 L
235.12 61.165 L
235.606 61.054 L
236.093 60.944 L
236.579 60.834 L
237.065 60.725 L
237.552 60.617 L
238.038 60.509 L
238.524 60.402 L
239.011 60.295 L
239.497 60.189 L
239.983 60.084 L
240.47 59.979 L
240.956 59.875 L
241.442 59.772 L
241.929 59.669 L
242.415 59.566 L
242.901 59.464 L
243.388 59.363 L
243.874 59.263 L
244.36 59.163 L
244.847 59.063 L
245.333 58.965 L
245.819 58.867 L
246.306 58.769 L
246.792 58.672 L
247.278 58.576 L
247.765 58.48 L
248.251 58.385 L
248.737 58.291 L
249.223 58.197 L
249.71 58.104 L
250.196 58.011 L
250.682 57.919 L
251.169 57.827 L
251.655 57.736 L
252.141 57.646 L
252.628 57.556 L
253.114 57.467 L
253.6 57.379 L
254.087 57.291 L
254.573 57.203 L
255.059 57.117 L
255.546 57.031 L
256.032 56.945 L
256.518 56.86 L
257.005 56.776 L
257.491 56.692 L
257.977 56.609 L
258.464 56.526 L
258.95 56.444 L
259.436 56.363 L
259.923 56.282 L
260.409 56.202 L
260.895 56.122 L
261.382 56.043 L
261.868 55.965 L
262.354 55.887 L
262.84 55.81 L
263.327 55.733 L
263.813 55.658 L
264.299 55.582 L
264.786 55.507 L
265.272 55.433 L
265.758 55.359 L
266.245 55.286 L
266.731 55.214 L
267.217 55.142 L
267.704 55.071 L
268.19 55 L
268.676 54.93 L
269.163 54.86 L
269.649 54.791 L
270.135 54.723 L
270.622 54.655 L
271.108 54.588 L
271.594 54.521 L
272.081 54.455 L
272.567 54.39 L
273.053 54.325 L
273.54 54.261 L
274.026 54.197 L
274.512 54.134 L
274.999 54.072 L
275.485 54.01 L
275.971 53.948 L
276.457 53.888 L
276.944 53.827 L
277.43 53.768 L
277.916 53.709 L
278.403 53.65 L
278.889 53.593 L
279.375 53.535 L
279.862 53.479 L
280.348 53.423 L
280.834 53.367 L
281.321 53.312 L
281.807 53.258 L
282.293 53.204 L
282.78 53.151 L
283.266 53.098 L
283.752 53.046 L
284.239 52.995 L
284.725 52.944 L
285.211 52.894 L
285.698 52.844 L
286.184 52.795 L
286.67 52.747 L
287.157 52.699 L
287.643 52.651 L
288.129 52.604 L
288.616 52.558 L
289.102 52.513 L
289.588 52.468 L
290.074 52.423 L
290.561 52.379 L
291.047 52.336 L
291.533 52.293 L
292.02 52.251 L
292.506 52.209 L
292.992 52.168 L
293.479 52.128 L
293.965 52.088 L
294.451 52.049 L
294.938 52.01 L
295.424 51.971 L
295.91 51.934 L
296.397 51.897 L
296.883 51.86 L
297.369 51.825 L
297.856 51.789 L
298.342 51.754 L
298.828 51.72 L
299.315 51.687 L
299.801 51.654 L
300.287 51.621 L
300.774 51.589 L
301.26 51.558 L
301.746 51.527 L
302.233 51.497 L
302.719 51.467 L
303.205 51.438 L
303.691 51.41 L
304.178 51.382 L
304.664 51.354 L
305.15 51.328 L
305.637 51.302 L
306.123 51.276 L
306.609 51.251 L
307.096 51.226 L
307.582 51.202 L
308.068 51.179 L
308.555 51.156 L
309.041 51.134 L
309.527 51.112 L
310.014 51.091 L
310.5 51.07 L
310.986 51.05 L
311.473 51.031 L
311.959 51.012 L
312.445 50.994 L
312.932 50.976 L
313.418 50.959 L
313.904 50.942 L
314.391 50.926 L
314.877 50.911 L
315.363 50.896 L
315.85 50.881 L
316.336 50.867 L
316.822 50.854 L
317.308 50.841 L
317.795 50.829 L
318.281 50.818 L
318.767 50.807 L
319.254 50.796 L
319.74 50.786 L
320.226 50.777 L
320.713 50.768 L
321.199 50.76 L
321.685 50.752 L
322.172 50.745 L
322.658 50.739 L
323.144 50.733 L
323.631 50.727 L
324.117 50.722 L
324.603 50.718 L
325.09 50.714 L
325.576 50.711 L
326.062 50.708 L
326.549 50.706 L
327.035 50.704 L
327.521 50.703 L
328.008 50.703 L
S
GR
GS
1 GC
N
499 366 M
499 250.5 L
344.5 250.5 L
344.5 366 L
cp
f
GR
GS
[1 0 0 1 381.5 260.25] CT
/Helvetica 13 F
GS
[1 0 0 1 0 0] CT
0 5 moveto 
1 -1 scale
(Base Run) t 
GR
GR
GS
0 0.447 0.741 RC
1 LJ
0.5 LW
N
348.5 260.25 M
378.5 260.25 L
S
GR
GS
[1 0 0 1 381.5 276.25] CT
/Helvetica 13 F
GS
[1 0 0 1 0 0] CT
0 5 moveto 
1 -1 scale
(I & B Frames) t 
GR
GR
GS
0.851 0.325 0.098 RC
1 LJ
0.5 LW
N
348.5 276.25 M
378.5 276.25 L
S
GR
GS
[1 0 0 1 381.5 292.25] CT
/Helvetica 13 F
GS
[1 0 0 1 0 0] CT
0 5 moveto 
1 -1 scale
(I Frames Only) t 
GR
GR
GS
0.929 0.694 0.125 RC
1 LJ
0.5 LW
N
348.5 292.25 M
378.5 292.25 L
S
GR
GS
[1 0 0 1 381.5 308.25] CT
/Helvetica 13 F
GS
[1 0 0 1 0 0] CT
0 5 moveto 
1 -1 scale
(B Frames Only) t 
GR
GR
GS
0.494 0.184 0.557 RC
1 LJ
0.5 LW
N
348.5 308.25 M
378.5 308.25 L
S
GR
GS
[1 0 0 1 381.5 324.25] CT
/Helvetica 13 F
GS
[1 0 0 1 0 0] CT
0 5 moveto 
1 -1 scale
(Part I & B Frames) t 
GR
GR
GS
0.467 0.675 0.188 RC
[10 6] 0 setdash
2 LJ
0.5 LW
N
348.5 324.25 M
378.5 324.25 L
S
GR
GS
[1 0 0 1 381.5 340.25] CT
/Helvetica 13 F
GS
[1 0 0 1 0 0] CT
0 5 moveto 
1 -1 scale
(Part I Frames Only) t 
GR
GR
GS
0.302 0.745 0.933 RC
[10 6] 0 setdash
2 LJ
0.5 LW
N
348.5 340.25 M
378.5 340.25 L
S
GR
GS
[1 0 0 1 381.5 356.25] CT
/Helvetica 13 F
GS
[1 0 0 1 0 0] CT
0 5 moveto 
1 -1 scale
(Part B Frames Only) t 
GR
GR
GS
0.635 0.078 0.184 RC
[10 6] 0 setdash
2 LJ
0.5 LW
N
348.5 356.25 M
378.5 356.25 L
S
GR
GS
0.149 GC
10.0 ML
0.5 LW
N
344.5 366 M
344.5 250.5 L
499 250.5 L
499 366 L
cp
S
GR
%%Trailer
%%Pages: 1
%%EOF
