%!PS-Adobe-3.0 EPSF-3.0
%%Creator: (MATLAB, The Mathworks, Inc. Version 9.11.0.1837725 \(R2021b\) Update 2. Operating System: Mac OS X)
%%Title: plots/pchip/OldTownCross_1920x1080p50.y4m-hevc-DE2K.eps
%%CreationDate: 2022-02-03T19:14:30
%%Pages: (atend)
%%BoundingBox:    22   425   520   826
%%LanguageLevel: 3
%%EndComments
%%BeginProlog
%%BeginResource: procset (Apache XML Graphics Std ProcSet) 1.2 0
%%Version: 1.2 0
%%Copyright: (Copyright 2001-2003,2010 The Apache Software Foundation. License terms: http://www.apache.org/licenses/LICENSE-2.0)
/bd{bind def}bind def
/ld{load def}bd
/GR/grestore ld
/GS/gsave ld
/RM/rmoveto ld
/C/curveto ld
/t/show ld
/L/lineto ld
/ML/setmiterlimit ld
/CT/concat ld
/f/fill ld
/N/newpath ld
/S/stroke ld
/CC/setcmykcolor ld
/A/ashow ld
/cp/closepath ld
/RC/setrgbcolor ld
/LJ/setlinejoin ld
/GC/setgray ld
/LW/setlinewidth ld
/M/moveto ld
/re {4 2 roll M
1 index 0 rlineto
0 exch rlineto
neg 0 rlineto
cp } bd
/_ctm matrix def
/_tm matrix def
/BT { _ctm currentmatrix pop matrix _tm copy pop 0 0 moveto } bd
/ET { _ctm setmatrix } bd
/iTm { _ctm setmatrix _tm concat } bd
/Tm { _tm astore pop iTm 0 0 moveto } bd
/ux 0.0 def
/uy 0.0 def
/F {
  /Tp exch def
  /Tf exch def
  Tf findfont Tp scalefont setfont
  /cf Tf def  /cs Tp def
} bd
/ULS {currentpoint /uy exch def /ux exch def} bd
/ULE {
  /Tcx currentpoint pop def
  gsave
  newpath
  cf findfont cs scalefont dup
  /FontMatrix get 0 get /Ts exch def /FontInfo get dup
  /UnderlinePosition get Ts mul /To exch def
  /UnderlineThickness get Ts mul /Tt exch def
  ux uy To add moveto  Tcx uy To add lineto
  Tt setlinewidth stroke
  grestore
} bd
/OLE {
  /Tcx currentpoint pop def
  gsave
  newpath
  cf findfont cs scalefont dup
  /FontMatrix get 0 get /Ts exch def /FontInfo get dup
  /UnderlinePosition get Ts mul /To exch def
  /UnderlineThickness get Ts mul /Tt exch def
  ux uy To add cs add moveto Tcx uy To add cs add lineto
  Tt setlinewidth stroke
  grestore
} bd
/SOE {
  /Tcx currentpoint pop def
  gsave
  newpath
  cf findfont cs scalefont dup
  /FontMatrix get 0 get /Ts exch def /FontInfo get dup
  /UnderlinePosition get Ts mul /To exch def
  /UnderlineThickness get Ts mul /Tt exch def
  ux uy To add cs 10 mul 26 idiv add moveto Tcx uy To add cs 10 mul 26 idiv add lineto
  Tt setlinewidth stroke
  grestore
} bd
/QT {
/Y22 exch store
/X22 exch store
/Y21 exch store
/X21 exch store
currentpoint
/Y21 load 2 mul add 3 div exch
/X21 load 2 mul add 3 div exch
/X21 load 2 mul /X22 load add 3 div
/Y21 load 2 mul /Y22 load add 3 div
/X22 load /Y22 load curveto
} bd
/SSPD {
dup length /d exch dict def
{
/v exch def
/k exch def
currentpagedevice k known {
/cpdv currentpagedevice k get def
v cpdv ne {
/upd false def
/nullv v type /nulltype eq def
/nullcpdv cpdv type /nulltype eq def
nullv nullcpdv or
{
/upd true def
} {
/sametype v type cpdv type eq def
sametype {
v type /arraytype eq {
/vlen v length def
/cpdvlen cpdv length def
vlen cpdvlen eq {
0 1 vlen 1 sub {
/i exch def
/obj v i get def
/cpdobj cpdv i get def
obj cpdobj ne {
/upd true def
exit
} if
} for
} {
/upd true def
} ifelse
} {
v type /dicttype eq {
v {
/dv exch def
/dk exch def
/cpddv cpdv dk get def
dv cpddv ne {
/upd true def
exit
} if
} forall
} {
/upd true def
} ifelse
} ifelse
} if
} ifelse
upd true eq {
d k v put
} if
} if
} if
} forall
d length 0 gt {
d setpagedevice
} if
} bd
/RE { % /NewFontName [NewEncodingArray] /FontName RE -
  findfont dup length dict begin
  {
    1 index /FID ne
    {def} {pop pop} ifelse
  } forall
  /Encoding exch def
  /FontName 1 index def
  currentdict definefont pop
  end
} bind def
%%EndResource
%%BeginResource: procset (Apache XML Graphics EPS ProcSet) 1.0 0
%%Version: 1.0 0
%%Copyright: (Copyright 2002-2003 The Apache Software Foundation. License terms: http://www.apache.org/licenses/LICENSE-2.0)
/BeginEPSF { %def
/b4_Inc_state save def         % Save state for cleanup
/dict_count countdictstack def % Count objects on dict stack
/op_count count 1 sub def      % Count objects on operand stack
userdict begin                 % Push userdict on dict stack
/showpage { } def              % Redefine showpage, { } = null proc
0 setgray 0 setlinecap         % Prepare graphics state
1 setlinewidth 0 setlinejoin
10 setmiterlimit [ ] 0 setdash newpath
/languagelevel where           % If level not equal to 1 then
{pop languagelevel             % set strokeadjust and
1 ne                           % overprint to their defaults.
{false setstrokeadjust false setoverprint
} if
} if
} bd
/EndEPSF { %def
count op_count sub {pop} repeat            % Clean up stacks
countdictstack dict_count sub {end} repeat
b4_Inc_state restore
} bd
%%EndResource
%FOPBeginFontDict
%%IncludeResource: font Courier-Oblique
%%IncludeResource: font Courier-BoldOblique
%%IncludeResource: font Courier-Bold
%%IncludeResource: font ZapfDingbats
%%IncludeResource: font Symbol
%%IncludeResource: font Helvetica
%%IncludeResource: font Helvetica-Oblique
%%IncludeResource: font Helvetica-Bold
%%IncludeResource: font Helvetica-BoldOblique
%%IncludeResource: font Times-Roman
%%IncludeResource: font Times-Italic
%%IncludeResource: font Times-Bold
%%IncludeResource: font Times-BoldItalic
%%IncludeResource: font Courier
%FOPEndFontDict
%%BeginResource: encoding WinAnsiEncoding
/WinAnsiEncoding [
/.notdef /.notdef /.notdef /.notdef /.notdef
/.notdef /.notdef /.notdef /.notdef /.notdef
/.notdef /.notdef /.notdef /.notdef /.notdef
/.notdef /.notdef /.notdef /.notdef /.notdef
/.notdef /.notdef /.notdef /.notdef /.notdef
/.notdef /.notdef /.notdef /.notdef /.notdef
/.notdef /.notdef /space /exclam /quotedbl
/numbersign /dollar /percent /ampersand /quotesingle
/parenleft /parenright /asterisk /plus /comma
/hyphen /period /slash /zero /one
/two /three /four /five /six
/seven /eight /nine /colon /semicolon
/less /equal /greater /question /at
/A /B /C /D /E
/F /G /H /I /J
/K /L /M /N /O
/P /Q /R /S /T
/U /V /W /X /Y
/Z /bracketleft /backslash /bracketright /asciicircum
/underscore /quoteleft /a /b /c
/d /e /f /g /h
/i /j /k /l /m
/n /o /p /q /r
/s /t /u /v /w
/x /y /z /braceleft /bar
/braceright /asciitilde /bullet /Euro /bullet
/quotesinglbase /florin /quotedblbase /ellipsis /dagger
/daggerdbl /circumflex /perthousand /Scaron /guilsinglleft
/OE /bullet /Zcaron /bullet /bullet
/quoteleft /quoteright /quotedblleft /quotedblright /bullet
/endash /emdash /asciitilde /trademark /scaron
/guilsinglright /oe /bullet /zcaron /Ydieresis
/space /exclamdown /cent /sterling /currency
/yen /brokenbar /section /dieresis /copyright
/ordfeminine /guillemotleft /logicalnot /sfthyphen /registered
/macron /degree /plusminus /twosuperior /threesuperior
/acute /mu /paragraph /middot /cedilla
/onesuperior /ordmasculine /guillemotright /onequarter /onehalf
/threequarters /questiondown /Agrave /Aacute /Acircumflex
/Atilde /Adieresis /Aring /AE /Ccedilla
/Egrave /Eacute /Ecircumflex /Edieresis /Igrave
/Iacute /Icircumflex /Idieresis /Eth /Ntilde
/Ograve /Oacute /Ocircumflex /Otilde /Odieresis
/multiply /Oslash /Ugrave /Uacute /Ucircumflex
/Udieresis /Yacute /Thorn /germandbls /agrave
/aacute /acircumflex /atilde /adieresis /aring
/ae /ccedilla /egrave /eacute /ecircumflex
/edieresis /igrave /iacute /icircumflex /idieresis
/eth /ntilde /ograve /oacute /ocircumflex
/otilde /odieresis /divide /oslash /ugrave
/uacute /ucircumflex /udieresis /yacute /thorn
/ydieresis
] def
%%EndResource
%FOPBeginFontReencode
/Courier-Oblique findfont
dup length dict begin
  {1 index /FID ne {def} {pop pop} ifelse} forall
  /Encoding WinAnsiEncoding def
  currentdict
end
/Courier-Oblique exch definefont pop
/Courier-BoldOblique findfont
dup length dict begin
  {1 index /FID ne {def} {pop pop} ifelse} forall
  /Encoding WinAnsiEncoding def
  currentdict
end
/Courier-BoldOblique exch definefont pop
/Courier-Bold findfont
dup length dict begin
  {1 index /FID ne {def} {pop pop} ifelse} forall
  /Encoding WinAnsiEncoding def
  currentdict
end
/Courier-Bold exch definefont pop
/Helvetica findfont
dup length dict begin
  {1 index /FID ne {def} {pop pop} ifelse} forall
  /Encoding WinAnsiEncoding def
  currentdict
end
/Helvetica exch definefont pop
/Helvetica-Oblique findfont
dup length dict begin
  {1 index /FID ne {def} {pop pop} ifelse} forall
  /Encoding WinAnsiEncoding def
  currentdict
end
/Helvetica-Oblique exch definefont pop
/Helvetica-Bold findfont
dup length dict begin
  {1 index /FID ne {def} {pop pop} ifelse} forall
  /Encoding WinAnsiEncoding def
  currentdict
end
/Helvetica-Bold exch definefont pop
/Helvetica-BoldOblique findfont
dup length dict begin
  {1 index /FID ne {def} {pop pop} ifelse} forall
  /Encoding WinAnsiEncoding def
  currentdict
end
/Helvetica-BoldOblique exch definefont pop
/Times-Roman findfont
dup length dict begin
  {1 index /FID ne {def} {pop pop} ifelse} forall
  /Encoding WinAnsiEncoding def
  currentdict
end
/Times-Roman exch definefont pop
/Times-Italic findfont
dup length dict begin
  {1 index /FID ne {def} {pop pop} ifelse} forall
  /Encoding WinAnsiEncoding def
  currentdict
end
/Times-Italic exch definefont pop
/Times-Bold findfont
dup length dict begin
  {1 index /FID ne {def} {pop pop} ifelse} forall
  /Encoding WinAnsiEncoding def
  currentdict
end
/Times-Bold exch definefont pop
/Times-BoldItalic findfont
dup length dict begin
  {1 index /FID ne {def} {pop pop} ifelse} forall
  /Encoding WinAnsiEncoding def
  currentdict
end
/Times-BoldItalic exch definefont pop
/Courier findfont
dup length dict begin
  {1 index /FID ne {def} {pop pop} ifelse} forall
  /Encoding WinAnsiEncoding def
  currentdict
end
/Courier exch definefont pop
%FOPEndFontReencode
%%EndProlog
%%Page: 1 1
%%PageBoundingBox: 0 0 1120 840
%%BeginPageSetup
[1 0 0 -1 0 840] CT
%%EndPageSetup
GS
1 GC
N
0 0 1120 840 re
f
GR
GS
1 GC
N
73 374 M
507 374 L
507 31.5 L
73 31.5 L
cp
f
GR
GS
0.149 GC
2 setlinecap
1 LJ
0.5 LW
N
73 374 M
507 374 L
S
GR
GS
0.149 GC
2 setlinecap
1 LJ
0.5 LW
N
73 31.5 M
507 31.5 L
S
GR
GS
0.149 GC
2 setlinecap
1 LJ
0.5 LW
N
110.609 374 M
110.609 369.66 L
S
GR
GS
0.149 GC
2 setlinecap
1 LJ
0.5 LW
N
159.242 374 M
159.242 369.66 L
S
GR
GS
0.149 GC
2 setlinecap
1 LJ
0.5 LW
N
207.874 374 M
207.874 369.66 L
S
GR
GS
0.149 GC
2 setlinecap
1 LJ
0.5 LW
N
256.506 374 M
256.506 369.66 L
S
GR
GS
0.149 GC
2 setlinecap
1 LJ
0.5 LW
N
305.138 374 M
305.138 369.66 L
S
GR
GS
0.149 GC
2 setlinecap
1 LJ
0.5 LW
N
353.77 374 M
353.77 369.66 L
S
GR
GS
0.149 GC
2 setlinecap
1 LJ
0.5 LW
N
402.402 374 M
402.402 369.66 L
S
GR
GS
0.149 GC
2 setlinecap
1 LJ
0.5 LW
N
451.034 374 M
451.034 369.66 L
S
GR
GS
0.149 GC
2 setlinecap
1 LJ
0.5 LW
N
499.667 374 M
499.667 369.66 L
S
GR
GS
0.149 GC
2 setlinecap
1 LJ
0.5 LW
N
110.609 31.5 M
110.609 35.84 L
S
GR
GS
0.149 GC
2 setlinecap
1 LJ
0.5 LW
N
159.242 31.5 M
159.242 35.84 L
S
GR
GS
0.149 GC
2 setlinecap
1 LJ
0.5 LW
N
207.874 31.5 M
207.874 35.84 L
S
GR
GS
0.149 GC
2 setlinecap
1 LJ
0.5 LW
N
256.506 31.5 M
256.506 35.84 L
S
GR
GS
0.149 GC
2 setlinecap
1 LJ
0.5 LW
N
305.138 31.5 M
305.138 35.84 L
S
GR
GS
0.149 GC
2 setlinecap
1 LJ
0.5 LW
N
353.77 31.5 M
353.77 35.84 L
S
GR
GS
0.149 GC
2 setlinecap
1 LJ
0.5 LW
N
402.402 31.5 M
402.402 35.84 L
S
GR
GS
0.149 GC
2 setlinecap
1 LJ
0.5 LW
N
451.034 31.5 M
451.034 35.84 L
S
GR
GS
0.149 GC
2 setlinecap
1 LJ
0.5 LW
N
499.667 31.5 M
499.667 35.84 L
S
GR
GS
0.149 GC
2 setlinecap
1 LJ
0.5 LW
N
74.135 374 M
74.135 371.83 L
S
GR
GS
0.149 GC
2 setlinecap
1 LJ
0.5 LW
N
86.293 374 M
86.293 371.83 L
S
GR
GS
0.149 GC
2 setlinecap
1 LJ
0.5 LW
N
98.451 374 M
98.451 371.83 L
S
GR
GS
0.149 GC
2 setlinecap
1 LJ
0.5 LW
N
122.767 374 M
122.767 371.83 L
S
GR
GS
0.149 GC
2 setlinecap
1 LJ
0.5 LW
N
134.925 374 M
134.925 371.83 L
S
GR
GS
0.149 GC
2 setlinecap
1 LJ
0.5 LW
N
147.083 374 M
147.083 371.83 L
S
GR
GS
0.149 GC
2 setlinecap
1 LJ
0.5 LW
N
171.4 374 M
171.4 371.83 L
S
GR
GS
0.149 GC
2 setlinecap
1 LJ
0.5 LW
N
183.558 374 M
183.558 371.83 L
S
GR
GS
0.149 GC
2 setlinecap
1 LJ
0.5 LW
N
195.716 374 M
195.716 371.83 L
S
GR
GS
0.149 GC
2 setlinecap
1 LJ
0.5 LW
N
220.032 374 M
220.032 371.83 L
S
GR
GS
0.149 GC
2 setlinecap
1 LJ
0.5 LW
N
232.19 374 M
232.19 371.83 L
S
GR
GS
0.149 GC
2 setlinecap
1 LJ
0.5 LW
N
244.348 374 M
244.348 371.83 L
S
GR
GS
0.149 GC
2 setlinecap
1 LJ
0.5 LW
N
268.664 374 M
268.664 371.83 L
S
GR
GS
0.149 GC
2 setlinecap
1 LJ
0.5 LW
N
280.822 374 M
280.822 371.83 L
S
GR
GS
0.149 GC
2 setlinecap
1 LJ
0.5 LW
N
292.98 374 M
292.98 371.83 L
S
GR
GS
0.149 GC
2 setlinecap
1 LJ
0.5 LW
N
317.296 374 M
317.296 371.83 L
S
GR
GS
0.149 GC
2 setlinecap
1 LJ
0.5 LW
N
329.454 374 M
329.454 371.83 L
S
GR
GS
0.149 GC
2 setlinecap
1 LJ
0.5 LW
N
341.612 374 M
341.612 371.83 L
S
GR
GS
0.149 GC
2 setlinecap
1 LJ
0.5 LW
N
365.928 374 M
365.928 371.83 L
S
GR
GS
0.149 GC
2 setlinecap
1 LJ
0.5 LW
N
378.086 374 M
378.086 371.83 L
S
GR
GS
0.149 GC
2 setlinecap
1 LJ
0.5 LW
N
390.244 374 M
390.244 371.83 L
S
GR
GS
0.149 GC
2 setlinecap
1 LJ
0.5 LW
N
414.56 374 M
414.56 371.83 L
S
GR
GS
0.149 GC
2 setlinecap
1 LJ
0.5 LW
N
426.718 374 M
426.718 371.83 L
S
GR
GS
0.149 GC
2 setlinecap
1 LJ
0.5 LW
N
438.876 374 M
438.876 371.83 L
S
GR
GS
0.149 GC
2 setlinecap
1 LJ
0.5 LW
N
463.192 374 M
463.192 371.83 L
S
GR
GS
0.149 GC
2 setlinecap
1 LJ
0.5 LW
N
475.35 374 M
475.35 371.83 L
S
GR
GS
0.149 GC
2 setlinecap
1 LJ
0.5 LW
N
487.509 374 M
487.509 371.83 L
S
GR
GS
0.149 GC
2 setlinecap
1 LJ
0.5 LW
N
74.135 31.5 M
74.135 33.67 L
S
GR
GS
0.149 GC
2 setlinecap
1 LJ
0.5 LW
N
86.293 31.5 M
86.293 33.67 L
S
GR
GS
0.149 GC
2 setlinecap
1 LJ
0.5 LW
N
98.451 31.5 M
98.451 33.67 L
S
GR
GS
0.149 GC
2 setlinecap
1 LJ
0.5 LW
N
122.767 31.5 M
122.767 33.67 L
S
GR
GS
0.149 GC
2 setlinecap
1 LJ
0.5 LW
N
134.925 31.5 M
134.925 33.67 L
S
GR
GS
0.149 GC
2 setlinecap
1 LJ
0.5 LW
N
147.083 31.5 M
147.083 33.67 L
S
GR
GS
0.149 GC
2 setlinecap
1 LJ
0.5 LW
N
171.4 31.5 M
171.4 33.67 L
S
GR
GS
0.149 GC
2 setlinecap
1 LJ
0.5 LW
N
183.558 31.5 M
183.558 33.67 L
S
GR
GS
0.149 GC
2 setlinecap
1 LJ
0.5 LW
N
195.716 31.5 M
195.716 33.67 L
S
GR
GS
0.149 GC
2 setlinecap
1 LJ
0.5 LW
N
220.032 31.5 M
220.032 33.67 L
S
GR
GS
0.149 GC
2 setlinecap
1 LJ
0.5 LW
N
232.19 31.5 M
232.19 33.67 L
S
GR
GS
0.149 GC
2 setlinecap
1 LJ
0.5 LW
N
244.348 31.5 M
244.348 33.67 L
S
GR
GS
0.149 GC
2 setlinecap
1 LJ
0.5 LW
N
268.664 31.5 M
268.664 33.67 L
S
GR
GS
0.149 GC
2 setlinecap
1 LJ
0.5 LW
N
280.822 31.5 M
280.822 33.67 L
S
GR
GS
0.149 GC
2 setlinecap
1 LJ
0.5 LW
N
292.98 31.5 M
292.98 33.67 L
S
GR
GS
0.149 GC
2 setlinecap
1 LJ
0.5 LW
N
317.296 31.5 M
317.296 33.67 L
S
GR
GS
0.149 GC
2 setlinecap
1 LJ
0.5 LW
N
329.454 31.5 M
329.454 33.67 L
S
GR
GS
0.149 GC
2 setlinecap
1 LJ
0.5 LW
N
341.612 31.5 M
341.612 33.67 L
S
GR
GS
0.149 GC
2 setlinecap
1 LJ
0.5 LW
N
365.928 31.5 M
365.928 33.67 L
S
GR
GS
0.149 GC
2 setlinecap
1 LJ
0.5 LW
N
378.086 31.5 M
378.086 33.67 L
S
GR
GS
0.149 GC
2 setlinecap
1 LJ
0.5 LW
N
390.244 31.5 M
390.244 33.67 L
S
GR
GS
0.149 GC
2 setlinecap
1 LJ
0.5 LW
N
414.56 31.5 M
414.56 33.67 L
S
GR
GS
0.149 GC
2 setlinecap
1 LJ
0.5 LW
N
426.718 31.5 M
426.718 33.67 L
S
GR
GS
0.149 GC
2 setlinecap
1 LJ
0.5 LW
N
438.876 31.5 M
438.876 33.67 L
S
GR
GS
0.149 GC
2 setlinecap
1 LJ
0.5 LW
N
463.192 31.5 M
463.192 33.67 L
S
GR
GS
0.149 GC
2 setlinecap
1 LJ
0.5 LW
N
475.35 31.5 M
475.35 33.67 L
S
GR
GS
0.149 GC
2 setlinecap
1 LJ
0.5 LW
N
487.509 31.5 M
487.509 33.67 L
S
GR
GS
[1 0 0 1 110.60934 378.80014] CT
0.149 GC
/Helvetica 14 F
GS
[1 0 0 1 0 0] CT
-16 14 moveto 
1 -1 scale
(2000) t 
GR
GR
GS
[1 0 0 1 159.2415 378.80014] CT
0.149 GC
/Helvetica 14 F
GS
[1 0 0 1 0 0] CT
-16 14 moveto 
1 -1 scale
(4000) t 
GR
GR
GS
[1 0 0 1 207.87364 378.80014] CT
0.149 GC
/Helvetica 14 F
GS
[1 0 0 1 0 0] CT
-16 14 moveto 
1 -1 scale
(6000) t 
GR
GR
GS
[1 0 0 1 256.5058 378.80014] CT
0.149 GC
/Helvetica 14 F
GS
[1 0 0 1 0 0] CT
-16 14 moveto 
1 -1 scale
(8000) t 
GR
GR
GS
[1 0 0 1 305.13797 378.80014] CT
0.149 GC
/Helvetica 14 F
GS
[1 0 0 1 0 0] CT
-19.5 14 moveto 
1 -1 scale
(10000) t 
GR
GR
GS
[1 0 0 1 353.77011 378.80014] CT
0.149 GC
/Helvetica 14 F
GS
[1 0 0 1 0 0] CT
-19.5 14 moveto 
1 -1 scale
(12000) t 
GR
GR
GS
[1 0 0 1 402.40225 378.80014] CT
0.149 GC
/Helvetica 14 F
GS
[1 0 0 1 0 0] CT
-19.5 14 moveto 
1 -1 scale
(14000) t 
GR
GR
GS
[1 0 0 1 451.03442 378.80014] CT
0.149 GC
/Helvetica 14 F
GS
[1 0 0 1 0 0] CT
-19.5 14 moveto 
1 -1 scale
(16000) t 
GR
GR
GS
[1 0 0 1 499.66656 378.80014] CT
0.149 GC
/Helvetica 14 F
GS
[1 0 0 1 0 0] CT
-19.5 14 moveto 
1 -1 scale
(18000) t 
GR
GR
GS
[1 0 0 1 290.00021 396.29999] CT
0.149 GC
/Helvetica 15.4 F
GS
[1 0 0 1 0 0] CT
-42 15 moveto 
1 -1 scale
(Bitrate\(kb/s\)) t 
GR
GR
GS
0.149 GC
2 setlinecap
1 LJ
0.5 LW
N
73 374 M
73 31.5 L
S
GR
GS
0.149 GC
2 setlinecap
1 LJ
0.5 LW
N
507 374 M
507 31.5 L
S
GR
GS
0.149 GC
2 setlinecap
1 LJ
0.5 LW
N
73 326.793 M
77.34 326.793 L
S
GR
GS
0.149 GC
2 setlinecap
1 LJ
0.5 LW
N
73 278.659 M
77.34 278.659 L
S
GR
GS
0.149 GC
2 setlinecap
1 LJ
0.5 LW
N
73 230.525 M
77.34 230.525 L
S
GR
GS
0.149 GC
2 setlinecap
1 LJ
0.5 LW
N
73 182.392 M
77.34 182.392 L
S
GR
GS
0.149 GC
2 setlinecap
1 LJ
0.5 LW
N
73 134.258 M
77.34 134.258 L
S
GR
GS
0.149 GC
2 setlinecap
1 LJ
0.5 LW
N
73 86.124 M
77.34 86.124 L
S
GR
GS
0.149 GC
2 setlinecap
1 LJ
0.5 LW
N
73 37.99 M
77.34 37.99 L
S
GR
GS
0.149 GC
2 setlinecap
1 LJ
0.5 LW
N
507 326.793 M
502.66 326.793 L
S
GR
GS
0.149 GC
2 setlinecap
1 LJ
0.5 LW
N
507 278.659 M
502.66 278.659 L
S
GR
GS
0.149 GC
2 setlinecap
1 LJ
0.5 LW
N
507 230.525 M
502.66 230.525 L
S
GR
GS
0.149 GC
2 setlinecap
1 LJ
0.5 LW
N
507 182.392 M
502.66 182.392 L
S
GR
GS
0.149 GC
2 setlinecap
1 LJ
0.5 LW
N
507 134.258 M
502.66 134.258 L
S
GR
GS
0.149 GC
2 setlinecap
1 LJ
0.5 LW
N
507 86.124 M
502.66 86.124 L
S
GR
GS
0.149 GC
2 setlinecap
1 LJ
0.5 LW
N
507 37.99 M
502.66 37.99 L
S
GR
GS
0.149 GC
2 setlinecap
1 LJ
0.5 LW
N
73 365.3 M
75.17 365.3 L
S
GR
GS
0.149 GC
2 setlinecap
1 LJ
0.5 LW
N
73 355.673 M
75.17 355.673 L
S
GR
GS
0.149 GC
2 setlinecap
1 LJ
0.5 LW
N
73 346.046 M
75.17 346.046 L
S
GR
GS
0.149 GC
2 setlinecap
1 LJ
0.5 LW
N
73 336.42 M
75.17 336.42 L
S
GR
GS
0.149 GC
2 setlinecap
1 LJ
0.5 LW
N
73 317.166 M
75.17 317.166 L
S
GR
GS
0.149 GC
2 setlinecap
1 LJ
0.5 LW
N
73 307.539 M
75.17 307.539 L
S
GR
GS
0.149 GC
2 setlinecap
1 LJ
0.5 LW
N
73 297.913 M
75.17 297.913 L
S
GR
GS
0.149 GC
2 setlinecap
1 LJ
0.5 LW
N
73 288.286 M
75.17 288.286 L
S
GR
GS
0.149 GC
2 setlinecap
1 LJ
0.5 LW
N
73 269.032 M
75.17 269.032 L
S
GR
GS
0.149 GC
2 setlinecap
1 LJ
0.5 LW
N
73 259.406 M
75.17 259.406 L
S
GR
GS
0.149 GC
2 setlinecap
1 LJ
0.5 LW
N
73 249.779 M
75.17 249.779 L
S
GR
GS
0.149 GC
2 setlinecap
1 LJ
0.5 LW
N
73 240.152 M
75.17 240.152 L
S
GR
GS
0.149 GC
2 setlinecap
1 LJ
0.5 LW
N
73 220.899 M
75.17 220.899 L
S
GR
GS
0.149 GC
2 setlinecap
1 LJ
0.5 LW
N
73 211.272 M
75.17 211.272 L
S
GR
GS
0.149 GC
2 setlinecap
1 LJ
0.5 LW
N
73 201.645 M
75.17 201.645 L
S
GR
GS
0.149 GC
2 setlinecap
1 LJ
0.5 LW
N
73 192.018 M
75.17 192.018 L
S
GR
GS
0.149 GC
2 setlinecap
1 LJ
0.5 LW
N
73 172.765 M
75.17 172.765 L
S
GR
GS
0.149 GC
2 setlinecap
1 LJ
0.5 LW
N
73 163.138 M
75.17 163.138 L
S
GR
GS
0.149 GC
2 setlinecap
1 LJ
0.5 LW
N
73 153.511 M
75.17 153.511 L
S
GR
GS
0.149 GC
2 setlinecap
1 LJ
0.5 LW
N
73 143.884 M
75.17 143.884 L
S
GR
GS
0.149 GC
2 setlinecap
1 LJ
0.5 LW
N
73 124.631 M
75.17 124.631 L
S
GR
GS
0.149 GC
2 setlinecap
1 LJ
0.5 LW
N
73 115.004 M
75.17 115.004 L
S
GR
GS
0.149 GC
2 setlinecap
1 LJ
0.5 LW
N
73 105.378 M
75.17 105.378 L
S
GR
GS
0.149 GC
2 setlinecap
1 LJ
0.5 LW
N
73 95.751 M
75.17 95.751 L
S
GR
GS
0.149 GC
2 setlinecap
1 LJ
0.5 LW
N
73 76.497 M
75.17 76.497 L
S
GR
GS
0.149 GC
2 setlinecap
1 LJ
0.5 LW
N
73 66.871 M
75.17 66.871 L
S
GR
GS
0.149 GC
2 setlinecap
1 LJ
0.5 LW
N
73 57.244 M
75.17 57.244 L
S
GR
GS
0.149 GC
2 setlinecap
1 LJ
0.5 LW
N
73 47.617 M
75.17 47.617 L
S
GR
GS
0.149 GC
2 setlinecap
1 LJ
0.5 LW
N
507 365.3 M
504.83 365.3 L
S
GR
GS
0.149 GC
2 setlinecap
1 LJ
0.5 LW
N
507 355.673 M
504.83 355.673 L
S
GR
GS
0.149 GC
2 setlinecap
1 LJ
0.5 LW
N
507 346.046 M
504.83 346.046 L
S
GR
GS
0.149 GC
2 setlinecap
1 LJ
0.5 LW
N
507 336.42 M
504.83 336.42 L
S
GR
GS
0.149 GC
2 setlinecap
1 LJ
0.5 LW
N
507 317.166 M
504.83 317.166 L
S
GR
GS
0.149 GC
2 setlinecap
1 LJ
0.5 LW
N
507 307.539 M
504.83 307.539 L
S
GR
GS
0.149 GC
2 setlinecap
1 LJ
0.5 LW
N
507 297.913 M
504.83 297.913 L
S
GR
GS
0.149 GC
2 setlinecap
1 LJ
0.5 LW
N
507 288.286 M
504.83 288.286 L
S
GR
GS
0.149 GC
2 setlinecap
1 LJ
0.5 LW
N
507 269.032 M
504.83 269.032 L
S
GR
GS
0.149 GC
2 setlinecap
1 LJ
0.5 LW
N
507 259.406 M
504.83 259.406 L
S
GR
GS
0.149 GC
2 setlinecap
1 LJ
0.5 LW
N
507 249.779 M
504.83 249.779 L
S
GR
GS
0.149 GC
2 setlinecap
1 LJ
0.5 LW
N
507 240.152 M
504.83 240.152 L
S
GR
GS
0.149 GC
2 setlinecap
1 LJ
0.5 LW
N
507 220.899 M
504.83 220.899 L
S
GR
GS
0.149 GC
2 setlinecap
1 LJ
0.5 LW
N
507 211.272 M
504.83 211.272 L
S
GR
GS
0.149 GC
2 setlinecap
1 LJ
0.5 LW
N
507 201.645 M
504.83 201.645 L
S
GR
GS
0.149 GC
2 setlinecap
1 LJ
0.5 LW
N
507 192.018 M
504.83 192.018 L
S
GR
GS
0.149 GC
2 setlinecap
1 LJ
0.5 LW
N
507 172.765 M
504.83 172.765 L
S
GR
GS
0.149 GC
2 setlinecap
1 LJ
0.5 LW
N
507 163.138 M
504.83 163.138 L
S
GR
GS
0.149 GC
2 setlinecap
1 LJ
0.5 LW
N
507 153.511 M
504.83 153.511 L
S
GR
GS
0.149 GC
2 setlinecap
1 LJ
0.5 LW
N
507 143.884 M
504.83 143.884 L
S
GR
GS
0.149 GC
2 setlinecap
1 LJ
0.5 LW
N
507 124.631 M
504.83 124.631 L
S
GR
GS
0.149 GC
2 setlinecap
1 LJ
0.5 LW
N
507 115.004 M
504.83 115.004 L
S
GR
GS
0.149 GC
2 setlinecap
1 LJ
0.5 LW
N
507 105.378 M
504.83 105.378 L
S
GR
GS
0.149 GC
2 setlinecap
1 LJ
0.5 LW
N
507 95.751 M
504.83 95.751 L
S
GR
GS
0.149 GC
2 setlinecap
1 LJ
0.5 LW
N
507 76.497 M
504.83 76.497 L
S
GR
GS
0.149 GC
2 setlinecap
1 LJ
0.5 LW
N
507 66.871 M
504.83 66.871 L
S
GR
GS
0.149 GC
2 setlinecap
1 LJ
0.5 LW
N
507 57.244 M
504.83 57.244 L
S
GR
GS
0.149 GC
2 setlinecap
1 LJ
0.5 LW
N
507 47.617 M
504.83 47.617 L
S
GR
GS
[1 0 0 1 68.2 326.79282] CT
0.149 GC
/Helvetica 14 F
GS
[1 0 0 1 0 0] CT
-16 5.5 moveto 
1 -1 scale
(32) t 
GR
GR
GS
[1 0 0 1 68.2 278.65909] CT
0.149 GC
/Helvetica 14 F
GS
[1 0 0 1 0 0] CT
-28 5.5 moveto 
1 -1 scale
(32.5) t 
GR
GR
GS
[1 0 0 1 68.2 230.52533] CT
0.149 GC
/Helvetica 14 F
GS
[1 0 0 1 0 0] CT
-16 5.5 moveto 
1 -1 scale
(33) t 
GR
GR
GS
[1 0 0 1 68.2 182.39159] CT
0.149 GC
/Helvetica 14 F
GS
[1 0 0 1 0 0] CT
-28 5.5 moveto 
1 -1 scale
(33.5) t 
GR
GR
GS
[1 0 0 1 68.2 134.25783] CT
0.149 GC
/Helvetica 14 F
GS
[1 0 0 1 0 0] CT
-16 5.5 moveto 
1 -1 scale
(34) t 
GR
GR
GS
[1 0 0 1 68.2 86.12408] CT
0.149 GC
/Helvetica 14 F
GS
[1 0 0 1 0 0] CT
-28 5.5 moveto 
1 -1 scale
(34.5) t 
GR
GR
GS
[1 0 0 1 68.2 37.99034] CT
0.149 GC
/Helvetica 14 F
GS
[1 0 0 1 0 0] CT
-16 5.5 moveto 
1 -1 scale
(35) t 
GR
GR
GS
[0 -1 1 0 37.7 202.74979] CT
0.149 GC
/Helvetica 15.4 F
GS
[1 0 0 1 0 0] CT
-55.5 -4 moveto 
1 -1 scale
(CIEDE2000 \(dB\)) t 
GR
GR
GS
[1 0 0 1 290.00027 29.57487] CT
/Helvetica-Bold 15.4 F
GS
[1 0 0 1 0 0] CT
-148.5 -4 moveto 
1 -1 scale
(OldTownCross_1920x1080p50.y4m-hevc) t 
GR
GR
GS
0 0.447 0.741 RC
1 LJ
0.5 LW
N
73.65 363.36 M
74.136 358.052 L
74.623 352.773 L
75.109 347.531 L
75.595 342.331 L
76.082 337.18 L
76.568 332.086 L
77.054 327.055 L
77.541 322.093 L
78.027 317.208 L
78.513 312.406 L
78.999 307.694 L
79.486 303.079 L
79.972 298.566 L
80.458 294.164 L
80.945 289.879 L
81.431 285.717 L
81.917 281.686 L
82.404 277.791 L
82.89 274.04 L
83.376 270.44 L
83.863 266.997 L
84.349 263.718 L
84.835 260.563 L
85.322 257.447 L
85.808 254.37 L
86.294 251.33 L
86.781 248.33 L
87.267 245.37 L
87.753 242.449 L
88.24 239.568 L
88.726 236.729 L
89.212 233.931 L
89.699 231.175 L
90.185 228.462 L
90.671 225.791 L
91.158 223.165 L
91.644 220.582 L
92.13 218.044 L
92.616 215.551 L
93.103 213.104 L
93.589 210.702 L
94.075 208.347 L
94.562 206.04 L
95.048 203.78 L
95.534 201.568 L
96.021 199.405 L
96.507 197.292 L
96.993 195.227 L
97.48 193.214 L
97.966 191.251 L
98.452 189.339 L
98.939 187.478 L
99.425 185.671 L
99.911 183.916 L
100.398 182.214 L
100.884 180.566 L
101.37 178.973 L
101.857 177.434 L
102.343 175.951 L
102.829 174.524 L
103.316 173.147 L
103.802 171.786 L
104.288 170.434 L
104.775 169.092 L
105.261 167.758 L
105.747 166.434 L
106.233 165.12 L
106.72 163.815 L
107.206 162.52 L
107.692 161.235 L
108.179 159.96 L
108.665 158.696 L
109.151 157.441 L
109.638 156.197 L
110.124 154.963 L
110.61 153.739 L
111.097 152.527 L
111.583 151.325 L
112.069 150.135 L
112.556 148.955 L
113.042 147.786 L
113.528 146.629 L
114.015 145.483 L
114.501 144.349 L
114.987 143.226 L
115.474 142.115 L
115.96 141.016 L
116.446 139.929 L
116.933 138.854 L
117.419 137.791 L
117.905 136.74 L
118.392 135.702 L
118.878 134.676 L
119.364 133.663 L
119.85 132.663 L
120.337 131.676 L
120.823 130.702 L
121.309 129.74 L
121.796 128.792 L
122.282 127.858 L
122.768 126.936 L
123.255 126.029 L
123.741 125.135 L
124.227 124.255 L
124.714 123.389 L
125.2 122.536 L
125.686 121.698 L
126.173 120.874 L
126.659 120.065 L
127.145 119.27 L
127.632 118.49 L
128.118 117.724 L
128.604 116.973 L
129.091 116.238 L
129.577 115.517 L
130.063 114.811 L
130.55 114.121 L
131.036 113.446 L
131.522 112.787 L
132.009 112.143 L
132.495 111.515 L
132.981 110.903 L
133.467 110.307 L
133.954 109.727 L
134.44 109.163 L
134.926 108.616 L
135.413 108.085 L
135.899 107.571 L
136.385 107.073 L
136.872 106.592 L
137.358 106.128 L
137.844 105.681 L
138.331 105.251 L
138.817 104.838 L
139.303 104.443 L
139.79 104.065 L
140.276 103.705 L
140.762 103.362 L
141.249 103.037 L
141.735 102.721 L
142.221 102.406 L
142.708 102.092 L
143.194 101.78 L
143.68 101.467 L
144.167 101.156 L
144.653 100.845 L
145.139 100.536 L
145.626 100.227 L
146.112 99.919 L
146.598 99.612 L
147.085 99.306 L
147.571 99.001 L
148.057 98.697 L
148.543 98.394 L
149.03 98.091 L
149.516 97.79 L
150.002 97.489 L
150.489 97.189 L
150.975 96.89 L
151.461 96.592 L
151.948 96.295 L
152.434 95.999 L
152.92 95.704 L
153.407 95.41 L
153.893 95.116 L
154.379 94.823 L
154.866 94.531 L
155.352 94.241 L
155.838 93.951 L
156.325 93.662 L
156.811 93.374 L
157.297 93.086 L
157.784 92.8 L
158.27 92.515 L
158.756 92.23 L
159.243 91.946 L
159.729 91.663 L
160.215 91.382 L
160.702 91.101 L
161.188 90.821 L
161.674 90.542 L
162.16 90.263 L
162.647 89.986 L
163.133 89.709 L
163.619 89.434 L
164.106 89.159 L
164.592 88.885 L
165.078 88.612 L
165.565 88.34 L
166.051 88.069 L
166.537 87.799 L
167.024 87.529 L
167.51 87.261 L
167.996 86.993 L
168.483 86.726 L
168.969 86.46 L
169.455 86.196 L
169.942 85.932 L
170.428 85.669 L
170.914 85.407 L
171.401 85.145 L
171.887 84.885 L
172.373 84.625 L
172.86 84.367 L
173.346 84.109 L
173.832 83.852 L
174.319 83.596 L
174.805 83.341 L
175.291 83.087 L
175.777 82.833 L
176.264 82.581 L
176.75 82.329 L
177.236 82.079 L
177.723 81.829 L
178.209 81.58 L
178.695 81.332 L
179.182 81.085 L
179.668 80.839 L
180.154 80.594 L
180.641 80.35 L
181.127 80.106 L
181.613 79.864 L
182.1 79.622 L
182.586 79.381 L
183.072 79.141 L
183.559 78.902 L
184.045 78.664 L
184.531 78.427 L
185.018 78.191 L
185.504 77.955 L
185.99 77.721 L
186.477 77.487 L
186.963 77.255 L
187.449 77.023 L
187.936 76.792 L
188.422 76.562 L
188.908 76.333 L
189.394 76.104 L
189.881 75.877 L
190.367 75.651 L
190.853 75.425 L
191.34 75.2 L
191.826 74.976 L
192.312 74.754 L
192.799 74.532 L
193.285 74.311 L
193.771 74.09 L
194.258 73.871 L
194.744 73.653 L
195.23 73.435 L
195.717 73.218 L
196.203 73.003 L
196.689 72.788 L
197.176 72.574 L
197.662 72.361 L
198.148 72.149 L
198.635 71.938 L
199.121 71.727 L
199.607 71.518 L
200.094 71.309 L
200.58 71.101 L
201.066 70.895 L
201.553 70.689 L
202.039 70.484 L
202.525 70.28 L
203.011 70.076 L
203.498 69.874 L
203.984 69.672 L
204.47 69.472 L
204.957 69.273 L
205.443 69.074 L
205.929 68.876 L
206.416 68.679 L
206.902 68.483 L
207.388 68.288 L
207.875 68.093 L
208.361 67.9 L
208.847 67.707 L
209.334 67.516 L
209.82 67.325 L
210.306 67.136 L
210.793 66.947 L
211.279 66.759 L
211.765 66.572 L
212.252 66.385 L
212.738 66.2 L
213.224 66.016 L
213.711 65.832 L
214.197 65.649 L
214.683 65.468 L
215.17 65.287 L
215.656 65.107 L
216.142 64.928 L
216.628 64.749 L
217.115 64.572 L
217.601 64.396 L
218.087 64.22 L
218.574 64.046 L
219.06 63.872 L
219.546 63.699 L
220.033 63.527 L
220.519 63.356 L
221.005 63.186 L
221.492 63.017 L
221.978 62.849 L
222.464 62.681 L
222.951 62.515 L
223.437 62.349 L
223.923 62.184 L
224.41 62.02 L
224.896 61.857 L
225.382 61.695 L
225.869 61.534 L
226.355 61.374 L
226.841 61.214 L
227.328 61.056 L
227.814 60.899 L
228.3 60.742 L
228.787 60.586 L
229.273 60.431 L
229.759 60.277 L
230.245 60.124 L
230.732 59.972 L
231.218 59.82 L
231.704 59.67 L
232.191 59.52 L
232.677 59.372 L
233.163 59.224 L
233.65 59.077 L
234.136 58.931 L
234.622 58.786 L
235.109 58.642 L
235.595 58.498 L
236.081 58.356 L
236.568 58.215 L
237.054 58.074 L
237.54 57.934 L
238.027 57.795 L
238.513 57.657 L
238.999 57.52 L
239.486 57.385 L
239.972 57.249 L
240.458 57.115 L
240.945 56.981 L
241.431 56.849 L
241.917 56.717 L
242.404 56.587 L
242.89 56.457 L
243.376 56.328 L
243.862 56.2 L
244.349 56.072 L
244.835 55.946 L
245.321 55.821 L
245.808 55.696 L
246.294 55.573 L
246.78 55.45 L
247.267 55.328 L
247.753 55.207 L
248.239 55.087 L
248.726 54.968 L
249.212 54.85 L
249.698 54.732 L
250.185 54.616 L
250.671 54.5 L
251.157 54.386 L
251.644 54.272 L
252.13 54.159 L
252.616 54.047 L
253.103 53.936 L
253.589 53.826 L
254.075 53.717 L
254.562 53.608 L
255.048 53.501 L
255.534 53.394 L
256.021 53.288 L
256.507 53.183 L
256.993 53.08 L
257.479 52.977 L
257.966 52.875 L
258.452 52.773 L
258.938 52.673 L
259.425 52.573 L
259.911 52.475 L
260.397 52.377 L
260.884 52.28 L
261.37 52.185 L
261.856 52.09 L
262.343 51.996 L
262.829 51.903 L
263.315 51.81 L
263.802 51.719 L
264.288 51.628 L
264.774 51.539 L
265.261 51.45 L
265.747 51.362 L
266.233 51.275 L
266.72 51.189 L
267.206 51.104 L
267.692 51.02 L
268.179 50.937 L
268.665 50.854 L
269.151 50.773 L
269.638 50.692 L
270.124 50.612 L
270.61 50.533 L
271.096 50.455 L
271.583 50.378 L
272.069 50.302 L
272.555 50.227 L
273.042 50.152 L
273.528 50.079 L
274.014 50.007 L
274.501 49.935 L
274.987 49.864 L
275.473 49.794 L
275.96 49.725 L
276.446 49.657 L
276.932 49.59 L
277.419 49.523 L
277.905 49.458 L
278.391 49.393 L
278.878 49.33 L
279.364 49.267 L
279.85 49.205 L
280.337 49.144 L
280.823 49.084 L
281.309 49.025 L
281.796 48.967 L
282.282 48.909 L
282.768 48.853 L
283.255 48.797 L
283.741 48.743 L
284.227 48.689 L
284.714 48.636 L
285.2 48.584 L
285.686 48.533 L
286.172 48.483 L
286.659 48.433 L
287.145 48.385 L
287.631 48.337 L
288.118 48.29 L
288.604 48.245 L
289.09 48.2 L
289.577 48.156 L
290.063 48.113 L
290.549 48.071 L
291.036 48.03 L
291.522 47.989 L
292.008 47.95 L
292.495 47.911 L
292.981 47.874 L
293.467 47.837 L
293.954 47.801 L
294.44 47.766 L
294.926 47.732 L
295.413 47.698 L
295.899 47.666 L
296.385 47.635 L
296.872 47.604 L
297.358 47.575 L
297.844 47.546 L
298.331 47.518 L
298.817 47.491 L
299.303 47.465 L
299.789 47.44 L
300.276 47.416 L
300.762 47.392 L
301.248 47.37 L
301.735 47.348 L
302.221 47.328 L
302.707 47.308 L
303.194 47.289 L
303.68 47.271 L
304.166 47.254 L
304.653 47.238 L
305.139 47.223 L
305.625 47.208 L
306.112 47.195 L
306.598 47.182 L
307.084 47.17 L
307.571 47.159 L
308.057 47.149 L
308.543 47.141 L
309.03 47.132 L
309.516 47.125 L
310.002 47.119 L
310.489 47.113 L
310.975 47.109 L
311.461 47.105 L
311.948 47.102 L
312.434 47.101 L
312.92 47.1 L
S
GR
GS
0.851 0.325 0.098 RC
1 LJ
0.5 LW
N
74.053 355.99 M
74.54 350.914 L
75.026 345.865 L
75.512 340.849 L
75.999 335.873 L
76.485 330.942 L
76.971 326.063 L
77.457 321.242 L
77.944 316.486 L
78.43 311.8 L
78.916 307.191 L
79.403 302.665 L
79.889 298.229 L
80.375 293.888 L
80.862 289.649 L
81.348 285.518 L
81.834 281.501 L
82.321 277.605 L
82.807 273.837 L
83.293 270.201 L
83.78 266.704 L
84.266 263.353 L
84.752 260.154 L
85.239 257.101 L
85.725 254.103 L
86.211 251.141 L
86.698 248.215 L
87.184 245.325 L
87.67 242.472 L
88.157 239.656 L
88.643 236.877 L
89.129 234.137 L
89.616 231.435 L
90.102 228.772 L
90.588 226.148 L
91.074 223.564 L
91.561 221.021 L
92.047 218.519 L
92.533 216.058 L
93.02 213.638 L
93.506 211.26 L
93.992 208.926 L
94.479 206.634 L
94.965 204.386 L
95.451 202.182 L
95.938 200.022 L
96.424 197.907 L
96.91 195.838 L
97.397 193.814 L
97.883 191.836 L
98.369 189.906 L
98.856 188.022 L
99.342 186.186 L
99.828 184.398 L
100.315 182.659 L
100.801 180.969 L
101.287 179.328 L
101.774 177.737 L
102.26 176.196 L
102.746 174.706 L
103.233 173.267 L
103.719 171.881 L
104.205 170.546 L
104.691 169.237 L
105.178 167.937 L
105.664 166.645 L
106.15 165.361 L
106.637 164.085 L
107.123 162.818 L
107.609 161.56 L
108.096 160.31 L
108.582 159.069 L
109.068 157.837 L
109.555 156.614 L
110.041 155.4 L
110.527 154.196 L
111.014 153 L
111.5 151.815 L
111.986 150.639 L
112.473 149.473 L
112.959 148.317 L
113.445 147.17 L
113.932 146.034 L
114.418 144.908 L
114.904 143.793 L
115.391 142.688 L
115.877 141.594 L
116.363 140.51 L
116.85 139.437 L
117.336 138.375 L
117.822 137.324 L
118.308 136.285 L
118.795 135.256 L
119.281 134.239 L
119.767 133.234 L
120.254 132.241 L
120.74 131.259 L
121.226 130.288 L
121.713 129.331 L
122.199 128.385 L
122.685 127.451 L
123.172 126.53 L
123.658 125.621 L
124.144 124.725 L
124.631 123.842 L
125.117 122.971 L
125.603 122.113 L
126.09 121.269 L
126.576 120.438 L
127.062 119.62 L
127.549 118.815 L
128.035 118.024 L
128.521 117.247 L
129.008 116.483 L
129.494 115.734 L
129.98 114.998 L
130.467 114.277 L
130.953 113.569 L
131.439 112.877 L
131.925 112.199 L
132.412 111.535 L
132.898 110.886 L
133.384 110.252 L
133.871 109.633 L
134.357 109.029 L
134.843 108.44 L
135.33 107.866 L
135.816 107.308 L
136.302 106.766 L
136.789 106.239 L
137.275 105.728 L
137.761 105.233 L
138.248 104.754 L
138.734 104.291 L
139.22 103.844 L
139.707 103.414 L
140.193 103.001 L
140.679 102.604 L
141.166 102.223 L
141.652 101.86 L
142.138 101.513 L
142.625 101.184 L
143.111 100.872 L
143.597 100.577 L
144.084 100.29 L
144.57 100.005 L
145.056 99.72 L
145.542 99.436 L
146.029 99.152 L
146.515 98.87 L
147.001 98.588 L
147.488 98.307 L
147.974 98.026 L
148.46 97.747 L
148.947 97.468 L
149.433 97.19 L
149.919 96.913 L
150.406 96.636 L
150.892 96.36 L
151.378 96.085 L
151.865 95.811 L
152.351 95.538 L
152.837 95.265 L
153.324 94.993 L
153.81 94.721 L
154.296 94.451 L
154.783 94.181 L
155.269 93.912 L
155.755 93.644 L
156.242 93.377 L
156.728 93.11 L
157.214 92.844 L
157.701 92.579 L
158.187 92.314 L
158.673 92.05 L
159.159 91.787 L
159.646 91.525 L
160.132 91.263 L
160.618 91.003 L
161.105 90.743 L
161.591 90.483 L
162.077 90.225 L
162.564 89.968 L
163.05 89.71 L
163.536 89.454 L
164.023 89.199 L
164.509 88.944 L
164.995 88.69 L
165.482 88.437 L
165.968 88.184 L
166.454 87.932 L
166.941 87.682 L
167.427 87.431 L
167.913 87.182 L
168.4 86.933 L
168.886 86.685 L
169.372 86.438 L
169.859 86.191 L
170.345 85.945 L
170.831 85.7 L
171.318 85.456 L
171.804 85.213 L
172.29 84.97 L
172.777 84.728 L
173.263 84.486 L
173.749 84.246 L
174.235 84.006 L
174.722 83.767 L
175.208 83.528 L
175.694 83.291 L
176.181 83.054 L
176.667 82.818 L
177.153 82.583 L
177.64 82.348 L
178.126 82.114 L
178.612 81.881 L
179.099 81.649 L
179.585 81.417 L
180.071 81.186 L
180.558 80.956 L
181.044 80.727 L
181.53 80.498 L
182.017 80.27 L
182.503 80.042 L
182.989 79.816 L
183.476 79.59 L
183.962 79.365 L
184.448 79.141 L
184.935 78.918 L
185.421 78.695 L
185.907 78.473 L
186.394 78.251 L
186.88 78.031 L
187.366 77.811 L
187.852 77.592 L
188.339 77.373 L
188.825 77.156 L
189.311 76.939 L
189.798 76.723 L
190.284 76.507 L
190.77 76.293 L
191.257 76.078 L
191.743 75.865 L
192.229 75.653 L
192.716 75.441 L
193.202 75.23 L
193.688 75.02 L
194.175 74.81 L
194.661 74.601 L
195.147 74.393 L
195.634 74.186 L
196.12 73.979 L
196.606 73.773 L
197.093 73.568 L
197.579 73.364 L
198.065 73.16 L
198.552 72.957 L
199.038 72.755 L
199.524 72.553 L
200.011 72.353 L
200.497 72.152 L
200.983 71.953 L
201.469 71.755 L
201.956 71.557 L
202.442 71.36 L
202.928 71.163 L
203.415 70.967 L
203.901 70.772 L
204.387 70.578 L
204.874 70.385 L
205.36 70.192 L
205.846 70 L
206.333 69.808 L
206.819 69.618 L
207.305 69.428 L
207.792 69.239 L
208.278 69.05 L
208.764 68.863 L
209.251 68.676 L
209.737 68.49 L
210.223 68.304 L
210.71 68.119 L
211.196 67.935 L
211.682 67.752 L
212.169 67.569 L
212.655 67.387 L
213.141 67.206 L
213.628 67.025 L
214.114 66.846 L
214.6 66.667 L
215.086 66.489 L
215.573 66.311 L
216.059 66.134 L
216.545 65.958 L
217.032 65.783 L
217.518 65.608 L
218.004 65.434 L
218.491 65.261 L
218.977 65.088 L
219.463 64.916 L
219.95 64.745 L
220.436 64.575 L
220.922 64.405 L
221.409 64.236 L
221.895 64.068 L
222.381 63.901 L
222.868 63.734 L
223.354 63.568 L
223.84 63.402 L
224.327 63.238 L
224.813 63.074 L
225.299 62.911 L
225.786 62.748 L
226.272 62.586 L
226.758 62.426 L
227.245 62.265 L
227.731 62.105 L
228.217 61.947 L
228.703 61.788 L
229.19 61.631 L
229.676 61.474 L
230.162 61.318 L
230.649 61.163 L
231.135 61.008 L
231.621 60.854 L
232.108 60.701 L
232.594 60.549 L
233.08 60.397 L
233.567 60.246 L
234.053 60.095 L
234.539 59.946 L
235.026 59.797 L
235.512 59.649 L
235.998 59.501 L
236.485 59.354 L
236.971 59.208 L
237.457 59.063 L
237.944 58.918 L
238.43 58.774 L
238.916 58.631 L
239.403 58.488 L
239.889 58.347 L
240.375 58.206 L
240.862 58.065 L
241.348 57.925 L
241.834 57.787 L
242.32 57.648 L
242.807 57.511 L
243.293 57.374 L
243.779 57.238 L
244.266 57.102 L
244.752 56.967 L
245.238 56.833 L
245.725 56.7 L
246.211 56.567 L
246.697 56.436 L
247.184 56.304 L
247.67 56.174 L
248.156 56.044 L
248.643 55.915 L
249.129 55.786 L
249.615 55.659 L
250.102 55.532 L
250.588 55.406 L
251.074 55.28 L
251.561 55.155 L
252.047 55.031 L
252.533 54.907 L
253.02 54.785 L
253.506 54.663 L
253.992 54.541 L
254.479 54.42 L
254.965 54.301 L
255.451 54.181 L
255.937 54.063 L
256.424 53.945 L
256.91 53.828 L
257.396 53.711 L
257.883 53.595 L
258.369 53.48 L
258.855 53.366 L
259.342 53.252 L
259.828 53.139 L
260.314 53.027 L
260.801 52.915 L
261.287 52.804 L
261.773 52.694 L
262.26 52.585 L
262.746 52.476 L
263.232 52.368 L
263.719 52.26 L
264.205 52.154 L
264.691 52.048 L
265.178 51.942 L
265.664 51.838 L
266.15 51.734 L
266.637 51.63 L
267.123 51.528 L
267.609 51.426 L
268.096 51.325 L
268.582 51.225 L
269.068 51.125 L
269.554 51.026 L
270.041 50.927 L
270.527 50.829 L
271.013 50.733 L
271.5 50.636 L
271.986 50.541 L
272.472 50.446 L
272.959 50.352 L
273.445 50.258 L
273.931 50.165 L
274.418 50.073 L
274.904 49.982 L
275.39 49.891 L
275.877 49.801 L
276.363 49.711 L
276.849 49.623 L
277.336 49.535 L
277.822 49.447 L
278.308 49.361 L
278.795 49.275 L
279.281 49.189 L
279.767 49.105 L
280.254 49.021 L
280.74 48.938 L
281.226 48.855 L
281.713 48.773 L
282.199 48.692 L
282.685 48.612 L
283.171 48.532 L
283.658 48.453 L
284.144 48.375 L
284.63 48.297 L
285.117 48.22 L
285.603 48.144 L
286.089 48.068 L
286.576 47.993 L
287.062 47.918 L
287.548 47.845 L
288.035 47.772 L
288.521 47.7 L
289.007 47.628 L
289.494 47.557 L
289.98 47.487 L
290.466 47.418 L
290.953 47.349 L
291.439 47.281 L
291.925 47.213 L
292.412 47.147 L
292.898 47.08 L
293.384 47.015 L
293.871 46.95 L
294.357 46.886 L
294.843 46.823 L
295.33 46.76 L
295.816 46.698 L
296.302 46.636 L
296.788 46.576 L
297.275 46.516 L
297.761 46.456 L
298.247 46.398 L
298.734 46.34 L
299.22 46.283 L
299.706 46.226 L
300.193 46.17 L
300.679 46.115 L
301.165 46.06 L
301.652 46.006 L
302.138 45.953 L
302.624 45.901 L
303.111 45.849 L
303.597 45.798 L
304.083 45.747 L
304.57 45.697 L
305.056 45.648 L
305.542 45.6 L
306.029 45.552 L
306.515 45.505 L
307.001 45.458 L
307.488 45.412 L
307.974 45.367 L
308.46 45.323 L
308.947 45.279 L
309.433 45.236 L
309.919 45.194 L
310.405 45.152 L
310.892 45.111 L
311.378 45.07 L
311.864 45.031 L
312.351 44.991 L
312.837 44.953 L
313.323 44.915 L
313.81 44.878 L
314.296 44.842 L
314.782 44.806 L
315.269 44.771 L
315.755 44.736 L
316.241 44.703 L
316.728 44.67 L
317.214 44.637 L
317.7 44.606 L
318.187 44.574 L
318.673 44.544 L
319.159 44.514 L
319.646 44.485 L
320.132 44.457 L
320.618 44.429 L
321.105 44.402 L
321.591 44.376 L
322.077 44.35 L
322.564 44.325 L
323.05 44.3 L
323.536 44.277 L
324.022 44.254 L
324.509 44.231 L
324.995 44.209 L
325.481 44.188 L
325.968 44.168 L
326.454 44.148 L
326.94 44.129 L
327.427 44.111 L
327.913 44.093 L
328.399 44.076 L
328.886 44.06 L
329.372 44.044 L
329.858 44.029 L
330.345 44.014 L
330.831 44 L
331.317 43.987 L
331.804 43.975 L
332.29 43.963 L
332.776 43.952 L
333.263 43.941 L
333.749 43.931 L
334.235 43.922 L
334.722 43.914 L
335.208 43.906 L
335.694 43.899 L
336.181 43.892 L
336.667 43.886 L
337.153 43.881 L
337.639 43.876 L
338.126 43.872 L
338.612 43.869 L
339.098 43.867 L
339.585 43.865 L
340.071 43.863 L
340.557 43.863 L
S
GR
GS
0.929 0.694 0.125 RC
1 LJ
0.5 LW
N
73 374 M
73.486 368.437 L
73.973 362.905 L
74.459 357.413 L
74.945 351.968 L
75.432 346.576 L
75.918 341.247 L
76.404 335.987 L
76.891 330.803 L
77.377 325.704 L
77.863 320.698 L
78.35 315.79 L
78.836 310.989 L
79.322 306.303 L
79.809 301.738 L
80.295 297.303 L
80.781 293.006 L
81.267 288.852 L
81.754 284.851 L
82.24 281.009 L
82.726 277.335 L
83.213 273.835 L
83.699 270.502 L
84.185 267.231 L
84.672 264.004 L
85.158 260.82 L
85.644 257.679 L
86.131 254.583 L
86.617 251.531 L
87.103 248.523 L
87.59 245.561 L
88.076 242.644 L
88.562 239.773 L
89.049 236.949 L
89.535 234.17 L
90.021 231.439 L
90.508 228.756 L
90.994 226.12 L
91.48 223.532 L
91.967 220.993 L
92.453 218.502 L
92.939 216.061 L
93.426 213.669 L
93.912 211.328 L
94.398 209.037 L
94.884 206.796 L
95.371 204.607 L
95.857 202.469 L
96.343 200.383 L
96.83 198.349 L
97.316 196.368 L
97.802 194.44 L
98.289 192.565 L
98.775 190.744 L
99.261 188.978 L
99.748 187.265 L
100.234 185.608 L
100.72 184.006 L
101.207 182.459 L
101.693 180.967 L
102.179 179.5 L
102.666 178.042 L
103.152 176.594 L
103.638 175.154 L
104.125 173.724 L
104.611 172.304 L
105.097 170.894 L
105.584 169.493 L
106.07 168.103 L
106.556 166.723 L
107.043 165.354 L
107.529 163.996 L
108.015 162.648 L
108.501 161.311 L
108.988 159.986 L
109.474 158.672 L
109.96 157.37 L
110.447 156.079 L
110.933 154.8 L
111.419 153.534 L
111.906 152.279 L
112.392 151.037 L
112.878 149.808 L
113.365 148.591 L
113.851 147.387 L
114.337 146.197 L
114.824 145.019 L
115.31 143.855 L
115.796 142.705 L
116.283 141.568 L
116.769 140.446 L
117.255 139.337 L
117.742 138.243 L
118.228 137.163 L
118.714 136.098 L
119.201 135.047 L
119.687 134.012 L
120.173 132.992 L
120.66 131.987 L
121.146 130.997 L
121.632 130.023 L
122.118 129.065 L
122.605 128.123 L
123.091 127.197 L
123.577 126.288 L
124.064 125.395 L
124.55 124.518 L
125.036 123.658 L
125.523 122.816 L
126.009 121.99 L
126.495 121.182 L
126.982 120.392 L
127.468 119.619 L
127.954 118.864 L
128.441 118.127 L
128.927 117.408 L
129.413 116.707 L
129.9 116.025 L
130.386 115.362 L
130.872 114.718 L
131.359 114.092 L
131.845 113.486 L
132.331 112.899 L
132.818 112.332 L
133.304 111.785 L
133.79 111.257 L
134.277 110.75 L
134.763 110.262 L
135.249 109.795 L
135.735 109.349 L
136.222 108.924 L
136.708 108.519 L
137.194 108.135 L
137.681 107.773 L
138.167 107.43 L
138.653 107.09 L
139.14 106.752 L
139.626 106.414 L
140.112 106.078 L
140.599 105.743 L
141.085 105.408 L
141.571 105.075 L
142.058 104.742 L
142.544 104.411 L
143.03 104.081 L
143.517 103.751 L
144.003 103.423 L
144.489 103.095 L
144.976 102.769 L
145.462 102.443 L
145.948 102.119 L
146.435 101.796 L
146.921 101.473 L
147.407 101.152 L
147.894 100.831 L
148.38 100.512 L
148.866 100.193 L
149.352 99.876 L
149.839 99.56 L
150.325 99.245 L
150.811 98.93 L
151.298 98.617 L
151.784 98.304 L
152.27 97.993 L
152.757 97.682 L
153.243 97.373 L
153.729 97.065 L
154.216 96.757 L
154.702 96.451 L
155.188 96.145 L
155.675 95.841 L
156.161 95.538 L
156.647 95.235 L
157.134 94.934 L
157.62 94.634 L
158.106 94.334 L
158.593 94.036 L
159.079 93.738 L
159.565 93.442 L
160.052 93.147 L
160.538 92.852 L
161.024 92.559 L
161.511 92.266 L
161.997 91.975 L
162.483 91.684 L
162.969 91.395 L
163.456 91.107 L
163.942 90.819 L
164.428 90.533 L
164.915 90.247 L
165.401 89.963 L
165.887 89.68 L
166.374 89.397 L
166.86 89.116 L
167.346 88.835 L
167.833 88.556 L
168.319 88.278 L
168.805 88 L
169.292 87.723 L
169.778 87.448 L
170.264 87.174 L
170.751 86.9 L
171.237 86.628 L
171.723 86.356 L
172.21 86.086 L
172.696 85.816 L
173.182 85.548 L
173.669 85.28 L
174.155 85.014 L
174.641 84.748 L
175.128 84.484 L
175.614 84.22 L
176.1 83.958 L
176.586 83.696 L
177.073 83.436 L
177.559 83.176 L
178.045 82.918 L
178.532 82.66 L
179.018 82.404 L
179.504 82.148 L
179.991 81.894 L
180.477 81.64 L
180.963 81.387 L
181.45 81.136 L
181.936 80.885 L
182.422 80.635 L
182.909 80.387 L
183.395 80.139 L
183.881 79.893 L
184.368 79.647 L
184.854 79.403 L
185.34 79.159 L
185.827 78.916 L
186.313 78.675 L
186.799 78.434 L
187.286 78.194 L
187.772 77.956 L
188.258 77.718 L
188.745 77.481 L
189.231 77.246 L
189.717 77.011 L
190.203 76.777 L
190.69 76.544 L
191.176 76.313 L
191.662 76.082 L
192.149 75.852 L
192.635 75.623 L
193.121 75.396 L
193.608 75.169 L
194.094 74.943 L
194.58 74.718 L
195.067 74.495 L
195.553 74.272 L
196.039 74.05 L
196.526 73.829 L
197.012 73.609 L
197.498 73.39 L
197.985 73.173 L
198.471 72.956 L
198.957 72.74 L
199.444 72.525 L
199.93 72.311 L
200.416 72.098 L
200.903 71.886 L
201.389 71.675 L
201.875 71.465 L
202.362 71.256 L
202.848 71.049 L
203.334 70.841 L
203.82 70.635 L
204.307 70.43 L
204.793 70.227 L
205.279 70.024 L
205.766 69.822 L
206.252 69.62 L
206.738 69.42 L
207.225 69.221 L
207.711 69.023 L
208.197 68.826 L
208.684 68.63 L
209.17 68.435 L
209.656 68.241 L
210.143 68.047 L
210.629 67.855 L
211.115 67.664 L
211.602 67.474 L
212.088 67.285 L
212.574 67.097 L
213.061 66.909 L
213.547 66.723 L
214.033 66.538 L
214.52 66.354 L
215.006 66.171 L
215.492 65.988 L
215.979 65.807 L
216.465 65.626 L
216.951 65.447 L
217.438 65.269 L
217.924 65.091 L
218.41 64.915 L
218.896 64.739 L
219.383 64.565 L
219.869 64.392 L
220.355 64.219 L
220.842 64.048 L
221.328 63.878 L
221.814 63.708 L
222.301 63.539 L
222.787 63.372 L
223.273 63.206 L
223.76 63.04 L
224.246 62.875 L
224.732 62.712 L
225.219 62.549 L
225.705 62.387 L
226.191 62.227 L
226.678 62.067 L
227.164 61.908 L
227.65 61.751 L
228.137 61.594 L
228.623 61.438 L
229.109 61.284 L
229.596 61.13 L
230.082 60.977 L
230.568 60.826 L
231.055 60.675 L
231.541 60.525 L
232.027 60.376 L
232.513 60.228 L
233 60.081 L
233.486 59.935 L
233.972 59.79 L
234.459 59.646 L
234.945 59.503 L
235.431 59.361 L
235.918 59.22 L
236.404 59.08 L
236.89 58.942 L
237.377 58.804 L
237.863 58.666 L
238.349 58.53 L
238.836 58.395 L
239.322 58.261 L
239.808 58.128 L
240.295 57.996 L
240.781 57.865 L
241.267 57.734 L
241.754 57.605 L
242.24 57.477 L
242.726 57.35 L
243.213 57.223 L
243.699 57.098 L
244.185 56.974 L
244.672 56.85 L
245.158 56.728 L
245.644 56.607 L
246.13 56.486 L
246.617 56.367 L
247.103 56.248 L
247.589 56.131 L
248.076 56.014 L
248.562 55.899 L
249.048 55.784 L
249.535 55.671 L
250.021 55.558 L
250.507 55.447 L
250.994 55.336 L
251.48 55.226 L
251.966 55.118 L
252.453 55.01 L
252.939 54.903 L
253.425 54.797 L
253.912 54.693 L
254.398 54.589 L
254.884 54.486 L
255.371 54.384 L
255.857 54.283 L
256.343 54.183 L
256.83 54.085 L
257.316 53.987 L
257.802 53.89 L
258.289 53.794 L
258.775 53.699 L
259.261 53.605 L
259.747 53.512 L
260.234 53.42 L
260.72 53.328 L
261.206 53.239 L
261.693 53.149 L
262.179 53.061 L
262.665 52.974 L
263.152 52.888 L
263.638 52.803 L
264.124 52.718 L
264.611 52.635 L
265.097 52.553 L
265.583 52.471 L
266.07 52.391 L
266.556 52.312 L
267.042 52.233 L
267.529 52.156 L
268.015 52.079 L
268.501 52.004 L
268.988 51.929 L
269.474 51.856 L
269.96 51.783 L
270.447 51.712 L
270.933 51.641 L
271.419 51.571 L
271.905 51.502 L
272.392 51.435 L
272.878 51.368 L
273.364 51.302 L
273.851 51.237 L
274.337 51.174 L
274.823 51.111 L
275.31 51.049 L
275.796 50.988 L
276.282 50.928 L
276.769 50.869 L
277.255 50.811 L
277.741 50.754 L
278.228 50.698 L
278.714 50.643 L
279.2 50.589 L
279.687 50.536 L
280.173 50.484 L
280.659 50.433 L
281.146 50.382 L
281.632 50.333 L
282.118 50.285 L
282.605 50.237 L
283.091 50.191 L
283.577 50.146 L
284.064 50.101 L
284.55 50.058 L
285.036 50.015 L
285.522 49.974 L
286.009 49.933 L
286.495 49.894 L
286.981 49.855 L
287.468 49.817 L
287.954 49.781 L
288.44 49.745 L
288.927 49.711 L
289.413 49.677 L
289.899 49.644 L
290.386 49.612 L
290.872 49.581 L
291.358 49.552 L
291.845 49.523 L
292.331 49.495 L
292.817 49.468 L
293.304 49.442 L
293.79 49.417 L
294.276 49.393 L
294.763 49.37 L
295.249 49.348 L
295.735 49.326 L
296.222 49.306 L
296.708 49.287 L
297.194 49.269 L
297.681 49.251 L
298.167 49.235 L
298.653 49.22 L
299.139 49.206 L
299.626 49.192 L
300.112 49.18 L
300.598 49.168 L
301.085 49.157 L
301.571 49.148 L
302.057 49.139 L
302.544 49.132 L
303.03 49.125 L
303.516 49.12 L
304.003 49.115 L
304.489 49.111 L
304.975 49.108 L
305.462 49.106 L
305.948 49.106 L
S
GR
GS
0.494 0.184 0.557 RC
1 LJ
0.5 LW
N
74.174 354.694 M
74.66 349.688 L
75.146 344.708 L
75.633 339.759 L
76.119 334.847 L
76.605 329.979 L
77.092 325.161 L
77.578 320.398 L
78.064 315.698 L
78.551 311.065 L
79.037 306.506 L
79.523 302.027 L
80.01 297.634 L
80.496 293.334 L
80.982 289.131 L
81.469 285.033 L
81.955 281.046 L
82.441 277.175 L
82.928 273.426 L
83.414 269.806 L
83.9 266.321 L
84.387 262.976 L
84.873 259.779 L
85.359 256.734 L
85.846 253.803 L
86.332 250.906 L
86.818 248.045 L
87.305 245.218 L
87.791 242.427 L
88.277 239.672 L
88.763 236.954 L
89.25 234.272 L
89.736 231.627 L
90.222 229.02 L
90.709 226.45 L
91.195 223.919 L
91.681 221.426 L
92.168 218.973 L
92.654 216.558 L
93.14 214.184 L
93.627 211.85 L
94.113 209.557 L
94.599 207.304 L
95.086 205.093 L
95.572 202.924 L
96.058 200.797 L
96.545 198.713 L
97.031 196.671 L
97.517 194.673 L
98.004 192.719 L
98.49 190.809 L
98.976 188.943 L
99.463 187.123 L
99.949 185.347 L
100.435 183.618 L
100.922 181.934 L
101.408 180.298 L
101.894 178.708 L
102.38 177.165 L
102.867 175.67 L
103.353 174.223 L
103.839 172.825 L
104.326 171.475 L
104.812 170.175 L
105.298 168.919 L
105.785 167.675 L
106.271 166.438 L
106.757 165.207 L
107.244 163.982 L
107.73 162.765 L
108.216 161.554 L
108.703 160.35 L
109.189 159.154 L
109.675 157.964 L
110.162 156.783 L
110.648 155.609 L
111.134 154.442 L
111.621 153.283 L
112.107 152.133 L
112.593 150.99 L
113.08 149.856 L
113.566 148.73 L
114.052 147.613 L
114.539 146.505 L
115.025 145.405 L
115.511 144.315 L
115.997 143.233 L
116.484 142.161 L
116.97 141.098 L
117.456 140.045 L
117.943 139.001 L
118.429 137.968 L
118.915 136.944 L
119.402 135.93 L
119.888 134.927 L
120.374 133.934 L
120.861 132.951 L
121.347 131.98 L
121.833 131.018 L
122.32 130.068 L
122.806 129.129 L
123.292 128.202 L
123.779 127.286 L
124.265 126.381 L
124.751 125.487 L
125.238 124.606 L
125.724 123.737 L
126.21 122.879 L
126.697 122.034 L
127.183 121.201 L
127.669 120.381 L
128.156 119.573 L
128.642 118.778 L
129.128 117.996 L
129.614 117.227 L
130.101 116.471 L
130.587 115.729 L
131.073 115 L
131.56 114.285 L
132.046 113.583 L
132.532 112.896 L
133.019 112.222 L
133.505 111.562 L
133.991 110.917 L
134.478 110.286 L
134.964 109.67 L
135.45 109.069 L
135.937 108.483 L
136.423 107.911 L
136.909 107.354 L
137.396 106.814 L
137.882 106.288 L
138.368 105.778 L
138.855 105.284 L
139.341 104.805 L
139.827 104.343 L
140.314 103.896 L
140.8 103.466 L
141.286 103.053 L
141.773 102.655 L
142.259 102.275 L
142.745 101.912 L
143.231 101.565 L
143.718 101.236 L
144.204 100.923 L
144.69 100.629 L
145.177 100.351 L
145.663 100.092 L
146.149 99.85 L
146.636 99.626 L
147.122 99.416 L
147.608 99.207 L
148.095 98.999 L
148.581 98.791 L
149.067 98.584 L
149.554 98.376 L
150.04 98.17 L
150.526 97.963 L
151.013 97.757 L
151.499 97.552 L
151.985 97.347 L
152.472 97.142 L
152.958 96.937 L
153.444 96.733 L
153.931 96.53 L
154.417 96.326 L
154.903 96.123 L
155.39 95.921 L
155.876 95.718 L
156.362 95.517 L
156.848 95.315 L
157.335 95.114 L
157.821 94.913 L
158.307 94.713 L
158.794 94.513 L
159.28 94.314 L
159.766 94.115 L
160.253 93.916 L
160.739 93.717 L
161.225 93.519 L
161.712 93.322 L
162.198 93.125 L
162.684 92.928 L
163.171 92.731 L
163.657 92.535 L
164.143 92.339 L
164.63 92.144 L
165.116 91.949 L
165.602 91.754 L
166.089 91.56 L
166.575 91.366 L
167.061 91.173 L
167.548 90.98 L
168.034 90.787 L
168.52 90.594 L
169.007 90.402 L
169.493 90.211 L
169.979 90.019 L
170.465 89.828 L
170.952 89.638 L
171.438 89.448 L
171.924 89.258 L
172.411 89.069 L
172.897 88.879 L
173.383 88.691 L
173.87 88.503 L
174.356 88.315 L
174.842 88.127 L
175.329 87.94 L
175.815 87.753 L
176.301 87.567 L
176.788 87.381 L
177.274 87.195 L
177.76 87.009 L
178.247 86.824 L
178.733 86.64 L
179.219 86.456 L
179.706 86.272 L
180.192 86.088 L
180.678 85.905 L
181.165 85.722 L
181.651 85.54 L
182.137 85.358 L
182.624 85.176 L
183.11 84.995 L
183.596 84.814 L
184.083 84.633 L
184.569 84.453 L
185.055 84.273 L
185.541 84.094 L
186.028 83.914 L
186.514 83.736 L
187 83.558 L
187.487 83.379 L
187.973 83.202 L
188.459 83.024 L
188.946 82.847 L
189.432 82.671 L
189.918 82.494 L
190.405 82.318 L
190.891 82.143 L
191.377 81.968 L
191.864 81.793 L
192.35 81.619 L
192.836 81.444 L
193.323 81.271 L
193.809 81.097 L
194.295 80.924 L
194.782 80.752 L
195.268 80.58 L
195.754 80.408 L
196.241 80.236 L
196.727 80.065 L
197.213 79.894 L
197.7 79.723 L
198.186 79.553 L
198.672 79.384 L
199.158 79.214 L
199.645 79.045 L
200.131 78.876 L
200.617 78.708 L
201.104 78.54 L
201.59 78.372 L
202.076 78.205 L
202.563 78.038 L
203.049 77.871 L
203.535 77.705 L
204.022 77.539 L
204.508 77.374 L
204.994 77.208 L
205.481 77.044 L
205.967 76.879 L
206.453 76.715 L
206.94 76.551 L
207.426 76.388 L
207.912 76.225 L
208.399 76.062 L
208.885 75.9 L
209.371 75.737 L
209.858 75.576 L
210.344 75.415 L
210.83 75.253 L
211.317 75.093 L
211.803 74.932 L
212.289 74.773 L
212.775 74.613 L
213.262 74.454 L
213.748 74.295 L
214.234 74.136 L
214.721 73.978 L
215.207 73.82 L
215.693 73.663 L
216.18 73.506 L
216.666 73.349 L
217.152 73.192 L
217.639 73.036 L
218.125 72.88 L
218.611 72.725 L
219.098 72.57 L
219.584 72.415 L
220.07 72.261 L
220.557 72.106 L
221.043 71.953 L
221.529 71.799 L
222.016 71.646 L
222.502 71.494 L
222.988 71.341 L
223.475 71.189 L
223.961 71.037 L
224.447 70.886 L
224.934 70.735 L
225.42 70.585 L
225.906 70.434 L
226.392 70.284 L
226.879 70.135 L
227.365 69.985 L
227.851 69.837 L
228.338 69.688 L
228.824 69.54 L
229.31 69.392 L
229.797 69.244 L
230.283 69.097 L
230.769 68.95 L
231.256 68.803 L
231.742 68.657 L
232.228 68.511 L
232.715 68.366 L
233.201 68.22 L
233.687 68.075 L
234.174 67.931 L
234.66 67.787 L
235.146 67.643 L
235.633 67.499 L
236.119 67.356 L
236.605 67.213 L
237.092 67.071 L
237.578 66.928 L
238.064 66.786 L
238.551 66.645 L
239.037 66.504 L
239.523 66.363 L
240.009 66.222 L
240.496 66.082 L
240.982 65.942 L
241.468 65.803 L
241.955 65.663 L
242.441 65.524 L
242.927 65.386 L
243.414 65.248 L
243.9 65.11 L
244.386 64.972 L
244.873 64.835 L
245.359 64.698 L
245.845 64.561 L
246.332 64.425 L
246.818 64.289 L
247.304 64.153 L
247.791 64.018 L
248.277 63.883 L
248.763 63.749 L
249.25 63.614 L
249.736 63.48 L
250.222 63.347 L
250.709 63.213 L
251.195 63.08 L
251.681 62.948 L
252.168 62.815 L
252.654 62.683 L
253.14 62.552 L
253.626 62.42 L
254.113 62.289 L
254.599 62.159 L
255.085 62.028 L
255.572 61.898 L
256.058 61.768 L
256.544 61.639 L
257.031 61.51 L
257.517 61.381 L
258.003 61.253 L
258.49 61.124 L
258.976 60.997 L
259.462 60.869 L
259.949 60.742 L
260.435 60.615 L
260.921 60.488 L
261.408 60.362 L
261.894 60.236 L
262.38 60.111 L
262.867 59.986 L
263.353 59.86 L
263.839 59.736 L
264.326 59.611 L
264.812 59.488 L
265.298 59.364 L
265.785 59.241 L
266.271 59.118 L
266.757 58.995 L
267.243 58.873 L
267.73 58.75 L
268.216 58.629 L
268.702 58.507 L
269.189 58.386 L
269.675 58.265 L
270.161 58.145 L
270.648 58.025 L
271.134 57.905 L
271.62 57.785 L
272.107 57.666 L
272.593 57.547 L
273.079 57.428 L
273.566 57.31 L
274.052 57.192 L
274.538 57.074 L
275.025 56.957 L
275.511 56.84 L
275.997 56.723 L
276.484 56.607 L
276.97 56.491 L
277.456 56.375 L
277.943 56.259 L
278.429 56.144 L
278.915 56.029 L
279.402 55.915 L
279.888 55.8 L
280.374 55.686 L
280.861 55.573 L
281.347 55.46 L
281.833 55.346 L
282.319 55.234 L
282.806 55.121 L
283.292 55.009 L
283.778 54.897 L
284.265 54.786 L
284.751 54.675 L
285.237 54.564 L
285.724 54.453 L
286.21 54.343 L
286.696 54.233 L
287.183 54.123 L
287.669 54.014 L
288.155 53.905 L
288.642 53.796 L
289.128 53.688 L
289.614 53.58 L
290.101 53.472 L
290.587 53.364 L
291.073 53.257 L
291.56 53.15 L
292.046 53.044 L
292.532 52.937 L
293.019 52.831 L
293.505 52.725 L
293.991 52.62 L
294.477 52.515 L
294.964 52.41 L
295.45 52.306 L
295.936 52.201 L
296.423 52.098 L
296.909 51.994 L
297.395 51.891 L
297.882 51.788 L
298.368 51.685 L
298.854 51.582 L
299.341 51.48 L
299.827 51.378 L
300.313 51.277 L
300.8 51.176 L
301.286 51.075 L
301.772 50.974 L
302.259 50.874 L
302.745 50.774 L
303.231 50.674 L
303.718 50.575 L
304.204 50.475 L
304.69 50.377 L
305.177 50.278 L
305.663 50.18 L
306.149 50.082 L
306.636 49.984 L
307.122 49.887 L
307.608 49.79 L
308.094 49.693 L
308.581 49.597 L
309.067 49.5 L
309.553 49.404 L
310.04 49.309 L
310.526 49.213 L
311.012 49.119 L
311.499 49.024 L
311.985 48.929 L
312.471 48.835 L
312.958 48.741 L
313.444 48.647 L
313.93 48.554 L
314.417 48.461 L
314.903 48.369 L
315.389 48.276 L
315.876 48.184 L
316.362 48.092 L
316.848 48.001 L
317.335 47.909 L
317.821 47.818 L
318.307 47.727 L
318.794 47.637 L
319.28 47.547 L
319.766 47.457 L
320.253 47.368 L
320.739 47.278 L
321.225 47.189 L
321.711 47.101 L
322.198 47.012 L
322.684 46.924 L
323.17 46.837 L
323.657 46.749 L
324.143 46.662 L
324.629 46.575 L
325.116 46.488 L
325.602 46.401 L
326.088 46.315 L
326.575 46.23 L
327.061 46.144 L
327.547 46.059 L
328.034 45.974 L
328.52 45.889 L
329.006 45.804 L
329.493 45.72 L
329.979 45.636 L
330.465 45.553 L
330.952 45.469 L
331.438 45.386 L
331.924 45.304 L
332.411 45.221 L
332.897 45.139 L
333.383 45.057 L
333.87 44.975 L
334.356 44.894 L
334.842 44.813 L
335.328 44.732 L
335.815 44.652 L
336.301 44.571 L
336.787 44.491 L
337.274 44.412 L
337.76 44.332 L
338.246 44.253 L
338.733 44.174 L
339.219 44.096 L
339.705 44.017 L
340.192 43.939 L
340.678 43.862 L
341.164 43.784 L
341.651 43.707 L
342.137 43.63 L
342.623 43.553 L
343.11 43.477 L
343.596 43.401 L
344.082 43.325 L
344.569 43.249 L
345.055 43.174 L
345.541 43.099 L
346.028 43.024 L
346.514 42.949 L
347 42.875 L
347.487 42.801 L
347.973 42.728 L
348.459 42.654 L
348.945 42.581 L
349.432 42.508 L
349.918 42.436 L
350.404 42.363 L
350.891 42.291 L
351.377 42.219 L
351.863 42.148 L
352.35 42.077 L
352.836 42.006 L
353.322 41.935 L
353.809 41.864 L
354.295 41.794 L
354.781 41.724 L
355.268 41.655 L
355.754 41.585 L
356.24 41.516 L
356.727 41.447 L
357.213 41.378 L
357.699 41.31 L
358.186 41.242 L
358.672 41.174 L
359.158 41.107 L
359.645 41.039 L
360.131 40.973 L
360.617 40.906 L
361.104 40.839 L
361.59 40.773 L
362.076 40.707 L
362.563 40.641 L
363.049 40.576 L
363.535 40.511 L
364.021 40.446 L
364.508 40.381 L
364.994 40.317 L
365.48 40.252 L
365.967 40.189 L
366.453 40.125 L
366.939 40.062 L
367.426 39.999 L
367.912 39.936 L
368.398 39.873 L
368.885 39.811 L
369.371 39.749 L
369.857 39.687 L
370.344 39.626 L
370.83 39.564 L
371.316 39.503 L
371.803 39.442 L
372.289 39.382 L
372.775 39.322 L
373.262 39.262 L
373.748 39.202 L
374.234 39.142 L
374.721 39.083 L
375.207 39.024 L
375.693 38.965 L
376.18 38.907 L
376.666 38.849 L
377.152 38.791 L
377.638 38.733 L
378.125 38.676 L
378.611 38.618 L
379.097 38.561 L
379.584 38.505 L
380.07 38.448 L
380.556 38.392 L
381.043 38.336 L
381.529 38.28 L
382.015 38.225 L
382.502 38.17 L
382.988 38.115 L
383.474 38.06 L
383.961 38.006 L
384.447 37.951 L
384.933 37.897 L
385.42 37.844 L
385.906 37.791 L
386.392 37.737 L
386.879 37.684 L
387.365 37.632 L
387.851 37.579 L
388.338 37.527 L
388.824 37.475 L
389.31 37.423 L
389.797 37.372 L
390.283 37.321 L
390.769 37.269 L
391.255 37.219 L
391.742 37.168 L
392.228 37.118 L
392.714 37.068 L
393.201 37.018 L
393.687 36.969 L
394.173 36.919 L
394.66 36.871 L
395.146 36.822 L
395.632 36.773 L
396.119 36.725 L
396.605 36.677 L
397.091 36.629 L
397.578 36.582 L
398.064 36.534 L
398.55 36.487 L
399.037 36.44 L
399.523 36.394 L
400.009 36.347 L
400.496 36.301 L
400.982 36.255 L
401.468 36.21 L
401.955 36.164 L
402.441 36.119 L
402.927 36.074 L
403.414 36.03 L
403.9 35.985 L
404.386 35.941 L
404.872 35.897 L
405.359 35.853 L
405.845 35.81 L
406.331 35.766 L
406.818 35.723 L
407.304 35.681 L
407.79 35.638 L
408.277 35.596 L
408.763 35.554 L
409.249 35.512 L
409.736 35.47 L
410.222 35.429 L
410.708 35.388 L
411.195 35.347 L
411.681 35.306 L
412.167 35.266 L
412.654 35.226 L
413.14 35.186 L
413.626 35.146 L
414.113 35.106 L
414.599 35.067 L
415.085 35.028 L
415.572 34.989 L
416.058 34.951 L
416.544 34.913 L
417.031 34.874 L
417.517 34.837 L
418.003 34.799 L
418.489 34.761 L
418.976 34.724 L
419.462 34.687 L
419.948 34.651 L
420.435 34.614 L
420.921 34.578 L
421.407 34.542 L
421.894 34.506 L
422.38 34.47 L
422.866 34.435 L
423.353 34.4 L
423.839 34.365 L
424.325 34.33 L
424.812 34.296 L
425.298 34.261 L
425.784 34.228 L
426.271 34.194 L
426.757 34.16 L
427.243 34.127 L
427.73 34.094 L
428.216 34.061 L
428.702 34.028 L
429.189 33.996 L
429.675 33.964 L
430.161 33.932 L
430.648 33.9 L
431.134 33.869 L
431.62 33.837 L
432.106 33.806 L
432.593 33.775 L
433.079 33.745 L
433.565 33.714 L
434.052 33.684 L
434.538 33.654 L
435.024 33.624 L
435.511 33.595 L
435.997 33.566 L
436.483 33.536 L
436.97 33.508 L
437.456 33.479 L
437.942 33.45 L
438.429 33.422 L
438.915 33.394 L
439.401 33.367 L
439.888 33.339 L
440.374 33.311 L
440.86 33.284 L
441.347 33.257 L
441.833 33.231 L
442.319 33.204 L
442.806 33.178 L
443.292 33.152 L
443.778 33.126 L
444.265 33.1 L
444.751 33.075 L
445.237 33.05 L
445.723 33.025 L
446.21 33 L
446.696 32.975 L
447.182 32.951 L
447.669 32.927 L
448.155 32.903 L
448.641 32.88 L
449.128 32.856 L
449.614 32.833 L
450.1 32.81 L
450.587 32.787 L
451.073 32.764 L
451.559 32.742 L
452.046 32.72 L
452.532 32.698 L
453.018 32.676 L
453.505 32.654 L
453.991 32.633 L
454.477 32.612 L
454.964 32.591 L
455.45 32.57 L
455.936 32.549 L
456.423 32.529 L
456.909 32.509 L
457.395 32.489 L
457.882 32.469 L
458.368 32.45 L
458.854 32.431 L
459.34 32.412 L
459.827 32.393 L
460.313 32.374 L
460.799 32.356 L
461.286 32.338 L
461.772 32.319 L
462.258 32.302 L
462.745 32.284 L
463.231 32.266 L
463.717 32.249 L
464.204 32.232 L
464.69 32.215 L
465.176 32.199 L
465.663 32.182 L
466.149 32.166 L
466.635 32.15 L
467.122 32.134 L
467.608 32.119 L
468.094 32.103 L
468.581 32.088 L
469.067 32.073 L
469.553 32.058 L
470.04 32.044 L
470.526 32.029 L
471.012 32.015 L
471.499 32.001 L
471.985 31.987 L
472.471 31.974 L
472.957 31.96 L
473.444 31.947 L
473.93 31.934 L
474.416 31.921 L
474.903 31.909 L
475.389 31.896 L
475.875 31.884 L
476.362 31.872 L
476.848 31.86 L
477.334 31.849 L
477.821 31.837 L
478.307 31.826 L
478.793 31.815 L
479.28 31.804 L
479.766 31.793 L
480.252 31.783 L
480.739 31.773 L
481.225 31.762 L
481.711 31.753 L
482.198 31.743 L
482.684 31.733 L
483.17 31.724 L
483.657 31.715 L
484.143 31.706 L
484.629 31.697 L
485.116 31.689 L
485.602 31.681 L
486.088 31.672 L
486.574 31.665 L
487.061 31.657 L
487.547 31.649 L
488.033 31.642 L
488.52 31.635 L
489.006 31.628 L
489.492 31.621 L
489.979 31.614 L
490.465 31.608 L
490.951 31.602 L
491.438 31.596 L
491.924 31.59 L
492.41 31.584 L
492.897 31.579 L
493.383 31.573 L
493.869 31.568 L
494.356 31.563 L
494.842 31.559 L
495.328 31.554 L
495.815 31.55 L
496.301 31.545 L
496.787 31.541 L
497.274 31.538 L
497.76 31.534 L
498.246 31.531 L
498.733 31.527 L
499.219 31.524 L
499.705 31.522 L
500.191 31.519 L
500.678 31.516 L
501.164 31.514 L
501.65 31.512 L
502.137 31.51 L
502.623 31.508 L
503.109 31.507 L
503.596 31.505 L
504.082 31.504 L
504.568 31.502 L
505.055 31.502 L
505.541 31.501 L
506.027 31.501 L
506.514 31.5 L
507 31.5 L
S
GR
GS
0.467 0.675 0.188 RC
[10 6] 0 setdash
2 LJ
0.5 LW
N
73.624 364.315 M
74.11 359.013 L
74.596 353.74 L
75.083 348.503 L
75.569 343.309 L
76.055 338.164 L
76.542 333.075 L
77.028 328.049 L
77.514 323.093 L
78.001 318.213 L
78.487 313.416 L
78.973 308.708 L
79.46 304.097 L
79.946 299.589 L
80.432 295.191 L
80.919 290.91 L
81.405 286.752 L
81.891 282.723 L
82.377 278.832 L
82.864 275.084 L
83.35 271.486 L
83.836 268.045 L
84.323 264.768 L
84.809 261.607 L
85.295 258.485 L
85.782 255.401 L
86.268 252.356 L
86.754 249.35 L
87.241 246.383 L
87.727 243.456 L
88.213 240.569 L
88.7 237.724 L
89.186 234.92 L
89.672 232.159 L
90.159 229.439 L
90.645 226.763 L
91.131 224.131 L
91.618 221.542 L
92.104 218.998 L
92.59 216.499 L
93.077 214.045 L
93.563 211.638 L
94.049 209.277 L
94.536 206.963 L
95.022 204.696 L
95.508 202.478 L
95.994 200.308 L
96.481 198.187 L
96.967 196.115 L
97.453 194.094 L
97.94 192.123 L
98.426 190.203 L
98.912 188.334 L
99.399 186.518 L
99.885 184.754 L
100.371 183.043 L
100.858 181.386 L
101.344 179.783 L
101.83 178.234 L
102.317 176.74 L
102.803 175.302 L
103.289 173.913 L
103.776 172.537 L
104.262 171.17 L
104.748 169.812 L
105.235 168.463 L
105.721 167.124 L
106.207 165.795 L
106.694 164.475 L
107.18 163.164 L
107.666 161.864 L
108.153 160.574 L
108.639 159.293 L
109.125 158.023 L
109.611 156.764 L
110.098 155.515 L
110.584 154.276 L
111.07 153.048 L
111.557 151.831 L
112.043 150.625 L
112.529 149.431 L
113.016 148.247 L
113.502 147.075 L
113.988 145.914 L
114.475 144.765 L
114.961 143.627 L
115.447 142.502 L
115.934 141.388 L
116.42 140.287 L
116.906 139.198 L
117.393 138.121 L
117.879 137.057 L
118.365 136.005 L
118.852 134.965 L
119.338 133.939 L
119.824 132.926 L
120.311 131.926 L
120.797 130.939 L
121.283 129.965 L
121.77 129.005 L
122.256 128.059 L
122.742 127.126 L
123.228 126.207 L
123.715 125.302 L
124.201 124.411 L
124.687 123.534 L
125.174 122.672 L
125.66 121.823 L
126.146 120.99 L
126.633 120.171 L
127.119 119.367 L
127.605 118.579 L
128.092 117.805 L
128.578 117.046 L
129.064 116.302 L
129.551 115.575 L
130.037 114.862 L
130.523 114.166 L
131.01 113.485 L
131.496 112.82 L
131.982 112.171 L
132.469 111.538 L
132.955 110.922 L
133.441 110.322 L
133.928 109.739 L
134.414 109.172 L
134.9 108.622 L
135.387 108.089 L
135.873 107.573 L
136.359 107.074 L
136.845 106.592 L
137.332 106.128 L
137.818 105.682 L
138.304 105.253 L
138.791 104.842 L
139.277 104.449 L
139.763 104.074 L
140.25 103.717 L
140.736 103.378 L
141.222 103.056 L
141.709 102.736 L
142.195 102.417 L
142.681 102.1 L
143.168 101.783 L
143.654 101.467 L
144.14 101.152 L
144.627 100.838 L
145.113 100.525 L
145.599 100.213 L
146.086 99.902 L
146.572 99.591 L
147.058 99.282 L
147.545 98.974 L
148.031 98.666 L
148.517 98.359 L
149.004 98.053 L
149.49 97.748 L
149.976 97.445 L
150.462 97.142 L
150.949 96.84 L
151.435 96.538 L
151.921 96.238 L
152.408 95.939 L
152.894 95.641 L
153.38 95.343 L
153.867 95.046 L
154.353 94.751 L
154.839 94.456 L
155.326 94.162 L
155.812 93.869 L
156.298 93.577 L
156.785 93.286 L
157.271 92.996 L
157.757 92.707 L
158.244 92.419 L
158.73 92.131 L
159.216 91.845 L
159.703 91.559 L
160.189 91.275 L
160.675 90.991 L
161.162 90.708 L
161.648 90.426 L
162.134 90.145 L
162.621 89.865 L
163.107 89.586 L
163.593 89.308 L
164.079 89.031 L
164.566 88.754 L
165.052 88.479 L
165.538 88.204 L
166.025 87.931 L
166.511 87.658 L
166.997 87.386 L
167.484 87.116 L
167.97 86.846 L
168.456 86.577 L
168.943 86.308 L
169.429 86.041 L
169.915 85.775 L
170.402 85.51 L
170.888 85.245 L
171.374 84.982 L
171.861 84.719 L
172.347 84.458 L
172.833 84.197 L
173.32 83.937 L
173.806 83.678 L
174.292 83.42 L
174.779 83.163 L
175.265 82.907 L
175.751 82.652 L
176.238 82.397 L
176.724 82.144 L
177.21 81.891 L
177.696 81.64 L
178.183 81.389 L
178.669 81.14 L
179.155 80.891 L
179.642 80.643 L
180.128 80.396 L
180.614 80.15 L
181.101 79.905 L
181.587 79.66 L
182.073 79.417 L
182.56 79.175 L
183.046 78.933 L
183.532 78.693 L
184.019 78.453 L
184.505 78.215 L
184.991 77.977 L
185.478 77.74 L
185.964 77.504 L
186.45 77.269 L
186.937 77.035 L
187.423 76.802 L
187.909 76.569 L
188.396 76.338 L
188.882 76.108 L
189.368 75.878 L
189.855 75.65 L
190.341 75.422 L
190.827 75.195 L
191.313 74.97 L
191.8 74.745 L
192.286 74.521 L
192.772 74.298 L
193.259 74.076 L
193.745 73.855 L
194.231 73.634 L
194.718 73.415 L
195.204 73.196 L
195.69 72.979 L
196.177 72.762 L
196.663 72.546 L
197.149 72.332 L
197.636 72.118 L
198.122 71.905 L
198.608 71.693 L
199.095 71.482 L
199.581 71.271 L
200.067 71.062 L
200.554 70.854 L
201.04 70.646 L
201.526 70.44 L
202.013 70.234 L
202.499 70.03 L
202.985 69.826 L
203.472 69.623 L
203.958 69.421 L
204.444 69.22 L
204.93 69.02 L
205.417 68.821 L
205.903 68.623 L
206.389 68.425 L
206.876 68.229 L
207.362 68.034 L
207.848 67.839 L
208.335 67.645 L
208.821 67.453 L
209.307 67.261 L
209.794 67.07 L
210.28 66.88 L
210.766 66.691 L
211.253 66.503 L
211.739 66.316 L
212.225 66.129 L
212.712 65.944 L
213.198 65.76 L
213.684 65.576 L
214.171 65.394 L
214.657 65.212 L
215.143 65.031 L
215.63 64.851 L
216.116 64.673 L
216.602 64.495 L
217.089 64.318 L
217.575 64.141 L
218.061 63.966 L
218.548 63.792 L
219.034 63.618 L
219.52 63.446 L
220.006 63.275 L
220.493 63.104 L
220.979 62.934 L
221.465 62.765 L
221.952 62.597 L
222.438 62.431 L
222.924 62.265 L
223.411 62.099 L
223.897 61.935 L
224.383 61.772 L
224.87 61.61 L
225.356 61.448 L
225.842 61.288 L
226.329 61.128 L
226.815 60.969 L
227.301 60.812 L
227.788 60.655 L
228.274 60.499 L
228.76 60.344 L
229.247 60.19 L
229.733 60.037 L
230.219 59.885 L
230.706 59.733 L
231.192 59.583 L
231.678 59.433 L
232.165 59.285 L
232.651 59.137 L
233.137 58.991 L
233.623 58.845 L
234.11 58.7 L
234.596 58.556 L
235.082 58.413 L
235.569 58.271 L
236.055 58.13 L
236.541 57.99 L
237.028 57.85 L
237.514 57.712 L
238 57.574 L
238.487 57.438 L
238.973 57.302 L
239.459 57.168 L
239.946 57.033 L
240.432 56.901 L
240.918 56.769 L
241.405 56.638 L
241.891 56.508 L
242.377 56.378 L
242.864 56.25 L
243.35 56.123 L
243.836 55.996 L
244.323 55.871 L
244.809 55.746 L
245.295 55.623 L
245.782 55.5 L
246.268 55.378 L
246.754 55.257 L
247.24 55.137 L
247.727 55.018 L
248.213 54.9 L
248.699 54.783 L
249.186 54.666 L
249.672 54.551 L
250.158 54.436 L
250.645 54.323 L
251.131 54.21 L
251.617 54.099 L
252.104 53.988 L
252.59 53.878 L
253.076 53.769 L
253.563 53.661 L
254.049 53.554 L
254.535 53.448 L
255.022 53.342 L
255.508 53.238 L
255.994 53.135 L
256.481 53.032 L
256.967 52.931 L
257.453 52.83 L
257.94 52.73 L
258.426 52.631 L
258.912 52.534 L
259.398 52.437 L
259.885 52.341 L
260.371 52.246 L
260.857 52.152 L
261.344 52.058 L
261.83 51.966 L
262.316 51.874 L
262.803 51.784 L
263.289 51.694 L
263.775 51.605 L
264.262 51.518 L
264.748 51.431 L
265.234 51.345 L
265.721 51.26 L
266.207 51.176 L
266.693 51.093 L
267.18 51.011 L
267.666 50.929 L
268.152 50.849 L
268.639 50.77 L
269.125 50.691 L
269.611 50.614 L
270.098 50.537 L
270.584 50.461 L
271.07 50.386 L
271.557 50.312 L
272.043 50.239 L
272.529 50.167 L
273.016 50.096 L
273.502 50.026 L
273.988 49.957 L
274.474 49.888 L
274.961 49.821 L
275.447 49.754 L
275.933 49.688 L
276.42 49.624 L
276.906 49.56 L
277.392 49.497 L
277.879 49.435 L
278.365 49.374 L
278.851 49.314 L
279.338 49.255 L
279.824 49.196 L
280.31 49.139 L
280.797 49.083 L
281.283 49.027 L
281.769 48.973 L
282.256 48.919 L
282.742 48.867 L
283.228 48.814 L
283.715 48.764 L
284.201 48.714 L
284.687 48.665 L
285.174 48.617 L
285.66 48.57 L
286.146 48.523 L
286.633 48.478 L
287.119 48.434 L
287.605 48.39 L
288.091 48.347 L
288.578 48.306 L
289.064 48.265 L
289.55 48.225 L
290.037 48.186 L
290.523 48.148 L
291.009 48.111 L
291.496 48.075 L
291.982 48.04 L
292.468 48.006 L
292.955 47.972 L
293.441 47.94 L
293.927 47.909 L
294.414 47.878 L
294.9 47.848 L
295.386 47.819 L
295.873 47.792 L
296.359 47.765 L
296.845 47.739 L
297.332 47.714 L
297.818 47.69 L
298.304 47.667 L
298.791 47.644 L
299.277 47.623 L
299.763 47.602 L
300.25 47.583 L
300.736 47.564 L
301.222 47.546 L
301.708 47.53 L
302.195 47.514 L
302.681 47.499 L
303.167 47.485 L
303.654 47.472 L
304.14 47.46 L
304.626 47.449 L
305.113 47.438 L
305.599 47.429 L
306.085 47.42 L
306.572 47.413 L
307.058 47.407 L
307.544 47.401 L
308.031 47.396 L
308.517 47.392 L
309.003 47.389 L
309.49 47.387 L
309.976 47.386 L
S
GR
GS
0.302 0.745 0.933 RC
[10 6] 0 setdash
2 LJ
0.5 LW
N
73.45 367.833 M
73.937 362.45 L
74.423 357.098 L
74.909 351.782 L
75.396 346.51 L
75.882 341.289 L
76.368 336.125 L
76.855 331.027 L
77.341 326 L
77.827 321.053 L
78.314 316.191 L
78.8 311.422 L
79.286 306.752 L
79.773 302.19 L
80.259 297.741 L
80.745 293.413 L
81.232 289.212 L
81.718 285.146 L
82.204 281.222 L
82.691 277.446 L
83.177 273.826 L
83.663 270.368 L
84.149 267.08 L
84.636 263.889 L
85.122 260.737 L
85.608 257.626 L
86.095 254.556 L
86.581 251.526 L
87.067 248.538 L
87.554 245.592 L
88.04 242.688 L
88.526 239.827 L
89.013 237.008 L
89.499 234.234 L
89.985 231.503 L
90.472 228.817 L
90.958 226.175 L
91.444 223.578 L
91.931 221.027 L
92.417 218.522 L
92.903 216.063 L
93.39 213.651 L
93.876 211.286 L
94.362 208.969 L
94.849 206.7 L
95.335 204.479 L
95.821 202.308 L
96.308 200.185 L
96.794 198.112 L
97.28 196.089 L
97.766 194.117 L
98.253 192.195 L
98.739 190.325 L
99.225 188.506 L
99.712 186.74 L
100.198 185.026 L
100.684 183.365 L
101.171 181.757 L
101.657 180.203 L
102.143 178.704 L
102.63 177.258 L
103.116 175.842 L
103.602 174.433 L
104.089 173.034 L
104.575 171.643 L
105.061 170.262 L
105.548 168.89 L
106.034 167.528 L
106.52 166.175 L
107.007 164.831 L
107.493 163.498 L
107.979 162.174 L
108.466 160.861 L
108.952 159.558 L
109.438 158.266 L
109.925 156.984 L
110.411 155.713 L
110.897 154.453 L
111.383 153.204 L
111.87 151.966 L
112.356 150.74 L
112.842 149.525 L
113.329 148.322 L
113.815 147.13 L
114.301 145.951 L
114.788 144.784 L
115.274 143.629 L
115.76 142.486 L
116.247 141.357 L
116.733 140.24 L
117.219 139.135 L
117.706 138.044 L
118.192 136.966 L
118.678 135.902 L
119.165 134.851 L
119.651 133.813 L
120.137 132.79 L
120.624 131.78 L
121.11 130.784 L
121.596 129.803 L
122.083 128.836 L
122.569 127.884 L
123.055 126.946 L
123.542 126.023 L
124.028 125.116 L
124.514 124.223 L
125 123.346 L
125.487 122.484 L
125.973 121.638 L
126.459 120.807 L
126.946 119.993 L
127.432 119.194 L
127.918 118.412 L
128.405 117.646 L
128.891 116.897 L
129.377 116.164 L
129.864 115.449 L
130.35 114.75 L
130.836 114.068 L
131.323 113.404 L
131.809 112.757 L
132.295 112.127 L
132.782 111.516 L
133.268 110.922 L
133.754 110.346 L
134.241 109.789 L
134.727 109.25 L
135.213 108.729 L
135.7 108.227 L
136.186 107.743 L
136.672 107.279 L
137.159 106.834 L
137.645 106.408 L
138.131 106.001 L
138.617 105.614 L
139.104 105.247 L
139.59 104.9 L
140.076 104.57 L
140.563 104.247 L
141.049 103.923 L
141.535 103.601 L
142.022 103.28 L
142.508 102.959 L
142.994 102.64 L
143.481 102.321 L
143.967 102.004 L
144.453 101.687 L
144.94 101.372 L
145.426 101.057 L
145.912 100.743 L
146.399 100.43 L
146.885 100.118 L
147.371 99.807 L
147.858 99.497 L
148.344 99.188 L
148.83 98.88 L
149.317 98.573 L
149.803 98.267 L
150.289 97.961 L
150.776 97.657 L
151.262 97.354 L
151.748 97.051 L
152.234 96.75 L
152.721 96.45 L
153.207 96.15 L
153.693 95.851 L
154.18 95.553 L
154.666 95.257 L
155.152 94.961 L
155.639 94.666 L
156.125 94.372 L
156.611 94.079 L
157.098 93.787 L
157.584 93.496 L
158.07 93.206 L
158.557 92.917 L
159.043 92.628 L
159.529 92.341 L
160.016 92.055 L
160.502 91.769 L
160.988 91.485 L
161.475 91.201 L
161.961 90.919 L
162.447 90.637 L
162.934 90.356 L
163.42 90.076 L
163.906 89.798 L
164.393 89.52 L
164.879 89.243 L
165.365 88.967 L
165.852 88.692 L
166.338 88.417 L
166.824 88.144 L
167.31 87.872 L
167.797 87.601 L
168.283 87.33 L
168.769 87.061 L
169.256 86.792 L
169.742 86.525 L
170.228 86.258 L
170.715 85.993 L
171.201 85.728 L
171.687 85.464 L
172.174 85.202 L
172.66 84.939 L
173.146 84.679 L
173.633 84.419 L
174.119 84.159 L
174.605 83.901 L
175.092 83.644 L
175.578 83.388 L
176.064 83.133 L
176.551 82.878 L
177.037 82.625 L
177.523 82.372 L
178.01 82.121 L
178.496 81.87 L
178.982 81.62 L
179.469 81.372 L
179.955 81.124 L
180.441 80.877 L
180.927 80.631 L
181.414 80.386 L
181.9 80.142 L
182.386 79.899 L
182.873 79.657 L
183.359 79.416 L
183.845 79.175 L
184.332 78.936 L
184.818 78.698 L
185.304 78.46 L
185.791 78.223 L
186.277 77.988 L
186.763 77.753 L
187.25 77.519 L
187.736 77.287 L
188.222 77.055 L
188.709 76.824 L
189.195 76.594 L
189.681 76.365 L
190.168 76.137 L
190.654 75.91 L
191.14 75.683 L
191.627 75.458 L
192.113 75.234 L
192.599 75.01 L
193.086 74.788 L
193.572 74.566 L
194.058 74.346 L
194.544 74.126 L
195.031 73.907 L
195.517 73.689 L
196.003 73.473 L
196.49 73.257 L
196.976 73.041 L
197.462 72.827 L
197.949 72.614 L
198.435 72.402 L
198.921 72.191 L
199.408 71.981 L
199.894 71.771 L
200.38 71.563 L
200.867 71.355 L
201.353 71.148 L
201.839 70.943 L
202.326 70.738 L
202.812 70.534 L
203.298 70.331 L
203.785 70.129 L
204.271 69.928 L
204.757 69.728 L
205.244 69.529 L
205.73 69.331 L
206.216 69.134 L
206.703 68.937 L
207.189 68.742 L
207.675 68.548 L
208.161 68.354 L
208.648 68.161 L
209.134 67.97 L
209.62 67.779 L
210.107 67.589 L
210.593 67.4 L
211.079 67.212 L
211.566 67.025 L
212.052 66.839 L
212.538 66.654 L
213.025 66.47 L
213.511 66.287 L
213.997 66.104 L
214.484 65.923 L
214.97 65.742 L
215.456 65.563 L
215.943 65.384 L
216.429 65.207 L
216.915 65.03 L
217.402 64.854 L
217.888 64.679 L
218.374 64.505 L
218.861 64.332 L
219.347 64.16 L
219.833 63.988 L
220.32 63.818 L
220.806 63.649 L
221.292 63.481 L
221.778 63.313 L
222.265 63.146 L
222.751 62.981 L
223.237 62.816 L
223.724 62.652 L
224.21 62.49 L
224.696 62.328 L
225.183 62.167 L
225.669 62.007 L
226.155 61.848 L
226.642 61.69 L
227.128 61.532 L
227.614 61.376 L
228.101 61.221 L
228.587 61.066 L
229.073 60.913 L
229.56 60.76 L
230.046 60.608 L
230.532 60.458 L
231.019 60.308 L
231.505 60.159 L
231.991 60.011 L
232.478 59.864 L
232.964 59.718 L
233.45 59.572 L
233.937 59.428 L
234.423 59.285 L
234.909 59.142 L
235.395 59.001 L
235.882 58.86 L
236.368 58.721 L
236.854 58.582 L
237.341 58.444 L
237.827 58.307 L
238.313 58.171 L
238.8 58.036 L
239.286 57.902 L
239.772 57.769 L
240.259 57.637 L
240.745 57.505 L
241.231 57.375 L
241.718 57.246 L
242.204 57.117 L
242.69 56.989 L
243.177 56.863 L
243.663 56.737 L
244.149 56.612 L
244.636 56.489 L
245.122 56.365 L
245.608 56.243 L
246.095 56.122 L
246.581 56.002 L
247.067 55.883 L
247.554 55.764 L
248.04 55.647 L
248.526 55.53 L
249.012 55.415 L
249.499 55.3 L
249.985 55.186 L
250.471 55.074 L
250.958 54.962 L
251.444 54.851 L
251.93 54.74 L
252.417 54.631 L
252.903 54.523 L
253.389 54.416 L
253.876 54.309 L
254.362 54.204 L
254.848 54.1 L
255.335 53.996 L
255.821 53.893 L
256.307 53.792 L
256.794 53.691 L
257.28 53.591 L
257.766 53.492 L
258.253 53.394 L
258.739 53.297 L
259.225 53.2 L
259.712 53.105 L
260.198 53.01 L
260.684 52.917 L
261.171 52.825 L
261.657 52.733 L
262.143 52.642 L
262.629 52.553 L
263.116 52.464 L
263.602 52.376 L
264.088 52.288 L
264.575 52.203 L
265.061 52.117 L
265.547 52.033 L
266.034 51.95 L
266.52 51.867 L
267.006 51.786 L
267.493 51.705 L
267.979 51.626 L
268.465 51.547 L
268.952 51.469 L
269.438 51.392 L
269.924 51.316 L
270.411 51.241 L
270.897 51.167 L
271.383 51.094 L
271.87 51.021 L
272.356 50.95 L
272.842 50.879 L
273.329 50.81 L
273.815 50.741 L
274.301 50.673 L
274.788 50.607 L
275.274 50.541 L
275.76 50.476 L
276.246 50.412 L
276.733 50.349 L
277.219 50.286 L
277.705 50.225 L
278.192 50.165 L
278.678 50.105 L
279.164 50.047 L
279.651 49.989 L
280.137 49.932 L
280.623 49.877 L
281.11 49.822 L
281.596 49.768 L
282.082 49.715 L
282.569 49.662 L
283.055 49.611 L
283.541 49.561 L
284.028 49.511 L
284.514 49.463 L
285 49.416 L
285.487 49.369 L
285.973 49.323 L
286.459 49.278 L
286.946 49.234 L
287.432 49.191 L
287.918 49.149 L
288.405 49.108 L
288.891 49.068 L
289.377 49.029 L
289.863 48.99 L
290.35 48.953 L
290.836 48.916 L
291.322 48.88 L
291.809 48.846 L
292.295 48.812 L
292.781 48.779 L
293.268 48.747 L
293.754 48.716 L
294.24 48.686 L
294.727 48.656 L
295.213 48.628 L
295.699 48.6 L
296.186 48.574 L
296.672 48.548 L
297.158 48.524 L
297.645 48.5 L
298.131 48.477 L
298.617 48.455 L
299.104 48.434 L
299.59 48.414 L
300.076 48.394 L
300.563 48.376 L
301.049 48.359 L
301.535 48.342 L
302.022 48.326 L
302.508 48.312 L
302.994 48.298 L
303.48 48.285 L
303.967 48.273 L
304.453 48.262 L
304.939 48.252 L
305.426 48.243 L
305.912 48.235 L
306.398 48.227 L
306.885 48.221 L
307.371 48.215 L
307.857 48.211 L
308.344 48.207 L
308.83 48.204 L
309.316 48.202 L
309.803 48.201 L
S
GR
GS
0.635 0.078 0.184 RC
[10 6] 0 setdash
2 LJ
0.5 LW
N
73.661 363.17 M
74.148 357.862 L
74.634 352.582 L
75.12 347.339 L
75.607 342.138 L
76.093 336.986 L
76.579 331.891 L
77.066 326.858 L
77.552 321.895 L
78.038 317.008 L
78.525 312.205 L
79.011 307.492 L
79.497 302.875 L
79.984 298.363 L
80.47 293.96 L
80.956 289.675 L
81.443 285.513 L
81.929 281.482 L
82.415 277.589 L
82.902 273.84 L
83.388 270.242 L
83.874 266.802 L
84.36 263.526 L
84.847 260.377 L
85.333 257.269 L
85.819 254.199 L
86.306 251.167 L
86.792 248.174 L
87.278 245.22 L
87.765 242.307 L
88.251 239.434 L
88.737 236.603 L
89.224 233.812 L
89.71 231.064 L
90.196 228.358 L
90.683 225.695 L
91.169 223.075 L
91.655 220.5 L
92.142 217.969 L
92.628 215.482 L
93.114 213.041 L
93.601 210.646 L
94.087 208.298 L
94.573 205.996 L
95.06 203.742 L
95.546 201.535 L
96.032 199.377 L
96.519 197.268 L
97.005 195.208 L
97.491 193.198 L
97.977 191.238 L
98.464 189.329 L
98.95 187.471 L
99.436 185.665 L
99.923 183.911 L
100.409 182.21 L
100.895 180.562 L
101.382 178.968 L
101.868 177.428 L
102.354 175.943 L
102.841 174.514 L
103.327 173.137 L
103.813 171.78 L
104.3 170.432 L
104.786 169.093 L
105.272 167.762 L
105.759 166.441 L
106.245 165.129 L
106.731 163.826 L
107.218 162.533 L
107.704 161.249 L
108.19 159.975 L
108.677 158.711 L
109.163 157.457 L
109.649 156.212 L
110.136 154.978 L
110.622 153.755 L
111.108 152.542 L
111.594 151.339 L
112.081 150.147 L
112.567 148.966 L
113.053 147.796 L
113.54 146.637 L
114.026 145.489 L
114.512 144.353 L
114.999 143.227 L
115.485 142.114 L
115.971 141.012 L
116.458 139.922 L
116.944 138.844 L
117.43 137.778 L
117.917 136.725 L
118.403 135.683 L
118.889 134.654 L
119.376 133.638 L
119.862 132.635 L
120.348 131.644 L
120.835 130.666 L
121.321 129.701 L
121.807 128.75 L
122.294 127.811 L
122.78 126.887 L
123.266 125.976 L
123.753 125.078 L
124.239 124.194 L
124.725 123.325 L
125.211 122.469 L
125.698 121.628 L
126.184 120.801 L
126.67 119.988 L
127.157 119.19 L
127.643 118.406 L
128.129 117.638 L
128.616 116.884 L
129.102 116.146 L
129.588 115.423 L
130.075 114.715 L
130.561 114.022 L
131.047 113.345 L
131.534 112.684 L
132.02 112.038 L
132.506 111.409 L
132.993 110.795 L
133.479 110.198 L
133.965 109.617 L
134.452 109.053 L
134.938 108.505 L
135.424 107.974 L
135.911 107.459 L
136.397 106.962 L
136.883 106.482 L
137.37 106.019 L
137.856 105.573 L
138.342 105.145 L
138.828 104.734 L
139.315 104.341 L
139.801 103.966 L
140.287 103.608 L
140.774 103.269 L
141.26 102.948 L
141.746 102.644 L
142.233 102.342 L
142.719 102.041 L
143.205 101.741 L
143.692 101.442 L
144.178 101.144 L
144.664 100.847 L
145.151 100.55 L
145.637 100.255 L
146.123 99.96 L
146.61 99.666 L
147.096 99.373 L
147.582 99.08 L
148.069 98.789 L
148.555 98.498 L
149.041 98.208 L
149.528 97.919 L
150.014 97.631 L
150.5 97.344 L
150.987 97.057 L
151.473 96.771 L
151.959 96.486 L
152.445 96.202 L
152.932 95.919 L
153.418 95.636 L
153.904 95.355 L
154.391 95.074 L
154.877 94.794 L
155.363 94.515 L
155.85 94.237 L
156.336 93.959 L
156.822 93.682 L
157.309 93.407 L
157.795 93.132 L
158.281 92.857 L
158.768 92.584 L
159.254 92.312 L
159.74 92.04 L
160.227 91.769 L
160.713 91.499 L
161.199 91.229 L
161.686 90.961 L
162.172 90.694 L
162.658 90.427 L
163.145 90.161 L
163.631 89.896 L
164.117 89.631 L
164.604 89.367 L
165.09 89.105 L
165.576 88.843 L
166.062 88.582 L
166.549 88.322 L
167.035 88.062 L
167.521 87.803 L
168.008 87.546 L
168.494 87.289 L
168.98 87.033 L
169.467 86.777 L
169.953 86.523 L
170.439 86.269 L
170.926 86.016 L
171.412 85.764 L
171.898 85.513 L
172.385 85.263 L
172.871 85.013 L
173.357 84.764 L
173.844 84.516 L
174.33 84.269 L
174.816 84.022 L
175.303 83.777 L
175.789 83.532 L
176.275 83.288 L
176.762 83.045 L
177.248 82.803 L
177.734 82.562 L
178.221 82.321 L
178.707 82.081 L
179.193 81.842 L
179.679 81.603 L
180.166 81.366 L
180.652 81.13 L
181.138 80.894 L
181.625 80.659 L
182.111 80.425 L
182.597 80.191 L
183.084 79.959 L
183.57 79.727 L
184.056 79.496 L
184.543 79.266 L
185.029 79.037 L
185.515 78.808 L
186.002 78.581 L
186.488 78.354 L
186.974 78.128 L
187.461 77.903 L
187.947 77.678 L
188.433 77.454 L
188.92 77.232 L
189.406 77.01 L
189.892 76.788 L
190.379 76.568 L
190.865 76.348 L
191.351 76.13 L
191.838 75.912 L
192.324 75.695 L
192.81 75.478 L
193.296 75.262 L
193.783 75.048 L
194.269 74.834 L
194.755 74.621 L
195.242 74.409 L
195.728 74.197 L
196.214 73.986 L
196.701 73.776 L
197.187 73.567 L
197.673 73.359 L
198.16 73.152 L
198.646 72.945 L
199.132 72.739 L
199.619 72.534 L
200.105 72.33 L
200.591 72.126 L
201.078 71.924 L
201.564 71.722 L
202.05 71.52 L
202.537 71.32 L
203.023 71.121 L
203.509 70.922 L
203.996 70.724 L
204.482 70.527 L
204.968 70.331 L
205.455 70.136 L
205.941 69.941 L
206.427 69.747 L
206.913 69.554 L
207.4 69.362 L
207.886 69.17 L
208.372 68.98 L
208.859 68.79 L
209.345 68.601 L
209.831 68.413 L
210.318 68.225 L
210.804 68.039 L
211.29 67.852 L
211.777 67.668 L
212.263 67.483 L
212.749 67.3 L
213.236 67.117 L
213.722 66.936 L
214.208 66.754 L
214.695 66.574 L
215.181 66.395 L
215.667 66.216 L
216.154 66.038 L
216.64 65.861 L
217.126 65.685 L
217.613 65.509 L
218.099 65.334 L
218.585 65.161 L
219.072 64.987 L
219.558 64.815 L
220.044 64.644 L
220.531 64.473 L
221.017 64.303 L
221.503 64.134 L
221.989 63.966 L
222.476 63.798 L
222.962 63.631 L
223.448 63.465 L
223.935 63.3 L
224.421 63.136 L
224.907 62.972 L
225.394 62.809 L
225.88 62.647 L
226.366 62.486 L
226.853 62.326 L
227.339 62.166 L
227.825 62.007 L
228.312 61.849 L
228.798 61.692 L
229.284 61.536 L
229.771 61.38 L
230.257 61.225 L
230.743 61.071 L
231.23 60.918 L
231.716 60.765 L
232.202 60.614 L
232.689 60.463 L
233.175 60.312 L
233.661 60.163 L
234.148 60.014 L
234.634 59.867 L
235.12 59.72 L
235.606 59.574 L
236.093 59.428 L
236.579 59.284 L
237.065 59.14 L
237.552 58.997 L
238.038 58.854 L
238.524 58.713 L
239.011 58.572 L
239.497 58.432 L
239.983 58.293 L
240.47 58.155 L
240.956 58.017 L
241.442 57.88 L
241.929 57.744 L
242.415 57.609 L
242.901 57.475 L
243.388 57.341 L
243.874 57.208 L
244.36 57.076 L
244.847 56.945 L
245.333 56.815 L
245.819 56.685 L
246.306 56.556 L
246.792 56.428 L
247.278 56.3 L
247.765 56.174 L
248.251 56.048 L
248.737 55.923 L
249.223 55.798 L
249.71 55.675 L
250.196 55.552 L
250.682 55.431 L
251.169 55.309 L
251.655 55.189 L
252.141 55.07 L
252.628 54.951 L
253.114 54.833 L
253.6 54.716 L
254.087 54.599 L
254.573 54.483 L
255.059 54.368 L
255.546 54.254 L
256.032 54.141 L
256.518 54.028 L
257.005 53.917 L
257.491 53.806 L
257.977 53.695 L
258.464 53.586 L
258.95 53.477 L
259.436 53.37 L
259.923 53.262 L
260.409 53.156 L
260.895 53.05 L
261.382 52.946 L
261.868 52.842 L
262.354 52.738 L
262.84 52.636 L
263.327 52.534 L
263.813 52.434 L
264.299 52.333 L
264.786 52.234 L
265.272 52.135 L
265.758 52.037 L
266.245 51.94 L
266.731 51.844 L
267.217 51.749 L
267.704 51.654 L
268.19 51.56 L
268.676 51.467 L
269.163 51.374 L
269.649 51.283 L
270.135 51.192 L
270.622 51.102 L
271.108 51.012 L
271.594 50.924 L
272.081 50.836 L
272.567 50.749 L
273.053 50.663 L
273.54 50.578 L
274.026 50.493 L
274.512 50.409 L
274.999 50.326 L
275.485 50.243 L
275.971 50.161 L
276.457 50.081 L
276.944 50.001 L
277.43 49.921 L
277.916 49.843 L
278.403 49.765 L
278.889 49.688 L
279.375 49.612 L
279.862 49.536 L
280.348 49.462 L
280.834 49.388 L
281.321 49.314 L
281.807 49.242 L
282.293 49.17 L
282.78 49.099 L
283.266 49.029 L
283.752 48.96 L
284.239 48.892 L
284.725 48.824 L
285.211 48.756 L
285.698 48.69 L
286.184 48.625 L
286.67 48.56 L
287.157 48.496 L
287.643 48.433 L
288.129 48.37 L
288.616 48.308 L
289.102 48.247 L
289.588 48.188 L
290.074 48.128 L
290.561 48.069 L
291.047 48.011 L
291.533 47.954 L
292.02 47.898 L
292.506 47.842 L
292.992 47.787 L
293.479 47.733 L
293.965 47.68 L
294.451 47.628 L
294.938 47.576 L
295.424 47.525 L
295.91 47.474 L
296.397 47.425 L
296.883 47.376 L
297.369 47.328 L
297.856 47.281 L
298.342 47.234 L
298.828 47.189 L
299.315 47.144 L
299.801 47.1 L
300.287 47.056 L
300.774 47.013 L
301.26 46.971 L
301.746 46.93 L
302.233 46.89 L
302.719 46.85 L
303.205 46.811 L
303.691 46.773 L
304.178 46.736 L
304.664 46.699 L
305.15 46.663 L
305.637 46.628 L
306.123 46.593 L
306.609 46.56 L
307.096 46.527 L
307.582 46.495 L
308.068 46.463 L
308.555 46.433 L
309.041 46.403 L
309.527 46.374 L
310.014 46.346 L
310.5 46.318 L
310.986 46.291 L
311.473 46.265 L
311.959 46.239 L
312.445 46.215 L
312.932 46.191 L
313.418 46.168 L
313.904 46.146 L
314.391 46.124 L
314.877 46.103 L
315.363 46.083 L
315.85 46.064 L
316.336 46.046 L
316.822 46.028 L
317.308 46.01 L
317.795 45.994 L
318.281 45.979 L
318.767 45.964 L
319.254 45.95 L
319.74 45.936 L
320.226 45.924 L
320.713 45.912 L
321.199 45.901 L
321.685 45.891 L
322.172 45.881 L
322.658 45.872 L
323.144 45.864 L
323.631 45.856 L
324.117 45.85 L
324.603 45.844 L
325.09 45.839 L
325.576 45.835 L
326.062 45.831 L
326.549 45.828 L
327.035 45.826 L
327.521 45.825 L
328.008 45.824 L
S
GR
GS
1 GC
N
499 366 M
499 250.5 L
344.5 250.5 L
344.5 366 L
cp
f
GR
GS
[1 0 0 1 381.5 260.25] CT
/Helvetica 13 F
GS
[1 0 0 1 0 0] CT
0 5 moveto 
1 -1 scale
(Base Run) t 
GR
GR
GS
0 0.447 0.741 RC
1 LJ
0.5 LW
N
348.5 260.25 M
378.5 260.25 L
S
GR
GS
[1 0 0 1 381.5 276.25] CT
/Helvetica 13 F
GS
[1 0 0 1 0 0] CT
0 5 moveto 
1 -1 scale
(I & B Frames) t 
GR
GR
GS
0.851 0.325 0.098 RC
1 LJ
0.5 LW
N
348.5 276.25 M
378.5 276.25 L
S
GR
GS
[1 0 0 1 381.5 292.25] CT
/Helvetica 13 F
GS
[1 0 0 1 0 0] CT
0 5 moveto 
1 -1 scale
(I Frames Only) t 
GR
GR
GS
0.929 0.694 0.125 RC
1 LJ
0.5 LW
N
348.5 292.25 M
378.5 292.25 L
S
GR
GS
[1 0 0 1 381.5 308.25] CT
/Helvetica 13 F
GS
[1 0 0 1 0 0] CT
0 5 moveto 
1 -1 scale
(B Frames Only) t 
GR
GR
GS
0.494 0.184 0.557 RC
1 LJ
0.5 LW
N
348.5 308.25 M
378.5 308.25 L
S
GR
GS
[1 0 0 1 381.5 324.25] CT
/Helvetica 13 F
GS
[1 0 0 1 0 0] CT
0 5 moveto 
1 -1 scale
(Part I & B Frames) t 
GR
GR
GS
0.467 0.675 0.188 RC
[10 6] 0 setdash
2 LJ
0.5 LW
N
348.5 324.25 M
378.5 324.25 L
S
GR
GS
[1 0 0 1 381.5 340.25] CT
/Helvetica 13 F
GS
[1 0 0 1 0 0] CT
0 5 moveto 
1 -1 scale
(Part I Frames Only) t 
GR
GR
GS
0.302 0.745 0.933 RC
[10 6] 0 setdash
2 LJ
0.5 LW
N
348.5 340.25 M
378.5 340.25 L
S
GR
GS
[1 0 0 1 381.5 356.25] CT
/Helvetica 13 F
GS
[1 0 0 1 0 0] CT
0 5 moveto 
1 -1 scale
(Part B Frames Only) t 
GR
GR
GS
0.635 0.078 0.184 RC
[10 6] 0 setdash
2 LJ
0.5 LW
N
348.5 356.25 M
378.5 356.25 L
S
GR
GS
0.149 GC
10.0 ML
0.5 LW
N
344.5 366 M
344.5 250.5 L
499 250.5 L
499 366 L
cp
S
GR
%%Trailer
%%Pages: 1
%%EOF
