%!PS-Adobe-3.0 EPSF-3.0
%%Creator: (MATLAB, The Mathworks, Inc. Version 9.11.0.1837725 \(R2021b\) Update 2. Operating System: Mac OS X)
%%Title: plots/pchip/OldTownCross_1920x1080p50.y4m-hevc-VMAF.eps
%%CreationDate: 2022-02-03T19:14:28
%%Pages: (atend)
%%BoundingBox:    34   425   520   826
%%LanguageLevel: 3
%%EndComments
%%BeginProlog
%%BeginResource: procset (Apache XML Graphics Std ProcSet) 1.2 0
%%Version: 1.2 0
%%Copyright: (Copyright 2001-2003,2010 The Apache Software Foundation. License terms: http://www.apache.org/licenses/LICENSE-2.0)
/bd{bind def}bind def
/ld{load def}bd
/GR/grestore ld
/GS/gsave ld
/RM/rmoveto ld
/C/curveto ld
/t/show ld
/L/lineto ld
/ML/setmiterlimit ld
/CT/concat ld
/f/fill ld
/N/newpath ld
/S/stroke ld
/CC/setcmykcolor ld
/A/ashow ld
/cp/closepath ld
/RC/setrgbcolor ld
/LJ/setlinejoin ld
/GC/setgray ld
/LW/setlinewidth ld
/M/moveto ld
/re {4 2 roll M
1 index 0 rlineto
0 exch rlineto
neg 0 rlineto
cp } bd
/_ctm matrix def
/_tm matrix def
/BT { _ctm currentmatrix pop matrix _tm copy pop 0 0 moveto } bd
/ET { _ctm setmatrix } bd
/iTm { _ctm setmatrix _tm concat } bd
/Tm { _tm astore pop iTm 0 0 moveto } bd
/ux 0.0 def
/uy 0.0 def
/F {
  /Tp exch def
  /Tf exch def
  Tf findfont Tp scalefont setfont
  /cf Tf def  /cs Tp def
} bd
/ULS {currentpoint /uy exch def /ux exch def} bd
/ULE {
  /Tcx currentpoint pop def
  gsave
  newpath
  cf findfont cs scalefont dup
  /FontMatrix get 0 get /Ts exch def /FontInfo get dup
  /UnderlinePosition get Ts mul /To exch def
  /UnderlineThickness get Ts mul /Tt exch def
  ux uy To add moveto  Tcx uy To add lineto
  Tt setlinewidth stroke
  grestore
} bd
/OLE {
  /Tcx currentpoint pop def
  gsave
  newpath
  cf findfont cs scalefont dup
  /FontMatrix get 0 get /Ts exch def /FontInfo get dup
  /UnderlinePosition get Ts mul /To exch def
  /UnderlineThickness get Ts mul /Tt exch def
  ux uy To add cs add moveto Tcx uy To add cs add lineto
  Tt setlinewidth stroke
  grestore
} bd
/SOE {
  /Tcx currentpoint pop def
  gsave
  newpath
  cf findfont cs scalefont dup
  /FontMatrix get 0 get /Ts exch def /FontInfo get dup
  /UnderlinePosition get Ts mul /To exch def
  /UnderlineThickness get Ts mul /Tt exch def
  ux uy To add cs 10 mul 26 idiv add moveto Tcx uy To add cs 10 mul 26 idiv add lineto
  Tt setlinewidth stroke
  grestore
} bd
/QT {
/Y22 exch store
/X22 exch store
/Y21 exch store
/X21 exch store
currentpoint
/Y21 load 2 mul add 3 div exch
/X21 load 2 mul add 3 div exch
/X21 load 2 mul /X22 load add 3 div
/Y21 load 2 mul /Y22 load add 3 div
/X22 load /Y22 load curveto
} bd
/SSPD {
dup length /d exch dict def
{
/v exch def
/k exch def
currentpagedevice k known {
/cpdv currentpagedevice k get def
v cpdv ne {
/upd false def
/nullv v type /nulltype eq def
/nullcpdv cpdv type /nulltype eq def
nullv nullcpdv or
{
/upd true def
} {
/sametype v type cpdv type eq def
sametype {
v type /arraytype eq {
/vlen v length def
/cpdvlen cpdv length def
vlen cpdvlen eq {
0 1 vlen 1 sub {
/i exch def
/obj v i get def
/cpdobj cpdv i get def
obj cpdobj ne {
/upd true def
exit
} if
} for
} {
/upd true def
} ifelse
} {
v type /dicttype eq {
v {
/dv exch def
/dk exch def
/cpddv cpdv dk get def
dv cpddv ne {
/upd true def
exit
} if
} forall
} {
/upd true def
} ifelse
} ifelse
} if
} ifelse
upd true eq {
d k v put
} if
} if
} if
} forall
d length 0 gt {
d setpagedevice
} if
} bd
/RE { % /NewFontName [NewEncodingArray] /FontName RE -
  findfont dup length dict begin
  {
    1 index /FID ne
    {def} {pop pop} ifelse
  } forall
  /Encoding exch def
  /FontName 1 index def
  currentdict definefont pop
  end
} bind def
%%EndResource
%%BeginResource: procset (Apache XML Graphics EPS ProcSet) 1.0 0
%%Version: 1.0 0
%%Copyright: (Copyright 2002-2003 The Apache Software Foundation. License terms: http://www.apache.org/licenses/LICENSE-2.0)
/BeginEPSF { %def
/b4_Inc_state save def         % Save state for cleanup
/dict_count countdictstack def % Count objects on dict stack
/op_count count 1 sub def      % Count objects on operand stack
userdict begin                 % Push userdict on dict stack
/showpage { } def              % Redefine showpage, { } = null proc
0 setgray 0 setlinecap         % Prepare graphics state
1 setlinewidth 0 setlinejoin
10 setmiterlimit [ ] 0 setdash newpath
/languagelevel where           % If level not equal to 1 then
{pop languagelevel             % set strokeadjust and
1 ne                           % overprint to their defaults.
{false setstrokeadjust false setoverprint
} if
} if
} bd
/EndEPSF { %def
count op_count sub {pop} repeat            % Clean up stacks
countdictstack dict_count sub {end} repeat
b4_Inc_state restore
} bd
%%EndResource
%FOPBeginFontDict
%%IncludeResource: font Courier-Oblique
%%IncludeResource: font Courier-BoldOblique
%%IncludeResource: font Courier-Bold
%%IncludeResource: font ZapfDingbats
%%IncludeResource: font Symbol
%%IncludeResource: font Helvetica
%%IncludeResource: font Helvetica-Oblique
%%IncludeResource: font Helvetica-Bold
%%IncludeResource: font Helvetica-BoldOblique
%%IncludeResource: font Times-Roman
%%IncludeResource: font Times-Italic
%%IncludeResource: font Times-Bold
%%IncludeResource: font Times-BoldItalic
%%IncludeResource: font Courier
%FOPEndFontDict
%%BeginResource: encoding WinAnsiEncoding
/WinAnsiEncoding [
/.notdef /.notdef /.notdef /.notdef /.notdef
/.notdef /.notdef /.notdef /.notdef /.notdef
/.notdef /.notdef /.notdef /.notdef /.notdef
/.notdef /.notdef /.notdef /.notdef /.notdef
/.notdef /.notdef /.notdef /.notdef /.notdef
/.notdef /.notdef /.notdef /.notdef /.notdef
/.notdef /.notdef /space /exclam /quotedbl
/numbersign /dollar /percent /ampersand /quotesingle
/parenleft /parenright /asterisk /plus /comma
/hyphen /period /slash /zero /one
/two /three /four /five /six
/seven /eight /nine /colon /semicolon
/less /equal /greater /question /at
/A /B /C /D /E
/F /G /H /I /J
/K /L /M /N /O
/P /Q /R /S /T
/U /V /W /X /Y
/Z /bracketleft /backslash /bracketright /asciicircum
/underscore /quoteleft /a /b /c
/d /e /f /g /h
/i /j /k /l /m
/n /o /p /q /r
/s /t /u /v /w
/x /y /z /braceleft /bar
/braceright /asciitilde /bullet /Euro /bullet
/quotesinglbase /florin /quotedblbase /ellipsis /dagger
/daggerdbl /circumflex /perthousand /Scaron /guilsinglleft
/OE /bullet /Zcaron /bullet /bullet
/quoteleft /quoteright /quotedblleft /quotedblright /bullet
/endash /emdash /asciitilde /trademark /scaron
/guilsinglright /oe /bullet /zcaron /Ydieresis
/space /exclamdown /cent /sterling /currency
/yen /brokenbar /section /dieresis /copyright
/ordfeminine /guillemotleft /logicalnot /sfthyphen /registered
/macron /degree /plusminus /twosuperior /threesuperior
/acute /mu /paragraph /middot /cedilla
/onesuperior /ordmasculine /guillemotright /onequarter /onehalf
/threequarters /questiondown /Agrave /Aacute /Acircumflex
/Atilde /Adieresis /Aring /AE /Ccedilla
/Egrave /Eacute /Ecircumflex /Edieresis /Igrave
/Iacute /Icircumflex /Idieresis /Eth /Ntilde
/Ograve /Oacute /Ocircumflex /Otilde /Odieresis
/multiply /Oslash /Ugrave /Uacute /Ucircumflex
/Udieresis /Yacute /Thorn /germandbls /agrave
/aacute /acircumflex /atilde /adieresis /aring
/ae /ccedilla /egrave /eacute /ecircumflex
/edieresis /igrave /iacute /icircumflex /idieresis
/eth /ntilde /ograve /oacute /ocircumflex
/otilde /odieresis /divide /oslash /ugrave
/uacute /ucircumflex /udieresis /yacute /thorn
/ydieresis
] def
%%EndResource
%FOPBeginFontReencode
/Courier-Oblique findfont
dup length dict begin
  {1 index /FID ne {def} {pop pop} ifelse} forall
  /Encoding WinAnsiEncoding def
  currentdict
end
/Courier-Oblique exch definefont pop
/Courier-BoldOblique findfont
dup length dict begin
  {1 index /FID ne {def} {pop pop} ifelse} forall
  /Encoding WinAnsiEncoding def
  currentdict
end
/Courier-BoldOblique exch definefont pop
/Courier-Bold findfont
dup length dict begin
  {1 index /FID ne {def} {pop pop} ifelse} forall
  /Encoding WinAnsiEncoding def
  currentdict
end
/Courier-Bold exch definefont pop
/Helvetica findfont
dup length dict begin
  {1 index /FID ne {def} {pop pop} ifelse} forall
  /Encoding WinAnsiEncoding def
  currentdict
end
/Helvetica exch definefont pop
/Helvetica-Oblique findfont
dup length dict begin
  {1 index /FID ne {def} {pop pop} ifelse} forall
  /Encoding WinAnsiEncoding def
  currentdict
end
/Helvetica-Oblique exch definefont pop
/Helvetica-Bold findfont
dup length dict begin
  {1 index /FID ne {def} {pop pop} ifelse} forall
  /Encoding WinAnsiEncoding def
  currentdict
end
/Helvetica-Bold exch definefont pop
/Helvetica-BoldOblique findfont
dup length dict begin
  {1 index /FID ne {def} {pop pop} ifelse} forall
  /Encoding WinAnsiEncoding def
  currentdict
end
/Helvetica-BoldOblique exch definefont pop
/Times-Roman findfont
dup length dict begin
  {1 index /FID ne {def} {pop pop} ifelse} forall
  /Encoding WinAnsiEncoding def
  currentdict
end
/Times-Roman exch definefont pop
/Times-Italic findfont
dup length dict begin
  {1 index /FID ne {def} {pop pop} ifelse} forall
  /Encoding WinAnsiEncoding def
  currentdict
end
/Times-Italic exch definefont pop
/Times-Bold findfont
dup length dict begin
  {1 index /FID ne {def} {pop pop} ifelse} forall
  /Encoding WinAnsiEncoding def
  currentdict
end
/Times-Bold exch definefont pop
/Times-BoldItalic findfont
dup length dict begin
  {1 index /FID ne {def} {pop pop} ifelse} forall
  /Encoding WinAnsiEncoding def
  currentdict
end
/Times-BoldItalic exch definefont pop
/Courier findfont
dup length dict begin
  {1 index /FID ne {def} {pop pop} ifelse} forall
  /Encoding WinAnsiEncoding def
  currentdict
end
/Courier exch definefont pop
%FOPEndFontReencode
%%EndProlog
%%Page: 1 1
%%PageBoundingBox: 0 0 1120 840
%%BeginPageSetup
[1 0 0 -1 0 840] CT
%%EndPageSetup
GS
1 GC
N
0 0 1120 840 re
f
GR
GS
1 GC
N
73 374 M
507 374 L
507 31.5 L
73 31.5 L
cp
f
GR
GS
0.149 GC
2 setlinecap
1 LJ
0.5 LW
N
73 374 M
507 374 L
S
GR
GS
0.149 GC
2 setlinecap
1 LJ
0.5 LW
N
73 31.5 M
507 31.5 L
S
GR
GS
0.149 GC
2 setlinecap
1 LJ
0.5 LW
N
110.609 374 M
110.609 369.66 L
S
GR
GS
0.149 GC
2 setlinecap
1 LJ
0.5 LW
N
159.242 374 M
159.242 369.66 L
S
GR
GS
0.149 GC
2 setlinecap
1 LJ
0.5 LW
N
207.874 374 M
207.874 369.66 L
S
GR
GS
0.149 GC
2 setlinecap
1 LJ
0.5 LW
N
256.506 374 M
256.506 369.66 L
S
GR
GS
0.149 GC
2 setlinecap
1 LJ
0.5 LW
N
305.138 374 M
305.138 369.66 L
S
GR
GS
0.149 GC
2 setlinecap
1 LJ
0.5 LW
N
353.77 374 M
353.77 369.66 L
S
GR
GS
0.149 GC
2 setlinecap
1 LJ
0.5 LW
N
402.402 374 M
402.402 369.66 L
S
GR
GS
0.149 GC
2 setlinecap
1 LJ
0.5 LW
N
451.034 374 M
451.034 369.66 L
S
GR
GS
0.149 GC
2 setlinecap
1 LJ
0.5 LW
N
499.667 374 M
499.667 369.66 L
S
GR
GS
0.149 GC
2 setlinecap
1 LJ
0.5 LW
N
110.609 31.5 M
110.609 35.84 L
S
GR
GS
0.149 GC
2 setlinecap
1 LJ
0.5 LW
N
159.242 31.5 M
159.242 35.84 L
S
GR
GS
0.149 GC
2 setlinecap
1 LJ
0.5 LW
N
207.874 31.5 M
207.874 35.84 L
S
GR
GS
0.149 GC
2 setlinecap
1 LJ
0.5 LW
N
256.506 31.5 M
256.506 35.84 L
S
GR
GS
0.149 GC
2 setlinecap
1 LJ
0.5 LW
N
305.138 31.5 M
305.138 35.84 L
S
GR
GS
0.149 GC
2 setlinecap
1 LJ
0.5 LW
N
353.77 31.5 M
353.77 35.84 L
S
GR
GS
0.149 GC
2 setlinecap
1 LJ
0.5 LW
N
402.402 31.5 M
402.402 35.84 L
S
GR
GS
0.149 GC
2 setlinecap
1 LJ
0.5 LW
N
451.034 31.5 M
451.034 35.84 L
S
GR
GS
0.149 GC
2 setlinecap
1 LJ
0.5 LW
N
499.667 31.5 M
499.667 35.84 L
S
GR
GS
0.149 GC
2 setlinecap
1 LJ
0.5 LW
N
74.135 374 M
74.135 371.83 L
S
GR
GS
0.149 GC
2 setlinecap
1 LJ
0.5 LW
N
86.293 374 M
86.293 371.83 L
S
GR
GS
0.149 GC
2 setlinecap
1 LJ
0.5 LW
N
98.451 374 M
98.451 371.83 L
S
GR
GS
0.149 GC
2 setlinecap
1 LJ
0.5 LW
N
122.767 374 M
122.767 371.83 L
S
GR
GS
0.149 GC
2 setlinecap
1 LJ
0.5 LW
N
134.925 374 M
134.925 371.83 L
S
GR
GS
0.149 GC
2 setlinecap
1 LJ
0.5 LW
N
147.083 374 M
147.083 371.83 L
S
GR
GS
0.149 GC
2 setlinecap
1 LJ
0.5 LW
N
171.4 374 M
171.4 371.83 L
S
GR
GS
0.149 GC
2 setlinecap
1 LJ
0.5 LW
N
183.558 374 M
183.558 371.83 L
S
GR
GS
0.149 GC
2 setlinecap
1 LJ
0.5 LW
N
195.716 374 M
195.716 371.83 L
S
GR
GS
0.149 GC
2 setlinecap
1 LJ
0.5 LW
N
220.032 374 M
220.032 371.83 L
S
GR
GS
0.149 GC
2 setlinecap
1 LJ
0.5 LW
N
232.19 374 M
232.19 371.83 L
S
GR
GS
0.149 GC
2 setlinecap
1 LJ
0.5 LW
N
244.348 374 M
244.348 371.83 L
S
GR
GS
0.149 GC
2 setlinecap
1 LJ
0.5 LW
N
268.664 374 M
268.664 371.83 L
S
GR
GS
0.149 GC
2 setlinecap
1 LJ
0.5 LW
N
280.822 374 M
280.822 371.83 L
S
GR
GS
0.149 GC
2 setlinecap
1 LJ
0.5 LW
N
292.98 374 M
292.98 371.83 L
S
GR
GS
0.149 GC
2 setlinecap
1 LJ
0.5 LW
N
317.296 374 M
317.296 371.83 L
S
GR
GS
0.149 GC
2 setlinecap
1 LJ
0.5 LW
N
329.454 374 M
329.454 371.83 L
S
GR
GS
0.149 GC
2 setlinecap
1 LJ
0.5 LW
N
341.612 374 M
341.612 371.83 L
S
GR
GS
0.149 GC
2 setlinecap
1 LJ
0.5 LW
N
365.928 374 M
365.928 371.83 L
S
GR
GS
0.149 GC
2 setlinecap
1 LJ
0.5 LW
N
378.086 374 M
378.086 371.83 L
S
GR
GS
0.149 GC
2 setlinecap
1 LJ
0.5 LW
N
390.244 374 M
390.244 371.83 L
S
GR
GS
0.149 GC
2 setlinecap
1 LJ
0.5 LW
N
414.56 374 M
414.56 371.83 L
S
GR
GS
0.149 GC
2 setlinecap
1 LJ
0.5 LW
N
426.718 374 M
426.718 371.83 L
S
GR
GS
0.149 GC
2 setlinecap
1 LJ
0.5 LW
N
438.876 374 M
438.876 371.83 L
S
GR
GS
0.149 GC
2 setlinecap
1 LJ
0.5 LW
N
463.192 374 M
463.192 371.83 L
S
GR
GS
0.149 GC
2 setlinecap
1 LJ
0.5 LW
N
475.35 374 M
475.35 371.83 L
S
GR
GS
0.149 GC
2 setlinecap
1 LJ
0.5 LW
N
487.509 374 M
487.509 371.83 L
S
GR
GS
0.149 GC
2 setlinecap
1 LJ
0.5 LW
N
74.135 31.5 M
74.135 33.67 L
S
GR
GS
0.149 GC
2 setlinecap
1 LJ
0.5 LW
N
86.293 31.5 M
86.293 33.67 L
S
GR
GS
0.149 GC
2 setlinecap
1 LJ
0.5 LW
N
98.451 31.5 M
98.451 33.67 L
S
GR
GS
0.149 GC
2 setlinecap
1 LJ
0.5 LW
N
122.767 31.5 M
122.767 33.67 L
S
GR
GS
0.149 GC
2 setlinecap
1 LJ
0.5 LW
N
134.925 31.5 M
134.925 33.67 L
S
GR
GS
0.149 GC
2 setlinecap
1 LJ
0.5 LW
N
147.083 31.5 M
147.083 33.67 L
S
GR
GS
0.149 GC
2 setlinecap
1 LJ
0.5 LW
N
171.4 31.5 M
171.4 33.67 L
S
GR
GS
0.149 GC
2 setlinecap
1 LJ
0.5 LW
N
183.558 31.5 M
183.558 33.67 L
S
GR
GS
0.149 GC
2 setlinecap
1 LJ
0.5 LW
N
195.716 31.5 M
195.716 33.67 L
S
GR
GS
0.149 GC
2 setlinecap
1 LJ
0.5 LW
N
220.032 31.5 M
220.032 33.67 L
S
GR
GS
0.149 GC
2 setlinecap
1 LJ
0.5 LW
N
232.19 31.5 M
232.19 33.67 L
S
GR
GS
0.149 GC
2 setlinecap
1 LJ
0.5 LW
N
244.348 31.5 M
244.348 33.67 L
S
GR
GS
0.149 GC
2 setlinecap
1 LJ
0.5 LW
N
268.664 31.5 M
268.664 33.67 L
S
GR
GS
0.149 GC
2 setlinecap
1 LJ
0.5 LW
N
280.822 31.5 M
280.822 33.67 L
S
GR
GS
0.149 GC
2 setlinecap
1 LJ
0.5 LW
N
292.98 31.5 M
292.98 33.67 L
S
GR
GS
0.149 GC
2 setlinecap
1 LJ
0.5 LW
N
317.296 31.5 M
317.296 33.67 L
S
GR
GS
0.149 GC
2 setlinecap
1 LJ
0.5 LW
N
329.454 31.5 M
329.454 33.67 L
S
GR
GS
0.149 GC
2 setlinecap
1 LJ
0.5 LW
N
341.612 31.5 M
341.612 33.67 L
S
GR
GS
0.149 GC
2 setlinecap
1 LJ
0.5 LW
N
365.928 31.5 M
365.928 33.67 L
S
GR
GS
0.149 GC
2 setlinecap
1 LJ
0.5 LW
N
378.086 31.5 M
378.086 33.67 L
S
GR
GS
0.149 GC
2 setlinecap
1 LJ
0.5 LW
N
390.244 31.5 M
390.244 33.67 L
S
GR
GS
0.149 GC
2 setlinecap
1 LJ
0.5 LW
N
414.56 31.5 M
414.56 33.67 L
S
GR
GS
0.149 GC
2 setlinecap
1 LJ
0.5 LW
N
426.718 31.5 M
426.718 33.67 L
S
GR
GS
0.149 GC
2 setlinecap
1 LJ
0.5 LW
N
438.876 31.5 M
438.876 33.67 L
S
GR
GS
0.149 GC
2 setlinecap
1 LJ
0.5 LW
N
463.192 31.5 M
463.192 33.67 L
S
GR
GS
0.149 GC
2 setlinecap
1 LJ
0.5 LW
N
475.35 31.5 M
475.35 33.67 L
S
GR
GS
0.149 GC
2 setlinecap
1 LJ
0.5 LW
N
487.509 31.5 M
487.509 33.67 L
S
GR
GS
[1 0 0 1 110.60934 378.79999] CT
0.149 GC
/Helvetica 14 F
GS
[1 0 0 1 0 0] CT
-16 14 moveto 
1 -1 scale
(2000) t 
GR
GR
GS
[1 0 0 1 159.2415 378.79999] CT
0.149 GC
/Helvetica 14 F
GS
[1 0 0 1 0 0] CT
-16 14 moveto 
1 -1 scale
(4000) t 
GR
GR
GS
[1 0 0 1 207.87364 378.79999] CT
0.149 GC
/Helvetica 14 F
GS
[1 0 0 1 0 0] CT
-16 14 moveto 
1 -1 scale
(6000) t 
GR
GR
GS
[1 0 0 1 256.5058 378.79999] CT
0.149 GC
/Helvetica 14 F
GS
[1 0 0 1 0 0] CT
-16 14 moveto 
1 -1 scale
(8000) t 
GR
GR
GS
[1 0 0 1 305.13797 378.79999] CT
0.149 GC
/Helvetica 14 F
GS
[1 0 0 1 0 0] CT
-19.5 14 moveto 
1 -1 scale
(10000) t 
GR
GR
GS
[1 0 0 1 353.77011 378.79999] CT
0.149 GC
/Helvetica 14 F
GS
[1 0 0 1 0 0] CT
-19.5 14 moveto 
1 -1 scale
(12000) t 
GR
GR
GS
[1 0 0 1 402.40225 378.79999] CT
0.149 GC
/Helvetica 14 F
GS
[1 0 0 1 0 0] CT
-19.5 14 moveto 
1 -1 scale
(14000) t 
GR
GR
GS
[1 0 0 1 451.03442 378.79999] CT
0.149 GC
/Helvetica 14 F
GS
[1 0 0 1 0 0] CT
-19.5 14 moveto 
1 -1 scale
(16000) t 
GR
GR
GS
[1 0 0 1 499.66656 378.79999] CT
0.149 GC
/Helvetica 14 F
GS
[1 0 0 1 0 0] CT
-19.5 14 moveto 
1 -1 scale
(18000) t 
GR
GR
GS
[1 0 0 1 290.00021 396.29999] CT
0.149 GC
/Helvetica 15.4 F
GS
[1 0 0 1 0 0] CT
-42 15 moveto 
1 -1 scale
(Bitrate\(kb/s\)) t 
GR
GR
GS
0.149 GC
2 setlinecap
1 LJ
0.5 LW
N
73 374 M
73 31.5 L
S
GR
GS
0.149 GC
2 setlinecap
1 LJ
0.5 LW
N
507 374 M
507 31.5 L
S
GR
GS
0.149 GC
2 setlinecap
1 LJ
0.5 LW
N
73 361.65 M
77.34 361.65 L
S
GR
GS
0.149 GC
2 setlinecap
1 LJ
0.5 LW
N
73 314.779 M
77.34 314.779 L
S
GR
GS
0.149 GC
2 setlinecap
1 LJ
0.5 LW
N
73 267.908 M
77.34 267.908 L
S
GR
GS
0.149 GC
2 setlinecap
1 LJ
0.5 LW
N
73 221.037 M
77.34 221.037 L
S
GR
GS
0.149 GC
2 setlinecap
1 LJ
0.5 LW
N
73 174.167 M
77.34 174.167 L
S
GR
GS
0.149 GC
2 setlinecap
1 LJ
0.5 LW
N
73 127.296 M
77.34 127.296 L
S
GR
GS
0.149 GC
2 setlinecap
1 LJ
0.5 LW
N
73 80.425 M
77.34 80.425 L
S
GR
GS
0.149 GC
2 setlinecap
1 LJ
0.5 LW
N
73 33.554 M
77.34 33.554 L
S
GR
GS
0.149 GC
2 setlinecap
1 LJ
0.5 LW
N
507 361.65 M
502.66 361.65 L
S
GR
GS
0.149 GC
2 setlinecap
1 LJ
0.5 LW
N
507 314.779 M
502.66 314.779 L
S
GR
GS
0.149 GC
2 setlinecap
1 LJ
0.5 LW
N
507 267.908 M
502.66 267.908 L
S
GR
GS
0.149 GC
2 setlinecap
1 LJ
0.5 LW
N
507 221.037 M
502.66 221.037 L
S
GR
GS
0.149 GC
2 setlinecap
1 LJ
0.5 LW
N
507 174.167 M
502.66 174.167 L
S
GR
GS
0.149 GC
2 setlinecap
1 LJ
0.5 LW
N
507 127.296 M
502.66 127.296 L
S
GR
GS
0.149 GC
2 setlinecap
1 LJ
0.5 LW
N
507 80.425 M
502.66 80.425 L
S
GR
GS
0.149 GC
2 setlinecap
1 LJ
0.5 LW
N
507 33.554 M
502.66 33.554 L
S
GR
GS
0.149 GC
2 setlinecap
1 LJ
0.5 LW
N
73 371.024 M
75.17 371.024 L
S
GR
GS
0.149 GC
2 setlinecap
1 LJ
0.5 LW
N
73 352.276 M
75.17 352.276 L
S
GR
GS
0.149 GC
2 setlinecap
1 LJ
0.5 LW
N
73 342.901 M
75.17 342.901 L
S
GR
GS
0.149 GC
2 setlinecap
1 LJ
0.5 LW
N
73 333.527 M
75.17 333.527 L
S
GR
GS
0.149 GC
2 setlinecap
1 LJ
0.5 LW
N
73 324.153 M
75.17 324.153 L
S
GR
GS
0.149 GC
2 setlinecap
1 LJ
0.5 LW
N
73 305.405 M
75.17 305.405 L
S
GR
GS
0.149 GC
2 setlinecap
1 LJ
0.5 LW
N
73 296.031 M
75.17 296.031 L
S
GR
GS
0.149 GC
2 setlinecap
1 LJ
0.5 LW
N
73 286.656 M
75.17 286.656 L
S
GR
GS
0.149 GC
2 setlinecap
1 LJ
0.5 LW
N
73 277.282 M
75.17 277.282 L
S
GR
GS
0.149 GC
2 setlinecap
1 LJ
0.5 LW
N
73 258.534 M
75.17 258.534 L
S
GR
GS
0.149 GC
2 setlinecap
1 LJ
0.5 LW
N
73 249.16 M
75.17 249.16 L
S
GR
GS
0.149 GC
2 setlinecap
1 LJ
0.5 LW
N
73 239.786 M
75.17 239.786 L
S
GR
GS
0.149 GC
2 setlinecap
1 LJ
0.5 LW
N
73 230.412 M
75.17 230.412 L
S
GR
GS
0.149 GC
2 setlinecap
1 LJ
0.5 LW
N
73 211.663 M
75.17 211.663 L
S
GR
GS
0.149 GC
2 setlinecap
1 LJ
0.5 LW
N
73 202.289 M
75.17 202.289 L
S
GR
GS
0.149 GC
2 setlinecap
1 LJ
0.5 LW
N
73 192.915 M
75.17 192.915 L
S
GR
GS
0.149 GC
2 setlinecap
1 LJ
0.5 LW
N
73 183.541 M
75.17 183.541 L
S
GR
GS
0.149 GC
2 setlinecap
1 LJ
0.5 LW
N
73 164.792 M
75.17 164.792 L
S
GR
GS
0.149 GC
2 setlinecap
1 LJ
0.5 LW
N
73 155.418 M
75.17 155.418 L
S
GR
GS
0.149 GC
2 setlinecap
1 LJ
0.5 LW
N
73 146.044 M
75.17 146.044 L
S
GR
GS
0.149 GC
2 setlinecap
1 LJ
0.5 LW
N
73 136.67 M
75.17 136.67 L
S
GR
GS
0.149 GC
2 setlinecap
1 LJ
0.5 LW
N
73 117.922 M
75.17 117.922 L
S
GR
GS
0.149 GC
2 setlinecap
1 LJ
0.5 LW
N
73 108.548 M
75.17 108.548 L
S
GR
GS
0.149 GC
2 setlinecap
1 LJ
0.5 LW
N
73 99.173 M
75.17 99.173 L
S
GR
GS
0.149 GC
2 setlinecap
1 LJ
0.5 LW
N
73 89.799 M
75.17 89.799 L
S
GR
GS
0.149 GC
2 setlinecap
1 LJ
0.5 LW
N
73 71.051 M
75.17 71.051 L
S
GR
GS
0.149 GC
2 setlinecap
1 LJ
0.5 LW
N
73 61.677 M
75.17 61.677 L
S
GR
GS
0.149 GC
2 setlinecap
1 LJ
0.5 LW
N
73 52.303 M
75.17 52.303 L
S
GR
GS
0.149 GC
2 setlinecap
1 LJ
0.5 LW
N
73 42.928 M
75.17 42.928 L
S
GR
GS
0.149 GC
2 setlinecap
1 LJ
0.5 LW
N
507 371.024 M
504.83 371.024 L
S
GR
GS
0.149 GC
2 setlinecap
1 LJ
0.5 LW
N
507 352.276 M
504.83 352.276 L
S
GR
GS
0.149 GC
2 setlinecap
1 LJ
0.5 LW
N
507 342.901 M
504.83 342.901 L
S
GR
GS
0.149 GC
2 setlinecap
1 LJ
0.5 LW
N
507 333.527 M
504.83 333.527 L
S
GR
GS
0.149 GC
2 setlinecap
1 LJ
0.5 LW
N
507 324.153 M
504.83 324.153 L
S
GR
GS
0.149 GC
2 setlinecap
1 LJ
0.5 LW
N
507 305.405 M
504.83 305.405 L
S
GR
GS
0.149 GC
2 setlinecap
1 LJ
0.5 LW
N
507 296.031 M
504.83 296.031 L
S
GR
GS
0.149 GC
2 setlinecap
1 LJ
0.5 LW
N
507 286.656 M
504.83 286.656 L
S
GR
GS
0.149 GC
2 setlinecap
1 LJ
0.5 LW
N
507 277.282 M
504.83 277.282 L
S
GR
GS
0.149 GC
2 setlinecap
1 LJ
0.5 LW
N
507 258.534 M
504.83 258.534 L
S
GR
GS
0.149 GC
2 setlinecap
1 LJ
0.5 LW
N
507 249.16 M
504.83 249.16 L
S
GR
GS
0.149 GC
2 setlinecap
1 LJ
0.5 LW
N
507 239.786 M
504.83 239.786 L
S
GR
GS
0.149 GC
2 setlinecap
1 LJ
0.5 LW
N
507 230.412 M
504.83 230.412 L
S
GR
GS
0.149 GC
2 setlinecap
1 LJ
0.5 LW
N
507 211.663 M
504.83 211.663 L
S
GR
GS
0.149 GC
2 setlinecap
1 LJ
0.5 LW
N
507 202.289 M
504.83 202.289 L
S
GR
GS
0.149 GC
2 setlinecap
1 LJ
0.5 LW
N
507 192.915 M
504.83 192.915 L
S
GR
GS
0.149 GC
2 setlinecap
1 LJ
0.5 LW
N
507 183.541 M
504.83 183.541 L
S
GR
GS
0.149 GC
2 setlinecap
1 LJ
0.5 LW
N
507 164.792 M
504.83 164.792 L
S
GR
GS
0.149 GC
2 setlinecap
1 LJ
0.5 LW
N
507 155.418 M
504.83 155.418 L
S
GR
GS
0.149 GC
2 setlinecap
1 LJ
0.5 LW
N
507 146.044 M
504.83 146.044 L
S
GR
GS
0.149 GC
2 setlinecap
1 LJ
0.5 LW
N
507 136.67 M
504.83 136.67 L
S
GR
GS
0.149 GC
2 setlinecap
1 LJ
0.5 LW
N
507 117.922 M
504.83 117.922 L
S
GR
GS
0.149 GC
2 setlinecap
1 LJ
0.5 LW
N
507 108.548 M
504.83 108.548 L
S
GR
GS
0.149 GC
2 setlinecap
1 LJ
0.5 LW
N
507 99.173 M
504.83 99.173 L
S
GR
GS
0.149 GC
2 setlinecap
1 LJ
0.5 LW
N
507 89.799 M
504.83 89.799 L
S
GR
GS
0.149 GC
2 setlinecap
1 LJ
0.5 LW
N
507 71.051 M
504.83 71.051 L
S
GR
GS
0.149 GC
2 setlinecap
1 LJ
0.5 LW
N
507 61.677 M
504.83 61.677 L
S
GR
GS
0.149 GC
2 setlinecap
1 LJ
0.5 LW
N
507 52.303 M
504.83 52.303 L
S
GR
GS
0.149 GC
2 setlinecap
1 LJ
0.5 LW
N
507 42.928 M
504.83 42.928 L
S
GR
GS
[1 0 0 1 68.2 361.64975] CT
0.149 GC
/Helvetica 14 F
GS
[1 0 0 1 0 0] CT
-16 5.5 moveto 
1 -1 scale
(60) t 
GR
GR
GS
[1 0 0 1 68.2 314.77896] CT
0.149 GC
/Helvetica 14 F
GS
[1 0 0 1 0 0] CT
-16 5.5 moveto 
1 -1 scale
(65) t 
GR
GR
GS
[1 0 0 1 68.2 267.9082] CT
0.149 GC
/Helvetica 14 F
GS
[1 0 0 1 0 0] CT
-16 5.5 moveto 
1 -1 scale
(70) t 
GR
GR
GS
[1 0 0 1 68.2 221.03743] CT
0.149 GC
/Helvetica 14 F
GS
[1 0 0 1 0 0] CT
-16 5.5 moveto 
1 -1 scale
(75) t 
GR
GR
GS
[1 0 0 1 68.2 174.16664] CT
0.149 GC
/Helvetica 14 F
GS
[1 0 0 1 0 0] CT
-16 5.5 moveto 
1 -1 scale
(80) t 
GR
GR
GS
[1 0 0 1 68.2 127.29588] CT
0.149 GC
/Helvetica 14 F
GS
[1 0 0 1 0 0] CT
-16 5.5 moveto 
1 -1 scale
(85) t 
GR
GR
GS
[1 0 0 1 68.2 80.42509] CT
0.149 GC
/Helvetica 14 F
GS
[1 0 0 1 0 0] CT
-16 5.5 moveto 
1 -1 scale
(90) t 
GR
GR
GS
[1 0 0 1 68.2 33.55432] CT
0.149 GC
/Helvetica 14 F
GS
[1 0 0 1 0 0] CT
-16 5.5 moveto 
1 -1 scale
(95) t 
GR
GR
GS
[0 -1 1 0 49.2 202.74983] CT
0.149 GC
/Helvetica 15.4 F
GS
[1 0 0 1 0 0] CT
-21 -4 moveto 
1 -1 scale
(VMAF) t 
GR
GR
GS
[1 0 0 1 290.00027 29.575] CT
/Helvetica-Bold 15.4 F
GS
[1 0 0 1 0 0] CT
-148.5 -4 moveto 
1 -1 scale
(OldTownCross_1920x1080p50.y4m-hevc) t 
GR
GR
GS
0 0.447 0.741 RC
1 LJ
0.5 LW
N
73.65 359.978 M
74.136 350.936 L
74.623 341.921 L
75.109 332.953 L
75.595 324.055 L
76.082 315.246 L
76.568 306.549 L
77.054 297.984 L
77.541 289.573 L
78.027 281.336 L
78.513 273.296 L
78.999 265.472 L
79.486 257.886 L
79.972 250.559 L
80.458 243.513 L
80.945 236.768 L
81.431 230.346 L
81.917 224.268 L
82.404 218.554 L
82.89 213.227 L
83.376 208.307 L
83.863 203.815 L
84.349 199.772 L
84.835 196.062 L
85.322 192.43 L
85.808 188.87 L
86.294 185.381 L
86.781 181.965 L
87.267 178.62 L
87.753 175.348 L
88.24 172.147 L
88.726 169.017 L
89.212 165.96 L
89.699 162.974 L
90.185 160.059 L
90.671 157.216 L
91.158 154.444 L
91.644 151.744 L
92.13 149.116 L
92.616 146.558 L
93.103 144.072 L
93.589 141.657 L
94.075 139.313 L
94.562 137.041 L
95.048 134.839 L
95.534 132.709 L
96.021 130.649 L
96.507 128.66 L
96.993 126.743 L
97.48 124.896 L
97.966 123.12 L
98.452 121.415 L
98.939 119.78 L
99.425 118.217 L
99.911 116.723 L
100.398 115.301 L
100.884 113.949 L
101.37 112.667 L
101.857 111.456 L
102.343 110.315 L
102.829 109.245 L
103.316 108.238 L
103.802 107.25 L
104.288 106.272 L
104.775 105.306 L
105.261 104.349 L
105.747 103.404 L
106.233 102.469 L
106.72 101.544 L
107.206 100.63 L
107.692 99.727 L
108.179 98.835 L
108.665 97.953 L
109.151 97.082 L
109.638 96.222 L
110.124 95.372 L
110.61 94.533 L
111.097 93.704 L
111.583 92.886 L
112.069 92.079 L
112.556 91.283 L
113.042 90.497 L
113.528 89.722 L
114.015 88.957 L
114.501 88.204 L
114.987 87.461 L
115.474 86.728 L
115.96 86.007 L
116.446 85.296 L
116.933 84.595 L
117.419 83.906 L
117.905 83.227 L
118.392 82.559 L
118.878 81.902 L
119.364 81.255 L
119.85 80.619 L
120.337 79.994 L
120.823 79.379 L
121.309 78.776 L
121.796 78.183 L
122.282 77.601 L
122.768 77.029 L
123.255 76.468 L
123.741 75.918 L
124.227 75.379 L
124.714 74.851 L
125.2 74.333 L
125.686 73.826 L
126.173 73.33 L
126.659 72.845 L
127.145 72.37 L
127.632 71.906 L
128.118 71.453 L
128.604 71.011 L
129.091 70.579 L
129.577 70.159 L
130.063 69.749 L
130.55 69.35 L
131.036 68.962 L
131.522 68.584 L
132.009 68.218 L
132.495 67.862 L
132.981 67.517 L
133.467 67.183 L
133.954 66.859 L
134.44 66.547 L
134.926 66.245 L
135.413 65.954 L
135.899 65.674 L
136.385 65.405 L
136.872 65.147 L
137.358 64.899 L
137.844 64.663 L
138.331 64.437 L
138.817 64.222 L
139.303 64.018 L
139.79 63.825 L
140.276 63.642 L
140.762 63.471 L
141.249 63.31 L
141.735 63.155 L
142.221 63 L
142.708 62.846 L
143.194 62.693 L
143.68 62.54 L
144.167 62.387 L
144.653 62.235 L
145.139 62.083 L
145.626 61.932 L
146.112 61.782 L
146.598 61.632 L
147.085 61.482 L
147.571 61.333 L
148.057 61.185 L
148.543 61.037 L
149.03 60.889 L
149.516 60.742 L
150.002 60.596 L
150.489 60.45 L
150.975 60.304 L
151.461 60.159 L
151.948 60.015 L
152.434 59.871 L
152.92 59.728 L
153.407 59.585 L
153.893 59.442 L
154.379 59.301 L
154.866 59.159 L
155.352 59.018 L
155.838 58.878 L
156.325 58.738 L
156.811 58.599 L
157.297 58.46 L
157.784 58.322 L
158.27 58.184 L
158.756 58.046 L
159.243 57.909 L
159.729 57.773 L
160.215 57.637 L
160.702 57.502 L
161.188 57.367 L
161.674 57.233 L
162.16 57.099 L
162.647 56.966 L
163.133 56.833 L
163.619 56.7 L
164.106 56.569 L
164.592 56.437 L
165.078 56.306 L
165.565 56.176 L
166.051 56.046 L
166.537 55.917 L
167.024 55.788 L
167.51 55.659 L
167.996 55.532 L
168.483 55.404 L
168.969 55.277 L
169.455 55.151 L
169.942 55.025 L
170.428 54.899 L
170.914 54.775 L
171.401 54.65 L
171.887 54.526 L
172.373 54.403 L
172.86 54.28 L
173.346 54.157 L
173.832 54.035 L
174.319 53.914 L
174.805 53.793 L
175.291 53.672 L
175.777 53.552 L
176.264 53.433 L
176.75 53.313 L
177.236 53.195 L
177.723 53.077 L
178.209 52.959 L
178.695 52.842 L
179.182 52.725 L
179.668 52.609 L
180.154 52.493 L
180.641 52.378 L
181.127 52.264 L
181.613 52.149 L
182.1 52.036 L
182.586 51.922 L
183.072 51.809 L
183.559 51.697 L
184.045 51.585 L
184.531 51.474 L
185.018 51.363 L
185.504 51.253 L
185.99 51.143 L
186.477 51.033 L
186.963 50.924 L
187.449 50.816 L
187.936 50.708 L
188.422 50.6 L
188.908 50.493 L
189.394 50.386 L
189.881 50.28 L
190.367 50.175 L
190.853 50.07 L
191.34 49.965 L
191.826 49.861 L
192.312 49.757 L
192.799 49.654 L
193.285 49.551 L
193.771 49.448 L
194.258 49.346 L
194.744 49.245 L
195.23 49.144 L
195.717 49.044 L
196.203 48.944 L
196.689 48.844 L
197.176 48.745 L
197.662 48.646 L
198.148 48.548 L
198.635 48.451 L
199.121 48.353 L
199.607 48.257 L
200.094 48.16 L
200.58 48.065 L
201.066 47.969 L
201.553 47.874 L
202.039 47.78 L
202.525 47.686 L
203.011 47.592 L
203.498 47.499 L
203.984 47.407 L
204.47 47.315 L
204.957 47.223 L
205.443 47.132 L
205.929 47.041 L
206.416 46.951 L
206.902 46.861 L
207.388 46.772 L
207.875 46.683 L
208.361 46.594 L
208.847 46.506 L
209.334 46.419 L
209.82 46.332 L
210.306 46.245 L
210.793 46.159 L
211.279 46.073 L
211.765 45.988 L
212.252 45.903 L
212.738 45.819 L
213.224 45.735 L
213.711 45.651 L
214.197 45.568 L
214.683 45.486 L
215.17 45.404 L
215.656 45.322 L
216.142 45.241 L
216.628 45.16 L
217.115 45.08 L
217.601 45 L
218.087 44.921 L
218.574 44.842 L
219.06 44.763 L
219.546 44.685 L
220.033 44.608 L
220.519 44.53 L
221.005 44.454 L
221.492 44.377 L
221.978 44.302 L
222.464 44.226 L
222.951 44.151 L
223.437 44.077 L
223.923 44.003 L
224.41 43.929 L
224.896 43.856 L
225.382 43.783 L
225.869 43.711 L
226.355 43.639 L
226.841 43.568 L
227.328 43.497 L
227.814 43.426 L
228.3 43.356 L
228.787 43.287 L
229.273 43.217 L
229.759 43.149 L
230.245 43.08 L
230.732 43.012 L
231.218 42.945 L
231.704 42.878 L
232.191 42.811 L
232.677 42.745 L
233.163 42.679 L
233.65 42.614 L
234.136 42.549 L
234.622 42.485 L
235.109 42.421 L
235.595 42.357 L
236.081 42.294 L
236.568 42.232 L
237.054 42.169 L
237.54 42.107 L
238.027 42.046 L
238.513 41.985 L
238.999 41.925 L
239.486 41.864 L
239.972 41.805 L
240.458 41.746 L
240.945 41.687 L
241.431 41.628 L
241.917 41.57 L
242.404 41.513 L
242.89 41.456 L
243.376 41.399 L
243.862 41.343 L
244.349 41.287 L
244.835 41.231 L
245.321 41.177 L
245.808 41.122 L
246.294 41.068 L
246.78 41.014 L
247.267 40.961 L
247.753 40.908 L
248.239 40.855 L
248.726 40.803 L
249.212 40.752 L
249.698 40.701 L
250.185 40.65 L
250.671 40.599 L
251.157 40.549 L
251.644 40.5 L
252.13 40.451 L
252.616 40.402 L
253.103 40.354 L
253.589 40.306 L
254.075 40.259 L
254.562 40.212 L
255.048 40.165 L
255.534 40.119 L
256.021 40.073 L
256.507 40.028 L
256.993 39.983 L
257.479 39.938 L
257.966 39.894 L
258.452 39.85 L
258.938 39.807 L
259.425 39.764 L
259.911 39.722 L
260.397 39.68 L
260.884 39.638 L
261.37 39.597 L
261.856 39.556 L
262.343 39.515 L
262.829 39.475 L
263.315 39.436 L
263.802 39.396 L
264.288 39.358 L
264.774 39.319 L
265.261 39.281 L
265.747 39.244 L
266.233 39.206 L
266.72 39.17 L
267.206 39.133 L
267.692 39.097 L
268.179 39.062 L
268.665 39.026 L
269.151 38.992 L
269.638 38.957 L
270.124 38.923 L
270.61 38.89 L
271.096 38.857 L
271.583 38.824 L
272.069 38.792 L
272.555 38.76 L
273.042 38.728 L
273.528 38.697 L
274.014 38.666 L
274.501 38.636 L
274.987 38.606 L
275.473 38.576 L
275.96 38.547 L
276.446 38.518 L
276.932 38.49 L
277.419 38.462 L
277.905 38.434 L
278.391 38.407 L
278.878 38.38 L
279.364 38.354 L
279.85 38.328 L
280.337 38.302 L
280.823 38.277 L
281.309 38.252 L
281.796 38.227 L
282.282 38.203 L
282.768 38.18 L
283.255 38.156 L
283.741 38.133 L
284.227 38.111 L
284.714 38.089 L
285.2 38.067 L
285.686 38.046 L
286.172 38.025 L
286.659 38.004 L
287.145 37.984 L
287.631 37.964 L
288.118 37.945 L
288.604 37.925 L
289.09 37.907 L
289.577 37.889 L
290.063 37.871 L
290.549 37.853 L
291.036 37.836 L
291.522 37.819 L
292.008 37.803 L
292.495 37.787 L
292.981 37.771 L
293.467 37.756 L
293.954 37.741 L
294.44 37.727 L
294.926 37.713 L
295.413 37.699 L
295.899 37.685 L
296.385 37.673 L
296.872 37.66 L
297.358 37.648 L
297.844 37.636 L
298.331 37.624 L
298.817 37.613 L
299.303 37.603 L
299.789 37.592 L
300.276 37.582 L
300.762 37.573 L
301.248 37.564 L
301.735 37.555 L
302.221 37.546 L
302.707 37.538 L
303.194 37.53 L
303.68 37.523 L
304.166 37.516 L
304.653 37.51 L
305.139 37.503 L
305.625 37.497 L
306.112 37.492 L
306.598 37.487 L
307.084 37.482 L
307.571 37.478 L
308.057 37.474 L
308.543 37.47 L
309.03 37.467 L
309.516 37.464 L
310.002 37.461 L
310.489 37.459 L
310.975 37.457 L
311.461 37.456 L
311.948 37.454 L
312.434 37.454 L
312.92 37.453 L
S
GR
GS
0.851 0.325 0.098 RC
1 LJ
0.5 LW
N
74.053 350.956 M
74.54 342.23 L
75.026 333.527 L
75.512 324.865 L
75.999 316.266 L
76.485 307.75 L
76.971 299.337 L
77.457 291.047 L
77.944 282.901 L
78.43 274.92 L
78.916 267.122 L
79.403 259.53 L
79.889 252.162 L
80.375 245.04 L
80.862 238.183 L
81.348 231.612 L
81.834 225.348 L
82.321 219.41 L
82.807 213.818 L
83.293 208.595 L
83.78 203.758 L
84.266 199.329 L
84.752 195.329 L
85.239 191.74 L
85.725 188.284 L
86.211 184.896 L
86.698 181.577 L
87.184 178.326 L
87.67 175.143 L
88.157 172.029 L
88.643 168.982 L
89.129 166.003 L
89.616 163.091 L
90.102 160.247 L
90.588 157.47 L
91.074 154.76 L
91.561 152.117 L
92.047 149.541 L
92.533 147.031 L
93.02 144.588 L
93.506 142.21 L
93.992 139.899 L
94.479 137.653 L
94.965 135.474 L
95.451 133.359 L
95.938 131.31 L
96.424 129.326 L
96.91 127.407 L
97.397 125.553 L
97.883 123.764 L
98.369 122.038 L
98.856 120.378 L
99.342 118.781 L
99.828 117.248 L
100.315 115.779 L
100.801 114.374 L
101.287 113.032 L
101.774 111.753 L
102.26 110.538 L
102.746 109.385 L
103.233 108.295 L
103.719 107.268 L
104.205 106.303 L
104.691 105.37 L
105.178 104.446 L
105.664 103.532 L
106.15 102.627 L
106.637 101.731 L
107.123 100.846 L
107.609 99.969 L
108.096 99.103 L
108.582 98.246 L
109.068 97.398 L
109.555 96.561 L
110.041 95.732 L
110.527 94.914 L
111.014 94.105 L
111.5 93.305 L
111.986 92.515 L
112.473 91.735 L
112.959 90.965 L
113.445 90.204 L
113.932 89.453 L
114.418 88.711 L
114.904 87.979 L
115.391 87.257 L
115.877 86.545 L
116.363 85.842 L
116.85 85.149 L
117.336 84.466 L
117.822 83.792 L
118.308 83.129 L
118.795 82.475 L
119.281 81.83 L
119.767 81.196 L
120.254 80.571 L
120.74 79.956 L
121.226 79.351 L
121.713 78.756 L
122.199 78.17 L
122.685 77.595 L
123.172 77.029 L
123.658 76.473 L
124.144 75.927 L
124.631 75.391 L
125.117 74.864 L
125.603 74.348 L
126.09 73.841 L
126.576 73.344 L
127.062 72.857 L
127.549 72.38 L
128.035 71.913 L
128.521 71.456 L
129.008 71.009 L
129.494 70.572 L
129.98 70.144 L
130.467 69.727 L
130.953 69.32 L
131.439 68.922 L
131.925 68.535 L
132.412 68.157 L
132.898 67.79 L
133.384 67.433 L
133.871 67.085 L
134.357 66.748 L
134.843 66.421 L
135.33 66.103 L
135.816 65.796 L
136.302 65.499 L
136.789 65.212 L
137.275 64.935 L
137.761 64.668 L
138.248 64.411 L
138.734 64.165 L
139.22 63.928 L
139.707 63.702 L
140.193 63.485 L
140.679 63.279 L
141.166 63.083 L
141.652 62.897 L
142.138 62.722 L
142.625 62.556 L
143.111 62.401 L
143.597 62.256 L
144.084 62.116 L
144.57 61.976 L
145.056 61.836 L
145.542 61.698 L
146.029 61.559 L
146.515 61.421 L
147.001 61.283 L
147.488 61.146 L
147.974 61.009 L
148.46 60.873 L
148.947 60.737 L
149.433 60.601 L
149.919 60.466 L
150.406 60.332 L
150.892 60.197 L
151.378 60.063 L
151.865 59.93 L
152.351 59.797 L
152.837 59.664 L
153.324 59.532 L
153.81 59.4 L
154.296 59.269 L
154.783 59.138 L
155.269 59.008 L
155.755 58.878 L
156.242 58.748 L
156.728 58.619 L
157.214 58.49 L
157.701 58.361 L
158.187 58.233 L
158.673 58.106 L
159.159 57.978 L
159.646 57.852 L
160.132 57.725 L
160.618 57.599 L
161.105 57.474 L
161.591 57.349 L
162.077 57.224 L
162.564 57.1 L
163.05 56.976 L
163.536 56.852 L
164.023 56.729 L
164.509 56.607 L
164.995 56.484 L
165.482 56.362 L
165.968 56.241 L
166.454 56.12 L
166.941 55.999 L
167.427 55.879 L
167.913 55.759 L
168.4 55.64 L
168.886 55.521 L
169.372 55.402 L
169.859 55.284 L
170.345 55.166 L
170.831 55.049 L
171.318 54.932 L
171.804 54.816 L
172.29 54.699 L
172.777 54.584 L
173.263 54.468 L
173.749 54.353 L
174.235 54.239 L
174.722 54.125 L
175.208 54.011 L
175.694 53.898 L
176.181 53.785 L
176.667 53.672 L
177.153 53.56 L
177.64 53.448 L
178.126 53.337 L
178.612 53.226 L
179.099 53.115 L
179.585 53.005 L
180.071 52.895 L
180.558 52.786 L
181.044 52.677 L
181.53 52.568 L
182.017 52.46 L
182.503 52.352 L
182.989 52.245 L
183.476 52.138 L
183.962 52.031 L
184.448 51.925 L
184.935 51.819 L
185.421 51.714 L
185.907 51.609 L
186.394 51.504 L
186.88 51.4 L
187.366 51.296 L
187.852 51.193 L
188.339 51.09 L
188.825 50.987 L
189.311 50.885 L
189.798 50.783 L
190.284 50.681 L
190.77 50.58 L
191.257 50.479 L
191.743 50.379 L
192.229 50.279 L
192.716 50.179 L
193.202 50.08 L
193.688 49.981 L
194.175 49.883 L
194.661 49.785 L
195.147 49.687 L
195.634 49.59 L
196.12 49.493 L
196.606 49.397 L
197.093 49.3 L
197.579 49.205 L
198.065 49.109 L
198.552 49.014 L
199.038 48.92 L
199.524 48.826 L
200.011 48.732 L
200.497 48.638 L
200.983 48.545 L
201.469 48.452 L
201.956 48.36 L
202.442 48.268 L
202.928 48.177 L
203.415 48.086 L
203.901 47.995 L
204.387 47.904 L
204.874 47.814 L
205.36 47.725 L
205.846 47.635 L
206.333 47.546 L
206.819 47.458 L
207.305 47.37 L
207.792 47.282 L
208.278 47.194 L
208.764 47.107 L
209.251 47.021 L
209.737 46.934 L
210.223 46.849 L
210.71 46.763 L
211.196 46.678 L
211.682 46.593 L
212.169 46.509 L
212.655 46.424 L
213.141 46.341 L
213.628 46.257 L
214.114 46.175 L
214.6 46.092 L
215.086 46.01 L
215.573 45.928 L
216.059 45.846 L
216.545 45.765 L
217.032 45.684 L
217.518 45.604 L
218.004 45.524 L
218.491 45.444 L
218.977 45.365 L
219.463 45.286 L
219.95 45.208 L
220.436 45.129 L
220.922 45.052 L
221.409 44.974 L
221.895 44.897 L
222.381 44.82 L
222.868 44.744 L
223.354 44.668 L
223.84 44.592 L
224.327 44.517 L
224.813 44.442 L
225.299 44.367 L
225.786 44.293 L
226.272 44.219 L
226.758 44.146 L
227.245 44.073 L
227.731 44 L
228.217 43.928 L
228.703 43.856 L
229.19 43.784 L
229.676 43.712 L
230.162 43.641 L
230.649 43.571 L
231.135 43.501 L
231.621 43.431 L
232.108 43.361 L
232.594 43.292 L
233.08 43.223 L
233.567 43.154 L
234.053 43.086 L
234.539 43.019 L
235.026 42.951 L
235.512 42.884 L
235.998 42.817 L
236.485 42.751 L
236.971 42.685 L
237.457 42.619 L
237.944 42.554 L
238.43 42.489 L
238.916 42.424 L
239.403 42.36 L
239.889 42.296 L
240.375 42.232 L
240.862 42.169 L
241.348 42.106 L
241.834 42.044 L
242.32 41.981 L
242.807 41.92 L
243.293 41.858 L
243.779 41.797 L
244.266 41.736 L
244.752 41.676 L
245.238 41.615 L
245.725 41.556 L
246.211 41.496 L
246.697 41.437 L
247.184 41.378 L
247.67 41.32 L
248.156 41.262 L
248.643 41.204 L
249.129 41.147 L
249.615 41.09 L
250.102 41.033 L
250.588 40.977 L
251.074 40.921 L
251.561 40.865 L
252.047 40.809 L
252.533 40.754 L
253.02 40.7 L
253.506 40.645 L
253.992 40.591 L
254.479 40.538 L
254.965 40.484 L
255.451 40.431 L
255.937 40.379 L
256.424 40.326 L
256.91 40.274 L
257.396 40.223 L
257.883 40.171 L
258.369 40.12 L
258.855 40.07 L
259.342 40.019 L
259.828 39.969 L
260.314 39.92 L
260.801 39.87 L
261.287 39.821 L
261.773 39.773 L
262.26 39.724 L
262.746 39.676 L
263.232 39.629 L
263.719 39.581 L
264.205 39.534 L
264.691 39.488 L
265.178 39.441 L
265.664 39.395 L
266.15 39.35 L
266.637 39.304 L
267.123 39.259 L
267.609 39.214 L
268.096 39.17 L
268.582 39.126 L
269.068 39.082 L
269.554 39.039 L
270.041 38.996 L
270.527 38.953 L
271.013 38.91 L
271.5 38.868 L
271.986 38.826 L
272.472 38.785 L
272.959 38.744 L
273.445 38.703 L
273.931 38.663 L
274.418 38.622 L
274.904 38.582 L
275.39 38.543 L
275.877 38.504 L
276.363 38.465 L
276.849 38.426 L
277.336 38.388 L
277.822 38.35 L
278.308 38.312 L
278.795 38.275 L
279.281 38.238 L
279.767 38.201 L
280.254 38.165 L
280.74 38.129 L
281.226 38.093 L
281.713 38.057 L
282.199 38.022 L
282.685 37.988 L
283.171 37.953 L
283.658 37.919 L
284.144 37.885 L
284.63 37.851 L
285.117 37.818 L
285.603 37.785 L
286.089 37.753 L
286.576 37.72 L
287.062 37.688 L
287.548 37.657 L
288.035 37.625 L
288.521 37.594 L
289.007 37.563 L
289.494 37.533 L
289.98 37.503 L
290.466 37.473 L
290.953 37.443 L
291.439 37.414 L
291.925 37.385 L
292.412 37.357 L
292.898 37.328 L
293.384 37.3 L
293.871 37.273 L
294.357 37.245 L
294.843 37.218 L
295.33 37.191 L
295.816 37.165 L
296.302 37.139 L
296.788 37.113 L
297.275 37.087 L
297.761 37.062 L
298.247 37.037 L
298.734 37.012 L
299.22 36.988 L
299.706 36.964 L
300.193 36.94 L
300.679 36.917 L
301.165 36.893 L
301.652 36.871 L
302.138 36.848 L
302.624 36.826 L
303.111 36.804 L
303.597 36.782 L
304.083 36.761 L
304.57 36.74 L
305.056 36.719 L
305.542 36.698 L
306.029 36.678 L
306.515 36.658 L
307.001 36.639 L
307.488 36.619 L
307.974 36.6 L
308.46 36.582 L
308.947 36.563 L
309.433 36.545 L
309.919 36.527 L
310.405 36.509 L
310.892 36.492 L
311.378 36.475 L
311.864 36.458 L
312.351 36.442 L
312.837 36.426 L
313.323 36.41 L
313.81 36.395 L
314.296 36.379 L
314.782 36.364 L
315.269 36.35 L
315.755 36.335 L
316.241 36.321 L
316.728 36.307 L
317.214 36.294 L
317.7 36.281 L
318.187 36.268 L
318.673 36.255 L
319.159 36.243 L
319.646 36.231 L
320.132 36.219 L
320.618 36.207 L
321.105 36.196 L
321.591 36.185 L
322.077 36.174 L
322.564 36.164 L
323.05 36.154 L
323.536 36.144 L
324.022 36.134 L
324.509 36.125 L
324.995 36.116 L
325.481 36.107 L
325.968 36.099 L
326.454 36.091 L
326.94 36.083 L
327.427 36.075 L
327.913 36.068 L
328.399 36.061 L
328.886 36.054 L
329.372 36.048 L
329.858 36.041 L
330.345 36.035 L
330.831 36.03 L
331.317 36.024 L
331.804 36.019 L
332.29 36.014 L
332.776 36.01 L
333.263 36.005 L
333.749 36.001 L
334.235 35.998 L
334.722 35.994 L
335.208 35.991 L
335.694 35.988 L
336.181 35.985 L
336.667 35.983 L
337.153 35.981 L
337.639 35.979 L
338.126 35.977 L
338.612 35.976 L
339.098 35.975 L
339.585 35.974 L
340.071 35.974 L
340.557 35.973 L
S
GR
GS
0.929 0.694 0.125 RC
1 LJ
0.5 LW
N
73 374 M
73.486 364.246 L
73.973 354.522 L
74.459 344.852 L
74.945 335.26 L
75.432 325.772 L
75.918 316.41 L
76.404 307.199 L
76.891 298.165 L
77.377 289.329 L
77.863 280.718 L
78.35 272.355 L
78.836 264.264 L
79.322 256.47 L
79.809 248.997 L
80.295 241.87 L
80.781 235.111 L
81.267 228.746 L
81.754 222.8 L
82.24 217.295 L
82.726 212.256 L
83.213 207.709 L
83.699 203.627 L
84.185 199.69 L
84.672 195.833 L
85.158 192.057 L
85.644 188.36 L
86.131 184.743 L
86.617 181.206 L
87.103 177.748 L
87.59 174.371 L
88.076 171.073 L
88.562 167.854 L
89.049 164.715 L
89.535 161.655 L
90.021 158.674 L
90.508 155.773 L
90.994 152.951 L
91.48 150.208 L
91.967 147.543 L
92.453 144.958 L
92.939 142.451 L
93.426 140.023 L
93.912 137.674 L
94.398 135.403 L
94.884 133.211 L
95.371 131.097 L
95.857 129.061 L
96.343 127.104 L
96.83 125.225 L
97.316 123.424 L
97.802 121.7 L
98.289 120.055 L
98.775 118.488 L
99.261 116.998 L
99.748 115.586 L
100.234 114.251 L
100.72 112.994 L
101.207 111.815 L
101.693 110.711 L
102.179 109.641 L
102.666 108.583 L
103.152 107.537 L
103.638 106.502 L
104.125 105.48 L
104.611 104.469 L
105.097 103.47 L
105.584 102.483 L
106.07 101.508 L
106.556 100.545 L
107.043 99.594 L
107.529 98.654 L
108.015 97.727 L
108.501 96.811 L
108.988 95.908 L
109.474 95.017 L
109.96 94.137 L
110.447 93.27 L
110.933 92.414 L
111.419 91.571 L
111.906 90.739 L
112.392 89.92 L
112.878 89.112 L
113.365 88.317 L
113.851 87.534 L
114.337 86.763 L
114.824 86.003 L
115.31 85.257 L
115.796 84.522 L
116.283 83.799 L
116.769 83.088 L
117.255 82.39 L
117.742 81.703 L
118.228 81.029 L
118.714 80.367 L
119.201 79.717 L
119.687 79.08 L
120.173 78.454 L
120.66 77.841 L
121.146 77.24 L
121.632 76.651 L
122.118 76.075 L
122.605 75.51 L
123.091 74.958 L
123.577 74.419 L
124.064 73.891 L
124.55 73.376 L
125.036 72.873 L
125.523 72.383 L
126.009 71.904 L
126.495 71.439 L
126.982 70.985 L
127.468 70.544 L
127.954 70.115 L
128.441 69.699 L
128.927 69.295 L
129.413 68.903 L
129.9 68.524 L
130.386 68.157 L
130.872 67.802 L
131.359 67.46 L
131.845 67.131 L
132.331 66.814 L
132.818 66.509 L
133.304 66.217 L
133.79 65.938 L
134.277 65.671 L
134.763 65.416 L
135.249 65.174 L
135.735 64.944 L
136.222 64.727 L
136.708 64.523 L
137.194 64.331 L
137.681 64.152 L
138.167 63.984 L
138.653 63.818 L
139.14 63.653 L
139.626 63.488 L
140.112 63.324 L
140.599 63.16 L
141.085 62.997 L
141.571 62.835 L
142.058 62.673 L
142.544 62.512 L
143.03 62.351 L
143.517 62.191 L
144.003 62.031 L
144.489 61.872 L
144.976 61.714 L
145.462 61.556 L
145.948 61.399 L
146.435 61.242 L
146.921 61.086 L
147.407 60.93 L
147.894 60.775 L
148.38 60.62 L
148.866 60.467 L
149.352 60.313 L
149.839 60.16 L
150.325 60.008 L
150.811 59.856 L
151.298 59.705 L
151.784 59.555 L
152.27 59.405 L
152.757 59.255 L
153.243 59.106 L
153.729 58.958 L
154.216 58.81 L
154.702 58.663 L
155.188 58.516 L
155.675 58.37 L
156.161 58.225 L
156.647 58.08 L
157.134 57.935 L
157.62 57.791 L
158.106 57.648 L
158.593 57.505 L
159.079 57.363 L
159.565 57.221 L
160.052 57.08 L
160.538 56.939 L
161.024 56.799 L
161.511 56.66 L
161.997 56.521 L
162.483 56.382 L
162.969 56.244 L
163.456 56.107 L
163.942 55.97 L
164.428 55.834 L
164.915 55.699 L
165.401 55.563 L
165.887 55.429 L
166.374 55.295 L
166.86 55.161 L
167.346 55.028 L
167.833 54.896 L
168.319 54.764 L
168.805 54.633 L
169.292 54.502 L
169.778 54.371 L
170.264 54.242 L
170.751 54.112 L
171.237 53.984 L
171.723 53.856 L
172.21 53.728 L
172.696 53.601 L
173.182 53.475 L
173.669 53.349 L
174.155 53.223 L
174.641 53.098 L
175.128 52.974 L
175.614 52.85 L
176.1 52.727 L
176.586 52.604 L
177.073 52.482 L
177.559 52.36 L
178.045 52.239 L
178.532 52.118 L
179.018 51.998 L
179.504 51.878 L
179.991 51.759 L
180.477 51.641 L
180.963 51.523 L
181.45 51.405 L
181.936 51.288 L
182.422 51.172 L
182.909 51.056 L
183.395 50.941 L
183.881 50.826 L
184.368 50.711 L
184.854 50.598 L
185.34 50.484 L
185.827 50.371 L
186.313 50.259 L
186.799 50.147 L
187.286 50.036 L
187.772 49.925 L
188.258 49.815 L
188.745 49.706 L
189.231 49.596 L
189.717 49.488 L
190.203 49.38 L
190.69 49.272 L
191.176 49.165 L
191.662 49.059 L
192.149 48.952 L
192.635 48.847 L
193.121 48.742 L
193.608 48.637 L
194.094 48.533 L
194.58 48.43 L
195.067 48.327 L
195.553 48.225 L
196.039 48.123 L
196.526 48.021 L
197.012 47.92 L
197.498 47.82 L
197.985 47.72 L
198.471 47.62 L
198.957 47.522 L
199.444 47.423 L
199.93 47.325 L
200.416 47.228 L
200.903 47.131 L
201.389 47.035 L
201.875 46.939 L
202.362 46.843 L
202.848 46.748 L
203.334 46.654 L
203.82 46.56 L
204.307 46.467 L
204.793 46.374 L
205.279 46.282 L
205.766 46.19 L
206.252 46.098 L
206.738 46.008 L
207.225 45.917 L
207.711 45.827 L
208.197 45.738 L
208.684 45.649 L
209.17 45.561 L
209.656 45.473 L
210.143 45.385 L
210.629 45.299 L
211.115 45.212 L
211.602 45.126 L
212.088 45.041 L
212.574 44.956 L
213.061 44.872 L
213.547 44.788 L
214.033 44.704 L
214.52 44.621 L
215.006 44.539 L
215.492 44.457 L
215.979 44.375 L
216.465 44.294 L
216.951 44.214 L
217.438 44.134 L
217.924 44.054 L
218.41 43.975 L
218.896 43.896 L
219.383 43.818 L
219.869 43.741 L
220.355 43.664 L
220.842 43.587 L
221.328 43.511 L
221.814 43.435 L
222.301 43.36 L
222.787 43.285 L
223.273 43.211 L
223.76 43.137 L
224.246 43.064 L
224.732 42.991 L
225.219 42.919 L
225.705 42.847 L
226.191 42.776 L
226.678 42.705 L
227.164 42.634 L
227.65 42.565 L
228.137 42.495 L
228.623 42.426 L
229.109 42.358 L
229.596 42.29 L
230.082 42.222 L
230.568 42.155 L
231.055 42.088 L
231.541 42.022 L
232.027 41.956 L
232.513 41.891 L
233 41.827 L
233.486 41.762 L
233.972 41.698 L
234.459 41.635 L
234.945 41.572 L
235.431 41.51 L
235.918 41.448 L
236.404 41.386 L
236.89 41.325 L
237.377 41.265 L
237.863 41.205 L
238.349 41.145 L
238.836 41.086 L
239.322 41.027 L
239.808 40.969 L
240.295 40.911 L
240.781 40.854 L
241.267 40.797 L
241.754 40.741 L
242.24 40.685 L
242.726 40.63 L
243.213 40.575 L
243.699 40.52 L
244.185 40.466 L
244.672 40.412 L
245.158 40.359 L
245.644 40.306 L
246.13 40.254 L
246.617 40.202 L
247.103 40.151 L
247.589 40.1 L
248.076 40.05 L
248.562 40 L
249.048 39.95 L
249.535 39.901 L
250.021 39.852 L
250.507 39.804 L
250.994 39.756 L
251.48 39.709 L
251.966 39.662 L
252.453 39.616 L
252.939 39.57 L
253.425 39.525 L
253.912 39.479 L
254.398 39.435 L
254.884 39.391 L
255.371 39.347 L
255.857 39.304 L
256.343 39.261 L
256.83 39.219 L
257.316 39.177 L
257.802 39.135 L
258.289 39.094 L
258.775 39.053 L
259.261 39.013 L
259.747 38.974 L
260.234 38.934 L
260.72 38.895 L
261.206 38.857 L
261.693 38.819 L
262.179 38.782 L
262.665 38.744 L
263.152 38.708 L
263.638 38.672 L
264.124 38.636 L
264.611 38.6 L
265.097 38.565 L
265.583 38.531 L
266.07 38.497 L
266.556 38.463 L
267.042 38.43 L
267.529 38.397 L
268.015 38.365 L
268.501 38.333 L
268.988 38.302 L
269.474 38.271 L
269.96 38.24 L
270.447 38.21 L
270.933 38.18 L
271.419 38.151 L
271.905 38.122 L
272.392 38.093 L
272.878 38.065 L
273.364 38.038 L
273.851 38.01 L
274.337 37.984 L
274.823 37.957 L
275.31 37.931 L
275.796 37.906 L
276.282 37.881 L
276.769 37.856 L
277.255 37.832 L
277.741 37.808 L
278.228 37.785 L
278.714 37.762 L
279.2 37.739 L
279.687 37.717 L
280.173 37.695 L
280.659 37.674 L
281.146 37.653 L
281.632 37.633 L
282.118 37.613 L
282.605 37.593 L
283.091 37.574 L
283.577 37.555 L
284.064 37.537 L
284.55 37.519 L
285.036 37.501 L
285.522 37.484 L
286.009 37.467 L
286.495 37.451 L
286.981 37.435 L
287.468 37.419 L
287.954 37.404 L
288.44 37.389 L
288.927 37.375 L
289.413 37.361 L
289.899 37.348 L
290.386 37.335 L
290.872 37.322 L
291.358 37.31 L
291.845 37.298 L
292.331 37.287 L
292.817 37.275 L
293.304 37.265 L
293.79 37.255 L
294.276 37.245 L
294.763 37.235 L
295.249 37.226 L
295.735 37.218 L
296.222 37.209 L
296.708 37.202 L
297.194 37.194 L
297.681 37.187 L
298.167 37.18 L
298.653 37.174 L
299.139 37.168 L
299.626 37.163 L
300.112 37.158 L
300.598 37.153 L
301.085 37.149 L
301.571 37.145 L
302.057 37.142 L
302.544 37.139 L
303.03 37.136 L
303.516 37.134 L
304.003 37.132 L
304.489 37.13 L
304.975 37.129 L
305.462 37.128 L
305.948 37.128 L
S
GR
GS
0.494 0.184 0.557 RC
1 LJ
0.5 LW
N
74.174 343.052 M
74.66 334.703 L
75.146 326.376 L
75.633 318.088 L
76.119 309.857 L
76.605 301.701 L
77.092 293.64 L
77.578 285.69 L
78.064 277.87 L
78.551 270.198 L
79.037 262.693 L
79.523 255.373 L
80.01 248.255 L
80.496 241.359 L
80.982 234.702 L
81.469 228.302 L
81.955 222.177 L
82.441 216.347 L
82.928 210.828 L
83.414 205.64 L
83.9 200.8 L
84.387 196.327 L
84.873 192.239 L
85.359 188.553 L
85.846 185.155 L
86.332 181.824 L
86.818 178.555 L
87.305 175.348 L
87.791 172.203 L
88.277 169.121 L
88.763 166.101 L
89.25 163.143 L
89.736 160.248 L
90.222 157.416 L
90.709 154.646 L
91.195 151.938 L
91.681 149.293 L
92.168 146.711 L
92.654 144.191 L
93.14 141.734 L
93.627 139.34 L
94.113 137.008 L
94.599 134.739 L
95.086 132.533 L
95.572 130.39 L
96.058 128.309 L
96.545 126.292 L
97.031 124.337 L
97.517 122.445 L
98.004 120.616 L
98.49 118.851 L
98.976 117.148 L
99.463 115.508 L
99.949 113.931 L
100.435 112.418 L
100.922 110.967 L
101.408 109.58 L
101.894 108.255 L
102.38 106.995 L
102.867 105.797 L
103.353 104.662 L
103.839 103.591 L
104.326 102.584 L
104.812 101.639 L
105.298 100.752 L
105.785 99.88 L
106.271 99.015 L
106.757 98.159 L
107.244 97.311 L
107.73 96.471 L
108.216 95.639 L
108.703 94.815 L
109.189 93.999 L
109.675 93.191 L
110.162 92.392 L
110.648 91.601 L
111.134 90.818 L
111.621 90.044 L
112.107 89.278 L
112.593 88.52 L
113.08 87.771 L
113.566 87.03 L
114.052 86.297 L
114.539 85.573 L
115.025 84.858 L
115.511 84.151 L
115.997 83.453 L
116.484 82.763 L
116.97 82.082 L
117.456 81.41 L
117.943 80.746 L
118.429 80.091 L
118.915 79.445 L
119.402 78.808 L
119.888 78.179 L
120.374 77.56 L
120.861 76.949 L
121.347 76.347 L
121.833 75.754 L
122.32 75.171 L
122.806 74.596 L
123.292 74.03 L
123.779 73.473 L
124.265 72.926 L
124.751 72.387 L
125.238 71.858 L
125.724 71.338 L
126.21 70.827 L
126.697 70.326 L
127.183 69.833 L
127.669 69.35 L
128.156 68.877 L
128.642 68.413 L
129.128 67.958 L
129.614 67.513 L
130.101 67.077 L
130.587 66.65 L
131.073 66.233 L
131.56 65.826 L
132.046 65.429 L
132.532 65.041 L
133.019 64.662 L
133.505 64.294 L
133.991 63.935 L
134.478 63.585 L
134.964 63.246 L
135.45 62.916 L
135.937 62.597 L
136.423 62.287 L
136.909 61.987 L
137.396 61.697 L
137.882 61.417 L
138.368 61.147 L
138.855 60.887 L
139.341 60.637 L
139.827 60.397 L
140.314 60.167 L
140.8 59.947 L
141.286 59.738 L
141.773 59.539 L
142.259 59.35 L
142.745 59.171 L
143.231 59.003 L
143.718 58.845 L
144.204 58.697 L
144.69 58.56 L
145.177 58.433 L
145.663 58.316 L
146.149 58.21 L
146.636 58.115 L
147.122 58.028 L
147.608 57.941 L
148.095 57.855 L
148.581 57.768 L
149.067 57.682 L
149.554 57.596 L
150.04 57.511 L
150.526 57.425 L
151.013 57.34 L
151.499 57.254 L
151.985 57.169 L
152.472 57.084 L
152.958 57 L
153.444 56.915 L
153.931 56.831 L
154.417 56.747 L
154.903 56.663 L
155.39 56.579 L
155.876 56.495 L
156.362 56.412 L
156.848 56.329 L
157.335 56.245 L
157.821 56.163 L
158.307 56.08 L
158.794 55.997 L
159.28 55.915 L
159.766 55.833 L
160.253 55.75 L
160.739 55.669 L
161.225 55.587 L
161.712 55.505 L
162.198 55.424 L
162.684 55.343 L
163.171 55.262 L
163.657 55.181 L
164.143 55.1 L
164.63 55.02 L
165.116 54.939 L
165.602 54.859 L
166.089 54.779 L
166.575 54.699 L
167.061 54.62 L
167.548 54.54 L
168.034 54.461 L
168.52 54.382 L
169.007 54.303 L
169.493 54.224 L
169.979 54.145 L
170.465 54.067 L
170.952 53.989 L
171.438 53.911 L
171.924 53.833 L
172.411 53.755 L
172.897 53.677 L
173.383 53.6 L
173.87 53.523 L
174.356 53.446 L
174.842 53.369 L
175.329 53.292 L
175.815 53.215 L
176.301 53.139 L
176.788 53.063 L
177.274 52.987 L
177.76 52.911 L
178.247 52.835 L
178.733 52.759 L
179.219 52.684 L
179.706 52.609 L
180.192 52.534 L
180.678 52.459 L
181.165 52.384 L
181.651 52.309 L
182.137 52.235 L
182.624 52.161 L
183.11 52.087 L
183.596 52.013 L
184.083 51.939 L
184.569 51.865 L
185.055 51.792 L
185.541 51.719 L
186.028 51.646 L
186.514 51.573 L
187 51.5 L
187.487 51.427 L
187.973 51.355 L
188.459 51.283 L
188.946 51.211 L
189.432 51.139 L
189.918 51.067 L
190.405 50.995 L
190.891 50.924 L
191.377 50.853 L
191.864 50.782 L
192.35 50.711 L
192.836 50.64 L
193.323 50.569 L
193.809 50.499 L
194.295 50.428 L
194.782 50.358 L
195.268 50.288 L
195.754 50.218 L
196.241 50.149 L
196.727 50.079 L
197.213 50.01 L
197.7 49.941 L
198.186 49.872 L
198.672 49.803 L
199.158 49.734 L
199.645 49.666 L
200.131 49.597 L
200.617 49.529 L
201.104 49.461 L
201.59 49.393 L
202.076 49.326 L
202.563 49.258 L
203.049 49.191 L
203.535 49.123 L
204.022 49.056 L
204.508 48.989 L
204.994 48.923 L
205.481 48.856 L
205.967 48.79 L
206.453 48.723 L
206.94 48.657 L
207.426 48.591 L
207.912 48.525 L
208.399 48.46 L
208.885 48.394 L
209.371 48.329 L
209.858 48.264 L
210.344 48.199 L
210.83 48.134 L
211.317 48.069 L
211.803 48.004 L
212.289 47.94 L
212.775 47.876 L
213.262 47.812 L
213.748 47.748 L
214.234 47.684 L
214.721 47.62 L
215.207 47.557 L
215.693 47.493 L
216.18 47.43 L
216.666 47.367 L
217.152 47.304 L
217.639 47.242 L
218.125 47.179 L
218.611 47.117 L
219.098 47.055 L
219.584 46.992 L
220.07 46.931 L
220.557 46.869 L
221.043 46.807 L
221.529 46.746 L
222.016 46.684 L
222.502 46.623 L
222.988 46.562 L
223.475 46.501 L
223.961 46.441 L
224.447 46.38 L
224.934 46.32 L
225.42 46.259 L
225.906 46.199 L
226.392 46.139 L
226.879 46.08 L
227.365 46.02 L
227.851 45.96 L
228.338 45.901 L
228.824 45.842 L
229.31 45.783 L
229.797 45.724 L
230.283 45.665 L
230.769 45.607 L
231.256 45.548 L
231.742 45.49 L
232.228 45.432 L
232.715 45.374 L
233.201 45.316 L
233.687 45.258 L
234.174 45.201 L
234.66 45.143 L
235.146 45.086 L
235.633 45.029 L
236.119 44.972 L
236.605 44.915 L
237.092 44.858 L
237.578 44.802 L
238.064 44.746 L
238.551 44.689 L
239.037 44.633 L
239.523 44.577 L
240.009 44.522 L
240.496 44.466 L
240.982 44.411 L
241.468 44.355 L
241.955 44.3 L
242.441 44.245 L
242.927 44.19 L
243.414 44.135 L
243.9 44.081 L
244.386 44.026 L
244.873 43.972 L
245.359 43.918 L
245.845 43.864 L
246.332 43.81 L
246.818 43.756 L
247.304 43.703 L
247.791 43.649 L
248.277 43.596 L
248.763 43.543 L
249.25 43.49 L
249.736 43.437 L
250.222 43.384 L
250.709 43.331 L
251.195 43.279 L
251.681 43.227 L
252.168 43.175 L
252.654 43.123 L
253.14 43.071 L
253.626 43.019 L
254.113 42.967 L
254.599 42.916 L
255.085 42.865 L
255.572 42.813 L
256.058 42.762 L
256.544 42.712 L
257.031 42.661 L
257.517 42.61 L
258.003 42.56 L
258.49 42.509 L
258.976 42.459 L
259.462 42.409 L
259.949 42.359 L
260.435 42.31 L
260.921 42.26 L
261.408 42.211 L
261.894 42.161 L
262.38 42.112 L
262.867 42.063 L
263.353 42.014 L
263.839 41.965 L
264.326 41.917 L
264.812 41.868 L
265.298 41.82 L
265.785 41.772 L
266.271 41.723 L
266.757 41.675 L
267.243 41.628 L
267.73 41.58 L
268.216 41.532 L
268.702 41.485 L
269.189 41.438 L
269.675 41.391 L
270.161 41.344 L
270.648 41.297 L
271.134 41.25 L
271.62 41.204 L
272.107 41.157 L
272.593 41.111 L
273.079 41.065 L
273.566 41.019 L
274.052 40.973 L
274.538 40.927 L
275.025 40.881 L
275.511 40.836 L
275.997 40.79 L
276.484 40.745 L
276.97 40.7 L
277.456 40.655 L
277.943 40.61 L
278.429 40.566 L
278.915 40.521 L
279.402 40.477 L
279.888 40.432 L
280.374 40.388 L
280.861 40.344 L
281.347 40.3 L
281.833 40.256 L
282.319 40.213 L
282.806 40.169 L
283.292 40.126 L
283.778 40.083 L
284.265 40.04 L
284.751 39.997 L
285.237 39.954 L
285.724 39.911 L
286.21 39.869 L
286.696 39.826 L
287.183 39.784 L
287.669 39.742 L
288.155 39.7 L
288.642 39.658 L
289.128 39.616 L
289.614 39.574 L
290.101 39.533 L
290.587 39.491 L
291.073 39.45 L
291.56 39.409 L
292.046 39.368 L
292.532 39.327 L
293.019 39.286 L
293.505 39.246 L
293.991 39.205 L
294.477 39.165 L
294.964 39.124 L
295.45 39.084 L
295.936 39.044 L
296.423 39.005 L
296.909 38.965 L
297.395 38.925 L
297.882 38.886 L
298.368 38.846 L
298.854 38.807 L
299.341 38.768 L
299.827 38.729 L
300.313 38.69 L
300.8 38.651 L
301.286 38.613 L
301.772 38.574 L
302.259 38.536 L
302.745 38.498 L
303.231 38.46 L
303.718 38.422 L
304.204 38.384 L
304.69 38.346 L
305.177 38.309 L
305.663 38.271 L
306.149 38.234 L
306.636 38.197 L
307.122 38.16 L
307.608 38.123 L
308.094 38.086 L
308.581 38.049 L
309.067 38.013 L
309.553 37.976 L
310.04 37.94 L
310.526 37.903 L
311.012 37.867 L
311.499 37.831 L
311.985 37.796 L
312.471 37.76 L
312.958 37.724 L
313.444 37.689 L
313.93 37.653 L
314.417 37.618 L
314.903 37.583 L
315.389 37.548 L
315.876 37.513 L
316.362 37.478 L
316.848 37.444 L
317.335 37.409 L
317.821 37.375 L
318.307 37.34 L
318.794 37.306 L
319.28 37.272 L
319.766 37.238 L
320.253 37.205 L
320.739 37.171 L
321.225 37.137 L
321.711 37.104 L
322.198 37.07 L
322.684 37.037 L
323.17 37.004 L
323.657 36.971 L
324.143 36.938 L
324.629 36.906 L
325.116 36.873 L
325.602 36.841 L
326.088 36.808 L
326.575 36.776 L
327.061 36.744 L
327.547 36.712 L
328.034 36.68 L
328.52 36.648 L
329.006 36.616 L
329.493 36.585 L
329.979 36.553 L
330.465 36.522 L
330.952 36.491 L
331.438 36.46 L
331.924 36.429 L
332.411 36.398 L
332.897 36.367 L
333.383 36.337 L
333.87 36.306 L
334.356 36.276 L
334.842 36.245 L
335.328 36.215 L
335.815 36.185 L
336.301 36.155 L
336.787 36.125 L
337.274 36.096 L
337.76 36.066 L
338.246 36.036 L
338.733 36.007 L
339.219 35.978 L
339.705 35.949 L
340.192 35.92 L
340.678 35.891 L
341.164 35.862 L
341.651 35.833 L
342.137 35.805 L
342.623 35.776 L
343.11 35.748 L
343.596 35.72 L
344.082 35.691 L
344.569 35.663 L
345.055 35.635 L
345.541 35.608 L
346.028 35.58 L
346.514 35.552 L
347 35.525 L
347.487 35.498 L
347.973 35.47 L
348.459 35.443 L
348.945 35.416 L
349.432 35.389 L
349.918 35.362 L
350.404 35.336 L
350.891 35.309 L
351.377 35.283 L
351.863 35.256 L
352.35 35.23 L
352.836 35.204 L
353.322 35.178 L
353.809 35.152 L
354.295 35.126 L
354.781 35.1 L
355.268 35.075 L
355.754 35.049 L
356.24 35.024 L
356.727 34.998 L
357.213 34.973 L
357.699 34.948 L
358.186 34.923 L
358.672 34.898 L
359.158 34.873 L
359.645 34.849 L
360.131 34.824 L
360.617 34.8 L
361.104 34.776 L
361.59 34.751 L
362.076 34.727 L
362.563 34.703 L
363.049 34.679 L
363.535 34.655 L
364.021 34.632 L
364.508 34.608 L
364.994 34.585 L
365.48 34.561 L
365.967 34.538 L
366.453 34.515 L
366.939 34.492 L
367.426 34.469 L
367.912 34.446 L
368.398 34.423 L
368.885 34.4 L
369.371 34.378 L
369.857 34.355 L
370.344 34.333 L
370.83 34.311 L
371.316 34.288 L
371.803 34.266 L
372.289 34.244 L
372.775 34.223 L
373.262 34.201 L
373.748 34.179 L
374.234 34.158 L
374.721 34.136 L
375.207 34.115 L
375.693 34.094 L
376.18 34.073 L
376.666 34.051 L
377.152 34.031 L
377.638 34.01 L
378.125 33.989 L
378.611 33.968 L
379.097 33.948 L
379.584 33.927 L
380.07 33.907 L
380.556 33.887 L
381.043 33.867 L
381.529 33.847 L
382.015 33.827 L
382.502 33.807 L
382.988 33.787 L
383.474 33.767 L
383.961 33.748 L
384.447 33.728 L
384.933 33.709 L
385.42 33.69 L
385.906 33.671 L
386.392 33.652 L
386.879 33.633 L
387.365 33.614 L
387.851 33.595 L
388.338 33.576 L
388.824 33.558 L
389.31 33.539 L
389.797 33.521 L
390.283 33.502 L
390.769 33.484 L
391.255 33.466 L
391.742 33.448 L
392.228 33.43 L
392.714 33.412 L
393.201 33.395 L
393.687 33.377 L
394.173 33.36 L
394.66 33.342 L
395.146 33.325 L
395.632 33.308 L
396.119 33.29 L
396.605 33.273 L
397.091 33.256 L
397.578 33.239 L
398.064 33.223 L
398.55 33.206 L
399.037 33.189 L
399.523 33.173 L
400.009 33.156 L
400.496 33.14 L
400.982 33.124 L
401.468 33.108 L
401.955 33.092 L
402.441 33.076 L
402.927 33.06 L
403.414 33.044 L
403.9 33.028 L
404.386 33.013 L
404.872 32.997 L
405.359 32.982 L
405.845 32.967 L
406.331 32.951 L
406.818 32.936 L
407.304 32.921 L
407.79 32.906 L
408.277 32.891 L
408.763 32.877 L
409.249 32.862 L
409.736 32.847 L
410.222 32.833 L
410.708 32.818 L
411.195 32.804 L
411.681 32.79 L
412.167 32.776 L
412.654 32.762 L
413.14 32.748 L
413.626 32.734 L
414.113 32.72 L
414.599 32.706 L
415.085 32.693 L
415.572 32.679 L
416.058 32.666 L
416.544 32.652 L
417.031 32.639 L
417.517 32.626 L
418.003 32.613 L
418.489 32.6 L
418.976 32.587 L
419.462 32.574 L
419.948 32.561 L
420.435 32.549 L
420.921 32.536 L
421.407 32.524 L
421.894 32.511 L
422.38 32.499 L
422.866 32.486 L
423.353 32.474 L
423.839 32.462 L
424.325 32.45 L
424.812 32.438 L
425.298 32.427 L
425.784 32.415 L
426.271 32.403 L
426.757 32.392 L
427.243 32.38 L
427.73 32.369 L
428.216 32.357 L
428.702 32.346 L
429.189 32.335 L
429.675 32.324 L
430.161 32.313 L
430.648 32.302 L
431.134 32.291 L
431.62 32.28 L
432.106 32.27 L
432.593 32.259 L
433.079 32.249 L
433.565 32.238 L
434.052 32.228 L
434.538 32.218 L
435.024 32.207 L
435.511 32.197 L
435.997 32.187 L
436.483 32.177 L
436.97 32.167 L
437.456 32.158 L
437.942 32.148 L
438.429 32.138 L
438.915 32.129 L
439.401 32.119 L
439.888 32.11 L
440.374 32.101 L
440.86 32.092 L
441.347 32.082 L
441.833 32.073 L
442.319 32.064 L
442.806 32.055 L
443.292 32.047 L
443.778 32.038 L
444.265 32.029 L
444.751 32.021 L
445.237 32.012 L
445.723 32.004 L
446.21 31.995 L
446.696 31.987 L
447.182 31.979 L
447.669 31.971 L
448.155 31.963 L
448.641 31.955 L
449.128 31.947 L
449.614 31.939 L
450.1 31.931 L
450.587 31.923 L
451.073 31.916 L
451.559 31.908 L
452.046 31.901 L
452.532 31.893 L
453.018 31.886 L
453.505 31.879 L
453.991 31.872 L
454.477 31.865 L
454.964 31.858 L
455.45 31.851 L
455.936 31.844 L
456.423 31.837 L
456.909 31.83 L
457.395 31.824 L
457.882 31.817 L
458.368 31.811 L
458.854 31.804 L
459.34 31.798 L
459.827 31.792 L
460.313 31.785 L
460.799 31.779 L
461.286 31.773 L
461.772 31.767 L
462.258 31.761 L
462.745 31.755 L
463.231 31.75 L
463.717 31.744 L
464.204 31.738 L
464.69 31.733 L
465.176 31.727 L
465.663 31.722 L
466.149 31.716 L
466.635 31.711 L
467.122 31.706 L
467.608 31.701 L
468.094 31.696 L
468.581 31.691 L
469.067 31.686 L
469.553 31.681 L
470.04 31.676 L
470.526 31.671 L
471.012 31.667 L
471.499 31.662 L
471.985 31.657 L
472.471 31.653 L
472.957 31.649 L
473.444 31.644 L
473.93 31.64 L
474.416 31.636 L
474.903 31.632 L
475.389 31.628 L
475.875 31.624 L
476.362 31.62 L
476.848 31.616 L
477.334 31.612 L
477.821 31.608 L
478.307 31.605 L
478.793 31.601 L
479.28 31.598 L
479.766 31.594 L
480.252 31.591 L
480.739 31.587 L
481.225 31.584 L
481.711 31.581 L
482.198 31.578 L
482.684 31.575 L
483.17 31.572 L
483.657 31.569 L
484.143 31.566 L
484.629 31.563 L
485.116 31.56 L
485.602 31.558 L
486.088 31.555 L
486.574 31.553 L
487.061 31.55 L
487.547 31.548 L
488.033 31.545 L
488.52 31.543 L
489.006 31.541 L
489.492 31.538 L
489.979 31.536 L
490.465 31.534 L
490.951 31.532 L
491.438 31.53 L
491.924 31.529 L
492.41 31.527 L
492.897 31.525 L
493.383 31.523 L
493.869 31.522 L
494.356 31.52 L
494.842 31.519 L
495.328 31.517 L
495.815 31.516 L
496.301 31.514 L
496.787 31.513 L
497.274 31.512 L
497.76 31.511 L
498.246 31.51 L
498.733 31.509 L
499.219 31.508 L
499.705 31.507 L
500.191 31.506 L
500.678 31.505 L
501.164 31.504 L
501.65 31.504 L
502.137 31.503 L
502.623 31.503 L
503.109 31.502 L
503.596 31.502 L
504.082 31.501 L
504.568 31.501 L
505.055 31.501 L
505.541 31.5 L
506.027 31.5 L
506.514 31.5 L
507 31.5 L
S
GR
GS
0.467 0.675 0.188 RC
[10 6] 0 setdash
2 LJ
0.5 LW
N
73.624 357.987 M
74.11 348.996 L
74.596 340.031 L
75.083 331.113 L
75.569 322.264 L
76.055 313.505 L
76.542 304.857 L
77.028 296.341 L
77.514 287.978 L
78.001 279.789 L
78.487 271.797 L
78.973 264.02 L
79.46 256.482 L
79.946 249.203 L
80.432 242.204 L
80.919 235.506 L
81.405 229.131 L
81.891 223.1 L
82.377 217.433 L
82.864 212.153 L
83.35 207.279 L
83.836 202.834 L
84.323 198.838 L
84.809 195.153 L
85.295 191.542 L
85.782 188.002 L
86.268 184.534 L
86.754 181.138 L
87.241 177.813 L
87.727 174.56 L
88.213 171.378 L
88.7 168.268 L
89.186 165.228 L
89.672 162.261 L
90.159 159.364 L
90.645 156.539 L
91.131 153.784 L
91.618 151.101 L
92.104 148.489 L
92.59 145.948 L
93.077 143.478 L
93.563 141.079 L
94.049 138.75 L
94.536 136.493 L
95.022 134.306 L
95.508 132.191 L
95.994 130.145 L
96.481 128.171 L
96.967 126.267 L
97.453 124.434 L
97.94 122.671 L
98.426 120.979 L
98.912 119.358 L
99.399 117.806 L
99.885 116.325 L
100.371 114.915 L
100.858 113.575 L
101.344 112.305 L
101.83 111.105 L
102.317 109.975 L
102.803 108.915 L
103.289 107.917 L
103.776 106.935 L
104.262 105.964 L
104.748 105.003 L
105.235 104.053 L
105.721 103.114 L
106.207 102.186 L
106.694 101.268 L
107.18 100.361 L
107.666 99.465 L
108.153 98.58 L
108.639 97.705 L
109.125 96.841 L
109.611 95.987 L
110.098 95.145 L
110.584 94.313 L
111.07 93.491 L
111.557 92.681 L
112.043 91.881 L
112.529 91.092 L
113.016 90.313 L
113.502 89.546 L
113.988 88.788 L
114.475 88.042 L
114.961 87.306 L
115.447 86.581 L
115.934 85.867 L
116.42 85.164 L
116.906 84.471 L
117.393 83.788 L
117.879 83.117 L
118.365 82.456 L
118.852 81.806 L
119.338 81.167 L
119.824 80.538 L
120.311 79.92 L
120.797 79.313 L
121.283 78.716 L
121.77 78.13 L
122.256 77.555 L
122.742 76.99 L
123.228 76.436 L
123.715 75.893 L
124.201 75.36 L
124.687 74.838 L
125.174 74.327 L
125.66 73.826 L
126.146 73.337 L
126.633 72.857 L
127.119 72.389 L
127.605 71.931 L
128.092 71.484 L
128.578 71.047 L
129.064 70.622 L
129.551 70.206 L
130.037 69.802 L
130.523 69.408 L
131.01 69.025 L
131.496 68.652 L
131.982 68.291 L
132.469 67.939 L
132.955 67.599 L
133.441 67.269 L
133.928 66.95 L
134.414 66.641 L
134.9 66.344 L
135.387 66.056 L
135.873 65.78 L
136.359 65.514 L
136.845 65.259 L
137.332 65.014 L
137.818 64.78 L
138.304 64.557 L
138.791 64.344 L
139.277 64.142 L
139.763 63.951 L
140.25 63.771 L
140.736 63.601 L
141.222 63.44 L
141.709 63.281 L
142.195 63.122 L
142.681 62.965 L
143.168 62.807 L
143.654 62.65 L
144.14 62.494 L
144.627 62.338 L
145.113 62.183 L
145.599 62.029 L
146.086 61.874 L
146.572 61.721 L
147.058 61.568 L
147.545 61.415 L
148.031 61.263 L
148.517 61.111 L
149.004 60.96 L
149.49 60.81 L
149.976 60.66 L
150.462 60.51 L
150.949 60.361 L
151.435 60.213 L
151.921 60.065 L
152.408 59.918 L
152.894 59.771 L
153.38 59.624 L
153.867 59.479 L
154.353 59.333 L
154.839 59.189 L
155.326 59.044 L
155.812 58.901 L
156.298 58.757 L
156.785 58.615 L
157.271 58.472 L
157.757 58.331 L
158.244 58.19 L
158.73 58.049 L
159.216 57.909 L
159.703 57.769 L
160.189 57.63 L
160.675 57.492 L
161.162 57.353 L
161.648 57.216 L
162.134 57.079 L
162.621 56.942 L
163.107 56.806 L
163.593 56.671 L
164.079 56.536 L
164.566 56.401 L
165.052 56.267 L
165.538 56.134 L
166.025 56.001 L
166.511 55.868 L
166.997 55.736 L
167.484 55.605 L
167.97 55.474 L
168.456 55.344 L
168.943 55.214 L
169.429 55.084 L
169.915 54.955 L
170.402 54.827 L
170.888 54.699 L
171.374 54.572 L
171.861 54.445 L
172.347 54.318 L
172.833 54.193 L
173.32 54.067 L
173.806 53.942 L
174.292 53.818 L
174.779 53.694 L
175.265 53.571 L
175.751 53.448 L
176.238 53.325 L
176.724 53.204 L
177.21 53.082 L
177.696 52.961 L
178.183 52.841 L
178.669 52.721 L
179.155 52.602 L
179.642 52.483 L
180.128 52.364 L
180.614 52.246 L
181.101 52.129 L
181.587 52.012 L
182.073 51.896 L
182.56 51.78 L
183.046 51.664 L
183.532 51.55 L
184.019 51.435 L
184.505 51.321 L
184.991 51.208 L
185.478 51.095 L
185.964 50.982 L
186.45 50.87 L
186.937 50.759 L
187.423 50.648 L
187.909 50.538 L
188.396 50.428 L
188.882 50.318 L
189.368 50.209 L
189.855 50.1 L
190.341 49.992 L
190.827 49.885 L
191.313 49.778 L
191.8 49.671 L
192.286 49.565 L
192.772 49.46 L
193.259 49.354 L
193.745 49.25 L
194.231 49.146 L
194.718 49.042 L
195.204 48.939 L
195.69 48.836 L
196.177 48.734 L
196.663 48.632 L
197.149 48.531 L
197.636 48.43 L
198.122 48.33 L
198.608 48.23 L
199.095 48.131 L
199.581 48.032 L
200.067 47.934 L
200.554 47.836 L
201.04 47.738 L
201.526 47.641 L
202.013 47.545 L
202.499 47.449 L
202.985 47.353 L
203.472 47.258 L
203.958 47.164 L
204.444 47.07 L
204.93 46.976 L
205.417 46.883 L
205.903 46.791 L
206.389 46.698 L
206.876 46.607 L
207.362 46.515 L
207.848 46.425 L
208.335 46.335 L
208.821 46.245 L
209.307 46.155 L
209.794 46.067 L
210.28 45.978 L
210.766 45.89 L
211.253 45.803 L
211.739 45.716 L
212.225 45.629 L
212.712 45.543 L
213.198 45.458 L
213.684 45.373 L
214.171 45.288 L
214.657 45.204 L
215.143 45.12 L
215.63 45.037 L
216.116 44.954 L
216.602 44.872 L
217.089 44.79 L
217.575 44.709 L
218.061 44.628 L
218.548 44.548 L
219.034 44.468 L
219.52 44.388 L
220.006 44.309 L
220.493 44.231 L
220.979 44.152 L
221.465 44.075 L
221.952 43.998 L
222.438 43.921 L
222.924 43.845 L
223.411 43.769 L
223.897 43.694 L
224.383 43.619 L
224.87 43.544 L
225.356 43.47 L
225.842 43.397 L
226.329 43.324 L
226.815 43.251 L
227.301 43.179 L
227.788 43.107 L
228.274 43.036 L
228.76 42.965 L
229.247 42.895 L
229.733 42.825 L
230.219 42.756 L
230.706 42.687 L
231.192 42.618 L
231.678 42.55 L
232.165 42.483 L
232.651 42.416 L
233.137 42.349 L
233.623 42.283 L
234.11 42.217 L
234.596 42.152 L
235.082 42.087 L
235.569 42.022 L
236.055 41.958 L
236.541 41.895 L
237.028 41.832 L
237.514 41.769 L
238 41.707 L
238.487 41.645 L
238.973 41.584 L
239.459 41.523 L
239.946 41.463 L
240.432 41.403 L
240.918 41.343 L
241.405 41.284 L
241.891 41.225 L
242.377 41.167 L
242.864 41.11 L
243.35 41.052 L
243.836 40.995 L
244.323 40.939 L
244.809 40.883 L
245.295 40.828 L
245.782 40.773 L
246.268 40.718 L
246.754 40.664 L
247.24 40.61 L
247.727 40.557 L
248.213 40.504 L
248.699 40.451 L
249.186 40.399 L
249.672 40.348 L
250.158 40.297 L
250.645 40.246 L
251.131 40.196 L
251.617 40.146 L
252.104 40.097 L
252.59 40.048 L
253.076 39.999 L
253.563 39.951 L
254.049 39.903 L
254.535 39.856 L
255.022 39.809 L
255.508 39.763 L
255.994 39.717 L
256.481 39.672 L
256.967 39.627 L
257.453 39.582 L
257.94 39.538 L
258.426 39.494 L
258.912 39.451 L
259.398 39.408 L
259.885 39.366 L
260.371 39.324 L
260.857 39.282 L
261.344 39.241 L
261.83 39.2 L
262.316 39.16 L
262.803 39.12 L
263.289 39.08 L
263.775 39.041 L
264.262 39.003 L
264.748 38.965 L
265.234 38.927 L
265.721 38.89 L
266.207 38.853 L
266.693 38.816 L
267.18 38.78 L
267.666 38.744 L
268.152 38.709 L
268.639 38.674 L
269.125 38.64 L
269.611 38.606 L
270.098 38.573 L
270.584 38.539 L
271.07 38.507 L
271.557 38.474 L
272.043 38.443 L
272.529 38.411 L
273.016 38.38 L
273.502 38.35 L
273.988 38.319 L
274.474 38.29 L
274.961 38.26 L
275.447 38.231 L
275.933 38.203 L
276.42 38.175 L
276.906 38.147 L
277.392 38.12 L
277.879 38.093 L
278.365 38.066 L
278.851 38.04 L
279.338 38.015 L
279.824 37.99 L
280.31 37.965 L
280.797 37.94 L
281.283 37.916 L
281.769 37.893 L
282.256 37.87 L
282.742 37.847 L
283.228 37.825 L
283.715 37.803 L
284.201 37.781 L
284.687 37.76 L
285.174 37.739 L
285.66 37.719 L
286.146 37.699 L
286.633 37.68 L
287.119 37.661 L
287.605 37.642 L
288.091 37.624 L
288.578 37.606 L
289.064 37.589 L
289.55 37.571 L
290.037 37.555 L
290.523 37.539 L
291.009 37.523 L
291.496 37.507 L
291.982 37.492 L
292.468 37.478 L
292.955 37.463 L
293.441 37.45 L
293.927 37.436 L
294.414 37.423 L
294.9 37.41 L
295.386 37.398 L
295.873 37.386 L
296.359 37.375 L
296.845 37.364 L
297.332 37.353 L
297.818 37.343 L
298.304 37.333 L
298.791 37.324 L
299.277 37.315 L
299.763 37.306 L
300.25 37.298 L
300.736 37.29 L
301.222 37.283 L
301.708 37.275 L
302.195 37.269 L
302.681 37.262 L
303.167 37.257 L
303.654 37.251 L
304.14 37.246 L
304.626 37.241 L
305.113 37.237 L
305.599 37.233 L
306.085 37.229 L
306.572 37.226 L
307.058 37.223 L
307.544 37.221 L
308.031 37.219 L
308.517 37.218 L
309.003 37.216 L
309.49 37.215 L
309.976 37.215 L
S
GR
GS
0.302 0.745 0.933 RC
[10 6] 0 setdash
2 LJ
0.5 LW
N
73.45 362.692 M
73.937 353.479 L
74.423 344.294 L
74.909 335.158 L
75.396 326.093 L
75.882 317.123 L
76.368 308.268 L
76.855 299.55 L
77.341 290.992 L
77.827 282.616 L
78.314 274.443 L
78.8 266.495 L
79.286 258.795 L
79.773 251.364 L
80.259 244.225 L
80.745 237.399 L
81.232 230.908 L
81.718 224.775 L
82.204 219.021 L
82.691 213.668 L
83.177 208.738 L
83.663 204.254 L
84.149 200.235 L
84.636 196.465 L
85.122 192.769 L
85.608 189.147 L
86.095 185.599 L
86.581 182.124 L
87.067 178.723 L
87.554 175.396 L
88.04 172.143 L
88.526 168.963 L
89.013 165.857 L
89.499 162.825 L
89.985 159.866 L
90.472 156.981 L
90.958 154.169 L
91.444 151.432 L
91.931 148.767 L
92.417 146.177 L
92.903 143.66 L
93.39 141.216 L
93.876 138.846 L
94.362 136.55 L
94.849 134.327 L
95.335 132.178 L
95.821 130.102 L
96.308 128.099 L
96.794 126.17 L
97.28 124.314 L
97.766 122.532 L
98.253 120.823 L
98.739 119.188 L
99.225 117.625 L
99.712 116.137 L
100.198 114.721 L
100.684 113.379 L
101.171 112.11 L
101.657 110.914 L
102.143 109.792 L
102.63 108.743 L
103.116 107.731 L
103.602 106.731 L
104.089 105.741 L
104.575 104.763 L
105.061 103.796 L
105.548 102.839 L
106.034 101.894 L
106.52 100.96 L
107.007 100.038 L
107.493 99.126 L
107.979 98.225 L
108.466 97.336 L
108.952 96.458 L
109.438 95.59 L
109.925 94.734 L
110.411 93.889 L
110.897 93.056 L
111.383 92.233 L
111.87 91.421 L
112.356 90.621 L
112.842 89.832 L
113.329 89.053 L
113.815 88.286 L
114.301 87.531 L
114.788 86.786 L
115.274 86.052 L
115.76 85.33 L
116.247 84.619 L
116.733 83.919 L
117.219 83.23 L
117.706 82.552 L
118.192 81.886 L
118.678 81.23 L
119.165 80.586 L
119.651 79.953 L
120.137 79.331 L
120.624 78.72 L
121.11 78.121 L
121.596 77.532 L
122.083 76.955 L
122.569 76.389 L
123.055 75.834 L
123.542 75.291 L
124.028 74.759 L
124.514 74.237 L
125 73.727 L
125.487 73.229 L
125.973 72.741 L
126.459 72.265 L
126.946 71.8 L
127.432 71.346 L
127.918 70.903 L
128.405 70.471 L
128.891 70.051 L
129.377 69.642 L
129.864 69.244 L
130.35 68.858 L
130.836 68.482 L
131.323 68.118 L
131.809 67.765 L
132.295 67.423 L
132.782 67.093 L
133.268 66.774 L
133.754 66.466 L
134.241 66.169 L
134.727 65.884 L
135.213 65.61 L
135.7 65.347 L
136.186 65.095 L
136.672 64.854 L
137.159 64.625 L
137.645 64.407 L
138.131 64.201 L
138.617 64.005 L
139.104 63.821 L
139.59 63.648 L
140.076 63.486 L
140.563 63.326 L
141.049 63.167 L
141.535 63.009 L
142.022 62.851 L
142.508 62.693 L
142.994 62.536 L
143.481 62.38 L
143.967 62.224 L
144.453 62.068 L
144.94 61.913 L
145.426 61.759 L
145.912 61.605 L
146.399 61.452 L
146.885 61.299 L
147.371 61.147 L
147.858 60.995 L
148.344 60.844 L
148.83 60.694 L
149.317 60.543 L
149.803 60.394 L
150.289 60.245 L
150.776 60.096 L
151.262 59.948 L
151.748 59.801 L
152.234 59.654 L
152.721 59.508 L
153.207 59.362 L
153.693 59.216 L
154.18 59.072 L
154.666 58.927 L
155.152 58.783 L
155.639 58.64 L
156.125 58.498 L
156.611 58.355 L
157.098 58.214 L
157.584 58.073 L
158.07 57.932 L
158.557 57.792 L
159.043 57.652 L
159.529 57.513 L
160.016 57.374 L
160.502 57.236 L
160.988 57.099 L
161.475 56.962 L
161.961 56.826 L
162.447 56.689 L
162.934 56.554 L
163.42 56.419 L
163.906 56.285 L
164.393 56.151 L
164.879 56.017 L
165.365 55.885 L
165.852 55.752 L
166.338 55.62 L
166.824 55.489 L
167.31 55.358 L
167.797 55.228 L
168.283 55.098 L
168.769 54.969 L
169.256 54.84 L
169.742 54.712 L
170.228 54.584 L
170.715 54.457 L
171.201 54.33 L
171.687 54.204 L
172.174 54.078 L
172.66 53.953 L
173.146 53.828 L
173.633 53.704 L
174.119 53.58 L
174.605 53.457 L
175.092 53.334 L
175.578 53.212 L
176.064 53.09 L
176.551 52.969 L
177.037 52.849 L
177.523 52.729 L
178.01 52.609 L
178.496 52.49 L
178.982 52.371 L
179.469 52.253 L
179.955 52.135 L
180.441 52.018 L
180.927 51.901 L
181.414 51.785 L
181.9 51.67 L
182.386 51.554 L
182.873 51.44 L
183.359 51.326 L
183.845 51.212 L
184.332 51.099 L
184.818 50.986 L
185.304 50.874 L
185.791 50.762 L
186.277 50.651 L
186.763 50.54 L
187.25 50.43 L
187.736 50.32 L
188.222 50.211 L
188.709 50.102 L
189.195 49.994 L
189.681 49.887 L
190.168 49.779 L
190.654 49.673 L
191.14 49.566 L
191.627 49.46 L
192.113 49.355 L
192.599 49.25 L
193.086 49.146 L
193.572 49.042 L
194.058 48.939 L
194.544 48.836 L
195.031 48.734 L
195.517 48.632 L
196.003 48.53 L
196.49 48.429 L
196.976 48.329 L
197.462 48.229 L
197.949 48.13 L
198.435 48.031 L
198.921 47.932 L
199.408 47.834 L
199.894 47.737 L
200.38 47.64 L
200.867 47.543 L
201.353 47.447 L
201.839 47.351 L
202.326 47.256 L
202.812 47.162 L
203.298 47.067 L
203.785 46.974 L
204.271 46.88 L
204.757 46.788 L
205.244 46.695 L
205.73 46.604 L
206.216 46.512 L
206.703 46.422 L
207.189 46.331 L
207.675 46.241 L
208.161 46.152 L
208.648 46.063 L
209.134 45.974 L
209.62 45.887 L
210.107 45.799 L
210.593 45.712 L
211.079 45.625 L
211.566 45.539 L
212.052 45.454 L
212.538 45.368 L
213.025 45.284 L
213.511 45.2 L
213.997 45.116 L
214.484 45.032 L
214.97 44.95 L
215.456 44.867 L
215.943 44.785 L
216.429 44.704 L
216.915 44.623 L
217.402 44.543 L
217.888 44.463 L
218.374 44.383 L
218.861 44.304 L
219.347 44.225 L
219.833 44.147 L
220.32 44.069 L
220.806 43.992 L
221.292 43.915 L
221.778 43.839 L
222.265 43.763 L
222.751 43.688 L
223.237 43.613 L
223.724 43.538 L
224.21 43.464 L
224.696 43.391 L
225.183 43.318 L
225.669 43.245 L
226.155 43.173 L
226.642 43.101 L
227.128 43.03 L
227.614 42.959 L
228.101 42.889 L
228.587 42.819 L
229.073 42.749 L
229.56 42.68 L
230.046 42.612 L
230.532 42.543 L
231.019 42.476 L
231.505 42.409 L
231.991 42.342 L
232.478 42.276 L
232.964 42.21 L
233.45 42.144 L
233.937 42.079 L
234.423 42.015 L
234.909 41.951 L
235.395 41.887 L
235.882 41.824 L
236.368 41.761 L
236.854 41.699 L
237.341 41.637 L
237.827 41.576 L
238.313 41.515 L
238.8 41.455 L
239.286 41.395 L
239.772 41.335 L
240.259 41.276 L
240.745 41.217 L
241.231 41.159 L
241.718 41.101 L
242.204 41.044 L
242.69 40.987 L
243.177 40.93 L
243.663 40.874 L
244.149 40.819 L
244.636 40.763 L
245.122 40.709 L
245.608 40.654 L
246.095 40.601 L
246.581 40.547 L
247.067 40.494 L
247.554 40.442 L
248.04 40.389 L
248.526 40.338 L
249.012 40.287 L
249.499 40.236 L
249.985 40.185 L
250.471 40.136 L
250.958 40.086 L
251.444 40.037 L
251.93 39.988 L
252.417 39.94 L
252.903 39.892 L
253.389 39.845 L
253.876 39.798 L
254.362 39.752 L
254.848 39.706 L
255.335 39.66 L
255.821 39.615 L
256.307 39.57 L
256.794 39.526 L
257.28 39.482 L
257.766 39.438 L
258.253 39.395 L
258.739 39.353 L
259.225 39.31 L
259.712 39.269 L
260.198 39.227 L
260.684 39.186 L
261.171 39.146 L
261.657 39.106 L
262.143 39.066 L
262.629 39.027 L
263.116 38.988 L
263.602 38.95 L
264.088 38.912 L
264.575 38.874 L
265.061 38.837 L
265.547 38.8 L
266.034 38.764 L
266.52 38.728 L
267.006 38.693 L
267.493 38.658 L
267.979 38.623 L
268.465 38.589 L
268.952 38.555 L
269.438 38.522 L
269.924 38.489 L
270.411 38.456 L
270.897 38.424 L
271.383 38.393 L
271.87 38.361 L
272.356 38.33 L
272.842 38.3 L
273.329 38.27 L
273.815 38.24 L
274.301 38.211 L
274.788 38.182 L
275.274 38.154 L
275.76 38.126 L
276.246 38.098 L
276.733 38.071 L
277.219 38.044 L
277.705 38.018 L
278.192 37.992 L
278.678 37.966 L
279.164 37.941 L
279.651 37.916 L
280.137 37.892 L
280.623 37.868 L
281.11 37.845 L
281.596 37.822 L
282.082 37.799 L
282.569 37.777 L
283.055 37.755 L
283.541 37.733 L
284.028 37.712 L
284.514 37.691 L
285 37.671 L
285.487 37.651 L
285.973 37.632 L
286.459 37.613 L
286.946 37.594 L
287.432 37.576 L
287.918 37.558 L
288.405 37.54 L
288.891 37.523 L
289.377 37.507 L
289.863 37.49 L
290.35 37.474 L
290.836 37.459 L
291.322 37.444 L
291.809 37.429 L
292.295 37.415 L
292.781 37.401 L
293.268 37.387 L
293.754 37.374 L
294.24 37.361 L
294.727 37.349 L
295.213 37.337 L
295.699 37.325 L
296.186 37.314 L
296.672 37.303 L
297.158 37.293 L
297.645 37.283 L
298.131 37.273 L
298.617 37.264 L
299.104 37.255 L
299.59 37.247 L
300.076 37.239 L
300.563 37.231 L
301.049 37.224 L
301.535 37.217 L
302.022 37.21 L
302.508 37.204 L
302.994 37.199 L
303.48 37.193 L
303.967 37.188 L
304.453 37.183 L
304.939 37.179 L
305.426 37.175 L
305.912 37.172 L
306.398 37.169 L
306.885 37.166 L
307.371 37.164 L
307.857 37.162 L
308.344 37.16 L
308.83 37.159 L
309.316 37.158 L
309.803 37.158 L
S
GR
GS
0.635 0.078 0.184 RC
[10 6] 0 setdash
2 LJ
0.5 LW
N
73.661 360.101 M
74.148 351.027 L
74.634 341.98 L
75.12 332.979 L
75.607 324.047 L
76.093 315.204 L
76.579 306.473 L
77.066 297.875 L
77.552 289.43 L
78.038 281.161 L
78.525 273.089 L
79.011 265.235 L
79.497 257.621 L
79.984 250.268 L
80.47 243.197 L
80.956 236.431 L
81.443 229.989 L
81.929 223.894 L
82.415 218.167 L
82.902 212.829 L
83.388 207.903 L
83.874 203.408 L
84.36 199.367 L
84.847 195.668 L
85.333 192.049 L
85.819 188.503 L
86.306 185.029 L
86.792 181.627 L
87.278 178.297 L
87.765 175.039 L
88.251 171.852 L
88.737 168.738 L
89.224 165.695 L
89.71 162.724 L
90.196 159.824 L
90.683 156.996 L
91.169 154.239 L
91.655 151.553 L
92.142 148.938 L
92.628 146.395 L
93.114 143.922 L
93.601 141.52 L
94.087 139.188 L
94.573 136.928 L
95.06 134.737 L
95.546 132.617 L
96.032 130.568 L
96.519 128.589 L
97.005 126.679 L
97.491 124.84 L
97.977 123.071 L
98.464 121.372 L
98.95 119.742 L
99.436 118.182 L
99.923 116.691 L
100.409 115.27 L
100.895 113.918 L
101.382 112.636 L
101.868 111.422 L
102.354 110.278 L
102.841 109.203 L
103.327 108.193 L
103.813 107.208 L
104.3 106.233 L
104.786 105.268 L
105.272 104.313 L
105.759 103.369 L
106.245 102.435 L
106.731 101.511 L
107.218 100.598 L
107.704 99.695 L
108.19 98.803 L
108.677 97.921 L
109.163 97.049 L
109.649 96.188 L
110.136 95.337 L
110.622 94.497 L
111.108 93.667 L
111.594 92.847 L
112.081 92.038 L
112.567 91.24 L
113.053 90.452 L
113.54 89.675 L
114.026 88.908 L
114.512 88.151 L
114.999 87.406 L
115.485 86.67 L
115.971 85.946 L
116.458 85.232 L
116.944 84.528 L
117.43 83.835 L
117.917 83.153 L
118.403 82.482 L
118.889 81.821 L
119.376 81.171 L
119.862 80.531 L
120.348 79.902 L
120.835 79.284 L
121.321 78.677 L
121.807 78.08 L
122.294 77.494 L
122.78 76.919 L
123.266 76.354 L
123.753 75.801 L
124.239 75.258 L
124.725 74.726 L
125.211 74.205 L
125.698 73.694 L
126.184 73.195 L
126.67 72.706 L
127.157 72.228 L
127.643 71.761 L
128.129 71.305 L
128.616 70.86 L
129.102 70.425 L
129.588 70.002 L
130.075 69.59 L
130.561 69.188 L
131.047 68.798 L
131.534 68.418 L
132.02 68.05 L
132.506 67.692 L
132.993 67.345 L
133.479 67.01 L
133.965 66.685 L
134.452 66.372 L
134.938 66.07 L
135.424 65.778 L
135.911 65.498 L
136.397 65.229 L
136.883 64.971 L
137.37 64.724 L
137.856 64.488 L
138.342 64.264 L
138.828 64.05 L
139.315 63.848 L
139.801 63.657 L
140.287 63.477 L
140.774 63.308 L
141.26 63.151 L
141.746 63.003 L
142.233 62.858 L
142.719 62.713 L
143.205 62.568 L
143.692 62.424 L
144.178 62.28 L
144.664 62.137 L
145.151 61.994 L
145.637 61.852 L
146.123 61.71 L
146.61 61.569 L
147.096 61.428 L
147.582 61.288 L
148.069 61.148 L
148.555 61.008 L
149.041 60.869 L
149.528 60.73 L
150.014 60.592 L
150.5 60.455 L
150.987 60.317 L
151.473 60.181 L
151.959 60.044 L
152.445 59.909 L
152.932 59.773 L
153.418 59.638 L
153.904 59.504 L
154.391 59.37 L
154.877 59.236 L
155.363 59.103 L
155.85 58.971 L
156.336 58.838 L
156.822 58.707 L
157.309 58.575 L
157.795 58.445 L
158.281 58.314 L
158.768 58.184 L
159.254 58.055 L
159.74 57.926 L
160.227 57.797 L
160.713 57.669 L
161.199 57.542 L
161.686 57.414 L
162.172 57.288 L
162.658 57.161 L
163.145 57.036 L
163.631 56.91 L
164.117 56.785 L
164.604 56.661 L
165.09 56.537 L
165.576 56.413 L
166.062 56.29 L
166.549 56.167 L
167.035 56.045 L
167.521 55.923 L
168.008 55.802 L
168.494 55.681 L
168.98 55.56 L
169.467 55.44 L
169.953 55.32 L
170.439 55.201 L
170.926 55.083 L
171.412 54.964 L
171.898 54.846 L
172.385 54.729 L
172.871 54.612 L
173.357 54.495 L
173.844 54.379 L
174.33 54.264 L
174.816 54.148 L
175.303 54.034 L
175.789 53.919 L
176.275 53.805 L
176.762 53.692 L
177.248 53.579 L
177.734 53.466 L
178.221 53.354 L
178.707 53.242 L
179.193 53.131 L
179.679 53.02 L
180.166 52.91 L
180.652 52.8 L
181.138 52.69 L
181.625 52.581 L
182.111 52.472 L
182.597 52.364 L
183.084 52.256 L
183.57 52.149 L
184.056 52.042 L
184.543 51.935 L
185.029 51.829 L
185.515 51.723 L
186.002 51.618 L
186.488 51.513 L
186.974 51.409 L
187.461 51.305 L
187.947 51.201 L
188.433 51.098 L
188.92 50.995 L
189.406 50.893 L
189.892 50.791 L
190.379 50.69 L
190.865 50.589 L
191.351 50.488 L
191.838 50.388 L
192.324 50.288 L
192.81 50.189 L
193.296 50.09 L
193.783 49.991 L
194.269 49.893 L
194.755 49.795 L
195.242 49.698 L
195.728 49.601 L
196.214 49.505 L
196.701 49.409 L
197.187 49.313 L
197.673 49.218 L
198.16 49.123 L
198.646 49.029 L
199.132 48.935 L
199.619 48.841 L
200.105 48.748 L
200.591 48.656 L
201.078 48.563 L
201.564 48.471 L
202.05 48.38 L
202.537 48.289 L
203.023 48.198 L
203.509 48.108 L
203.996 48.018 L
204.482 47.929 L
204.968 47.84 L
205.455 47.751 L
205.941 47.663 L
206.427 47.575 L
206.913 47.488 L
207.4 47.401 L
207.886 47.314 L
208.372 47.228 L
208.859 47.143 L
209.345 47.057 L
209.831 46.972 L
210.318 46.888 L
210.804 46.804 L
211.29 46.72 L
211.777 46.637 L
212.263 46.554 L
212.749 46.471 L
213.236 46.389 L
213.722 46.307 L
214.208 46.226 L
214.695 46.145 L
215.181 46.065 L
215.667 45.984 L
216.154 45.905 L
216.64 45.825 L
217.126 45.747 L
217.613 45.668 L
218.099 45.59 L
218.585 45.512 L
219.072 45.435 L
219.558 45.358 L
220.044 45.281 L
220.531 45.205 L
221.017 45.129 L
221.503 45.054 L
221.989 44.979 L
222.476 44.904 L
222.962 44.83 L
223.448 44.757 L
223.935 44.683 L
224.421 44.61 L
224.907 44.538 L
225.394 44.465 L
225.88 44.393 L
226.366 44.322 L
226.853 44.251 L
227.339 44.18 L
227.825 44.11 L
228.312 44.04 L
228.798 43.971 L
229.284 43.901 L
229.771 43.833 L
230.257 43.764 L
230.743 43.696 L
231.23 43.629 L
231.716 43.561 L
232.202 43.495 L
232.689 43.428 L
233.175 43.362 L
233.661 43.297 L
234.148 43.231 L
234.634 43.166 L
235.12 43.102 L
235.606 43.038 L
236.093 42.974 L
236.579 42.91 L
237.065 42.847 L
237.552 42.785 L
238.038 42.723 L
238.524 42.661 L
239.011 42.599 L
239.497 42.538 L
239.983 42.477 L
240.47 42.417 L
240.956 42.357 L
241.442 42.297 L
241.929 42.238 L
242.415 42.179 L
242.901 42.121 L
243.388 42.063 L
243.874 42.005 L
244.36 41.947 L
244.847 41.89 L
245.333 41.834 L
245.819 41.777 L
246.306 41.722 L
246.792 41.666 L
247.278 41.611 L
247.765 41.556 L
248.251 41.502 L
248.737 41.448 L
249.223 41.394 L
249.71 41.34 L
250.196 41.288 L
250.682 41.235 L
251.169 41.183 L
251.655 41.131 L
252.141 41.079 L
252.628 41.028 L
253.114 40.977 L
253.6 40.927 L
254.087 40.877 L
254.573 40.827 L
255.059 40.778 L
255.546 40.729 L
256.032 40.68 L
256.518 40.632 L
257.005 40.584 L
257.491 40.537 L
257.977 40.49 L
258.464 40.443 L
258.95 40.396 L
259.436 40.35 L
259.923 40.305 L
260.409 40.259 L
260.895 40.214 L
261.382 40.169 L
261.868 40.125 L
262.354 40.081 L
262.84 40.038 L
263.327 39.994 L
263.813 39.951 L
264.299 39.909 L
264.786 39.867 L
265.272 39.825 L
265.758 39.783 L
266.245 39.742 L
266.731 39.702 L
267.217 39.661 L
267.704 39.621 L
268.19 39.581 L
268.676 39.542 L
269.163 39.503 L
269.649 39.464 L
270.135 39.426 L
270.622 39.388 L
271.108 39.35 L
271.594 39.313 L
272.081 39.276 L
272.567 39.239 L
273.053 39.203 L
273.54 39.167 L
274.026 39.132 L
274.512 39.096 L
274.999 39.062 L
275.485 39.027 L
275.971 38.993 L
276.457 38.959 L
276.944 38.925 L
277.43 38.892 L
277.916 38.859 L
278.403 38.827 L
278.889 38.795 L
279.375 38.763 L
279.862 38.731 L
280.348 38.7 L
280.834 38.67 L
281.321 38.639 L
281.807 38.609 L
282.293 38.579 L
282.78 38.55 L
283.266 38.521 L
283.752 38.492 L
284.239 38.463 L
284.725 38.435 L
285.211 38.407 L
285.698 38.38 L
286.184 38.353 L
286.67 38.326 L
287.157 38.3 L
287.643 38.273 L
288.129 38.248 L
288.616 38.222 L
289.102 38.197 L
289.588 38.172 L
290.074 38.148 L
290.561 38.124 L
291.047 38.1 L
291.533 38.076 L
292.02 38.053 L
292.506 38.03 L
292.992 38.008 L
293.479 37.986 L
293.965 37.964 L
294.451 37.942 L
294.938 37.921 L
295.424 37.9 L
295.91 37.88 L
296.397 37.859 L
296.883 37.839 L
297.369 37.82 L
297.856 37.8 L
298.342 37.781 L
298.828 37.763 L
299.315 37.744 L
299.801 37.727 L
300.287 37.709 L
300.774 37.691 L
301.26 37.674 L
301.746 37.658 L
302.233 37.641 L
302.719 37.625 L
303.205 37.609 L
303.691 37.594 L
304.178 37.579 L
304.664 37.564 L
305.15 37.549 L
305.637 37.535 L
306.123 37.521 L
306.609 37.508 L
307.096 37.495 L
307.582 37.482 L
308.068 37.469 L
308.555 37.457 L
309.041 37.445 L
309.527 37.433 L
310.014 37.422 L
310.5 37.41 L
310.986 37.4 L
311.473 37.389 L
311.959 37.379 L
312.445 37.369 L
312.932 37.36 L
313.418 37.35 L
313.904 37.341 L
314.391 37.333 L
314.877 37.325 L
315.363 37.316 L
315.85 37.309 L
316.336 37.301 L
316.822 37.294 L
317.308 37.287 L
317.795 37.281 L
318.281 37.275 L
318.767 37.269 L
319.254 37.263 L
319.74 37.258 L
320.226 37.253 L
320.713 37.248 L
321.199 37.244 L
321.685 37.24 L
322.172 37.236 L
322.658 37.232 L
323.144 37.229 L
323.631 37.226 L
324.117 37.224 L
324.603 37.221 L
325.09 37.219 L
325.576 37.218 L
326.062 37.216 L
326.549 37.215 L
327.035 37.214 L
327.521 37.214 L
328.008 37.214 L
S
GR
GS
1 GC
N
499 366 M
499 250.5 L
344.5 250.5 L
344.5 366 L
cp
f
GR
GS
[1 0 0 1 381.5 260.25] CT
/Helvetica 13 F
GS
[1 0 0 1 0 0] CT
0 5 moveto 
1 -1 scale
(Base Run) t 
GR
GR
GS
0 0.447 0.741 RC
1 LJ
0.5 LW
N
348.5 260.25 M
378.5 260.25 L
S
GR
GS
[1 0 0 1 381.5 276.25] CT
/Helvetica 13 F
GS
[1 0 0 1 0 0] CT
0 5 moveto 
1 -1 scale
(I & B Frames) t 
GR
GR
GS
0.851 0.325 0.098 RC
1 LJ
0.5 LW
N
348.5 276.25 M
378.5 276.25 L
S
GR
GS
[1 0 0 1 381.5 292.25] CT
/Helvetica 13 F
GS
[1 0 0 1 0 0] CT
0 5 moveto 
1 -1 scale
(I Frames Only) t 
GR
GR
GS
0.929 0.694 0.125 RC
1 LJ
0.5 LW
N
348.5 292.25 M
378.5 292.25 L
S
GR
GS
[1 0 0 1 381.5 308.25] CT
/Helvetica 13 F
GS
[1 0 0 1 0 0] CT
0 5 moveto 
1 -1 scale
(B Frames Only) t 
GR
GR
GS
0.494 0.184 0.557 RC
1 LJ
0.5 LW
N
348.5 308.25 M
378.5 308.25 L
S
GR
GS
[1 0 0 1 381.5 324.25] CT
/Helvetica 13 F
GS
[1 0 0 1 0 0] CT
0 5 moveto 
1 -1 scale
(Part I & B Frames) t 
GR
GR
GS
0.467 0.675 0.188 RC
[10 6] 0 setdash
2 LJ
0.5 LW
N
348.5 324.25 M
378.5 324.25 L
S
GR
GS
[1 0 0 1 381.5 340.25] CT
/Helvetica 13 F
GS
[1 0 0 1 0 0] CT
0 5 moveto 
1 -1 scale
(Part I Frames Only) t 
GR
GR
GS
0.302 0.745 0.933 RC
[10 6] 0 setdash
2 LJ
0.5 LW
N
348.5 340.25 M
378.5 340.25 L
S
GR
GS
[1 0 0 1 381.5 356.25] CT
/Helvetica 13 F
GS
[1 0 0 1 0 0] CT
0 5 moveto 
1 -1 scale
(Part B Frames Only) t 
GR
GR
GS
0.635 0.078 0.184 RC
[10 6] 0 setdash
2 LJ
0.5 LW
N
348.5 356.25 M
378.5 356.25 L
S
GR
GS
0.149 GC
10.0 ML
0.5 LW
N
344.5 366 M
344.5 250.5 L
499 250.5 L
499 366 L
cp
S
GR
%%Trailer
%%Pages: 1
%%EOF
