%!PS-Adobe-3.0 EPSF-3.0
%%Creator: (MATLAB, The Mathworks, Inc. Version 9.11.0.1837725 \(R2021b\) Update 2. Operating System: Mac OS X)
%%Title: plots/pchip/Lecture_1080P-3ce0.y4m-av1-PSNRY.eps
%%CreationDate: 2022-02-03T19:13:05
%%Pages: (atend)
%%BoundingBox:    33   425   519   826
%%LanguageLevel: 3
%%EndComments
%%BeginProlog
%%BeginResource: procset (Apache XML Graphics Std ProcSet) 1.2 0
%%Version: 1.2 0
%%Copyright: (Copyright 2001-2003,2010 The Apache Software Foundation. License terms: http://www.apache.org/licenses/LICENSE-2.0)
/bd{bind def}bind def
/ld{load def}bd
/GR/grestore ld
/GS/gsave ld
/RM/rmoveto ld
/C/curveto ld
/t/show ld
/L/lineto ld
/ML/setmiterlimit ld
/CT/concat ld
/f/fill ld
/N/newpath ld
/S/stroke ld
/CC/setcmykcolor ld
/A/ashow ld
/cp/closepath ld
/RC/setrgbcolor ld
/LJ/setlinejoin ld
/GC/setgray ld
/LW/setlinewidth ld
/M/moveto ld
/re {4 2 roll M
1 index 0 rlineto
0 exch rlineto
neg 0 rlineto
cp } bd
/_ctm matrix def
/_tm matrix def
/BT { _ctm currentmatrix pop matrix _tm copy pop 0 0 moveto } bd
/ET { _ctm setmatrix } bd
/iTm { _ctm setmatrix _tm concat } bd
/Tm { _tm astore pop iTm 0 0 moveto } bd
/ux 0.0 def
/uy 0.0 def
/F {
  /Tp exch def
  /Tf exch def
  Tf findfont Tp scalefont setfont
  /cf Tf def  /cs Tp def
} bd
/ULS {currentpoint /uy exch def /ux exch def} bd
/ULE {
  /Tcx currentpoint pop def
  gsave
  newpath
  cf findfont cs scalefont dup
  /FontMatrix get 0 get /Ts exch def /FontInfo get dup
  /UnderlinePosition get Ts mul /To exch def
  /UnderlineThickness get Ts mul /Tt exch def
  ux uy To add moveto  Tcx uy To add lineto
  Tt setlinewidth stroke
  grestore
} bd
/OLE {
  /Tcx currentpoint pop def
  gsave
  newpath
  cf findfont cs scalefont dup
  /FontMatrix get 0 get /Ts exch def /FontInfo get dup
  /UnderlinePosition get Ts mul /To exch def
  /UnderlineThickness get Ts mul /Tt exch def
  ux uy To add cs add moveto Tcx uy To add cs add lineto
  Tt setlinewidth stroke
  grestore
} bd
/SOE {
  /Tcx currentpoint pop def
  gsave
  newpath
  cf findfont cs scalefont dup
  /FontMatrix get 0 get /Ts exch def /FontInfo get dup
  /UnderlinePosition get Ts mul /To exch def
  /UnderlineThickness get Ts mul /Tt exch def
  ux uy To add cs 10 mul 26 idiv add moveto Tcx uy To add cs 10 mul 26 idiv add lineto
  Tt setlinewidth stroke
  grestore
} bd
/QT {
/Y22 exch store
/X22 exch store
/Y21 exch store
/X21 exch store
currentpoint
/Y21 load 2 mul add 3 div exch
/X21 load 2 mul add 3 div exch
/X21 load 2 mul /X22 load add 3 div
/Y21 load 2 mul /Y22 load add 3 div
/X22 load /Y22 load curveto
} bd
/SSPD {
dup length /d exch dict def
{
/v exch def
/k exch def
currentpagedevice k known {
/cpdv currentpagedevice k get def
v cpdv ne {
/upd false def
/nullv v type /nulltype eq def
/nullcpdv cpdv type /nulltype eq def
nullv nullcpdv or
{
/upd true def
} {
/sametype v type cpdv type eq def
sametype {
v type /arraytype eq {
/vlen v length def
/cpdvlen cpdv length def
vlen cpdvlen eq {
0 1 vlen 1 sub {
/i exch def
/obj v i get def
/cpdobj cpdv i get def
obj cpdobj ne {
/upd true def
exit
} if
} for
} {
/upd true def
} ifelse
} {
v type /dicttype eq {
v {
/dv exch def
/dk exch def
/cpddv cpdv dk get def
dv cpddv ne {
/upd true def
exit
} if
} forall
} {
/upd true def
} ifelse
} ifelse
} if
} ifelse
upd true eq {
d k v put
} if
} if
} if
} forall
d length 0 gt {
d setpagedevice
} if
} bd
/RE { % /NewFontName [NewEncodingArray] /FontName RE -
  findfont dup length dict begin
  {
    1 index /FID ne
    {def} {pop pop} ifelse
  } forall
  /Encoding exch def
  /FontName 1 index def
  currentdict definefont pop
  end
} bind def
%%EndResource
%%BeginResource: procset (Apache XML Graphics EPS ProcSet) 1.0 0
%%Version: 1.0 0
%%Copyright: (Copyright 2002-2003 The Apache Software Foundation. License terms: http://www.apache.org/licenses/LICENSE-2.0)
/BeginEPSF { %def
/b4_Inc_state save def         % Save state for cleanup
/dict_count countdictstack def % Count objects on dict stack
/op_count count 1 sub def      % Count objects on operand stack
userdict begin                 % Push userdict on dict stack
/showpage { } def              % Redefine showpage, { } = null proc
0 setgray 0 setlinecap         % Prepare graphics state
1 setlinewidth 0 setlinejoin
10 setmiterlimit [ ] 0 setdash newpath
/languagelevel where           % If level not equal to 1 then
{pop languagelevel             % set strokeadjust and
1 ne                           % overprint to their defaults.
{false setstrokeadjust false setoverprint
} if
} if
} bd
/EndEPSF { %def
count op_count sub {pop} repeat            % Clean up stacks
countdictstack dict_count sub {end} repeat
b4_Inc_state restore
} bd
%%EndResource
%FOPBeginFontDict
%%IncludeResource: font Courier-Oblique
%%IncludeResource: font Courier-BoldOblique
%%IncludeResource: font Courier-Bold
%%IncludeResource: font ZapfDingbats
%%IncludeResource: font Symbol
%%IncludeResource: font Helvetica
%%IncludeResource: font Helvetica-Oblique
%%IncludeResource: font Helvetica-Bold
%%IncludeResource: font Helvetica-BoldOblique
%%IncludeResource: font Times-Roman
%%IncludeResource: font Times-Italic
%%IncludeResource: font Times-Bold
%%IncludeResource: font Times-BoldItalic
%%IncludeResource: font Courier
%FOPEndFontDict
%%BeginResource: encoding WinAnsiEncoding
/WinAnsiEncoding [
/.notdef /.notdef /.notdef /.notdef /.notdef
/.notdef /.notdef /.notdef /.notdef /.notdef
/.notdef /.notdef /.notdef /.notdef /.notdef
/.notdef /.notdef /.notdef /.notdef /.notdef
/.notdef /.notdef /.notdef /.notdef /.notdef
/.notdef /.notdef /.notdef /.notdef /.notdef
/.notdef /.notdef /space /exclam /quotedbl
/numbersign /dollar /percent /ampersand /quotesingle
/parenleft /parenright /asterisk /plus /comma
/hyphen /period /slash /zero /one
/two /three /four /five /six
/seven /eight /nine /colon /semicolon
/less /equal /greater /question /at
/A /B /C /D /E
/F /G /H /I /J
/K /L /M /N /O
/P /Q /R /S /T
/U /V /W /X /Y
/Z /bracketleft /backslash /bracketright /asciicircum
/underscore /quoteleft /a /b /c
/d /e /f /g /h
/i /j /k /l /m
/n /o /p /q /r
/s /t /u /v /w
/x /y /z /braceleft /bar
/braceright /asciitilde /bullet /Euro /bullet
/quotesinglbase /florin /quotedblbase /ellipsis /dagger
/daggerdbl /circumflex /perthousand /Scaron /guilsinglleft
/OE /bullet /Zcaron /bullet /bullet
/quoteleft /quoteright /quotedblleft /quotedblright /bullet
/endash /emdash /asciitilde /trademark /scaron
/guilsinglright /oe /bullet /zcaron /Ydieresis
/space /exclamdown /cent /sterling /currency
/yen /brokenbar /section /dieresis /copyright
/ordfeminine /guillemotleft /logicalnot /sfthyphen /registered
/macron /degree /plusminus /twosuperior /threesuperior
/acute /mu /paragraph /middot /cedilla
/onesuperior /ordmasculine /guillemotright /onequarter /onehalf
/threequarters /questiondown /Agrave /Aacute /Acircumflex
/Atilde /Adieresis /Aring /AE /Ccedilla
/Egrave /Eacute /Ecircumflex /Edieresis /Igrave
/Iacute /Icircumflex /Idieresis /Eth /Ntilde
/Ograve /Oacute /Ocircumflex /Otilde /Odieresis
/multiply /Oslash /Ugrave /Uacute /Ucircumflex
/Udieresis /Yacute /Thorn /germandbls /agrave
/aacute /acircumflex /atilde /adieresis /aring
/ae /ccedilla /egrave /eacute /ecircumflex
/edieresis /igrave /iacute /icircumflex /idieresis
/eth /ntilde /ograve /oacute /ocircumflex
/otilde /odieresis /divide /oslash /ugrave
/uacute /ucircumflex /udieresis /yacute /thorn
/ydieresis
] def
%%EndResource
%FOPBeginFontReencode
/Courier-Oblique findfont
dup length dict begin
  {1 index /FID ne {def} {pop pop} ifelse} forall
  /Encoding WinAnsiEncoding def
  currentdict
end
/Courier-Oblique exch definefont pop
/Courier-BoldOblique findfont
dup length dict begin
  {1 index /FID ne {def} {pop pop} ifelse} forall
  /Encoding WinAnsiEncoding def
  currentdict
end
/Courier-BoldOblique exch definefont pop
/Courier-Bold findfont
dup length dict begin
  {1 index /FID ne {def} {pop pop} ifelse} forall
  /Encoding WinAnsiEncoding def
  currentdict
end
/Courier-Bold exch definefont pop
/Helvetica findfont
dup length dict begin
  {1 index /FID ne {def} {pop pop} ifelse} forall
  /Encoding WinAnsiEncoding def
  currentdict
end
/Helvetica exch definefont pop
/Helvetica-Oblique findfont
dup length dict begin
  {1 index /FID ne {def} {pop pop} ifelse} forall
  /Encoding WinAnsiEncoding def
  currentdict
end
/Helvetica-Oblique exch definefont pop
/Helvetica-Bold findfont
dup length dict begin
  {1 index /FID ne {def} {pop pop} ifelse} forall
  /Encoding WinAnsiEncoding def
  currentdict
end
/Helvetica-Bold exch definefont pop
/Helvetica-BoldOblique findfont
dup length dict begin
  {1 index /FID ne {def} {pop pop} ifelse} forall
  /Encoding WinAnsiEncoding def
  currentdict
end
/Helvetica-BoldOblique exch definefont pop
/Times-Roman findfont
dup length dict begin
  {1 index /FID ne {def} {pop pop} ifelse} forall
  /Encoding WinAnsiEncoding def
  currentdict
end
/Times-Roman exch definefont pop
/Times-Italic findfont
dup length dict begin
  {1 index /FID ne {def} {pop pop} ifelse} forall
  /Encoding WinAnsiEncoding def
  currentdict
end
/Times-Italic exch definefont pop
/Times-Bold findfont
dup length dict begin
  {1 index /FID ne {def} {pop pop} ifelse} forall
  /Encoding WinAnsiEncoding def
  currentdict
end
/Times-Bold exch definefont pop
/Times-BoldItalic findfont
dup length dict begin
  {1 index /FID ne {def} {pop pop} ifelse} forall
  /Encoding WinAnsiEncoding def
  currentdict
end
/Times-BoldItalic exch definefont pop
/Courier findfont
dup length dict begin
  {1 index /FID ne {def} {pop pop} ifelse} forall
  /Encoding WinAnsiEncoding def
  currentdict
end
/Courier exch definefont pop
%FOPEndFontReencode
%%EndProlog
%%Page: 1 1
%%PageBoundingBox: 0 0 1120 840
%%BeginPageSetup
[1 0 0 -1 0 840] CT
%%EndPageSetup
GS
1 GC
N
0 0 1120 840 re
f
GR
GS
1 GC
N
73 374 M
507 374 L
507 31.5 L
73 31.5 L
cp
f
GR
GS
0.149 GC
2 setlinecap
1 LJ
0.5 LW
N
73 374 M
507 374 L
S
GR
GS
0.149 GC
2 setlinecap
1 LJ
0.5 LW
N
73 31.5 M
507 31.5 L
S
GR
GS
0.149 GC
2 setlinecap
1 LJ
0.5 LW
N
119.383 374 M
119.383 369.66 L
S
GR
GS
0.149 GC
2 setlinecap
1 LJ
0.5 LW
N
183.379 374 M
183.379 369.66 L
S
GR
GS
0.149 GC
2 setlinecap
1 LJ
0.5 LW
N
247.375 374 M
247.375 369.66 L
S
GR
GS
0.149 GC
2 setlinecap
1 LJ
0.5 LW
N
311.371 374 M
311.371 369.66 L
S
GR
GS
0.149 GC
2 setlinecap
1 LJ
0.5 LW
N
375.367 374 M
375.367 369.66 L
S
GR
GS
0.149 GC
2 setlinecap
1 LJ
0.5 LW
N
439.363 374 M
439.363 369.66 L
S
GR
GS
0.149 GC
2 setlinecap
1 LJ
0.5 LW
N
503.359 374 M
503.359 369.66 L
S
GR
GS
0.149 GC
2 setlinecap
1 LJ
0.5 LW
N
119.383 31.5 M
119.383 35.84 L
S
GR
GS
0.149 GC
2 setlinecap
1 LJ
0.5 LW
N
183.379 31.5 M
183.379 35.84 L
S
GR
GS
0.149 GC
2 setlinecap
1 LJ
0.5 LW
N
247.375 31.5 M
247.375 35.84 L
S
GR
GS
0.149 GC
2 setlinecap
1 LJ
0.5 LW
N
311.371 31.5 M
311.371 35.84 L
S
GR
GS
0.149 GC
2 setlinecap
1 LJ
0.5 LW
N
375.367 31.5 M
375.367 35.84 L
S
GR
GS
0.149 GC
2 setlinecap
1 LJ
0.5 LW
N
439.363 31.5 M
439.363 35.84 L
S
GR
GS
0.149 GC
2 setlinecap
1 LJ
0.5 LW
N
503.359 31.5 M
503.359 35.84 L
S
GR
GS
0.149 GC
2 setlinecap
1 LJ
0.5 LW
N
80.986 374 M
80.986 371.83 L
S
GR
GS
0.149 GC
2 setlinecap
1 LJ
0.5 LW
N
93.785 374 M
93.785 371.83 L
S
GR
GS
0.149 GC
2 setlinecap
1 LJ
0.5 LW
N
106.584 374 M
106.584 371.83 L
S
GR
GS
0.149 GC
2 setlinecap
1 LJ
0.5 LW
N
132.182 374 M
132.182 371.83 L
S
GR
GS
0.149 GC
2 setlinecap
1 LJ
0.5 LW
N
144.981 374 M
144.981 371.83 L
S
GR
GS
0.149 GC
2 setlinecap
1 LJ
0.5 LW
N
157.781 374 M
157.781 371.83 L
S
GR
GS
0.149 GC
2 setlinecap
1 LJ
0.5 LW
N
170.58 374 M
170.58 371.83 L
S
GR
GS
0.149 GC
2 setlinecap
1 LJ
0.5 LW
N
196.178 374 M
196.178 371.83 L
S
GR
GS
0.149 GC
2 setlinecap
1 LJ
0.5 LW
N
208.977 374 M
208.977 371.83 L
S
GR
GS
0.149 GC
2 setlinecap
1 LJ
0.5 LW
N
221.777 374 M
221.777 371.83 L
S
GR
GS
0.149 GC
2 setlinecap
1 LJ
0.5 LW
N
234.576 374 M
234.576 371.83 L
S
GR
GS
0.149 GC
2 setlinecap
1 LJ
0.5 LW
N
260.174 374 M
260.174 371.83 L
S
GR
GS
0.149 GC
2 setlinecap
1 LJ
0.5 LW
N
272.973 374 M
272.973 371.83 L
S
GR
GS
0.149 GC
2 setlinecap
1 LJ
0.5 LW
N
285.773 374 M
285.773 371.83 L
S
GR
GS
0.149 GC
2 setlinecap
1 LJ
0.5 LW
N
298.572 374 M
298.572 371.83 L
S
GR
GS
0.149 GC
2 setlinecap
1 LJ
0.5 LW
N
324.17 374 M
324.17 371.83 L
S
GR
GS
0.149 GC
2 setlinecap
1 LJ
0.5 LW
N
336.969 374 M
336.969 371.83 L
S
GR
GS
0.149 GC
2 setlinecap
1 LJ
0.5 LW
N
349.769 374 M
349.769 371.83 L
S
GR
GS
0.149 GC
2 setlinecap
1 LJ
0.5 LW
N
362.568 374 M
362.568 371.83 L
S
GR
GS
0.149 GC
2 setlinecap
1 LJ
0.5 LW
N
388.166 374 M
388.166 371.83 L
S
GR
GS
0.149 GC
2 setlinecap
1 LJ
0.5 LW
N
400.965 374 M
400.965 371.83 L
S
GR
GS
0.149 GC
2 setlinecap
1 LJ
0.5 LW
N
413.765 374 M
413.765 371.83 L
S
GR
GS
0.149 GC
2 setlinecap
1 LJ
0.5 LW
N
426.564 374 M
426.564 371.83 L
S
GR
GS
0.149 GC
2 setlinecap
1 LJ
0.5 LW
N
452.162 374 M
452.162 371.83 L
S
GR
GS
0.149 GC
2 setlinecap
1 LJ
0.5 LW
N
464.961 374 M
464.961 371.83 L
S
GR
GS
0.149 GC
2 setlinecap
1 LJ
0.5 LW
N
477.761 374 M
477.761 371.83 L
S
GR
GS
0.149 GC
2 setlinecap
1 LJ
0.5 LW
N
490.56 374 M
490.56 371.83 L
S
GR
GS
0.149 GC
2 setlinecap
1 LJ
0.5 LW
N
80.986 31.5 M
80.986 33.67 L
S
GR
GS
0.149 GC
2 setlinecap
1 LJ
0.5 LW
N
93.785 31.5 M
93.785 33.67 L
S
GR
GS
0.149 GC
2 setlinecap
1 LJ
0.5 LW
N
106.584 31.5 M
106.584 33.67 L
S
GR
GS
0.149 GC
2 setlinecap
1 LJ
0.5 LW
N
132.182 31.5 M
132.182 33.67 L
S
GR
GS
0.149 GC
2 setlinecap
1 LJ
0.5 LW
N
144.981 31.5 M
144.981 33.67 L
S
GR
GS
0.149 GC
2 setlinecap
1 LJ
0.5 LW
N
157.781 31.5 M
157.781 33.67 L
S
GR
GS
0.149 GC
2 setlinecap
1 LJ
0.5 LW
N
170.58 31.5 M
170.58 33.67 L
S
GR
GS
0.149 GC
2 setlinecap
1 LJ
0.5 LW
N
196.178 31.5 M
196.178 33.67 L
S
GR
GS
0.149 GC
2 setlinecap
1 LJ
0.5 LW
N
208.977 31.5 M
208.977 33.67 L
S
GR
GS
0.149 GC
2 setlinecap
1 LJ
0.5 LW
N
221.777 31.5 M
221.777 33.67 L
S
GR
GS
0.149 GC
2 setlinecap
1 LJ
0.5 LW
N
234.576 31.5 M
234.576 33.67 L
S
GR
GS
0.149 GC
2 setlinecap
1 LJ
0.5 LW
N
260.174 31.5 M
260.174 33.67 L
S
GR
GS
0.149 GC
2 setlinecap
1 LJ
0.5 LW
N
272.973 31.5 M
272.973 33.67 L
S
GR
GS
0.149 GC
2 setlinecap
1 LJ
0.5 LW
N
285.773 31.5 M
285.773 33.67 L
S
GR
GS
0.149 GC
2 setlinecap
1 LJ
0.5 LW
N
298.572 31.5 M
298.572 33.67 L
S
GR
GS
0.149 GC
2 setlinecap
1 LJ
0.5 LW
N
324.17 31.5 M
324.17 33.67 L
S
GR
GS
0.149 GC
2 setlinecap
1 LJ
0.5 LW
N
336.969 31.5 M
336.969 33.67 L
S
GR
GS
0.149 GC
2 setlinecap
1 LJ
0.5 LW
N
349.769 31.5 M
349.769 33.67 L
S
GR
GS
0.149 GC
2 setlinecap
1 LJ
0.5 LW
N
362.568 31.5 M
362.568 33.67 L
S
GR
GS
0.149 GC
2 setlinecap
1 LJ
0.5 LW
N
388.166 31.5 M
388.166 33.67 L
S
GR
GS
0.149 GC
2 setlinecap
1 LJ
0.5 LW
N
400.965 31.5 M
400.965 33.67 L
S
GR
GS
0.149 GC
2 setlinecap
1 LJ
0.5 LW
N
413.765 31.5 M
413.765 33.67 L
S
GR
GS
0.149 GC
2 setlinecap
1 LJ
0.5 LW
N
426.564 31.5 M
426.564 33.67 L
S
GR
GS
0.149 GC
2 setlinecap
1 LJ
0.5 LW
N
452.162 31.5 M
452.162 33.67 L
S
GR
GS
0.149 GC
2 setlinecap
1 LJ
0.5 LW
N
464.961 31.5 M
464.961 33.67 L
S
GR
GS
0.149 GC
2 setlinecap
1 LJ
0.5 LW
N
477.761 31.5 M
477.761 33.67 L
S
GR
GS
0.149 GC
2 setlinecap
1 LJ
0.5 LW
N
490.56 31.5 M
490.56 33.67 L
S
GR
GS
[1 0 0 1 119.38309 378.80002] CT
0.149 GC
/Helvetica 14 F
GS
[1 0 0 1 0 0] CT
-16 14 moveto 
1 -1 scale
(1000) t 
GR
GR
GS
[1 0 0 1 183.37907 378.80002] CT
0.149 GC
/Helvetica 14 F
GS
[1 0 0 1 0 0] CT
-16 14 moveto 
1 -1 scale
(2000) t 
GR
GR
GS
[1 0 0 1 247.37505 378.80002] CT
0.149 GC
/Helvetica 14 F
GS
[1 0 0 1 0 0] CT
-16 14 moveto 
1 -1 scale
(3000) t 
GR
GR
GS
[1 0 0 1 311.371 378.80002] CT
0.149 GC
/Helvetica 14 F
GS
[1 0 0 1 0 0] CT
-16 14 moveto 
1 -1 scale
(4000) t 
GR
GR
GS
[1 0 0 1 375.36697 378.80002] CT
0.149 GC
/Helvetica 14 F
GS
[1 0 0 1 0 0] CT
-16 14 moveto 
1 -1 scale
(5000) t 
GR
GR
GS
[1 0 0 1 439.36295 378.80002] CT
0.149 GC
/Helvetica 14 F
GS
[1 0 0 1 0 0] CT
-16 14 moveto 
1 -1 scale
(6000) t 
GR
GR
GS
[1 0 0 1 503.35892 378.80002] CT
0.149 GC
/Helvetica 14 F
GS
[1 0 0 1 0 0] CT
-16 14 moveto 
1 -1 scale
(7000) t 
GR
GR
GS
[1 0 0 1 290.00021 396.29987] CT
0.149 GC
/Helvetica 15.4 F
GS
[1 0 0 1 0 0] CT
-42 15 moveto 
1 -1 scale
(Bitrate\(kb/s\)) t 
GR
GR
GS
0.149 GC
2 setlinecap
1 LJ
0.5 LW
N
73 374 M
73 31.5 L
S
GR
GS
0.149 GC
2 setlinecap
1 LJ
0.5 LW
N
507 374 M
507 31.5 L
S
GR
GS
0.149 GC
2 setlinecap
1 LJ
0.5 LW
N
73 354.926 M
77.34 354.926 L
S
GR
GS
0.149 GC
2 setlinecap
1 LJ
0.5 LW
N
73 310.495 M
77.34 310.495 L
S
GR
GS
0.149 GC
2 setlinecap
1 LJ
0.5 LW
N
73 266.065 M
77.34 266.065 L
S
GR
GS
0.149 GC
2 setlinecap
1 LJ
0.5 LW
N
73 221.635 M
77.34 221.635 L
S
GR
GS
0.149 GC
2 setlinecap
1 LJ
0.5 LW
N
73 177.204 M
77.34 177.204 L
S
GR
GS
0.149 GC
2 setlinecap
1 LJ
0.5 LW
N
73 132.774 M
77.34 132.774 L
S
GR
GS
0.149 GC
2 setlinecap
1 LJ
0.5 LW
N
73 88.343 M
77.34 88.343 L
S
GR
GS
0.149 GC
2 setlinecap
1 LJ
0.5 LW
N
73 43.913 M
77.34 43.913 L
S
GR
GS
0.149 GC
2 setlinecap
1 LJ
0.5 LW
N
507 354.926 M
502.66 354.926 L
S
GR
GS
0.149 GC
2 setlinecap
1 LJ
0.5 LW
N
507 310.495 M
502.66 310.495 L
S
GR
GS
0.149 GC
2 setlinecap
1 LJ
0.5 LW
N
507 266.065 M
502.66 266.065 L
S
GR
GS
0.149 GC
2 setlinecap
1 LJ
0.5 LW
N
507 221.635 M
502.66 221.635 L
S
GR
GS
0.149 GC
2 setlinecap
1 LJ
0.5 LW
N
507 177.204 M
502.66 177.204 L
S
GR
GS
0.149 GC
2 setlinecap
1 LJ
0.5 LW
N
507 132.774 M
502.66 132.774 L
S
GR
GS
0.149 GC
2 setlinecap
1 LJ
0.5 LW
N
507 88.343 M
502.66 88.343 L
S
GR
GS
0.149 GC
2 setlinecap
1 LJ
0.5 LW
N
507 43.913 M
502.66 43.913 L
S
GR
GS
0.149 GC
2 setlinecap
1 LJ
0.5 LW
N
73 372.698 M
75.17 372.698 L
S
GR
GS
0.149 GC
2 setlinecap
1 LJ
0.5 LW
N
73 363.812 M
75.17 363.812 L
S
GR
GS
0.149 GC
2 setlinecap
1 LJ
0.5 LW
N
73 346.04 M
75.17 346.04 L
S
GR
GS
0.149 GC
2 setlinecap
1 LJ
0.5 LW
N
73 337.154 M
75.17 337.154 L
S
GR
GS
0.149 GC
2 setlinecap
1 LJ
0.5 LW
N
73 328.268 M
75.17 328.268 L
S
GR
GS
0.149 GC
2 setlinecap
1 LJ
0.5 LW
N
73 319.382 M
75.17 319.382 L
S
GR
GS
0.149 GC
2 setlinecap
1 LJ
0.5 LW
N
73 301.609 M
75.17 301.609 L
S
GR
GS
0.149 GC
2 setlinecap
1 LJ
0.5 LW
N
73 292.723 M
75.17 292.723 L
S
GR
GS
0.149 GC
2 setlinecap
1 LJ
0.5 LW
N
73 283.837 M
75.17 283.837 L
S
GR
GS
0.149 GC
2 setlinecap
1 LJ
0.5 LW
N
73 274.951 M
75.17 274.951 L
S
GR
GS
0.149 GC
2 setlinecap
1 LJ
0.5 LW
N
73 257.179 M
75.17 257.179 L
S
GR
GS
0.149 GC
2 setlinecap
1 LJ
0.5 LW
N
73 248.293 M
75.17 248.293 L
S
GR
GS
0.149 GC
2 setlinecap
1 LJ
0.5 LW
N
73 239.407 M
75.17 239.407 L
S
GR
GS
0.149 GC
2 setlinecap
1 LJ
0.5 LW
N
73 230.521 M
75.17 230.521 L
S
GR
GS
0.149 GC
2 setlinecap
1 LJ
0.5 LW
N
73 212.749 M
75.17 212.749 L
S
GR
GS
0.149 GC
2 setlinecap
1 LJ
0.5 LW
N
73 203.862 M
75.17 203.862 L
S
GR
GS
0.149 GC
2 setlinecap
1 LJ
0.5 LW
N
73 194.976 M
75.17 194.976 L
S
GR
GS
0.149 GC
2 setlinecap
1 LJ
0.5 LW
N
73 186.09 M
75.17 186.09 L
S
GR
GS
0.149 GC
2 setlinecap
1 LJ
0.5 LW
N
73 168.318 M
75.17 168.318 L
S
GR
GS
0.149 GC
2 setlinecap
1 LJ
0.5 LW
N
73 159.432 M
75.17 159.432 L
S
GR
GS
0.149 GC
2 setlinecap
1 LJ
0.5 LW
N
73 150.546 M
75.17 150.546 L
S
GR
GS
0.149 GC
2 setlinecap
1 LJ
0.5 LW
N
73 141.66 M
75.17 141.66 L
S
GR
GS
0.149 GC
2 setlinecap
1 LJ
0.5 LW
N
73 123.888 M
75.17 123.888 L
S
GR
GS
0.149 GC
2 setlinecap
1 LJ
0.5 LW
N
73 115.002 M
75.17 115.002 L
S
GR
GS
0.149 GC
2 setlinecap
1 LJ
0.5 LW
N
73 106.116 M
75.17 106.116 L
S
GR
GS
0.149 GC
2 setlinecap
1 LJ
0.5 LW
N
73 97.23 M
75.17 97.23 L
S
GR
GS
0.149 GC
2 setlinecap
1 LJ
0.5 LW
N
73 79.457 M
75.17 79.457 L
S
GR
GS
0.149 GC
2 setlinecap
1 LJ
0.5 LW
N
73 70.571 M
75.17 70.571 L
S
GR
GS
0.149 GC
2 setlinecap
1 LJ
0.5 LW
N
73 61.685 M
75.17 61.685 L
S
GR
GS
0.149 GC
2 setlinecap
1 LJ
0.5 LW
N
73 52.799 M
75.17 52.799 L
S
GR
GS
0.149 GC
2 setlinecap
1 LJ
0.5 LW
N
73 35.027 M
75.17 35.027 L
S
GR
GS
0.149 GC
2 setlinecap
1 LJ
0.5 LW
N
507 372.698 M
504.83 372.698 L
S
GR
GS
0.149 GC
2 setlinecap
1 LJ
0.5 LW
N
507 363.812 M
504.83 363.812 L
S
GR
GS
0.149 GC
2 setlinecap
1 LJ
0.5 LW
N
507 346.04 M
504.83 346.04 L
S
GR
GS
0.149 GC
2 setlinecap
1 LJ
0.5 LW
N
507 337.154 M
504.83 337.154 L
S
GR
GS
0.149 GC
2 setlinecap
1 LJ
0.5 LW
N
507 328.268 M
504.83 328.268 L
S
GR
GS
0.149 GC
2 setlinecap
1 LJ
0.5 LW
N
507 319.382 M
504.83 319.382 L
S
GR
GS
0.149 GC
2 setlinecap
1 LJ
0.5 LW
N
507 301.609 M
504.83 301.609 L
S
GR
GS
0.149 GC
2 setlinecap
1 LJ
0.5 LW
N
507 292.723 M
504.83 292.723 L
S
GR
GS
0.149 GC
2 setlinecap
1 LJ
0.5 LW
N
507 283.837 M
504.83 283.837 L
S
GR
GS
0.149 GC
2 setlinecap
1 LJ
0.5 LW
N
507 274.951 M
504.83 274.951 L
S
GR
GS
0.149 GC
2 setlinecap
1 LJ
0.5 LW
N
507 257.179 M
504.83 257.179 L
S
GR
GS
0.149 GC
2 setlinecap
1 LJ
0.5 LW
N
507 248.293 M
504.83 248.293 L
S
GR
GS
0.149 GC
2 setlinecap
1 LJ
0.5 LW
N
507 239.407 M
504.83 239.407 L
S
GR
GS
0.149 GC
2 setlinecap
1 LJ
0.5 LW
N
507 230.521 M
504.83 230.521 L
S
GR
GS
0.149 GC
2 setlinecap
1 LJ
0.5 LW
N
507 212.749 M
504.83 212.749 L
S
GR
GS
0.149 GC
2 setlinecap
1 LJ
0.5 LW
N
507 203.862 M
504.83 203.862 L
S
GR
GS
0.149 GC
2 setlinecap
1 LJ
0.5 LW
N
507 194.976 M
504.83 194.976 L
S
GR
GS
0.149 GC
2 setlinecap
1 LJ
0.5 LW
N
507 186.09 M
504.83 186.09 L
S
GR
GS
0.149 GC
2 setlinecap
1 LJ
0.5 LW
N
507 168.318 M
504.83 168.318 L
S
GR
GS
0.149 GC
2 setlinecap
1 LJ
0.5 LW
N
507 159.432 M
504.83 159.432 L
S
GR
GS
0.149 GC
2 setlinecap
1 LJ
0.5 LW
N
507 150.546 M
504.83 150.546 L
S
GR
GS
0.149 GC
2 setlinecap
1 LJ
0.5 LW
N
507 141.66 M
504.83 141.66 L
S
GR
GS
0.149 GC
2 setlinecap
1 LJ
0.5 LW
N
507 123.888 M
504.83 123.888 L
S
GR
GS
0.149 GC
2 setlinecap
1 LJ
0.5 LW
N
507 115.002 M
504.83 115.002 L
S
GR
GS
0.149 GC
2 setlinecap
1 LJ
0.5 LW
N
507 106.116 M
504.83 106.116 L
S
GR
GS
0.149 GC
2 setlinecap
1 LJ
0.5 LW
N
507 97.23 M
504.83 97.23 L
S
GR
GS
0.149 GC
2 setlinecap
1 LJ
0.5 LW
N
507 79.457 M
504.83 79.457 L
S
GR
GS
0.149 GC
2 setlinecap
1 LJ
0.5 LW
N
507 70.571 M
504.83 70.571 L
S
GR
GS
0.149 GC
2 setlinecap
1 LJ
0.5 LW
N
507 61.685 M
504.83 61.685 L
S
GR
GS
0.149 GC
2 setlinecap
1 LJ
0.5 LW
N
507 52.799 M
504.83 52.799 L
S
GR
GS
0.149 GC
2 setlinecap
1 LJ
0.5 LW
N
507 35.027 M
504.83 35.027 L
S
GR
GS
[1 0 0 1 68.2 354.92584] CT
0.149 GC
/Helvetica 14 F
GS
[1 0 0 1 0 0] CT
-16 5.5 moveto 
1 -1 scale
(36) t 
GR
GR
GS
[1 0 0 1 68.2 310.49545] CT
0.149 GC
/Helvetica 14 F
GS
[1 0 0 1 0 0] CT
-16 5.5 moveto 
1 -1 scale
(37) t 
GR
GR
GS
[1 0 0 1 68.2 266.06506] CT
0.149 GC
/Helvetica 14 F
GS
[1 0 0 1 0 0] CT
-16 5.5 moveto 
1 -1 scale
(38) t 
GR
GR
GS
[1 0 0 1 68.2 221.63464] CT
0.149 GC
/Helvetica 14 F
GS
[1 0 0 1 0 0] CT
-16 5.5 moveto 
1 -1 scale
(39) t 
GR
GR
GS
[1 0 0 1 68.2 177.20425] CT
0.149 GC
/Helvetica 14 F
GS
[1 0 0 1 0 0] CT
-16 5.5 moveto 
1 -1 scale
(40) t 
GR
GR
GS
[1 0 0 1 68.2 132.77385] CT
0.149 GC
/Helvetica 14 F
GS
[1 0 0 1 0 0] CT
-16 5.5 moveto 
1 -1 scale
(41) t 
GR
GR
GS
[1 0 0 1 68.2 88.34344] CT
0.149 GC
/Helvetica 14 F
GS
[1 0 0 1 0 0] CT
-16 5.5 moveto 
1 -1 scale
(42) t 
GR
GR
GS
[1 0 0 1 68.2 43.91305] CT
0.149 GC
/Helvetica 14 F
GS
[1 0 0 1 0 0] CT
-16 5.5 moveto 
1 -1 scale
(43) t 
GR
GR
GS
[0 -1 1 0 49.2 202.74989] CT
0.149 GC
/Helvetica 15.4 F
GS
[1 0 0 1 0 0] CT
-42 -4 moveto 
1 -1 scale
(PSNR Y\(dB\)) t 
GR
GR
GS
[1 0 0 1 290.00027 29.575] CT
/Helvetica-Bold 15.4 F
GS
[1 0 0 1 0 0] CT
-108 -4 moveto 
1 -1 scale
(Lecture_1080P-3ce0.y4m-av1) t 
GR
GR
GS
0 0.447 0.741 RC
1 LJ
0.5 LW
N
74.453 364.198 M
75.733 353.754 L
77.013 343.342 L
78.293 333.081 L
79.573 323.092 L
80.853 313.494 L
82.133 304.407 L
83.412 295.952 L
84.692 288.247 L
85.972 281.414 L
87.252 275.572 L
88.532 270.614 L
89.812 265.895 L
91.092 261.361 L
92.372 257.005 L
93.652 252.823 L
94.932 248.808 L
96.212 244.954 L
97.492 241.257 L
98.771 237.71 L
100.051 234.308 L
101.331 231.046 L
102.611 227.916 L
103.891 224.914 L
105.171 222.034 L
106.451 219.271 L
107.731 216.618 L
109.011 214.071 L
110.291 211.623 L
111.571 209.268 L
112.851 207.002 L
114.131 204.817 L
115.41 202.71 L
116.69 200.674 L
117.97 198.703 L
119.25 196.788 L
120.53 194.904 L
121.81 193.047 L
123.09 191.217 L
124.37 189.413 L
125.65 187.635 L
126.93 185.884 L
128.21 184.158 L
129.49 182.459 L
130.769 180.785 L
132.049 179.136 L
133.329 177.513 L
134.609 175.915 L
135.889 174.342 L
137.169 172.794 L
138.449 171.271 L
139.729 169.773 L
141.009 168.299 L
142.289 166.849 L
143.569 165.423 L
144.849 164.022 L
146.128 162.644 L
147.408 161.29 L
148.688 159.959 L
149.968 158.652 L
151.248 157.368 L
152.528 156.107 L
153.808 154.87 L
155.088 153.654 L
156.368 152.462 L
157.648 151.292 L
158.928 150.144 L
160.208 149.019 L
161.488 147.915 L
162.767 146.833 L
164.047 145.773 L
165.327 144.735 L
166.607 143.718 L
167.887 142.722 L
169.167 141.748 L
170.447 140.794 L
171.727 139.861 L
173.007 138.949 L
174.287 138.057 L
175.567 137.185 L
176.847 136.334 L
178.126 135.503 L
179.406 134.692 L
180.686 133.9 L
181.966 133.128 L
183.246 132.375 L
184.526 131.642 L
185.806 130.928 L
187.086 130.228 L
188.366 129.53 L
189.646 128.834 L
190.926 128.139 L
192.206 127.445 L
193.486 126.753 L
194.765 126.062 L
196.045 125.372 L
197.325 124.685 L
198.605 123.998 L
199.885 123.313 L
201.165 122.63 L
202.445 121.948 L
203.725 121.268 L
205.005 120.589 L
206.285 119.912 L
207.565 119.237 L
208.845 118.563 L
210.124 117.89 L
211.404 117.22 L
212.684 116.551 L
213.964 115.883 L
215.244 115.218 L
216.524 114.554 L
217.804 113.891 L
219.084 113.231 L
220.364 112.572 L
221.644 111.915 L
222.924 111.26 L
224.204 110.606 L
225.483 109.955 L
226.763 109.305 L
228.043 108.657 L
229.323 108.011 L
230.603 107.367 L
231.883 106.724 L
233.163 106.084 L
234.443 105.446 L
235.723 104.809 L
237.003 104.174 L
238.283 103.542 L
239.563 102.911 L
240.843 102.282 L
242.122 101.656 L
243.402 101.031 L
244.682 100.408 L
245.962 99.788 L
247.242 99.169 L
248.522 98.553 L
249.802 97.939 L
251.082 97.327 L
252.362 96.717 L
253.642 96.109 L
254.922 95.503 L
256.202 94.899 L
257.481 94.298 L
258.761 93.699 L
260.041 93.102 L
261.321 92.507 L
262.601 91.915 L
263.881 91.325 L
265.161 90.737 L
266.441 90.152 L
267.721 89.568 L
269.001 88.987 L
270.281 88.409 L
271.561 87.833 L
272.841 87.259 L
274.12 86.688 L
275.4 86.119 L
276.68 85.552 L
277.96 84.988 L
279.24 84.426 L
280.52 83.867 L
281.8 83.311 L
283.08 82.756 L
284.36 82.205 L
285.64 81.656 L
286.92 81.109 L
288.2 80.565 L
289.479 80.024 L
290.759 79.485 L
292.039 78.949 L
293.319 78.415 L
294.599 77.884 L
295.879 77.356 L
297.159 76.831 L
298.439 76.308 L
299.719 75.788 L
300.999 75.27 L
302.279 74.755 L
303.559 74.244 L
304.839 73.734 L
306.118 73.228 L
307.398 72.724 L
308.678 72.224 L
309.958 71.726 L
311.238 71.231 L
312.518 70.738 L
313.798 70.249 L
315.078 69.762 L
316.358 69.279 L
317.638 68.798 L
318.918 68.321 L
320.198 67.846 L
321.477 67.374 L
322.757 66.905 L
324.037 66.439 L
325.317 65.977 L
326.597 65.517 L
327.877 65.06 L
329.157 64.607 L
330.437 64.156 L
331.717 63.709 L
332.997 63.264 L
334.277 62.823 L
335.557 62.385 L
336.836 61.95 L
338.116 61.518 L
339.396 61.09 L
340.676 60.664 L
341.956 60.242 L
343.236 59.823 L
344.516 59.408 L
345.796 58.995 L
347.076 58.586 L
348.356 58.18 L
349.636 57.778 L
350.916 57.379 L
352.195 56.983 L
353.475 56.59 L
354.755 56.201 L
356.035 55.816 L
357.315 55.433 L
358.595 55.054 L
359.875 54.679 L
361.155 54.307 L
362.435 53.938 L
363.715 53.573 L
364.995 53.212 L
366.275 52.854 L
367.555 52.499 L
368.834 52.148 L
370.114 51.801 L
371.394 51.457 L
372.674 51.117 L
373.954 50.78 L
375.234 50.447 L
376.514 50.118 L
377.794 49.792 L
379.074 49.47 L
380.354 49.151 L
381.634 48.837 L
382.914 48.526 L
384.193 48.218 L
385.473 47.915 L
386.753 47.615 L
388.033 47.319 L
389.313 47.027 L
390.593 46.739 L
391.873 46.454 L
393.153 46.173 L
394.433 45.896 L
395.713 45.623 L
396.993 45.354 L
398.273 45.089 L
399.553 44.828 L
400.832 44.57 L
402.112 44.317 L
403.392 44.067 L
404.672 43.822 L
405.952 43.58 L
407.232 43.343 L
408.512 43.11 L
409.792 42.88 L
411.072 42.655 L
412.352 42.433 L
413.632 42.216 L
414.912 42.003 L
416.191 41.794 L
417.471 41.589 L
418.751 41.388 L
420.031 41.192 L
421.311 40.999 L
422.591 40.811 L
423.871 40.627 L
425.151 40.447 L
426.431 40.272 L
427.711 40.101 L
428.991 39.933 L
430.271 39.771 L
431.551 39.612 L
432.83 39.458 L
434.11 39.309 L
435.39 39.163 L
436.67 39.022 L
437.95 38.885 L
439.23 38.753 L
440.51 38.625 L
441.79 38.502 L
443.07 38.383 L
444.35 38.268 L
445.63 38.158 L
446.91 38.052 L
448.189 37.951 L
449.469 37.855 L
450.749 37.763 L
452.029 37.675 L
453.309 37.592 L
454.589 37.514 L
455.869 37.44 L
457.149 37.371 L
458.429 37.307 L
459.709 37.247 L
460.989 37.191 L
462.269 37.141 L
463.548 37.095 L
464.828 37.054 L
466.108 37.017 L
467.388 36.986 L
468.668 36.959 L
469.948 36.937 L
471.228 36.919 L
472.508 36.907 L
473.788 36.899 L
475.068 36.896 L
S
GR
GS
0.851 0.325 0.098 RC
1 LJ
0.5 LW
N
74.383 364.771 M
75.663 354.177 L
76.943 343.616 L
78.223 333.215 L
79.503 323.104 L
80.783 313.411 L
82.063 304.266 L
83.343 295.796 L
84.623 288.132 L
85.903 281.401 L
87.183 275.732 L
88.463 270.784 L
89.743 266.031 L
91.022 261.467 L
92.302 257.085 L
93.582 252.88 L
94.862 248.845 L
96.142 244.976 L
97.422 241.265 L
98.702 237.707 L
99.982 234.297 L
101.262 231.028 L
102.542 227.895 L
103.822 224.891 L
105.102 222.01 L
106.381 219.248 L
107.661 216.598 L
108.941 214.053 L
110.221 211.609 L
111.501 209.259 L
112.781 206.998 L
114.061 204.819 L
115.341 202.717 L
116.621 200.686 L
117.901 198.719 L
119.181 196.795 L
120.461 194.899 L
121.741 193.03 L
123.02 191.188 L
124.3 189.373 L
125.58 187.586 L
126.86 185.825 L
128.14 184.091 L
129.42 182.384 L
130.7 180.703 L
131.98 179.048 L
133.26 177.419 L
134.54 175.816 L
135.82 174.239 L
137.1 172.688 L
138.379 171.162 L
139.659 169.661 L
140.939 168.185 L
142.219 166.734 L
143.499 165.308 L
144.779 163.906 L
146.059 162.529 L
147.339 161.176 L
148.619 159.847 L
149.899 158.542 L
151.179 157.261 L
152.459 156.003 L
153.738 154.769 L
155.018 153.558 L
156.298 152.37 L
157.578 151.206 L
158.858 150.063 L
160.138 148.944 L
161.418 147.847 L
162.698 146.772 L
163.978 145.719 L
165.258 144.689 L
166.538 143.68 L
167.818 142.692 L
169.098 141.727 L
170.377 140.782 L
171.657 139.858 L
172.937 138.956 L
174.217 138.074 L
175.497 137.213 L
176.777 136.373 L
178.057 135.553 L
179.337 134.753 L
180.617 133.972 L
181.897 133.212 L
183.177 132.471 L
184.457 131.75 L
185.736 131.042 L
187.016 130.336 L
188.296 129.63 L
189.576 128.927 L
190.856 128.224 L
192.136 127.524 L
193.416 126.824 L
194.696 126.126 L
195.976 125.43 L
197.256 124.735 L
198.536 124.042 L
199.816 123.35 L
201.096 122.66 L
202.375 121.972 L
203.655 121.285 L
204.935 120.599 L
206.215 119.916 L
207.495 119.234 L
208.775 118.554 L
210.055 117.875 L
211.335 117.198 L
212.615 116.523 L
213.895 115.85 L
215.175 115.178 L
216.455 114.508 L
217.734 113.84 L
219.014 113.174 L
220.294 112.509 L
221.574 111.847 L
222.854 111.186 L
224.134 110.527 L
225.414 109.87 L
226.694 109.215 L
227.974 108.562 L
229.254 107.911 L
230.534 107.261 L
231.814 106.614 L
233.094 105.969 L
234.373 105.325 L
235.653 104.684 L
236.933 104.045 L
238.213 103.408 L
239.493 102.773 L
240.773 102.139 L
242.053 101.508 L
243.333 100.879 L
244.613 100.253 L
245.893 99.628 L
247.173 99.006 L
248.453 98.385 L
249.732 97.768 L
251.012 97.152 L
252.292 96.538 L
253.572 95.927 L
254.852 95.318 L
256.132 94.711 L
257.412 94.106 L
258.692 93.504 L
259.972 92.904 L
261.252 92.306 L
262.532 91.711 L
263.812 91.118 L
265.091 90.528 L
266.371 89.94 L
267.651 89.354 L
268.931 88.771 L
270.211 88.19 L
271.491 87.612 L
272.771 87.036 L
274.051 86.463 L
275.331 85.892 L
276.611 85.324 L
277.891 84.758 L
279.171 84.195 L
280.451 83.635 L
281.73 83.077 L
283.01 82.521 L
284.29 81.968 L
285.57 81.418 L
286.85 80.871 L
288.13 80.326 L
289.41 79.784 L
290.69 79.245 L
291.97 78.709 L
293.25 78.175 L
294.53 77.644 L
295.81 77.115 L
297.089 76.59 L
298.369 76.067 L
299.649 75.547 L
300.929 75.03 L
302.209 74.516 L
303.489 74.005 L
304.769 73.496 L
306.049 72.991 L
307.329 72.488 L
308.609 71.989 L
309.889 71.492 L
311.169 70.998 L
312.449 70.507 L
313.728 70.02 L
315.008 69.535 L
316.288 69.053 L
317.568 68.575 L
318.848 68.099 L
320.128 67.627 L
321.408 67.157 L
322.688 66.691 L
323.968 66.228 L
325.248 65.768 L
326.528 65.311 L
327.808 64.857 L
329.087 64.407 L
330.367 63.96 L
331.647 63.516 L
332.927 63.075 L
334.207 62.637 L
335.487 62.203 L
336.767 61.772 L
338.047 61.345 L
339.327 60.92 L
340.607 60.499 L
341.887 60.082 L
343.167 59.668 L
344.447 59.257 L
345.726 58.849 L
347.006 58.445 L
348.286 58.045 L
349.566 57.648 L
350.846 57.254 L
352.126 56.864 L
353.406 56.477 L
354.686 56.094 L
355.966 55.714 L
357.246 55.338 L
358.526 54.966 L
359.806 54.597 L
361.085 54.232 L
362.365 53.87 L
363.645 53.512 L
364.925 53.157 L
366.205 52.807 L
367.485 52.46 L
368.765 52.116 L
370.045 51.777 L
371.325 51.441 L
372.605 51.109 L
373.885 50.78 L
375.165 50.455 L
376.444 50.135 L
377.724 49.818 L
379.004 49.504 L
380.284 49.195 L
381.564 48.89 L
382.844 48.588 L
384.124 48.29 L
385.404 47.996 L
386.684 47.706 L
387.964 47.42 L
389.244 47.138 L
390.524 46.86 L
391.803 46.586 L
393.083 46.316 L
394.363 46.05 L
395.643 45.788 L
396.923 45.53 L
398.203 45.276 L
399.483 45.027 L
400.763 44.781 L
402.043 44.539 L
403.323 44.302 L
404.603 44.068 L
405.883 43.839 L
407.163 43.614 L
408.442 43.394 L
409.722 43.177 L
411.002 42.965 L
412.282 42.757 L
413.562 42.553 L
414.842 42.353 L
416.122 42.158 L
417.402 41.967 L
418.682 41.781 L
419.962 41.598 L
421.242 41.42 L
422.522 41.247 L
423.801 41.078 L
425.081 40.913 L
426.361 40.753 L
427.641 40.597 L
428.921 40.445 L
430.201 40.299 L
431.481 40.156 L
432.761 40.018 L
434.041 39.885 L
435.321 39.756 L
436.601 39.631 L
437.881 39.512 L
439.161 39.397 L
440.44 39.286 L
441.72 39.18 L
443 39.079 L
444.28 38.982 L
445.56 38.89 L
446.84 38.802 L
448.12 38.72 L
449.4 38.642 L
450.68 38.569 L
451.96 38.5 L
453.24 38.437 L
454.52 38.378 L
455.799 38.324 L
457.079 38.274 L
458.359 38.23 L
459.639 38.19 L
460.919 38.155 L
462.199 38.126 L
463.479 38.1 L
464.759 38.08 L
466.039 38.065 L
467.319 38.055 L
468.599 38.05 L
S
GR
GS
0.929 0.694 0.125 RC
1 LJ
0.5 LW
N
77.513 334.617 M
78.793 326.518 L
80.073 318.443 L
81.353 310.465 L
82.633 302.653 L
83.913 295.078 L
85.193 287.81 L
86.473 280.922 L
87.753 274.483 L
89.033 268.564 L
90.313 263.236 L
91.593 258.569 L
92.872 254.548 L
94.152 250.733 L
95.432 247.052 L
96.712 243.501 L
97.992 240.076 L
99.272 236.772 L
100.552 233.588 L
101.832 230.518 L
103.112 227.558 L
104.392 224.706 L
105.672 221.957 L
106.952 219.308 L
108.231 216.754 L
109.511 214.293 L
110.791 211.919 L
112.071 209.63 L
113.351 207.422 L
114.631 205.29 L
115.911 203.232 L
117.191 201.243 L
118.471 199.319 L
119.751 197.458 L
121.031 195.654 L
122.311 193.905 L
123.59 192.206 L
124.87 190.553 L
126.15 188.943 L
127.43 187.358 L
128.71 185.793 L
129.99 184.249 L
131.27 182.724 L
132.55 181.22 L
133.83 179.735 L
135.11 178.27 L
136.39 176.825 L
137.67 175.399 L
138.95 173.992 L
140.229 172.605 L
141.509 171.236 L
142.789 169.887 L
144.069 168.556 L
145.349 167.244 L
146.629 165.95 L
147.909 164.675 L
149.189 163.418 L
150.469 162.179 L
151.749 160.958 L
153.029 159.755 L
154.309 158.569 L
155.588 157.401 L
156.868 156.251 L
158.148 155.118 L
159.428 154.002 L
160.708 152.903 L
161.988 151.821 L
163.268 150.756 L
164.548 149.707 L
165.828 148.675 L
167.108 147.66 L
168.388 146.66 L
169.668 145.677 L
170.948 144.71 L
172.227 143.758 L
173.507 142.823 L
174.787 141.902 L
176.067 140.998 L
177.347 140.109 L
178.627 139.234 L
179.907 138.375 L
181.187 137.531 L
182.467 136.702 L
183.747 135.888 L
185.027 135.087 L
186.307 134.302 L
187.586 133.53 L
188.866 132.773 L
190.146 132.03 L
191.426 131.3 L
192.706 130.585 L
193.986 129.883 L
195.266 129.194 L
196.546 128.519 L
197.826 127.857 L
199.106 127.208 L
200.386 126.572 L
201.666 125.94 L
202.945 125.309 L
204.225 124.678 L
205.505 124.049 L
206.785 123.42 L
208.065 122.793 L
209.345 122.166 L
210.625 121.54 L
211.905 120.915 L
213.185 120.291 L
214.465 119.668 L
215.745 119.046 L
217.025 118.425 L
218.305 117.805 L
219.584 117.187 L
220.864 116.569 L
222.144 115.952 L
223.424 115.336 L
224.704 114.722 L
225.984 114.108 L
227.264 113.496 L
228.544 112.885 L
229.824 112.275 L
231.104 111.666 L
232.384 111.059 L
233.664 110.452 L
234.943 109.847 L
236.223 109.243 L
237.503 108.641 L
238.783 108.039 L
240.063 107.439 L
241.343 106.841 L
242.623 106.243 L
243.903 105.647 L
245.183 105.052 L
246.463 104.459 L
247.743 103.867 L
249.023 103.277 L
250.303 102.687 L
251.582 102.1 L
252.862 101.514 L
254.142 100.929 L
255.422 100.346 L
256.702 99.764 L
257.982 99.184 L
259.262 98.605 L
260.542 98.028 L
261.822 97.452 L
263.102 96.878 L
264.382 96.306 L
265.662 95.735 L
266.941 95.166 L
268.221 94.598 L
269.501 94.033 L
270.781 93.468 L
272.061 92.906 L
273.341 92.345 L
274.621 91.786 L
275.901 91.229 L
277.181 90.673 L
278.461 90.119 L
279.741 89.567 L
281.021 89.017 L
282.301 88.469 L
283.58 87.922 L
284.86 87.378 L
286.14 86.835 L
287.42 86.294 L
288.7 85.755 L
289.98 85.218 L
291.26 84.683 L
292.54 84.149 L
293.82 83.618 L
295.1 83.089 L
296.38 82.562 L
297.66 82.036 L
298.939 81.513 L
300.219 80.992 L
301.499 80.473 L
302.779 79.955 L
304.059 79.441 L
305.339 78.928 L
306.619 78.417 L
307.899 77.908 L
309.179 77.402 L
310.459 76.898 L
311.739 76.395 L
313.019 75.895 L
314.298 75.398 L
315.578 74.902 L
316.858 74.409 L
318.138 73.918 L
319.418 73.429 L
320.698 72.943 L
321.978 72.459 L
323.258 71.977 L
324.538 71.498 L
325.818 71.021 L
327.098 70.546 L
328.378 70.074 L
329.658 69.604 L
330.937 69.137 L
332.217 68.672 L
333.497 68.209 L
334.777 67.749 L
336.057 67.291 L
337.337 66.836 L
338.617 66.384 L
339.897 65.934 L
341.177 65.486 L
342.457 65.041 L
343.737 64.599 L
345.017 64.159 L
346.296 63.722 L
347.576 63.288 L
348.856 62.856 L
350.136 62.427 L
351.416 62 L
352.696 61.576 L
353.976 61.155 L
355.256 60.737 L
356.536 60.321 L
357.816 59.908 L
359.096 59.498 L
360.376 59.091 L
361.655 58.686 L
362.935 58.285 L
364.215 57.886 L
365.495 57.49 L
366.775 57.097 L
368.055 56.706 L
369.335 56.319 L
370.615 55.935 L
371.895 55.553 L
373.175 55.175 L
374.455 54.799 L
375.735 54.426 L
377.015 54.057 L
378.294 53.69 L
379.574 53.326 L
380.854 52.966 L
382.134 52.608 L
383.414 52.254 L
384.694 51.903 L
385.974 51.555 L
387.254 51.209 L
388.534 50.868 L
389.814 50.529 L
391.094 50.193 L
392.374 49.861 L
393.653 49.531 L
394.933 49.205 L
396.213 48.882 L
397.493 48.563 L
398.773 48.247 L
400.053 47.934 L
401.333 47.624 L
402.613 47.318 L
403.893 47.015 L
405.173 46.715 L
406.453 46.418 L
407.733 46.125 L
409.013 45.836 L
410.292 45.55 L
411.572 45.267 L
412.852 44.988 L
414.132 44.712 L
415.412 44.439 L
416.692 44.17 L
417.972 43.905 L
419.252 43.643 L
420.532 43.385 L
421.812 43.13 L
423.092 42.879 L
424.372 42.631 L
425.651 42.387 L
426.931 42.146 L
428.211 41.91 L
429.491 41.676 L
430.771 41.447 L
432.051 41.221 L
433.331 40.999 L
434.611 40.781 L
435.891 40.566 L
437.171 40.355 L
438.451 40.148 L
439.731 39.944 L
441.01 39.745 L
442.29 39.549 L
443.57 39.357 L
444.85 39.169 L
446.13 38.984 L
447.41 38.804 L
448.69 38.627 L
449.97 38.454 L
451.25 38.286 L
452.53 38.121 L
453.81 37.96 L
455.09 37.803 L
456.37 37.65 L
457.649 37.501 L
458.929 37.356 L
460.209 37.215 L
461.489 37.078 L
462.769 36.946 L
464.049 36.817 L
465.329 36.692 L
466.609 36.572 L
467.889 36.455 L
469.169 36.343 L
470.449 36.235 L
471.729 36.131 L
473.008 36.031 L
474.288 35.936 L
475.568 35.844 L
476.848 35.757 L
478.128 35.674 L
479.408 35.596 L
480.688 35.521 L
481.968 35.451 L
483.248 35.386 L
484.528 35.324 L
485.808 35.267 L
487.088 35.214 L
488.368 35.166 L
489.647 35.122 L
490.927 35.083 L
492.207 35.048 L
493.487 35.017 L
494.767 34.991 L
496.047 34.969 L
497.327 34.952 L
498.607 34.939 L
499.887 34.931 L
501.167 34.927 L
S
GR
GS
0.494 0.184 0.557 RC
1 LJ
0.5 LW
N
73 374 M
74.28 361.635 L
75.56 349.506 L
76.84 337.762 L
78.12 326.553 L
79.4 316.03 L
80.68 306.342 L
81.959 297.639 L
83.239 290.072 L
84.519 283.772 L
85.799 278.146 L
87.079 272.838 L
88.359 267.834 L
89.639 263.119 L
90.919 258.678 L
92.199 254.496 L
93.479 250.56 L
94.759 246.854 L
96.039 243.364 L
97.318 240.075 L
98.598 236.972 L
99.878 234.041 L
101.158 231.267 L
102.438 228.635 L
103.718 226.127 L
104.998 223.686 L
106.278 221.3 L
107.558 218.967 L
108.838 216.688 L
110.118 214.463 L
111.398 212.289 L
112.677 210.168 L
113.957 208.099 L
115.237 206.08 L
116.517 204.113 L
117.797 202.195 L
119.077 200.327 L
120.357 198.508 L
121.637 196.738 L
122.917 195.016 L
124.197 193.342 L
125.477 191.715 L
126.757 190.135 L
128.037 188.601 L
129.316 187.113 L
130.596 185.67 L
131.876 184.272 L
133.156 182.918 L
134.436 181.608 L
135.716 180.341 L
136.996 179.117 L
138.276 177.936 L
139.556 176.796 L
140.836 175.698 L
142.116 174.641 L
143.396 173.624 L
144.675 172.626 L
145.955 171.63 L
147.235 170.636 L
148.515 169.645 L
149.795 168.656 L
151.075 167.67 L
152.355 166.687 L
153.635 165.706 L
154.915 164.727 L
156.195 163.752 L
157.475 162.779 L
158.755 161.808 L
160.035 160.841 L
161.314 159.876 L
162.594 158.914 L
163.874 157.956 L
165.154 157 L
166.434 156.047 L
167.714 155.097 L
168.994 154.15 L
170.274 153.207 L
171.554 152.267 L
172.834 151.329 L
174.114 150.396 L
175.394 149.465 L
176.673 148.538 L
177.953 147.614 L
179.233 146.694 L
180.513 145.777 L
181.793 144.863 L
183.073 143.953 L
184.353 143.047 L
185.633 142.145 L
186.913 141.246 L
188.193 140.351 L
189.473 139.46 L
190.753 138.572 L
192.033 137.689 L
193.312 136.809 L
194.592 135.933 L
195.872 135.061 L
197.152 134.194 L
198.432 133.33 L
199.712 132.471 L
200.992 131.616 L
202.272 130.764 L
203.552 129.918 L
204.832 129.075 L
206.112 128.237 L
207.392 127.403 L
208.671 126.574 L
209.951 125.749 L
211.231 124.929 L
212.511 124.113 L
213.791 123.302 L
215.071 122.495 L
216.351 121.693 L
217.631 120.896 L
218.911 120.104 L
220.191 119.316 L
221.471 118.534 L
222.751 117.756 L
224.03 116.983 L
225.31 116.215 L
226.59 115.452 L
227.87 114.695 L
229.15 113.942 L
230.43 113.195 L
231.71 112.453 L
232.99 111.716 L
234.27 110.984 L
235.55 110.257 L
236.83 109.537 L
238.11 108.821 L
239.39 108.111 L
240.669 107.406 L
241.949 106.707 L
243.229 106.014 L
244.509 105.326 L
245.789 104.644 L
247.069 103.968 L
248.349 103.297 L
249.629 102.632 L
250.909 101.973 L
252.189 101.32 L
253.469 100.673 L
254.749 100.032 L
256.028 99.397 L
257.308 98.768 L
258.588 98.145 L
259.868 97.528 L
261.148 96.917 L
262.428 96.313 L
263.708 95.715 L
264.988 95.123 L
266.268 94.538 L
267.548 93.959 L
268.828 93.386 L
270.108 92.82 L
271.388 92.261 L
272.667 91.708 L
273.947 91.162 L
275.227 90.622 L
276.507 90.089 L
277.787 89.563 L
279.067 89.044 L
280.347 88.531 L
281.627 88.026 L
282.907 87.527 L
284.187 87.035 L
285.467 86.551 L
286.747 86.073 L
288.026 85.602 L
289.306 85.139 L
290.586 84.683 L
291.866 84.234 L
293.146 83.792 L
294.426 83.358 L
295.706 82.931 L
296.986 82.511 L
298.266 82.099 L
299.546 81.694 L
300.826 81.297 L
302.106 80.908 L
303.385 80.526 L
304.665 80.151 L
305.945 79.785 L
307.225 79.426 L
308.505 79.075 L
309.785 78.732 L
311.065 78.396 L
312.345 78.069 L
313.625 77.749 L
314.905 77.438 L
316.185 77.134 L
317.465 76.839 L
318.745 76.552 L
320.024 76.273 L
321.304 76.002 L
322.584 75.74 L
323.864 75.485 L
325.144 75.239 L
326.424 75.002 L
327.704 74.773 L
328.984 74.552 L
330.264 74.34 L
331.544 74.137 L
332.824 73.942 L
334.104 73.756 L
335.383 73.578 L
336.663 73.409 L
337.943 73.249 L
339.223 73.098 L
340.503 72.956 L
341.783 72.822 L
343.063 72.698 L
344.343 72.582 L
345.623 72.476 L
346.903 72.378 L
348.183 72.29 L
349.463 72.211 L
350.742 72.141 L
352.022 72.081 L
353.302 72.029 L
354.582 71.987 L
355.862 71.955 L
357.142 71.932 L
358.422 71.918 L
S
GR
GS
0.467 0.675 0.188 RC
1 LJ
0.5 LW
N
75.667 352.829 M
76.947 343.687 L
78.227 334.552 L
79.507 325.508 L
80.787 316.639 L
82.067 308.031 L
83.347 299.768 L
84.627 291.935 L
85.907 284.617 L
87.186 277.898 L
88.466 271.862 L
89.746 266.596 L
91.026 262.11 L
92.306 257.888 L
93.586 253.808 L
94.866 249.867 L
96.146 246.06 L
97.426 242.384 L
98.706 238.836 L
99.986 235.412 L
101.266 232.107 L
102.545 228.92 L
103.825 225.845 L
105.105 222.879 L
106.385 220.019 L
107.665 217.261 L
108.945 214.601 L
110.225 212.036 L
111.505 209.562 L
112.785 207.175 L
114.065 204.872 L
115.345 202.649 L
116.625 200.502 L
117.904 198.428 L
119.184 196.423 L
120.464 194.484 L
121.744 192.606 L
123.024 190.787 L
124.304 189.022 L
125.584 187.308 L
126.864 185.639 L
128.144 183.995 L
129.424 182.373 L
130.704 180.772 L
131.984 179.193 L
133.264 177.635 L
134.543 176.097 L
135.823 174.581 L
137.103 173.085 L
138.383 171.609 L
139.663 170.154 L
140.943 168.72 L
142.223 167.305 L
143.503 165.911 L
144.783 164.536 L
146.063 163.181 L
147.343 161.846 L
148.623 160.53 L
149.902 159.234 L
151.182 157.957 L
152.462 156.699 L
153.742 155.459 L
155.022 154.239 L
156.302 153.037 L
157.582 151.854 L
158.862 150.689 L
160.142 149.542 L
161.422 148.414 L
162.702 147.303 L
163.982 146.21 L
165.262 145.135 L
166.541 144.078 L
167.821 143.038 L
169.101 142.015 L
170.381 141.009 L
171.661 140.021 L
172.941 139.049 L
174.221 138.094 L
175.501 137.156 L
176.781 136.234 L
178.061 135.328 L
179.341 134.439 L
180.621 133.566 L
181.9 132.709 L
183.18 131.867 L
184.46 131.041 L
185.74 130.231 L
187.02 129.436 L
188.3 128.656 L
189.58 127.892 L
190.86 127.142 L
192.14 126.407 L
193.42 125.687 L
194.7 124.982 L
195.98 124.291 L
197.259 123.614 L
198.539 122.951 L
199.819 122.303 L
201.099 121.668 L
202.379 121.045 L
203.659 120.424 L
204.939 119.803 L
206.219 119.184 L
207.499 118.566 L
208.779 117.949 L
210.059 117.332 L
211.339 116.717 L
212.619 116.103 L
213.898 115.49 L
215.178 114.879 L
216.458 114.268 L
217.738 113.659 L
219.018 113.05 L
220.298 112.443 L
221.578 111.837 L
222.858 111.232 L
224.138 110.629 L
225.418 110.026 L
226.698 109.425 L
227.978 108.825 L
229.257 108.226 L
230.537 107.629 L
231.817 107.033 L
233.097 106.438 L
234.377 105.845 L
235.657 105.253 L
236.937 104.662 L
238.217 104.073 L
239.497 103.485 L
240.777 102.898 L
242.057 102.313 L
243.337 101.729 L
244.617 101.146 L
245.896 100.565 L
247.176 99.986 L
248.456 99.408 L
249.736 98.831 L
251.016 98.256 L
252.296 97.682 L
253.576 97.11 L
254.856 96.54 L
256.136 95.971 L
257.416 95.403 L
258.696 94.838 L
259.976 94.273 L
261.255 93.71 L
262.535 93.149 L
263.815 92.59 L
265.095 92.032 L
266.375 91.476 L
267.655 90.922 L
268.935 90.369 L
270.215 89.818 L
271.495 89.268 L
272.775 88.721 L
274.055 88.175 L
275.335 87.631 L
276.615 87.088 L
277.894 86.547 L
279.174 86.009 L
280.454 85.471 L
281.734 84.936 L
283.014 84.403 L
284.294 83.871 L
285.574 83.342 L
286.854 82.814 L
288.134 82.288 L
289.414 81.764 L
290.694 81.242 L
291.974 80.721 L
293.253 80.203 L
294.533 79.687 L
295.813 79.172 L
297.093 78.66 L
298.373 78.15 L
299.653 77.641 L
300.933 77.135 L
302.213 76.63 L
303.493 76.128 L
304.773 75.628 L
306.053 75.13 L
307.333 74.634 L
308.612 74.14 L
309.892 73.648 L
311.172 73.158 L
312.452 72.67 L
313.732 72.185 L
315.012 71.702 L
316.292 71.221 L
317.572 70.742 L
318.852 70.265 L
320.132 69.79 L
321.412 69.318 L
322.692 68.848 L
323.972 68.38 L
325.251 67.915 L
326.531 67.452 L
327.811 66.991 L
329.091 66.532 L
330.371 66.076 L
331.651 65.622 L
332.931 65.171 L
334.211 64.722 L
335.491 64.275 L
336.771 63.83 L
338.051 63.388 L
339.331 62.949 L
340.61 62.512 L
341.89 62.077 L
343.17 61.645 L
344.45 61.215 L
345.73 60.788 L
347.01 60.363 L
348.29 59.941 L
349.57 59.521 L
350.85 59.104 L
352.13 58.69 L
353.41 58.278 L
354.69 57.868 L
355.97 57.462 L
357.249 57.057 L
358.529 56.656 L
359.809 56.257 L
361.089 55.861 L
362.369 55.467 L
363.649 55.076 L
364.929 54.688 L
366.209 54.302 L
367.489 53.919 L
368.769 53.539 L
370.049 53.162 L
371.329 52.788 L
372.608 52.416 L
373.888 52.047 L
375.168 51.681 L
376.448 51.317 L
377.728 50.957 L
379.008 50.599 L
380.288 50.244 L
381.568 49.892 L
382.848 49.543 L
384.128 49.197 L
385.408 48.853 L
386.688 48.513 L
387.967 48.176 L
389.247 47.841 L
390.527 47.51 L
391.807 47.181 L
393.087 46.856 L
394.367 46.533 L
395.647 46.214 L
396.927 45.897 L
398.207 45.584 L
399.487 45.273 L
400.767 44.966 L
402.047 44.662 L
403.327 44.36 L
404.606 44.062 L
405.886 43.767 L
407.166 43.476 L
408.446 43.187 L
409.726 42.902 L
411.006 42.619 L
412.286 42.34 L
413.566 42.064 L
414.846 41.792 L
416.126 41.522 L
417.406 41.256 L
418.686 40.993 L
419.965 40.734 L
421.245 40.477 L
422.525 40.224 L
423.805 39.975 L
425.085 39.728 L
426.365 39.485 L
427.645 39.246 L
428.925 39.009 L
430.205 38.776 L
431.485 38.547 L
432.765 38.321 L
434.045 38.098 L
435.325 37.879 L
436.604 37.663 L
437.884 37.45 L
439.164 37.241 L
440.444 37.036 L
441.724 36.834 L
443.004 36.636 L
444.284 36.441 L
445.564 36.25 L
446.844 36.062 L
448.124 35.878 L
449.404 35.697 L
450.684 35.52 L
451.963 35.347 L
453.243 35.177 L
454.523 35.011 L
455.803 34.848 L
457.083 34.69 L
458.363 34.535 L
459.643 34.383 L
460.923 34.235 L
462.203 34.091 L
463.483 33.951 L
464.763 33.815 L
466.043 33.682 L
467.323 33.553 L
468.602 33.428 L
469.882 33.306 L
471.162 33.189 L
472.442 33.075 L
473.722 32.965 L
475.002 32.859 L
476.282 32.757 L
477.562 32.659 L
478.842 32.564 L
480.122 32.474 L
481.402 32.387 L
482.682 32.304 L
483.961 32.226 L
485.241 32.151 L
486.521 32.08 L
487.801 32.013 L
489.081 31.951 L
490.361 31.892 L
491.641 31.837 L
492.921 31.786 L
494.201 31.74 L
495.481 31.697 L
496.761 31.659 L
498.041 31.625 L
499.32 31.594 L
500.6 31.568 L
501.88 31.546 L
503.16 31.528 L
504.44 31.515 L
505.72 31.505 L
507 31.5 L
S
GR
GS
0.302 0.745 0.933 RC
[10 6] 0 setdash
2 LJ
0.5 LW
N
75.133 357.927 M
76.413 348.06 L
77.693 338.211 L
78.973 328.485 L
80.253 318.991 L
81.533 309.834 L
82.812 301.121 L
84.092 292.959 L
85.372 285.454 L
86.652 278.714 L
87.932 272.846 L
89.212 267.917 L
90.492 263.375 L
91.772 259.002 L
93.052 254.793 L
94.332 250.743 L
95.612 246.846 L
96.892 243.099 L
98.171 239.496 L
99.451 236.032 L
100.731 232.702 L
102.011 229.501 L
103.291 226.424 L
104.571 223.466 L
105.851 220.623 L
107.131 217.888 L
108.411 215.258 L
109.691 212.727 L
110.971 210.29 L
112.251 207.942 L
113.531 205.679 L
114.81 203.495 L
116.09 201.385 L
117.37 199.345 L
118.65 197.368 L
119.93 195.452 L
121.21 193.589 L
122.49 191.772 L
123.77 189.983 L
125.05 188.22 L
126.33 186.482 L
127.61 184.77 L
128.89 183.083 L
130.169 181.42 L
131.449 179.783 L
132.729 178.171 L
134.009 176.582 L
135.289 175.019 L
136.569 173.479 L
137.849 171.963 L
139.129 170.471 L
140.409 169.003 L
141.689 167.558 L
142.969 166.136 L
144.249 164.738 L
145.529 163.362 L
146.808 162.009 L
148.088 160.678 L
149.368 159.37 L
150.648 158.084 L
151.928 156.82 L
153.208 155.577 L
154.488 154.357 L
155.768 153.157 L
157.048 151.979 L
158.328 150.823 L
159.608 149.686 L
160.888 148.571 L
162.167 147.476 L
163.447 146.402 L
164.727 145.348 L
166.007 144.313 L
167.287 143.299 L
168.567 142.304 L
169.847 141.329 L
171.127 140.373 L
172.407 139.436 L
173.687 138.518 L
174.967 137.619 L
176.247 136.738 L
177.526 135.875 L
178.806 135.031 L
180.086 134.205 L
181.366 133.397 L
182.646 132.606 L
183.926 131.833 L
185.206 131.077 L
186.486 130.338 L
187.766 129.617 L
189.046 128.909 L
190.326 128.203 L
191.606 127.499 L
192.886 126.796 L
194.165 126.094 L
195.445 125.393 L
196.725 124.694 L
198.005 123.996 L
199.285 123.299 L
200.565 122.603 L
201.845 121.909 L
203.125 121.216 L
204.405 120.525 L
205.685 119.835 L
206.965 119.146 L
208.245 118.459 L
209.524 117.774 L
210.804 117.09 L
212.084 116.407 L
213.364 115.726 L
214.644 115.047 L
215.924 114.369 L
217.204 113.693 L
218.484 113.019 L
219.764 112.346 L
221.044 111.675 L
222.324 111.006 L
223.604 110.338 L
224.883 109.673 L
226.163 109.009 L
227.443 108.347 L
228.723 107.687 L
230.003 107.029 L
231.283 106.373 L
232.563 105.719 L
233.843 105.066 L
235.123 104.416 L
236.403 103.768 L
237.683 103.122 L
238.963 102.478 L
240.243 101.836 L
241.522 101.196 L
242.802 100.559 L
244.082 99.923 L
245.362 99.29 L
246.642 98.659 L
247.922 98.031 L
249.202 97.404 L
250.482 96.78 L
251.762 96.159 L
253.042 95.539 L
254.322 94.922 L
255.602 94.308 L
256.882 93.696 L
258.161 93.086 L
259.441 92.479 L
260.721 91.875 L
262.001 91.273 L
263.281 90.673 L
264.561 90.076 L
265.841 89.482 L
267.121 88.891 L
268.401 88.302 L
269.681 87.716 L
270.961 87.132 L
272.241 86.552 L
273.52 85.974 L
274.8 85.399 L
276.08 84.826 L
277.36 84.257 L
278.64 83.691 L
279.92 83.127 L
281.2 82.566 L
282.48 82.009 L
283.76 81.454 L
285.04 80.902 L
286.32 80.354 L
287.6 79.808 L
288.879 79.266 L
290.159 78.727 L
291.439 78.19 L
292.719 77.657 L
293.999 77.127 L
295.279 76.601 L
296.559 76.077 L
297.839 75.557 L
299.119 75.04 L
300.399 74.527 L
301.679 74.017 L
302.959 73.51 L
304.238 73.007 L
305.518 72.507 L
306.798 72.01 L
308.078 71.517 L
309.358 71.028 L
310.638 70.542 L
311.918 70.059 L
313.198 69.58 L
314.478 69.105 L
315.758 68.633 L
317.038 68.165 L
318.318 67.701 L
319.598 67.241 L
320.877 66.784 L
322.157 66.331 L
323.437 65.881 L
324.717 65.436 L
325.997 64.994 L
327.277 64.556 L
328.557 64.123 L
329.837 63.693 L
331.117 63.266 L
332.397 62.844 L
333.677 62.426 L
334.957 62.012 L
336.237 61.602 L
337.516 61.196 L
338.796 60.794 L
340.076 60.396 L
341.356 60.003 L
342.636 59.613 L
343.916 59.228 L
345.196 58.847 L
346.476 58.47 L
347.756 58.098 L
349.036 57.729 L
350.316 57.366 L
351.596 57.006 L
352.875 56.651 L
354.155 56.3 L
355.435 55.954 L
356.715 55.612 L
357.995 55.274 L
359.275 54.941 L
360.555 54.613 L
361.835 54.289 L
363.115 53.97 L
364.395 53.655 L
365.675 53.345 L
366.955 53.04 L
368.234 52.739 L
369.514 52.443 L
370.794 52.152 L
372.074 51.865 L
373.354 51.583 L
374.634 51.307 L
375.914 51.034 L
377.194 50.767 L
378.474 50.505 L
379.754 50.248 L
381.034 49.995 L
382.314 49.748 L
383.594 49.505 L
384.873 49.268 L
386.153 49.035 L
387.433 48.808 L
388.713 48.585 L
389.993 48.368 L
391.273 48.156 L
392.553 47.949 L
393.833 47.748 L
395.113 47.551 L
396.393 47.36 L
397.673 47.174 L
398.953 46.993 L
400.232 46.818 L
401.512 46.648 L
402.792 46.484 L
404.072 46.324 L
405.352 46.17 L
406.632 46.022 L
407.912 45.879 L
409.192 45.742 L
410.472 45.61 L
411.752 45.484 L
413.032 45.363 L
414.312 45.248 L
415.592 45.139 L
416.871 45.035 L
418.151 44.937 L
419.431 44.845 L
420.711 44.758 L
421.991 44.677 L
423.271 44.602 L
424.551 44.533 L
425.831 44.469 L
427.111 44.412 L
428.391 44.36 L
429.671 44.314 L
430.951 44.274 L
432.23 44.24 L
433.51 44.212 L
434.79 44.19 L
436.07 44.175 L
437.35 44.165 L
438.63 44.161 L
S
GR
GS
0.635 0.078 0.184 RC
[10 6] 0 setdash
2 LJ
0.5 LW
N
77.441 334.649 M
78.72 326.573 L
80 318.526 L
81.28 310.575 L
82.56 302.79 L
83.84 295.241 L
85.12 287.997 L
86.4 281.127 L
87.68 274.699 L
88.96 268.784 L
90.24 263.451 L
91.52 258.768 L
92.8 254.725 L
94.079 250.893 L
95.359 247.196 L
96.639 243.628 L
97.919 240.187 L
99.199 236.869 L
100.479 233.669 L
101.759 230.584 L
103.039 227.61 L
104.319 224.744 L
105.599 221.981 L
106.879 219.318 L
108.159 216.75 L
109.439 214.275 L
110.718 211.888 L
111.998 209.585 L
113.278 207.363 L
114.558 205.218 L
115.838 203.146 L
117.118 201.143 L
118.398 199.206 L
119.678 197.33 L
120.958 195.512 L
122.238 193.748 L
123.518 192.035 L
124.798 190.367 L
126.077 188.741 L
127.357 187.139 L
128.637 185.559 L
129.917 184.002 L
131.197 182.466 L
132.477 180.952 L
133.757 179.459 L
135.037 177.988 L
136.317 176.538 L
137.597 175.108 L
138.877 173.7 L
140.157 172.312 L
141.437 170.944 L
142.716 169.597 L
143.996 168.27 L
145.276 166.963 L
146.556 165.675 L
147.836 164.407 L
149.116 163.158 L
150.396 161.928 L
151.676 160.717 L
152.956 159.525 L
154.236 158.352 L
155.516 157.197 L
156.796 156.06 L
158.075 154.941 L
159.355 153.84 L
160.635 152.757 L
161.915 151.692 L
163.195 150.644 L
164.475 149.612 L
165.755 148.598 L
167.035 147.601 L
168.315 146.62 L
169.595 145.656 L
170.875 144.708 L
172.155 143.776 L
173.434 142.86 L
174.714 141.96 L
175.994 141.075 L
177.274 140.205 L
178.554 139.351 L
179.834 138.512 L
181.114 137.687 L
182.394 136.878 L
183.674 136.082 L
184.954 135.301 L
186.234 134.534 L
187.514 133.781 L
188.794 133.042 L
190.073 132.316 L
191.353 131.604 L
192.633 130.904 L
193.913 130.218 L
195.193 129.543 L
196.473 128.868 L
197.753 128.195 L
199.033 127.523 L
200.313 126.851 L
201.593 126.18 L
202.873 125.51 L
204.153 124.84 L
205.432 124.172 L
206.712 123.504 L
207.992 122.837 L
209.272 122.171 L
210.552 121.506 L
211.832 120.843 L
213.112 120.18 L
214.392 119.518 L
215.672 118.857 L
216.952 118.198 L
218.232 117.539 L
219.512 116.882 L
220.792 116.226 L
222.071 115.571 L
223.351 114.917 L
224.631 114.265 L
225.911 113.614 L
227.191 112.964 L
228.471 112.316 L
229.751 111.669 L
231.031 111.024 L
232.311 110.38 L
233.591 109.738 L
234.871 109.097 L
236.151 108.457 L
237.43 107.82 L
238.71 107.183 L
239.99 106.549 L
241.27 105.916 L
242.55 105.285 L
243.83 104.656 L
245.11 104.028 L
246.39 103.402 L
247.67 102.778 L
248.95 102.156 L
250.23 101.536 L
251.51 100.917 L
252.789 100.301 L
254.069 99.686 L
255.349 99.074 L
256.629 98.463 L
257.909 97.855 L
259.189 97.249 L
260.469 96.644 L
261.749 96.042 L
263.029 95.442 L
264.309 94.845 L
265.589 94.249 L
266.869 93.656 L
268.149 93.065 L
269.428 92.477 L
270.708 91.891 L
271.988 91.307 L
273.268 90.725 L
274.548 90.146 L
275.828 89.57 L
277.108 88.996 L
278.388 88.424 L
279.668 87.855 L
280.948 87.289 L
282.228 86.725 L
283.508 86.164 L
284.787 85.605 L
286.067 85.05 L
287.347 84.497 L
288.627 83.946 L
289.907 83.399 L
291.187 82.854 L
292.467 82.313 L
293.747 81.774 L
295.027 81.238 L
296.307 80.704 L
297.587 80.174 L
298.867 79.647 L
300.147 79.123 L
301.426 78.602 L
302.706 78.084 L
303.986 77.569 L
305.266 77.058 L
306.546 76.549 L
307.826 76.044 L
309.106 75.542 L
310.386 75.043 L
311.666 74.547 L
312.946 74.055 L
314.226 73.566 L
315.506 73.081 L
316.785 72.599 L
318.065 72.12 L
319.345 71.645 L
320.625 71.173 L
321.905 70.705 L
323.185 70.241 L
324.465 69.78 L
325.745 69.322 L
327.025 68.868 L
328.305 68.418 L
329.585 67.972 L
330.865 67.529 L
332.144 67.09 L
333.424 66.655 L
334.704 66.224 L
335.984 65.797 L
337.264 65.373 L
338.544 64.953 L
339.824 64.538 L
341.104 64.126 L
342.384 63.718 L
343.664 63.314 L
344.944 62.915 L
346.224 62.519 L
347.504 62.128 L
348.783 61.74 L
350.063 61.357 L
351.343 60.978 L
352.623 60.603 L
353.903 60.233 L
355.183 59.867 L
356.463 59.505 L
357.743 59.147 L
359.023 58.794 L
360.303 58.445 L
361.583 58.101 L
362.863 57.761 L
364.142 57.426 L
365.422 57.095 L
366.702 56.769 L
367.982 56.447 L
369.262 56.13 L
370.542 55.818 L
371.822 55.51 L
373.102 55.207 L
374.382 54.909 L
375.662 54.615 L
376.942 54.326 L
378.222 54.042 L
379.501 53.763 L
380.781 53.489 L
382.061 53.22 L
383.341 52.955 L
384.621 52.696 L
385.901 52.441 L
387.181 52.192 L
388.461 51.948 L
389.741 51.708 L
391.021 51.474 L
392.301 51.245 L
393.581 51.021 L
394.861 50.803 L
396.14 50.589 L
397.42 50.381 L
398.7 50.178 L
399.98 49.981 L
401.26 49.789 L
402.54 49.602 L
403.82 49.42 L
405.1 49.244 L
406.38 49.074 L
407.66 48.909 L
408.94 48.749 L
410.22 48.595 L
411.499 48.447 L
412.779 48.304 L
414.059 48.167 L
415.339 48.036 L
416.619 47.91 L
417.899 47.79 L
419.179 47.676 L
420.459 47.567 L
421.739 47.465 L
423.019 47.368 L
424.299 47.277 L
425.579 47.192 L
426.859 47.113 L
428.138 47.039 L
429.418 46.972 L
430.698 46.911 L
431.978 46.856 L
433.258 46.807 L
434.538 46.764 L
435.818 46.728 L
437.098 46.697 L
438.378 46.673 L
439.658 46.655 L
440.938 46.643 L
442.218 46.637 L
S
GR
GS
0 0.447 0.741 RC
[10 6] 0 setdash
2 LJ
0.5 LW
N
73.128 372.968 M
74.408 360.758 L
75.688 348.787 L
76.968 337.198 L
78.248 326.134 L
79.528 315.738 L
80.808 306.153 L
82.088 297.522 L
83.368 289.987 L
84.647 283.679 L
85.927 278.045 L
87.207 272.725 L
88.487 267.705 L
89.767 262.971 L
91.047 258.509 L
92.327 254.307 L
93.607 250.349 L
94.887 246.623 L
96.167 243.114 L
97.447 239.809 L
98.727 236.695 L
100.007 233.757 L
101.286 230.982 L
102.566 228.355 L
103.846 225.855 L
105.126 223.422 L
106.406 221.048 L
107.686 218.732 L
108.966 216.473 L
110.246 214.272 L
111.526 212.127 L
112.806 210.037 L
114.086 208.002 L
115.366 206.021 L
116.645 204.094 L
117.925 202.22 L
119.205 200.398 L
120.485 198.627 L
121.765 196.908 L
123.045 195.239 L
124.325 193.619 L
125.605 192.048 L
126.885 190.526 L
128.165 189.051 L
129.445 187.624 L
130.725 186.242 L
132.004 184.906 L
133.284 183.615 L
134.564 182.369 L
135.844 181.166 L
137.124 180.006 L
138.404 178.889 L
139.684 177.813 L
140.964 176.777 L
142.244 175.752 L
143.524 174.73 L
144.804 173.71 L
146.084 172.692 L
147.364 171.678 L
148.643 170.666 L
149.923 169.656 L
151.203 168.649 L
152.483 167.646 L
153.763 166.645 L
155.043 165.648 L
156.323 164.653 L
157.603 163.661 L
158.883 162.673 L
160.163 161.689 L
161.443 160.707 L
162.723 159.729 L
164.002 158.755 L
165.282 157.785 L
166.562 156.818 L
167.842 155.855 L
169.122 154.895 L
170.402 153.94 L
171.682 152.989 L
172.962 152.042 L
174.242 151.099 L
175.522 150.16 L
176.802 149.226 L
178.082 148.296 L
179.361 147.371 L
180.641 146.45 L
181.921 145.534 L
183.201 144.622 L
184.481 143.716 L
185.761 142.814 L
187.041 141.917 L
188.321 141.025 L
189.601 140.139 L
190.881 139.257 L
192.161 138.381 L
193.441 137.51 L
194.721 136.644 L
196 135.784 L
197.28 134.93 L
198.56 134.081 L
199.84 133.238 L
201.12 132.401 L
202.4 131.569 L
203.68 130.744 L
204.96 129.924 L
206.24 129.111 L
207.52 128.304 L
208.8 127.503 L
210.08 126.708 L
211.359 125.92 L
212.639 125.138 L
213.919 124.363 L
215.199 123.594 L
216.479 122.832 L
217.759 122.077 L
219.039 121.329 L
220.319 120.588 L
221.599 119.854 L
222.879 119.126 L
224.159 118.406 L
225.439 117.694 L
226.719 116.988 L
227.998 116.29 L
229.278 115.6 L
230.558 114.917 L
231.838 114.241 L
233.118 113.574 L
234.398 112.914 L
235.678 112.262 L
236.958 111.618 L
238.238 110.982 L
239.518 110.354 L
240.798 109.734 L
242.078 109.122 L
243.357 108.519 L
244.637 107.924 L
245.917 107.337 L
247.197 106.759 L
248.477 106.19 L
249.757 105.63 L
251.037 105.078 L
252.317 104.535 L
253.597 104.001 L
254.877 103.476 L
256.157 102.96 L
257.437 102.453 L
258.716 101.955 L
259.996 101.467 L
261.276 100.988 L
262.556 100.519 L
263.836 100.059 L
265.116 99.609 L
266.396 99.168 L
267.676 98.737 L
268.956 98.316 L
270.236 97.905 L
271.516 97.504 L
272.796 97.113 L
274.076 96.732 L
275.355 96.362 L
276.635 96.001 L
277.915 95.651 L
279.195 95.312 L
280.475 94.983 L
281.755 94.665 L
283.035 94.357 L
284.315 94.06 L
285.595 93.774 L
286.875 93.499 L
288.155 93.235 L
289.435 92.982 L
290.714 92.74 L
291.994 92.509 L
293.274 92.289 L
294.554 92.082 L
295.834 91.885 L
297.114 91.7 L
298.394 91.526 L
299.674 91.364 L
300.954 91.214 L
302.234 91.076 L
303.514 90.95 L
304.794 90.835 L
306.074 90.733 L
307.353 90.643 L
308.633 90.565 L
309.913 90.5 L
311.193 90.446 L
312.473 90.405 L
313.753 90.377 L
315.033 90.361 L
S
GR
GS
0.851 0.325 0.098 RC
[10 6] 0 setdash
2 LJ
0.5 LW
N
76.28 347.815 M
77.56 339.226 L
78.84 330.645 L
80.119 322.138 L
81.399 313.772 L
82.679 305.614 L
83.959 297.731 L
85.239 290.189 L
86.519 283.054 L
87.799 276.394 L
89.079 270.276 L
90.359 264.766 L
91.639 259.931 L
92.919 255.766 L
94.199 251.824 L
95.479 248.008 L
96.758 244.316 L
98.038 240.744 L
99.318 237.29 L
100.598 233.951 L
101.878 230.722 L
103.158 227.601 L
104.438 224.584 L
105.718 221.67 L
106.998 218.854 L
108.278 216.132 L
109.558 213.503 L
110.838 210.963 L
112.117 208.508 L
113.397 206.136 L
114.677 203.844 L
115.957 201.627 L
117.237 199.484 L
118.517 197.41 L
119.797 195.403 L
121.077 193.46 L
122.357 191.577 L
123.637 189.751 L
124.917 187.979 L
126.197 186.257 L
127.477 184.584 L
128.756 182.955 L
130.036 181.367 L
131.316 179.807 L
132.596 178.268 L
133.876 176.75 L
135.156 175.252 L
136.436 173.774 L
137.716 172.316 L
138.996 170.879 L
140.276 169.461 L
141.556 168.063 L
142.836 166.685 L
144.115 165.326 L
145.395 163.986 L
146.675 162.665 L
147.955 161.363 L
149.235 160.079 L
150.515 158.814 L
151.795 157.568 L
153.075 156.339 L
154.355 155.129 L
155.635 153.936 L
156.915 152.761 L
158.195 151.604 L
159.475 150.464 L
160.754 149.341 L
162.034 148.235 L
163.314 147.146 L
164.594 146.073 L
165.874 145.017 L
167.154 143.978 L
168.434 142.954 L
169.714 141.947 L
170.994 140.956 L
172.274 139.98 L
173.554 139.019 L
174.834 138.074 L
176.113 137.145 L
177.393 136.23 L
178.673 135.33 L
179.953 134.445 L
181.233 133.574 L
182.513 132.717 L
183.793 131.875 L
185.073 131.047 L
186.353 130.233 L
187.633 129.432 L
188.913 128.645 L
190.193 127.871 L
191.473 127.111 L
192.752 126.363 L
194.032 125.628 L
195.312 124.906 L
196.592 124.197 L
197.872 123.5 L
199.152 122.815 L
200.432 122.142 L
201.712 121.481 L
202.992 120.831 L
204.272 120.193 L
205.552 119.562 L
206.832 118.932 L
208.111 118.302 L
209.391 117.673 L
210.671 117.044 L
211.951 116.417 L
213.231 115.79 L
214.511 115.164 L
215.791 114.539 L
217.071 113.915 L
218.351 113.291 L
219.631 112.669 L
220.911 112.047 L
222.191 111.427 L
223.47 110.807 L
224.75 110.189 L
226.03 109.571 L
227.31 108.955 L
228.59 108.34 L
229.87 107.725 L
231.15 107.112 L
232.43 106.501 L
233.71 105.89 L
234.99 105.28 L
236.27 104.672 L
237.55 104.065 L
238.83 103.459 L
240.109 102.855 L
241.389 102.252 L
242.669 101.65 L
243.949 101.05 L
245.229 100.451 L
246.509 99.853 L
247.789 99.257 L
249.069 98.662 L
250.349 98.069 L
251.629 97.478 L
252.909 96.888 L
254.189 96.299 L
255.468 95.712 L
256.748 95.127 L
258.028 94.543 L
259.308 93.961 L
260.588 93.381 L
261.868 92.802 L
263.148 92.225 L
264.428 91.65 L
265.708 91.077 L
266.988 90.505 L
268.268 89.935 L
269.548 89.367 L
270.828 88.801 L
272.107 88.237 L
273.387 87.675 L
274.667 87.115 L
275.947 86.557 L
277.227 86 L
278.507 85.446 L
279.787 84.894 L
281.067 84.344 L
282.347 83.796 L
283.627 83.25 L
284.907 82.706 L
286.187 82.164 L
287.466 81.625 L
288.746 81.088 L
290.026 80.553 L
291.306 80.02 L
292.586 79.49 L
293.866 78.961 L
295.146 78.436 L
296.426 77.912 L
297.706 77.391 L
298.986 76.872 L
300.266 76.356 L
301.546 75.842 L
302.826 75.331 L
304.105 74.822 L
305.385 74.316 L
306.665 73.812 L
307.945 73.311 L
309.225 72.812 L
310.505 72.316 L
311.785 71.823 L
313.065 71.332 L
314.345 70.844 L
315.625 70.359 L
316.905 69.876 L
318.185 69.396 L
319.464 68.919 L
320.744 68.445 L
322.024 67.973 L
323.304 67.505 L
324.584 67.039 L
325.864 66.577 L
327.144 66.117 L
328.424 65.66 L
329.704 65.206 L
330.984 64.755 L
332.264 64.307 L
333.544 63.862 L
334.823 63.42 L
336.103 62.982 L
337.383 62.546 L
338.663 62.114 L
339.943 61.684 L
341.223 61.258 L
342.503 60.835 L
343.783 60.416 L
345.063 59.999 L
346.343 59.586 L
347.623 59.176 L
348.903 58.77 L
350.182 58.367 L
351.462 57.967 L
352.742 57.571 L
354.022 57.178 L
355.302 56.788 L
356.582 56.402 L
357.862 56.02 L
359.142 55.641 L
360.422 55.266 L
361.702 54.894 L
362.982 54.525 L
364.262 54.161 L
365.542 53.8 L
366.821 53.442 L
368.101 53.089 L
369.381 52.739 L
370.661 52.393 L
371.941 52.05 L
373.221 51.712 L
374.501 51.377 L
375.781 51.046 L
377.061 50.719 L
378.341 50.395 L
379.621 50.076 L
380.901 49.76 L
382.18 49.449 L
383.46 49.141 L
384.74 48.838 L
386.02 48.538 L
387.3 48.243 L
388.58 47.952 L
389.86 47.664 L
391.14 47.381 L
392.42 47.102 L
393.7 46.827 L
394.98 46.557 L
396.26 46.29 L
397.54 46.028 L
398.819 45.77 L
400.099 45.516 L
401.379 45.267 L
402.659 45.022 L
403.939 44.781 L
405.219 44.545 L
406.499 44.313 L
407.779 44.086 L
409.059 43.863 L
410.339 43.644 L
411.619 43.43 L
412.899 43.221 L
414.178 43.016 L
415.458 42.815 L
416.738 42.619 L
418.018 42.428 L
419.298 42.242 L
420.578 42.06 L
421.858 41.883 L
423.138 41.71 L
424.418 41.542 L
425.698 41.379 L
426.978 41.221 L
428.258 41.068 L
429.538 40.919 L
430.817 40.776 L
432.097 40.637 L
433.377 40.503 L
434.657 40.374 L
435.937 40.25 L
437.217 40.131 L
438.497 40.017 L
439.777 39.908 L
441.057 39.804 L
442.337 39.705 L
443.617 39.611 L
444.897 39.523 L
446.176 39.439 L
447.456 39.361 L
448.736 39.288 L
450.016 39.22 L
451.296 39.157 L
452.576 39.1 L
453.856 39.047 L
455.136 39.001 L
456.416 38.959 L
457.696 38.923 L
458.976 38.892 L
460.256 38.867 L
461.535 38.847 L
462.815 38.832 L
464.095 38.823 L
465.375 38.82 L
S
GR
GS
1 GC
N
499 366 M
499 218.5 L
327.5 218.5 L
327.5 366 L
cp
f
GR
GS
[1 0 0 1 364.5 228.25] CT
/Helvetica 13 F
GS
[1 0 0 1 0 0] CT
0 5 moveto 
1 -1 scale
(Base Run) t 
GR
GR
GS
0 0.447 0.741 RC
1 LJ
0.5 LW
N
331.5 228.25 M
361.5 228.25 L
S
GR
GS
[1 0 0 1 364.5 244.25] CT
/Helvetica 13 F
GS
[1 0 0 1 0 0] CT
0 5 moveto 
1 -1 scale
(All Frames) t 
GR
GR
GS
0.851 0.325 0.098 RC
1 LJ
0.5 LW
N
331.5 244.25 M
361.5 244.25 L
S
GR
GS
[1 0 0 1 364.5 260.25] CT
/Helvetica 13 F
GS
[1 0 0 1 0 0] CT
0 5 moveto 
1 -1 scale
(KF Only) t 
GR
GR
GS
0.929 0.694 0.125 RC
1 LJ
0.5 LW
N
331.5 260.25 M
361.5 260.25 L
S
GR
GS
[1 0 0 1 364.5 276.25] CT
/Helvetica 13 F
GS
[1 0 0 1 0 0] CT
0 5 moveto 
1 -1 scale
(GF, ARF Only) t 
GR
GR
GS
0.494 0.184 0.557 RC
1 LJ
0.5 LW
N
331.5 276.25 M
361.5 276.25 L
S
GR
GS
[1 0 0 1 364.5 292.25] CT
/Helvetica 13 F
GS
[1 0 0 1 0 0] CT
0 5 moveto 
1 -1 scale
(KF, GF, ARF Only) t 
GR
GR
GS
0.467 0.675 0.188 RC
1 LJ
0.5 LW
N
331.5 292.25 M
361.5 292.25 L
S
GR
GS
[1 0 0 1 364.5 308.25] CT
/Helvetica 13 F
GS
[1 0 0 1 0 0] CT
0 5 moveto 
1 -1 scale
(Part All Frames) t 
GR
GR
GS
0.302 0.745 0.933 RC
[10 6] 0 setdash
2 LJ
0.5 LW
N
331.5 308.25 M
361.5 308.25 L
S
GR
GS
[1 0 0 1 364.5 324.25] CT
/Helvetica 13 F
GS
[1 0 0 1 0 0] CT
0 5 moveto 
1 -1 scale
(Part KF Only) t 
GR
GR
GS
0.635 0.078 0.184 RC
[10 6] 0 setdash
2 LJ
0.5 LW
N
331.5 324.25 M
361.5 324.25 L
S
GR
GS
[1 0 0 1 364.5 340.25] CT
/Helvetica 13 F
GS
[1 0 0 1 0 0] CT
0 5 moveto 
1 -1 scale
(Part GF, ARF Only) t 
GR
GR
GS
0 0.447 0.741 RC
[10 6] 0 setdash
2 LJ
0.5 LW
N
331.5 340.25 M
361.5 340.25 L
S
GR
GS
[1 0 0 1 364.5 356.25] CT
/Helvetica 13 F
GS
[1 0 0 1 0 0] CT
0 5 moveto 
1 -1 scale
(Part KF, GF, ARF Only) t 
GR
GR
GS
0.851 0.325 0.098 RC
[10 6] 0 setdash
2 LJ
0.5 LW
N
331.5 356.25 M
361.5 356.25 L
S
GR
GS
0.149 GC
10.0 ML
0.5 LW
N
327.5 366 M
327.5 218.5 L
499 218.5 L
499 366 L
cp
S
GR
%%Trailer
%%Pages: 1
%%EOF
