%!PS-Adobe-3.0 EPSF-3.0
%%Creator: (MATLAB, The Mathworks, Inc. Version 9.11.0.1837725 \(R2021b\) Update 2. Operating System: Mac OS X)
%%Title: plots/pchip/Lecture_1080P-3ce0.y4m-hevc-SSIM.eps
%%CreationDate: 2022-02-03T19:14:14
%%Pages: (atend)
%%BoundingBox:    33   425   508   826
%%LanguageLevel: 3
%%EndComments
%%BeginProlog
%%BeginResource: procset (Apache XML Graphics Std ProcSet) 1.2 0
%%Version: 1.2 0
%%Copyright: (Copyright 2001-2003,2010 The Apache Software Foundation. License terms: http://www.apache.org/licenses/LICENSE-2.0)
/bd{bind def}bind def
/ld{load def}bd
/GR/grestore ld
/GS/gsave ld
/RM/rmoveto ld
/C/curveto ld
/t/show ld
/L/lineto ld
/ML/setmiterlimit ld
/CT/concat ld
/f/fill ld
/N/newpath ld
/S/stroke ld
/CC/setcmykcolor ld
/A/ashow ld
/cp/closepath ld
/RC/setrgbcolor ld
/LJ/setlinejoin ld
/GC/setgray ld
/LW/setlinewidth ld
/M/moveto ld
/re {4 2 roll M
1 index 0 rlineto
0 exch rlineto
neg 0 rlineto
cp } bd
/_ctm matrix def
/_tm matrix def
/BT { _ctm currentmatrix pop matrix _tm copy pop 0 0 moveto } bd
/ET { _ctm setmatrix } bd
/iTm { _ctm setmatrix _tm concat } bd
/Tm { _tm astore pop iTm 0 0 moveto } bd
/ux 0.0 def
/uy 0.0 def
/F {
  /Tp exch def
  /Tf exch def
  Tf findfont Tp scalefont setfont
  /cf Tf def  /cs Tp def
} bd
/ULS {currentpoint /uy exch def /ux exch def} bd
/ULE {
  /Tcx currentpoint pop def
  gsave
  newpath
  cf findfont cs scalefont dup
  /FontMatrix get 0 get /Ts exch def /FontInfo get dup
  /UnderlinePosition get Ts mul /To exch def
  /UnderlineThickness get Ts mul /Tt exch def
  ux uy To add moveto  Tcx uy To add lineto
  Tt setlinewidth stroke
  grestore
} bd
/OLE {
  /Tcx currentpoint pop def
  gsave
  newpath
  cf findfont cs scalefont dup
  /FontMatrix get 0 get /Ts exch def /FontInfo get dup
  /UnderlinePosition get Ts mul /To exch def
  /UnderlineThickness get Ts mul /Tt exch def
  ux uy To add cs add moveto Tcx uy To add cs add lineto
  Tt setlinewidth stroke
  grestore
} bd
/SOE {
  /Tcx currentpoint pop def
  gsave
  newpath
  cf findfont cs scalefont dup
  /FontMatrix get 0 get /Ts exch def /FontInfo get dup
  /UnderlinePosition get Ts mul /To exch def
  /UnderlineThickness get Ts mul /Tt exch def
  ux uy To add cs 10 mul 26 idiv add moveto Tcx uy To add cs 10 mul 26 idiv add lineto
  Tt setlinewidth stroke
  grestore
} bd
/QT {
/Y22 exch store
/X22 exch store
/Y21 exch store
/X21 exch store
currentpoint
/Y21 load 2 mul add 3 div exch
/X21 load 2 mul add 3 div exch
/X21 load 2 mul /X22 load add 3 div
/Y21 load 2 mul /Y22 load add 3 div
/X22 load /Y22 load curveto
} bd
/SSPD {
dup length /d exch dict def
{
/v exch def
/k exch def
currentpagedevice k known {
/cpdv currentpagedevice k get def
v cpdv ne {
/upd false def
/nullv v type /nulltype eq def
/nullcpdv cpdv type /nulltype eq def
nullv nullcpdv or
{
/upd true def
} {
/sametype v type cpdv type eq def
sametype {
v type /arraytype eq {
/vlen v length def
/cpdvlen cpdv length def
vlen cpdvlen eq {
0 1 vlen 1 sub {
/i exch def
/obj v i get def
/cpdobj cpdv i get def
obj cpdobj ne {
/upd true def
exit
} if
} for
} {
/upd true def
} ifelse
} {
v type /dicttype eq {
v {
/dv exch def
/dk exch def
/cpddv cpdv dk get def
dv cpddv ne {
/upd true def
exit
} if
} forall
} {
/upd true def
} ifelse
} ifelse
} if
} ifelse
upd true eq {
d k v put
} if
} if
} if
} forall
d length 0 gt {
d setpagedevice
} if
} bd
/RE { % /NewFontName [NewEncodingArray] /FontName RE -
  findfont dup length dict begin
  {
    1 index /FID ne
    {def} {pop pop} ifelse
  } forall
  /Encoding exch def
  /FontName 1 index def
  currentdict definefont pop
  end
} bind def
%%EndResource
%%BeginResource: procset (Apache XML Graphics EPS ProcSet) 1.0 0
%%Version: 1.0 0
%%Copyright: (Copyright 2002-2003 The Apache Software Foundation. License terms: http://www.apache.org/licenses/LICENSE-2.0)
/BeginEPSF { %def
/b4_Inc_state save def         % Save state for cleanup
/dict_count countdictstack def % Count objects on dict stack
/op_count count 1 sub def      % Count objects on operand stack
userdict begin                 % Push userdict on dict stack
/showpage { } def              % Redefine showpage, { } = null proc
0 setgray 0 setlinecap         % Prepare graphics state
1 setlinewidth 0 setlinejoin
10 setmiterlimit [ ] 0 setdash newpath
/languagelevel where           % If level not equal to 1 then
{pop languagelevel             % set strokeadjust and
1 ne                           % overprint to their defaults.
{false setstrokeadjust false setoverprint
} if
} if
} bd
/EndEPSF { %def
count op_count sub {pop} repeat            % Clean up stacks
countdictstack dict_count sub {end} repeat
b4_Inc_state restore
} bd
%%EndResource
%FOPBeginFontDict
%%IncludeResource: font Courier-Oblique
%%IncludeResource: font Courier-BoldOblique
%%IncludeResource: font Courier-Bold
%%IncludeResource: font ZapfDingbats
%%IncludeResource: font Symbol
%%IncludeResource: font Helvetica
%%IncludeResource: font Helvetica-Oblique
%%IncludeResource: font Helvetica-Bold
%%IncludeResource: font Helvetica-BoldOblique
%%IncludeResource: font Times-Roman
%%IncludeResource: font Times-Italic
%%IncludeResource: font Times-Bold
%%IncludeResource: font Times-BoldItalic
%%IncludeResource: font Courier
%FOPEndFontDict
%%BeginResource: encoding WinAnsiEncoding
/WinAnsiEncoding [
/.notdef /.notdef /.notdef /.notdef /.notdef
/.notdef /.notdef /.notdef /.notdef /.notdef
/.notdef /.notdef /.notdef /.notdef /.notdef
/.notdef /.notdef /.notdef /.notdef /.notdef
/.notdef /.notdef /.notdef /.notdef /.notdef
/.notdef /.notdef /.notdef /.notdef /.notdef
/.notdef /.notdef /space /exclam /quotedbl
/numbersign /dollar /percent /ampersand /quotesingle
/parenleft /parenright /asterisk /plus /comma
/hyphen /period /slash /zero /one
/two /three /four /five /six
/seven /eight /nine /colon /semicolon
/less /equal /greater /question /at
/A /B /C /D /E
/F /G /H /I /J
/K /L /M /N /O
/P /Q /R /S /T
/U /V /W /X /Y
/Z /bracketleft /backslash /bracketright /asciicircum
/underscore /quoteleft /a /b /c
/d /e /f /g /h
/i /j /k /l /m
/n /o /p /q /r
/s /t /u /v /w
/x /y /z /braceleft /bar
/braceright /asciitilde /bullet /Euro /bullet
/quotesinglbase /florin /quotedblbase /ellipsis /dagger
/daggerdbl /circumflex /perthousand /Scaron /guilsinglleft
/OE /bullet /Zcaron /bullet /bullet
/quoteleft /quoteright /quotedblleft /quotedblright /bullet
/endash /emdash /asciitilde /trademark /scaron
/guilsinglright /oe /bullet /zcaron /Ydieresis
/space /exclamdown /cent /sterling /currency
/yen /brokenbar /section /dieresis /copyright
/ordfeminine /guillemotleft /logicalnot /sfthyphen /registered
/macron /degree /plusminus /twosuperior /threesuperior
/acute /mu /paragraph /middot /cedilla
/onesuperior /ordmasculine /guillemotright /onequarter /onehalf
/threequarters /questiondown /Agrave /Aacute /Acircumflex
/Atilde /Adieresis /Aring /AE /Ccedilla
/Egrave /Eacute /Ecircumflex /Edieresis /Igrave
/Iacute /Icircumflex /Idieresis /Eth /Ntilde
/Ograve /Oacute /Ocircumflex /Otilde /Odieresis
/multiply /Oslash /Ugrave /Uacute /Ucircumflex
/Udieresis /Yacute /Thorn /germandbls /agrave
/aacute /acircumflex /atilde /adieresis /aring
/ae /ccedilla /egrave /eacute /ecircumflex
/edieresis /igrave /iacute /icircumflex /idieresis
/eth /ntilde /ograve /oacute /ocircumflex
/otilde /odieresis /divide /oslash /ugrave
/uacute /ucircumflex /udieresis /yacute /thorn
/ydieresis
] def
%%EndResource
%FOPBeginFontReencode
/Courier-Oblique findfont
dup length dict begin
  {1 index /FID ne {def} {pop pop} ifelse} forall
  /Encoding WinAnsiEncoding def
  currentdict
end
/Courier-Oblique exch definefont pop
/Courier-BoldOblique findfont
dup length dict begin
  {1 index /FID ne {def} {pop pop} ifelse} forall
  /Encoding WinAnsiEncoding def
  currentdict
end
/Courier-BoldOblique exch definefont pop
/Courier-Bold findfont
dup length dict begin
  {1 index /FID ne {def} {pop pop} ifelse} forall
  /Encoding WinAnsiEncoding def
  currentdict
end
/Courier-Bold exch definefont pop
/Helvetica findfont
dup length dict begin
  {1 index /FID ne {def} {pop pop} ifelse} forall
  /Encoding WinAnsiEncoding def
  currentdict
end
/Helvetica exch definefont pop
/Helvetica-Oblique findfont
dup length dict begin
  {1 index /FID ne {def} {pop pop} ifelse} forall
  /Encoding WinAnsiEncoding def
  currentdict
end
/Helvetica-Oblique exch definefont pop
/Helvetica-Bold findfont
dup length dict begin
  {1 index /FID ne {def} {pop pop} ifelse} forall
  /Encoding WinAnsiEncoding def
  currentdict
end
/Helvetica-Bold exch definefont pop
/Helvetica-BoldOblique findfont
dup length dict begin
  {1 index /FID ne {def} {pop pop} ifelse} forall
  /Encoding WinAnsiEncoding def
  currentdict
end
/Helvetica-BoldOblique exch definefont pop
/Times-Roman findfont
dup length dict begin
  {1 index /FID ne {def} {pop pop} ifelse} forall
  /Encoding WinAnsiEncoding def
  currentdict
end
/Times-Roman exch definefont pop
/Times-Italic findfont
dup length dict begin
  {1 index /FID ne {def} {pop pop} ifelse} forall
  /Encoding WinAnsiEncoding def
  currentdict
end
/Times-Italic exch definefont pop
/Times-Bold findfont
dup length dict begin
  {1 index /FID ne {def} {pop pop} ifelse} forall
  /Encoding WinAnsiEncoding def
  currentdict
end
/Times-Bold exch definefont pop
/Times-BoldItalic findfont
dup length dict begin
  {1 index /FID ne {def} {pop pop} ifelse} forall
  /Encoding WinAnsiEncoding def
  currentdict
end
/Times-BoldItalic exch definefont pop
/Courier findfont
dup length dict begin
  {1 index /FID ne {def} {pop pop} ifelse} forall
  /Encoding WinAnsiEncoding def
  currentdict
end
/Courier exch definefont pop
%FOPEndFontReencode
%%EndProlog
%%Page: 1 1
%%PageBoundingBox: 0 0 1120 840
%%BeginPageSetup
[1 0 0 -1 0 840] CT
%%EndPageSetup
GS
1 GC
N
0 0 1120 840 re
f
GR
GS
1 GC
N
73 374 M
507 374 L
507 31.5 L
73 31.5 L
cp
f
GR
GS
0.149 GC
2 setlinecap
1 LJ
0.5 LW
N
73 374 M
507 374 L
S
GR
GS
0.149 GC
2 setlinecap
1 LJ
0.5 LW
N
73 31.5 M
507 31.5 L
S
GR
GS
0.149 GC
2 setlinecap
1 LJ
0.5 LW
N
116.995 374 M
116.995 369.66 L
S
GR
GS
0.149 GC
2 setlinecap
1 LJ
0.5 LW
N
190.68 374 M
190.68 369.66 L
S
GR
GS
0.149 GC
2 setlinecap
1 LJ
0.5 LW
N
264.365 374 M
264.365 369.66 L
S
GR
GS
0.149 GC
2 setlinecap
1 LJ
0.5 LW
N
338.05 374 M
338.05 369.66 L
S
GR
GS
0.149 GC
2 setlinecap
1 LJ
0.5 LW
N
411.735 374 M
411.735 369.66 L
S
GR
GS
0.149 GC
2 setlinecap
1 LJ
0.5 LW
N
485.42 374 M
485.42 369.66 L
S
GR
GS
0.149 GC
2 setlinecap
1 LJ
0.5 LW
N
116.995 31.5 M
116.995 35.84 L
S
GR
GS
0.149 GC
2 setlinecap
1 LJ
0.5 LW
N
190.68 31.5 M
190.68 35.84 L
S
GR
GS
0.149 GC
2 setlinecap
1 LJ
0.5 LW
N
264.365 31.5 M
264.365 35.84 L
S
GR
GS
0.149 GC
2 setlinecap
1 LJ
0.5 LW
N
338.05 31.5 M
338.05 35.84 L
S
GR
GS
0.149 GC
2 setlinecap
1 LJ
0.5 LW
N
411.735 31.5 M
411.735 35.84 L
S
GR
GS
0.149 GC
2 setlinecap
1 LJ
0.5 LW
N
485.42 31.5 M
485.42 35.84 L
S
GR
GS
0.149 GC
2 setlinecap
1 LJ
0.5 LW
N
87.521 374 M
87.521 371.83 L
S
GR
GS
0.149 GC
2 setlinecap
1 LJ
0.5 LW
N
102.258 374 M
102.258 371.83 L
S
GR
GS
0.149 GC
2 setlinecap
1 LJ
0.5 LW
N
131.732 374 M
131.732 371.83 L
S
GR
GS
0.149 GC
2 setlinecap
1 LJ
0.5 LW
N
146.469 374 M
146.469 371.83 L
S
GR
GS
0.149 GC
2 setlinecap
1 LJ
0.5 LW
N
161.206 374 M
161.206 371.83 L
S
GR
GS
0.149 GC
2 setlinecap
1 LJ
0.5 LW
N
175.943 374 M
175.943 371.83 L
S
GR
GS
0.149 GC
2 setlinecap
1 LJ
0.5 LW
N
205.417 374 M
205.417 371.83 L
S
GR
GS
0.149 GC
2 setlinecap
1 LJ
0.5 LW
N
220.154 374 M
220.154 371.83 L
S
GR
GS
0.149 GC
2 setlinecap
1 LJ
0.5 LW
N
234.891 374 M
234.891 371.83 L
S
GR
GS
0.149 GC
2 setlinecap
1 LJ
0.5 LW
N
249.628 374 M
249.628 371.83 L
S
GR
GS
0.149 GC
2 setlinecap
1 LJ
0.5 LW
N
279.102 374 M
279.102 371.83 L
S
GR
GS
0.149 GC
2 setlinecap
1 LJ
0.5 LW
N
293.839 374 M
293.839 371.83 L
S
GR
GS
0.149 GC
2 setlinecap
1 LJ
0.5 LW
N
308.576 374 M
308.576 371.83 L
S
GR
GS
0.149 GC
2 setlinecap
1 LJ
0.5 LW
N
323.313 374 M
323.313 371.83 L
S
GR
GS
0.149 GC
2 setlinecap
1 LJ
0.5 LW
N
352.787 374 M
352.787 371.83 L
S
GR
GS
0.149 GC
2 setlinecap
1 LJ
0.5 LW
N
367.524 374 M
367.524 371.83 L
S
GR
GS
0.149 GC
2 setlinecap
1 LJ
0.5 LW
N
382.261 374 M
382.261 371.83 L
S
GR
GS
0.149 GC
2 setlinecap
1 LJ
0.5 LW
N
396.998 374 M
396.998 371.83 L
S
GR
GS
0.149 GC
2 setlinecap
1 LJ
0.5 LW
N
426.472 374 M
426.472 371.83 L
S
GR
GS
0.149 GC
2 setlinecap
1 LJ
0.5 LW
N
441.209 374 M
441.209 371.83 L
S
GR
GS
0.149 GC
2 setlinecap
1 LJ
0.5 LW
N
455.946 374 M
455.946 371.83 L
S
GR
GS
0.149 GC
2 setlinecap
1 LJ
0.5 LW
N
470.683 374 M
470.683 371.83 L
S
GR
GS
0.149 GC
2 setlinecap
1 LJ
0.5 LW
N
500.157 374 M
500.157 371.83 L
S
GR
GS
0.149 GC
2 setlinecap
1 LJ
0.5 LW
N
87.521 31.5 M
87.521 33.67 L
S
GR
GS
0.149 GC
2 setlinecap
1 LJ
0.5 LW
N
102.258 31.5 M
102.258 33.67 L
S
GR
GS
0.149 GC
2 setlinecap
1 LJ
0.5 LW
N
131.732 31.5 M
131.732 33.67 L
S
GR
GS
0.149 GC
2 setlinecap
1 LJ
0.5 LW
N
146.469 31.5 M
146.469 33.67 L
S
GR
GS
0.149 GC
2 setlinecap
1 LJ
0.5 LW
N
161.206 31.5 M
161.206 33.67 L
S
GR
GS
0.149 GC
2 setlinecap
1 LJ
0.5 LW
N
175.943 31.5 M
175.943 33.67 L
S
GR
GS
0.149 GC
2 setlinecap
1 LJ
0.5 LW
N
205.417 31.5 M
205.417 33.67 L
S
GR
GS
0.149 GC
2 setlinecap
1 LJ
0.5 LW
N
220.154 31.5 M
220.154 33.67 L
S
GR
GS
0.149 GC
2 setlinecap
1 LJ
0.5 LW
N
234.891 31.5 M
234.891 33.67 L
S
GR
GS
0.149 GC
2 setlinecap
1 LJ
0.5 LW
N
249.628 31.5 M
249.628 33.67 L
S
GR
GS
0.149 GC
2 setlinecap
1 LJ
0.5 LW
N
279.102 31.5 M
279.102 33.67 L
S
GR
GS
0.149 GC
2 setlinecap
1 LJ
0.5 LW
N
293.839 31.5 M
293.839 33.67 L
S
GR
GS
0.149 GC
2 setlinecap
1 LJ
0.5 LW
N
308.576 31.5 M
308.576 33.67 L
S
GR
GS
0.149 GC
2 setlinecap
1 LJ
0.5 LW
N
323.313 31.5 M
323.313 33.67 L
S
GR
GS
0.149 GC
2 setlinecap
1 LJ
0.5 LW
N
352.787 31.5 M
352.787 33.67 L
S
GR
GS
0.149 GC
2 setlinecap
1 LJ
0.5 LW
N
367.524 31.5 M
367.524 33.67 L
S
GR
GS
0.149 GC
2 setlinecap
1 LJ
0.5 LW
N
382.261 31.5 M
382.261 33.67 L
S
GR
GS
0.149 GC
2 setlinecap
1 LJ
0.5 LW
N
396.998 31.5 M
396.998 33.67 L
S
GR
GS
0.149 GC
2 setlinecap
1 LJ
0.5 LW
N
426.472 31.5 M
426.472 33.67 L
S
GR
GS
0.149 GC
2 setlinecap
1 LJ
0.5 LW
N
441.209 31.5 M
441.209 33.67 L
S
GR
GS
0.149 GC
2 setlinecap
1 LJ
0.5 LW
N
455.946 31.5 M
455.946 33.67 L
S
GR
GS
0.149 GC
2 setlinecap
1 LJ
0.5 LW
N
470.683 31.5 M
470.683 33.67 L
S
GR
GS
0.149 GC
2 setlinecap
1 LJ
0.5 LW
N
500.157 31.5 M
500.157 33.67 L
S
GR
GS
[1 0 0 1 116.99512 378.79999] CT
0.149 GC
/Helvetica 14 F
GS
[1 0 0 1 0 0] CT
-16 14 moveto 
1 -1 scale
(1000) t 
GR
GR
GS
[1 0 0 1 190.68007 378.79999] CT
0.149 GC
/Helvetica 14 F
GS
[1 0 0 1 0 0] CT
-16 14 moveto 
1 -1 scale
(2000) t 
GR
GR
GS
[1 0 0 1 264.36502 378.79999] CT
0.149 GC
/Helvetica 14 F
GS
[1 0 0 1 0 0] CT
-16 14 moveto 
1 -1 scale
(3000) t 
GR
GR
GS
[1 0 0 1 338.04996 378.79999] CT
0.149 GC
/Helvetica 14 F
GS
[1 0 0 1 0 0] CT
-16 14 moveto 
1 -1 scale
(4000) t 
GR
GR
GS
[1 0 0 1 411.73489 378.79999] CT
0.149 GC
/Helvetica 14 F
GS
[1 0 0 1 0 0] CT
-16 14 moveto 
1 -1 scale
(5000) t 
GR
GR
GS
[1 0 0 1 485.41983 378.79999] CT
0.149 GC
/Helvetica 14 F
GS
[1 0 0 1 0 0] CT
-16 14 moveto 
1 -1 scale
(6000) t 
GR
GR
GS
[1 0 0 1 290.00021 396.29999] CT
0.149 GC
/Helvetica 15.4 F
GS
[1 0 0 1 0 0] CT
-42 15 moveto 
1 -1 scale
(Bitrate\(kb/s\)) t 
GR
GR
GS
0.149 GC
2 setlinecap
1 LJ
0.5 LW
N
73 374 M
73 31.5 L
S
GR
GS
0.149 GC
2 setlinecap
1 LJ
0.5 LW
N
507 374 M
507 31.5 L
S
GR
GS
0.149 GC
2 setlinecap
1 LJ
0.5 LW
N
73 344.065 M
77.34 344.065 L
S
GR
GS
0.149 GC
2 setlinecap
1 LJ
0.5 LW
N
73 306.18 M
77.34 306.18 L
S
GR
GS
0.149 GC
2 setlinecap
1 LJ
0.5 LW
N
73 268.294 M
77.34 268.294 L
S
GR
GS
0.149 GC
2 setlinecap
1 LJ
0.5 LW
N
73 230.409 M
77.34 230.409 L
S
GR
GS
0.149 GC
2 setlinecap
1 LJ
0.5 LW
N
73 192.523 M
77.34 192.523 L
S
GR
GS
0.149 GC
2 setlinecap
1 LJ
0.5 LW
N
73 154.638 M
77.34 154.638 L
S
GR
GS
0.149 GC
2 setlinecap
1 LJ
0.5 LW
N
73 116.752 M
77.34 116.752 L
S
GR
GS
0.149 GC
2 setlinecap
1 LJ
0.5 LW
N
73 78.866 M
77.34 78.866 L
S
GR
GS
0.149 GC
2 setlinecap
1 LJ
0.5 LW
N
73 40.981 M
77.34 40.981 L
S
GR
GS
0.149 GC
2 setlinecap
1 LJ
0.5 LW
N
507 344.065 M
502.66 344.065 L
S
GR
GS
0.149 GC
2 setlinecap
1 LJ
0.5 LW
N
507 306.18 M
502.66 306.18 L
S
GR
GS
0.149 GC
2 setlinecap
1 LJ
0.5 LW
N
507 268.294 M
502.66 268.294 L
S
GR
GS
0.149 GC
2 setlinecap
1 LJ
0.5 LW
N
507 230.409 M
502.66 230.409 L
S
GR
GS
0.149 GC
2 setlinecap
1 LJ
0.5 LW
N
507 192.523 M
502.66 192.523 L
S
GR
GS
0.149 GC
2 setlinecap
1 LJ
0.5 LW
N
507 154.638 M
502.66 154.638 L
S
GR
GS
0.149 GC
2 setlinecap
1 LJ
0.5 LW
N
507 116.752 M
502.66 116.752 L
S
GR
GS
0.149 GC
2 setlinecap
1 LJ
0.5 LW
N
507 78.866 M
502.66 78.866 L
S
GR
GS
0.149 GC
2 setlinecap
1 LJ
0.5 LW
N
507 40.981 M
502.66 40.981 L
S
GR
GS
0.149 GC
2 setlinecap
1 LJ
0.5 LW
N
73 366.797 M
75.17 366.797 L
S
GR
GS
0.149 GC
2 setlinecap
1 LJ
0.5 LW
N
73 359.219 M
75.17 359.219 L
S
GR
GS
0.149 GC
2 setlinecap
1 LJ
0.5 LW
N
73 351.642 M
75.17 351.642 L
S
GR
GS
0.149 GC
2 setlinecap
1 LJ
0.5 LW
N
73 336.488 M
75.17 336.488 L
S
GR
GS
0.149 GC
2 setlinecap
1 LJ
0.5 LW
N
73 328.911 M
75.17 328.911 L
S
GR
GS
0.149 GC
2 setlinecap
1 LJ
0.5 LW
N
73 321.334 M
75.17 321.334 L
S
GR
GS
0.149 GC
2 setlinecap
1 LJ
0.5 LW
N
73 313.757 M
75.17 313.757 L
S
GR
GS
0.149 GC
2 setlinecap
1 LJ
0.5 LW
N
73 298.603 M
75.17 298.603 L
S
GR
GS
0.149 GC
2 setlinecap
1 LJ
0.5 LW
N
73 291.026 M
75.17 291.026 L
S
GR
GS
0.149 GC
2 setlinecap
1 LJ
0.5 LW
N
73 283.448 M
75.17 283.448 L
S
GR
GS
0.149 GC
2 setlinecap
1 LJ
0.5 LW
N
73 275.871 M
75.17 275.871 L
S
GR
GS
0.149 GC
2 setlinecap
1 LJ
0.5 LW
N
73 260.717 M
75.17 260.717 L
S
GR
GS
0.149 GC
2 setlinecap
1 LJ
0.5 LW
N
73 253.14 M
75.17 253.14 L
S
GR
GS
0.149 GC
2 setlinecap
1 LJ
0.5 LW
N
73 245.563 M
75.17 245.563 L
S
GR
GS
0.149 GC
2 setlinecap
1 LJ
0.5 LW
N
73 237.986 M
75.17 237.986 L
S
GR
GS
0.149 GC
2 setlinecap
1 LJ
0.5 LW
N
73 222.831 M
75.17 222.831 L
S
GR
GS
0.149 GC
2 setlinecap
1 LJ
0.5 LW
N
73 215.254 M
75.17 215.254 L
S
GR
GS
0.149 GC
2 setlinecap
1 LJ
0.5 LW
N
73 207.677 M
75.17 207.677 L
S
GR
GS
0.149 GC
2 setlinecap
1 LJ
0.5 LW
N
73 200.1 M
75.17 200.1 L
S
GR
GS
0.149 GC
2 setlinecap
1 LJ
0.5 LW
N
73 184.946 M
75.17 184.946 L
S
GR
GS
0.149 GC
2 setlinecap
1 LJ
0.5 LW
N
73 177.369 M
75.17 177.369 L
S
GR
GS
0.149 GC
2 setlinecap
1 LJ
0.5 LW
N
73 169.792 M
75.17 169.792 L
S
GR
GS
0.149 GC
2 setlinecap
1 LJ
0.5 LW
N
73 162.215 M
75.17 162.215 L
S
GR
GS
0.149 GC
2 setlinecap
1 LJ
0.5 LW
N
73 147.06 M
75.17 147.06 L
S
GR
GS
0.149 GC
2 setlinecap
1 LJ
0.5 LW
N
73 139.483 M
75.17 139.483 L
S
GR
GS
0.149 GC
2 setlinecap
1 LJ
0.5 LW
N
73 131.906 M
75.17 131.906 L
S
GR
GS
0.149 GC
2 setlinecap
1 LJ
0.5 LW
N
73 124.329 M
75.17 124.329 L
S
GR
GS
0.149 GC
2 setlinecap
1 LJ
0.5 LW
N
73 109.175 M
75.17 109.175 L
S
GR
GS
0.149 GC
2 setlinecap
1 LJ
0.5 LW
N
73 101.598 M
75.17 101.598 L
S
GR
GS
0.149 GC
2 setlinecap
1 LJ
0.5 LW
N
73 94.021 M
75.17 94.021 L
S
GR
GS
0.149 GC
2 setlinecap
1 LJ
0.5 LW
N
73 86.444 M
75.17 86.444 L
S
GR
GS
0.149 GC
2 setlinecap
1 LJ
0.5 LW
N
73 71.289 M
75.17 71.289 L
S
GR
GS
0.149 GC
2 setlinecap
1 LJ
0.5 LW
N
73 63.712 M
75.17 63.712 L
S
GR
GS
0.149 GC
2 setlinecap
1 LJ
0.5 LW
N
73 56.135 M
75.17 56.135 L
S
GR
GS
0.149 GC
2 setlinecap
1 LJ
0.5 LW
N
73 48.558 M
75.17 48.558 L
S
GR
GS
0.149 GC
2 setlinecap
1 LJ
0.5 LW
N
73 33.404 M
75.17 33.404 L
S
GR
GS
0.149 GC
2 setlinecap
1 LJ
0.5 LW
N
507 366.797 M
504.83 366.797 L
S
GR
GS
0.149 GC
2 setlinecap
1 LJ
0.5 LW
N
507 359.219 M
504.83 359.219 L
S
GR
GS
0.149 GC
2 setlinecap
1 LJ
0.5 LW
N
507 351.642 M
504.83 351.642 L
S
GR
GS
0.149 GC
2 setlinecap
1 LJ
0.5 LW
N
507 336.488 M
504.83 336.488 L
S
GR
GS
0.149 GC
2 setlinecap
1 LJ
0.5 LW
N
507 328.911 M
504.83 328.911 L
S
GR
GS
0.149 GC
2 setlinecap
1 LJ
0.5 LW
N
507 321.334 M
504.83 321.334 L
S
GR
GS
0.149 GC
2 setlinecap
1 LJ
0.5 LW
N
507 313.757 M
504.83 313.757 L
S
GR
GS
0.149 GC
2 setlinecap
1 LJ
0.5 LW
N
507 298.603 M
504.83 298.603 L
S
GR
GS
0.149 GC
2 setlinecap
1 LJ
0.5 LW
N
507 291.026 M
504.83 291.026 L
S
GR
GS
0.149 GC
2 setlinecap
1 LJ
0.5 LW
N
507 283.448 M
504.83 283.448 L
S
GR
GS
0.149 GC
2 setlinecap
1 LJ
0.5 LW
N
507 275.871 M
504.83 275.871 L
S
GR
GS
0.149 GC
2 setlinecap
1 LJ
0.5 LW
N
507 260.717 M
504.83 260.717 L
S
GR
GS
0.149 GC
2 setlinecap
1 LJ
0.5 LW
N
507 253.14 M
504.83 253.14 L
S
GR
GS
0.149 GC
2 setlinecap
1 LJ
0.5 LW
N
507 245.563 M
504.83 245.563 L
S
GR
GS
0.149 GC
2 setlinecap
1 LJ
0.5 LW
N
507 237.986 M
504.83 237.986 L
S
GR
GS
0.149 GC
2 setlinecap
1 LJ
0.5 LW
N
507 222.831 M
504.83 222.831 L
S
GR
GS
0.149 GC
2 setlinecap
1 LJ
0.5 LW
N
507 215.254 M
504.83 215.254 L
S
GR
GS
0.149 GC
2 setlinecap
1 LJ
0.5 LW
N
507 207.677 M
504.83 207.677 L
S
GR
GS
0.149 GC
2 setlinecap
1 LJ
0.5 LW
N
507 200.1 M
504.83 200.1 L
S
GR
GS
0.149 GC
2 setlinecap
1 LJ
0.5 LW
N
507 184.946 M
504.83 184.946 L
S
GR
GS
0.149 GC
2 setlinecap
1 LJ
0.5 LW
N
507 177.369 M
504.83 177.369 L
S
GR
GS
0.149 GC
2 setlinecap
1 LJ
0.5 LW
N
507 169.792 M
504.83 169.792 L
S
GR
GS
0.149 GC
2 setlinecap
1 LJ
0.5 LW
N
507 162.215 M
504.83 162.215 L
S
GR
GS
0.149 GC
2 setlinecap
1 LJ
0.5 LW
N
507 147.06 M
504.83 147.06 L
S
GR
GS
0.149 GC
2 setlinecap
1 LJ
0.5 LW
N
507 139.483 M
504.83 139.483 L
S
GR
GS
0.149 GC
2 setlinecap
1 LJ
0.5 LW
N
507 131.906 M
504.83 131.906 L
S
GR
GS
0.149 GC
2 setlinecap
1 LJ
0.5 LW
N
507 124.329 M
504.83 124.329 L
S
GR
GS
0.149 GC
2 setlinecap
1 LJ
0.5 LW
N
507 109.175 M
504.83 109.175 L
S
GR
GS
0.149 GC
2 setlinecap
1 LJ
0.5 LW
N
507 101.598 M
504.83 101.598 L
S
GR
GS
0.149 GC
2 setlinecap
1 LJ
0.5 LW
N
507 94.021 M
504.83 94.021 L
S
GR
GS
0.149 GC
2 setlinecap
1 LJ
0.5 LW
N
507 86.444 M
504.83 86.444 L
S
GR
GS
0.149 GC
2 setlinecap
1 LJ
0.5 LW
N
507 71.289 M
504.83 71.289 L
S
GR
GS
0.149 GC
2 setlinecap
1 LJ
0.5 LW
N
507 63.712 M
504.83 63.712 L
S
GR
GS
0.149 GC
2 setlinecap
1 LJ
0.5 LW
N
507 56.135 M
504.83 56.135 L
S
GR
GS
0.149 GC
2 setlinecap
1 LJ
0.5 LW
N
507 48.558 M
504.83 48.558 L
S
GR
GS
0.149 GC
2 setlinecap
1 LJ
0.5 LW
N
507 33.404 M
504.83 33.404 L
S
GR
GS
[1 0 0 1 68.2 344.06525] CT
0.149 GC
/Helvetica 14 F
GS
[1 0 0 1 0 0] CT
-16 5.5 moveto 
1 -1 scale
(17) t 
GR
GR
GS
[1 0 0 1 68.2 306.17969] CT
0.149 GC
/Helvetica 14 F
GS
[1 0 0 1 0 0] CT
-16 5.5 moveto 
1 -1 scale
(18) t 
GR
GR
GS
[1 0 0 1 68.2 268.29416] CT
0.149 GC
/Helvetica 14 F
GS
[1 0 0 1 0 0] CT
-16 5.5 moveto 
1 -1 scale
(19) t 
GR
GR
GS
[1 0 0 1 68.2 230.40863] CT
0.149 GC
/Helvetica 14 F
GS
[1 0 0 1 0 0] CT
-16 5.5 moveto 
1 -1 scale
(20) t 
GR
GR
GS
[1 0 0 1 68.2 192.52309] CT
0.149 GC
/Helvetica 14 F
GS
[1 0 0 1 0 0] CT
-16 5.5 moveto 
1 -1 scale
(21) t 
GR
GR
GS
[1 0 0 1 68.2 154.63756] CT
0.149 GC
/Helvetica 14 F
GS
[1 0 0 1 0 0] CT
-16 5.5 moveto 
1 -1 scale
(22) t 
GR
GR
GS
[1 0 0 1 68.2 116.75202] CT
0.149 GC
/Helvetica 14 F
GS
[1 0 0 1 0 0] CT
-16 5.5 moveto 
1 -1 scale
(23) t 
GR
GR
GS
[1 0 0 1 68.2 78.86649] CT
0.149 GC
/Helvetica 14 F
GS
[1 0 0 1 0 0] CT
-16 5.5 moveto 
1 -1 scale
(24) t 
GR
GR
GS
[1 0 0 1 68.2 40.98095] CT
0.149 GC
/Helvetica 14 F
GS
[1 0 0 1 0 0] CT
-16 5.5 moveto 
1 -1 scale
(25) t 
GR
GR
GS
[0 -1 1 0 49.2 202.74982] CT
0.149 GC
/Helvetica 15.4 F
GS
[1 0 0 1 0 0] CT
-35 -4 moveto 
1 -1 scale
(SSIM \(dB\)) t 
GR
GR
GS
[1 0 0 1 290.00027 29.57499] CT
/Helvetica-Bold 15.4 F
GS
[1 0 0 1 0 0] CT
-113 -4 moveto 
1 -1 scale
(Lecture_1080P-3ce0.y4m-hevc) t 
GR
GR
GS
0 0.447 0.741 RC
1 LJ
0.5 LW
N
73.09 373.566 M
74.564 366.137 L
76.037 358.781 L
77.511 351.522 L
78.985 344.382 L
80.459 337.385 L
81.932 330.554 L
83.406 323.913 L
84.88 317.483 L
86.353 311.289 L
87.827 305.354 L
89.301 299.7 L
90.774 294.351 L
92.248 289.331 L
93.722 284.661 L
95.195 280.221 L
96.669 275.893 L
98.143 271.675 L
99.617 267.565 L
101.09 263.56 L
102.564 259.659 L
104.038 255.858 L
105.511 252.156 L
106.985 248.55 L
108.459 245.037 L
109.932 241.617 L
111.406 238.285 L
112.88 235.04 L
114.354 231.879 L
115.827 228.8 L
117.301 225.801 L
118.775 222.879 L
120.248 220.033 L
121.722 217.259 L
123.196 214.555 L
124.669 211.92 L
126.143 209.349 L
127.617 206.843 L
129.091 204.397 L
130.564 201.997 L
132.038 199.61 L
133.512 197.236 L
134.985 194.875 L
136.459 192.53 L
137.933 190.2 L
139.406 187.886 L
140.88 185.589 L
142.354 183.31 L
143.828 181.05 L
145.301 178.81 L
146.775 176.591 L
148.249 174.393 L
149.722 172.217 L
151.196 170.064 L
152.67 167.936 L
154.143 165.832 L
155.617 163.754 L
157.091 161.702 L
158.565 159.678 L
160.038 157.683 L
161.512 155.716 L
162.986 153.78 L
164.459 151.874 L
165.933 150 L
167.407 148.159 L
168.88 146.351 L
170.354 144.578 L
171.828 142.84 L
173.302 141.137 L
174.775 139.472 L
176.249 137.844 L
177.723 136.255 L
179.196 134.705 L
180.67 133.196 L
182.144 131.728 L
183.617 130.302 L
185.091 128.918 L
186.565 127.579 L
188.039 126.284 L
189.512 125.034 L
190.986 123.831 L
192.46 122.675 L
193.933 121.567 L
195.407 120.508 L
196.881 119.499 L
198.354 118.54 L
199.828 117.633 L
201.302 116.778 L
202.776 115.967 L
204.249 115.163 L
205.723 114.363 L
207.197 113.565 L
208.67 112.771 L
210.144 111.98 L
211.618 111.193 L
213.091 110.408 L
214.565 109.627 L
216.039 108.849 L
217.512 108.075 L
218.986 107.304 L
220.46 106.536 L
221.934 105.771 L
223.407 105.01 L
224.881 104.253 L
226.355 103.499 L
227.828 102.748 L
229.302 102.001 L
230.776 101.257 L
232.249 100.517 L
233.723 99.781 L
235.197 99.048 L
236.671 98.318 L
238.144 97.593 L
239.618 96.87 L
241.092 96.152 L
242.565 95.437 L
244.039 94.726 L
245.513 94.019 L
246.986 93.315 L
248.46 92.615 L
249.934 91.919 L
251.408 91.227 L
252.881 90.538 L
254.355 89.854 L
255.829 89.173 L
257.302 88.496 L
258.776 87.823 L
260.25 87.154 L
261.723 86.489 L
263.197 85.828 L
264.671 85.17 L
266.145 84.517 L
267.618 83.868 L
269.092 83.223 L
270.566 82.582 L
272.039 81.945 L
273.513 81.313 L
274.987 80.684 L
276.46 80.059 L
277.934 79.439 L
279.408 78.823 L
280.882 78.211 L
282.355 77.604 L
283.829 77 L
285.303 76.401 L
286.776 75.806 L
288.25 75.216 L
289.724 74.63 L
291.197 74.048 L
292.671 73.471 L
294.145 72.898 L
295.619 72.329 L
297.092 71.765 L
298.566 71.205 L
300.04 70.65 L
301.513 70.1 L
302.987 69.553 L
304.461 69.012 L
305.934 68.475 L
307.408 67.943 L
308.882 67.415 L
310.356 66.892 L
311.829 66.373 L
313.303 65.86 L
314.777 65.351 L
316.25 64.846 L
317.724 64.347 L
319.198 63.852 L
320.671 63.362 L
322.145 62.876 L
323.619 62.396 L
325.093 61.92 L
326.566 61.45 L
328.04 60.984 L
329.514 60.523 L
330.987 60.067 L
332.461 59.616 L
333.935 59.17 L
335.408 58.729 L
336.882 58.292 L
338.356 57.861 L
339.829 57.435 L
341.303 57.015 L
342.777 56.599 L
344.251 56.188 L
345.724 55.782 L
347.198 55.382 L
348.672 54.987 L
350.145 54.597 L
351.619 54.212 L
353.093 53.832 L
354.566 53.458 L
356.04 53.089 L
357.514 52.725 L
358.988 52.367 L
360.461 52.014 L
361.935 51.666 L
363.409 51.324 L
364.882 50.987 L
366.356 50.656 L
367.83 50.329 L
369.303 50.009 L
370.777 49.694 L
372.251 49.384 L
373.725 49.08 L
375.198 48.782 L
376.672 48.489 L
378.146 48.202 L
379.619 47.92 L
381.093 47.644 L
382.567 47.374 L
384.04 47.109 L
385.514 46.85 L
386.988 46.597 L
388.462 46.349 L
389.935 46.107 L
391.409 45.871 L
392.883 45.641 L
394.356 45.417 L
395.83 45.198 L
397.304 44.986 L
398.777 44.779 L
400.251 44.578 L
401.725 44.383 L
403.199 44.194 L
404.672 44.011 L
406.146 43.834 L
407.62 43.663 L
409.093 43.498 L
410.567 43.339 L
412.041 43.187 L
413.514 43.04 L
414.988 42.899 L
416.462 42.765 L
417.936 42.636 L
419.409 42.514 L
420.883 42.398 L
422.357 42.289 L
423.83 42.185 L
425.304 42.088 L
426.778 41.997 L
428.251 41.912 L
429.725 41.834 L
431.199 41.762 L
432.673 41.697 L
434.146 41.637 L
435.62 41.585 L
437.094 41.538 L
438.567 41.498 L
440.041 41.465 L
441.515 41.438 L
442.988 41.418 L
444.462 41.404 L
445.936 41.396 L
S
GR
GS
0.851 0.325 0.098 RC
1 LJ
0.5 LW
N
75.206 361.984 M
76.68 355.045 L
78.154 348.169 L
79.627 341.376 L
81.101 334.686 L
82.575 328.118 L
84.048 321.693 L
85.522 315.429 L
86.996 309.347 L
88.47 303.465 L
89.943 297.805 L
91.417 292.384 L
92.891 287.223 L
94.364 282.342 L
95.838 277.76 L
97.312 273.487 L
98.785 269.37 L
100.259 265.351 L
101.733 261.427 L
103.207 257.596 L
104.68 253.858 L
106.154 250.209 L
107.628 246.65 L
109.101 243.177 L
110.575 239.79 L
112.049 236.487 L
113.522 233.266 L
114.996 230.125 L
116.47 227.063 L
117.944 224.079 L
119.417 221.17 L
120.891 218.335 L
122.365 215.573 L
123.838 212.882 L
125.312 210.259 L
126.786 207.704 L
128.259 205.215 L
129.733 202.79 L
131.207 200.428 L
132.68 198.126 L
134.154 195.884 L
135.628 193.691 L
137.102 191.512 L
138.575 189.345 L
140.049 187.191 L
141.523 185.05 L
142.996 182.922 L
144.47 180.809 L
145.944 178.71 L
147.417 176.627 L
148.891 174.56 L
150.365 172.509 L
151.839 170.476 L
153.312 168.461 L
154.786 166.464 L
156.26 164.486 L
157.733 162.527 L
159.207 160.589 L
160.681 158.671 L
162.154 156.775 L
163.628 154.901 L
165.102 153.049 L
166.576 151.221 L
168.049 149.416 L
169.523 147.635 L
170.997 145.879 L
172.47 144.149 L
173.944 142.445 L
175.418 140.768 L
176.891 139.117 L
178.365 137.495 L
179.839 135.901 L
181.313 134.337 L
182.786 132.801 L
184.26 131.296 L
185.734 129.822 L
187.207 128.379 L
188.681 126.968 L
190.155 125.59 L
191.628 124.245 L
193.102 122.934 L
194.576 121.657 L
196.05 120.415 L
197.523 119.209 L
198.997 118.038 L
200.471 116.905 L
201.944 115.809 L
203.418 114.75 L
204.892 113.73 L
206.365 112.749 L
207.839 111.808 L
209.313 110.908 L
210.787 110.048 L
212.26 109.229 L
213.734 108.453 L
215.208 107.719 L
216.681 107.018 L
218.155 106.321 L
219.629 105.627 L
221.102 104.935 L
222.576 104.246 L
224.05 103.559 L
225.524 102.875 L
226.997 102.193 L
228.471 101.515 L
229.945 100.838 L
231.418 100.164 L
232.892 99.493 L
234.366 98.825 L
235.839 98.159 L
237.313 97.496 L
238.787 96.835 L
240.261 96.177 L
241.734 95.522 L
243.208 94.869 L
244.682 94.219 L
246.155 93.572 L
247.629 92.928 L
249.103 92.286 L
250.576 91.647 L
252.05 91.011 L
253.524 90.377 L
254.997 89.746 L
256.471 89.118 L
257.945 88.493 L
259.419 87.871 L
260.892 87.251 L
262.366 86.635 L
263.84 86.021 L
265.313 85.41 L
266.787 84.801 L
268.261 84.196 L
269.734 83.594 L
271.208 82.994 L
272.682 82.397 L
274.156 81.804 L
275.629 81.213 L
277.103 80.625 L
278.577 80.04 L
280.05 79.458 L
281.524 78.879 L
282.998 78.302 L
284.471 77.729 L
285.945 77.159 L
287.419 76.592 L
288.893 76.028 L
290.366 75.467 L
291.84 74.909 L
293.314 74.353 L
294.787 73.801 L
296.261 73.252 L
297.735 72.707 L
299.208 72.164 L
300.682 71.624 L
302.156 71.087 L
303.63 70.554 L
305.103 70.024 L
306.577 69.496 L
308.051 68.972 L
309.524 68.451 L
310.998 67.933 L
312.472 67.419 L
313.945 66.908 L
315.419 66.399 L
316.893 65.894 L
318.367 65.393 L
319.84 64.894 L
321.314 64.399 L
322.788 63.907 L
324.261 63.418 L
325.735 62.932 L
327.209 62.45 L
328.682 61.971 L
330.156 61.495 L
331.63 61.023 L
333.104 60.554 L
334.577 60.088 L
336.051 59.626 L
337.525 59.167 L
338.998 58.712 L
340.472 58.259 L
341.946 57.811 L
343.419 57.365 L
344.893 56.923 L
346.367 56.484 L
347.841 56.049 L
349.314 55.618 L
350.788 55.189 L
352.262 54.764 L
353.735 54.343 L
355.209 53.925 L
356.683 53.511 L
358.156 53.1 L
359.63 52.692 L
361.104 52.289 L
362.578 51.888 L
364.051 51.492 L
365.525 51.098 L
366.999 50.709 L
368.472 50.323 L
369.946 49.94 L
371.42 49.561 L
372.893 49.186 L
374.367 48.814 L
375.841 48.446 L
377.314 48.082 L
378.788 47.721 L
380.262 47.364 L
381.736 47.011 L
383.209 46.661 L
384.683 46.315 L
386.157 45.973 L
387.63 45.634 L
389.104 45.299 L
390.578 44.968 L
392.051 44.64 L
393.525 44.317 L
394.999 43.997 L
396.473 43.681 L
397.946 43.368 L
399.42 43.06 L
400.894 42.755 L
402.367 42.454 L
403.841 42.157 L
405.315 41.864 L
406.788 41.574 L
408.262 41.289 L
409.736 41.007 L
411.21 40.729 L
412.683 40.456 L
414.157 40.186 L
415.631 39.92 L
417.104 39.657 L
418.578 39.399 L
420.052 39.145 L
421.525 38.894 L
422.999 38.648 L
424.473 38.406 L
425.947 38.167 L
427.42 37.933 L
428.894 37.702 L
430.368 37.476 L
431.841 37.254 L
433.315 37.035 L
434.789 36.821 L
436.262 36.611 L
437.736 36.405 L
439.21 36.203 L
440.684 36.005 L
442.157 35.811 L
443.631 35.621 L
445.105 35.435 L
446.578 35.254 L
448.052 35.077 L
449.526 34.903 L
450.999 34.734 L
452.473 34.569 L
453.947 34.409 L
455.421 34.252 L
456.894 34.1 L
458.368 33.952 L
459.842 33.808 L
461.315 33.669 L
462.789 33.533 L
464.263 33.402 L
465.736 33.275 L
467.21 33.153 L
468.684 33.034 L
470.158 32.92 L
471.631 32.811 L
473.105 32.705 L
474.579 32.605 L
476.052 32.508 L
477.526 32.416 L
479 32.328 L
480.473 32.244 L
481.947 32.165 L
483.421 32.09 L
484.895 32.02 L
486.368 31.954 L
487.842 31.892 L
489.316 31.835 L
490.789 31.783 L
492.263 31.734 L
493.737 31.691 L
495.21 31.651 L
496.684 31.617 L
498.158 31.586 L
499.632 31.561 L
501.105 31.539 L
502.579 31.523 L
504.053 31.511 L
505.526 31.503 L
507 31.5 L
S
GR
GS
0.929 0.694 0.125 RC
1 LJ
0.5 LW
N
74.704 365.439 M
76.178 358.372 L
77.652 351.372 L
79.125 344.459 L
80.599 337.654 L
82.073 330.976 L
83.546 324.445 L
85.02 318.083 L
86.494 311.908 L
87.968 305.941 L
89.441 300.201 L
90.915 294.71 L
92.389 289.487 L
93.862 284.552 L
95.336 279.925 L
96.81 275.602 L
98.283 271.417 L
99.757 267.333 L
101.231 263.349 L
102.705 259.462 L
104.178 255.67 L
105.652 251.973 L
107.126 248.367 L
108.599 244.851 L
110.073 241.423 L
111.547 238.081 L
113.02 234.823 L
114.494 231.647 L
115.968 228.551 L
117.442 225.534 L
118.915 222.593 L
120.389 219.727 L
121.863 216.933 L
123.336 214.209 L
124.81 211.555 L
126.284 208.967 L
127.757 206.444 L
129.231 203.984 L
130.705 201.585 L
132.179 199.246 L
133.652 196.96 L
135.126 194.695 L
136.6 192.441 L
138.073 190.199 L
139.547 187.97 L
141.021 185.755 L
142.494 183.554 L
143.968 181.368 L
145.442 179.198 L
146.916 177.044 L
148.389 174.908 L
149.863 172.79 L
151.337 170.69 L
152.81 168.61 L
154.284 166.55 L
155.758 164.512 L
157.231 162.494 L
158.705 160.5 L
160.179 158.528 L
161.653 156.581 L
163.126 154.658 L
164.6 152.76 L
166.074 150.889 L
167.547 149.044 L
169.021 147.227 L
170.495 145.439 L
171.968 143.679 L
173.442 141.95 L
174.916 140.251 L
176.389 138.583 L
177.863 136.947 L
179.337 135.344 L
180.811 133.775 L
182.284 132.24 L
183.758 130.74 L
185.232 129.275 L
186.705 127.847 L
188.179 126.456 L
189.653 125.104 L
191.126 123.789 L
192.6 122.515 L
194.074 121.28 L
195.548 120.086 L
197.021 118.934 L
198.495 117.825 L
199.969 116.758 L
201.442 115.735 L
202.916 114.757 L
204.39 113.824 L
205.863 112.938 L
207.337 112.098 L
208.811 111.305 L
210.285 110.557 L
211.758 109.818 L
213.232 109.083 L
214.706 108.35 L
216.179 107.62 L
217.653 106.894 L
219.127 106.17 L
220.6 105.449 L
222.074 104.731 L
223.548 104.016 L
225.022 103.304 L
226.495 102.595 L
227.969 101.889 L
229.443 101.187 L
230.916 100.487 L
232.39 99.79 L
233.864 99.097 L
235.337 98.406 L
236.811 97.719 L
238.285 97.035 L
239.759 96.354 L
241.232 95.676 L
242.706 95.002 L
244.18 94.33 L
245.653 93.662 L
247.127 92.998 L
248.601 92.336 L
250.074 91.678 L
251.548 91.023 L
253.022 90.371 L
254.496 89.723 L
255.969 89.078 L
257.443 88.436 L
258.917 87.798 L
260.39 87.163 L
261.864 86.532 L
263.338 85.904 L
264.811 85.279 L
266.285 84.658 L
267.759 84.04 L
269.233 83.426 L
270.706 82.816 L
272.18 82.209 L
273.654 81.605 L
275.127 81.005 L
276.601 80.409 L
278.075 79.816 L
279.548 79.227 L
281.022 78.641 L
282.496 78.059 L
283.97 77.481 L
285.443 76.906 L
286.917 76.335 L
288.391 75.768 L
289.864 75.205 L
291.338 74.645 L
292.812 74.089 L
294.285 73.537 L
295.759 72.988 L
297.233 72.444 L
298.706 71.903 L
300.18 71.366 L
301.654 70.833 L
303.128 70.303 L
304.601 69.778 L
306.075 69.257 L
307.549 68.739 L
309.022 68.225 L
310.496 67.716 L
311.97 67.21 L
313.443 66.708 L
314.917 66.21 L
316.391 65.717 L
317.865 65.227 L
319.338 64.741 L
320.812 64.26 L
322.286 63.782 L
323.759 63.309 L
325.233 62.84 L
326.707 62.374 L
328.18 61.913 L
329.654 61.456 L
331.128 61.004 L
332.602 60.555 L
334.075 60.111 L
335.549 59.671 L
337.023 59.235 L
338.496 58.803 L
339.97 58.376 L
341.444 57.953 L
342.917 57.534 L
344.391 57.12 L
345.865 56.71 L
347.339 56.304 L
348.812 55.903 L
350.286 55.506 L
351.76 55.113 L
353.233 54.725 L
354.707 54.341 L
356.181 53.962 L
357.654 53.587 L
359.128 53.217 L
360.602 52.851 L
362.076 52.49 L
363.549 52.133 L
365.023 51.781 L
366.497 51.433 L
367.97 51.09 L
369.444 50.751 L
370.918 50.417 L
372.391 50.088 L
373.865 49.764 L
375.339 49.444 L
376.813 49.128 L
378.286 48.818 L
379.76 48.512 L
381.234 48.211 L
382.707 47.914 L
384.181 47.623 L
385.655 47.336 L
387.128 47.054 L
388.602 46.777 L
390.076 46.504 L
391.55 46.236 L
393.023 45.974 L
394.497 45.716 L
395.971 45.463 L
397.444 45.215 L
398.918 44.972 L
400.392 44.733 L
401.865 44.5 L
403.339 44.272 L
404.813 44.048 L
406.287 43.83 L
407.76 43.617 L
409.234 43.408 L
410.708 43.205 L
412.181 43.007 L
413.655 42.814 L
415.129 42.626 L
416.602 42.443 L
418.076 42.265 L
419.55 42.093 L
421.023 41.925 L
422.497 41.763 L
423.971 41.606 L
425.445 41.454 L
426.918 41.307 L
428.392 41.166 L
429.866 41.03 L
431.339 40.899 L
432.813 40.773 L
434.287 40.653 L
435.76 40.538 L
437.234 40.428 L
438.708 40.324 L
440.182 40.225 L
441.655 40.132 L
443.129 40.044 L
444.603 39.961 L
446.076 39.884 L
447.55 39.812 L
449.024 39.746 L
450.497 39.685 L
451.971 39.63 L
453.445 39.58 L
454.919 39.536 L
456.392 39.497 L
457.866 39.464 L
459.34 39.436 L
460.813 39.414 L
462.287 39.398 L
463.761 39.387 L
465.234 39.382 L
S
GR
GS
0.494 0.184 0.557 RC
1 LJ
0.5 LW
N
73 374 M
74.474 366.572 L
75.947 359.218 L
77.421 351.96 L
78.895 344.822 L
80.368 337.827 L
81.842 330.999 L
83.316 324.359 L
84.79 317.932 L
86.263 311.741 L
87.737 305.808 L
89.211 300.158 L
90.684 294.812 L
92.158 289.794 L
93.632 285.127 L
95.105 280.676 L
96.579 276.339 L
98.053 272.112 L
99.527 267.993 L
101 263.979 L
102.474 260.069 L
103.948 256.259 L
105.421 252.548 L
106.895 248.933 L
108.369 245.412 L
109.842 241.982 L
111.316 238.641 L
112.79 235.386 L
114.264 232.216 L
115.737 229.127 L
117.211 226.118 L
118.685 223.186 L
120.158 220.328 L
121.632 217.543 L
123.106 214.827 L
124.579 212.179 L
126.053 209.596 L
127.527 207.076 L
129.001 204.616 L
130.474 202.196 L
131.948 199.789 L
133.422 197.394 L
134.895 195.013 L
136.369 192.647 L
137.843 190.296 L
139.316 187.962 L
140.79 185.645 L
142.264 183.346 L
143.738 181.066 L
145.211 178.806 L
146.685 176.567 L
148.159 174.35 L
149.632 172.156 L
151.106 169.986 L
152.58 167.84 L
154.053 165.719 L
155.527 163.625 L
157.001 161.558 L
158.475 159.519 L
159.948 157.509 L
161.422 155.53 L
162.896 153.581 L
164.369 151.664 L
165.843 149.78 L
167.317 147.929 L
168.79 146.113 L
170.264 144.332 L
171.738 142.588 L
173.212 140.881 L
174.685 139.212 L
176.159 137.582 L
177.633 135.992 L
179.106 134.443 L
180.58 132.935 L
182.054 131.471 L
183.527 130.05 L
185.001 128.673 L
186.475 127.342 L
187.949 126.057 L
189.422 124.819 L
190.896 123.629 L
192.37 122.489 L
193.843 121.398 L
195.317 120.358 L
196.791 119.37 L
198.264 118.435 L
199.738 117.553 L
201.212 116.722 L
202.686 115.906 L
204.159 115.093 L
205.633 114.283 L
207.107 113.477 L
208.58 112.674 L
210.054 111.874 L
211.528 111.078 L
213.001 110.285 L
214.475 109.495 L
215.949 108.709 L
217.422 107.927 L
218.896 107.147 L
220.37 106.372 L
221.844 105.6 L
223.317 104.831 L
224.791 104.067 L
226.265 103.305 L
227.738 102.548 L
229.212 101.794 L
230.686 101.043 L
232.159 100.297 L
233.633 99.554 L
235.107 98.815 L
236.581 98.08 L
238.054 97.348 L
239.528 96.621 L
241.002 95.897 L
242.475 95.177 L
243.949 94.461 L
245.423 93.749 L
246.896 93.041 L
248.37 92.336 L
249.844 91.636 L
251.318 90.94 L
252.791 90.248 L
254.265 89.56 L
255.739 88.876 L
257.212 88.196 L
258.686 87.52 L
260.16 86.849 L
261.633 86.181 L
263.107 85.518 L
264.581 84.859 L
266.055 84.204 L
267.528 83.554 L
269.002 82.908 L
270.476 82.266 L
271.949 81.629 L
273.423 80.995 L
274.897 80.367 L
276.37 79.742 L
277.844 79.123 L
279.318 78.507 L
280.792 77.896 L
282.265 77.29 L
283.739 76.688 L
285.213 76.091 L
286.686 75.498 L
288.16 74.91 L
289.634 74.327 L
291.107 73.748 L
292.581 73.174 L
294.055 72.604 L
295.529 72.039 L
297.002 71.479 L
298.476 70.924 L
299.95 70.374 L
301.423 69.828 L
302.897 69.288 L
304.371 68.752 L
305.844 68.221 L
307.318 67.695 L
308.792 67.174 L
310.266 66.657 L
311.739 66.146 L
313.213 65.64 L
314.687 65.139 L
316.16 64.643 L
317.634 64.152 L
319.108 63.666 L
320.581 63.185 L
322.055 62.71 L
323.529 62.239 L
325.003 61.774 L
326.476 61.314 L
327.95 60.859 L
329.424 60.409 L
330.897 59.965 L
332.371 59.526 L
333.845 59.093 L
335.318 58.664 L
336.792 58.242 L
338.266 57.824 L
339.74 57.412 L
341.213 57.006 L
342.687 56.605 L
344.161 56.209 L
345.634 55.819 L
347.108 55.434 L
348.582 55.056 L
350.055 54.682 L
351.529 54.315 L
353.003 53.953 L
354.476 53.596 L
355.95 53.245 L
357.424 52.9 L
358.898 52.561 L
360.371 52.228 L
361.845 51.9 L
363.319 51.578 L
364.792 51.262 L
366.266 50.952 L
367.74 50.648 L
369.213 50.349 L
370.687 50.057 L
372.161 49.77 L
373.635 49.49 L
375.108 49.215 L
376.582 48.947 L
378.056 48.684 L
379.529 48.428 L
381.003 48.177 L
382.477 47.933 L
383.95 47.695 L
385.424 47.463 L
386.898 47.238 L
388.372 47.018 L
389.845 46.805 L
391.319 46.598 L
392.793 46.397 L
394.266 46.203 L
395.74 46.014 L
397.214 45.833 L
398.687 45.657 L
400.161 45.488 L
401.635 45.326 L
403.109 45.17 L
404.582 45.02 L
406.056 44.877 L
407.53 44.74 L
409.003 44.61 L
410.477 44.487 L
411.951 44.37 L
413.424 44.26 L
414.898 44.156 L
416.372 44.059 L
417.846 43.969 L
419.319 43.885 L
420.793 43.808 L
422.267 43.738 L
423.74 43.675 L
425.214 43.618 L
426.688 43.568 L
428.161 43.525 L
429.635 43.489 L
431.109 43.46 L
432.583 43.438 L
434.056 43.423 L
435.53 43.414 L
S
GR
GS
0.467 0.675 0.188 RC
[10 6] 0 setdash
2 LJ
0.5 LW
N
75.13 362.028 M
76.604 355.104 L
78.078 348.242 L
79.551 341.461 L
81.025 334.781 L
82.499 328.219 L
83.972 321.796 L
85.446 315.53 L
86.92 309.44 L
88.394 303.545 L
89.867 297.864 L
91.341 292.416 L
92.815 287.219 L
94.288 282.293 L
95.762 277.657 L
97.236 273.327 L
98.709 269.17 L
100.183 265.106 L
101.657 261.133 L
103.131 257.25 L
104.604 253.455 L
106.078 249.749 L
107.552 246.128 L
109.025 242.594 L
110.499 239.143 L
111.973 235.775 L
113.446 232.489 L
114.92 229.284 L
116.394 226.159 L
117.868 223.112 L
119.341 220.142 L
120.815 217.249 L
122.289 214.43 L
123.762 211.685 L
125.236 209.013 L
126.71 206.413 L
128.183 203.883 L
129.657 201.422 L
131.131 199.029 L
132.605 196.703 L
134.078 194.443 L
135.552 192.246 L
137.026 190.08 L
138.499 187.927 L
139.973 185.787 L
141.447 183.662 L
142.92 181.551 L
144.394 179.456 L
145.868 177.376 L
147.342 175.313 L
148.815 173.267 L
150.289 171.238 L
151.763 169.227 L
153.236 167.235 L
154.71 165.261 L
156.184 163.308 L
157.657 161.374 L
159.131 159.461 L
160.605 157.57 L
162.079 155.7 L
163.552 153.852 L
165.026 152.027 L
166.5 150.226 L
167.973 148.448 L
169.447 146.695 L
170.921 144.967 L
172.394 143.264 L
173.868 141.588 L
175.342 139.938 L
176.816 138.315 L
178.289 136.72 L
179.763 135.153 L
181.237 133.614 L
182.71 132.105 L
184.184 130.626 L
185.658 129.177 L
187.131 127.759 L
188.605 126.373 L
190.079 125.018 L
191.552 123.696 L
193.026 122.407 L
194.5 121.151 L
195.974 119.93 L
197.447 118.743 L
198.921 117.592 L
200.395 116.476 L
201.868 115.396 L
203.342 114.353 L
204.816 113.348 L
206.289 112.381 L
207.763 111.451 L
209.237 110.561 L
210.711 109.71 L
212.184 108.9 L
213.658 108.13 L
215.132 107.401 L
216.605 106.705 L
218.079 106.013 L
219.553 105.325 L
221.026 104.638 L
222.5 103.955 L
223.974 103.274 L
225.448 102.595 L
226.921 101.92 L
228.395 101.247 L
229.869 100.576 L
231.342 99.909 L
232.816 99.244 L
234.29 98.581 L
235.763 97.922 L
237.237 97.265 L
238.711 96.611 L
240.185 95.959 L
241.658 95.311 L
243.132 94.665 L
244.606 94.022 L
246.079 93.382 L
247.553 92.744 L
249.027 92.11 L
250.5 91.478 L
251.974 90.849 L
253.448 90.223 L
254.922 89.6 L
256.395 88.98 L
257.869 88.363 L
259.343 87.749 L
260.816 87.137 L
262.29 86.529 L
263.764 85.923 L
265.237 85.321 L
266.711 84.722 L
268.185 84.125 L
269.659 83.532 L
271.132 82.942 L
272.606 82.355 L
274.08 81.77 L
275.553 81.189 L
277.027 80.611 L
278.501 80.036 L
279.974 79.465 L
281.448 78.896 L
282.922 78.331 L
284.396 77.768 L
285.869 77.209 L
287.343 76.653 L
288.817 76.101 L
290.29 75.551 L
291.764 75.005 L
293.238 74.462 L
294.711 73.922 L
296.185 73.386 L
297.659 72.853 L
299.133 72.323 L
300.606 71.796 L
302.08 71.273 L
303.554 70.753 L
305.027 70.237 L
306.501 69.724 L
307.975 69.214 L
309.448 68.708 L
310.922 68.205 L
312.396 67.705 L
313.87 67.209 L
315.343 66.717 L
316.817 66.227 L
318.291 65.742 L
319.764 65.26 L
321.238 64.781 L
322.712 64.306 L
324.185 63.834 L
325.659 63.366 L
327.133 62.902 L
328.607 62.441 L
330.08 61.984 L
331.554 61.53 L
333.028 61.08 L
334.501 60.633 L
335.975 60.191 L
337.449 59.751 L
338.922 59.316 L
340.396 58.884 L
341.87 58.456 L
343.343 58.032 L
344.817 57.611 L
346.291 57.194 L
347.765 56.781 L
349.238 56.371 L
350.712 55.966 L
352.186 55.564 L
353.659 55.166 L
355.133 54.772 L
356.607 54.381 L
358.08 53.995 L
359.554 53.612 L
361.028 53.234 L
362.502 52.859 L
363.975 52.488 L
365.449 52.121 L
366.923 51.758 L
368.396 51.398 L
369.87 51.043 L
371.344 50.692 L
372.817 50.345 L
374.291 50.001 L
375.765 49.662 L
377.239 49.327 L
378.712 48.996 L
380.186 48.669 L
381.66 48.346 L
383.133 48.027 L
384.607 47.712 L
386.081 47.401 L
387.554 47.094 L
389.028 46.792 L
390.502 46.494 L
391.976 46.199 L
393.449 45.909 L
394.923 45.623 L
396.397 45.342 L
397.87 45.064 L
399.344 44.791 L
400.818 44.522 L
402.291 44.258 L
403.765 43.997 L
405.239 43.741 L
406.713 43.489 L
408.186 43.242 L
409.66 42.999 L
411.134 42.76 L
412.607 42.525 L
414.081 42.295 L
415.555 42.069 L
417.028 41.848 L
418.502 41.631 L
419.976 41.419 L
421.449 41.211 L
422.923 41.007 L
424.397 40.808 L
425.871 40.613 L
427.344 40.423 L
428.818 40.237 L
430.292 40.056 L
431.765 39.879 L
433.239 39.707 L
434.713 39.54 L
436.186 39.377 L
437.66 39.218 L
439.134 39.065 L
440.608 38.915 L
442.081 38.771 L
443.555 38.631 L
445.029 38.496 L
446.502 38.365 L
447.976 38.239 L
449.45 38.118 L
450.923 38.002 L
452.397 37.89 L
453.871 37.783 L
455.345 37.68 L
456.818 37.583 L
458.292 37.49 L
459.766 37.402 L
461.239 37.319 L
462.713 37.241 L
464.187 37.167 L
465.66 37.099 L
467.134 37.035 L
468.608 36.976 L
470.082 36.922 L
471.555 36.873 L
473.029 36.828 L
474.503 36.789 L
475.976 36.755 L
477.45 36.725 L
478.924 36.701 L
480.397 36.681 L
481.871 36.667 L
483.345 36.657 L
484.819 36.653 L
S
GR
GS
0.302 0.745 0.933 RC
[10 6] 0 setdash
2 LJ
0.5 LW
N
74.154 366.886 M
75.627 359.721 L
77.101 352.623 L
78.575 345.614 L
80.049 338.715 L
81.522 331.947 L
82.996 325.332 L
84.47 318.89 L
85.943 312.642 L
87.417 306.611 L
88.891 300.816 L
90.364 295.28 L
91.838 290.023 L
93.312 285.066 L
94.786 280.43 L
96.259 276.097 L
97.733 271.893 L
99.207 267.793 L
100.68 263.796 L
102.154 259.898 L
103.628 256.098 L
105.101 252.393 L
106.575 248.783 L
108.049 245.263 L
109.523 241.834 L
110.996 238.491 L
112.47 235.233 L
113.944 232.059 L
115.417 228.965 L
116.891 225.951 L
118.365 223.013 L
119.838 220.149 L
121.312 217.358 L
122.786 214.637 L
124.26 211.985 L
125.733 209.398 L
127.207 206.876 L
128.681 204.415 L
130.154 202.014 L
131.628 199.671 L
133.102 197.378 L
134.575 195.102 L
136.049 192.838 L
137.523 190.585 L
138.997 188.345 L
140.47 186.119 L
141.944 183.908 L
143.418 181.711 L
144.891 179.531 L
146.365 177.367 L
147.839 175.221 L
149.312 173.092 L
150.786 170.983 L
152.26 168.893 L
153.734 166.824 L
155.207 164.776 L
156.681 162.749 L
158.155 160.745 L
159.628 158.765 L
161.102 156.809 L
162.576 154.877 L
164.049 152.972 L
165.523 151.092 L
166.997 149.24 L
168.471 147.415 L
169.944 145.62 L
171.418 143.853 L
172.892 142.117 L
174.365 140.411 L
175.839 138.737 L
177.313 137.095 L
178.786 135.487 L
180.26 133.912 L
181.734 132.372 L
183.208 130.867 L
184.681 129.398 L
186.155 127.966 L
187.629 126.572 L
189.102 125.216 L
190.576 123.899 L
192.05 122.622 L
193.523 121.385 L
194.997 120.19 L
196.471 119.036 L
197.944 117.926 L
199.418 116.859 L
200.892 115.836 L
202.366 114.858 L
203.839 113.927 L
205.313 113.041 L
206.787 112.203 L
208.26 111.413 L
209.734 110.663 L
211.208 109.92 L
212.681 109.18 L
214.155 108.443 L
215.629 107.709 L
217.103 106.977 L
218.576 106.249 L
220.05 105.524 L
221.524 104.801 L
222.997 104.082 L
224.471 103.366 L
225.945 102.652 L
227.418 101.942 L
228.892 101.235 L
230.366 100.531 L
231.84 99.83 L
233.313 99.132 L
234.787 98.438 L
236.261 97.746 L
237.734 97.058 L
239.208 96.373 L
240.682 95.691 L
242.155 95.013 L
243.629 94.337 L
245.103 93.665 L
246.577 92.997 L
248.05 92.331 L
249.524 91.669 L
250.998 91.01 L
252.471 90.355 L
253.945 89.703 L
255.419 89.054 L
256.892 88.409 L
258.366 87.767 L
259.84 87.128 L
261.314 86.493 L
262.787 85.862 L
264.261 85.233 L
265.735 84.609 L
267.208 83.988 L
268.682 83.37 L
270.156 82.756 L
271.629 82.146 L
273.103 81.539 L
274.577 80.936 L
276.051 80.336 L
277.524 79.74 L
278.998 79.148 L
280.472 78.559 L
281.945 77.974 L
283.419 77.393 L
284.893 76.815 L
286.366 76.241 L
287.84 75.671 L
289.314 75.105 L
290.788 74.542 L
292.261 73.984 L
293.735 73.429 L
295.209 72.878 L
296.682 72.33 L
298.156 71.787 L
299.63 71.247 L
301.103 70.712 L
302.577 70.18 L
304.051 69.652 L
305.525 69.128 L
306.998 68.608 L
308.472 68.092 L
309.946 67.581 L
311.419 67.073 L
312.893 66.569 L
314.367 66.069 L
315.84 65.573 L
317.314 65.081 L
318.788 64.594 L
320.262 64.11 L
321.735 63.631 L
323.209 63.156 L
324.683 62.685 L
326.156 62.218 L
327.63 61.755 L
329.104 61.296 L
330.577 60.842 L
332.051 60.392 L
333.525 59.946 L
334.998 59.505 L
336.472 59.068 L
337.946 58.635 L
339.42 58.206 L
340.893 57.782 L
342.367 57.362 L
343.841 56.947 L
345.314 56.535 L
346.788 56.129 L
348.262 55.727 L
349.736 55.329 L
351.209 54.935 L
352.683 54.546 L
354.157 54.162 L
355.63 53.782 L
357.104 53.407 L
358.578 53.036 L
360.051 52.67 L
361.525 52.308 L
362.999 51.951 L
364.472 51.598 L
365.946 51.25 L
367.42 50.907 L
368.894 50.568 L
370.367 50.234 L
371.841 49.905 L
373.315 49.581 L
374.788 49.261 L
376.262 48.946 L
377.736 48.635 L
379.209 48.33 L
380.683 48.029 L
382.157 47.733 L
383.631 47.442 L
385.104 47.155 L
386.578 46.874 L
388.052 46.597 L
389.525 46.326 L
390.999 46.059 L
392.473 45.797 L
393.946 45.54 L
395.42 45.288 L
396.894 45.041 L
398.368 44.799 L
399.841 44.562 L
401.315 44.33 L
402.789 44.103 L
404.262 43.881 L
405.736 43.664 L
407.21 43.452 L
408.683 43.245 L
410.157 43.044 L
411.631 42.847 L
413.105 42.656 L
414.578 42.47 L
416.052 42.289 L
417.526 42.113 L
418.999 41.943 L
420.473 41.777 L
421.947 41.617 L
423.42 41.462 L
424.894 41.313 L
426.368 41.169 L
427.842 41.03 L
429.315 40.896 L
430.789 40.768 L
432.263 40.645 L
433.736 40.528 L
435.21 40.416 L
436.684 40.309 L
438.157 40.208 L
439.631 40.112 L
441.105 40.022 L
442.579 39.937 L
444.052 39.858 L
445.526 39.784 L
447 39.715 L
448.473 39.653 L
449.947 39.595 L
451.421 39.544 L
452.894 39.498 L
454.368 39.457 L
455.842 39.423 L
457.315 39.394 L
458.789 39.37 L
460.263 39.352 L
461.737 39.34 L
463.21 39.334 L
S
GR
GS
0.635 0.078 0.184 RC
[10 6] 0 setdash
2 LJ
0.5 LW
N
73.025 373.955 M
74.499 366.561 L
75.972 359.241 L
77.446 352.016 L
78.92 344.912 L
80.393 337.95 L
81.867 331.153 L
83.341 324.546 L
84.815 318.151 L
86.288 311.99 L
87.762 306.088 L
89.236 300.467 L
90.709 295.15 L
92.183 290.161 L
93.657 285.52 L
95.13 281.094 L
96.604 276.781 L
98.078 272.58 L
99.552 268.488 L
101.025 264.502 L
102.499 260.619 L
103.973 256.838 L
105.446 253.155 L
106.92 249.567 L
108.394 246.073 L
109.867 242.669 L
111.341 239.352 L
112.815 236.121 L
114.289 232.973 L
115.762 229.904 L
117.236 226.912 L
118.71 223.995 L
120.183 221.15 L
121.657 218.374 L
123.131 215.665 L
124.604 213.02 L
126.078 210.436 L
127.552 207.911 L
129.025 205.442 L
130.499 203.009 L
131.973 200.589 L
133.447 198.182 L
134.92 195.789 L
136.394 193.411 L
137.868 191.048 L
139.341 188.703 L
140.815 186.376 L
142.289 184.067 L
143.762 181.777 L
145.236 179.508 L
146.71 177.261 L
148.184 175.035 L
149.657 172.833 L
151.131 170.655 L
152.605 168.502 L
154.078 166.375 L
155.552 164.275 L
157.026 162.202 L
158.499 160.159 L
159.973 158.144 L
161.447 156.16 L
162.921 154.208 L
164.394 152.288 L
165.868 150.401 L
167.342 148.548 L
168.815 146.73 L
170.289 144.948 L
171.763 143.203 L
173.236 141.496 L
174.71 139.828 L
176.184 138.198 L
177.658 136.61 L
179.131 135.063 L
180.605 133.558 L
182.079 132.096 L
183.552 130.679 L
185.026 129.306 L
186.5 127.98 L
187.973 126.7 L
189.447 125.468 L
190.921 124.285 L
192.395 123.152 L
193.868 122.068 L
195.342 121.037 L
196.816 120.057 L
198.289 119.131 L
199.763 118.253 L
201.237 117.385 L
202.71 116.52 L
204.184 115.658 L
205.658 114.8 L
207.132 113.946 L
208.605 113.095 L
210.079 112.247 L
211.553 111.404 L
213.026 110.564 L
214.5 109.727 L
215.974 108.895 L
217.447 108.066 L
218.921 107.241 L
220.395 106.42 L
221.869 105.603 L
223.342 104.79 L
224.816 103.98 L
226.29 103.175 L
227.763 102.375 L
229.237 101.578 L
230.711 100.785 L
232.184 99.997 L
233.658 99.213 L
235.132 98.433 L
236.605 97.658 L
238.079 96.887 L
239.553 96.12 L
241.027 95.358 L
242.5 94.601 L
243.974 93.848 L
245.448 93.1 L
246.921 92.357 L
248.395 91.618 L
249.869 90.884 L
251.342 90.155 L
252.816 89.43 L
254.29 88.711 L
255.764 87.996 L
257.237 87.287 L
258.711 86.582 L
260.185 85.883 L
261.658 85.189 L
263.132 84.5 L
264.606 83.816 L
266.079 83.137 L
267.553 82.464 L
269.027 81.796 L
270.501 81.133 L
271.974 80.476 L
273.448 79.824 L
274.922 79.178 L
276.395 78.537 L
277.869 77.902 L
279.343 77.272 L
280.816 76.649 L
282.29 76.031 L
283.764 75.418 L
285.238 74.812 L
286.711 74.211 L
288.185 73.617 L
289.659 73.028 L
291.132 72.445 L
292.606 71.868 L
294.08 71.298 L
295.553 70.733 L
297.027 70.175 L
298.501 69.623 L
299.975 69.077 L
301.448 68.537 L
302.922 68.004 L
304.396 67.477 L
305.869 66.957 L
307.343 66.443 L
308.817 65.935 L
310.29 65.434 L
311.764 64.94 L
313.238 64.452 L
314.712 63.972 L
316.185 63.497 L
317.659 63.03 L
319.133 62.569 L
320.606 62.116 L
322.08 61.669 L
323.554 61.229 L
325.027 60.796 L
326.501 60.37 L
327.975 59.951 L
329.449 59.54 L
330.922 59.135 L
332.396 58.738 L
333.87 58.348 L
335.343 57.965 L
336.817 57.59 L
338.291 57.222 L
339.764 56.861 L
341.238 56.508 L
342.712 56.163 L
344.186 55.825 L
345.659 55.495 L
347.133 55.172 L
348.607 54.857 L
350.08 54.55 L
351.554 54.25 L
353.028 53.959 L
354.501 53.675 L
355.975 53.399 L
357.449 53.131 L
358.923 52.871 L
360.396 52.619 L
361.87 52.375 L
363.344 52.14 L
364.817 51.912 L
366.291 51.693 L
367.765 51.482 L
369.238 51.279 L
370.712 51.085 L
372.186 50.899 L
373.659 50.722 L
375.133 50.553 L
376.607 50.392 L
378.081 50.24 L
379.554 50.097 L
381.028 49.962 L
382.502 49.836 L
383.975 49.719 L
385.449 49.611 L
386.923 49.511 L
388.396 49.421 L
389.87 49.339 L
391.344 49.266 L
392.818 49.202 L
394.291 49.147 L
395.765 49.102 L
397.239 49.065 L
398.712 49.038 L
400.186 49.02 L
401.66 49.011 L
S
GR
GS
1 GC
N
499 366 M
499 250.5 L
344.5 250.5 L
344.5 366 L
cp
f
GR
GS
[1 0 0 1 381.5 260.25] CT
/Helvetica 13 F
GS
[1 0 0 1 0 0] CT
0 5 moveto 
1 -1 scale
(Base Run) t 
GR
GR
GS
0 0.447 0.741 RC
1 LJ
0.5 LW
N
348.5 260.25 M
378.5 260.25 L
S
GR
GS
[1 0 0 1 381.5 276.25] CT
/Helvetica 13 F
GS
[1 0 0 1 0 0] CT
0 5 moveto 
1 -1 scale
(I & B Frames) t 
GR
GR
GS
0.851 0.325 0.098 RC
1 LJ
0.5 LW
N
348.5 276.25 M
378.5 276.25 L
S
GR
GS
[1 0 0 1 381.5 292.25] CT
/Helvetica 13 F
GS
[1 0 0 1 0 0] CT
0 5 moveto 
1 -1 scale
(I Frames Only) t 
GR
GR
GS
0.929 0.694 0.125 RC
1 LJ
0.5 LW
N
348.5 292.25 M
378.5 292.25 L
S
GR
GS
[1 0 0 1 381.5 308.25] CT
/Helvetica 13 F
GS
[1 0 0 1 0 0] CT
0 5 moveto 
1 -1 scale
(B Frames Only) t 
GR
GR
GS
0.494 0.184 0.557 RC
1 LJ
0.5 LW
N
348.5 308.25 M
378.5 308.25 L
S
GR
GS
[1 0 0 1 381.5 324.25] CT
/Helvetica 13 F
GS
[1 0 0 1 0 0] CT
0 5 moveto 
1 -1 scale
(Part I & B Frames) t 
GR
GR
GS
0.467 0.675 0.188 RC
[10 6] 0 setdash
2 LJ
0.5 LW
N
348.5 324.25 M
378.5 324.25 L
S
GR
GS
[1 0 0 1 381.5 340.25] CT
/Helvetica 13 F
GS
[1 0 0 1 0 0] CT
0 5 moveto 
1 -1 scale
(Part I Frames Only) t 
GR
GR
GS
0.302 0.745 0.933 RC
[10 6] 0 setdash
2 LJ
0.5 LW
N
348.5 340.25 M
378.5 340.25 L
S
GR
GS
[1 0 0 1 381.5 356.25] CT
/Helvetica 13 F
GS
[1 0 0 1 0 0] CT
0 5 moveto 
1 -1 scale
(Part B Frames Only) t 
GR
GR
GS
0.635 0.078 0.184 RC
[10 6] 0 setdash
2 LJ
0.5 LW
N
348.5 356.25 M
378.5 356.25 L
S
GR
GS
0.149 GC
10.0 ML
0.5 LW
N
344.5 366 M
344.5 250.5 L
499 250.5 L
499 366 L
cp
S
GR
%%Trailer
%%Pages: 1
%%EOF
