%!PS-Adobe-3.0 EPSF-3.0
%%Creator: (MATLAB, The Mathworks, Inc. Version 9.11.0.1837725 \(R2021b\) Update 2. Operating System: Mac OS X)
%%Title: plots/pchip/Lecture_1080P-3ce0.y4m-hevc-DE2K.eps
%%CreationDate: 2022-02-03T19:14:16
%%Pages: (atend)
%%BoundingBox:    33   425   508   826
%%LanguageLevel: 3
%%EndComments
%%BeginProlog
%%BeginResource: procset (Apache XML Graphics Std ProcSet) 1.2 0
%%Version: 1.2 0
%%Copyright: (Copyright 2001-2003,2010 The Apache Software Foundation. License terms: http://www.apache.org/licenses/LICENSE-2.0)
/bd{bind def}bind def
/ld{load def}bd
/GR/grestore ld
/GS/gsave ld
/RM/rmoveto ld
/C/curveto ld
/t/show ld
/L/lineto ld
/ML/setmiterlimit ld
/CT/concat ld
/f/fill ld
/N/newpath ld
/S/stroke ld
/CC/setcmykcolor ld
/A/ashow ld
/cp/closepath ld
/RC/setrgbcolor ld
/LJ/setlinejoin ld
/GC/setgray ld
/LW/setlinewidth ld
/M/moveto ld
/re {4 2 roll M
1 index 0 rlineto
0 exch rlineto
neg 0 rlineto
cp } bd
/_ctm matrix def
/_tm matrix def
/BT { _ctm currentmatrix pop matrix _tm copy pop 0 0 moveto } bd
/ET { _ctm setmatrix } bd
/iTm { _ctm setmatrix _tm concat } bd
/Tm { _tm astore pop iTm 0 0 moveto } bd
/ux 0.0 def
/uy 0.0 def
/F {
  /Tp exch def
  /Tf exch def
  Tf findfont Tp scalefont setfont
  /cf Tf def  /cs Tp def
} bd
/ULS {currentpoint /uy exch def /ux exch def} bd
/ULE {
  /Tcx currentpoint pop def
  gsave
  newpath
  cf findfont cs scalefont dup
  /FontMatrix get 0 get /Ts exch def /FontInfo get dup
  /UnderlinePosition get Ts mul /To exch def
  /UnderlineThickness get Ts mul /Tt exch def
  ux uy To add moveto  Tcx uy To add lineto
  Tt setlinewidth stroke
  grestore
} bd
/OLE {
  /Tcx currentpoint pop def
  gsave
  newpath
  cf findfont cs scalefont dup
  /FontMatrix get 0 get /Ts exch def /FontInfo get dup
  /UnderlinePosition get Ts mul /To exch def
  /UnderlineThickness get Ts mul /Tt exch def
  ux uy To add cs add moveto Tcx uy To add cs add lineto
  Tt setlinewidth stroke
  grestore
} bd
/SOE {
  /Tcx currentpoint pop def
  gsave
  newpath
  cf findfont cs scalefont dup
  /FontMatrix get 0 get /Ts exch def /FontInfo get dup
  /UnderlinePosition get Ts mul /To exch def
  /UnderlineThickness get Ts mul /Tt exch def
  ux uy To add cs 10 mul 26 idiv add moveto Tcx uy To add cs 10 mul 26 idiv add lineto
  Tt setlinewidth stroke
  grestore
} bd
/QT {
/Y22 exch store
/X22 exch store
/Y21 exch store
/X21 exch store
currentpoint
/Y21 load 2 mul add 3 div exch
/X21 load 2 mul add 3 div exch
/X21 load 2 mul /X22 load add 3 div
/Y21 load 2 mul /Y22 load add 3 div
/X22 load /Y22 load curveto
} bd
/SSPD {
dup length /d exch dict def
{
/v exch def
/k exch def
currentpagedevice k known {
/cpdv currentpagedevice k get def
v cpdv ne {
/upd false def
/nullv v type /nulltype eq def
/nullcpdv cpdv type /nulltype eq def
nullv nullcpdv or
{
/upd true def
} {
/sametype v type cpdv type eq def
sametype {
v type /arraytype eq {
/vlen v length def
/cpdvlen cpdv length def
vlen cpdvlen eq {
0 1 vlen 1 sub {
/i exch def
/obj v i get def
/cpdobj cpdv i get def
obj cpdobj ne {
/upd true def
exit
} if
} for
} {
/upd true def
} ifelse
} {
v type /dicttype eq {
v {
/dv exch def
/dk exch def
/cpddv cpdv dk get def
dv cpddv ne {
/upd true def
exit
} if
} forall
} {
/upd true def
} ifelse
} ifelse
} if
} ifelse
upd true eq {
d k v put
} if
} if
} if
} forall
d length 0 gt {
d setpagedevice
} if
} bd
/RE { % /NewFontName [NewEncodingArray] /FontName RE -
  findfont dup length dict begin
  {
    1 index /FID ne
    {def} {pop pop} ifelse
  } forall
  /Encoding exch def
  /FontName 1 index def
  currentdict definefont pop
  end
} bind def
%%EndResource
%%BeginResource: procset (Apache XML Graphics EPS ProcSet) 1.0 0
%%Version: 1.0 0
%%Copyright: (Copyright 2002-2003 The Apache Software Foundation. License terms: http://www.apache.org/licenses/LICENSE-2.0)
/BeginEPSF { %def
/b4_Inc_state save def         % Save state for cleanup
/dict_count countdictstack def % Count objects on dict stack
/op_count count 1 sub def      % Count objects on operand stack
userdict begin                 % Push userdict on dict stack
/showpage { } def              % Redefine showpage, { } = null proc
0 setgray 0 setlinecap         % Prepare graphics state
1 setlinewidth 0 setlinejoin
10 setmiterlimit [ ] 0 setdash newpath
/languagelevel where           % If level not equal to 1 then
{pop languagelevel             % set strokeadjust and
1 ne                           % overprint to their defaults.
{false setstrokeadjust false setoverprint
} if
} if
} bd
/EndEPSF { %def
count op_count sub {pop} repeat            % Clean up stacks
countdictstack dict_count sub {end} repeat
b4_Inc_state restore
} bd
%%EndResource
%FOPBeginFontDict
%%IncludeResource: font Courier-Oblique
%%IncludeResource: font Courier-BoldOblique
%%IncludeResource: font Courier-Bold
%%IncludeResource: font ZapfDingbats
%%IncludeResource: font Symbol
%%IncludeResource: font Helvetica
%%IncludeResource: font Helvetica-Oblique
%%IncludeResource: font Helvetica-Bold
%%IncludeResource: font Helvetica-BoldOblique
%%IncludeResource: font Times-Roman
%%IncludeResource: font Times-Italic
%%IncludeResource: font Times-Bold
%%IncludeResource: font Times-BoldItalic
%%IncludeResource: font Courier
%FOPEndFontDict
%%BeginResource: encoding WinAnsiEncoding
/WinAnsiEncoding [
/.notdef /.notdef /.notdef /.notdef /.notdef
/.notdef /.notdef /.notdef /.notdef /.notdef
/.notdef /.notdef /.notdef /.notdef /.notdef
/.notdef /.notdef /.notdef /.notdef /.notdef
/.notdef /.notdef /.notdef /.notdef /.notdef
/.notdef /.notdef /.notdef /.notdef /.notdef
/.notdef /.notdef /space /exclam /quotedbl
/numbersign /dollar /percent /ampersand /quotesingle
/parenleft /parenright /asterisk /plus /comma
/hyphen /period /slash /zero /one
/two /three /four /five /six
/seven /eight /nine /colon /semicolon
/less /equal /greater /question /at
/A /B /C /D /E
/F /G /H /I /J
/K /L /M /N /O
/P /Q /R /S /T
/U /V /W /X /Y
/Z /bracketleft /backslash /bracketright /asciicircum
/underscore /quoteleft /a /b /c
/d /e /f /g /h
/i /j /k /l /m
/n /o /p /q /r
/s /t /u /v /w
/x /y /z /braceleft /bar
/braceright /asciitilde /bullet /Euro /bullet
/quotesinglbase /florin /quotedblbase /ellipsis /dagger
/daggerdbl /circumflex /perthousand /Scaron /guilsinglleft
/OE /bullet /Zcaron /bullet /bullet
/quoteleft /quoteright /quotedblleft /quotedblright /bullet
/endash /emdash /asciitilde /trademark /scaron
/guilsinglright /oe /bullet /zcaron /Ydieresis
/space /exclamdown /cent /sterling /currency
/yen /brokenbar /section /dieresis /copyright
/ordfeminine /guillemotleft /logicalnot /sfthyphen /registered
/macron /degree /plusminus /twosuperior /threesuperior
/acute /mu /paragraph /middot /cedilla
/onesuperior /ordmasculine /guillemotright /onequarter /onehalf
/threequarters /questiondown /Agrave /Aacute /Acircumflex
/Atilde /Adieresis /Aring /AE /Ccedilla
/Egrave /Eacute /Ecircumflex /Edieresis /Igrave
/Iacute /Icircumflex /Idieresis /Eth /Ntilde
/Ograve /Oacute /Ocircumflex /Otilde /Odieresis
/multiply /Oslash /Ugrave /Uacute /Ucircumflex
/Udieresis /Yacute /Thorn /germandbls /agrave
/aacute /acircumflex /atilde /adieresis /aring
/ae /ccedilla /egrave /eacute /ecircumflex
/edieresis /igrave /iacute /icircumflex /idieresis
/eth /ntilde /ograve /oacute /ocircumflex
/otilde /odieresis /divide /oslash /ugrave
/uacute /ucircumflex /udieresis /yacute /thorn
/ydieresis
] def
%%EndResource
%FOPBeginFontReencode
/Courier-Oblique findfont
dup length dict begin
  {1 index /FID ne {def} {pop pop} ifelse} forall
  /Encoding WinAnsiEncoding def
  currentdict
end
/Courier-Oblique exch definefont pop
/Courier-BoldOblique findfont
dup length dict begin
  {1 index /FID ne {def} {pop pop} ifelse} forall
  /Encoding WinAnsiEncoding def
  currentdict
end
/Courier-BoldOblique exch definefont pop
/Courier-Bold findfont
dup length dict begin
  {1 index /FID ne {def} {pop pop} ifelse} forall
  /Encoding WinAnsiEncoding def
  currentdict
end
/Courier-Bold exch definefont pop
/Helvetica findfont
dup length dict begin
  {1 index /FID ne {def} {pop pop} ifelse} forall
  /Encoding WinAnsiEncoding def
  currentdict
end
/Helvetica exch definefont pop
/Helvetica-Oblique findfont
dup length dict begin
  {1 index /FID ne {def} {pop pop} ifelse} forall
  /Encoding WinAnsiEncoding def
  currentdict
end
/Helvetica-Oblique exch definefont pop
/Helvetica-Bold findfont
dup length dict begin
  {1 index /FID ne {def} {pop pop} ifelse} forall
  /Encoding WinAnsiEncoding def
  currentdict
end
/Helvetica-Bold exch definefont pop
/Helvetica-BoldOblique findfont
dup length dict begin
  {1 index /FID ne {def} {pop pop} ifelse} forall
  /Encoding WinAnsiEncoding def
  currentdict
end
/Helvetica-BoldOblique exch definefont pop
/Times-Roman findfont
dup length dict begin
  {1 index /FID ne {def} {pop pop} ifelse} forall
  /Encoding WinAnsiEncoding def
  currentdict
end
/Times-Roman exch definefont pop
/Times-Italic findfont
dup length dict begin
  {1 index /FID ne {def} {pop pop} ifelse} forall
  /Encoding WinAnsiEncoding def
  currentdict
end
/Times-Italic exch definefont pop
/Times-Bold findfont
dup length dict begin
  {1 index /FID ne {def} {pop pop} ifelse} forall
  /Encoding WinAnsiEncoding def
  currentdict
end
/Times-Bold exch definefont pop
/Times-BoldItalic findfont
dup length dict begin
  {1 index /FID ne {def} {pop pop} ifelse} forall
  /Encoding WinAnsiEncoding def
  currentdict
end
/Times-BoldItalic exch definefont pop
/Courier findfont
dup length dict begin
  {1 index /FID ne {def} {pop pop} ifelse} forall
  /Encoding WinAnsiEncoding def
  currentdict
end
/Courier exch definefont pop
%FOPEndFontReencode
%%EndProlog
%%Page: 1 1
%%PageBoundingBox: 0 0 1120 840
%%BeginPageSetup
[1 0 0 -1 0 840] CT
%%EndPageSetup
GS
1 GC
N
0 0 1120 840 re
f
GR
GS
1 GC
N
73 374 M
507 374 L
507 31.5 L
73 31.5 L
cp
f
GR
GS
0.149 GC
2 setlinecap
1 LJ
0.5 LW
N
73 374 M
507 374 L
S
GR
GS
0.149 GC
2 setlinecap
1 LJ
0.5 LW
N
73 31.5 M
507 31.5 L
S
GR
GS
0.149 GC
2 setlinecap
1 LJ
0.5 LW
N
116.995 374 M
116.995 369.66 L
S
GR
GS
0.149 GC
2 setlinecap
1 LJ
0.5 LW
N
190.68 374 M
190.68 369.66 L
S
GR
GS
0.149 GC
2 setlinecap
1 LJ
0.5 LW
N
264.365 374 M
264.365 369.66 L
S
GR
GS
0.149 GC
2 setlinecap
1 LJ
0.5 LW
N
338.05 374 M
338.05 369.66 L
S
GR
GS
0.149 GC
2 setlinecap
1 LJ
0.5 LW
N
411.735 374 M
411.735 369.66 L
S
GR
GS
0.149 GC
2 setlinecap
1 LJ
0.5 LW
N
485.42 374 M
485.42 369.66 L
S
GR
GS
0.149 GC
2 setlinecap
1 LJ
0.5 LW
N
116.995 31.5 M
116.995 35.84 L
S
GR
GS
0.149 GC
2 setlinecap
1 LJ
0.5 LW
N
190.68 31.5 M
190.68 35.84 L
S
GR
GS
0.149 GC
2 setlinecap
1 LJ
0.5 LW
N
264.365 31.5 M
264.365 35.84 L
S
GR
GS
0.149 GC
2 setlinecap
1 LJ
0.5 LW
N
338.05 31.5 M
338.05 35.84 L
S
GR
GS
0.149 GC
2 setlinecap
1 LJ
0.5 LW
N
411.735 31.5 M
411.735 35.84 L
S
GR
GS
0.149 GC
2 setlinecap
1 LJ
0.5 LW
N
485.42 31.5 M
485.42 35.84 L
S
GR
GS
0.149 GC
2 setlinecap
1 LJ
0.5 LW
N
87.521 374 M
87.521 371.83 L
S
GR
GS
0.149 GC
2 setlinecap
1 LJ
0.5 LW
N
102.258 374 M
102.258 371.83 L
S
GR
GS
0.149 GC
2 setlinecap
1 LJ
0.5 LW
N
131.732 374 M
131.732 371.83 L
S
GR
GS
0.149 GC
2 setlinecap
1 LJ
0.5 LW
N
146.469 374 M
146.469 371.83 L
S
GR
GS
0.149 GC
2 setlinecap
1 LJ
0.5 LW
N
161.206 374 M
161.206 371.83 L
S
GR
GS
0.149 GC
2 setlinecap
1 LJ
0.5 LW
N
175.943 374 M
175.943 371.83 L
S
GR
GS
0.149 GC
2 setlinecap
1 LJ
0.5 LW
N
205.417 374 M
205.417 371.83 L
S
GR
GS
0.149 GC
2 setlinecap
1 LJ
0.5 LW
N
220.154 374 M
220.154 371.83 L
S
GR
GS
0.149 GC
2 setlinecap
1 LJ
0.5 LW
N
234.891 374 M
234.891 371.83 L
S
GR
GS
0.149 GC
2 setlinecap
1 LJ
0.5 LW
N
249.628 374 M
249.628 371.83 L
S
GR
GS
0.149 GC
2 setlinecap
1 LJ
0.5 LW
N
279.102 374 M
279.102 371.83 L
S
GR
GS
0.149 GC
2 setlinecap
1 LJ
0.5 LW
N
293.839 374 M
293.839 371.83 L
S
GR
GS
0.149 GC
2 setlinecap
1 LJ
0.5 LW
N
308.576 374 M
308.576 371.83 L
S
GR
GS
0.149 GC
2 setlinecap
1 LJ
0.5 LW
N
323.313 374 M
323.313 371.83 L
S
GR
GS
0.149 GC
2 setlinecap
1 LJ
0.5 LW
N
352.787 374 M
352.787 371.83 L
S
GR
GS
0.149 GC
2 setlinecap
1 LJ
0.5 LW
N
367.524 374 M
367.524 371.83 L
S
GR
GS
0.149 GC
2 setlinecap
1 LJ
0.5 LW
N
382.261 374 M
382.261 371.83 L
S
GR
GS
0.149 GC
2 setlinecap
1 LJ
0.5 LW
N
396.998 374 M
396.998 371.83 L
S
GR
GS
0.149 GC
2 setlinecap
1 LJ
0.5 LW
N
426.472 374 M
426.472 371.83 L
S
GR
GS
0.149 GC
2 setlinecap
1 LJ
0.5 LW
N
441.209 374 M
441.209 371.83 L
S
GR
GS
0.149 GC
2 setlinecap
1 LJ
0.5 LW
N
455.946 374 M
455.946 371.83 L
S
GR
GS
0.149 GC
2 setlinecap
1 LJ
0.5 LW
N
470.683 374 M
470.683 371.83 L
S
GR
GS
0.149 GC
2 setlinecap
1 LJ
0.5 LW
N
500.157 374 M
500.157 371.83 L
S
GR
GS
0.149 GC
2 setlinecap
1 LJ
0.5 LW
N
87.521 31.5 M
87.521 33.67 L
S
GR
GS
0.149 GC
2 setlinecap
1 LJ
0.5 LW
N
102.258 31.5 M
102.258 33.67 L
S
GR
GS
0.149 GC
2 setlinecap
1 LJ
0.5 LW
N
131.732 31.5 M
131.732 33.67 L
S
GR
GS
0.149 GC
2 setlinecap
1 LJ
0.5 LW
N
146.469 31.5 M
146.469 33.67 L
S
GR
GS
0.149 GC
2 setlinecap
1 LJ
0.5 LW
N
161.206 31.5 M
161.206 33.67 L
S
GR
GS
0.149 GC
2 setlinecap
1 LJ
0.5 LW
N
175.943 31.5 M
175.943 33.67 L
S
GR
GS
0.149 GC
2 setlinecap
1 LJ
0.5 LW
N
205.417 31.5 M
205.417 33.67 L
S
GR
GS
0.149 GC
2 setlinecap
1 LJ
0.5 LW
N
220.154 31.5 M
220.154 33.67 L
S
GR
GS
0.149 GC
2 setlinecap
1 LJ
0.5 LW
N
234.891 31.5 M
234.891 33.67 L
S
GR
GS
0.149 GC
2 setlinecap
1 LJ
0.5 LW
N
249.628 31.5 M
249.628 33.67 L
S
GR
GS
0.149 GC
2 setlinecap
1 LJ
0.5 LW
N
279.102 31.5 M
279.102 33.67 L
S
GR
GS
0.149 GC
2 setlinecap
1 LJ
0.5 LW
N
293.839 31.5 M
293.839 33.67 L
S
GR
GS
0.149 GC
2 setlinecap
1 LJ
0.5 LW
N
308.576 31.5 M
308.576 33.67 L
S
GR
GS
0.149 GC
2 setlinecap
1 LJ
0.5 LW
N
323.313 31.5 M
323.313 33.67 L
S
GR
GS
0.149 GC
2 setlinecap
1 LJ
0.5 LW
N
352.787 31.5 M
352.787 33.67 L
S
GR
GS
0.149 GC
2 setlinecap
1 LJ
0.5 LW
N
367.524 31.5 M
367.524 33.67 L
S
GR
GS
0.149 GC
2 setlinecap
1 LJ
0.5 LW
N
382.261 31.5 M
382.261 33.67 L
S
GR
GS
0.149 GC
2 setlinecap
1 LJ
0.5 LW
N
396.998 31.5 M
396.998 33.67 L
S
GR
GS
0.149 GC
2 setlinecap
1 LJ
0.5 LW
N
426.472 31.5 M
426.472 33.67 L
S
GR
GS
0.149 GC
2 setlinecap
1 LJ
0.5 LW
N
441.209 31.5 M
441.209 33.67 L
S
GR
GS
0.149 GC
2 setlinecap
1 LJ
0.5 LW
N
455.946 31.5 M
455.946 33.67 L
S
GR
GS
0.149 GC
2 setlinecap
1 LJ
0.5 LW
N
470.683 31.5 M
470.683 33.67 L
S
GR
GS
0.149 GC
2 setlinecap
1 LJ
0.5 LW
N
500.157 31.5 M
500.157 33.67 L
S
GR
GS
[1 0 0 1 116.99512 378.79996] CT
0.149 GC
/Helvetica 14 F
GS
[1 0 0 1 0 0] CT
-16 14 moveto 
1 -1 scale
(1000) t 
GR
GR
GS
[1 0 0 1 190.68007 378.79996] CT
0.149 GC
/Helvetica 14 F
GS
[1 0 0 1 0 0] CT
-16 14 moveto 
1 -1 scale
(2000) t 
GR
GR
GS
[1 0 0 1 264.36502 378.79996] CT
0.149 GC
/Helvetica 14 F
GS
[1 0 0 1 0 0] CT
-16 14 moveto 
1 -1 scale
(3000) t 
GR
GR
GS
[1 0 0 1 338.04996 378.79996] CT
0.149 GC
/Helvetica 14 F
GS
[1 0 0 1 0 0] CT
-16 14 moveto 
1 -1 scale
(4000) t 
GR
GR
GS
[1 0 0 1 411.73489 378.79996] CT
0.149 GC
/Helvetica 14 F
GS
[1 0 0 1 0 0] CT
-16 14 moveto 
1 -1 scale
(5000) t 
GR
GR
GS
[1 0 0 1 485.41983 378.79996] CT
0.149 GC
/Helvetica 14 F
GS
[1 0 0 1 0 0] CT
-16 14 moveto 
1 -1 scale
(6000) t 
GR
GR
GS
[1 0 0 1 290.00021 396.29996] CT
0.149 GC
/Helvetica 15.4 F
GS
[1 0 0 1 0 0] CT
-42 15 moveto 
1 -1 scale
(Bitrate\(kb/s\)) t 
GR
GR
GS
0.149 GC
2 setlinecap
1 LJ
0.5 LW
N
73 374 M
73 31.5 L
S
GR
GS
0.149 GC
2 setlinecap
1 LJ
0.5 LW
N
507 374 M
507 31.5 L
S
GR
GS
0.149 GC
2 setlinecap
1 LJ
0.5 LW
N
73 339.876 M
77.34 339.876 L
S
GR
GS
0.149 GC
2 setlinecap
1 LJ
0.5 LW
N
73 290.207 M
77.34 290.207 L
S
GR
GS
0.149 GC
2 setlinecap
1 LJ
0.5 LW
N
73 240.539 M
77.34 240.539 L
S
GR
GS
0.149 GC
2 setlinecap
1 LJ
0.5 LW
N
73 190.87 M
77.34 190.87 L
S
GR
GS
0.149 GC
2 setlinecap
1 LJ
0.5 LW
N
73 141.202 M
77.34 141.202 L
S
GR
GS
0.149 GC
2 setlinecap
1 LJ
0.5 LW
N
73 91.534 M
77.34 91.534 L
S
GR
GS
0.149 GC
2 setlinecap
1 LJ
0.5 LW
N
73 41.865 M
77.34 41.865 L
S
GR
GS
0.149 GC
2 setlinecap
1 LJ
0.5 LW
N
507 339.876 M
502.66 339.876 L
S
GR
GS
0.149 GC
2 setlinecap
1 LJ
0.5 LW
N
507 290.207 M
502.66 290.207 L
S
GR
GS
0.149 GC
2 setlinecap
1 LJ
0.5 LW
N
507 240.539 M
502.66 240.539 L
S
GR
GS
0.149 GC
2 setlinecap
1 LJ
0.5 LW
N
507 190.87 M
502.66 190.87 L
S
GR
GS
0.149 GC
2 setlinecap
1 LJ
0.5 LW
N
507 141.202 M
502.66 141.202 L
S
GR
GS
0.149 GC
2 setlinecap
1 LJ
0.5 LW
N
507 91.534 M
502.66 91.534 L
S
GR
GS
0.149 GC
2 setlinecap
1 LJ
0.5 LW
N
507 41.865 M
502.66 41.865 L
S
GR
GS
0.149 GC
2 setlinecap
1 LJ
0.5 LW
N
73 369.677 M
75.17 369.677 L
S
GR
GS
0.149 GC
2 setlinecap
1 LJ
0.5 LW
N
73 359.743 M
75.17 359.743 L
S
GR
GS
0.149 GC
2 setlinecap
1 LJ
0.5 LW
N
73 349.809 M
75.17 349.809 L
S
GR
GS
0.149 GC
2 setlinecap
1 LJ
0.5 LW
N
73 329.942 M
75.17 329.942 L
S
GR
GS
0.149 GC
2 setlinecap
1 LJ
0.5 LW
N
73 320.008 M
75.17 320.008 L
S
GR
GS
0.149 GC
2 setlinecap
1 LJ
0.5 LW
N
73 310.075 M
75.17 310.075 L
S
GR
GS
0.149 GC
2 setlinecap
1 LJ
0.5 LW
N
73 300.141 M
75.17 300.141 L
S
GR
GS
0.149 GC
2 setlinecap
1 LJ
0.5 LW
N
73 280.273 M
75.17 280.273 L
S
GR
GS
0.149 GC
2 setlinecap
1 LJ
0.5 LW
N
73 270.34 M
75.17 270.34 L
S
GR
GS
0.149 GC
2 setlinecap
1 LJ
0.5 LW
N
73 260.406 M
75.17 260.406 L
S
GR
GS
0.149 GC
2 setlinecap
1 LJ
0.5 LW
N
73 250.473 M
75.17 250.473 L
S
GR
GS
0.149 GC
2 setlinecap
1 LJ
0.5 LW
N
73 230.605 M
75.17 230.605 L
S
GR
GS
0.149 GC
2 setlinecap
1 LJ
0.5 LW
N
73 220.671 M
75.17 220.671 L
S
GR
GS
0.149 GC
2 setlinecap
1 LJ
0.5 LW
N
73 210.738 M
75.17 210.738 L
S
GR
GS
0.149 GC
2 setlinecap
1 LJ
0.5 LW
N
73 200.804 M
75.17 200.804 L
S
GR
GS
0.149 GC
2 setlinecap
1 LJ
0.5 LW
N
73 180.937 M
75.17 180.937 L
S
GR
GS
0.149 GC
2 setlinecap
1 LJ
0.5 LW
N
73 171.003 M
75.17 171.003 L
S
GR
GS
0.149 GC
2 setlinecap
1 LJ
0.5 LW
N
73 161.069 M
75.17 161.069 L
S
GR
GS
0.149 GC
2 setlinecap
1 LJ
0.5 LW
N
73 151.136 M
75.17 151.136 L
S
GR
GS
0.149 GC
2 setlinecap
1 LJ
0.5 LW
N
73 131.268 M
75.17 131.268 L
S
GR
GS
0.149 GC
2 setlinecap
1 LJ
0.5 LW
N
73 121.335 M
75.17 121.335 L
S
GR
GS
0.149 GC
2 setlinecap
1 LJ
0.5 LW
N
73 111.401 M
75.17 111.401 L
S
GR
GS
0.149 GC
2 setlinecap
1 LJ
0.5 LW
N
73 101.467 M
75.17 101.467 L
S
GR
GS
0.149 GC
2 setlinecap
1 LJ
0.5 LW
N
73 81.6 M
75.17 81.6 L
S
GR
GS
0.149 GC
2 setlinecap
1 LJ
0.5 LW
N
73 71.666 M
75.17 71.666 L
S
GR
GS
0.149 GC
2 setlinecap
1 LJ
0.5 LW
N
73 61.733 M
75.17 61.733 L
S
GR
GS
0.149 GC
2 setlinecap
1 LJ
0.5 LW
N
73 51.799 M
75.17 51.799 L
S
GR
GS
0.149 GC
2 setlinecap
1 LJ
0.5 LW
N
73 31.931 M
75.17 31.931 L
S
GR
GS
0.149 GC
2 setlinecap
1 LJ
0.5 LW
N
507 369.677 M
504.83 369.677 L
S
GR
GS
0.149 GC
2 setlinecap
1 LJ
0.5 LW
N
507 359.743 M
504.83 359.743 L
S
GR
GS
0.149 GC
2 setlinecap
1 LJ
0.5 LW
N
507 349.809 M
504.83 349.809 L
S
GR
GS
0.149 GC
2 setlinecap
1 LJ
0.5 LW
N
507 329.942 M
504.83 329.942 L
S
GR
GS
0.149 GC
2 setlinecap
1 LJ
0.5 LW
N
507 320.008 M
504.83 320.008 L
S
GR
GS
0.149 GC
2 setlinecap
1 LJ
0.5 LW
N
507 310.075 M
504.83 310.075 L
S
GR
GS
0.149 GC
2 setlinecap
1 LJ
0.5 LW
N
507 300.141 M
504.83 300.141 L
S
GR
GS
0.149 GC
2 setlinecap
1 LJ
0.5 LW
N
507 280.273 M
504.83 280.273 L
S
GR
GS
0.149 GC
2 setlinecap
1 LJ
0.5 LW
N
507 270.34 M
504.83 270.34 L
S
GR
GS
0.149 GC
2 setlinecap
1 LJ
0.5 LW
N
507 260.406 M
504.83 260.406 L
S
GR
GS
0.149 GC
2 setlinecap
1 LJ
0.5 LW
N
507 250.473 M
504.83 250.473 L
S
GR
GS
0.149 GC
2 setlinecap
1 LJ
0.5 LW
N
507 230.605 M
504.83 230.605 L
S
GR
GS
0.149 GC
2 setlinecap
1 LJ
0.5 LW
N
507 220.671 M
504.83 220.671 L
S
GR
GS
0.149 GC
2 setlinecap
1 LJ
0.5 LW
N
507 210.738 M
504.83 210.738 L
S
GR
GS
0.149 GC
2 setlinecap
1 LJ
0.5 LW
N
507 200.804 M
504.83 200.804 L
S
GR
GS
0.149 GC
2 setlinecap
1 LJ
0.5 LW
N
507 180.937 M
504.83 180.937 L
S
GR
GS
0.149 GC
2 setlinecap
1 LJ
0.5 LW
N
507 171.003 M
504.83 171.003 L
S
GR
GS
0.149 GC
2 setlinecap
1 LJ
0.5 LW
N
507 161.069 M
504.83 161.069 L
S
GR
GS
0.149 GC
2 setlinecap
1 LJ
0.5 LW
N
507 151.136 M
504.83 151.136 L
S
GR
GS
0.149 GC
2 setlinecap
1 LJ
0.5 LW
N
507 131.268 M
504.83 131.268 L
S
GR
GS
0.149 GC
2 setlinecap
1 LJ
0.5 LW
N
507 121.335 M
504.83 121.335 L
S
GR
GS
0.149 GC
2 setlinecap
1 LJ
0.5 LW
N
507 111.401 M
504.83 111.401 L
S
GR
GS
0.149 GC
2 setlinecap
1 LJ
0.5 LW
N
507 101.467 M
504.83 101.467 L
S
GR
GS
0.149 GC
2 setlinecap
1 LJ
0.5 LW
N
507 81.6 M
504.83 81.6 L
S
GR
GS
0.149 GC
2 setlinecap
1 LJ
0.5 LW
N
507 71.666 M
504.83 71.666 L
S
GR
GS
0.149 GC
2 setlinecap
1 LJ
0.5 LW
N
507 61.733 M
504.83 61.733 L
S
GR
GS
0.149 GC
2 setlinecap
1 LJ
0.5 LW
N
507 51.799 M
504.83 51.799 L
S
GR
GS
0.149 GC
2 setlinecap
1 LJ
0.5 LW
N
507 31.931 M
504.83 31.931 L
S
GR
GS
[1 0 0 1 68.2 339.87561] CT
0.149 GC
/Helvetica 14 F
GS
[1 0 0 1 0 0] CT
-16 5.5 moveto 
1 -1 scale
(37) t 
GR
GR
GS
[1 0 0 1 68.2 290.20718] CT
0.149 GC
/Helvetica 14 F
GS
[1 0 0 1 0 0] CT
-16 5.5 moveto 
1 -1 scale
(38) t 
GR
GR
GS
[1 0 0 1 68.2 240.53879] CT
0.149 GC
/Helvetica 14 F
GS
[1 0 0 1 0 0] CT
-16 5.5 moveto 
1 -1 scale
(39) t 
GR
GR
GS
[1 0 0 1 68.2 190.87038] CT
0.149 GC
/Helvetica 14 F
GS
[1 0 0 1 0 0] CT
-16 5.5 moveto 
1 -1 scale
(40) t 
GR
GR
GS
[1 0 0 1 68.2 141.20195] CT
0.149 GC
/Helvetica 14 F
GS
[1 0 0 1 0 0] CT
-16 5.5 moveto 
1 -1 scale
(41) t 
GR
GR
GS
[1 0 0 1 68.2 91.53354] CT
0.149 GC
/Helvetica 14 F
GS
[1 0 0 1 0 0] CT
-16 5.5 moveto 
1 -1 scale
(42) t 
GR
GR
GS
[1 0 0 1 68.2 41.86512] CT
0.149 GC
/Helvetica 14 F
GS
[1 0 0 1 0 0] CT
-16 5.5 moveto 
1 -1 scale
(43) t 
GR
GR
GS
[0 -1 1 0 49.2 202.74976] CT
0.149 GC
/Helvetica 15.4 F
GS
[1 0 0 1 0 0] CT
-55.5 -4 moveto 
1 -1 scale
(CIEDE2000 \(dB\)) t 
GR
GR
GS
[1 0 0 1 290.00027 29.57497] CT
/Helvetica-Bold 15.4 F
GS
[1 0 0 1 0 0] CT
-113 -4 moveto 
1 -1 scale
(Lecture_1080P-3ce0.y4m-hevc) t 
GR
GR
GS
0 0.447 0.741 RC
1 LJ
0.5 LW
N
73.09 373.352 M
74.564 366.412 L
76.037 359.54 L
77.511 352.757 L
78.985 346.086 L
80.459 339.547 L
81.932 333.162 L
83.406 326.951 L
84.88 320.936 L
86.353 315.139 L
87.827 309.58 L
89.301 304.28 L
90.774 299.262 L
92.248 294.545 L
93.722 290.152 L
95.195 285.97 L
96.669 281.894 L
98.143 277.921 L
99.617 274.049 L
101.09 270.276 L
102.564 266.598 L
104.038 263.015 L
105.511 259.523 L
106.985 256.121 L
108.459 252.806 L
109.932 249.576 L
111.406 246.429 L
112.88 243.362 L
114.354 240.373 L
115.827 237.461 L
117.301 234.621 L
118.775 231.854 L
120.248 229.155 L
121.722 226.523 L
123.196 223.956 L
124.669 221.45 L
126.143 219.005 L
127.617 216.618 L
129.091 214.286 L
130.564 211.997 L
132.038 209.723 L
133.512 207.464 L
134.985 205.221 L
136.459 202.995 L
137.933 200.785 L
139.406 198.593 L
140.88 196.418 L
142.354 194.263 L
143.828 192.127 L
145.301 190.01 L
146.775 187.914 L
148.249 185.839 L
149.722 183.786 L
151.196 181.755 L
152.67 179.747 L
154.143 177.762 L
155.617 175.801 L
157.091 173.865 L
158.565 171.954 L
160.038 170.069 L
161.512 168.211 L
162.986 166.379 L
164.459 164.575 L
165.933 162.799 L
167.407 161.052 L
168.88 159.335 L
170.354 157.647 L
171.828 155.99 L
173.302 154.364 L
174.775 152.77 L
176.249 151.209 L
177.723 149.68 L
179.196 148.185 L
180.67 146.724 L
182.144 145.298 L
183.617 143.907 L
185.091 142.552 L
186.565 141.234 L
188.039 139.953 L
189.512 138.709 L
190.986 137.504 L
192.46 136.338 L
193.933 135.211 L
195.407 134.125 L
196.881 133.079 L
198.354 132.075 L
199.828 131.112 L
201.302 130.192 L
202.776 129.308 L
204.249 128.43 L
205.723 127.554 L
207.197 126.68 L
208.67 125.809 L
210.144 124.941 L
211.618 124.076 L
213.091 123.213 L
214.565 122.353 L
216.039 121.496 L
217.512 120.641 L
218.986 119.79 L
220.46 118.941 L
221.934 118.095 L
223.407 117.252 L
224.881 116.412 L
226.355 115.575 L
227.828 114.741 L
229.302 113.91 L
230.776 113.082 L
232.249 112.258 L
233.723 111.436 L
235.197 110.618 L
236.671 109.803 L
238.144 108.991 L
239.618 108.183 L
241.092 107.378 L
242.565 106.576 L
244.039 105.778 L
245.513 104.982 L
246.986 104.191 L
248.46 103.403 L
249.934 102.619 L
251.408 101.838 L
252.881 101.061 L
254.355 100.287 L
255.829 99.518 L
257.302 98.752 L
258.776 97.989 L
260.25 97.231 L
261.723 96.476 L
263.197 95.725 L
264.671 94.978 L
266.145 94.235 L
267.618 93.496 L
269.092 92.761 L
270.566 92.029 L
272.039 91.302 L
273.513 90.579 L
274.987 89.861 L
276.46 89.146 L
277.934 88.435 L
279.408 87.729 L
280.882 87.027 L
282.355 86.329 L
283.829 85.636 L
285.303 84.947 L
286.776 84.262 L
288.25 83.582 L
289.724 82.906 L
291.197 82.235 L
292.671 81.568 L
294.145 80.906 L
295.619 80.249 L
297.092 79.596 L
298.566 78.948 L
300.04 78.304 L
301.513 77.665 L
302.987 77.031 L
304.461 76.402 L
305.934 75.778 L
307.408 75.158 L
308.882 74.544 L
310.356 73.934 L
311.829 73.329 L
313.303 72.73 L
314.777 72.135 L
316.25 71.546 L
317.724 70.961 L
319.198 70.382 L
320.671 69.808 L
322.145 69.239 L
323.619 68.676 L
325.093 68.117 L
326.566 67.564 L
328.04 67.017 L
329.514 66.474 L
330.987 65.937 L
332.461 65.406 L
333.935 64.88 L
335.408 64.36 L
336.882 63.845 L
338.356 63.336 L
339.829 62.832 L
341.303 62.334 L
342.777 61.842 L
344.251 61.355 L
345.724 60.875 L
347.198 60.4 L
348.672 59.931 L
350.145 59.467 L
351.619 59.01 L
353.093 58.558 L
354.566 58.113 L
356.04 57.673 L
357.514 57.24 L
358.988 56.813 L
360.461 56.391 L
361.935 55.976 L
363.409 55.567 L
364.882 55.164 L
366.356 54.768 L
367.83 54.378 L
369.303 53.994 L
370.777 53.616 L
372.251 53.245 L
373.725 52.88 L
375.198 52.522 L
376.672 52.17 L
378.146 51.824 L
379.619 51.485 L
381.093 51.153 L
382.567 50.828 L
384.04 50.509 L
385.514 50.196 L
386.988 49.891 L
388.462 49.592 L
389.935 49.3 L
391.409 49.014 L
392.883 48.736 L
394.356 48.464 L
395.83 48.2 L
397.304 47.942 L
398.777 47.692 L
400.251 47.448 L
401.725 47.211 L
403.199 46.982 L
404.672 46.76 L
406.146 46.544 L
407.62 46.336 L
409.093 46.135 L
410.567 45.942 L
412.041 45.756 L
413.514 45.577 L
414.988 45.405 L
416.462 45.241 L
417.936 45.084 L
419.409 44.935 L
420.883 44.793 L
422.357 44.659 L
423.83 44.532 L
425.304 44.413 L
426.778 44.302 L
428.251 44.198 L
429.725 44.102 L
431.199 44.014 L
432.673 43.933 L
434.146 43.861 L
435.62 43.796 L
437.094 43.739 L
438.567 43.69 L
440.041 43.648 L
441.515 43.615 L
442.988 43.59 L
444.462 43.573 L
445.936 43.564 L
S
GR
GS
0.851 0.325 0.098 RC
1 LJ
0.5 LW
N
75.206 358.598 M
76.68 352.602 L
78.154 346.661 L
79.627 340.789 L
81.101 334.999 L
82.575 329.305 L
84.048 323.719 L
85.522 318.257 L
86.996 312.93 L
88.47 307.753 L
89.943 302.74 L
91.417 297.903 L
92.891 293.256 L
94.364 288.813 L
95.838 284.587 L
97.312 280.585 L
98.785 276.692 L
100.259 272.866 L
101.733 269.108 L
103.207 265.416 L
104.68 261.793 L
106.154 258.238 L
107.628 254.751 L
109.101 251.335 L
110.575 247.987 L
112.049 244.71 L
113.522 241.504 L
114.996 238.368 L
116.47 235.304 L
117.944 232.312 L
119.417 229.392 L
120.891 226.546 L
122.365 223.772 L
123.838 221.072 L
125.312 218.446 L
126.786 215.895 L
128.259 213.419 L
129.733 211.019 L
131.207 208.694 L
132.68 206.446 L
134.154 204.274 L
135.628 202.168 L
137.102 200.083 L
138.575 198.015 L
140.049 195.964 L
141.523 193.931 L
142.996 191.916 L
144.47 189.919 L
145.944 187.941 L
147.417 185.981 L
148.891 184.04 L
150.365 182.119 L
151.839 180.217 L
153.312 178.335 L
154.786 176.473 L
156.26 174.632 L
157.733 172.811 L
159.207 171.011 L
160.681 169.233 L
162.154 167.476 L
163.628 165.74 L
165.102 164.027 L
166.576 162.336 L
168.049 160.668 L
169.523 159.023 L
170.997 157.401 L
172.47 155.802 L
173.944 154.227 L
175.418 152.676 L
176.891 151.15 L
178.365 149.647 L
179.839 148.17 L
181.313 146.718 L
182.786 145.291 L
184.26 143.891 L
185.734 142.516 L
187.207 141.167 L
188.681 139.844 L
190.155 138.549 L
191.628 137.28 L
193.102 136.039 L
194.576 134.826 L
196.05 133.64 L
197.523 132.483 L
198.997 131.354 L
200.471 130.254 L
201.944 129.183 L
203.418 128.141 L
204.892 127.129 L
206.365 126.146 L
207.839 125.194 L
209.313 124.272 L
210.787 123.38 L
212.26 122.52 L
213.734 121.691 L
215.208 120.893 L
216.681 120.12 L
218.155 119.35 L
219.629 118.582 L
221.102 117.815 L
222.576 117.051 L
224.05 116.289 L
225.524 115.529 L
226.997 114.771 L
228.471 114.015 L
229.945 113.262 L
231.418 112.51 L
232.892 111.761 L
234.366 111.014 L
235.839 110.269 L
237.313 109.526 L
238.787 108.785 L
240.261 108.047 L
241.734 107.311 L
243.208 106.577 L
244.682 105.846 L
246.155 105.117 L
247.629 104.39 L
249.103 103.666 L
250.576 102.944 L
252.05 102.225 L
253.524 101.507 L
254.997 100.793 L
256.471 100.081 L
257.945 99.371 L
259.419 98.664 L
260.892 97.96 L
262.366 97.258 L
263.84 96.558 L
265.313 95.861 L
266.787 95.167 L
268.261 94.476 L
269.734 93.787 L
271.208 93.1 L
272.682 92.417 L
274.156 91.736 L
275.629 91.058 L
277.103 90.383 L
278.577 89.71 L
280.05 89.04 L
281.524 88.374 L
282.998 87.709 L
284.471 87.048 L
285.945 86.39 L
287.419 85.734 L
288.893 85.082 L
290.366 84.432 L
291.84 83.785 L
293.314 83.142 L
294.787 82.501 L
296.261 81.863 L
297.735 81.229 L
299.208 80.597 L
300.682 79.968 L
302.156 79.343 L
303.63 78.721 L
305.103 78.101 L
306.577 77.485 L
308.051 76.872 L
309.524 76.263 L
310.998 75.656 L
312.472 75.053 L
313.945 74.453 L
315.419 73.856 L
316.893 73.263 L
318.367 72.673 L
319.84 72.086 L
321.314 71.502 L
322.788 70.922 L
324.261 70.345 L
325.735 69.772 L
327.209 69.202 L
328.682 68.636 L
330.156 68.073 L
331.63 67.513 L
333.104 66.957 L
334.577 66.405 L
336.051 65.856 L
337.525 65.311 L
338.998 64.769 L
340.472 64.231 L
341.946 63.696 L
343.419 63.165 L
344.893 62.638 L
346.367 62.114 L
347.841 61.594 L
349.314 61.078 L
350.788 60.566 L
352.262 60.057 L
353.735 59.552 L
355.209 59.051 L
356.683 58.554 L
358.156 58.061 L
359.63 57.571 L
361.104 57.086 L
362.578 56.604 L
364.051 56.126 L
365.525 55.652 L
366.999 55.182 L
368.472 54.716 L
369.946 54.254 L
371.42 53.796 L
372.893 53.342 L
374.367 52.893 L
375.841 52.447 L
377.314 52.005 L
378.788 51.568 L
380.262 51.134 L
381.736 50.705 L
383.209 50.28 L
384.683 49.859 L
386.157 49.442 L
387.63 49.03 L
389.104 48.622 L
390.578 48.218 L
392.051 47.818 L
393.525 47.423 L
394.999 47.032 L
396.473 46.645 L
397.946 46.263 L
399.42 45.885 L
400.894 45.512 L
402.367 45.143 L
403.841 44.778 L
405.315 44.418 L
406.788 44.063 L
408.262 43.712 L
409.736 43.365 L
411.21 43.023 L
412.683 42.686 L
414.157 42.353 L
415.631 42.024 L
417.104 41.701 L
418.578 41.382 L
420.052 41.068 L
421.525 40.758 L
422.999 40.453 L
424.473 40.153 L
425.947 39.858 L
427.42 39.567 L
428.894 39.281 L
430.368 39 L
431.841 38.724 L
433.315 38.453 L
434.789 38.186 L
436.262 37.925 L
437.736 37.668 L
439.21 37.416 L
440.684 37.169 L
442.157 36.927 L
443.631 36.691 L
445.105 36.459 L
446.578 36.232 L
448.052 36.01 L
449.526 35.793 L
450.999 35.582 L
452.473 35.375 L
453.947 35.173 L
455.421 34.977 L
456.894 34.786 L
458.368 34.6 L
459.842 34.419 L
461.315 34.244 L
462.789 34.074 L
464.263 33.909 L
465.736 33.749 L
467.21 33.594 L
468.684 33.445 L
470.158 33.301 L
471.631 33.163 L
473.105 33.03 L
474.579 32.902 L
476.052 32.78 L
477.526 32.663 L
479 32.552 L
480.473 32.446 L
481.947 32.346 L
483.421 32.251 L
484.895 32.162 L
486.368 32.078 L
487.842 32 L
489.316 31.927 L
490.789 31.86 L
492.263 31.799 L
493.737 31.743 L
495.21 31.693 L
496.684 31.649 L
498.158 31.61 L
499.632 31.577 L
501.105 31.55 L
502.579 31.529 L
504.053 31.514 L
505.526 31.504 L
507 31.5 L
S
GR
GS
0.929 0.694 0.125 RC
1 LJ
0.5 LW
N
74.704 358.877 M
76.178 352.996 L
77.652 347.172 L
79.125 341.414 L
80.599 335.737 L
82.073 330.152 L
83.546 324.672 L
85.02 319.308 L
86.494 314.074 L
87.968 308.982 L
89.441 304.044 L
90.915 299.272 L
92.389 294.678 L
93.862 290.276 L
95.336 286.078 L
96.81 282.078 L
98.283 278.164 L
99.757 274.313 L
101.231 270.526 L
102.705 266.804 L
104.178 263.147 L
105.652 259.556 L
107.126 256.032 L
108.599 252.576 L
110.073 249.187 L
111.547 245.868 L
113.02 242.618 L
114.494 239.438 L
115.968 236.329 L
117.442 233.293 L
118.915 230.328 L
120.389 227.437 L
121.863 224.619 L
123.336 221.876 L
124.81 219.209 L
126.284 216.617 L
127.757 214.102 L
129.231 211.665 L
130.705 209.305 L
132.179 207.024 L
133.652 204.819 L
135.126 202.644 L
136.6 200.486 L
138.073 198.345 L
139.547 196.222 L
141.021 194.118 L
142.494 192.031 L
143.968 189.964 L
145.442 187.916 L
146.916 185.888 L
148.389 183.88 L
149.863 181.893 L
151.337 179.926 L
152.81 177.98 L
154.284 176.056 L
155.758 174.154 L
157.231 172.274 L
158.705 170.417 L
160.179 168.583 L
161.653 166.773 L
163.126 164.986 L
164.6 163.224 L
166.074 161.486 L
167.547 159.773 L
169.021 158.085 L
170.495 156.423 L
171.968 154.788 L
173.442 153.178 L
174.916 151.596 L
176.389 150.04 L
177.863 148.512 L
179.337 147.012 L
180.811 145.541 L
182.284 144.098 L
183.758 142.684 L
185.232 141.3 L
186.705 139.946 L
188.179 138.621 L
189.653 137.327 L
191.126 136.065 L
192.6 134.833 L
194.074 133.634 L
195.548 132.466 L
197.021 131.331 L
198.495 130.228 L
199.969 129.159 L
201.442 128.123 L
202.916 127.121 L
204.39 126.154 L
205.863 125.221 L
207.337 124.324 L
208.811 123.462 L
210.285 122.632 L
211.758 121.81 L
213.232 120.99 L
214.706 120.172 L
216.179 119.357 L
217.653 118.544 L
219.127 117.733 L
220.6 116.925 L
222.074 116.119 L
223.548 115.316 L
225.022 114.514 L
226.495 113.716 L
227.969 112.92 L
229.443 112.126 L
230.916 111.335 L
232.39 110.547 L
233.864 109.761 L
235.337 108.978 L
236.811 108.197 L
238.285 107.42 L
239.759 106.645 L
241.232 105.872 L
242.706 105.103 L
244.18 104.336 L
245.653 103.573 L
247.127 102.812 L
248.601 102.054 L
250.074 101.299 L
251.548 100.547 L
253.022 99.798 L
254.496 99.052 L
255.969 98.309 L
257.443 97.569 L
258.917 96.833 L
260.39 96.099 L
261.864 95.369 L
263.338 94.642 L
264.811 93.918 L
266.285 93.198 L
267.759 92.48 L
269.233 91.767 L
270.706 91.056 L
272.18 90.349 L
273.654 89.645 L
275.127 88.945 L
276.601 88.248 L
278.075 87.555 L
279.548 86.865 L
281.022 86.179 L
282.496 85.496 L
283.97 84.817 L
285.443 84.142 L
286.917 83.471 L
288.391 82.803 L
289.864 82.139 L
291.338 81.478 L
292.812 80.822 L
294.285 80.169 L
295.759 79.52 L
297.233 78.875 L
298.706 78.234 L
300.18 77.597 L
301.654 76.964 L
303.128 76.335 L
304.601 75.711 L
306.075 75.09 L
307.549 74.473 L
309.022 73.86 L
310.496 73.252 L
311.97 72.647 L
313.443 72.047 L
314.917 71.451 L
316.391 70.86 L
317.865 70.273 L
319.338 69.69 L
320.812 69.111 L
322.286 68.537 L
323.759 67.968 L
325.233 67.402 L
326.707 66.842 L
328.18 66.285 L
329.654 65.734 L
331.128 65.187 L
332.602 64.644 L
334.075 64.106 L
335.549 63.573 L
337.023 63.045 L
338.496 62.521 L
339.97 62.002 L
341.444 61.488 L
342.917 60.978 L
344.391 60.474 L
345.865 59.974 L
347.339 59.479 L
348.812 58.99 L
350.286 58.505 L
351.76 58.025 L
353.233 57.55 L
354.707 57.08 L
356.181 56.616 L
357.654 56.156 L
359.128 55.702 L
360.602 55.252 L
362.076 54.808 L
363.549 54.369 L
365.023 53.936 L
366.497 53.507 L
367.97 53.084 L
369.444 52.667 L
370.918 52.255 L
372.391 51.848 L
373.865 51.446 L
375.339 51.05 L
376.813 50.66 L
378.286 50.275 L
379.76 49.895 L
381.234 49.522 L
382.707 49.153 L
384.181 48.791 L
385.655 48.434 L
387.128 48.083 L
388.602 47.738 L
390.076 47.398 L
391.55 47.064 L
393.023 46.736 L
394.497 46.414 L
395.971 46.097 L
397.444 45.787 L
398.918 45.482 L
400.392 45.184 L
401.865 44.892 L
403.339 44.605 L
404.813 44.325 L
406.287 44.05 L
407.76 43.782 L
409.234 43.52 L
410.708 43.264 L
412.181 43.015 L
413.655 42.771 L
415.129 42.534 L
416.602 42.303 L
418.076 42.078 L
419.55 41.86 L
421.023 41.649 L
422.497 41.443 L
423.971 41.244 L
425.445 41.052 L
426.918 40.866 L
428.392 40.686 L
429.866 40.513 L
431.339 40.347 L
432.813 40.187 L
434.287 40.034 L
435.76 39.888 L
437.234 39.748 L
438.708 39.616 L
440.182 39.489 L
441.655 39.37 L
443.129 39.258 L
444.603 39.152 L
446.076 39.053 L
447.55 38.961 L
449.024 38.876 L
450.497 38.799 L
451.971 38.728 L
453.445 38.664 L
454.919 38.607 L
456.392 38.557 L
457.866 38.515 L
459.34 38.479 L
460.813 38.451 L
462.287 38.43 L
463.761 38.416 L
465.234 38.41 L
S
GR
GS
0.494 0.184 0.557 RC
1 LJ
0.5 LW
N
73 373.98 M
74.474 366.993 L
75.947 360.076 L
77.421 353.249 L
78.895 346.535 L
80.368 339.955 L
81.842 333.53 L
83.316 327.283 L
84.79 321.235 L
86.263 315.407 L
87.737 309.822 L
89.211 304.5 L
90.684 299.464 L
92.158 294.734 L
93.632 290.332 L
95.105 286.134 L
96.579 282.043 L
98.053 278.057 L
99.527 274.173 L
101 270.388 L
102.474 266.702 L
103.948 263.11 L
105.421 259.611 L
106.895 256.202 L
108.369 252.881 L
109.842 249.646 L
111.316 246.493 L
112.79 243.421 L
114.264 240.428 L
115.737 237.51 L
117.211 234.666 L
118.685 231.892 L
120.158 229.188 L
121.632 226.549 L
123.106 223.975 L
124.579 221.462 L
126.053 219.008 L
127.527 216.61 L
129.001 214.267 L
130.474 211.962 L
131.948 209.671 L
133.422 207.396 L
134.895 205.136 L
136.369 202.893 L
137.843 200.667 L
139.316 198.459 L
140.79 196.269 L
142.264 194.098 L
143.738 191.946 L
145.211 189.815 L
146.685 187.704 L
148.159 185.615 L
149.632 183.548 L
151.106 181.504 L
152.58 179.482 L
154.053 177.485 L
155.527 175.512 L
157.001 173.565 L
158.475 171.643 L
159.948 169.748 L
161.422 167.88 L
162.896 166.039 L
164.369 164.227 L
165.843 162.443 L
167.317 160.689 L
168.79 158.965 L
170.264 157.272 L
171.738 155.611 L
173.212 153.981 L
174.685 152.384 L
176.159 150.82 L
177.633 149.29 L
179.106 147.795 L
180.58 146.335 L
182.054 144.91 L
183.527 143.522 L
185.001 142.171 L
186.475 140.858 L
187.949 139.582 L
189.422 138.346 L
190.896 137.149 L
192.37 135.992 L
193.843 134.876 L
195.317 133.801 L
196.791 132.769 L
198.264 131.779 L
199.738 130.832 L
201.212 129.926 L
202.686 129.032 L
204.159 128.141 L
205.633 127.252 L
207.107 126.365 L
208.58 125.482 L
210.054 124.601 L
211.528 123.723 L
213.001 122.847 L
214.475 121.975 L
215.949 121.105 L
217.422 120.238 L
218.896 119.375 L
220.37 118.514 L
221.844 117.656 L
223.317 116.801 L
224.791 115.95 L
226.265 115.101 L
227.738 114.256 L
229.212 113.414 L
230.686 112.575 L
232.159 111.739 L
233.633 110.907 L
235.107 110.078 L
236.581 109.253 L
238.054 108.431 L
239.528 107.612 L
241.002 106.797 L
242.475 105.986 L
243.949 105.178 L
245.423 104.374 L
246.896 103.573 L
248.37 102.776 L
249.844 101.984 L
251.318 101.194 L
252.791 100.409 L
254.265 99.628 L
255.739 98.85 L
257.212 98.076 L
258.686 97.307 L
260.16 96.541 L
261.633 95.779 L
263.107 95.022 L
264.581 94.269 L
266.055 93.519 L
267.528 92.775 L
269.002 92.034 L
270.476 91.297 L
271.949 90.566 L
273.423 89.838 L
274.897 89.115 L
276.37 88.396 L
277.844 87.682 L
279.318 86.972 L
280.792 86.267 L
282.265 85.566 L
283.739 84.87 L
285.213 84.179 L
286.686 83.492 L
288.16 82.811 L
289.634 82.134 L
291.107 81.462 L
292.581 80.794 L
294.055 80.132 L
295.529 79.475 L
297.002 78.822 L
298.476 78.175 L
299.95 77.533 L
301.423 76.896 L
302.897 76.264 L
304.371 75.637 L
305.844 75.015 L
307.318 74.399 L
308.792 73.788 L
310.266 73.182 L
311.739 72.582 L
313.213 71.987 L
314.687 71.398 L
316.16 70.814 L
317.634 70.235 L
319.108 69.663 L
320.581 69.095 L
322.055 68.534 L
323.529 67.978 L
325.003 67.428 L
326.476 66.884 L
327.95 66.345 L
329.424 65.812 L
330.897 65.286 L
332.371 64.765 L
333.845 64.25 L
335.318 63.741 L
336.792 63.238 L
338.266 62.741 L
339.74 62.25 L
341.213 61.766 L
342.687 61.288 L
344.161 60.815 L
345.634 60.349 L
347.108 59.89 L
348.582 59.437 L
350.055 58.99 L
351.529 58.549 L
353.003 58.116 L
354.476 57.688 L
355.95 57.267 L
357.424 56.853 L
358.898 56.445 L
360.371 56.044 L
361.845 55.65 L
363.319 55.262 L
364.792 54.882 L
366.266 54.508 L
367.74 54.14 L
369.213 53.78 L
370.687 53.427 L
372.161 53.08 L
373.635 52.741 L
375.108 52.409 L
376.582 52.083 L
378.056 51.765 L
379.529 51.454 L
381.003 51.15 L
382.477 50.854 L
383.95 50.565 L
385.424 50.283 L
386.898 50.008 L
388.372 49.741 L
389.845 49.481 L
391.319 49.229 L
392.793 48.984 L
394.266 48.747 L
395.74 48.517 L
397.214 48.295 L
398.687 48.08 L
400.161 47.874 L
401.635 47.675 L
403.109 47.484 L
404.582 47.3 L
406.056 47.125 L
407.53 46.957 L
409.003 46.798 L
410.477 46.646 L
411.951 46.502 L
413.424 46.367 L
414.898 46.239 L
416.372 46.119 L
417.846 46.008 L
419.319 45.905 L
420.793 45.81 L
422.267 45.724 L
423.74 45.646 L
425.214 45.576 L
426.688 45.514 L
428.161 45.461 L
429.635 45.417 L
431.109 45.381 L
432.583 45.353 L
434.056 45.334 L
435.53 45.324 L
S
GR
GS
0.467 0.675 0.188 RC
[10 6] 0 setdash
2 LJ
0.5 LW
N
75.13 356.653 M
76.604 350.698 L
78.078 344.797 L
79.551 338.963 L
81.025 333.207 L
82.499 327.543 L
83.972 321.983 L
85.446 316.54 L
86.92 311.228 L
88.394 306.057 L
89.867 301.042 L
91.341 296.194 L
92.815 291.527 L
94.288 287.053 L
95.762 282.785 L
97.236 278.734 L
98.709 274.801 L
100.183 270.928 L
101.657 267.116 L
103.131 263.365 L
104.604 259.678 L
106.078 256.054 L
107.552 252.496 L
109.025 249.004 L
110.499 245.578 L
111.973 242.222 L
113.446 238.935 L
114.92 235.718 L
116.394 232.572 L
117.868 229.5 L
119.341 226.501 L
120.815 223.577 L
122.289 220.729 L
123.762 217.958 L
125.236 215.265 L
126.71 212.651 L
128.183 210.117 L
129.657 207.665 L
131.131 205.295 L
132.605 203.008 L
134.078 200.806 L
135.552 198.688 L
137.026 196.612 L
138.499 194.555 L
139.973 192.516 L
141.447 190.496 L
142.92 188.496 L
144.394 186.516 L
145.868 184.555 L
147.342 182.614 L
148.815 180.693 L
150.289 178.793 L
151.763 176.913 L
153.236 175.055 L
154.71 173.217 L
156.184 171.4 L
157.657 169.605 L
159.131 167.832 L
160.605 166.081 L
162.079 164.352 L
163.552 162.645 L
165.026 160.96 L
166.5 159.299 L
167.973 157.66 L
169.447 156.044 L
170.921 154.452 L
172.394 152.884 L
173.868 151.339 L
175.342 149.818 L
176.816 148.322 L
178.289 146.85 L
179.763 145.403 L
181.237 143.98 L
182.71 142.583 L
184.184 141.211 L
185.658 139.864 L
187.131 138.544 L
188.605 137.249 L
190.079 135.98 L
191.552 134.738 L
193.026 133.522 L
194.5 132.333 L
195.974 131.171 L
197.447 130.036 L
198.921 128.928 L
200.395 127.849 L
201.868 126.797 L
203.342 125.773 L
204.816 124.777 L
206.289 123.81 L
207.763 122.872 L
209.237 121.962 L
210.711 121.082 L
212.184 120.231 L
213.658 119.409 L
215.132 118.617 L
216.605 117.849 L
218.079 117.085 L
219.553 116.322 L
221.026 115.562 L
222.5 114.803 L
223.974 114.047 L
225.448 113.292 L
226.921 112.54 L
228.395 111.789 L
229.869 111.041 L
231.342 110.295 L
232.816 109.552 L
234.29 108.81 L
235.763 108.071 L
237.237 107.334 L
238.711 106.599 L
240.185 105.866 L
241.658 105.136 L
243.132 104.408 L
244.606 103.683 L
246.079 102.96 L
247.553 102.239 L
249.027 101.521 L
250.5 100.806 L
251.974 100.092 L
253.448 99.382 L
254.922 98.674 L
256.395 97.968 L
257.869 97.265 L
259.343 96.565 L
260.816 95.868 L
262.29 95.173 L
263.764 94.481 L
265.237 93.791 L
266.711 93.104 L
268.185 92.42 L
269.659 91.739 L
271.132 91.061 L
272.606 90.386 L
274.08 89.713 L
275.553 89.044 L
277.027 88.377 L
278.501 87.713 L
279.974 87.052 L
281.448 86.395 L
282.922 85.74 L
284.396 85.088 L
285.869 84.439 L
287.343 83.794 L
288.817 83.151 L
290.29 82.512 L
291.764 81.876 L
293.238 81.243 L
294.711 80.614 L
296.185 79.987 L
297.659 79.364 L
299.133 78.744 L
300.606 78.128 L
302.08 77.515 L
303.554 76.905 L
305.027 76.299 L
306.501 75.696 L
307.975 75.096 L
309.448 74.5 L
310.922 73.908 L
312.396 73.319 L
313.87 72.733 L
315.343 72.151 L
316.817 71.573 L
318.291 70.998 L
319.764 70.427 L
321.238 69.86 L
322.712 69.296 L
324.185 68.736 L
325.659 68.18 L
327.133 67.628 L
328.607 67.079 L
330.08 66.534 L
331.554 65.994 L
333.028 65.456 L
334.501 64.923 L
335.975 64.394 L
337.449 63.869 L
338.922 63.347 L
340.396 62.83 L
341.87 62.317 L
343.343 61.807 L
344.817 61.302 L
346.291 60.801 L
347.765 60.304 L
349.238 59.811 L
350.712 59.323 L
352.186 58.838 L
353.659 58.358 L
355.133 57.882 L
356.607 57.41 L
358.08 56.942 L
359.554 56.479 L
361.028 56.02 L
362.502 55.566 L
363.975 55.116 L
365.449 54.67 L
366.923 54.229 L
368.396 53.792 L
369.87 53.36 L
371.344 52.932 L
372.817 52.509 L
374.291 52.09 L
375.765 51.676 L
377.239 51.267 L
378.712 50.862 L
380.186 50.462 L
381.66 50.067 L
383.133 49.676 L
384.607 49.29 L
386.081 48.909 L
387.554 48.532 L
389.028 48.161 L
390.502 47.794 L
391.976 47.432 L
393.449 47.075 L
394.923 46.723 L
396.397 46.375 L
397.87 46.033 L
399.344 45.696 L
400.818 45.364 L
402.291 45.036 L
403.765 44.714 L
405.239 44.397 L
406.713 44.085 L
408.186 43.779 L
409.66 43.477 L
411.134 43.18 L
412.607 42.889 L
414.081 42.603 L
415.555 42.322 L
417.028 42.047 L
418.502 41.777 L
419.976 41.512 L
421.449 41.252 L
422.923 40.998 L
424.397 40.749 L
425.871 40.506 L
427.344 40.268 L
428.818 40.036 L
430.292 39.809 L
431.765 39.588 L
433.239 39.372 L
434.713 39.162 L
436.186 38.957 L
437.66 38.758 L
439.134 38.565 L
440.608 38.378 L
442.081 38.196 L
443.555 38.019 L
445.029 37.849 L
446.502 37.684 L
447.976 37.526 L
449.45 37.373 L
450.923 37.226 L
452.397 37.084 L
453.871 36.949 L
455.345 36.819 L
456.818 36.696 L
458.292 36.579 L
459.766 36.467 L
461.239 36.361 L
462.713 36.262 L
464.187 36.169 L
465.66 36.081 L
467.134 36 L
468.608 35.925 L
470.082 35.856 L
471.555 35.794 L
473.029 35.737 L
474.503 35.687 L
475.976 35.644 L
477.45 35.606 L
478.924 35.575 L
480.397 35.55 L
481.871 35.531 L
483.345 35.519 L
484.819 35.514 L
S
GR
GS
0.302 0.745 0.933 RC
[10 6] 0 setdash
2 LJ
0.5 LW
N
74.154 363.059 M
75.627 356.807 L
77.101 350.614 L
78.575 344.495 L
80.049 338.466 L
81.522 332.541 L
82.996 326.736 L
84.47 321.065 L
85.943 315.544 L
87.417 310.187 L
88.891 305.01 L
90.364 300.028 L
91.838 295.255 L
93.312 290.707 L
94.786 286.399 L
96.259 282.316 L
97.733 278.326 L
99.207 274.412 L
100.68 270.574 L
102.154 266.811 L
103.628 263.125 L
105.101 259.513 L
106.575 255.978 L
108.049 252.517 L
109.523 249.131 L
110.996 245.82 L
112.47 242.584 L
113.944 239.421 L
115.417 236.334 L
116.891 233.321 L
118.365 230.381 L
119.838 227.515 L
121.312 224.724 L
122.786 222.005 L
124.26 219.36 L
125.733 216.788 L
127.207 214.289 L
128.681 211.863 L
130.154 209.509 L
131.628 207.228 L
133.102 205.013 L
134.575 202.822 L
136.049 200.646 L
137.523 198.488 L
138.997 196.347 L
140.47 194.223 L
141.944 192.118 L
143.418 190.031 L
144.891 187.963 L
146.365 185.914 L
147.839 183.885 L
149.312 181.877 L
150.786 179.889 L
152.26 177.921 L
153.734 175.976 L
155.207 174.052 L
156.681 172.151 L
158.155 170.272 L
159.628 168.417 L
161.102 166.585 L
162.576 164.777 L
164.049 162.994 L
165.523 161.236 L
166.997 159.502 L
168.471 157.795 L
169.944 156.114 L
171.418 154.459 L
172.892 152.831 L
174.365 151.231 L
175.839 149.658 L
177.313 148.114 L
178.786 146.598 L
180.26 145.112 L
181.734 143.655 L
183.208 142.228 L
184.681 140.831 L
186.155 139.465 L
187.629 138.131 L
189.102 136.828 L
190.576 135.557 L
192.05 134.319 L
193.523 133.113 L
194.997 131.941 L
196.471 130.803 L
197.944 129.699 L
199.418 128.629 L
200.892 127.595 L
202.366 126.596 L
203.839 125.633 L
205.313 124.706 L
206.787 123.816 L
208.26 122.963 L
209.734 122.141 L
211.208 121.325 L
212.681 120.511 L
214.155 119.699 L
215.629 118.889 L
217.103 118.082 L
218.576 117.278 L
220.05 116.475 L
221.524 115.676 L
222.997 114.879 L
224.471 114.084 L
225.945 113.292 L
227.418 112.503 L
228.892 111.716 L
230.366 110.932 L
231.84 110.15 L
233.313 109.372 L
234.787 108.596 L
236.261 107.823 L
237.734 107.052 L
239.208 106.285 L
240.682 105.52 L
242.155 104.758 L
243.629 104 L
245.103 103.244 L
246.577 102.491 L
248.05 101.741 L
249.524 100.994 L
250.998 100.25 L
252.471 99.509 L
253.945 98.772 L
255.419 98.037 L
256.892 97.306 L
258.366 96.578 L
259.84 95.853 L
261.314 95.132 L
262.787 94.413 L
264.261 93.698 L
265.735 92.987 L
267.208 92.278 L
268.682 91.573 L
270.156 90.872 L
271.629 90.174 L
273.103 89.479 L
274.577 88.788 L
276.051 88.101 L
277.524 87.417 L
278.998 86.737 L
280.472 86.06 L
281.945 85.387 L
283.419 84.718 L
284.893 84.052 L
286.366 83.39 L
287.84 82.732 L
289.314 82.078 L
290.788 81.428 L
292.261 80.781 L
293.735 80.138 L
295.209 79.499 L
296.682 78.864 L
298.156 78.234 L
299.63 77.607 L
301.103 76.984 L
302.577 76.365 L
304.051 75.75 L
305.525 75.139 L
306.998 74.533 L
308.472 73.93 L
309.946 73.332 L
311.419 72.738 L
312.893 72.148 L
314.367 71.563 L
315.84 70.982 L
317.314 70.405 L
318.788 69.833 L
320.262 69.264 L
321.735 68.701 L
323.209 68.142 L
324.683 67.587 L
326.156 67.037 L
327.63 66.491 L
329.104 65.95 L
330.577 65.413 L
332.051 64.881 L
333.525 64.354 L
334.998 63.831 L
336.472 63.314 L
337.946 62.8 L
339.42 62.292 L
340.893 61.788 L
342.367 61.289 L
343.841 60.795 L
345.314 60.306 L
346.788 59.822 L
348.262 59.343 L
349.736 58.868 L
351.209 58.399 L
352.683 57.935 L
354.157 57.475 L
355.63 57.021 L
357.104 56.572 L
358.578 56.128 L
360.051 55.689 L
361.525 55.255 L
362.999 54.827 L
364.472 54.404 L
365.946 53.986 L
367.42 53.573 L
368.894 53.166 L
370.367 52.764 L
371.841 52.367 L
373.315 51.976 L
374.788 51.59 L
376.262 51.21 L
377.736 50.835 L
379.209 50.465 L
380.683 50.102 L
382.157 49.743 L
383.631 49.391 L
385.104 49.044 L
386.578 48.703 L
388.052 48.367 L
389.525 48.037 L
390.999 47.713 L
392.473 47.395 L
393.946 47.082 L
395.42 46.775 L
396.894 46.474 L
398.368 46.179 L
399.841 45.89 L
401.315 45.607 L
402.789 45.33 L
404.262 45.059 L
405.736 44.794 L
407.21 44.535 L
408.683 44.282 L
410.157 44.035 L
411.631 43.794 L
413.105 43.56 L
414.578 43.331 L
416.052 43.109 L
417.526 42.893 L
418.999 42.683 L
420.473 42.48 L
421.947 42.283 L
423.42 42.093 L
424.894 41.908 L
426.368 41.731 L
427.842 41.559 L
429.315 41.394 L
430.789 41.236 L
432.263 41.084 L
433.736 40.939 L
435.21 40.8 L
436.684 40.668 L
438.157 40.543 L
439.631 40.424 L
441.105 40.312 L
442.579 40.207 L
444.052 40.109 L
445.526 40.017 L
447 39.932 L
448.473 39.854 L
449.947 39.783 L
451.421 39.719 L
452.894 39.662 L
454.368 39.611 L
455.842 39.568 L
457.315 39.531 L
458.789 39.502 L
460.263 39.48 L
461.737 39.465 L
463.21 39.457 L
S
GR
GS
0.635 0.078 0.184 RC
[10 6] 0 setdash
2 LJ
0.5 LW
N
73.025 374 M
74.499 367.07 L
75.972 360.209 L
77.446 353.438 L
78.92 346.778 L
80.393 340.25 L
81.867 333.875 L
83.341 327.675 L
84.815 321.67 L
86.288 315.882 L
87.762 310.331 L
89.236 305.039 L
90.709 300.027 L
92.183 295.316 L
93.657 290.926 L
95.13 286.733 L
96.604 282.646 L
98.078 278.662 L
99.552 274.78 L
101.025 270.997 L
102.499 267.31 L
103.973 263.717 L
105.446 260.216 L
106.92 256.804 L
108.394 253.479 L
109.867 250.239 L
111.341 247.08 L
112.815 244.002 L
114.289 241 L
115.762 238.073 L
117.236 235.218 L
118.71 232.434 L
120.183 229.717 L
121.657 227.065 L
123.131 224.476 L
124.604 221.946 L
126.078 219.476 L
127.552 217.06 L
129.025 214.698 L
130.499 212.371 L
131.973 210.06 L
133.447 207.764 L
134.92 205.484 L
136.394 203.22 L
137.868 200.975 L
139.341 198.747 L
140.815 196.539 L
142.289 194.349 L
143.762 192.18 L
145.236 190.031 L
146.71 187.903 L
148.184 185.798 L
149.657 183.715 L
151.131 181.656 L
152.605 179.62 L
154.078 177.608 L
155.552 175.622 L
157.026 173.662 L
158.499 171.728 L
159.973 169.821 L
161.447 167.942 L
162.921 166.091 L
164.394 164.27 L
165.868 162.478 L
167.342 160.716 L
168.815 158.985 L
170.289 157.286 L
171.763 155.619 L
173.236 153.984 L
174.71 152.384 L
176.184 150.817 L
177.658 149.285 L
179.131 147.789 L
180.605 146.328 L
182.079 144.905 L
183.552 143.518 L
185.026 142.17 L
186.5 140.861 L
187.973 139.59 L
189.447 138.36 L
190.921 137.17 L
192.395 136.021 L
193.868 134.914 L
195.342 133.85 L
196.816 132.828 L
198.289 131.851 L
199.763 130.912 L
201.237 129.982 L
202.71 129.054 L
204.184 128.129 L
205.658 127.207 L
207.132 126.287 L
208.605 125.37 L
210.079 124.456 L
211.553 123.545 L
213.026 122.637 L
214.5 121.731 L
215.974 120.829 L
217.447 119.931 L
218.921 119.035 L
220.395 118.143 L
221.869 117.254 L
223.342 116.368 L
224.816 115.486 L
226.29 114.608 L
227.763 113.733 L
229.237 112.861 L
230.711 111.994 L
232.184 111.13 L
233.658 110.27 L
235.132 109.415 L
236.605 108.563 L
238.079 107.715 L
239.553 106.871 L
241.027 106.031 L
242.5 105.196 L
243.974 104.365 L
245.448 103.538 L
246.921 102.716 L
248.395 101.898 L
249.869 101.085 L
251.342 100.276 L
252.816 99.472 L
254.29 98.673 L
255.764 97.879 L
257.237 97.089 L
258.711 96.305 L
260.185 95.525 L
261.658 94.75 L
263.132 93.981 L
264.606 93.216 L
266.079 92.457 L
267.553 91.703 L
269.027 90.955 L
270.501 90.212 L
271.974 89.474 L
273.448 88.742 L
274.922 88.016 L
276.395 87.295 L
277.869 86.58 L
279.343 85.871 L
280.816 85.168 L
282.29 84.47 L
283.764 83.779 L
285.238 83.094 L
286.711 82.414 L
288.185 81.741 L
289.659 81.074 L
291.132 80.414 L
292.606 79.759 L
294.08 79.112 L
295.553 78.471 L
297.027 77.836 L
298.501 77.208 L
299.975 76.586 L
301.448 75.971 L
302.922 75.363 L
304.396 74.762 L
305.869 74.168 L
307.343 73.581 L
308.817 73.001 L
310.29 72.428 L
311.764 71.862 L
313.238 71.303 L
314.712 70.752 L
316.185 70.208 L
317.659 69.671 L
319.133 69.142 L
320.606 68.62 L
322.08 68.107 L
323.554 67.6 L
325.027 67.102 L
326.501 66.611 L
327.975 66.128 L
329.449 65.653 L
330.922 65.186 L
332.396 64.727 L
333.87 64.276 L
335.343 63.833 L
336.817 63.399 L
338.291 62.973 L
339.764 62.555 L
341.238 62.146 L
342.712 61.745 L
344.186 61.352 L
345.659 60.969 L
347.133 60.593 L
348.607 60.227 L
350.08 59.87 L
351.554 59.521 L
353.028 59.181 L
354.501 58.85 L
355.975 58.528 L
357.449 58.216 L
358.923 57.912 L
360.396 57.618 L
361.87 57.333 L
363.344 57.057 L
364.817 56.791 L
366.291 56.534 L
367.765 56.287 L
369.238 56.05 L
370.712 55.822 L
372.186 55.604 L
373.659 55.395 L
375.133 55.197 L
376.607 55.008 L
378.081 54.829 L
379.554 54.661 L
381.028 54.502 L
382.502 54.354 L
383.975 54.216 L
385.449 54.088 L
386.923 53.971 L
388.396 53.863 L
389.87 53.767 L
391.344 53.681 L
392.818 53.605 L
394.291 53.541 L
395.765 53.487 L
397.239 53.443 L
398.712 53.411 L
400.186 53.39 L
401.66 53.379 L
S
GR
GS
1 GC
N
499 366 M
499 250.5 L
344.5 250.5 L
344.5 366 L
cp
f
GR
GS
[1 0 0 1 381.5 260.25] CT
/Helvetica 13 F
GS
[1 0 0 1 0 0] CT
0 5 moveto 
1 -1 scale
(Base Run) t 
GR
GR
GS
0 0.447 0.741 RC
1 LJ
0.5 LW
N
348.5 260.25 M
378.5 260.25 L
S
GR
GS
[1 0 0 1 381.5 276.25] CT
/Helvetica 13 F
GS
[1 0 0 1 0 0] CT
0 5 moveto 
1 -1 scale
(I & B Frames) t 
GR
GR
GS
0.851 0.325 0.098 RC
1 LJ
0.5 LW
N
348.5 276.25 M
378.5 276.25 L
S
GR
GS
[1 0 0 1 381.5 292.25] CT
/Helvetica 13 F
GS
[1 0 0 1 0 0] CT
0 5 moveto 
1 -1 scale
(I Frames Only) t 
GR
GR
GS
0.929 0.694 0.125 RC
1 LJ
0.5 LW
N
348.5 292.25 M
378.5 292.25 L
S
GR
GS
[1 0 0 1 381.5 308.25] CT
/Helvetica 13 F
GS
[1 0 0 1 0 0] CT
0 5 moveto 
1 -1 scale
(B Frames Only) t 
GR
GR
GS
0.494 0.184 0.557 RC
1 LJ
0.5 LW
N
348.5 308.25 M
378.5 308.25 L
S
GR
GS
[1 0 0 1 381.5 324.25] CT
/Helvetica 13 F
GS
[1 0 0 1 0 0] CT
0 5 moveto 
1 -1 scale
(Part I & B Frames) t 
GR
GR
GS
0.467 0.675 0.188 RC
[10 6] 0 setdash
2 LJ
0.5 LW
N
348.5 324.25 M
378.5 324.25 L
S
GR
GS
[1 0 0 1 381.5 340.25] CT
/Helvetica 13 F
GS
[1 0 0 1 0 0] CT
0 5 moveto 
1 -1 scale
(Part I Frames Only) t 
GR
GR
GS
0.302 0.745 0.933 RC
[10 6] 0 setdash
2 LJ
0.5 LW
N
348.5 340.25 M
378.5 340.25 L
S
GR
GS
[1 0 0 1 381.5 356.25] CT
/Helvetica 13 F
GS
[1 0 0 1 0 0] CT
0 5 moveto 
1 -1 scale
(Part B Frames Only) t 
GR
GR
GS
0.635 0.078 0.184 RC
[10 6] 0 setdash
2 LJ
0.5 LW
N
348.5 356.25 M
378.5 356.25 L
S
GR
GS
0.149 GC
10.0 ML
0.5 LW
N
344.5 366 M
344.5 250.5 L
499 250.5 L
499 366 L
cp
S
GR
%%Trailer
%%Pages: 1
%%EOF
