%!PS-Adobe-3.0 EPSF-3.0
%%Creator: (MATLAB, The Mathworks, Inc. Version 9.11.0.1837725 \(R2021b\) Update 2. Operating System: Mac OS X)
%%Title: plots/pchip/Lecture_1080P-3ce0.y4m-hevc-PSNRY.eps
%%CreationDate: 2022-02-03T19:14:12
%%Pages: (atend)
%%BoundingBox:    33   425   508   826
%%LanguageLevel: 3
%%EndComments
%%BeginProlog
%%BeginResource: procset (Apache XML Graphics Std ProcSet) 1.2 0
%%Version: 1.2 0
%%Copyright: (Copyright 2001-2003,2010 The Apache Software Foundation. License terms: http://www.apache.org/licenses/LICENSE-2.0)
/bd{bind def}bind def
/ld{load def}bd
/GR/grestore ld
/GS/gsave ld
/RM/rmoveto ld
/C/curveto ld
/t/show ld
/L/lineto ld
/ML/setmiterlimit ld
/CT/concat ld
/f/fill ld
/N/newpath ld
/S/stroke ld
/CC/setcmykcolor ld
/A/ashow ld
/cp/closepath ld
/RC/setrgbcolor ld
/LJ/setlinejoin ld
/GC/setgray ld
/LW/setlinewidth ld
/M/moveto ld
/re {4 2 roll M
1 index 0 rlineto
0 exch rlineto
neg 0 rlineto
cp } bd
/_ctm matrix def
/_tm matrix def
/BT { _ctm currentmatrix pop matrix _tm copy pop 0 0 moveto } bd
/ET { _ctm setmatrix } bd
/iTm { _ctm setmatrix _tm concat } bd
/Tm { _tm astore pop iTm 0 0 moveto } bd
/ux 0.0 def
/uy 0.0 def
/F {
  /Tp exch def
  /Tf exch def
  Tf findfont Tp scalefont setfont
  /cf Tf def  /cs Tp def
} bd
/ULS {currentpoint /uy exch def /ux exch def} bd
/ULE {
  /Tcx currentpoint pop def
  gsave
  newpath
  cf findfont cs scalefont dup
  /FontMatrix get 0 get /Ts exch def /FontInfo get dup
  /UnderlinePosition get Ts mul /To exch def
  /UnderlineThickness get Ts mul /Tt exch def
  ux uy To add moveto  Tcx uy To add lineto
  Tt setlinewidth stroke
  grestore
} bd
/OLE {
  /Tcx currentpoint pop def
  gsave
  newpath
  cf findfont cs scalefont dup
  /FontMatrix get 0 get /Ts exch def /FontInfo get dup
  /UnderlinePosition get Ts mul /To exch def
  /UnderlineThickness get Ts mul /Tt exch def
  ux uy To add cs add moveto Tcx uy To add cs add lineto
  Tt setlinewidth stroke
  grestore
} bd
/SOE {
  /Tcx currentpoint pop def
  gsave
  newpath
  cf findfont cs scalefont dup
  /FontMatrix get 0 get /Ts exch def /FontInfo get dup
  /UnderlinePosition get Ts mul /To exch def
  /UnderlineThickness get Ts mul /Tt exch def
  ux uy To add cs 10 mul 26 idiv add moveto Tcx uy To add cs 10 mul 26 idiv add lineto
  Tt setlinewidth stroke
  grestore
} bd
/QT {
/Y22 exch store
/X22 exch store
/Y21 exch store
/X21 exch store
currentpoint
/Y21 load 2 mul add 3 div exch
/X21 load 2 mul add 3 div exch
/X21 load 2 mul /X22 load add 3 div
/Y21 load 2 mul /Y22 load add 3 div
/X22 load /Y22 load curveto
} bd
/SSPD {
dup length /d exch dict def
{
/v exch def
/k exch def
currentpagedevice k known {
/cpdv currentpagedevice k get def
v cpdv ne {
/upd false def
/nullv v type /nulltype eq def
/nullcpdv cpdv type /nulltype eq def
nullv nullcpdv or
{
/upd true def
} {
/sametype v type cpdv type eq def
sametype {
v type /arraytype eq {
/vlen v length def
/cpdvlen cpdv length def
vlen cpdvlen eq {
0 1 vlen 1 sub {
/i exch def
/obj v i get def
/cpdobj cpdv i get def
obj cpdobj ne {
/upd true def
exit
} if
} for
} {
/upd true def
} ifelse
} {
v type /dicttype eq {
v {
/dv exch def
/dk exch def
/cpddv cpdv dk get def
dv cpddv ne {
/upd true def
exit
} if
} forall
} {
/upd true def
} ifelse
} ifelse
} if
} ifelse
upd true eq {
d k v put
} if
} if
} if
} forall
d length 0 gt {
d setpagedevice
} if
} bd
/RE { % /NewFontName [NewEncodingArray] /FontName RE -
  findfont dup length dict begin
  {
    1 index /FID ne
    {def} {pop pop} ifelse
  } forall
  /Encoding exch def
  /FontName 1 index def
  currentdict definefont pop
  end
} bind def
%%EndResource
%%BeginResource: procset (Apache XML Graphics EPS ProcSet) 1.0 0
%%Version: 1.0 0
%%Copyright: (Copyright 2002-2003 The Apache Software Foundation. License terms: http://www.apache.org/licenses/LICENSE-2.0)
/BeginEPSF { %def
/b4_Inc_state save def         % Save state for cleanup
/dict_count countdictstack def % Count objects on dict stack
/op_count count 1 sub def      % Count objects on operand stack
userdict begin                 % Push userdict on dict stack
/showpage { } def              % Redefine showpage, { } = null proc
0 setgray 0 setlinecap         % Prepare graphics state
1 setlinewidth 0 setlinejoin
10 setmiterlimit [ ] 0 setdash newpath
/languagelevel where           % If level not equal to 1 then
{pop languagelevel             % set strokeadjust and
1 ne                           % overprint to their defaults.
{false setstrokeadjust false setoverprint
} if
} if
} bd
/EndEPSF { %def
count op_count sub {pop} repeat            % Clean up stacks
countdictstack dict_count sub {end} repeat
b4_Inc_state restore
} bd
%%EndResource
%FOPBeginFontDict
%%IncludeResource: font Courier-Oblique
%%IncludeResource: font Courier-BoldOblique
%%IncludeResource: font Courier-Bold
%%IncludeResource: font ZapfDingbats
%%IncludeResource: font Symbol
%%IncludeResource: font Helvetica
%%IncludeResource: font Helvetica-Oblique
%%IncludeResource: font Helvetica-Bold
%%IncludeResource: font Helvetica-BoldOblique
%%IncludeResource: font Times-Roman
%%IncludeResource: font Times-Italic
%%IncludeResource: font Times-Bold
%%IncludeResource: font Times-BoldItalic
%%IncludeResource: font Courier
%FOPEndFontDict
%%BeginResource: encoding WinAnsiEncoding
/WinAnsiEncoding [
/.notdef /.notdef /.notdef /.notdef /.notdef
/.notdef /.notdef /.notdef /.notdef /.notdef
/.notdef /.notdef /.notdef /.notdef /.notdef
/.notdef /.notdef /.notdef /.notdef /.notdef
/.notdef /.notdef /.notdef /.notdef /.notdef
/.notdef /.notdef /.notdef /.notdef /.notdef
/.notdef /.notdef /space /exclam /quotedbl
/numbersign /dollar /percent /ampersand /quotesingle
/parenleft /parenright /asterisk /plus /comma
/hyphen /period /slash /zero /one
/two /three /four /five /six
/seven /eight /nine /colon /semicolon
/less /equal /greater /question /at
/A /B /C /D /E
/F /G /H /I /J
/K /L /M /N /O
/P /Q /R /S /T
/U /V /W /X /Y
/Z /bracketleft /backslash /bracketright /asciicircum
/underscore /quoteleft /a /b /c
/d /e /f /g /h
/i /j /k /l /m
/n /o /p /q /r
/s /t /u /v /w
/x /y /z /braceleft /bar
/braceright /asciitilde /bullet /Euro /bullet
/quotesinglbase /florin /quotedblbase /ellipsis /dagger
/daggerdbl /circumflex /perthousand /Scaron /guilsinglleft
/OE /bullet /Zcaron /bullet /bullet
/quoteleft /quoteright /quotedblleft /quotedblright /bullet
/endash /emdash /asciitilde /trademark /scaron
/guilsinglright /oe /bullet /zcaron /Ydieresis
/space /exclamdown /cent /sterling /currency
/yen /brokenbar /section /dieresis /copyright
/ordfeminine /guillemotleft /logicalnot /sfthyphen /registered
/macron /degree /plusminus /twosuperior /threesuperior
/acute /mu /paragraph /middot /cedilla
/onesuperior /ordmasculine /guillemotright /onequarter /onehalf
/threequarters /questiondown /Agrave /Aacute /Acircumflex
/Atilde /Adieresis /Aring /AE /Ccedilla
/Egrave /Eacute /Ecircumflex /Edieresis /Igrave
/Iacute /Icircumflex /Idieresis /Eth /Ntilde
/Ograve /Oacute /Ocircumflex /Otilde /Odieresis
/multiply /Oslash /Ugrave /Uacute /Ucircumflex
/Udieresis /Yacute /Thorn /germandbls /agrave
/aacute /acircumflex /atilde /adieresis /aring
/ae /ccedilla /egrave /eacute /ecircumflex
/edieresis /igrave /iacute /icircumflex /idieresis
/eth /ntilde /ograve /oacute /ocircumflex
/otilde /odieresis /divide /oslash /ugrave
/uacute /ucircumflex /udieresis /yacute /thorn
/ydieresis
] def
%%EndResource
%FOPBeginFontReencode
/Courier-Oblique findfont
dup length dict begin
  {1 index /FID ne {def} {pop pop} ifelse} forall
  /Encoding WinAnsiEncoding def
  currentdict
end
/Courier-Oblique exch definefont pop
/Courier-BoldOblique findfont
dup length dict begin
  {1 index /FID ne {def} {pop pop} ifelse} forall
  /Encoding WinAnsiEncoding def
  currentdict
end
/Courier-BoldOblique exch definefont pop
/Courier-Bold findfont
dup length dict begin
  {1 index /FID ne {def} {pop pop} ifelse} forall
  /Encoding WinAnsiEncoding def
  currentdict
end
/Courier-Bold exch definefont pop
/Helvetica findfont
dup length dict begin
  {1 index /FID ne {def} {pop pop} ifelse} forall
  /Encoding WinAnsiEncoding def
  currentdict
end
/Helvetica exch definefont pop
/Helvetica-Oblique findfont
dup length dict begin
  {1 index /FID ne {def} {pop pop} ifelse} forall
  /Encoding WinAnsiEncoding def
  currentdict
end
/Helvetica-Oblique exch definefont pop
/Helvetica-Bold findfont
dup length dict begin
  {1 index /FID ne {def} {pop pop} ifelse} forall
  /Encoding WinAnsiEncoding def
  currentdict
end
/Helvetica-Bold exch definefont pop
/Helvetica-BoldOblique findfont
dup length dict begin
  {1 index /FID ne {def} {pop pop} ifelse} forall
  /Encoding WinAnsiEncoding def
  currentdict
end
/Helvetica-BoldOblique exch definefont pop
/Times-Roman findfont
dup length dict begin
  {1 index /FID ne {def} {pop pop} ifelse} forall
  /Encoding WinAnsiEncoding def
  currentdict
end
/Times-Roman exch definefont pop
/Times-Italic findfont
dup length dict begin
  {1 index /FID ne {def} {pop pop} ifelse} forall
  /Encoding WinAnsiEncoding def
  currentdict
end
/Times-Italic exch definefont pop
/Times-Bold findfont
dup length dict begin
  {1 index /FID ne {def} {pop pop} ifelse} forall
  /Encoding WinAnsiEncoding def
  currentdict
end
/Times-Bold exch definefont pop
/Times-BoldItalic findfont
dup length dict begin
  {1 index /FID ne {def} {pop pop} ifelse} forall
  /Encoding WinAnsiEncoding def
  currentdict
end
/Times-BoldItalic exch definefont pop
/Courier findfont
dup length dict begin
  {1 index /FID ne {def} {pop pop} ifelse} forall
  /Encoding WinAnsiEncoding def
  currentdict
end
/Courier exch definefont pop
%FOPEndFontReencode
%%EndProlog
%%Page: 1 1
%%PageBoundingBox: 0 0 1120 840
%%BeginPageSetup
[1 0 0 -1 0 840] CT
%%EndPageSetup
GS
1 GC
N
0 0 1120 840 re
f
GR
GS
1 GC
N
73 374 M
507 374 L
507 31.5 L
73 31.5 L
cp
f
GR
GS
0.149 GC
2 setlinecap
1 LJ
0.5 LW
N
73 374 M
507 374 L
S
GR
GS
0.149 GC
2 setlinecap
1 LJ
0.5 LW
N
73 31.5 M
507 31.5 L
S
GR
GS
0.149 GC
2 setlinecap
1 LJ
0.5 LW
N
116.995 374 M
116.995 369.66 L
S
GR
GS
0.149 GC
2 setlinecap
1 LJ
0.5 LW
N
190.68 374 M
190.68 369.66 L
S
GR
GS
0.149 GC
2 setlinecap
1 LJ
0.5 LW
N
264.365 374 M
264.365 369.66 L
S
GR
GS
0.149 GC
2 setlinecap
1 LJ
0.5 LW
N
338.05 374 M
338.05 369.66 L
S
GR
GS
0.149 GC
2 setlinecap
1 LJ
0.5 LW
N
411.735 374 M
411.735 369.66 L
S
GR
GS
0.149 GC
2 setlinecap
1 LJ
0.5 LW
N
485.42 374 M
485.42 369.66 L
S
GR
GS
0.149 GC
2 setlinecap
1 LJ
0.5 LW
N
116.995 31.5 M
116.995 35.84 L
S
GR
GS
0.149 GC
2 setlinecap
1 LJ
0.5 LW
N
190.68 31.5 M
190.68 35.84 L
S
GR
GS
0.149 GC
2 setlinecap
1 LJ
0.5 LW
N
264.365 31.5 M
264.365 35.84 L
S
GR
GS
0.149 GC
2 setlinecap
1 LJ
0.5 LW
N
338.05 31.5 M
338.05 35.84 L
S
GR
GS
0.149 GC
2 setlinecap
1 LJ
0.5 LW
N
411.735 31.5 M
411.735 35.84 L
S
GR
GS
0.149 GC
2 setlinecap
1 LJ
0.5 LW
N
485.42 31.5 M
485.42 35.84 L
S
GR
GS
0.149 GC
2 setlinecap
1 LJ
0.5 LW
N
87.521 374 M
87.521 371.83 L
S
GR
GS
0.149 GC
2 setlinecap
1 LJ
0.5 LW
N
102.258 374 M
102.258 371.83 L
S
GR
GS
0.149 GC
2 setlinecap
1 LJ
0.5 LW
N
131.732 374 M
131.732 371.83 L
S
GR
GS
0.149 GC
2 setlinecap
1 LJ
0.5 LW
N
146.469 374 M
146.469 371.83 L
S
GR
GS
0.149 GC
2 setlinecap
1 LJ
0.5 LW
N
161.206 374 M
161.206 371.83 L
S
GR
GS
0.149 GC
2 setlinecap
1 LJ
0.5 LW
N
175.943 374 M
175.943 371.83 L
S
GR
GS
0.149 GC
2 setlinecap
1 LJ
0.5 LW
N
205.417 374 M
205.417 371.83 L
S
GR
GS
0.149 GC
2 setlinecap
1 LJ
0.5 LW
N
220.154 374 M
220.154 371.83 L
S
GR
GS
0.149 GC
2 setlinecap
1 LJ
0.5 LW
N
234.891 374 M
234.891 371.83 L
S
GR
GS
0.149 GC
2 setlinecap
1 LJ
0.5 LW
N
249.628 374 M
249.628 371.83 L
S
GR
GS
0.149 GC
2 setlinecap
1 LJ
0.5 LW
N
279.102 374 M
279.102 371.83 L
S
GR
GS
0.149 GC
2 setlinecap
1 LJ
0.5 LW
N
293.839 374 M
293.839 371.83 L
S
GR
GS
0.149 GC
2 setlinecap
1 LJ
0.5 LW
N
308.576 374 M
308.576 371.83 L
S
GR
GS
0.149 GC
2 setlinecap
1 LJ
0.5 LW
N
323.313 374 M
323.313 371.83 L
S
GR
GS
0.149 GC
2 setlinecap
1 LJ
0.5 LW
N
352.787 374 M
352.787 371.83 L
S
GR
GS
0.149 GC
2 setlinecap
1 LJ
0.5 LW
N
367.524 374 M
367.524 371.83 L
S
GR
GS
0.149 GC
2 setlinecap
1 LJ
0.5 LW
N
382.261 374 M
382.261 371.83 L
S
GR
GS
0.149 GC
2 setlinecap
1 LJ
0.5 LW
N
396.998 374 M
396.998 371.83 L
S
GR
GS
0.149 GC
2 setlinecap
1 LJ
0.5 LW
N
426.472 374 M
426.472 371.83 L
S
GR
GS
0.149 GC
2 setlinecap
1 LJ
0.5 LW
N
441.209 374 M
441.209 371.83 L
S
GR
GS
0.149 GC
2 setlinecap
1 LJ
0.5 LW
N
455.946 374 M
455.946 371.83 L
S
GR
GS
0.149 GC
2 setlinecap
1 LJ
0.5 LW
N
470.683 374 M
470.683 371.83 L
S
GR
GS
0.149 GC
2 setlinecap
1 LJ
0.5 LW
N
500.157 374 M
500.157 371.83 L
S
GR
GS
0.149 GC
2 setlinecap
1 LJ
0.5 LW
N
87.521 31.5 M
87.521 33.67 L
S
GR
GS
0.149 GC
2 setlinecap
1 LJ
0.5 LW
N
102.258 31.5 M
102.258 33.67 L
S
GR
GS
0.149 GC
2 setlinecap
1 LJ
0.5 LW
N
131.732 31.5 M
131.732 33.67 L
S
GR
GS
0.149 GC
2 setlinecap
1 LJ
0.5 LW
N
146.469 31.5 M
146.469 33.67 L
S
GR
GS
0.149 GC
2 setlinecap
1 LJ
0.5 LW
N
161.206 31.5 M
161.206 33.67 L
S
GR
GS
0.149 GC
2 setlinecap
1 LJ
0.5 LW
N
175.943 31.5 M
175.943 33.67 L
S
GR
GS
0.149 GC
2 setlinecap
1 LJ
0.5 LW
N
205.417 31.5 M
205.417 33.67 L
S
GR
GS
0.149 GC
2 setlinecap
1 LJ
0.5 LW
N
220.154 31.5 M
220.154 33.67 L
S
GR
GS
0.149 GC
2 setlinecap
1 LJ
0.5 LW
N
234.891 31.5 M
234.891 33.67 L
S
GR
GS
0.149 GC
2 setlinecap
1 LJ
0.5 LW
N
249.628 31.5 M
249.628 33.67 L
S
GR
GS
0.149 GC
2 setlinecap
1 LJ
0.5 LW
N
279.102 31.5 M
279.102 33.67 L
S
GR
GS
0.149 GC
2 setlinecap
1 LJ
0.5 LW
N
293.839 31.5 M
293.839 33.67 L
S
GR
GS
0.149 GC
2 setlinecap
1 LJ
0.5 LW
N
308.576 31.5 M
308.576 33.67 L
S
GR
GS
0.149 GC
2 setlinecap
1 LJ
0.5 LW
N
323.313 31.5 M
323.313 33.67 L
S
GR
GS
0.149 GC
2 setlinecap
1 LJ
0.5 LW
N
352.787 31.5 M
352.787 33.67 L
S
GR
GS
0.149 GC
2 setlinecap
1 LJ
0.5 LW
N
367.524 31.5 M
367.524 33.67 L
S
GR
GS
0.149 GC
2 setlinecap
1 LJ
0.5 LW
N
382.261 31.5 M
382.261 33.67 L
S
GR
GS
0.149 GC
2 setlinecap
1 LJ
0.5 LW
N
396.998 31.5 M
396.998 33.67 L
S
GR
GS
0.149 GC
2 setlinecap
1 LJ
0.5 LW
N
426.472 31.5 M
426.472 33.67 L
S
GR
GS
0.149 GC
2 setlinecap
1 LJ
0.5 LW
N
441.209 31.5 M
441.209 33.67 L
S
GR
GS
0.149 GC
2 setlinecap
1 LJ
0.5 LW
N
455.946 31.5 M
455.946 33.67 L
S
GR
GS
0.149 GC
2 setlinecap
1 LJ
0.5 LW
N
470.683 31.5 M
470.683 33.67 L
S
GR
GS
0.149 GC
2 setlinecap
1 LJ
0.5 LW
N
500.157 31.5 M
500.157 33.67 L
S
GR
GS
[1 0 0 1 116.99512 378.80002] CT
0.149 GC
/Helvetica 14 F
GS
[1 0 0 1 0 0] CT
-16 14 moveto 
1 -1 scale
(1000) t 
GR
GR
GS
[1 0 0 1 190.68007 378.80002] CT
0.149 GC
/Helvetica 14 F
GS
[1 0 0 1 0 0] CT
-16 14 moveto 
1 -1 scale
(2000) t 
GR
GR
GS
[1 0 0 1 264.36502 378.80002] CT
0.149 GC
/Helvetica 14 F
GS
[1 0 0 1 0 0] CT
-16 14 moveto 
1 -1 scale
(3000) t 
GR
GR
GS
[1 0 0 1 338.04996 378.80002] CT
0.149 GC
/Helvetica 14 F
GS
[1 0 0 1 0 0] CT
-16 14 moveto 
1 -1 scale
(4000) t 
GR
GR
GS
[1 0 0 1 411.73489 378.80002] CT
0.149 GC
/Helvetica 14 F
GS
[1 0 0 1 0 0] CT
-16 14 moveto 
1 -1 scale
(5000) t 
GR
GR
GS
[1 0 0 1 485.41983 378.80002] CT
0.149 GC
/Helvetica 14 F
GS
[1 0 0 1 0 0] CT
-16 14 moveto 
1 -1 scale
(6000) t 
GR
GR
GS
[1 0 0 1 290.00021 396.29996] CT
0.149 GC
/Helvetica 15.4 F
GS
[1 0 0 1 0 0] CT
-42 15 moveto 
1 -1 scale
(Bitrate\(kb/s\)) t 
GR
GR
GS
0.149 GC
2 setlinecap
1 LJ
0.5 LW
N
73 374 M
73 31.5 L
S
GR
GS
0.149 GC
2 setlinecap
1 LJ
0.5 LW
N
507 374 M
507 31.5 L
S
GR
GS
0.149 GC
2 setlinecap
1 LJ
0.5 LW
N
73 355.698 M
77.34 355.698 L
S
GR
GS
0.149 GC
2 setlinecap
1 LJ
0.5 LW
N
73 317.301 M
77.34 317.301 L
S
GR
GS
0.149 GC
2 setlinecap
1 LJ
0.5 LW
N
73 278.904 M
77.34 278.904 L
S
GR
GS
0.149 GC
2 setlinecap
1 LJ
0.5 LW
N
73 240.507 M
77.34 240.507 L
S
GR
GS
0.149 GC
2 setlinecap
1 LJ
0.5 LW
N
73 202.11 M
77.34 202.11 L
S
GR
GS
0.149 GC
2 setlinecap
1 LJ
0.5 LW
N
73 163.713 M
77.34 163.713 L
S
GR
GS
0.149 GC
2 setlinecap
1 LJ
0.5 LW
N
73 125.316 M
77.34 125.316 L
S
GR
GS
0.149 GC
2 setlinecap
1 LJ
0.5 LW
N
73 86.92 M
77.34 86.92 L
S
GR
GS
0.149 GC
2 setlinecap
1 LJ
0.5 LW
N
73 48.523 M
77.34 48.523 L
S
GR
GS
0.149 GC
2 setlinecap
1 LJ
0.5 LW
N
507 355.698 M
502.66 355.698 L
S
GR
GS
0.149 GC
2 setlinecap
1 LJ
0.5 LW
N
507 317.301 M
502.66 317.301 L
S
GR
GS
0.149 GC
2 setlinecap
1 LJ
0.5 LW
N
507 278.904 M
502.66 278.904 L
S
GR
GS
0.149 GC
2 setlinecap
1 LJ
0.5 LW
N
507 240.507 M
502.66 240.507 L
S
GR
GS
0.149 GC
2 setlinecap
1 LJ
0.5 LW
N
507 202.11 M
502.66 202.11 L
S
GR
GS
0.149 GC
2 setlinecap
1 LJ
0.5 LW
N
507 163.713 M
502.66 163.713 L
S
GR
GS
0.149 GC
2 setlinecap
1 LJ
0.5 LW
N
507 125.316 M
502.66 125.316 L
S
GR
GS
0.149 GC
2 setlinecap
1 LJ
0.5 LW
N
507 86.92 M
502.66 86.92 L
S
GR
GS
0.149 GC
2 setlinecap
1 LJ
0.5 LW
N
507 48.523 M
502.66 48.523 L
S
GR
GS
0.149 GC
2 setlinecap
1 LJ
0.5 LW
N
73 371.056 M
75.17 371.056 L
S
GR
GS
0.149 GC
2 setlinecap
1 LJ
0.5 LW
N
73 363.377 M
75.17 363.377 L
S
GR
GS
0.149 GC
2 setlinecap
1 LJ
0.5 LW
N
73 348.018 M
75.17 348.018 L
S
GR
GS
0.149 GC
2 setlinecap
1 LJ
0.5 LW
N
73 340.339 M
75.17 340.339 L
S
GR
GS
0.149 GC
2 setlinecap
1 LJ
0.5 LW
N
73 332.659 M
75.17 332.659 L
S
GR
GS
0.149 GC
2 setlinecap
1 LJ
0.5 LW
N
73 324.98 M
75.17 324.98 L
S
GR
GS
0.149 GC
2 setlinecap
1 LJ
0.5 LW
N
73 309.621 M
75.17 309.621 L
S
GR
GS
0.149 GC
2 setlinecap
1 LJ
0.5 LW
N
73 301.942 M
75.17 301.942 L
S
GR
GS
0.149 GC
2 setlinecap
1 LJ
0.5 LW
N
73 294.263 M
75.17 294.263 L
S
GR
GS
0.149 GC
2 setlinecap
1 LJ
0.5 LW
N
73 286.583 M
75.17 286.583 L
S
GR
GS
0.149 GC
2 setlinecap
1 LJ
0.5 LW
N
73 271.224 M
75.17 271.224 L
S
GR
GS
0.149 GC
2 setlinecap
1 LJ
0.5 LW
N
73 263.545 M
75.17 263.545 L
S
GR
GS
0.149 GC
2 setlinecap
1 LJ
0.5 LW
N
73 255.866 M
75.17 255.866 L
S
GR
GS
0.149 GC
2 setlinecap
1 LJ
0.5 LW
N
73 248.186 M
75.17 248.186 L
S
GR
GS
0.149 GC
2 setlinecap
1 LJ
0.5 LW
N
73 232.828 M
75.17 232.828 L
S
GR
GS
0.149 GC
2 setlinecap
1 LJ
0.5 LW
N
73 225.148 M
75.17 225.148 L
S
GR
GS
0.149 GC
2 setlinecap
1 LJ
0.5 LW
N
73 217.469 M
75.17 217.469 L
S
GR
GS
0.149 GC
2 setlinecap
1 LJ
0.5 LW
N
73 209.79 M
75.17 209.79 L
S
GR
GS
0.149 GC
2 setlinecap
1 LJ
0.5 LW
N
73 194.431 M
75.17 194.431 L
S
GR
GS
0.149 GC
2 setlinecap
1 LJ
0.5 LW
N
73 186.751 M
75.17 186.751 L
S
GR
GS
0.149 GC
2 setlinecap
1 LJ
0.5 LW
N
73 179.072 M
75.17 179.072 L
S
GR
GS
0.149 GC
2 setlinecap
1 LJ
0.5 LW
N
73 171.393 M
75.17 171.393 L
S
GR
GS
0.149 GC
2 setlinecap
1 LJ
0.5 LW
N
73 156.034 M
75.17 156.034 L
S
GR
GS
0.149 GC
2 setlinecap
1 LJ
0.5 LW
N
73 148.354 M
75.17 148.354 L
S
GR
GS
0.149 GC
2 setlinecap
1 LJ
0.5 LW
N
73 140.675 M
75.17 140.675 L
S
GR
GS
0.149 GC
2 setlinecap
1 LJ
0.5 LW
N
73 132.996 M
75.17 132.996 L
S
GR
GS
0.149 GC
2 setlinecap
1 LJ
0.5 LW
N
73 117.637 M
75.17 117.637 L
S
GR
GS
0.149 GC
2 setlinecap
1 LJ
0.5 LW
N
73 109.958 M
75.17 109.958 L
S
GR
GS
0.149 GC
2 setlinecap
1 LJ
0.5 LW
N
73 102.278 M
75.17 102.278 L
S
GR
GS
0.149 GC
2 setlinecap
1 LJ
0.5 LW
N
73 94.599 M
75.17 94.599 L
S
GR
GS
0.149 GC
2 setlinecap
1 LJ
0.5 LW
N
73 79.24 M
75.17 79.24 L
S
GR
GS
0.149 GC
2 setlinecap
1 LJ
0.5 LW
N
73 71.561 M
75.17 71.561 L
S
GR
GS
0.149 GC
2 setlinecap
1 LJ
0.5 LW
N
73 63.882 M
75.17 63.882 L
S
GR
GS
0.149 GC
2 setlinecap
1 LJ
0.5 LW
N
73 56.202 M
75.17 56.202 L
S
GR
GS
0.149 GC
2 setlinecap
1 LJ
0.5 LW
N
73 40.843 M
75.17 40.843 L
S
GR
GS
0.149 GC
2 setlinecap
1 LJ
0.5 LW
N
73 33.164 M
75.17 33.164 L
S
GR
GS
0.149 GC
2 setlinecap
1 LJ
0.5 LW
N
507 371.056 M
504.83 371.056 L
S
GR
GS
0.149 GC
2 setlinecap
1 LJ
0.5 LW
N
507 363.377 M
504.83 363.377 L
S
GR
GS
0.149 GC
2 setlinecap
1 LJ
0.5 LW
N
507 348.018 M
504.83 348.018 L
S
GR
GS
0.149 GC
2 setlinecap
1 LJ
0.5 LW
N
507 340.339 M
504.83 340.339 L
S
GR
GS
0.149 GC
2 setlinecap
1 LJ
0.5 LW
N
507 332.659 M
504.83 332.659 L
S
GR
GS
0.149 GC
2 setlinecap
1 LJ
0.5 LW
N
507 324.98 M
504.83 324.98 L
S
GR
GS
0.149 GC
2 setlinecap
1 LJ
0.5 LW
N
507 309.621 M
504.83 309.621 L
S
GR
GS
0.149 GC
2 setlinecap
1 LJ
0.5 LW
N
507 301.942 M
504.83 301.942 L
S
GR
GS
0.149 GC
2 setlinecap
1 LJ
0.5 LW
N
507 294.263 M
504.83 294.263 L
S
GR
GS
0.149 GC
2 setlinecap
1 LJ
0.5 LW
N
507 286.583 M
504.83 286.583 L
S
GR
GS
0.149 GC
2 setlinecap
1 LJ
0.5 LW
N
507 271.224 M
504.83 271.224 L
S
GR
GS
0.149 GC
2 setlinecap
1 LJ
0.5 LW
N
507 263.545 M
504.83 263.545 L
S
GR
GS
0.149 GC
2 setlinecap
1 LJ
0.5 LW
N
507 255.866 M
504.83 255.866 L
S
GR
GS
0.149 GC
2 setlinecap
1 LJ
0.5 LW
N
507 248.186 M
504.83 248.186 L
S
GR
GS
0.149 GC
2 setlinecap
1 LJ
0.5 LW
N
507 232.828 M
504.83 232.828 L
S
GR
GS
0.149 GC
2 setlinecap
1 LJ
0.5 LW
N
507 225.148 M
504.83 225.148 L
S
GR
GS
0.149 GC
2 setlinecap
1 LJ
0.5 LW
N
507 217.469 M
504.83 217.469 L
S
GR
GS
0.149 GC
2 setlinecap
1 LJ
0.5 LW
N
507 209.79 M
504.83 209.79 L
S
GR
GS
0.149 GC
2 setlinecap
1 LJ
0.5 LW
N
507 194.431 M
504.83 194.431 L
S
GR
GS
0.149 GC
2 setlinecap
1 LJ
0.5 LW
N
507 186.751 M
504.83 186.751 L
S
GR
GS
0.149 GC
2 setlinecap
1 LJ
0.5 LW
N
507 179.072 M
504.83 179.072 L
S
GR
GS
0.149 GC
2 setlinecap
1 LJ
0.5 LW
N
507 171.393 M
504.83 171.393 L
S
GR
GS
0.149 GC
2 setlinecap
1 LJ
0.5 LW
N
507 156.034 M
504.83 156.034 L
S
GR
GS
0.149 GC
2 setlinecap
1 LJ
0.5 LW
N
507 148.354 M
504.83 148.354 L
S
GR
GS
0.149 GC
2 setlinecap
1 LJ
0.5 LW
N
507 140.675 M
504.83 140.675 L
S
GR
GS
0.149 GC
2 setlinecap
1 LJ
0.5 LW
N
507 132.996 M
504.83 132.996 L
S
GR
GS
0.149 GC
2 setlinecap
1 LJ
0.5 LW
N
507 117.637 M
504.83 117.637 L
S
GR
GS
0.149 GC
2 setlinecap
1 LJ
0.5 LW
N
507 109.958 M
504.83 109.958 L
S
GR
GS
0.149 GC
2 setlinecap
1 LJ
0.5 LW
N
507 102.278 M
504.83 102.278 L
S
GR
GS
0.149 GC
2 setlinecap
1 LJ
0.5 LW
N
507 94.599 M
504.83 94.599 L
S
GR
GS
0.149 GC
2 setlinecap
1 LJ
0.5 LW
N
507 79.24 M
504.83 79.24 L
S
GR
GS
0.149 GC
2 setlinecap
1 LJ
0.5 LW
N
507 71.561 M
504.83 71.561 L
S
GR
GS
0.149 GC
2 setlinecap
1 LJ
0.5 LW
N
507 63.882 M
504.83 63.882 L
S
GR
GS
0.149 GC
2 setlinecap
1 LJ
0.5 LW
N
507 56.202 M
504.83 56.202 L
S
GR
GS
0.149 GC
2 setlinecap
1 LJ
0.5 LW
N
507 40.843 M
504.83 40.843 L
S
GR
GS
0.149 GC
2 setlinecap
1 LJ
0.5 LW
N
507 33.164 M
504.83 33.164 L
S
GR
GS
[1 0 0 1 68.2 355.69754] CT
0.149 GC
/Helvetica 14 F
GS
[1 0 0 1 0 0] CT
-16 5.5 moveto 
1 -1 scale
(34) t 
GR
GR
GS
[1 0 0 1 68.2 317.30069] CT
0.149 GC
/Helvetica 14 F
GS
[1 0 0 1 0 0] CT
-16 5.5 moveto 
1 -1 scale
(35) t 
GR
GR
GS
[1 0 0 1 68.2 278.90384] CT
0.149 GC
/Helvetica 14 F
GS
[1 0 0 1 0 0] CT
-16 5.5 moveto 
1 -1 scale
(36) t 
GR
GR
GS
[1 0 0 1 68.2 240.50699] CT
0.149 GC
/Helvetica 14 F
GS
[1 0 0 1 0 0] CT
-16 5.5 moveto 
1 -1 scale
(37) t 
GR
GR
GS
[1 0 0 1 68.2 202.11014] CT
0.149 GC
/Helvetica 14 F
GS
[1 0 0 1 0 0] CT
-16 5.5 moveto 
1 -1 scale
(38) t 
GR
GR
GS
[1 0 0 1 68.2 163.71329] CT
0.149 GC
/Helvetica 14 F
GS
[1 0 0 1 0 0] CT
-16 5.5 moveto 
1 -1 scale
(39) t 
GR
GR
GS
[1 0 0 1 68.2 125.31644] CT
0.149 GC
/Helvetica 14 F
GS
[1 0 0 1 0 0] CT
-16 5.5 moveto 
1 -1 scale
(40) t 
GR
GR
GS
[1 0 0 1 68.2 86.91959] CT
0.149 GC
/Helvetica 14 F
GS
[1 0 0 1 0 0] CT
-16 5.5 moveto 
1 -1 scale
(41) t 
GR
GR
GS
[1 0 0 1 68.2 48.52275] CT
0.149 GC
/Helvetica 14 F
GS
[1 0 0 1 0 0] CT
-16 5.5 moveto 
1 -1 scale
(42) t 
GR
GR
GS
[0 -1 1 0 49.2 202.74979] CT
0.149 GC
/Helvetica 15.4 F
GS
[1 0 0 1 0 0] CT
-42 -4 moveto 
1 -1 scale
(PSNR Y\(dB\)) t 
GR
GR
GS
[1 0 0 1 290.00027 29.57509] CT
/Helvetica-Bold 15.4 F
GS
[1 0 0 1 0 0] CT
-113 -4 moveto 
1 -1 scale
(Lecture_1080P-3ce0.y4m-hevc) t 
GR
GR
GS
0 0.447 0.741 RC
1 LJ
0.5 LW
N
73.09 373.357 M
74.564 364.347 L
76.037 355.423 L
77.511 346.619 L
78.985 337.969 L
80.459 329.508 L
81.932 321.271 L
83.406 313.293 L
84.88 305.607 L
86.353 298.249 L
87.827 291.254 L
89.301 284.654 L
90.774 278.487 L
92.248 272.785 L
93.722 267.584 L
95.195 262.685 L
96.669 257.904 L
98.143 253.243 L
99.617 248.699 L
101.09 244.275 L
102.564 239.969 L
104.038 235.783 L
105.511 231.715 L
106.985 227.767 L
108.459 223.937 L
109.932 220.228 L
111.406 216.638 L
112.88 213.167 L
114.354 209.817 L
115.827 206.586 L
117.301 203.475 L
118.775 200.485 L
120.248 197.614 L
121.722 194.864 L
123.196 192.235 L
124.669 189.725 L
126.143 187.337 L
127.617 185.07 L
129.091 182.923 L
130.564 180.872 L
132.038 178.856 L
133.512 176.872 L
134.985 174.919 L
136.459 172.998 L
137.933 171.108 L
139.406 169.249 L
140.88 167.421 L
142.354 165.623 L
143.828 163.856 L
145.301 162.119 L
146.775 160.411 L
148.249 158.734 L
149.722 157.085 L
151.196 155.466 L
152.67 153.876 L
154.143 152.315 L
155.617 150.782 L
157.091 149.278 L
158.565 147.802 L
160.038 146.353 L
161.512 144.933 L
162.986 143.54 L
164.459 142.174 L
165.933 140.835 L
167.407 139.523 L
168.88 138.237 L
170.354 136.978 L
171.828 135.745 L
173.302 134.538 L
174.775 133.357 L
176.249 132.201 L
177.723 131.07 L
179.196 129.965 L
180.67 128.884 L
182.144 127.828 L
183.617 126.796 L
185.091 125.789 L
186.565 124.805 L
188.039 123.845 L
189.512 122.909 L
190.986 121.996 L
192.46 121.106 L
193.933 120.239 L
195.407 119.395 L
196.881 118.573 L
198.354 117.773 L
199.828 116.995 L
201.302 116.239 L
202.776 115.501 L
204.249 114.766 L
205.723 114.033 L
207.197 113.302 L
208.67 112.572 L
210.144 111.845 L
211.618 111.119 L
213.091 110.395 L
214.565 109.673 L
216.039 108.953 L
217.512 108.235 L
218.986 107.519 L
220.46 106.805 L
221.934 106.093 L
223.407 105.384 L
224.881 104.676 L
226.355 103.971 L
227.828 103.268 L
229.302 102.567 L
230.776 101.868 L
232.249 101.172 L
233.723 100.478 L
235.197 99.787 L
236.671 99.098 L
238.144 98.411 L
239.618 97.727 L
241.092 97.045 L
242.565 96.366 L
244.039 95.69 L
245.513 95.016 L
246.986 94.345 L
248.46 93.677 L
249.934 93.011 L
251.408 92.348 L
252.881 91.688 L
254.355 91.03 L
255.829 90.376 L
257.302 89.724 L
258.776 89.076 L
260.25 88.43 L
261.723 87.787 L
263.197 87.147 L
264.671 86.511 L
266.145 85.877 L
267.618 85.247 L
269.092 84.619 L
270.566 83.995 L
272.039 83.374 L
273.513 82.757 L
274.987 82.143 L
276.46 81.531 L
277.934 80.924 L
279.408 80.32 L
280.882 79.719 L
282.355 79.121 L
283.829 78.527 L
285.303 77.937 L
286.776 77.35 L
288.25 76.767 L
289.724 76.187 L
291.197 75.611 L
292.671 75.039 L
294.145 74.47 L
295.619 73.906 L
297.092 73.345 L
298.566 72.787 L
300.04 72.234 L
301.513 71.684 L
302.987 71.139 L
304.461 70.597 L
305.934 70.06 L
307.408 69.526 L
308.882 68.997 L
310.356 68.471 L
311.829 67.95 L
313.303 67.432 L
314.777 66.919 L
316.25 66.411 L
317.724 65.906 L
319.198 65.406 L
320.671 64.91 L
322.145 64.418 L
323.619 63.931 L
325.093 63.448 L
326.566 62.97 L
328.04 62.496 L
329.514 62.026 L
330.987 61.562 L
332.461 61.101 L
333.935 60.646 L
335.408 60.195 L
336.882 59.748 L
338.356 59.307 L
339.829 58.87 L
341.303 58.438 L
342.777 58.011 L
344.251 57.588 L
345.724 57.171 L
347.198 56.758 L
348.672 56.35 L
350.145 55.948 L
351.619 55.55 L
353.093 55.157 L
354.566 54.77 L
356.04 54.387 L
357.514 54.01 L
358.988 53.638 L
360.461 53.271 L
361.935 52.909 L
363.409 52.553 L
364.882 52.202 L
366.356 51.856 L
367.83 51.516 L
369.303 51.181 L
370.777 50.851 L
372.251 50.527 L
373.725 50.209 L
375.198 49.896 L
376.672 49.588 L
378.146 49.286 L
379.619 48.99 L
381.093 48.7 L
382.567 48.415 L
384.04 48.136 L
385.514 47.863 L
386.988 47.595 L
388.462 47.334 L
389.935 47.078 L
391.409 46.828 L
392.883 46.584 L
394.356 46.346 L
395.83 46.114 L
397.304 45.888 L
398.777 45.668 L
400.251 45.455 L
401.725 45.247 L
403.199 45.046 L
404.672 44.851 L
406.146 44.662 L
407.62 44.479 L
409.093 44.303 L
410.567 44.133 L
412.041 43.969 L
413.514 43.812 L
414.988 43.661 L
416.462 43.516 L
417.936 43.378 L
419.409 43.247 L
420.883 43.122 L
422.357 43.004 L
423.83 42.893 L
425.304 42.788 L
426.778 42.69 L
428.251 42.598 L
429.725 42.514 L
431.199 42.436 L
432.673 42.365 L
434.146 42.301 L
435.62 42.243 L
437.094 42.193 L
438.567 42.15 L
440.041 42.114 L
441.515 42.084 L
442.988 42.062 L
444.462 42.047 L
445.936 42.039 L
S
GR
GS
0.851 0.325 0.098 RC
1 LJ
0.5 LW
N
75.206 359.597 M
76.68 351.263 L
78.154 343.002 L
79.627 334.843 L
81.101 326.815 L
82.575 318.948 L
84.048 311.272 L
85.522 303.816 L
86.996 296.609 L
88.47 289.682 L
89.943 283.065 L
91.417 276.785 L
92.891 270.874 L
94.364 265.361 L
95.838 260.275 L
97.312 255.631 L
98.785 251.185 L
100.259 246.843 L
101.733 242.606 L
103.207 238.474 L
104.68 234.446 L
106.154 230.524 L
107.628 226.705 L
109.101 222.992 L
110.575 219.382 L
112.049 215.878 L
113.522 212.477 L
114.996 209.182 L
116.47 205.99 L
117.944 202.903 L
119.417 199.921 L
120.891 197.043 L
122.365 194.269 L
123.838 191.599 L
125.312 189.034 L
126.786 186.573 L
128.259 184.217 L
129.733 181.964 L
131.207 179.816 L
132.68 177.772 L
134.154 175.832 L
135.628 173.98 L
137.102 172.162 L
138.575 170.369 L
140.049 168.604 L
141.523 166.864 L
142.996 165.151 L
144.47 163.463 L
145.944 161.801 L
147.417 160.165 L
148.891 158.554 L
150.365 156.968 L
151.839 155.406 L
153.312 153.87 L
154.786 152.358 L
156.26 150.871 L
157.733 149.408 L
159.207 147.968 L
160.681 146.553 L
162.154 145.161 L
163.628 143.793 L
165.102 142.448 L
166.576 141.125 L
168.049 139.826 L
169.523 138.55 L
170.997 137.296 L
172.47 136.064 L
173.944 134.854 L
175.418 133.666 L
176.891 132.5 L
178.365 131.356 L
179.839 130.232 L
181.313 129.131 L
182.786 128.049 L
184.26 126.989 L
185.734 125.95 L
187.207 124.93 L
188.681 123.932 L
190.155 122.953 L
191.628 121.994 L
193.102 121.054 L
194.576 120.134 L
196.05 119.234 L
197.523 118.352 L
198.997 117.49 L
200.471 116.646 L
201.944 115.82 L
203.418 115.013 L
204.892 114.224 L
206.365 113.453 L
207.839 112.7 L
209.313 111.965 L
210.787 111.247 L
212.26 110.546 L
213.734 109.862 L
215.208 109.195 L
216.681 108.541 L
218.155 107.888 L
219.629 107.238 L
221.102 106.588 L
222.576 105.94 L
224.05 105.294 L
225.524 104.648 L
226.997 104.005 L
228.471 103.362 L
229.945 102.722 L
231.418 102.083 L
232.892 101.445 L
234.366 100.809 L
235.839 100.175 L
237.313 99.542 L
238.787 98.911 L
240.261 98.281 L
241.734 97.653 L
243.208 97.027 L
244.682 96.403 L
246.155 95.78 L
247.629 95.159 L
249.103 94.54 L
250.576 93.922 L
252.05 93.307 L
253.524 92.693 L
254.997 92.081 L
256.471 91.471 L
257.945 90.863 L
259.419 90.257 L
260.892 89.653 L
262.366 89.05 L
263.84 88.45 L
265.313 87.851 L
266.787 87.255 L
268.261 86.661 L
269.734 86.068 L
271.208 85.478 L
272.682 84.89 L
274.156 84.304 L
275.629 83.72 L
277.103 83.138 L
278.577 82.559 L
280.05 81.981 L
281.524 81.406 L
282.998 80.833 L
284.471 80.263 L
285.945 79.694 L
287.419 79.128 L
288.893 78.564 L
290.366 78.003 L
291.84 77.443 L
293.314 76.887 L
294.787 76.332 L
296.261 75.78 L
297.735 75.231 L
299.208 74.683 L
300.682 74.139 L
302.156 73.597 L
303.63 73.057 L
305.103 72.52 L
306.577 71.985 L
308.051 71.453 L
309.524 70.924 L
310.998 70.397 L
312.472 69.873 L
313.945 69.351 L
315.419 68.832 L
316.893 68.316 L
318.367 67.802 L
319.84 67.291 L
321.314 66.783 L
322.788 66.278 L
324.261 65.776 L
325.735 65.276 L
327.209 64.779 L
328.682 64.285 L
330.156 63.794 L
331.63 63.305 L
333.104 62.82 L
334.577 62.338 L
336.051 61.858 L
337.525 61.382 L
338.998 60.908 L
340.472 60.437 L
341.946 59.97 L
343.419 59.505 L
344.893 59.044 L
346.367 58.586 L
347.841 58.13 L
349.314 57.678 L
350.788 57.229 L
352.262 56.783 L
353.735 56.341 L
355.209 55.901 L
356.683 55.465 L
358.156 55.032 L
359.63 54.602 L
361.104 54.176 L
362.578 53.753 L
364.051 53.333 L
365.525 52.916 L
366.999 52.503 L
368.472 52.093 L
369.946 51.687 L
371.42 51.284 L
372.893 50.884 L
374.367 50.488 L
375.841 50.096 L
377.314 49.707 L
378.788 49.321 L
380.262 48.939 L
381.736 48.561 L
383.209 48.186 L
384.683 47.815 L
386.157 47.447 L
387.63 47.083 L
389.104 46.722 L
390.578 46.366 L
392.051 46.013 L
393.525 45.663 L
394.999 45.318 L
396.473 44.976 L
397.946 44.638 L
399.42 44.304 L
400.894 43.974 L
402.367 43.647 L
403.841 43.324 L
405.315 43.005 L
406.788 42.691 L
408.262 42.38 L
409.736 42.072 L
411.21 41.769 L
412.683 41.47 L
414.157 41.175 L
415.631 40.884 L
417.104 40.597 L
418.578 40.314 L
420.052 40.035 L
421.525 39.76 L
422.999 39.489 L
424.473 39.222 L
425.947 38.96 L
427.42 38.701 L
428.894 38.447 L
430.368 38.197 L
431.841 37.952 L
433.315 37.71 L
434.789 37.473 L
436.262 37.24 L
437.736 37.012 L
439.21 36.788 L
440.684 36.568 L
442.157 36.352 L
443.631 36.141 L
445.105 35.934 L
446.578 35.732 L
448.052 35.534 L
449.526 35.341 L
450.999 35.152 L
452.473 34.968 L
453.947 34.788 L
455.421 34.613 L
456.894 34.442 L
458.368 34.276 L
459.842 34.115 L
461.315 33.958 L
462.789 33.806 L
464.263 33.658 L
465.736 33.515 L
467.21 33.377 L
468.684 33.244 L
470.158 33.115 L
471.631 32.991 L
473.105 32.872 L
474.579 32.758 L
476.052 32.648 L
477.526 32.544 L
479 32.444 L
480.473 32.349 L
481.947 32.259 L
483.421 32.174 L
484.895 32.094 L
486.368 32.019 L
487.842 31.949 L
489.316 31.884 L
490.789 31.824 L
492.263 31.769 L
493.737 31.719 L
495.21 31.674 L
496.684 31.634 L
498.158 31.599 L
499.632 31.57 L
501.105 31.545 L
502.579 31.526 L
504.053 31.512 L
505.526 31.504 L
507 31.5 L
S
GR
GS
0.929 0.694 0.125 RC
1 LJ
0.5 LW
N
74.704 363.091 M
76.178 354.645 L
77.652 346.276 L
79.125 338.013 L
80.599 329.887 L
82.073 321.927 L
83.546 314.164 L
85.02 306.625 L
86.494 299.342 L
87.968 292.345 L
89.441 285.662 L
90.915 279.323 L
92.389 273.359 L
93.862 267.799 L
95.336 262.672 L
96.81 257.97 L
98.283 253.429 L
99.757 248.995 L
101.231 244.668 L
102.705 240.447 L
104.178 236.334 L
105.652 232.328 L
107.126 228.43 L
108.599 224.639 L
110.073 220.956 L
111.547 217.381 L
113.02 213.915 L
114.494 210.557 L
115.968 207.307 L
117.442 204.167 L
118.915 201.135 L
120.389 198.213 L
121.863 195.4 L
123.336 192.696 L
124.81 190.102 L
126.284 187.618 L
127.757 185.244 L
129.231 182.981 L
130.705 180.827 L
132.179 178.785 L
133.652 176.848 L
135.126 174.957 L
136.6 173.095 L
138.073 171.261 L
139.547 169.457 L
141.021 167.68 L
142.494 165.932 L
143.968 164.212 L
145.442 162.519 L
146.916 160.854 L
148.389 159.216 L
149.863 157.605 L
151.337 156.02 L
152.81 154.463 L
154.284 152.931 L
155.758 151.426 L
157.231 149.947 L
158.705 148.493 L
160.179 147.065 L
161.653 145.662 L
163.126 144.284 L
164.6 142.931 L
166.074 141.602 L
167.547 140.298 L
169.021 139.018 L
170.495 137.762 L
171.968 136.529 L
173.442 135.321 L
174.916 134.135 L
176.389 132.972 L
177.863 131.832 L
179.337 130.715 L
180.811 129.62 L
182.284 128.548 L
183.758 127.497 L
185.232 126.468 L
186.705 125.461 L
188.179 124.474 L
189.653 123.509 L
191.126 122.565 L
192.6 121.641 L
194.074 120.738 L
195.548 119.855 L
197.021 118.992 L
198.495 118.149 L
199.969 117.325 L
201.442 116.52 L
202.916 115.735 L
204.39 114.968 L
205.863 114.22 L
207.337 113.491 L
208.811 112.78 L
210.285 112.085 L
211.758 111.394 L
213.232 110.705 L
214.706 110.017 L
216.179 109.33 L
217.653 108.645 L
219.127 107.962 L
220.6 107.28 L
222.074 106.6 L
223.548 105.922 L
225.022 105.245 L
226.495 104.57 L
227.969 103.897 L
229.443 103.225 L
230.916 102.556 L
232.39 101.888 L
233.864 101.222 L
235.337 100.558 L
236.811 99.896 L
238.285 99.236 L
239.759 98.577 L
241.232 97.921 L
242.706 97.267 L
244.18 96.615 L
245.653 95.965 L
247.127 95.317 L
248.601 94.671 L
250.074 94.028 L
251.548 93.386 L
253.022 92.747 L
254.496 92.11 L
255.969 91.476 L
257.443 90.844 L
258.917 90.214 L
260.39 89.587 L
261.864 88.962 L
263.338 88.339 L
264.811 87.719 L
266.285 87.102 L
267.759 86.487 L
269.233 85.874 L
270.706 85.265 L
272.18 84.657 L
273.654 84.053 L
275.127 83.451 L
276.601 82.852 L
278.075 82.256 L
279.548 81.662 L
281.022 81.072 L
282.496 80.484 L
283.97 79.899 L
285.443 79.317 L
286.917 78.738 L
288.391 78.161 L
289.864 77.588 L
291.338 77.018 L
292.812 76.451 L
294.285 75.887 L
295.759 75.326 L
297.233 74.768 L
298.706 74.213 L
300.18 73.662 L
301.654 73.113 L
303.128 72.569 L
304.601 72.027 L
306.075 71.488 L
307.549 70.953 L
309.022 70.422 L
310.496 69.894 L
311.97 69.369 L
313.443 68.847 L
314.917 68.329 L
316.391 67.815 L
317.865 67.304 L
319.338 66.797 L
320.812 66.294 L
322.286 65.793 L
323.759 65.297 L
325.233 64.805 L
326.707 64.316 L
328.18 63.831 L
329.654 63.349 L
331.128 62.872 L
332.602 62.398 L
334.075 61.928 L
335.549 61.463 L
337.023 61.001 L
338.496 60.543 L
339.97 60.089 L
341.444 59.639 L
342.917 59.193 L
344.391 58.751 L
345.865 58.314 L
347.339 57.88 L
348.812 57.451 L
350.286 57.026 L
351.76 56.605 L
353.233 56.188 L
354.707 55.776 L
356.181 55.368 L
357.654 54.964 L
359.128 54.565 L
360.602 54.17 L
362.076 53.779 L
363.549 53.394 L
365.023 53.012 L
366.497 52.635 L
367.97 52.263 L
369.444 51.895 L
370.918 51.532 L
372.391 51.173 L
373.865 50.819 L
375.339 50.47 L
376.813 50.126 L
378.286 49.786 L
379.76 49.452 L
381.234 49.122 L
382.707 48.797 L
384.181 48.476 L
385.655 48.161 L
387.128 47.85 L
388.602 47.545 L
390.076 47.245 L
391.55 46.949 L
393.023 46.659 L
394.497 46.374 L
395.971 46.094 L
397.444 45.819 L
398.918 45.549 L
400.392 45.284 L
401.865 45.025 L
403.339 44.771 L
404.813 44.522 L
406.287 44.279 L
407.76 44.041 L
409.234 43.808 L
410.708 43.581 L
412.181 43.359 L
413.655 43.143 L
415.129 42.932 L
416.602 42.727 L
418.076 42.527 L
419.55 42.333 L
421.023 42.145 L
422.497 41.962 L
423.971 41.785 L
425.445 41.614 L
426.918 41.448 L
428.392 41.288 L
429.866 41.134 L
431.339 40.986 L
432.813 40.843 L
434.287 40.707 L
435.76 40.576 L
437.234 40.452 L
438.708 40.333 L
440.182 40.22 L
441.655 40.114 L
443.129 40.013 L
444.603 39.919 L
446.076 39.831 L
447.55 39.749 L
449.024 39.673 L
450.497 39.603 L
451.971 39.54 L
453.445 39.482 L
454.919 39.432 L
456.392 39.387 L
457.866 39.349 L
459.34 39.317 L
460.813 39.292 L
462.287 39.273 L
463.761 39.261 L
465.234 39.255 L
S
GR
GS
0.494 0.184 0.557 RC
1 LJ
0.5 LW
N
73 374 M
74.474 364.945 L
75.947 355.976 L
77.421 347.127 L
78.895 338.435 L
80.368 329.935 L
81.842 321.66 L
83.316 313.648 L
84.79 305.931 L
86.263 298.547 L
87.737 291.529 L
89.211 284.912 L
90.684 278.733 L
92.158 273.026 L
93.632 267.824 L
95.105 262.908 L
96.579 258.113 L
98.053 253.437 L
99.527 248.881 L
101 244.445 L
102.474 240.129 L
103.948 235.933 L
105.421 231.857 L
106.895 227.901 L
108.369 224.065 L
109.842 220.35 L
111.316 216.756 L
112.79 213.281 L
114.264 209.928 L
115.737 206.695 L
117.211 203.582 L
118.685 200.591 L
120.158 197.72 L
121.632 194.97 L
123.106 192.342 L
124.579 189.834 L
126.053 187.448 L
127.527 185.182 L
129.001 183.038 L
130.474 180.982 L
131.948 178.958 L
133.422 176.968 L
134.895 175.009 L
136.369 173.082 L
137.843 171.187 L
139.316 169.323 L
140.79 167.49 L
142.264 165.688 L
143.738 163.917 L
145.211 162.177 L
146.685 160.467 L
148.159 158.787 L
149.632 157.137 L
151.106 155.516 L
152.58 153.925 L
154.053 152.363 L
155.527 150.83 L
157.001 149.325 L
158.475 147.85 L
159.948 146.402 L
161.422 144.982 L
162.896 143.59 L
164.369 142.226 L
165.843 140.889 L
167.317 139.579 L
168.79 138.296 L
170.264 137.04 L
171.738 135.81 L
173.212 134.606 L
174.685 133.429 L
176.159 132.277 L
177.633 131.15 L
179.106 130.049 L
180.58 128.973 L
182.054 127.922 L
183.527 126.895 L
185.001 125.893 L
186.475 124.915 L
187.949 123.961 L
189.422 123.03 L
190.896 122.123 L
192.37 121.24 L
193.843 120.379 L
195.317 119.541 L
196.791 118.726 L
198.264 117.933 L
199.738 117.162 L
201.212 116.412 L
202.686 115.668 L
204.159 114.925 L
205.633 114.185 L
207.107 113.446 L
208.58 112.709 L
210.054 111.974 L
211.528 111.24 L
213.001 110.509 L
214.475 109.78 L
215.949 109.053 L
217.422 108.327 L
218.896 107.604 L
220.37 106.883 L
221.844 106.165 L
223.317 105.448 L
224.791 104.734 L
226.265 104.022 L
227.738 103.312 L
229.212 102.605 L
230.686 101.9 L
232.159 101.198 L
233.633 100.498 L
235.107 99.8 L
236.581 99.106 L
238.054 98.413 L
239.528 97.724 L
241.002 97.036 L
242.475 96.352 L
243.949 95.671 L
245.423 94.992 L
246.896 94.316 L
248.37 93.643 L
249.844 92.972 L
251.318 92.305 L
252.791 91.641 L
254.265 90.979 L
255.739 90.321 L
257.212 89.666 L
258.686 89.014 L
260.16 88.365 L
261.633 87.719 L
263.107 87.076 L
264.581 86.437 L
266.055 85.801 L
267.528 85.168 L
269.002 84.539 L
270.476 83.913 L
271.949 83.29 L
273.423 82.671 L
274.897 82.056 L
276.37 81.444 L
277.844 80.836 L
279.318 80.231 L
280.792 79.63 L
282.265 79.033 L
283.739 78.439 L
285.213 77.849 L
286.686 77.263 L
288.16 76.681 L
289.634 76.103 L
291.107 75.528 L
292.581 74.958 L
294.055 74.392 L
295.529 73.829 L
297.002 73.271 L
298.476 72.717 L
299.95 72.167 L
301.423 71.621 L
302.897 71.079 L
304.371 70.542 L
305.844 70.009 L
307.318 69.481 L
308.792 68.956 L
310.266 68.436 L
311.739 67.921 L
313.213 67.41 L
314.687 66.904 L
316.16 66.402 L
317.634 65.904 L
319.108 65.412 L
320.581 64.924 L
322.055 64.44 L
323.529 63.962 L
325.003 63.488 L
326.476 63.019 L
327.95 62.555 L
329.424 62.096 L
330.897 61.642 L
332.371 61.193 L
333.845 60.748 L
335.318 60.309 L
336.792 59.875 L
338.266 59.446 L
339.74 59.022 L
341.213 58.604 L
342.687 58.19 L
344.161 57.782 L
345.634 57.379 L
347.108 56.982 L
348.582 56.589 L
350.055 56.203 L
351.529 55.821 L
353.003 55.446 L
354.476 55.075 L
355.95 54.711 L
357.424 54.351 L
358.898 53.998 L
360.371 53.65 L
361.845 53.308 L
363.319 52.972 L
364.792 52.641 L
366.266 52.317 L
367.74 51.998 L
369.213 51.685 L
370.687 51.378 L
372.161 51.077 L
373.635 50.782 L
375.108 50.493 L
376.582 50.21 L
378.056 49.933 L
379.529 49.662 L
381.003 49.398 L
382.477 49.14 L
383.95 48.888 L
385.424 48.642 L
386.898 48.403 L
388.372 48.17 L
389.845 47.944 L
391.319 47.724 L
392.793 47.51 L
394.266 47.303 L
395.74 47.103 L
397.214 46.909 L
398.687 46.722 L
400.161 46.541 L
401.635 46.367 L
403.109 46.2 L
404.582 46.04 L
406.056 45.887 L
407.53 45.74 L
409.003 45.6 L
410.477 45.468 L
411.951 45.342 L
413.424 45.223 L
414.898 45.112 L
416.372 45.007 L
417.846 44.91 L
419.319 44.819 L
420.793 44.736 L
422.267 44.661 L
423.74 44.592 L
425.214 44.531 L
426.688 44.477 L
428.161 44.43 L
429.635 44.391 L
431.109 44.36 L
432.583 44.335 L
434.056 44.319 L
435.53 44.31 L
S
GR
GS
0.467 0.675 0.188 RC
[10 6] 0 setdash
2 LJ
0.5 LW
N
75.13 360.627 M
76.604 352.248 L
78.078 343.94 L
79.551 335.732 L
81.025 327.655 L
82.499 319.739 L
83.972 312.013 L
85.446 304.508 L
86.92 297.253 L
88.394 290.279 L
89.867 283.617 L
91.341 277.295 L
92.815 271.345 L
94.288 265.795 L
95.762 260.677 L
97.236 256.016 L
98.709 251.594 L
100.183 247.278 L
101.657 243.067 L
103.131 238.962 L
104.604 234.963 L
106.078 231.068 L
107.552 227.277 L
109.025 223.592 L
110.499 220.01 L
111.973 216.532 L
113.446 213.158 L
114.92 209.887 L
116.394 206.719 L
117.868 203.654 L
119.341 200.692 L
120.815 197.832 L
122.289 195.074 L
123.762 192.418 L
125.236 189.863 L
126.71 187.41 L
128.183 185.058 L
129.657 182.807 L
131.131 180.656 L
132.605 178.605 L
134.078 176.654 L
135.552 174.802 L
137.026 173.001 L
138.499 171.228 L
139.973 169.481 L
141.447 167.76 L
142.92 166.066 L
144.394 164.398 L
145.868 162.757 L
147.342 161.14 L
148.815 159.549 L
150.289 157.984 L
151.763 156.443 L
153.236 154.927 L
154.71 153.436 L
156.184 151.969 L
157.657 150.527 L
159.131 149.108 L
160.605 147.712 L
162.079 146.34 L
163.552 144.992 L
165.026 143.666 L
166.5 142.364 L
167.973 141.083 L
169.447 139.825 L
170.921 138.59 L
172.394 137.376 L
173.868 136.183 L
175.342 135.012 L
176.816 133.863 L
178.289 132.734 L
179.763 131.626 L
181.237 130.539 L
182.71 129.472 L
184.184 128.425 L
185.658 127.398 L
187.131 126.39 L
188.605 125.402 L
190.079 124.433 L
191.552 123.483 L
193.026 122.552 L
194.5 121.639 L
195.974 120.745 L
197.447 119.869 L
198.921 119.01 L
200.395 118.17 L
201.868 117.346 L
203.342 116.54 L
204.816 115.751 L
206.289 114.978 L
207.763 114.222 L
209.237 113.482 L
210.711 112.759 L
212.184 112.051 L
213.658 111.359 L
215.132 110.682 L
216.605 110.017 L
218.079 109.354 L
219.553 108.693 L
221.026 108.033 L
222.5 107.374 L
223.974 106.716 L
225.448 106.06 L
226.921 105.405 L
228.395 104.751 L
229.869 104.099 L
231.342 103.448 L
232.816 102.799 L
234.29 102.151 L
235.763 101.505 L
237.237 100.86 L
238.711 100.217 L
240.185 99.576 L
241.658 98.936 L
243.132 98.298 L
244.606 97.661 L
246.079 97.027 L
247.553 96.394 L
249.027 95.762 L
250.5 95.133 L
251.974 94.505 L
253.448 93.88 L
254.922 93.256 L
256.395 92.633 L
257.869 92.013 L
259.343 91.395 L
260.816 90.779 L
262.29 90.165 L
263.764 89.553 L
265.237 88.943 L
266.711 88.335 L
268.185 87.729 L
269.659 87.125 L
271.132 86.524 L
272.606 85.924 L
274.08 85.327 L
275.553 84.732 L
277.027 84.14 L
278.501 83.549 L
279.974 82.961 L
281.448 82.376 L
282.922 81.792 L
284.396 81.211 L
285.869 80.633 L
287.343 80.057 L
288.817 79.483 L
290.29 78.913 L
291.764 78.344 L
293.238 77.778 L
294.711 77.215 L
296.185 76.654 L
297.659 76.096 L
299.133 75.541 L
300.606 74.988 L
302.08 74.438 L
303.554 73.891 L
305.027 73.347 L
306.501 72.805 L
307.975 72.267 L
309.448 71.731 L
310.922 71.198 L
312.396 70.668 L
313.87 70.14 L
315.343 69.616 L
316.817 69.095 L
318.291 68.577 L
319.764 68.062 L
321.238 67.55 L
322.712 67.041 L
324.185 66.535 L
325.659 66.032 L
327.133 65.533 L
328.607 65.036 L
330.08 64.543 L
331.554 64.054 L
333.028 63.567 L
334.501 63.084 L
335.975 62.604 L
337.449 62.128 L
338.922 61.654 L
340.396 61.185 L
341.87 60.718 L
343.343 60.256 L
344.817 59.796 L
346.291 59.341 L
347.765 58.888 L
349.238 58.44 L
350.712 57.995 L
352.186 57.554 L
353.659 57.116 L
355.133 56.682 L
356.607 56.251 L
358.08 55.825 L
359.554 55.402 L
361.028 54.983 L
362.502 54.568 L
363.975 54.156 L
365.449 53.749 L
366.923 53.345 L
368.396 52.946 L
369.87 52.55 L
371.344 52.158 L
372.817 51.77 L
374.291 51.387 L
375.765 51.007 L
377.239 50.632 L
378.712 50.26 L
380.186 49.893 L
381.66 49.53 L
383.133 49.171 L
384.607 48.816 L
386.081 48.466 L
387.554 48.119 L
389.028 47.778 L
390.502 47.44 L
391.976 47.107 L
393.449 46.778 L
394.923 46.453 L
396.397 46.133 L
397.87 45.818 L
399.344 45.507 L
400.818 45.2 L
402.291 44.898 L
403.765 44.601 L
405.239 44.308 L
406.713 44.019 L
408.186 43.736 L
409.66 43.457 L
411.134 43.183 L
412.607 42.913 L
414.081 42.648 L
415.555 42.388 L
417.028 42.133 L
418.502 41.883 L
419.976 41.638 L
421.449 41.397 L
422.923 41.161 L
424.397 40.93 L
425.871 40.705 L
427.344 40.484 L
428.818 40.268 L
430.292 40.057 L
431.765 39.852 L
433.239 39.651 L
434.713 39.456 L
436.186 39.265 L
437.66 39.08 L
439.134 38.9 L
440.608 38.726 L
442.081 38.556 L
443.555 38.392 L
445.029 38.233 L
446.502 38.08 L
447.976 37.932 L
449.45 37.789 L
450.923 37.652 L
452.397 37.52 L
453.871 37.393 L
455.345 37.273 L
456.818 37.157 L
458.292 37.047 L
459.766 36.943 L
461.239 36.845 L
462.713 36.751 L
464.187 36.664 L
465.66 36.582 L
467.134 36.506 L
468.608 36.436 L
470.082 36.372 L
471.555 36.313 L
473.029 36.26 L
474.503 36.213 L
475.976 36.172 L
477.45 36.137 L
478.924 36.108 L
480.397 36.084 L
481.871 36.067 L
483.345 36.056 L
484.819 36.05 L
S
GR
GS
0.302 0.745 0.933 RC
[10 6] 0 setdash
2 LJ
0.5 LW
N
74.154 365.978 M
75.627 357.316 L
77.101 348.731 L
78.575 340.256 L
80.049 331.922 L
81.522 323.762 L
82.996 315.807 L
84.47 308.09 L
85.943 300.642 L
87.417 293.495 L
88.891 286.682 L
90.364 280.233 L
91.838 274.182 L
93.312 268.56 L
94.786 263.398 L
96.259 258.665 L
97.733 254.079 L
99.207 249.606 L
100.68 245.244 L
102.154 240.993 L
103.628 236.854 L
105.101 232.826 L
106.575 228.91 L
108.049 225.104 L
109.523 221.41 L
110.996 217.826 L
112.47 214.354 L
113.944 210.992 L
115.417 207.741 L
116.891 204.6 L
118.365 201.57 L
119.838 198.651 L
121.312 195.842 L
122.786 193.143 L
124.26 190.554 L
125.733 188.075 L
127.207 185.706 L
128.681 183.447 L
130.154 181.298 L
131.628 179.259 L
133.102 177.32 L
134.575 175.421 L
136.049 173.551 L
137.523 171.71 L
138.997 169.897 L
140.47 168.113 L
141.944 166.358 L
143.418 164.63 L
144.891 162.93 L
146.365 161.258 L
147.839 159.613 L
149.312 157.995 L
150.786 156.405 L
152.26 154.84 L
153.734 153.303 L
155.207 151.792 L
156.681 150.306 L
158.155 148.847 L
159.628 147.413 L
161.102 146.005 L
162.576 144.622 L
164.049 143.263 L
165.523 141.93 L
166.997 140.621 L
168.471 139.336 L
169.944 138.076 L
171.418 136.839 L
172.892 135.626 L
174.365 134.437 L
175.839 133.271 L
177.313 132.127 L
178.786 131.007 L
180.26 129.909 L
181.734 128.833 L
183.208 127.78 L
184.681 126.748 L
186.155 125.739 L
187.629 124.75 L
189.102 123.783 L
190.576 122.837 L
192.05 121.912 L
193.523 121.007 L
194.997 120.123 L
196.471 119.259 L
197.944 118.415 L
199.418 117.591 L
200.892 116.786 L
202.366 116 L
203.839 115.234 L
205.313 114.486 L
206.787 113.757 L
208.26 113.047 L
209.734 112.352 L
211.208 111.659 L
212.681 110.968 L
214.155 110.279 L
215.629 109.591 L
217.103 108.904 L
218.576 108.22 L
220.05 107.536 L
221.524 106.855 L
222.997 106.175 L
224.471 105.497 L
225.945 104.821 L
227.418 104.146 L
228.892 103.473 L
230.366 102.802 L
231.84 102.133 L
233.313 101.466 L
234.787 100.801 L
236.261 100.138 L
237.734 99.476 L
239.208 98.817 L
240.682 98.16 L
242.155 97.505 L
243.629 96.852 L
245.103 96.201 L
246.577 95.552 L
248.05 94.905 L
249.524 94.261 L
250.998 93.619 L
252.471 92.979 L
253.945 92.342 L
255.419 91.706 L
256.892 91.074 L
258.366 90.443 L
259.84 89.815 L
261.314 89.19 L
262.787 88.567 L
264.261 87.946 L
265.735 87.328 L
267.208 86.713 L
268.682 86.1 L
270.156 85.49 L
271.629 84.883 L
273.103 84.278 L
274.577 83.676 L
276.051 83.077 L
277.524 82.48 L
278.998 81.887 L
280.472 81.296 L
281.945 80.708 L
283.419 80.123 L
284.893 79.541 L
286.366 78.962 L
287.84 78.386 L
289.314 77.812 L
290.788 77.242 L
292.261 76.675 L
293.735 76.112 L
295.209 75.551 L
296.682 74.993 L
298.156 74.439 L
299.63 73.888 L
301.103 73.34 L
302.577 72.796 L
304.051 72.254 L
305.525 71.717 L
306.998 71.182 L
308.472 70.651 L
309.946 70.123 L
311.419 69.599 L
312.893 69.079 L
314.367 68.562 L
315.84 68.048 L
317.314 67.538 L
318.788 67.032 L
320.262 66.529 L
321.735 66.03 L
323.209 65.535 L
324.683 65.043 L
326.156 64.555 L
327.63 64.071 L
329.104 63.591 L
330.577 63.115 L
332.051 62.643 L
333.525 62.174 L
334.998 61.71 L
336.472 61.249 L
337.946 60.792 L
339.42 60.34 L
340.893 59.891 L
342.367 59.447 L
343.841 59.007 L
345.314 58.571 L
346.788 58.139 L
348.262 57.711 L
349.736 57.288 L
351.209 56.868 L
352.683 56.454 L
354.157 56.043 L
355.63 55.637 L
357.104 55.235 L
358.578 54.838 L
360.051 54.445 L
361.525 54.056 L
362.999 53.673 L
364.472 53.293 L
365.946 52.919 L
367.42 52.548 L
368.894 52.183 L
370.367 51.822 L
371.841 51.466 L
373.315 51.114 L
374.788 50.767 L
376.262 50.426 L
377.736 50.088 L
379.209 49.756 L
380.683 49.429 L
382.157 49.106 L
383.631 48.788 L
385.104 48.476 L
386.578 48.168 L
388.052 47.866 L
389.525 47.568 L
390.999 47.275 L
392.473 46.988 L
393.946 46.706 L
395.42 46.429 L
396.894 46.157 L
398.368 45.89 L
399.841 45.629 L
401.315 45.372 L
402.789 45.122 L
404.262 44.876 L
405.736 44.636 L
407.21 44.401 L
408.683 44.172 L
410.157 43.948 L
411.631 43.73 L
413.105 43.517 L
414.578 43.31 L
416.052 43.108 L
417.526 42.912 L
418.999 42.722 L
420.473 42.537 L
421.947 42.358 L
423.42 42.185 L
424.894 42.017 L
426.368 41.855 L
427.842 41.699 L
429.315 41.549 L
430.789 41.405 L
432.263 41.267 L
433.736 41.135 L
435.21 41.008 L
436.684 40.888 L
438.157 40.773 L
439.631 40.665 L
441.105 40.563 L
442.579 40.467 L
444.052 40.377 L
445.526 40.293 L
447 40.216 L
448.473 40.144 L
449.947 40.079 L
451.421 40.02 L
452.894 39.968 L
454.368 39.922 L
455.842 39.882 L
457.315 39.849 L
458.789 39.822 L
460.263 39.802 L
461.737 39.788 L
463.21 39.781 L
S
GR
GS
0.635 0.078 0.184 RC
[10 6] 0 setdash
2 LJ
0.5 LW
N
73.025 373.665 M
74.499 364.637 L
75.972 355.694 L
77.446 346.872 L
78.92 338.206 L
80.393 329.731 L
81.867 321.482 L
83.341 313.495 L
84.815 305.804 L
86.288 298.445 L
87.762 291.452 L
89.236 284.86 L
90.709 278.705 L
92.183 273.022 L
93.657 267.843 L
95.13 262.945 L
96.604 258.166 L
98.078 253.508 L
99.552 248.969 L
101.025 244.55 L
102.499 240.251 L
103.973 236.072 L
105.446 232.013 L
106.92 228.075 L
108.394 224.256 L
109.867 220.557 L
111.341 216.978 L
112.815 213.519 L
114.289 210.18 L
115.762 206.961 L
117.236 203.863 L
118.71 200.884 L
120.183 198.025 L
121.657 195.286 L
123.131 192.668 L
124.604 190.169 L
126.078 187.791 L
127.552 185.533 L
129.025 183.394 L
130.499 181.339 L
131.973 179.316 L
133.447 177.325 L
134.92 175.366 L
136.394 173.438 L
137.868 171.542 L
139.341 169.677 L
140.815 167.843 L
142.289 166.04 L
143.762 164.268 L
145.236 162.526 L
146.71 160.814 L
148.184 159.133 L
149.657 157.482 L
151.131 155.86 L
152.605 154.269 L
154.078 152.707 L
155.552 151.174 L
157.026 149.67 L
158.499 148.196 L
159.973 146.75 L
161.447 145.333 L
162.921 143.945 L
164.394 142.585 L
165.868 141.253 L
167.342 139.949 L
168.815 138.673 L
170.289 137.425 L
171.763 136.204 L
173.236 135.01 L
174.71 133.844 L
176.184 132.705 L
177.658 131.592 L
179.131 130.507 L
180.605 129.447 L
182.079 128.414 L
183.552 127.408 L
185.026 126.427 L
186.5 125.472 L
187.973 124.543 L
189.447 123.639 L
190.921 122.76 L
192.395 121.907 L
193.868 121.079 L
195.342 120.275 L
196.816 119.496 L
198.289 118.742 L
199.763 118.009 L
201.237 117.281 L
202.71 116.555 L
204.184 115.831 L
205.658 115.109 L
207.132 114.389 L
208.605 113.672 L
210.079 112.956 L
211.553 112.243 L
213.026 111.532 L
214.5 110.824 L
215.974 110.118 L
217.447 109.414 L
218.921 108.713 L
220.395 108.014 L
221.869 107.318 L
223.342 106.625 L
224.816 105.934 L
226.29 105.247 L
227.763 104.562 L
229.237 103.879 L
230.711 103.2 L
232.184 102.524 L
233.658 101.851 L
235.132 101.18 L
236.605 100.513 L
238.079 99.849 L
239.553 99.188 L
241.027 98.531 L
242.5 97.877 L
243.974 97.226 L
245.448 96.578 L
246.921 95.934 L
248.395 95.294 L
249.869 94.657 L
251.342 94.023 L
252.816 93.393 L
254.29 92.767 L
255.764 92.145 L
257.237 91.526 L
258.711 90.912 L
260.185 90.301 L
261.658 89.694 L
263.132 89.091 L
264.606 88.492 L
266.079 87.897 L
267.553 87.307 L
269.027 86.72 L
270.501 86.138 L
271.974 85.56 L
273.448 84.987 L
274.922 84.417 L
276.395 83.853 L
277.869 83.292 L
279.343 82.736 L
280.816 82.185 L
282.29 81.639 L
283.764 81.097 L
285.238 80.56 L
286.711 80.027 L
288.185 79.5 L
289.659 78.977 L
291.132 78.459 L
292.606 77.946 L
294.08 77.439 L
295.553 76.936 L
297.027 76.438 L
298.501 75.946 L
299.975 75.459 L
301.448 74.977 L
302.922 74.5 L
304.396 74.029 L
305.869 73.563 L
307.343 73.103 L
308.817 72.648 L
310.29 72.198 L
311.764 71.755 L
313.238 71.317 L
314.712 70.884 L
316.185 70.458 L
317.659 70.037 L
319.133 69.622 L
320.606 69.213 L
322.08 68.81 L
323.554 68.413 L
325.027 68.022 L
326.501 67.637 L
327.975 67.259 L
329.449 66.886 L
330.922 66.52 L
332.396 66.16 L
333.87 65.806 L
335.343 65.459 L
336.817 65.119 L
338.291 64.784 L
339.764 64.457 L
341.238 64.135 L
342.712 63.821 L
344.186 63.513 L
345.659 63.212 L
347.133 62.918 L
348.607 62.631 L
350.08 62.35 L
351.554 62.077 L
353.028 61.81 L
354.501 61.551 L
355.975 61.298 L
357.449 61.053 L
358.923 60.815 L
360.396 60.584 L
361.87 60.36 L
363.344 60.144 L
364.817 59.935 L
366.291 59.734 L
367.765 59.54 L
369.238 59.354 L
370.712 59.175 L
372.186 59.003 L
373.659 58.84 L
375.133 58.684 L
376.607 58.536 L
378.081 58.396 L
379.554 58.264 L
381.028 58.139 L
382.502 58.023 L
383.975 57.915 L
385.449 57.814 L
386.923 57.722 L
388.396 57.638 L
389.87 57.562 L
391.344 57.495 L
392.818 57.436 L
394.291 57.385 L
395.765 57.342 L
397.239 57.308 L
398.712 57.283 L
400.186 57.266 L
401.66 57.258 L
S
GR
GS
1 GC
N
499 366 M
499 250.5 L
344.5 250.5 L
344.5 366 L
cp
f
GR
GS
[1 0 0 1 381.5 260.25] CT
/Helvetica 13 F
GS
[1 0 0 1 0 0] CT
0 5 moveto 
1 -1 scale
(Base Run) t 
GR
GR
GS
0 0.447 0.741 RC
1 LJ
0.5 LW
N
348.5 260.25 M
378.5 260.25 L
S
GR
GS
[1 0 0 1 381.5 276.25] CT
/Helvetica 13 F
GS
[1 0 0 1 0 0] CT
0 5 moveto 
1 -1 scale
(I & B Frames) t 
GR
GR
GS
0.851 0.325 0.098 RC
1 LJ
0.5 LW
N
348.5 276.25 M
378.5 276.25 L
S
GR
GS
[1 0 0 1 381.5 292.25] CT
/Helvetica 13 F
GS
[1 0 0 1 0 0] CT
0 5 moveto 
1 -1 scale
(I Frames Only) t 
GR
GR
GS
0.929 0.694 0.125 RC
1 LJ
0.5 LW
N
348.5 292.25 M
378.5 292.25 L
S
GR
GS
[1 0 0 1 381.5 308.25] CT
/Helvetica 13 F
GS
[1 0 0 1 0 0] CT
0 5 moveto 
1 -1 scale
(B Frames Only) t 
GR
GR
GS
0.494 0.184 0.557 RC
1 LJ
0.5 LW
N
348.5 308.25 M
378.5 308.25 L
S
GR
GS
[1 0 0 1 381.5 324.25] CT
/Helvetica 13 F
GS
[1 0 0 1 0 0] CT
0 5 moveto 
1 -1 scale
(Part I & B Frames) t 
GR
GR
GS
0.467 0.675 0.188 RC
[10 6] 0 setdash
2 LJ
0.5 LW
N
348.5 324.25 M
378.5 324.25 L
S
GR
GS
[1 0 0 1 381.5 340.25] CT
/Helvetica 13 F
GS
[1 0 0 1 0 0] CT
0 5 moveto 
1 -1 scale
(Part I Frames Only) t 
GR
GR
GS
0.302 0.745 0.933 RC
[10 6] 0 setdash
2 LJ
0.5 LW
N
348.5 340.25 M
378.5 340.25 L
S
GR
GS
[1 0 0 1 381.5 356.25] CT
/Helvetica 13 F
GS
[1 0 0 1 0 0] CT
0 5 moveto 
1 -1 scale
(Part B Frames Only) t 
GR
GR
GS
0.635 0.078 0.184 RC
[10 6] 0 setdash
2 LJ
0.5 LW
N
348.5 356.25 M
378.5 356.25 L
S
GR
GS
0.149 GC
10.0 ML
0.5 LW
N
344.5 366 M
344.5 250.5 L
499 250.5 L
499 366 L
cp
S
GR
%%Trailer
%%Pages: 1
%%EOF
