%!PS-Adobe-3.0 EPSF-3.0
%%Creator: (MATLAB, The Mathworks, Inc. Version 9.11.0.1837725 \(R2021b\) Update 2. Operating System: Mac OS X)
%%Title: plots/pchip/Lecture_1080P-3ce0.y4m-hevc-nVMAF.eps
%%CreationDate: 2022-02-03T19:14:15
%%Pages: (atend)
%%BoundingBox:    33   425   508   826
%%LanguageLevel: 3
%%EndComments
%%BeginProlog
%%BeginResource: procset (Apache XML Graphics Std ProcSet) 1.2 0
%%Version: 1.2 0
%%Copyright: (Copyright 2001-2003,2010 The Apache Software Foundation. License terms: http://www.apache.org/licenses/LICENSE-2.0)
/bd{bind def}bind def
/ld{load def}bd
/GR/grestore ld
/GS/gsave ld
/RM/rmoveto ld
/C/curveto ld
/t/show ld
/L/lineto ld
/ML/setmiterlimit ld
/CT/concat ld
/f/fill ld
/N/newpath ld
/S/stroke ld
/CC/setcmykcolor ld
/A/ashow ld
/cp/closepath ld
/RC/setrgbcolor ld
/LJ/setlinejoin ld
/GC/setgray ld
/LW/setlinewidth ld
/M/moveto ld
/re {4 2 roll M
1 index 0 rlineto
0 exch rlineto
neg 0 rlineto
cp } bd
/_ctm matrix def
/_tm matrix def
/BT { _ctm currentmatrix pop matrix _tm copy pop 0 0 moveto } bd
/ET { _ctm setmatrix } bd
/iTm { _ctm setmatrix _tm concat } bd
/Tm { _tm astore pop iTm 0 0 moveto } bd
/ux 0.0 def
/uy 0.0 def
/F {
  /Tp exch def
  /Tf exch def
  Tf findfont Tp scalefont setfont
  /cf Tf def  /cs Tp def
} bd
/ULS {currentpoint /uy exch def /ux exch def} bd
/ULE {
  /Tcx currentpoint pop def
  gsave
  newpath
  cf findfont cs scalefont dup
  /FontMatrix get 0 get /Ts exch def /FontInfo get dup
  /UnderlinePosition get Ts mul /To exch def
  /UnderlineThickness get Ts mul /Tt exch def
  ux uy To add moveto  Tcx uy To add lineto
  Tt setlinewidth stroke
  grestore
} bd
/OLE {
  /Tcx currentpoint pop def
  gsave
  newpath
  cf findfont cs scalefont dup
  /FontMatrix get 0 get /Ts exch def /FontInfo get dup
  /UnderlinePosition get Ts mul /To exch def
  /UnderlineThickness get Ts mul /Tt exch def
  ux uy To add cs add moveto Tcx uy To add cs add lineto
  Tt setlinewidth stroke
  grestore
} bd
/SOE {
  /Tcx currentpoint pop def
  gsave
  newpath
  cf findfont cs scalefont dup
  /FontMatrix get 0 get /Ts exch def /FontInfo get dup
  /UnderlinePosition get Ts mul /To exch def
  /UnderlineThickness get Ts mul /Tt exch def
  ux uy To add cs 10 mul 26 idiv add moveto Tcx uy To add cs 10 mul 26 idiv add lineto
  Tt setlinewidth stroke
  grestore
} bd
/QT {
/Y22 exch store
/X22 exch store
/Y21 exch store
/X21 exch store
currentpoint
/Y21 load 2 mul add 3 div exch
/X21 load 2 mul add 3 div exch
/X21 load 2 mul /X22 load add 3 div
/Y21 load 2 mul /Y22 load add 3 div
/X22 load /Y22 load curveto
} bd
/SSPD {
dup length /d exch dict def
{
/v exch def
/k exch def
currentpagedevice k known {
/cpdv currentpagedevice k get def
v cpdv ne {
/upd false def
/nullv v type /nulltype eq def
/nullcpdv cpdv type /nulltype eq def
nullv nullcpdv or
{
/upd true def
} {
/sametype v type cpdv type eq def
sametype {
v type /arraytype eq {
/vlen v length def
/cpdvlen cpdv length def
vlen cpdvlen eq {
0 1 vlen 1 sub {
/i exch def
/obj v i get def
/cpdobj cpdv i get def
obj cpdobj ne {
/upd true def
exit
} if
} for
} {
/upd true def
} ifelse
} {
v type /dicttype eq {
v {
/dv exch def
/dk exch def
/cpddv cpdv dk get def
dv cpddv ne {
/upd true def
exit
} if
} forall
} {
/upd true def
} ifelse
} ifelse
} if
} ifelse
upd true eq {
d k v put
} if
} if
} if
} forall
d length 0 gt {
d setpagedevice
} if
} bd
/RE { % /NewFontName [NewEncodingArray] /FontName RE -
  findfont dup length dict begin
  {
    1 index /FID ne
    {def} {pop pop} ifelse
  } forall
  /Encoding exch def
  /FontName 1 index def
  currentdict definefont pop
  end
} bind def
%%EndResource
%%BeginResource: procset (Apache XML Graphics EPS ProcSet) 1.0 0
%%Version: 1.0 0
%%Copyright: (Copyright 2002-2003 The Apache Software Foundation. License terms: http://www.apache.org/licenses/LICENSE-2.0)
/BeginEPSF { %def
/b4_Inc_state save def         % Save state for cleanup
/dict_count countdictstack def % Count objects on dict stack
/op_count count 1 sub def      % Count objects on operand stack
userdict begin                 % Push userdict on dict stack
/showpage { } def              % Redefine showpage, { } = null proc
0 setgray 0 setlinecap         % Prepare graphics state
1 setlinewidth 0 setlinejoin
10 setmiterlimit [ ] 0 setdash newpath
/languagelevel where           % If level not equal to 1 then
{pop languagelevel             % set strokeadjust and
1 ne                           % overprint to their defaults.
{false setstrokeadjust false setoverprint
} if
} if
} bd
/EndEPSF { %def
count op_count sub {pop} repeat            % Clean up stacks
countdictstack dict_count sub {end} repeat
b4_Inc_state restore
} bd
%%EndResource
%FOPBeginFontDict
%%IncludeResource: font Courier-Oblique
%%IncludeResource: font Courier-BoldOblique
%%IncludeResource: font Courier-Bold
%%IncludeResource: font ZapfDingbats
%%IncludeResource: font Symbol
%%IncludeResource: font Helvetica
%%IncludeResource: font Helvetica-Oblique
%%IncludeResource: font Helvetica-Bold
%%IncludeResource: font Helvetica-BoldOblique
%%IncludeResource: font Times-Roman
%%IncludeResource: font Times-Italic
%%IncludeResource: font Times-Bold
%%IncludeResource: font Times-BoldItalic
%%IncludeResource: font Courier
%FOPEndFontDict
%%BeginResource: encoding WinAnsiEncoding
/WinAnsiEncoding [
/.notdef /.notdef /.notdef /.notdef /.notdef
/.notdef /.notdef /.notdef /.notdef /.notdef
/.notdef /.notdef /.notdef /.notdef /.notdef
/.notdef /.notdef /.notdef /.notdef /.notdef
/.notdef /.notdef /.notdef /.notdef /.notdef
/.notdef /.notdef /.notdef /.notdef /.notdef
/.notdef /.notdef /space /exclam /quotedbl
/numbersign /dollar /percent /ampersand /quotesingle
/parenleft /parenright /asterisk /plus /comma
/hyphen /period /slash /zero /one
/two /three /four /five /six
/seven /eight /nine /colon /semicolon
/less /equal /greater /question /at
/A /B /C /D /E
/F /G /H /I /J
/K /L /M /N /O
/P /Q /R /S /T
/U /V /W /X /Y
/Z /bracketleft /backslash /bracketright /asciicircum
/underscore /quoteleft /a /b /c
/d /e /f /g /h
/i /j /k /l /m
/n /o /p /q /r
/s /t /u /v /w
/x /y /z /braceleft /bar
/braceright /asciitilde /bullet /Euro /bullet
/quotesinglbase /florin /quotedblbase /ellipsis /dagger
/daggerdbl /circumflex /perthousand /Scaron /guilsinglleft
/OE /bullet /Zcaron /bullet /bullet
/quoteleft /quoteright /quotedblleft /quotedblright /bullet
/endash /emdash /asciitilde /trademark /scaron
/guilsinglright /oe /bullet /zcaron /Ydieresis
/space /exclamdown /cent /sterling /currency
/yen /brokenbar /section /dieresis /copyright
/ordfeminine /guillemotleft /logicalnot /sfthyphen /registered
/macron /degree /plusminus /twosuperior /threesuperior
/acute /mu /paragraph /middot /cedilla
/onesuperior /ordmasculine /guillemotright /onequarter /onehalf
/threequarters /questiondown /Agrave /Aacute /Acircumflex
/Atilde /Adieresis /Aring /AE /Ccedilla
/Egrave /Eacute /Ecircumflex /Edieresis /Igrave
/Iacute /Icircumflex /Idieresis /Eth /Ntilde
/Ograve /Oacute /Ocircumflex /Otilde /Odieresis
/multiply /Oslash /Ugrave /Uacute /Ucircumflex
/Udieresis /Yacute /Thorn /germandbls /agrave
/aacute /acircumflex /atilde /adieresis /aring
/ae /ccedilla /egrave /eacute /ecircumflex
/edieresis /igrave /iacute /icircumflex /idieresis
/eth /ntilde /ograve /oacute /ocircumflex
/otilde /odieresis /divide /oslash /ugrave
/uacute /ucircumflex /udieresis /yacute /thorn
/ydieresis
] def
%%EndResource
%FOPBeginFontReencode
/Courier-Oblique findfont
dup length dict begin
  {1 index /FID ne {def} {pop pop} ifelse} forall
  /Encoding WinAnsiEncoding def
  currentdict
end
/Courier-Oblique exch definefont pop
/Courier-BoldOblique findfont
dup length dict begin
  {1 index /FID ne {def} {pop pop} ifelse} forall
  /Encoding WinAnsiEncoding def
  currentdict
end
/Courier-BoldOblique exch definefont pop
/Courier-Bold findfont
dup length dict begin
  {1 index /FID ne {def} {pop pop} ifelse} forall
  /Encoding WinAnsiEncoding def
  currentdict
end
/Courier-Bold exch definefont pop
/Helvetica findfont
dup length dict begin
  {1 index /FID ne {def} {pop pop} ifelse} forall
  /Encoding WinAnsiEncoding def
  currentdict
end
/Helvetica exch definefont pop
/Helvetica-Oblique findfont
dup length dict begin
  {1 index /FID ne {def} {pop pop} ifelse} forall
  /Encoding WinAnsiEncoding def
  currentdict
end
/Helvetica-Oblique exch definefont pop
/Helvetica-Bold findfont
dup length dict begin
  {1 index /FID ne {def} {pop pop} ifelse} forall
  /Encoding WinAnsiEncoding def
  currentdict
end
/Helvetica-Bold exch definefont pop
/Helvetica-BoldOblique findfont
dup length dict begin
  {1 index /FID ne {def} {pop pop} ifelse} forall
  /Encoding WinAnsiEncoding def
  currentdict
end
/Helvetica-BoldOblique exch definefont pop
/Times-Roman findfont
dup length dict begin
  {1 index /FID ne {def} {pop pop} ifelse} forall
  /Encoding WinAnsiEncoding def
  currentdict
end
/Times-Roman exch definefont pop
/Times-Italic findfont
dup length dict begin
  {1 index /FID ne {def} {pop pop} ifelse} forall
  /Encoding WinAnsiEncoding def
  currentdict
end
/Times-Italic exch definefont pop
/Times-Bold findfont
dup length dict begin
  {1 index /FID ne {def} {pop pop} ifelse} forall
  /Encoding WinAnsiEncoding def
  currentdict
end
/Times-Bold exch definefont pop
/Times-BoldItalic findfont
dup length dict begin
  {1 index /FID ne {def} {pop pop} ifelse} forall
  /Encoding WinAnsiEncoding def
  currentdict
end
/Times-BoldItalic exch definefont pop
/Courier findfont
dup length dict begin
  {1 index /FID ne {def} {pop pop} ifelse} forall
  /Encoding WinAnsiEncoding def
  currentdict
end
/Courier exch definefont pop
%FOPEndFontReencode
%%EndProlog
%%Page: 1 1
%%PageBoundingBox: 0 0 1120 840
%%BeginPageSetup
[1 0 0 -1 0 840] CT
%%EndPageSetup
GS
1 GC
N
0 0 1120 840 re
f
GR
GS
1 GC
N
73 374 M
507 374 L
507 31.5 L
73 31.5 L
cp
f
GR
GS
0.149 GC
2 setlinecap
1 LJ
0.5 LW
N
73 374 M
507 374 L
S
GR
GS
0.149 GC
2 setlinecap
1 LJ
0.5 LW
N
73 31.5 M
507 31.5 L
S
GR
GS
0.149 GC
2 setlinecap
1 LJ
0.5 LW
N
116.995 374 M
116.995 369.66 L
S
GR
GS
0.149 GC
2 setlinecap
1 LJ
0.5 LW
N
190.68 374 M
190.68 369.66 L
S
GR
GS
0.149 GC
2 setlinecap
1 LJ
0.5 LW
N
264.365 374 M
264.365 369.66 L
S
GR
GS
0.149 GC
2 setlinecap
1 LJ
0.5 LW
N
338.05 374 M
338.05 369.66 L
S
GR
GS
0.149 GC
2 setlinecap
1 LJ
0.5 LW
N
411.735 374 M
411.735 369.66 L
S
GR
GS
0.149 GC
2 setlinecap
1 LJ
0.5 LW
N
485.42 374 M
485.42 369.66 L
S
GR
GS
0.149 GC
2 setlinecap
1 LJ
0.5 LW
N
116.995 31.5 M
116.995 35.84 L
S
GR
GS
0.149 GC
2 setlinecap
1 LJ
0.5 LW
N
190.68 31.5 M
190.68 35.84 L
S
GR
GS
0.149 GC
2 setlinecap
1 LJ
0.5 LW
N
264.365 31.5 M
264.365 35.84 L
S
GR
GS
0.149 GC
2 setlinecap
1 LJ
0.5 LW
N
338.05 31.5 M
338.05 35.84 L
S
GR
GS
0.149 GC
2 setlinecap
1 LJ
0.5 LW
N
411.735 31.5 M
411.735 35.84 L
S
GR
GS
0.149 GC
2 setlinecap
1 LJ
0.5 LW
N
485.42 31.5 M
485.42 35.84 L
S
GR
GS
0.149 GC
2 setlinecap
1 LJ
0.5 LW
N
87.521 374 M
87.521 371.83 L
S
GR
GS
0.149 GC
2 setlinecap
1 LJ
0.5 LW
N
102.258 374 M
102.258 371.83 L
S
GR
GS
0.149 GC
2 setlinecap
1 LJ
0.5 LW
N
131.732 374 M
131.732 371.83 L
S
GR
GS
0.149 GC
2 setlinecap
1 LJ
0.5 LW
N
146.469 374 M
146.469 371.83 L
S
GR
GS
0.149 GC
2 setlinecap
1 LJ
0.5 LW
N
161.206 374 M
161.206 371.83 L
S
GR
GS
0.149 GC
2 setlinecap
1 LJ
0.5 LW
N
175.943 374 M
175.943 371.83 L
S
GR
GS
0.149 GC
2 setlinecap
1 LJ
0.5 LW
N
205.417 374 M
205.417 371.83 L
S
GR
GS
0.149 GC
2 setlinecap
1 LJ
0.5 LW
N
220.154 374 M
220.154 371.83 L
S
GR
GS
0.149 GC
2 setlinecap
1 LJ
0.5 LW
N
234.891 374 M
234.891 371.83 L
S
GR
GS
0.149 GC
2 setlinecap
1 LJ
0.5 LW
N
249.628 374 M
249.628 371.83 L
S
GR
GS
0.149 GC
2 setlinecap
1 LJ
0.5 LW
N
279.102 374 M
279.102 371.83 L
S
GR
GS
0.149 GC
2 setlinecap
1 LJ
0.5 LW
N
293.839 374 M
293.839 371.83 L
S
GR
GS
0.149 GC
2 setlinecap
1 LJ
0.5 LW
N
308.576 374 M
308.576 371.83 L
S
GR
GS
0.149 GC
2 setlinecap
1 LJ
0.5 LW
N
323.313 374 M
323.313 371.83 L
S
GR
GS
0.149 GC
2 setlinecap
1 LJ
0.5 LW
N
352.787 374 M
352.787 371.83 L
S
GR
GS
0.149 GC
2 setlinecap
1 LJ
0.5 LW
N
367.524 374 M
367.524 371.83 L
S
GR
GS
0.149 GC
2 setlinecap
1 LJ
0.5 LW
N
382.261 374 M
382.261 371.83 L
S
GR
GS
0.149 GC
2 setlinecap
1 LJ
0.5 LW
N
396.998 374 M
396.998 371.83 L
S
GR
GS
0.149 GC
2 setlinecap
1 LJ
0.5 LW
N
426.472 374 M
426.472 371.83 L
S
GR
GS
0.149 GC
2 setlinecap
1 LJ
0.5 LW
N
441.209 374 M
441.209 371.83 L
S
GR
GS
0.149 GC
2 setlinecap
1 LJ
0.5 LW
N
455.946 374 M
455.946 371.83 L
S
GR
GS
0.149 GC
2 setlinecap
1 LJ
0.5 LW
N
470.683 374 M
470.683 371.83 L
S
GR
GS
0.149 GC
2 setlinecap
1 LJ
0.5 LW
N
500.157 374 M
500.157 371.83 L
S
GR
GS
0.149 GC
2 setlinecap
1 LJ
0.5 LW
N
87.521 31.5 M
87.521 33.67 L
S
GR
GS
0.149 GC
2 setlinecap
1 LJ
0.5 LW
N
102.258 31.5 M
102.258 33.67 L
S
GR
GS
0.149 GC
2 setlinecap
1 LJ
0.5 LW
N
131.732 31.5 M
131.732 33.67 L
S
GR
GS
0.149 GC
2 setlinecap
1 LJ
0.5 LW
N
146.469 31.5 M
146.469 33.67 L
S
GR
GS
0.149 GC
2 setlinecap
1 LJ
0.5 LW
N
161.206 31.5 M
161.206 33.67 L
S
GR
GS
0.149 GC
2 setlinecap
1 LJ
0.5 LW
N
175.943 31.5 M
175.943 33.67 L
S
GR
GS
0.149 GC
2 setlinecap
1 LJ
0.5 LW
N
205.417 31.5 M
205.417 33.67 L
S
GR
GS
0.149 GC
2 setlinecap
1 LJ
0.5 LW
N
220.154 31.5 M
220.154 33.67 L
S
GR
GS
0.149 GC
2 setlinecap
1 LJ
0.5 LW
N
234.891 31.5 M
234.891 33.67 L
S
GR
GS
0.149 GC
2 setlinecap
1 LJ
0.5 LW
N
249.628 31.5 M
249.628 33.67 L
S
GR
GS
0.149 GC
2 setlinecap
1 LJ
0.5 LW
N
279.102 31.5 M
279.102 33.67 L
S
GR
GS
0.149 GC
2 setlinecap
1 LJ
0.5 LW
N
293.839 31.5 M
293.839 33.67 L
S
GR
GS
0.149 GC
2 setlinecap
1 LJ
0.5 LW
N
308.576 31.5 M
308.576 33.67 L
S
GR
GS
0.149 GC
2 setlinecap
1 LJ
0.5 LW
N
323.313 31.5 M
323.313 33.67 L
S
GR
GS
0.149 GC
2 setlinecap
1 LJ
0.5 LW
N
352.787 31.5 M
352.787 33.67 L
S
GR
GS
0.149 GC
2 setlinecap
1 LJ
0.5 LW
N
367.524 31.5 M
367.524 33.67 L
S
GR
GS
0.149 GC
2 setlinecap
1 LJ
0.5 LW
N
382.261 31.5 M
382.261 33.67 L
S
GR
GS
0.149 GC
2 setlinecap
1 LJ
0.5 LW
N
396.998 31.5 M
396.998 33.67 L
S
GR
GS
0.149 GC
2 setlinecap
1 LJ
0.5 LW
N
426.472 31.5 M
426.472 33.67 L
S
GR
GS
0.149 GC
2 setlinecap
1 LJ
0.5 LW
N
441.209 31.5 M
441.209 33.67 L
S
GR
GS
0.149 GC
2 setlinecap
1 LJ
0.5 LW
N
455.946 31.5 M
455.946 33.67 L
S
GR
GS
0.149 GC
2 setlinecap
1 LJ
0.5 LW
N
470.683 31.5 M
470.683 33.67 L
S
GR
GS
0.149 GC
2 setlinecap
1 LJ
0.5 LW
N
500.157 31.5 M
500.157 33.67 L
S
GR
GS
[1 0 0 1 116.99512 378.79999] CT
0.149 GC
/Helvetica 14 F
GS
[1 0 0 1 0 0] CT
-16 14 moveto 
1 -1 scale
(1000) t 
GR
GR
GS
[1 0 0 1 190.68007 378.79999] CT
0.149 GC
/Helvetica 14 F
GS
[1 0 0 1 0 0] CT
-16 14 moveto 
1 -1 scale
(2000) t 
GR
GR
GS
[1 0 0 1 264.36502 378.79999] CT
0.149 GC
/Helvetica 14 F
GS
[1 0 0 1 0 0] CT
-16 14 moveto 
1 -1 scale
(3000) t 
GR
GR
GS
[1 0 0 1 338.04996 378.79999] CT
0.149 GC
/Helvetica 14 F
GS
[1 0 0 1 0 0] CT
-16 14 moveto 
1 -1 scale
(4000) t 
GR
GR
GS
[1 0 0 1 411.73489 378.79999] CT
0.149 GC
/Helvetica 14 F
GS
[1 0 0 1 0 0] CT
-16 14 moveto 
1 -1 scale
(5000) t 
GR
GR
GS
[1 0 0 1 485.41983 378.79999] CT
0.149 GC
/Helvetica 14 F
GS
[1 0 0 1 0 0] CT
-16 14 moveto 
1 -1 scale
(6000) t 
GR
GR
GS
[1 0 0 1 290.00021 396.29996] CT
0.149 GC
/Helvetica 15.4 F
GS
[1 0 0 1 0 0] CT
-42 15 moveto 
1 -1 scale
(Bitrate\(kb/s\)) t 
GR
GR
GS
0.149 GC
2 setlinecap
1 LJ
0.5 LW
N
73 374 M
73 31.5 L
S
GR
GS
0.149 GC
2 setlinecap
1 LJ
0.5 LW
N
507 374 M
507 31.5 L
S
GR
GS
0.149 GC
2 setlinecap
1 LJ
0.5 LW
N
73 305.914 M
77.34 305.914 L
S
GR
GS
0.149 GC
2 setlinecap
1 LJ
0.5 LW
N
73 234.779 M
77.34 234.779 L
S
GR
GS
0.149 GC
2 setlinecap
1 LJ
0.5 LW
N
73 163.644 M
77.34 163.644 L
S
GR
GS
0.149 GC
2 setlinecap
1 LJ
0.5 LW
N
73 92.509 M
77.34 92.509 L
S
GR
GS
0.149 GC
2 setlinecap
1 LJ
0.5 LW
N
507 305.914 M
502.66 305.914 L
S
GR
GS
0.149 GC
2 setlinecap
1 LJ
0.5 LW
N
507 234.779 M
502.66 234.779 L
S
GR
GS
0.149 GC
2 setlinecap
1 LJ
0.5 LW
N
507 163.644 M
502.66 163.644 L
S
GR
GS
0.149 GC
2 setlinecap
1 LJ
0.5 LW
N
507 92.509 M
502.66 92.509 L
S
GR
GS
0.149 GC
2 setlinecap
1 LJ
0.5 LW
N
73 362.822 M
75.17 362.822 L
S
GR
GS
0.149 GC
2 setlinecap
1 LJ
0.5 LW
N
73 348.595 M
75.17 348.595 L
S
GR
GS
0.149 GC
2 setlinecap
1 LJ
0.5 LW
N
73 334.368 M
75.17 334.368 L
S
GR
GS
0.149 GC
2 setlinecap
1 LJ
0.5 LW
N
73 320.141 M
75.17 320.141 L
S
GR
GS
0.149 GC
2 setlinecap
1 LJ
0.5 LW
N
73 291.687 M
75.17 291.687 L
S
GR
GS
0.149 GC
2 setlinecap
1 LJ
0.5 LW
N
73 277.46 M
75.17 277.46 L
S
GR
GS
0.149 GC
2 setlinecap
1 LJ
0.5 LW
N
73 263.233 M
75.17 263.233 L
S
GR
GS
0.149 GC
2 setlinecap
1 LJ
0.5 LW
N
73 249.006 M
75.17 249.006 L
S
GR
GS
0.149 GC
2 setlinecap
1 LJ
0.5 LW
N
73 220.552 M
75.17 220.552 L
S
GR
GS
0.149 GC
2 setlinecap
1 LJ
0.5 LW
N
73 206.325 M
75.17 206.325 L
S
GR
GS
0.149 GC
2 setlinecap
1 LJ
0.5 LW
N
73 192.098 M
75.17 192.098 L
S
GR
GS
0.149 GC
2 setlinecap
1 LJ
0.5 LW
N
73 177.871 M
75.17 177.871 L
S
GR
GS
0.149 GC
2 setlinecap
1 LJ
0.5 LW
N
73 149.417 M
75.17 149.417 L
S
GR
GS
0.149 GC
2 setlinecap
1 LJ
0.5 LW
N
73 135.19 M
75.17 135.19 L
S
GR
GS
0.149 GC
2 setlinecap
1 LJ
0.5 LW
N
73 120.963 M
75.17 120.963 L
S
GR
GS
0.149 GC
2 setlinecap
1 LJ
0.5 LW
N
73 106.736 M
75.17 106.736 L
S
GR
GS
0.149 GC
2 setlinecap
1 LJ
0.5 LW
N
73 78.282 M
75.17 78.282 L
S
GR
GS
0.149 GC
2 setlinecap
1 LJ
0.5 LW
N
73 64.056 M
75.17 64.056 L
S
GR
GS
0.149 GC
2 setlinecap
1 LJ
0.5 LW
N
73 49.829 M
75.17 49.829 L
S
GR
GS
0.149 GC
2 setlinecap
1 LJ
0.5 LW
N
73 35.602 M
75.17 35.602 L
S
GR
GS
0.149 GC
2 setlinecap
1 LJ
0.5 LW
N
507 362.822 M
504.83 362.822 L
S
GR
GS
0.149 GC
2 setlinecap
1 LJ
0.5 LW
N
507 348.595 M
504.83 348.595 L
S
GR
GS
0.149 GC
2 setlinecap
1 LJ
0.5 LW
N
507 334.368 M
504.83 334.368 L
S
GR
GS
0.149 GC
2 setlinecap
1 LJ
0.5 LW
N
507 320.141 M
504.83 320.141 L
S
GR
GS
0.149 GC
2 setlinecap
1 LJ
0.5 LW
N
507 291.687 M
504.83 291.687 L
S
GR
GS
0.149 GC
2 setlinecap
1 LJ
0.5 LW
N
507 277.46 M
504.83 277.46 L
S
GR
GS
0.149 GC
2 setlinecap
1 LJ
0.5 LW
N
507 263.233 M
504.83 263.233 L
S
GR
GS
0.149 GC
2 setlinecap
1 LJ
0.5 LW
N
507 249.006 M
504.83 249.006 L
S
GR
GS
0.149 GC
2 setlinecap
1 LJ
0.5 LW
N
507 220.552 M
504.83 220.552 L
S
GR
GS
0.149 GC
2 setlinecap
1 LJ
0.5 LW
N
507 206.325 M
504.83 206.325 L
S
GR
GS
0.149 GC
2 setlinecap
1 LJ
0.5 LW
N
507 192.098 M
504.83 192.098 L
S
GR
GS
0.149 GC
2 setlinecap
1 LJ
0.5 LW
N
507 177.871 M
504.83 177.871 L
S
GR
GS
0.149 GC
2 setlinecap
1 LJ
0.5 LW
N
507 149.417 M
504.83 149.417 L
S
GR
GS
0.149 GC
2 setlinecap
1 LJ
0.5 LW
N
507 135.19 M
504.83 135.19 L
S
GR
GS
0.149 GC
2 setlinecap
1 LJ
0.5 LW
N
507 120.963 M
504.83 120.963 L
S
GR
GS
0.149 GC
2 setlinecap
1 LJ
0.5 LW
N
507 106.736 M
504.83 106.736 L
S
GR
GS
0.149 GC
2 setlinecap
1 LJ
0.5 LW
N
507 78.282 M
504.83 78.282 L
S
GR
GS
0.149 GC
2 setlinecap
1 LJ
0.5 LW
N
507 64.056 M
504.83 64.056 L
S
GR
GS
0.149 GC
2 setlinecap
1 LJ
0.5 LW
N
507 49.829 M
504.83 49.829 L
S
GR
GS
0.149 GC
2 setlinecap
1 LJ
0.5 LW
N
507 35.602 M
504.83 35.602 L
S
GR
GS
[1 0 0 1 68.2 305.914] CT
0.149 GC
/Helvetica 14 F
GS
[1 0 0 1 0 0] CT
-16 5.5 moveto 
1 -1 scale
(75) t 
GR
GR
GS
[1 0 0 1 68.2 234.77916] CT
0.149 GC
/Helvetica 14 F
GS
[1 0 0 1 0 0] CT
-16 5.5 moveto 
1 -1 scale
(80) t 
GR
GR
GS
[1 0 0 1 68.2 163.6443] CT
0.149 GC
/Helvetica 14 F
GS
[1 0 0 1 0 0] CT
-16 5.5 moveto 
1 -1 scale
(85) t 
GR
GR
GS
[1 0 0 1 68.2 92.50945] CT
0.149 GC
/Helvetica 14 F
GS
[1 0 0 1 0 0] CT
-16 5.5 moveto 
1 -1 scale
(90) t 
GR
GR
GS
[0 -1 1 0 49.2 202.7498] CT
0.149 GC
/Helvetica 15.4 F
GS
[1 0 0 1 0 0] CT
-40 -4 moveto 
1 -1 scale
(VMAF-NEG) t 
GR
GR
GS
[1 0 0 1 290.00027 29.57504] CT
/Helvetica-Bold 15.4 F
GS
[1 0 0 1 0 0] CT
-113 -4 moveto 
1 -1 scale
(Lecture_1080P-3ce0.y4m-hevc) t 
GR
GR
GS
0 0.447 0.741 RC
1 LJ
0.5 LW
N
73.09 373.032 M
74.564 358.725 L
76.037 344.521 L
77.511 330.501 L
78.985 316.745 L
80.459 303.334 L
81.932 290.347 L
83.406 277.867 L
84.88 265.972 L
86.353 254.743 L
87.827 244.26 L
89.301 234.605 L
90.774 225.857 L
92.248 218.097 L
93.722 211.404 L
95.195 205.32 L
96.669 199.419 L
98.143 193.699 L
99.617 188.162 L
101.09 182.807 L
102.564 177.634 L
104.038 172.644 L
105.511 167.835 L
106.985 163.209 L
108.459 158.765 L
109.932 154.503 L
111.406 150.423 L
112.88 146.525 L
114.354 142.81 L
115.827 139.277 L
117.301 135.926 L
118.775 132.758 L
120.248 129.772 L
121.722 126.968 L
123.196 124.346 L
124.669 121.907 L
126.143 119.65 L
127.617 117.576 L
129.091 115.684 L
130.564 113.931 L
132.038 112.214 L
133.512 110.528 L
134.985 108.873 L
136.459 107.249 L
137.933 105.655 L
139.406 104.092 L
140.88 102.56 L
142.354 101.058 L
143.828 99.586 L
145.301 98.144 L
146.775 96.732 L
148.249 95.35 L
149.722 93.998 L
151.196 92.676 L
152.67 91.383 L
154.143 90.12 L
155.617 88.886 L
157.091 87.682 L
158.565 86.506 L
160.038 85.36 L
161.512 84.242 L
162.986 83.154 L
164.459 82.094 L
165.933 81.062 L
167.407 80.059 L
168.88 79.085 L
170.354 78.138 L
171.828 77.22 L
173.302 76.33 L
174.775 75.468 L
176.249 74.634 L
177.723 73.827 L
179.196 73.048 L
180.67 72.297 L
182.144 71.573 L
183.617 70.876 L
185.091 70.206 L
186.565 69.563 L
188.039 68.948 L
189.512 68.359 L
190.986 67.797 L
192.46 67.261 L
193.933 66.752 L
195.407 66.27 L
196.881 65.813 L
198.354 65.383 L
199.828 64.979 L
201.302 64.601 L
202.776 64.244 L
204.249 63.891 L
205.723 63.541 L
207.197 63.192 L
208.67 62.845 L
210.144 62.5 L
211.618 62.157 L
213.091 61.816 L
214.565 61.478 L
216.039 61.141 L
217.512 60.806 L
218.986 60.473 L
220.46 60.142 L
221.934 59.813 L
223.407 59.486 L
224.881 59.161 L
226.355 58.838 L
227.828 58.517 L
229.302 58.198 L
230.776 57.881 L
232.249 57.566 L
233.723 57.253 L
235.197 56.941 L
236.671 56.633 L
238.144 56.326 L
239.618 56.02 L
241.092 55.718 L
242.565 55.417 L
244.039 55.118 L
245.513 54.821 L
246.986 54.526 L
248.46 54.233 L
249.934 53.942 L
251.408 53.653 L
252.881 53.367 L
254.355 53.082 L
255.829 52.799 L
257.302 52.518 L
258.776 52.24 L
260.25 51.963 L
261.723 51.689 L
263.197 51.416 L
264.671 51.146 L
266.145 50.877 L
267.618 50.611 L
269.092 50.347 L
270.566 50.084 L
272.039 49.824 L
273.513 49.566 L
274.987 49.31 L
276.46 49.056 L
277.934 48.804 L
279.408 48.554 L
280.882 48.307 L
282.355 48.061 L
283.829 47.817 L
285.303 47.576 L
286.776 47.336 L
288.25 47.099 L
289.724 46.863 L
291.197 46.63 L
292.671 46.399 L
294.145 46.17 L
295.619 45.943 L
297.092 45.718 L
298.566 45.495 L
300.04 45.275 L
301.513 45.056 L
302.987 44.84 L
304.461 44.625 L
305.934 44.413 L
307.408 44.203 L
308.882 43.995 L
310.356 43.789 L
311.829 43.585 L
313.303 43.383 L
314.777 43.184 L
316.25 42.986 L
317.724 42.791 L
319.198 42.598 L
320.671 42.407 L
322.145 42.218 L
323.619 42.031 L
325.093 41.846 L
326.566 41.664 L
328.04 41.483 L
329.514 41.305 L
330.987 41.129 L
332.461 40.955 L
333.935 40.783 L
335.408 40.614 L
336.882 40.446 L
338.356 40.281 L
339.829 40.117 L
341.303 39.956 L
342.777 39.797 L
344.251 39.641 L
345.724 39.486 L
347.198 39.334 L
348.672 39.183 L
350.145 39.035 L
351.619 38.889 L
353.093 38.746 L
354.566 38.604 L
356.04 38.465 L
357.514 38.328 L
358.988 38.192 L
360.461 38.06 L
361.935 37.929 L
363.409 37.801 L
364.882 37.674 L
366.356 37.55 L
367.83 37.428 L
369.303 37.309 L
370.777 37.191 L
372.251 37.076 L
373.725 36.963 L
375.198 36.852 L
376.672 36.743 L
378.146 36.637 L
379.619 36.533 L
381.093 36.43 L
382.567 36.331 L
384.04 36.233 L
385.514 36.138 L
386.988 36.044 L
388.462 35.954 L
389.935 35.865 L
391.409 35.778 L
392.883 35.694 L
394.356 35.612 L
395.83 35.532 L
397.304 35.455 L
398.777 35.379 L
400.251 35.306 L
401.725 35.235 L
403.199 35.167 L
404.672 35.101 L
406.146 35.036 L
407.62 34.975 L
409.093 34.915 L
410.567 34.858 L
412.041 34.803 L
413.514 34.75 L
414.988 34.699 L
416.462 34.651 L
417.936 34.605 L
419.409 34.561 L
420.883 34.52 L
422.357 34.48 L
423.83 34.444 L
425.304 34.409 L
426.778 34.376 L
428.251 34.346 L
429.725 34.319 L
431.199 34.293 L
432.673 34.27 L
434.146 34.249 L
435.62 34.23 L
437.094 34.214 L
438.567 34.2 L
440.041 34.188 L
441.515 34.178 L
442.988 34.171 L
444.462 34.166 L
445.936 34.164 L
S
GR
GS
0.851 0.325 0.098 RC
1 LJ
0.5 LW
N
75.206 346.842 M
76.68 334.387 L
78.154 322.015 L
79.627 309.787 L
81.101 297.767 L
82.575 286.017 L
84.048 274.598 L
85.522 263.573 L
86.996 253.004 L
88.47 242.954 L
89.943 233.484 L
91.417 224.658 L
92.891 216.537 L
94.364 209.184 L
95.838 202.66 L
97.312 196.996 L
98.785 191.675 L
100.259 186.5 L
101.733 181.473 L
103.207 176.592 L
104.68 171.86 L
106.154 167.277 L
107.628 162.843 L
109.101 158.559 L
110.575 154.425 L
112.049 150.442 L
113.522 146.612 L
114.996 142.933 L
116.47 139.408 L
117.944 136.037 L
119.417 132.819 L
120.891 129.757 L
122.365 126.85 L
123.838 124.099 L
125.312 121.505 L
126.786 119.068 L
128.259 116.789 L
129.733 114.669 L
131.207 112.707 L
132.68 110.906 L
134.154 109.265 L
135.628 107.759 L
137.102 106.287 L
138.575 104.84 L
140.049 103.418 L
141.523 102.02 L
142.996 100.648 L
144.47 99.3 L
145.944 97.976 L
147.417 96.676 L
148.891 95.401 L
150.365 94.15 L
151.839 92.922 L
153.312 91.719 L
154.786 90.539 L
156.26 89.383 L
157.733 88.25 L
159.207 87.141 L
160.681 86.054 L
162.154 84.991 L
163.628 83.951 L
165.102 82.934 L
166.576 81.94 L
168.049 80.968 L
169.523 80.019 L
170.997 79.092 L
172.47 78.187 L
173.944 77.305 L
175.418 76.445 L
176.891 75.606 L
178.365 74.79 L
179.839 73.995 L
181.313 73.222 L
182.786 72.47 L
184.26 71.74 L
185.734 71.03 L
187.207 70.342 L
188.681 69.675 L
190.155 69.029 L
191.628 68.404 L
193.102 67.799 L
194.576 67.215 L
196.05 66.652 L
197.523 66.108 L
198.997 65.585 L
200.471 65.082 L
201.944 64.599 L
203.418 64.136 L
204.892 63.692 L
206.365 63.268 L
207.839 62.864 L
209.313 62.478 L
210.787 62.113 L
212.26 61.766 L
213.734 61.438 L
215.208 61.13 L
216.681 60.835 L
218.155 60.543 L
219.629 60.252 L
221.102 59.963 L
222.576 59.675 L
224.05 59.388 L
225.524 59.103 L
226.997 58.82 L
228.471 58.537 L
229.945 58.256 L
231.418 57.977 L
232.892 57.699 L
234.366 57.422 L
235.839 57.147 L
237.313 56.874 L
238.787 56.601 L
240.261 56.33 L
241.734 56.061 L
243.208 55.793 L
244.682 55.526 L
246.155 55.261 L
247.629 54.997 L
249.103 54.735 L
250.576 54.474 L
252.05 54.215 L
253.524 53.957 L
254.997 53.7 L
256.471 53.445 L
257.945 53.191 L
259.419 52.939 L
260.892 52.688 L
262.366 52.438 L
263.84 52.19 L
265.313 51.944 L
266.787 51.699 L
268.261 51.455 L
269.734 51.213 L
271.208 50.972 L
272.682 50.733 L
274.156 50.495 L
275.629 50.258 L
277.103 50.023 L
278.577 49.79 L
280.05 49.558 L
281.524 49.327 L
282.998 49.098 L
284.471 48.87 L
285.945 48.644 L
287.419 48.419 L
288.893 48.195 L
290.366 47.973 L
291.84 47.753 L
293.314 47.534 L
294.787 47.316 L
296.261 47.1 L
297.735 46.885 L
299.208 46.672 L
300.682 46.46 L
302.156 46.249 L
303.63 46.04 L
305.103 45.833 L
306.577 45.627 L
308.051 45.423 L
309.524 45.219 L
310.998 45.018 L
312.472 44.818 L
313.945 44.619 L
315.419 44.422 L
316.893 44.226 L
318.367 44.032 L
319.84 43.839 L
321.314 43.647 L
322.788 43.457 L
324.261 43.269 L
325.735 43.082 L
327.209 42.896 L
328.682 42.712 L
330.156 42.53 L
331.63 42.349 L
333.104 42.169 L
334.577 41.991 L
336.051 41.814 L
337.525 41.639 L
338.998 41.465 L
340.472 41.293 L
341.946 41.122 L
343.419 40.953 L
344.893 40.785 L
346.367 40.619 L
347.841 40.454 L
349.314 40.29 L
350.788 40.128 L
352.262 39.968 L
353.735 39.809 L
355.209 39.651 L
356.683 39.495 L
358.156 39.341 L
359.63 39.188 L
361.104 39.036 L
362.578 38.886 L
364.051 38.738 L
365.525 38.591 L
366.999 38.445 L
368.472 38.301 L
369.946 38.158 L
371.42 38.017 L
372.893 37.877 L
374.367 37.739 L
375.841 37.602 L
377.314 37.467 L
378.788 37.334 L
380.262 37.201 L
381.736 37.071 L
383.209 36.942 L
384.683 36.814 L
386.157 36.688 L
387.63 36.563 L
389.104 36.44 L
390.578 36.318 L
392.051 36.198 L
393.525 36.079 L
394.999 35.962 L
396.473 35.846 L
397.946 35.732 L
399.42 35.619 L
400.894 35.508 L
402.367 35.398 L
403.841 35.29 L
405.315 35.183 L
406.788 35.078 L
408.262 34.974 L
409.736 34.872 L
411.21 34.772 L
412.683 34.672 L
414.157 34.575 L
415.631 34.479 L
417.104 34.384 L
418.578 34.291 L
420.052 34.199 L
421.525 34.109 L
422.999 34.021 L
424.473 33.934 L
425.947 33.848 L
427.42 33.764 L
428.894 33.682 L
430.368 33.601 L
431.841 33.521 L
433.315 33.443 L
434.789 33.367 L
436.262 33.292 L
437.736 33.219 L
439.21 33.147 L
440.684 33.076 L
442.157 33.008 L
443.631 32.94 L
445.105 32.875 L
446.578 32.81 L
448.052 32.748 L
449.526 32.687 L
450.999 32.627 L
452.473 32.569 L
453.947 32.512 L
455.421 32.457 L
456.894 32.404 L
458.368 32.352 L
459.842 32.301 L
461.315 32.252 L
462.789 32.205 L
464.263 32.159 L
465.736 32.115 L
467.21 32.072 L
468.684 32.031 L
470.158 31.991 L
471.631 31.953 L
473.105 31.916 L
474.579 31.881 L
476.052 31.847 L
477.526 31.815 L
479 31.785 L
480.473 31.756 L
481.947 31.729 L
483.421 31.703 L
484.895 31.678 L
486.368 31.656 L
487.842 31.635 L
489.316 31.615 L
490.789 31.597 L
492.263 31.58 L
493.737 31.565 L
495.21 31.552 L
496.684 31.54 L
498.158 31.529 L
499.632 31.521 L
501.105 31.513 L
502.579 31.508 L
504.053 31.504 L
505.526 31.501 L
507 31.5 L
S
GR
GS
0.929 0.694 0.125 RC
1 LJ
0.5 LW
N
74.704 352.641 M
76.178 339.769 L
77.652 326.987 L
79.125 314.361 L
80.599 301.957 L
82.073 289.84 L
83.546 278.076 L
85.02 266.73 L
86.494 255.868 L
87.968 245.556 L
89.441 235.859 L
90.915 226.842 L
92.389 218.572 L
93.862 211.114 L
95.336 204.533 L
96.81 198.809 L
98.283 193.361 L
99.757 188.07 L
101.231 182.935 L
102.705 177.956 L
104.178 173.136 L
105.652 168.472 L
107.126 163.967 L
108.599 159.619 L
110.073 155.431 L
111.547 151.401 L
113.02 147.531 L
114.494 143.821 L
115.968 140.27 L
117.442 136.88 L
118.915 133.651 L
120.389 130.583 L
121.863 127.676 L
123.336 124.932 L
124.81 122.35 L
126.284 119.93 L
127.757 117.673 L
129.231 115.58 L
130.705 113.65 L
132.179 111.884 L
133.652 110.274 L
135.126 108.72 L
136.6 107.193 L
138.073 105.692 L
139.547 104.219 L
141.021 102.773 L
142.494 101.353 L
143.968 99.96 L
145.442 98.593 L
146.916 97.253 L
148.389 95.939 L
149.863 94.65 L
151.337 93.388 L
152.81 92.152 L
154.284 90.941 L
155.758 89.756 L
157.231 88.597 L
158.705 87.463 L
160.179 86.354 L
161.653 85.27 L
163.126 84.211 L
164.6 83.177 L
166.074 82.168 L
167.547 81.183 L
169.021 80.223 L
170.495 79.287 L
171.968 78.376 L
173.442 77.489 L
174.916 76.625 L
176.389 75.786 L
177.863 74.971 L
179.337 74.179 L
180.811 73.41 L
182.284 72.665 L
183.758 71.943 L
185.232 71.245 L
186.705 70.569 L
188.179 69.917 L
189.653 69.287 L
191.126 68.68 L
192.6 68.096 L
194.074 67.534 L
195.548 66.994 L
197.021 66.476 L
198.495 65.981 L
199.969 65.507 L
201.442 65.056 L
202.916 64.626 L
204.39 64.218 L
205.863 63.831 L
207.337 63.465 L
208.811 63.121 L
210.285 62.796 L
211.758 62.476 L
213.232 62.157 L
214.706 61.84 L
216.179 61.525 L
217.653 61.212 L
219.127 60.9 L
220.6 60.59 L
222.074 60.281 L
223.548 59.975 L
225.022 59.669 L
226.495 59.366 L
227.969 59.064 L
229.443 58.764 L
230.916 58.466 L
232.39 58.169 L
233.864 57.875 L
235.337 57.581 L
236.811 57.29 L
238.285 57 L
239.759 56.712 L
241.232 56.426 L
242.706 56.141 L
244.18 55.858 L
245.653 55.577 L
247.127 55.297 L
248.601 55.02 L
250.074 54.744 L
251.548 54.469 L
253.022 54.197 L
254.496 53.926 L
255.969 53.657 L
257.443 53.389 L
258.917 53.124 L
260.39 52.86 L
261.864 52.598 L
263.338 52.337 L
264.811 52.079 L
266.285 51.822 L
267.759 51.567 L
269.233 51.313 L
270.706 51.062 L
272.18 50.812 L
273.654 50.563 L
275.127 50.317 L
276.601 50.073 L
278.075 49.83 L
279.548 49.589 L
281.022 49.349 L
282.496 49.112 L
283.97 48.876 L
285.443 48.642 L
286.917 48.41 L
288.391 48.179 L
289.864 47.951 L
291.338 47.724 L
292.812 47.499 L
294.285 47.275 L
295.759 47.054 L
297.233 46.834 L
298.706 46.616 L
300.18 46.4 L
301.654 46.186 L
303.128 45.973 L
304.601 45.763 L
306.075 45.554 L
307.549 45.347 L
309.022 45.141 L
310.496 44.938 L
311.97 44.736 L
313.443 44.536 L
314.917 44.338 L
316.391 44.142 L
317.865 43.948 L
319.338 43.755 L
320.812 43.564 L
322.286 43.375 L
323.759 43.188 L
325.233 43.003 L
326.707 42.819 L
328.18 42.638 L
329.654 42.458 L
331.128 42.28 L
332.602 42.104 L
334.075 41.93 L
335.549 41.757 L
337.023 41.587 L
338.496 41.418 L
339.97 41.251 L
341.444 41.086 L
342.917 40.923 L
344.391 40.762 L
345.865 40.603 L
347.339 40.445 L
348.812 40.289 L
350.286 40.136 L
351.76 39.984 L
353.233 39.834 L
354.707 39.685 L
356.181 39.539 L
357.654 39.395 L
359.128 39.252 L
360.602 39.111 L
362.076 38.972 L
363.549 38.836 L
365.023 38.7 L
366.497 38.567 L
367.97 38.436 L
369.444 38.307 L
370.918 38.179 L
372.391 38.054 L
373.865 37.93 L
375.339 37.808 L
376.813 37.688 L
378.286 37.57 L
379.76 37.454 L
381.234 37.34 L
382.707 37.228 L
384.181 37.118 L
385.655 37.009 L
387.128 36.903 L
388.602 36.798 L
390.076 36.696 L
391.55 36.595 L
393.023 36.496 L
394.497 36.399 L
395.971 36.304 L
397.444 36.211 L
398.918 36.12 L
400.392 36.031 L
401.865 35.944 L
403.339 35.859 L
404.813 35.776 L
406.287 35.694 L
407.76 35.615 L
409.234 35.537 L
410.708 35.462 L
412.181 35.388 L
413.655 35.317 L
415.129 35.247 L
416.602 35.18 L
418.076 35.114 L
419.55 35.05 L
421.023 34.988 L
422.497 34.928 L
423.971 34.871 L
425.445 34.815 L
426.918 34.761 L
428.392 34.709 L
429.866 34.659 L
431.339 34.611 L
432.813 34.565 L
434.287 34.521 L
435.76 34.479 L
437.234 34.439 L
438.708 34.401 L
440.182 34.365 L
441.655 34.331 L
443.129 34.299 L
444.603 34.269 L
446.076 34.241 L
447.55 34.215 L
449.024 34.191 L
450.497 34.169 L
451.971 34.149 L
453.445 34.131 L
454.919 34.115 L
456.392 34.101 L
457.866 34.089 L
459.34 34.079 L
460.813 34.071 L
462.287 34.065 L
463.761 34.062 L
465.234 34.06 L
S
GR
GS
0.494 0.184 0.557 RC
1 LJ
0.5 LW
N
73 374 M
74.474 359.602 L
75.947 345.308 L
77.421 331.2 L
78.895 317.359 L
80.368 303.868 L
81.842 290.808 L
83.316 278.26 L
84.79 266.307 L
86.263 255.03 L
87.737 244.511 L
89.211 234.831 L
90.684 226.072 L
92.158 218.316 L
93.632 211.641 L
95.105 205.538 L
96.579 199.62 L
98.053 193.887 L
99.527 188.338 L
101 182.973 L
102.474 177.792 L
103.948 172.796 L
105.421 167.983 L
106.895 163.354 L
108.369 158.909 L
109.842 154.647 L
111.316 150.569 L
112.79 146.674 L
114.264 142.963 L
115.737 139.434 L
117.211 136.089 L
118.685 132.927 L
120.158 129.947 L
121.632 127.15 L
123.106 124.536 L
124.579 122.104 L
126.053 119.855 L
127.527 117.788 L
129.001 115.903 L
130.474 114.143 L
131.948 112.415 L
133.422 110.72 L
134.895 109.055 L
136.369 107.422 L
137.843 105.821 L
139.316 104.25 L
140.79 102.71 L
142.264 101.202 L
143.738 99.724 L
145.211 98.276 L
146.685 96.86 L
148.159 95.473 L
149.632 94.117 L
151.106 92.791 L
152.58 91.496 L
154.053 90.23 L
155.527 88.994 L
157.001 87.787 L
158.475 86.611 L
159.948 85.464 L
161.422 84.346 L
162.896 83.258 L
164.369 82.198 L
165.843 81.168 L
167.317 80.167 L
168.79 79.194 L
170.264 78.25 L
171.738 77.335 L
173.212 76.448 L
174.685 75.59 L
176.159 74.76 L
177.633 73.957 L
179.106 73.183 L
180.58 72.437 L
182.054 71.719 L
183.527 71.028 L
185.001 70.365 L
186.475 69.729 L
187.949 69.12 L
189.422 68.539 L
190.896 67.985 L
192.37 67.458 L
193.843 66.957 L
195.317 66.484 L
196.791 66.036 L
198.264 65.616 L
199.738 65.222 L
201.212 64.852 L
202.686 64.49 L
204.159 64.13 L
205.633 63.772 L
207.107 63.416 L
208.58 63.062 L
210.054 62.71 L
211.528 62.361 L
213.001 62.013 L
214.475 61.667 L
215.949 61.324 L
217.422 60.982 L
218.896 60.643 L
220.37 60.305 L
221.844 59.97 L
223.317 59.637 L
224.791 59.306 L
226.265 58.977 L
227.738 58.65 L
229.212 58.325 L
230.686 58.002 L
232.159 57.681 L
233.633 57.363 L
235.107 57.046 L
236.581 56.732 L
238.054 56.42 L
239.528 56.11 L
241.002 55.802 L
242.475 55.496 L
243.949 55.192 L
245.423 54.891 L
246.896 54.591 L
248.37 54.294 L
249.844 53.999 L
251.318 53.706 L
252.791 53.415 L
254.265 53.126 L
255.739 52.839 L
257.212 52.555 L
258.686 52.272 L
260.16 51.992 L
261.633 51.714 L
263.107 51.438 L
264.581 51.165 L
266.055 50.893 L
267.528 50.624 L
269.002 50.357 L
270.476 50.092 L
271.949 49.829 L
273.423 49.568 L
274.897 49.31 L
276.37 49.053 L
277.844 48.799 L
279.318 48.548 L
280.792 48.298 L
282.265 48.05 L
283.739 47.805 L
285.213 47.562 L
286.686 47.321 L
288.16 47.083 L
289.634 46.846 L
291.107 46.612 L
292.581 46.38 L
294.055 46.15 L
295.529 45.922 L
297.002 45.697 L
298.476 45.474 L
299.95 45.253 L
301.423 45.035 L
302.897 44.818 L
304.371 44.604 L
305.844 44.392 L
307.318 44.182 L
308.792 43.975 L
310.266 43.77 L
311.739 43.567 L
313.213 43.366 L
314.687 43.168 L
316.16 42.972 L
317.634 42.778 L
319.108 42.586 L
320.581 42.397 L
322.055 42.21 L
323.529 42.025 L
325.003 41.843 L
326.476 41.663 L
327.95 41.485 L
329.424 41.309 L
330.897 41.136 L
332.371 40.965 L
333.845 40.796 L
335.318 40.63 L
336.792 40.466 L
338.266 40.304 L
339.74 40.145 L
341.213 39.988 L
342.687 39.833 L
344.161 39.68 L
345.634 39.53 L
347.108 39.382 L
348.582 39.237 L
350.055 39.094 L
351.529 38.953 L
353.003 38.814 L
354.476 38.678 L
355.95 38.544 L
357.424 38.413 L
358.898 38.283 L
360.371 38.157 L
361.845 38.032 L
363.319 37.91 L
364.792 37.791 L
366.266 37.673 L
367.74 37.558 L
369.213 37.446 L
370.687 37.335 L
372.161 37.227 L
373.635 37.122 L
375.108 37.019 L
376.582 36.918 L
378.056 36.82 L
379.529 36.724 L
381.003 36.63 L
382.477 36.539 L
383.95 36.45 L
385.424 36.364 L
386.898 36.28 L
388.372 36.199 L
389.845 36.12 L
391.319 36.043 L
392.793 35.969 L
394.266 35.897 L
395.74 35.827 L
397.214 35.76 L
398.687 35.696 L
400.161 35.633 L
401.635 35.574 L
403.109 35.516 L
404.582 35.461 L
406.056 35.409 L
407.53 35.359 L
409.003 35.312 L
410.477 35.266 L
411.951 35.224 L
413.424 35.184 L
414.898 35.146 L
416.372 35.111 L
417.846 35.078 L
419.319 35.048 L
420.793 35.02 L
422.267 34.994 L
423.74 34.971 L
425.214 34.951 L
426.688 34.933 L
428.161 34.918 L
429.635 34.905 L
431.109 34.894 L
432.583 34.886 L
434.056 34.881 L
435.53 34.878 L
S
GR
GS
0.467 0.675 0.188 RC
[10 6] 0 setdash
2 LJ
0.5 LW
N
75.13 347.564 M
76.604 334.994 L
78.078 322.502 L
79.551 310.151 L
81.025 298.005 L
82.499 286.128 L
83.972 274.585 L
85.446 263.438 L
86.92 252.753 L
88.394 242.593 L
89.867 233.022 L
91.341 224.104 L
92.815 215.902 L
94.288 208.482 L
95.762 201.907 L
97.236 196.231 L
98.709 190.988 L
100.183 185.894 L
101.657 180.949 L
103.131 176.153 L
104.604 171.506 L
106.078 167.007 L
107.552 162.657 L
109.025 158.456 L
110.499 154.404 L
111.973 150.501 L
113.446 146.747 L
114.92 143.143 L
116.394 139.687 L
117.868 136.38 L
119.341 133.222 L
120.815 130.213 L
122.289 127.354 L
123.762 124.644 L
125.236 122.083 L
126.71 119.671 L
128.183 117.409 L
129.657 115.296 L
131.131 113.332 L
132.605 111.518 L
134.078 109.853 L
135.552 108.335 L
137.026 106.884 L
138.499 105.458 L
139.973 104.056 L
141.447 102.679 L
142.92 101.326 L
144.394 99.997 L
145.868 98.692 L
147.342 97.411 L
148.815 96.154 L
150.289 94.921 L
151.763 93.711 L
153.236 92.525 L
154.71 91.362 L
156.184 90.222 L
157.657 89.105 L
159.131 88.011 L
160.605 86.94 L
162.079 85.892 L
163.552 84.866 L
165.026 83.863 L
166.5 82.882 L
167.973 81.923 L
169.447 80.987 L
170.921 80.072 L
172.394 79.179 L
173.868 78.308 L
175.342 77.458 L
176.816 76.63 L
178.289 75.823 L
179.763 75.037 L
181.237 74.273 L
182.71 73.529 L
184.184 72.806 L
185.658 72.104 L
187.131 71.422 L
188.605 70.761 L
190.079 70.12 L
191.552 69.5 L
193.026 68.899 L
194.5 68.319 L
195.974 67.758 L
197.447 67.217 L
198.921 66.695 L
200.395 66.193 L
201.868 65.711 L
203.342 65.247 L
204.816 64.803 L
206.289 64.377 L
207.763 63.971 L
209.237 63.583 L
210.711 63.213 L
212.184 62.862 L
213.658 62.53 L
215.132 62.215 L
216.605 61.916 L
218.079 61.618 L
219.553 61.322 L
221.026 61.027 L
222.5 60.734 L
223.974 60.443 L
225.448 60.153 L
226.921 59.864 L
228.395 59.577 L
229.869 59.291 L
231.342 59.007 L
232.816 58.724 L
234.29 58.443 L
235.763 58.163 L
237.237 57.885 L
238.711 57.608 L
240.185 57.333 L
241.658 57.059 L
243.132 56.787 L
244.606 56.516 L
246.079 56.247 L
247.553 55.979 L
249.027 55.713 L
250.5 55.448 L
251.974 55.185 L
253.448 54.923 L
254.922 54.663 L
256.395 54.404 L
257.869 54.147 L
259.343 53.891 L
260.816 53.637 L
262.29 53.385 L
263.764 53.134 L
265.237 52.884 L
266.711 52.636 L
268.185 52.39 L
269.659 52.145 L
271.132 51.901 L
272.606 51.659 L
274.08 51.419 L
275.553 51.18 L
277.027 50.943 L
278.501 50.707 L
279.974 50.473 L
281.448 50.241 L
282.922 50.01 L
284.396 49.78 L
285.869 49.552 L
287.343 49.326 L
288.817 49.101 L
290.29 48.878 L
291.764 48.656 L
293.238 48.436 L
294.711 48.217 L
296.185 48 L
297.659 47.785 L
299.133 47.571 L
300.606 47.359 L
302.08 47.148 L
303.554 46.939 L
305.027 46.731 L
306.501 46.525 L
307.975 46.321 L
309.448 46.118 L
310.922 45.917 L
312.396 45.717 L
313.87 45.519 L
315.343 45.322 L
316.817 45.128 L
318.291 44.934 L
319.764 44.743 L
321.238 44.552 L
322.712 44.364 L
324.185 44.177 L
325.659 43.992 L
327.133 43.808 L
328.607 43.626 L
330.08 43.445 L
331.554 43.267 L
333.028 43.089 L
334.501 42.914 L
335.975 42.74 L
337.449 42.567 L
338.922 42.396 L
340.396 42.227 L
341.87 42.06 L
343.343 41.894 L
344.817 41.729 L
346.291 41.567 L
347.765 41.406 L
349.238 41.246 L
350.712 41.088 L
352.186 40.932 L
353.659 40.778 L
355.133 40.625 L
356.607 40.474 L
358.08 40.324 L
359.554 40.176 L
361.028 40.03 L
362.502 39.885 L
363.975 39.742 L
365.449 39.601 L
366.923 39.461 L
368.396 39.323 L
369.87 39.187 L
371.344 39.052 L
372.817 38.919 L
374.291 38.787 L
375.765 38.658 L
377.239 38.53 L
378.712 38.403 L
380.186 38.278 L
381.66 38.155 L
383.133 38.034 L
384.607 37.914 L
386.081 37.796 L
387.554 37.68 L
389.028 37.565 L
390.502 37.452 L
391.976 37.341 L
393.449 37.231 L
394.923 37.123 L
396.397 37.017 L
397.87 36.912 L
399.344 36.81 L
400.818 36.708 L
402.291 36.609 L
403.765 36.511 L
405.239 36.415 L
406.713 36.321 L
408.186 36.228 L
409.66 36.137 L
411.134 36.048 L
412.607 35.96 L
414.081 35.874 L
415.555 35.79 L
417.028 35.708 L
418.502 35.627 L
419.976 35.548 L
421.449 35.471 L
422.923 35.395 L
424.397 35.321 L
425.871 35.249 L
427.344 35.179 L
428.818 35.11 L
430.292 35.043 L
431.765 34.978 L
433.239 34.915 L
434.713 34.853 L
436.186 34.793 L
437.66 34.735 L
439.134 34.678 L
440.608 34.624 L
442.081 34.571 L
443.555 34.52 L
445.029 34.47 L
446.502 34.422 L
447.976 34.376 L
449.45 34.332 L
450.923 34.29 L
452.397 34.249 L
453.871 34.21 L
455.345 34.173 L
456.818 34.137 L
458.292 34.104 L
459.766 34.072 L
461.239 34.041 L
462.713 34.013 L
464.187 33.987 L
465.66 33.962 L
467.134 33.939 L
468.608 33.917 L
470.082 33.898 L
471.555 33.88 L
473.029 33.864 L
474.503 33.85 L
475.976 33.838 L
477.45 33.827 L
478.924 33.819 L
480.397 33.811 L
481.871 33.806 L
483.345 33.803 L
484.819 33.801 L
S
GR
GS
0.302 0.745 0.933 RC
[10 6] 0 setdash
2 LJ
0.5 LW
N
74.154 358.552 M
75.627 345.059 L
77.101 331.655 L
78.575 318.412 L
80.049 305.404 L
81.522 292.704 L
82.996 280.384 L
84.47 268.519 L
85.943 257.182 L
87.417 246.444 L
88.891 236.381 L
90.364 227.064 L
91.838 218.567 L
93.312 210.964 L
94.786 204.327 L
96.259 198.582 L
97.733 193.087 L
99.207 187.758 L
100.68 182.596 L
102.154 177.6 L
103.628 172.77 L
105.101 168.106 L
106.575 163.606 L
108.049 159.272 L
109.523 155.102 L
110.996 151.096 L
112.47 147.254 L
113.944 143.576 L
115.417 140.061 L
116.891 136.709 L
118.365 133.519 L
119.838 130.493 L
121.312 127.628 L
122.786 124.924 L
124.26 122.383 L
125.733 120.002 L
127.207 117.782 L
128.681 115.723 L
130.154 113.824 L
131.628 112.084 L
133.102 110.489 L
134.575 108.939 L
136.049 107.416 L
137.523 105.921 L
138.997 104.453 L
140.47 103.011 L
141.944 101.597 L
143.418 100.209 L
144.891 98.848 L
146.365 97.513 L
147.839 96.205 L
149.312 94.922 L
150.786 93.666 L
152.26 92.436 L
153.734 91.231 L
155.207 90.052 L
156.681 88.898 L
158.155 87.77 L
159.628 86.667 L
161.102 85.59 L
162.576 84.537 L
164.049 83.509 L
165.523 82.506 L
166.997 81.527 L
168.471 80.573 L
169.944 79.643 L
171.418 78.737 L
172.892 77.855 L
174.365 76.997 L
175.839 76.163 L
177.313 75.352 L
178.786 74.565 L
180.26 73.802 L
181.734 73.061 L
183.208 72.344 L
184.681 71.65 L
186.155 70.978 L
187.629 70.33 L
189.102 69.703 L
190.576 69.099 L
192.05 68.518 L
193.523 67.959 L
194.997 67.421 L
196.471 66.906 L
197.944 66.412 L
199.418 65.94 L
200.892 65.49 L
202.366 65.061 L
203.839 64.652 L
205.313 64.266 L
206.787 63.9 L
208.26 63.555 L
209.734 63.227 L
211.208 62.902 L
212.681 62.58 L
214.155 62.258 L
215.629 61.939 L
217.103 61.621 L
218.576 61.305 L
220.05 60.99 L
221.524 60.678 L
222.997 60.367 L
224.471 60.057 L
225.945 59.75 L
227.418 59.444 L
228.892 59.139 L
230.366 58.837 L
231.84 58.536 L
233.313 58.237 L
234.787 57.94 L
236.261 57.644 L
237.734 57.35 L
239.208 57.058 L
240.682 56.767 L
242.155 56.479 L
243.629 56.191 L
245.103 55.906 L
246.577 55.623 L
248.05 55.341 L
249.524 55.061 L
250.998 54.782 L
252.471 54.506 L
253.945 54.231 L
255.419 53.958 L
256.892 53.686 L
258.366 53.417 L
259.84 53.149 L
261.314 52.883 L
262.787 52.618 L
264.261 52.356 L
265.735 52.095 L
267.208 51.836 L
268.682 51.579 L
270.156 51.323 L
271.629 51.07 L
273.103 50.818 L
274.577 50.568 L
276.051 50.319 L
277.524 50.073 L
278.998 49.828 L
280.472 49.585 L
281.945 49.343 L
283.419 49.104 L
284.893 48.866 L
286.366 48.631 L
287.84 48.397 L
289.314 48.164 L
290.788 47.934 L
292.261 47.705 L
293.735 47.479 L
295.209 47.254 L
296.682 47.031 L
298.156 46.809 L
299.63 46.59 L
301.103 46.372 L
302.577 46.156 L
304.051 45.942 L
305.525 45.73 L
306.998 45.519 L
308.472 45.311 L
309.946 45.104 L
311.419 44.899 L
312.893 44.696 L
314.367 44.495 L
315.84 44.296 L
317.314 44.098 L
318.788 43.903 L
320.262 43.709 L
321.735 43.517 L
323.209 43.327 L
324.683 43.139 L
326.156 42.953 L
327.63 42.768 L
329.104 42.586 L
330.577 42.405 L
332.051 42.226 L
333.525 42.049 L
334.998 41.874 L
336.472 41.701 L
337.946 41.53 L
339.42 41.36 L
340.893 41.193 L
342.367 41.027 L
343.841 40.863 L
345.314 40.701 L
346.788 40.541 L
348.262 40.383 L
349.736 40.227 L
351.209 40.073 L
352.683 39.921 L
354.157 39.77 L
355.63 39.622 L
357.104 39.475 L
358.578 39.331 L
360.051 39.188 L
361.525 39.047 L
362.999 38.908 L
364.472 38.771 L
365.946 38.636 L
367.42 38.503 L
368.894 38.372 L
370.367 38.243 L
371.841 38.115 L
373.315 37.99 L
374.788 37.867 L
376.262 37.745 L
377.736 37.626 L
379.209 37.508 L
380.683 37.392 L
382.157 37.279 L
383.631 37.167 L
385.104 37.057 L
386.578 36.949 L
388.052 36.844 L
389.525 36.74 L
390.999 36.638 L
392.473 36.538 L
393.946 36.44 L
395.42 36.344 L
396.894 36.25 L
398.368 36.158 L
399.841 36.068 L
401.315 35.98 L
402.789 35.894 L
404.262 35.81 L
405.736 35.728 L
407.21 35.648 L
408.683 35.57 L
410.157 35.494 L
411.631 35.42 L
413.105 35.348 L
414.578 35.278 L
416.052 35.21 L
417.526 35.144 L
418.999 35.08 L
420.473 35.018 L
421.947 34.958 L
423.42 34.901 L
424.894 34.845 L
426.368 34.791 L
427.842 34.739 L
429.315 34.689 L
430.789 34.642 L
432.263 34.596 L
433.736 34.552 L
435.21 34.511 L
436.684 34.471 L
438.157 34.434 L
439.631 34.398 L
441.105 34.365 L
442.579 34.333 L
444.052 34.304 L
445.526 34.277 L
447 34.252 L
448.473 34.228 L
449.947 34.207 L
451.421 34.188 L
452.894 34.172 L
454.368 34.157 L
455.842 34.144 L
457.315 34.133 L
458.789 34.125 L
460.263 34.118 L
461.737 34.114 L
463.21 34.111 L
S
GR
GS
0.635 0.078 0.184 RC
[10 6] 0 setdash
2 LJ
0.5 LW
N
73.025 373.824 M
74.499 359.485 L
75.972 345.25 L
77.446 331.201 L
78.92 317.419 L
80.393 303.986 L
81.867 290.983 L
83.341 278.491 L
84.815 266.593 L
86.288 255.369 L
87.762 244.902 L
89.236 235.273 L
90.709 226.563 L
92.183 218.853 L
93.657 212.221 L
95.13 206.145 L
96.604 200.255 L
98.078 194.55 L
99.552 189.029 L
101.025 183.694 L
102.499 178.542 L
103.973 173.574 L
105.446 168.79 L
106.92 164.189 L
108.394 159.771 L
109.867 155.535 L
111.341 151.482 L
112.815 147.611 L
114.289 143.922 L
115.762 140.415 L
117.236 137.088 L
118.71 133.943 L
120.183 130.978 L
121.657 128.194 L
123.131 125.589 L
124.604 123.164 L
126.078 120.919 L
127.552 118.852 L
129.025 116.965 L
130.499 115.194 L
131.973 113.456 L
133.447 111.75 L
134.92 110.076 L
136.394 108.433 L
137.868 106.822 L
139.341 105.243 L
140.815 103.695 L
142.289 102.178 L
143.762 100.693 L
145.236 99.239 L
146.71 97.815 L
148.184 96.423 L
149.657 95.062 L
151.131 93.731 L
152.605 92.431 L
154.078 91.162 L
155.552 89.923 L
157.026 88.715 L
158.499 87.536 L
159.973 86.388 L
161.447 85.27 L
162.921 84.182 L
164.394 83.124 L
165.868 82.095 L
167.342 81.096 L
168.815 80.127 L
170.289 79.187 L
171.763 78.277 L
173.236 77.395 L
174.71 76.543 L
176.184 75.72 L
177.658 74.926 L
179.131 74.161 L
180.605 73.425 L
182.079 72.717 L
183.552 72.038 L
185.026 71.387 L
186.5 70.764 L
187.973 70.17 L
189.447 69.604 L
190.921 69.067 L
192.395 68.557 L
193.868 68.075 L
195.342 67.62 L
196.816 67.194 L
198.289 66.795 L
199.763 66.42 L
201.237 66.051 L
202.71 65.684 L
204.184 65.32 L
205.658 64.957 L
207.132 64.597 L
208.605 64.24 L
210.079 63.885 L
211.553 63.532 L
213.026 63.181 L
214.5 62.833 L
215.974 62.487 L
217.447 62.143 L
218.921 61.802 L
220.395 61.463 L
221.869 61.126 L
223.342 60.792 L
224.816 60.46 L
226.29 60.131 L
227.763 59.804 L
229.237 59.479 L
230.711 59.157 L
232.184 58.837 L
233.658 58.52 L
235.132 58.204 L
236.605 57.892 L
238.079 57.582 L
239.553 57.274 L
241.027 56.969 L
242.5 56.666 L
243.974 56.365 L
245.448 56.067 L
246.921 55.772 L
248.395 55.479 L
249.869 55.189 L
251.342 54.9 L
252.816 54.615 L
254.29 54.332 L
255.764 54.051 L
257.237 53.773 L
258.711 53.498 L
260.185 53.225 L
261.658 52.954 L
263.132 52.686 L
264.606 52.421 L
266.079 52.158 L
267.553 51.898 L
269.027 51.64 L
270.501 51.385 L
271.974 51.132 L
273.448 50.882 L
274.922 50.634 L
276.395 50.39 L
277.869 50.147 L
279.343 49.908 L
280.816 49.671 L
282.29 49.436 L
283.764 49.204 L
285.238 48.975 L
286.711 48.748 L
288.185 48.524 L
289.659 48.303 L
291.132 48.084 L
292.606 47.868 L
294.08 47.655 L
295.553 47.444 L
297.027 47.236 L
298.501 47.031 L
299.975 46.828 L
301.448 46.628 L
302.922 46.431 L
304.396 46.236 L
305.869 46.044 L
307.343 45.855 L
308.817 45.668 L
310.29 45.485 L
311.764 45.304 L
313.238 45.125 L
314.712 44.95 L
316.185 44.777 L
317.659 44.607 L
319.133 44.44 L
320.606 44.275 L
322.08 44.114 L
323.554 43.955 L
325.027 43.799 L
326.501 43.645 L
327.975 43.495 L
329.449 43.347 L
330.922 43.202 L
332.396 43.06 L
333.87 42.92 L
335.343 42.784 L
336.817 42.65 L
338.291 42.519 L
339.764 42.391 L
341.238 42.266 L
342.712 42.144 L
344.186 42.025 L
345.659 41.908 L
347.133 41.795 L
348.607 41.684 L
350.08 41.576 L
351.554 41.471 L
353.028 41.369 L
354.501 41.27 L
355.975 41.173 L
357.449 41.08 L
358.923 40.99 L
360.396 40.902 L
361.87 40.818 L
363.344 40.736 L
364.817 40.657 L
366.291 40.582 L
367.765 40.509 L
369.238 40.439 L
370.712 40.372 L
372.186 40.309 L
373.659 40.248 L
375.133 40.19 L
376.607 40.135 L
378.081 40.083 L
379.554 40.034 L
381.028 39.989 L
382.502 39.946 L
383.975 39.906 L
385.449 39.869 L
386.923 39.836 L
388.396 39.805 L
389.87 39.777 L
391.344 39.753 L
392.818 39.732 L
394.291 39.713 L
395.765 39.698 L
397.239 39.686 L
398.712 39.676 L
400.186 39.67 L
401.66 39.667 L
S
GR
GS
1 GC
N
499 366 M
499 250.5 L
344.5 250.5 L
344.5 366 L
cp
f
GR
GS
[1 0 0 1 381.5 260.25] CT
/Helvetica 13 F
GS
[1 0 0 1 0 0] CT
0 5 moveto 
1 -1 scale
(Base Run) t 
GR
GR
GS
0 0.447 0.741 RC
1 LJ
0.5 LW
N
348.5 260.25 M
378.5 260.25 L
S
GR
GS
[1 0 0 1 381.5 276.25] CT
/Helvetica 13 F
GS
[1 0 0 1 0 0] CT
0 5 moveto 
1 -1 scale
(I & B Frames) t 
GR
GR
GS
0.851 0.325 0.098 RC
1 LJ
0.5 LW
N
348.5 276.25 M
378.5 276.25 L
S
GR
GS
[1 0 0 1 381.5 292.25] CT
/Helvetica 13 F
GS
[1 0 0 1 0 0] CT
0 5 moveto 
1 -1 scale
(I Frames Only) t 
GR
GR
GS
0.929 0.694 0.125 RC
1 LJ
0.5 LW
N
348.5 292.25 M
378.5 292.25 L
S
GR
GS
[1 0 0 1 381.5 308.25] CT
/Helvetica 13 F
GS
[1 0 0 1 0 0] CT
0 5 moveto 
1 -1 scale
(B Frames Only) t 
GR
GR
GS
0.494 0.184 0.557 RC
1 LJ
0.5 LW
N
348.5 308.25 M
378.5 308.25 L
S
GR
GS
[1 0 0 1 381.5 324.25] CT
/Helvetica 13 F
GS
[1 0 0 1 0 0] CT
0 5 moveto 
1 -1 scale
(Part I & B Frames) t 
GR
GR
GS
0.467 0.675 0.188 RC
[10 6] 0 setdash
2 LJ
0.5 LW
N
348.5 324.25 M
378.5 324.25 L
S
GR
GS
[1 0 0 1 381.5 340.25] CT
/Helvetica 13 F
GS
[1 0 0 1 0 0] CT
0 5 moveto 
1 -1 scale
(Part I Frames Only) t 
GR
GR
GS
0.302 0.745 0.933 RC
[10 6] 0 setdash
2 LJ
0.5 LW
N
348.5 340.25 M
378.5 340.25 L
S
GR
GS
[1 0 0 1 381.5 356.25] CT
/Helvetica 13 F
GS
[1 0 0 1 0 0] CT
0 5 moveto 
1 -1 scale
(Part B Frames Only) t 
GR
GR
GS
0.635 0.078 0.184 RC
[10 6] 0 setdash
2 LJ
0.5 LW
N
348.5 356.25 M
378.5 356.25 L
S
GR
GS
0.149 GC
10.0 ML
0.5 LW
N
344.5 366 M
344.5 250.5 L
499 250.5 L
499 366 L
cp
S
GR
%%Trailer
%%Pages: 1
%%EOF
