%!PS-Adobe-3.0 EPSF-3.0
%%Creator: (MATLAB, The Mathworks, Inc. Version 9.11.0.1837725 \(R2021b\) Update 2. Operating System: Mac OS X)
%%Title: plots/pchip/Lecture_1080P-3ce0.y4m-hevc-MS_SSIM.eps
%%CreationDate: 2022-02-03T19:14:14
%%Pages: (atend)
%%BoundingBox:    33   425   508   826
%%LanguageLevel: 3
%%EndComments
%%BeginProlog
%%BeginResource: procset (Apache XML Graphics Std ProcSet) 1.2 0
%%Version: 1.2 0
%%Copyright: (Copyright 2001-2003,2010 The Apache Software Foundation. License terms: http://www.apache.org/licenses/LICENSE-2.0)
/bd{bind def}bind def
/ld{load def}bd
/GR/grestore ld
/GS/gsave ld
/RM/rmoveto ld
/C/curveto ld
/t/show ld
/L/lineto ld
/ML/setmiterlimit ld
/CT/concat ld
/f/fill ld
/N/newpath ld
/S/stroke ld
/CC/setcmykcolor ld
/A/ashow ld
/cp/closepath ld
/RC/setrgbcolor ld
/LJ/setlinejoin ld
/GC/setgray ld
/LW/setlinewidth ld
/M/moveto ld
/re {4 2 roll M
1 index 0 rlineto
0 exch rlineto
neg 0 rlineto
cp } bd
/_ctm matrix def
/_tm matrix def
/BT { _ctm currentmatrix pop matrix _tm copy pop 0 0 moveto } bd
/ET { _ctm setmatrix } bd
/iTm { _ctm setmatrix _tm concat } bd
/Tm { _tm astore pop iTm 0 0 moveto } bd
/ux 0.0 def
/uy 0.0 def
/F {
  /Tp exch def
  /Tf exch def
  Tf findfont Tp scalefont setfont
  /cf Tf def  /cs Tp def
} bd
/ULS {currentpoint /uy exch def /ux exch def} bd
/ULE {
  /Tcx currentpoint pop def
  gsave
  newpath
  cf findfont cs scalefont dup
  /FontMatrix get 0 get /Ts exch def /FontInfo get dup
  /UnderlinePosition get Ts mul /To exch def
  /UnderlineThickness get Ts mul /Tt exch def
  ux uy To add moveto  Tcx uy To add lineto
  Tt setlinewidth stroke
  grestore
} bd
/OLE {
  /Tcx currentpoint pop def
  gsave
  newpath
  cf findfont cs scalefont dup
  /FontMatrix get 0 get /Ts exch def /FontInfo get dup
  /UnderlinePosition get Ts mul /To exch def
  /UnderlineThickness get Ts mul /Tt exch def
  ux uy To add cs add moveto Tcx uy To add cs add lineto
  Tt setlinewidth stroke
  grestore
} bd
/SOE {
  /Tcx currentpoint pop def
  gsave
  newpath
  cf findfont cs scalefont dup
  /FontMatrix get 0 get /Ts exch def /FontInfo get dup
  /UnderlinePosition get Ts mul /To exch def
  /UnderlineThickness get Ts mul /Tt exch def
  ux uy To add cs 10 mul 26 idiv add moveto Tcx uy To add cs 10 mul 26 idiv add lineto
  Tt setlinewidth stroke
  grestore
} bd
/QT {
/Y22 exch store
/X22 exch store
/Y21 exch store
/X21 exch store
currentpoint
/Y21 load 2 mul add 3 div exch
/X21 load 2 mul add 3 div exch
/X21 load 2 mul /X22 load add 3 div
/Y21 load 2 mul /Y22 load add 3 div
/X22 load /Y22 load curveto
} bd
/SSPD {
dup length /d exch dict def
{
/v exch def
/k exch def
currentpagedevice k known {
/cpdv currentpagedevice k get def
v cpdv ne {
/upd false def
/nullv v type /nulltype eq def
/nullcpdv cpdv type /nulltype eq def
nullv nullcpdv or
{
/upd true def
} {
/sametype v type cpdv type eq def
sametype {
v type /arraytype eq {
/vlen v length def
/cpdvlen cpdv length def
vlen cpdvlen eq {
0 1 vlen 1 sub {
/i exch def
/obj v i get def
/cpdobj cpdv i get def
obj cpdobj ne {
/upd true def
exit
} if
} for
} {
/upd true def
} ifelse
} {
v type /dicttype eq {
v {
/dv exch def
/dk exch def
/cpddv cpdv dk get def
dv cpddv ne {
/upd true def
exit
} if
} forall
} {
/upd true def
} ifelse
} ifelse
} if
} ifelse
upd true eq {
d k v put
} if
} if
} if
} forall
d length 0 gt {
d setpagedevice
} if
} bd
/RE { % /NewFontName [NewEncodingArray] /FontName RE -
  findfont dup length dict begin
  {
    1 index /FID ne
    {def} {pop pop} ifelse
  } forall
  /Encoding exch def
  /FontName 1 index def
  currentdict definefont pop
  end
} bind def
%%EndResource
%%BeginResource: procset (Apache XML Graphics EPS ProcSet) 1.0 0
%%Version: 1.0 0
%%Copyright: (Copyright 2002-2003 The Apache Software Foundation. License terms: http://www.apache.org/licenses/LICENSE-2.0)
/BeginEPSF { %def
/b4_Inc_state save def         % Save state for cleanup
/dict_count countdictstack def % Count objects on dict stack
/op_count count 1 sub def      % Count objects on operand stack
userdict begin                 % Push userdict on dict stack
/showpage { } def              % Redefine showpage, { } = null proc
0 setgray 0 setlinecap         % Prepare graphics state
1 setlinewidth 0 setlinejoin
10 setmiterlimit [ ] 0 setdash newpath
/languagelevel where           % If level not equal to 1 then
{pop languagelevel             % set strokeadjust and
1 ne                           % overprint to their defaults.
{false setstrokeadjust false setoverprint
} if
} if
} bd
/EndEPSF { %def
count op_count sub {pop} repeat            % Clean up stacks
countdictstack dict_count sub {end} repeat
b4_Inc_state restore
} bd
%%EndResource
%FOPBeginFontDict
%%IncludeResource: font Courier-Oblique
%%IncludeResource: font Courier-BoldOblique
%%IncludeResource: font Courier-Bold
%%IncludeResource: font ZapfDingbats
%%IncludeResource: font Symbol
%%IncludeResource: font Helvetica
%%IncludeResource: font Helvetica-Oblique
%%IncludeResource: font Helvetica-Bold
%%IncludeResource: font Helvetica-BoldOblique
%%IncludeResource: font Times-Roman
%%IncludeResource: font Times-Italic
%%IncludeResource: font Times-Bold
%%IncludeResource: font Times-BoldItalic
%%IncludeResource: font Courier
%FOPEndFontDict
%%BeginResource: encoding WinAnsiEncoding
/WinAnsiEncoding [
/.notdef /.notdef /.notdef /.notdef /.notdef
/.notdef /.notdef /.notdef /.notdef /.notdef
/.notdef /.notdef /.notdef /.notdef /.notdef
/.notdef /.notdef /.notdef /.notdef /.notdef
/.notdef /.notdef /.notdef /.notdef /.notdef
/.notdef /.notdef /.notdef /.notdef /.notdef
/.notdef /.notdef /space /exclam /quotedbl
/numbersign /dollar /percent /ampersand /quotesingle
/parenleft /parenright /asterisk /plus /comma
/hyphen /period /slash /zero /one
/two /three /four /five /six
/seven /eight /nine /colon /semicolon
/less /equal /greater /question /at
/A /B /C /D /E
/F /G /H /I /J
/K /L /M /N /O
/P /Q /R /S /T
/U /V /W /X /Y
/Z /bracketleft /backslash /bracketright /asciicircum
/underscore /quoteleft /a /b /c
/d /e /f /g /h
/i /j /k /l /m
/n /o /p /q /r
/s /t /u /v /w
/x /y /z /braceleft /bar
/braceright /asciitilde /bullet /Euro /bullet
/quotesinglbase /florin /quotedblbase /ellipsis /dagger
/daggerdbl /circumflex /perthousand /Scaron /guilsinglleft
/OE /bullet /Zcaron /bullet /bullet
/quoteleft /quoteright /quotedblleft /quotedblright /bullet
/endash /emdash /asciitilde /trademark /scaron
/guilsinglright /oe /bullet /zcaron /Ydieresis
/space /exclamdown /cent /sterling /currency
/yen /brokenbar /section /dieresis /copyright
/ordfeminine /guillemotleft /logicalnot /sfthyphen /registered
/macron /degree /plusminus /twosuperior /threesuperior
/acute /mu /paragraph /middot /cedilla
/onesuperior /ordmasculine /guillemotright /onequarter /onehalf
/threequarters /questiondown /Agrave /Aacute /Acircumflex
/Atilde /Adieresis /Aring /AE /Ccedilla
/Egrave /Eacute /Ecircumflex /Edieresis /Igrave
/Iacute /Icircumflex /Idieresis /Eth /Ntilde
/Ograve /Oacute /Ocircumflex /Otilde /Odieresis
/multiply /Oslash /Ugrave /Uacute /Ucircumflex
/Udieresis /Yacute /Thorn /germandbls /agrave
/aacute /acircumflex /atilde /adieresis /aring
/ae /ccedilla /egrave /eacute /ecircumflex
/edieresis /igrave /iacute /icircumflex /idieresis
/eth /ntilde /ograve /oacute /ocircumflex
/otilde /odieresis /divide /oslash /ugrave
/uacute /ucircumflex /udieresis /yacute /thorn
/ydieresis
] def
%%EndResource
%FOPBeginFontReencode
/Courier-Oblique findfont
dup length dict begin
  {1 index /FID ne {def} {pop pop} ifelse} forall
  /Encoding WinAnsiEncoding def
  currentdict
end
/Courier-Oblique exch definefont pop
/Courier-BoldOblique findfont
dup length dict begin
  {1 index /FID ne {def} {pop pop} ifelse} forall
  /Encoding WinAnsiEncoding def
  currentdict
end
/Courier-BoldOblique exch definefont pop
/Courier-Bold findfont
dup length dict begin
  {1 index /FID ne {def} {pop pop} ifelse} forall
  /Encoding WinAnsiEncoding def
  currentdict
end
/Courier-Bold exch definefont pop
/Helvetica findfont
dup length dict begin
  {1 index /FID ne {def} {pop pop} ifelse} forall
  /Encoding WinAnsiEncoding def
  currentdict
end
/Helvetica exch definefont pop
/Helvetica-Oblique findfont
dup length dict begin
  {1 index /FID ne {def} {pop pop} ifelse} forall
  /Encoding WinAnsiEncoding def
  currentdict
end
/Helvetica-Oblique exch definefont pop
/Helvetica-Bold findfont
dup length dict begin
  {1 index /FID ne {def} {pop pop} ifelse} forall
  /Encoding WinAnsiEncoding def
  currentdict
end
/Helvetica-Bold exch definefont pop
/Helvetica-BoldOblique findfont
dup length dict begin
  {1 index /FID ne {def} {pop pop} ifelse} forall
  /Encoding WinAnsiEncoding def
  currentdict
end
/Helvetica-BoldOblique exch definefont pop
/Times-Roman findfont
dup length dict begin
  {1 index /FID ne {def} {pop pop} ifelse} forall
  /Encoding WinAnsiEncoding def
  currentdict
end
/Times-Roman exch definefont pop
/Times-Italic findfont
dup length dict begin
  {1 index /FID ne {def} {pop pop} ifelse} forall
  /Encoding WinAnsiEncoding def
  currentdict
end
/Times-Italic exch definefont pop
/Times-Bold findfont
dup length dict begin
  {1 index /FID ne {def} {pop pop} ifelse} forall
  /Encoding WinAnsiEncoding def
  currentdict
end
/Times-Bold exch definefont pop
/Times-BoldItalic findfont
dup length dict begin
  {1 index /FID ne {def} {pop pop} ifelse} forall
  /Encoding WinAnsiEncoding def
  currentdict
end
/Times-BoldItalic exch definefont pop
/Courier findfont
dup length dict begin
  {1 index /FID ne {def} {pop pop} ifelse} forall
  /Encoding WinAnsiEncoding def
  currentdict
end
/Courier exch definefont pop
%FOPEndFontReencode
%%EndProlog
%%Page: 1 1
%%PageBoundingBox: 0 0 1120 840
%%BeginPageSetup
[1 0 0 -1 0 840] CT
%%EndPageSetup
GS
1 GC
N
0 0 1120 840 re
f
GR
GS
1 GC
N
73 374 M
507 374 L
507 31.5 L
73 31.5 L
cp
f
GR
GS
0.149 GC
2 setlinecap
1 LJ
0.5 LW
N
73 374 M
507 374 L
S
GR
GS
0.149 GC
2 setlinecap
1 LJ
0.5 LW
N
73 31.5 M
507 31.5 L
S
GR
GS
0.149 GC
2 setlinecap
1 LJ
0.5 LW
N
116.995 374 M
116.995 369.66 L
S
GR
GS
0.149 GC
2 setlinecap
1 LJ
0.5 LW
N
190.68 374 M
190.68 369.66 L
S
GR
GS
0.149 GC
2 setlinecap
1 LJ
0.5 LW
N
264.365 374 M
264.365 369.66 L
S
GR
GS
0.149 GC
2 setlinecap
1 LJ
0.5 LW
N
338.05 374 M
338.05 369.66 L
S
GR
GS
0.149 GC
2 setlinecap
1 LJ
0.5 LW
N
411.735 374 M
411.735 369.66 L
S
GR
GS
0.149 GC
2 setlinecap
1 LJ
0.5 LW
N
485.42 374 M
485.42 369.66 L
S
GR
GS
0.149 GC
2 setlinecap
1 LJ
0.5 LW
N
116.995 31.5 M
116.995 35.84 L
S
GR
GS
0.149 GC
2 setlinecap
1 LJ
0.5 LW
N
190.68 31.5 M
190.68 35.84 L
S
GR
GS
0.149 GC
2 setlinecap
1 LJ
0.5 LW
N
264.365 31.5 M
264.365 35.84 L
S
GR
GS
0.149 GC
2 setlinecap
1 LJ
0.5 LW
N
338.05 31.5 M
338.05 35.84 L
S
GR
GS
0.149 GC
2 setlinecap
1 LJ
0.5 LW
N
411.735 31.5 M
411.735 35.84 L
S
GR
GS
0.149 GC
2 setlinecap
1 LJ
0.5 LW
N
485.42 31.5 M
485.42 35.84 L
S
GR
GS
0.149 GC
2 setlinecap
1 LJ
0.5 LW
N
87.521 374 M
87.521 371.83 L
S
GR
GS
0.149 GC
2 setlinecap
1 LJ
0.5 LW
N
102.258 374 M
102.258 371.83 L
S
GR
GS
0.149 GC
2 setlinecap
1 LJ
0.5 LW
N
131.732 374 M
131.732 371.83 L
S
GR
GS
0.149 GC
2 setlinecap
1 LJ
0.5 LW
N
146.469 374 M
146.469 371.83 L
S
GR
GS
0.149 GC
2 setlinecap
1 LJ
0.5 LW
N
161.206 374 M
161.206 371.83 L
S
GR
GS
0.149 GC
2 setlinecap
1 LJ
0.5 LW
N
175.943 374 M
175.943 371.83 L
S
GR
GS
0.149 GC
2 setlinecap
1 LJ
0.5 LW
N
205.417 374 M
205.417 371.83 L
S
GR
GS
0.149 GC
2 setlinecap
1 LJ
0.5 LW
N
220.154 374 M
220.154 371.83 L
S
GR
GS
0.149 GC
2 setlinecap
1 LJ
0.5 LW
N
234.891 374 M
234.891 371.83 L
S
GR
GS
0.149 GC
2 setlinecap
1 LJ
0.5 LW
N
249.628 374 M
249.628 371.83 L
S
GR
GS
0.149 GC
2 setlinecap
1 LJ
0.5 LW
N
279.102 374 M
279.102 371.83 L
S
GR
GS
0.149 GC
2 setlinecap
1 LJ
0.5 LW
N
293.839 374 M
293.839 371.83 L
S
GR
GS
0.149 GC
2 setlinecap
1 LJ
0.5 LW
N
308.576 374 M
308.576 371.83 L
S
GR
GS
0.149 GC
2 setlinecap
1 LJ
0.5 LW
N
323.313 374 M
323.313 371.83 L
S
GR
GS
0.149 GC
2 setlinecap
1 LJ
0.5 LW
N
352.787 374 M
352.787 371.83 L
S
GR
GS
0.149 GC
2 setlinecap
1 LJ
0.5 LW
N
367.524 374 M
367.524 371.83 L
S
GR
GS
0.149 GC
2 setlinecap
1 LJ
0.5 LW
N
382.261 374 M
382.261 371.83 L
S
GR
GS
0.149 GC
2 setlinecap
1 LJ
0.5 LW
N
396.998 374 M
396.998 371.83 L
S
GR
GS
0.149 GC
2 setlinecap
1 LJ
0.5 LW
N
426.472 374 M
426.472 371.83 L
S
GR
GS
0.149 GC
2 setlinecap
1 LJ
0.5 LW
N
441.209 374 M
441.209 371.83 L
S
GR
GS
0.149 GC
2 setlinecap
1 LJ
0.5 LW
N
455.946 374 M
455.946 371.83 L
S
GR
GS
0.149 GC
2 setlinecap
1 LJ
0.5 LW
N
470.683 374 M
470.683 371.83 L
S
GR
GS
0.149 GC
2 setlinecap
1 LJ
0.5 LW
N
500.157 374 M
500.157 371.83 L
S
GR
GS
0.149 GC
2 setlinecap
1 LJ
0.5 LW
N
87.521 31.5 M
87.521 33.67 L
S
GR
GS
0.149 GC
2 setlinecap
1 LJ
0.5 LW
N
102.258 31.5 M
102.258 33.67 L
S
GR
GS
0.149 GC
2 setlinecap
1 LJ
0.5 LW
N
131.732 31.5 M
131.732 33.67 L
S
GR
GS
0.149 GC
2 setlinecap
1 LJ
0.5 LW
N
146.469 31.5 M
146.469 33.67 L
S
GR
GS
0.149 GC
2 setlinecap
1 LJ
0.5 LW
N
161.206 31.5 M
161.206 33.67 L
S
GR
GS
0.149 GC
2 setlinecap
1 LJ
0.5 LW
N
175.943 31.5 M
175.943 33.67 L
S
GR
GS
0.149 GC
2 setlinecap
1 LJ
0.5 LW
N
205.417 31.5 M
205.417 33.67 L
S
GR
GS
0.149 GC
2 setlinecap
1 LJ
0.5 LW
N
220.154 31.5 M
220.154 33.67 L
S
GR
GS
0.149 GC
2 setlinecap
1 LJ
0.5 LW
N
234.891 31.5 M
234.891 33.67 L
S
GR
GS
0.149 GC
2 setlinecap
1 LJ
0.5 LW
N
249.628 31.5 M
249.628 33.67 L
S
GR
GS
0.149 GC
2 setlinecap
1 LJ
0.5 LW
N
279.102 31.5 M
279.102 33.67 L
S
GR
GS
0.149 GC
2 setlinecap
1 LJ
0.5 LW
N
293.839 31.5 M
293.839 33.67 L
S
GR
GS
0.149 GC
2 setlinecap
1 LJ
0.5 LW
N
308.576 31.5 M
308.576 33.67 L
S
GR
GS
0.149 GC
2 setlinecap
1 LJ
0.5 LW
N
323.313 31.5 M
323.313 33.67 L
S
GR
GS
0.149 GC
2 setlinecap
1 LJ
0.5 LW
N
352.787 31.5 M
352.787 33.67 L
S
GR
GS
0.149 GC
2 setlinecap
1 LJ
0.5 LW
N
367.524 31.5 M
367.524 33.67 L
S
GR
GS
0.149 GC
2 setlinecap
1 LJ
0.5 LW
N
382.261 31.5 M
382.261 33.67 L
S
GR
GS
0.149 GC
2 setlinecap
1 LJ
0.5 LW
N
396.998 31.5 M
396.998 33.67 L
S
GR
GS
0.149 GC
2 setlinecap
1 LJ
0.5 LW
N
426.472 31.5 M
426.472 33.67 L
S
GR
GS
0.149 GC
2 setlinecap
1 LJ
0.5 LW
N
441.209 31.5 M
441.209 33.67 L
S
GR
GS
0.149 GC
2 setlinecap
1 LJ
0.5 LW
N
455.946 31.5 M
455.946 33.67 L
S
GR
GS
0.149 GC
2 setlinecap
1 LJ
0.5 LW
N
470.683 31.5 M
470.683 33.67 L
S
GR
GS
0.149 GC
2 setlinecap
1 LJ
0.5 LW
N
500.157 31.5 M
500.157 33.67 L
S
GR
GS
[1 0 0 1 116.99512 378.80005] CT
0.149 GC
/Helvetica 14 F
GS
[1 0 0 1 0 0] CT
-16 14 moveto 
1 -1 scale
(1000) t 
GR
GR
GS
[1 0 0 1 190.68007 378.80005] CT
0.149 GC
/Helvetica 14 F
GS
[1 0 0 1 0 0] CT
-16 14 moveto 
1 -1 scale
(2000) t 
GR
GR
GS
[1 0 0 1 264.36502 378.80005] CT
0.149 GC
/Helvetica 14 F
GS
[1 0 0 1 0 0] CT
-16 14 moveto 
1 -1 scale
(3000) t 
GR
GR
GS
[1 0 0 1 338.04996 378.80005] CT
0.149 GC
/Helvetica 14 F
GS
[1 0 0 1 0 0] CT
-16 14 moveto 
1 -1 scale
(4000) t 
GR
GR
GS
[1 0 0 1 411.73489 378.80005] CT
0.149 GC
/Helvetica 14 F
GS
[1 0 0 1 0 0] CT
-16 14 moveto 
1 -1 scale
(5000) t 
GR
GR
GS
[1 0 0 1 485.41983 378.80005] CT
0.149 GC
/Helvetica 14 F
GS
[1 0 0 1 0 0] CT
-16 14 moveto 
1 -1 scale
(6000) t 
GR
GR
GS
[1 0 0 1 290.00021 396.30002] CT
0.149 GC
/Helvetica 15.4 F
GS
[1 0 0 1 0 0] CT
-42 15 moveto 
1 -1 scale
(Bitrate\(kb/s\)) t 
GR
GR
GS
0.149 GC
2 setlinecap
1 LJ
0.5 LW
N
73 374 M
73 31.5 L
S
GR
GS
0.149 GC
2 setlinecap
1 LJ
0.5 LW
N
507 374 M
507 31.5 L
S
GR
GS
0.149 GC
2 setlinecap
1 LJ
0.5 LW
N
73 339.438 M
77.34 339.438 L
S
GR
GS
0.149 GC
2 setlinecap
1 LJ
0.5 LW
N
73 289.082 M
77.34 289.082 L
S
GR
GS
0.149 GC
2 setlinecap
1 LJ
0.5 LW
N
73 238.727 M
77.34 238.727 L
S
GR
GS
0.149 GC
2 setlinecap
1 LJ
0.5 LW
N
73 188.371 M
77.34 188.371 L
S
GR
GS
0.149 GC
2 setlinecap
1 LJ
0.5 LW
N
73 138.016 M
77.34 138.016 L
S
GR
GS
0.149 GC
2 setlinecap
1 LJ
0.5 LW
N
73 87.66 M
77.34 87.66 L
S
GR
GS
0.149 GC
2 setlinecap
1 LJ
0.5 LW
N
73 37.305 M
77.34 37.305 L
S
GR
GS
0.149 GC
2 setlinecap
1 LJ
0.5 LW
N
507 339.438 M
502.66 339.438 L
S
GR
GS
0.149 GC
2 setlinecap
1 LJ
0.5 LW
N
507 289.082 M
502.66 289.082 L
S
GR
GS
0.149 GC
2 setlinecap
1 LJ
0.5 LW
N
507 238.727 M
502.66 238.727 L
S
GR
GS
0.149 GC
2 setlinecap
1 LJ
0.5 LW
N
507 188.371 M
502.66 188.371 L
S
GR
GS
0.149 GC
2 setlinecap
1 LJ
0.5 LW
N
507 138.016 M
502.66 138.016 L
S
GR
GS
0.149 GC
2 setlinecap
1 LJ
0.5 LW
N
507 87.66 M
502.66 87.66 L
S
GR
GS
0.149 GC
2 setlinecap
1 LJ
0.5 LW
N
507 37.305 M
502.66 37.305 L
S
GR
GS
0.149 GC
2 setlinecap
1 LJ
0.5 LW
N
73 369.651 M
75.17 369.651 L
S
GR
GS
0.149 GC
2 setlinecap
1 LJ
0.5 LW
N
73 359.58 M
75.17 359.58 L
S
GR
GS
0.149 GC
2 setlinecap
1 LJ
0.5 LW
N
73 349.509 M
75.17 349.509 L
S
GR
GS
0.149 GC
2 setlinecap
1 LJ
0.5 LW
N
73 329.367 M
75.17 329.367 L
S
GR
GS
0.149 GC
2 setlinecap
1 LJ
0.5 LW
N
73 319.296 M
75.17 319.296 L
S
GR
GS
0.149 GC
2 setlinecap
1 LJ
0.5 LW
N
73 309.225 M
75.17 309.225 L
S
GR
GS
0.149 GC
2 setlinecap
1 LJ
0.5 LW
N
73 299.154 M
75.17 299.154 L
S
GR
GS
0.149 GC
2 setlinecap
1 LJ
0.5 LW
N
73 279.011 M
75.17 279.011 L
S
GR
GS
0.149 GC
2 setlinecap
1 LJ
0.5 LW
N
73 268.94 M
75.17 268.94 L
S
GR
GS
0.149 GC
2 setlinecap
1 LJ
0.5 LW
N
73 258.869 M
75.17 258.869 L
S
GR
GS
0.149 GC
2 setlinecap
1 LJ
0.5 LW
N
73 248.798 M
75.17 248.798 L
S
GR
GS
0.149 GC
2 setlinecap
1 LJ
0.5 LW
N
73 228.656 M
75.17 228.656 L
S
GR
GS
0.149 GC
2 setlinecap
1 LJ
0.5 LW
N
73 218.585 M
75.17 218.585 L
S
GR
GS
0.149 GC
2 setlinecap
1 LJ
0.5 LW
N
73 208.513 M
75.17 208.513 L
S
GR
GS
0.149 GC
2 setlinecap
1 LJ
0.5 LW
N
73 198.442 M
75.17 198.442 L
S
GR
GS
0.149 GC
2 setlinecap
1 LJ
0.5 LW
N
73 178.3 M
75.17 178.3 L
S
GR
GS
0.149 GC
2 setlinecap
1 LJ
0.5 LW
N
73 168.229 M
75.17 168.229 L
S
GR
GS
0.149 GC
2 setlinecap
1 LJ
0.5 LW
N
73 158.158 M
75.17 158.158 L
S
GR
GS
0.149 GC
2 setlinecap
1 LJ
0.5 LW
N
73 148.087 M
75.17 148.087 L
S
GR
GS
0.149 GC
2 setlinecap
1 LJ
0.5 LW
N
73 127.944 M
75.17 127.944 L
S
GR
GS
0.149 GC
2 setlinecap
1 LJ
0.5 LW
N
73 117.873 M
75.17 117.873 L
S
GR
GS
0.149 GC
2 setlinecap
1 LJ
0.5 LW
N
73 107.802 M
75.17 107.802 L
S
GR
GS
0.149 GC
2 setlinecap
1 LJ
0.5 LW
N
73 97.731 M
75.17 97.731 L
S
GR
GS
0.149 GC
2 setlinecap
1 LJ
0.5 LW
N
73 77.589 M
75.17 77.589 L
S
GR
GS
0.149 GC
2 setlinecap
1 LJ
0.5 LW
N
73 67.518 M
75.17 67.518 L
S
GR
GS
0.149 GC
2 setlinecap
1 LJ
0.5 LW
N
73 57.447 M
75.17 57.447 L
S
GR
GS
0.149 GC
2 setlinecap
1 LJ
0.5 LW
N
73 47.376 M
75.17 47.376 L
S
GR
GS
0.149 GC
2 setlinecap
1 LJ
0.5 LW
N
507 369.651 M
504.83 369.651 L
S
GR
GS
0.149 GC
2 setlinecap
1 LJ
0.5 LW
N
507 359.58 M
504.83 359.58 L
S
GR
GS
0.149 GC
2 setlinecap
1 LJ
0.5 LW
N
507 349.509 M
504.83 349.509 L
S
GR
GS
0.149 GC
2 setlinecap
1 LJ
0.5 LW
N
507 329.367 M
504.83 329.367 L
S
GR
GS
0.149 GC
2 setlinecap
1 LJ
0.5 LW
N
507 319.296 M
504.83 319.296 L
S
GR
GS
0.149 GC
2 setlinecap
1 LJ
0.5 LW
N
507 309.225 M
504.83 309.225 L
S
GR
GS
0.149 GC
2 setlinecap
1 LJ
0.5 LW
N
507 299.154 M
504.83 299.154 L
S
GR
GS
0.149 GC
2 setlinecap
1 LJ
0.5 LW
N
507 279.011 M
504.83 279.011 L
S
GR
GS
0.149 GC
2 setlinecap
1 LJ
0.5 LW
N
507 268.94 M
504.83 268.94 L
S
GR
GS
0.149 GC
2 setlinecap
1 LJ
0.5 LW
N
507 258.869 M
504.83 258.869 L
S
GR
GS
0.149 GC
2 setlinecap
1 LJ
0.5 LW
N
507 248.798 M
504.83 248.798 L
S
GR
GS
0.149 GC
2 setlinecap
1 LJ
0.5 LW
N
507 228.656 M
504.83 228.656 L
S
GR
GS
0.149 GC
2 setlinecap
1 LJ
0.5 LW
N
507 218.585 M
504.83 218.585 L
S
GR
GS
0.149 GC
2 setlinecap
1 LJ
0.5 LW
N
507 208.513 M
504.83 208.513 L
S
GR
GS
0.149 GC
2 setlinecap
1 LJ
0.5 LW
N
507 198.442 M
504.83 198.442 L
S
GR
GS
0.149 GC
2 setlinecap
1 LJ
0.5 LW
N
507 178.3 M
504.83 178.3 L
S
GR
GS
0.149 GC
2 setlinecap
1 LJ
0.5 LW
N
507 168.229 M
504.83 168.229 L
S
GR
GS
0.149 GC
2 setlinecap
1 LJ
0.5 LW
N
507 158.158 M
504.83 158.158 L
S
GR
GS
0.149 GC
2 setlinecap
1 LJ
0.5 LW
N
507 148.087 M
504.83 148.087 L
S
GR
GS
0.149 GC
2 setlinecap
1 LJ
0.5 LW
N
507 127.944 M
504.83 127.944 L
S
GR
GS
0.149 GC
2 setlinecap
1 LJ
0.5 LW
N
507 117.873 M
504.83 117.873 L
S
GR
GS
0.149 GC
2 setlinecap
1 LJ
0.5 LW
N
507 107.802 M
504.83 107.802 L
S
GR
GS
0.149 GC
2 setlinecap
1 LJ
0.5 LW
N
507 97.731 M
504.83 97.731 L
S
GR
GS
0.149 GC
2 setlinecap
1 LJ
0.5 LW
N
507 77.589 M
504.83 77.589 L
S
GR
GS
0.149 GC
2 setlinecap
1 LJ
0.5 LW
N
507 67.518 M
504.83 67.518 L
S
GR
GS
0.149 GC
2 setlinecap
1 LJ
0.5 LW
N
507 57.447 M
504.83 57.447 L
S
GR
GS
0.149 GC
2 setlinecap
1 LJ
0.5 LW
N
507 47.376 M
504.83 47.376 L
S
GR
GS
[1 0 0 1 68.2 339.4379] CT
0.149 GC
/Helvetica 14 F
GS
[1 0 0 1 0 0] CT
-16 5.5 moveto 
1 -1 scale
(16) t 
GR
GR
GS
[1 0 0 1 68.2 289.08234] CT
0.149 GC
/Helvetica 14 F
GS
[1 0 0 1 0 0] CT
-16 5.5 moveto 
1 -1 scale
(17) t 
GR
GR
GS
[1 0 0 1 68.2 238.72678] CT
0.149 GC
/Helvetica 14 F
GS
[1 0 0 1 0 0] CT
-16 5.5 moveto 
1 -1 scale
(18) t 
GR
GR
GS
[1 0 0 1 68.2 188.37122] CT
0.149 GC
/Helvetica 14 F
GS
[1 0 0 1 0 0] CT
-16 5.5 moveto 
1 -1 scale
(19) t 
GR
GR
GS
[1 0 0 1 68.2 138.01566] CT
0.149 GC
/Helvetica 14 F
GS
[1 0 0 1 0 0] CT
-16 5.5 moveto 
1 -1 scale
(20) t 
GR
GR
GS
[1 0 0 1 68.2 87.66009] CT
0.149 GC
/Helvetica 14 F
GS
[1 0 0 1 0 0] CT
-16 5.5 moveto 
1 -1 scale
(21) t 
GR
GR
GS
[1 0 0 1 68.2 37.30452] CT
0.149 GC
/Helvetica 14 F
GS
[1 0 0 1 0 0] CT
-16 5.5 moveto 
1 -1 scale
(22) t 
GR
GR
GS
[0 -1 1 0 49.2 202.74982] CT
0.149 GC
/Helvetica 15.4 F
GS
[1 0 0 1 0 0] CT
-49.5 -4 moveto 
1 -1 scale
(MS-SSIM \(dB\)) t 
GR
GR
GS
[1 0 0 1 290.00027 29.57496] CT
/Helvetica-Bold 15.4 F
GS
[1 0 0 1 0 0] CT
-113 -4 moveto 
1 -1 scale
(Lecture_1080P-3ce0.y4m-hevc) t 
GR
GR
GS
0 0.447 0.741 RC
1 LJ
0.5 LW
N
73.09 373.463 M
74.564 365.343 L
76.037 357.301 L
77.511 349.366 L
78.985 341.57 L
80.459 333.943 L
81.932 326.515 L
83.406 319.316 L
84.88 312.378 L
86.353 305.73 L
87.827 299.404 L
89.301 293.429 L
90.774 287.835 L
92.248 282.655 L
93.722 277.916 L
95.195 273.461 L
96.669 269.136 L
98.143 264.938 L
99.617 260.864 L
101.09 256.911 L
102.564 253.075 L
104.038 249.352 L
105.511 245.741 L
106.985 242.237 L
108.459 238.837 L
109.932 235.539 L
111.406 232.337 L
112.88 229.231 L
114.354 226.215 L
115.827 223.287 L
117.301 220.443 L
118.775 217.681 L
120.248 214.996 L
121.722 212.387 L
123.196 209.848 L
124.669 207.378 L
126.143 204.973 L
127.617 202.629 L
129.091 200.343 L
130.564 198.102 L
132.038 195.88 L
133.512 193.675 L
134.985 191.488 L
136.459 189.321 L
137.933 187.172 L
139.406 185.044 L
140.88 182.936 L
142.354 180.848 L
143.828 178.782 L
145.301 176.738 L
146.775 174.716 L
148.249 172.717 L
149.722 170.741 L
151.196 168.789 L
152.67 166.862 L
154.143 164.96 L
155.617 163.082 L
157.091 161.231 L
158.565 159.406 L
160.038 157.608 L
161.512 155.838 L
162.986 154.096 L
164.459 152.381 L
165.933 150.696 L
167.407 149.041 L
168.88 147.415 L
170.354 145.82 L
171.828 144.255 L
173.302 142.723 L
174.775 141.222 L
176.249 139.754 L
177.723 138.319 L
179.196 136.917 L
180.67 135.549 L
182.144 134.216 L
183.617 132.918 L
185.091 131.656 L
186.565 130.429 L
188.039 129.239 L
189.512 128.086 L
190.986 126.971 L
192.46 125.894 L
193.933 124.855 L
195.407 123.856 L
196.881 122.896 L
198.354 121.977 L
199.828 121.098 L
201.302 120.26 L
202.776 119.456 L
204.249 118.659 L
205.723 117.864 L
207.197 117.072 L
208.67 116.282 L
210.144 115.496 L
211.618 114.711 L
213.091 113.93 L
214.565 113.151 L
216.039 112.376 L
217.512 111.603 L
218.986 110.833 L
220.46 110.066 L
221.934 109.301 L
223.407 108.54 L
224.881 107.782 L
226.355 107.026 L
227.828 106.274 L
229.302 105.525 L
230.776 104.779 L
232.249 104.035 L
233.723 103.296 L
235.197 102.559 L
236.671 101.825 L
238.144 101.095 L
239.618 100.368 L
241.092 99.644 L
242.565 98.923 L
244.039 98.206 L
245.513 97.492 L
246.986 96.781 L
248.46 96.074 L
249.934 95.371 L
251.408 94.67 L
252.881 93.974 L
254.355 93.28 L
255.829 92.59 L
257.302 91.904 L
258.776 91.222 L
260.25 90.543 L
261.723 89.868 L
263.197 89.196 L
264.671 88.528 L
266.145 87.864 L
267.618 87.203 L
269.092 86.547 L
270.566 85.894 L
272.039 85.245 L
273.513 84.599 L
274.987 83.958 L
276.46 83.321 L
277.934 82.687 L
279.408 82.058 L
280.882 81.432 L
282.355 80.811 L
283.829 80.193 L
285.303 79.58 L
286.776 78.971 L
288.25 78.366 L
289.724 77.765 L
291.197 77.168 L
292.671 76.575 L
294.145 75.987 L
295.619 75.403 L
297.092 74.823 L
298.566 74.248 L
300.04 73.677 L
301.513 73.11 L
302.987 72.548 L
304.461 71.99 L
305.934 71.436 L
307.408 70.887 L
308.882 70.343 L
310.356 69.803 L
311.829 69.267 L
313.303 68.737 L
314.777 68.21 L
316.25 67.689 L
317.724 67.172 L
319.198 66.66 L
320.671 66.152 L
322.145 65.65 L
323.619 65.152 L
325.093 64.658 L
326.566 64.17 L
328.04 63.687 L
329.514 63.208 L
330.987 62.734 L
332.461 62.266 L
333.935 61.802 L
335.408 61.343 L
336.882 60.889 L
338.356 60.44 L
339.829 59.997 L
341.303 59.558 L
342.777 59.125 L
344.251 58.697 L
345.724 58.273 L
347.198 57.855 L
348.672 57.443 L
350.145 57.035 L
351.619 56.633 L
353.093 56.237 L
354.566 55.845 L
356.04 55.459 L
357.514 55.078 L
358.988 54.703 L
360.461 54.333 L
361.935 53.969 L
363.409 53.61 L
364.882 53.256 L
366.356 52.909 L
367.83 52.566 L
369.303 52.23 L
370.777 51.899 L
372.251 51.574 L
373.725 51.254 L
375.198 50.94 L
376.672 50.632 L
378.146 50.33 L
379.619 50.033 L
381.093 49.742 L
382.567 49.457 L
384.04 49.178 L
385.514 48.905 L
386.988 48.638 L
388.462 48.377 L
389.935 48.122 L
391.409 47.872 L
392.883 47.629 L
394.356 47.392 L
395.83 47.161 L
397.304 46.936 L
398.777 46.717 L
400.251 46.505 L
401.725 46.298 L
403.199 46.098 L
404.672 45.904 L
406.146 45.717 L
407.62 45.535 L
409.093 45.36 L
410.567 45.192 L
412.041 45.029 L
413.514 44.874 L
414.988 44.724 L
416.462 44.581 L
417.936 44.445 L
419.409 44.315 L
420.883 44.192 L
422.357 44.075 L
423.83 43.965 L
425.304 43.861 L
426.778 43.764 L
428.251 43.674 L
429.725 43.591 L
431.199 43.514 L
432.673 43.444 L
434.146 43.381 L
435.62 43.325 L
437.094 43.275 L
438.567 43.232 L
440.041 43.197 L
441.515 43.168 L
442.988 43.146 L
444.462 43.131 L
445.936 43.123 L
S
GR
GS
0.851 0.325 0.098 RC
1 LJ
0.5 LW
N
75.206 360.257 M
76.68 352.786 L
78.154 345.38 L
79.627 338.066 L
81.101 330.868 L
82.575 323.811 L
84.048 316.921 L
85.522 310.224 L
86.996 303.743 L
88.47 297.505 L
89.943 291.535 L
91.417 285.858 L
92.891 280.498 L
94.364 275.483 L
95.838 270.836 L
97.312 266.57 L
98.785 262.492 L
100.259 258.527 L
101.733 254.67 L
103.207 250.921 L
104.68 247.275 L
106.154 243.731 L
107.628 240.287 L
109.101 236.939 L
110.575 233.685 L
112.049 230.523 L
113.522 227.45 L
114.996 224.464 L
116.47 221.562 L
117.944 218.741 L
119.417 215.999 L
120.891 213.334 L
122.365 210.743 L
123.838 208.224 L
125.312 205.773 L
126.786 203.389 L
128.259 201.068 L
129.733 198.809 L
131.207 196.609 L
132.68 194.465 L
134.154 192.375 L
135.628 190.33 L
137.102 188.302 L
138.575 186.289 L
140.049 184.292 L
141.523 182.312 L
142.996 180.347 L
144.47 178.399 L
145.944 176.468 L
147.417 174.555 L
148.891 172.659 L
150.365 170.782 L
151.839 168.923 L
153.312 167.082 L
154.786 165.261 L
156.26 163.46 L
157.733 161.678 L
159.207 159.916 L
160.681 158.175 L
162.154 156.455 L
163.628 154.757 L
165.102 153.079 L
166.576 151.424 L
168.049 149.791 L
169.523 148.181 L
170.997 146.594 L
172.47 145.03 L
173.944 143.49 L
175.418 141.974 L
176.891 140.482 L
178.365 139.015 L
179.839 137.573 L
181.313 136.157 L
182.786 134.766 L
184.26 133.402 L
185.734 132.064 L
187.207 130.753 L
188.681 129.469 L
190.155 128.213 L
191.628 126.985 L
193.102 125.784 L
194.576 124.613 L
196.05 123.47 L
197.523 122.357 L
198.997 121.273 L
200.471 120.22 L
201.944 119.197 L
203.418 118.204 L
204.892 117.243 L
206.365 116.313 L
207.839 115.414 L
209.313 114.548 L
210.787 113.714 L
212.26 112.913 L
213.734 112.146 L
215.208 111.411 L
216.681 110.703 L
218.155 109.998 L
219.629 109.295 L
221.102 108.594 L
222.576 107.895 L
224.05 107.199 L
225.524 106.504 L
226.997 105.812 L
228.471 105.122 L
229.945 104.434 L
231.418 103.749 L
232.892 103.066 L
234.366 102.385 L
235.839 101.706 L
237.313 101.03 L
238.787 100.355 L
240.261 99.684 L
241.734 99.014 L
243.208 98.347 L
244.682 97.683 L
246.155 97.02 L
247.629 96.36 L
249.103 95.703 L
250.576 95.048 L
252.05 94.395 L
253.524 93.745 L
254.997 93.097 L
256.471 92.452 L
257.945 91.809 L
259.419 91.169 L
260.892 90.532 L
262.366 89.897 L
263.84 89.264 L
265.313 88.634 L
266.787 88.007 L
268.261 87.382 L
269.734 86.76 L
271.208 86.141 L
272.682 85.524 L
274.156 84.91 L
275.629 84.298 L
277.103 83.69 L
278.577 83.084 L
280.05 82.48 L
281.524 81.88 L
282.998 81.282 L
284.471 80.687 L
285.945 80.095 L
287.419 79.505 L
288.893 78.919 L
290.366 78.335 L
291.84 77.754 L
293.314 77.176 L
294.787 76.601 L
296.261 76.029 L
297.735 75.46 L
299.208 74.893 L
300.682 74.33 L
302.156 73.769 L
303.63 73.212 L
305.103 72.657 L
306.577 72.106 L
308.051 71.557 L
309.524 71.012 L
310.998 70.469 L
312.472 69.93 L
313.945 69.393 L
315.419 68.86 L
316.893 68.33 L
318.367 67.803 L
319.84 67.279 L
321.314 66.759 L
322.788 66.241 L
324.261 65.727 L
325.735 65.216 L
327.209 64.708 L
328.682 64.203 L
330.156 63.702 L
331.63 63.203 L
333.104 62.708 L
334.577 62.217 L
336.051 61.728 L
337.525 61.243 L
338.998 60.762 L
340.472 60.283 L
341.946 59.808 L
343.419 59.337 L
344.893 58.869 L
346.367 58.404 L
347.841 57.942 L
349.314 57.484 L
350.788 57.03 L
352.262 56.579 L
353.735 56.131 L
355.209 55.687 L
356.683 55.247 L
358.156 54.81 L
359.63 54.376 L
361.104 53.947 L
362.578 53.52 L
364.051 53.097 L
365.525 52.678 L
366.999 52.263 L
368.472 51.851 L
369.946 51.443 L
371.42 51.038 L
372.893 50.637 L
374.367 50.24 L
375.841 49.847 L
377.314 49.457 L
378.788 49.071 L
380.262 48.688 L
381.736 48.31 L
383.209 47.935 L
384.683 47.564 L
386.157 47.197 L
387.63 46.834 L
389.104 46.474 L
390.578 46.119 L
392.051 45.767 L
393.525 45.419 L
394.999 45.075 L
396.473 44.735 L
397.946 44.399 L
399.42 44.067 L
400.894 43.739 L
402.367 43.415 L
403.841 43.095 L
405.315 42.778 L
406.788 42.466 L
408.262 42.158 L
409.736 41.854 L
411.21 41.554 L
412.683 41.258 L
414.157 40.966 L
415.631 40.679 L
417.104 40.395 L
418.578 40.116 L
420.052 39.84 L
421.525 39.569 L
422.999 39.302 L
424.473 39.04 L
425.947 38.781 L
427.42 38.527 L
428.894 38.277 L
430.368 38.031 L
431.841 37.79 L
433.315 37.553 L
434.789 37.32 L
436.262 37.091 L
437.736 36.867 L
439.21 36.647 L
440.684 36.432 L
442.157 36.22 L
443.631 36.014 L
445.105 35.811 L
446.578 35.614 L
448.052 35.42 L
449.526 35.231 L
450.999 35.047 L
452.473 34.867 L
453.947 34.691 L
455.421 34.52 L
456.894 34.354 L
458.368 34.192 L
459.842 34.035 L
461.315 33.882 L
462.789 33.734 L
464.263 33.59 L
465.736 33.451 L
467.21 33.317 L
468.684 33.187 L
470.158 33.062 L
471.631 32.942 L
473.105 32.827 L
474.579 32.716 L
476.052 32.61 L
477.526 32.508 L
479 32.412 L
480.473 32.32 L
481.947 32.233 L
483.421 32.151 L
484.895 32.073 L
486.368 32 L
487.842 31.933 L
489.316 31.87 L
490.789 31.812 L
492.263 31.759 L
493.737 31.71 L
495.21 31.667 L
496.684 31.629 L
498.158 31.595 L
499.632 31.567 L
501.105 31.544 L
502.579 31.525 L
504.053 31.512 L
505.526 31.503 L
507 31.5 L
S
GR
GS
0.929 0.694 0.125 RC
1 LJ
0.5 LW
N
74.704 363.736 M
76.178 356.152 L
77.652 348.637 L
79.125 341.218 L
80.599 333.92 L
82.073 326.769 L
83.546 319.789 L
85.02 313.007 L
86.494 306.448 L
87.968 300.136 L
89.441 294.098 L
90.915 288.359 L
92.389 282.944 L
93.862 277.88 L
95.336 273.19 L
96.81 268.87 L
98.283 264.711 L
99.757 260.668 L
101.231 256.738 L
102.705 252.918 L
104.178 249.204 L
105.652 245.596 L
107.126 242.089 L
108.599 238.681 L
110.073 235.37 L
111.547 232.152 L
113.02 229.025 L
114.494 225.986 L
115.968 223.033 L
117.442 220.162 L
118.915 217.371 L
120.389 214.657 L
121.863 212.018 L
123.336 209.45 L
124.81 206.951 L
126.284 204.519 L
127.757 202.15 L
129.231 199.842 L
130.705 197.592 L
132.179 195.397 L
133.652 193.252 L
135.126 191.13 L
136.6 189.023 L
138.073 186.932 L
139.547 184.857 L
141.021 182.798 L
142.494 180.757 L
143.968 178.733 L
145.442 176.727 L
146.916 174.74 L
148.389 172.772 L
149.863 170.823 L
151.337 168.895 L
152.81 166.986 L
154.284 165.099 L
155.758 163.233 L
157.231 161.388 L
158.705 159.566 L
160.179 157.767 L
161.653 155.991 L
163.126 154.238 L
164.6 152.51 L
166.074 150.806 L
167.547 149.128 L
169.021 147.475 L
170.495 145.847 L
171.968 144.247 L
173.442 142.673 L
174.916 141.127 L
176.389 139.608 L
177.863 138.119 L
179.337 136.657 L
180.811 135.225 L
182.284 133.823 L
183.758 132.451 L
185.232 131.11 L
186.705 129.8 L
188.179 128.522 L
189.653 127.275 L
191.126 126.062 L
192.6 124.881 L
194.074 123.734 L
195.548 122.62 L
197.021 121.542 L
198.495 120.498 L
199.969 119.489 L
201.442 118.517 L
202.916 117.58 L
204.39 116.681 L
205.863 115.818 L
207.337 114.994 L
208.811 114.207 L
210.285 113.456 L
211.758 112.713 L
213.232 111.972 L
214.706 111.234 L
216.179 110.498 L
217.653 109.765 L
219.127 109.034 L
220.6 108.306 L
222.074 107.581 L
223.548 106.858 L
225.022 106.138 L
226.495 105.42 L
227.969 104.705 L
229.443 103.992 L
230.916 103.283 L
232.39 102.576 L
233.864 101.871 L
235.337 101.17 L
236.811 100.471 L
238.285 99.775 L
239.759 99.082 L
241.232 98.392 L
242.706 97.705 L
244.18 97.02 L
245.653 96.339 L
247.127 95.66 L
248.601 94.985 L
250.074 94.312 L
251.548 93.642 L
253.022 92.976 L
254.496 92.312 L
255.969 91.652 L
257.443 90.994 L
258.917 90.34 L
260.39 89.689 L
261.864 89.041 L
263.338 88.396 L
264.811 87.754 L
266.285 87.116 L
267.759 86.481 L
269.233 85.849 L
270.706 85.22 L
272.18 84.595 L
273.654 83.973 L
275.127 83.354 L
276.601 82.739 L
278.075 82.127 L
279.548 81.518 L
281.022 80.913 L
282.496 80.312 L
283.97 79.713 L
285.443 79.119 L
286.917 78.528 L
288.391 77.94 L
289.864 77.356 L
291.338 76.776 L
292.812 76.199 L
294.285 75.626 L
295.759 75.056 L
297.233 74.49 L
298.706 73.928 L
300.18 73.37 L
301.654 72.815 L
303.128 72.264 L
304.601 71.717 L
306.075 71.173 L
307.549 70.634 L
309.022 70.098 L
310.496 69.566 L
311.97 69.038 L
313.443 68.514 L
314.917 67.994 L
316.391 67.478 L
317.865 66.966 L
319.338 66.457 L
320.812 65.953 L
322.286 65.453 L
323.759 64.957 L
325.233 64.465 L
326.707 63.977 L
328.18 63.493 L
329.654 63.014 L
331.128 62.538 L
332.602 62.067 L
334.075 61.6 L
335.549 61.137 L
337.023 60.678 L
338.496 60.224 L
339.97 59.774 L
341.444 59.328 L
342.917 58.887 L
344.391 58.45 L
345.865 58.018 L
347.339 57.589 L
348.812 57.166 L
350.286 56.746 L
351.76 56.332 L
353.233 55.921 L
354.707 55.516 L
356.181 55.114 L
357.654 54.717 L
359.128 54.325 L
360.602 53.938 L
362.076 53.555 L
363.549 53.177 L
365.023 52.803 L
366.497 52.434 L
367.97 52.07 L
369.444 51.71 L
370.918 51.356 L
372.391 51.006 L
373.865 50.661 L
375.339 50.32 L
376.813 49.985 L
378.286 49.654 L
379.76 49.329 L
381.234 49.008 L
382.707 48.692 L
384.181 48.381 L
385.655 48.075 L
387.128 47.774 L
388.602 47.478 L
390.076 47.187 L
391.55 46.901 L
393.023 46.62 L
394.497 46.345 L
395.971 46.074 L
397.444 45.808 L
398.918 45.548 L
400.392 45.293 L
401.865 45.043 L
403.339 44.799 L
404.813 44.559 L
406.287 44.325 L
407.76 44.096 L
409.234 43.873 L
410.708 43.654 L
412.181 43.442 L
413.655 43.234 L
415.129 43.032 L
416.602 42.835 L
418.076 42.644 L
419.55 42.459 L
421.023 42.278 L
422.497 42.104 L
423.971 41.934 L
425.445 41.771 L
426.918 41.613 L
428.392 41.46 L
429.866 41.313 L
431.339 41.172 L
432.813 41.037 L
434.287 40.907 L
435.76 40.783 L
437.234 40.664 L
438.708 40.552 L
440.182 40.445 L
441.655 40.344 L
443.129 40.248 L
444.603 40.159 L
446.076 40.075 L
447.55 39.997 L
449.024 39.926 L
450.497 39.86 L
451.971 39.8 L
453.445 39.746 L
454.919 39.698 L
456.392 39.656 L
457.866 39.62 L
459.34 39.59 L
460.813 39.566 L
462.287 39.548 L
463.761 39.537 L
465.234 39.531 L
S
GR
GS
0.494 0.184 0.557 RC
1 LJ
0.5 LW
N
73 374 M
74.474 365.86 L
75.947 357.798 L
77.421 349.845 L
78.895 342.031 L
80.368 334.386 L
81.842 326.943 L
83.316 319.73 L
84.79 312.78 L
86.263 306.121 L
87.737 299.786 L
89.211 293.805 L
90.684 288.208 L
92.158 283.025 L
93.632 278.287 L
95.105 273.818 L
96.579 269.48 L
98.053 265.27 L
99.527 261.184 L
101 257.22 L
102.474 253.374 L
103.948 249.642 L
105.421 246.021 L
106.895 242.508 L
108.369 239.099 L
109.842 235.792 L
111.316 232.582 L
112.79 229.467 L
114.264 226.442 L
115.737 223.505 L
117.211 220.653 L
118.685 217.881 L
120.158 215.187 L
121.632 212.567 L
123.106 210.018 L
124.579 207.537 L
126.053 205.12 L
127.527 202.763 L
129.001 200.464 L
130.474 198.205 L
131.948 195.964 L
133.422 193.741 L
134.895 191.536 L
136.369 189.35 L
137.843 187.183 L
139.316 185.036 L
140.79 182.91 L
142.264 180.805 L
143.738 178.722 L
145.211 176.661 L
146.685 174.622 L
148.159 172.607 L
149.632 170.615 L
151.106 168.648 L
152.58 166.706 L
154.053 164.789 L
155.527 162.898 L
157.001 161.033 L
158.475 159.195 L
159.948 157.385 L
161.422 155.604 L
162.896 153.85 L
164.369 152.126 L
165.843 150.432 L
167.317 148.768 L
168.79 147.135 L
170.264 145.533 L
171.738 143.963 L
173.212 142.425 L
174.685 140.921 L
176.159 139.45 L
177.633 138.013 L
179.106 136.61 L
180.58 135.243 L
182.054 133.911 L
183.527 132.616 L
185.001 131.357 L
186.475 130.136 L
187.949 128.953 L
189.422 127.808 L
190.896 126.701 L
192.37 125.635 L
193.843 124.608 L
195.317 123.622 L
196.791 122.677 L
198.264 121.773 L
199.738 120.912 L
201.212 120.091 L
202.686 119.282 L
204.159 118.475 L
205.633 117.671 L
207.107 116.869 L
208.58 116.07 L
210.054 115.275 L
211.528 114.482 L
213.001 113.692 L
214.475 112.904 L
215.949 112.12 L
217.422 111.339 L
218.896 110.561 L
220.37 109.785 L
221.844 109.013 L
223.317 108.244 L
224.791 107.478 L
226.265 106.715 L
227.738 105.955 L
229.212 105.199 L
230.686 104.446 L
232.159 103.696 L
233.633 102.949 L
235.107 102.206 L
236.581 101.466 L
238.054 100.729 L
239.528 99.996 L
241.002 99.266 L
242.475 98.54 L
243.949 97.818 L
245.423 97.098 L
246.896 96.383 L
248.37 95.671 L
249.844 94.963 L
251.318 94.258 L
252.791 93.557 L
254.265 92.86 L
255.739 92.166 L
257.212 91.476 L
258.686 90.79 L
260.16 90.108 L
261.633 89.43 L
263.107 88.756 L
264.581 88.086 L
266.055 87.419 L
267.528 86.757 L
269.002 86.098 L
270.476 85.444 L
271.949 84.794 L
273.423 84.148 L
274.897 83.506 L
276.37 82.868 L
277.844 82.234 L
279.318 81.605 L
280.792 80.98 L
282.265 80.359 L
283.739 79.743 L
285.213 79.131 L
286.686 78.523 L
288.16 77.92 L
289.634 77.321 L
291.107 76.727 L
292.581 76.137 L
294.055 75.552 L
295.529 74.971 L
297.002 74.395 L
298.476 73.823 L
299.95 73.256 L
301.423 72.694 L
302.897 72.137 L
304.371 71.584 L
305.844 71.036 L
307.318 70.493 L
308.792 69.955 L
310.266 69.421 L
311.739 68.893 L
313.213 68.369 L
314.687 67.851 L
316.16 67.337 L
317.634 66.829 L
319.108 66.325 L
320.581 65.827 L
322.055 65.333 L
323.529 64.845 L
325.003 64.362 L
326.476 63.884 L
327.95 63.412 L
329.424 62.945 L
330.897 62.483 L
332.371 62.026 L
333.845 61.575 L
335.318 61.129 L
336.792 60.688 L
338.266 60.253 L
339.74 59.824 L
341.213 59.399 L
342.687 58.981 L
344.161 58.568 L
345.634 58.161 L
347.108 57.759 L
348.582 57.363 L
350.055 56.972 L
351.529 56.588 L
353.003 56.209 L
354.476 55.835 L
355.95 55.468 L
357.424 55.106 L
358.898 54.751 L
360.371 54.401 L
361.845 54.057 L
363.319 53.719 L
364.792 53.387 L
366.266 53.062 L
367.74 52.742 L
369.213 52.428 L
370.687 52.12 L
372.161 51.819 L
373.635 51.524 L
375.108 51.235 L
376.582 50.952 L
378.056 50.675 L
379.529 50.405 L
381.003 50.141 L
382.477 49.883 L
383.95 49.632 L
385.424 49.387 L
386.898 49.148 L
388.372 48.917 L
389.845 48.691 L
391.319 48.472 L
392.793 48.26 L
394.266 48.054 L
395.74 47.855 L
397.214 47.662 L
398.687 47.477 L
400.161 47.298 L
401.635 47.125 L
403.109 46.96 L
404.582 46.801 L
406.056 46.649 L
407.53 46.504 L
409.003 46.366 L
410.477 46.235 L
411.951 46.11 L
413.424 45.993 L
414.898 45.883 L
416.372 45.78 L
417.846 45.683 L
419.319 45.594 L
420.793 45.512 L
422.267 45.438 L
423.74 45.37 L
425.214 45.31 L
426.688 45.257 L
428.161 45.211 L
429.635 45.173 L
431.109 45.142 L
432.583 45.118 L
434.056 45.102 L
435.53 45.093 L
S
GR
GS
0.467 0.675 0.188 RC
[10 6] 0 setdash
2 LJ
0.5 LW
N
75.13 360.651 M
76.604 353.205 L
78.078 345.823 L
79.551 338.531 L
81.025 331.352 L
82.499 324.311 L
83.972 317.432 L
85.446 310.74 L
86.92 304.26 L
88.394 298.015 L
89.867 292.03 L
91.341 286.33 L
92.815 280.938 L
94.288 275.88 L
95.762 271.18 L
97.236 266.858 L
98.709 262.749 L
100.183 258.75 L
101.657 254.857 L
103.131 251.07 L
104.604 247.385 L
106.078 243.799 L
107.552 240.312 L
109.025 236.92 L
110.499 233.622 L
111.973 230.414 L
113.446 227.295 L
114.92 224.262 L
116.394 221.313 L
117.868 218.446 L
119.341 215.658 L
120.815 212.947 L
122.289 210.312 L
123.762 207.748 L
125.236 205.255 L
126.71 202.83 L
128.183 200.47 L
129.657 198.174 L
131.131 195.939 L
132.605 193.762 L
134.078 191.642 L
135.552 189.575 L
137.026 187.536 L
138.499 185.512 L
139.973 183.504 L
141.447 181.512 L
142.92 179.536 L
144.394 177.577 L
145.868 175.635 L
147.342 173.711 L
148.815 171.804 L
150.289 169.916 L
151.763 168.046 L
153.236 166.195 L
154.71 164.363 L
156.184 162.551 L
157.657 160.759 L
159.131 158.987 L
160.605 157.236 L
162.079 155.505 L
163.552 153.797 L
165.026 152.11 L
166.5 150.445 L
167.973 148.802 L
169.447 147.183 L
170.921 145.586 L
172.394 144.014 L
173.868 142.465 L
175.342 140.94 L
176.816 139.44 L
178.289 137.965 L
179.763 136.515 L
181.237 135.091 L
182.71 133.693 L
184.184 132.322 L
185.658 130.977 L
187.131 129.659 L
188.605 128.369 L
190.079 127.107 L
191.552 125.873 L
193.026 124.667 L
194.5 123.491 L
195.974 122.343 L
197.447 121.226 L
198.921 120.138 L
200.395 119.081 L
201.868 118.054 L
203.342 117.059 L
204.816 116.095 L
206.289 115.162 L
207.763 114.262 L
209.237 113.394 L
210.711 112.56 L
212.184 111.758 L
213.658 110.99 L
215.132 110.256 L
216.605 109.549 L
218.079 108.846 L
219.553 108.146 L
221.026 107.447 L
222.5 106.751 L
223.974 106.057 L
225.448 105.366 L
226.921 104.676 L
228.395 103.989 L
229.869 103.304 L
231.342 102.622 L
232.816 101.942 L
234.29 101.265 L
235.763 100.59 L
237.237 99.917 L
238.711 99.247 L
240.185 98.579 L
241.658 97.914 L
243.132 97.251 L
244.606 96.59 L
246.079 95.933 L
247.553 95.277 L
249.027 94.625 L
250.5 93.975 L
251.974 93.327 L
253.448 92.683 L
254.922 92.041 L
256.395 91.401 L
257.869 90.764 L
259.343 90.13 L
260.816 89.499 L
262.29 88.87 L
263.764 88.245 L
265.237 87.622 L
266.711 87.001 L
268.185 86.384 L
269.659 85.769 L
271.132 85.157 L
272.606 84.549 L
274.08 83.943 L
275.553 83.339 L
277.027 82.739 L
278.501 82.142 L
279.974 81.548 L
281.448 80.956 L
282.922 80.368 L
284.396 79.783 L
285.869 79.201 L
287.343 78.622 L
288.817 78.045 L
290.29 77.472 L
291.764 76.902 L
293.238 76.336 L
294.711 75.772 L
296.185 75.212 L
297.659 74.654 L
299.133 74.1 L
300.606 73.549 L
302.08 73.002 L
303.554 72.457 L
305.027 71.916 L
306.501 71.378 L
307.975 70.844 L
309.448 70.312 L
310.922 69.784 L
312.396 69.26 L
313.87 68.739 L
315.343 68.221 L
316.817 67.707 L
318.291 67.196 L
319.764 66.689 L
321.238 66.185 L
322.712 65.684 L
324.185 65.187 L
325.659 64.694 L
327.133 64.204 L
328.607 63.718 L
330.08 63.235 L
331.554 62.756 L
333.028 62.28 L
334.501 61.808 L
335.975 61.34 L
337.449 60.876 L
338.922 60.415 L
340.396 59.958 L
341.87 59.504 L
343.343 59.055 L
344.817 58.609 L
346.291 58.166 L
347.765 57.728 L
349.238 57.294 L
350.712 56.863 L
352.186 56.436 L
353.659 56.013 L
355.133 55.594 L
356.607 55.179 L
358.08 54.768 L
359.554 54.361 L
361.028 53.957 L
362.502 53.558 L
363.975 53.163 L
365.449 52.772 L
366.923 52.384 L
368.396 52.001 L
369.87 51.622 L
371.344 51.247 L
372.817 50.876 L
374.291 50.509 L
375.765 50.147 L
377.239 49.788 L
378.712 49.434 L
380.186 49.084 L
381.66 48.738 L
383.133 48.397 L
384.607 48.059 L
386.081 47.726 L
387.554 47.397 L
389.028 47.073 L
390.502 46.753 L
391.976 46.437 L
393.449 46.126 L
394.923 45.819 L
396.397 45.516 L
397.87 45.218 L
399.344 44.924 L
400.818 44.635 L
402.291 44.35 L
403.765 44.07 L
405.239 43.794 L
406.713 43.523 L
408.186 43.256 L
409.66 42.994 L
411.134 42.736 L
412.607 42.483 L
414.081 42.235 L
415.555 41.991 L
417.028 41.752 L
418.502 41.518 L
419.976 41.288 L
421.449 41.063 L
422.923 40.843 L
424.397 40.628 L
425.871 40.417 L
427.344 40.211 L
428.818 40.01 L
430.292 39.814 L
431.765 39.622 L
433.239 39.436 L
434.713 39.254 L
436.186 39.078 L
437.66 38.906 L
439.134 38.739 L
440.608 38.577 L
442.081 38.42 L
443.555 38.268 L
445.029 38.121 L
446.502 37.979 L
447.976 37.842 L
449.45 37.71 L
450.923 37.583 L
452.397 37.462 L
453.871 37.345 L
455.345 37.234 L
456.818 37.127 L
458.292 37.026 L
459.766 36.93 L
461.239 36.84 L
462.713 36.754 L
464.187 36.674 L
465.66 36.599 L
467.134 36.529 L
468.608 36.465 L
470.082 36.406 L
471.555 36.352 L
473.029 36.304 L
474.503 36.261 L
475.976 36.223 L
477.45 36.191 L
478.924 36.164 L
480.397 36.143 L
481.871 36.127 L
483.345 36.117 L
484.819 36.112 L
S
GR
GS
0.302 0.745 0.933 RC
[10 6] 0 setdash
2 LJ
0.5 LW
N
74.154 366.078 M
75.627 358.322 L
77.101 350.637 L
78.575 343.05 L
80.049 335.588 L
81.522 328.279 L
82.996 321.149 L
84.47 314.227 L
85.943 307.54 L
87.417 301.113 L
88.891 294.976 L
90.364 289.155 L
91.838 283.678 L
93.312 278.572 L
94.786 273.863 L
96.259 269.529 L
97.733 265.346 L
99.207 261.284 L
100.68 257.338 L
102.154 253.507 L
103.628 249.786 L
105.101 246.174 L
106.575 242.666 L
108.049 239.259 L
109.523 235.951 L
110.996 232.739 L
112.47 229.619 L
113.944 226.589 L
115.417 223.644 L
116.891 220.783 L
118.365 218.002 L
119.838 215.298 L
121.312 212.668 L
122.786 210.109 L
124.26 207.618 L
125.733 205.191 L
127.207 202.826 L
128.681 200.52 L
130.154 198.269 L
131.628 196.071 L
133.102 193.918 L
134.575 191.784 L
136.049 189.666 L
137.523 187.563 L
138.997 185.476 L
140.47 183.406 L
141.944 181.352 L
143.418 179.317 L
144.891 177.299 L
146.365 175.3 L
147.839 173.32 L
149.312 171.359 L
150.786 169.418 L
152.26 167.498 L
153.734 165.598 L
155.207 163.72 L
156.681 161.864 L
158.155 160.03 L
159.628 158.219 L
161.102 156.432 L
162.576 154.668 L
164.049 152.928 L
165.523 151.214 L
166.997 149.524 L
168.471 147.861 L
169.944 146.223 L
171.418 144.612 L
172.892 143.029 L
174.365 141.473 L
175.839 139.945 L
177.313 138.446 L
178.786 136.977 L
180.26 135.536 L
181.734 134.126 L
183.208 132.747 L
184.681 131.398 L
186.155 130.081 L
187.629 128.797 L
189.102 127.544 L
190.576 126.325 L
192.05 125.139 L
193.523 123.987 L
194.997 122.87 L
196.471 121.787 L
197.944 120.74 L
199.418 119.729 L
200.892 118.755 L
202.366 117.817 L
203.839 116.916 L
205.313 116.054 L
206.787 115.229 L
208.26 114.444 L
209.734 113.691 L
211.208 112.944 L
212.681 112.198 L
214.155 111.456 L
215.629 110.716 L
217.103 109.979 L
218.576 109.244 L
220.05 108.511 L
221.524 107.782 L
222.997 107.055 L
224.471 106.33 L
225.945 105.608 L
227.418 104.889 L
228.892 104.173 L
230.366 103.459 L
231.84 102.748 L
233.313 102.04 L
234.787 101.335 L
236.261 100.633 L
237.734 99.933 L
239.208 99.236 L
240.682 98.542 L
242.155 97.851 L
243.629 97.163 L
245.103 96.478 L
246.577 95.796 L
248.05 95.117 L
249.524 94.441 L
250.998 93.768 L
252.471 93.098 L
253.945 92.431 L
255.419 91.767 L
256.892 91.106 L
258.366 90.449 L
259.84 89.794 L
261.314 89.143 L
262.787 88.495 L
264.261 87.851 L
265.735 87.209 L
267.208 86.571 L
268.682 85.936 L
270.156 85.304 L
271.629 84.676 L
273.103 84.051 L
274.577 83.43 L
276.051 82.812 L
277.524 82.197 L
278.998 81.586 L
280.472 80.979 L
281.945 80.374 L
283.419 79.774 L
284.893 79.177 L
286.366 78.583 L
287.84 77.993 L
289.314 77.407 L
290.788 76.824 L
292.261 76.245 L
293.735 75.67 L
295.209 75.098 L
296.682 74.53 L
298.156 73.966 L
299.63 73.405 L
301.103 72.849 L
302.577 72.296 L
304.051 71.747 L
305.525 71.201 L
306.998 70.66 L
308.472 70.123 L
309.946 69.589 L
311.419 69.06 L
312.893 68.534 L
314.367 68.012 L
315.84 67.495 L
317.314 66.981 L
318.788 66.471 L
320.262 65.966 L
321.735 65.464 L
323.209 64.967 L
324.683 64.474 L
326.156 63.985 L
327.63 63.5 L
329.104 63.019 L
330.577 62.543 L
332.051 62.071 L
333.525 61.603 L
334.998 61.139 L
336.472 60.68 L
337.946 60.225 L
339.42 59.774 L
340.893 59.328 L
342.367 58.886 L
343.841 58.449 L
345.314 58.016 L
346.788 57.587 L
348.262 57.163 L
349.736 56.744 L
351.209 56.329 L
352.683 55.918 L
354.157 55.512 L
355.63 55.111 L
357.104 54.714 L
358.578 54.322 L
360.051 53.935 L
361.525 53.552 L
362.999 53.174 L
364.472 52.801 L
365.946 52.432 L
367.42 52.068 L
368.894 51.709 L
370.367 51.355 L
371.841 51.006 L
373.315 50.661 L
374.788 50.322 L
376.262 49.987 L
377.736 49.657 L
379.209 49.333 L
380.683 49.013 L
382.157 48.698 L
383.631 48.388 L
385.104 48.083 L
386.578 47.783 L
388.052 47.488 L
389.525 47.199 L
390.999 46.914 L
392.473 46.635 L
393.946 46.361 L
395.42 46.092 L
396.894 45.828 L
398.368 45.569 L
399.841 45.316 L
401.315 45.068 L
402.789 44.825 L
404.262 44.588 L
405.736 44.355 L
407.21 44.129 L
408.683 43.907 L
410.157 43.691 L
411.631 43.481 L
413.105 43.276 L
414.578 43.076 L
416.052 42.882 L
417.526 42.693 L
418.999 42.51 L
420.473 42.333 L
421.947 42.16 L
423.42 41.994 L
424.894 41.833 L
426.368 41.678 L
427.842 41.529 L
429.315 41.385 L
430.789 41.247 L
432.263 41.115 L
433.736 40.988 L
435.21 40.867 L
436.684 40.752 L
438.157 40.643 L
439.631 40.54 L
441.105 40.442 L
442.579 40.351 L
444.052 40.265 L
445.526 40.185 L
447 40.111 L
448.473 40.044 L
449.947 39.982 L
451.421 39.926 L
452.894 39.876 L
454.368 39.832 L
455.842 39.795 L
457.315 39.763 L
458.789 39.738 L
460.263 39.718 L
461.737 39.705 L
463.21 39.698 L
S
GR
GS
0.635 0.078 0.184 RC
[10 6] 0 setdash
2 LJ
0.5 LW
N
73.025 373.912 M
74.499 365.796 L
75.972 357.757 L
77.446 349.827 L
78.92 342.036 L
80.393 334.415 L
81.867 326.995 L
83.341 319.806 L
84.815 312.878 L
86.288 306.243 L
87.762 299.931 L
89.236 293.973 L
90.709 288.399 L
92.183 283.24 L
93.657 278.525 L
95.13 274.075 L
96.604 269.757 L
98.078 265.57 L
99.552 261.507 L
101.025 257.567 L
102.499 253.746 L
103.973 250.039 L
105.446 246.444 L
106.92 242.956 L
108.394 239.572 L
109.867 236.288 L
111.341 233.1 L
112.815 230.006 L
114.289 227 L
115.762 224.08 L
117.236 221.243 L
118.71 218.483 L
120.183 215.798 L
121.657 213.184 L
123.131 210.638 L
124.604 208.155 L
126.078 205.732 L
127.552 203.365 L
129.025 201.051 L
130.499 198.773 L
131.973 196.513 L
133.447 194.271 L
134.92 192.048 L
136.394 189.844 L
137.868 187.66 L
139.341 185.496 L
140.815 183.353 L
142.289 181.231 L
143.762 179.131 L
145.236 177.054 L
146.71 175 L
148.184 172.969 L
149.657 170.963 L
151.131 168.981 L
152.605 167.024 L
154.078 165.093 L
155.552 163.189 L
157.026 161.311 L
158.499 159.461 L
159.973 157.638 L
161.447 155.844 L
162.921 154.08 L
164.394 152.344 L
165.868 150.639 L
167.342 148.965 L
168.815 147.322 L
170.289 145.71 L
171.763 144.131 L
173.236 142.585 L
174.71 141.072 L
176.184 139.593 L
177.658 138.148 L
179.131 136.739 L
180.605 135.365 L
182.079 134.028 L
183.552 132.727 L
185.026 131.463 L
186.5 130.237 L
187.973 129.049 L
189.447 127.9 L
190.921 126.791 L
192.395 125.721 L
193.868 124.692 L
195.342 123.704 L
196.816 122.758 L
198.289 121.853 L
199.763 120.987 L
201.237 120.128 L
202.71 119.272 L
204.184 118.419 L
205.658 117.569 L
207.132 116.721 L
208.605 115.876 L
210.079 115.035 L
211.553 114.196 L
213.026 113.36 L
214.5 112.528 L
215.974 111.698 L
217.447 110.872 L
218.921 110.049 L
220.395 109.23 L
221.869 108.413 L
223.342 107.601 L
224.816 106.791 L
226.29 105.985 L
227.763 105.183 L
229.237 104.385 L
230.711 103.59 L
232.184 102.799 L
233.658 102.011 L
235.132 101.228 L
236.605 100.448 L
238.079 99.672 L
239.553 98.901 L
241.027 98.133 L
242.5 97.369 L
243.974 96.61 L
245.448 95.855 L
246.921 95.104 L
248.395 94.358 L
249.869 93.615 L
251.342 92.878 L
252.816 92.144 L
254.29 91.416 L
255.764 90.691 L
257.237 89.972 L
258.711 89.257 L
260.185 88.547 L
261.658 87.842 L
263.132 87.141 L
264.606 86.446 L
266.079 85.755 L
267.553 85.07 L
269.027 84.389 L
270.501 83.714 L
271.974 83.043 L
273.448 82.378 L
274.922 81.719 L
276.395 81.064 L
277.869 80.415 L
279.343 79.771 L
280.816 79.133 L
282.29 78.501 L
283.764 77.874 L
285.238 77.252 L
286.711 76.637 L
288.185 76.027 L
289.659 75.422 L
291.132 74.824 L
292.606 74.232 L
294.08 73.645 L
295.553 73.065 L
297.027 72.49 L
298.501 71.922 L
299.975 71.36 L
301.448 70.804 L
302.922 70.254 L
304.396 69.711 L
305.869 69.174 L
307.343 68.644 L
308.817 68.12 L
310.29 67.602 L
311.764 67.091 L
313.238 66.587 L
314.712 66.089 L
316.185 65.599 L
317.659 65.115 L
319.133 64.637 L
320.606 64.167 L
322.08 63.704 L
323.554 63.247 L
325.027 62.798 L
326.501 62.356 L
327.975 61.921 L
329.449 61.493 L
330.922 61.073 L
332.396 60.66 L
333.87 60.254 L
335.343 59.856 L
336.817 59.465 L
338.291 59.082 L
339.764 58.706 L
341.238 58.338 L
342.712 57.977 L
344.186 57.625 L
345.659 57.28 L
347.133 56.943 L
348.607 56.614 L
350.08 56.293 L
351.554 55.98 L
353.028 55.675 L
354.501 55.378 L
355.975 55.089 L
357.449 54.808 L
358.923 54.536 L
360.396 54.272 L
361.87 54.017 L
363.344 53.77 L
364.817 53.531 L
366.291 53.301 L
367.765 53.079 L
369.238 52.866 L
370.712 52.662 L
372.186 52.467 L
373.659 52.28 L
375.133 52.102 L
376.607 51.934 L
378.081 51.774 L
379.554 51.623 L
381.028 51.481 L
382.502 51.348 L
383.975 51.225 L
385.449 51.11 L
386.923 51.005 L
388.396 50.91 L
389.87 50.823 L
391.344 50.746 L
392.818 50.679 L
394.291 50.621 L
395.765 50.573 L
397.239 50.534 L
398.712 50.506 L
400.186 50.486 L
401.66 50.477 L
S
GR
GS
1 GC
N
499 366 M
499 250.5 L
344.5 250.5 L
344.5 366 L
cp
f
GR
GS
[1 0 0 1 381.5 260.25] CT
/Helvetica 13 F
GS
[1 0 0 1 0 0] CT
0 5 moveto 
1 -1 scale
(Base Run) t 
GR
GR
GS
0 0.447 0.741 RC
1 LJ
0.5 LW
N
348.5 260.25 M
378.5 260.25 L
S
GR
GS
[1 0 0 1 381.5 276.25] CT
/Helvetica 13 F
GS
[1 0 0 1 0 0] CT
0 5 moveto 
1 -1 scale
(I & B Frames) t 
GR
GR
GS
0.851 0.325 0.098 RC
1 LJ
0.5 LW
N
348.5 276.25 M
378.5 276.25 L
S
GR
GS
[1 0 0 1 381.5 292.25] CT
/Helvetica 13 F
GS
[1 0 0 1 0 0] CT
0 5 moveto 
1 -1 scale
(I Frames Only) t 
GR
GR
GS
0.929 0.694 0.125 RC
1 LJ
0.5 LW
N
348.5 292.25 M
378.5 292.25 L
S
GR
GS
[1 0 0 1 381.5 308.25] CT
/Helvetica 13 F
GS
[1 0 0 1 0 0] CT
0 5 moveto 
1 -1 scale
(B Frames Only) t 
GR
GR
GS
0.494 0.184 0.557 RC
1 LJ
0.5 LW
N
348.5 308.25 M
378.5 308.25 L
S
GR
GS
[1 0 0 1 381.5 324.25] CT
/Helvetica 13 F
GS
[1 0 0 1 0 0] CT
0 5 moveto 
1 -1 scale
(Part I & B Frames) t 
GR
GR
GS
0.467 0.675 0.188 RC
[10 6] 0 setdash
2 LJ
0.5 LW
N
348.5 324.25 M
378.5 324.25 L
S
GR
GS
[1 0 0 1 381.5 340.25] CT
/Helvetica 13 F
GS
[1 0 0 1 0 0] CT
0 5 moveto 
1 -1 scale
(Part I Frames Only) t 
GR
GR
GS
0.302 0.745 0.933 RC
[10 6] 0 setdash
2 LJ
0.5 LW
N
348.5 340.25 M
378.5 340.25 L
S
GR
GS
[1 0 0 1 381.5 356.25] CT
/Helvetica 13 F
GS
[1 0 0 1 0 0] CT
0 5 moveto 
1 -1 scale
(Part B Frames Only) t 
GR
GR
GS
0.635 0.078 0.184 RC
[10 6] 0 setdash
2 LJ
0.5 LW
N
348.5 356.25 M
378.5 356.25 L
S
GR
GS
0.149 GC
10.0 ML
0.5 LW
N
344.5 366 M
344.5 250.5 L
499 250.5 L
499 366 L
cp
S
GR
%%Trailer
%%Pages: 1
%%EOF
