%!PS-Adobe-3.0 EPSF-3.0
%%Creator: (MATLAB, The Mathworks, Inc. Version 9.11.0.1837725 \(R2021b\) Update 2. Operating System: Mac OS X)
%%Title: plots/pchip/Lecture_1080P-3ce0.y4m-hevc-PSNRU.eps
%%CreationDate: 2022-02-03T19:14:12
%%Pages: (atend)
%%BoundingBox:    33   425   508   826
%%LanguageLevel: 3
%%EndComments
%%BeginProlog
%%BeginResource: procset (Apache XML Graphics Std ProcSet) 1.2 0
%%Version: 1.2 0
%%Copyright: (Copyright 2001-2003,2010 The Apache Software Foundation. License terms: http://www.apache.org/licenses/LICENSE-2.0)
/bd{bind def}bind def
/ld{load def}bd
/GR/grestore ld
/GS/gsave ld
/RM/rmoveto ld
/C/curveto ld
/t/show ld
/L/lineto ld
/ML/setmiterlimit ld
/CT/concat ld
/f/fill ld
/N/newpath ld
/S/stroke ld
/CC/setcmykcolor ld
/A/ashow ld
/cp/closepath ld
/RC/setrgbcolor ld
/LJ/setlinejoin ld
/GC/setgray ld
/LW/setlinewidth ld
/M/moveto ld
/re {4 2 roll M
1 index 0 rlineto
0 exch rlineto
neg 0 rlineto
cp } bd
/_ctm matrix def
/_tm matrix def
/BT { _ctm currentmatrix pop matrix _tm copy pop 0 0 moveto } bd
/ET { _ctm setmatrix } bd
/iTm { _ctm setmatrix _tm concat } bd
/Tm { _tm astore pop iTm 0 0 moveto } bd
/ux 0.0 def
/uy 0.0 def
/F {
  /Tp exch def
  /Tf exch def
  Tf findfont Tp scalefont setfont
  /cf Tf def  /cs Tp def
} bd
/ULS {currentpoint /uy exch def /ux exch def} bd
/ULE {
  /Tcx currentpoint pop def
  gsave
  newpath
  cf findfont cs scalefont dup
  /FontMatrix get 0 get /Ts exch def /FontInfo get dup
  /UnderlinePosition get Ts mul /To exch def
  /UnderlineThickness get Ts mul /Tt exch def
  ux uy To add moveto  Tcx uy To add lineto
  Tt setlinewidth stroke
  grestore
} bd
/OLE {
  /Tcx currentpoint pop def
  gsave
  newpath
  cf findfont cs scalefont dup
  /FontMatrix get 0 get /Ts exch def /FontInfo get dup
  /UnderlinePosition get Ts mul /To exch def
  /UnderlineThickness get Ts mul /Tt exch def
  ux uy To add cs add moveto Tcx uy To add cs add lineto
  Tt setlinewidth stroke
  grestore
} bd
/SOE {
  /Tcx currentpoint pop def
  gsave
  newpath
  cf findfont cs scalefont dup
  /FontMatrix get 0 get /Ts exch def /FontInfo get dup
  /UnderlinePosition get Ts mul /To exch def
  /UnderlineThickness get Ts mul /Tt exch def
  ux uy To add cs 10 mul 26 idiv add moveto Tcx uy To add cs 10 mul 26 idiv add lineto
  Tt setlinewidth stroke
  grestore
} bd
/QT {
/Y22 exch store
/X22 exch store
/Y21 exch store
/X21 exch store
currentpoint
/Y21 load 2 mul add 3 div exch
/X21 load 2 mul add 3 div exch
/X21 load 2 mul /X22 load add 3 div
/Y21 load 2 mul /Y22 load add 3 div
/X22 load /Y22 load curveto
} bd
/SSPD {
dup length /d exch dict def
{
/v exch def
/k exch def
currentpagedevice k known {
/cpdv currentpagedevice k get def
v cpdv ne {
/upd false def
/nullv v type /nulltype eq def
/nullcpdv cpdv type /nulltype eq def
nullv nullcpdv or
{
/upd true def
} {
/sametype v type cpdv type eq def
sametype {
v type /arraytype eq {
/vlen v length def
/cpdvlen cpdv length def
vlen cpdvlen eq {
0 1 vlen 1 sub {
/i exch def
/obj v i get def
/cpdobj cpdv i get def
obj cpdobj ne {
/upd true def
exit
} if
} for
} {
/upd true def
} ifelse
} {
v type /dicttype eq {
v {
/dv exch def
/dk exch def
/cpddv cpdv dk get def
dv cpddv ne {
/upd true def
exit
} if
} forall
} {
/upd true def
} ifelse
} ifelse
} if
} ifelse
upd true eq {
d k v put
} if
} if
} if
} forall
d length 0 gt {
d setpagedevice
} if
} bd
/RE { % /NewFontName [NewEncodingArray] /FontName RE -
  findfont dup length dict begin
  {
    1 index /FID ne
    {def} {pop pop} ifelse
  } forall
  /Encoding exch def
  /FontName 1 index def
  currentdict definefont pop
  end
} bind def
%%EndResource
%%BeginResource: procset (Apache XML Graphics EPS ProcSet) 1.0 0
%%Version: 1.0 0
%%Copyright: (Copyright 2002-2003 The Apache Software Foundation. License terms: http://www.apache.org/licenses/LICENSE-2.0)
/BeginEPSF { %def
/b4_Inc_state save def         % Save state for cleanup
/dict_count countdictstack def % Count objects on dict stack
/op_count count 1 sub def      % Count objects on operand stack
userdict begin                 % Push userdict on dict stack
/showpage { } def              % Redefine showpage, { } = null proc
0 setgray 0 setlinecap         % Prepare graphics state
1 setlinewidth 0 setlinejoin
10 setmiterlimit [ ] 0 setdash newpath
/languagelevel where           % If level not equal to 1 then
{pop languagelevel             % set strokeadjust and
1 ne                           % overprint to their defaults.
{false setstrokeadjust false setoverprint
} if
} if
} bd
/EndEPSF { %def
count op_count sub {pop} repeat            % Clean up stacks
countdictstack dict_count sub {end} repeat
b4_Inc_state restore
} bd
%%EndResource
%FOPBeginFontDict
%%IncludeResource: font Courier-Oblique
%%IncludeResource: font Courier-BoldOblique
%%IncludeResource: font Courier-Bold
%%IncludeResource: font ZapfDingbats
%%IncludeResource: font Symbol
%%IncludeResource: font Helvetica
%%IncludeResource: font Helvetica-Oblique
%%IncludeResource: font Helvetica-Bold
%%IncludeResource: font Helvetica-BoldOblique
%%IncludeResource: font Times-Roman
%%IncludeResource: font Times-Italic
%%IncludeResource: font Times-Bold
%%IncludeResource: font Times-BoldItalic
%%IncludeResource: font Courier
%FOPEndFontDict
%%BeginResource: encoding WinAnsiEncoding
/WinAnsiEncoding [
/.notdef /.notdef /.notdef /.notdef /.notdef
/.notdef /.notdef /.notdef /.notdef /.notdef
/.notdef /.notdef /.notdef /.notdef /.notdef
/.notdef /.notdef /.notdef /.notdef /.notdef
/.notdef /.notdef /.notdef /.notdef /.notdef
/.notdef /.notdef /.notdef /.notdef /.notdef
/.notdef /.notdef /space /exclam /quotedbl
/numbersign /dollar /percent /ampersand /quotesingle
/parenleft /parenright /asterisk /plus /comma
/hyphen /period /slash /zero /one
/two /three /four /five /six
/seven /eight /nine /colon /semicolon
/less /equal /greater /question /at
/A /B /C /D /E
/F /G /H /I /J
/K /L /M /N /O
/P /Q /R /S /T
/U /V /W /X /Y
/Z /bracketleft /backslash /bracketright /asciicircum
/underscore /quoteleft /a /b /c
/d /e /f /g /h
/i /j /k /l /m
/n /o /p /q /r
/s /t /u /v /w
/x /y /z /braceleft /bar
/braceright /asciitilde /bullet /Euro /bullet
/quotesinglbase /florin /quotedblbase /ellipsis /dagger
/daggerdbl /circumflex /perthousand /Scaron /guilsinglleft
/OE /bullet /Zcaron /bullet /bullet
/quoteleft /quoteright /quotedblleft /quotedblright /bullet
/endash /emdash /asciitilde /trademark /scaron
/guilsinglright /oe /bullet /zcaron /Ydieresis
/space /exclamdown /cent /sterling /currency
/yen /brokenbar /section /dieresis /copyright
/ordfeminine /guillemotleft /logicalnot /sfthyphen /registered
/macron /degree /plusminus /twosuperior /threesuperior
/acute /mu /paragraph /middot /cedilla
/onesuperior /ordmasculine /guillemotright /onequarter /onehalf
/threequarters /questiondown /Agrave /Aacute /Acircumflex
/Atilde /Adieresis /Aring /AE /Ccedilla
/Egrave /Eacute /Ecircumflex /Edieresis /Igrave
/Iacute /Icircumflex /Idieresis /Eth /Ntilde
/Ograve /Oacute /Ocircumflex /Otilde /Odieresis
/multiply /Oslash /Ugrave /Uacute /Ucircumflex
/Udieresis /Yacute /Thorn /germandbls /agrave
/aacute /acircumflex /atilde /adieresis /aring
/ae /ccedilla /egrave /eacute /ecircumflex
/edieresis /igrave /iacute /icircumflex /idieresis
/eth /ntilde /ograve /oacute /ocircumflex
/otilde /odieresis /divide /oslash /ugrave
/uacute /ucircumflex /udieresis /yacute /thorn
/ydieresis
] def
%%EndResource
%FOPBeginFontReencode
/Courier-Oblique findfont
dup length dict begin
  {1 index /FID ne {def} {pop pop} ifelse} forall
  /Encoding WinAnsiEncoding def
  currentdict
end
/Courier-Oblique exch definefont pop
/Courier-BoldOblique findfont
dup length dict begin
  {1 index /FID ne {def} {pop pop} ifelse} forall
  /Encoding WinAnsiEncoding def
  currentdict
end
/Courier-BoldOblique exch definefont pop
/Courier-Bold findfont
dup length dict begin
  {1 index /FID ne {def} {pop pop} ifelse} forall
  /Encoding WinAnsiEncoding def
  currentdict
end
/Courier-Bold exch definefont pop
/Helvetica findfont
dup length dict begin
  {1 index /FID ne {def} {pop pop} ifelse} forall
  /Encoding WinAnsiEncoding def
  currentdict
end
/Helvetica exch definefont pop
/Helvetica-Oblique findfont
dup length dict begin
  {1 index /FID ne {def} {pop pop} ifelse} forall
  /Encoding WinAnsiEncoding def
  currentdict
end
/Helvetica-Oblique exch definefont pop
/Helvetica-Bold findfont
dup length dict begin
  {1 index /FID ne {def} {pop pop} ifelse} forall
  /Encoding WinAnsiEncoding def
  currentdict
end
/Helvetica-Bold exch definefont pop
/Helvetica-BoldOblique findfont
dup length dict begin
  {1 index /FID ne {def} {pop pop} ifelse} forall
  /Encoding WinAnsiEncoding def
  currentdict
end
/Helvetica-BoldOblique exch definefont pop
/Times-Roman findfont
dup length dict begin
  {1 index /FID ne {def} {pop pop} ifelse} forall
  /Encoding WinAnsiEncoding def
  currentdict
end
/Times-Roman exch definefont pop
/Times-Italic findfont
dup length dict begin
  {1 index /FID ne {def} {pop pop} ifelse} forall
  /Encoding WinAnsiEncoding def
  currentdict
end
/Times-Italic exch definefont pop
/Times-Bold findfont
dup length dict begin
  {1 index /FID ne {def} {pop pop} ifelse} forall
  /Encoding WinAnsiEncoding def
  currentdict
end
/Times-Bold exch definefont pop
/Times-BoldItalic findfont
dup length dict begin
  {1 index /FID ne {def} {pop pop} ifelse} forall
  /Encoding WinAnsiEncoding def
  currentdict
end
/Times-BoldItalic exch definefont pop
/Courier findfont
dup length dict begin
  {1 index /FID ne {def} {pop pop} ifelse} forall
  /Encoding WinAnsiEncoding def
  currentdict
end
/Courier exch definefont pop
%FOPEndFontReencode
%%EndProlog
%%Page: 1 1
%%PageBoundingBox: 0 0 1120 840
%%BeginPageSetup
[1 0 0 -1 0 840] CT
%%EndPageSetup
GS
1 GC
N
0 0 1120 840 re
f
GR
GS
1 GC
N
73 374 M
507 374 L
507 31.5 L
73 31.5 L
cp
f
GR
GS
0.149 GC
2 setlinecap
1 LJ
0.5 LW
N
73 374 M
507 374 L
S
GR
GS
0.149 GC
2 setlinecap
1 LJ
0.5 LW
N
73 31.5 M
507 31.5 L
S
GR
GS
0.149 GC
2 setlinecap
1 LJ
0.5 LW
N
116.995 374 M
116.995 369.66 L
S
GR
GS
0.149 GC
2 setlinecap
1 LJ
0.5 LW
N
190.68 374 M
190.68 369.66 L
S
GR
GS
0.149 GC
2 setlinecap
1 LJ
0.5 LW
N
264.365 374 M
264.365 369.66 L
S
GR
GS
0.149 GC
2 setlinecap
1 LJ
0.5 LW
N
338.05 374 M
338.05 369.66 L
S
GR
GS
0.149 GC
2 setlinecap
1 LJ
0.5 LW
N
411.735 374 M
411.735 369.66 L
S
GR
GS
0.149 GC
2 setlinecap
1 LJ
0.5 LW
N
485.42 374 M
485.42 369.66 L
S
GR
GS
0.149 GC
2 setlinecap
1 LJ
0.5 LW
N
116.995 31.5 M
116.995 35.84 L
S
GR
GS
0.149 GC
2 setlinecap
1 LJ
0.5 LW
N
190.68 31.5 M
190.68 35.84 L
S
GR
GS
0.149 GC
2 setlinecap
1 LJ
0.5 LW
N
264.365 31.5 M
264.365 35.84 L
S
GR
GS
0.149 GC
2 setlinecap
1 LJ
0.5 LW
N
338.05 31.5 M
338.05 35.84 L
S
GR
GS
0.149 GC
2 setlinecap
1 LJ
0.5 LW
N
411.735 31.5 M
411.735 35.84 L
S
GR
GS
0.149 GC
2 setlinecap
1 LJ
0.5 LW
N
485.42 31.5 M
485.42 35.84 L
S
GR
GS
0.149 GC
2 setlinecap
1 LJ
0.5 LW
N
87.521 374 M
87.521 371.83 L
S
GR
GS
0.149 GC
2 setlinecap
1 LJ
0.5 LW
N
102.258 374 M
102.258 371.83 L
S
GR
GS
0.149 GC
2 setlinecap
1 LJ
0.5 LW
N
131.732 374 M
131.732 371.83 L
S
GR
GS
0.149 GC
2 setlinecap
1 LJ
0.5 LW
N
146.469 374 M
146.469 371.83 L
S
GR
GS
0.149 GC
2 setlinecap
1 LJ
0.5 LW
N
161.206 374 M
161.206 371.83 L
S
GR
GS
0.149 GC
2 setlinecap
1 LJ
0.5 LW
N
175.943 374 M
175.943 371.83 L
S
GR
GS
0.149 GC
2 setlinecap
1 LJ
0.5 LW
N
205.417 374 M
205.417 371.83 L
S
GR
GS
0.149 GC
2 setlinecap
1 LJ
0.5 LW
N
220.154 374 M
220.154 371.83 L
S
GR
GS
0.149 GC
2 setlinecap
1 LJ
0.5 LW
N
234.891 374 M
234.891 371.83 L
S
GR
GS
0.149 GC
2 setlinecap
1 LJ
0.5 LW
N
249.628 374 M
249.628 371.83 L
S
GR
GS
0.149 GC
2 setlinecap
1 LJ
0.5 LW
N
279.102 374 M
279.102 371.83 L
S
GR
GS
0.149 GC
2 setlinecap
1 LJ
0.5 LW
N
293.839 374 M
293.839 371.83 L
S
GR
GS
0.149 GC
2 setlinecap
1 LJ
0.5 LW
N
308.576 374 M
308.576 371.83 L
S
GR
GS
0.149 GC
2 setlinecap
1 LJ
0.5 LW
N
323.313 374 M
323.313 371.83 L
S
GR
GS
0.149 GC
2 setlinecap
1 LJ
0.5 LW
N
352.787 374 M
352.787 371.83 L
S
GR
GS
0.149 GC
2 setlinecap
1 LJ
0.5 LW
N
367.524 374 M
367.524 371.83 L
S
GR
GS
0.149 GC
2 setlinecap
1 LJ
0.5 LW
N
382.261 374 M
382.261 371.83 L
S
GR
GS
0.149 GC
2 setlinecap
1 LJ
0.5 LW
N
396.998 374 M
396.998 371.83 L
S
GR
GS
0.149 GC
2 setlinecap
1 LJ
0.5 LW
N
426.472 374 M
426.472 371.83 L
S
GR
GS
0.149 GC
2 setlinecap
1 LJ
0.5 LW
N
441.209 374 M
441.209 371.83 L
S
GR
GS
0.149 GC
2 setlinecap
1 LJ
0.5 LW
N
455.946 374 M
455.946 371.83 L
S
GR
GS
0.149 GC
2 setlinecap
1 LJ
0.5 LW
N
470.683 374 M
470.683 371.83 L
S
GR
GS
0.149 GC
2 setlinecap
1 LJ
0.5 LW
N
500.157 374 M
500.157 371.83 L
S
GR
GS
0.149 GC
2 setlinecap
1 LJ
0.5 LW
N
87.521 31.5 M
87.521 33.67 L
S
GR
GS
0.149 GC
2 setlinecap
1 LJ
0.5 LW
N
102.258 31.5 M
102.258 33.67 L
S
GR
GS
0.149 GC
2 setlinecap
1 LJ
0.5 LW
N
131.732 31.5 M
131.732 33.67 L
S
GR
GS
0.149 GC
2 setlinecap
1 LJ
0.5 LW
N
146.469 31.5 M
146.469 33.67 L
S
GR
GS
0.149 GC
2 setlinecap
1 LJ
0.5 LW
N
161.206 31.5 M
161.206 33.67 L
S
GR
GS
0.149 GC
2 setlinecap
1 LJ
0.5 LW
N
175.943 31.5 M
175.943 33.67 L
S
GR
GS
0.149 GC
2 setlinecap
1 LJ
0.5 LW
N
205.417 31.5 M
205.417 33.67 L
S
GR
GS
0.149 GC
2 setlinecap
1 LJ
0.5 LW
N
220.154 31.5 M
220.154 33.67 L
S
GR
GS
0.149 GC
2 setlinecap
1 LJ
0.5 LW
N
234.891 31.5 M
234.891 33.67 L
S
GR
GS
0.149 GC
2 setlinecap
1 LJ
0.5 LW
N
249.628 31.5 M
249.628 33.67 L
S
GR
GS
0.149 GC
2 setlinecap
1 LJ
0.5 LW
N
279.102 31.5 M
279.102 33.67 L
S
GR
GS
0.149 GC
2 setlinecap
1 LJ
0.5 LW
N
293.839 31.5 M
293.839 33.67 L
S
GR
GS
0.149 GC
2 setlinecap
1 LJ
0.5 LW
N
308.576 31.5 M
308.576 33.67 L
S
GR
GS
0.149 GC
2 setlinecap
1 LJ
0.5 LW
N
323.313 31.5 M
323.313 33.67 L
S
GR
GS
0.149 GC
2 setlinecap
1 LJ
0.5 LW
N
352.787 31.5 M
352.787 33.67 L
S
GR
GS
0.149 GC
2 setlinecap
1 LJ
0.5 LW
N
367.524 31.5 M
367.524 33.67 L
S
GR
GS
0.149 GC
2 setlinecap
1 LJ
0.5 LW
N
382.261 31.5 M
382.261 33.67 L
S
GR
GS
0.149 GC
2 setlinecap
1 LJ
0.5 LW
N
396.998 31.5 M
396.998 33.67 L
S
GR
GS
0.149 GC
2 setlinecap
1 LJ
0.5 LW
N
426.472 31.5 M
426.472 33.67 L
S
GR
GS
0.149 GC
2 setlinecap
1 LJ
0.5 LW
N
441.209 31.5 M
441.209 33.67 L
S
GR
GS
0.149 GC
2 setlinecap
1 LJ
0.5 LW
N
455.946 31.5 M
455.946 33.67 L
S
GR
GS
0.149 GC
2 setlinecap
1 LJ
0.5 LW
N
470.683 31.5 M
470.683 33.67 L
S
GR
GS
0.149 GC
2 setlinecap
1 LJ
0.5 LW
N
500.157 31.5 M
500.157 33.67 L
S
GR
GS
[1 0 0 1 116.99512 378.7999] CT
0.149 GC
/Helvetica 14 F
GS
[1 0 0 1 0 0] CT
-16 14 moveto 
1 -1 scale
(1000) t 
GR
GR
GS
[1 0 0 1 190.68007 378.7999] CT
0.149 GC
/Helvetica 14 F
GS
[1 0 0 1 0 0] CT
-16 14 moveto 
1 -1 scale
(2000) t 
GR
GR
GS
[1 0 0 1 264.36502 378.7999] CT
0.149 GC
/Helvetica 14 F
GS
[1 0 0 1 0 0] CT
-16 14 moveto 
1 -1 scale
(3000) t 
GR
GR
GS
[1 0 0 1 338.04996 378.7999] CT
0.149 GC
/Helvetica 14 F
GS
[1 0 0 1 0 0] CT
-16 14 moveto 
1 -1 scale
(4000) t 
GR
GR
GS
[1 0 0 1 411.73489 378.7999] CT
0.149 GC
/Helvetica 14 F
GS
[1 0 0 1 0 0] CT
-16 14 moveto 
1 -1 scale
(5000) t 
GR
GR
GS
[1 0 0 1 485.41983 378.7999] CT
0.149 GC
/Helvetica 14 F
GS
[1 0 0 1 0 0] CT
-16 14 moveto 
1 -1 scale
(6000) t 
GR
GR
GS
[1 0 0 1 290.00021 396.2999] CT
0.149 GC
/Helvetica 15.4 F
GS
[1 0 0 1 0 0] CT
-42 15 moveto 
1 -1 scale
(Bitrate\(kb/s\)) t 
GR
GR
GS
0.149 GC
2 setlinecap
1 LJ
0.5 LW
N
73 374 M
73 31.5 L
S
GR
GS
0.149 GC
2 setlinecap
1 LJ
0.5 LW
N
507 374 M
507 31.5 L
S
GR
GS
0.149 GC
2 setlinecap
1 LJ
0.5 LW
N
73 325.189 M
77.34 325.189 L
S
GR
GS
0.149 GC
2 setlinecap
1 LJ
0.5 LW
N
73 269.365 M
77.34 269.365 L
S
GR
GS
0.149 GC
2 setlinecap
1 LJ
0.5 LW
N
73 213.541 M
77.34 213.541 L
S
GR
GS
0.149 GC
2 setlinecap
1 LJ
0.5 LW
N
73 157.717 M
77.34 157.717 L
S
GR
GS
0.149 GC
2 setlinecap
1 LJ
0.5 LW
N
73 101.893 M
77.34 101.893 L
S
GR
GS
0.149 GC
2 setlinecap
1 LJ
0.5 LW
N
73 46.068 M
77.34 46.068 L
S
GR
GS
0.149 GC
2 setlinecap
1 LJ
0.5 LW
N
507 325.189 M
502.66 325.189 L
S
GR
GS
0.149 GC
2 setlinecap
1 LJ
0.5 LW
N
507 269.365 M
502.66 269.365 L
S
GR
GS
0.149 GC
2 setlinecap
1 LJ
0.5 LW
N
507 213.541 M
502.66 213.541 L
S
GR
GS
0.149 GC
2 setlinecap
1 LJ
0.5 LW
N
507 157.717 M
502.66 157.717 L
S
GR
GS
0.149 GC
2 setlinecap
1 LJ
0.5 LW
N
507 101.893 M
502.66 101.893 L
S
GR
GS
0.149 GC
2 setlinecap
1 LJ
0.5 LW
N
507 46.068 M
502.66 46.068 L
S
GR
GS
0.149 GC
2 setlinecap
1 LJ
0.5 LW
N
73 369.849 M
75.17 369.849 L
S
GR
GS
0.149 GC
2 setlinecap
1 LJ
0.5 LW
N
73 358.684 M
75.17 358.684 L
S
GR
GS
0.149 GC
2 setlinecap
1 LJ
0.5 LW
N
73 347.519 M
75.17 347.519 L
S
GR
GS
0.149 GC
2 setlinecap
1 LJ
0.5 LW
N
73 336.354 M
75.17 336.354 L
S
GR
GS
0.149 GC
2 setlinecap
1 LJ
0.5 LW
N
73 314.024 M
75.17 314.024 L
S
GR
GS
0.149 GC
2 setlinecap
1 LJ
0.5 LW
N
73 302.86 M
75.17 302.86 L
S
GR
GS
0.149 GC
2 setlinecap
1 LJ
0.5 LW
N
73 291.695 M
75.17 291.695 L
S
GR
GS
0.149 GC
2 setlinecap
1 LJ
0.5 LW
N
73 280.53 M
75.17 280.53 L
S
GR
GS
0.149 GC
2 setlinecap
1 LJ
0.5 LW
N
73 258.2 M
75.17 258.2 L
S
GR
GS
0.149 GC
2 setlinecap
1 LJ
0.5 LW
N
73 247.035 M
75.17 247.035 L
S
GR
GS
0.149 GC
2 setlinecap
1 LJ
0.5 LW
N
73 235.871 M
75.17 235.871 L
S
GR
GS
0.149 GC
2 setlinecap
1 LJ
0.5 LW
N
73 224.706 M
75.17 224.706 L
S
GR
GS
0.149 GC
2 setlinecap
1 LJ
0.5 LW
N
73 202.376 M
75.17 202.376 L
S
GR
GS
0.149 GC
2 setlinecap
1 LJ
0.5 LW
N
73 191.211 M
75.17 191.211 L
S
GR
GS
0.149 GC
2 setlinecap
1 LJ
0.5 LW
N
73 180.047 M
75.17 180.047 L
S
GR
GS
0.149 GC
2 setlinecap
1 LJ
0.5 LW
N
73 168.882 M
75.17 168.882 L
S
GR
GS
0.149 GC
2 setlinecap
1 LJ
0.5 LW
N
73 146.552 M
75.17 146.552 L
S
GR
GS
0.149 GC
2 setlinecap
1 LJ
0.5 LW
N
73 135.387 M
75.17 135.387 L
S
GR
GS
0.149 GC
2 setlinecap
1 LJ
0.5 LW
N
73 124.222 M
75.17 124.222 L
S
GR
GS
0.149 GC
2 setlinecap
1 LJ
0.5 LW
N
73 113.057 M
75.17 113.057 L
S
GR
GS
0.149 GC
2 setlinecap
1 LJ
0.5 LW
N
73 90.728 M
75.17 90.728 L
S
GR
GS
0.149 GC
2 setlinecap
1 LJ
0.5 LW
N
73 79.563 M
75.17 79.563 L
S
GR
GS
0.149 GC
2 setlinecap
1 LJ
0.5 LW
N
73 68.398 M
75.17 68.398 L
S
GR
GS
0.149 GC
2 setlinecap
1 LJ
0.5 LW
N
73 57.233 M
75.17 57.233 L
S
GR
GS
0.149 GC
2 setlinecap
1 LJ
0.5 LW
N
73 34.903 M
75.17 34.903 L
S
GR
GS
0.149 GC
2 setlinecap
1 LJ
0.5 LW
N
507 369.849 M
504.83 369.849 L
S
GR
GS
0.149 GC
2 setlinecap
1 LJ
0.5 LW
N
507 358.684 M
504.83 358.684 L
S
GR
GS
0.149 GC
2 setlinecap
1 LJ
0.5 LW
N
507 347.519 M
504.83 347.519 L
S
GR
GS
0.149 GC
2 setlinecap
1 LJ
0.5 LW
N
507 336.354 M
504.83 336.354 L
S
GR
GS
0.149 GC
2 setlinecap
1 LJ
0.5 LW
N
507 314.024 M
504.83 314.024 L
S
GR
GS
0.149 GC
2 setlinecap
1 LJ
0.5 LW
N
507 302.86 M
504.83 302.86 L
S
GR
GS
0.149 GC
2 setlinecap
1 LJ
0.5 LW
N
507 291.695 M
504.83 291.695 L
S
GR
GS
0.149 GC
2 setlinecap
1 LJ
0.5 LW
N
507 280.53 M
504.83 280.53 L
S
GR
GS
0.149 GC
2 setlinecap
1 LJ
0.5 LW
N
507 258.2 M
504.83 258.2 L
S
GR
GS
0.149 GC
2 setlinecap
1 LJ
0.5 LW
N
507 247.035 M
504.83 247.035 L
S
GR
GS
0.149 GC
2 setlinecap
1 LJ
0.5 LW
N
507 235.871 M
504.83 235.871 L
S
GR
GS
0.149 GC
2 setlinecap
1 LJ
0.5 LW
N
507 224.706 M
504.83 224.706 L
S
GR
GS
0.149 GC
2 setlinecap
1 LJ
0.5 LW
N
507 202.376 M
504.83 202.376 L
S
GR
GS
0.149 GC
2 setlinecap
1 LJ
0.5 LW
N
507 191.211 M
504.83 191.211 L
S
GR
GS
0.149 GC
2 setlinecap
1 LJ
0.5 LW
N
507 180.047 M
504.83 180.047 L
S
GR
GS
0.149 GC
2 setlinecap
1 LJ
0.5 LW
N
507 168.882 M
504.83 168.882 L
S
GR
GS
0.149 GC
2 setlinecap
1 LJ
0.5 LW
N
507 146.552 M
504.83 146.552 L
S
GR
GS
0.149 GC
2 setlinecap
1 LJ
0.5 LW
N
507 135.387 M
504.83 135.387 L
S
GR
GS
0.149 GC
2 setlinecap
1 LJ
0.5 LW
N
507 124.222 M
504.83 124.222 L
S
GR
GS
0.149 GC
2 setlinecap
1 LJ
0.5 LW
N
507 113.057 M
504.83 113.057 L
S
GR
GS
0.149 GC
2 setlinecap
1 LJ
0.5 LW
N
507 90.728 M
504.83 90.728 L
S
GR
GS
0.149 GC
2 setlinecap
1 LJ
0.5 LW
N
507 79.563 M
504.83 79.563 L
S
GR
GS
0.149 GC
2 setlinecap
1 LJ
0.5 LW
N
507 68.398 M
504.83 68.398 L
S
GR
GS
0.149 GC
2 setlinecap
1 LJ
0.5 LW
N
507 57.233 M
504.83 57.233 L
S
GR
GS
0.149 GC
2 setlinecap
1 LJ
0.5 LW
N
507 34.903 M
504.83 34.903 L
S
GR
GS
[1 0 0 1 68.2 325.18933] CT
0.149 GC
/Helvetica 14 F
GS
[1 0 0 1 0 0] CT
-16 5.5 moveto 
1 -1 scale
(44) t 
GR
GR
GS
[1 0 0 1 68.2 269.36514] CT
0.149 GC
/Helvetica 14 F
GS
[1 0 0 1 0 0] CT
-16 5.5 moveto 
1 -1 scale
(45) t 
GR
GR
GS
[1 0 0 1 68.2 213.54094] CT
0.149 GC
/Helvetica 14 F
GS
[1 0 0 1 0 0] CT
-16 5.5 moveto 
1 -1 scale
(46) t 
GR
GR
GS
[1 0 0 1 68.2 157.71674] CT
0.149 GC
/Helvetica 14 F
GS
[1 0 0 1 0 0] CT
-16 5.5 moveto 
1 -1 scale
(47) t 
GR
GR
GS
[1 0 0 1 68.2 101.89255] CT
0.149 GC
/Helvetica 14 F
GS
[1 0 0 1 0 0] CT
-16 5.5 moveto 
1 -1 scale
(48) t 
GR
GR
GS
[1 0 0 1 68.2 46.06835] CT
0.149 GC
/Helvetica 14 F
GS
[1 0 0 1 0 0] CT
-16 5.5 moveto 
1 -1 scale
(49) t 
GR
GR
GS
[0 -1 1 0 49.2 202.74979] CT
0.149 GC
/Helvetica 15.4 F
GS
[1 0 0 1 0 0] CT
-42.5 -4 moveto 
1 -1 scale
(PSNR U\(dB\)) t 
GR
GR
GS
[1 0 0 1 290.00027 29.57497] CT
/Helvetica-Bold 15.4 F
GS
[1 0 0 1 0 0] CT
-113 -4 moveto 
1 -1 scale
(Lecture_1080P-3ce0.y4m-hevc) t 
GR
GR
GS
0 0.447 0.741 RC
1 LJ
0.5 LW
N
73.09 372.696 M
74.564 370.526 L
76.037 368.348 L
77.511 366.161 L
78.985 363.965 L
80.459 361.759 L
81.932 359.544 L
83.406 357.318 L
84.88 355.081 L
86.353 352.834 L
87.827 350.575 L
89.301 348.304 L
90.774 346.02 L
92.248 343.724 L
93.722 341.415 L
95.195 339.092 L
96.669 336.755 L
98.143 334.405 L
99.617 332.043 L
101.09 329.67 L
102.564 327.286 L
104.038 324.891 L
105.511 322.487 L
106.985 320.075 L
108.459 317.654 L
109.932 315.226 L
111.406 312.792 L
112.88 310.351 L
114.354 307.906 L
115.827 305.456 L
117.301 303.002 L
118.775 300.545 L
120.248 298.085 L
121.722 295.624 L
123.196 293.162 L
124.669 290.7 L
126.143 288.238 L
127.617 285.777 L
129.091 283.318 L
130.564 280.845 L
132.038 278.32 L
133.512 275.745 L
134.985 273.123 L
136.459 270.457 L
137.933 267.75 L
139.406 265.006 L
140.88 262.228 L
142.354 259.42 L
143.828 256.585 L
145.301 253.726 L
146.775 250.846 L
148.249 247.949 L
149.722 245.038 L
151.196 242.116 L
152.67 239.187 L
154.143 236.254 L
155.617 233.32 L
157.091 230.389 L
158.565 227.464 L
160.038 224.548 L
161.512 221.645 L
162.986 218.757 L
164.459 215.889 L
165.933 213.043 L
167.407 210.224 L
168.88 207.433 L
170.354 204.674 L
171.828 201.952 L
173.302 199.268 L
174.775 196.627 L
176.249 194.032 L
177.723 191.485 L
179.196 188.991 L
180.67 186.553 L
182.144 184.174 L
183.617 181.856 L
185.091 179.605 L
186.565 177.422 L
188.039 175.312 L
189.512 173.277 L
190.986 171.321 L
192.46 169.447 L
193.933 167.659 L
195.407 165.959 L
196.881 164.351 L
198.354 162.84 L
199.828 161.426 L
201.302 160.115 L
202.776 158.891 L
204.249 157.679 L
205.723 156.471 L
207.197 155.267 L
208.67 154.068 L
210.144 152.872 L
211.618 151.681 L
213.091 150.495 L
214.565 149.313 L
216.039 148.135 L
217.512 146.961 L
218.986 145.792 L
220.46 144.628 L
221.934 143.468 L
223.407 142.313 L
224.881 141.162 L
226.355 140.016 L
227.828 138.875 L
229.302 137.738 L
230.776 136.607 L
232.249 135.48 L
233.723 134.358 L
235.197 133.241 L
236.671 132.129 L
238.144 131.021 L
239.618 129.919 L
241.092 128.822 L
242.565 127.73 L
244.039 126.643 L
245.513 125.562 L
246.986 124.485 L
248.46 123.414 L
249.934 122.348 L
251.408 121.288 L
252.881 120.233 L
254.355 119.183 L
255.829 118.139 L
257.302 117.1 L
258.776 116.067 L
260.25 115.039 L
261.723 114.017 L
263.197 113.001 L
264.671 111.99 L
266.145 110.985 L
267.618 109.986 L
269.092 108.993 L
270.566 108.005 L
272.039 107.024 L
273.513 106.048 L
274.987 105.078 L
276.46 104.114 L
277.934 103.157 L
279.408 102.205 L
280.882 101.26 L
282.355 100.32 L
283.829 99.387 L
285.303 98.46 L
286.776 97.54 L
288.25 96.626 L
289.724 95.718 L
291.197 94.816 L
292.671 93.921 L
294.145 93.032 L
295.619 92.15 L
297.092 91.275 L
298.566 90.406 L
300.04 89.544 L
301.513 88.688 L
302.987 87.839 L
304.461 86.997 L
305.934 86.162 L
307.408 85.333 L
308.882 84.511 L
310.356 83.697 L
311.829 82.889 L
313.303 82.088 L
314.777 81.294 L
316.25 80.507 L
317.724 79.728 L
319.198 78.955 L
320.671 78.19 L
322.145 77.432 L
323.619 76.681 L
325.093 75.937 L
326.566 75.201 L
328.04 74.472 L
329.514 73.751 L
330.987 73.037 L
332.461 72.33 L
333.935 71.632 L
335.408 70.94 L
336.882 70.257 L
338.356 69.58 L
339.829 68.912 L
341.303 68.251 L
342.777 67.598 L
344.251 66.953 L
345.724 66.316 L
347.198 65.687 L
348.672 65.065 L
350.145 64.452 L
351.619 63.846 L
353.093 63.249 L
354.566 62.659 L
356.04 62.078 L
357.514 61.505 L
358.988 60.94 L
360.461 60.384 L
361.935 59.836 L
363.409 59.295 L
364.882 58.764 L
366.356 58.24 L
367.83 57.726 L
369.303 57.219 L
370.777 56.721 L
372.251 56.232 L
373.725 55.751 L
375.198 55.279 L
376.672 54.816 L
378.146 54.361 L
379.619 53.915 L
381.093 53.478 L
382.567 53.05 L
384.04 52.63 L
385.514 52.219 L
386.988 51.818 L
388.462 51.425 L
389.935 51.042 L
391.409 50.667 L
392.883 50.302 L
394.356 49.945 L
395.83 49.598 L
397.304 49.26 L
398.777 48.931 L
400.251 48.612 L
401.725 48.302 L
403.199 48.002 L
404.672 47.71 L
406.146 47.428 L
407.62 47.156 L
409.093 46.893 L
410.567 46.64 L
412.041 46.397 L
413.514 46.162 L
414.988 45.938 L
416.462 45.724 L
417.936 45.519 L
419.409 45.324 L
420.883 45.139 L
422.357 44.964 L
423.83 44.798 L
425.304 44.643 L
426.778 44.498 L
428.251 44.362 L
429.725 44.237 L
431.199 44.122 L
432.673 44.017 L
434.146 43.922 L
435.62 43.838 L
437.094 43.763 L
438.567 43.699 L
440.041 43.646 L
441.515 43.603 L
442.988 43.57 L
444.462 43.548 L
445.936 43.536 L
S
GR
GS
0.851 0.325 0.098 RC
1 LJ
0.5 LW
N
75.206 359.333 M
76.68 357.98 L
78.154 356.579 L
79.627 355.131 L
81.101 353.635 L
82.575 352.093 L
84.048 350.504 L
85.522 348.868 L
86.996 347.188 L
88.47 345.462 L
89.943 343.691 L
91.417 341.876 L
92.891 340.017 L
94.364 338.114 L
95.838 336.169 L
97.312 334.178 L
98.785 332.098 L
100.259 329.918 L
101.733 327.646 L
103.207 325.289 L
104.68 322.855 L
106.154 320.349 L
107.628 317.779 L
109.101 315.153 L
110.575 312.477 L
112.049 309.758 L
113.522 307.004 L
114.996 304.222 L
116.47 301.419 L
117.944 298.601 L
119.417 295.777 L
120.891 292.953 L
122.365 290.136 L
123.838 287.333 L
125.312 284.552 L
126.786 281.799 L
128.259 279.083 L
129.733 276.409 L
131.207 273.784 L
132.68 271.217 L
134.154 268.714 L
135.628 266.261 L
137.102 263.786 L
138.575 261.283 L
140.049 258.753 L
141.523 256.2 L
142.996 253.625 L
144.47 251.03 L
145.944 248.417 L
147.417 245.789 L
148.891 243.148 L
150.365 240.495 L
151.839 237.833 L
153.312 235.164 L
154.786 232.489 L
156.26 229.812 L
157.733 227.134 L
159.207 224.457 L
160.681 221.783 L
162.154 219.114 L
163.628 216.453 L
165.102 213.802 L
166.576 211.162 L
168.049 208.535 L
169.523 205.924 L
170.997 203.332 L
172.47 200.759 L
173.944 198.208 L
175.418 195.681 L
176.891 193.181 L
178.365 190.709 L
179.839 188.267 L
181.313 185.857 L
182.786 183.482 L
184.26 181.144 L
185.734 178.844 L
187.207 176.585 L
188.681 174.369 L
190.155 172.198 L
191.628 170.074 L
193.102 168 L
194.576 165.976 L
196.05 164.006 L
197.523 162.091 L
198.997 160.233 L
200.471 158.435 L
201.944 156.699 L
203.418 155.026 L
204.892 153.42 L
206.365 151.881 L
207.839 150.412 L
209.313 149.015 L
210.787 147.693 L
212.26 146.446 L
213.734 145.278 L
215.208 144.19 L
216.681 143.165 L
218.155 142.147 L
219.629 141.131 L
221.102 140.12 L
222.576 139.112 L
224.05 138.107 L
225.524 137.106 L
226.997 136.109 L
228.471 135.115 L
229.945 134.125 L
231.418 133.138 L
232.892 132.155 L
234.366 131.176 L
235.839 130.2 L
237.313 129.228 L
238.787 128.26 L
240.261 127.295 L
241.734 126.334 L
243.208 125.377 L
244.682 124.424 L
246.155 123.475 L
247.629 122.529 L
249.103 121.587 L
250.576 120.649 L
252.05 119.715 L
253.524 118.785 L
254.997 117.859 L
256.471 116.936 L
257.945 116.018 L
259.419 115.103 L
260.892 114.192 L
262.366 113.286 L
263.84 112.383 L
265.313 111.485 L
266.787 110.59 L
268.261 109.7 L
269.734 108.813 L
271.208 107.931 L
272.682 107.053 L
274.156 106.179 L
275.629 105.309 L
277.103 104.443 L
278.577 103.582 L
280.05 102.724 L
281.524 101.871 L
282.998 101.022 L
284.471 100.177 L
285.945 99.337 L
287.419 98.501 L
288.893 97.669 L
290.366 96.841 L
291.84 96.018 L
293.314 95.199 L
294.787 94.385 L
296.261 93.574 L
297.735 92.769 L
299.208 91.967 L
300.682 91.171 L
302.156 90.378 L
303.63 89.59 L
305.103 88.807 L
306.577 88.028 L
308.051 87.253 L
309.524 86.484 L
310.998 85.718 L
312.472 84.958 L
313.945 84.201 L
315.419 83.45 L
316.893 82.703 L
318.367 81.96 L
319.84 81.223 L
321.314 80.49 L
322.788 79.762 L
324.261 79.038 L
325.735 78.319 L
327.209 77.605 L
328.682 76.896 L
330.156 76.192 L
331.63 75.492 L
333.104 74.797 L
334.577 74.107 L
336.051 73.422 L
337.525 72.741 L
338.998 72.066 L
340.472 71.395 L
341.946 70.73 L
343.419 70.069 L
344.893 69.413 L
346.367 68.763 L
347.841 68.117 L
349.314 67.476 L
350.788 66.84 L
352.262 66.21 L
353.735 65.584 L
355.209 64.964 L
356.683 64.348 L
358.156 63.738 L
359.63 63.133 L
361.104 62.533 L
362.578 61.938 L
364.051 61.348 L
365.525 60.764 L
366.999 60.184 L
368.472 59.61 L
369.946 59.041 L
371.42 58.478 L
372.893 57.92 L
374.367 57.367 L
375.841 56.819 L
377.314 56.277 L
378.788 55.74 L
380.262 55.208 L
381.736 54.682 L
383.209 54.161 L
384.683 53.646 L
386.157 53.136 L
387.63 52.632 L
389.104 52.133 L
390.578 51.639 L
392.051 51.152 L
393.525 50.669 L
394.999 50.192 L
396.473 49.721 L
397.946 49.255 L
399.42 48.795 L
400.894 48.341 L
402.367 47.892 L
403.841 47.448 L
405.315 47.011 L
406.788 46.579 L
408.262 46.153 L
409.736 45.733 L
411.21 45.318 L
412.683 44.909 L
414.157 44.506 L
415.631 44.108 L
417.104 43.717 L
418.578 43.331 L
420.052 42.951 L
421.525 42.577 L
422.999 42.209 L
424.473 41.847 L
425.947 41.49 L
427.42 41.14 L
428.894 40.795 L
430.368 40.457 L
431.841 40.124 L
433.315 39.798 L
434.789 39.477 L
436.262 39.163 L
437.736 38.854 L
439.21 38.552 L
440.684 38.255 L
442.157 37.965 L
443.631 37.681 L
445.105 37.403 L
446.578 37.131 L
448.052 36.866 L
449.526 36.606 L
450.999 36.353 L
452.473 36.106 L
453.947 35.865 L
455.421 35.631 L
456.894 35.402 L
458.368 35.181 L
459.842 34.965 L
461.315 34.755 L
462.789 34.553 L
464.263 34.356 L
465.736 34.166 L
467.21 33.982 L
468.684 33.804 L
470.158 33.634 L
471.631 33.469 L
473.105 33.311 L
474.579 33.159 L
476.052 33.014 L
477.526 32.876 L
479 32.744 L
480.473 32.618 L
481.947 32.499 L
483.421 32.387 L
484.895 32.281 L
486.368 32.182 L
487.842 32.09 L
489.316 32.004 L
490.789 31.925 L
492.263 31.852 L
493.737 31.787 L
495.21 31.728 L
496.684 31.676 L
498.158 31.63 L
499.632 31.591 L
501.105 31.559 L
502.579 31.534 L
504.053 31.516 L
505.526 31.505 L
507 31.5 L
S
GR
GS
0.929 0.694 0.125 RC
1 LJ
0.5 LW
N
74.704 360.154 M
76.178 358.54 L
77.652 356.893 L
79.125 355.212 L
80.599 353.496 L
82.073 351.747 L
83.546 349.963 L
85.02 348.144 L
86.494 346.29 L
87.968 344.401 L
89.441 342.476 L
90.915 340.516 L
92.389 338.519 L
93.862 336.487 L
95.336 334.418 L
96.81 332.308 L
98.283 330.134 L
99.757 327.893 L
101.231 325.59 L
102.705 323.231 L
104.178 320.82 L
105.652 318.361 L
107.126 315.859 L
108.599 313.32 L
110.073 310.746 L
111.547 308.145 L
113.02 305.519 L
114.494 302.874 L
115.968 300.214 L
117.442 297.544 L
118.915 294.869 L
120.389 292.193 L
121.863 289.522 L
123.336 286.859 L
124.81 284.209 L
126.284 281.578 L
127.757 278.969 L
129.231 276.388 L
130.705 273.839 L
132.179 271.327 L
133.652 268.852 L
135.126 266.352 L
136.6 263.813 L
138.073 261.237 L
139.547 258.628 L
141.021 255.988 L
142.494 253.319 L
143.968 250.624 L
145.442 247.906 L
146.916 245.167 L
148.389 242.41 L
149.863 239.638 L
151.337 236.854 L
152.81 234.059 L
154.284 231.257 L
155.758 228.45 L
157.231 225.642 L
158.705 222.833 L
160.179 220.028 L
161.653 217.229 L
163.126 214.439 L
164.6 211.659 L
166.074 208.893 L
167.547 206.144 L
169.021 203.414 L
170.495 200.706 L
171.968 198.022 L
173.442 195.365 L
174.916 192.738 L
176.389 190.143 L
177.863 187.583 L
179.337 185.061 L
180.811 182.579 L
182.284 180.14 L
183.758 177.746 L
185.232 175.401 L
186.705 173.107 L
188.179 170.865 L
189.653 168.681 L
191.126 166.555 L
192.6 164.49 L
194.074 162.49 L
195.548 160.556 L
197.021 158.692 L
198.495 156.9 L
199.969 155.182 L
201.442 153.542 L
202.916 151.982 L
204.39 150.504 L
205.863 149.112 L
207.337 147.807 L
208.811 146.593 L
210.285 145.464 L
211.758 144.353 L
213.232 143.246 L
214.706 142.142 L
216.179 141.043 L
217.653 139.948 L
219.127 138.856 L
220.6 137.769 L
222.074 136.686 L
223.548 135.607 L
225.022 134.532 L
226.495 133.461 L
227.969 132.395 L
229.443 131.332 L
230.916 130.274 L
232.39 129.221 L
233.864 128.171 L
235.337 127.126 L
236.811 126.085 L
238.285 125.049 L
239.759 124.017 L
241.232 122.99 L
242.706 121.967 L
244.18 120.948 L
245.653 119.935 L
247.127 118.925 L
248.601 117.921 L
250.074 116.921 L
251.548 115.925 L
253.022 114.935 L
254.496 113.949 L
255.969 112.968 L
257.443 111.991 L
258.917 111.019 L
260.39 110.053 L
261.864 109.091 L
263.338 108.134 L
264.811 107.182 L
266.285 106.235 L
267.759 105.293 L
269.233 104.356 L
270.706 103.424 L
272.18 102.497 L
273.654 101.575 L
275.127 100.659 L
276.601 99.747 L
278.075 98.841 L
279.548 97.94 L
281.022 97.044 L
282.496 96.154 L
283.97 95.268 L
285.443 94.389 L
286.917 93.514 L
288.391 92.645 L
289.864 91.781 L
291.338 90.923 L
292.812 90.07 L
294.285 89.223 L
295.759 88.382 L
297.233 87.546 L
298.706 86.715 L
300.18 85.89 L
301.654 85.071 L
303.128 84.258 L
304.601 83.45 L
306.075 82.648 L
307.549 81.852 L
309.022 81.062 L
310.496 80.277 L
311.97 79.498 L
313.443 78.726 L
314.917 77.959 L
316.391 77.198 L
317.865 76.443 L
319.338 75.695 L
320.812 74.952 L
322.286 74.215 L
323.759 73.484 L
325.233 72.76 L
326.707 72.042 L
328.18 71.329 L
329.654 70.623 L
331.128 69.924 L
332.602 69.23 L
334.075 68.543 L
335.549 67.863 L
337.023 67.188 L
338.496 66.52 L
339.97 65.859 L
341.444 65.204 L
342.917 64.555 L
344.391 63.913 L
345.865 63.278 L
347.339 62.649 L
348.812 62.026 L
350.286 61.411 L
351.76 60.802 L
353.233 60.199 L
354.707 59.604 L
356.181 59.015 L
357.654 58.433 L
359.128 57.857 L
360.602 57.289 L
362.076 56.727 L
363.549 56.173 L
365.023 55.625 L
366.497 55.084 L
367.97 54.55 L
369.444 54.024 L
370.918 53.504 L
372.391 52.991 L
373.865 52.485 L
375.339 51.987 L
376.813 51.496 L
378.286 51.012 L
379.76 50.535 L
381.234 50.065 L
382.707 49.603 L
384.181 49.148 L
385.655 48.7 L
387.128 48.26 L
388.602 47.827 L
390.076 47.401 L
391.55 46.983 L
393.023 46.573 L
394.497 46.17 L
395.971 45.774 L
397.444 45.386 L
398.918 45.006 L
400.392 44.633 L
401.865 44.268 L
403.339 43.911 L
404.813 43.561 L
406.287 43.219 L
407.76 42.885 L
409.234 42.558 L
410.708 42.24 L
412.181 41.929 L
413.655 41.627 L
415.129 41.332 L
416.602 41.045 L
418.076 40.766 L
419.55 40.495 L
421.023 40.232 L
422.497 39.978 L
423.971 39.731 L
425.445 39.492 L
426.918 39.262 L
428.392 39.04 L
429.866 38.826 L
431.339 38.62 L
432.813 38.423 L
434.287 38.234 L
435.76 38.053 L
437.234 37.88 L
438.708 37.716 L
440.182 37.561 L
441.655 37.413 L
443.129 37.275 L
444.603 37.145 L
446.076 37.023 L
447.55 36.91 L
449.024 36.805 L
450.497 36.709 L
451.971 36.622 L
453.445 36.544 L
454.919 36.474 L
456.392 36.413 L
457.866 36.36 L
459.34 36.317 L
460.813 36.282 L
462.287 36.256 L
463.761 36.24 L
465.234 36.231 L
S
GR
GS
0.494 0.184 0.557 RC
1 LJ
0.5 LW
N
73 373.024 M
74.474 370.837 L
75.947 368.642 L
77.421 366.438 L
78.895 364.226 L
80.368 362.005 L
81.842 359.774 L
83.316 357.533 L
84.79 355.282 L
86.263 353.019 L
87.737 350.746 L
89.211 348.461 L
90.684 346.164 L
92.158 343.854 L
93.632 341.532 L
95.105 339.197 L
96.579 336.85 L
98.053 334.49 L
99.527 332.12 L
101 329.739 L
102.474 327.348 L
103.948 324.948 L
105.421 322.538 L
106.895 320.12 L
108.369 317.694 L
109.842 315.261 L
111.316 312.821 L
112.79 310.376 L
114.264 307.924 L
115.737 305.467 L
117.211 303.006 L
118.685 300.541 L
120.158 298.072 L
121.632 295.601 L
123.106 293.127 L
124.579 290.652 L
126.053 288.175 L
127.527 285.698 L
129.001 283.221 L
130.474 280.722 L
131.948 278.168 L
133.422 275.562 L
134.895 272.907 L
136.369 270.208 L
137.843 267.467 L
139.316 264.687 L
140.79 261.873 L
142.264 259.028 L
143.738 256.155 L
145.211 253.258 L
146.685 250.339 L
148.159 247.404 L
149.632 244.454 L
151.106 241.494 L
152.58 238.526 L
154.053 235.556 L
155.527 232.585 L
157.001 229.617 L
158.475 226.656 L
159.948 223.705 L
161.422 220.768 L
162.896 217.848 L
164.369 214.949 L
165.843 212.073 L
167.317 209.226 L
168.79 206.409 L
170.264 203.626 L
171.738 200.882 L
173.212 198.178 L
174.685 195.519 L
176.159 192.909 L
177.633 190.35 L
179.106 187.847 L
180.58 185.402 L
182.054 183.019 L
183.527 180.701 L
185.001 178.452 L
186.475 176.276 L
187.949 174.176 L
189.422 172.155 L
190.896 170.217 L
192.37 168.364 L
193.843 166.602 L
195.317 164.933 L
196.791 163.36 L
198.264 161.887 L
199.738 160.518 L
201.212 159.25 L
202.686 158.008 L
204.159 156.77 L
205.633 155.536 L
207.107 154.307 L
208.58 153.082 L
210.054 151.861 L
211.528 150.645 L
213.001 149.434 L
214.475 148.227 L
215.949 147.024 L
217.422 145.826 L
218.896 144.633 L
220.37 143.444 L
221.844 142.26 L
223.317 141.082 L
224.791 139.907 L
226.265 138.738 L
227.738 137.574 L
229.212 136.414 L
230.686 135.26 L
232.159 134.111 L
233.633 132.967 L
235.107 131.828 L
236.581 130.694 L
238.054 129.565 L
239.528 128.442 L
241.002 127.324 L
242.475 126.212 L
243.949 125.105 L
245.423 124.003 L
246.896 122.907 L
248.37 121.817 L
249.844 120.732 L
251.318 119.653 L
252.791 118.579 L
254.265 117.511 L
255.739 116.449 L
257.212 115.393 L
258.686 114.343 L
260.16 113.299 L
261.633 112.261 L
263.107 111.228 L
264.581 110.202 L
266.055 109.182 L
267.528 108.168 L
269.002 107.16 L
270.476 106.159 L
271.949 105.164 L
273.423 104.175 L
274.897 103.192 L
276.37 102.216 L
277.844 101.247 L
279.318 100.284 L
280.792 99.328 L
282.265 98.378 L
283.739 97.435 L
285.213 96.498 L
286.686 95.568 L
288.16 94.646 L
289.634 93.73 L
291.107 92.821 L
292.581 91.918 L
294.055 91.023 L
295.529 90.135 L
297.002 89.254 L
298.476 88.38 L
299.95 87.513 L
301.423 86.653 L
302.897 85.801 L
304.371 84.956 L
305.844 84.118 L
307.318 83.288 L
308.792 82.465 L
310.266 81.649 L
311.739 80.841 L
313.213 80.041 L
314.687 79.248 L
316.16 78.463 L
317.634 77.686 L
319.108 76.916 L
320.581 76.154 L
322.055 75.4 L
323.529 74.654 L
325.003 73.916 L
326.476 73.186 L
327.95 72.464 L
329.424 71.75 L
330.897 71.044 L
332.371 70.346 L
333.845 69.656 L
335.318 68.975 L
336.792 68.302 L
338.266 67.637 L
339.74 66.981 L
341.213 66.333 L
342.687 65.694 L
344.161 65.063 L
345.634 64.44 L
347.108 63.827 L
348.582 63.222 L
350.055 62.625 L
351.529 62.038 L
353.003 61.459 L
354.476 60.889 L
355.95 60.328 L
357.424 59.776 L
358.898 59.233 L
360.371 58.699 L
361.845 58.174 L
363.319 57.658 L
364.792 57.151 L
366.266 56.654 L
367.74 56.165 L
369.213 55.686 L
370.687 55.217 L
372.161 54.757 L
373.635 54.306 L
375.108 53.864 L
376.582 53.433 L
378.056 53.01 L
379.529 52.598 L
381.003 52.195 L
382.477 51.801 L
383.95 51.418 L
385.424 51.044 L
386.898 50.68 L
388.372 50.327 L
389.845 49.982 L
391.319 49.648 L
392.793 49.324 L
394.266 49.01 L
395.74 48.707 L
397.214 48.413 L
398.687 48.129 L
400.161 47.856 L
401.635 47.593 L
403.109 47.341 L
404.582 47.098 L
406.056 46.867 L
407.53 46.645 L
409.003 46.435 L
410.477 46.234 L
411.951 46.045 L
413.424 45.866 L
414.898 45.698 L
416.372 45.54 L
417.846 45.394 L
419.319 45.258 L
420.793 45.133 L
422.267 45.019 L
423.74 44.916 L
425.214 44.824 L
426.688 44.743 L
428.161 44.673 L
429.635 44.615 L
431.109 44.567 L
432.583 44.531 L
434.056 44.506 L
435.53 44.493 L
S
GR
GS
0.467 0.675 0.188 RC
[10 6] 0 setdash
2 LJ
0.5 LW
N
75.13 362.953 M
76.604 361.174 L
78.078 359.355 L
79.551 357.497 L
81.025 355.599 L
82.499 353.662 L
83.972 351.684 L
85.446 349.666 L
86.92 347.607 L
88.394 345.508 L
89.867 343.368 L
91.341 341.187 L
92.815 338.964 L
94.288 336.699 L
95.762 334.392 L
97.236 332.043 L
98.709 329.615 L
100.183 327.094 L
101.657 324.486 L
103.131 321.798 L
104.604 319.038 L
106.078 316.214 L
107.552 313.332 L
109.025 310.4 L
110.499 307.425 L
111.973 304.413 L
113.446 301.374 L
114.92 298.312 L
116.394 295.237 L
117.868 292.154 L
119.341 289.072 L
120.815 285.998 L
122.289 282.937 L
123.762 279.899 L
125.236 276.891 L
126.71 273.918 L
128.183 270.99 L
129.657 268.112 L
131.131 265.292 L
132.605 262.538 L
134.078 259.856 L
135.552 257.252 L
137.026 254.66 L
138.499 252.046 L
139.973 249.411 L
141.447 246.757 L
142.92 244.088 L
144.394 241.403 L
145.868 238.706 L
147.342 235.998 L
148.815 233.282 L
150.289 230.559 L
151.763 227.831 L
153.236 225.101 L
154.71 222.37 L
156.184 219.64 L
157.657 216.913 L
159.131 214.191 L
160.605 211.477 L
162.079 208.771 L
163.552 206.077 L
165.026 203.395 L
166.5 200.729 L
167.973 198.08 L
169.447 195.449 L
170.921 192.84 L
172.394 190.253 L
173.868 187.691 L
175.342 185.156 L
176.816 182.65 L
178.289 180.175 L
179.763 177.733 L
181.237 175.325 L
182.71 172.953 L
184.184 170.621 L
185.658 168.329 L
187.131 166.08 L
188.605 163.876 L
190.079 161.717 L
191.552 159.608 L
193.026 157.549 L
194.5 155.542 L
195.974 153.591 L
197.447 151.695 L
198.921 149.858 L
200.395 148.081 L
201.868 146.366 L
203.342 144.716 L
204.816 143.132 L
206.289 141.616 L
207.763 140.171 L
209.237 138.797 L
210.711 137.498 L
212.184 136.275 L
213.658 135.13 L
215.132 134.066 L
216.605 133.065 L
218.079 132.073 L
219.553 131.085 L
221.026 130.1 L
222.5 129.119 L
223.974 128.142 L
225.448 127.169 L
226.921 126.2 L
228.395 125.234 L
229.869 124.273 L
231.342 123.315 L
232.816 122.361 L
234.29 121.411 L
235.763 120.465 L
237.237 119.524 L
238.711 118.585 L
240.185 117.652 L
241.658 116.722 L
243.132 115.796 L
244.606 114.874 L
246.079 113.957 L
247.553 113.043 L
249.027 112.134 L
250.5 111.228 L
251.974 110.327 L
253.448 109.43 L
254.922 108.538 L
256.395 107.649 L
257.869 106.765 L
259.343 105.885 L
260.816 105.009 L
262.29 104.138 L
263.764 103.271 L
265.237 102.408 L
266.711 101.55 L
268.185 100.696 L
269.659 99.846 L
271.132 99.001 L
272.606 98.16 L
274.08 97.324 L
275.553 96.492 L
277.027 95.664 L
278.501 94.841 L
279.974 94.023 L
281.448 93.209 L
282.922 92.4 L
284.396 91.595 L
285.869 90.795 L
287.343 90 L
288.817 89.209 L
290.29 88.423 L
291.764 87.641 L
293.238 86.864 L
294.711 86.092 L
296.185 85.325 L
297.659 84.562 L
299.133 83.805 L
300.606 83.052 L
302.08 82.303 L
303.554 81.56 L
305.027 80.821 L
306.501 80.088 L
307.975 79.359 L
309.448 78.635 L
310.922 77.916 L
312.396 77.202 L
313.87 76.493 L
315.343 75.789 L
316.817 75.09 L
318.291 74.395 L
319.764 73.706 L
321.238 73.022 L
322.712 72.343 L
324.185 71.669 L
325.659 71.001 L
327.133 70.337 L
328.607 69.678 L
330.08 69.025 L
331.554 68.377 L
333.028 67.734 L
334.501 67.096 L
335.975 66.464 L
337.449 65.837 L
338.922 65.214 L
340.396 64.598 L
341.87 63.987 L
343.343 63.381 L
344.817 62.78 L
346.291 62.185 L
347.765 61.595 L
349.238 61.01 L
350.712 60.431 L
352.186 59.857 L
353.659 59.289 L
355.133 58.727 L
356.607 58.17 L
358.08 57.618 L
359.554 57.072 L
361.028 56.531 L
362.502 55.996 L
363.975 55.467 L
365.449 54.943 L
366.923 54.425 L
368.396 53.912 L
369.87 53.406 L
371.344 52.905 L
372.817 52.409 L
374.291 51.92 L
375.765 51.436 L
377.239 50.958 L
378.712 50.485 L
380.186 50.019 L
381.66 49.558 L
383.133 49.103 L
384.607 48.654 L
386.081 48.211 L
387.554 47.774 L
389.028 47.342 L
390.502 46.917 L
391.976 46.497 L
393.449 46.084 L
394.923 45.677 L
396.397 45.275 L
397.87 44.88 L
399.344 44.49 L
400.818 44.107 L
402.291 43.73 L
403.765 43.359 L
405.239 42.994 L
406.713 42.635 L
408.186 42.282 L
409.66 41.936 L
411.134 41.595 L
412.607 41.261 L
414.081 40.933 L
415.555 40.612 L
417.028 40.296 L
418.502 39.987 L
419.976 39.684 L
421.449 39.388 L
422.923 39.098 L
424.397 38.815 L
425.871 38.537 L
427.344 38.266 L
428.818 38.002 L
430.292 37.744 L
431.765 37.492 L
433.239 37.247 L
434.713 37.009 L
436.186 36.777 L
437.66 36.551 L
439.134 36.332 L
440.608 36.12 L
442.081 35.914 L
443.555 35.715 L
445.029 35.523 L
446.502 35.337 L
447.976 35.157 L
449.45 34.985 L
450.923 34.819 L
452.397 34.66 L
453.871 34.508 L
455.345 34.362 L
456.818 34.223 L
458.292 34.091 L
459.766 33.966 L
461.239 33.848 L
462.713 33.736 L
464.187 33.632 L
465.66 33.534 L
467.134 33.443 L
468.608 33.36 L
470.082 33.283 L
471.555 33.213 L
473.029 33.15 L
474.503 33.094 L
475.976 33.045 L
477.45 33.003 L
478.924 32.969 L
480.397 32.941 L
481.871 32.92 L
483.345 32.907 L
484.819 32.9 L
S
GR
GS
0.302 0.745 0.933 RC
[10 6] 0 setdash
2 LJ
0.5 LW
N
74.154 370.837 M
75.627 368.82 L
77.101 366.775 L
78.575 364.701 L
80.049 362.596 L
81.522 360.462 L
82.996 358.297 L
84.47 356.1 L
85.943 353.872 L
87.417 351.611 L
88.891 349.317 L
90.364 346.989 L
91.838 344.628 L
93.312 342.232 L
94.786 339.801 L
96.259 337.327 L
97.733 334.786 L
99.207 332.178 L
100.68 329.508 L
102.154 326.783 L
103.628 324.007 L
105.101 321.188 L
106.575 318.328 L
108.049 315.436 L
109.523 312.515 L
110.996 309.571 L
112.47 306.611 L
113.944 303.639 L
115.417 300.661 L
116.891 297.683 L
118.365 294.71 L
119.838 291.747 L
121.312 288.8 L
122.786 285.875 L
124.26 282.977 L
125.733 280.112 L
127.207 277.285 L
128.681 274.502 L
130.154 271.768 L
131.628 269.089 L
133.102 266.459 L
134.575 263.81 L
136.049 261.132 L
137.523 258.428 L
138.997 255.7 L
140.47 252.95 L
141.944 250.181 L
143.418 247.394 L
144.891 244.594 L
146.365 241.781 L
147.839 238.958 L
149.312 236.127 L
150.786 233.292 L
152.26 230.454 L
153.734 227.615 L
155.207 224.779 L
156.681 221.947 L
158.155 219.122 L
159.628 216.306 L
161.102 213.502 L
162.576 210.711 L
164.049 207.938 L
165.523 205.182 L
166.997 202.448 L
168.471 199.737 L
169.944 197.052 L
171.418 194.395 L
172.892 191.769 L
174.365 189.176 L
175.839 186.618 L
177.313 184.098 L
178.786 181.618 L
180.26 179.181 L
181.734 176.788 L
183.208 174.443 L
184.681 172.147 L
186.155 169.903 L
187.629 167.714 L
189.102 165.581 L
190.576 163.508 L
192.05 161.496 L
193.523 159.548 L
194.997 157.666 L
196.471 155.853 L
197.944 154.111 L
199.418 152.442 L
200.892 150.849 L
202.366 149.334 L
203.839 147.9 L
205.313 146.549 L
206.787 145.283 L
208.26 144.104 L
209.734 143 L
211.208 141.907 L
212.681 140.818 L
214.155 139.733 L
215.629 138.652 L
217.103 137.575 L
218.576 136.502 L
220.05 135.433 L
221.524 134.369 L
222.997 133.308 L
224.471 132.252 L
225.945 131.201 L
227.418 130.153 L
228.892 129.11 L
230.366 128.071 L
231.84 127.036 L
233.313 126.006 L
234.787 124.98 L
236.261 123.959 L
237.734 122.942 L
239.208 121.93 L
240.682 120.922 L
242.155 119.919 L
243.629 118.92 L
245.103 117.926 L
246.577 116.937 L
248.05 115.952 L
249.524 114.972 L
250.998 113.997 L
252.471 113.026 L
253.945 112.06 L
255.419 111.099 L
256.892 110.143 L
258.366 109.192 L
259.84 108.245 L
261.314 107.304 L
262.787 106.367 L
264.261 105.436 L
265.735 104.509 L
267.208 103.587 L
268.682 102.671 L
270.156 101.759 L
271.629 100.853 L
273.103 99.952 L
274.577 99.056 L
276.051 98.165 L
277.524 97.279 L
278.998 96.399 L
280.472 95.523 L
281.945 94.653 L
283.419 93.789 L
284.893 92.93 L
286.366 92.076 L
287.84 91.227 L
289.314 90.384 L
290.788 89.547 L
292.261 88.715 L
293.735 87.888 L
295.209 87.067 L
296.682 86.252 L
298.156 85.442 L
299.63 84.638 L
301.103 83.839 L
302.577 83.046 L
304.051 82.259 L
305.525 81.478 L
306.998 80.702 L
308.472 79.932 L
309.946 79.168 L
311.419 78.41 L
312.893 77.657 L
314.367 76.911 L
315.84 76.17 L
317.314 75.436 L
318.788 74.707 L
320.262 73.984 L
321.735 73.268 L
323.209 72.558 L
324.683 71.853 L
326.156 71.155 L
327.63 70.462 L
329.104 69.777 L
330.577 69.097 L
332.051 68.423 L
333.525 67.756 L
334.998 67.095 L
336.472 66.44 L
337.946 65.792 L
339.42 65.15 L
340.893 64.514 L
342.367 63.885 L
343.841 63.262 L
345.314 62.646 L
346.788 62.036 L
348.262 61.433 L
349.736 60.836 L
351.209 60.246 L
352.683 59.662 L
354.157 59.085 L
355.63 58.515 L
357.104 57.952 L
358.578 57.395 L
360.051 56.845 L
361.525 56.302 L
362.999 55.765 L
364.472 55.236 L
365.946 54.713 L
367.42 54.197 L
368.894 53.688 L
370.367 53.186 L
371.841 52.691 L
373.315 52.202 L
374.788 51.721 L
376.262 51.247 L
377.736 50.78 L
379.209 50.321 L
380.683 49.868 L
382.157 49.422 L
383.631 48.984 L
385.104 48.553 L
386.578 48.129 L
388.052 47.712 L
389.525 47.303 L
390.999 46.901 L
392.473 46.506 L
393.946 46.119 L
395.42 45.739 L
396.894 45.366 L
398.368 45.001 L
399.841 44.644 L
401.315 44.294 L
402.789 43.951 L
404.262 43.616 L
405.736 43.289 L
407.21 42.969 L
408.683 42.657 L
410.157 42.353 L
411.631 42.056 L
413.105 41.767 L
414.578 41.486 L
416.052 41.213 L
417.526 40.947 L
418.999 40.689 L
420.473 40.44 L
421.947 40.198 L
423.42 39.964 L
424.894 39.737 L
426.368 39.519 L
427.842 39.309 L
429.315 39.107 L
430.789 38.913 L
432.263 38.727 L
433.736 38.55 L
435.21 38.38 L
436.684 38.218 L
438.157 38.065 L
439.631 37.92 L
441.105 37.783 L
442.579 37.655 L
444.052 37.535 L
445.526 37.423 L
447 37.319 L
448.473 37.224 L
449.947 37.138 L
451.421 37.059 L
452.894 36.99 L
454.368 36.928 L
455.842 36.875 L
457.315 36.831 L
458.789 36.796 L
460.263 36.769 L
461.737 36.75 L
463.21 36.741 L
S
GR
GS
0.635 0.078 0.184 RC
[10 6] 0 setdash
2 LJ
0.5 LW
N
73.025 374 M
74.499 371.831 L
75.972 369.652 L
77.446 367.463 L
78.92 365.264 L
80.393 363.054 L
81.867 360.832 L
83.341 358.599 L
84.815 356.353 L
86.288 354.095 L
87.762 351.824 L
89.236 349.539 L
90.709 347.24 L
92.183 344.926 L
93.657 342.598 L
95.13 340.254 L
96.604 337.896 L
98.078 335.525 L
99.552 333.14 L
101.025 330.742 L
102.499 328.333 L
103.973 325.913 L
105.446 323.482 L
106.92 321.041 L
108.394 318.59 L
109.867 316.131 L
111.341 313.664 L
112.815 311.19 L
114.289 308.709 L
115.762 306.221 L
117.236 303.728 L
118.71 301.23 L
120.183 298.729 L
121.657 296.223 L
123.131 293.715 L
124.604 291.204 L
126.078 288.692 L
127.552 286.179 L
129.025 283.665 L
130.499 281.127 L
131.973 278.534 L
133.447 275.89 L
134.92 273.197 L
136.394 270.459 L
137.868 267.68 L
139.341 264.864 L
140.815 262.013 L
142.289 259.131 L
143.762 256.222 L
145.236 253.289 L
146.71 250.336 L
148.184 247.366 L
149.657 244.383 L
151.131 241.39 L
152.605 238.39 L
154.078 235.388 L
155.552 232.386 L
157.026 229.389 L
158.499 226.399 L
159.973 223.42 L
161.447 220.456 L
162.921 217.51 L
164.394 214.586 L
165.868 211.686 L
167.342 208.816 L
168.815 205.977 L
170.289 203.174 L
171.763 200.41 L
173.236 197.688 L
174.71 195.013 L
176.184 192.387 L
177.658 189.814 L
179.131 187.297 L
180.605 184.841 L
182.079 182.448 L
183.552 180.122 L
185.026 177.867 L
186.5 175.685 L
187.973 173.581 L
189.447 171.558 L
190.921 169.619 L
192.395 167.769 L
193.868 166.01 L
195.342 164.345 L
196.816 162.779 L
198.289 161.315 L
199.763 159.944 L
201.237 158.59 L
202.71 157.24 L
204.184 155.894 L
205.658 154.552 L
207.132 153.215 L
208.605 151.881 L
210.079 150.552 L
211.553 149.228 L
213.026 147.908 L
214.5 146.592 L
215.974 145.282 L
217.447 143.976 L
218.921 142.675 L
220.395 141.379 L
221.869 140.088 L
223.342 138.803 L
224.816 137.522 L
226.29 136.247 L
227.763 134.978 L
229.237 133.713 L
230.711 132.455 L
232.184 131.202 L
233.658 129.955 L
235.132 128.714 L
236.605 127.479 L
238.079 126.25 L
239.553 125.026 L
241.027 123.81 L
242.5 122.599 L
243.974 121.395 L
245.448 120.197 L
246.921 119.006 L
248.395 117.822 L
249.869 116.644 L
251.342 115.473 L
252.816 114.309 L
254.29 113.152 L
255.764 112.002 L
257.237 110.86 L
258.711 109.725 L
260.185 108.596 L
261.658 107.476 L
263.132 106.363 L
264.606 105.257 L
266.079 104.159 L
267.553 103.069 L
269.027 101.987 L
270.501 100.913 L
271.974 99.847 L
273.448 98.789 L
274.922 97.739 L
276.395 96.698 L
277.869 95.665 L
279.343 94.64 L
280.816 93.624 L
282.29 92.617 L
283.764 91.619 L
285.238 90.629 L
286.711 89.648 L
288.185 88.677 L
289.659 87.714 L
291.132 86.76 L
292.606 85.816 L
294.08 84.881 L
295.553 83.956 L
297.027 83.04 L
298.501 82.134 L
299.975 81.238 L
301.448 80.351 L
302.922 79.474 L
304.396 78.607 L
305.869 77.751 L
307.343 76.904 L
308.817 76.068 L
310.29 75.242 L
311.764 74.426 L
313.238 73.621 L
314.712 72.826 L
316.185 72.042 L
317.659 71.269 L
319.133 70.507 L
320.606 69.756 L
322.08 69.015 L
323.554 68.286 L
325.027 67.568 L
326.501 66.862 L
327.975 66.166 L
329.449 65.483 L
330.922 64.81 L
332.396 64.15 L
333.87 63.501 L
335.343 62.864 L
336.817 62.238 L
338.291 61.625 L
339.764 61.024 L
341.238 60.435 L
342.712 59.858 L
344.186 59.294 L
345.659 58.742 L
347.133 58.202 L
348.607 57.676 L
350.08 57.161 L
351.554 56.66 L
353.028 56.171 L
354.501 55.696 L
355.975 55.233 L
357.449 54.784 L
358.923 54.348 L
360.396 53.925 L
361.87 53.515 L
363.344 53.119 L
364.817 52.737 L
366.291 52.368 L
367.765 52.013 L
369.238 51.671 L
370.712 51.344 L
372.186 51.031 L
373.659 50.731 L
375.133 50.446 L
376.607 50.175 L
378.081 49.919 L
379.554 49.677 L
381.028 49.449 L
382.502 49.236 L
383.975 49.038 L
385.449 48.855 L
386.923 48.686 L
388.396 48.532 L
389.87 48.394 L
391.344 48.27 L
392.818 48.162 L
394.291 48.069 L
395.765 47.992 L
397.239 47.93 L
398.712 47.883 L
400.186 47.852 L
401.66 47.837 L
S
GR
GS
1 GC
N
499 366 M
499 250.5 L
344.5 250.5 L
344.5 366 L
cp
f
GR
GS
[1 0 0 1 381.5 260.25] CT
/Helvetica 13 F
GS
[1 0 0 1 0 0] CT
0 5 moveto 
1 -1 scale
(Base Run) t 
GR
GR
GS
0 0.447 0.741 RC
1 LJ
0.5 LW
N
348.5 260.25 M
378.5 260.25 L
S
GR
GS
[1 0 0 1 381.5 276.25] CT
/Helvetica 13 F
GS
[1 0 0 1 0 0] CT
0 5 moveto 
1 -1 scale
(I & B Frames) t 
GR
GR
GS
0.851 0.325 0.098 RC
1 LJ
0.5 LW
N
348.5 276.25 M
378.5 276.25 L
S
GR
GS
[1 0 0 1 381.5 292.25] CT
/Helvetica 13 F
GS
[1 0 0 1 0 0] CT
0 5 moveto 
1 -1 scale
(I Frames Only) t 
GR
GR
GS
0.929 0.694 0.125 RC
1 LJ
0.5 LW
N
348.5 292.25 M
378.5 292.25 L
S
GR
GS
[1 0 0 1 381.5 308.25] CT
/Helvetica 13 F
GS
[1 0 0 1 0 0] CT
0 5 moveto 
1 -1 scale
(B Frames Only) t 
GR
GR
GS
0.494 0.184 0.557 RC
1 LJ
0.5 LW
N
348.5 308.25 M
378.5 308.25 L
S
GR
GS
[1 0 0 1 381.5 324.25] CT
/Helvetica 13 F
GS
[1 0 0 1 0 0] CT
0 5 moveto 
1 -1 scale
(Part I & B Frames) t 
GR
GR
GS
0.467 0.675 0.188 RC
[10 6] 0 setdash
2 LJ
0.5 LW
N
348.5 324.25 M
378.5 324.25 L
S
GR
GS
[1 0 0 1 381.5 340.25] CT
/Helvetica 13 F
GS
[1 0 0 1 0 0] CT
0 5 moveto 
1 -1 scale
(Part I Frames Only) t 
GR
GR
GS
0.302 0.745 0.933 RC
[10 6] 0 setdash
2 LJ
0.5 LW
N
348.5 340.25 M
378.5 340.25 L
S
GR
GS
[1 0 0 1 381.5 356.25] CT
/Helvetica 13 F
GS
[1 0 0 1 0 0] CT
0 5 moveto 
1 -1 scale
(Part B Frames Only) t 
GR
GR
GS
0.635 0.078 0.184 RC
[10 6] 0 setdash
2 LJ
0.5 LW
N
348.5 356.25 M
378.5 356.25 L
S
GR
GS
0.149 GC
10.0 ML
0.5 LW
N
344.5 366 M
344.5 250.5 L
499 250.5 L
499 366 L
cp
S
GR
%%Trailer
%%Pages: 1
%%EOF
