%!PS-Adobe-3.0 EPSF-3.0
%%Creator: (MATLAB, The Mathworks, Inc. Version 9.11.0.1837725 \(R2021b\) Update 2. Operating System: Mac OS X)
%%Title: plots/pchip/Lecture_1080P-3ce0.y4m-av1-nVMAF.eps
%%CreationDate: 2022-02-03T19:13:09
%%Pages: (atend)
%%BoundingBox:    33   425   519   826
%%LanguageLevel: 3
%%EndComments
%%BeginProlog
%%BeginResource: procset (Apache XML Graphics Std ProcSet) 1.2 0
%%Version: 1.2 0
%%Copyright: (Copyright 2001-2003,2010 The Apache Software Foundation. License terms: http://www.apache.org/licenses/LICENSE-2.0)
/bd{bind def}bind def
/ld{load def}bd
/GR/grestore ld
/GS/gsave ld
/RM/rmoveto ld
/C/curveto ld
/t/show ld
/L/lineto ld
/ML/setmiterlimit ld
/CT/concat ld
/f/fill ld
/N/newpath ld
/S/stroke ld
/CC/setcmykcolor ld
/A/ashow ld
/cp/closepath ld
/RC/setrgbcolor ld
/LJ/setlinejoin ld
/GC/setgray ld
/LW/setlinewidth ld
/M/moveto ld
/re {4 2 roll M
1 index 0 rlineto
0 exch rlineto
neg 0 rlineto
cp } bd
/_ctm matrix def
/_tm matrix def
/BT { _ctm currentmatrix pop matrix _tm copy pop 0 0 moveto } bd
/ET { _ctm setmatrix } bd
/iTm { _ctm setmatrix _tm concat } bd
/Tm { _tm astore pop iTm 0 0 moveto } bd
/ux 0.0 def
/uy 0.0 def
/F {
  /Tp exch def
  /Tf exch def
  Tf findfont Tp scalefont setfont
  /cf Tf def  /cs Tp def
} bd
/ULS {currentpoint /uy exch def /ux exch def} bd
/ULE {
  /Tcx currentpoint pop def
  gsave
  newpath
  cf findfont cs scalefont dup
  /FontMatrix get 0 get /Ts exch def /FontInfo get dup
  /UnderlinePosition get Ts mul /To exch def
  /UnderlineThickness get Ts mul /Tt exch def
  ux uy To add moveto  Tcx uy To add lineto
  Tt setlinewidth stroke
  grestore
} bd
/OLE {
  /Tcx currentpoint pop def
  gsave
  newpath
  cf findfont cs scalefont dup
  /FontMatrix get 0 get /Ts exch def /FontInfo get dup
  /UnderlinePosition get Ts mul /To exch def
  /UnderlineThickness get Ts mul /Tt exch def
  ux uy To add cs add moveto Tcx uy To add cs add lineto
  Tt setlinewidth stroke
  grestore
} bd
/SOE {
  /Tcx currentpoint pop def
  gsave
  newpath
  cf findfont cs scalefont dup
  /FontMatrix get 0 get /Ts exch def /FontInfo get dup
  /UnderlinePosition get Ts mul /To exch def
  /UnderlineThickness get Ts mul /Tt exch def
  ux uy To add cs 10 mul 26 idiv add moveto Tcx uy To add cs 10 mul 26 idiv add lineto
  Tt setlinewidth stroke
  grestore
} bd
/QT {
/Y22 exch store
/X22 exch store
/Y21 exch store
/X21 exch store
currentpoint
/Y21 load 2 mul add 3 div exch
/X21 load 2 mul add 3 div exch
/X21 load 2 mul /X22 load add 3 div
/Y21 load 2 mul /Y22 load add 3 div
/X22 load /Y22 load curveto
} bd
/SSPD {
dup length /d exch dict def
{
/v exch def
/k exch def
currentpagedevice k known {
/cpdv currentpagedevice k get def
v cpdv ne {
/upd false def
/nullv v type /nulltype eq def
/nullcpdv cpdv type /nulltype eq def
nullv nullcpdv or
{
/upd true def
} {
/sametype v type cpdv type eq def
sametype {
v type /arraytype eq {
/vlen v length def
/cpdvlen cpdv length def
vlen cpdvlen eq {
0 1 vlen 1 sub {
/i exch def
/obj v i get def
/cpdobj cpdv i get def
obj cpdobj ne {
/upd true def
exit
} if
} for
} {
/upd true def
} ifelse
} {
v type /dicttype eq {
v {
/dv exch def
/dk exch def
/cpddv cpdv dk get def
dv cpddv ne {
/upd true def
exit
} if
} forall
} {
/upd true def
} ifelse
} ifelse
} if
} ifelse
upd true eq {
d k v put
} if
} if
} if
} forall
d length 0 gt {
d setpagedevice
} if
} bd
/RE { % /NewFontName [NewEncodingArray] /FontName RE -
  findfont dup length dict begin
  {
    1 index /FID ne
    {def} {pop pop} ifelse
  } forall
  /Encoding exch def
  /FontName 1 index def
  currentdict definefont pop
  end
} bind def
%%EndResource
%%BeginResource: procset (Apache XML Graphics EPS ProcSet) 1.0 0
%%Version: 1.0 0
%%Copyright: (Copyright 2002-2003 The Apache Software Foundation. License terms: http://www.apache.org/licenses/LICENSE-2.0)
/BeginEPSF { %def
/b4_Inc_state save def         % Save state for cleanup
/dict_count countdictstack def % Count objects on dict stack
/op_count count 1 sub def      % Count objects on operand stack
userdict begin                 % Push userdict on dict stack
/showpage { } def              % Redefine showpage, { } = null proc
0 setgray 0 setlinecap         % Prepare graphics state
1 setlinewidth 0 setlinejoin
10 setmiterlimit [ ] 0 setdash newpath
/languagelevel where           % If level not equal to 1 then
{pop languagelevel             % set strokeadjust and
1 ne                           % overprint to their defaults.
{false setstrokeadjust false setoverprint
} if
} if
} bd
/EndEPSF { %def
count op_count sub {pop} repeat            % Clean up stacks
countdictstack dict_count sub {end} repeat
b4_Inc_state restore
} bd
%%EndResource
%FOPBeginFontDict
%%IncludeResource: font Courier-Oblique
%%IncludeResource: font Courier-BoldOblique
%%IncludeResource: font Courier-Bold
%%IncludeResource: font ZapfDingbats
%%IncludeResource: font Symbol
%%IncludeResource: font Helvetica
%%IncludeResource: font Helvetica-Oblique
%%IncludeResource: font Helvetica-Bold
%%IncludeResource: font Helvetica-BoldOblique
%%IncludeResource: font Times-Roman
%%IncludeResource: font Times-Italic
%%IncludeResource: font Times-Bold
%%IncludeResource: font Times-BoldItalic
%%IncludeResource: font Courier
%FOPEndFontDict
%%BeginResource: encoding WinAnsiEncoding
/WinAnsiEncoding [
/.notdef /.notdef /.notdef /.notdef /.notdef
/.notdef /.notdef /.notdef /.notdef /.notdef
/.notdef /.notdef /.notdef /.notdef /.notdef
/.notdef /.notdef /.notdef /.notdef /.notdef
/.notdef /.notdef /.notdef /.notdef /.notdef
/.notdef /.notdef /.notdef /.notdef /.notdef
/.notdef /.notdef /space /exclam /quotedbl
/numbersign /dollar /percent /ampersand /quotesingle
/parenleft /parenright /asterisk /plus /comma
/hyphen /period /slash /zero /one
/two /three /four /five /six
/seven /eight /nine /colon /semicolon
/less /equal /greater /question /at
/A /B /C /D /E
/F /G /H /I /J
/K /L /M /N /O
/P /Q /R /S /T
/U /V /W /X /Y
/Z /bracketleft /backslash /bracketright /asciicircum
/underscore /quoteleft /a /b /c
/d /e /f /g /h
/i /j /k /l /m
/n /o /p /q /r
/s /t /u /v /w
/x /y /z /braceleft /bar
/braceright /asciitilde /bullet /Euro /bullet
/quotesinglbase /florin /quotedblbase /ellipsis /dagger
/daggerdbl /circumflex /perthousand /Scaron /guilsinglleft
/OE /bullet /Zcaron /bullet /bullet
/quoteleft /quoteright /quotedblleft /quotedblright /bullet
/endash /emdash /asciitilde /trademark /scaron
/guilsinglright /oe /bullet /zcaron /Ydieresis
/space /exclamdown /cent /sterling /currency
/yen /brokenbar /section /dieresis /copyright
/ordfeminine /guillemotleft /logicalnot /sfthyphen /registered
/macron /degree /plusminus /twosuperior /threesuperior
/acute /mu /paragraph /middot /cedilla
/onesuperior /ordmasculine /guillemotright /onequarter /onehalf
/threequarters /questiondown /Agrave /Aacute /Acircumflex
/Atilde /Adieresis /Aring /AE /Ccedilla
/Egrave /Eacute /Ecircumflex /Edieresis /Igrave
/Iacute /Icircumflex /Idieresis /Eth /Ntilde
/Ograve /Oacute /Ocircumflex /Otilde /Odieresis
/multiply /Oslash /Ugrave /Uacute /Ucircumflex
/Udieresis /Yacute /Thorn /germandbls /agrave
/aacute /acircumflex /atilde /adieresis /aring
/ae /ccedilla /egrave /eacute /ecircumflex
/edieresis /igrave /iacute /icircumflex /idieresis
/eth /ntilde /ograve /oacute /ocircumflex
/otilde /odieresis /divide /oslash /ugrave
/uacute /ucircumflex /udieresis /yacute /thorn
/ydieresis
] def
%%EndResource
%FOPBeginFontReencode
/Courier-Oblique findfont
dup length dict begin
  {1 index /FID ne {def} {pop pop} ifelse} forall
  /Encoding WinAnsiEncoding def
  currentdict
end
/Courier-Oblique exch definefont pop
/Courier-BoldOblique findfont
dup length dict begin
  {1 index /FID ne {def} {pop pop} ifelse} forall
  /Encoding WinAnsiEncoding def
  currentdict
end
/Courier-BoldOblique exch definefont pop
/Courier-Bold findfont
dup length dict begin
  {1 index /FID ne {def} {pop pop} ifelse} forall
  /Encoding WinAnsiEncoding def
  currentdict
end
/Courier-Bold exch definefont pop
/Helvetica findfont
dup length dict begin
  {1 index /FID ne {def} {pop pop} ifelse} forall
  /Encoding WinAnsiEncoding def
  currentdict
end
/Helvetica exch definefont pop
/Helvetica-Oblique findfont
dup length dict begin
  {1 index /FID ne {def} {pop pop} ifelse} forall
  /Encoding WinAnsiEncoding def
  currentdict
end
/Helvetica-Oblique exch definefont pop
/Helvetica-Bold findfont
dup length dict begin
  {1 index /FID ne {def} {pop pop} ifelse} forall
  /Encoding WinAnsiEncoding def
  currentdict
end
/Helvetica-Bold exch definefont pop
/Helvetica-BoldOblique findfont
dup length dict begin
  {1 index /FID ne {def} {pop pop} ifelse} forall
  /Encoding WinAnsiEncoding def
  currentdict
end
/Helvetica-BoldOblique exch definefont pop
/Times-Roman findfont
dup length dict begin
  {1 index /FID ne {def} {pop pop} ifelse} forall
  /Encoding WinAnsiEncoding def
  currentdict
end
/Times-Roman exch definefont pop
/Times-Italic findfont
dup length dict begin
  {1 index /FID ne {def} {pop pop} ifelse} forall
  /Encoding WinAnsiEncoding def
  currentdict
end
/Times-Italic exch definefont pop
/Times-Bold findfont
dup length dict begin
  {1 index /FID ne {def} {pop pop} ifelse} forall
  /Encoding WinAnsiEncoding def
  currentdict
end
/Times-Bold exch definefont pop
/Times-BoldItalic findfont
dup length dict begin
  {1 index /FID ne {def} {pop pop} ifelse} forall
  /Encoding WinAnsiEncoding def
  currentdict
end
/Times-BoldItalic exch definefont pop
/Courier findfont
dup length dict begin
  {1 index /FID ne {def} {pop pop} ifelse} forall
  /Encoding WinAnsiEncoding def
  currentdict
end
/Courier exch definefont pop
%FOPEndFontReencode
%%EndProlog
%%Page: 1 1
%%PageBoundingBox: 0 0 1120 840
%%BeginPageSetup
[1 0 0 -1 0 840] CT
%%EndPageSetup
GS
1 GC
N
0 0 1120 840 re
f
GR
GS
1 GC
N
73 374 M
507 374 L
507 31.5 L
73 31.5 L
cp
f
GR
GS
0.149 GC
2 setlinecap
1 LJ
0.5 LW
N
73 374 M
507 374 L
S
GR
GS
0.149 GC
2 setlinecap
1 LJ
0.5 LW
N
73 31.5 M
507 31.5 L
S
GR
GS
0.149 GC
2 setlinecap
1 LJ
0.5 LW
N
119.383 374 M
119.383 369.66 L
S
GR
GS
0.149 GC
2 setlinecap
1 LJ
0.5 LW
N
183.379 374 M
183.379 369.66 L
S
GR
GS
0.149 GC
2 setlinecap
1 LJ
0.5 LW
N
247.375 374 M
247.375 369.66 L
S
GR
GS
0.149 GC
2 setlinecap
1 LJ
0.5 LW
N
311.371 374 M
311.371 369.66 L
S
GR
GS
0.149 GC
2 setlinecap
1 LJ
0.5 LW
N
375.367 374 M
375.367 369.66 L
S
GR
GS
0.149 GC
2 setlinecap
1 LJ
0.5 LW
N
439.363 374 M
439.363 369.66 L
S
GR
GS
0.149 GC
2 setlinecap
1 LJ
0.5 LW
N
503.359 374 M
503.359 369.66 L
S
GR
GS
0.149 GC
2 setlinecap
1 LJ
0.5 LW
N
119.383 31.5 M
119.383 35.84 L
S
GR
GS
0.149 GC
2 setlinecap
1 LJ
0.5 LW
N
183.379 31.5 M
183.379 35.84 L
S
GR
GS
0.149 GC
2 setlinecap
1 LJ
0.5 LW
N
247.375 31.5 M
247.375 35.84 L
S
GR
GS
0.149 GC
2 setlinecap
1 LJ
0.5 LW
N
311.371 31.5 M
311.371 35.84 L
S
GR
GS
0.149 GC
2 setlinecap
1 LJ
0.5 LW
N
375.367 31.5 M
375.367 35.84 L
S
GR
GS
0.149 GC
2 setlinecap
1 LJ
0.5 LW
N
439.363 31.5 M
439.363 35.84 L
S
GR
GS
0.149 GC
2 setlinecap
1 LJ
0.5 LW
N
503.359 31.5 M
503.359 35.84 L
S
GR
GS
0.149 GC
2 setlinecap
1 LJ
0.5 LW
N
80.986 374 M
80.986 371.83 L
S
GR
GS
0.149 GC
2 setlinecap
1 LJ
0.5 LW
N
93.785 374 M
93.785 371.83 L
S
GR
GS
0.149 GC
2 setlinecap
1 LJ
0.5 LW
N
106.584 374 M
106.584 371.83 L
S
GR
GS
0.149 GC
2 setlinecap
1 LJ
0.5 LW
N
132.182 374 M
132.182 371.83 L
S
GR
GS
0.149 GC
2 setlinecap
1 LJ
0.5 LW
N
144.981 374 M
144.981 371.83 L
S
GR
GS
0.149 GC
2 setlinecap
1 LJ
0.5 LW
N
157.781 374 M
157.781 371.83 L
S
GR
GS
0.149 GC
2 setlinecap
1 LJ
0.5 LW
N
170.58 374 M
170.58 371.83 L
S
GR
GS
0.149 GC
2 setlinecap
1 LJ
0.5 LW
N
196.178 374 M
196.178 371.83 L
S
GR
GS
0.149 GC
2 setlinecap
1 LJ
0.5 LW
N
208.977 374 M
208.977 371.83 L
S
GR
GS
0.149 GC
2 setlinecap
1 LJ
0.5 LW
N
221.777 374 M
221.777 371.83 L
S
GR
GS
0.149 GC
2 setlinecap
1 LJ
0.5 LW
N
234.576 374 M
234.576 371.83 L
S
GR
GS
0.149 GC
2 setlinecap
1 LJ
0.5 LW
N
260.174 374 M
260.174 371.83 L
S
GR
GS
0.149 GC
2 setlinecap
1 LJ
0.5 LW
N
272.973 374 M
272.973 371.83 L
S
GR
GS
0.149 GC
2 setlinecap
1 LJ
0.5 LW
N
285.773 374 M
285.773 371.83 L
S
GR
GS
0.149 GC
2 setlinecap
1 LJ
0.5 LW
N
298.572 374 M
298.572 371.83 L
S
GR
GS
0.149 GC
2 setlinecap
1 LJ
0.5 LW
N
324.17 374 M
324.17 371.83 L
S
GR
GS
0.149 GC
2 setlinecap
1 LJ
0.5 LW
N
336.969 374 M
336.969 371.83 L
S
GR
GS
0.149 GC
2 setlinecap
1 LJ
0.5 LW
N
349.769 374 M
349.769 371.83 L
S
GR
GS
0.149 GC
2 setlinecap
1 LJ
0.5 LW
N
362.568 374 M
362.568 371.83 L
S
GR
GS
0.149 GC
2 setlinecap
1 LJ
0.5 LW
N
388.166 374 M
388.166 371.83 L
S
GR
GS
0.149 GC
2 setlinecap
1 LJ
0.5 LW
N
400.965 374 M
400.965 371.83 L
S
GR
GS
0.149 GC
2 setlinecap
1 LJ
0.5 LW
N
413.765 374 M
413.765 371.83 L
S
GR
GS
0.149 GC
2 setlinecap
1 LJ
0.5 LW
N
426.564 374 M
426.564 371.83 L
S
GR
GS
0.149 GC
2 setlinecap
1 LJ
0.5 LW
N
452.162 374 M
452.162 371.83 L
S
GR
GS
0.149 GC
2 setlinecap
1 LJ
0.5 LW
N
464.961 374 M
464.961 371.83 L
S
GR
GS
0.149 GC
2 setlinecap
1 LJ
0.5 LW
N
477.761 374 M
477.761 371.83 L
S
GR
GS
0.149 GC
2 setlinecap
1 LJ
0.5 LW
N
490.56 374 M
490.56 371.83 L
S
GR
GS
0.149 GC
2 setlinecap
1 LJ
0.5 LW
N
80.986 31.5 M
80.986 33.67 L
S
GR
GS
0.149 GC
2 setlinecap
1 LJ
0.5 LW
N
93.785 31.5 M
93.785 33.67 L
S
GR
GS
0.149 GC
2 setlinecap
1 LJ
0.5 LW
N
106.584 31.5 M
106.584 33.67 L
S
GR
GS
0.149 GC
2 setlinecap
1 LJ
0.5 LW
N
132.182 31.5 M
132.182 33.67 L
S
GR
GS
0.149 GC
2 setlinecap
1 LJ
0.5 LW
N
144.981 31.5 M
144.981 33.67 L
S
GR
GS
0.149 GC
2 setlinecap
1 LJ
0.5 LW
N
157.781 31.5 M
157.781 33.67 L
S
GR
GS
0.149 GC
2 setlinecap
1 LJ
0.5 LW
N
170.58 31.5 M
170.58 33.67 L
S
GR
GS
0.149 GC
2 setlinecap
1 LJ
0.5 LW
N
196.178 31.5 M
196.178 33.67 L
S
GR
GS
0.149 GC
2 setlinecap
1 LJ
0.5 LW
N
208.977 31.5 M
208.977 33.67 L
S
GR
GS
0.149 GC
2 setlinecap
1 LJ
0.5 LW
N
221.777 31.5 M
221.777 33.67 L
S
GR
GS
0.149 GC
2 setlinecap
1 LJ
0.5 LW
N
234.576 31.5 M
234.576 33.67 L
S
GR
GS
0.149 GC
2 setlinecap
1 LJ
0.5 LW
N
260.174 31.5 M
260.174 33.67 L
S
GR
GS
0.149 GC
2 setlinecap
1 LJ
0.5 LW
N
272.973 31.5 M
272.973 33.67 L
S
GR
GS
0.149 GC
2 setlinecap
1 LJ
0.5 LW
N
285.773 31.5 M
285.773 33.67 L
S
GR
GS
0.149 GC
2 setlinecap
1 LJ
0.5 LW
N
298.572 31.5 M
298.572 33.67 L
S
GR
GS
0.149 GC
2 setlinecap
1 LJ
0.5 LW
N
324.17 31.5 M
324.17 33.67 L
S
GR
GS
0.149 GC
2 setlinecap
1 LJ
0.5 LW
N
336.969 31.5 M
336.969 33.67 L
S
GR
GS
0.149 GC
2 setlinecap
1 LJ
0.5 LW
N
349.769 31.5 M
349.769 33.67 L
S
GR
GS
0.149 GC
2 setlinecap
1 LJ
0.5 LW
N
362.568 31.5 M
362.568 33.67 L
S
GR
GS
0.149 GC
2 setlinecap
1 LJ
0.5 LW
N
388.166 31.5 M
388.166 33.67 L
S
GR
GS
0.149 GC
2 setlinecap
1 LJ
0.5 LW
N
400.965 31.5 M
400.965 33.67 L
S
GR
GS
0.149 GC
2 setlinecap
1 LJ
0.5 LW
N
413.765 31.5 M
413.765 33.67 L
S
GR
GS
0.149 GC
2 setlinecap
1 LJ
0.5 LW
N
426.564 31.5 M
426.564 33.67 L
S
GR
GS
0.149 GC
2 setlinecap
1 LJ
0.5 LW
N
452.162 31.5 M
452.162 33.67 L
S
GR
GS
0.149 GC
2 setlinecap
1 LJ
0.5 LW
N
464.961 31.5 M
464.961 33.67 L
S
GR
GS
0.149 GC
2 setlinecap
1 LJ
0.5 LW
N
477.761 31.5 M
477.761 33.67 L
S
GR
GS
0.149 GC
2 setlinecap
1 LJ
0.5 LW
N
490.56 31.5 M
490.56 33.67 L
S
GR
GS
[1 0 0 1 119.38309 378.80008] CT
0.149 GC
/Helvetica 14 F
GS
[1 0 0 1 0 0] CT
-16 14 moveto 
1 -1 scale
(1000) t 
GR
GR
GS
[1 0 0 1 183.37907 378.80008] CT
0.149 GC
/Helvetica 14 F
GS
[1 0 0 1 0 0] CT
-16 14 moveto 
1 -1 scale
(2000) t 
GR
GR
GS
[1 0 0 1 247.37505 378.80008] CT
0.149 GC
/Helvetica 14 F
GS
[1 0 0 1 0 0] CT
-16 14 moveto 
1 -1 scale
(3000) t 
GR
GR
GS
[1 0 0 1 311.371 378.80008] CT
0.149 GC
/Helvetica 14 F
GS
[1 0 0 1 0 0] CT
-16 14 moveto 
1 -1 scale
(4000) t 
GR
GR
GS
[1 0 0 1 375.36697 378.80008] CT
0.149 GC
/Helvetica 14 F
GS
[1 0 0 1 0 0] CT
-16 14 moveto 
1 -1 scale
(5000) t 
GR
GR
GS
[1 0 0 1 439.36295 378.80008] CT
0.149 GC
/Helvetica 14 F
GS
[1 0 0 1 0 0] CT
-16 14 moveto 
1 -1 scale
(6000) t 
GR
GR
GS
[1 0 0 1 503.35892 378.80008] CT
0.149 GC
/Helvetica 14 F
GS
[1 0 0 1 0 0] CT
-16 14 moveto 
1 -1 scale
(7000) t 
GR
GR
GS
[1 0 0 1 290.00021 396.30002] CT
0.149 GC
/Helvetica 15.4 F
GS
[1 0 0 1 0 0] CT
-42 15 moveto 
1 -1 scale
(Bitrate\(kb/s\)) t 
GR
GR
GS
0.149 GC
2 setlinecap
1 LJ
0.5 LW
N
73 374 M
73 31.5 L
S
GR
GS
0.149 GC
2 setlinecap
1 LJ
0.5 LW
N
507 374 M
507 31.5 L
S
GR
GS
0.149 GC
2 setlinecap
1 LJ
0.5 LW
N
73 351.266 M
77.34 351.266 L
S
GR
GS
0.149 GC
2 setlinecap
1 LJ
0.5 LW
N
73 307.817 M
77.34 307.817 L
S
GR
GS
0.149 GC
2 setlinecap
1 LJ
0.5 LW
N
73 264.367 M
77.34 264.367 L
S
GR
GS
0.149 GC
2 setlinecap
1 LJ
0.5 LW
N
73 220.918 M
77.34 220.918 L
S
GR
GS
0.149 GC
2 setlinecap
1 LJ
0.5 LW
N
73 177.469 M
77.34 177.469 L
S
GR
GS
0.149 GC
2 setlinecap
1 LJ
0.5 LW
N
73 134.019 M
77.34 134.019 L
S
GR
GS
0.149 GC
2 setlinecap
1 LJ
0.5 LW
N
73 90.57 M
77.34 90.57 L
S
GR
GS
0.149 GC
2 setlinecap
1 LJ
0.5 LW
N
73 47.121 M
77.34 47.121 L
S
GR
GS
0.149 GC
2 setlinecap
1 LJ
0.5 LW
N
507 351.266 M
502.66 351.266 L
S
GR
GS
0.149 GC
2 setlinecap
1 LJ
0.5 LW
N
507 307.817 M
502.66 307.817 L
S
GR
GS
0.149 GC
2 setlinecap
1 LJ
0.5 LW
N
507 264.367 M
502.66 264.367 L
S
GR
GS
0.149 GC
2 setlinecap
1 LJ
0.5 LW
N
507 220.918 M
502.66 220.918 L
S
GR
GS
0.149 GC
2 setlinecap
1 LJ
0.5 LW
N
507 177.469 M
502.66 177.469 L
S
GR
GS
0.149 GC
2 setlinecap
1 LJ
0.5 LW
N
507 134.019 M
502.66 134.019 L
S
GR
GS
0.149 GC
2 setlinecap
1 LJ
0.5 LW
N
507 90.57 M
502.66 90.57 L
S
GR
GS
0.149 GC
2 setlinecap
1 LJ
0.5 LW
N
507 47.121 M
502.66 47.121 L
S
GR
GS
0.149 GC
2 setlinecap
1 LJ
0.5 LW
N
73 372.991 M
75.17 372.991 L
S
GR
GS
0.149 GC
2 setlinecap
1 LJ
0.5 LW
N
73 362.128 M
75.17 362.128 L
S
GR
GS
0.149 GC
2 setlinecap
1 LJ
0.5 LW
N
73 340.404 M
75.17 340.404 L
S
GR
GS
0.149 GC
2 setlinecap
1 LJ
0.5 LW
N
73 329.541 M
75.17 329.541 L
S
GR
GS
0.149 GC
2 setlinecap
1 LJ
0.5 LW
N
73 318.679 M
75.17 318.679 L
S
GR
GS
0.149 GC
2 setlinecap
1 LJ
0.5 LW
N
73 296.954 M
75.17 296.954 L
S
GR
GS
0.149 GC
2 setlinecap
1 LJ
0.5 LW
N
73 286.092 M
75.17 286.092 L
S
GR
GS
0.149 GC
2 setlinecap
1 LJ
0.5 LW
N
73 275.23 M
75.17 275.23 L
S
GR
GS
0.149 GC
2 setlinecap
1 LJ
0.5 LW
N
73 253.505 M
75.17 253.505 L
S
GR
GS
0.149 GC
2 setlinecap
1 LJ
0.5 LW
N
73 242.643 M
75.17 242.643 L
S
GR
GS
0.149 GC
2 setlinecap
1 LJ
0.5 LW
N
73 231.78 M
75.17 231.78 L
S
GR
GS
0.149 GC
2 setlinecap
1 LJ
0.5 LW
N
73 210.056 M
75.17 210.056 L
S
GR
GS
0.149 GC
2 setlinecap
1 LJ
0.5 LW
N
73 199.193 M
75.17 199.193 L
S
GR
GS
0.149 GC
2 setlinecap
1 LJ
0.5 LW
N
73 188.331 M
75.17 188.331 L
S
GR
GS
0.149 GC
2 setlinecap
1 LJ
0.5 LW
N
73 166.606 M
75.17 166.606 L
S
GR
GS
0.149 GC
2 setlinecap
1 LJ
0.5 LW
N
73 155.744 M
75.17 155.744 L
S
GR
GS
0.149 GC
2 setlinecap
1 LJ
0.5 LW
N
73 144.882 M
75.17 144.882 L
S
GR
GS
0.149 GC
2 setlinecap
1 LJ
0.5 LW
N
73 123.157 M
75.17 123.157 L
S
GR
GS
0.149 GC
2 setlinecap
1 LJ
0.5 LW
N
73 112.295 M
75.17 112.295 L
S
GR
GS
0.149 GC
2 setlinecap
1 LJ
0.5 LW
N
73 101.433 M
75.17 101.433 L
S
GR
GS
0.149 GC
2 setlinecap
1 LJ
0.5 LW
N
73 79.708 M
75.17 79.708 L
S
GR
GS
0.149 GC
2 setlinecap
1 LJ
0.5 LW
N
73 68.846 M
75.17 68.846 L
S
GR
GS
0.149 GC
2 setlinecap
1 LJ
0.5 LW
N
73 57.983 M
75.17 57.983 L
S
GR
GS
0.149 GC
2 setlinecap
1 LJ
0.5 LW
N
73 36.259 M
75.17 36.259 L
S
GR
GS
0.149 GC
2 setlinecap
1 LJ
0.5 LW
N
507 372.991 M
504.83 372.991 L
S
GR
GS
0.149 GC
2 setlinecap
1 LJ
0.5 LW
N
507 362.128 M
504.83 362.128 L
S
GR
GS
0.149 GC
2 setlinecap
1 LJ
0.5 LW
N
507 340.404 M
504.83 340.404 L
S
GR
GS
0.149 GC
2 setlinecap
1 LJ
0.5 LW
N
507 329.541 M
504.83 329.541 L
S
GR
GS
0.149 GC
2 setlinecap
1 LJ
0.5 LW
N
507 318.679 M
504.83 318.679 L
S
GR
GS
0.149 GC
2 setlinecap
1 LJ
0.5 LW
N
507 296.954 M
504.83 296.954 L
S
GR
GS
0.149 GC
2 setlinecap
1 LJ
0.5 LW
N
507 286.092 M
504.83 286.092 L
S
GR
GS
0.149 GC
2 setlinecap
1 LJ
0.5 LW
N
507 275.23 M
504.83 275.23 L
S
GR
GS
0.149 GC
2 setlinecap
1 LJ
0.5 LW
N
507 253.505 M
504.83 253.505 L
S
GR
GS
0.149 GC
2 setlinecap
1 LJ
0.5 LW
N
507 242.643 M
504.83 242.643 L
S
GR
GS
0.149 GC
2 setlinecap
1 LJ
0.5 LW
N
507 231.78 M
504.83 231.78 L
S
GR
GS
0.149 GC
2 setlinecap
1 LJ
0.5 LW
N
507 210.056 M
504.83 210.056 L
S
GR
GS
0.149 GC
2 setlinecap
1 LJ
0.5 LW
N
507 199.193 M
504.83 199.193 L
S
GR
GS
0.149 GC
2 setlinecap
1 LJ
0.5 LW
N
507 188.331 M
504.83 188.331 L
S
GR
GS
0.149 GC
2 setlinecap
1 LJ
0.5 LW
N
507 166.606 M
504.83 166.606 L
S
GR
GS
0.149 GC
2 setlinecap
1 LJ
0.5 LW
N
507 155.744 M
504.83 155.744 L
S
GR
GS
0.149 GC
2 setlinecap
1 LJ
0.5 LW
N
507 144.882 M
504.83 144.882 L
S
GR
GS
0.149 GC
2 setlinecap
1 LJ
0.5 LW
N
507 123.157 M
504.83 123.157 L
S
GR
GS
0.149 GC
2 setlinecap
1 LJ
0.5 LW
N
507 112.295 M
504.83 112.295 L
S
GR
GS
0.149 GC
2 setlinecap
1 LJ
0.5 LW
N
507 101.433 M
504.83 101.433 L
S
GR
GS
0.149 GC
2 setlinecap
1 LJ
0.5 LW
N
507 79.708 M
504.83 79.708 L
S
GR
GS
0.149 GC
2 setlinecap
1 LJ
0.5 LW
N
507 68.846 M
504.83 68.846 L
S
GR
GS
0.149 GC
2 setlinecap
1 LJ
0.5 LW
N
507 57.983 M
504.83 57.983 L
S
GR
GS
0.149 GC
2 setlinecap
1 LJ
0.5 LW
N
507 36.259 M
504.83 36.259 L
S
GR
GS
[1 0 0 1 68.2 351.26587] CT
0.149 GC
/Helvetica 14 F
GS
[1 0 0 1 0 0] CT
-16 5.5 moveto 
1 -1 scale
(80) t 
GR
GR
GS
[1 0 0 1 68.2 307.81659] CT
0.149 GC
/Helvetica 14 F
GS
[1 0 0 1 0 0] CT
-16 5.5 moveto 
1 -1 scale
(82) t 
GR
GR
GS
[1 0 0 1 68.2 264.36731] CT
0.149 GC
/Helvetica 14 F
GS
[1 0 0 1 0 0] CT
-16 5.5 moveto 
1 -1 scale
(84) t 
GR
GR
GS
[1 0 0 1 68.2 220.91803] CT
0.149 GC
/Helvetica 14 F
GS
[1 0 0 1 0 0] CT
-16 5.5 moveto 
1 -1 scale
(86) t 
GR
GR
GS
[1 0 0 1 68.2 177.46875] CT
0.149 GC
/Helvetica 14 F
GS
[1 0 0 1 0 0] CT
-16 5.5 moveto 
1 -1 scale
(88) t 
GR
GR
GS
[1 0 0 1 68.2 134.01947] CT
0.149 GC
/Helvetica 14 F
GS
[1 0 0 1 0 0] CT
-16 5.5 moveto 
1 -1 scale
(90) t 
GR
GR
GS
[1 0 0 1 68.2 90.57019] CT
0.149 GC
/Helvetica 14 F
GS
[1 0 0 1 0 0] CT
-16 5.5 moveto 
1 -1 scale
(92) t 
GR
GR
GS
[1 0 0 1 68.2 47.12091] CT
0.149 GC
/Helvetica 14 F
GS
[1 0 0 1 0 0] CT
-16 5.5 moveto 
1 -1 scale
(94) t 
GR
GR
GS
[0 -1 1 0 49.2 202.74997] CT
0.149 GC
/Helvetica 15.4 F
GS
[1 0 0 1 0 0] CT
-40 -4 moveto 
1 -1 scale
(VMAF-NEG) t 
GR
GR
GS
[1 0 0 1 290.00027 29.57505] CT
/Helvetica-Bold 15.4 F
GS
[1 0 0 1 0 0] CT
-108 -4 moveto 
1 -1 scale
(Lecture_1080P-3ce0.y4m-av1) t 
GR
GR
GS
0 0.447 0.741 RC
1 LJ
0.5 LW
N
74.453 349.965 M
75.733 332.02 L
77.013 314.024 L
78.293 296.257 L
79.573 279.001 L
80.853 262.535 L
82.133 247.14 L
83.412 233.097 L
84.692 220.686 L
85.972 210.187 L
87.252 201.882 L
88.532 195.509 L
89.812 189.521 L
91.092 183.795 L
92.372 178.324 L
93.652 173.103 L
94.932 168.125 L
96.212 163.383 L
97.492 158.872 L
98.771 154.586 L
100.051 150.518 L
101.331 146.661 L
102.611 143.011 L
103.891 139.559 L
105.171 136.302 L
106.451 133.231 L
107.731 130.341 L
109.011 127.625 L
110.291 125.078 L
111.571 122.694 L
112.851 120.465 L
114.131 118.386 L
115.41 116.45 L
116.69 114.652 L
117.97 112.985 L
119.25 111.432 L
120.53 109.919 L
121.81 108.432 L
123.09 106.973 L
124.37 105.541 L
125.65 104.134 L
126.93 102.755 L
128.21 101.401 L
129.49 100.073 L
130.769 98.772 L
132.049 97.496 L
133.329 96.246 L
134.609 95.022 L
135.889 93.823 L
137.169 92.649 L
138.449 91.501 L
139.729 90.377 L
141.009 89.279 L
142.289 88.205 L
143.569 87.156 L
144.849 86.131 L
146.128 85.131 L
147.408 84.155 L
148.688 83.203 L
149.968 82.275 L
151.248 81.371 L
152.528 80.491 L
153.808 79.634 L
155.088 78.801 L
156.368 77.99 L
157.648 77.203 L
158.928 76.44 L
160.208 75.699 L
161.488 74.98 L
162.767 74.285 L
164.047 73.612 L
165.327 72.961 L
166.607 72.332 L
167.887 71.726 L
169.167 71.142 L
170.447 70.579 L
171.727 70.038 L
173.007 69.519 L
174.287 69.021 L
175.567 68.544 L
176.847 68.089 L
178.126 67.654 L
179.406 67.241 L
180.686 66.848 L
181.966 66.476 L
183.246 66.124 L
184.526 65.793 L
185.806 65.482 L
187.086 65.186 L
188.366 64.892 L
189.646 64.6 L
190.926 64.309 L
192.206 64.019 L
193.486 63.73 L
194.765 63.443 L
196.045 63.158 L
197.325 62.873 L
198.605 62.59 L
199.885 62.308 L
201.165 62.028 L
202.445 61.749 L
203.725 61.471 L
205.005 61.195 L
206.285 60.92 L
207.565 60.646 L
208.845 60.374 L
210.124 60.102 L
211.404 59.833 L
212.684 59.564 L
213.964 59.297 L
215.244 59.031 L
216.524 58.767 L
217.804 58.504 L
219.084 58.242 L
220.364 57.982 L
221.644 57.723 L
222.924 57.465 L
224.204 57.209 L
225.483 56.953 L
226.763 56.7 L
228.043 56.447 L
229.323 56.196 L
230.603 55.946 L
231.883 55.698 L
233.163 55.451 L
234.443 55.205 L
235.723 54.96 L
237.003 54.717 L
238.283 54.476 L
239.563 54.235 L
240.843 53.996 L
242.122 53.758 L
243.402 53.522 L
244.682 53.286 L
245.962 53.052 L
247.242 52.82 L
248.522 52.589 L
249.802 52.359 L
251.082 52.13 L
252.362 51.903 L
253.642 51.677 L
254.922 51.453 L
256.202 51.229 L
257.481 51.007 L
258.761 50.787 L
260.041 50.567 L
261.321 50.349 L
262.601 50.133 L
263.881 49.917 L
265.161 49.703 L
266.441 49.491 L
267.721 49.279 L
269.001 49.069 L
270.281 48.86 L
271.561 48.653 L
272.841 48.447 L
274.12 48.242 L
275.4 48.039 L
276.68 47.837 L
277.96 47.636 L
279.24 47.436 L
280.52 47.238 L
281.8 47.041 L
283.08 46.846 L
284.36 46.652 L
285.64 46.459 L
286.92 46.267 L
288.2 46.077 L
289.479 45.888 L
290.759 45.7 L
292.039 45.514 L
293.319 45.329 L
294.599 45.145 L
295.879 44.963 L
297.159 44.782 L
298.439 44.602 L
299.719 44.424 L
300.999 44.246 L
302.279 44.071 L
303.559 43.896 L
304.839 43.723 L
306.118 43.551 L
307.398 43.381 L
308.678 43.211 L
309.958 43.043 L
311.238 42.877 L
312.518 42.712 L
313.798 42.547 L
315.078 42.385 L
316.358 42.223 L
317.638 42.064 L
318.918 41.905 L
320.198 41.747 L
321.477 41.591 L
322.757 41.436 L
324.037 41.283 L
325.317 41.131 L
326.597 40.98 L
327.877 40.83 L
329.157 40.682 L
330.437 40.535 L
331.717 40.389 L
332.997 40.245 L
334.277 40.102 L
335.557 39.96 L
336.836 39.82 L
338.116 39.681 L
339.396 39.543 L
340.676 39.406 L
341.956 39.271 L
343.236 39.137 L
344.516 39.005 L
345.796 38.873 L
347.076 38.743 L
348.356 38.615 L
349.636 38.487 L
350.916 38.361 L
352.195 38.237 L
353.475 38.113 L
354.755 37.991 L
356.035 37.87 L
357.315 37.751 L
358.595 37.632 L
359.875 37.515 L
361.155 37.4 L
362.435 37.285 L
363.715 37.172 L
364.995 37.061 L
366.275 36.95 L
367.555 36.841 L
368.834 36.733 L
370.114 36.627 L
371.394 36.522 L
372.674 36.418 L
373.954 36.315 L
375.234 36.214 L
376.514 36.114 L
377.794 36.015 L
379.074 35.917 L
380.354 35.821 L
381.634 35.727 L
382.914 35.633 L
384.193 35.541 L
385.473 35.45 L
386.753 35.36 L
388.033 35.272 L
389.313 35.185 L
390.593 35.099 L
391.873 35.015 L
393.153 34.931 L
394.433 34.849 L
395.713 34.769 L
396.993 34.69 L
398.273 34.612 L
399.553 34.535 L
400.832 34.46 L
402.112 34.385 L
403.392 34.313 L
404.672 34.241 L
405.952 34.171 L
407.232 34.102 L
408.512 34.034 L
409.792 33.968 L
411.072 33.903 L
412.352 33.839 L
413.632 33.777 L
414.912 33.716 L
416.191 33.656 L
417.471 33.597 L
418.751 33.54 L
420.031 33.484 L
421.311 33.429 L
422.591 33.375 L
423.871 33.323 L
425.151 33.273 L
426.431 33.223 L
427.711 33.175 L
428.991 33.128 L
430.271 33.082 L
431.551 33.037 L
432.83 32.994 L
434.11 32.952 L
435.39 32.912 L
436.67 32.873 L
437.95 32.835 L
439.23 32.798 L
440.51 32.763 L
441.79 32.729 L
443.07 32.696 L
444.35 32.664 L
445.63 32.634 L
446.91 32.605 L
448.189 32.577 L
449.469 32.551 L
450.749 32.526 L
452.029 32.502 L
453.309 32.479 L
454.589 32.458 L
455.869 32.438 L
457.149 32.419 L
458.429 32.402 L
459.709 32.386 L
460.989 32.371 L
462.269 32.357 L
463.548 32.345 L
464.828 32.334 L
466.108 32.324 L
467.388 32.316 L
468.668 32.308 L
469.948 32.303 L
471.228 32.298 L
472.508 32.295 L
473.788 32.292 L
475.068 32.292 L
S
GR
GS
0.851 0.325 0.098 RC
1 LJ
0.5 LW
N
74.383 348.339 M
75.663 330.629 L
76.943 312.88 L
78.223 295.377 L
79.503 278.403 L
80.783 262.242 L
82.063 247.18 L
83.343 233.498 L
84.623 221.483 L
85.903 211.417 L
87.183 203.585 L
88.463 197.207 L
89.743 191.099 L
91.022 185.253 L
92.302 179.664 L
93.582 174.325 L
94.862 169.232 L
96.142 164.378 L
97.422 159.759 L
98.702 155.367 L
99.982 151.199 L
101.262 147.248 L
102.542 143.508 L
103.822 139.974 L
105.102 136.641 L
106.381 133.503 L
107.661 130.553 L
108.941 127.788 L
110.221 125.2 L
111.501 122.785 L
112.781 120.536 L
114.061 118.448 L
115.341 116.516 L
116.621 114.734 L
117.901 113.096 L
119.181 111.535 L
120.461 110.002 L
121.741 108.497 L
123.02 107.021 L
124.3 105.572 L
125.58 104.152 L
126.86 102.759 L
128.14 101.393 L
129.42 100.055 L
130.7 98.745 L
131.98 97.461 L
133.26 96.204 L
134.54 94.974 L
135.82 93.771 L
137.1 92.594 L
138.379 91.443 L
139.659 90.318 L
140.939 89.219 L
142.219 88.146 L
143.499 87.098 L
144.779 86.076 L
146.059 85.079 L
147.339 84.106 L
148.619 83.159 L
149.899 82.237 L
151.179 81.339 L
152.459 80.465 L
153.738 79.616 L
155.018 78.791 L
156.298 77.99 L
157.578 77.212 L
158.858 76.458 L
160.138 75.728 L
161.418 75.02 L
162.698 74.336 L
163.978 73.675 L
165.258 73.036 L
166.538 72.42 L
167.818 71.826 L
169.098 71.255 L
170.377 70.705 L
171.657 70.178 L
172.937 69.672 L
174.217 69.188 L
175.497 68.725 L
176.777 68.284 L
178.057 67.864 L
179.337 67.464 L
180.617 67.085 L
181.897 66.727 L
183.177 66.39 L
184.457 66.072 L
185.736 65.768 L
187.016 65.465 L
188.296 65.165 L
189.576 64.865 L
190.856 64.566 L
192.136 64.269 L
193.416 63.974 L
194.696 63.68 L
195.976 63.387 L
197.256 63.096 L
198.536 62.806 L
199.816 62.517 L
201.096 62.23 L
202.375 61.944 L
203.655 61.659 L
204.935 61.376 L
206.215 61.095 L
207.495 60.814 L
208.775 60.535 L
210.055 60.258 L
211.335 59.982 L
212.615 59.707 L
213.895 59.434 L
215.175 59.162 L
216.455 58.891 L
217.734 58.622 L
219.014 58.354 L
220.294 58.087 L
221.574 57.822 L
222.854 57.558 L
224.134 57.296 L
225.414 57.035 L
226.694 56.775 L
227.974 56.517 L
229.254 56.26 L
230.534 56.005 L
231.814 55.751 L
233.094 55.498 L
234.373 55.247 L
235.653 54.997 L
236.933 54.749 L
238.213 54.501 L
239.493 54.255 L
240.773 54.011 L
242.053 53.768 L
243.333 53.526 L
244.613 53.286 L
245.893 53.047 L
247.173 52.81 L
248.453 52.574 L
249.732 52.339 L
251.012 52.105 L
252.292 51.873 L
253.572 51.643 L
254.852 51.414 L
256.132 51.186 L
257.412 50.959 L
258.692 50.734 L
259.972 50.51 L
261.252 50.288 L
262.532 50.067 L
263.812 49.847 L
265.091 49.629 L
266.371 49.412 L
267.651 49.197 L
268.931 48.983 L
270.211 48.77 L
271.491 48.558 L
272.771 48.348 L
274.051 48.14 L
275.331 47.933 L
276.611 47.727 L
277.891 47.522 L
279.171 47.319 L
280.451 47.117 L
281.73 46.917 L
283.01 46.718 L
284.29 46.52 L
285.57 46.324 L
286.85 46.129 L
288.13 45.936 L
289.41 45.744 L
290.69 45.553 L
291.97 45.364 L
293.25 45.176 L
294.53 44.989 L
295.81 44.804 L
297.089 44.62 L
298.369 44.437 L
299.649 44.256 L
300.929 44.076 L
302.209 43.898 L
303.489 43.721 L
304.769 43.545 L
306.049 43.371 L
307.329 43.198 L
308.609 43.026 L
309.889 42.856 L
311.169 42.687 L
312.449 42.52 L
313.728 42.354 L
315.008 42.189 L
316.288 42.026 L
317.568 41.864 L
318.848 41.703 L
320.128 41.544 L
321.408 41.386 L
322.688 41.23 L
323.968 41.075 L
325.248 40.921 L
326.528 40.769 L
327.808 40.618 L
329.087 40.468 L
330.367 40.32 L
331.647 40.173 L
332.927 40.027 L
334.207 39.883 L
335.487 39.74 L
336.767 39.599 L
338.047 39.459 L
339.327 39.32 L
340.607 39.183 L
341.887 39.047 L
343.167 38.912 L
344.447 38.779 L
345.726 38.647 L
347.006 38.517 L
348.286 38.387 L
349.566 38.26 L
350.846 38.133 L
352.126 38.008 L
353.406 37.885 L
354.686 37.762 L
355.966 37.641 L
357.246 37.522 L
358.526 37.403 L
359.806 37.287 L
361.085 37.171 L
362.365 37.057 L
363.645 36.944 L
364.925 36.833 L
366.205 36.723 L
367.485 36.614 L
368.765 36.507 L
370.045 36.401 L
371.325 36.296 L
372.605 36.193 L
373.885 36.091 L
375.165 35.991 L
376.444 35.892 L
377.724 35.794 L
379.004 35.698 L
380.284 35.602 L
381.564 35.509 L
382.844 35.416 L
384.124 35.325 L
385.404 35.236 L
386.684 35.148 L
387.964 35.061 L
389.244 34.975 L
390.524 34.891 L
391.803 34.808 L
393.083 34.727 L
394.363 34.647 L
395.643 34.568 L
396.923 34.491 L
398.203 34.415 L
399.483 34.34 L
400.763 34.267 L
402.043 34.195 L
403.323 34.124 L
404.603 34.055 L
405.883 33.988 L
407.163 33.921 L
408.442 33.856 L
409.722 33.792 L
411.002 33.73 L
412.282 33.669 L
413.562 33.609 L
414.842 33.551 L
416.122 33.494 L
417.402 33.438 L
418.682 33.384 L
419.962 33.331 L
421.242 33.279 L
422.522 33.229 L
423.801 33.181 L
425.081 33.133 L
426.361 33.087 L
427.641 33.042 L
428.921 32.999 L
430.201 32.957 L
431.481 32.916 L
432.761 32.877 L
434.041 32.839 L
435.321 32.802 L
436.601 32.767 L
437.881 32.733 L
439.161 32.7 L
440.44 32.669 L
441.72 32.639 L
443 32.611 L
444.28 32.584 L
445.56 32.558 L
446.84 32.533 L
448.12 32.51 L
449.4 32.489 L
450.68 32.468 L
451.96 32.449 L
453.24 32.432 L
454.52 32.415 L
455.799 32.4 L
457.079 32.387 L
458.359 32.375 L
459.639 32.364 L
460.919 32.354 L
462.199 32.346 L
463.479 32.339 L
464.759 32.334 L
466.039 32.329 L
467.319 32.327 L
468.599 32.325 L
S
GR
GS
0.929 0.694 0.125 RC
1 LJ
0.5 LW
N
77.513 293.309 M
78.793 280.796 L
80.073 268.256 L
81.353 255.84 L
82.633 243.698 L
83.913 231.978 L
85.193 220.832 L
86.473 210.409 L
87.753 200.859 L
89.033 192.332 L
90.313 184.978 L
91.593 178.946 L
92.872 174.197 L
94.152 169.778 L
95.432 165.535 L
96.712 161.462 L
97.992 157.556 L
99.272 153.814 L
100.552 150.229 L
101.832 146.8 L
103.112 143.522 L
104.392 140.391 L
105.672 137.402 L
106.952 134.552 L
108.231 131.837 L
109.511 129.253 L
110.791 126.796 L
112.071 124.462 L
113.351 122.246 L
114.631 120.145 L
115.911 118.155 L
117.191 116.271 L
118.471 114.491 L
119.751 112.809 L
121.031 111.221 L
122.311 109.725 L
123.59 108.315 L
124.87 106.988 L
126.15 105.737 L
127.43 104.519 L
128.71 103.319 L
129.99 102.138 L
131.27 100.976 L
132.55 99.832 L
133.83 98.707 L
135.11 97.601 L
136.39 96.513 L
137.67 95.443 L
138.95 94.392 L
140.229 93.359 L
141.509 92.344 L
142.789 91.347 L
144.069 90.367 L
145.349 89.406 L
146.629 88.463 L
147.909 87.537 L
149.189 86.629 L
150.469 85.738 L
151.749 84.865 L
153.029 84.009 L
154.309 83.17 L
155.588 82.349 L
156.868 81.545 L
158.148 80.758 L
159.428 79.988 L
160.708 79.235 L
161.988 78.498 L
163.268 77.778 L
164.548 77.075 L
165.828 76.389 L
167.108 75.719 L
168.388 75.065 L
169.668 74.428 L
170.948 73.807 L
172.227 73.203 L
173.507 72.614 L
174.787 72.042 L
176.067 71.485 L
177.347 70.944 L
178.627 70.419 L
179.907 69.91 L
181.187 69.416 L
182.467 68.938 L
183.747 68.475 L
185.027 68.028 L
186.307 67.596 L
187.586 67.179 L
188.866 66.778 L
190.146 66.391 L
191.426 66.02 L
192.706 65.663 L
193.986 65.321 L
195.266 64.994 L
196.546 64.682 L
197.826 64.384 L
199.106 64.101 L
200.386 63.832 L
201.666 63.567 L
202.945 63.304 L
204.225 63.042 L
205.505 62.78 L
206.785 62.52 L
208.065 62.261 L
209.345 62.003 L
210.625 61.746 L
211.905 61.49 L
213.185 61.235 L
214.465 60.981 L
215.745 60.728 L
217.025 60.476 L
218.305 60.226 L
219.584 59.976 L
220.864 59.727 L
222.144 59.48 L
223.424 59.233 L
224.704 58.988 L
225.984 58.744 L
227.264 58.5 L
228.544 58.258 L
229.824 58.017 L
231.104 57.777 L
232.384 57.538 L
233.664 57.3 L
234.943 57.063 L
236.223 56.827 L
237.503 56.592 L
238.783 56.359 L
240.063 56.126 L
241.343 55.895 L
242.623 55.664 L
243.903 55.435 L
245.183 55.206 L
246.463 54.979 L
247.743 54.753 L
249.023 54.528 L
250.303 54.304 L
251.582 54.081 L
252.862 53.859 L
254.142 53.638 L
255.422 53.418 L
256.702 53.199 L
257.982 52.982 L
259.262 52.765 L
260.542 52.55 L
261.822 52.336 L
263.102 52.122 L
264.382 51.91 L
265.662 51.699 L
266.941 51.489 L
268.221 51.28 L
269.501 51.072 L
270.781 50.866 L
272.061 50.66 L
273.341 50.455 L
274.621 50.252 L
275.901 50.049 L
277.181 49.848 L
278.461 49.648 L
279.741 49.449 L
281.021 49.251 L
282.301 49.054 L
283.58 48.858 L
284.86 48.663 L
286.14 48.469 L
287.42 48.277 L
288.7 48.085 L
289.98 47.895 L
291.26 47.705 L
292.54 47.517 L
293.82 47.33 L
295.1 47.144 L
296.38 46.959 L
297.66 46.775 L
298.939 46.593 L
300.219 46.411 L
301.499 46.23 L
302.779 46.051 L
304.059 45.873 L
305.339 45.695 L
306.619 45.519 L
307.899 45.344 L
309.179 45.17 L
310.459 44.997 L
311.739 44.826 L
313.019 44.655 L
314.298 44.486 L
315.578 44.317 L
316.858 44.15 L
318.138 43.984 L
319.418 43.819 L
320.698 43.655 L
321.978 43.492 L
323.258 43.33 L
324.538 43.17 L
325.818 43.01 L
327.098 42.852 L
328.378 42.694 L
329.658 42.538 L
330.937 42.383 L
332.217 42.229 L
333.497 42.076 L
334.777 41.925 L
336.057 41.774 L
337.337 41.625 L
338.617 41.476 L
339.897 41.329 L
341.177 41.183 L
342.457 41.038 L
343.737 40.894 L
345.017 40.751 L
346.296 40.61 L
347.576 40.469 L
348.856 40.33 L
350.136 40.192 L
351.416 40.055 L
352.696 39.919 L
353.976 39.784 L
355.256 39.65 L
356.536 39.517 L
357.816 39.386 L
359.096 39.255 L
360.376 39.126 L
361.655 38.998 L
362.935 38.871 L
364.215 38.745 L
365.495 38.621 L
366.775 38.497 L
368.055 38.375 L
369.335 38.253 L
370.615 38.133 L
371.895 38.014 L
373.175 37.896 L
374.455 37.78 L
375.735 37.664 L
377.015 37.549 L
378.294 37.436 L
379.574 37.324 L
380.854 37.213 L
382.134 37.103 L
383.414 36.994 L
384.694 36.887 L
385.974 36.78 L
387.254 36.675 L
388.534 36.571 L
389.814 36.467 L
391.094 36.366 L
392.374 36.265 L
393.653 36.165 L
394.933 36.067 L
396.213 35.969 L
397.493 35.873 L
398.773 35.778 L
400.053 35.684 L
401.333 35.592 L
402.613 35.5 L
403.893 35.41 L
405.173 35.32 L
406.453 35.232 L
407.733 35.145 L
409.013 35.06 L
410.292 34.975 L
411.572 34.891 L
412.852 34.809 L
414.132 34.728 L
415.412 34.648 L
416.692 34.569 L
417.972 34.491 L
419.252 34.415 L
420.532 34.339 L
421.812 34.265 L
423.092 34.192 L
424.372 34.12 L
425.651 34.05 L
426.931 33.98 L
428.211 33.911 L
429.491 33.844 L
430.771 33.778 L
432.051 33.713 L
433.331 33.65 L
434.611 33.587 L
435.891 33.526 L
437.171 33.465 L
438.451 33.406 L
439.731 33.348 L
441.01 33.292 L
442.29 33.236 L
443.57 33.182 L
444.85 33.128 L
446.13 33.076 L
447.41 33.026 L
448.69 32.976 L
449.97 32.927 L
451.25 32.88 L
452.53 32.834 L
453.81 32.789 L
455.09 32.745 L
456.37 32.703 L
457.649 32.661 L
458.929 32.621 L
460.209 32.582 L
461.489 32.544 L
462.769 32.507 L
464.049 32.471 L
465.329 32.437 L
466.609 32.404 L
467.889 32.372 L
469.169 32.341 L
470.449 32.312 L
471.729 32.283 L
473.008 32.256 L
474.288 32.23 L
475.568 32.205 L
476.848 32.181 L
478.128 32.159 L
479.408 32.137 L
480.688 32.117 L
481.968 32.098 L
483.248 32.081 L
484.528 32.064 L
485.808 32.049 L
487.088 32.035 L
488.368 32.022 L
489.647 32.01 L
490.927 31.999 L
492.207 31.99 L
493.487 31.982 L
494.767 31.975 L
496.047 31.969 L
497.327 31.964 L
498.607 31.961 L
499.887 31.959 L
501.167 31.958 L
S
GR
GS
0.494 0.184 0.557 RC
1 LJ
0.5 LW
N
73 374 M
74.28 352.078 L
75.56 330.532 L
76.84 309.695 L
78.12 289.901 L
79.4 271.485 L
80.68 254.78 L
81.959 240.119 L
83.239 227.838 L
84.519 218.227 L
85.799 209.907 L
87.079 202.071 L
88.359 194.709 L
89.639 187.806 L
90.919 181.351 L
92.199 175.331 L
93.479 169.733 L
94.759 164.545 L
96.039 159.754 L
97.318 155.348 L
98.598 151.313 L
99.878 147.638 L
101.158 144.311 L
102.438 141.317 L
103.718 138.627 L
104.998 136.052 L
106.278 133.547 L
107.558 131.11 L
108.838 128.742 L
110.118 126.443 L
111.398 124.211 L
112.677 122.047 L
113.957 119.951 L
115.237 117.922 L
116.517 115.96 L
117.797 114.064 L
119.077 112.234 L
120.357 110.47 L
121.637 108.772 L
122.917 107.139 L
124.197 105.571 L
125.477 104.068 L
126.757 102.629 L
128.037 101.254 L
129.316 99.943 L
130.596 98.695 L
131.876 97.51 L
133.156 96.389 L
134.436 95.329 L
135.716 94.332 L
136.996 93.397 L
138.276 92.523 L
139.556 91.711 L
140.836 90.959 L
142.116 90.268 L
143.396 89.638 L
144.675 89.035 L
145.955 88.437 L
147.235 87.841 L
148.515 87.249 L
149.795 86.661 L
151.075 86.076 L
152.355 85.495 L
153.635 84.918 L
154.915 84.344 L
156.195 83.773 L
157.475 83.206 L
158.755 82.642 L
160.035 82.082 L
161.314 81.526 L
162.594 80.973 L
163.874 80.424 L
165.154 79.878 L
166.434 79.335 L
167.714 78.796 L
168.994 78.261 L
170.274 77.73 L
171.554 77.201 L
172.834 76.677 L
174.114 76.155 L
175.394 75.638 L
176.673 75.124 L
177.953 74.613 L
179.233 74.106 L
180.513 73.603 L
181.793 73.103 L
183.073 72.607 L
184.353 72.114 L
185.633 71.625 L
186.913 71.139 L
188.193 70.657 L
189.473 70.178 L
190.753 69.703 L
192.033 69.232 L
193.312 68.764 L
194.592 68.299 L
195.872 67.838 L
197.152 67.381 L
198.432 66.927 L
199.712 66.477 L
200.992 66.03 L
202.272 65.587 L
203.552 65.148 L
204.832 64.712 L
206.112 64.279 L
207.392 63.85 L
208.671 63.425 L
209.951 63.003 L
211.231 62.585 L
212.511 62.17 L
213.791 61.759 L
215.071 61.351 L
216.351 60.947 L
217.631 60.547 L
218.911 60.15 L
220.191 59.757 L
221.471 59.367 L
222.751 58.981 L
224.03 58.598 L
225.31 58.219 L
226.59 57.843 L
227.87 57.471 L
229.15 57.103 L
230.43 56.738 L
231.71 56.377 L
232.99 56.019 L
234.27 55.665 L
235.55 55.314 L
236.83 54.967 L
238.11 54.624 L
239.39 54.284 L
240.669 53.948 L
241.949 53.615 L
243.229 53.286 L
244.509 52.96 L
245.789 52.638 L
247.069 52.32 L
248.349 52.005 L
249.629 51.694 L
250.909 51.386 L
252.189 51.082 L
253.469 50.781 L
254.749 50.484 L
256.028 50.191 L
257.308 49.901 L
258.588 49.615 L
259.868 49.332 L
261.148 49.053 L
262.428 48.778 L
263.708 48.506 L
264.988 48.237 L
266.268 47.973 L
267.548 47.711 L
268.828 47.454 L
270.108 47.2 L
271.388 46.949 L
272.667 46.702 L
273.947 46.459 L
275.227 46.22 L
276.507 45.983 L
277.787 45.751 L
279.067 45.522 L
280.347 45.297 L
281.627 45.075 L
282.907 44.857 L
284.187 44.642 L
285.467 44.431 L
286.747 44.224 L
288.026 44.02 L
289.306 43.82 L
290.586 43.624 L
291.866 43.43 L
293.146 43.241 L
294.426 43.055 L
295.706 42.873 L
296.986 42.694 L
298.266 42.519 L
299.546 42.348 L
300.826 42.18 L
302.106 42.016 L
303.385 41.855 L
304.665 41.698 L
305.945 41.545 L
307.225 41.395 L
308.505 41.249 L
309.785 41.106 L
311.065 40.967 L
312.345 40.832 L
313.625 40.7 L
314.905 40.572 L
316.185 40.447 L
317.465 40.326 L
318.745 40.209 L
320.024 40.095 L
321.304 39.985 L
322.584 39.879 L
323.864 39.776 L
325.144 39.676 L
326.424 39.581 L
327.704 39.489 L
328.984 39.4 L
330.264 39.315 L
331.544 39.234 L
332.824 39.156 L
334.104 39.082 L
335.383 39.012 L
336.663 38.945 L
337.943 38.882 L
339.223 38.823 L
340.503 38.766 L
341.783 38.714 L
343.063 38.666 L
344.343 38.62 L
345.623 38.579 L
346.903 38.541 L
348.183 38.507 L
349.463 38.476 L
350.742 38.449 L
352.022 38.426 L
353.302 38.406 L
354.582 38.39 L
355.862 38.378 L
357.142 38.369 L
358.422 38.364 L
S
GR
GS
0.467 0.675 0.188 RC
1 LJ
0.5 LW
N
75.667 324.779 M
76.947 309.965 L
78.227 295.071 L
79.507 280.286 L
80.787 265.799 L
82.067 251.8 L
83.347 238.479 L
84.627 226.025 L
85.907 214.628 L
87.186 204.477 L
88.466 195.763 L
89.746 188.674 L
91.026 183.234 L
92.306 178.259 L
93.586 173.473 L
94.866 168.874 L
96.146 164.457 L
97.426 160.218 L
98.706 156.153 L
99.986 152.258 L
101.266 148.53 L
102.545 144.963 L
103.825 141.555 L
105.105 138.301 L
106.385 135.197 L
107.665 132.239 L
108.945 129.424 L
110.225 126.747 L
111.505 124.204 L
112.785 121.791 L
114.065 119.504 L
115.345 117.339 L
116.625 115.293 L
117.904 113.361 L
119.184 111.54 L
120.464 109.824 L
121.744 108.211 L
123.024 106.695 L
124.304 105.275 L
125.584 103.944 L
126.864 102.694 L
128.144 101.473 L
129.424 100.272 L
130.704 99.09 L
131.984 97.928 L
133.264 96.785 L
134.543 95.661 L
135.823 94.556 L
137.103 93.47 L
138.383 92.403 L
139.663 91.355 L
140.943 90.326 L
142.223 89.315 L
143.503 88.323 L
144.783 87.349 L
146.063 86.394 L
147.343 85.457 L
148.623 84.538 L
149.902 83.637 L
151.182 82.753 L
152.462 81.888 L
153.742 81.04 L
155.022 80.211 L
156.302 79.398 L
157.582 78.603 L
158.862 77.826 L
160.142 77.066 L
161.422 76.323 L
162.702 75.596 L
163.982 74.887 L
165.262 74.195 L
166.541 73.52 L
167.821 72.861 L
169.101 72.219 L
170.381 71.593 L
171.661 70.984 L
172.941 70.391 L
174.221 69.814 L
175.501 69.254 L
176.781 68.709 L
178.061 68.18 L
179.341 67.667 L
180.621 67.17 L
181.9 66.689 L
183.18 66.222 L
184.46 65.772 L
185.74 65.336 L
187.02 64.916 L
188.3 64.511 L
189.58 64.122 L
190.86 63.747 L
192.14 63.387 L
193.42 63.041 L
194.7 62.71 L
195.98 62.394 L
197.259 62.093 L
198.539 61.805 L
199.819 61.532 L
201.099 61.273 L
202.379 61.026 L
203.659 60.781 L
204.939 60.537 L
206.219 60.294 L
207.499 60.051 L
208.779 59.81 L
210.059 59.57 L
211.339 59.331 L
212.619 59.093 L
213.898 58.856 L
215.178 58.62 L
216.458 58.384 L
217.738 58.15 L
219.018 57.917 L
220.298 57.685 L
221.578 57.454 L
222.858 57.224 L
224.138 56.995 L
225.418 56.767 L
226.698 56.54 L
227.978 56.314 L
229.257 56.089 L
230.537 55.865 L
231.817 55.642 L
233.097 55.42 L
234.377 55.199 L
235.657 54.979 L
236.937 54.76 L
238.217 54.542 L
239.497 54.325 L
240.777 54.109 L
242.057 53.895 L
243.337 53.681 L
244.617 53.468 L
245.896 53.256 L
247.176 53.045 L
248.456 52.835 L
249.736 52.627 L
251.016 52.419 L
252.296 52.212 L
253.576 52.006 L
254.856 51.802 L
256.136 51.598 L
257.416 51.395 L
258.696 51.194 L
259.976 50.993 L
261.255 50.793 L
262.535 50.595 L
263.815 50.397 L
265.095 50.2 L
266.375 50.005 L
267.655 49.81 L
268.935 49.617 L
270.215 49.424 L
271.495 49.233 L
272.775 49.042 L
274.055 48.853 L
275.335 48.664 L
276.615 48.477 L
277.894 48.291 L
279.174 48.105 L
280.454 47.921 L
281.734 47.737 L
283.014 47.555 L
284.294 47.374 L
285.574 47.194 L
286.854 47.014 L
288.134 46.836 L
289.414 46.659 L
290.694 46.482 L
291.974 46.307 L
293.253 46.133 L
294.533 45.96 L
295.813 45.788 L
297.093 45.617 L
298.373 45.447 L
299.653 45.278 L
300.933 45.11 L
302.213 44.943 L
303.493 44.776 L
304.773 44.612 L
306.053 44.448 L
307.333 44.285 L
308.612 44.123 L
309.892 43.962 L
311.172 43.802 L
312.452 43.643 L
313.732 43.485 L
315.012 43.328 L
316.292 43.173 L
317.572 43.018 L
318.852 42.864 L
320.132 42.712 L
321.412 42.56 L
322.692 42.409 L
323.972 42.26 L
325.251 42.111 L
326.531 41.963 L
327.811 41.817 L
329.091 41.671 L
330.371 41.527 L
331.651 41.383 L
332.931 41.241 L
334.211 41.1 L
335.491 40.959 L
336.771 40.82 L
338.051 40.682 L
339.331 40.544 L
340.61 40.408 L
341.89 40.273 L
343.17 40.138 L
344.45 40.005 L
345.73 39.873 L
347.01 39.742 L
348.29 39.612 L
349.57 39.483 L
350.85 39.355 L
352.13 39.228 L
353.41 39.102 L
354.69 38.977 L
355.97 38.853 L
357.249 38.73 L
358.529 38.608 L
359.809 38.487 L
361.089 38.367 L
362.369 38.248 L
363.649 38.131 L
364.929 38.014 L
366.209 37.898 L
367.489 37.783 L
368.769 37.67 L
370.049 37.557 L
371.329 37.446 L
372.608 37.335 L
373.888 37.226 L
375.168 37.117 L
376.448 37.01 L
377.728 36.903 L
379.008 36.798 L
380.288 36.693 L
381.568 36.59 L
382.848 36.488 L
384.128 36.387 L
385.408 36.286 L
386.688 36.187 L
387.967 36.089 L
389.247 35.992 L
390.527 35.896 L
391.807 35.801 L
393.087 35.707 L
394.367 35.614 L
395.647 35.522 L
396.927 35.431 L
398.207 35.341 L
399.487 35.252 L
400.767 35.164 L
402.047 35.077 L
403.327 34.992 L
404.606 34.907 L
405.886 34.823 L
407.166 34.741 L
408.446 34.659 L
409.726 34.578 L
411.006 34.499 L
412.286 34.42 L
413.566 34.343 L
414.846 34.266 L
416.126 34.191 L
417.406 34.117 L
418.686 34.043 L
419.965 33.971 L
421.245 33.9 L
422.525 33.83 L
423.805 33.761 L
425.085 33.693 L
426.365 33.625 L
427.645 33.559 L
428.925 33.494 L
430.205 33.43 L
431.485 33.367 L
432.765 33.305 L
434.045 33.245 L
435.325 33.185 L
436.604 33.126 L
437.884 33.068 L
439.164 33.012 L
440.444 32.956 L
441.724 32.901 L
443.004 32.848 L
444.284 32.795 L
445.564 32.744 L
446.844 32.693 L
448.124 32.644 L
449.404 32.596 L
450.684 32.548 L
451.963 32.502 L
453.243 32.457 L
454.523 32.413 L
455.803 32.369 L
457.083 32.327 L
458.363 32.286 L
459.643 32.246 L
460.923 32.207 L
462.203 32.169 L
463.483 32.132 L
464.763 32.097 L
466.043 32.062 L
467.323 32.028 L
468.602 31.995 L
469.882 31.964 L
471.162 31.933 L
472.442 31.903 L
473.722 31.875 L
475.002 31.847 L
476.282 31.821 L
477.562 31.796 L
478.842 31.771 L
480.122 31.748 L
481.402 31.726 L
482.682 31.704 L
483.961 31.684 L
485.241 31.665 L
486.521 31.647 L
487.801 31.63 L
489.081 31.614 L
490.361 31.599 L
491.641 31.585 L
492.921 31.572 L
494.201 31.56 L
495.481 31.55 L
496.761 31.54 L
498.041 31.531 L
499.32 31.524 L
500.6 31.517 L
501.88 31.512 L
503.16 31.507 L
504.44 31.504 L
505.72 31.501 L
507 31.5 L
S
GR
GS
0.302 0.745 0.933 RC
[10 6] 0 setdash
2 LJ
0.5 LW
N
75.133 338.237 M
76.413 321.466 L
77.693 304.617 L
78.973 287.943 L
80.253 271.693 L
81.533 256.118 L
82.812 241.468 L
84.092 227.994 L
85.372 215.947 L
86.652 205.577 L
87.932 197.135 L
89.212 190.779 L
90.492 185.178 L
91.772 179.813 L
93.052 174.679 L
94.332 169.769 L
95.612 165.078 L
96.892 160.6 L
98.171 156.329 L
99.451 152.26 L
100.731 148.387 L
102.011 144.704 L
103.291 141.205 L
104.571 137.885 L
105.851 134.738 L
107.131 131.758 L
108.411 128.939 L
109.691 126.276 L
110.971 123.763 L
112.251 121.395 L
113.531 119.164 L
114.81 117.066 L
116.09 115.095 L
117.37 113.246 L
118.65 111.511 L
119.93 109.887 L
121.21 108.366 L
122.49 106.931 L
123.77 105.527 L
125.05 104.148 L
126.33 102.794 L
127.61 101.465 L
128.89 100.161 L
130.169 98.882 L
131.449 97.626 L
132.729 96.396 L
134.009 95.189 L
135.289 94.006 L
136.569 92.848 L
137.849 91.713 L
139.129 90.601 L
140.409 89.513 L
141.689 88.449 L
142.969 87.407 L
144.249 86.388 L
145.529 85.393 L
146.808 84.419 L
148.088 83.469 L
149.368 82.54 L
150.648 81.634 L
151.928 80.75 L
153.208 79.888 L
154.488 79.048 L
155.768 78.229 L
157.048 77.432 L
158.328 76.656 L
159.608 75.901 L
160.888 75.168 L
162.167 74.455 L
163.447 73.763 L
164.727 73.091 L
166.007 72.44 L
167.287 71.809 L
168.567 71.198 L
169.847 70.607 L
171.127 70.036 L
172.407 69.485 L
173.687 68.953 L
174.967 68.441 L
176.247 67.948 L
177.526 67.473 L
178.806 67.018 L
180.086 66.582 L
181.366 66.164 L
182.646 65.764 L
183.926 65.383 L
185.206 65.02 L
186.486 64.675 L
187.766 64.348 L
189.046 64.036 L
190.326 63.727 L
191.606 63.419 L
192.886 63.112 L
194.165 62.807 L
195.445 62.503 L
196.725 62.201 L
198.005 61.9 L
199.285 61.6 L
200.565 61.302 L
201.845 61.006 L
203.125 60.711 L
204.405 60.417 L
205.685 60.125 L
206.965 59.834 L
208.245 59.544 L
209.524 59.256 L
210.804 58.97 L
212.084 58.685 L
213.364 58.401 L
214.644 58.119 L
215.924 57.838 L
217.204 57.559 L
218.484 57.281 L
219.764 57.005 L
221.044 56.73 L
222.324 56.456 L
223.604 56.184 L
224.883 55.914 L
226.163 55.645 L
227.443 55.377 L
228.723 55.111 L
230.003 54.846 L
231.283 54.583 L
232.563 54.322 L
233.843 54.062 L
235.123 53.803 L
236.403 53.546 L
237.683 53.29 L
238.963 53.035 L
240.243 52.783 L
241.522 52.531 L
242.802 52.282 L
244.082 52.033 L
245.362 51.786 L
246.642 51.541 L
247.922 51.297 L
249.202 51.055 L
250.482 50.814 L
251.762 50.575 L
253.042 50.337 L
254.322 50.101 L
255.602 49.866 L
256.882 49.632 L
258.161 49.401 L
259.441 49.171 L
260.721 48.942 L
262.001 48.714 L
263.281 48.489 L
264.561 48.265 L
265.841 48.042 L
267.121 47.821 L
268.401 47.601 L
269.681 47.383 L
270.961 47.166 L
272.241 46.951 L
273.52 46.738 L
274.8 46.526 L
276.08 46.315 L
277.36 46.106 L
278.64 45.899 L
279.92 45.693 L
281.2 45.489 L
282.48 45.286 L
283.76 45.085 L
285.04 44.885 L
286.32 44.687 L
287.6 44.491 L
288.879 44.296 L
290.159 44.102 L
291.439 43.91 L
292.719 43.72 L
293.999 43.531 L
295.279 43.344 L
296.559 43.159 L
297.839 42.974 L
299.119 42.792 L
300.399 42.611 L
301.679 42.432 L
302.959 42.254 L
304.238 42.078 L
305.518 41.903 L
306.798 41.73 L
308.078 41.558 L
309.358 41.389 L
310.638 41.22 L
311.918 41.054 L
313.198 40.889 L
314.478 40.725 L
315.758 40.563 L
317.038 40.403 L
318.318 40.244 L
319.598 40.087 L
320.877 39.931 L
322.157 39.777 L
323.437 39.625 L
324.717 39.474 L
325.997 39.325 L
327.277 39.177 L
328.557 39.031 L
329.837 38.887 L
331.117 38.744 L
332.397 38.603 L
333.677 38.464 L
334.957 38.326 L
336.237 38.189 L
337.516 38.055 L
338.796 37.922 L
340.076 37.79 L
341.356 37.66 L
342.636 37.532 L
343.916 37.406 L
345.196 37.281 L
346.476 37.158 L
347.756 37.036 L
349.036 36.916 L
350.316 36.798 L
351.596 36.681 L
352.875 36.566 L
354.155 36.453 L
355.435 36.341 L
356.715 36.231 L
357.995 36.122 L
359.275 36.015 L
360.555 35.91 L
361.835 35.807 L
363.115 35.705 L
364.395 35.605 L
365.675 35.506 L
366.955 35.409 L
368.234 35.314 L
369.514 35.22 L
370.794 35.128 L
372.074 35.038 L
373.354 34.95 L
374.634 34.863 L
375.914 34.777 L
377.194 34.694 L
378.474 34.612 L
379.754 34.532 L
381.034 34.453 L
382.314 34.377 L
383.594 34.301 L
384.873 34.228 L
386.153 34.156 L
387.433 34.086 L
388.713 34.018 L
389.993 33.951 L
391.273 33.886 L
392.553 33.823 L
393.833 33.761 L
395.113 33.701 L
396.393 33.643 L
397.673 33.587 L
398.953 33.532 L
400.232 33.479 L
401.512 33.427 L
402.792 33.378 L
404.072 33.33 L
405.352 33.283 L
406.632 33.239 L
407.912 33.196 L
409.192 33.155 L
410.472 33.116 L
411.752 33.078 L
413.032 33.042 L
414.312 33.008 L
415.592 32.975 L
416.871 32.945 L
418.151 32.916 L
419.431 32.888 L
420.711 32.863 L
421.991 32.839 L
423.271 32.817 L
424.551 32.797 L
425.831 32.778 L
427.111 32.761 L
428.391 32.746 L
429.671 32.733 L
430.951 32.721 L
432.23 32.711 L
433.51 32.703 L
434.79 32.697 L
436.07 32.692 L
437.35 32.69 L
438.63 32.688 L
S
GR
GS
0.635 0.078 0.184 RC
[10 6] 0 setdash
2 LJ
0.5 LW
N
77.441 292.602 M
78.72 280.13 L
80 267.637 L
81.28 255.269 L
82.56 243.175 L
83.84 231.503 L
85.12 220.4 L
86.4 210.015 L
87.68 200.495 L
88.96 191.988 L
90.24 184.643 L
91.52 178.606 L
92.8 173.851 L
94.079 169.439 L
95.359 165.204 L
96.639 161.142 L
97.919 157.247 L
99.199 153.517 L
100.479 149.946 L
101.759 146.532 L
103.039 143.268 L
104.319 140.152 L
105.599 137.178 L
106.879 134.343 L
108.159 131.643 L
109.439 129.073 L
110.718 126.629 L
111.998 124.307 L
113.278 122.102 L
114.558 120.01 L
115.838 118.028 L
117.118 116.151 L
118.398 114.374 L
119.678 112.694 L
120.958 111.106 L
122.238 109.605 L
123.518 108.189 L
124.798 106.852 L
126.077 105.585 L
127.357 104.345 L
128.637 103.126 L
129.917 101.927 L
131.197 100.749 L
132.477 99.592 L
133.757 98.455 L
135.037 97.338 L
136.317 96.241 L
137.597 95.163 L
138.877 94.106 L
140.157 93.068 L
141.437 92.05 L
142.716 91.052 L
143.996 90.072 L
145.276 89.112 L
146.556 88.171 L
147.836 87.249 L
149.116 86.345 L
150.396 85.461 L
151.676 84.595 L
152.956 83.747 L
154.236 82.918 L
155.516 82.107 L
156.796 81.314 L
158.075 80.54 L
159.355 79.783 L
160.635 79.044 L
161.915 78.322 L
163.195 77.618 L
164.475 76.932 L
165.755 76.262 L
167.035 75.61 L
168.315 74.975 L
169.595 74.357 L
170.875 73.756 L
172.155 73.171 L
173.434 72.604 L
174.714 72.052 L
175.994 71.517 L
177.274 70.998 L
178.554 70.495 L
179.834 70.008 L
181.114 69.537 L
182.394 69.082 L
183.674 68.642 L
184.954 68.218 L
186.234 67.809 L
187.514 67.416 L
188.794 67.037 L
190.073 66.674 L
191.353 66.326 L
192.633 65.992 L
193.913 65.673 L
195.193 65.366 L
196.473 65.062 L
197.753 64.759 L
199.033 64.457 L
200.313 64.156 L
201.593 63.857 L
202.873 63.559 L
204.153 63.262 L
205.432 62.966 L
206.712 62.672 L
207.992 62.379 L
209.272 62.087 L
210.552 61.797 L
211.832 61.508 L
213.112 61.22 L
214.392 60.934 L
215.672 60.648 L
216.952 60.364 L
218.232 60.082 L
219.512 59.8 L
220.792 59.52 L
222.071 59.242 L
223.351 58.964 L
224.631 58.688 L
225.911 58.414 L
227.191 58.14 L
228.471 57.868 L
229.751 57.598 L
231.031 57.328 L
232.311 57.06 L
233.591 56.794 L
234.871 56.528 L
236.151 56.264 L
237.43 56.002 L
238.71 55.741 L
239.99 55.481 L
241.27 55.222 L
242.55 54.965 L
243.83 54.709 L
245.11 54.455 L
246.39 54.202 L
247.67 53.95 L
248.95 53.7 L
250.23 53.451 L
251.51 53.204 L
252.789 52.958 L
254.069 52.713 L
255.349 52.47 L
256.629 52.228 L
257.909 51.988 L
259.189 51.749 L
260.469 51.511 L
261.749 51.275 L
263.029 51.041 L
264.309 50.807 L
265.589 50.576 L
266.869 50.345 L
268.149 50.116 L
269.428 49.889 L
270.708 49.663 L
271.988 49.438 L
273.268 49.215 L
274.548 48.993 L
275.828 48.773 L
277.108 48.554 L
278.388 48.337 L
279.668 48.121 L
280.948 47.907 L
282.228 47.694 L
283.508 47.482 L
284.787 47.272 L
286.067 47.064 L
287.347 46.857 L
288.627 46.652 L
289.907 46.447 L
291.187 46.245 L
292.467 46.044 L
293.747 45.845 L
295.027 45.647 L
296.307 45.45 L
297.587 45.255 L
298.867 45.062 L
300.147 44.87 L
301.426 44.68 L
302.706 44.491 L
303.986 44.304 L
305.266 44.118 L
306.546 43.934 L
307.826 43.751 L
309.106 43.57 L
310.386 43.391 L
311.666 43.213 L
312.946 43.036 L
314.226 42.861 L
315.506 42.688 L
316.785 42.516 L
318.065 42.346 L
319.345 42.178 L
320.625 42.011 L
321.905 41.845 L
323.185 41.681 L
324.465 41.519 L
325.745 41.358 L
327.025 41.199 L
328.305 41.042 L
329.585 40.886 L
330.865 40.732 L
332.144 40.579 L
333.424 40.428 L
334.704 40.279 L
335.984 40.131 L
337.264 39.985 L
338.544 39.84 L
339.824 39.697 L
341.104 39.556 L
342.384 39.416 L
343.664 39.278 L
344.944 39.142 L
346.224 39.007 L
347.504 38.874 L
348.783 38.743 L
350.063 38.613 L
351.343 38.485 L
352.623 38.358 L
353.903 38.234 L
355.183 38.11 L
356.463 37.989 L
357.743 37.869 L
359.023 37.751 L
360.303 37.635 L
361.583 37.52 L
362.863 37.407 L
364.142 37.296 L
365.422 37.186 L
366.702 37.078 L
367.982 36.972 L
369.262 36.867 L
370.542 36.764 L
371.822 36.663 L
373.102 36.564 L
374.382 36.466 L
375.662 36.37 L
376.942 36.276 L
378.222 36.184 L
379.501 36.093 L
380.781 36.004 L
382.061 35.917 L
383.341 35.831 L
384.621 35.747 L
385.901 35.665 L
387.181 35.585 L
388.461 35.507 L
389.741 35.43 L
391.021 35.355 L
392.301 35.282 L
393.581 35.21 L
394.861 35.14 L
396.14 35.073 L
397.42 35.006 L
398.7 34.942 L
399.98 34.879 L
401.26 34.819 L
402.54 34.76 L
403.82 34.703 L
405.1 34.647 L
406.38 34.594 L
407.66 34.542 L
408.94 34.492 L
410.22 34.444 L
411.499 34.397 L
412.779 34.353 L
414.059 34.31 L
415.339 34.269 L
416.619 34.23 L
417.899 34.193 L
419.179 34.158 L
420.459 34.124 L
421.739 34.093 L
423.019 34.063 L
424.299 34.035 L
425.579 34.009 L
426.859 33.985 L
428.138 33.962 L
429.418 33.942 L
430.698 33.923 L
431.978 33.906 L
433.258 33.891 L
434.538 33.878 L
435.818 33.867 L
437.098 33.858 L
438.378 33.851 L
439.658 33.845 L
440.938 33.842 L
442.218 33.84 L
S
GR
GS
0 0.447 0.741 RC
[10 6] 0 setdash
2 LJ
0.5 LW
N
73.128 371.85 M
74.408 350.384 L
75.688 329.303 L
76.968 308.92 L
78.248 289.549 L
79.528 271.504 L
80.808 255.099 L
82.088 240.648 L
83.368 228.463 L
84.647 218.829 L
85.927 210.48 L
87.207 202.61 L
88.487 195.207 L
89.767 188.261 L
91.047 181.759 L
92.327 175.69 L
93.607 170.044 L
94.887 164.809 L
96.167 159.973 L
97.447 155.525 L
98.727 151.455 L
100.007 147.75 L
101.286 144.399 L
102.566 141.392 L
103.846 138.681 L
105.126 136.073 L
106.406 133.542 L
107.686 131.086 L
108.966 128.705 L
110.246 126.398 L
111.526 124.165 L
112.806 122.005 L
114.086 119.918 L
115.366 117.904 L
116.645 115.96 L
117.925 114.088 L
119.205 112.286 L
120.485 110.554 L
121.765 108.892 L
123.045 107.299 L
124.325 105.774 L
125.605 104.316 L
126.885 102.927 L
128.165 101.603 L
129.445 100.346 L
130.725 99.155 L
132.004 98.029 L
133.284 96.967 L
134.564 95.969 L
135.844 95.035 L
137.124 94.164 L
138.404 93.355 L
139.684 92.608 L
140.964 91.92 L
142.244 91.25 L
143.524 90.584 L
144.804 89.923 L
146.084 89.265 L
147.364 88.613 L
148.643 87.964 L
149.923 87.32 L
151.203 86.68 L
152.483 86.045 L
153.763 85.414 L
155.043 84.787 L
156.323 84.165 L
157.603 83.547 L
158.883 82.933 L
160.163 82.324 L
161.443 81.719 L
162.723 81.118 L
164.002 80.522 L
165.282 79.931 L
166.562 79.344 L
167.842 78.761 L
169.122 78.183 L
170.402 77.609 L
171.682 77.04 L
172.962 76.475 L
174.242 75.915 L
175.522 75.359 L
176.802 74.808 L
178.082 74.261 L
179.361 73.719 L
180.641 73.181 L
181.921 72.648 L
183.201 72.12 L
184.481 71.596 L
185.761 71.076 L
187.041 70.562 L
188.321 70.052 L
189.601 69.546 L
190.881 69.045 L
192.161 68.549 L
193.441 68.057 L
194.721 67.57 L
196 67.088 L
197.28 66.61 L
198.56 66.137 L
199.84 65.669 L
201.12 65.206 L
202.4 64.747 L
203.68 64.293 L
204.96 63.843 L
206.24 63.399 L
207.52 62.959 L
208.8 62.524 L
210.08 62.093 L
211.359 61.668 L
212.639 61.247 L
213.919 60.831 L
215.199 60.42 L
216.479 60.013 L
217.759 59.612 L
219.039 59.215 L
220.319 58.823 L
221.599 58.436 L
222.879 58.054 L
224.159 57.676 L
225.439 57.304 L
226.719 56.936 L
227.998 56.574 L
229.278 56.216 L
230.558 55.863 L
231.838 55.515 L
233.118 55.173 L
234.398 54.835 L
235.678 54.501 L
236.958 54.173 L
238.238 53.85 L
239.518 53.532 L
240.798 53.219 L
242.078 52.911 L
243.357 52.608 L
244.637 52.31 L
245.917 52.017 L
247.197 51.729 L
248.477 51.446 L
249.757 51.168 L
251.037 50.895 L
252.317 50.628 L
253.597 50.365 L
254.877 50.108 L
256.157 49.855 L
257.437 49.608 L
258.716 49.366 L
259.996 49.129 L
261.276 48.897 L
262.556 48.67 L
263.836 48.449 L
265.116 48.233 L
266.396 48.022 L
267.676 47.816 L
268.956 47.615 L
270.236 47.419 L
271.516 47.229 L
272.796 47.044 L
274.076 46.864 L
275.355 46.69 L
276.635 46.52 L
277.915 46.356 L
279.195 46.198 L
280.475 46.044 L
281.755 45.896 L
283.035 45.753 L
284.315 45.616 L
285.595 45.484 L
286.875 45.357 L
288.155 45.235 L
289.435 45.119 L
290.714 45.008 L
291.994 44.903 L
293.274 44.803 L
294.554 44.708 L
295.834 44.619 L
297.114 44.535 L
298.394 44.457 L
299.674 44.384 L
300.954 44.317 L
302.234 44.255 L
303.514 44.198 L
304.794 44.147 L
306.074 44.102 L
307.353 44.062 L
308.633 44.027 L
309.913 43.998 L
311.193 43.975 L
312.473 43.956 L
313.753 43.944 L
315.033 43.937 L
S
GR
GS
0.851 0.325 0.098 RC
[10 6] 0 setdash
2 LJ
0.5 LW
N
76.28 315.612 M
77.56 301.803 L
78.84 287.917 L
80.119 274.107 L
81.399 260.525 L
82.679 247.326 L
83.959 234.662 L
85.239 222.685 L
86.519 211.549 L
87.799 201.406 L
89.079 192.409 L
90.359 184.712 L
91.639 178.467 L
92.919 173.662 L
94.199 169.244 L
95.479 164.993 L
96.758 160.906 L
98.038 156.979 L
99.318 153.208 L
100.598 149.59 L
101.878 146.12 L
103.158 142.796 L
104.438 139.612 L
105.718 136.565 L
106.998 133.653 L
108.278 130.869 L
109.558 128.212 L
110.838 125.676 L
112.117 123.259 L
113.397 120.956 L
114.677 118.764 L
115.957 116.679 L
117.237 114.696 L
118.517 112.813 L
119.797 111.026 L
121.077 109.329 L
122.357 107.721 L
123.637 106.197 L
124.917 104.752 L
126.197 103.384 L
127.477 102.089 L
128.756 100.862 L
130.036 99.7 L
131.316 98.573 L
132.596 97.464 L
133.876 96.372 L
135.156 95.299 L
136.436 94.243 L
137.716 93.205 L
138.996 92.184 L
140.276 91.18 L
141.556 90.194 L
142.836 89.225 L
144.115 88.272 L
145.395 87.337 L
146.675 86.419 L
147.955 85.517 L
149.235 84.632 L
150.515 83.764 L
151.795 82.912 L
153.075 82.076 L
154.355 81.257 L
155.635 80.454 L
156.915 79.666 L
158.195 78.895 L
159.475 78.139 L
160.754 77.399 L
162.034 76.675 L
163.314 75.966 L
164.594 75.273 L
165.874 74.595 L
167.154 73.932 L
168.434 73.284 L
169.714 72.651 L
170.994 72.034 L
172.274 71.43 L
173.554 70.842 L
174.834 70.268 L
176.113 69.709 L
177.393 69.164 L
178.673 68.633 L
179.953 68.116 L
181.233 67.614 L
182.513 67.125 L
183.793 66.651 L
185.073 66.19 L
186.353 65.742 L
187.633 65.309 L
188.913 64.888 L
190.193 64.481 L
191.473 64.088 L
192.752 63.707 L
194.032 63.339 L
195.312 62.985 L
196.592 62.643 L
197.872 62.314 L
199.152 61.998 L
200.432 61.694 L
201.712 61.402 L
202.992 61.123 L
204.272 60.856 L
205.552 60.596 L
206.832 60.338 L
208.111 60.08 L
209.391 59.823 L
210.671 59.568 L
211.951 59.313 L
213.231 59.06 L
214.511 58.807 L
215.791 58.556 L
217.071 58.306 L
218.351 58.057 L
219.631 57.809 L
220.911 57.562 L
222.191 57.316 L
223.47 57.071 L
224.75 56.827 L
226.03 56.585 L
227.31 56.343 L
228.59 56.103 L
229.87 55.864 L
231.15 55.625 L
232.43 55.388 L
233.71 55.152 L
234.99 54.917 L
236.27 54.683 L
237.55 54.451 L
238.83 54.219 L
240.109 53.988 L
241.389 53.759 L
242.669 53.531 L
243.949 53.304 L
245.229 53.077 L
246.509 52.853 L
247.789 52.629 L
249.069 52.406 L
250.349 52.185 L
251.629 51.964 L
252.909 51.745 L
254.189 51.527 L
255.468 51.31 L
256.748 51.094 L
258.028 50.879 L
259.308 50.666 L
260.588 50.453 L
261.868 50.242 L
263.148 50.032 L
264.428 49.823 L
265.708 49.615 L
266.988 49.408 L
268.268 49.203 L
269.548 48.998 L
270.828 48.795 L
272.107 48.593 L
273.387 48.392 L
274.667 48.193 L
275.947 47.994 L
277.227 47.797 L
278.507 47.601 L
279.787 47.406 L
281.067 47.212 L
282.347 47.019 L
283.627 46.828 L
284.907 46.638 L
286.187 46.449 L
287.466 46.261 L
288.746 46.074 L
290.026 45.889 L
291.306 45.704 L
292.586 45.521 L
293.866 45.339 L
295.146 45.159 L
296.426 44.979 L
297.706 44.801 L
298.986 44.624 L
300.266 44.448 L
301.546 44.274 L
302.826 44.1 L
304.105 43.928 L
305.385 43.757 L
306.665 43.588 L
307.945 43.419 L
309.225 43.252 L
310.505 43.086 L
311.785 42.921 L
313.065 42.758 L
314.345 42.595 L
315.625 42.434 L
316.905 42.274 L
318.185 42.116 L
319.464 41.958 L
320.744 41.802 L
322.024 41.648 L
323.304 41.494 L
324.584 41.342 L
325.864 41.191 L
327.144 41.041 L
328.424 40.892 L
329.704 40.745 L
330.984 40.599 L
332.264 40.454 L
333.544 40.311 L
334.823 40.169 L
336.103 40.028 L
337.383 39.888 L
338.663 39.75 L
339.943 39.612 L
341.223 39.477 L
342.503 39.342 L
343.783 39.209 L
345.063 39.077 L
346.343 38.946 L
347.623 38.817 L
348.903 38.689 L
350.182 38.562 L
351.462 38.437 L
352.742 38.313 L
354.022 38.19 L
355.302 38.068 L
356.582 37.948 L
357.862 37.829 L
359.142 37.712 L
360.422 37.595 L
361.702 37.48 L
362.982 37.367 L
364.262 37.254 L
365.542 37.143 L
366.821 37.033 L
368.101 36.925 L
369.381 36.818 L
370.661 36.713 L
371.941 36.608 L
373.221 36.505 L
374.501 36.403 L
375.781 36.303 L
377.061 36.204 L
378.341 36.107 L
379.621 36.01 L
380.901 35.915 L
382.18 35.822 L
383.46 35.73 L
384.74 35.639 L
386.02 35.549 L
387.3 35.461 L
388.58 35.374 L
389.86 35.289 L
391.14 35.205 L
392.42 35.122 L
393.7 35.041 L
394.98 34.961 L
396.26 34.882 L
397.54 34.805 L
398.819 34.729 L
400.099 34.655 L
401.379 34.582 L
402.659 34.51 L
403.939 34.44 L
405.219 34.371 L
406.499 34.304 L
407.779 34.238 L
409.059 34.173 L
410.339 34.11 L
411.619 34.048 L
412.899 33.988 L
414.178 33.929 L
415.458 33.871 L
416.738 33.815 L
418.018 33.76 L
419.298 33.706 L
420.578 33.655 L
421.858 33.604 L
423.138 33.555 L
424.418 33.507 L
425.698 33.461 L
426.978 33.416 L
428.258 33.373 L
429.538 33.331 L
430.817 33.29 L
432.097 33.251 L
433.377 33.213 L
434.657 33.177 L
435.937 33.142 L
437.217 33.109 L
438.497 33.077 L
439.777 33.047 L
441.057 33.018 L
442.337 32.99 L
443.617 32.964 L
444.897 32.94 L
446.176 32.916 L
447.456 32.895 L
448.736 32.875 L
450.016 32.856 L
451.296 32.838 L
452.576 32.823 L
453.856 32.808 L
455.136 32.795 L
456.416 32.784 L
457.696 32.774 L
458.976 32.766 L
460.256 32.759 L
461.535 32.754 L
462.815 32.75 L
464.095 32.747 L
465.375 32.746 L
S
GR
GS
1 GC
N
499 366 M
499 218.5 L
327.5 218.5 L
327.5 366 L
cp
f
GR
GS
[1 0 0 1 364.5 228.25] CT
/Helvetica 13 F
GS
[1 0 0 1 0 0] CT
0 5 moveto 
1 -1 scale
(Base Run) t 
GR
GR
GS
0 0.447 0.741 RC
1 LJ
0.5 LW
N
331.5 228.25 M
361.5 228.25 L
S
GR
GS
[1 0 0 1 364.5 244.25] CT
/Helvetica 13 F
GS
[1 0 0 1 0 0] CT
0 5 moveto 
1 -1 scale
(All Frames) t 
GR
GR
GS
0.851 0.325 0.098 RC
1 LJ
0.5 LW
N
331.5 244.25 M
361.5 244.25 L
S
GR
GS
[1 0 0 1 364.5 260.25] CT
/Helvetica 13 F
GS
[1 0 0 1 0 0] CT
0 5 moveto 
1 -1 scale
(KF Only) t 
GR
GR
GS
0.929 0.694 0.125 RC
1 LJ
0.5 LW
N
331.5 260.25 M
361.5 260.25 L
S
GR
GS
[1 0 0 1 364.5 276.25] CT
/Helvetica 13 F
GS
[1 0 0 1 0 0] CT
0 5 moveto 
1 -1 scale
(GF, ARF Only) t 
GR
GR
GS
0.494 0.184 0.557 RC
1 LJ
0.5 LW
N
331.5 276.25 M
361.5 276.25 L
S
GR
GS
[1 0 0 1 364.5 292.25] CT
/Helvetica 13 F
GS
[1 0 0 1 0 0] CT
0 5 moveto 
1 -1 scale
(KF, GF, ARF Only) t 
GR
GR
GS
0.467 0.675 0.188 RC
1 LJ
0.5 LW
N
331.5 292.25 M
361.5 292.25 L
S
GR
GS
[1 0 0 1 364.5 308.25] CT
/Helvetica 13 F
GS
[1 0 0 1 0 0] CT
0 5 moveto 
1 -1 scale
(Part All Frames) t 
GR
GR
GS
0.302 0.745 0.933 RC
[10 6] 0 setdash
2 LJ
0.5 LW
N
331.5 308.25 M
361.5 308.25 L
S
GR
GS
[1 0 0 1 364.5 324.25] CT
/Helvetica 13 F
GS
[1 0 0 1 0 0] CT
0 5 moveto 
1 -1 scale
(Part KF Only) t 
GR
GR
GS
0.635 0.078 0.184 RC
[10 6] 0 setdash
2 LJ
0.5 LW
N
331.5 324.25 M
361.5 324.25 L
S
GR
GS
[1 0 0 1 364.5 340.25] CT
/Helvetica 13 F
GS
[1 0 0 1 0 0] CT
0 5 moveto 
1 -1 scale
(Part GF, ARF Only) t 
GR
GR
GS
0 0.447 0.741 RC
[10 6] 0 setdash
2 LJ
0.5 LW
N
331.5 340.25 M
361.5 340.25 L
S
GR
GS
[1 0 0 1 364.5 356.25] CT
/Helvetica 13 F
GS
[1 0 0 1 0 0] CT
0 5 moveto 
1 -1 scale
(Part KF, GF, ARF Only) t 
GR
GR
GS
0.851 0.325 0.098 RC
[10 6] 0 setdash
2 LJ
0.5 LW
N
331.5 356.25 M
361.5 356.25 L
S
GR
GS
0.149 GC
10.0 ML
0.5 LW
N
327.5 366 M
327.5 218.5 L
499 218.5 L
499 366 L
cp
S
GR
%%Trailer
%%Pages: 1
%%EOF
