%!PS-Adobe-3.0 EPSF-3.0
%%Creator: (MATLAB, The Mathworks, Inc. Version 9.11.0.1837725 \(R2021b\) Update 2. Operating System: Mac OS X)
%%Title: plots/pchip/Lecture_1080P-3ce0.y4m-hevc-PSNRV.eps
%%CreationDate: 2022-02-03T19:14:13
%%Pages: (atend)
%%BoundingBox:    33   425   508   826
%%LanguageLevel: 3
%%EndComments
%%BeginProlog
%%BeginResource: procset (Apache XML Graphics Std ProcSet) 1.2 0
%%Version: 1.2 0
%%Copyright: (Copyright 2001-2003,2010 The Apache Software Foundation. License terms: http://www.apache.org/licenses/LICENSE-2.0)
/bd{bind def}bind def
/ld{load def}bd
/GR/grestore ld
/GS/gsave ld
/RM/rmoveto ld
/C/curveto ld
/t/show ld
/L/lineto ld
/ML/setmiterlimit ld
/CT/concat ld
/f/fill ld
/N/newpath ld
/S/stroke ld
/CC/setcmykcolor ld
/A/ashow ld
/cp/closepath ld
/RC/setrgbcolor ld
/LJ/setlinejoin ld
/GC/setgray ld
/LW/setlinewidth ld
/M/moveto ld
/re {4 2 roll M
1 index 0 rlineto
0 exch rlineto
neg 0 rlineto
cp } bd
/_ctm matrix def
/_tm matrix def
/BT { _ctm currentmatrix pop matrix _tm copy pop 0 0 moveto } bd
/ET { _ctm setmatrix } bd
/iTm { _ctm setmatrix _tm concat } bd
/Tm { _tm astore pop iTm 0 0 moveto } bd
/ux 0.0 def
/uy 0.0 def
/F {
  /Tp exch def
  /Tf exch def
  Tf findfont Tp scalefont setfont
  /cf Tf def  /cs Tp def
} bd
/ULS {currentpoint /uy exch def /ux exch def} bd
/ULE {
  /Tcx currentpoint pop def
  gsave
  newpath
  cf findfont cs scalefont dup
  /FontMatrix get 0 get /Ts exch def /FontInfo get dup
  /UnderlinePosition get Ts mul /To exch def
  /UnderlineThickness get Ts mul /Tt exch def
  ux uy To add moveto  Tcx uy To add lineto
  Tt setlinewidth stroke
  grestore
} bd
/OLE {
  /Tcx currentpoint pop def
  gsave
  newpath
  cf findfont cs scalefont dup
  /FontMatrix get 0 get /Ts exch def /FontInfo get dup
  /UnderlinePosition get Ts mul /To exch def
  /UnderlineThickness get Ts mul /Tt exch def
  ux uy To add cs add moveto Tcx uy To add cs add lineto
  Tt setlinewidth stroke
  grestore
} bd
/SOE {
  /Tcx currentpoint pop def
  gsave
  newpath
  cf findfont cs scalefont dup
  /FontMatrix get 0 get /Ts exch def /FontInfo get dup
  /UnderlinePosition get Ts mul /To exch def
  /UnderlineThickness get Ts mul /Tt exch def
  ux uy To add cs 10 mul 26 idiv add moveto Tcx uy To add cs 10 mul 26 idiv add lineto
  Tt setlinewidth stroke
  grestore
} bd
/QT {
/Y22 exch store
/X22 exch store
/Y21 exch store
/X21 exch store
currentpoint
/Y21 load 2 mul add 3 div exch
/X21 load 2 mul add 3 div exch
/X21 load 2 mul /X22 load add 3 div
/Y21 load 2 mul /Y22 load add 3 div
/X22 load /Y22 load curveto
} bd
/SSPD {
dup length /d exch dict def
{
/v exch def
/k exch def
currentpagedevice k known {
/cpdv currentpagedevice k get def
v cpdv ne {
/upd false def
/nullv v type /nulltype eq def
/nullcpdv cpdv type /nulltype eq def
nullv nullcpdv or
{
/upd true def
} {
/sametype v type cpdv type eq def
sametype {
v type /arraytype eq {
/vlen v length def
/cpdvlen cpdv length def
vlen cpdvlen eq {
0 1 vlen 1 sub {
/i exch def
/obj v i get def
/cpdobj cpdv i get def
obj cpdobj ne {
/upd true def
exit
} if
} for
} {
/upd true def
} ifelse
} {
v type /dicttype eq {
v {
/dv exch def
/dk exch def
/cpddv cpdv dk get def
dv cpddv ne {
/upd true def
exit
} if
} forall
} {
/upd true def
} ifelse
} ifelse
} if
} ifelse
upd true eq {
d k v put
} if
} if
} if
} forall
d length 0 gt {
d setpagedevice
} if
} bd
/RE { % /NewFontName [NewEncodingArray] /FontName RE -
  findfont dup length dict begin
  {
    1 index /FID ne
    {def} {pop pop} ifelse
  } forall
  /Encoding exch def
  /FontName 1 index def
  currentdict definefont pop
  end
} bind def
%%EndResource
%%BeginResource: procset (Apache XML Graphics EPS ProcSet) 1.0 0
%%Version: 1.0 0
%%Copyright: (Copyright 2002-2003 The Apache Software Foundation. License terms: http://www.apache.org/licenses/LICENSE-2.0)
/BeginEPSF { %def
/b4_Inc_state save def         % Save state for cleanup
/dict_count countdictstack def % Count objects on dict stack
/op_count count 1 sub def      % Count objects on operand stack
userdict begin                 % Push userdict on dict stack
/showpage { } def              % Redefine showpage, { } = null proc
0 setgray 0 setlinecap         % Prepare graphics state
1 setlinewidth 0 setlinejoin
10 setmiterlimit [ ] 0 setdash newpath
/languagelevel where           % If level not equal to 1 then
{pop languagelevel             % set strokeadjust and
1 ne                           % overprint to their defaults.
{false setstrokeadjust false setoverprint
} if
} if
} bd
/EndEPSF { %def
count op_count sub {pop} repeat            % Clean up stacks
countdictstack dict_count sub {end} repeat
b4_Inc_state restore
} bd
%%EndResource
%FOPBeginFontDict
%%IncludeResource: font Courier-Oblique
%%IncludeResource: font Courier-BoldOblique
%%IncludeResource: font Courier-Bold
%%IncludeResource: font ZapfDingbats
%%IncludeResource: font Symbol
%%IncludeResource: font Helvetica
%%IncludeResource: font Helvetica-Oblique
%%IncludeResource: font Helvetica-Bold
%%IncludeResource: font Helvetica-BoldOblique
%%IncludeResource: font Times-Roman
%%IncludeResource: font Times-Italic
%%IncludeResource: font Times-Bold
%%IncludeResource: font Times-BoldItalic
%%IncludeResource: font Courier
%FOPEndFontDict
%%BeginResource: encoding WinAnsiEncoding
/WinAnsiEncoding [
/.notdef /.notdef /.notdef /.notdef /.notdef
/.notdef /.notdef /.notdef /.notdef /.notdef
/.notdef /.notdef /.notdef /.notdef /.notdef
/.notdef /.notdef /.notdef /.notdef /.notdef
/.notdef /.notdef /.notdef /.notdef /.notdef
/.notdef /.notdef /.notdef /.notdef /.notdef
/.notdef /.notdef /space /exclam /quotedbl
/numbersign /dollar /percent /ampersand /quotesingle
/parenleft /parenright /asterisk /plus /comma
/hyphen /period /slash /zero /one
/two /three /four /five /six
/seven /eight /nine /colon /semicolon
/less /equal /greater /question /at
/A /B /C /D /E
/F /G /H /I /J
/K /L /M /N /O
/P /Q /R /S /T
/U /V /W /X /Y
/Z /bracketleft /backslash /bracketright /asciicircum
/underscore /quoteleft /a /b /c
/d /e /f /g /h
/i /j /k /l /m
/n /o /p /q /r
/s /t /u /v /w
/x /y /z /braceleft /bar
/braceright /asciitilde /bullet /Euro /bullet
/quotesinglbase /florin /quotedblbase /ellipsis /dagger
/daggerdbl /circumflex /perthousand /Scaron /guilsinglleft
/OE /bullet /Zcaron /bullet /bullet
/quoteleft /quoteright /quotedblleft /quotedblright /bullet
/endash /emdash /asciitilde /trademark /scaron
/guilsinglright /oe /bullet /zcaron /Ydieresis
/space /exclamdown /cent /sterling /currency
/yen /brokenbar /section /dieresis /copyright
/ordfeminine /guillemotleft /logicalnot /sfthyphen /registered
/macron /degree /plusminus /twosuperior /threesuperior
/acute /mu /paragraph /middot /cedilla
/onesuperior /ordmasculine /guillemotright /onequarter /onehalf
/threequarters /questiondown /Agrave /Aacute /Acircumflex
/Atilde /Adieresis /Aring /AE /Ccedilla
/Egrave /Eacute /Ecircumflex /Edieresis /Igrave
/Iacute /Icircumflex /Idieresis /Eth /Ntilde
/Ograve /Oacute /Ocircumflex /Otilde /Odieresis
/multiply /Oslash /Ugrave /Uacute /Ucircumflex
/Udieresis /Yacute /Thorn /germandbls /agrave
/aacute /acircumflex /atilde /adieresis /aring
/ae /ccedilla /egrave /eacute /ecircumflex
/edieresis /igrave /iacute /icircumflex /idieresis
/eth /ntilde /ograve /oacute /ocircumflex
/otilde /odieresis /divide /oslash /ugrave
/uacute /ucircumflex /udieresis /yacute /thorn
/ydieresis
] def
%%EndResource
%FOPBeginFontReencode
/Courier-Oblique findfont
dup length dict begin
  {1 index /FID ne {def} {pop pop} ifelse} forall
  /Encoding WinAnsiEncoding def
  currentdict
end
/Courier-Oblique exch definefont pop
/Courier-BoldOblique findfont
dup length dict begin
  {1 index /FID ne {def} {pop pop} ifelse} forall
  /Encoding WinAnsiEncoding def
  currentdict
end
/Courier-BoldOblique exch definefont pop
/Courier-Bold findfont
dup length dict begin
  {1 index /FID ne {def} {pop pop} ifelse} forall
  /Encoding WinAnsiEncoding def
  currentdict
end
/Courier-Bold exch definefont pop
/Helvetica findfont
dup length dict begin
  {1 index /FID ne {def} {pop pop} ifelse} forall
  /Encoding WinAnsiEncoding def
  currentdict
end
/Helvetica exch definefont pop
/Helvetica-Oblique findfont
dup length dict begin
  {1 index /FID ne {def} {pop pop} ifelse} forall
  /Encoding WinAnsiEncoding def
  currentdict
end
/Helvetica-Oblique exch definefont pop
/Helvetica-Bold findfont
dup length dict begin
  {1 index /FID ne {def} {pop pop} ifelse} forall
  /Encoding WinAnsiEncoding def
  currentdict
end
/Helvetica-Bold exch definefont pop
/Helvetica-BoldOblique findfont
dup length dict begin
  {1 index /FID ne {def} {pop pop} ifelse} forall
  /Encoding WinAnsiEncoding def
  currentdict
end
/Helvetica-BoldOblique exch definefont pop
/Times-Roman findfont
dup length dict begin
  {1 index /FID ne {def} {pop pop} ifelse} forall
  /Encoding WinAnsiEncoding def
  currentdict
end
/Times-Roman exch definefont pop
/Times-Italic findfont
dup length dict begin
  {1 index /FID ne {def} {pop pop} ifelse} forall
  /Encoding WinAnsiEncoding def
  currentdict
end
/Times-Italic exch definefont pop
/Times-Bold findfont
dup length dict begin
  {1 index /FID ne {def} {pop pop} ifelse} forall
  /Encoding WinAnsiEncoding def
  currentdict
end
/Times-Bold exch definefont pop
/Times-BoldItalic findfont
dup length dict begin
  {1 index /FID ne {def} {pop pop} ifelse} forall
  /Encoding WinAnsiEncoding def
  currentdict
end
/Times-BoldItalic exch definefont pop
/Courier findfont
dup length dict begin
  {1 index /FID ne {def} {pop pop} ifelse} forall
  /Encoding WinAnsiEncoding def
  currentdict
end
/Courier exch definefont pop
%FOPEndFontReencode
%%EndProlog
%%Page: 1 1
%%PageBoundingBox: 0 0 1120 840
%%BeginPageSetup
[1 0 0 -1 0 840] CT
%%EndPageSetup
GS
1 GC
N
0 0 1120 840 re
f
GR
GS
1 GC
N
73 374 M
507 374 L
507 31.5 L
73 31.5 L
cp
f
GR
GS
0.149 GC
2 setlinecap
1 LJ
0.5 LW
N
73 374 M
507 374 L
S
GR
GS
0.149 GC
2 setlinecap
1 LJ
0.5 LW
N
73 31.5 M
507 31.5 L
S
GR
GS
0.149 GC
2 setlinecap
1 LJ
0.5 LW
N
116.995 374 M
116.995 369.66 L
S
GR
GS
0.149 GC
2 setlinecap
1 LJ
0.5 LW
N
190.68 374 M
190.68 369.66 L
S
GR
GS
0.149 GC
2 setlinecap
1 LJ
0.5 LW
N
264.365 374 M
264.365 369.66 L
S
GR
GS
0.149 GC
2 setlinecap
1 LJ
0.5 LW
N
338.05 374 M
338.05 369.66 L
S
GR
GS
0.149 GC
2 setlinecap
1 LJ
0.5 LW
N
411.735 374 M
411.735 369.66 L
S
GR
GS
0.149 GC
2 setlinecap
1 LJ
0.5 LW
N
485.42 374 M
485.42 369.66 L
S
GR
GS
0.149 GC
2 setlinecap
1 LJ
0.5 LW
N
116.995 31.5 M
116.995 35.84 L
S
GR
GS
0.149 GC
2 setlinecap
1 LJ
0.5 LW
N
190.68 31.5 M
190.68 35.84 L
S
GR
GS
0.149 GC
2 setlinecap
1 LJ
0.5 LW
N
264.365 31.5 M
264.365 35.84 L
S
GR
GS
0.149 GC
2 setlinecap
1 LJ
0.5 LW
N
338.05 31.5 M
338.05 35.84 L
S
GR
GS
0.149 GC
2 setlinecap
1 LJ
0.5 LW
N
411.735 31.5 M
411.735 35.84 L
S
GR
GS
0.149 GC
2 setlinecap
1 LJ
0.5 LW
N
485.42 31.5 M
485.42 35.84 L
S
GR
GS
0.149 GC
2 setlinecap
1 LJ
0.5 LW
N
87.521 374 M
87.521 371.83 L
S
GR
GS
0.149 GC
2 setlinecap
1 LJ
0.5 LW
N
102.258 374 M
102.258 371.83 L
S
GR
GS
0.149 GC
2 setlinecap
1 LJ
0.5 LW
N
131.732 374 M
131.732 371.83 L
S
GR
GS
0.149 GC
2 setlinecap
1 LJ
0.5 LW
N
146.469 374 M
146.469 371.83 L
S
GR
GS
0.149 GC
2 setlinecap
1 LJ
0.5 LW
N
161.206 374 M
161.206 371.83 L
S
GR
GS
0.149 GC
2 setlinecap
1 LJ
0.5 LW
N
175.943 374 M
175.943 371.83 L
S
GR
GS
0.149 GC
2 setlinecap
1 LJ
0.5 LW
N
205.417 374 M
205.417 371.83 L
S
GR
GS
0.149 GC
2 setlinecap
1 LJ
0.5 LW
N
220.154 374 M
220.154 371.83 L
S
GR
GS
0.149 GC
2 setlinecap
1 LJ
0.5 LW
N
234.891 374 M
234.891 371.83 L
S
GR
GS
0.149 GC
2 setlinecap
1 LJ
0.5 LW
N
249.628 374 M
249.628 371.83 L
S
GR
GS
0.149 GC
2 setlinecap
1 LJ
0.5 LW
N
279.102 374 M
279.102 371.83 L
S
GR
GS
0.149 GC
2 setlinecap
1 LJ
0.5 LW
N
293.839 374 M
293.839 371.83 L
S
GR
GS
0.149 GC
2 setlinecap
1 LJ
0.5 LW
N
308.576 374 M
308.576 371.83 L
S
GR
GS
0.149 GC
2 setlinecap
1 LJ
0.5 LW
N
323.313 374 M
323.313 371.83 L
S
GR
GS
0.149 GC
2 setlinecap
1 LJ
0.5 LW
N
352.787 374 M
352.787 371.83 L
S
GR
GS
0.149 GC
2 setlinecap
1 LJ
0.5 LW
N
367.524 374 M
367.524 371.83 L
S
GR
GS
0.149 GC
2 setlinecap
1 LJ
0.5 LW
N
382.261 374 M
382.261 371.83 L
S
GR
GS
0.149 GC
2 setlinecap
1 LJ
0.5 LW
N
396.998 374 M
396.998 371.83 L
S
GR
GS
0.149 GC
2 setlinecap
1 LJ
0.5 LW
N
426.472 374 M
426.472 371.83 L
S
GR
GS
0.149 GC
2 setlinecap
1 LJ
0.5 LW
N
441.209 374 M
441.209 371.83 L
S
GR
GS
0.149 GC
2 setlinecap
1 LJ
0.5 LW
N
455.946 374 M
455.946 371.83 L
S
GR
GS
0.149 GC
2 setlinecap
1 LJ
0.5 LW
N
470.683 374 M
470.683 371.83 L
S
GR
GS
0.149 GC
2 setlinecap
1 LJ
0.5 LW
N
500.157 374 M
500.157 371.83 L
S
GR
GS
0.149 GC
2 setlinecap
1 LJ
0.5 LW
N
87.521 31.5 M
87.521 33.67 L
S
GR
GS
0.149 GC
2 setlinecap
1 LJ
0.5 LW
N
102.258 31.5 M
102.258 33.67 L
S
GR
GS
0.149 GC
2 setlinecap
1 LJ
0.5 LW
N
131.732 31.5 M
131.732 33.67 L
S
GR
GS
0.149 GC
2 setlinecap
1 LJ
0.5 LW
N
146.469 31.5 M
146.469 33.67 L
S
GR
GS
0.149 GC
2 setlinecap
1 LJ
0.5 LW
N
161.206 31.5 M
161.206 33.67 L
S
GR
GS
0.149 GC
2 setlinecap
1 LJ
0.5 LW
N
175.943 31.5 M
175.943 33.67 L
S
GR
GS
0.149 GC
2 setlinecap
1 LJ
0.5 LW
N
205.417 31.5 M
205.417 33.67 L
S
GR
GS
0.149 GC
2 setlinecap
1 LJ
0.5 LW
N
220.154 31.5 M
220.154 33.67 L
S
GR
GS
0.149 GC
2 setlinecap
1 LJ
0.5 LW
N
234.891 31.5 M
234.891 33.67 L
S
GR
GS
0.149 GC
2 setlinecap
1 LJ
0.5 LW
N
249.628 31.5 M
249.628 33.67 L
S
GR
GS
0.149 GC
2 setlinecap
1 LJ
0.5 LW
N
279.102 31.5 M
279.102 33.67 L
S
GR
GS
0.149 GC
2 setlinecap
1 LJ
0.5 LW
N
293.839 31.5 M
293.839 33.67 L
S
GR
GS
0.149 GC
2 setlinecap
1 LJ
0.5 LW
N
308.576 31.5 M
308.576 33.67 L
S
GR
GS
0.149 GC
2 setlinecap
1 LJ
0.5 LW
N
323.313 31.5 M
323.313 33.67 L
S
GR
GS
0.149 GC
2 setlinecap
1 LJ
0.5 LW
N
352.787 31.5 M
352.787 33.67 L
S
GR
GS
0.149 GC
2 setlinecap
1 LJ
0.5 LW
N
367.524 31.5 M
367.524 33.67 L
S
GR
GS
0.149 GC
2 setlinecap
1 LJ
0.5 LW
N
382.261 31.5 M
382.261 33.67 L
S
GR
GS
0.149 GC
2 setlinecap
1 LJ
0.5 LW
N
396.998 31.5 M
396.998 33.67 L
S
GR
GS
0.149 GC
2 setlinecap
1 LJ
0.5 LW
N
426.472 31.5 M
426.472 33.67 L
S
GR
GS
0.149 GC
2 setlinecap
1 LJ
0.5 LW
N
441.209 31.5 M
441.209 33.67 L
S
GR
GS
0.149 GC
2 setlinecap
1 LJ
0.5 LW
N
455.946 31.5 M
455.946 33.67 L
S
GR
GS
0.149 GC
2 setlinecap
1 LJ
0.5 LW
N
470.683 31.5 M
470.683 33.67 L
S
GR
GS
0.149 GC
2 setlinecap
1 LJ
0.5 LW
N
500.157 31.5 M
500.157 33.67 L
S
GR
GS
[1 0 0 1 116.99512 378.79999] CT
0.149 GC
/Helvetica 14 F
GS
[1 0 0 1 0 0] CT
-16 14 moveto 
1 -1 scale
(1000) t 
GR
GR
GS
[1 0 0 1 190.68007 378.79999] CT
0.149 GC
/Helvetica 14 F
GS
[1 0 0 1 0 0] CT
-16 14 moveto 
1 -1 scale
(2000) t 
GR
GR
GS
[1 0 0 1 264.36502 378.79999] CT
0.149 GC
/Helvetica 14 F
GS
[1 0 0 1 0 0] CT
-16 14 moveto 
1 -1 scale
(3000) t 
GR
GR
GS
[1 0 0 1 338.04996 378.79999] CT
0.149 GC
/Helvetica 14 F
GS
[1 0 0 1 0 0] CT
-16 14 moveto 
1 -1 scale
(4000) t 
GR
GR
GS
[1 0 0 1 411.73489 378.79999] CT
0.149 GC
/Helvetica 14 F
GS
[1 0 0 1 0 0] CT
-16 14 moveto 
1 -1 scale
(5000) t 
GR
GR
GS
[1 0 0 1 485.41983 378.79999] CT
0.149 GC
/Helvetica 14 F
GS
[1 0 0 1 0 0] CT
-16 14 moveto 
1 -1 scale
(6000) t 
GR
GR
GS
[1 0 0 1 290.00021 396.30011] CT
0.149 GC
/Helvetica 15.4 F
GS
[1 0 0 1 0 0] CT
-42 15 moveto 
1 -1 scale
(Bitrate\(kb/s\)) t 
GR
GR
GS
0.149 GC
2 setlinecap
1 LJ
0.5 LW
N
73 374 M
73 31.5 L
S
GR
GS
0.149 GC
2 setlinecap
1 LJ
0.5 LW
N
507 374 M
507 31.5 L
S
GR
GS
0.149 GC
2 setlinecap
1 LJ
0.5 LW
N
73 342.896 M
77.34 342.896 L
S
GR
GS
0.149 GC
2 setlinecap
1 LJ
0.5 LW
N
73 287.993 M
77.34 287.993 L
S
GR
GS
0.149 GC
2 setlinecap
1 LJ
0.5 LW
N
73 233.089 M
77.34 233.089 L
S
GR
GS
0.149 GC
2 setlinecap
1 LJ
0.5 LW
N
73 178.185 M
77.34 178.185 L
S
GR
GS
0.149 GC
2 setlinecap
1 LJ
0.5 LW
N
73 123.281 M
77.34 123.281 L
S
GR
GS
0.149 GC
2 setlinecap
1 LJ
0.5 LW
N
73 68.377 M
77.34 68.377 L
S
GR
GS
0.149 GC
2 setlinecap
1 LJ
0.5 LW
N
507 342.896 M
502.66 342.896 L
S
GR
GS
0.149 GC
2 setlinecap
1 LJ
0.5 LW
N
507 287.993 M
502.66 287.993 L
S
GR
GS
0.149 GC
2 setlinecap
1 LJ
0.5 LW
N
507 233.089 M
502.66 233.089 L
S
GR
GS
0.149 GC
2 setlinecap
1 LJ
0.5 LW
N
507 178.185 M
502.66 178.185 L
S
GR
GS
0.149 GC
2 setlinecap
1 LJ
0.5 LW
N
507 123.281 M
502.66 123.281 L
S
GR
GS
0.149 GC
2 setlinecap
1 LJ
0.5 LW
N
507 68.377 M
502.66 68.377 L
S
GR
GS
0.149 GC
2 setlinecap
1 LJ
0.5 LW
N
73 364.858 M
75.17 364.858 L
S
GR
GS
0.149 GC
2 setlinecap
1 LJ
0.5 LW
N
73 353.877 M
75.17 353.877 L
S
GR
GS
0.149 GC
2 setlinecap
1 LJ
0.5 LW
N
73 331.916 M
75.17 331.916 L
S
GR
GS
0.149 GC
2 setlinecap
1 LJ
0.5 LW
N
73 320.935 M
75.17 320.935 L
S
GR
GS
0.149 GC
2 setlinecap
1 LJ
0.5 LW
N
73 309.954 M
75.17 309.954 L
S
GR
GS
0.149 GC
2 setlinecap
1 LJ
0.5 LW
N
73 298.973 M
75.17 298.973 L
S
GR
GS
0.149 GC
2 setlinecap
1 LJ
0.5 LW
N
73 277.012 M
75.17 277.012 L
S
GR
GS
0.149 GC
2 setlinecap
1 LJ
0.5 LW
N
73 266.031 M
75.17 266.031 L
S
GR
GS
0.149 GC
2 setlinecap
1 LJ
0.5 LW
N
73 255.05 M
75.17 255.05 L
S
GR
GS
0.149 GC
2 setlinecap
1 LJ
0.5 LW
N
73 244.07 M
75.17 244.07 L
S
GR
GS
0.149 GC
2 setlinecap
1 LJ
0.5 LW
N
73 222.108 M
75.17 222.108 L
S
GR
GS
0.149 GC
2 setlinecap
1 LJ
0.5 LW
N
73 211.127 M
75.17 211.127 L
S
GR
GS
0.149 GC
2 setlinecap
1 LJ
0.5 LW
N
73 200.146 M
75.17 200.146 L
S
GR
GS
0.149 GC
2 setlinecap
1 LJ
0.5 LW
N
73 189.166 M
75.17 189.166 L
S
GR
GS
0.149 GC
2 setlinecap
1 LJ
0.5 LW
N
73 167.204 M
75.17 167.204 L
S
GR
GS
0.149 GC
2 setlinecap
1 LJ
0.5 LW
N
73 156.223 M
75.17 156.223 L
S
GR
GS
0.149 GC
2 setlinecap
1 LJ
0.5 LW
N
73 145.243 M
75.17 145.243 L
S
GR
GS
0.149 GC
2 setlinecap
1 LJ
0.5 LW
N
73 134.262 M
75.17 134.262 L
S
GR
GS
0.149 GC
2 setlinecap
1 LJ
0.5 LW
N
73 112.3 M
75.17 112.3 L
S
GR
GS
0.149 GC
2 setlinecap
1 LJ
0.5 LW
N
73 101.319 M
75.17 101.319 L
S
GR
GS
0.149 GC
2 setlinecap
1 LJ
0.5 LW
N
73 90.339 M
75.17 90.339 L
S
GR
GS
0.149 GC
2 setlinecap
1 LJ
0.5 LW
N
73 79.358 M
75.17 79.358 L
S
GR
GS
0.149 GC
2 setlinecap
1 LJ
0.5 LW
N
73 57.396 M
75.17 57.396 L
S
GR
GS
0.149 GC
2 setlinecap
1 LJ
0.5 LW
N
73 46.416 M
75.17 46.416 L
S
GR
GS
0.149 GC
2 setlinecap
1 LJ
0.5 LW
N
73 35.435 M
75.17 35.435 L
S
GR
GS
0.149 GC
2 setlinecap
1 LJ
0.5 LW
N
507 364.858 M
504.83 364.858 L
S
GR
GS
0.149 GC
2 setlinecap
1 LJ
0.5 LW
N
507 353.877 M
504.83 353.877 L
S
GR
GS
0.149 GC
2 setlinecap
1 LJ
0.5 LW
N
507 331.916 M
504.83 331.916 L
S
GR
GS
0.149 GC
2 setlinecap
1 LJ
0.5 LW
N
507 320.935 M
504.83 320.935 L
S
GR
GS
0.149 GC
2 setlinecap
1 LJ
0.5 LW
N
507 309.954 M
504.83 309.954 L
S
GR
GS
0.149 GC
2 setlinecap
1 LJ
0.5 LW
N
507 298.973 M
504.83 298.973 L
S
GR
GS
0.149 GC
2 setlinecap
1 LJ
0.5 LW
N
507 277.012 M
504.83 277.012 L
S
GR
GS
0.149 GC
2 setlinecap
1 LJ
0.5 LW
N
507 266.031 M
504.83 266.031 L
S
GR
GS
0.149 GC
2 setlinecap
1 LJ
0.5 LW
N
507 255.05 M
504.83 255.05 L
S
GR
GS
0.149 GC
2 setlinecap
1 LJ
0.5 LW
N
507 244.07 M
504.83 244.07 L
S
GR
GS
0.149 GC
2 setlinecap
1 LJ
0.5 LW
N
507 222.108 M
504.83 222.108 L
S
GR
GS
0.149 GC
2 setlinecap
1 LJ
0.5 LW
N
507 211.127 M
504.83 211.127 L
S
GR
GS
0.149 GC
2 setlinecap
1 LJ
0.5 LW
N
507 200.146 M
504.83 200.146 L
S
GR
GS
0.149 GC
2 setlinecap
1 LJ
0.5 LW
N
507 189.166 M
504.83 189.166 L
S
GR
GS
0.149 GC
2 setlinecap
1 LJ
0.5 LW
N
507 167.204 M
504.83 167.204 L
S
GR
GS
0.149 GC
2 setlinecap
1 LJ
0.5 LW
N
507 156.223 M
504.83 156.223 L
S
GR
GS
0.149 GC
2 setlinecap
1 LJ
0.5 LW
N
507 145.243 M
504.83 145.243 L
S
GR
GS
0.149 GC
2 setlinecap
1 LJ
0.5 LW
N
507 134.262 M
504.83 134.262 L
S
GR
GS
0.149 GC
2 setlinecap
1 LJ
0.5 LW
N
507 112.3 M
504.83 112.3 L
S
GR
GS
0.149 GC
2 setlinecap
1 LJ
0.5 LW
N
507 101.319 M
504.83 101.319 L
S
GR
GS
0.149 GC
2 setlinecap
1 LJ
0.5 LW
N
507 90.339 M
504.83 90.339 L
S
GR
GS
0.149 GC
2 setlinecap
1 LJ
0.5 LW
N
507 79.358 M
504.83 79.358 L
S
GR
GS
0.149 GC
2 setlinecap
1 LJ
0.5 LW
N
507 57.396 M
504.83 57.396 L
S
GR
GS
0.149 GC
2 setlinecap
1 LJ
0.5 LW
N
507 46.416 M
504.83 46.416 L
S
GR
GS
0.149 GC
2 setlinecap
1 LJ
0.5 LW
N
507 35.435 M
504.83 35.435 L
S
GR
GS
[1 0 0 1 68.2 342.89645] CT
0.149 GC
/Helvetica 14 F
GS
[1 0 0 1 0 0] CT
-16 5.5 moveto 
1 -1 scale
(42) t 
GR
GR
GS
[1 0 0 1 68.2 287.99261] CT
0.149 GC
/Helvetica 14 F
GS
[1 0 0 1 0 0] CT
-16 5.5 moveto 
1 -1 scale
(43) t 
GR
GR
GS
[1 0 0 1 68.2 233.08875] CT
0.149 GC
/Helvetica 14 F
GS
[1 0 0 1 0 0] CT
-16 5.5 moveto 
1 -1 scale
(44) t 
GR
GR
GS
[1 0 0 1 68.2 178.18488] CT
0.149 GC
/Helvetica 14 F
GS
[1 0 0 1 0 0] CT
-16 5.5 moveto 
1 -1 scale
(45) t 
GR
GR
GS
[1 0 0 1 68.2 123.28101] CT
0.149 GC
/Helvetica 14 F
GS
[1 0 0 1 0 0] CT
-16 5.5 moveto 
1 -1 scale
(46) t 
GR
GR
GS
[1 0 0 1 68.2 68.37714] CT
0.149 GC
/Helvetica 14 F
GS
[1 0 0 1 0 0] CT
-16 5.5 moveto 
1 -1 scale
(47) t 
GR
GR
GS
[0 -1 1 0 49.2 202.74986] CT
0.149 GC
/Helvetica 15.4 F
GS
[1 0 0 1 0 0] CT
-44 -4 moveto 
1 -1 scale
(PSNR V \(dB\)) t 
GR
GR
GS
[1 0 0 1 290.00027 29.57494] CT
/Helvetica-Bold 15.4 F
GS
[1 0 0 1 0 0] CT
-113 -4 moveto 
1 -1 scale
(Lecture_1080P-3ce0.y4m-hevc) t 
GR
GR
GS
0 0.447 0.741 RC
1 LJ
0.5 LW
N
73.09 373.189 M
74.564 369.984 L
76.037 366.782 L
77.511 363.583 L
78.985 360.387 L
80.459 357.195 L
81.932 354.006 L
83.406 350.82 L
84.88 347.639 L
86.353 344.462 L
87.827 341.29 L
89.301 338.122 L
90.774 334.958 L
92.248 331.8 L
93.722 328.646 L
95.195 325.48 L
96.669 322.288 L
98.143 319.074 L
99.617 315.842 L
101.09 312.596 L
102.564 309.341 L
104.038 306.081 L
105.511 302.819 L
106.985 299.56 L
108.459 296.308 L
109.932 293.067 L
111.406 289.841 L
112.88 286.634 L
114.354 283.45 L
115.827 280.293 L
117.301 277.168 L
118.775 274.079 L
120.248 271.029 L
121.722 268.023 L
123.196 265.065 L
124.669 262.158 L
126.143 259.308 L
127.617 256.517 L
129.091 253.791 L
130.564 251.108 L
132.038 248.413 L
133.512 245.704 L
134.985 242.983 L
136.459 240.252 L
137.933 237.515 L
139.406 234.772 L
140.88 232.025 L
142.354 229.277 L
143.828 226.53 L
145.301 223.786 L
146.775 221.046 L
148.249 218.314 L
149.722 215.59 L
151.196 212.877 L
152.67 210.177 L
154.143 207.493 L
155.617 204.825 L
157.091 202.177 L
158.565 199.549 L
160.038 196.945 L
161.512 194.367 L
162.986 191.815 L
164.459 189.293 L
165.933 186.803 L
167.407 184.346 L
168.88 181.924 L
170.354 179.54 L
171.828 177.196 L
173.302 174.893 L
174.775 172.634 L
176.249 170.421 L
177.723 168.256 L
179.196 166.14 L
180.67 164.077 L
182.144 162.067 L
183.617 160.114 L
185.091 158.218 L
186.565 156.382 L
188.039 154.609 L
189.512 152.9 L
190.986 151.257 L
192.46 149.682 L
193.933 148.178 L
195.407 146.746 L
196.881 145.389 L
198.354 144.108 L
199.828 142.905 L
201.302 141.783 L
202.776 140.73 L
204.249 139.687 L
205.723 138.647 L
207.197 137.612 L
208.67 136.581 L
210.144 135.554 L
211.618 134.531 L
213.091 133.512 L
214.565 132.497 L
216.039 131.487 L
217.512 130.481 L
218.986 129.479 L
220.46 128.481 L
221.934 127.487 L
223.407 126.498 L
224.881 125.513 L
226.355 124.533 L
227.828 123.557 L
229.302 122.586 L
230.776 121.618 L
232.249 120.656 L
233.723 119.698 L
235.197 118.744 L
236.671 117.796 L
238.144 116.851 L
239.618 115.912 L
241.092 114.976 L
242.565 114.046 L
244.039 113.121 L
245.513 112.2 L
246.986 111.284 L
248.46 110.372 L
249.934 109.466 L
251.408 108.565 L
252.881 107.668 L
254.355 106.776 L
255.829 105.89 L
257.302 105.008 L
258.776 104.131 L
260.25 103.259 L
261.723 102.393 L
263.197 101.531 L
264.671 100.675 L
266.145 99.823 L
267.618 98.977 L
269.092 98.136 L
270.566 97.301 L
272.039 96.47 L
273.513 95.645 L
274.987 94.825 L
276.46 94.011 L
277.934 93.202 L
279.408 92.398 L
280.882 91.6 L
282.355 90.807 L
283.829 90.02 L
285.303 89.238 L
286.776 88.462 L
288.25 87.692 L
289.724 86.927 L
291.197 86.167 L
292.671 85.414 L
294.145 84.666 L
295.619 83.923 L
297.092 83.187 L
298.566 82.456 L
300.04 81.731 L
301.513 81.012 L
302.987 80.299 L
304.461 79.591 L
305.934 78.89 L
307.408 78.194 L
308.882 77.505 L
310.356 76.821 L
311.829 76.144 L
313.303 75.472 L
314.777 74.807 L
316.25 74.148 L
317.724 73.495 L
319.198 72.848 L
320.671 72.207 L
322.145 71.573 L
323.619 70.944 L
325.093 70.322 L
326.566 69.707 L
328.04 69.097 L
329.514 68.495 L
330.987 67.898 L
332.461 67.308 L
333.935 66.724 L
335.408 66.147 L
336.882 65.577 L
338.356 65.013 L
339.829 64.455 L
341.303 63.904 L
342.777 63.36 L
344.251 62.822 L
345.724 62.291 L
347.198 61.767 L
348.672 61.25 L
350.145 60.739 L
351.619 60.235 L
353.093 59.738 L
354.566 59.248 L
356.04 58.765 L
357.514 58.288 L
358.988 57.819 L
360.461 57.356 L
361.935 56.901 L
363.409 56.452 L
364.882 56.011 L
366.356 55.576 L
367.83 55.149 L
369.303 54.729 L
370.777 54.316 L
372.251 53.911 L
373.725 53.512 L
375.198 53.121 L
376.672 52.737 L
378.146 52.36 L
379.619 51.991 L
381.093 51.629 L
382.567 51.275 L
384.04 50.927 L
385.514 50.588 L
386.988 50.256 L
388.462 49.931 L
389.935 49.614 L
391.409 49.304 L
392.883 49.002 L
394.356 48.708 L
395.83 48.421 L
397.304 48.142 L
398.777 47.871 L
400.251 47.607 L
401.725 47.351 L
403.199 47.103 L
404.672 46.863 L
406.146 46.631 L
407.62 46.406 L
409.093 46.19 L
410.567 45.981 L
412.041 45.78 L
413.514 45.588 L
414.988 45.403 L
416.462 45.227 L
417.936 45.058 L
419.409 44.898 L
420.883 44.745 L
422.357 44.601 L
423.83 44.465 L
425.304 44.338 L
426.778 44.218 L
428.251 44.107 L
429.725 44.004 L
431.199 43.91 L
432.673 43.823 L
434.146 43.746 L
435.62 43.676 L
437.094 43.615 L
438.567 43.563 L
440.041 43.519 L
441.515 43.483 L
442.988 43.457 L
444.462 43.438 L
445.936 43.429 L
S
GR
GS
0.851 0.325 0.098 RC
1 LJ
0.5 LW
N
75.206 361.417 M
76.68 358.714 L
78.154 355.997 L
79.627 353.264 L
81.101 350.516 L
82.575 347.75 L
84.048 344.968 L
85.522 342.168 L
86.996 339.349 L
88.47 336.512 L
89.943 333.655 L
91.417 330.778 L
92.891 327.88 L
94.364 324.961 L
95.838 322.02 L
97.312 319.054 L
98.785 316.025 L
100.259 312.923 L
101.733 309.758 L
103.207 306.536 L
104.68 303.266 L
106.154 299.955 L
107.628 296.611 L
109.101 293.242 L
110.575 289.855 L
112.049 286.459 L
113.522 283.06 L
114.996 279.668 L
116.47 276.289 L
117.944 272.931 L
119.417 269.602 L
120.891 266.31 L
122.365 263.062 L
123.838 259.867 L
125.312 256.731 L
126.786 253.664 L
128.259 250.671 L
129.733 247.762 L
131.207 244.944 L
132.68 242.225 L
134.154 239.612 L
135.628 237.09 L
137.102 234.575 L
138.575 232.06 L
140.049 229.546 L
141.523 227.034 L
142.996 224.526 L
144.47 222.022 L
145.944 219.525 L
147.417 217.034 L
148.891 214.55 L
150.365 212.077 L
151.839 209.613 L
153.312 207.161 L
154.786 204.721 L
156.26 202.295 L
157.733 199.884 L
159.207 197.489 L
160.681 195.111 L
162.154 192.752 L
163.628 190.411 L
165.102 188.092 L
166.576 185.794 L
168.049 183.519 L
169.523 181.267 L
170.997 179.041 L
172.47 176.842 L
173.944 174.669 L
175.418 172.526 L
176.891 170.411 L
178.365 168.328 L
179.839 166.277 L
181.313 164.259 L
182.786 162.275 L
184.26 160.326 L
185.734 158.414 L
187.207 156.54 L
188.681 154.705 L
190.155 152.909 L
191.628 151.155 L
193.102 149.443 L
194.576 147.774 L
196.05 146.15 L
197.523 144.571 L
198.997 143.04 L
200.471 141.556 L
201.944 140.122 L
203.418 138.737 L
204.892 137.404 L
206.365 136.124 L
207.839 134.897 L
209.313 133.725 L
210.787 132.609 L
212.26 131.55 L
213.734 130.55 L
215.208 129.608 L
216.681 128.713 L
218.155 127.823 L
219.629 126.936 L
221.102 126.053 L
222.576 125.172 L
224.05 124.295 L
225.524 123.42 L
226.997 122.549 L
228.471 121.682 L
229.945 120.817 L
231.418 119.955 L
232.892 119.097 L
234.366 118.242 L
235.839 117.39 L
237.313 116.542 L
238.787 115.696 L
240.261 114.855 L
241.734 114.016 L
243.208 113.18 L
244.682 112.349 L
246.155 111.52 L
247.629 110.695 L
249.103 109.873 L
250.576 109.055 L
252.05 108.24 L
253.524 107.428 L
254.997 106.62 L
256.471 105.815 L
257.945 105.014 L
259.419 104.216 L
260.892 103.422 L
262.366 102.632 L
263.84 101.844 L
265.313 101.061 L
266.787 100.281 L
268.261 99.504 L
269.734 98.731 L
271.208 97.962 L
272.682 97.197 L
274.156 96.435 L
275.629 95.676 L
277.103 94.921 L
278.577 94.171 L
280.05 93.423 L
281.524 92.679 L
282.998 91.94 L
284.471 91.204 L
285.945 90.471 L
287.419 89.742 L
288.893 89.018 L
290.366 88.297 L
291.84 87.579 L
293.314 86.866 L
294.787 86.156 L
296.261 85.451 L
297.735 84.749 L
299.208 84.051 L
300.682 83.357 L
302.156 82.667 L
303.63 81.981 L
305.103 81.298 L
306.577 80.62 L
308.051 79.946 L
309.524 79.275 L
310.998 78.609 L
312.472 77.947 L
313.945 77.288 L
315.419 76.634 L
316.893 75.984 L
318.367 75.338 L
319.84 74.696 L
321.314 74.058 L
322.788 73.424 L
324.261 72.794 L
325.735 72.169 L
327.209 71.547 L
328.682 70.93 L
330.156 70.317 L
331.63 69.708 L
333.104 69.104 L
334.577 68.503 L
336.051 67.907 L
337.525 67.315 L
338.998 66.728 L
340.472 66.145 L
341.946 65.566 L
343.419 64.991 L
344.893 64.421 L
346.367 63.855 L
347.841 63.293 L
349.314 62.736 L
350.788 62.183 L
352.262 61.635 L
353.735 61.091 L
355.209 60.551 L
356.683 60.016 L
358.156 59.486 L
359.63 58.96 L
361.104 58.438 L
362.578 57.921 L
364.051 57.408 L
365.525 56.9 L
366.999 56.397 L
368.472 55.898 L
369.946 55.404 L
371.42 54.914 L
372.893 54.429 L
374.367 53.948 L
375.841 53.472 L
377.314 53.001 L
378.788 52.535 L
380.262 52.073 L
381.736 51.616 L
383.209 51.164 L
384.683 50.716 L
386.157 50.273 L
387.63 49.835 L
389.104 49.402 L
390.578 48.973 L
392.051 48.549 L
393.525 48.13 L
394.999 47.716 L
396.473 47.307 L
397.946 46.902 L
399.42 46.503 L
400.894 46.108 L
402.367 45.718 L
403.841 45.334 L
405.315 44.954 L
406.788 44.579 L
408.262 44.209 L
409.736 43.844 L
411.21 43.484 L
412.683 43.129 L
414.157 42.779 L
415.631 42.434 L
417.104 42.094 L
418.578 41.759 L
420.052 41.43 L
421.525 41.105 L
422.999 40.786 L
424.473 40.471 L
425.947 40.162 L
427.42 39.858 L
428.894 39.559 L
430.368 39.265 L
431.841 38.977 L
433.315 38.694 L
434.789 38.415 L
436.262 38.143 L
437.736 37.875 L
439.21 37.613 L
440.684 37.356 L
442.157 37.104 L
443.631 36.858 L
445.105 36.617 L
446.578 36.381 L
448.052 36.151 L
449.526 35.926 L
450.999 35.706 L
452.473 35.492 L
453.947 35.283 L
455.421 35.08 L
456.894 34.882 L
458.368 34.69 L
459.842 34.502 L
461.315 34.321 L
462.789 34.145 L
464.263 33.975 L
465.736 33.81 L
467.21 33.65 L
468.684 33.497 L
470.158 33.349 L
471.631 33.206 L
473.105 33.069 L
474.579 32.938 L
476.052 32.812 L
477.526 32.692 L
479 32.577 L
480.473 32.469 L
481.947 32.366 L
483.421 32.268 L
484.895 32.177 L
486.368 32.091 L
487.842 32.011 L
489.316 31.937 L
490.789 31.868 L
492.263 31.805 L
493.737 31.748 L
495.21 31.697 L
496.684 31.652 L
498.158 31.613 L
499.632 31.579 L
501.105 31.551 L
502.579 31.53 L
504.053 31.514 L
505.526 31.504 L
507 31.5 L
S
GR
GS
0.929 0.694 0.125 RC
1 LJ
0.5 LW
N
74.704 361.17 M
76.178 358.868 L
77.652 356.53 L
79.125 354.156 L
80.599 351.745 L
82.073 349.296 L
83.546 346.809 L
85.02 344.284 L
86.494 341.72 L
87.968 339.116 L
89.441 336.471 L
90.915 333.787 L
92.389 331.06 L
93.862 328.292 L
95.336 325.481 L
96.81 322.619 L
98.283 319.649 L
99.757 316.568 L
101.231 313.388 L
102.705 310.119 L
104.178 306.772 L
105.652 303.357 L
107.126 299.885 L
108.599 296.367 L
110.073 292.814 L
111.547 289.236 L
113.02 285.645 L
114.494 282.049 L
115.968 278.461 L
117.442 274.891 L
118.915 271.35 L
120.389 267.849 L
121.863 264.397 L
123.336 261.006 L
124.81 257.687 L
126.284 254.451 L
127.757 251.306 L
129.231 248.266 L
130.705 245.34 L
132.179 242.539 L
133.652 239.864 L
135.126 237.217 L
136.6 234.569 L
138.073 231.921 L
139.547 229.275 L
141.021 226.632 L
142.494 223.994 L
143.968 221.361 L
145.442 218.735 L
146.916 216.119 L
148.389 213.512 L
149.863 210.916 L
151.337 208.333 L
152.81 205.764 L
154.284 203.21 L
155.758 200.673 L
157.231 198.154 L
158.705 195.654 L
160.179 193.175 L
161.653 190.718 L
163.126 188.284 L
164.6 185.875 L
166.074 183.493 L
167.547 181.138 L
169.021 178.811 L
170.495 176.515 L
171.968 174.25 L
173.442 172.018 L
174.916 169.821 L
176.389 167.659 L
177.863 165.534 L
179.337 163.447 L
180.811 161.4 L
182.284 159.394 L
183.758 157.43 L
185.232 155.51 L
186.705 153.635 L
188.179 151.806 L
189.653 150.025 L
191.126 148.294 L
192.6 146.612 L
194.074 144.983 L
195.548 143.406 L
197.021 141.884 L
198.495 140.418 L
199.969 139.01 L
201.442 137.66 L
202.916 136.369 L
204.39 135.14 L
205.863 133.974 L
207.337 132.872 L
208.811 131.834 L
210.285 130.858 L
211.758 129.895 L
213.232 128.936 L
214.706 127.98 L
216.179 127.028 L
217.653 126.079 L
219.127 125.134 L
220.6 124.193 L
222.074 123.255 L
223.548 122.321 L
225.022 121.391 L
226.495 120.464 L
227.969 119.542 L
229.443 118.623 L
230.916 117.708 L
232.39 116.796 L
233.864 115.889 L
235.337 114.985 L
236.811 114.086 L
238.285 113.19 L
239.759 112.298 L
241.232 111.411 L
242.706 110.527 L
244.18 109.647 L
245.653 108.772 L
247.127 107.9 L
248.601 107.032 L
250.074 106.169 L
251.548 105.31 L
253.022 104.455 L
254.496 103.604 L
255.969 102.757 L
257.443 101.915 L
258.917 101.077 L
260.39 100.243 L
261.864 99.413 L
263.338 98.588 L
264.811 97.767 L
266.285 96.951 L
267.759 96.139 L
269.233 95.331 L
270.706 94.528 L
272.18 93.73 L
273.654 92.935 L
275.127 92.146 L
276.601 91.361 L
278.075 90.58 L
279.548 89.804 L
281.022 89.033 L
282.496 88.266 L
283.97 87.504 L
285.443 86.747 L
286.917 85.995 L
288.391 85.247 L
289.864 84.504 L
291.338 83.765 L
292.812 83.032 L
294.285 82.303 L
295.759 81.58 L
297.233 80.861 L
298.706 80.147 L
300.18 79.438 L
301.654 78.734 L
303.128 78.035 L
304.601 77.34 L
306.075 76.651 L
307.549 75.967 L
309.022 75.288 L
310.496 74.615 L
311.97 73.946 L
313.443 73.282 L
314.917 72.624 L
316.391 71.971 L
317.865 71.323 L
319.338 70.68 L
320.812 70.042 L
322.286 69.41 L
323.759 68.783 L
325.233 68.161 L
326.707 67.545 L
328.18 66.934 L
329.654 66.329 L
331.128 65.729 L
332.602 65.134 L
334.075 64.545 L
335.549 63.961 L
337.023 63.383 L
338.496 62.811 L
339.97 62.244 L
341.444 61.683 L
342.917 61.127 L
344.391 60.577 L
345.865 60.032 L
347.339 59.493 L
348.812 58.96 L
350.286 58.433 L
351.76 57.912 L
353.233 57.396 L
354.707 56.886 L
356.181 56.382 L
357.654 55.884 L
359.128 55.391 L
360.602 54.905 L
362.076 54.424 L
363.549 53.949 L
365.023 53.481 L
366.497 53.018 L
367.97 52.562 L
369.444 52.111 L
370.918 51.666 L
372.391 51.228 L
373.865 50.796 L
375.339 50.37 L
376.813 49.95 L
378.286 49.536 L
379.76 49.128 L
381.234 48.727 L
382.707 48.332 L
384.181 47.943 L
385.655 47.56 L
387.128 47.184 L
388.602 46.814 L
390.076 46.451 L
391.55 46.094 L
393.023 45.743 L
394.497 45.399 L
395.971 45.061 L
397.444 44.73 L
398.918 44.405 L
400.392 44.087 L
401.865 43.776 L
403.339 43.471 L
404.813 43.172 L
406.287 42.88 L
407.76 42.595 L
409.234 42.317 L
410.708 42.045 L
412.181 41.78 L
413.655 41.522 L
415.129 41.271 L
416.602 41.026 L
418.076 40.788 L
419.55 40.557 L
421.023 40.333 L
422.497 40.116 L
423.971 39.906 L
425.445 39.702 L
426.918 39.506 L
428.392 39.317 L
429.866 39.134 L
431.339 38.959 L
432.813 38.791 L
434.287 38.63 L
435.76 38.476 L
437.234 38.329 L
438.708 38.189 L
440.182 38.057 L
441.655 37.931 L
443.129 37.813 L
444.603 37.703 L
446.076 37.599 L
447.55 37.503 L
449.024 37.414 L
450.497 37.332 L
451.971 37.258 L
453.445 37.191 L
454.919 37.132 L
456.392 37.08 L
457.866 37.035 L
459.34 36.998 L
460.813 36.969 L
462.287 36.947 L
463.761 36.932 L
465.234 36.926 L
S
GR
GS
0.494 0.184 0.557 RC
1 LJ
0.5 LW
N
73 373.912 M
74.474 370.637 L
75.947 367.367 L
77.421 364.102 L
78.895 360.843 L
80.368 357.589 L
81.842 354.341 L
83.316 351.099 L
84.79 347.865 L
86.263 344.637 L
87.737 341.417 L
89.211 338.205 L
90.684 335.001 L
92.158 331.805 L
93.632 328.619 L
95.105 325.422 L
96.579 322.204 L
98.053 318.969 L
99.527 315.72 L
101 312.461 L
102.474 309.197 L
103.948 305.93 L
105.421 302.665 L
106.895 299.404 L
108.369 296.153 L
109.842 292.914 L
111.316 289.691 L
112.79 286.488 L
114.264 283.309 L
115.737 280.158 L
117.211 277.037 L
118.685 273.952 L
120.158 270.905 L
121.632 267.9 L
123.106 264.942 L
124.579 262.033 L
126.053 259.178 L
127.527 256.38 L
129.001 253.643 L
130.474 250.938 L
131.948 248.218 L
133.422 245.483 L
134.895 242.735 L
136.369 239.978 L
137.843 237.212 L
139.316 234.44 L
140.79 231.665 L
142.264 228.887 L
143.738 226.111 L
145.211 223.337 L
146.685 220.567 L
148.159 217.805 L
149.632 215.051 L
151.106 212.309 L
152.58 209.581 L
154.053 206.867 L
155.527 204.172 L
157.001 201.496 L
158.475 198.843 L
159.948 196.213 L
161.422 193.609 L
162.896 191.035 L
164.369 188.49 L
165.843 185.978 L
167.317 183.502 L
168.79 181.062 L
170.264 178.661 L
171.738 176.301 L
173.212 173.985 L
174.685 171.715 L
176.159 169.492 L
177.633 167.319 L
179.106 165.199 L
180.58 163.132 L
182.054 161.122 L
183.527 159.17 L
185.001 157.279 L
186.475 155.451 L
187.949 153.687 L
189.422 151.991 L
190.896 150.363 L
192.37 148.808 L
193.843 147.325 L
195.317 145.919 L
196.791 144.59 L
198.264 143.341 L
199.738 142.174 L
201.212 141.086 L
202.686 140.02 L
204.159 138.958 L
205.633 137.9 L
207.107 136.847 L
208.58 135.797 L
210.054 134.752 L
211.528 133.711 L
213.001 132.675 L
214.475 131.642 L
215.949 130.614 L
217.422 129.591 L
218.896 128.572 L
220.37 127.557 L
221.844 126.547 L
223.317 125.541 L
224.791 124.54 L
226.265 123.544 L
227.738 122.552 L
229.212 121.565 L
230.686 120.582 L
232.159 119.604 L
233.633 118.631 L
235.107 117.663 L
236.581 116.7 L
238.054 115.741 L
239.528 114.788 L
241.002 113.839 L
242.475 112.895 L
243.949 111.956 L
245.423 111.023 L
246.896 110.094 L
248.37 109.17 L
249.844 108.252 L
251.318 107.338 L
252.791 106.43 L
254.265 105.527 L
255.739 104.63 L
257.212 103.737 L
258.686 102.85 L
260.16 101.968 L
261.633 101.092 L
263.107 100.221 L
264.581 99.355 L
266.055 98.495 L
267.528 97.641 L
269.002 96.792 L
270.476 95.948 L
271.949 95.111 L
273.423 94.279 L
274.897 93.452 L
276.37 92.631 L
277.844 91.816 L
279.318 91.007 L
280.792 90.204 L
282.265 89.406 L
283.739 88.614 L
285.213 87.828 L
286.686 87.049 L
288.16 86.275 L
289.634 85.507 L
291.107 84.745 L
292.581 83.989 L
294.055 83.24 L
295.529 82.496 L
297.002 81.759 L
298.476 81.027 L
299.95 80.302 L
301.423 79.584 L
302.897 78.871 L
304.371 78.165 L
305.844 77.466 L
307.318 76.772 L
308.792 76.085 L
310.266 75.405 L
311.739 74.731 L
313.213 74.064 L
314.687 73.403 L
316.16 72.749 L
317.634 72.101 L
319.108 71.46 L
320.581 70.826 L
322.055 70.199 L
323.529 69.578 L
325.003 68.964 L
326.476 68.357 L
327.95 67.757 L
329.424 67.163 L
330.897 66.577 L
332.371 65.997 L
333.845 65.425 L
335.318 64.859 L
336.792 64.301 L
338.266 63.75 L
339.74 63.205 L
341.213 62.668 L
342.687 62.138 L
344.161 61.616 L
345.634 61.1 L
347.108 60.592 L
348.582 60.091 L
350.055 59.598 L
351.529 59.112 L
353.003 58.633 L
354.476 58.162 L
355.95 57.698 L
357.424 57.242 L
358.898 56.793 L
360.371 56.352 L
361.845 55.919 L
363.319 55.493 L
364.792 55.075 L
366.266 54.664 L
367.74 54.262 L
369.213 53.867 L
370.687 53.48 L
372.161 53.1 L
373.635 52.729 L
375.108 52.365 L
376.582 52.01 L
378.056 51.662 L
379.529 51.323 L
381.003 50.991 L
382.477 50.668 L
383.95 50.352 L
385.424 50.045 L
386.898 49.746 L
388.372 49.455 L
389.845 49.173 L
391.319 48.898 L
392.793 48.632 L
394.266 48.374 L
395.74 48.125 L
397.214 47.884 L
398.687 47.652 L
400.161 47.428 L
401.635 47.212 L
403.109 47.005 L
404.582 46.807 L
406.056 46.617 L
407.53 46.436 L
409.003 46.263 L
410.477 46.099 L
411.951 45.944 L
413.424 45.798 L
414.898 45.66 L
416.372 45.531 L
417.846 45.411 L
419.319 45.3 L
420.793 45.198 L
422.267 45.105 L
423.74 45.021 L
425.214 44.946 L
426.688 44.88 L
428.161 44.823 L
429.635 44.775 L
431.109 44.736 L
432.583 44.707 L
434.056 44.687 L
435.53 44.676 L
S
GR
GS
0.467 0.675 0.188 RC
[10 6] 0 setdash
2 LJ
0.5 LW
N
75.13 356.989 M
76.604 354.502 L
78.078 351.984 L
79.551 349.435 L
81.025 346.852 L
82.499 344.237 L
83.972 341.588 L
85.446 338.904 L
86.92 336.185 L
88.394 333.43 L
89.867 330.638 L
91.341 327.809 L
92.815 324.943 L
94.288 322.038 L
95.762 319.093 L
97.236 316.108 L
98.709 313.028 L
100.183 309.83 L
101.657 306.528 L
103.131 303.131 L
104.604 299.651 L
106.078 296.099 L
107.552 292.488 L
109.025 288.827 L
110.499 285.128 L
111.973 281.404 L
113.446 277.664 L
114.92 273.921 L
116.394 270.185 L
117.868 266.468 L
119.341 262.782 L
120.815 259.137 L
122.289 255.545 L
123.762 252.017 L
125.236 248.565 L
126.71 245.2 L
128.183 241.933 L
129.657 238.775 L
131.131 235.739 L
132.605 232.834 L
134.078 230.073 L
135.552 227.464 L
137.026 224.913 L
138.499 222.369 L
139.973 219.833 L
141.447 217.306 L
142.92 214.789 L
144.394 212.282 L
145.868 209.787 L
147.342 207.304 L
148.815 204.835 L
150.289 202.38 L
151.763 199.941 L
153.236 197.518 L
154.71 195.112 L
156.184 192.723 L
157.657 190.354 L
159.131 188.005 L
160.605 185.677 L
162.079 183.37 L
163.552 181.086 L
165.026 178.826 L
166.5 176.59 L
167.973 174.38 L
169.447 172.196 L
170.921 170.039 L
172.394 167.91 L
173.868 165.811 L
175.342 163.741 L
176.816 161.703 L
178.289 159.696 L
179.763 157.722 L
181.237 155.782 L
182.71 153.877 L
184.184 152.007 L
185.658 150.174 L
187.131 148.377 L
188.605 146.62 L
190.079 144.901 L
191.552 143.223 L
193.026 141.586 L
194.5 139.99 L
195.974 138.438 L
197.447 136.929 L
198.921 135.466 L
200.395 134.048 L
201.868 132.676 L
203.342 131.352 L
204.816 130.077 L
206.289 128.851 L
207.763 127.675 L
209.237 126.55 L
210.711 125.478 L
212.184 124.459 L
213.658 123.493 L
215.132 122.583 L
216.605 121.716 L
218.079 120.856 L
219.553 119.999 L
221.026 119.145 L
222.5 118.294 L
223.974 117.446 L
225.448 116.601 L
226.921 115.76 L
228.395 114.922 L
229.869 114.088 L
231.342 113.257 L
232.816 112.429 L
234.29 111.604 L
235.763 110.783 L
237.237 109.965 L
238.711 109.15 L
240.185 108.339 L
241.658 107.531 L
243.132 106.727 L
244.606 105.926 L
246.079 105.128 L
247.553 104.335 L
249.027 103.544 L
250.5 102.757 L
251.974 101.974 L
253.448 101.194 L
254.922 100.418 L
256.395 99.645 L
257.869 98.876 L
259.343 98.111 L
260.816 97.349 L
262.29 96.591 L
263.764 95.836 L
265.237 95.086 L
266.711 94.339 L
268.185 93.595 L
269.659 92.856 L
271.132 92.12 L
272.606 91.388 L
274.08 90.66 L
275.553 89.936 L
277.027 89.215 L
278.501 88.499 L
279.974 87.786 L
281.448 87.077 L
282.922 86.372 L
284.396 85.671 L
285.869 84.974 L
287.343 84.28 L
288.817 83.591 L
290.29 82.906 L
291.764 82.225 L
293.238 81.548 L
294.711 80.875 L
296.185 80.206 L
297.659 79.541 L
299.133 78.88 L
300.606 78.223 L
302.08 77.57 L
303.554 76.922 L
305.027 76.277 L
306.501 75.637 L
307.975 75.001 L
309.448 74.37 L
310.922 73.742 L
312.396 73.119 L
313.87 72.5 L
315.343 71.885 L
316.817 71.275 L
318.291 70.669 L
319.764 70.067 L
321.238 69.47 L
322.712 68.877 L
324.185 68.288 L
325.659 67.704 L
327.133 67.124 L
328.607 66.549 L
330.08 65.978 L
331.554 65.412 L
333.028 64.85 L
334.501 64.293 L
335.975 63.74 L
337.449 63.192 L
338.922 62.648 L
340.396 62.109 L
341.87 61.574 L
343.343 61.044 L
344.817 60.519 L
346.291 59.999 L
347.765 59.483 L
349.238 58.972 L
350.712 58.465 L
352.186 57.963 L
353.659 57.466 L
355.133 56.974 L
356.607 56.486 L
358.08 56.003 L
359.554 55.525 L
361.028 55.052 L
362.502 54.584 L
363.975 54.121 L
365.449 53.662 L
366.923 53.209 L
368.396 52.76 L
369.87 52.316 L
371.344 51.877 L
372.817 51.443 L
374.291 51.014 L
375.765 50.591 L
377.239 50.172 L
378.712 49.758 L
380.186 49.349 L
381.66 48.945 L
383.133 48.547 L
384.607 48.153 L
386.081 47.765 L
387.554 47.381 L
389.028 47.003 L
390.502 46.63 L
391.976 46.263 L
393.449 45.9 L
394.923 45.543 L
396.397 45.191 L
397.87 44.844 L
399.344 44.502 L
400.818 44.166 L
402.291 43.835 L
403.765 43.51 L
405.239 43.19 L
406.713 42.875 L
408.186 42.565 L
409.66 42.261 L
411.134 41.963 L
412.607 41.669 L
414.081 41.382 L
415.555 41.099 L
417.028 40.823 L
418.502 40.551 L
419.976 40.285 L
421.449 40.025 L
422.923 39.771 L
424.397 39.522 L
425.871 39.278 L
427.344 39.04 L
428.818 38.808 L
430.292 38.581 L
431.765 38.36 L
433.239 38.145 L
434.713 37.935 L
436.186 37.731 L
437.66 37.533 L
439.134 37.341 L
440.608 37.154 L
442.081 36.973 L
443.555 36.798 L
445.029 36.629 L
446.502 36.466 L
447.976 36.308 L
449.45 36.156 L
450.923 36.011 L
452.397 35.871 L
453.871 35.737 L
455.345 35.609 L
456.818 35.487 L
458.292 35.371 L
459.766 35.261 L
461.239 35.157 L
462.713 35.059 L
464.187 34.967 L
465.66 34.881 L
467.134 34.801 L
468.608 34.727 L
470.082 34.659 L
471.555 34.598 L
473.029 34.542 L
474.503 34.493 L
475.976 34.45 L
477.45 34.413 L
478.924 34.383 L
480.397 34.358 L
481.871 34.34 L
483.345 34.328 L
484.819 34.323 L
S
GR
GS
0.302 0.745 0.933 RC
[10 6] 0 setdash
2 LJ
0.5 LW
N
74.154 360.851 M
75.627 358.348 L
77.101 355.818 L
78.575 353.26 L
80.049 350.674 L
81.522 348.059 L
82.996 345.414 L
84.47 342.738 L
85.943 340.031 L
87.417 337.292 L
88.891 334.52 L
90.364 331.715 L
91.838 328.875 L
93.312 326.001 L
94.786 323.092 L
96.259 320.135 L
97.733 317.083 L
99.207 313.938 L
100.68 310.711 L
102.154 307.41 L
103.628 304.046 L
105.101 300.627 L
106.575 297.163 L
108.049 293.664 L
109.523 290.139 L
110.996 286.598 L
112.47 283.05 L
113.944 279.504 L
115.417 275.971 L
116.891 272.46 L
118.365 268.979 L
119.838 265.54 L
121.312 262.151 L
122.786 258.821 L
124.26 255.561 L
125.733 252.379 L
127.207 249.285 L
128.681 246.29 L
130.154 243.401 L
131.628 240.629 L
133.102 237.968 L
134.575 235.321 L
136.049 232.671 L
137.523 230.02 L
138.997 227.37 L
140.47 224.722 L
141.944 222.077 L
143.418 219.436 L
144.891 216.802 L
146.365 214.176 L
147.839 211.559 L
149.312 208.952 L
150.786 206.357 L
152.26 203.776 L
153.734 201.209 L
155.207 198.659 L
156.681 196.126 L
158.155 193.613 L
159.628 191.12 L
161.102 188.649 L
162.576 186.201 L
164.049 183.779 L
165.523 181.383 L
166.997 179.014 L
168.471 176.675 L
169.944 174.366 L
171.418 172.089 L
172.892 169.846 L
174.365 167.637 L
175.839 165.465 L
177.313 163.331 L
178.786 161.236 L
180.26 159.182 L
181.734 157.169 L
183.208 155.201 L
184.681 153.277 L
186.155 151.399 L
187.629 149.57 L
189.102 147.789 L
190.576 146.059 L
192.05 144.382 L
193.523 142.758 L
194.997 141.189 L
196.471 139.677 L
197.944 138.222 L
199.418 136.826 L
200.892 135.492 L
202.366 134.219 L
203.839 133.01 L
205.313 131.866 L
206.787 130.789 L
208.26 129.78 L
209.734 128.827 L
211.208 127.884 L
212.681 126.945 L
214.155 126.009 L
215.629 125.077 L
217.103 124.148 L
218.576 123.223 L
220.05 122.302 L
221.524 121.385 L
222.997 120.471 L
224.471 119.561 L
225.945 118.655 L
227.418 117.753 L
228.892 116.855 L
230.366 115.961 L
231.84 115.07 L
233.313 114.183 L
234.787 113.301 L
236.261 112.422 L
237.734 111.548 L
239.208 110.677 L
240.682 109.811 L
242.155 108.948 L
243.629 108.09 L
245.103 107.235 L
246.577 106.385 L
248.05 105.539 L
249.524 104.697 L
250.998 103.859 L
252.471 103.026 L
253.945 102.197 L
255.419 101.372 L
256.892 100.551 L
258.366 99.735 L
259.84 98.923 L
261.314 98.115 L
262.787 97.312 L
264.261 96.512 L
265.735 95.718 L
267.208 94.928 L
268.682 94.142 L
270.156 93.361 L
271.629 92.584 L
273.103 91.812 L
274.577 91.044 L
276.051 90.281 L
277.524 89.522 L
278.998 88.768 L
280.472 88.019 L
281.945 87.274 L
283.419 86.534 L
284.893 85.799 L
286.366 85.068 L
287.84 84.342 L
289.314 83.621 L
290.788 82.905 L
292.261 82.193 L
293.735 81.487 L
295.209 80.785 L
296.682 80.088 L
298.156 79.395 L
299.63 78.708 L
301.103 78.026 L
302.577 77.349 L
304.051 76.676 L
305.525 76.009 L
306.998 75.346 L
308.472 74.689 L
309.946 74.036 L
311.419 73.389 L
312.893 72.747 L
314.367 72.11 L
315.84 71.478 L
317.314 70.851 L
318.788 70.23 L
320.262 69.614 L
321.735 69.003 L
323.209 68.397 L
324.683 67.796 L
326.156 67.201 L
327.63 66.611 L
329.104 66.026 L
330.577 65.447 L
332.051 64.873 L
333.525 64.305 L
334.998 63.742 L
336.472 63.184 L
337.946 62.632 L
339.42 62.085 L
340.893 61.544 L
342.367 61.009 L
343.841 60.478 L
345.314 59.954 L
346.788 59.435 L
348.262 58.922 L
349.736 58.414 L
351.209 57.912 L
352.683 57.416 L
354.157 56.926 L
355.63 56.441 L
357.104 55.961 L
358.578 55.488 L
360.051 55.021 L
361.525 54.559 L
362.999 54.103 L
364.472 53.653 L
365.946 53.209 L
367.42 52.771 L
368.894 52.339 L
370.367 51.912 L
371.841 51.492 L
373.315 51.077 L
374.788 50.669 L
376.262 50.267 L
377.736 49.87 L
379.209 49.48 L
380.683 49.096 L
382.157 48.718 L
383.631 48.346 L
385.104 47.98 L
386.578 47.621 L
388.052 47.267 L
389.525 46.92 L
390.999 46.579 L
392.473 46.245 L
393.946 45.916 L
395.42 45.595 L
396.894 45.279 L
398.368 44.97 L
399.841 44.667 L
401.315 44.37 L
402.789 44.08 L
404.262 43.796 L
405.736 43.519 L
407.21 43.248 L
408.683 42.984 L
410.157 42.727 L
411.631 42.475 L
413.105 42.231 L
414.578 41.993 L
416.052 41.762 L
417.526 41.537 L
418.999 41.319 L
420.473 41.107 L
421.947 40.903 L
423.42 40.705 L
424.894 40.514 L
426.368 40.329 L
427.842 40.152 L
429.315 39.981 L
430.789 39.817 L
432.263 39.66 L
433.736 39.51 L
435.21 39.366 L
436.684 39.23 L
438.157 39.1 L
439.631 38.978 L
441.105 38.862 L
442.579 38.754 L
444.052 38.652 L
445.526 38.558 L
447 38.47 L
448.473 38.39 L
449.947 38.317 L
451.421 38.251 L
452.894 38.192 L
454.368 38.14 L
455.842 38.096 L
457.315 38.058 L
458.789 38.028 L
460.263 38.006 L
461.737 37.99 L
463.21 37.982 L
S
GR
GS
0.635 0.078 0.184 RC
[10 6] 0 setdash
2 LJ
0.5 LW
N
73.025 374 M
74.499 370.868 L
75.972 367.735 L
77.446 364.601 L
78.92 361.466 L
80.393 358.329 L
81.867 355.19 L
83.341 352.05 L
84.815 348.908 L
86.288 345.765 L
87.762 342.62 L
89.236 339.472 L
90.709 336.323 L
92.183 333.172 L
93.657 330.018 L
95.13 326.842 L
96.604 323.632 L
98.078 320.394 L
99.552 317.133 L
101.025 313.852 L
102.499 310.556 L
103.973 307.25 L
105.446 303.938 L
106.92 300.625 L
108.394 297.316 L
109.867 294.015 L
111.341 290.727 L
112.815 287.456 L
114.289 284.206 L
115.762 280.983 L
117.236 277.79 L
118.71 274.634 L
120.183 271.517 L
121.657 268.444 L
123.131 265.421 L
124.604 262.451 L
126.078 259.54 L
127.552 256.691 L
129.025 253.91 L
130.499 251.163 L
131.973 248.402 L
133.447 245.628 L
134.92 242.843 L
136.394 240.05 L
137.868 237.251 L
139.341 234.448 L
140.815 231.642 L
142.289 228.837 L
143.762 226.034 L
145.236 223.235 L
146.71 220.442 L
148.184 217.658 L
149.657 214.884 L
151.131 212.124 L
152.605 209.378 L
154.078 206.648 L
155.552 203.938 L
157.026 201.249 L
158.499 198.583 L
159.973 195.943 L
161.447 193.329 L
162.921 190.746 L
164.394 188.193 L
165.868 185.675 L
167.342 183.192 L
168.815 180.748 L
170.289 178.343 L
171.763 175.981 L
173.236 173.662 L
174.71 171.391 L
176.184 169.167 L
177.658 166.994 L
179.131 164.874 L
180.605 162.808 L
182.079 160.8 L
183.552 158.85 L
185.026 156.961 L
186.5 155.136 L
187.973 153.375 L
189.447 151.683 L
190.921 150.059 L
192.395 148.508 L
193.868 147.03 L
195.342 145.627 L
196.816 144.303 L
198.289 143.059 L
199.763 141.887 L
201.237 140.729 L
202.71 139.575 L
204.184 138.426 L
205.658 137.281 L
207.132 136.139 L
208.605 135.003 L
210.079 133.871 L
211.553 132.743 L
213.026 131.62 L
214.5 130.501 L
215.974 129.387 L
217.447 128.277 L
218.921 127.173 L
220.395 126.073 L
221.869 124.979 L
223.342 123.889 L
224.816 122.804 L
226.29 121.724 L
227.763 120.65 L
229.237 119.581 L
230.711 118.517 L
232.184 117.458 L
233.658 116.405 L
235.132 115.357 L
236.605 114.315 L
238.079 113.279 L
239.553 112.248 L
241.027 111.223 L
242.5 110.203 L
243.974 109.19 L
245.448 108.183 L
246.921 107.181 L
248.395 106.186 L
249.869 105.197 L
251.342 104.214 L
252.816 103.237 L
254.29 102.267 L
255.764 101.303 L
257.237 100.345 L
258.711 99.394 L
260.185 98.45 L
261.658 97.512 L
263.132 96.581 L
264.606 95.656 L
266.079 94.739 L
267.553 93.828 L
269.027 92.925 L
270.501 92.028 L
271.974 91.139 L
273.448 90.257 L
274.922 89.382 L
276.395 88.514 L
277.869 87.654 L
279.343 86.8 L
280.816 85.955 L
282.29 85.117 L
283.764 84.287 L
285.238 83.464 L
286.711 82.649 L
288.185 81.842 L
289.659 81.043 L
291.132 80.252 L
292.606 79.469 L
294.08 78.693 L
295.553 77.926 L
297.027 77.168 L
298.501 76.417 L
299.975 75.675 L
301.448 74.941 L
302.922 74.216 L
304.396 73.499 L
305.869 72.79 L
307.343 72.091 L
308.817 71.4 L
310.29 70.718 L
311.764 70.044 L
313.238 69.38 L
314.712 68.724 L
316.185 68.078 L
317.659 67.441 L
319.133 66.812 L
320.606 66.194 L
322.08 65.584 L
323.554 64.984 L
325.027 64.393 L
326.501 63.812 L
327.975 63.24 L
329.449 62.677 L
330.922 62.125 L
332.396 61.582 L
333.87 61.049 L
335.343 60.526 L
336.817 60.013 L
338.291 59.51 L
339.764 59.017 L
341.238 58.534 L
342.712 58.061 L
344.186 57.598 L
345.659 57.146 L
347.133 56.704 L
348.607 56.273 L
350.08 55.852 L
351.554 55.442 L
353.028 55.042 L
354.501 54.653 L
355.975 54.275 L
357.449 53.908 L
358.923 53.552 L
360.396 53.206 L
361.87 52.872 L
363.344 52.549 L
364.817 52.236 L
366.291 51.935 L
367.765 51.646 L
369.238 51.368 L
370.712 51.101 L
372.186 50.845 L
373.659 50.601 L
375.133 50.369 L
376.607 50.149 L
378.081 49.94 L
379.554 49.743 L
381.028 49.558 L
382.502 49.385 L
383.975 49.223 L
385.449 49.074 L
386.923 48.937 L
388.396 48.813 L
389.87 48.7 L
391.344 48.6 L
392.818 48.512 L
394.291 48.436 L
395.765 48.374 L
397.239 48.323 L
398.712 48.286 L
400.186 48.261 L
401.66 48.248 L
S
GR
GS
1 GC
N
499 366 M
499 250.5 L
344.5 250.5 L
344.5 366 L
cp
f
GR
GS
[1 0 0 1 381.5 260.25] CT
/Helvetica 13 F
GS
[1 0 0 1 0 0] CT
0 5 moveto 
1 -1 scale
(Base Run) t 
GR
GR
GS
0 0.447 0.741 RC
1 LJ
0.5 LW
N
348.5 260.25 M
378.5 260.25 L
S
GR
GS
[1 0 0 1 381.5 276.25] CT
/Helvetica 13 F
GS
[1 0 0 1 0 0] CT
0 5 moveto 
1 -1 scale
(I & B Frames) t 
GR
GR
GS
0.851 0.325 0.098 RC
1 LJ
0.5 LW
N
348.5 276.25 M
378.5 276.25 L
S
GR
GS
[1 0 0 1 381.5 292.25] CT
/Helvetica 13 F
GS
[1 0 0 1 0 0] CT
0 5 moveto 
1 -1 scale
(I Frames Only) t 
GR
GR
GS
0.929 0.694 0.125 RC
1 LJ
0.5 LW
N
348.5 292.25 M
378.5 292.25 L
S
GR
GS
[1 0 0 1 381.5 308.25] CT
/Helvetica 13 F
GS
[1 0 0 1 0 0] CT
0 5 moveto 
1 -1 scale
(B Frames Only) t 
GR
GR
GS
0.494 0.184 0.557 RC
1 LJ
0.5 LW
N
348.5 308.25 M
378.5 308.25 L
S
GR
GS
[1 0 0 1 381.5 324.25] CT
/Helvetica 13 F
GS
[1 0 0 1 0 0] CT
0 5 moveto 
1 -1 scale
(Part I & B Frames) t 
GR
GR
GS
0.467 0.675 0.188 RC
[10 6] 0 setdash
2 LJ
0.5 LW
N
348.5 324.25 M
378.5 324.25 L
S
GR
GS
[1 0 0 1 381.5 340.25] CT
/Helvetica 13 F
GS
[1 0 0 1 0 0] CT
0 5 moveto 
1 -1 scale
(Part I Frames Only) t 
GR
GR
GS
0.302 0.745 0.933 RC
[10 6] 0 setdash
2 LJ
0.5 LW
N
348.5 340.25 M
378.5 340.25 L
S
GR
GS
[1 0 0 1 381.5 356.25] CT
/Helvetica 13 F
GS
[1 0 0 1 0 0] CT
0 5 moveto 
1 -1 scale
(Part B Frames Only) t 
GR
GR
GS
0.635 0.078 0.184 RC
[10 6] 0 setdash
2 LJ
0.5 LW
N
348.5 356.25 M
378.5 356.25 L
S
GR
GS
0.149 GC
10.0 ML
0.5 LW
N
344.5 366 M
344.5 250.5 L
499 250.5 L
499 366 L
cp
S
GR
%%Trailer
%%Pages: 1
%%EOF
