%!PS-Adobe-3.0 EPSF-3.0
%%Creator: (MATLAB, The Mathworks, Inc. Version 9.11.0.1837725 \(R2021b\) Update 2. Operating System: Mac OS X)
%%Title: plots/pchip/Lecture_1080P-3ce0.y4m-av1-PSNRV.eps
%%CreationDate: 2022-02-03T19:13:06
%%Pages: (atend)
%%BoundingBox:    33   425   519   826
%%LanguageLevel: 3
%%EndComments
%%BeginProlog
%%BeginResource: procset (Apache XML Graphics Std ProcSet) 1.2 0
%%Version: 1.2 0
%%Copyright: (Copyright 2001-2003,2010 The Apache Software Foundation. License terms: http://www.apache.org/licenses/LICENSE-2.0)
/bd{bind def}bind def
/ld{load def}bd
/GR/grestore ld
/GS/gsave ld
/RM/rmoveto ld
/C/curveto ld
/t/show ld
/L/lineto ld
/ML/setmiterlimit ld
/CT/concat ld
/f/fill ld
/N/newpath ld
/S/stroke ld
/CC/setcmykcolor ld
/A/ashow ld
/cp/closepath ld
/RC/setrgbcolor ld
/LJ/setlinejoin ld
/GC/setgray ld
/LW/setlinewidth ld
/M/moveto ld
/re {4 2 roll M
1 index 0 rlineto
0 exch rlineto
neg 0 rlineto
cp } bd
/_ctm matrix def
/_tm matrix def
/BT { _ctm currentmatrix pop matrix _tm copy pop 0 0 moveto } bd
/ET { _ctm setmatrix } bd
/iTm { _ctm setmatrix _tm concat } bd
/Tm { _tm astore pop iTm 0 0 moveto } bd
/ux 0.0 def
/uy 0.0 def
/F {
  /Tp exch def
  /Tf exch def
  Tf findfont Tp scalefont setfont
  /cf Tf def  /cs Tp def
} bd
/ULS {currentpoint /uy exch def /ux exch def} bd
/ULE {
  /Tcx currentpoint pop def
  gsave
  newpath
  cf findfont cs scalefont dup
  /FontMatrix get 0 get /Ts exch def /FontInfo get dup
  /UnderlinePosition get Ts mul /To exch def
  /UnderlineThickness get Ts mul /Tt exch def
  ux uy To add moveto  Tcx uy To add lineto
  Tt setlinewidth stroke
  grestore
} bd
/OLE {
  /Tcx currentpoint pop def
  gsave
  newpath
  cf findfont cs scalefont dup
  /FontMatrix get 0 get /Ts exch def /FontInfo get dup
  /UnderlinePosition get Ts mul /To exch def
  /UnderlineThickness get Ts mul /Tt exch def
  ux uy To add cs add moveto Tcx uy To add cs add lineto
  Tt setlinewidth stroke
  grestore
} bd
/SOE {
  /Tcx currentpoint pop def
  gsave
  newpath
  cf findfont cs scalefont dup
  /FontMatrix get 0 get /Ts exch def /FontInfo get dup
  /UnderlinePosition get Ts mul /To exch def
  /UnderlineThickness get Ts mul /Tt exch def
  ux uy To add cs 10 mul 26 idiv add moveto Tcx uy To add cs 10 mul 26 idiv add lineto
  Tt setlinewidth stroke
  grestore
} bd
/QT {
/Y22 exch store
/X22 exch store
/Y21 exch store
/X21 exch store
currentpoint
/Y21 load 2 mul add 3 div exch
/X21 load 2 mul add 3 div exch
/X21 load 2 mul /X22 load add 3 div
/Y21 load 2 mul /Y22 load add 3 div
/X22 load /Y22 load curveto
} bd
/SSPD {
dup length /d exch dict def
{
/v exch def
/k exch def
currentpagedevice k known {
/cpdv currentpagedevice k get def
v cpdv ne {
/upd false def
/nullv v type /nulltype eq def
/nullcpdv cpdv type /nulltype eq def
nullv nullcpdv or
{
/upd true def
} {
/sametype v type cpdv type eq def
sametype {
v type /arraytype eq {
/vlen v length def
/cpdvlen cpdv length def
vlen cpdvlen eq {
0 1 vlen 1 sub {
/i exch def
/obj v i get def
/cpdobj cpdv i get def
obj cpdobj ne {
/upd true def
exit
} if
} for
} {
/upd true def
} ifelse
} {
v type /dicttype eq {
v {
/dv exch def
/dk exch def
/cpddv cpdv dk get def
dv cpddv ne {
/upd true def
exit
} if
} forall
} {
/upd true def
} ifelse
} ifelse
} if
} ifelse
upd true eq {
d k v put
} if
} if
} if
} forall
d length 0 gt {
d setpagedevice
} if
} bd
/RE { % /NewFontName [NewEncodingArray] /FontName RE -
  findfont dup length dict begin
  {
    1 index /FID ne
    {def} {pop pop} ifelse
  } forall
  /Encoding exch def
  /FontName 1 index def
  currentdict definefont pop
  end
} bind def
%%EndResource
%%BeginResource: procset (Apache XML Graphics EPS ProcSet) 1.0 0
%%Version: 1.0 0
%%Copyright: (Copyright 2002-2003 The Apache Software Foundation. License terms: http://www.apache.org/licenses/LICENSE-2.0)
/BeginEPSF { %def
/b4_Inc_state save def         % Save state for cleanup
/dict_count countdictstack def % Count objects on dict stack
/op_count count 1 sub def      % Count objects on operand stack
userdict begin                 % Push userdict on dict stack
/showpage { } def              % Redefine showpage, { } = null proc
0 setgray 0 setlinecap         % Prepare graphics state
1 setlinewidth 0 setlinejoin
10 setmiterlimit [ ] 0 setdash newpath
/languagelevel where           % If level not equal to 1 then
{pop languagelevel             % set strokeadjust and
1 ne                           % overprint to their defaults.
{false setstrokeadjust false setoverprint
} if
} if
} bd
/EndEPSF { %def
count op_count sub {pop} repeat            % Clean up stacks
countdictstack dict_count sub {end} repeat
b4_Inc_state restore
} bd
%%EndResource
%FOPBeginFontDict
%%IncludeResource: font Courier-Oblique
%%IncludeResource: font Courier-BoldOblique
%%IncludeResource: font Courier-Bold
%%IncludeResource: font ZapfDingbats
%%IncludeResource: font Symbol
%%IncludeResource: font Helvetica
%%IncludeResource: font Helvetica-Oblique
%%IncludeResource: font Helvetica-Bold
%%IncludeResource: font Helvetica-BoldOblique
%%IncludeResource: font Times-Roman
%%IncludeResource: font Times-Italic
%%IncludeResource: font Times-Bold
%%IncludeResource: font Times-BoldItalic
%%IncludeResource: font Courier
%FOPEndFontDict
%%BeginResource: encoding WinAnsiEncoding
/WinAnsiEncoding [
/.notdef /.notdef /.notdef /.notdef /.notdef
/.notdef /.notdef /.notdef /.notdef /.notdef
/.notdef /.notdef /.notdef /.notdef /.notdef
/.notdef /.notdef /.notdef /.notdef /.notdef
/.notdef /.notdef /.notdef /.notdef /.notdef
/.notdef /.notdef /.notdef /.notdef /.notdef
/.notdef /.notdef /space /exclam /quotedbl
/numbersign /dollar /percent /ampersand /quotesingle
/parenleft /parenright /asterisk /plus /comma
/hyphen /period /slash /zero /one
/two /three /four /five /six
/seven /eight /nine /colon /semicolon
/less /equal /greater /question /at
/A /B /C /D /E
/F /G /H /I /J
/K /L /M /N /O
/P /Q /R /S /T
/U /V /W /X /Y
/Z /bracketleft /backslash /bracketright /asciicircum
/underscore /quoteleft /a /b /c
/d /e /f /g /h
/i /j /k /l /m
/n /o /p /q /r
/s /t /u /v /w
/x /y /z /braceleft /bar
/braceright /asciitilde /bullet /Euro /bullet
/quotesinglbase /florin /quotedblbase /ellipsis /dagger
/daggerdbl /circumflex /perthousand /Scaron /guilsinglleft
/OE /bullet /Zcaron /bullet /bullet
/quoteleft /quoteright /quotedblleft /quotedblright /bullet
/endash /emdash /asciitilde /trademark /scaron
/guilsinglright /oe /bullet /zcaron /Ydieresis
/space /exclamdown /cent /sterling /currency
/yen /brokenbar /section /dieresis /copyright
/ordfeminine /guillemotleft /logicalnot /sfthyphen /registered
/macron /degree /plusminus /twosuperior /threesuperior
/acute /mu /paragraph /middot /cedilla
/onesuperior /ordmasculine /guillemotright /onequarter /onehalf
/threequarters /questiondown /Agrave /Aacute /Acircumflex
/Atilde /Adieresis /Aring /AE /Ccedilla
/Egrave /Eacute /Ecircumflex /Edieresis /Igrave
/Iacute /Icircumflex /Idieresis /Eth /Ntilde
/Ograve /Oacute /Ocircumflex /Otilde /Odieresis
/multiply /Oslash /Ugrave /Uacute /Ucircumflex
/Udieresis /Yacute /Thorn /germandbls /agrave
/aacute /acircumflex /atilde /adieresis /aring
/ae /ccedilla /egrave /eacute /ecircumflex
/edieresis /igrave /iacute /icircumflex /idieresis
/eth /ntilde /ograve /oacute /ocircumflex
/otilde /odieresis /divide /oslash /ugrave
/uacute /ucircumflex /udieresis /yacute /thorn
/ydieresis
] def
%%EndResource
%FOPBeginFontReencode
/Courier-Oblique findfont
dup length dict begin
  {1 index /FID ne {def} {pop pop} ifelse} forall
  /Encoding WinAnsiEncoding def
  currentdict
end
/Courier-Oblique exch definefont pop
/Courier-BoldOblique findfont
dup length dict begin
  {1 index /FID ne {def} {pop pop} ifelse} forall
  /Encoding WinAnsiEncoding def
  currentdict
end
/Courier-BoldOblique exch definefont pop
/Courier-Bold findfont
dup length dict begin
  {1 index /FID ne {def} {pop pop} ifelse} forall
  /Encoding WinAnsiEncoding def
  currentdict
end
/Courier-Bold exch definefont pop
/Helvetica findfont
dup length dict begin
  {1 index /FID ne {def} {pop pop} ifelse} forall
  /Encoding WinAnsiEncoding def
  currentdict
end
/Helvetica exch definefont pop
/Helvetica-Oblique findfont
dup length dict begin
  {1 index /FID ne {def} {pop pop} ifelse} forall
  /Encoding WinAnsiEncoding def
  currentdict
end
/Helvetica-Oblique exch definefont pop
/Helvetica-Bold findfont
dup length dict begin
  {1 index /FID ne {def} {pop pop} ifelse} forall
  /Encoding WinAnsiEncoding def
  currentdict
end
/Helvetica-Bold exch definefont pop
/Helvetica-BoldOblique findfont
dup length dict begin
  {1 index /FID ne {def} {pop pop} ifelse} forall
  /Encoding WinAnsiEncoding def
  currentdict
end
/Helvetica-BoldOblique exch definefont pop
/Times-Roman findfont
dup length dict begin
  {1 index /FID ne {def} {pop pop} ifelse} forall
  /Encoding WinAnsiEncoding def
  currentdict
end
/Times-Roman exch definefont pop
/Times-Italic findfont
dup length dict begin
  {1 index /FID ne {def} {pop pop} ifelse} forall
  /Encoding WinAnsiEncoding def
  currentdict
end
/Times-Italic exch definefont pop
/Times-Bold findfont
dup length dict begin
  {1 index /FID ne {def} {pop pop} ifelse} forall
  /Encoding WinAnsiEncoding def
  currentdict
end
/Times-Bold exch definefont pop
/Times-BoldItalic findfont
dup length dict begin
  {1 index /FID ne {def} {pop pop} ifelse} forall
  /Encoding WinAnsiEncoding def
  currentdict
end
/Times-BoldItalic exch definefont pop
/Courier findfont
dup length dict begin
  {1 index /FID ne {def} {pop pop} ifelse} forall
  /Encoding WinAnsiEncoding def
  currentdict
end
/Courier exch definefont pop
%FOPEndFontReencode
%%EndProlog
%%Page: 1 1
%%PageBoundingBox: 0 0 1120 840
%%BeginPageSetup
[1 0 0 -1 0 840] CT
%%EndPageSetup
GS
1 GC
N
0 0 1120 840 re
f
GR
GS
1 GC
N
73 374 M
507 374 L
507 31.5 L
73 31.5 L
cp
f
GR
GS
0.149 GC
2 setlinecap
1 LJ
0.5 LW
N
73 374 M
507 374 L
S
GR
GS
0.149 GC
2 setlinecap
1 LJ
0.5 LW
N
73 31.5 M
507 31.5 L
S
GR
GS
0.149 GC
2 setlinecap
1 LJ
0.5 LW
N
119.383 374 M
119.383 369.66 L
S
GR
GS
0.149 GC
2 setlinecap
1 LJ
0.5 LW
N
183.379 374 M
183.379 369.66 L
S
GR
GS
0.149 GC
2 setlinecap
1 LJ
0.5 LW
N
247.375 374 M
247.375 369.66 L
S
GR
GS
0.149 GC
2 setlinecap
1 LJ
0.5 LW
N
311.371 374 M
311.371 369.66 L
S
GR
GS
0.149 GC
2 setlinecap
1 LJ
0.5 LW
N
375.367 374 M
375.367 369.66 L
S
GR
GS
0.149 GC
2 setlinecap
1 LJ
0.5 LW
N
439.363 374 M
439.363 369.66 L
S
GR
GS
0.149 GC
2 setlinecap
1 LJ
0.5 LW
N
503.359 374 M
503.359 369.66 L
S
GR
GS
0.149 GC
2 setlinecap
1 LJ
0.5 LW
N
119.383 31.5 M
119.383 35.84 L
S
GR
GS
0.149 GC
2 setlinecap
1 LJ
0.5 LW
N
183.379 31.5 M
183.379 35.84 L
S
GR
GS
0.149 GC
2 setlinecap
1 LJ
0.5 LW
N
247.375 31.5 M
247.375 35.84 L
S
GR
GS
0.149 GC
2 setlinecap
1 LJ
0.5 LW
N
311.371 31.5 M
311.371 35.84 L
S
GR
GS
0.149 GC
2 setlinecap
1 LJ
0.5 LW
N
375.367 31.5 M
375.367 35.84 L
S
GR
GS
0.149 GC
2 setlinecap
1 LJ
0.5 LW
N
439.363 31.5 M
439.363 35.84 L
S
GR
GS
0.149 GC
2 setlinecap
1 LJ
0.5 LW
N
503.359 31.5 M
503.359 35.84 L
S
GR
GS
0.149 GC
2 setlinecap
1 LJ
0.5 LW
N
80.986 374 M
80.986 371.83 L
S
GR
GS
0.149 GC
2 setlinecap
1 LJ
0.5 LW
N
93.785 374 M
93.785 371.83 L
S
GR
GS
0.149 GC
2 setlinecap
1 LJ
0.5 LW
N
106.584 374 M
106.584 371.83 L
S
GR
GS
0.149 GC
2 setlinecap
1 LJ
0.5 LW
N
132.182 374 M
132.182 371.83 L
S
GR
GS
0.149 GC
2 setlinecap
1 LJ
0.5 LW
N
144.981 374 M
144.981 371.83 L
S
GR
GS
0.149 GC
2 setlinecap
1 LJ
0.5 LW
N
157.781 374 M
157.781 371.83 L
S
GR
GS
0.149 GC
2 setlinecap
1 LJ
0.5 LW
N
170.58 374 M
170.58 371.83 L
S
GR
GS
0.149 GC
2 setlinecap
1 LJ
0.5 LW
N
196.178 374 M
196.178 371.83 L
S
GR
GS
0.149 GC
2 setlinecap
1 LJ
0.5 LW
N
208.977 374 M
208.977 371.83 L
S
GR
GS
0.149 GC
2 setlinecap
1 LJ
0.5 LW
N
221.777 374 M
221.777 371.83 L
S
GR
GS
0.149 GC
2 setlinecap
1 LJ
0.5 LW
N
234.576 374 M
234.576 371.83 L
S
GR
GS
0.149 GC
2 setlinecap
1 LJ
0.5 LW
N
260.174 374 M
260.174 371.83 L
S
GR
GS
0.149 GC
2 setlinecap
1 LJ
0.5 LW
N
272.973 374 M
272.973 371.83 L
S
GR
GS
0.149 GC
2 setlinecap
1 LJ
0.5 LW
N
285.773 374 M
285.773 371.83 L
S
GR
GS
0.149 GC
2 setlinecap
1 LJ
0.5 LW
N
298.572 374 M
298.572 371.83 L
S
GR
GS
0.149 GC
2 setlinecap
1 LJ
0.5 LW
N
324.17 374 M
324.17 371.83 L
S
GR
GS
0.149 GC
2 setlinecap
1 LJ
0.5 LW
N
336.969 374 M
336.969 371.83 L
S
GR
GS
0.149 GC
2 setlinecap
1 LJ
0.5 LW
N
349.769 374 M
349.769 371.83 L
S
GR
GS
0.149 GC
2 setlinecap
1 LJ
0.5 LW
N
362.568 374 M
362.568 371.83 L
S
GR
GS
0.149 GC
2 setlinecap
1 LJ
0.5 LW
N
388.166 374 M
388.166 371.83 L
S
GR
GS
0.149 GC
2 setlinecap
1 LJ
0.5 LW
N
400.965 374 M
400.965 371.83 L
S
GR
GS
0.149 GC
2 setlinecap
1 LJ
0.5 LW
N
413.765 374 M
413.765 371.83 L
S
GR
GS
0.149 GC
2 setlinecap
1 LJ
0.5 LW
N
426.564 374 M
426.564 371.83 L
S
GR
GS
0.149 GC
2 setlinecap
1 LJ
0.5 LW
N
452.162 374 M
452.162 371.83 L
S
GR
GS
0.149 GC
2 setlinecap
1 LJ
0.5 LW
N
464.961 374 M
464.961 371.83 L
S
GR
GS
0.149 GC
2 setlinecap
1 LJ
0.5 LW
N
477.761 374 M
477.761 371.83 L
S
GR
GS
0.149 GC
2 setlinecap
1 LJ
0.5 LW
N
490.56 374 M
490.56 371.83 L
S
GR
GS
0.149 GC
2 setlinecap
1 LJ
0.5 LW
N
80.986 31.5 M
80.986 33.67 L
S
GR
GS
0.149 GC
2 setlinecap
1 LJ
0.5 LW
N
93.785 31.5 M
93.785 33.67 L
S
GR
GS
0.149 GC
2 setlinecap
1 LJ
0.5 LW
N
106.584 31.5 M
106.584 33.67 L
S
GR
GS
0.149 GC
2 setlinecap
1 LJ
0.5 LW
N
132.182 31.5 M
132.182 33.67 L
S
GR
GS
0.149 GC
2 setlinecap
1 LJ
0.5 LW
N
144.981 31.5 M
144.981 33.67 L
S
GR
GS
0.149 GC
2 setlinecap
1 LJ
0.5 LW
N
157.781 31.5 M
157.781 33.67 L
S
GR
GS
0.149 GC
2 setlinecap
1 LJ
0.5 LW
N
170.58 31.5 M
170.58 33.67 L
S
GR
GS
0.149 GC
2 setlinecap
1 LJ
0.5 LW
N
196.178 31.5 M
196.178 33.67 L
S
GR
GS
0.149 GC
2 setlinecap
1 LJ
0.5 LW
N
208.977 31.5 M
208.977 33.67 L
S
GR
GS
0.149 GC
2 setlinecap
1 LJ
0.5 LW
N
221.777 31.5 M
221.777 33.67 L
S
GR
GS
0.149 GC
2 setlinecap
1 LJ
0.5 LW
N
234.576 31.5 M
234.576 33.67 L
S
GR
GS
0.149 GC
2 setlinecap
1 LJ
0.5 LW
N
260.174 31.5 M
260.174 33.67 L
S
GR
GS
0.149 GC
2 setlinecap
1 LJ
0.5 LW
N
272.973 31.5 M
272.973 33.67 L
S
GR
GS
0.149 GC
2 setlinecap
1 LJ
0.5 LW
N
285.773 31.5 M
285.773 33.67 L
S
GR
GS
0.149 GC
2 setlinecap
1 LJ
0.5 LW
N
298.572 31.5 M
298.572 33.67 L
S
GR
GS
0.149 GC
2 setlinecap
1 LJ
0.5 LW
N
324.17 31.5 M
324.17 33.67 L
S
GR
GS
0.149 GC
2 setlinecap
1 LJ
0.5 LW
N
336.969 31.5 M
336.969 33.67 L
S
GR
GS
0.149 GC
2 setlinecap
1 LJ
0.5 LW
N
349.769 31.5 M
349.769 33.67 L
S
GR
GS
0.149 GC
2 setlinecap
1 LJ
0.5 LW
N
362.568 31.5 M
362.568 33.67 L
S
GR
GS
0.149 GC
2 setlinecap
1 LJ
0.5 LW
N
388.166 31.5 M
388.166 33.67 L
S
GR
GS
0.149 GC
2 setlinecap
1 LJ
0.5 LW
N
400.965 31.5 M
400.965 33.67 L
S
GR
GS
0.149 GC
2 setlinecap
1 LJ
0.5 LW
N
413.765 31.5 M
413.765 33.67 L
S
GR
GS
0.149 GC
2 setlinecap
1 LJ
0.5 LW
N
426.564 31.5 M
426.564 33.67 L
S
GR
GS
0.149 GC
2 setlinecap
1 LJ
0.5 LW
N
452.162 31.5 M
452.162 33.67 L
S
GR
GS
0.149 GC
2 setlinecap
1 LJ
0.5 LW
N
464.961 31.5 M
464.961 33.67 L
S
GR
GS
0.149 GC
2 setlinecap
1 LJ
0.5 LW
N
477.761 31.5 M
477.761 33.67 L
S
GR
GS
0.149 GC
2 setlinecap
1 LJ
0.5 LW
N
490.56 31.5 M
490.56 33.67 L
S
GR
GS
[1 0 0 1 119.38309 378.7999] CT
0.149 GC
/Helvetica 14 F
GS
[1 0 0 1 0 0] CT
-16 14 moveto 
1 -1 scale
(1000) t 
GR
GR
GS
[1 0 0 1 183.37907 378.7999] CT
0.149 GC
/Helvetica 14 F
GS
[1 0 0 1 0 0] CT
-16 14 moveto 
1 -1 scale
(2000) t 
GR
GR
GS
[1 0 0 1 247.37505 378.7999] CT
0.149 GC
/Helvetica 14 F
GS
[1 0 0 1 0 0] CT
-16 14 moveto 
1 -1 scale
(3000) t 
GR
GR
GS
[1 0 0 1 311.371 378.7999] CT
0.149 GC
/Helvetica 14 F
GS
[1 0 0 1 0 0] CT
-16 14 moveto 
1 -1 scale
(4000) t 
GR
GR
GS
[1 0 0 1 375.36697 378.7999] CT
0.149 GC
/Helvetica 14 F
GS
[1 0 0 1 0 0] CT
-16 14 moveto 
1 -1 scale
(5000) t 
GR
GR
GS
[1 0 0 1 439.36295 378.7999] CT
0.149 GC
/Helvetica 14 F
GS
[1 0 0 1 0 0] CT
-16 14 moveto 
1 -1 scale
(6000) t 
GR
GR
GS
[1 0 0 1 503.35892 378.7999] CT
0.149 GC
/Helvetica 14 F
GS
[1 0 0 1 0 0] CT
-16 14 moveto 
1 -1 scale
(7000) t 
GR
GR
GS
[1 0 0 1 290.00021 396.29999] CT
0.149 GC
/Helvetica 15.4 F
GS
[1 0 0 1 0 0] CT
-42 15 moveto 
1 -1 scale
(Bitrate\(kb/s\)) t 
GR
GR
GS
0.149 GC
2 setlinecap
1 LJ
0.5 LW
N
73 374 M
73 31.5 L
S
GR
GS
0.149 GC
2 setlinecap
1 LJ
0.5 LW
N
507 374 M
507 31.5 L
S
GR
GS
0.149 GC
2 setlinecap
1 LJ
0.5 LW
N
73 354.878 M
77.34 354.878 L
S
GR
GS
0.149 GC
2 setlinecap
1 LJ
0.5 LW
N
73 306.421 M
77.34 306.421 L
S
GR
GS
0.149 GC
2 setlinecap
1 LJ
0.5 LW
N
73 257.964 M
77.34 257.964 L
S
GR
GS
0.149 GC
2 setlinecap
1 LJ
0.5 LW
N
73 209.507 M
77.34 209.507 L
S
GR
GS
0.149 GC
2 setlinecap
1 LJ
0.5 LW
N
73 161.049 M
77.34 161.049 L
S
GR
GS
0.149 GC
2 setlinecap
1 LJ
0.5 LW
N
73 112.592 M
77.34 112.592 L
S
GR
GS
0.149 GC
2 setlinecap
1 LJ
0.5 LW
N
73 64.135 M
77.34 64.135 L
S
GR
GS
0.149 GC
2 setlinecap
1 LJ
0.5 LW
N
507 354.878 M
502.66 354.878 L
S
GR
GS
0.149 GC
2 setlinecap
1 LJ
0.5 LW
N
507 306.421 M
502.66 306.421 L
S
GR
GS
0.149 GC
2 setlinecap
1 LJ
0.5 LW
N
507 257.964 M
502.66 257.964 L
S
GR
GS
0.149 GC
2 setlinecap
1 LJ
0.5 LW
N
507 209.507 M
502.66 209.507 L
S
GR
GS
0.149 GC
2 setlinecap
1 LJ
0.5 LW
N
507 161.049 M
502.66 161.049 L
S
GR
GS
0.149 GC
2 setlinecap
1 LJ
0.5 LW
N
507 112.592 M
502.66 112.592 L
S
GR
GS
0.149 GC
2 setlinecap
1 LJ
0.5 LW
N
507 64.135 M
502.66 64.135 L
S
GR
GS
0.149 GC
2 setlinecap
1 LJ
0.5 LW
N
73 364.57 M
75.17 364.57 L
S
GR
GS
0.149 GC
2 setlinecap
1 LJ
0.5 LW
N
73 345.187 M
75.17 345.187 L
S
GR
GS
0.149 GC
2 setlinecap
1 LJ
0.5 LW
N
73 335.495 M
75.17 335.495 L
S
GR
GS
0.149 GC
2 setlinecap
1 LJ
0.5 LW
N
73 325.804 M
75.17 325.804 L
S
GR
GS
0.149 GC
2 setlinecap
1 LJ
0.5 LW
N
73 316.112 M
75.17 316.112 L
S
GR
GS
0.149 GC
2 setlinecap
1 LJ
0.5 LW
N
73 296.729 M
75.17 296.729 L
S
GR
GS
0.149 GC
2 setlinecap
1 LJ
0.5 LW
N
73 287.038 M
75.17 287.038 L
S
GR
GS
0.149 GC
2 setlinecap
1 LJ
0.5 LW
N
73 277.347 M
75.17 277.347 L
S
GR
GS
0.149 GC
2 setlinecap
1 LJ
0.5 LW
N
73 267.655 M
75.17 267.655 L
S
GR
GS
0.149 GC
2 setlinecap
1 LJ
0.5 LW
N
73 248.272 M
75.17 248.272 L
S
GR
GS
0.149 GC
2 setlinecap
1 LJ
0.5 LW
N
73 238.581 M
75.17 238.581 L
S
GR
GS
0.149 GC
2 setlinecap
1 LJ
0.5 LW
N
73 228.889 M
75.17 228.889 L
S
GR
GS
0.149 GC
2 setlinecap
1 LJ
0.5 LW
N
73 219.198 M
75.17 219.198 L
S
GR
GS
0.149 GC
2 setlinecap
1 LJ
0.5 LW
N
73 199.815 M
75.17 199.815 L
S
GR
GS
0.149 GC
2 setlinecap
1 LJ
0.5 LW
N
73 190.124 M
75.17 190.124 L
S
GR
GS
0.149 GC
2 setlinecap
1 LJ
0.5 LW
N
73 180.432 M
75.17 180.432 L
S
GR
GS
0.149 GC
2 setlinecap
1 LJ
0.5 LW
N
73 170.741 M
75.17 170.741 L
S
GR
GS
0.149 GC
2 setlinecap
1 LJ
0.5 LW
N
73 151.358 M
75.17 151.358 L
S
GR
GS
0.149 GC
2 setlinecap
1 LJ
0.5 LW
N
73 141.666 M
75.17 141.666 L
S
GR
GS
0.149 GC
2 setlinecap
1 LJ
0.5 LW
N
73 131.975 M
75.17 131.975 L
S
GR
GS
0.149 GC
2 setlinecap
1 LJ
0.5 LW
N
73 122.284 M
75.17 122.284 L
S
GR
GS
0.149 GC
2 setlinecap
1 LJ
0.5 LW
N
73 102.901 M
75.17 102.901 L
S
GR
GS
0.149 GC
2 setlinecap
1 LJ
0.5 LW
N
73 93.209 M
75.17 93.209 L
S
GR
GS
0.149 GC
2 setlinecap
1 LJ
0.5 LW
N
73 83.518 M
75.17 83.518 L
S
GR
GS
0.149 GC
2 setlinecap
1 LJ
0.5 LW
N
73 73.826 M
75.17 73.826 L
S
GR
GS
0.149 GC
2 setlinecap
1 LJ
0.5 LW
N
73 54.443 M
75.17 54.443 L
S
GR
GS
0.149 GC
2 setlinecap
1 LJ
0.5 LW
N
73 44.752 M
75.17 44.752 L
S
GR
GS
0.149 GC
2 setlinecap
1 LJ
0.5 LW
N
73 35.061 M
75.17 35.061 L
S
GR
GS
0.149 GC
2 setlinecap
1 LJ
0.5 LW
N
507 364.57 M
504.83 364.57 L
S
GR
GS
0.149 GC
2 setlinecap
1 LJ
0.5 LW
N
507 345.187 M
504.83 345.187 L
S
GR
GS
0.149 GC
2 setlinecap
1 LJ
0.5 LW
N
507 335.495 M
504.83 335.495 L
S
GR
GS
0.149 GC
2 setlinecap
1 LJ
0.5 LW
N
507 325.804 M
504.83 325.804 L
S
GR
GS
0.149 GC
2 setlinecap
1 LJ
0.5 LW
N
507 316.112 M
504.83 316.112 L
S
GR
GS
0.149 GC
2 setlinecap
1 LJ
0.5 LW
N
507 296.729 M
504.83 296.729 L
S
GR
GS
0.149 GC
2 setlinecap
1 LJ
0.5 LW
N
507 287.038 M
504.83 287.038 L
S
GR
GS
0.149 GC
2 setlinecap
1 LJ
0.5 LW
N
507 277.347 M
504.83 277.347 L
S
GR
GS
0.149 GC
2 setlinecap
1 LJ
0.5 LW
N
507 267.655 M
504.83 267.655 L
S
GR
GS
0.149 GC
2 setlinecap
1 LJ
0.5 LW
N
507 248.272 M
504.83 248.272 L
S
GR
GS
0.149 GC
2 setlinecap
1 LJ
0.5 LW
N
507 238.581 M
504.83 238.581 L
S
GR
GS
0.149 GC
2 setlinecap
1 LJ
0.5 LW
N
507 228.889 M
504.83 228.889 L
S
GR
GS
0.149 GC
2 setlinecap
1 LJ
0.5 LW
N
507 219.198 M
504.83 219.198 L
S
GR
GS
0.149 GC
2 setlinecap
1 LJ
0.5 LW
N
507 199.815 M
504.83 199.815 L
S
GR
GS
0.149 GC
2 setlinecap
1 LJ
0.5 LW
N
507 190.124 M
504.83 190.124 L
S
GR
GS
0.149 GC
2 setlinecap
1 LJ
0.5 LW
N
507 180.432 M
504.83 180.432 L
S
GR
GS
0.149 GC
2 setlinecap
1 LJ
0.5 LW
N
507 170.741 M
504.83 170.741 L
S
GR
GS
0.149 GC
2 setlinecap
1 LJ
0.5 LW
N
507 151.358 M
504.83 151.358 L
S
GR
GS
0.149 GC
2 setlinecap
1 LJ
0.5 LW
N
507 141.666 M
504.83 141.666 L
S
GR
GS
0.149 GC
2 setlinecap
1 LJ
0.5 LW
N
507 131.975 M
504.83 131.975 L
S
GR
GS
0.149 GC
2 setlinecap
1 LJ
0.5 LW
N
507 122.284 M
504.83 122.284 L
S
GR
GS
0.149 GC
2 setlinecap
1 LJ
0.5 LW
N
507 102.901 M
504.83 102.901 L
S
GR
GS
0.149 GC
2 setlinecap
1 LJ
0.5 LW
N
507 93.209 M
504.83 93.209 L
S
GR
GS
0.149 GC
2 setlinecap
1 LJ
0.5 LW
N
507 83.518 M
504.83 83.518 L
S
GR
GS
0.149 GC
2 setlinecap
1 LJ
0.5 LW
N
507 73.826 M
504.83 73.826 L
S
GR
GS
0.149 GC
2 setlinecap
1 LJ
0.5 LW
N
507 54.443 M
504.83 54.443 L
S
GR
GS
0.149 GC
2 setlinecap
1 LJ
0.5 LW
N
507 44.752 M
504.83 44.752 L
S
GR
GS
0.149 GC
2 setlinecap
1 LJ
0.5 LW
N
507 35.061 M
504.83 35.061 L
S
GR
GS
[1 0 0 1 68.2 354.87814] CT
0.149 GC
/Helvetica 14 F
GS
[1 0 0 1 0 0] CT
-16 5.5 moveto 
1 -1 scale
(42) t 
GR
GR
GS
[1 0 0 1 68.2 306.42093] CT
0.149 GC
/Helvetica 14 F
GS
[1 0 0 1 0 0] CT
-16 5.5 moveto 
1 -1 scale
(43) t 
GR
GR
GS
[1 0 0 1 68.2 257.96371] CT
0.149 GC
/Helvetica 14 F
GS
[1 0 0 1 0 0] CT
-16 5.5 moveto 
1 -1 scale
(44) t 
GR
GR
GS
[1 0 0 1 68.2 209.5065] CT
0.149 GC
/Helvetica 14 F
GS
[1 0 0 1 0 0] CT
-16 5.5 moveto 
1 -1 scale
(45) t 
GR
GR
GS
[1 0 0 1 68.2 161.04927] CT
0.149 GC
/Helvetica 14 F
GS
[1 0 0 1 0 0] CT
-16 5.5 moveto 
1 -1 scale
(46) t 
GR
GR
GS
[1 0 0 1 68.2 112.59206] CT
0.149 GC
/Helvetica 14 F
GS
[1 0 0 1 0 0] CT
-16 5.5 moveto 
1 -1 scale
(47) t 
GR
GR
GS
[1 0 0 1 68.2 64.13484] CT
0.149 GC
/Helvetica 14 F
GS
[1 0 0 1 0 0] CT
-16 5.5 moveto 
1 -1 scale
(48) t 
GR
GR
GS
[0 -1 1 0 49.2 202.74988] CT
0.149 GC
/Helvetica 15.4 F
GS
[1 0 0 1 0 0] CT
-44 -4 moveto 
1 -1 scale
(PSNR V \(dB\)) t 
GR
GR
GS
[1 0 0 1 290.00027 29.57499] CT
/Helvetica-Bold 15.4 F
GS
[1 0 0 1 0 0] CT
-108 -4 moveto 
1 -1 scale
(Lecture_1080P-3ce0.y4m-av1) t 
GR
GR
GS
0 0.447 0.741 RC
1 LJ
0.5 LW
N
74.453 350.107 M
75.733 341.901 L
77.013 333.741 L
78.293 325.701 L
79.573 317.858 L
80.853 310.285 L
82.133 303.058 L
83.412 296.25 L
84.692 289.938 L
85.972 284.196 L
87.252 279.099 L
88.532 274.579 L
89.812 270.227 L
91.092 266.01 L
92.372 261.925 L
93.652 257.97 L
94.932 254.143 L
96.212 250.441 L
97.492 246.861 L
98.771 243.401 L
100.051 240.058 L
101.331 236.83 L
102.611 233.715 L
103.891 230.709 L
105.171 227.811 L
106.451 225.018 L
107.731 222.327 L
109.011 219.735 L
110.291 217.241 L
111.571 214.842 L
112.851 212.535 L
114.131 210.317 L
115.41 208.187 L
116.69 206.141 L
117.97 204.178 L
119.25 202.288 L
120.53 200.433 L
121.81 198.604 L
123.09 196.801 L
124.37 195.025 L
125.65 193.274 L
126.93 191.55 L
128.21 189.851 L
129.49 188.178 L
130.769 186.53 L
132.049 184.908 L
133.329 183.31 L
134.609 181.737 L
135.889 180.189 L
137.169 178.665 L
138.449 177.166 L
139.729 175.69 L
141.009 174.239 L
142.289 172.811 L
143.569 171.407 L
144.849 170.026 L
146.128 168.668 L
147.408 167.333 L
148.688 166.021 L
149.968 164.732 L
151.248 163.465 L
152.528 162.221 L
153.808 160.998 L
155.088 159.798 L
156.368 158.619 L
157.648 157.462 L
158.928 156.326 L
160.208 155.212 L
161.488 154.118 L
162.767 153.045 L
164.047 151.993 L
165.327 150.961 L
166.607 149.95 L
167.887 148.959 L
169.167 147.987 L
170.447 147.036 L
171.727 146.104 L
173.007 145.191 L
174.287 144.298 L
175.567 143.423 L
176.847 142.568 L
178.126 141.731 L
179.406 140.913 L
180.686 140.113 L
181.966 139.331 L
183.246 138.567 L
184.526 137.821 L
185.806 137.092 L
187.086 136.376 L
188.366 135.663 L
189.646 134.95 L
190.926 134.239 L
192.206 133.529 L
193.486 132.821 L
194.765 132.113 L
196.045 131.407 L
197.325 130.703 L
198.605 129.999 L
199.885 129.297 L
201.165 128.597 L
202.445 127.897 L
203.725 127.2 L
205.005 126.503 L
206.285 125.808 L
207.565 125.115 L
208.845 124.423 L
210.124 123.733 L
211.404 123.044 L
212.684 122.356 L
213.964 121.67 L
215.244 120.986 L
216.524 120.303 L
217.804 119.622 L
219.084 118.943 L
220.364 118.265 L
221.644 117.589 L
222.924 116.915 L
224.204 116.242 L
225.483 115.571 L
226.763 114.901 L
228.043 114.234 L
229.323 113.568 L
230.603 112.904 L
231.883 112.242 L
233.163 111.581 L
234.443 110.923 L
235.723 110.266 L
237.003 109.611 L
238.283 108.958 L
239.563 108.307 L
240.843 107.658 L
242.122 107.011 L
243.402 106.366 L
244.682 105.722 L
245.962 105.081 L
247.242 104.442 L
248.522 103.805 L
249.802 103.169 L
251.082 102.536 L
252.362 101.905 L
253.642 101.276 L
254.922 100.649 L
256.202 100.025 L
257.481 99.402 L
258.761 98.782 L
260.041 98.164 L
261.321 97.548 L
262.601 96.934 L
263.881 96.322 L
265.161 95.713 L
266.441 95.106 L
267.721 94.501 L
269.001 93.899 L
270.281 93.299 L
271.561 92.701 L
272.841 92.106 L
274.12 91.513 L
275.4 90.922 L
276.68 90.334 L
277.96 89.748 L
279.24 89.165 L
280.52 88.584 L
281.8 88.005 L
283.08 87.429 L
284.36 86.856 L
285.64 86.285 L
286.92 85.717 L
288.2 85.151 L
289.479 84.588 L
290.759 84.027 L
292.039 83.47 L
293.319 82.914 L
294.599 82.362 L
295.879 81.812 L
297.159 81.264 L
298.439 80.72 L
299.719 80.178 L
300.999 79.639 L
302.279 79.103 L
303.559 78.569 L
304.839 78.038 L
306.118 77.51 L
307.398 76.985 L
308.678 76.463 L
309.958 75.944 L
311.238 75.427 L
312.518 74.914 L
313.798 74.403 L
315.078 73.895 L
316.358 73.39 L
317.638 72.889 L
318.918 72.39 L
320.198 71.894 L
321.477 71.401 L
322.757 70.911 L
324.037 70.425 L
325.317 69.941 L
326.597 69.461 L
327.877 68.983 L
329.157 68.509 L
330.437 68.038 L
331.717 67.57 L
332.997 67.105 L
334.277 66.643 L
335.557 66.185 L
336.836 65.73 L
338.116 65.278 L
339.396 64.829 L
340.676 64.384 L
341.956 63.942 L
343.236 63.503 L
344.516 63.068 L
345.796 62.636 L
347.076 62.207 L
348.356 61.782 L
349.636 61.36 L
350.916 60.941 L
352.195 60.526 L
353.475 60.115 L
354.755 59.707 L
356.035 59.302 L
357.315 58.901 L
358.595 58.503 L
359.875 58.109 L
361.155 57.719 L
362.435 57.332 L
363.715 56.949 L
364.995 56.569 L
366.275 56.193 L
367.555 55.821 L
368.834 55.452 L
370.114 55.087 L
371.394 54.726 L
372.674 54.369 L
373.954 54.015 L
375.234 53.665 L
376.514 53.319 L
377.794 52.976 L
379.074 52.637 L
380.354 52.302 L
381.634 51.972 L
382.914 51.644 L
384.193 51.321 L
385.473 51.002 L
386.753 50.686 L
388.033 50.375 L
389.313 50.067 L
390.593 49.764 L
391.873 49.464 L
393.153 49.168 L
394.433 48.877 L
395.713 48.589 L
396.993 48.306 L
398.273 48.026 L
399.553 47.751 L
400.832 47.48 L
402.112 47.213 L
403.392 46.95 L
404.672 46.691 L
405.952 46.436 L
407.232 46.186 L
408.512 45.94 L
409.792 45.698 L
411.072 45.46 L
412.352 45.226 L
413.632 44.997 L
414.912 44.772 L
416.191 44.552 L
417.471 44.335 L
418.751 44.123 L
420.031 43.916 L
421.311 43.713 L
422.591 43.514 L
423.871 43.32 L
425.151 43.13 L
426.431 42.944 L
427.711 42.763 L
428.991 42.587 L
430.271 42.415 L
431.551 42.247 L
432.83 42.084 L
434.11 41.926 L
435.39 41.772 L
436.67 41.623 L
437.95 41.479 L
439.23 41.339 L
440.51 41.204 L
441.79 41.073 L
443.07 40.947 L
444.35 40.826 L
445.63 40.709 L
446.91 40.598 L
448.189 40.491 L
449.469 40.388 L
450.749 40.291 L
452.029 40.198 L
453.309 40.11 L
454.589 40.027 L
455.869 39.949 L
457.149 39.876 L
458.429 39.808 L
459.709 39.744 L
460.989 39.686 L
462.269 39.632 L
463.548 39.584 L
464.828 39.54 L
466.108 39.501 L
467.388 39.468 L
468.668 39.439 L
469.948 39.416 L
471.228 39.397 L
472.508 39.384 L
473.788 39.376 L
475.068 39.372 L
S
GR
GS
0.851 0.325 0.098 RC
1 LJ
0.5 LW
N
74.383 350.607 M
75.663 342.402 L
76.943 334.244 L
78.223 326.212 L
79.503 318.383 L
80.783 310.833 L
82.063 303.639 L
83.343 296.879 L
84.623 290.629 L
85.903 284.966 L
87.183 279.968 L
88.463 275.424 L
89.743 271.017 L
91.022 266.742 L
92.302 262.599 L
93.582 258.585 L
94.862 254.698 L
96.142 250.936 L
97.422 247.298 L
98.702 243.779 L
99.982 240.38 L
101.262 237.097 L
102.542 233.929 L
103.822 230.874 L
105.102 227.929 L
106.381 225.093 L
107.661 222.363 L
108.941 219.737 L
110.221 217.213 L
111.501 214.79 L
112.781 212.465 L
114.061 210.236 L
115.341 208.1 L
116.621 206.057 L
117.901 204.103 L
119.181 202.204 L
120.461 200.332 L
121.741 198.488 L
123.02 196.672 L
124.3 194.884 L
125.58 193.123 L
126.86 191.388 L
128.14 189.681 L
129.42 188 L
130.7 186.346 L
131.98 184.718 L
133.26 183.116 L
134.54 181.539 L
135.82 179.988 L
137.1 178.463 L
138.379 176.962 L
139.659 175.487 L
140.939 174.036 L
142.219 172.61 L
143.499 171.208 L
144.779 169.831 L
146.059 168.477 L
147.339 167.146 L
148.619 165.839 L
149.899 164.556 L
151.179 163.295 L
152.459 162.057 L
153.738 160.842 L
155.018 159.65 L
156.298 158.479 L
157.578 157.33 L
158.858 156.203 L
160.138 155.098 L
161.418 154.014 L
162.698 152.951 L
163.978 151.909 L
165.258 150.887 L
166.538 149.886 L
167.818 148.906 L
169.098 147.945 L
170.377 147.004 L
171.657 146.083 L
172.937 145.181 L
174.217 144.299 L
175.497 143.435 L
176.777 142.59 L
178.057 141.764 L
179.337 140.956 L
180.617 140.166 L
181.897 139.394 L
183.177 138.64 L
184.457 137.904 L
185.736 137.179 L
187.016 136.455 L
188.296 135.732 L
189.576 135.011 L
190.856 134.291 L
192.136 133.573 L
193.416 132.855 L
194.696 132.14 L
195.976 131.425 L
197.256 130.712 L
198.536 130 L
199.816 129.29 L
201.096 128.581 L
202.375 127.873 L
203.655 127.167 L
204.935 126.463 L
206.215 125.76 L
207.495 125.058 L
208.775 124.358 L
210.055 123.66 L
211.335 122.963 L
212.615 122.268 L
213.895 121.574 L
215.175 120.882 L
216.455 120.192 L
217.734 119.503 L
219.014 118.816 L
220.294 118.131 L
221.574 117.447 L
222.854 116.765 L
224.134 116.085 L
225.414 115.407 L
226.694 114.731 L
227.974 114.056 L
229.254 113.383 L
230.534 112.712 L
231.814 112.043 L
233.094 111.376 L
234.373 110.711 L
235.653 110.047 L
236.933 109.386 L
238.213 108.727 L
239.493 108.069 L
240.773 107.414 L
242.053 106.76 L
243.333 106.109 L
244.613 105.46 L
245.893 104.812 L
247.173 104.167 L
248.453 103.524 L
249.732 102.883 L
251.012 102.245 L
252.292 101.608 L
253.572 100.974 L
254.852 100.341 L
256.132 99.711 L
257.412 99.084 L
258.692 98.458 L
259.972 97.835 L
261.252 97.214 L
262.532 96.596 L
263.812 95.979 L
265.091 95.365 L
266.371 94.754 L
267.651 94.145 L
268.931 93.538 L
270.211 92.934 L
271.491 92.332 L
272.771 91.732 L
274.051 91.135 L
275.331 90.541 L
276.611 89.949 L
277.891 89.36 L
279.171 88.773 L
280.451 88.189 L
281.73 87.607 L
283.01 87.028 L
284.29 86.452 L
285.57 85.878 L
286.85 85.307 L
288.13 84.738 L
289.41 84.173 L
290.69 83.61 L
291.97 83.05 L
293.25 82.492 L
294.53 81.937 L
295.81 81.385 L
297.089 80.836 L
298.369 80.29 L
299.649 79.746 L
300.929 79.206 L
302.209 78.668 L
303.489 78.133 L
304.769 77.602 L
306.049 77.073 L
307.329 76.547 L
308.609 76.024 L
309.889 75.504 L
311.169 74.987 L
312.449 74.473 L
313.728 73.962 L
315.008 73.454 L
316.288 72.95 L
317.568 72.448 L
318.848 71.95 L
320.128 71.454 L
321.408 70.962 L
322.688 70.473 L
323.968 69.987 L
325.248 69.505 L
326.528 69.026 L
327.808 68.549 L
329.087 68.077 L
330.367 67.607 L
331.647 67.141 L
332.927 66.678 L
334.207 66.218 L
335.487 65.762 L
336.767 65.31 L
338.047 64.86 L
339.327 64.414 L
340.607 63.972 L
341.887 63.533 L
343.167 63.097 L
344.447 62.665 L
345.726 62.236 L
347.006 61.811 L
348.286 61.39 L
349.566 60.972 L
350.846 60.558 L
352.126 60.147 L
353.406 59.74 L
354.686 59.336 L
355.966 58.937 L
357.246 58.54 L
358.526 58.148 L
359.806 57.759 L
361.085 57.374 L
362.365 56.993 L
363.645 56.616 L
364.925 56.242 L
366.205 55.872 L
367.485 55.506 L
368.765 55.144 L
370.045 54.785 L
371.325 54.431 L
372.605 54.08 L
373.885 53.734 L
375.165 53.391 L
376.444 53.052 L
377.724 52.717 L
379.004 52.387 L
380.284 52.06 L
381.564 51.737 L
382.844 51.418 L
384.124 51.104 L
385.404 50.793 L
386.684 50.487 L
387.964 50.184 L
389.244 49.886 L
390.524 49.592 L
391.803 49.302 L
393.083 49.017 L
394.363 48.735 L
395.643 48.458 L
396.923 48.185 L
398.203 47.916 L
399.483 47.652 L
400.763 47.392 L
402.043 47.136 L
403.323 46.884 L
404.603 46.638 L
405.883 46.395 L
407.163 46.156 L
408.442 45.923 L
409.722 45.693 L
411.002 45.468 L
412.282 45.247 L
413.562 45.031 L
414.842 44.82 L
416.122 44.613 L
417.402 44.41 L
418.682 44.212 L
419.962 44.019 L
421.242 43.83 L
422.522 43.646 L
423.801 43.467 L
425.081 43.292 L
426.361 43.122 L
427.641 42.956 L
428.921 42.795 L
430.201 42.639 L
431.481 42.488 L
432.761 42.342 L
434.041 42.2 L
435.321 42.063 L
436.601 41.931 L
437.881 41.804 L
439.161 41.681 L
440.44 41.564 L
441.72 41.451 L
443 41.343 L
444.28 41.24 L
445.56 41.143 L
446.84 41.05 L
448.12 40.962 L
449.4 40.879 L
450.68 40.801 L
451.96 40.728 L
453.24 40.66 L
454.52 40.598 L
455.799 40.54 L
457.079 40.488 L
458.359 40.44 L
459.639 40.398 L
460.919 40.361 L
462.199 40.329 L
463.479 40.303 L
464.759 40.281 L
466.039 40.265 L
467.319 40.254 L
468.599 40.248 L
S
GR
GS
0.929 0.694 0.125 RC
1 LJ
0.5 LW
N
77.513 333.256 M
78.793 323.959 L
80.073 314.661 L
81.353 305.463 L
82.633 296.465 L
83.913 287.768 L
85.193 279.471 L
86.473 271.674 L
87.753 264.48 L
89.033 257.986 L
90.313 252.295 L
91.593 247.506 L
92.872 243.595 L
94.152 239.941 L
95.432 236.44 L
96.712 233.086 L
97.992 229.874 L
99.272 226.798 L
100.552 223.855 L
101.832 221.038 L
103.112 218.342 L
104.392 215.762 L
105.672 213.292 L
106.952 210.928 L
108.231 208.664 L
109.511 206.495 L
110.791 204.416 L
112.071 202.421 L
113.351 200.505 L
114.631 198.663 L
115.911 196.89 L
117.191 195.18 L
118.471 193.529 L
119.751 191.93 L
121.031 190.379 L
122.311 188.871 L
123.59 187.4 L
124.87 185.96 L
126.15 184.548 L
127.43 183.157 L
128.71 181.787 L
129.99 180.438 L
131.27 179.109 L
132.55 177.8 L
133.83 176.511 L
135.11 175.241 L
136.39 173.991 L
137.67 172.76 L
138.95 171.547 L
140.229 170.354 L
141.509 169.178 L
142.789 168.021 L
144.069 166.881 L
145.349 165.759 L
146.629 164.654 L
147.909 163.566 L
149.189 162.495 L
150.469 161.44 L
151.749 160.402 L
153.029 159.38 L
154.309 158.373 L
155.588 157.382 L
156.868 156.406 L
158.148 155.445 L
159.428 154.499 L
160.708 153.567 L
161.988 152.65 L
163.268 151.746 L
164.548 150.856 L
165.828 149.98 L
167.108 149.117 L
168.388 148.267 L
169.668 147.429 L
170.948 146.604 L
172.227 145.791 L
173.507 144.99 L
174.787 144.2 L
176.067 143.422 L
177.347 142.655 L
178.627 141.899 L
179.907 141.154 L
181.187 140.419 L
182.467 139.694 L
183.747 138.979 L
185.027 138.274 L
186.307 137.578 L
187.586 136.891 L
188.866 136.213 L
190.146 135.543 L
191.426 134.882 L
192.706 134.229 L
193.986 133.584 L
195.266 132.946 L
196.546 132.316 L
197.826 131.692 L
199.106 131.076 L
200.386 130.466 L
201.666 129.858 L
202.945 129.25 L
204.225 128.642 L
205.505 128.034 L
206.785 127.427 L
208.065 126.82 L
209.345 126.214 L
210.625 125.608 L
211.905 125.002 L
213.185 124.396 L
214.465 123.791 L
215.745 123.186 L
217.025 122.582 L
218.305 121.978 L
219.584 121.375 L
220.864 120.772 L
222.144 120.169 L
223.424 119.568 L
224.704 118.966 L
225.984 118.366 L
227.264 117.765 L
228.544 117.166 L
229.824 116.567 L
231.104 115.969 L
232.384 115.371 L
233.664 114.775 L
234.943 114.179 L
236.223 113.583 L
237.503 112.989 L
238.783 112.395 L
240.063 111.802 L
241.343 111.21 L
242.623 110.618 L
243.903 110.028 L
245.183 109.438 L
246.463 108.849 L
247.743 108.262 L
249.023 107.675 L
250.303 107.089 L
251.582 106.504 L
252.862 105.92 L
254.142 105.337 L
255.422 104.755 L
256.702 104.175 L
257.982 103.595 L
259.262 103.016 L
260.542 102.439 L
261.822 101.862 L
263.102 101.287 L
264.382 100.713 L
265.662 100.141 L
266.941 99.569 L
268.221 98.999 L
269.501 98.43 L
270.781 97.862 L
272.061 97.296 L
273.341 96.731 L
274.621 96.167 L
275.901 95.605 L
277.181 95.044 L
278.461 94.484 L
279.741 93.926 L
281.021 93.369 L
282.301 92.814 L
283.58 92.26 L
284.86 91.708 L
286.14 91.157 L
287.42 90.608 L
288.7 90.061 L
289.98 89.515 L
291.26 88.971 L
292.54 88.428 L
293.82 87.887 L
295.1 87.348 L
296.38 86.81 L
297.66 86.274 L
298.939 85.74 L
300.219 85.207 L
301.499 84.677 L
302.779 84.148 L
304.059 83.621 L
305.339 83.095 L
306.619 82.572 L
307.899 82.05 L
309.179 81.531 L
310.459 81.013 L
311.739 80.498 L
313.019 79.984 L
314.298 79.472 L
315.578 78.962 L
316.858 78.454 L
318.138 77.949 L
319.418 77.445 L
320.698 76.943 L
321.978 76.444 L
323.258 75.947 L
324.538 75.452 L
325.818 74.959 L
327.098 74.468 L
328.378 73.979 L
329.658 73.492 L
330.937 73.008 L
332.217 72.526 L
333.497 72.047 L
334.777 71.569 L
336.057 71.094 L
337.337 70.622 L
338.617 70.152 L
339.897 69.684 L
341.177 69.218 L
342.457 68.755 L
343.737 68.295 L
345.017 67.836 L
346.296 67.381 L
347.576 66.928 L
348.856 66.477 L
350.136 66.029 L
351.416 65.584 L
352.696 65.141 L
353.976 64.7 L
355.256 64.263 L
356.536 63.828 L
357.816 63.395 L
359.096 62.966 L
360.376 62.539 L
361.655 62.115 L
362.935 61.693 L
364.215 61.275 L
365.495 60.859 L
366.775 60.446 L
368.055 60.036 L
369.335 59.628 L
370.615 59.224 L
371.895 58.822 L
373.175 58.424 L
374.455 58.028 L
375.735 57.635 L
377.015 57.245 L
378.294 56.859 L
379.574 56.475 L
380.854 56.094 L
382.134 55.717 L
383.414 55.342 L
384.694 54.971 L
385.974 54.602 L
387.254 54.237 L
388.534 53.875 L
389.814 53.516 L
391.094 53.16 L
392.374 52.808 L
393.653 52.459 L
394.933 52.113 L
396.213 51.77 L
397.493 51.431 L
398.773 51.095 L
400.053 50.762 L
401.333 50.433 L
402.613 50.107 L
403.893 49.784 L
405.173 49.465 L
406.453 49.15 L
407.733 48.838 L
409.013 48.529 L
410.292 48.224 L
411.572 47.922 L
412.852 47.624 L
414.132 47.329 L
415.412 47.038 L
416.692 46.751 L
417.972 46.467 L
419.252 46.187 L
420.532 45.911 L
421.812 45.638 L
423.092 45.369 L
424.372 45.104 L
425.651 44.843 L
426.931 44.585 L
428.211 44.331 L
429.491 44.081 L
430.771 43.835 L
432.051 43.592 L
433.331 43.354 L
434.611 43.119 L
435.891 42.888 L
437.171 42.662 L
438.451 42.439 L
439.731 42.22 L
441.01 42.005 L
442.29 41.794 L
443.57 41.587 L
444.85 41.385 L
446.13 41.186 L
447.41 40.991 L
448.69 40.801 L
449.97 40.615 L
451.25 40.432 L
452.53 40.254 L
453.81 40.081 L
455.09 39.911 L
456.37 39.746 L
457.649 39.585 L
458.929 39.428 L
460.209 39.276 L
461.489 39.128 L
462.769 38.984 L
464.049 38.844 L
465.329 38.709 L
466.609 38.579 L
467.889 38.452 L
469.169 38.331 L
470.449 38.213 L
471.729 38.101 L
473.008 37.992 L
474.288 37.888 L
475.568 37.789 L
476.848 37.695 L
478.128 37.604 L
479.408 37.519 L
480.688 37.438 L
481.968 37.362 L
483.248 37.29 L
484.528 37.224 L
485.808 37.161 L
487.088 37.104 L
488.368 37.051 L
489.647 37.004 L
490.927 36.96 L
492.207 36.922 L
493.487 36.889 L
494.767 36.86 L
496.047 36.836 L
497.327 36.818 L
498.607 36.804 L
499.887 36.795 L
501.167 36.791 L
S
GR
GS
0.494 0.184 0.557 RC
1 LJ
0.5 LW
N
73 374 M
74.28 364.173 L
75.56 354.532 L
76.84 345.134 L
78.12 336.04 L
79.4 327.31 L
80.68 319 L
81.959 311.172 L
83.239 303.884 L
84.519 297.186 L
85.799 290.781 L
87.079 284.511 L
88.359 278.393 L
89.639 272.443 L
90.919 266.677 L
92.199 261.112 L
93.479 255.763 L
94.759 250.647 L
96.039 245.78 L
97.318 241.178 L
98.598 236.857 L
99.878 232.834 L
101.158 229.123 L
102.438 225.743 L
103.718 222.685 L
104.998 219.741 L
106.278 216.857 L
107.558 214.033 L
108.838 211.27 L
110.118 208.569 L
111.398 205.93 L
112.677 203.353 L
113.957 200.84 L
115.237 198.39 L
116.517 196.005 L
117.797 193.685 L
119.077 191.431 L
120.357 189.243 L
121.637 187.121 L
122.917 185.067 L
124.197 183.081 L
125.477 181.163 L
126.757 179.315 L
128.037 177.536 L
129.316 175.827 L
130.596 174.19 L
131.876 172.624 L
133.156 171.13 L
134.436 169.708 L
135.716 168.36 L
136.996 167.085 L
138.276 165.885 L
139.556 164.76 L
140.836 163.711 L
142.116 162.737 L
143.396 161.841 L
144.675 160.98 L
145.955 160.124 L
147.235 159.271 L
148.515 158.424 L
149.795 157.58 L
151.075 156.741 L
152.355 155.907 L
153.635 155.076 L
154.915 154.25 L
156.195 153.428 L
157.475 152.611 L
158.755 151.798 L
160.035 150.99 L
161.314 150.186 L
162.594 149.386 L
163.874 148.591 L
165.154 147.8 L
166.434 147.014 L
167.714 146.232 L
168.994 145.455 L
170.274 144.682 L
171.554 143.914 L
172.834 143.15 L
174.114 142.391 L
175.394 141.636 L
176.673 140.886 L
177.953 140.14 L
179.233 139.399 L
180.513 138.662 L
181.793 137.93 L
183.073 137.202 L
184.353 136.479 L
185.633 135.761 L
186.913 135.047 L
188.193 134.338 L
189.473 133.634 L
190.753 132.934 L
192.033 132.239 L
193.312 131.548 L
194.592 130.863 L
195.872 130.181 L
197.152 129.505 L
198.432 128.833 L
199.712 128.166 L
200.992 127.504 L
202.272 126.846 L
203.552 126.193 L
204.832 125.545 L
206.112 124.902 L
207.392 124.263 L
208.671 123.629 L
209.951 123 L
211.231 122.376 L
212.511 121.756 L
213.791 121.142 L
215.071 120.532 L
216.351 119.927 L
217.631 119.326 L
218.911 118.731 L
220.191 118.141 L
221.471 117.555 L
222.751 116.974 L
224.03 116.398 L
225.31 115.828 L
226.59 115.262 L
227.87 114.7 L
229.15 114.144 L
230.43 113.593 L
231.71 113.047 L
232.99 112.506 L
234.27 111.969 L
235.55 111.438 L
236.83 110.911 L
238.11 110.39 L
239.39 109.873 L
240.669 109.362 L
241.949 108.856 L
243.229 108.354 L
244.509 107.858 L
245.789 107.367 L
247.069 106.881 L
248.349 106.4 L
249.629 105.924 L
250.909 105.453 L
252.189 104.987 L
253.469 104.526 L
254.749 104.071 L
256.028 103.62 L
257.308 103.175 L
258.588 102.735 L
259.868 102.3 L
261.148 101.87 L
262.428 101.445 L
263.708 101.026 L
264.988 100.612 L
266.268 100.203 L
267.548 99.799 L
268.828 99.4 L
270.108 99.007 L
271.388 98.619 L
272.667 98.236 L
273.947 97.858 L
275.227 97.486 L
276.507 97.119 L
277.787 96.757 L
279.067 96.401 L
280.347 96.05 L
281.627 95.704 L
282.907 95.364 L
284.187 95.028 L
285.467 94.699 L
286.747 94.374 L
288.026 94.055 L
289.306 93.742 L
290.586 93.434 L
291.866 93.131 L
293.146 92.833 L
294.426 92.541 L
295.706 92.255 L
296.986 91.974 L
298.266 91.698 L
299.546 91.428 L
300.826 91.163 L
302.106 90.904 L
303.385 90.65 L
304.665 90.402 L
305.945 90.159 L
307.225 89.922 L
308.505 89.69 L
309.785 89.464 L
311.065 89.243 L
312.345 89.028 L
313.625 88.819 L
314.905 88.615 L
316.185 88.417 L
317.465 88.224 L
318.745 88.037 L
320.024 87.855 L
321.304 87.679 L
322.584 87.509 L
323.864 87.344 L
325.144 87.185 L
326.424 87.032 L
327.704 86.884 L
328.984 86.743 L
330.264 86.606 L
331.544 86.476 L
332.824 86.351 L
334.104 86.232 L
335.383 86.119 L
336.663 86.011 L
337.943 85.909 L
339.223 85.813 L
340.503 85.723 L
341.783 85.638 L
343.063 85.559 L
344.343 85.486 L
345.623 85.419 L
346.903 85.358 L
348.183 85.302 L
349.463 85.253 L
350.742 85.209 L
352.022 85.171 L
353.302 85.139 L
354.582 85.113 L
355.862 85.092 L
357.142 85.078 L
358.422 85.069 L
S
GR
GS
0.467 0.675 0.188 RC
1 LJ
0.5 LW
N
75.667 341.206 M
76.947 333.426 L
78.227 325.659 L
79.507 317.972 L
80.787 310.432 L
82.067 303.105 L
83.347 296.058 L
84.627 289.358 L
85.907 283.071 L
87.186 277.264 L
88.466 272.003 L
89.746 267.355 L
91.026 263.329 L
92.306 259.523 L
93.586 255.84 L
94.866 252.278 L
96.146 248.832 L
97.426 245.501 L
98.706 242.28 L
99.986 239.165 L
101.266 236.155 L
102.545 233.246 L
103.825 230.433 L
105.105 227.715 L
106.385 225.087 L
107.665 222.547 L
108.945 220.091 L
110.225 217.715 L
111.505 215.418 L
112.785 213.194 L
114.065 211.041 L
115.345 208.957 L
116.625 206.936 L
117.904 204.976 L
119.184 203.075 L
120.464 201.227 L
121.744 199.431 L
123.024 197.683 L
124.304 195.98 L
125.584 194.318 L
126.864 192.692 L
128.144 191.088 L
129.424 189.504 L
130.704 187.939 L
131.984 186.393 L
133.264 184.867 L
134.543 183.359 L
135.823 181.87 L
137.103 180.4 L
138.383 178.948 L
139.663 177.516 L
140.943 176.101 L
142.223 174.705 L
143.503 173.327 L
144.783 171.967 L
146.063 170.625 L
147.343 169.302 L
148.623 167.996 L
149.902 166.707 L
151.182 165.437 L
152.462 164.183 L
153.742 162.948 L
155.022 161.729 L
156.302 160.528 L
157.582 159.344 L
158.862 158.177 L
160.142 157.026 L
161.422 155.893 L
162.702 154.775 L
163.982 153.675 L
165.262 152.591 L
166.541 151.524 L
167.821 150.472 L
169.101 149.437 L
170.381 148.418 L
171.661 147.415 L
172.941 146.428 L
174.221 145.456 L
175.501 144.5 L
176.781 143.559 L
178.061 142.634 L
179.341 141.725 L
180.621 140.83 L
181.9 139.951 L
183.18 139.086 L
184.46 138.236 L
185.74 137.402 L
187.02 136.581 L
188.3 135.776 L
189.58 134.985 L
190.86 134.208 L
192.14 133.446 L
193.42 132.697 L
194.7 131.963 L
195.98 131.243 L
197.259 130.536 L
198.539 129.844 L
199.819 129.165 L
201.099 128.499 L
202.379 127.845 L
203.659 127.192 L
204.939 126.54 L
206.219 125.889 L
207.499 125.239 L
208.779 124.589 L
210.059 123.941 L
211.339 123.293 L
212.619 122.647 L
213.898 122.001 L
215.178 121.356 L
216.458 120.712 L
217.738 120.069 L
219.018 119.427 L
220.298 118.787 L
221.578 118.147 L
222.858 117.508 L
224.138 116.87 L
225.418 116.234 L
226.698 115.598 L
227.978 114.964 L
229.257 114.331 L
230.537 113.698 L
231.817 113.067 L
233.097 112.438 L
234.377 111.809 L
235.657 111.181 L
236.937 110.555 L
238.217 109.93 L
239.497 109.307 L
240.777 108.684 L
242.057 108.063 L
243.337 107.443 L
244.617 106.825 L
245.896 106.208 L
247.176 105.592 L
248.456 104.977 L
249.736 104.364 L
251.016 103.753 L
252.296 103.142 L
253.576 102.533 L
254.856 101.926 L
256.136 101.32 L
257.416 100.716 L
258.696 100.113 L
259.976 99.511 L
261.255 98.911 L
262.535 98.313 L
263.815 97.716 L
265.095 97.121 L
266.375 96.528 L
267.655 95.935 L
268.935 95.345 L
270.215 94.756 L
271.495 94.169 L
272.775 93.584 L
274.055 93 L
275.335 92.418 L
276.615 91.838 L
277.894 91.259 L
279.174 90.683 L
280.454 90.108 L
281.734 89.534 L
283.014 88.963 L
284.294 88.393 L
285.574 87.826 L
286.854 87.26 L
288.134 86.696 L
289.414 86.134 L
290.694 85.574 L
291.974 85.015 L
293.253 84.459 L
294.533 83.904 L
295.813 83.352 L
297.093 82.802 L
298.373 82.253 L
299.653 81.707 L
300.933 81.162 L
302.213 80.62 L
303.493 80.08 L
304.773 79.541 L
306.053 79.005 L
307.333 78.471 L
308.612 77.939 L
309.892 77.41 L
311.172 76.882 L
312.452 76.357 L
313.732 75.833 L
315.012 75.312 L
316.292 74.794 L
317.572 74.277 L
318.852 73.763 L
320.132 73.251 L
321.412 72.741 L
322.692 72.234 L
323.972 71.729 L
325.251 71.226 L
326.531 70.726 L
327.811 70.228 L
329.091 69.732 L
330.371 69.239 L
331.651 68.748 L
332.931 68.26 L
334.211 67.774 L
335.491 67.291 L
336.771 66.81 L
338.051 66.331 L
339.331 65.855 L
340.61 65.382 L
341.89 64.911 L
343.17 64.443 L
344.45 63.977 L
345.73 63.514 L
347.01 63.054 L
348.29 62.596 L
349.57 62.141 L
350.85 61.688 L
352.13 61.238 L
353.41 60.791 L
354.69 60.347 L
355.97 59.905 L
357.249 59.466 L
358.529 59.03 L
359.809 58.597 L
361.089 58.166 L
362.369 57.738 L
363.649 57.313 L
364.929 56.891 L
366.209 56.472 L
367.489 56.056 L
368.769 55.642 L
370.049 55.231 L
371.329 54.824 L
372.608 54.419 L
373.888 54.017 L
375.168 53.619 L
376.448 53.223 L
377.728 52.83 L
379.008 52.44 L
380.288 52.053 L
381.568 51.67 L
382.848 51.289 L
384.128 50.911 L
385.408 50.537 L
386.688 50.166 L
387.967 49.798 L
389.247 49.432 L
390.527 49.071 L
391.807 48.712 L
393.087 48.356 L
394.367 48.004 L
395.647 47.655 L
396.927 47.309 L
398.207 46.967 L
399.487 46.628 L
400.767 46.292 L
402.047 45.959 L
403.327 45.63 L
404.606 45.304 L
405.886 44.981 L
407.166 44.662 L
408.446 44.346 L
409.726 44.034 L
411.006 43.725 L
412.286 43.419 L
413.566 43.117 L
414.846 42.819 L
416.126 42.523 L
417.406 42.232 L
418.686 41.944 L
419.965 41.659 L
421.245 41.378 L
422.525 41.101 L
423.805 40.827 L
425.085 40.557 L
426.365 40.29 L
427.645 40.027 L
428.925 39.768 L
430.205 39.512 L
431.485 39.26 L
432.765 39.012 L
434.045 38.767 L
435.325 38.527 L
436.604 38.289 L
437.884 38.056 L
439.164 37.826 L
440.444 37.601 L
441.724 37.379 L
443.004 37.161 L
444.284 36.947 L
445.564 36.736 L
446.844 36.53 L
448.124 36.327 L
449.404 36.128 L
450.684 35.934 L
451.963 35.743 L
453.243 35.556 L
454.523 35.373 L
455.803 35.194 L
457.083 35.02 L
458.363 34.849 L
459.643 34.682 L
460.923 34.519 L
462.203 34.361 L
463.483 34.206 L
464.763 34.056 L
466.043 33.909 L
467.323 33.767 L
468.602 33.629 L
469.882 33.495 L
471.162 33.365 L
472.442 33.24 L
473.722 33.119 L
475.002 33.002 L
476.282 32.889 L
477.562 32.78 L
478.842 32.676 L
480.122 32.576 L
481.402 32.48 L
482.682 32.389 L
483.961 32.302 L
485.241 32.22 L
486.521 32.142 L
487.801 32.068 L
489.081 31.999 L
490.361 31.933 L
491.641 31.873 L
492.921 31.817 L
494.201 31.765 L
495.481 31.719 L
496.761 31.676 L
498.041 31.638 L
499.32 31.604 L
500.6 31.576 L
501.88 31.551 L
503.16 31.531 L
504.44 31.516 L
505.72 31.506 L
507 31.5 L
S
GR
GS
0.302 0.745 0.933 RC
[10 6] 0 setdash
2 LJ
0.5 LW
N
75.133 345.075 M
76.413 337.272 L
77.693 329.503 L
78.973 321.835 L
80.253 314.337 L
81.533 307.077 L
82.812 300.124 L
84.092 293.545 L
85.372 287.41 L
86.652 281.786 L
87.932 276.741 L
89.212 272.32 L
90.492 268.165 L
91.772 264.135 L
93.052 260.23 L
94.332 256.444 L
95.612 252.778 L
96.892 249.226 L
98.171 245.788 L
99.451 242.46 L
100.731 239.24 L
102.011 236.126 L
103.291 233.114 L
104.571 230.202 L
105.851 227.388 L
107.131 224.668 L
108.411 222.042 L
109.691 219.504 L
110.971 217.055 L
112.251 214.689 L
113.531 212.407 L
114.81 210.203 L
116.09 208.076 L
117.37 206.024 L
118.65 204.044 L
119.93 202.132 L
121.21 200.288 L
122.49 198.5 L
123.77 196.741 L
125.05 195.006 L
126.33 193.295 L
127.61 191.609 L
128.89 189.947 L
130.169 188.309 L
131.449 186.695 L
132.729 185.105 L
134.009 183.538 L
135.289 181.995 L
136.569 180.474 L
137.849 178.977 L
139.129 177.503 L
140.409 176.052 L
141.689 174.623 L
142.969 173.216 L
144.249 171.832 L
145.529 170.47 L
146.808 169.13 L
148.088 167.812 L
149.368 166.515 L
150.648 165.24 L
151.928 163.987 L
153.208 162.754 L
154.488 161.542 L
155.768 160.352 L
157.048 159.182 L
158.328 158.032 L
159.608 156.903 L
160.888 155.794 L
162.167 154.706 L
163.447 153.637 L
164.727 152.588 L
166.007 151.558 L
167.287 150.548 L
168.567 149.557 L
169.847 148.586 L
171.127 147.633 L
172.407 146.699 L
173.687 145.784 L
174.967 144.887 L
176.247 144.009 L
177.526 143.148 L
178.806 142.306 L
180.086 141.482 L
181.366 140.675 L
182.646 139.886 L
183.926 139.114 L
185.206 138.36 L
186.486 137.622 L
187.766 136.902 L
189.046 136.195 L
190.326 135.491 L
191.606 134.788 L
192.886 134.085 L
194.165 133.385 L
195.445 132.685 L
196.725 131.986 L
198.005 131.289 L
199.285 130.593 L
200.565 129.898 L
201.845 129.205 L
203.125 128.512 L
204.405 127.822 L
205.685 127.132 L
206.965 126.444 L
208.245 125.757 L
209.524 125.072 L
210.804 124.389 L
212.084 123.706 L
213.364 123.026 L
214.644 122.347 L
215.924 121.669 L
217.204 120.993 L
218.484 120.319 L
219.764 119.646 L
221.044 118.975 L
222.324 118.306 L
223.604 117.639 L
224.883 116.973 L
226.163 116.309 L
227.443 115.647 L
228.723 114.987 L
230.003 114.329 L
231.283 113.672 L
232.563 113.018 L
233.843 112.365 L
235.123 111.714 L
236.403 111.066 L
237.683 110.419 L
238.963 109.775 L
240.243 109.132 L
241.522 108.492 L
242.802 107.854 L
244.082 107.218 L
245.362 106.584 L
246.642 105.952 L
247.922 105.323 L
249.202 104.696 L
250.482 104.071 L
251.762 103.448 L
253.042 102.828 L
254.322 102.21 L
255.602 101.595 L
256.882 100.982 L
258.161 100.371 L
259.441 99.763 L
260.721 99.158 L
262.001 98.555 L
263.281 97.954 L
264.561 97.356 L
265.841 96.761 L
267.121 96.168 L
268.401 95.578 L
269.681 94.991 L
270.961 94.406 L
272.241 93.824 L
273.52 93.245 L
274.8 92.669 L
276.08 92.095 L
277.36 91.525 L
278.64 90.957 L
279.92 90.392 L
281.2 89.83 L
282.48 89.271 L
283.76 88.714 L
285.04 88.161 L
286.32 87.611 L
287.6 87.064 L
288.879 86.52 L
290.159 85.979 L
291.439 85.442 L
292.719 84.907 L
293.999 84.376 L
295.279 83.847 L
296.559 83.322 L
297.839 82.801 L
299.119 82.282 L
300.399 81.767 L
301.679 81.255 L
302.959 80.747 L
304.238 80.242 L
305.518 79.74 L
306.798 79.242 L
308.078 78.748 L
309.358 78.256 L
310.638 77.769 L
311.918 77.284 L
313.198 76.804 L
314.478 76.327 L
315.758 75.854 L
317.038 75.384 L
318.318 74.918 L
319.598 74.456 L
320.877 73.997 L
322.157 73.542 L
323.437 73.091 L
324.717 72.644 L
325.997 72.2 L
327.277 71.761 L
328.557 71.325 L
329.837 70.893 L
331.117 70.466 L
332.397 70.042 L
333.677 69.622 L
334.957 69.206 L
336.237 68.794 L
337.516 68.386 L
338.796 67.983 L
340.076 67.583 L
341.356 67.188 L
342.636 66.796 L
343.916 66.41 L
345.196 66.027 L
346.476 65.648 L
347.756 65.274 L
349.036 64.904 L
350.316 64.538 L
351.596 64.177 L
352.875 63.82 L
354.155 63.468 L
355.435 63.12 L
356.715 62.776 L
357.995 62.437 L
359.275 62.102 L
360.555 61.772 L
361.835 61.447 L
363.115 61.126 L
364.395 60.81 L
365.675 60.498 L
366.955 60.191 L
368.234 59.889 L
369.514 59.591 L
370.794 59.299 L
372.074 59.011 L
373.354 58.727 L
374.634 58.449 L
375.914 58.175 L
377.194 57.907 L
378.474 57.643 L
379.754 57.384 L
381.034 57.131 L
382.314 56.882 L
383.594 56.638 L
384.873 56.399 L
386.153 56.165 L
387.433 55.936 L
388.713 55.713 L
389.993 55.494 L
391.273 55.281 L
392.553 55.073 L
393.833 54.87 L
395.113 54.673 L
396.393 54.48 L
397.673 54.293 L
398.953 54.112 L
400.232 53.935 L
401.512 53.764 L
402.792 53.599 L
404.072 53.439 L
405.352 53.284 L
406.632 53.135 L
407.912 52.991 L
409.192 52.853 L
410.472 52.72 L
411.752 52.593 L
413.032 52.472 L
414.312 52.356 L
415.592 52.246 L
416.871 52.141 L
418.151 52.043 L
419.431 51.95 L
420.711 51.862 L
421.991 51.781 L
423.271 51.705 L
424.551 51.636 L
425.831 51.572 L
427.111 51.514 L
428.391 51.462 L
429.671 51.416 L
430.951 51.376 L
432.23 51.341 L
433.51 51.313 L
434.79 51.291 L
436.07 51.275 L
437.35 51.265 L
438.63 51.262 L
S
GR
GS
0.635 0.078 0.184 RC
[10 6] 0 setdash
2 LJ
0.5 LW
N
77.441 333.24 M
78.72 324.031 L
80 314.828 L
81.28 305.726 L
82.56 296.823 L
83.84 288.215 L
85.12 279.999 L
86.4 272.27 L
87.68 265.127 L
88.96 258.665 L
90.24 252.981 L
91.52 248.173 L
92.8 244.223 L
94.079 240.535 L
95.359 236.998 L
96.639 233.609 L
97.919 230.361 L
99.199 227.25 L
100.479 224.27 L
101.759 221.417 L
103.039 218.685 L
104.319 216.069 L
105.599 213.564 L
106.879 211.165 L
108.159 208.867 L
109.439 206.663 L
110.718 204.55 L
111.998 202.523 L
113.278 200.575 L
114.558 198.702 L
115.838 196.898 L
117.118 195.159 L
118.398 193.48 L
119.678 191.854 L
120.958 190.278 L
122.238 188.745 L
123.518 187.252 L
124.798 185.791 L
126.077 184.359 L
127.357 182.951 L
128.637 181.564 L
129.917 180.2 L
131.197 178.858 L
132.477 177.537 L
133.757 176.238 L
135.037 174.96 L
136.317 173.702 L
137.597 172.465 L
138.877 171.248 L
140.157 170.051 L
141.437 168.873 L
142.716 167.714 L
143.996 166.575 L
145.276 165.454 L
146.556 164.351 L
147.836 163.266 L
149.116 162.199 L
150.396 161.149 L
151.676 160.116 L
152.956 159.1 L
154.236 158.101 L
155.516 157.118 L
156.796 156.15 L
158.075 155.199 L
159.355 154.262 L
160.635 153.341 L
161.915 152.434 L
163.195 151.541 L
164.475 150.663 L
165.755 149.798 L
167.035 148.947 L
168.315 148.109 L
169.595 147.284 L
170.875 146.472 L
172.155 145.671 L
173.434 144.883 L
174.714 144.106 L
175.994 143.341 L
177.274 142.587 L
178.554 141.843 L
179.834 141.11 L
181.114 140.388 L
182.394 139.675 L
183.674 138.971 L
184.954 138.277 L
186.234 137.592 L
187.514 136.915 L
188.794 136.247 L
190.073 135.587 L
191.353 134.934 L
192.633 134.289 L
193.913 133.652 L
195.193 133.019 L
196.473 132.388 L
197.753 131.756 L
199.033 131.125 L
200.313 130.493 L
201.593 129.862 L
202.873 129.231 L
204.153 128.6 L
205.432 127.97 L
206.712 127.34 L
207.992 126.71 L
209.272 126.08 L
210.552 125.451 L
211.832 124.822 L
213.112 124.194 L
214.392 123.566 L
215.672 122.939 L
216.952 122.312 L
218.232 121.686 L
219.512 121.061 L
220.792 120.436 L
222.071 119.812 L
223.351 119.188 L
224.631 118.566 L
225.911 117.944 L
227.191 117.323 L
228.471 116.703 L
229.751 116.083 L
231.031 115.465 L
232.311 114.848 L
233.591 114.231 L
234.871 113.616 L
236.151 113.002 L
237.43 112.389 L
238.71 111.777 L
239.99 111.166 L
241.27 110.556 L
242.55 109.947 L
243.83 109.34 L
245.11 108.734 L
246.39 108.13 L
247.67 107.526 L
248.95 106.925 L
250.23 106.324 L
251.51 105.725 L
252.789 105.128 L
254.069 104.532 L
255.349 103.938 L
256.629 103.345 L
257.909 102.754 L
259.189 102.164 L
260.469 101.576 L
261.749 100.991 L
263.029 100.406 L
264.309 99.824 L
265.589 99.243 L
266.869 98.664 L
268.149 98.087 L
269.428 97.513 L
270.708 96.94 L
271.988 96.369 L
273.268 95.8 L
274.548 95.233 L
275.828 94.668 L
277.108 94.105 L
278.388 93.545 L
279.668 92.987 L
280.948 92.431 L
282.228 91.877 L
283.508 91.325 L
284.787 90.776 L
286.067 90.23 L
287.347 89.685 L
288.627 89.143 L
289.907 88.604 L
291.187 88.067 L
292.467 87.532 L
293.747 87.001 L
295.027 86.471 L
296.307 85.945 L
297.587 85.421 L
298.867 84.899 L
300.147 84.381 L
301.426 83.865 L
302.706 83.352 L
303.986 82.842 L
305.266 82.335 L
306.546 81.831 L
307.826 81.329 L
309.106 80.831 L
310.386 80.335 L
311.666 79.843 L
312.946 79.354 L
314.226 78.868 L
315.506 78.385 L
316.785 77.905 L
318.065 77.428 L
319.345 76.955 L
320.625 76.484 L
321.905 76.018 L
323.185 75.554 L
324.465 75.094 L
325.745 74.637 L
327.025 74.184 L
328.305 73.734 L
329.585 73.288 L
330.865 72.845 L
332.144 72.406 L
333.424 71.97 L
334.704 71.538 L
335.984 71.11 L
337.264 70.685 L
338.544 70.264 L
339.824 69.847 L
341.104 69.434 L
342.384 69.025 L
343.664 68.619 L
344.944 68.217 L
346.224 67.82 L
347.504 67.426 L
348.783 67.036 L
350.063 66.651 L
351.343 66.269 L
352.623 65.892 L
353.903 65.518 L
355.183 65.149 L
356.463 64.784 L
357.743 64.424 L
359.023 64.067 L
360.303 63.715 L
361.583 63.367 L
362.863 63.024 L
364.142 62.685 L
365.422 62.35 L
366.702 62.021 L
367.982 61.695 L
369.262 61.374 L
370.542 61.058 L
371.822 60.746 L
373.102 60.439 L
374.382 60.136 L
375.662 59.838 L
376.942 59.545 L
378.222 59.257 L
379.501 58.974 L
380.781 58.695 L
382.061 58.422 L
383.341 58.153 L
384.621 57.889 L
385.901 57.63 L
387.181 57.376 L
388.461 57.128 L
389.741 56.884 L
391.021 56.645 L
392.301 56.412 L
393.581 56.184 L
394.861 55.96 L
396.14 55.743 L
397.42 55.53 L
398.7 55.323 L
399.98 55.121 L
401.26 54.925 L
402.54 54.734 L
403.82 54.548 L
405.1 54.368 L
406.38 54.193 L
407.66 54.024 L
408.94 53.861 L
410.22 53.703 L
411.499 53.551 L
412.779 53.404 L
414.059 53.264 L
415.339 53.129 L
416.619 52.999 L
417.899 52.876 L
419.179 52.758 L
420.459 52.647 L
421.739 52.541 L
423.019 52.441 L
424.299 52.347 L
425.579 52.26 L
426.859 52.178 L
428.138 52.102 L
429.418 52.033 L
430.698 51.969 L
431.978 51.912 L
433.258 51.861 L
434.538 51.816 L
435.818 51.778 L
437.098 51.746 L
438.378 51.72 L
439.658 51.701 L
440.938 51.688 L
442.218 51.681 L
S
GR
GS
0 0.447 0.741 RC
[10 6] 0 setdash
2 LJ
0.5 LW
N
73.128 373.642 M
74.408 363.879 L
75.688 354.299 L
76.968 344.958 L
78.248 335.908 L
79.528 327.205 L
80.808 318.902 L
82.088 311.053 L
83.368 303.712 L
84.647 296.927 L
85.927 290.416 L
87.207 284.02 L
88.487 277.761 L
89.767 271.659 L
91.047 265.735 L
92.327 260.01 L
93.607 254.504 L
94.887 249.239 L
96.167 244.235 L
97.447 239.513 L
98.727 235.093 L
100.007 230.997 L
101.286 227.245 L
102.566 223.857 L
103.846 220.808 L
105.126 217.856 L
106.406 214.968 L
107.686 212.144 L
108.966 209.385 L
110.246 206.692 L
111.526 204.065 L
112.806 201.507 L
114.086 199.017 L
115.366 196.596 L
116.645 194.246 L
117.925 191.968 L
119.205 189.761 L
120.485 187.628 L
121.765 185.568 L
123.045 183.584 L
124.325 181.675 L
125.605 179.843 L
126.885 178.089 L
128.165 176.413 L
129.445 174.816 L
130.725 173.3 L
132.004 171.865 L
133.284 170.512 L
134.564 169.243 L
135.844 168.057 L
137.124 166.955 L
138.404 165.94 L
139.684 165.011 L
140.964 164.166 L
142.244 163.347 L
143.524 162.533 L
144.804 161.723 L
146.084 160.92 L
147.364 160.121 L
148.643 159.327 L
149.923 158.539 L
151.203 157.756 L
152.483 156.978 L
153.763 156.206 L
155.043 155.439 L
156.323 154.676 L
157.603 153.92 L
158.883 153.168 L
160.163 152.422 L
161.443 151.681 L
162.723 150.946 L
164.002 150.216 L
165.282 149.491 L
166.562 148.772 L
167.842 148.058 L
169.122 147.349 L
170.402 146.646 L
171.682 145.949 L
172.962 145.256 L
174.242 144.57 L
175.522 143.888 L
176.802 143.212 L
178.082 142.542 L
179.361 141.877 L
180.641 141.218 L
181.921 140.564 L
183.201 139.916 L
184.481 139.273 L
185.761 138.636 L
187.041 138.005 L
188.321 137.379 L
189.601 136.759 L
190.881 136.144 L
192.161 135.535 L
193.441 134.931 L
194.721 134.334 L
196 133.742 L
197.28 133.155 L
198.56 132.574 L
199.84 132 L
201.12 131.43 L
202.4 130.867 L
203.68 130.309 L
204.96 129.757 L
206.24 129.211 L
207.52 128.67 L
208.8 128.136 L
210.08 127.607 L
211.359 127.084 L
212.639 126.567 L
213.919 126.056 L
215.199 125.55 L
216.479 125.051 L
217.759 124.557 L
219.039 124.069 L
220.319 123.587 L
221.599 123.112 L
222.879 122.642 L
224.159 122.178 L
225.439 121.72 L
226.719 121.268 L
227.998 120.822 L
229.278 120.381 L
230.558 119.947 L
231.838 119.519 L
233.118 119.097 L
234.398 118.682 L
235.678 118.272 L
236.958 117.868 L
238.238 117.47 L
239.518 117.079 L
240.798 116.693 L
242.078 116.314 L
243.357 115.941 L
244.637 115.574 L
245.917 115.213 L
247.197 114.858 L
248.477 114.51 L
249.757 114.168 L
251.037 113.832 L
252.317 113.502 L
253.597 113.179 L
254.877 112.861 L
256.157 112.55 L
257.437 112.246 L
258.716 111.947 L
259.996 111.655 L
261.276 111.37 L
262.556 111.09 L
263.836 110.817 L
265.116 110.55 L
266.396 110.29 L
267.676 110.036 L
268.956 109.789 L
270.236 109.548 L
271.516 109.313 L
272.796 109.085 L
274.076 108.863 L
275.355 108.648 L
276.635 108.439 L
277.915 108.236 L
279.195 108.041 L
280.475 107.851 L
281.755 107.668 L
283.035 107.492 L
284.315 107.322 L
285.595 107.159 L
286.875 107.003 L
288.155 106.853 L
289.435 106.709 L
290.714 106.573 L
291.994 106.443 L
293.274 106.319 L
294.554 106.202 L
295.834 106.092 L
297.114 105.989 L
298.394 105.892 L
299.674 105.802 L
300.954 105.719 L
302.234 105.642 L
303.514 105.572 L
304.794 105.509 L
306.074 105.453 L
307.353 105.403 L
308.633 105.361 L
309.913 105.325 L
311.193 105.296 L
312.473 105.273 L
313.753 105.258 L
315.033 105.249 L
S
GR
GS
0.851 0.325 0.098 RC
[10 6] 0 setdash
2 LJ
0.5 LW
N
76.28 340.472 M
77.56 332.992 L
78.84 325.528 L
80.119 318.132 L
81.399 310.858 L
82.679 303.756 L
83.959 296.879 L
85.239 290.28 L
86.519 284.011 L
87.799 278.124 L
89.079 272.671 L
90.359 267.705 L
91.639 263.278 L
92.919 259.387 L
94.199 255.678 L
95.479 252.078 L
96.758 248.584 L
98.038 245.194 L
99.318 241.905 L
100.598 238.715 L
101.878 235.622 L
103.158 232.623 L
104.438 229.717 L
105.718 226.9 L
106.998 224.17 L
108.278 221.526 L
109.558 218.964 L
110.838 216.482 L
112.117 214.078 L
113.397 211.75 L
114.677 209.496 L
115.957 207.312 L
117.237 205.197 L
118.517 203.148 L
119.797 201.163 L
121.077 199.24 L
122.357 197.376 L
123.637 195.569 L
124.917 193.816 L
126.197 192.116 L
127.477 190.465 L
128.756 188.862 L
130.036 187.304 L
131.316 185.776 L
132.596 184.268 L
133.876 182.781 L
135.156 181.315 L
136.436 179.869 L
137.716 178.443 L
138.996 177.036 L
140.276 175.649 L
141.556 174.282 L
142.836 172.934 L
144.115 171.605 L
145.395 170.295 L
146.675 169.004 L
147.955 167.73 L
149.235 166.476 L
150.515 165.239 L
151.795 164.02 L
153.075 162.819 L
154.355 161.635 L
155.635 160.469 L
156.915 159.319 L
158.195 158.187 L
159.475 157.071 L
160.754 155.972 L
162.034 154.888 L
163.314 153.821 L
164.594 152.77 L
165.874 151.735 L
167.154 150.715 L
168.434 149.71 L
169.714 148.721 L
170.994 147.746 L
172.274 146.786 L
173.554 145.841 L
174.834 144.909 L
176.113 143.992 L
177.393 143.089 L
178.673 142.2 L
179.953 141.324 L
181.233 140.461 L
182.513 139.611 L
183.793 138.775 L
185.073 137.951 L
186.353 137.139 L
187.633 136.34 L
188.913 135.553 L
190.193 134.778 L
191.473 134.015 L
192.752 133.263 L
194.032 132.523 L
195.312 131.793 L
196.592 131.075 L
197.872 130.367 L
199.152 129.67 L
200.432 128.983 L
201.712 128.307 L
202.992 127.64 L
204.272 126.983 L
205.552 126.332 L
206.832 125.681 L
208.111 125.03 L
209.391 124.38 L
210.671 123.73 L
211.951 123.081 L
213.231 122.432 L
214.511 121.784 L
215.791 121.137 L
217.071 120.49 L
218.351 119.843 L
219.631 119.198 L
220.911 118.553 L
222.191 117.909 L
223.47 117.265 L
224.75 116.623 L
226.03 115.981 L
227.31 115.34 L
228.59 114.7 L
229.87 114.06 L
231.15 113.422 L
232.43 112.784 L
233.71 112.148 L
234.99 111.513 L
236.27 110.878 L
237.55 110.245 L
238.83 109.613 L
240.109 108.981 L
241.389 108.351 L
242.669 107.723 L
243.949 107.095 L
245.229 106.469 L
246.509 105.843 L
247.789 105.219 L
249.069 104.597 L
250.349 103.975 L
251.629 103.356 L
252.909 102.737 L
254.189 102.12 L
255.468 101.504 L
256.748 100.89 L
258.028 100.278 L
259.308 99.666 L
260.588 99.057 L
261.868 98.449 L
263.148 97.843 L
264.428 97.238 L
265.708 96.635 L
266.988 96.033 L
268.268 95.434 L
269.548 94.836 L
270.828 94.239 L
272.107 93.645 L
273.387 93.053 L
274.667 92.462 L
275.947 91.873 L
277.227 91.286 L
278.507 90.701 L
279.787 90.119 L
281.067 89.538 L
282.347 88.959 L
283.627 88.382 L
284.907 87.807 L
286.187 87.234 L
287.466 86.664 L
288.746 86.096 L
290.026 85.529 L
291.306 84.965 L
292.586 84.404 L
293.866 83.844 L
295.146 83.287 L
296.426 82.732 L
297.706 82.18 L
298.986 81.63 L
300.266 81.082 L
301.546 80.537 L
302.826 79.994 L
304.105 79.454 L
305.385 78.917 L
306.665 78.381 L
307.945 77.849 L
309.225 77.319 L
310.505 76.791 L
311.785 76.267 L
313.065 75.745 L
314.345 75.226 L
315.625 74.709 L
316.905 74.195 L
318.185 73.685 L
319.464 73.176 L
320.744 72.671 L
322.024 72.169 L
323.304 71.669 L
324.584 71.173 L
325.864 70.679 L
327.144 70.189 L
328.424 69.701 L
329.704 69.217 L
330.984 68.736 L
332.264 68.257 L
333.544 67.782 L
334.823 67.31 L
336.103 66.841 L
337.383 66.376 L
338.663 65.914 L
339.943 65.454 L
341.223 64.999 L
342.503 64.546 L
343.783 64.097 L
345.063 63.652 L
346.343 63.209 L
347.623 62.771 L
348.903 62.335 L
350.182 61.903 L
351.462 61.475 L
352.742 61.05 L
354.022 60.629 L
355.302 60.212 L
356.582 59.798 L
357.862 59.387 L
359.142 58.981 L
360.422 58.578 L
361.702 58.179 L
362.982 57.783 L
364.262 57.392 L
365.542 57.004 L
366.821 56.62 L
368.101 56.24 L
369.381 55.864 L
370.661 55.492 L
371.941 55.124 L
373.221 54.759 L
374.501 54.399 L
375.781 54.043 L
377.061 53.691 L
378.341 53.343 L
379.621 52.999 L
380.901 52.66 L
382.18 52.324 L
383.46 51.993 L
384.74 51.666 L
386.02 51.343 L
387.3 51.025 L
388.58 50.711 L
389.86 50.401 L
391.14 50.096 L
392.42 49.794 L
393.7 49.498 L
394.98 49.206 L
396.26 48.918 L
397.54 48.635 L
398.819 48.357 L
400.099 48.083 L
401.379 47.814 L
402.659 47.549 L
403.939 47.289 L
405.219 47.033 L
406.499 46.783 L
407.779 46.537 L
409.059 46.296 L
410.339 46.06 L
411.619 45.828 L
412.899 45.601 L
414.178 45.38 L
415.458 45.163 L
416.738 44.951 L
418.018 44.744 L
419.298 44.542 L
420.578 44.345 L
421.858 44.153 L
423.138 43.966 L
424.418 43.785 L
425.698 43.608 L
426.978 43.436 L
428.258 43.27 L
429.538 43.109 L
430.817 42.953 L
432.097 42.803 L
433.377 42.658 L
434.657 42.518 L
435.937 42.383 L
437.217 42.254 L
438.497 42.13 L
439.777 42.012 L
441.057 41.899 L
442.337 41.792 L
443.617 41.69 L
444.897 41.594 L
446.176 41.503 L
447.456 41.418 L
448.736 41.338 L
450.016 41.264 L
451.296 41.196 L
452.576 41.134 L
453.856 41.077 L
455.136 41.026 L
456.416 40.981 L
457.696 40.942 L
458.976 40.908 L
460.256 40.88 L
461.535 40.859 L
462.815 40.843 L
464.095 40.833 L
465.375 40.829 L
S
GR
GS
1 GC
N
499 366 M
499 218.5 L
327.5 218.5 L
327.5 366 L
cp
f
GR
GS
[1 0 0 1 364.5 228.25] CT
/Helvetica 13 F
GS
[1 0 0 1 0 0] CT
0 5 moveto 
1 -1 scale
(Base Run) t 
GR
GR
GS
0 0.447 0.741 RC
1 LJ
0.5 LW
N
331.5 228.25 M
361.5 228.25 L
S
GR
GS
[1 0 0 1 364.5 244.25] CT
/Helvetica 13 F
GS
[1 0 0 1 0 0] CT
0 5 moveto 
1 -1 scale
(All Frames) t 
GR
GR
GS
0.851 0.325 0.098 RC
1 LJ
0.5 LW
N
331.5 244.25 M
361.5 244.25 L
S
GR
GS
[1 0 0 1 364.5 260.25] CT
/Helvetica 13 F
GS
[1 0 0 1 0 0] CT
0 5 moveto 
1 -1 scale
(KF Only) t 
GR
GR
GS
0.929 0.694 0.125 RC
1 LJ
0.5 LW
N
331.5 260.25 M
361.5 260.25 L
S
GR
GS
[1 0 0 1 364.5 276.25] CT
/Helvetica 13 F
GS
[1 0 0 1 0 0] CT
0 5 moveto 
1 -1 scale
(GF, ARF Only) t 
GR
GR
GS
0.494 0.184 0.557 RC
1 LJ
0.5 LW
N
331.5 276.25 M
361.5 276.25 L
S
GR
GS
[1 0 0 1 364.5 292.25] CT
/Helvetica 13 F
GS
[1 0 0 1 0 0] CT
0 5 moveto 
1 -1 scale
(KF, GF, ARF Only) t 
GR
GR
GS
0.467 0.675 0.188 RC
1 LJ
0.5 LW
N
331.5 292.25 M
361.5 292.25 L
S
GR
GS
[1 0 0 1 364.5 308.25] CT
/Helvetica 13 F
GS
[1 0 0 1 0 0] CT
0 5 moveto 
1 -1 scale
(Part All Frames) t 
GR
GR
GS
0.302 0.745 0.933 RC
[10 6] 0 setdash
2 LJ
0.5 LW
N
331.5 308.25 M
361.5 308.25 L
S
GR
GS
[1 0 0 1 364.5 324.25] CT
/Helvetica 13 F
GS
[1 0 0 1 0 0] CT
0 5 moveto 
1 -1 scale
(Part KF Only) t 
GR
GR
GS
0.635 0.078 0.184 RC
[10 6] 0 setdash
2 LJ
0.5 LW
N
331.5 324.25 M
361.5 324.25 L
S
GR
GS
[1 0 0 1 364.5 340.25] CT
/Helvetica 13 F
GS
[1 0 0 1 0 0] CT
0 5 moveto 
1 -1 scale
(Part GF, ARF Only) t 
GR
GR
GS
0 0.447 0.741 RC
[10 6] 0 setdash
2 LJ
0.5 LW
N
331.5 340.25 M
361.5 340.25 L
S
GR
GS
[1 0 0 1 364.5 356.25] CT
/Helvetica 13 F
GS
[1 0 0 1 0 0] CT
0 5 moveto 
1 -1 scale
(Part KF, GF, ARF Only) t 
GR
GR
GS
0.851 0.325 0.098 RC
[10 6] 0 setdash
2 LJ
0.5 LW
N
331.5 356.25 M
361.5 356.25 L
S
GR
GS
0.149 GC
10.0 ML
0.5 LW
N
327.5 366 M
327.5 218.5 L
499 218.5 L
499 366 L
cp
S
GR
%%Trailer
%%Pages: 1
%%EOF
