%!PS-Adobe-3.0 EPSF-3.0
%%Creator: (MATLAB, The Mathworks, Inc. Version 9.11.0.1837725 \(R2021b\) Update 2. Operating System: Mac OS X)
%%Title: plots/pchip/Lecture_1080P-3ce0.y4m-av1-PSNR_HVSY.eps
%%CreationDate: 2022-02-03T19:13:09
%%Pages: (atend)
%%BoundingBox:    33   425   519   826
%%LanguageLevel: 3
%%EndComments
%%BeginProlog
%%BeginResource: procset (Apache XML Graphics Std ProcSet) 1.2 0
%%Version: 1.2 0
%%Copyright: (Copyright 2001-2003,2010 The Apache Software Foundation. License terms: http://www.apache.org/licenses/LICENSE-2.0)
/bd{bind def}bind def
/ld{load def}bd
/GR/grestore ld
/GS/gsave ld
/RM/rmoveto ld
/C/curveto ld
/t/show ld
/L/lineto ld
/ML/setmiterlimit ld
/CT/concat ld
/f/fill ld
/N/newpath ld
/S/stroke ld
/CC/setcmykcolor ld
/A/ashow ld
/cp/closepath ld
/RC/setrgbcolor ld
/LJ/setlinejoin ld
/GC/setgray ld
/LW/setlinewidth ld
/M/moveto ld
/re {4 2 roll M
1 index 0 rlineto
0 exch rlineto
neg 0 rlineto
cp } bd
/_ctm matrix def
/_tm matrix def
/BT { _ctm currentmatrix pop matrix _tm copy pop 0 0 moveto } bd
/ET { _ctm setmatrix } bd
/iTm { _ctm setmatrix _tm concat } bd
/Tm { _tm astore pop iTm 0 0 moveto } bd
/ux 0.0 def
/uy 0.0 def
/F {
  /Tp exch def
  /Tf exch def
  Tf findfont Tp scalefont setfont
  /cf Tf def  /cs Tp def
} bd
/ULS {currentpoint /uy exch def /ux exch def} bd
/ULE {
  /Tcx currentpoint pop def
  gsave
  newpath
  cf findfont cs scalefont dup
  /FontMatrix get 0 get /Ts exch def /FontInfo get dup
  /UnderlinePosition get Ts mul /To exch def
  /UnderlineThickness get Ts mul /Tt exch def
  ux uy To add moveto  Tcx uy To add lineto
  Tt setlinewidth stroke
  grestore
} bd
/OLE {
  /Tcx currentpoint pop def
  gsave
  newpath
  cf findfont cs scalefont dup
  /FontMatrix get 0 get /Ts exch def /FontInfo get dup
  /UnderlinePosition get Ts mul /To exch def
  /UnderlineThickness get Ts mul /Tt exch def
  ux uy To add cs add moveto Tcx uy To add cs add lineto
  Tt setlinewidth stroke
  grestore
} bd
/SOE {
  /Tcx currentpoint pop def
  gsave
  newpath
  cf findfont cs scalefont dup
  /FontMatrix get 0 get /Ts exch def /FontInfo get dup
  /UnderlinePosition get Ts mul /To exch def
  /UnderlineThickness get Ts mul /Tt exch def
  ux uy To add cs 10 mul 26 idiv add moveto Tcx uy To add cs 10 mul 26 idiv add lineto
  Tt setlinewidth stroke
  grestore
} bd
/QT {
/Y22 exch store
/X22 exch store
/Y21 exch store
/X21 exch store
currentpoint
/Y21 load 2 mul add 3 div exch
/X21 load 2 mul add 3 div exch
/X21 load 2 mul /X22 load add 3 div
/Y21 load 2 mul /Y22 load add 3 div
/X22 load /Y22 load curveto
} bd
/SSPD {
dup length /d exch dict def
{
/v exch def
/k exch def
currentpagedevice k known {
/cpdv currentpagedevice k get def
v cpdv ne {
/upd false def
/nullv v type /nulltype eq def
/nullcpdv cpdv type /nulltype eq def
nullv nullcpdv or
{
/upd true def
} {
/sametype v type cpdv type eq def
sametype {
v type /arraytype eq {
/vlen v length def
/cpdvlen cpdv length def
vlen cpdvlen eq {
0 1 vlen 1 sub {
/i exch def
/obj v i get def
/cpdobj cpdv i get def
obj cpdobj ne {
/upd true def
exit
} if
} for
} {
/upd true def
} ifelse
} {
v type /dicttype eq {
v {
/dv exch def
/dk exch def
/cpddv cpdv dk get def
dv cpddv ne {
/upd true def
exit
} if
} forall
} {
/upd true def
} ifelse
} ifelse
} if
} ifelse
upd true eq {
d k v put
} if
} if
} if
} forall
d length 0 gt {
d setpagedevice
} if
} bd
/RE { % /NewFontName [NewEncodingArray] /FontName RE -
  findfont dup length dict begin
  {
    1 index /FID ne
    {def} {pop pop} ifelse
  } forall
  /Encoding exch def
  /FontName 1 index def
  currentdict definefont pop
  end
} bind def
%%EndResource
%%BeginResource: procset (Apache XML Graphics EPS ProcSet) 1.0 0
%%Version: 1.0 0
%%Copyright: (Copyright 2002-2003 The Apache Software Foundation. License terms: http://www.apache.org/licenses/LICENSE-2.0)
/BeginEPSF { %def
/b4_Inc_state save def         % Save state for cleanup
/dict_count countdictstack def % Count objects on dict stack
/op_count count 1 sub def      % Count objects on operand stack
userdict begin                 % Push userdict on dict stack
/showpage { } def              % Redefine showpage, { } = null proc
0 setgray 0 setlinecap         % Prepare graphics state
1 setlinewidth 0 setlinejoin
10 setmiterlimit [ ] 0 setdash newpath
/languagelevel where           % If level not equal to 1 then
{pop languagelevel             % set strokeadjust and
1 ne                           % overprint to their defaults.
{false setstrokeadjust false setoverprint
} if
} if
} bd
/EndEPSF { %def
count op_count sub {pop} repeat            % Clean up stacks
countdictstack dict_count sub {end} repeat
b4_Inc_state restore
} bd
%%EndResource
%FOPBeginFontDict
%%IncludeResource: font Courier-Oblique
%%IncludeResource: font Courier-BoldOblique
%%IncludeResource: font Courier-Bold
%%IncludeResource: font ZapfDingbats
%%IncludeResource: font Symbol
%%IncludeResource: font Helvetica
%%IncludeResource: font Helvetica-Oblique
%%IncludeResource: font Helvetica-Bold
%%IncludeResource: font Helvetica-BoldOblique
%%IncludeResource: font Times-Roman
%%IncludeResource: font Times-Italic
%%IncludeResource: font Times-Bold
%%IncludeResource: font Times-BoldItalic
%%IncludeResource: font Courier
%FOPEndFontDict
%%BeginResource: encoding WinAnsiEncoding
/WinAnsiEncoding [
/.notdef /.notdef /.notdef /.notdef /.notdef
/.notdef /.notdef /.notdef /.notdef /.notdef
/.notdef /.notdef /.notdef /.notdef /.notdef
/.notdef /.notdef /.notdef /.notdef /.notdef
/.notdef /.notdef /.notdef /.notdef /.notdef
/.notdef /.notdef /.notdef /.notdef /.notdef
/.notdef /.notdef /space /exclam /quotedbl
/numbersign /dollar /percent /ampersand /quotesingle
/parenleft /parenright /asterisk /plus /comma
/hyphen /period /slash /zero /one
/two /three /four /five /six
/seven /eight /nine /colon /semicolon
/less /equal /greater /question /at
/A /B /C /D /E
/F /G /H /I /J
/K /L /M /N /O
/P /Q /R /S /T
/U /V /W /X /Y
/Z /bracketleft /backslash /bracketright /asciicircum
/underscore /quoteleft /a /b /c
/d /e /f /g /h
/i /j /k /l /m
/n /o /p /q /r
/s /t /u /v /w
/x /y /z /braceleft /bar
/braceright /asciitilde /bullet /Euro /bullet
/quotesinglbase /florin /quotedblbase /ellipsis /dagger
/daggerdbl /circumflex /perthousand /Scaron /guilsinglleft
/OE /bullet /Zcaron /bullet /bullet
/quoteleft /quoteright /quotedblleft /quotedblright /bullet
/endash /emdash /asciitilde /trademark /scaron
/guilsinglright /oe /bullet /zcaron /Ydieresis
/space /exclamdown /cent /sterling /currency
/yen /brokenbar /section /dieresis /copyright
/ordfeminine /guillemotleft /logicalnot /sfthyphen /registered
/macron /degree /plusminus /twosuperior /threesuperior
/acute /mu /paragraph /middot /cedilla
/onesuperior /ordmasculine /guillemotright /onequarter /onehalf
/threequarters /questiondown /Agrave /Aacute /Acircumflex
/Atilde /Adieresis /Aring /AE /Ccedilla
/Egrave /Eacute /Ecircumflex /Edieresis /Igrave
/Iacute /Icircumflex /Idieresis /Eth /Ntilde
/Ograve /Oacute /Ocircumflex /Otilde /Odieresis
/multiply /Oslash /Ugrave /Uacute /Ucircumflex
/Udieresis /Yacute /Thorn /germandbls /agrave
/aacute /acircumflex /atilde /adieresis /aring
/ae /ccedilla /egrave /eacute /ecircumflex
/edieresis /igrave /iacute /icircumflex /idieresis
/eth /ntilde /ograve /oacute /ocircumflex
/otilde /odieresis /divide /oslash /ugrave
/uacute /ucircumflex /udieresis /yacute /thorn
/ydieresis
] def
%%EndResource
%FOPBeginFontReencode
/Courier-Oblique findfont
dup length dict begin
  {1 index /FID ne {def} {pop pop} ifelse} forall
  /Encoding WinAnsiEncoding def
  currentdict
end
/Courier-Oblique exch definefont pop
/Courier-BoldOblique findfont
dup length dict begin
  {1 index /FID ne {def} {pop pop} ifelse} forall
  /Encoding WinAnsiEncoding def
  currentdict
end
/Courier-BoldOblique exch definefont pop
/Courier-Bold findfont
dup length dict begin
  {1 index /FID ne {def} {pop pop} ifelse} forall
  /Encoding WinAnsiEncoding def
  currentdict
end
/Courier-Bold exch definefont pop
/Helvetica findfont
dup length dict begin
  {1 index /FID ne {def} {pop pop} ifelse} forall
  /Encoding WinAnsiEncoding def
  currentdict
end
/Helvetica exch definefont pop
/Helvetica-Oblique findfont
dup length dict begin
  {1 index /FID ne {def} {pop pop} ifelse} forall
  /Encoding WinAnsiEncoding def
  currentdict
end
/Helvetica-Oblique exch definefont pop
/Helvetica-Bold findfont
dup length dict begin
  {1 index /FID ne {def} {pop pop} ifelse} forall
  /Encoding WinAnsiEncoding def
  currentdict
end
/Helvetica-Bold exch definefont pop
/Helvetica-BoldOblique findfont
dup length dict begin
  {1 index /FID ne {def} {pop pop} ifelse} forall
  /Encoding WinAnsiEncoding def
  currentdict
end
/Helvetica-BoldOblique exch definefont pop
/Times-Roman findfont
dup length dict begin
  {1 index /FID ne {def} {pop pop} ifelse} forall
  /Encoding WinAnsiEncoding def
  currentdict
end
/Times-Roman exch definefont pop
/Times-Italic findfont
dup length dict begin
  {1 index /FID ne {def} {pop pop} ifelse} forall
  /Encoding WinAnsiEncoding def
  currentdict
end
/Times-Italic exch definefont pop
/Times-Bold findfont
dup length dict begin
  {1 index /FID ne {def} {pop pop} ifelse} forall
  /Encoding WinAnsiEncoding def
  currentdict
end
/Times-Bold exch definefont pop
/Times-BoldItalic findfont
dup length dict begin
  {1 index /FID ne {def} {pop pop} ifelse} forall
  /Encoding WinAnsiEncoding def
  currentdict
end
/Times-BoldItalic exch definefont pop
/Courier findfont
dup length dict begin
  {1 index /FID ne {def} {pop pop} ifelse} forall
  /Encoding WinAnsiEncoding def
  currentdict
end
/Courier exch definefont pop
%FOPEndFontReencode
%%EndProlog
%%Page: 1 1
%%PageBoundingBox: 0 0 1120 840
%%BeginPageSetup
[1 0 0 -1 0 840] CT
%%EndPageSetup
GS
1 GC
N
0 0 1120 840 re
f
GR
GS
1 GC
N
73 374 M
507 374 L
507 31.5 L
73 31.5 L
cp
f
GR
GS
0.149 GC
2 setlinecap
1 LJ
0.5 LW
N
73 374 M
507 374 L
S
GR
GS
0.149 GC
2 setlinecap
1 LJ
0.5 LW
N
73 31.5 M
507 31.5 L
S
GR
GS
0.149 GC
2 setlinecap
1 LJ
0.5 LW
N
119.383 374 M
119.383 369.66 L
S
GR
GS
0.149 GC
2 setlinecap
1 LJ
0.5 LW
N
183.379 374 M
183.379 369.66 L
S
GR
GS
0.149 GC
2 setlinecap
1 LJ
0.5 LW
N
247.375 374 M
247.375 369.66 L
S
GR
GS
0.149 GC
2 setlinecap
1 LJ
0.5 LW
N
311.371 374 M
311.371 369.66 L
S
GR
GS
0.149 GC
2 setlinecap
1 LJ
0.5 LW
N
375.367 374 M
375.367 369.66 L
S
GR
GS
0.149 GC
2 setlinecap
1 LJ
0.5 LW
N
439.363 374 M
439.363 369.66 L
S
GR
GS
0.149 GC
2 setlinecap
1 LJ
0.5 LW
N
503.359 374 M
503.359 369.66 L
S
GR
GS
0.149 GC
2 setlinecap
1 LJ
0.5 LW
N
119.383 31.5 M
119.383 35.84 L
S
GR
GS
0.149 GC
2 setlinecap
1 LJ
0.5 LW
N
183.379 31.5 M
183.379 35.84 L
S
GR
GS
0.149 GC
2 setlinecap
1 LJ
0.5 LW
N
247.375 31.5 M
247.375 35.84 L
S
GR
GS
0.149 GC
2 setlinecap
1 LJ
0.5 LW
N
311.371 31.5 M
311.371 35.84 L
S
GR
GS
0.149 GC
2 setlinecap
1 LJ
0.5 LW
N
375.367 31.5 M
375.367 35.84 L
S
GR
GS
0.149 GC
2 setlinecap
1 LJ
0.5 LW
N
439.363 31.5 M
439.363 35.84 L
S
GR
GS
0.149 GC
2 setlinecap
1 LJ
0.5 LW
N
503.359 31.5 M
503.359 35.84 L
S
GR
GS
0.149 GC
2 setlinecap
1 LJ
0.5 LW
N
80.986 374 M
80.986 371.83 L
S
GR
GS
0.149 GC
2 setlinecap
1 LJ
0.5 LW
N
93.785 374 M
93.785 371.83 L
S
GR
GS
0.149 GC
2 setlinecap
1 LJ
0.5 LW
N
106.584 374 M
106.584 371.83 L
S
GR
GS
0.149 GC
2 setlinecap
1 LJ
0.5 LW
N
132.182 374 M
132.182 371.83 L
S
GR
GS
0.149 GC
2 setlinecap
1 LJ
0.5 LW
N
144.981 374 M
144.981 371.83 L
S
GR
GS
0.149 GC
2 setlinecap
1 LJ
0.5 LW
N
157.781 374 M
157.781 371.83 L
S
GR
GS
0.149 GC
2 setlinecap
1 LJ
0.5 LW
N
170.58 374 M
170.58 371.83 L
S
GR
GS
0.149 GC
2 setlinecap
1 LJ
0.5 LW
N
196.178 374 M
196.178 371.83 L
S
GR
GS
0.149 GC
2 setlinecap
1 LJ
0.5 LW
N
208.977 374 M
208.977 371.83 L
S
GR
GS
0.149 GC
2 setlinecap
1 LJ
0.5 LW
N
221.777 374 M
221.777 371.83 L
S
GR
GS
0.149 GC
2 setlinecap
1 LJ
0.5 LW
N
234.576 374 M
234.576 371.83 L
S
GR
GS
0.149 GC
2 setlinecap
1 LJ
0.5 LW
N
260.174 374 M
260.174 371.83 L
S
GR
GS
0.149 GC
2 setlinecap
1 LJ
0.5 LW
N
272.973 374 M
272.973 371.83 L
S
GR
GS
0.149 GC
2 setlinecap
1 LJ
0.5 LW
N
285.773 374 M
285.773 371.83 L
S
GR
GS
0.149 GC
2 setlinecap
1 LJ
0.5 LW
N
298.572 374 M
298.572 371.83 L
S
GR
GS
0.149 GC
2 setlinecap
1 LJ
0.5 LW
N
324.17 374 M
324.17 371.83 L
S
GR
GS
0.149 GC
2 setlinecap
1 LJ
0.5 LW
N
336.969 374 M
336.969 371.83 L
S
GR
GS
0.149 GC
2 setlinecap
1 LJ
0.5 LW
N
349.769 374 M
349.769 371.83 L
S
GR
GS
0.149 GC
2 setlinecap
1 LJ
0.5 LW
N
362.568 374 M
362.568 371.83 L
S
GR
GS
0.149 GC
2 setlinecap
1 LJ
0.5 LW
N
388.166 374 M
388.166 371.83 L
S
GR
GS
0.149 GC
2 setlinecap
1 LJ
0.5 LW
N
400.965 374 M
400.965 371.83 L
S
GR
GS
0.149 GC
2 setlinecap
1 LJ
0.5 LW
N
413.765 374 M
413.765 371.83 L
S
GR
GS
0.149 GC
2 setlinecap
1 LJ
0.5 LW
N
426.564 374 M
426.564 371.83 L
S
GR
GS
0.149 GC
2 setlinecap
1 LJ
0.5 LW
N
452.162 374 M
452.162 371.83 L
S
GR
GS
0.149 GC
2 setlinecap
1 LJ
0.5 LW
N
464.961 374 M
464.961 371.83 L
S
GR
GS
0.149 GC
2 setlinecap
1 LJ
0.5 LW
N
477.761 374 M
477.761 371.83 L
S
GR
GS
0.149 GC
2 setlinecap
1 LJ
0.5 LW
N
490.56 374 M
490.56 371.83 L
S
GR
GS
0.149 GC
2 setlinecap
1 LJ
0.5 LW
N
80.986 31.5 M
80.986 33.67 L
S
GR
GS
0.149 GC
2 setlinecap
1 LJ
0.5 LW
N
93.785 31.5 M
93.785 33.67 L
S
GR
GS
0.149 GC
2 setlinecap
1 LJ
0.5 LW
N
106.584 31.5 M
106.584 33.67 L
S
GR
GS
0.149 GC
2 setlinecap
1 LJ
0.5 LW
N
132.182 31.5 M
132.182 33.67 L
S
GR
GS
0.149 GC
2 setlinecap
1 LJ
0.5 LW
N
144.981 31.5 M
144.981 33.67 L
S
GR
GS
0.149 GC
2 setlinecap
1 LJ
0.5 LW
N
157.781 31.5 M
157.781 33.67 L
S
GR
GS
0.149 GC
2 setlinecap
1 LJ
0.5 LW
N
170.58 31.5 M
170.58 33.67 L
S
GR
GS
0.149 GC
2 setlinecap
1 LJ
0.5 LW
N
196.178 31.5 M
196.178 33.67 L
S
GR
GS
0.149 GC
2 setlinecap
1 LJ
0.5 LW
N
208.977 31.5 M
208.977 33.67 L
S
GR
GS
0.149 GC
2 setlinecap
1 LJ
0.5 LW
N
221.777 31.5 M
221.777 33.67 L
S
GR
GS
0.149 GC
2 setlinecap
1 LJ
0.5 LW
N
234.576 31.5 M
234.576 33.67 L
S
GR
GS
0.149 GC
2 setlinecap
1 LJ
0.5 LW
N
260.174 31.5 M
260.174 33.67 L
S
GR
GS
0.149 GC
2 setlinecap
1 LJ
0.5 LW
N
272.973 31.5 M
272.973 33.67 L
S
GR
GS
0.149 GC
2 setlinecap
1 LJ
0.5 LW
N
285.773 31.5 M
285.773 33.67 L
S
GR
GS
0.149 GC
2 setlinecap
1 LJ
0.5 LW
N
298.572 31.5 M
298.572 33.67 L
S
GR
GS
0.149 GC
2 setlinecap
1 LJ
0.5 LW
N
324.17 31.5 M
324.17 33.67 L
S
GR
GS
0.149 GC
2 setlinecap
1 LJ
0.5 LW
N
336.969 31.5 M
336.969 33.67 L
S
GR
GS
0.149 GC
2 setlinecap
1 LJ
0.5 LW
N
349.769 31.5 M
349.769 33.67 L
S
GR
GS
0.149 GC
2 setlinecap
1 LJ
0.5 LW
N
362.568 31.5 M
362.568 33.67 L
S
GR
GS
0.149 GC
2 setlinecap
1 LJ
0.5 LW
N
388.166 31.5 M
388.166 33.67 L
S
GR
GS
0.149 GC
2 setlinecap
1 LJ
0.5 LW
N
400.965 31.5 M
400.965 33.67 L
S
GR
GS
0.149 GC
2 setlinecap
1 LJ
0.5 LW
N
413.765 31.5 M
413.765 33.67 L
S
GR
GS
0.149 GC
2 setlinecap
1 LJ
0.5 LW
N
426.564 31.5 M
426.564 33.67 L
S
GR
GS
0.149 GC
2 setlinecap
1 LJ
0.5 LW
N
452.162 31.5 M
452.162 33.67 L
S
GR
GS
0.149 GC
2 setlinecap
1 LJ
0.5 LW
N
464.961 31.5 M
464.961 33.67 L
S
GR
GS
0.149 GC
2 setlinecap
1 LJ
0.5 LW
N
477.761 31.5 M
477.761 33.67 L
S
GR
GS
0.149 GC
2 setlinecap
1 LJ
0.5 LW
N
490.56 31.5 M
490.56 33.67 L
S
GR
GS
[1 0 0 1 119.38309 378.79996] CT
0.149 GC
/Helvetica 14 F
GS
[1 0 0 1 0 0] CT
-16 14 moveto 
1 -1 scale
(1000) t 
GR
GR
GS
[1 0 0 1 183.37907 378.79996] CT
0.149 GC
/Helvetica 14 F
GS
[1 0 0 1 0 0] CT
-16 14 moveto 
1 -1 scale
(2000) t 
GR
GR
GS
[1 0 0 1 247.37505 378.79996] CT
0.149 GC
/Helvetica 14 F
GS
[1 0 0 1 0 0] CT
-16 14 moveto 
1 -1 scale
(3000) t 
GR
GR
GS
[1 0 0 1 311.371 378.79996] CT
0.149 GC
/Helvetica 14 F
GS
[1 0 0 1 0 0] CT
-16 14 moveto 
1 -1 scale
(4000) t 
GR
GR
GS
[1 0 0 1 375.36697 378.79996] CT
0.149 GC
/Helvetica 14 F
GS
[1 0 0 1 0 0] CT
-16 14 moveto 
1 -1 scale
(5000) t 
GR
GR
GS
[1 0 0 1 439.36295 378.79996] CT
0.149 GC
/Helvetica 14 F
GS
[1 0 0 1 0 0] CT
-16 14 moveto 
1 -1 scale
(6000) t 
GR
GR
GS
[1 0 0 1 503.35892 378.79996] CT
0.149 GC
/Helvetica 14 F
GS
[1 0 0 1 0 0] CT
-16 14 moveto 
1 -1 scale
(7000) t 
GR
GR
GS
[1 0 0 1 290.00021 396.29999] CT
0.149 GC
/Helvetica 15.4 F
GS
[1 0 0 1 0 0] CT
-42 15 moveto 
1 -1 scale
(Bitrate\(kb/s\)) t 
GR
GR
GS
0.149 GC
2 setlinecap
1 LJ
0.5 LW
N
73 374 M
73 31.5 L
S
GR
GS
0.149 GC
2 setlinecap
1 LJ
0.5 LW
N
507 374 M
507 31.5 L
S
GR
GS
0.149 GC
2 setlinecap
1 LJ
0.5 LW
N
73 366.002 M
77.34 366.002 L
S
GR
GS
0.149 GC
2 setlinecap
1 LJ
0.5 LW
N
73 329.093 M
77.34 329.093 L
S
GR
GS
0.149 GC
2 setlinecap
1 LJ
0.5 LW
N
73 292.184 M
77.34 292.184 L
S
GR
GS
0.149 GC
2 setlinecap
1 LJ
0.5 LW
N
73 255.274 M
77.34 255.274 L
S
GR
GS
0.149 GC
2 setlinecap
1 LJ
0.5 LW
N
73 218.365 M
77.34 218.365 L
S
GR
GS
0.149 GC
2 setlinecap
1 LJ
0.5 LW
N
73 181.456 M
77.34 181.456 L
S
GR
GS
0.149 GC
2 setlinecap
1 LJ
0.5 LW
N
73 144.547 M
77.34 144.547 L
S
GR
GS
0.149 GC
2 setlinecap
1 LJ
0.5 LW
N
73 107.637 M
77.34 107.637 L
S
GR
GS
0.149 GC
2 setlinecap
1 LJ
0.5 LW
N
73 70.728 M
77.34 70.728 L
S
GR
GS
0.149 GC
2 setlinecap
1 LJ
0.5 LW
N
73 33.819 M
77.34 33.819 L
S
GR
GS
0.149 GC
2 setlinecap
1 LJ
0.5 LW
N
507 366.002 M
502.66 366.002 L
S
GR
GS
0.149 GC
2 setlinecap
1 LJ
0.5 LW
N
507 329.093 M
502.66 329.093 L
S
GR
GS
0.149 GC
2 setlinecap
1 LJ
0.5 LW
N
507 292.184 M
502.66 292.184 L
S
GR
GS
0.149 GC
2 setlinecap
1 LJ
0.5 LW
N
507 255.274 M
502.66 255.274 L
S
GR
GS
0.149 GC
2 setlinecap
1 LJ
0.5 LW
N
507 218.365 M
502.66 218.365 L
S
GR
GS
0.149 GC
2 setlinecap
1 LJ
0.5 LW
N
507 181.456 M
502.66 181.456 L
S
GR
GS
0.149 GC
2 setlinecap
1 LJ
0.5 LW
N
507 144.547 M
502.66 144.547 L
S
GR
GS
0.149 GC
2 setlinecap
1 LJ
0.5 LW
N
507 107.637 M
502.66 107.637 L
S
GR
GS
0.149 GC
2 setlinecap
1 LJ
0.5 LW
N
507 70.728 M
502.66 70.728 L
S
GR
GS
0.149 GC
2 setlinecap
1 LJ
0.5 LW
N
507 33.819 M
502.66 33.819 L
S
GR
GS
0.149 GC
2 setlinecap
1 LJ
0.5 LW
N
73 373.384 M
75.17 373.384 L
S
GR
GS
0.149 GC
2 setlinecap
1 LJ
0.5 LW
N
73 358.62 M
75.17 358.62 L
S
GR
GS
0.149 GC
2 setlinecap
1 LJ
0.5 LW
N
73 351.238 M
75.17 351.238 L
S
GR
GS
0.149 GC
2 setlinecap
1 LJ
0.5 LW
N
73 343.857 M
75.17 343.857 L
S
GR
GS
0.149 GC
2 setlinecap
1 LJ
0.5 LW
N
73 336.475 M
75.17 336.475 L
S
GR
GS
0.149 GC
2 setlinecap
1 LJ
0.5 LW
N
73 321.711 M
75.17 321.711 L
S
GR
GS
0.149 GC
2 setlinecap
1 LJ
0.5 LW
N
73 314.329 M
75.17 314.329 L
S
GR
GS
0.149 GC
2 setlinecap
1 LJ
0.5 LW
N
73 306.947 M
75.17 306.947 L
S
GR
GS
0.149 GC
2 setlinecap
1 LJ
0.5 LW
N
73 299.566 M
75.17 299.566 L
S
GR
GS
0.149 GC
2 setlinecap
1 LJ
0.5 LW
N
73 284.802 M
75.17 284.802 L
S
GR
GS
0.149 GC
2 setlinecap
1 LJ
0.5 LW
N
73 277.42 M
75.17 277.42 L
S
GR
GS
0.149 GC
2 setlinecap
1 LJ
0.5 LW
N
73 270.038 M
75.17 270.038 L
S
GR
GS
0.149 GC
2 setlinecap
1 LJ
0.5 LW
N
73 262.656 M
75.17 262.656 L
S
GR
GS
0.149 GC
2 setlinecap
1 LJ
0.5 LW
N
73 247.893 M
75.17 247.893 L
S
GR
GS
0.149 GC
2 setlinecap
1 LJ
0.5 LW
N
73 240.511 M
75.17 240.511 L
S
GR
GS
0.149 GC
2 setlinecap
1 LJ
0.5 LW
N
73 233.129 M
75.17 233.129 L
S
GR
GS
0.149 GC
2 setlinecap
1 LJ
0.5 LW
N
73 225.747 M
75.17 225.747 L
S
GR
GS
0.149 GC
2 setlinecap
1 LJ
0.5 LW
N
73 210.983 M
75.17 210.983 L
S
GR
GS
0.149 GC
2 setlinecap
1 LJ
0.5 LW
N
73 203.601 M
75.17 203.601 L
S
GR
GS
0.149 GC
2 setlinecap
1 LJ
0.5 LW
N
73 196.22 M
75.17 196.22 L
S
GR
GS
0.149 GC
2 setlinecap
1 LJ
0.5 LW
N
73 188.838 M
75.17 188.838 L
S
GR
GS
0.149 GC
2 setlinecap
1 LJ
0.5 LW
N
73 174.074 M
75.17 174.074 L
S
GR
GS
0.149 GC
2 setlinecap
1 LJ
0.5 LW
N
73 166.692 M
75.17 166.692 L
S
GR
GS
0.149 GC
2 setlinecap
1 LJ
0.5 LW
N
73 159.31 M
75.17 159.31 L
S
GR
GS
0.149 GC
2 setlinecap
1 LJ
0.5 LW
N
73 151.929 M
75.17 151.929 L
S
GR
GS
0.149 GC
2 setlinecap
1 LJ
0.5 LW
N
73 137.165 M
75.17 137.165 L
S
GR
GS
0.149 GC
2 setlinecap
1 LJ
0.5 LW
N
73 129.783 M
75.17 129.783 L
S
GR
GS
0.149 GC
2 setlinecap
1 LJ
0.5 LW
N
73 122.401 M
75.17 122.401 L
S
GR
GS
0.149 GC
2 setlinecap
1 LJ
0.5 LW
N
73 115.019 M
75.17 115.019 L
S
GR
GS
0.149 GC
2 setlinecap
1 LJ
0.5 LW
N
73 100.256 M
75.17 100.256 L
S
GR
GS
0.149 GC
2 setlinecap
1 LJ
0.5 LW
N
73 92.874 M
75.17 92.874 L
S
GR
GS
0.149 GC
2 setlinecap
1 LJ
0.5 LW
N
73 85.492 M
75.17 85.492 L
S
GR
GS
0.149 GC
2 setlinecap
1 LJ
0.5 LW
N
73 78.11 M
75.17 78.11 L
S
GR
GS
0.149 GC
2 setlinecap
1 LJ
0.5 LW
N
73 63.346 M
75.17 63.346 L
S
GR
GS
0.149 GC
2 setlinecap
1 LJ
0.5 LW
N
73 55.964 M
75.17 55.964 L
S
GR
GS
0.149 GC
2 setlinecap
1 LJ
0.5 LW
N
73 48.583 M
75.17 48.583 L
S
GR
GS
0.149 GC
2 setlinecap
1 LJ
0.5 LW
N
73 41.201 M
75.17 41.201 L
S
GR
GS
0.149 GC
2 setlinecap
1 LJ
0.5 LW
N
507 373.384 M
504.83 373.384 L
S
GR
GS
0.149 GC
2 setlinecap
1 LJ
0.5 LW
N
507 358.62 M
504.83 358.62 L
S
GR
GS
0.149 GC
2 setlinecap
1 LJ
0.5 LW
N
507 351.238 M
504.83 351.238 L
S
GR
GS
0.149 GC
2 setlinecap
1 LJ
0.5 LW
N
507 343.857 M
504.83 343.857 L
S
GR
GS
0.149 GC
2 setlinecap
1 LJ
0.5 LW
N
507 336.475 M
504.83 336.475 L
S
GR
GS
0.149 GC
2 setlinecap
1 LJ
0.5 LW
N
507 321.711 M
504.83 321.711 L
S
GR
GS
0.149 GC
2 setlinecap
1 LJ
0.5 LW
N
507 314.329 M
504.83 314.329 L
S
GR
GS
0.149 GC
2 setlinecap
1 LJ
0.5 LW
N
507 306.947 M
504.83 306.947 L
S
GR
GS
0.149 GC
2 setlinecap
1 LJ
0.5 LW
N
507 299.566 M
504.83 299.566 L
S
GR
GS
0.149 GC
2 setlinecap
1 LJ
0.5 LW
N
507 284.802 M
504.83 284.802 L
S
GR
GS
0.149 GC
2 setlinecap
1 LJ
0.5 LW
N
507 277.42 M
504.83 277.42 L
S
GR
GS
0.149 GC
2 setlinecap
1 LJ
0.5 LW
N
507 270.038 M
504.83 270.038 L
S
GR
GS
0.149 GC
2 setlinecap
1 LJ
0.5 LW
N
507 262.656 M
504.83 262.656 L
S
GR
GS
0.149 GC
2 setlinecap
1 LJ
0.5 LW
N
507 247.893 M
504.83 247.893 L
S
GR
GS
0.149 GC
2 setlinecap
1 LJ
0.5 LW
N
507 240.511 M
504.83 240.511 L
S
GR
GS
0.149 GC
2 setlinecap
1 LJ
0.5 LW
N
507 233.129 M
504.83 233.129 L
S
GR
GS
0.149 GC
2 setlinecap
1 LJ
0.5 LW
N
507 225.747 M
504.83 225.747 L
S
GR
GS
0.149 GC
2 setlinecap
1 LJ
0.5 LW
N
507 210.983 M
504.83 210.983 L
S
GR
GS
0.149 GC
2 setlinecap
1 LJ
0.5 LW
N
507 203.601 M
504.83 203.601 L
S
GR
GS
0.149 GC
2 setlinecap
1 LJ
0.5 LW
N
507 196.22 M
504.83 196.22 L
S
GR
GS
0.149 GC
2 setlinecap
1 LJ
0.5 LW
N
507 188.838 M
504.83 188.838 L
S
GR
GS
0.149 GC
2 setlinecap
1 LJ
0.5 LW
N
507 174.074 M
504.83 174.074 L
S
GR
GS
0.149 GC
2 setlinecap
1 LJ
0.5 LW
N
507 166.692 M
504.83 166.692 L
S
GR
GS
0.149 GC
2 setlinecap
1 LJ
0.5 LW
N
507 159.31 M
504.83 159.31 L
S
GR
GS
0.149 GC
2 setlinecap
1 LJ
0.5 LW
N
507 151.929 M
504.83 151.929 L
S
GR
GS
0.149 GC
2 setlinecap
1 LJ
0.5 LW
N
507 137.165 M
504.83 137.165 L
S
GR
GS
0.149 GC
2 setlinecap
1 LJ
0.5 LW
N
507 129.783 M
504.83 129.783 L
S
GR
GS
0.149 GC
2 setlinecap
1 LJ
0.5 LW
N
507 122.401 M
504.83 122.401 L
S
GR
GS
0.149 GC
2 setlinecap
1 LJ
0.5 LW
N
507 115.019 M
504.83 115.019 L
S
GR
GS
0.149 GC
2 setlinecap
1 LJ
0.5 LW
N
507 100.256 M
504.83 100.256 L
S
GR
GS
0.149 GC
2 setlinecap
1 LJ
0.5 LW
N
507 92.874 M
504.83 92.874 L
S
GR
GS
0.149 GC
2 setlinecap
1 LJ
0.5 LW
N
507 85.492 M
504.83 85.492 L
S
GR
GS
0.149 GC
2 setlinecap
1 LJ
0.5 LW
N
507 78.11 M
504.83 78.11 L
S
GR
GS
0.149 GC
2 setlinecap
1 LJ
0.5 LW
N
507 63.346 M
504.83 63.346 L
S
GR
GS
0.149 GC
2 setlinecap
1 LJ
0.5 LW
N
507 55.964 M
504.83 55.964 L
S
GR
GS
0.149 GC
2 setlinecap
1 LJ
0.5 LW
N
507 48.583 M
504.83 48.583 L
S
GR
GS
0.149 GC
2 setlinecap
1 LJ
0.5 LW
N
507 41.201 M
504.83 41.201 L
S
GR
GS
[1 0 0 1 68.2 366.00217] CT
0.149 GC
/Helvetica 14 F
GS
[1 0 0 1 0 0] CT
-16 5.5 moveto 
1 -1 scale
(35) t 
GR
GR
GS
[1 0 0 1 68.2 329.09293] CT
0.149 GC
/Helvetica 14 F
GS
[1 0 0 1 0 0] CT
-16 5.5 moveto 
1 -1 scale
(36) t 
GR
GR
GS
[1 0 0 1 68.2 292.18365] CT
0.149 GC
/Helvetica 14 F
GS
[1 0 0 1 0 0] CT
-16 5.5 moveto 
1 -1 scale
(37) t 
GR
GR
GS
[1 0 0 1 68.2 255.2744] CT
0.149 GC
/Helvetica 14 F
GS
[1 0 0 1 0 0] CT
-16 5.5 moveto 
1 -1 scale
(38) t 
GR
GR
GS
[1 0 0 1 68.2 218.36514] CT
0.149 GC
/Helvetica 14 F
GS
[1 0 0 1 0 0] CT
-16 5.5 moveto 
1 -1 scale
(39) t 
GR
GR
GS
[1 0 0 1 68.2 181.45589] CT
0.149 GC
/Helvetica 14 F
GS
[1 0 0 1 0 0] CT
-16 5.5 moveto 
1 -1 scale
(40) t 
GR
GR
GS
[1 0 0 1 68.2 144.54663] CT
0.149 GC
/Helvetica 14 F
GS
[1 0 0 1 0 0] CT
-16 5.5 moveto 
1 -1 scale
(41) t 
GR
GR
GS
[1 0 0 1 68.2 107.63738] CT
0.149 GC
/Helvetica 14 F
GS
[1 0 0 1 0 0] CT
-16 5.5 moveto 
1 -1 scale
(42) t 
GR
GR
GS
[1 0 0 1 68.2 70.72813] CT
0.149 GC
/Helvetica 14 F
GS
[1 0 0 1 0 0] CT
-16 5.5 moveto 
1 -1 scale
(43) t 
GR
GR
GS
[1 0 0 1 68.2 33.81887] CT
0.149 GC
/Helvetica 14 F
GS
[1 0 0 1 0 0] CT
-16 5.5 moveto 
1 -1 scale
(44) t 
GR
GR
GS
[0 -1 1 0 49.2 202.74985] CT
0.149 GC
/Helvetica 15.4 F
GS
[1 0 0 1 0 0] CT
-62.5 -4 moveto 
1 -1 scale
(PSNR-HVS Y \(dB\)) t 
GR
GR
GS
[1 0 0 1 290.00027 29.57495] CT
/Helvetica-Bold 15.4 F
GS
[1 0 0 1 0 0] CT
-108 -4 moveto 
1 -1 scale
(Lecture_1080P-3ce0.y4m-av1) t 
GR
GR
GS
0 0.447 0.741 RC
1 LJ
0.5 LW
N
74.453 358.122 M
75.733 347.221 L
77.013 336.343 L
78.293 325.62 L
79.573 315.186 L
80.853 305.176 L
82.133 295.723 L
83.412 286.96 L
84.692 279.021 L
85.972 272.04 L
87.252 266.15 L
88.532 261.235 L
89.812 256.577 L
91.092 252.114 L
92.372 247.84 L
93.652 243.749 L
94.932 239.832 L
96.212 236.085 L
97.492 232.499 L
98.771 229.067 L
100.051 225.784 L
101.331 222.642 L
102.611 219.634 L
103.891 216.754 L
105.171 213.994 L
106.451 211.348 L
107.731 208.809 L
109.011 206.37 L
110.291 204.025 L
111.571 201.765 L
112.851 199.586 L
114.131 197.479 L
115.41 195.438 L
116.69 193.456 L
117.97 191.526 L
119.25 189.64 L
120.53 187.781 L
121.81 185.946 L
123.09 184.135 L
124.37 182.349 L
125.65 180.587 L
126.93 178.849 L
128.21 177.135 L
129.49 175.446 L
130.769 173.78 L
132.049 172.138 L
133.329 170.521 L
134.609 168.927 L
135.889 167.357 L
137.169 165.81 L
138.449 164.288 L
139.729 162.789 L
141.009 161.314 L
142.289 159.862 L
143.569 158.434 L
144.849 157.029 L
146.128 155.648 L
147.408 154.29 L
148.688 152.955 L
149.968 151.643 L
151.248 150.355 L
152.528 149.09 L
153.808 147.848 L
155.088 146.629 L
156.368 145.433 L
157.648 144.26 L
158.928 143.109 L
160.208 141.982 L
161.488 140.877 L
162.767 139.795 L
164.047 138.736 L
165.327 137.7 L
166.607 136.685 L
167.887 135.694 L
169.167 134.725 L
170.447 133.778 L
171.727 132.854 L
173.007 131.952 L
174.287 131.072 L
175.567 130.215 L
176.847 129.379 L
178.126 128.566 L
179.406 127.775 L
180.686 127.006 L
181.966 126.258 L
183.246 125.533 L
184.526 124.829 L
185.806 124.148 L
187.086 123.482 L
188.366 122.819 L
189.646 122.158 L
190.926 121.498 L
192.206 120.84 L
193.486 120.183 L
194.765 119.528 L
196.045 118.874 L
197.325 118.222 L
198.605 117.571 L
199.885 116.923 L
201.165 116.276 L
202.445 115.63 L
203.725 114.986 L
205.005 114.344 L
206.285 113.704 L
207.565 113.065 L
208.845 112.428 L
210.124 111.793 L
211.404 111.159 L
212.684 110.528 L
213.964 109.898 L
215.244 109.27 L
216.524 108.643 L
217.804 108.019 L
219.084 107.396 L
220.364 106.775 L
221.644 106.156 L
222.924 105.539 L
224.204 104.923 L
225.483 104.31 L
226.763 103.698 L
228.043 103.088 L
229.323 102.481 L
230.603 101.875 L
231.883 101.271 L
233.163 100.669 L
234.443 100.069 L
235.723 99.472 L
237.003 98.876 L
238.283 98.282 L
239.563 97.69 L
240.843 97.1 L
242.122 96.512 L
243.402 95.927 L
244.682 95.343 L
245.962 94.761 L
247.242 94.182 L
248.522 93.604 L
249.802 93.029 L
251.082 92.456 L
252.362 91.885 L
253.642 91.317 L
254.922 90.75 L
256.202 90.186 L
257.481 89.623 L
258.761 89.063 L
260.041 88.506 L
261.321 87.95 L
262.601 87.397 L
263.881 86.846 L
265.161 86.297 L
266.441 85.751 L
267.721 85.207 L
269.001 84.665 L
270.281 84.126 L
271.561 83.589 L
272.841 83.054 L
274.12 82.521 L
275.4 81.992 L
276.68 81.464 L
277.96 80.939 L
279.24 80.416 L
280.52 79.896 L
281.8 79.378 L
283.08 78.862 L
284.36 78.349 L
285.64 77.839 L
286.92 77.331 L
288.2 76.825 L
289.479 76.322 L
290.759 75.822 L
292.039 75.324 L
293.319 74.829 L
294.599 74.336 L
295.879 73.846 L
297.159 73.359 L
298.439 72.873 L
299.719 72.391 L
300.999 71.912 L
302.279 71.435 L
303.559 70.96 L
304.839 70.488 L
306.118 70.019 L
307.398 69.553 L
308.678 69.09 L
309.958 68.629 L
311.238 68.171 L
312.518 67.715 L
313.798 67.263 L
315.078 66.813 L
316.358 66.366 L
317.638 65.921 L
318.918 65.48 L
320.198 65.041 L
321.477 64.606 L
322.757 64.173 L
324.037 63.743 L
325.317 63.315 L
326.597 62.891 L
327.877 62.47 L
329.157 62.051 L
330.437 61.636 L
331.717 61.223 L
332.997 60.814 L
334.277 60.407 L
335.557 60.003 L
336.836 59.602 L
338.116 59.205 L
339.396 58.81 L
340.676 58.418 L
341.956 58.03 L
343.236 57.644 L
344.516 57.262 L
345.796 56.882 L
347.076 56.506 L
348.356 56.133 L
349.636 55.763 L
350.916 55.396 L
352.195 55.032 L
353.475 54.671 L
354.755 54.314 L
356.035 53.96 L
357.315 53.609 L
358.595 53.261 L
359.875 52.916 L
361.155 52.575 L
362.435 52.236 L
363.715 51.902 L
364.995 51.57 L
366.275 51.241 L
367.555 50.916 L
368.834 50.595 L
370.114 50.276 L
371.394 49.961 L
372.674 49.649 L
373.954 49.341 L
375.234 49.036 L
376.514 48.734 L
377.794 48.436 L
379.074 48.141 L
380.354 47.85 L
381.634 47.562 L
382.914 47.277 L
384.193 46.996 L
385.473 46.719 L
386.753 46.445 L
388.033 46.174 L
389.313 45.907 L
390.593 45.643 L
391.873 45.383 L
393.153 45.127 L
394.433 44.874 L
395.713 44.625 L
396.993 44.379 L
398.273 44.137 L
399.553 43.898 L
400.832 43.664 L
402.112 43.432 L
403.392 43.205 L
404.672 42.981 L
405.952 42.761 L
407.232 42.544 L
408.512 42.331 L
409.792 42.122 L
411.072 41.917 L
412.352 41.715 L
413.632 41.517 L
414.912 41.323 L
416.191 41.133 L
417.471 40.946 L
418.751 40.763 L
420.031 40.584 L
421.311 40.409 L
422.591 40.238 L
423.871 40.071 L
425.151 39.907 L
426.431 39.748 L
427.711 39.592 L
428.991 39.44 L
430.271 39.292 L
431.551 39.148 L
432.83 39.008 L
434.11 38.872 L
435.39 38.74 L
436.67 38.612 L
437.95 38.488 L
439.23 38.367 L
440.51 38.251 L
441.79 38.139 L
443.07 38.031 L
444.35 37.927 L
445.63 37.828 L
446.91 37.732 L
448.189 37.64 L
449.469 37.552 L
450.749 37.469 L
452.029 37.39 L
453.309 37.314 L
454.589 37.243 L
455.869 37.177 L
457.149 37.114 L
458.429 37.056 L
459.709 37.001 L
460.989 36.951 L
462.269 36.905 L
463.548 36.864 L
464.828 36.827 L
466.108 36.794 L
467.388 36.765 L
468.668 36.741 L
469.948 36.721 L
471.228 36.705 L
472.508 36.693 L
473.788 36.686 L
475.068 36.684 L
S
GR
GS
0.851 0.325 0.098 RC
1 LJ
0.5 LW
N
74.383 358.427 M
75.663 347.45 L
76.943 336.499 L
78.223 325.713 L
79.503 315.232 L
80.783 305.197 L
82.063 295.748 L
83.343 287.024 L
84.623 279.167 L
85.903 272.315 L
87.183 266.61 L
88.463 261.68 L
89.743 256.954 L
91.022 252.426 L
92.302 248.087 L
93.582 243.931 L
94.862 239.953 L
96.142 236.145 L
97.422 232.5 L
98.702 229.011 L
99.982 225.673 L
101.262 222.479 L
102.542 219.421 L
103.822 216.494 L
105.102 213.69 L
106.381 211.003 L
107.661 208.426 L
108.941 205.953 L
110.221 203.576 L
111.501 201.29 L
112.781 199.088 L
114.061 196.962 L
115.341 194.907 L
116.621 192.915 L
117.901 190.98 L
119.181 189.083 L
120.461 187.212 L
121.741 185.367 L
123.02 183.548 L
124.3 181.754 L
125.58 179.987 L
126.86 178.244 L
128.14 176.528 L
129.42 174.837 L
130.7 173.171 L
131.98 171.53 L
133.26 169.915 L
134.54 168.325 L
135.82 166.759 L
137.1 165.219 L
138.379 163.703 L
139.659 162.212 L
140.939 160.746 L
142.219 159.303 L
143.499 157.886 L
144.779 156.493 L
146.059 155.124 L
147.339 153.779 L
148.619 152.458 L
149.899 151.161 L
151.179 149.888 L
152.459 148.639 L
153.738 147.413 L
155.018 146.211 L
156.298 145.032 L
157.578 143.877 L
158.858 142.745 L
160.138 141.636 L
161.418 140.551 L
162.698 139.488 L
163.978 138.448 L
165.258 137.431 L
166.538 136.437 L
167.818 135.465 L
169.098 134.516 L
170.377 133.59 L
171.657 132.685 L
172.937 131.803 L
174.217 130.943 L
175.497 130.106 L
176.777 129.29 L
178.057 128.496 L
179.337 127.724 L
180.617 126.973 L
181.897 126.244 L
183.177 125.537 L
184.457 124.851 L
185.736 124.18 L
187.016 123.51 L
188.296 122.841 L
189.576 122.174 L
190.856 121.509 L
192.136 120.846 L
193.416 120.184 L
194.696 119.523 L
195.976 118.864 L
197.256 118.207 L
198.536 117.552 L
199.816 116.898 L
201.096 116.246 L
202.375 115.595 L
203.655 114.947 L
204.935 114.3 L
206.215 113.654 L
207.495 113.011 L
208.775 112.369 L
210.055 111.729 L
211.335 111.091 L
212.615 110.455 L
213.895 109.82 L
215.175 109.187 L
216.455 108.557 L
217.734 107.928 L
219.014 107.3 L
220.294 106.675 L
221.574 106.052 L
222.854 105.43 L
224.134 104.811 L
225.414 104.193 L
226.694 103.578 L
227.974 102.964 L
229.254 102.352 L
230.534 101.743 L
231.814 101.135 L
233.094 100.529 L
234.373 99.926 L
235.653 99.324 L
236.933 98.725 L
238.213 98.127 L
239.493 97.532 L
240.773 96.939 L
242.053 96.348 L
243.333 95.759 L
244.613 95.172 L
245.893 94.587 L
247.173 94.005 L
248.453 93.424 L
249.732 92.846 L
251.012 92.27 L
252.292 91.696 L
253.572 91.125 L
254.852 90.556 L
256.132 89.989 L
257.412 89.424 L
258.692 88.861 L
259.972 88.301 L
261.252 87.744 L
262.532 87.188 L
263.812 86.635 L
265.091 86.084 L
266.371 85.536 L
267.651 84.99 L
268.931 84.446 L
270.211 83.905 L
271.491 83.366 L
272.771 82.83 L
274.051 82.296 L
275.331 81.765 L
276.611 81.236 L
277.891 80.709 L
279.171 80.185 L
280.451 79.664 L
281.73 79.145 L
283.01 78.629 L
284.29 78.115 L
285.57 77.604 L
286.85 77.095 L
288.13 76.589 L
289.41 76.086 L
290.69 75.585 L
291.97 75.087 L
293.25 74.591 L
294.53 74.099 L
295.81 73.608 L
297.089 73.121 L
298.369 72.636 L
299.649 72.154 L
300.929 71.675 L
302.209 71.198 L
303.489 70.725 L
304.769 70.253 L
306.049 69.785 L
307.329 69.32 L
308.609 68.857 L
309.889 68.397 L
311.169 67.941 L
312.449 67.487 L
313.728 67.035 L
315.008 66.587 L
316.288 66.142 L
317.568 65.699 L
318.848 65.259 L
320.128 64.823 L
321.408 64.389 L
322.688 63.958 L
323.968 63.531 L
325.248 63.106 L
326.528 62.684 L
327.808 62.265 L
329.087 61.849 L
330.367 61.437 L
331.647 61.027 L
332.927 60.621 L
334.207 60.217 L
335.487 59.817 L
336.767 59.419 L
338.047 59.025 L
339.327 58.634 L
340.607 58.246 L
341.887 57.862 L
343.167 57.48 L
344.447 57.102 L
345.726 56.727 L
347.006 56.355 L
348.286 55.986 L
349.566 55.621 L
350.846 55.259 L
352.126 54.9 L
353.406 54.544 L
354.686 54.192 L
355.966 53.843 L
357.246 53.497 L
358.526 53.155 L
359.806 52.816 L
361.085 52.48 L
362.365 52.148 L
363.645 51.819 L
364.925 51.494 L
366.205 51.172 L
367.485 50.853 L
368.765 50.538 L
370.045 50.226 L
371.325 49.918 L
372.605 49.613 L
373.885 49.312 L
375.165 49.015 L
376.444 48.72 L
377.724 48.43 L
379.004 48.143 L
380.284 47.859 L
381.564 47.579 L
382.844 47.303 L
384.124 47.03 L
385.404 46.761 L
386.684 46.496 L
387.964 46.234 L
389.244 45.976 L
390.524 45.721 L
391.803 45.47 L
393.083 45.223 L
394.363 44.98 L
395.643 44.74 L
396.923 44.505 L
398.203 44.272 L
399.483 44.044 L
400.763 43.819 L
402.043 43.599 L
403.323 43.382 L
404.603 43.169 L
405.883 42.959 L
407.163 42.754 L
408.442 42.552 L
409.722 42.354 L
411.002 42.161 L
412.282 41.971 L
413.562 41.785 L
414.842 41.603 L
416.122 41.425 L
417.402 41.25 L
418.682 41.08 L
419.962 40.914 L
421.242 40.752 L
422.522 40.594 L
423.801 40.439 L
425.081 40.289 L
426.361 40.143 L
427.641 40.001 L
428.921 39.863 L
430.201 39.729 L
431.481 39.6 L
432.761 39.474 L
434.041 39.353 L
435.321 39.235 L
436.601 39.122 L
437.881 39.013 L
439.161 38.908 L
440.44 38.808 L
441.72 38.711 L
443 38.619 L
444.28 38.531 L
445.56 38.448 L
446.84 38.368 L
448.12 38.293 L
449.4 38.222 L
450.68 38.156 L
451.96 38.093 L
453.24 38.036 L
454.52 37.982 L
455.799 37.933 L
457.079 37.888 L
458.359 37.848 L
459.639 37.812 L
460.919 37.78 L
462.199 37.753 L
463.479 37.73 L
464.759 37.712 L
466.039 37.698 L
467.319 37.689 L
468.599 37.684 L
S
GR
GS
0.929 0.694 0.125 RC
1 LJ
0.5 LW
N
77.513 328.593 M
78.793 319.896 L
80.073 311.221 L
81.353 302.649 L
82.633 294.256 L
83.913 286.123 L
85.193 278.326 L
86.473 270.946 L
87.753 264.06 L
89.033 257.747 L
90.313 252.086 L
91.593 247.155 L
92.872 242.934 L
94.152 238.931 L
95.432 235.064 L
96.712 231.329 L
97.992 227.723 L
99.272 224.245 L
100.552 220.889 L
101.832 217.654 L
103.112 214.536 L
104.392 211.532 L
105.672 208.64 L
106.952 205.855 L
108.231 203.175 L
109.511 200.596 L
110.791 198.117 L
112.071 195.733 L
113.351 193.441 L
114.631 191.239 L
115.911 189.123 L
117.191 187.09 L
118.471 185.138 L
119.751 183.262 L
121.031 181.46 L
122.311 179.729 L
123.59 178.066 L
124.87 176.467 L
126.15 174.929 L
127.43 173.421 L
128.71 171.937 L
129.99 170.475 L
131.27 169.036 L
132.55 167.618 L
133.83 166.223 L
135.11 164.849 L
136.39 163.497 L
137.67 162.165 L
138.95 160.855 L
140.229 159.566 L
141.509 158.297 L
142.789 157.048 L
144.069 155.819 L
145.349 154.61 L
146.629 153.42 L
147.909 152.25 L
149.189 151.099 L
150.469 149.967 L
151.749 148.854 L
153.029 147.758 L
154.309 146.681 L
155.588 145.622 L
156.868 144.581 L
158.148 143.557 L
159.428 142.551 L
160.708 141.561 L
161.988 140.588 L
163.268 139.632 L
164.548 138.692 L
165.828 137.768 L
167.108 136.86 L
168.388 135.968 L
169.668 135.091 L
170.948 134.229 L
172.227 133.382 L
173.507 132.55 L
174.787 131.732 L
176.067 130.929 L
177.347 130.139 L
178.627 129.364 L
179.907 128.602 L
181.187 127.853 L
182.467 127.117 L
183.747 126.394 L
185.027 125.684 L
186.307 124.986 L
187.586 124.3 L
188.866 123.627 L
190.146 122.964 L
191.426 122.314 L
192.706 121.674 L
193.986 121.046 L
195.266 120.428 L
196.546 119.821 L
197.826 119.224 L
199.106 118.638 L
200.386 118.06 L
201.666 117.487 L
202.945 116.913 L
204.225 116.341 L
205.505 115.77 L
206.785 115.199 L
208.065 114.629 L
209.345 114.06 L
210.625 113.492 L
211.905 112.925 L
213.185 112.359 L
214.465 111.793 L
215.745 111.229 L
217.025 110.665 L
218.305 110.103 L
219.584 109.541 L
220.864 108.98 L
222.144 108.421 L
223.424 107.862 L
224.704 107.305 L
225.984 106.748 L
227.264 106.192 L
228.544 105.638 L
229.824 105.085 L
231.104 104.532 L
232.384 103.981 L
233.664 103.431 L
234.943 102.882 L
236.223 102.334 L
237.503 101.788 L
238.783 101.242 L
240.063 100.698 L
241.343 100.155 L
242.623 99.613 L
243.903 99.073 L
245.183 98.533 L
246.463 97.995 L
247.743 97.458 L
249.023 96.923 L
250.303 96.389 L
251.582 95.856 L
252.862 95.324 L
254.142 94.794 L
255.422 94.265 L
256.702 93.738 L
257.982 93.212 L
259.262 92.687 L
260.542 92.164 L
261.822 91.642 L
263.102 91.122 L
264.382 90.603 L
265.662 90.086 L
266.941 89.57 L
268.221 89.055 L
269.501 88.543 L
270.781 88.031 L
272.061 87.521 L
273.341 87.013 L
274.621 86.507 L
275.901 86.002 L
277.181 85.498 L
278.461 84.996 L
279.741 84.496 L
281.021 83.998 L
282.301 83.501 L
283.58 83.005 L
284.86 82.512 L
286.14 82.02 L
287.42 81.53 L
288.7 81.042 L
289.98 80.555 L
291.26 80.07 L
292.54 79.587 L
293.82 79.106 L
295.1 78.626 L
296.38 78.149 L
297.66 77.673 L
298.939 77.199 L
300.219 76.727 L
301.499 76.257 L
302.779 75.788 L
304.059 75.322 L
305.339 74.857 L
306.619 74.395 L
307.899 73.934 L
309.179 73.476 L
310.459 73.019 L
311.739 72.564 L
313.019 72.111 L
314.298 71.661 L
315.578 71.212 L
316.858 70.766 L
318.138 70.321 L
319.418 69.879 L
320.698 69.438 L
321.978 69 L
323.258 68.564 L
324.538 68.13 L
325.818 67.698 L
327.098 67.268 L
328.378 66.841 L
329.658 66.415 L
330.937 65.992 L
332.217 65.571 L
333.497 65.152 L
334.777 64.736 L
336.057 64.322 L
337.337 63.91 L
338.617 63.5 L
339.897 63.093 L
341.177 62.688 L
342.457 62.285 L
343.737 61.885 L
345.017 61.487 L
346.296 61.091 L
347.576 60.698 L
348.856 60.307 L
350.136 59.919 L
351.416 59.533 L
352.696 59.149 L
353.976 58.768 L
355.256 58.39 L
356.536 58.014 L
357.816 57.64 L
359.096 57.269 L
360.376 56.901 L
361.655 56.534 L
362.935 56.171 L
364.215 55.81 L
365.495 55.452 L
366.775 55.096 L
368.055 54.743 L
369.335 54.393 L
370.615 54.045 L
371.895 53.7 L
373.175 53.357 L
374.455 53.018 L
375.735 52.681 L
377.015 52.346 L
378.294 52.015 L
379.574 51.686 L
380.854 51.36 L
382.134 51.036 L
383.414 50.716 L
384.694 50.398 L
385.974 50.083 L
387.254 49.771 L
388.534 49.462 L
389.814 49.155 L
391.094 48.852 L
392.374 48.551 L
393.653 48.253 L
394.933 47.958 L
396.213 47.666 L
397.493 47.378 L
398.773 47.091 L
400.053 46.808 L
401.333 46.528 L
402.613 46.251 L
403.893 45.977 L
405.173 45.706 L
406.453 45.438 L
407.733 45.173 L
409.013 44.912 L
410.292 44.653 L
411.572 44.397 L
412.852 44.145 L
414.132 43.895 L
415.412 43.649 L
416.692 43.406 L
417.972 43.166 L
419.252 42.929 L
420.532 42.696 L
421.812 42.465 L
423.092 42.238 L
424.372 42.014 L
425.651 41.794 L
426.931 41.576 L
428.211 41.362 L
429.491 41.151 L
430.771 40.944 L
432.051 40.74 L
433.331 40.539 L
434.611 40.342 L
435.891 40.148 L
437.171 39.957 L
438.451 39.77 L
439.731 39.586 L
441.01 39.405 L
442.29 39.228 L
443.57 39.055 L
444.85 38.885 L
446.13 38.718 L
447.41 38.555 L
448.69 38.396 L
449.97 38.239 L
451.25 38.087 L
452.53 37.938 L
453.81 37.793 L
455.09 37.651 L
456.37 37.513 L
457.649 37.378 L
458.929 37.247 L
460.209 37.12 L
461.489 36.996 L
462.769 36.876 L
464.049 36.76 L
465.329 36.647 L
466.609 36.538 L
467.889 36.433 L
469.169 36.332 L
470.449 36.234 L
471.729 36.14 L
473.008 36.05 L
474.288 35.963 L
475.568 35.881 L
476.848 35.802 L
478.128 35.728 L
479.408 35.656 L
480.688 35.589 L
481.968 35.526 L
483.248 35.467 L
484.528 35.411 L
485.808 35.36 L
487.088 35.312 L
488.368 35.268 L
489.647 35.229 L
490.927 35.193 L
492.207 35.161 L
493.487 35.134 L
494.767 35.11 L
496.047 35.09 L
497.327 35.075 L
498.607 35.063 L
499.887 35.056 L
501.167 35.053 L
S
GR
GS
0.494 0.184 0.557 RC
1 LJ
0.5 LW
N
73 374 M
74.28 361.214 L
75.56 348.679 L
76.84 336.526 L
78.12 324.885 L
79.4 313.887 L
80.68 303.661 L
81.959 294.339 L
83.239 286.05 L
84.519 278.908 L
85.799 272.374 L
87.079 266.135 L
88.359 260.185 L
89.639 254.52 L
90.919 249.134 L
92.199 244.023 L
93.479 239.182 L
94.759 234.607 L
96.039 230.291 L
97.318 226.231 L
98.598 222.421 L
99.878 218.858 L
101.158 215.535 L
102.438 212.447 L
103.718 209.579 L
104.998 206.799 L
106.278 204.078 L
107.558 201.414 L
108.838 198.809 L
110.118 196.263 L
111.398 193.775 L
112.677 191.347 L
113.957 188.979 L
115.237 186.671 L
116.517 184.423 L
117.797 182.235 L
119.077 180.109 L
120.357 178.044 L
121.637 176.04 L
122.917 174.098 L
124.197 172.219 L
125.477 170.402 L
126.757 168.647 L
128.037 166.956 L
129.316 165.329 L
130.596 163.765 L
131.876 162.265 L
133.156 160.83 L
134.436 159.46 L
135.716 158.154 L
136.996 156.914 L
138.276 155.74 L
139.556 154.632 L
140.836 153.59 L
142.116 152.615 L
143.396 151.706 L
144.675 150.83 L
145.955 149.957 L
147.235 149.088 L
148.515 148.223 L
149.795 147.362 L
151.075 146.505 L
152.355 145.652 L
153.635 144.803 L
154.915 143.958 L
156.195 143.117 L
157.475 142.281 L
158.755 141.448 L
160.035 140.619 L
161.314 139.795 L
162.594 138.975 L
163.874 138.159 L
165.154 137.347 L
166.434 136.539 L
167.714 135.735 L
168.994 134.936 L
170.274 134.141 L
171.554 133.35 L
172.834 132.563 L
174.114 131.781 L
175.394 131.003 L
176.673 130.229 L
177.953 129.46 L
179.233 128.695 L
180.513 127.934 L
181.793 127.178 L
183.073 126.426 L
184.353 125.678 L
185.633 124.935 L
186.913 124.197 L
188.193 123.462 L
189.473 122.732 L
190.753 122.007 L
192.033 121.286 L
193.312 120.57 L
194.592 119.858 L
195.872 119.151 L
197.152 118.448 L
198.432 117.75 L
199.712 117.056 L
200.992 116.367 L
202.272 115.683 L
203.552 115.003 L
204.832 114.328 L
206.112 113.657 L
207.392 112.991 L
208.671 112.33 L
209.951 111.674 L
211.231 111.022 L
212.511 110.375 L
213.791 109.733 L
215.071 109.095 L
216.351 108.462 L
217.631 107.834 L
218.911 107.211 L
220.191 106.593 L
221.471 105.979 L
222.751 105.371 L
224.03 104.767 L
225.31 104.168 L
226.59 103.574 L
227.87 102.985 L
229.15 102.401 L
230.43 101.821 L
231.71 101.247 L
232.99 100.678 L
234.27 100.113 L
235.55 99.554 L
236.83 99 L
238.11 98.45 L
239.39 97.906 L
240.669 97.367 L
241.949 96.833 L
243.229 96.304 L
244.509 95.78 L
245.789 95.261 L
247.069 94.747 L
248.349 94.239 L
249.629 93.735 L
250.909 93.237 L
252.189 92.744 L
253.469 92.256 L
254.749 91.774 L
256.028 91.296 L
257.308 90.824 L
258.588 90.358 L
259.868 89.896 L
261.148 89.44 L
262.428 88.989 L
263.708 88.543 L
264.988 88.103 L
266.268 87.668 L
267.548 87.239 L
268.828 86.815 L
270.108 86.396 L
271.388 85.983 L
272.667 85.575 L
273.947 85.173 L
275.227 84.776 L
276.507 84.384 L
277.787 83.998 L
279.067 83.618 L
280.347 83.243 L
281.627 82.874 L
282.907 82.51 L
284.187 82.152 L
285.467 81.799 L
286.747 81.452 L
288.026 81.111 L
289.306 80.775 L
290.586 80.445 L
291.866 80.12 L
293.146 79.801 L
294.426 79.488 L
295.706 79.181 L
296.986 78.879 L
298.266 78.583 L
299.546 78.293 L
300.826 78.008 L
302.106 77.73 L
303.385 77.457 L
304.665 77.19 L
305.945 76.929 L
307.225 76.673 L
308.505 76.424 L
309.785 76.18 L
311.065 75.942 L
312.345 75.711 L
313.625 75.485 L
314.905 75.265 L
316.185 75.051 L
317.465 74.843 L
318.745 74.64 L
320.024 74.444 L
321.304 74.254 L
322.584 74.07 L
323.864 73.892 L
325.144 73.72 L
326.424 73.554 L
327.704 73.394 L
328.984 73.241 L
330.264 73.093 L
331.544 72.952 L
332.824 72.816 L
334.104 72.687 L
335.383 72.564 L
336.663 72.447 L
337.943 72.337 L
339.223 72.232 L
340.503 72.134 L
341.783 72.042 L
343.063 71.956 L
344.343 71.877 L
345.623 71.804 L
346.903 71.737 L
348.183 71.677 L
349.463 71.623 L
350.742 71.575 L
352.022 71.533 L
353.302 71.499 L
354.582 71.47 L
355.862 71.448 L
357.142 71.432 L
358.422 71.423 L
S
GR
GS
0.467 0.675 0.188 RC
1 LJ
0.5 LW
N
75.667 345.799 M
76.947 336.349 L
78.227 326.895 L
79.507 317.531 L
80.787 308.352 L
82.067 299.451 L
83.347 290.922 L
84.627 282.859 L
85.907 275.355 L
87.186 268.504 L
88.466 262.4 L
89.746 257.137 L
91.026 252.728 L
92.306 248.606 L
93.586 244.636 L
94.866 240.813 L
96.146 237.133 L
97.426 233.591 L
98.706 230.183 L
99.986 226.903 L
101.266 223.747 L
102.545 220.711 L
103.825 217.789 L
105.105 214.977 L
106.385 212.27 L
107.665 209.664 L
108.945 207.154 L
110.225 204.735 L
111.505 202.402 L
112.785 200.152 L
114.065 197.978 L
115.345 195.877 L
116.625 193.844 L
117.904 191.874 L
119.184 189.962 L
120.464 188.104 L
121.744 186.294 L
123.024 184.529 L
124.304 182.804 L
125.584 181.114 L
126.864 179.453 L
128.144 177.812 L
129.424 176.189 L
130.704 174.585 L
131.984 172.999 L
133.264 171.431 L
134.543 169.882 L
135.823 168.351 L
137.103 166.838 L
138.383 165.344 L
139.663 163.867 L
140.943 162.409 L
142.223 160.97 L
143.503 159.548 L
144.783 158.145 L
146.063 156.76 L
147.343 155.393 L
148.623 154.045 L
149.902 152.715 L
151.182 151.403 L
152.462 150.109 L
153.742 148.833 L
155.022 147.576 L
156.302 146.336 L
157.582 145.115 L
158.862 143.912 L
160.142 142.728 L
161.422 141.561 L
162.702 140.412 L
163.982 139.282 L
165.262 138.17 L
166.541 137.076 L
167.821 136 L
169.101 134.942 L
170.381 133.902 L
171.661 132.881 L
172.941 131.877 L
174.221 130.892 L
175.501 129.925 L
176.781 128.975 L
178.061 128.044 L
179.341 127.131 L
180.621 126.236 L
181.9 125.359 L
183.18 124.5 L
184.46 123.659 L
185.74 122.836 L
187.02 122.031 L
188.3 121.244 L
189.58 120.475 L
190.86 119.724 L
192.14 118.991 L
193.42 118.276 L
194.7 117.579 L
195.98 116.9 L
197.259 116.239 L
198.539 115.596 L
199.819 114.971 L
201.099 114.364 L
202.379 113.771 L
203.659 113.181 L
204.939 112.593 L
206.219 112.005 L
207.499 111.419 L
208.779 110.834 L
210.059 110.251 L
211.339 109.669 L
212.619 109.087 L
213.898 108.508 L
215.178 107.93 L
216.458 107.353 L
217.738 106.777 L
219.018 106.203 L
220.298 105.63 L
221.578 105.058 L
222.858 104.488 L
224.138 103.919 L
225.418 103.352 L
226.698 102.786 L
227.978 102.222 L
229.257 101.659 L
230.537 101.097 L
231.817 100.537 L
233.097 99.978 L
234.377 99.421 L
235.657 98.865 L
236.937 98.311 L
238.217 97.758 L
239.497 97.207 L
240.777 96.658 L
242.057 96.11 L
243.337 95.563 L
244.617 95.018 L
245.896 94.475 L
247.176 93.933 L
248.456 93.393 L
249.736 92.854 L
251.016 92.317 L
252.296 91.782 L
253.576 91.248 L
254.856 90.716 L
256.136 90.186 L
257.416 89.657 L
258.696 89.13 L
259.976 88.605 L
261.255 88.081 L
262.535 87.559 L
263.815 87.039 L
265.095 86.521 L
266.375 86.004 L
267.655 85.489 L
268.935 84.976 L
270.215 84.464 L
271.495 83.955 L
272.775 83.447 L
274.055 82.941 L
275.335 82.437 L
276.615 81.934 L
277.894 81.434 L
279.174 80.935 L
280.454 80.438 L
281.734 79.943 L
283.014 79.45 L
284.294 78.959 L
285.574 78.469 L
286.854 77.982 L
288.134 77.496 L
289.414 77.013 L
290.694 76.531 L
291.974 76.051 L
293.253 75.574 L
294.533 75.098 L
295.813 74.624 L
297.093 74.152 L
298.373 73.682 L
299.653 73.215 L
300.933 72.749 L
302.213 72.285 L
303.493 71.824 L
304.773 71.364 L
306.053 70.906 L
307.333 70.451 L
308.612 69.998 L
309.892 69.546 L
311.172 69.097 L
312.452 68.65 L
313.732 68.205 L
315.012 67.762 L
316.292 67.322 L
317.572 66.883 L
318.852 66.447 L
320.132 66.013 L
321.412 65.581 L
322.692 65.151 L
323.972 64.723 L
325.251 64.298 L
326.531 63.875 L
327.811 63.454 L
329.091 63.035 L
330.371 62.619 L
331.651 62.205 L
332.931 61.793 L
334.211 61.383 L
335.491 60.976 L
336.771 60.571 L
338.051 60.169 L
339.331 59.768 L
340.61 59.371 L
341.89 58.975 L
343.17 58.582 L
344.45 58.191 L
345.73 57.803 L
347.01 57.417 L
348.29 57.033 L
349.57 56.652 L
350.85 56.273 L
352.13 55.897 L
353.41 55.523 L
354.69 55.151 L
355.97 54.783 L
357.249 54.416 L
358.529 54.052 L
359.809 53.691 L
361.089 53.332 L
362.369 52.975 L
363.649 52.621 L
364.929 52.27 L
366.209 51.921 L
367.489 51.575 L
368.769 51.231 L
370.049 50.89 L
371.329 50.552 L
372.608 50.216 L
373.888 49.882 L
375.168 49.552 L
376.448 49.224 L
377.728 48.898 L
379.008 48.575 L
380.288 48.255 L
381.568 47.938 L
382.848 47.623 L
384.128 47.311 L
385.408 47.002 L
386.688 46.696 L
387.967 46.392 L
389.247 46.091 L
390.527 45.792 L
391.807 45.497 L
393.087 45.204 L
394.367 44.914 L
395.647 44.626 L
396.927 44.342 L
398.207 44.06 L
399.487 43.782 L
400.767 43.506 L
402.047 43.232 L
403.327 42.962 L
404.606 42.695 L
405.886 42.43 L
407.166 42.169 L
408.446 41.91 L
409.726 41.654 L
411.006 41.401 L
412.286 41.151 L
413.566 40.904 L
414.846 40.66 L
416.126 40.419 L
417.406 40.18 L
418.686 39.945 L
419.965 39.713 L
421.245 39.484 L
422.525 39.257 L
423.805 39.034 L
425.085 38.814 L
426.365 38.597 L
427.645 38.383 L
428.925 38.172 L
430.205 37.964 L
431.485 37.759 L
432.765 37.557 L
434.045 37.359 L
435.325 37.163 L
436.604 36.97 L
437.884 36.781 L
439.164 36.595 L
440.444 36.412 L
441.724 36.232 L
443.004 36.055 L
444.284 35.882 L
445.564 35.712 L
446.844 35.545 L
448.124 35.381 L
449.404 35.22 L
450.684 35.063 L
451.963 34.909 L
453.243 34.758 L
454.523 34.61 L
455.803 34.466 L
457.083 34.325 L
458.363 34.187 L
459.643 34.052 L
460.923 33.921 L
462.203 33.794 L
463.483 33.669 L
464.763 33.548 L
466.043 33.43 L
467.323 33.316 L
468.602 33.205 L
469.882 33.097 L
471.162 32.993 L
472.442 32.892 L
473.722 32.795 L
475.002 32.701 L
476.282 32.611 L
477.562 32.524 L
478.842 32.44 L
480.122 32.36 L
481.402 32.283 L
482.682 32.21 L
483.961 32.141 L
485.241 32.075 L
486.521 32.012 L
487.801 31.953 L
489.081 31.898 L
490.361 31.846 L
491.641 31.797 L
492.921 31.753 L
494.201 31.712 L
495.481 31.674 L
496.761 31.64 L
498.041 31.61 L
499.32 31.583 L
500.6 31.56 L
501.88 31.541 L
503.16 31.525 L
504.44 31.513 L
505.72 31.505 L
507 31.5 L
S
GR
GS
0.302 0.745 0.933 RC
[10 6] 0 setdash
2 LJ
0.5 LW
N
75.133 350.823 M
76.413 340.548 L
77.693 330.279 L
78.973 320.136 L
80.253 310.238 L
81.533 300.705 L
82.812 291.656 L
84.092 283.209 L
85.372 275.484 L
86.652 268.601 L
87.932 262.678 L
89.212 257.792 L
90.492 253.33 L
91.772 249.047 L
93.052 244.938 L
94.332 240.998 L
95.612 237.219 L
96.892 233.596 L
98.171 230.122 L
99.451 226.792 L
100.731 223.6 L
102.011 220.539 L
103.291 217.603 L
104.571 214.786 L
105.851 212.082 L
107.131 209.485 L
108.411 206.989 L
109.691 204.587 L
110.971 202.274 L
112.251 200.044 L
113.531 197.89 L
114.81 195.806 L
116.09 193.787 L
117.37 191.825 L
118.65 189.915 L
119.93 188.052 L
121.21 186.228 L
122.49 184.436 L
123.77 182.668 L
125.05 180.923 L
126.33 179.2 L
127.61 177.5 L
128.89 175.823 L
130.169 174.168 L
131.449 172.536 L
132.729 170.926 L
134.009 169.339 L
135.289 167.774 L
136.569 166.231 L
137.849 164.711 L
139.129 163.212 L
140.409 161.736 L
141.689 160.282 L
142.969 158.851 L
144.249 157.441 L
145.529 156.054 L
146.808 154.688 L
148.088 153.344 L
149.368 152.022 L
150.648 150.722 L
151.928 149.444 L
153.208 148.188 L
154.488 146.953 L
155.768 145.74 L
157.048 144.549 L
158.328 143.379 L
159.608 142.231 L
160.888 141.104 L
162.167 139.998 L
163.447 138.914 L
164.727 137.852 L
166.007 136.81 L
167.287 135.79 L
168.567 134.791 L
169.847 133.814 L
171.127 132.857 L
172.407 131.922 L
173.687 131.007 L
174.967 130.114 L
176.247 129.242 L
177.526 128.39 L
178.806 127.559 L
180.086 126.749 L
181.366 125.96 L
182.646 125.192 L
183.926 124.444 L
185.206 123.717 L
186.486 123.011 L
187.766 122.325 L
189.046 121.656 L
190.326 120.99 L
191.606 120.326 L
192.886 119.663 L
194.165 119.002 L
195.445 118.342 L
196.725 117.683 L
198.005 117.026 L
199.285 116.371 L
200.565 115.717 L
201.845 115.065 L
203.125 114.414 L
204.405 113.765 L
205.685 113.118 L
206.965 112.472 L
208.245 111.828 L
209.524 111.186 L
210.804 110.545 L
212.084 109.906 L
213.364 109.269 L
214.644 108.634 L
215.924 108.001 L
217.204 107.369 L
218.484 106.739 L
219.764 106.112 L
221.044 105.486 L
222.324 104.862 L
223.604 104.24 L
224.883 103.619 L
226.163 103.001 L
227.443 102.385 L
228.723 101.771 L
230.003 101.159 L
231.283 100.549 L
232.563 99.941 L
233.843 99.335 L
235.123 98.731 L
236.403 98.13 L
237.683 97.531 L
238.963 96.933 L
240.243 96.338 L
241.522 95.746 L
242.802 95.155 L
244.082 94.567 L
245.362 93.981 L
246.642 93.397 L
247.922 92.816 L
249.202 92.237 L
250.482 91.66 L
251.762 91.086 L
253.042 90.514 L
254.322 89.945 L
255.602 89.378 L
256.882 88.814 L
258.161 88.252 L
259.441 87.692 L
260.721 87.136 L
262.001 86.581 L
263.281 86.03 L
264.561 85.48 L
265.841 84.934 L
267.121 84.39 L
268.401 83.849 L
269.681 83.311 L
270.961 82.775 L
272.241 82.242 L
273.52 81.711 L
274.8 81.184 L
276.08 80.659 L
277.36 80.137 L
278.64 79.618 L
279.92 79.101 L
281.2 78.588 L
282.48 78.077 L
283.76 77.57 L
285.04 77.065 L
286.32 76.563 L
287.6 76.064 L
288.879 75.569 L
290.159 75.076 L
291.439 74.586 L
292.719 74.1 L
293.999 73.616 L
295.279 73.135 L
296.559 72.658 L
297.839 72.184 L
299.119 71.713 L
300.399 71.245 L
301.679 70.78 L
302.959 70.318 L
304.238 69.86 L
305.518 69.405 L
306.798 68.953 L
308.078 68.505 L
309.358 68.06 L
310.638 67.618 L
311.918 67.18 L
313.198 66.745 L
314.478 66.313 L
315.758 65.885 L
317.038 65.46 L
318.318 65.039 L
319.598 64.621 L
320.877 64.207 L
322.157 63.796 L
323.437 63.389 L
324.717 62.985 L
325.997 62.585 L
327.277 62.189 L
328.557 61.796 L
329.837 61.407 L
331.117 61.021 L
332.397 60.639 L
333.677 60.261 L
334.957 59.887 L
336.237 59.516 L
337.516 59.15 L
338.796 58.787 L
340.076 58.427 L
341.356 58.072 L
342.636 57.721 L
343.916 57.373 L
345.196 57.029 L
346.476 56.689 L
347.756 56.354 L
349.036 56.022 L
350.316 55.694 L
351.596 55.37 L
352.875 55.05 L
354.155 54.734 L
355.435 54.422 L
356.715 54.115 L
357.995 53.811 L
359.275 53.512 L
360.555 53.216 L
361.835 52.925 L
363.115 52.638 L
364.395 52.356 L
365.675 52.077 L
366.955 51.803 L
368.234 51.533 L
369.514 51.267 L
370.794 51.006 L
372.074 50.749 L
373.354 50.496 L
374.634 50.248 L
375.914 50.004 L
377.194 49.764 L
378.474 49.529 L
379.754 49.299 L
381.034 49.072 L
382.314 48.851 L
383.594 48.634 L
384.873 48.421 L
386.153 48.213 L
387.433 48.01 L
388.713 47.811 L
389.993 47.617 L
391.273 47.427 L
392.553 47.242 L
393.833 47.062 L
395.113 46.886 L
396.393 46.716 L
397.673 46.55 L
398.953 46.388 L
400.232 46.232 L
401.512 46.08 L
402.792 45.933 L
404.072 45.791 L
405.352 45.654 L
406.632 45.522 L
407.912 45.395 L
409.192 45.272 L
410.472 45.155 L
411.752 45.042 L
413.032 44.935 L
414.312 44.832 L
415.592 44.735 L
416.871 44.643 L
418.151 44.555 L
419.431 44.473 L
420.711 44.396 L
421.991 44.324 L
423.271 44.257 L
424.551 44.196 L
425.831 44.139 L
427.111 44.088 L
428.391 44.042 L
429.671 44.001 L
430.951 43.966 L
432.23 43.936 L
433.51 43.911 L
434.79 43.892 L
436.07 43.878 L
437.35 43.869 L
438.63 43.866 L
S
GR
GS
0.635 0.078 0.184 RC
[10 6] 0 setdash
2 LJ
0.5 LW
N
77.441 328.619 M
78.72 319.94 L
80 311.286 L
81.28 302.736 L
82.56 294.367 L
83.84 286.254 L
85.12 278.476 L
86.4 271.108 L
87.68 264.229 L
88.96 257.914 L
90.24 252.241 L
91.52 247.287 L
92.8 243.038 L
94.079 239.011 L
95.359 235.121 L
96.639 231.362 L
97.919 227.734 L
99.199 224.232 L
100.479 220.854 L
101.759 217.596 L
103.039 214.456 L
104.319 211.431 L
105.599 208.517 L
106.879 205.711 L
108.159 203.011 L
109.439 200.413 L
110.718 197.915 L
111.998 195.513 L
113.278 193.204 L
114.558 190.985 L
115.838 188.854 L
117.118 186.806 L
118.398 184.84 L
119.678 182.952 L
120.958 181.139 L
122.238 179.399 L
123.518 177.727 L
124.798 176.121 L
126.077 174.574 L
127.357 173.057 L
128.637 171.564 L
129.917 170.097 L
131.197 168.654 L
132.477 167.235 L
133.757 165.84 L
135.037 164.468 L
136.317 163.119 L
137.597 161.794 L
138.877 160.49 L
140.157 159.209 L
141.437 157.95 L
142.716 156.713 L
143.996 155.497 L
145.276 154.302 L
146.556 153.128 L
147.836 151.974 L
149.116 150.84 L
150.396 149.727 L
151.676 148.632 L
152.956 147.557 L
154.236 146.501 L
155.516 145.464 L
156.796 144.445 L
158.075 143.444 L
159.355 142.46 L
160.635 141.494 L
161.915 140.546 L
163.195 139.614 L
164.475 138.698 L
165.755 137.799 L
167.035 136.916 L
168.315 136.048 L
169.595 135.195 L
170.875 134.358 L
172.155 133.535 L
173.434 132.727 L
174.714 131.933 L
175.994 131.152 L
177.274 130.386 L
178.554 129.632 L
179.834 128.891 L
181.114 128.163 L
182.394 127.447 L
183.674 126.743 L
184.954 126.051 L
186.234 125.37 L
187.514 124.701 L
188.794 124.042 L
190.073 123.393 L
191.353 122.755 L
192.633 122.126 L
193.913 121.508 L
195.193 120.897 L
196.473 120.287 L
197.753 119.678 L
199.033 119.069 L
200.313 118.461 L
201.593 117.854 L
202.873 117.248 L
204.153 116.642 L
205.432 116.038 L
206.712 115.434 L
207.992 114.83 L
209.272 114.228 L
210.552 113.627 L
211.832 113.026 L
213.112 112.427 L
214.392 111.828 L
215.672 111.231 L
216.952 110.634 L
218.232 110.039 L
219.512 109.444 L
220.792 108.851 L
222.071 108.259 L
223.351 107.668 L
224.631 107.078 L
225.911 106.489 L
227.191 105.902 L
228.471 105.316 L
229.751 104.731 L
231.031 104.148 L
232.311 103.565 L
233.591 102.985 L
234.871 102.405 L
236.151 101.827 L
237.43 101.251 L
238.71 100.675 L
239.99 100.102 L
241.27 99.53 L
242.55 98.959 L
243.83 98.39 L
245.11 97.823 L
246.39 97.257 L
247.67 96.693 L
248.95 96.131 L
250.23 95.57 L
251.51 95.012 L
252.789 94.454 L
254.069 93.899 L
255.349 93.346 L
256.629 92.794 L
257.909 92.244 L
259.189 91.696 L
260.469 91.15 L
261.749 90.606 L
263.029 90.064 L
264.309 89.524 L
265.589 88.986 L
266.869 88.45 L
268.149 87.916 L
269.428 87.384 L
270.708 86.855 L
271.988 86.327 L
273.268 85.802 L
274.548 85.279 L
275.828 84.758 L
277.108 84.239 L
278.388 83.723 L
279.668 83.209 L
280.948 82.697 L
282.228 82.188 L
283.508 81.681 L
284.787 81.177 L
286.067 80.675 L
287.347 80.175 L
288.627 79.678 L
289.907 79.184 L
291.187 78.692 L
292.467 78.202 L
293.747 77.715 L
295.027 77.231 L
296.307 76.75 L
297.587 76.271 L
298.867 75.795 L
300.147 75.322 L
301.426 74.851 L
302.706 74.384 L
303.986 73.919 L
305.266 73.456 L
306.546 72.997 L
307.826 72.541 L
309.106 72.088 L
310.386 71.637 L
311.666 71.19 L
312.946 70.745 L
314.226 70.304 L
315.506 69.865 L
316.785 69.43 L
318.065 68.998 L
319.345 68.569 L
320.625 68.143 L
321.905 67.72 L
323.185 67.301 L
324.465 66.885 L
325.745 66.472 L
327.025 66.062 L
328.305 65.656 L
329.585 65.253 L
330.865 64.853 L
332.144 64.457 L
333.424 64.064 L
334.704 63.675 L
335.984 63.289 L
337.264 62.906 L
338.544 62.528 L
339.824 62.152 L
341.104 61.781 L
342.384 61.413 L
343.664 61.048 L
344.944 60.687 L
346.224 60.33 L
347.504 59.977 L
348.783 59.627 L
350.063 59.281 L
351.343 58.939 L
352.623 58.601 L
353.903 58.267 L
355.183 57.936 L
356.463 57.61 L
357.743 57.287 L
359.023 56.968 L
360.303 56.654 L
361.583 56.343 L
362.863 56.036 L
364.142 55.733 L
365.422 55.435 L
366.702 55.141 L
367.982 54.85 L
369.262 54.564 L
370.542 54.282 L
371.822 54.004 L
373.102 53.731 L
374.382 53.462 L
375.662 53.197 L
376.942 52.936 L
378.222 52.68 L
379.501 52.428 L
380.781 52.181 L
382.061 51.938 L
383.341 51.699 L
384.621 51.465 L
385.901 51.236 L
387.181 51.011 L
388.461 50.79 L
389.741 50.574 L
391.021 50.363 L
392.301 50.156 L
393.581 49.954 L
394.861 49.757 L
396.14 49.565 L
397.42 49.377 L
398.7 49.194 L
399.98 49.015 L
401.26 48.842 L
402.54 48.673 L
403.82 48.51 L
405.1 48.351 L
406.38 48.197 L
407.66 48.048 L
408.94 47.904 L
410.22 47.766 L
411.499 47.632 L
412.779 47.503 L
414.059 47.379 L
415.339 47.261 L
416.619 47.147 L
417.899 47.039 L
419.179 46.936 L
420.459 46.838 L
421.739 46.745 L
423.019 46.658 L
424.299 46.576 L
425.579 46.5 L
426.859 46.428 L
428.138 46.362 L
429.418 46.302 L
430.698 46.247 L
431.978 46.197 L
433.258 46.153 L
434.538 46.114 L
435.818 46.081 L
437.098 46.053 L
438.378 46.032 L
439.658 46.015 L
440.938 46.004 L
442.218 45.999 L
S
GR
GS
0 0.447 0.741 RC
[10 6] 0 setdash
2 LJ
0.5 LW
N
73.128 372.98 M
74.408 360.407 L
75.688 348.087 L
76.968 336.142 L
78.248 324.693 L
79.528 313.863 L
80.808 303.774 L
82.088 294.547 L
83.368 286.303 L
84.647 279.154 L
85.927 272.606 L
87.207 266.348 L
88.487 260.374 L
89.767 254.681 L
91.047 249.264 L
92.327 244.119 L
93.607 239.242 L
94.887 234.63 L
96.167 230.276 L
97.447 226.178 L
98.727 222.332 L
100.007 218.732 L
101.286 215.375 L
102.566 212.257 L
103.846 209.349 L
105.126 206.518 L
106.406 203.746 L
107.686 201.034 L
108.966 198.383 L
110.246 195.793 L
111.526 193.264 L
112.806 190.799 L
114.086 188.396 L
115.366 186.058 L
116.645 183.784 L
117.925 181.576 L
119.205 179.433 L
120.485 177.358 L
121.765 175.35 L
123.045 173.41 L
124.325 171.539 L
125.605 169.737 L
126.885 168.006 L
128.165 166.346 L
129.445 164.757 L
130.725 163.241 L
132.004 161.798 L
133.284 160.428 L
134.564 159.133 L
135.844 157.914 L
137.124 156.769 L
138.404 155.702 L
139.684 154.712 L
140.964 153.796 L
142.244 152.904 L
143.524 152.016 L
144.804 151.133 L
146.084 150.255 L
147.364 149.381 L
148.643 148.513 L
149.923 147.65 L
151.203 146.792 L
152.483 145.938 L
153.763 145.09 L
155.043 144.247 L
156.323 143.408 L
157.603 142.575 L
158.883 141.747 L
160.163 140.925 L
161.443 140.107 L
162.723 139.295 L
164.002 138.487 L
165.282 137.685 L
166.562 136.889 L
167.842 136.097 L
169.122 135.311 L
170.402 134.531 L
171.682 133.755 L
172.962 132.986 L
174.242 132.221 L
175.522 131.462 L
176.802 130.709 L
178.082 129.961 L
179.361 129.218 L
180.641 128.481 L
181.921 127.75 L
183.201 127.024 L
184.481 126.304 L
185.761 125.59 L
187.041 124.881 L
188.321 124.178 L
189.601 123.481 L
190.881 122.79 L
192.161 122.104 L
193.441 121.424 L
194.721 120.75 L
196 120.082 L
197.28 119.42 L
198.56 118.763 L
199.84 118.113 L
201.12 117.469 L
202.4 116.83 L
203.68 116.198 L
204.96 115.571 L
206.24 114.951 L
207.52 114.337 L
208.8 113.729 L
210.08 113.127 L
211.359 112.532 L
212.639 111.942 L
213.919 111.359 L
215.199 110.782 L
216.479 110.211 L
217.759 109.646 L
219.039 109.088 L
220.319 108.537 L
221.599 107.991 L
222.879 107.452 L
224.159 106.92 L
225.439 106.394 L
226.719 105.874 L
227.998 105.361 L
229.278 104.855 L
230.558 104.355 L
231.838 103.861 L
233.118 103.374 L
234.398 102.894 L
235.678 102.421 L
236.958 101.954 L
238.238 101.494 L
239.518 101.041 L
240.798 100.594 L
242.078 100.154 L
243.357 99.721 L
244.637 99.295 L
245.917 98.876 L
247.197 98.464 L
248.477 98.058 L
249.757 97.66 L
251.037 97.268 L
252.317 96.884 L
253.597 96.506 L
254.877 96.136 L
256.157 95.773 L
257.437 95.416 L
258.716 95.067 L
259.996 94.725 L
261.276 94.39 L
262.556 94.063 L
263.836 93.742 L
265.116 93.429 L
266.396 93.123 L
267.676 92.825 L
268.956 92.534 L
270.236 92.25 L
271.516 91.973 L
272.796 91.704 L
274.076 91.443 L
275.355 91.188 L
276.635 90.942 L
277.915 90.703 L
279.195 90.471 L
280.475 90.247 L
281.755 90.03 L
283.035 89.821 L
284.315 89.62 L
285.595 89.426 L
286.875 89.24 L
288.155 89.062 L
289.435 88.892 L
290.714 88.729 L
291.994 88.574 L
293.274 88.427 L
294.554 88.288 L
295.834 88.157 L
297.114 88.033 L
298.394 87.918 L
299.674 87.81 L
300.954 87.71 L
302.234 87.619 L
303.514 87.535 L
304.794 87.46 L
306.074 87.392 L
307.353 87.333 L
308.633 87.281 L
309.913 87.238 L
311.193 87.203 L
312.473 87.176 L
313.753 87.158 L
315.033 87.148 L
S
GR
GS
0.851 0.325 0.098 RC
[10 6] 0 setdash
2 LJ
0.5 LW
N
76.28 340.217 M
77.56 331.432 L
78.84 322.646 L
80.119 313.933 L
81.399 305.365 L
82.679 297.016 L
83.959 288.957 L
85.239 281.262 L
86.519 274.003 L
87.799 267.253 L
89.079 261.085 L
90.359 255.571 L
91.639 250.785 L
92.919 246.722 L
94.199 242.897 L
95.479 239.207 L
96.758 235.648 L
98.038 232.216 L
99.318 228.907 L
100.598 225.717 L
101.878 222.642 L
103.158 219.677 L
104.438 216.819 L
105.718 214.064 L
106.998 211.407 L
108.278 208.844 L
109.558 206.372 L
110.838 203.986 L
112.117 201.682 L
113.397 199.456 L
114.677 197.304 L
115.957 195.222 L
117.237 193.206 L
118.517 191.251 L
119.797 189.354 L
121.077 187.511 L
122.357 185.718 L
123.637 183.969 L
124.917 182.263 L
126.197 180.593 L
127.477 178.957 L
128.756 177.35 L
130.036 175.767 L
131.316 174.205 L
132.596 172.659 L
133.876 171.13 L
135.156 169.619 L
136.436 168.125 L
137.716 166.649 L
138.996 165.189 L
140.276 163.747 L
141.556 162.321 L
142.836 160.913 L
144.115 159.522 L
145.395 158.148 L
146.675 156.79 L
147.955 155.45 L
149.235 154.127 L
150.515 152.821 L
151.795 151.532 L
153.075 150.26 L
154.355 149.004 L
155.635 147.766 L
156.915 146.544 L
158.195 145.339 L
159.475 144.152 L
160.754 142.981 L
162.034 141.826 L
163.314 140.689 L
164.594 139.568 L
165.874 138.464 L
167.154 137.376 L
168.434 136.306 L
169.714 135.252 L
170.994 134.214 L
172.274 133.193 L
173.554 132.189 L
174.834 131.202 L
176.113 130.231 L
177.393 129.276 L
178.673 128.338 L
179.953 127.417 L
181.233 126.512 L
182.513 125.623 L
183.793 124.751 L
185.073 123.896 L
186.353 123.056 L
187.633 122.233 L
188.913 121.427 L
190.193 120.637 L
191.473 119.863 L
192.752 119.105 L
194.032 118.364 L
195.312 117.639 L
196.592 116.93 L
197.872 116.237 L
199.152 115.561 L
200.432 114.9 L
201.712 114.256 L
202.992 113.628 L
204.272 113.016 L
205.552 112.414 L
206.832 111.812 L
208.111 111.212 L
209.391 110.613 L
210.671 110.015 L
211.951 109.418 L
213.231 108.822 L
214.511 108.227 L
215.791 107.634 L
217.071 107.041 L
218.351 106.45 L
219.631 105.86 L
220.911 105.272 L
222.191 104.684 L
223.47 104.098 L
224.75 103.514 L
226.03 102.93 L
227.31 102.348 L
228.59 101.768 L
229.87 101.189 L
231.15 100.611 L
232.43 100.035 L
233.71 99.46 L
234.99 98.886 L
236.27 98.314 L
237.55 97.744 L
238.83 97.175 L
240.109 96.608 L
241.389 96.042 L
242.669 95.478 L
243.949 94.915 L
245.229 94.354 L
246.509 93.795 L
247.789 93.237 L
249.069 92.681 L
250.349 92.127 L
251.629 91.574 L
252.909 91.023 L
254.189 90.474 L
255.468 89.927 L
256.748 89.381 L
258.028 88.837 L
259.308 88.295 L
260.588 87.755 L
261.868 87.217 L
263.148 86.681 L
264.428 86.146 L
265.708 85.614 L
266.988 85.083 L
268.268 84.555 L
269.548 84.028 L
270.828 83.503 L
272.107 82.981 L
273.387 82.46 L
274.667 81.942 L
275.947 81.425 L
277.227 80.911 L
278.507 80.398 L
279.787 79.888 L
281.067 79.38 L
282.347 78.874 L
283.627 78.371 L
284.907 77.869 L
286.187 77.37 L
287.466 76.873 L
288.746 76.378 L
290.026 75.886 L
291.306 75.396 L
292.586 74.908 L
293.866 74.423 L
295.146 73.939 L
296.426 73.458 L
297.706 72.98 L
298.986 72.504 L
300.266 72.031 L
301.546 71.56 L
302.826 71.091 L
304.105 70.625 L
305.385 70.161 L
306.665 69.7 L
307.945 69.241 L
309.225 68.785 L
310.505 68.332 L
311.785 67.881 L
313.065 67.433 L
314.345 66.987 L
315.625 66.544 L
316.905 66.104 L
318.185 65.666 L
319.464 65.231 L
320.744 64.799 L
322.024 64.37 L
323.304 63.943 L
324.584 63.519 L
325.864 63.098 L
327.144 62.68 L
328.424 62.264 L
329.704 61.852 L
330.984 61.442 L
332.264 61.035 L
333.544 60.632 L
334.823 60.231 L
336.103 59.833 L
337.383 59.438 L
338.663 59.046 L
339.943 58.657 L
341.223 58.271 L
342.503 57.888 L
343.783 57.508 L
345.063 57.131 L
346.343 56.757 L
347.623 56.387 L
348.903 56.02 L
350.182 55.655 L
351.462 55.294 L
352.742 54.936 L
354.022 54.582 L
355.302 54.23 L
356.582 53.882 L
357.862 53.537 L
359.142 53.196 L
360.422 52.857 L
361.702 52.522 L
362.982 52.191 L
364.262 51.862 L
365.542 51.538 L
366.821 51.216 L
368.101 50.898 L
369.381 50.583 L
370.661 50.272 L
371.941 49.965 L
373.221 49.66 L
374.501 49.36 L
375.781 49.063 L
377.061 48.769 L
378.341 48.479 L
379.621 48.193 L
380.901 47.91 L
382.18 47.631 L
383.46 47.355 L
384.74 47.083 L
386.02 46.815 L
387.3 46.551 L
388.58 46.29 L
389.86 46.033 L
391.14 45.78 L
392.42 45.53 L
393.7 45.284 L
394.98 45.043 L
396.26 44.805 L
397.54 44.57 L
398.819 44.34 L
400.099 44.114 L
401.379 43.891 L
402.659 43.673 L
403.939 43.458 L
405.219 43.247 L
406.499 43.041 L
407.779 42.838 L
409.059 42.639 L
410.339 42.445 L
411.619 42.254 L
412.899 42.068 L
414.178 41.885 L
415.458 41.707 L
416.738 41.533 L
418.018 41.363 L
419.298 41.197 L
420.578 41.036 L
421.858 40.878 L
423.138 40.725 L
424.418 40.576 L
425.698 40.432 L
426.978 40.291 L
428.258 40.155 L
429.538 40.024 L
430.817 39.896 L
432.097 39.773 L
433.377 39.654 L
434.657 39.54 L
435.937 39.43 L
437.217 39.325 L
438.497 39.224 L
439.777 39.128 L
441.057 39.035 L
442.337 38.948 L
443.617 38.865 L
444.897 38.787 L
446.176 38.713 L
447.456 38.644 L
448.736 38.579 L
450.016 38.519 L
451.296 38.464 L
452.576 38.413 L
453.856 38.367 L
455.136 38.325 L
456.416 38.289 L
457.696 38.257 L
458.976 38.23 L
460.256 38.207 L
461.535 38.19 L
462.815 38.177 L
464.095 38.169 L
465.375 38.166 L
S
GR
GS
1 GC
N
499 366 M
499 218.5 L
327.5 218.5 L
327.5 366 L
cp
f
GR
GS
[1 0 0 1 364.5 228.25] CT
/Helvetica 13 F
GS
[1 0 0 1 0 0] CT
0 5 moveto 
1 -1 scale
(Base Run) t 
GR
GR
GS
0 0.447 0.741 RC
1 LJ
0.5 LW
N
331.5 228.25 M
361.5 228.25 L
S
GR
GS
[1 0 0 1 364.5 244.25] CT
/Helvetica 13 F
GS
[1 0 0 1 0 0] CT
0 5 moveto 
1 -1 scale
(All Frames) t 
GR
GR
GS
0.851 0.325 0.098 RC
1 LJ
0.5 LW
N
331.5 244.25 M
361.5 244.25 L
S
GR
GS
[1 0 0 1 364.5 260.25] CT
/Helvetica 13 F
GS
[1 0 0 1 0 0] CT
0 5 moveto 
1 -1 scale
(KF Only) t 
GR
GR
GS
0.929 0.694 0.125 RC
1 LJ
0.5 LW
N
331.5 260.25 M
361.5 260.25 L
S
GR
GS
[1 0 0 1 364.5 276.25] CT
/Helvetica 13 F
GS
[1 0 0 1 0 0] CT
0 5 moveto 
1 -1 scale
(GF, ARF Only) t 
GR
GR
GS
0.494 0.184 0.557 RC
1 LJ
0.5 LW
N
331.5 276.25 M
361.5 276.25 L
S
GR
GS
[1 0 0 1 364.5 292.25] CT
/Helvetica 13 F
GS
[1 0 0 1 0 0] CT
0 5 moveto 
1 -1 scale
(KF, GF, ARF Only) t 
GR
GR
GS
0.467 0.675 0.188 RC
1 LJ
0.5 LW
N
331.5 292.25 M
361.5 292.25 L
S
GR
GS
[1 0 0 1 364.5 308.25] CT
/Helvetica 13 F
GS
[1 0 0 1 0 0] CT
0 5 moveto 
1 -1 scale
(Part All Frames) t 
GR
GR
GS
0.302 0.745 0.933 RC
[10 6] 0 setdash
2 LJ
0.5 LW
N
331.5 308.25 M
361.5 308.25 L
S
GR
GS
[1 0 0 1 364.5 324.25] CT
/Helvetica 13 F
GS
[1 0 0 1 0 0] CT
0 5 moveto 
1 -1 scale
(Part KF Only) t 
GR
GR
GS
0.635 0.078 0.184 RC
[10 6] 0 setdash
2 LJ
0.5 LW
N
331.5 324.25 M
361.5 324.25 L
S
GR
GS
[1 0 0 1 364.5 340.25] CT
/Helvetica 13 F
GS
[1 0 0 1 0 0] CT
0 5 moveto 
1 -1 scale
(Part GF, ARF Only) t 
GR
GR
GS
0 0.447 0.741 RC
[10 6] 0 setdash
2 LJ
0.5 LW
N
331.5 340.25 M
361.5 340.25 L
S
GR
GS
[1 0 0 1 364.5 356.25] CT
/Helvetica 13 F
GS
[1 0 0 1 0 0] CT
0 5 moveto 
1 -1 scale
(Part KF, GF, ARF Only) t 
GR
GR
GS
0.851 0.325 0.098 RC
[10 6] 0 setdash
2 LJ
0.5 LW
N
331.5 356.25 M
361.5 356.25 L
S
GR
GS
0.149 GC
10.0 ML
0.5 LW
N
327.5 366 M
327.5 218.5 L
499 218.5 L
499 366 L
cp
S
GR
%%Trailer
%%Pages: 1
%%EOF
