%!PS-Adobe-3.0 EPSF-3.0
%%Creator: (MATLAB, The Mathworks, Inc. Version 9.11.0.1837725 \(R2021b\) Update 2. Operating System: Mac OS X)
%%Title: plots/rd/Lecture_1080P-3ce0.y4m-av1-APSNRV.eps
%%CreationDate: 2022-02-04T14:44:35
%%Pages: (atend)
%%BoundingBox:    33   425   518   826
%%LanguageLevel: 3
%%EndComments
%%BeginProlog
%%BeginResource: procset (Apache XML Graphics Std ProcSet) 1.2 0
%%Version: 1.2 0
%%Copyright: (Copyright 2001-2003,2010 The Apache Software Foundation. License terms: http://www.apache.org/licenses/LICENSE-2.0)
/bd{bind def}bind def
/ld{load def}bd
/GR/grestore ld
/GS/gsave ld
/RM/rmoveto ld
/C/curveto ld
/t/show ld
/L/lineto ld
/ML/setmiterlimit ld
/CT/concat ld
/f/fill ld
/N/newpath ld
/S/stroke ld
/CC/setcmykcolor ld
/A/ashow ld
/cp/closepath ld
/RC/setrgbcolor ld
/LJ/setlinejoin ld
/GC/setgray ld
/LW/setlinewidth ld
/M/moveto ld
/re {4 2 roll M
1 index 0 rlineto
0 exch rlineto
neg 0 rlineto
cp } bd
/_ctm matrix def
/_tm matrix def
/BT { _ctm currentmatrix pop matrix _tm copy pop 0 0 moveto } bd
/ET { _ctm setmatrix } bd
/iTm { _ctm setmatrix _tm concat } bd
/Tm { _tm astore pop iTm 0 0 moveto } bd
/ux 0.0 def
/uy 0.0 def
/F {
  /Tp exch def
  /Tf exch def
  Tf findfont Tp scalefont setfont
  /cf Tf def  /cs Tp def
} bd
/ULS {currentpoint /uy exch def /ux exch def} bd
/ULE {
  /Tcx currentpoint pop def
  gsave
  newpath
  cf findfont cs scalefont dup
  /FontMatrix get 0 get /Ts exch def /FontInfo get dup
  /UnderlinePosition get Ts mul /To exch def
  /UnderlineThickness get Ts mul /Tt exch def
  ux uy To add moveto  Tcx uy To add lineto
  Tt setlinewidth stroke
  grestore
} bd
/OLE {
  /Tcx currentpoint pop def
  gsave
  newpath
  cf findfont cs scalefont dup
  /FontMatrix get 0 get /Ts exch def /FontInfo get dup
  /UnderlinePosition get Ts mul /To exch def
  /UnderlineThickness get Ts mul /Tt exch def
  ux uy To add cs add moveto Tcx uy To add cs add lineto
  Tt setlinewidth stroke
  grestore
} bd
/SOE {
  /Tcx currentpoint pop def
  gsave
  newpath
  cf findfont cs scalefont dup
  /FontMatrix get 0 get /Ts exch def /FontInfo get dup
  /UnderlinePosition get Ts mul /To exch def
  /UnderlineThickness get Ts mul /Tt exch def
  ux uy To add cs 10 mul 26 idiv add moveto Tcx uy To add cs 10 mul 26 idiv add lineto
  Tt setlinewidth stroke
  grestore
} bd
/QT {
/Y22 exch store
/X22 exch store
/Y21 exch store
/X21 exch store
currentpoint
/Y21 load 2 mul add 3 div exch
/X21 load 2 mul add 3 div exch
/X21 load 2 mul /X22 load add 3 div
/Y21 load 2 mul /Y22 load add 3 div
/X22 load /Y22 load curveto
} bd
/SSPD {
dup length /d exch dict def
{
/v exch def
/k exch def
currentpagedevice k known {
/cpdv currentpagedevice k get def
v cpdv ne {
/upd false def
/nullv v type /nulltype eq def
/nullcpdv cpdv type /nulltype eq def
nullv nullcpdv or
{
/upd true def
} {
/sametype v type cpdv type eq def
sametype {
v type /arraytype eq {
/vlen v length def
/cpdvlen cpdv length def
vlen cpdvlen eq {
0 1 vlen 1 sub {
/i exch def
/obj v i get def
/cpdobj cpdv i get def
obj cpdobj ne {
/upd true def
exit
} if
} for
} {
/upd true def
} ifelse
} {
v type /dicttype eq {
v {
/dv exch def
/dk exch def
/cpddv cpdv dk get def
dv cpddv ne {
/upd true def
exit
} if
} forall
} {
/upd true def
} ifelse
} ifelse
} if
} ifelse
upd true eq {
d k v put
} if
} if
} if
} forall
d length 0 gt {
d setpagedevice
} if
} bd
/RE { % /NewFontName [NewEncodingArray] /FontName RE -
  findfont dup length dict begin
  {
    1 index /FID ne
    {def} {pop pop} ifelse
  } forall
  /Encoding exch def
  /FontName 1 index def
  currentdict definefont pop
  end
} bind def
%%EndResource
%%BeginResource: procset (Apache XML Graphics EPS ProcSet) 1.0 0
%%Version: 1.0 0
%%Copyright: (Copyright 2002-2003 The Apache Software Foundation. License terms: http://www.apache.org/licenses/LICENSE-2.0)
/BeginEPSF { %def
/b4_Inc_state save def         % Save state for cleanup
/dict_count countdictstack def % Count objects on dict stack
/op_count count 1 sub def      % Count objects on operand stack
userdict begin                 % Push userdict on dict stack
/showpage { } def              % Redefine showpage, { } = null proc
0 setgray 0 setlinecap         % Prepare graphics state
1 setlinewidth 0 setlinejoin
10 setmiterlimit [ ] 0 setdash newpath
/languagelevel where           % If level not equal to 1 then
{pop languagelevel             % set strokeadjust and
1 ne                           % overprint to their defaults.
{false setstrokeadjust false setoverprint
} if
} if
} bd
/EndEPSF { %def
count op_count sub {pop} repeat            % Clean up stacks
countdictstack dict_count sub {end} repeat
b4_Inc_state restore
} bd
%%EndResource
%FOPBeginFontDict
%%IncludeResource: font Courier-Oblique
%%IncludeResource: font Courier-BoldOblique
%%IncludeResource: font Courier-Bold
%%IncludeResource: font ZapfDingbats
%%IncludeResource: font Symbol
%%IncludeResource: font Helvetica
%%IncludeResource: font Helvetica-Oblique
%%IncludeResource: font Helvetica-Bold
%%IncludeResource: font Helvetica-BoldOblique
%%IncludeResource: font Times-Roman
%%IncludeResource: font Times-Italic
%%IncludeResource: font Times-Bold
%%IncludeResource: font Times-BoldItalic
%%IncludeResource: font Courier
%FOPEndFontDict
%%BeginResource: encoding WinAnsiEncoding
/WinAnsiEncoding [
/.notdef /.notdef /.notdef /.notdef /.notdef
/.notdef /.notdef /.notdef /.notdef /.notdef
/.notdef /.notdef /.notdef /.notdef /.notdef
/.notdef /.notdef /.notdef /.notdef /.notdef
/.notdef /.notdef /.notdef /.notdef /.notdef
/.notdef /.notdef /.notdef /.notdef /.notdef
/.notdef /.notdef /space /exclam /quotedbl
/numbersign /dollar /percent /ampersand /quotesingle
/parenleft /parenright /asterisk /plus /comma
/hyphen /period /slash /zero /one
/two /three /four /five /six
/seven /eight /nine /colon /semicolon
/less /equal /greater /question /at
/A /B /C /D /E
/F /G /H /I /J
/K /L /M /N /O
/P /Q /R /S /T
/U /V /W /X /Y
/Z /bracketleft /backslash /bracketright /asciicircum
/underscore /quoteleft /a /b /c
/d /e /f /g /h
/i /j /k /l /m
/n /o /p /q /r
/s /t /u /v /w
/x /y /z /braceleft /bar
/braceright /asciitilde /bullet /Euro /bullet
/quotesinglbase /florin /quotedblbase /ellipsis /dagger
/daggerdbl /circumflex /perthousand /Scaron /guilsinglleft
/OE /bullet /Zcaron /bullet /bullet
/quoteleft /quoteright /quotedblleft /quotedblright /bullet
/endash /emdash /asciitilde /trademark /scaron
/guilsinglright /oe /bullet /zcaron /Ydieresis
/space /exclamdown /cent /sterling /currency
/yen /brokenbar /section /dieresis /copyright
/ordfeminine /guillemotleft /logicalnot /sfthyphen /registered
/macron /degree /plusminus /twosuperior /threesuperior
/acute /mu /paragraph /middot /cedilla
/onesuperior /ordmasculine /guillemotright /onequarter /onehalf
/threequarters /questiondown /Agrave /Aacute /Acircumflex
/Atilde /Adieresis /Aring /AE /Ccedilla
/Egrave /Eacute /Ecircumflex /Edieresis /Igrave
/Iacute /Icircumflex /Idieresis /Eth /Ntilde
/Ograve /Oacute /Ocircumflex /Otilde /Odieresis
/multiply /Oslash /Ugrave /Uacute /Ucircumflex
/Udieresis /Yacute /Thorn /germandbls /agrave
/aacute /acircumflex /atilde /adieresis /aring
/ae /ccedilla /egrave /eacute /ecircumflex
/edieresis /igrave /iacute /icircumflex /idieresis
/eth /ntilde /ograve /oacute /ocircumflex
/otilde /odieresis /divide /oslash /ugrave
/uacute /ucircumflex /udieresis /yacute /thorn
/ydieresis
] def
%%EndResource
%FOPBeginFontReencode
/Courier-Oblique findfont
dup length dict begin
  {1 index /FID ne {def} {pop pop} ifelse} forall
  /Encoding WinAnsiEncoding def
  currentdict
end
/Courier-Oblique exch definefont pop
/Courier-BoldOblique findfont
dup length dict begin
  {1 index /FID ne {def} {pop pop} ifelse} forall
  /Encoding WinAnsiEncoding def
  currentdict
end
/Courier-BoldOblique exch definefont pop
/Courier-Bold findfont
dup length dict begin
  {1 index /FID ne {def} {pop pop} ifelse} forall
  /Encoding WinAnsiEncoding def
  currentdict
end
/Courier-Bold exch definefont pop
/Helvetica findfont
dup length dict begin
  {1 index /FID ne {def} {pop pop} ifelse} forall
  /Encoding WinAnsiEncoding def
  currentdict
end
/Helvetica exch definefont pop
/Helvetica-Oblique findfont
dup length dict begin
  {1 index /FID ne {def} {pop pop} ifelse} forall
  /Encoding WinAnsiEncoding def
  currentdict
end
/Helvetica-Oblique exch definefont pop
/Helvetica-Bold findfont
dup length dict begin
  {1 index /FID ne {def} {pop pop} ifelse} forall
  /Encoding WinAnsiEncoding def
  currentdict
end
/Helvetica-Bold exch definefont pop
/Helvetica-BoldOblique findfont
dup length dict begin
  {1 index /FID ne {def} {pop pop} ifelse} forall
  /Encoding WinAnsiEncoding def
  currentdict
end
/Helvetica-BoldOblique exch definefont pop
/Times-Roman findfont
dup length dict begin
  {1 index /FID ne {def} {pop pop} ifelse} forall
  /Encoding WinAnsiEncoding def
  currentdict
end
/Times-Roman exch definefont pop
/Times-Italic findfont
dup length dict begin
  {1 index /FID ne {def} {pop pop} ifelse} forall
  /Encoding WinAnsiEncoding def
  currentdict
end
/Times-Italic exch definefont pop
/Times-Bold findfont
dup length dict begin
  {1 index /FID ne {def} {pop pop} ifelse} forall
  /Encoding WinAnsiEncoding def
  currentdict
end
/Times-Bold exch definefont pop
/Times-BoldItalic findfont
dup length dict begin
  {1 index /FID ne {def} {pop pop} ifelse} forall
  /Encoding WinAnsiEncoding def
  currentdict
end
/Times-BoldItalic exch definefont pop
/Courier findfont
dup length dict begin
  {1 index /FID ne {def} {pop pop} ifelse} forall
  /Encoding WinAnsiEncoding def
  currentdict
end
/Courier exch definefont pop
%FOPEndFontReencode
%%EndProlog
%%Page: 1 1
%%PageBoundingBox: 0 0 1120 840
%%BeginPageSetup
[1 0 0 -1 0 840] CT
%%EndPageSetup
GS
1 GC
N
0 0 1120 840 re
f
GR
GS
1 GC
N
73 374 M
507 374 L
507 31.5 L
73 31.5 L
cp
f
GR
GS
0.149 GC
2 setlinecap
1 LJ
0.5 LW
N
73 374 M
507 374 L
S
GR
GS
0.149 GC
2 setlinecap
1 LJ
0.5 LW
N
73 31.5 M
507 31.5 L
S
GR
GS
0.149 GC
2 setlinecap
1 LJ
0.5 LW
N
119.28 374 M
119.28 369.66 L
S
GR
GS
0.149 GC
2 setlinecap
1 LJ
0.5 LW
N
183.133 374 M
183.133 369.66 L
S
GR
GS
0.149 GC
2 setlinecap
1 LJ
0.5 LW
N
246.986 374 M
246.986 369.66 L
S
GR
GS
0.149 GC
2 setlinecap
1 LJ
0.5 LW
N
310.84 374 M
310.84 369.66 L
S
GR
GS
0.149 GC
2 setlinecap
1 LJ
0.5 LW
N
374.693 374 M
374.693 369.66 L
S
GR
GS
0.149 GC
2 setlinecap
1 LJ
0.5 LW
N
438.547 374 M
438.547 369.66 L
S
GR
GS
0.149 GC
2 setlinecap
1 LJ
0.5 LW
N
502.4 374 M
502.4 369.66 L
S
GR
GS
0.149 GC
2 setlinecap
1 LJ
0.5 LW
N
119.28 31.5 M
119.28 35.84 L
S
GR
GS
0.149 GC
2 setlinecap
1 LJ
0.5 LW
N
183.133 31.5 M
183.133 35.84 L
S
GR
GS
0.149 GC
2 setlinecap
1 LJ
0.5 LW
N
246.986 31.5 M
246.986 35.84 L
S
GR
GS
0.149 GC
2 setlinecap
1 LJ
0.5 LW
N
310.84 31.5 M
310.84 35.84 L
S
GR
GS
0.149 GC
2 setlinecap
1 LJ
0.5 LW
N
374.693 31.5 M
374.693 35.84 L
S
GR
GS
0.149 GC
2 setlinecap
1 LJ
0.5 LW
N
438.547 31.5 M
438.547 35.84 L
S
GR
GS
0.149 GC
2 setlinecap
1 LJ
0.5 LW
N
502.4 31.5 M
502.4 35.84 L
S
GR
GS
0.149 GC
2 setlinecap
1 LJ
0.5 LW
N
80.968 374 M
80.968 371.83 L
S
GR
GS
0.149 GC
2 setlinecap
1 LJ
0.5 LW
N
93.738 374 M
93.738 371.83 L
S
GR
GS
0.149 GC
2 setlinecap
1 LJ
0.5 LW
N
106.509 374 M
106.509 371.83 L
S
GR
GS
0.149 GC
2 setlinecap
1 LJ
0.5 LW
N
132.05 374 M
132.05 371.83 L
S
GR
GS
0.149 GC
2 setlinecap
1 LJ
0.5 LW
N
144.821 374 M
144.821 371.83 L
S
GR
GS
0.149 GC
2 setlinecap
1 LJ
0.5 LW
N
157.592 374 M
157.592 371.83 L
S
GR
GS
0.149 GC
2 setlinecap
1 LJ
0.5 LW
N
170.362 374 M
170.362 371.83 L
S
GR
GS
0.149 GC
2 setlinecap
1 LJ
0.5 LW
N
195.904 374 M
195.904 371.83 L
S
GR
GS
0.149 GC
2 setlinecap
1 LJ
0.5 LW
N
208.674 374 M
208.674 371.83 L
S
GR
GS
0.149 GC
2 setlinecap
1 LJ
0.5 LW
N
221.445 374 M
221.445 371.83 L
S
GR
GS
0.149 GC
2 setlinecap
1 LJ
0.5 LW
N
234.216 374 M
234.216 371.83 L
S
GR
GS
0.149 GC
2 setlinecap
1 LJ
0.5 LW
N
259.757 374 M
259.757 371.83 L
S
GR
GS
0.149 GC
2 setlinecap
1 LJ
0.5 LW
N
272.528 374 M
272.528 371.83 L
S
GR
GS
0.149 GC
2 setlinecap
1 LJ
0.5 LW
N
285.299 374 M
285.299 371.83 L
S
GR
GS
0.149 GC
2 setlinecap
1 LJ
0.5 LW
N
298.069 374 M
298.069 371.83 L
S
GR
GS
0.149 GC
2 setlinecap
1 LJ
0.5 LW
N
323.611 374 M
323.611 371.83 L
S
GR
GS
0.149 GC
2 setlinecap
1 LJ
0.5 LW
N
336.381 374 M
336.381 371.83 L
S
GR
GS
0.149 GC
2 setlinecap
1 LJ
0.5 LW
N
349.152 374 M
349.152 371.83 L
S
GR
GS
0.149 GC
2 setlinecap
1 LJ
0.5 LW
N
361.923 374 M
361.923 371.83 L
S
GR
GS
0.149 GC
2 setlinecap
1 LJ
0.5 LW
N
387.464 374 M
387.464 371.83 L
S
GR
GS
0.149 GC
2 setlinecap
1 LJ
0.5 LW
N
400.235 374 M
400.235 371.83 L
S
GR
GS
0.149 GC
2 setlinecap
1 LJ
0.5 LW
N
413.005 374 M
413.005 371.83 L
S
GR
GS
0.149 GC
2 setlinecap
1 LJ
0.5 LW
N
425.776 374 M
425.776 371.83 L
S
GR
GS
0.149 GC
2 setlinecap
1 LJ
0.5 LW
N
451.317 374 M
451.317 371.83 L
S
GR
GS
0.149 GC
2 setlinecap
1 LJ
0.5 LW
N
464.088 374 M
464.088 371.83 L
S
GR
GS
0.149 GC
2 setlinecap
1 LJ
0.5 LW
N
476.859 374 M
476.859 371.83 L
S
GR
GS
0.149 GC
2 setlinecap
1 LJ
0.5 LW
N
489.629 374 M
489.629 371.83 L
S
GR
GS
0.149 GC
2 setlinecap
1 LJ
0.5 LW
N
80.968 31.5 M
80.968 33.67 L
S
GR
GS
0.149 GC
2 setlinecap
1 LJ
0.5 LW
N
93.738 31.5 M
93.738 33.67 L
S
GR
GS
0.149 GC
2 setlinecap
1 LJ
0.5 LW
N
106.509 31.5 M
106.509 33.67 L
S
GR
GS
0.149 GC
2 setlinecap
1 LJ
0.5 LW
N
132.05 31.5 M
132.05 33.67 L
S
GR
GS
0.149 GC
2 setlinecap
1 LJ
0.5 LW
N
144.821 31.5 M
144.821 33.67 L
S
GR
GS
0.149 GC
2 setlinecap
1 LJ
0.5 LW
N
157.592 31.5 M
157.592 33.67 L
S
GR
GS
0.149 GC
2 setlinecap
1 LJ
0.5 LW
N
170.362 31.5 M
170.362 33.67 L
S
GR
GS
0.149 GC
2 setlinecap
1 LJ
0.5 LW
N
195.904 31.5 M
195.904 33.67 L
S
GR
GS
0.149 GC
2 setlinecap
1 LJ
0.5 LW
N
208.674 31.5 M
208.674 33.67 L
S
GR
GS
0.149 GC
2 setlinecap
1 LJ
0.5 LW
N
221.445 31.5 M
221.445 33.67 L
S
GR
GS
0.149 GC
2 setlinecap
1 LJ
0.5 LW
N
234.216 31.5 M
234.216 33.67 L
S
GR
GS
0.149 GC
2 setlinecap
1 LJ
0.5 LW
N
259.757 31.5 M
259.757 33.67 L
S
GR
GS
0.149 GC
2 setlinecap
1 LJ
0.5 LW
N
272.528 31.5 M
272.528 33.67 L
S
GR
GS
0.149 GC
2 setlinecap
1 LJ
0.5 LW
N
285.299 31.5 M
285.299 33.67 L
S
GR
GS
0.149 GC
2 setlinecap
1 LJ
0.5 LW
N
298.069 31.5 M
298.069 33.67 L
S
GR
GS
0.149 GC
2 setlinecap
1 LJ
0.5 LW
N
323.611 31.5 M
323.611 33.67 L
S
GR
GS
0.149 GC
2 setlinecap
1 LJ
0.5 LW
N
336.381 31.5 M
336.381 33.67 L
S
GR
GS
0.149 GC
2 setlinecap
1 LJ
0.5 LW
N
349.152 31.5 M
349.152 33.67 L
S
GR
GS
0.149 GC
2 setlinecap
1 LJ
0.5 LW
N
361.923 31.5 M
361.923 33.67 L
S
GR
GS
0.149 GC
2 setlinecap
1 LJ
0.5 LW
N
387.464 31.5 M
387.464 33.67 L
S
GR
GS
0.149 GC
2 setlinecap
1 LJ
0.5 LW
N
400.235 31.5 M
400.235 33.67 L
S
GR
GS
0.149 GC
2 setlinecap
1 LJ
0.5 LW
N
413.005 31.5 M
413.005 33.67 L
S
GR
GS
0.149 GC
2 setlinecap
1 LJ
0.5 LW
N
425.776 31.5 M
425.776 33.67 L
S
GR
GS
0.149 GC
2 setlinecap
1 LJ
0.5 LW
N
451.317 31.5 M
451.317 33.67 L
S
GR
GS
0.149 GC
2 setlinecap
1 LJ
0.5 LW
N
464.088 31.5 M
464.088 33.67 L
S
GR
GS
0.149 GC
2 setlinecap
1 LJ
0.5 LW
N
476.859 31.5 M
476.859 33.67 L
S
GR
GS
0.149 GC
2 setlinecap
1 LJ
0.5 LW
N
489.629 31.5 M
489.629 33.67 L
S
GR
GS
[1 0 0 1 119.27975 378.79999] CT
0.149 GC
/Helvetica 14 F
GS
[1 0 0 1 0 0] CT
-16 14 moveto 
1 -1 scale
(1000) t 
GR
GR
GS
[1 0 0 1 183.13312 378.79999] CT
0.149 GC
/Helvetica 14 F
GS
[1 0 0 1 0 0] CT
-16 14 moveto 
1 -1 scale
(2000) t 
GR
GR
GS
[1 0 0 1 246.9865 378.79999] CT
0.149 GC
/Helvetica 14 F
GS
[1 0 0 1 0 0] CT
-16 14 moveto 
1 -1 scale
(3000) t 
GR
GR
GS
[1 0 0 1 310.83987 378.79999] CT
0.149 GC
/Helvetica 14 F
GS
[1 0 0 1 0 0] CT
-16 14 moveto 
1 -1 scale
(4000) t 
GR
GR
GS
[1 0 0 1 374.69324 378.79999] CT
0.149 GC
/Helvetica 14 F
GS
[1 0 0 1 0 0] CT
-16 14 moveto 
1 -1 scale
(5000) t 
GR
GR
GS
[1 0 0 1 438.54663 378.79999] CT
0.149 GC
/Helvetica 14 F
GS
[1 0 0 1 0 0] CT
-16 14 moveto 
1 -1 scale
(6000) t 
GR
GR
GS
[1 0 0 1 502.39999 378.79999] CT
0.149 GC
/Helvetica 14 F
GS
[1 0 0 1 0 0] CT
-16 14 moveto 
1 -1 scale
(7000) t 
GR
GR
GS
[1 0 0 1 290.00021 396.29996] CT
0.149 GC
/Helvetica 15.4 F
GS
[1 0 0 1 0 0] CT
-42 15 moveto 
1 -1 scale
(Bitrate\(kb/s\)) t 
GR
GR
GS
0.149 GC
2 setlinecap
1 LJ
0.5 LW
N
73 374 M
73 31.5 L
S
GR
GS
0.149 GC
2 setlinecap
1 LJ
0.5 LW
N
507 374 M
507 31.5 L
S
GR
GS
0.149 GC
2 setlinecap
1 LJ
0.5 LW
N
73 354.926 M
77.34 354.926 L
S
GR
GS
0.149 GC
2 setlinecap
1 LJ
0.5 LW
N
73 310.496 M
77.34 310.496 L
S
GR
GS
0.149 GC
2 setlinecap
1 LJ
0.5 LW
N
73 266.065 M
77.34 266.065 L
S
GR
GS
0.149 GC
2 setlinecap
1 LJ
0.5 LW
N
73 221.635 M
77.34 221.635 L
S
GR
GS
0.149 GC
2 setlinecap
1 LJ
0.5 LW
N
73 177.205 M
77.34 177.205 L
S
GR
GS
0.149 GC
2 setlinecap
1 LJ
0.5 LW
N
73 132.775 M
77.34 132.775 L
S
GR
GS
0.149 GC
2 setlinecap
1 LJ
0.5 LW
N
73 88.344 M
77.34 88.344 L
S
GR
GS
0.149 GC
2 setlinecap
1 LJ
0.5 LW
N
73 43.914 M
77.34 43.914 L
S
GR
GS
0.149 GC
2 setlinecap
1 LJ
0.5 LW
N
507 354.926 M
502.66 354.926 L
S
GR
GS
0.149 GC
2 setlinecap
1 LJ
0.5 LW
N
507 310.496 M
502.66 310.496 L
S
GR
GS
0.149 GC
2 setlinecap
1 LJ
0.5 LW
N
507 266.065 M
502.66 266.065 L
S
GR
GS
0.149 GC
2 setlinecap
1 LJ
0.5 LW
N
507 221.635 M
502.66 221.635 L
S
GR
GS
0.149 GC
2 setlinecap
1 LJ
0.5 LW
N
507 177.205 M
502.66 177.205 L
S
GR
GS
0.149 GC
2 setlinecap
1 LJ
0.5 LW
N
507 132.775 M
502.66 132.775 L
S
GR
GS
0.149 GC
2 setlinecap
1 LJ
0.5 LW
N
507 88.344 M
502.66 88.344 L
S
GR
GS
0.149 GC
2 setlinecap
1 LJ
0.5 LW
N
507 43.914 M
502.66 43.914 L
S
GR
GS
0.149 GC
2 setlinecap
1 LJ
0.5 LW
N
73 372.698 M
75.17 372.698 L
S
GR
GS
0.149 GC
2 setlinecap
1 LJ
0.5 LW
N
73 363.812 M
75.17 363.812 L
S
GR
GS
0.149 GC
2 setlinecap
1 LJ
0.5 LW
N
73 346.04 M
75.17 346.04 L
S
GR
GS
0.149 GC
2 setlinecap
1 LJ
0.5 LW
N
73 337.154 M
75.17 337.154 L
S
GR
GS
0.149 GC
2 setlinecap
1 LJ
0.5 LW
N
73 328.268 M
75.17 328.268 L
S
GR
GS
0.149 GC
2 setlinecap
1 LJ
0.5 LW
N
73 319.382 M
75.17 319.382 L
S
GR
GS
0.149 GC
2 setlinecap
1 LJ
0.5 LW
N
73 301.61 M
75.17 301.61 L
S
GR
GS
0.149 GC
2 setlinecap
1 LJ
0.5 LW
N
73 292.724 M
75.17 292.724 L
S
GR
GS
0.149 GC
2 setlinecap
1 LJ
0.5 LW
N
73 283.838 M
75.17 283.838 L
S
GR
GS
0.149 GC
2 setlinecap
1 LJ
0.5 LW
N
73 274.952 M
75.17 274.952 L
S
GR
GS
0.149 GC
2 setlinecap
1 LJ
0.5 LW
N
73 257.179 M
75.17 257.179 L
S
GR
GS
0.149 GC
2 setlinecap
1 LJ
0.5 LW
N
73 248.293 M
75.17 248.293 L
S
GR
GS
0.149 GC
2 setlinecap
1 LJ
0.5 LW
N
73 239.407 M
75.17 239.407 L
S
GR
GS
0.149 GC
2 setlinecap
1 LJ
0.5 LW
N
73 230.521 M
75.17 230.521 L
S
GR
GS
0.149 GC
2 setlinecap
1 LJ
0.5 LW
N
73 212.749 M
75.17 212.749 L
S
GR
GS
0.149 GC
2 setlinecap
1 LJ
0.5 LW
N
73 203.863 M
75.17 203.863 L
S
GR
GS
0.149 GC
2 setlinecap
1 LJ
0.5 LW
N
73 194.977 M
75.17 194.977 L
S
GR
GS
0.149 GC
2 setlinecap
1 LJ
0.5 LW
N
73 186.091 M
75.17 186.091 L
S
GR
GS
0.149 GC
2 setlinecap
1 LJ
0.5 LW
N
73 168.319 M
75.17 168.319 L
S
GR
GS
0.149 GC
2 setlinecap
1 LJ
0.5 LW
N
73 159.433 M
75.17 159.433 L
S
GR
GS
0.149 GC
2 setlinecap
1 LJ
0.5 LW
N
73 150.547 M
75.17 150.547 L
S
GR
GS
0.149 GC
2 setlinecap
1 LJ
0.5 LW
N
73 141.661 M
75.17 141.661 L
S
GR
GS
0.149 GC
2 setlinecap
1 LJ
0.5 LW
N
73 123.889 M
75.17 123.889 L
S
GR
GS
0.149 GC
2 setlinecap
1 LJ
0.5 LW
N
73 115.003 M
75.17 115.003 L
S
GR
GS
0.149 GC
2 setlinecap
1 LJ
0.5 LW
N
73 106.117 M
75.17 106.117 L
S
GR
GS
0.149 GC
2 setlinecap
1 LJ
0.5 LW
N
73 97.231 M
75.17 97.231 L
S
GR
GS
0.149 GC
2 setlinecap
1 LJ
0.5 LW
N
73 79.458 M
75.17 79.458 L
S
GR
GS
0.149 GC
2 setlinecap
1 LJ
0.5 LW
N
73 70.572 M
75.17 70.572 L
S
GR
GS
0.149 GC
2 setlinecap
1 LJ
0.5 LW
N
73 61.686 M
75.17 61.686 L
S
GR
GS
0.149 GC
2 setlinecap
1 LJ
0.5 LW
N
73 52.8 M
75.17 52.8 L
S
GR
GS
0.149 GC
2 setlinecap
1 LJ
0.5 LW
N
73 35.028 M
75.17 35.028 L
S
GR
GS
0.149 GC
2 setlinecap
1 LJ
0.5 LW
N
507 372.698 M
504.83 372.698 L
S
GR
GS
0.149 GC
2 setlinecap
1 LJ
0.5 LW
N
507 363.812 M
504.83 363.812 L
S
GR
GS
0.149 GC
2 setlinecap
1 LJ
0.5 LW
N
507 346.04 M
504.83 346.04 L
S
GR
GS
0.149 GC
2 setlinecap
1 LJ
0.5 LW
N
507 337.154 M
504.83 337.154 L
S
GR
GS
0.149 GC
2 setlinecap
1 LJ
0.5 LW
N
507 328.268 M
504.83 328.268 L
S
GR
GS
0.149 GC
2 setlinecap
1 LJ
0.5 LW
N
507 319.382 M
504.83 319.382 L
S
GR
GS
0.149 GC
2 setlinecap
1 LJ
0.5 LW
N
507 301.61 M
504.83 301.61 L
S
GR
GS
0.149 GC
2 setlinecap
1 LJ
0.5 LW
N
507 292.724 M
504.83 292.724 L
S
GR
GS
0.149 GC
2 setlinecap
1 LJ
0.5 LW
N
507 283.838 M
504.83 283.838 L
S
GR
GS
0.149 GC
2 setlinecap
1 LJ
0.5 LW
N
507 274.952 M
504.83 274.952 L
S
GR
GS
0.149 GC
2 setlinecap
1 LJ
0.5 LW
N
507 257.179 M
504.83 257.179 L
S
GR
GS
0.149 GC
2 setlinecap
1 LJ
0.5 LW
N
507 248.293 M
504.83 248.293 L
S
GR
GS
0.149 GC
2 setlinecap
1 LJ
0.5 LW
N
507 239.407 M
504.83 239.407 L
S
GR
GS
0.149 GC
2 setlinecap
1 LJ
0.5 LW
N
507 230.521 M
504.83 230.521 L
S
GR
GS
0.149 GC
2 setlinecap
1 LJ
0.5 LW
N
507 212.749 M
504.83 212.749 L
S
GR
GS
0.149 GC
2 setlinecap
1 LJ
0.5 LW
N
507 203.863 M
504.83 203.863 L
S
GR
GS
0.149 GC
2 setlinecap
1 LJ
0.5 LW
N
507 194.977 M
504.83 194.977 L
S
GR
GS
0.149 GC
2 setlinecap
1 LJ
0.5 LW
N
507 186.091 M
504.83 186.091 L
S
GR
GS
0.149 GC
2 setlinecap
1 LJ
0.5 LW
N
507 168.319 M
504.83 168.319 L
S
GR
GS
0.149 GC
2 setlinecap
1 LJ
0.5 LW
N
507 159.433 M
504.83 159.433 L
S
GR
GS
0.149 GC
2 setlinecap
1 LJ
0.5 LW
N
507 150.547 M
504.83 150.547 L
S
GR
GS
0.149 GC
2 setlinecap
1 LJ
0.5 LW
N
507 141.661 M
504.83 141.661 L
S
GR
GS
0.149 GC
2 setlinecap
1 LJ
0.5 LW
N
507 123.889 M
504.83 123.889 L
S
GR
GS
0.149 GC
2 setlinecap
1 LJ
0.5 LW
N
507 115.003 M
504.83 115.003 L
S
GR
GS
0.149 GC
2 setlinecap
1 LJ
0.5 LW
N
507 106.117 M
504.83 106.117 L
S
GR
GS
0.149 GC
2 setlinecap
1 LJ
0.5 LW
N
507 97.231 M
504.83 97.231 L
S
GR
GS
0.149 GC
2 setlinecap
1 LJ
0.5 LW
N
507 79.458 M
504.83 79.458 L
S
GR
GS
0.149 GC
2 setlinecap
1 LJ
0.5 LW
N
507 70.572 M
504.83 70.572 L
S
GR
GS
0.149 GC
2 setlinecap
1 LJ
0.5 LW
N
507 61.686 M
504.83 61.686 L
S
GR
GS
0.149 GC
2 setlinecap
1 LJ
0.5 LW
N
507 52.8 M
504.83 52.8 L
S
GR
GS
0.149 GC
2 setlinecap
1 LJ
0.5 LW
N
507 35.028 M
504.83 35.028 L
S
GR
GS
[1 0 0 1 68.2 354.9259] CT
0.149 GC
/Helvetica 14 F
GS
[1 0 0 1 0 0] CT
-16 5.5 moveto 
1 -1 scale
(36) t 
GR
GR
GS
[1 0 0 1 68.2 310.49567] CT
0.149 GC
/Helvetica 14 F
GS
[1 0 0 1 0 0] CT
-16 5.5 moveto 
1 -1 scale
(37) t 
GR
GR
GS
[1 0 0 1 68.2 266.06543] CT
0.149 GC
/Helvetica 14 F
GS
[1 0 0 1 0 0] CT
-16 5.5 moveto 
1 -1 scale
(38) t 
GR
GR
GS
[1 0 0 1 68.2 221.63519] CT
0.149 GC
/Helvetica 14 F
GS
[1 0 0 1 0 0] CT
-16 5.5 moveto 
1 -1 scale
(39) t 
GR
GR
GS
[1 0 0 1 68.2 177.20494] CT
0.149 GC
/Helvetica 14 F
GS
[1 0 0 1 0 0] CT
-16 5.5 moveto 
1 -1 scale
(40) t 
GR
GR
GS
[1 0 0 1 68.2 132.7747] CT
0.149 GC
/Helvetica 14 F
GS
[1 0 0 1 0 0] CT
-16 5.5 moveto 
1 -1 scale
(41) t 
GR
GR
GS
[1 0 0 1 68.2 88.34445] CT
0.149 GC
/Helvetica 14 F
GS
[1 0 0 1 0 0] CT
-16 5.5 moveto 
1 -1 scale
(42) t 
GR
GR
GS
[1 0 0 1 68.2 43.91421] CT
0.149 GC
/Helvetica 14 F
GS
[1 0 0 1 0 0] CT
-16 5.5 moveto 
1 -1 scale
(43) t 
GR
GR
GS
[0 -1 1 0 49.2 202.74982] CT
0.149 GC
/Helvetica 15.4 F
GS
[1 0 0 1 0 0] CT
-49.5 -4 moveto 
1 -1 scale
(APSNR-V \(dB\)) t 
GR
GR
GS
[1 0 0 1 290.00027 29.57502] CT
/Helvetica-Bold 15.4 F
GS
[1 0 0 1 0 0] CT
-108 -4 moveto 
1 -1 scale
(Lecture_1080P-3ce0.y4m-av1) t 
GR
GR
GS
0 0.447 0.741 RC
[10 6] 0 setdash
2 LJ
0.5 LW
N
474.318 36.897 M
185.911 130.733 L
118.536 197.699 L
87.632 273.921 L
74.45 364.198 L
S
GR
GS
0.851 0.325 0.098 RC
1 LJ
0.5 LW
N
468.435 38.05 M
184.404 131.643 L
117.703 198.869 L
87.213 275.487 L
74.38 364.771 L
S
GR
GS
0.929 0.694 0.125 RC
1 LJ
0.5 LW
N
500.608 34.928 M
199.788 126.728 L
125.63 189.446 L
92.16 256.6 L
77.503 334.617 L
S
GR
GS
0.494 0.184 0.557 RC
1 LJ
0.5 LW
N
358.986 71.915 M
143.156 173.689 L
103.152 227.094 L
84.257 284.852 L
73 374 L
S
GR
GS
0.467 0.675 0.188 RC
1 LJ
0.5 LW
N
507 31.5 M
201.311 121.426 L
126.179 186.373 L
90.431 263.992 L
75.661 352.829 L
S
GR
GS
0.302 0.745 0.933 RC
[10 6] 0 setdash
2 LJ
0.5 LW
N
437.947 44.162 M
188.026 129.331 L
121.611 192.863 L
88.802 269.281 L
75.128 357.927 L
S
GR
GS
0.635 0.078 0.184 RC
[10 6] 0 setdash
2 LJ
0.5 LW
N
441.884 46.638 M
194.158 129.946 L
125.339 189.528 L
92.111 256.712 L
77.431 334.649 L
S
GR
GS
0 0.447 0.741 RC
[10 6] 0 setdash
2 LJ
0.5 LW
N
315.44 90.359 M
140.434 177.082 L
103.096 227.178 L
84.415 284.619 L
73.128 372.968 L
S
GR
GS
0.851 0.325 0.098 RC
[10 6] 0 setdash
2 LJ
0.5 LW
N
464.673 38.821 M
204.048 120.16 L
129.74 181.576 L
92.283 257.635 L
76.272 347.815 L
S
GR
GS
1 GC
N
499 366 M
499 218.5 L
327.5 218.5 L
327.5 366 L
cp
f
GR
GS
[1 0 0 1 364.5 228.25] CT
/Helvetica 13 F
GS
[1 0 0 1 0 0] CT
0 5 moveto 
1 -1 scale
(Base Run) t 
GR
GR
GS
0 0.447 0.741 RC
[10 6] 0 setdash
2 LJ
0.5 LW
N
331.5 228.25 M
361.5 228.25 L
S
GR
GS
[1 0 0 1 364.5 244.25] CT
/Helvetica 13 F
GS
[1 0 0 1 0 0] CT
0 5 moveto 
1 -1 scale
(All Frames) t 
GR
GR
GS
0.851 0.325 0.098 RC
1 LJ
0.5 LW
N
331.5 244.25 M
361.5 244.25 L
S
GR
GS
[1 0 0 1 364.5 260.25] CT
/Helvetica 13 F
GS
[1 0 0 1 0 0] CT
0 5 moveto 
1 -1 scale
(KF Only) t 
GR
GR
GS
0.929 0.694 0.125 RC
1 LJ
0.5 LW
N
331.5 260.25 M
361.5 260.25 L
S
GR
GS
[1 0 0 1 364.5 276.25] CT
/Helvetica 13 F
GS
[1 0 0 1 0 0] CT
0 5 moveto 
1 -1 scale
(GF, ARF Only) t 
GR
GR
GS
0.494 0.184 0.557 RC
1 LJ
0.5 LW
N
331.5 276.25 M
361.5 276.25 L
S
GR
GS
[1 0 0 1 364.5 292.25] CT
/Helvetica 13 F
GS
[1 0 0 1 0 0] CT
0 5 moveto 
1 -1 scale
(KF, GF, ARF Only) t 
GR
GR
GS
0.467 0.675 0.188 RC
1 LJ
0.5 LW
N
331.5 292.25 M
361.5 292.25 L
S
GR
GS
[1 0 0 1 364.5 308.25] CT
/Helvetica 13 F
GS
[1 0 0 1 0 0] CT
0 5 moveto 
1 -1 scale
(Part All Frames) t 
GR
GR
GS
0.302 0.745 0.933 RC
[10 6] 0 setdash
2 LJ
0.5 LW
N
331.5 308.25 M
361.5 308.25 L
S
GR
GS
[1 0 0 1 364.5 324.25] CT
/Helvetica 13 F
GS
[1 0 0 1 0 0] CT
0 5 moveto 
1 -1 scale
(Part KF Only) t 
GR
GR
GS
0.635 0.078 0.184 RC
[10 6] 0 setdash
2 LJ
0.5 LW
N
331.5 324.25 M
361.5 324.25 L
S
GR
GS
[1 0 0 1 364.5 340.25] CT
/Helvetica 13 F
GS
[1 0 0 1 0 0] CT
0 5 moveto 
1 -1 scale
(Part GF, ARF Only) t 
GR
GR
GS
0 0.447 0.741 RC
[10 6] 0 setdash
2 LJ
0.5 LW
N
331.5 340.25 M
361.5 340.25 L
S
GR
GS
[1 0 0 1 364.5 356.25] CT
/Helvetica 13 F
GS
[1 0 0 1 0 0] CT
0 5 moveto 
1 -1 scale
(Part KF, GF, ARF Only) t 
GR
GR
GS
0.851 0.325 0.098 RC
[10 6] 0 setdash
2 LJ
0.5 LW
N
331.5 356.25 M
361.5 356.25 L
S
GR
GS
0.149 GC
10.0 ML
0.5 LW
N
327.5 366 M
327.5 218.5 L
499 218.5 L
499 366 L
cp
S
GR
%%Trailer
%%Pages: 1
%%EOF
