%!PS-Adobe-3.0 EPSF-3.0
%%Creator: (MATLAB, The Mathworks, Inc. Version 9.11.0.1837725 \(R2021b\) Update 2. Operating System: Mac OS X)
%%Title: plots/pchip/FoodMarket_1920x1080_5994_10bit_420.y4m-hevc-PSNRU.eps
%%CreationDate: 2022-02-03T19:14:05
%%Pages: (atend)
%%BoundingBox:    22   425   508   826
%%LanguageLevel: 3
%%EndComments
%%BeginProlog
%%BeginResource: procset (Apache XML Graphics Std ProcSet) 1.2 0
%%Version: 1.2 0
%%Copyright: (Copyright 2001-2003,2010 The Apache Software Foundation. License terms: http://www.apache.org/licenses/LICENSE-2.0)
/bd{bind def}bind def
/ld{load def}bd
/GR/grestore ld
/GS/gsave ld
/RM/rmoveto ld
/C/curveto ld
/t/show ld
/L/lineto ld
/ML/setmiterlimit ld
/CT/concat ld
/f/fill ld
/N/newpath ld
/S/stroke ld
/CC/setcmykcolor ld
/A/ashow ld
/cp/closepath ld
/RC/setrgbcolor ld
/LJ/setlinejoin ld
/GC/setgray ld
/LW/setlinewidth ld
/M/moveto ld
/re {4 2 roll M
1 index 0 rlineto
0 exch rlineto
neg 0 rlineto
cp } bd
/_ctm matrix def
/_tm matrix def
/BT { _ctm currentmatrix pop matrix _tm copy pop 0 0 moveto } bd
/ET { _ctm setmatrix } bd
/iTm { _ctm setmatrix _tm concat } bd
/Tm { _tm astore pop iTm 0 0 moveto } bd
/ux 0.0 def
/uy 0.0 def
/F {
  /Tp exch def
  /Tf exch def
  Tf findfont Tp scalefont setfont
  /cf Tf def  /cs Tp def
} bd
/ULS {currentpoint /uy exch def /ux exch def} bd
/ULE {
  /Tcx currentpoint pop def
  gsave
  newpath
  cf findfont cs scalefont dup
  /FontMatrix get 0 get /Ts exch def /FontInfo get dup
  /UnderlinePosition get Ts mul /To exch def
  /UnderlineThickness get Ts mul /Tt exch def
  ux uy To add moveto  Tcx uy To add lineto
  Tt setlinewidth stroke
  grestore
} bd
/OLE {
  /Tcx currentpoint pop def
  gsave
  newpath
  cf findfont cs scalefont dup
  /FontMatrix get 0 get /Ts exch def /FontInfo get dup
  /UnderlinePosition get Ts mul /To exch def
  /UnderlineThickness get Ts mul /Tt exch def
  ux uy To add cs add moveto Tcx uy To add cs add lineto
  Tt setlinewidth stroke
  grestore
} bd
/SOE {
  /Tcx currentpoint pop def
  gsave
  newpath
  cf findfont cs scalefont dup
  /FontMatrix get 0 get /Ts exch def /FontInfo get dup
  /UnderlinePosition get Ts mul /To exch def
  /UnderlineThickness get Ts mul /Tt exch def
  ux uy To add cs 10 mul 26 idiv add moveto Tcx uy To add cs 10 mul 26 idiv add lineto
  Tt setlinewidth stroke
  grestore
} bd
/QT {
/Y22 exch store
/X22 exch store
/Y21 exch store
/X21 exch store
currentpoint
/Y21 load 2 mul add 3 div exch
/X21 load 2 mul add 3 div exch
/X21 load 2 mul /X22 load add 3 div
/Y21 load 2 mul /Y22 load add 3 div
/X22 load /Y22 load curveto
} bd
/SSPD {
dup length /d exch dict def
{
/v exch def
/k exch def
currentpagedevice k known {
/cpdv currentpagedevice k get def
v cpdv ne {
/upd false def
/nullv v type /nulltype eq def
/nullcpdv cpdv type /nulltype eq def
nullv nullcpdv or
{
/upd true def
} {
/sametype v type cpdv type eq def
sametype {
v type /arraytype eq {
/vlen v length def
/cpdvlen cpdv length def
vlen cpdvlen eq {
0 1 vlen 1 sub {
/i exch def
/obj v i get def
/cpdobj cpdv i get def
obj cpdobj ne {
/upd true def
exit
} if
} for
} {
/upd true def
} ifelse
} {
v type /dicttype eq {
v {
/dv exch def
/dk exch def
/cpddv cpdv dk get def
dv cpddv ne {
/upd true def
exit
} if
} forall
} {
/upd true def
} ifelse
} ifelse
} if
} ifelse
upd true eq {
d k v put
} if
} if
} if
} forall
d length 0 gt {
d setpagedevice
} if
} bd
/RE { % /NewFontName [NewEncodingArray] /FontName RE -
  findfont dup length dict begin
  {
    1 index /FID ne
    {def} {pop pop} ifelse
  } forall
  /Encoding exch def
  /FontName 1 index def
  currentdict definefont pop
  end
} bind def
%%EndResource
%%BeginResource: procset (Apache XML Graphics EPS ProcSet) 1.0 0
%%Version: 1.0 0
%%Copyright: (Copyright 2002-2003 The Apache Software Foundation. License terms: http://www.apache.org/licenses/LICENSE-2.0)
/BeginEPSF { %def
/b4_Inc_state save def         % Save state for cleanup
/dict_count countdictstack def % Count objects on dict stack
/op_count count 1 sub def      % Count objects on operand stack
userdict begin                 % Push userdict on dict stack
/showpage { } def              % Redefine showpage, { } = null proc
0 setgray 0 setlinecap         % Prepare graphics state
1 setlinewidth 0 setlinejoin
10 setmiterlimit [ ] 0 setdash newpath
/languagelevel where           % If level not equal to 1 then
{pop languagelevel             % set strokeadjust and
1 ne                           % overprint to their defaults.
{false setstrokeadjust false setoverprint
} if
} if
} bd
/EndEPSF { %def
count op_count sub {pop} repeat            % Clean up stacks
countdictstack dict_count sub {end} repeat
b4_Inc_state restore
} bd
%%EndResource
%FOPBeginFontDict
%%IncludeResource: font Courier-Oblique
%%IncludeResource: font Courier-BoldOblique
%%IncludeResource: font Courier-Bold
%%IncludeResource: font ZapfDingbats
%%IncludeResource: font Symbol
%%IncludeResource: font Helvetica
%%IncludeResource: font Helvetica-Oblique
%%IncludeResource: font Helvetica-Bold
%%IncludeResource: font Helvetica-BoldOblique
%%IncludeResource: font Times-Roman
%%IncludeResource: font Times-Italic
%%IncludeResource: font Times-Bold
%%IncludeResource: font Times-BoldItalic
%%IncludeResource: font Courier
%FOPEndFontDict
%%BeginResource: encoding WinAnsiEncoding
/WinAnsiEncoding [
/.notdef /.notdef /.notdef /.notdef /.notdef
/.notdef /.notdef /.notdef /.notdef /.notdef
/.notdef /.notdef /.notdef /.notdef /.notdef
/.notdef /.notdef /.notdef /.notdef /.notdef
/.notdef /.notdef /.notdef /.notdef /.notdef
/.notdef /.notdef /.notdef /.notdef /.notdef
/.notdef /.notdef /space /exclam /quotedbl
/numbersign /dollar /percent /ampersand /quotesingle
/parenleft /parenright /asterisk /plus /comma
/hyphen /period /slash /zero /one
/two /three /four /five /six
/seven /eight /nine /colon /semicolon
/less /equal /greater /question /at
/A /B /C /D /E
/F /G /H /I /J
/K /L /M /N /O
/P /Q /R /S /T
/U /V /W /X /Y
/Z /bracketleft /backslash /bracketright /asciicircum
/underscore /quoteleft /a /b /c
/d /e /f /g /h
/i /j /k /l /m
/n /o /p /q /r
/s /t /u /v /w
/x /y /z /braceleft /bar
/braceright /asciitilde /bullet /Euro /bullet
/quotesinglbase /florin /quotedblbase /ellipsis /dagger
/daggerdbl /circumflex /perthousand /Scaron /guilsinglleft
/OE /bullet /Zcaron /bullet /bullet
/quoteleft /quoteright /quotedblleft /quotedblright /bullet
/endash /emdash /asciitilde /trademark /scaron
/guilsinglright /oe /bullet /zcaron /Ydieresis
/space /exclamdown /cent /sterling /currency
/yen /brokenbar /section /dieresis /copyright
/ordfeminine /guillemotleft /logicalnot /sfthyphen /registered
/macron /degree /plusminus /twosuperior /threesuperior
/acute /mu /paragraph /middot /cedilla
/onesuperior /ordmasculine /guillemotright /onequarter /onehalf
/threequarters /questiondown /Agrave /Aacute /Acircumflex
/Atilde /Adieresis /Aring /AE /Ccedilla
/Egrave /Eacute /Ecircumflex /Edieresis /Igrave
/Iacute /Icircumflex /Idieresis /Eth /Ntilde
/Ograve /Oacute /Ocircumflex /Otilde /Odieresis
/multiply /Oslash /Ugrave /Uacute /Ucircumflex
/Udieresis /Yacute /Thorn /germandbls /agrave
/aacute /acircumflex /atilde /adieresis /aring
/ae /ccedilla /egrave /eacute /ecircumflex
/edieresis /igrave /iacute /icircumflex /idieresis
/eth /ntilde /ograve /oacute /ocircumflex
/otilde /odieresis /divide /oslash /ugrave
/uacute /ucircumflex /udieresis /yacute /thorn
/ydieresis
] def
%%EndResource
%FOPBeginFontReencode
/Courier-Oblique findfont
dup length dict begin
  {1 index /FID ne {def} {pop pop} ifelse} forall
  /Encoding WinAnsiEncoding def
  currentdict
end
/Courier-Oblique exch definefont pop
/Courier-BoldOblique findfont
dup length dict begin
  {1 index /FID ne {def} {pop pop} ifelse} forall
  /Encoding WinAnsiEncoding def
  currentdict
end
/Courier-BoldOblique exch definefont pop
/Courier-Bold findfont
dup length dict begin
  {1 index /FID ne {def} {pop pop} ifelse} forall
  /Encoding WinAnsiEncoding def
  currentdict
end
/Courier-Bold exch definefont pop
/Helvetica findfont
dup length dict begin
  {1 index /FID ne {def} {pop pop} ifelse} forall
  /Encoding WinAnsiEncoding def
  currentdict
end
/Helvetica exch definefont pop
/Helvetica-Oblique findfont
dup length dict begin
  {1 index /FID ne {def} {pop pop} ifelse} forall
  /Encoding WinAnsiEncoding def
  currentdict
end
/Helvetica-Oblique exch definefont pop
/Helvetica-Bold findfont
dup length dict begin
  {1 index /FID ne {def} {pop pop} ifelse} forall
  /Encoding WinAnsiEncoding def
  currentdict
end
/Helvetica-Bold exch definefont pop
/Helvetica-BoldOblique findfont
dup length dict begin
  {1 index /FID ne {def} {pop pop} ifelse} forall
  /Encoding WinAnsiEncoding def
  currentdict
end
/Helvetica-BoldOblique exch definefont pop
/Times-Roman findfont
dup length dict begin
  {1 index /FID ne {def} {pop pop} ifelse} forall
  /Encoding WinAnsiEncoding def
  currentdict
end
/Times-Roman exch definefont pop
/Times-Italic findfont
dup length dict begin
  {1 index /FID ne {def} {pop pop} ifelse} forall
  /Encoding WinAnsiEncoding def
  currentdict
end
/Times-Italic exch definefont pop
/Times-Bold findfont
dup length dict begin
  {1 index /FID ne {def} {pop pop} ifelse} forall
  /Encoding WinAnsiEncoding def
  currentdict
end
/Times-Bold exch definefont pop
/Times-BoldItalic findfont
dup length dict begin
  {1 index /FID ne {def} {pop pop} ifelse} forall
  /Encoding WinAnsiEncoding def
  currentdict
end
/Times-BoldItalic exch definefont pop
/Courier findfont
dup length dict begin
  {1 index /FID ne {def} {pop pop} ifelse} forall
  /Encoding WinAnsiEncoding def
  currentdict
end
/Courier exch definefont pop
%FOPEndFontReencode
%%EndProlog
%%Page: 1 1
%%PageBoundingBox: 0 0 1120 840
%%BeginPageSetup
[1 0 0 -1 0 840] CT
%%EndPageSetup
GS
1 GC
N
0 0 1120 840 re
f
GR
GS
1 GC
N
73 374 M
507 374 L
507 31.5 L
73 31.5 L
cp
f
GR
GS
0.149 GC
2 setlinecap
1 LJ
0.5 LW
N
73 374 M
507 374 L
S
GR
GS
0.149 GC
2 setlinecap
1 LJ
0.5 LW
N
73 31.5 M
507 31.5 L
S
GR
GS
0.149 GC
2 setlinecap
1 LJ
0.5 LW
N
131.215 374 M
131.215 369.66 L
S
GR
GS
0.149 GC
2 setlinecap
1 LJ
0.5 LW
N
210.077 374 M
210.077 369.66 L
S
GR
GS
0.149 GC
2 setlinecap
1 LJ
0.5 LW
N
288.94 374 M
288.94 369.66 L
S
GR
GS
0.149 GC
2 setlinecap
1 LJ
0.5 LW
N
367.803 374 M
367.803 369.66 L
S
GR
GS
0.149 GC
2 setlinecap
1 LJ
0.5 LW
N
446.667 374 M
446.667 369.66 L
S
GR
GS
0.149 GC
2 setlinecap
1 LJ
0.5 LW
N
131.215 31.5 M
131.215 35.84 L
S
GR
GS
0.149 GC
2 setlinecap
1 LJ
0.5 LW
N
210.077 31.5 M
210.077 35.84 L
S
GR
GS
0.149 GC
2 setlinecap
1 LJ
0.5 LW
N
288.94 31.5 M
288.94 35.84 L
S
GR
GS
0.149 GC
2 setlinecap
1 LJ
0.5 LW
N
367.803 31.5 M
367.803 35.84 L
S
GR
GS
0.149 GC
2 setlinecap
1 LJ
0.5 LW
N
446.667 31.5 M
446.667 35.84 L
S
GR
GS
0.149 GC
2 setlinecap
1 LJ
0.5 LW
N
91.783 374 M
91.783 371.83 L
S
GR
GS
0.149 GC
2 setlinecap
1 LJ
0.5 LW
N
111.499 374 M
111.499 371.83 L
S
GR
GS
0.149 GC
2 setlinecap
1 LJ
0.5 LW
N
150.93 374 M
150.93 371.83 L
S
GR
GS
0.149 GC
2 setlinecap
1 LJ
0.5 LW
N
170.646 374 M
170.646 371.83 L
S
GR
GS
0.149 GC
2 setlinecap
1 LJ
0.5 LW
N
190.362 374 M
190.362 371.83 L
S
GR
GS
0.149 GC
2 setlinecap
1 LJ
0.5 LW
N
229.793 374 M
229.793 371.83 L
S
GR
GS
0.149 GC
2 setlinecap
1 LJ
0.5 LW
N
249.509 374 M
249.509 371.83 L
S
GR
GS
0.149 GC
2 setlinecap
1 LJ
0.5 LW
N
269.225 374 M
269.225 371.83 L
S
GR
GS
0.149 GC
2 setlinecap
1 LJ
0.5 LW
N
308.656 374 M
308.656 371.83 L
S
GR
GS
0.149 GC
2 setlinecap
1 LJ
0.5 LW
N
328.372 374 M
328.372 371.83 L
S
GR
GS
0.149 GC
2 setlinecap
1 LJ
0.5 LW
N
348.088 374 M
348.088 371.83 L
S
GR
GS
0.149 GC
2 setlinecap
1 LJ
0.5 LW
N
387.519 374 M
387.519 371.83 L
S
GR
GS
0.149 GC
2 setlinecap
1 LJ
0.5 LW
N
407.235 374 M
407.235 371.83 L
S
GR
GS
0.149 GC
2 setlinecap
1 LJ
0.5 LW
N
426.951 374 M
426.951 371.83 L
S
GR
GS
0.149 GC
2 setlinecap
1 LJ
0.5 LW
N
466.382 374 M
466.382 371.83 L
S
GR
GS
0.149 GC
2 setlinecap
1 LJ
0.5 LW
N
486.098 374 M
486.098 371.83 L
S
GR
GS
0.149 GC
2 setlinecap
1 LJ
0.5 LW
N
505.814 374 M
505.814 371.83 L
S
GR
GS
0.149 GC
2 setlinecap
1 LJ
0.5 LW
N
91.783 31.5 M
91.783 33.67 L
S
GR
GS
0.149 GC
2 setlinecap
1 LJ
0.5 LW
N
111.499 31.5 M
111.499 33.67 L
S
GR
GS
0.149 GC
2 setlinecap
1 LJ
0.5 LW
N
150.93 31.5 M
150.93 33.67 L
S
GR
GS
0.149 GC
2 setlinecap
1 LJ
0.5 LW
N
170.646 31.5 M
170.646 33.67 L
S
GR
GS
0.149 GC
2 setlinecap
1 LJ
0.5 LW
N
190.362 31.5 M
190.362 33.67 L
S
GR
GS
0.149 GC
2 setlinecap
1 LJ
0.5 LW
N
229.793 31.5 M
229.793 33.67 L
S
GR
GS
0.149 GC
2 setlinecap
1 LJ
0.5 LW
N
249.509 31.5 M
249.509 33.67 L
S
GR
GS
0.149 GC
2 setlinecap
1 LJ
0.5 LW
N
269.225 31.5 M
269.225 33.67 L
S
GR
GS
0.149 GC
2 setlinecap
1 LJ
0.5 LW
N
308.656 31.5 M
308.656 33.67 L
S
GR
GS
0.149 GC
2 setlinecap
1 LJ
0.5 LW
N
328.372 31.5 M
328.372 33.67 L
S
GR
GS
0.149 GC
2 setlinecap
1 LJ
0.5 LW
N
348.088 31.5 M
348.088 33.67 L
S
GR
GS
0.149 GC
2 setlinecap
1 LJ
0.5 LW
N
387.519 31.5 M
387.519 33.67 L
S
GR
GS
0.149 GC
2 setlinecap
1 LJ
0.5 LW
N
407.235 31.5 M
407.235 33.67 L
S
GR
GS
0.149 GC
2 setlinecap
1 LJ
0.5 LW
N
426.951 31.5 M
426.951 33.67 L
S
GR
GS
0.149 GC
2 setlinecap
1 LJ
0.5 LW
N
466.382 31.5 M
466.382 33.67 L
S
GR
GS
0.149 GC
2 setlinecap
1 LJ
0.5 LW
N
486.098 31.5 M
486.098 33.67 L
S
GR
GS
0.149 GC
2 setlinecap
1 LJ
0.5 LW
N
505.814 31.5 M
505.814 33.67 L
S
GR
GS
[1 0 0 1 131.21451 378.79984] CT
0.149 GC
/Helvetica 14 F
GS
[1 0 0 1 0 0] CT
-16 14 moveto 
1 -1 scale
(2000) t 
GR
GR
GS
[1 0 0 1 210.0775 378.79984] CT
0.149 GC
/Helvetica 14 F
GS
[1 0 0 1 0 0] CT
-16 14 moveto 
1 -1 scale
(4000) t 
GR
GR
GS
[1 0 0 1 288.94049 378.79984] CT
0.149 GC
/Helvetica 14 F
GS
[1 0 0 1 0 0] CT
-16 14 moveto 
1 -1 scale
(6000) t 
GR
GR
GS
[1 0 0 1 367.8035 378.79984] CT
0.149 GC
/Helvetica 14 F
GS
[1 0 0 1 0 0] CT
-16 14 moveto 
1 -1 scale
(8000) t 
GR
GR
GS
[1 0 0 1 446.6665 378.79984] CT
0.149 GC
/Helvetica 14 F
GS
[1 0 0 1 0 0] CT
-19.5 14 moveto 
1 -1 scale
(10000) t 
GR
GR
GS
[1 0 0 1 290.00021 396.30011] CT
0.149 GC
/Helvetica 15.4 F
GS
[1 0 0 1 0 0] CT
-42 15 moveto 
1 -1 scale
(Bitrate\(kb/s\)) t 
GR
GR
GS
0.149 GC
2 setlinecap
1 LJ
0.5 LW
N
73 374 M
73 31.5 L
S
GR
GS
0.149 GC
2 setlinecap
1 LJ
0.5 LW
N
507 374 M
507 31.5 L
S
GR
GS
0.149 GC
2 setlinecap
1 LJ
0.5 LW
N
73 366.765 M
77.34 366.765 L
S
GR
GS
0.149 GC
2 setlinecap
1 LJ
0.5 LW
N
73 323.2 M
77.34 323.2 L
S
GR
GS
0.149 GC
2 setlinecap
1 LJ
0.5 LW
N
73 279.635 M
77.34 279.635 L
S
GR
GS
0.149 GC
2 setlinecap
1 LJ
0.5 LW
N
73 236.07 M
77.34 236.07 L
S
GR
GS
0.149 GC
2 setlinecap
1 LJ
0.5 LW
N
73 192.504 M
77.34 192.504 L
S
GR
GS
0.149 GC
2 setlinecap
1 LJ
0.5 LW
N
73 148.939 M
77.34 148.939 L
S
GR
GS
0.149 GC
2 setlinecap
1 LJ
0.5 LW
N
73 105.374 M
77.34 105.374 L
S
GR
GS
0.149 GC
2 setlinecap
1 LJ
0.5 LW
N
73 61.809 M
77.34 61.809 L
S
GR
GS
0.149 GC
2 setlinecap
1 LJ
0.5 LW
N
507 366.765 M
502.66 366.765 L
S
GR
GS
0.149 GC
2 setlinecap
1 LJ
0.5 LW
N
507 323.2 M
502.66 323.2 L
S
GR
GS
0.149 GC
2 setlinecap
1 LJ
0.5 LW
N
507 279.635 M
502.66 279.635 L
S
GR
GS
0.149 GC
2 setlinecap
1 LJ
0.5 LW
N
507 236.07 M
502.66 236.07 L
S
GR
GS
0.149 GC
2 setlinecap
1 LJ
0.5 LW
N
507 192.504 M
502.66 192.504 L
S
GR
GS
0.149 GC
2 setlinecap
1 LJ
0.5 LW
N
507 148.939 M
502.66 148.939 L
S
GR
GS
0.149 GC
2 setlinecap
1 LJ
0.5 LW
N
507 105.374 M
502.66 105.374 L
S
GR
GS
0.149 GC
2 setlinecap
1 LJ
0.5 LW
N
507 61.809 M
502.66 61.809 L
S
GR
GS
0.149 GC
2 setlinecap
1 LJ
0.5 LW
N
73 358.053 M
75.17 358.053 L
S
GR
GS
0.149 GC
2 setlinecap
1 LJ
0.5 LW
N
73 349.339 M
75.17 349.339 L
S
GR
GS
0.149 GC
2 setlinecap
1 LJ
0.5 LW
N
73 340.626 M
75.17 340.626 L
S
GR
GS
0.149 GC
2 setlinecap
1 LJ
0.5 LW
N
73 331.913 M
75.17 331.913 L
S
GR
GS
0.149 GC
2 setlinecap
1 LJ
0.5 LW
N
73 314.487 M
75.17 314.487 L
S
GR
GS
0.149 GC
2 setlinecap
1 LJ
0.5 LW
N
73 305.774 M
75.17 305.774 L
S
GR
GS
0.149 GC
2 setlinecap
1 LJ
0.5 LW
N
73 297.061 M
75.17 297.061 L
S
GR
GS
0.149 GC
2 setlinecap
1 LJ
0.5 LW
N
73 288.348 M
75.17 288.348 L
S
GR
GS
0.149 GC
2 setlinecap
1 LJ
0.5 LW
N
73 270.922 M
75.17 270.922 L
S
GR
GS
0.149 GC
2 setlinecap
1 LJ
0.5 LW
N
73 262.209 M
75.17 262.209 L
S
GR
GS
0.149 GC
2 setlinecap
1 LJ
0.5 LW
N
73 253.496 M
75.17 253.496 L
S
GR
GS
0.149 GC
2 setlinecap
1 LJ
0.5 LW
N
73 244.783 M
75.17 244.783 L
S
GR
GS
0.149 GC
2 setlinecap
1 LJ
0.5 LW
N
73 227.357 M
75.17 227.357 L
S
GR
GS
0.149 GC
2 setlinecap
1 LJ
0.5 LW
N
73 218.643 M
75.17 218.643 L
S
GR
GS
0.149 GC
2 setlinecap
1 LJ
0.5 LW
N
73 209.931 M
75.17 209.931 L
S
GR
GS
0.149 GC
2 setlinecap
1 LJ
0.5 LW
N
73 201.217 M
75.17 201.217 L
S
GR
GS
0.149 GC
2 setlinecap
1 LJ
0.5 LW
N
73 183.791 M
75.17 183.791 L
S
GR
GS
0.149 GC
2 setlinecap
1 LJ
0.5 LW
N
73 175.078 M
75.17 175.078 L
S
GR
GS
0.149 GC
2 setlinecap
1 LJ
0.5 LW
N
73 166.365 M
75.17 166.365 L
S
GR
GS
0.149 GC
2 setlinecap
1 LJ
0.5 LW
N
73 157.652 M
75.17 157.652 L
S
GR
GS
0.149 GC
2 setlinecap
1 LJ
0.5 LW
N
73 140.226 M
75.17 140.226 L
S
GR
GS
0.149 GC
2 setlinecap
1 LJ
0.5 LW
N
73 131.513 M
75.17 131.513 L
S
GR
GS
0.149 GC
2 setlinecap
1 LJ
0.5 LW
N
73 122.8 M
75.17 122.8 L
S
GR
GS
0.149 GC
2 setlinecap
1 LJ
0.5 LW
N
73 114.087 M
75.17 114.087 L
S
GR
GS
0.149 GC
2 setlinecap
1 LJ
0.5 LW
N
73 96.661 M
75.17 96.661 L
S
GR
GS
0.149 GC
2 setlinecap
1 LJ
0.5 LW
N
73 87.948 M
75.17 87.948 L
S
GR
GS
0.149 GC
2 setlinecap
1 LJ
0.5 LW
N
73 79.235 M
75.17 79.235 L
S
GR
GS
0.149 GC
2 setlinecap
1 LJ
0.5 LW
N
73 70.521 M
75.17 70.521 L
S
GR
GS
0.149 GC
2 setlinecap
1 LJ
0.5 LW
N
73 53.096 M
75.17 53.096 L
S
GR
GS
0.149 GC
2 setlinecap
1 LJ
0.5 LW
N
73 44.382 M
75.17 44.382 L
S
GR
GS
0.149 GC
2 setlinecap
1 LJ
0.5 LW
N
73 35.669 M
75.17 35.669 L
S
GR
GS
0.149 GC
2 setlinecap
1 LJ
0.5 LW
N
507 358.053 M
504.83 358.053 L
S
GR
GS
0.149 GC
2 setlinecap
1 LJ
0.5 LW
N
507 349.339 M
504.83 349.339 L
S
GR
GS
0.149 GC
2 setlinecap
1 LJ
0.5 LW
N
507 340.626 M
504.83 340.626 L
S
GR
GS
0.149 GC
2 setlinecap
1 LJ
0.5 LW
N
507 331.913 M
504.83 331.913 L
S
GR
GS
0.149 GC
2 setlinecap
1 LJ
0.5 LW
N
507 314.487 M
504.83 314.487 L
S
GR
GS
0.149 GC
2 setlinecap
1 LJ
0.5 LW
N
507 305.774 M
504.83 305.774 L
S
GR
GS
0.149 GC
2 setlinecap
1 LJ
0.5 LW
N
507 297.061 M
504.83 297.061 L
S
GR
GS
0.149 GC
2 setlinecap
1 LJ
0.5 LW
N
507 288.348 M
504.83 288.348 L
S
GR
GS
0.149 GC
2 setlinecap
1 LJ
0.5 LW
N
507 270.922 M
504.83 270.922 L
S
GR
GS
0.149 GC
2 setlinecap
1 LJ
0.5 LW
N
507 262.209 M
504.83 262.209 L
S
GR
GS
0.149 GC
2 setlinecap
1 LJ
0.5 LW
N
507 253.496 M
504.83 253.496 L
S
GR
GS
0.149 GC
2 setlinecap
1 LJ
0.5 LW
N
507 244.783 M
504.83 244.783 L
S
GR
GS
0.149 GC
2 setlinecap
1 LJ
0.5 LW
N
507 227.357 M
504.83 227.357 L
S
GR
GS
0.149 GC
2 setlinecap
1 LJ
0.5 LW
N
507 218.643 M
504.83 218.643 L
S
GR
GS
0.149 GC
2 setlinecap
1 LJ
0.5 LW
N
507 209.931 M
504.83 209.931 L
S
GR
GS
0.149 GC
2 setlinecap
1 LJ
0.5 LW
N
507 201.217 M
504.83 201.217 L
S
GR
GS
0.149 GC
2 setlinecap
1 LJ
0.5 LW
N
507 183.791 M
504.83 183.791 L
S
GR
GS
0.149 GC
2 setlinecap
1 LJ
0.5 LW
N
507 175.078 M
504.83 175.078 L
S
GR
GS
0.149 GC
2 setlinecap
1 LJ
0.5 LW
N
507 166.365 M
504.83 166.365 L
S
GR
GS
0.149 GC
2 setlinecap
1 LJ
0.5 LW
N
507 157.652 M
504.83 157.652 L
S
GR
GS
0.149 GC
2 setlinecap
1 LJ
0.5 LW
N
507 140.226 M
504.83 140.226 L
S
GR
GS
0.149 GC
2 setlinecap
1 LJ
0.5 LW
N
507 131.513 M
504.83 131.513 L
S
GR
GS
0.149 GC
2 setlinecap
1 LJ
0.5 LW
N
507 122.8 M
504.83 122.8 L
S
GR
GS
0.149 GC
2 setlinecap
1 LJ
0.5 LW
N
507 114.087 M
504.83 114.087 L
S
GR
GS
0.149 GC
2 setlinecap
1 LJ
0.5 LW
N
507 96.661 M
504.83 96.661 L
S
GR
GS
0.149 GC
2 setlinecap
1 LJ
0.5 LW
N
507 87.948 M
504.83 87.948 L
S
GR
GS
0.149 GC
2 setlinecap
1 LJ
0.5 LW
N
507 79.235 M
504.83 79.235 L
S
GR
GS
0.149 GC
2 setlinecap
1 LJ
0.5 LW
N
507 70.521 M
504.83 70.521 L
S
GR
GS
0.149 GC
2 setlinecap
1 LJ
0.5 LW
N
507 53.096 M
504.83 53.096 L
S
GR
GS
0.149 GC
2 setlinecap
1 LJ
0.5 LW
N
507 44.382 M
504.83 44.382 L
S
GR
GS
0.149 GC
2 setlinecap
1 LJ
0.5 LW
N
507 35.669 M
504.83 35.669 L
S
GR
GS
[1 0 0 1 68.2 366.76547] CT
0.149 GC
/Helvetica 14 F
GS
[1 0 0 1 0 0] CT
-16 5.5 moveto 
1 -1 scale
(40) t 
GR
GR
GS
[1 0 0 1 68.2 323.2002] CT
0.149 GC
/Helvetica 14 F
GS
[1 0 0 1 0 0] CT
-28 5.5 moveto 
1 -1 scale
(40.5) t 
GR
GR
GS
[1 0 0 1 68.2 279.63492] CT
0.149 GC
/Helvetica 14 F
GS
[1 0 0 1 0 0] CT
-16 5.5 moveto 
1 -1 scale
(41) t 
GR
GR
GS
[1 0 0 1 68.2 236.06966] CT
0.149 GC
/Helvetica 14 F
GS
[1 0 0 1 0 0] CT
-28 5.5 moveto 
1 -1 scale
(41.5) t 
GR
GR
GS
[1 0 0 1 68.2 192.50438] CT
0.149 GC
/Helvetica 14 F
GS
[1 0 0 1 0 0] CT
-16 5.5 moveto 
1 -1 scale
(42) t 
GR
GR
GS
[1 0 0 1 68.2 148.9391] CT
0.149 GC
/Helvetica 14 F
GS
[1 0 0 1 0 0] CT
-28 5.5 moveto 
1 -1 scale
(42.5) t 
GR
GR
GS
[1 0 0 1 68.2 105.37384] CT
0.149 GC
/Helvetica 14 F
GS
[1 0 0 1 0 0] CT
-16 5.5 moveto 
1 -1 scale
(43) t 
GR
GR
GS
[1 0 0 1 68.2 61.80857] CT
0.149 GC
/Helvetica 14 F
GS
[1 0 0 1 0 0] CT
-28 5.5 moveto 
1 -1 scale
(43.5) t 
GR
GR
GS
[0 -1 1 0 37.7 202.74989] CT
0.149 GC
/Helvetica 15.4 F
GS
[1 0 0 1 0 0] CT
-42.5 -4 moveto 
1 -1 scale
(PSNR U\(dB\)) t 
GR
GR
GS
[1 0 0 1 290.00027 29.57501] CT
/Helvetica-Bold 15.4 F
GS
[1 0 0 1 0 0] CT
-184.5 -4 moveto 
1 -1 scale
(FoodMarket_1920x1080_5994_10bit_420.y4m-hevc) t 
GR
GR
GS
0 0.447 0.741 RC
1 LJ
0.5 LW
N
73.396 368.608 M
74.185 366.719 L
74.974 364.833 L
75.762 362.951 L
76.551 361.072 L
77.34 359.197 L
78.128 357.326 L
78.917 355.46 L
79.706 353.598 L
80.494 351.74 L
81.283 349.888 L
82.071 348.041 L
82.86 346.199 L
83.649 344.363 L
84.437 342.532 L
85.226 340.708 L
86.015 338.89 L
86.803 337.079 L
87.592 335.275 L
88.38 333.478 L
89.169 331.687 L
89.958 329.905 L
90.746 328.13 L
91.535 326.363 L
92.324 324.605 L
93.112 322.855 L
93.901 321.113 L
94.689 319.381 L
95.478 317.651 L
96.267 315.916 L
97.055 314.174 L
97.844 312.427 L
98.633 310.675 L
99.421 308.919 L
100.21 307.159 L
100.999 305.397 L
101.787 303.632 L
102.576 301.865 L
103.364 300.097 L
104.153 298.328 L
104.942 296.56 L
105.73 294.792 L
106.519 293.026 L
107.308 291.261 L
108.096 289.499 L
108.885 287.74 L
109.673 285.985 L
110.462 284.235 L
111.251 282.489 L
112.039 280.749 L
112.828 279.015 L
113.617 277.288 L
114.405 275.568 L
115.194 273.857 L
115.983 272.154 L
116.771 270.46 L
117.56 268.777 L
118.348 267.103 L
119.137 265.441 L
119.926 263.791 L
120.714 262.153 L
121.503 260.528 L
122.292 258.917 L
123.08 257.319 L
123.869 255.737 L
124.657 254.17 L
125.446 252.619 L
126.235 251.084 L
127.023 249.567 L
127.812 248.068 L
128.601 246.587 L
129.389 245.126 L
130.178 243.684 L
130.966 242.262 L
131.755 240.861 L
132.544 239.482 L
133.332 238.125 L
134.121 236.791 L
134.91 235.48 L
135.698 234.193 L
136.487 232.931 L
137.276 231.694 L
138.064 230.48 L
138.853 229.272 L
139.641 228.066 L
140.43 226.862 L
141.219 225.662 L
142.007 224.464 L
142.796 223.269 L
143.585 222.077 L
144.373 220.889 L
145.162 219.703 L
145.95 218.52 L
146.739 217.341 L
147.528 216.165 L
148.316 214.993 L
149.105 213.824 L
149.894 212.658 L
150.682 211.497 L
151.471 210.338 L
152.259 209.184 L
153.048 208.034 L
153.837 206.887 L
154.625 205.744 L
155.414 204.606 L
156.203 203.471 L
156.991 202.341 L
157.78 201.215 L
158.569 200.093 L
159.357 198.976 L
160.146 197.863 L
160.934 196.754 L
161.723 195.651 L
162.512 194.552 L
163.3 193.458 L
164.089 192.368 L
164.878 191.284 L
165.666 190.204 L
166.455 189.129 L
167.243 188.06 L
168.032 186.996 L
168.821 185.937 L
169.609 184.883 L
170.398 183.835 L
171.187 182.792 L
171.975 181.755 L
172.764 180.723 L
173.553 179.697 L
174.341 178.677 L
175.13 177.662 L
175.918 176.654 L
176.707 175.651 L
177.496 174.655 L
178.284 173.664 L
179.073 172.68 L
179.862 171.702 L
180.65 170.73 L
181.439 169.765 L
182.227 168.806 L
183.016 167.854 L
183.805 166.908 L
184.593 165.969 L
185.382 165.036 L
186.171 164.111 L
186.959 163.192 L
187.748 162.281 L
188.536 161.376 L
189.325 160.479 L
190.114 159.588 L
190.902 158.705 L
191.691 157.829 L
192.48 156.961 L
193.268 156.1 L
194.057 155.246 L
194.846 154.4 L
195.634 153.562 L
196.423 152.732 L
197.211 151.909 L
198 151.094 L
198.789 150.288 L
199.577 149.489 L
200.366 148.698 L
201.155 147.915 L
201.943 147.141 L
202.732 146.375 L
203.52 145.618 L
204.309 144.868 L
205.098 144.128 L
205.886 143.396 L
206.675 142.672 L
207.464 141.958 L
208.252 141.252 L
209.041 140.555 L
209.829 139.867 L
210.618 139.188 L
211.407 138.517 L
212.195 137.857 L
212.984 137.205 L
213.773 136.563 L
214.561 135.93 L
215.35 135.306 L
216.139 134.692 L
216.927 134.088 L
217.716 133.494 L
218.504 132.909 L
219.293 132.333 L
220.082 131.768 L
220.87 131.212 L
221.659 130.667 L
222.448 130.132 L
223.236 129.607 L
224.025 129.092 L
224.813 128.587 L
225.602 128.093 L
226.391 127.609 L
227.179 127.134 L
227.968 126.66 L
228.757 126.187 L
229.545 125.714 L
230.334 125.242 L
231.122 124.77 L
231.911 124.299 L
232.7 123.829 L
233.488 123.359 L
234.277 122.89 L
235.066 122.422 L
235.854 121.954 L
236.643 121.487 L
237.432 121.02 L
238.22 120.555 L
239.009 120.089 L
239.797 119.625 L
240.586 119.161 L
241.375 118.698 L
242.163 118.236 L
242.952 117.774 L
243.741 117.313 L
244.529 116.853 L
245.318 116.394 L
246.106 115.935 L
246.895 115.477 L
247.684 115.02 L
248.472 114.563 L
249.261 114.107 L
250.05 113.652 L
250.838 113.198 L
251.627 112.744 L
252.415 112.291 L
253.204 111.839 L
253.993 111.388 L
254.781 110.937 L
255.57 110.488 L
256.359 110.039 L
257.147 109.591 L
257.936 109.143 L
258.725 108.697 L
259.513 108.251 L
260.302 107.806 L
261.09 107.362 L
261.879 106.919 L
262.668 106.476 L
263.456 106.035 L
264.245 105.594 L
265.034 105.154 L
265.822 104.715 L
266.611 104.277 L
267.399 103.84 L
268.188 103.404 L
268.977 102.968 L
269.765 102.533 L
270.554 102.1 L
271.343 101.667 L
272.131 101.235 L
272.92 100.804 L
273.708 100.374 L
274.497 99.944 L
275.286 99.516 L
276.074 99.089 L
276.863 98.662 L
277.652 98.236 L
278.44 97.812 L
279.229 97.388 L
280.018 96.966 L
280.806 96.544 L
281.595 96.123 L
282.383 95.703 L
283.172 95.285 L
283.961 94.867 L
284.749 94.45 L
285.538 94.034 L
286.327 93.619 L
287.115 93.205 L
287.904 92.792 L
288.692 92.381 L
289.481 91.97 L
290.27 91.56 L
291.058 91.151 L
291.847 90.743 L
292.636 90.337 L
293.424 89.931 L
294.213 89.526 L
295.002 89.123 L
295.79 88.72 L
296.579 88.319 L
297.367 87.919 L
298.156 87.52 L
298.945 87.121 L
299.733 86.724 L
300.522 86.328 L
301.311 85.933 L
302.099 85.54 L
302.888 85.147 L
303.676 84.755 L
304.465 84.365 L
305.254 83.976 L
306.042 83.588 L
306.831 83.2 L
307.62 82.814 L
308.408 82.43 L
309.197 82.046 L
309.985 81.664 L
310.774 81.283 L
311.563 80.902 L
312.351 80.523 L
313.14 80.146 L
313.929 79.769 L
314.717 79.394 L
315.506 79.02 L
316.295 78.647 L
317.083 78.275 L
317.872 77.904 L
318.66 77.535 L
319.449 77.167 L
320.238 76.8 L
321.026 76.434 L
321.815 76.07 L
322.604 75.707 L
323.392 75.345 L
324.181 74.984 L
324.969 74.625 L
325.758 74.267 L
326.547 73.91 L
327.335 73.554 L
328.124 73.2 L
328.913 72.847 L
329.701 72.495 L
330.49 72.145 L
331.279 71.796 L
332.067 71.448 L
332.856 71.102 L
333.644 70.757 L
334.433 70.413 L
335.222 70.07 L
336.01 69.729 L
336.799 69.389 L
337.588 69.051 L
338.376 68.714 L
339.165 68.378 L
339.953 68.044 L
340.742 67.711 L
341.531 67.379 L
342.319 67.049 L
343.108 66.72 L
343.897 66.393 L
344.685 66.067 L
345.474 65.742 L
346.262 65.419 L
347.051 65.097 L
347.84 64.777 L
348.628 64.458 L
349.417 64.14 L
350.206 63.824 L
350.994 63.509 L
351.783 63.196 L
352.572 62.884 L
353.36 62.574 L
354.149 62.265 L
354.937 61.958 L
355.726 61.652 L
356.515 61.347 L
357.303 61.044 L
358.092 60.743 L
358.881 60.443 L
359.669 60.145 L
360.458 59.848 L
361.246 59.552 L
362.035 59.258 L
362.824 58.966 L
363.612 58.675 L
364.401 58.385 L
365.19 58.098 L
365.978 57.811 L
366.767 57.527 L
367.555 57.244 L
368.344 56.962 L
369.133 56.682 L
369.921 56.403 L
370.71 56.127 L
371.499 55.851 L
372.287 55.578 L
373.076 55.306 L
373.865 55.035 L
374.653 54.766 L
375.442 54.499 L
376.23 54.233 L
377.019 53.969 L
377.808 53.707 L
378.596 53.446 L
379.385 53.187 L
380.174 52.929 L
380.962 52.673 L
381.751 52.419 L
382.539 52.166 L
383.328 51.915 L
384.117 51.666 L
384.905 51.418 L
385.694 51.173 L
386.483 50.929 L
387.271 50.686 L
388.06 50.445 L
388.848 50.206 L
389.637 49.969 L
390.426 49.733 L
391.214 49.499 L
392.003 49.267 L
392.792 49.036 L
393.58 48.807 L
394.369 48.58 L
395.158 48.355 L
395.946 48.131 L
396.735 47.91 L
397.523 47.69 L
398.312 47.471 L
399.101 47.255 L
399.889 47.04 L
400.678 46.827 L
401.467 46.616 L
402.255 46.407 L
403.044 46.199 L
403.832 45.993 L
404.621 45.789 L
405.41 45.587 L
406.198 45.387 L
406.987 45.188 L
407.776 44.992 L
408.564 44.797 L
409.353 44.604 L
410.142 44.413 L
410.93 44.224 L
411.719 44.036 L
412.507 43.85 L
413.296 43.667 L
414.085 43.485 L
414.873 43.305 L
415.662 43.127 L
416.451 42.951 L
417.239 42.776 L
418.028 42.604 L
418.816 42.434 L
419.605 42.265 L
420.394 42.099 L
421.182 41.934 L
421.971 41.771 L
422.76 41.61 L
423.548 41.451 L
424.337 41.294 L
425.125 41.139 L
425.914 40.986 L
426.703 40.835 L
427.491 40.686 L
428.28 40.539 L
429.069 40.394 L
429.857 40.251 L
430.646 40.109 L
431.435 39.97 L
432.223 39.833 L
433.012 39.698 L
433.8 39.565 L
434.589 39.434 L
435.378 39.304 L
436.166 39.177 L
436.955 39.052 L
437.744 38.929 L
438.532 38.808 L
439.321 38.689 L
440.109 38.572 L
440.898 38.457 L
441.687 38.344 L
442.475 38.234 L
443.264 38.125 L
444.053 38.019 L
444.841 37.914 L
445.63 37.812 L
446.418 37.712 L
447.207 37.613 L
447.996 37.517 L
448.784 37.423 L
449.573 37.331 L
450.362 37.242 L
451.15 37.154 L
451.939 37.069 L
452.728 36.985 L
453.516 36.904 L
454.305 36.825 L
455.093 36.748 L
455.882 36.674 L
456.671 36.601 L
457.459 36.531 L
458.248 36.463 L
459.037 36.397 L
459.825 36.333 L
460.614 36.271 L
461.402 36.212 L
462.191 36.155 L
462.98 36.1 L
463.768 36.047 L
464.557 35.996 L
465.346 35.948 L
466.134 35.902 L
466.923 35.858 L
467.711 35.816 L
468.5 35.777 L
469.289 35.74 L
470.077 35.705 L
470.866 35.672 L
471.655 35.642 L
472.443 35.614 L
473.232 35.588 L
474.021 35.565 L
474.809 35.544 L
475.598 35.525 L
476.386 35.508 L
477.175 35.494 L
477.964 35.482 L
478.752 35.472 L
479.541 35.465 L
480.33 35.46 L
481.118 35.457 L
S
GR
GS
0.851 0.325 0.098 RC
1 LJ
0.5 LW
N
74.119 365.383 M
74.907 363.433 L
75.696 361.487 L
76.485 359.545 L
77.273 357.607 L
78.062 355.674 L
78.851 353.747 L
79.639 351.824 L
80.428 349.908 L
81.216 347.997 L
82.005 346.094 L
82.794 344.196 L
83.582 342.306 L
84.371 340.423 L
85.16 338.548 L
85.948 336.681 L
86.737 334.822 L
87.525 332.972 L
88.314 331.13 L
89.103 329.298 L
89.891 327.476 L
90.68 325.663 L
91.469 323.861 L
92.257 322.068 L
93.046 320.287 L
93.835 318.517 L
94.623 316.758 L
95.412 315.012 L
96.2 313.277 L
96.989 311.544 L
97.778 309.807 L
98.566 308.065 L
99.355 306.321 L
100.144 304.573 L
100.932 302.824 L
101.721 301.072 L
102.509 299.32 L
103.298 297.566 L
104.087 295.813 L
104.875 294.06 L
105.664 292.308 L
106.453 290.557 L
107.241 288.809 L
108.03 287.063 L
108.819 285.32 L
109.607 283.581 L
110.396 281.846 L
111.184 280.116 L
111.973 278.391 L
112.762 276.672 L
113.55 274.959 L
114.339 273.254 L
115.128 271.556 L
115.916 269.865 L
116.705 268.184 L
117.493 266.511 L
118.282 264.848 L
119.071 263.196 L
119.859 261.554 L
120.648 259.923 L
121.437 258.304 L
122.225 256.698 L
123.014 255.105 L
123.802 253.524 L
124.591 251.959 L
125.38 250.407 L
126.168 248.87 L
126.957 247.35 L
127.746 245.845 L
128.534 244.357 L
129.323 242.886 L
130.112 241.434 L
130.9 239.999 L
131.689 238.583 L
132.477 237.187 L
133.266 235.811 L
134.055 234.455 L
134.843 233.121 L
135.632 231.808 L
136.421 230.517 L
137.209 229.249 L
137.998 228.004 L
138.786 226.782 L
139.575 225.585 L
140.364 224.412 L
141.152 223.247 L
141.941 222.085 L
142.73 220.926 L
143.518 219.769 L
144.307 218.616 L
145.095 217.466 L
145.884 216.319 L
146.673 215.175 L
147.461 214.035 L
148.25 212.898 L
149.039 211.764 L
149.827 210.634 L
150.616 209.507 L
151.405 208.384 L
152.193 207.265 L
152.982 206.149 L
153.77 205.037 L
154.559 203.929 L
155.348 202.825 L
156.136 201.724 L
156.925 200.628 L
157.714 199.535 L
158.502 198.447 L
159.291 197.363 L
160.079 196.283 L
160.868 195.208 L
161.657 194.136 L
162.445 193.069 L
163.234 192.007 L
164.023 190.949 L
164.811 189.896 L
165.6 188.847 L
166.388 187.803 L
167.177 186.764 L
167.966 185.729 L
168.754 184.7 L
169.543 183.675 L
170.332 182.655 L
171.12 181.64 L
171.909 180.631 L
172.698 179.626 L
173.486 178.627 L
174.275 177.633 L
175.063 176.644 L
175.852 175.66 L
176.641 174.682 L
177.429 173.709 L
178.218 172.743 L
179.007 171.781 L
179.795 170.825 L
180.584 169.876 L
181.372 168.931 L
182.161 167.993 L
182.95 167.06 L
183.738 166.134 L
184.527 165.213 L
185.316 164.299 L
186.104 163.39 L
186.893 162.488 L
187.682 161.592 L
188.47 160.702 L
189.259 159.819 L
190.047 158.942 L
190.836 158.071 L
191.625 157.208 L
192.413 156.35 L
193.202 155.5 L
193.991 154.655 L
194.779 153.818 L
195.568 152.987 L
196.356 152.164 L
197.145 151.347 L
197.934 150.538 L
198.722 149.735 L
199.511 148.939 L
200.3 148.151 L
201.088 147.37 L
201.877 146.596 L
202.665 145.829 L
203.454 145.07 L
204.243 144.318 L
205.031 143.574 L
205.82 142.837 L
206.609 142.108 L
207.397 141.387 L
208.186 140.673 L
208.975 139.967 L
209.763 139.269 L
210.552 138.579 L
211.34 137.896 L
212.129 137.222 L
212.918 136.556 L
213.706 135.898 L
214.495 135.248 L
215.284 134.607 L
216.072 133.974 L
216.861 133.348 L
217.649 132.732 L
218.438 132.124 L
219.227 131.525 L
220.015 130.934 L
220.804 130.352 L
221.593 129.778 L
222.381 129.213 L
223.17 128.657 L
223.958 128.11 L
224.747 127.572 L
225.536 127.043 L
226.324 126.523 L
227.113 126.012 L
227.902 125.511 L
228.69 125.018 L
229.479 124.535 L
230.268 124.061 L
231.056 123.597 L
231.845 123.142 L
232.633 122.692 L
233.422 122.242 L
234.211 121.793 L
234.999 121.345 L
235.788 120.897 L
236.577 120.45 L
237.365 120.003 L
238.154 119.557 L
238.942 119.112 L
239.731 118.667 L
240.52 118.223 L
241.308 117.779 L
242.097 117.336 L
242.886 116.894 L
243.674 116.452 L
244.463 116.011 L
245.251 115.57 L
246.04 115.13 L
246.829 114.691 L
247.617 114.252 L
248.406 113.814 L
249.195 113.377 L
249.983 112.94 L
250.772 112.504 L
251.561 112.069 L
252.349 111.634 L
253.138 111.2 L
253.926 110.766 L
254.715 110.334 L
255.504 109.901 L
256.292 109.47 L
257.081 109.04 L
257.87 108.61 L
258.658 108.18 L
259.447 107.752 L
260.235 107.324 L
261.024 106.896 L
261.813 106.47 L
262.601 106.045 L
263.39 105.619 L
264.179 105.195 L
264.967 104.772 L
265.756 104.349 L
266.544 103.927 L
267.333 103.506 L
268.122 103.085 L
268.91 102.665 L
269.699 102.246 L
270.488 101.828 L
271.276 101.411 L
272.065 100.994 L
272.854 100.578 L
273.642 100.163 L
274.431 99.748 L
275.219 99.335 L
276.008 98.922 L
276.797 98.51 L
277.585 98.099 L
278.374 97.689 L
279.163 97.279 L
279.951 96.871 L
280.74 96.462 L
281.528 96.056 L
282.317 95.649 L
283.106 95.244 L
283.894 94.839 L
284.683 94.436 L
285.472 94.033 L
286.26 93.631 L
287.049 93.23 L
287.838 92.83 L
288.626 92.43 L
289.415 92.032 L
290.203 91.634 L
290.992 91.238 L
291.781 90.842 L
292.569 90.447 L
293.358 90.053 L
294.147 89.66 L
294.935 89.268 L
295.724 88.876 L
296.512 88.486 L
297.301 88.097 L
298.09 87.708 L
298.878 87.32 L
299.667 86.934 L
300.456 86.548 L
301.244 86.163 L
302.033 85.78 L
302.822 85.397 L
303.61 85.015 L
304.399 84.634 L
305.187 84.254 L
305.976 83.875 L
306.765 83.497 L
307.553 83.12 L
308.342 82.744 L
309.131 82.368 L
309.919 81.994 L
310.708 81.621 L
311.496 81.249 L
312.285 80.878 L
313.074 80.508 L
313.862 80.139 L
314.651 79.771 L
315.44 79.404 L
316.228 79.038 L
317.017 78.673 L
317.805 78.309 L
318.594 77.946 L
319.383 77.584 L
320.171 77.224 L
320.96 76.864 L
321.749 76.505 L
322.537 76.148 L
323.326 75.791 L
324.115 75.436 L
324.903 75.081 L
325.692 74.728 L
326.48 74.376 L
327.269 74.025 L
328.058 73.675 L
328.846 73.326 L
329.635 72.978 L
330.424 72.631 L
331.212 72.286 L
332.001 71.941 L
332.789 71.598 L
333.578 71.256 L
334.367 70.915 L
335.155 70.575 L
335.944 70.236 L
336.733 69.899 L
337.521 69.562 L
338.31 69.227 L
339.098 68.893 L
339.887 68.56 L
340.676 68.228 L
341.464 67.897 L
342.253 67.568 L
343.042 67.24 L
343.83 66.913 L
344.619 66.586 L
345.408 66.262 L
346.196 65.938 L
346.985 65.616 L
347.773 65.295 L
348.562 64.975 L
349.351 64.657 L
350.139 64.339 L
350.928 64.023 L
351.717 63.708 L
352.505 63.394 L
353.294 63.082 L
354.082 62.77 L
354.871 62.461 L
355.66 62.152 L
356.448 61.844 L
357.237 61.538 L
358.026 61.233 L
358.814 60.93 L
359.603 60.627 L
360.391 60.326 L
361.18 60.026 L
361.969 59.728 L
362.757 59.431 L
363.546 59.135 L
364.335 58.84 L
365.123 58.547 L
365.912 58.255 L
366.701 57.964 L
367.489 57.675 L
368.278 57.387 L
369.066 57.1 L
369.855 56.815 L
370.644 56.531 L
371.432 56.248 L
372.221 55.967 L
373.01 55.687 L
373.798 55.409 L
374.587 55.131 L
375.375 54.856 L
376.164 54.581 L
376.953 54.308 L
377.741 54.036 L
378.53 53.766 L
379.319 53.497 L
380.107 53.229 L
380.896 52.963 L
381.684 52.698 L
382.473 52.435 L
383.262 52.173 L
384.05 51.913 L
384.839 51.654 L
385.628 51.396 L
386.416 51.14 L
387.205 50.885 L
387.993 50.632 L
388.782 50.38 L
389.571 50.13 L
390.359 49.881 L
391.148 49.633 L
391.937 49.387 L
392.725 49.142 L
393.514 48.899 L
394.303 48.658 L
395.091 48.417 L
395.88 48.179 L
396.668 47.942 L
397.457 47.706 L
398.246 47.472 L
399.034 47.239 L
399.823 47.008 L
400.612 46.778 L
401.4 46.55 L
402.189 46.324 L
402.977 46.099 L
403.766 45.875 L
404.555 45.653 L
405.343 45.433 L
406.132 45.214 L
406.921 44.996 L
407.709 44.781 L
408.498 44.566 L
409.287 44.353 L
410.075 44.142 L
410.864 43.933 L
411.652 43.725 L
412.441 43.519 L
413.23 43.314 L
414.018 43.11 L
414.807 42.909 L
415.596 42.709 L
416.384 42.51 L
417.173 42.314 L
417.961 42.119 L
418.75 41.925 L
419.539 41.733 L
420.327 41.543 L
421.116 41.354 L
421.905 41.167 L
422.693 40.982 L
423.482 40.798 L
424.27 40.616 L
425.059 40.435 L
425.848 40.256 L
426.636 40.079 L
427.425 39.904 L
428.214 39.73 L
429.002 39.558 L
429.791 39.387 L
430.58 39.219 L
431.368 39.051 L
432.157 38.886 L
432.945 38.722 L
433.734 38.56 L
434.523 38.4 L
435.311 38.242 L
436.1 38.085 L
436.889 37.93 L
437.677 37.776 L
438.466 37.625 L
439.254 37.475 L
440.043 37.326 L
440.832 37.18 L
441.62 37.035 L
442.409 36.892 L
443.198 36.751 L
443.986 36.612 L
444.775 36.474 L
445.564 36.338 L
446.352 36.204 L
447.141 36.072 L
447.929 35.941 L
448.718 35.813 L
449.507 35.686 L
450.295 35.56 L
451.084 35.437 L
451.873 35.315 L
452.661 35.196 L
453.45 35.078 L
454.238 34.962 L
455.027 34.848 L
455.816 34.735 L
456.604 34.624 L
457.393 34.516 L
458.182 34.409 L
458.97 34.304 L
459.759 34.201 L
460.547 34.099 L
461.336 34 L
462.125 33.902 L
462.913 33.806 L
463.702 33.712 L
464.491 33.621 L
465.279 33.531 L
466.068 33.442 L
466.857 33.356 L
467.645 33.271 L
468.434 33.189 L
469.222 33.108 L
470.011 33.03 L
470.8 32.953 L
471.588 32.878 L
472.377 32.805 L
473.166 32.734 L
473.954 32.665 L
474.743 32.598 L
475.531 32.533 L
476.32 32.469 L
477.109 32.408 L
477.897 32.349 L
478.686 32.291 L
479.475 32.236 L
480.263 32.183 L
481.052 32.131 L
481.84 32.081 L
482.629 32.034 L
483.418 31.988 L
484.206 31.945 L
484.995 31.903 L
485.784 31.864 L
486.572 31.826 L
487.361 31.791 L
488.15 31.757 L
488.938 31.726 L
489.727 31.697 L
490.515 31.669 L
491.304 31.644 L
492.093 31.62 L
492.881 31.599 L
493.67 31.58 L
494.459 31.563 L
495.247 31.547 L
496.036 31.534 L
496.824 31.523 L
497.613 31.514 L
498.402 31.507 L
499.19 31.503 L
499.979 31.5 L
S
GR
GS
0.929 0.694 0.125 RC
1 LJ
0.5 LW
N
73 374 M
73.789 372.074 L
74.577 370.151 L
75.366 368.232 L
76.155 366.315 L
76.943 364.403 L
77.732 362.494 L
78.52 360.59 L
79.309 358.691 L
80.098 356.796 L
80.886 354.905 L
81.675 353.02 L
82.464 351.14 L
83.252 349.266 L
84.041 347.398 L
84.829 345.535 L
85.618 343.679 L
86.407 341.829 L
87.195 339.986 L
87.984 338.15 L
88.773 336.321 L
89.561 334.499 L
90.35 332.685 L
91.138 330.879 L
91.927 329.081 L
92.716 327.291 L
93.504 325.509 L
94.293 323.736 L
95.082 321.962 L
95.87 320.181 L
96.659 318.393 L
97.448 316.598 L
98.236 314.798 L
99.025 312.993 L
99.813 311.184 L
100.602 309.371 L
101.391 307.556 L
102.179 305.738 L
102.968 303.919 L
103.757 302.099 L
104.545 300.279 L
105.334 298.459 L
106.122 296.641 L
106.911 294.825 L
107.7 293.011 L
108.488 291.2 L
109.277 289.393 L
110.066 287.592 L
110.854 285.795 L
111.643 284.004 L
112.431 282.22 L
113.22 280.444 L
114.009 278.675 L
114.797 276.915 L
115.586 275.164 L
116.375 273.424 L
117.163 271.694 L
117.952 269.976 L
118.741 268.27 L
119.529 266.576 L
120.318 264.896 L
121.106 263.23 L
121.895 261.579 L
122.684 259.944 L
123.472 258.324 L
124.261 256.722 L
125.05 255.137 L
125.838 253.57 L
126.627 252.022 L
127.415 250.493 L
128.204 248.985 L
128.993 247.498 L
129.781 246.033 L
130.57 244.589 L
131.359 243.169 L
132.147 241.773 L
132.936 240.4 L
133.725 239.053 L
134.513 237.731 L
135.302 236.436 L
136.09 235.168 L
136.879 233.926 L
137.668 232.695 L
138.456 231.468 L
139.245 230.242 L
140.034 229.021 L
140.822 227.802 L
141.611 226.587 L
142.399 225.375 L
143.188 224.166 L
143.977 222.961 L
144.765 221.759 L
145.554 220.561 L
146.343 219.367 L
147.131 218.176 L
147.92 216.99 L
148.708 215.807 L
149.497 214.628 L
150.286 213.453 L
151.074 212.282 L
151.863 211.115 L
152.652 209.952 L
153.44 208.794 L
154.229 207.64 L
155.018 206.491 L
155.806 205.346 L
156.595 204.205 L
157.383 203.07 L
158.172 201.939 L
158.961 200.812 L
159.749 199.69 L
160.538 198.574 L
161.327 197.462 L
162.115 196.355 L
162.904 195.254 L
163.692 194.157 L
164.481 193.066 L
165.27 191.98 L
166.058 190.899 L
166.847 189.824 L
167.636 188.755 L
168.424 187.69 L
169.213 186.632 L
170.001 185.579 L
170.79 184.532 L
171.579 183.491 L
172.367 182.455 L
173.156 181.426 L
173.945 180.403 L
174.733 179.385 L
175.522 178.374 L
176.311 177.369 L
177.099 176.371 L
177.888 175.379 L
178.676 174.393 L
179.465 173.414 L
180.254 172.441 L
181.042 171.475 L
181.831 170.515 L
182.62 169.563 L
183.408 168.617 L
184.197 167.678 L
184.985 166.746 L
185.774 165.822 L
186.563 164.904 L
187.351 163.993 L
188.14 163.09 L
188.929 162.194 L
189.717 161.305 L
190.506 160.424 L
191.294 159.55 L
192.083 158.684 L
192.872 157.826 L
193.66 156.975 L
194.449 156.132 L
195.238 155.297 L
196.026 154.47 L
196.815 153.65 L
197.604 152.839 L
198.392 152.036 L
199.181 151.241 L
199.969 150.454 L
200.758 149.676 L
201.547 148.906 L
202.335 148.145 L
203.124 147.392 L
203.913 146.647 L
204.701 145.911 L
205.49 145.185 L
206.278 144.466 L
207.067 143.757 L
207.856 143.056 L
208.644 142.365 L
209.433 141.683 L
210.222 141.009 L
211.01 140.345 L
211.799 139.69 L
212.588 139.045 L
213.376 138.409 L
214.165 137.782 L
214.953 137.165 L
215.742 136.557 L
216.531 135.96 L
217.319 135.371 L
218.108 134.793 L
218.897 134.225 L
219.685 133.666 L
220.474 133.118 L
221.262 132.579 L
222.051 132.051 L
222.84 131.533 L
223.628 131.025 L
224.417 130.527 L
225.206 130.04 L
225.994 129.558 L
226.783 129.076 L
227.571 128.595 L
228.36 128.115 L
229.149 127.635 L
229.937 127.156 L
230.726 126.678 L
231.515 126.2 L
232.303 125.722 L
233.092 125.246 L
233.881 124.77 L
234.669 124.294 L
235.458 123.82 L
236.246 123.346 L
237.035 122.872 L
237.824 122.4 L
238.612 121.928 L
239.401 121.457 L
240.19 120.986 L
240.978 120.516 L
241.767 120.047 L
242.555 119.579 L
243.344 119.111 L
244.133 118.644 L
244.921 118.178 L
245.71 117.712 L
246.499 117.247 L
247.287 116.783 L
248.076 116.32 L
248.864 115.857 L
249.653 115.396 L
250.442 114.935 L
251.23 114.474 L
252.019 114.015 L
252.808 113.556 L
253.596 113.098 L
254.385 112.641 L
255.174 112.185 L
255.962 111.73 L
256.751 111.275 L
257.539 110.821 L
258.328 110.368 L
259.117 109.916 L
259.905 109.465 L
260.694 109.014 L
261.483 108.565 L
262.271 108.116 L
263.06 107.668 L
263.848 107.221 L
264.637 106.774 L
265.426 106.329 L
266.214 105.885 L
267.003 105.441 L
267.792 104.999 L
268.58 104.557 L
269.369 104.116 L
270.158 103.676 L
270.946 103.237 L
271.735 102.799 L
272.523 102.362 L
273.312 101.925 L
274.101 101.49 L
274.889 101.056 L
275.678 100.623 L
276.467 100.19 L
277.255 99.759 L
278.044 99.328 L
278.832 98.898 L
279.621 98.47 L
280.41 98.043 L
281.198 97.616 L
281.987 97.19 L
282.776 96.766 L
283.564 96.342 L
284.353 95.919 L
285.141 95.498 L
285.93 95.077 L
286.719 94.658 L
287.507 94.24 L
288.296 93.822 L
289.085 93.406 L
289.873 92.99 L
290.662 92.576 L
291.451 92.163 L
292.239 91.751 L
293.028 91.34 L
293.816 90.93 L
294.605 90.521 L
295.394 90.113 L
296.182 89.706 L
296.971 89.301 L
297.76 88.896 L
298.548 88.493 L
299.337 88.091 L
300.125 87.69 L
300.914 87.29 L
301.703 86.891 L
302.491 86.493 L
303.28 86.097 L
304.069 85.701 L
304.857 85.307 L
305.646 84.914 L
306.434 84.522 L
307.223 84.131 L
308.012 83.741 L
308.8 83.353 L
309.589 82.966 L
310.378 82.58 L
311.166 82.195 L
311.955 81.812 L
312.744 81.429 L
313.532 81.049 L
314.321 80.669 L
315.109 80.29 L
315.898 79.912 L
316.687 79.536 L
317.475 79.161 L
318.264 78.788 L
319.053 78.415 L
319.841 78.044 L
320.63 77.674 L
321.418 77.306 L
322.207 76.938 L
322.996 76.572 L
323.784 76.208 L
324.573 75.844 L
325.362 75.482 L
326.15 75.122 L
326.939 74.762 L
327.727 74.404 L
328.516 74.047 L
329.305 73.692 L
330.093 73.337 L
330.882 72.985 L
331.671 72.633 L
332.459 72.283 L
333.248 71.934 L
334.037 71.587 L
334.825 71.241 L
335.614 70.897 L
336.402 70.553 L
337.191 70.212 L
337.98 69.871 L
338.768 69.532 L
339.557 69.195 L
340.346 68.859 L
341.134 68.524 L
341.923 68.191 L
342.711 67.858 L
343.5 67.528 L
344.289 67.199 L
345.077 66.872 L
345.866 66.546 L
346.655 66.221 L
347.443 65.898 L
348.232 65.576 L
349.021 65.256 L
349.809 64.937 L
350.598 64.62 L
351.386 64.304 L
352.175 63.99 L
352.964 63.677 L
353.752 63.366 L
354.541 63.056 L
355.33 62.748 L
356.118 62.441 L
356.907 62.136 L
357.695 61.832 L
358.484 61.53 L
359.273 61.23 L
360.061 60.931 L
360.85 60.633 L
361.639 60.337 L
362.427 60.043 L
363.216 59.751 L
364.004 59.46 L
364.793 59.17 L
365.582 58.882 L
366.37 58.596 L
367.159 58.311 L
367.948 58.028 L
368.736 57.747 L
369.525 57.467 L
370.314 57.189 L
371.102 56.912 L
371.891 56.637 L
372.679 56.364 L
373.468 56.092 L
374.257 55.822 L
375.045 55.554 L
375.834 55.288 L
376.623 55.022 L
377.411 54.759 L
378.2 54.498 L
378.988 54.238 L
379.777 53.98 L
380.566 53.723 L
381.354 53.469 L
382.143 53.215 L
382.932 52.964 L
383.72 52.714 L
384.509 52.466 L
385.297 52.22 L
386.086 51.976 L
386.875 51.733 L
387.663 51.493 L
388.452 51.253 L
389.241 51.016 L
390.029 50.78 L
390.818 50.547 L
391.607 50.315 L
392.395 50.084 L
393.184 49.856 L
393.972 49.629 L
394.761 49.405 L
395.55 49.182 L
396.338 48.96 L
397.127 48.741 L
397.916 48.523 L
398.704 48.307 L
399.493 48.094 L
400.281 47.882 L
401.07 47.672 L
401.859 47.463 L
402.647 47.257 L
403.436 47.052 L
404.225 46.849 L
405.013 46.649 L
405.802 46.449 L
406.591 46.252 L
407.379 46.057 L
408.168 45.864 L
408.956 45.673 L
409.745 45.483 L
410.534 45.296 L
411.322 45.11 L
412.111 44.926 L
412.9 44.745 L
413.688 44.565 L
414.477 44.387 L
415.265 44.211 L
416.054 44.037 L
416.843 43.865 L
417.631 43.695 L
418.42 43.528 L
419.209 43.361 L
419.997 43.197 L
420.786 43.035 L
421.574 42.875 L
422.363 42.717 L
423.152 42.561 L
423.94 42.407 L
424.729 42.255 L
425.518 42.105 L
426.306 41.957 L
427.095 41.811 L
427.884 41.668 L
428.672 41.526 L
429.461 41.386 L
430.249 41.248 L
431.038 41.112 L
431.827 40.979 L
432.615 40.848 L
433.404 40.718 L
434.193 40.591 L
434.981 40.466 L
435.77 40.342 L
436.558 40.221 L
437.347 40.103 L
438.136 39.986 L
438.924 39.871 L
439.713 39.759 L
440.502 39.648 L
441.29 39.54 L
442.079 39.434 L
442.867 39.33 L
443.656 39.228 L
444.445 39.129 L
445.233 39.031 L
446.022 38.936 L
446.811 38.843 L
447.599 38.752 L
448.388 38.663 L
449.177 38.577 L
449.965 38.492 L
450.754 38.41 L
451.542 38.33 L
452.331 38.253 L
453.12 38.177 L
453.908 38.104 L
454.697 38.033 L
455.486 37.964 L
456.274 37.898 L
457.063 37.834 L
457.851 37.771 L
458.64 37.712 L
459.429 37.654 L
460.217 37.599 L
461.006 37.546 L
461.795 37.496 L
462.583 37.447 L
463.372 37.401 L
464.16 37.358 L
464.949 37.316 L
465.738 37.277 L
466.526 37.241 L
467.315 37.206 L
468.104 37.174 L
468.892 37.144 L
469.681 37.117 L
470.47 37.092 L
471.258 37.069 L
472.047 37.049 L
472.835 37.031 L
473.624 37.015 L
474.413 37.002 L
475.201 36.991 L
475.99 36.983 L
476.779 36.977 L
477.567 36.973 L
478.356 36.972 L
S
GR
GS
0.494 0.184 0.557 RC
1 LJ
0.5 LW
N
74.042 366.781 M
74.831 364.938 L
75.619 363.097 L
76.408 361.26 L
77.197 359.426 L
77.985 357.596 L
78.774 355.768 L
79.563 353.945 L
80.351 352.127 L
81.14 350.312 L
81.928 348.502 L
82.717 346.696 L
83.506 344.895 L
84.294 343.1 L
85.083 341.31 L
85.872 339.525 L
86.66 337.746 L
87.449 335.973 L
88.237 334.206 L
89.026 332.445 L
89.815 330.691 L
90.603 328.944 L
91.392 327.203 L
92.181 325.47 L
92.969 323.744 L
93.758 322.026 L
94.547 320.315 L
95.335 318.612 L
96.124 316.918 L
96.912 315.223 L
97.701 313.52 L
98.49 311.812 L
99.278 310.098 L
100.067 308.379 L
100.856 306.654 L
101.644 304.926 L
102.433 303.195 L
103.221 301.461 L
104.01 299.724 L
104.799 297.986 L
105.587 296.247 L
106.376 294.508 L
107.165 292.769 L
107.953 291.03 L
108.742 289.293 L
109.53 287.558 L
110.319 285.826 L
111.108 284.097 L
111.896 282.372 L
112.685 280.651 L
113.474 278.936 L
114.262 277.226 L
115.051 275.521 L
115.84 273.825 L
116.628 272.135 L
117.417 270.453 L
118.205 268.78 L
118.994 267.117 L
119.783 265.463 L
120.571 263.82 L
121.36 262.188 L
122.149 260.567 L
122.937 258.959 L
123.726 257.363 L
124.514 255.782 L
125.303 254.213 L
126.092 252.66 L
126.88 251.122 L
127.669 249.6 L
128.458 248.095 L
129.246 246.606 L
130.035 245.136 L
130.823 243.683 L
131.612 242.249 L
132.401 240.835 L
133.189 239.441 L
133.978 238.068 L
134.767 236.716 L
135.555 235.386 L
136.344 234.078 L
137.133 232.793 L
137.921 231.533 L
138.71 230.296 L
139.498 229.084 L
140.287 227.898 L
141.076 226.725 L
141.864 225.555 L
142.653 224.387 L
143.442 223.222 L
144.23 222.059 L
145.019 220.9 L
145.807 219.743 L
146.596 218.59 L
147.385 217.439 L
148.173 216.292 L
148.962 215.148 L
149.751 214.007 L
150.539 212.869 L
151.328 211.735 L
152.117 210.605 L
152.905 209.478 L
153.694 208.354 L
154.482 207.234 L
155.271 206.118 L
156.06 205.005 L
156.848 203.896 L
157.637 202.791 L
158.426 201.69 L
159.214 200.593 L
160.003 199.501 L
160.791 198.412 L
161.58 197.327 L
162.369 196.247 L
163.157 195.171 L
163.946 194.099 L
164.735 193.032 L
165.523 191.969 L
166.312 190.911 L
167.1 189.858 L
167.889 188.809 L
168.678 187.765 L
169.466 186.725 L
170.255 185.691 L
171.044 184.661 L
171.832 183.637 L
172.621 182.617 L
173.41 181.603 L
174.198 180.594 L
174.987 179.59 L
175.775 178.591 L
176.564 177.598 L
177.353 176.61 L
178.141 175.628 L
178.93 174.651 L
179.719 173.68 L
180.507 172.714 L
181.296 171.754 L
182.084 170.8 L
182.873 169.852 L
183.662 168.91 L
184.45 167.974 L
185.239 167.043 L
186.028 166.119 L
186.816 165.201 L
187.605 164.29 L
188.393 163.384 L
189.182 162.485 L
189.971 161.592 L
190.759 160.706 L
191.548 159.827 L
192.337 158.954 L
193.125 158.087 L
193.914 157.228 L
194.703 156.375 L
195.491 155.529 L
196.28 154.69 L
197.068 153.858 L
197.857 153.033 L
198.646 152.215 L
199.434 151.404 L
200.223 150.6 L
201.012 149.804 L
201.8 149.015 L
202.589 148.233 L
203.377 147.459 L
204.166 146.693 L
204.955 145.934 L
205.743 145.183 L
206.532 144.439 L
207.321 143.703 L
208.109 142.975 L
208.898 142.255 L
209.686 141.543 L
210.475 140.839 L
211.264 140.143 L
212.052 139.455 L
212.841 138.776 L
213.63 138.104 L
214.418 137.441 L
215.207 136.787 L
215.996 136.141 L
216.784 135.503 L
217.573 134.874 L
218.361 134.254 L
219.15 133.642 L
219.939 133.039 L
220.727 132.445 L
221.516 131.86 L
222.305 131.284 L
223.093 130.717 L
223.882 130.158 L
224.67 129.609 L
225.459 129.07 L
226.248 128.539 L
227.036 128.018 L
227.825 127.506 L
228.614 127.004 L
229.402 126.511 L
230.191 126.028 L
230.98 125.554 L
231.768 125.09 L
232.557 124.636 L
233.345 124.188 L
234.134 123.74 L
234.923 123.293 L
235.711 122.846 L
236.5 122.399 L
237.289 121.954 L
238.077 121.509 L
238.866 121.064 L
239.654 120.621 L
240.443 120.177 L
241.232 119.735 L
242.02 119.293 L
242.809 118.851 L
243.598 118.41 L
244.386 117.97 L
245.175 117.531 L
245.963 117.092 L
246.752 116.654 L
247.541 116.216 L
248.329 115.779 L
249.118 115.343 L
249.907 114.907 L
250.695 114.472 L
251.484 114.038 L
252.273 113.604 L
253.061 113.171 L
253.85 112.739 L
254.638 112.308 L
255.427 111.876 L
256.216 111.446 L
257.004 111.017 L
257.793 110.588 L
258.582 110.16 L
259.37 109.732 L
260.159 109.306 L
260.947 108.88 L
261.736 108.454 L
262.525 108.03 L
263.313 107.606 L
264.102 107.183 L
264.891 106.761 L
265.679 106.339 L
266.468 105.918 L
267.257 105.498 L
268.045 105.078 L
268.834 104.66 L
269.622 104.242 L
270.411 103.825 L
271.2 103.408 L
271.988 102.993 L
272.777 102.578 L
273.566 102.164 L
274.354 101.751 L
275.143 101.338 L
275.931 100.927 L
276.72 100.516 L
277.509 100.106 L
278.297 99.697 L
279.086 99.288 L
279.875 98.881 L
280.663 98.474 L
281.452 98.068 L
282.24 97.663 L
283.029 97.258 L
283.818 96.855 L
284.606 96.452 L
285.395 96.05 L
286.184 95.649 L
286.972 95.249 L
287.761 94.85 L
288.549 94.452 L
289.338 94.054 L
290.127 93.657 L
290.915 93.261 L
291.704 92.867 L
292.493 92.473 L
293.281 92.079 L
294.07 91.687 L
294.859 91.296 L
295.647 90.905 L
296.436 90.516 L
297.224 90.127 L
298.013 89.739 L
298.802 89.352 L
299.59 88.966 L
300.379 88.581 L
301.168 88.197 L
301.956 87.814 L
302.745 87.432 L
303.533 87.05 L
304.322 86.67 L
305.111 86.29 L
305.899 85.912 L
306.688 85.535 L
307.477 85.158 L
308.265 84.782 L
309.054 84.408 L
309.842 84.034 L
310.631 83.661 L
311.42 83.29 L
312.208 82.919 L
312.997 82.549 L
313.786 82.181 L
314.574 81.813 L
315.363 81.446 L
316.152 81.08 L
316.94 80.715 L
317.729 80.352 L
318.517 79.989 L
319.306 79.627 L
320.095 79.267 L
320.883 78.907 L
321.672 78.548 L
322.461 78.191 L
323.249 77.834 L
324.038 77.478 L
324.826 77.124 L
325.615 76.771 L
326.404 76.419 L
327.192 76.067 L
327.981 75.717 L
328.77 75.368 L
329.558 75.02 L
330.347 74.673 L
331.136 74.327 L
331.924 73.982 L
332.713 73.638 L
333.501 73.296 L
334.29 72.954 L
335.079 72.613 L
335.867 72.274 L
336.656 71.936 L
337.445 71.599 L
338.233 71.263 L
339.022 70.928 L
339.81 70.594 L
340.599 70.262 L
341.388 69.93 L
342.176 69.6 L
342.965 69.27 L
343.754 68.942 L
344.542 68.616 L
345.331 68.29 L
346.119 67.965 L
346.908 67.642 L
347.697 67.319 L
348.485 66.998 L
349.274 66.679 L
350.063 66.36 L
350.851 66.042 L
351.64 65.726 L
352.429 65.411 L
353.217 65.097 L
354.006 64.784 L
354.794 64.472 L
355.583 64.162 L
356.372 63.853 L
357.16 63.545 L
357.949 63.238 L
358.738 62.933 L
359.526 62.629 L
360.315 62.325 L
361.103 62.024 L
361.892 61.723 L
362.681 61.424 L
363.469 61.126 L
364.258 60.829 L
365.047 60.534 L
365.835 60.239 L
366.624 59.946 L
367.413 59.654 L
368.201 59.364 L
368.99 59.075 L
369.778 58.787 L
370.567 58.5 L
371.356 58.215 L
372.144 57.931 L
372.933 57.648 L
373.722 57.367 L
374.51 57.087 L
375.299 56.808 L
376.087 56.53 L
376.876 56.255 L
377.665 55.98 L
378.453 55.706 L
379.242 55.434 L
380.031 55.163 L
380.819 54.893 L
381.608 54.626 L
382.396 54.359 L
383.185 54.093 L
383.974 53.829 L
384.762 53.566 L
385.551 53.305 L
386.34 53.045 L
387.128 52.787 L
387.917 52.529 L
388.706 52.273 L
389.494 52.019 L
390.283 51.766 L
391.071 51.514 L
391.86 51.264 L
392.649 51.015 L
393.437 50.768 L
394.226 50.521 L
395.015 50.277 L
395.803 50.033 L
396.592 49.792 L
397.38 49.552 L
398.169 49.313 L
398.958 49.075 L
399.746 48.839 L
400.535 48.604 L
401.324 48.371 L
402.112 48.139 L
402.901 47.909 L
403.689 47.68 L
404.478 47.453 L
405.267 47.227 L
406.055 47.003 L
406.844 46.78 L
407.633 46.558 L
408.421 46.338 L
409.21 46.12 L
409.999 45.903 L
410.787 45.688 L
411.576 45.474 L
412.364 45.261 L
413.153 45.05 L
413.942 44.841 L
414.73 44.633 L
415.519 44.426 L
416.308 44.222 L
417.096 44.018 L
417.885 43.816 L
418.673 43.616 L
419.462 43.417 L
420.251 43.22 L
421.039 43.025 L
421.828 42.831 L
422.617 42.638 L
423.405 42.447 L
424.194 42.258 L
424.982 42.07 L
425.771 41.884 L
426.56 41.699 L
427.348 41.516 L
428.137 41.334 L
428.926 41.154 L
429.714 40.976 L
430.503 40.799 L
431.292 40.625 L
432.08 40.451 L
432.869 40.279 L
433.657 40.109 L
434.446 39.94 L
435.235 39.773 L
436.023 39.608 L
436.812 39.444 L
437.601 39.282 L
438.389 39.122 L
439.178 38.963 L
439.966 38.805 L
440.755 38.65 L
441.544 38.496 L
442.332 38.344 L
443.121 38.194 L
443.91 38.045 L
444.698 37.897 L
445.487 37.752 L
446.276 37.608 L
447.064 37.466 L
447.853 37.326 L
448.641 37.187 L
449.43 37.05 L
450.219 36.915 L
451.007 36.781 L
451.796 36.649 L
452.585 36.519 L
453.373 36.39 L
454.162 36.263 L
454.95 36.138 L
455.739 36.015 L
456.528 35.894 L
457.316 35.774 L
458.105 35.656 L
458.894 35.54 L
459.682 35.425 L
460.471 35.312 L
461.259 35.201 L
462.048 35.092 L
462.837 34.984 L
463.625 34.879 L
464.414 34.775 L
465.203 34.672 L
465.991 34.572 L
466.78 34.474 L
467.569 34.377 L
468.357 34.282 L
469.146 34.188 L
469.934 34.097 L
470.723 34.008 L
471.512 33.92 L
472.3 33.834 L
473.089 33.75 L
473.878 33.668 L
474.666 33.587 L
475.455 33.508 L
476.243 33.432 L
477.032 33.356 L
477.821 33.283 L
478.609 33.212 L
479.398 33.143 L
480.187 33.075 L
480.975 33.01 L
481.764 32.946 L
482.552 32.884 L
483.341 32.824 L
484.13 32.766 L
484.918 32.71 L
485.707 32.655 L
486.496 32.603 L
487.284 32.552 L
488.073 32.503 L
488.862 32.456 L
489.65 32.412 L
490.439 32.369 L
491.227 32.328 L
492.016 32.289 L
492.805 32.251 L
493.593 32.216 L
494.382 32.183 L
495.171 32.151 L
495.959 32.122 L
496.748 32.094 L
497.536 32.069 L
498.325 32.045 L
499.114 32.024 L
499.902 32.004 L
500.691 31.986 L
501.48 31.97 L
502.268 31.957 L
503.057 31.945 L
503.845 31.935 L
504.634 31.928 L
505.423 31.922 L
506.211 31.918 L
507 31.916 L
S
GR
GS
0.467 0.675 0.188 RC
[10 6] 0 setdash
2 LJ
0.5 LW
N
73.472 368.995 M
74.261 367.044 L
75.05 365.097 L
75.838 363.153 L
76.627 361.214 L
77.415 359.279 L
78.204 357.349 L
78.993 355.423 L
79.781 353.502 L
80.57 351.587 L
81.359 349.678 L
82.147 347.774 L
82.936 345.877 L
83.724 343.986 L
84.513 342.101 L
85.302 340.224 L
86.09 338.354 L
86.879 336.492 L
87.668 334.637 L
88.456 332.791 L
89.245 330.953 L
90.034 329.123 L
90.822 327.302 L
91.611 325.49 L
92.399 323.688 L
93.188 321.896 L
93.977 320.113 L
94.765 318.341 L
95.554 316.574 L
96.343 314.801 L
97.131 313.022 L
97.92 311.237 L
98.708 309.448 L
99.497 307.654 L
100.286 305.857 L
101.074 304.057 L
101.863 302.254 L
102.652 300.45 L
103.44 298.646 L
104.229 296.84 L
105.017 295.035 L
105.806 293.231 L
106.595 291.429 L
107.383 289.629 L
108.172 287.832 L
108.961 286.038 L
109.749 284.249 L
110.538 282.464 L
111.327 280.685 L
112.115 278.912 L
112.904 277.146 L
113.692 275.387 L
114.481 273.637 L
115.27 271.895 L
116.058 270.163 L
116.847 268.44 L
117.636 266.728 L
118.424 265.028 L
119.213 263.339 L
120.001 261.664 L
120.79 260.001 L
121.579 258.353 L
122.367 256.719 L
123.156 255.1 L
123.945 253.497 L
124.733 251.91 L
125.522 250.341 L
126.31 248.79 L
127.099 247.256 L
127.888 245.742 L
128.676 244.248 L
129.465 242.775 L
130.254 241.322 L
131.042 239.891 L
131.831 238.482 L
132.62 237.096 L
133.408 235.734 L
134.197 234.396 L
134.985 233.083 L
135.774 231.796 L
136.563 230.534 L
137.351 229.3 L
138.14 228.091 L
138.929 226.89 L
139.717 225.692 L
140.506 224.498 L
141.294 223.306 L
142.083 222.119 L
142.872 220.934 L
143.66 219.754 L
144.449 218.576 L
145.238 217.403 L
146.026 216.233 L
146.815 215.067 L
147.603 213.904 L
148.392 212.746 L
149.181 211.591 L
149.969 210.441 L
150.758 209.295 L
151.547 208.152 L
152.335 207.014 L
153.124 205.88 L
153.913 204.751 L
154.701 203.625 L
155.49 202.505 L
156.278 201.388 L
157.067 200.276 L
157.856 199.169 L
158.644 198.066 L
159.433 196.968 L
160.222 195.875 L
161.01 194.786 L
161.799 193.703 L
162.587 192.624 L
163.376 191.55 L
164.165 190.482 L
164.953 189.418 L
165.742 188.36 L
166.531 187.307 L
167.319 186.259 L
168.108 185.216 L
168.896 184.179 L
169.685 183.148 L
170.474 182.121 L
171.262 181.101 L
172.051 180.086 L
172.84 179.077 L
173.628 178.073 L
174.417 177.075 L
175.206 176.083 L
175.994 175.097 L
176.783 174.117 L
177.571 173.143 L
178.36 172.176 L
179.149 171.214 L
179.937 170.258 L
180.726 169.309 L
181.515 168.366 L
182.303 167.43 L
183.092 166.5 L
183.88 165.576 L
184.669 164.659 L
185.458 163.748 L
186.246 162.845 L
187.035 161.948 L
187.824 161.058 L
188.612 160.174 L
189.401 159.298 L
190.19 158.428 L
190.978 157.566 L
191.767 156.71 L
192.555 155.862 L
193.344 155.021 L
194.133 154.187 L
194.921 153.361 L
195.71 152.542 L
196.499 151.73 L
197.287 150.926 L
198.076 150.129 L
198.864 149.34 L
199.653 148.559 L
200.442 147.785 L
201.23 147.02 L
202.019 146.262 L
202.808 145.512 L
203.596 144.769 L
204.385 144.036 L
205.173 143.309 L
205.962 142.591 L
206.751 141.882 L
207.539 141.18 L
208.328 140.487 L
209.117 139.802 L
209.905 139.126 L
210.694 138.458 L
211.483 137.799 L
212.271 137.148 L
213.06 136.506 L
213.848 135.873 L
214.637 135.248 L
215.426 134.632 L
216.214 134.026 L
217.003 133.428 L
217.792 132.839 L
218.58 132.259 L
219.369 131.688 L
220.157 131.127 L
220.946 130.574 L
221.735 130.032 L
222.523 129.498 L
223.312 128.974 L
224.101 128.459 L
224.889 127.954 L
225.678 127.458 L
226.466 126.972 L
227.255 126.496 L
228.044 126.026 L
228.832 125.558 L
229.621 125.09 L
230.41 124.623 L
231.198 124.156 L
231.987 123.69 L
232.776 123.224 L
233.564 122.759 L
234.353 122.294 L
235.141 121.831 L
235.93 121.367 L
236.719 120.905 L
237.507 120.443 L
238.296 119.982 L
239.085 119.521 L
239.873 119.061 L
240.662 118.601 L
241.45 118.143 L
242.239 117.685 L
243.028 117.227 L
243.816 116.771 L
244.605 116.314 L
245.394 115.859 L
246.182 115.404 L
246.971 114.95 L
247.76 114.497 L
248.548 114.044 L
249.337 113.592 L
250.125 113.141 L
250.914 112.69 L
251.703 112.241 L
252.491 111.792 L
253.28 111.343 L
254.069 110.896 L
254.857 110.449 L
255.646 110.003 L
256.434 109.557 L
257.223 109.113 L
258.012 108.669 L
258.8 108.226 L
259.589 107.784 L
260.378 107.342 L
261.166 106.901 L
261.955 106.462 L
262.743 106.023 L
263.532 105.584 L
264.321 105.146 L
265.109 104.71 L
265.898 104.274 L
266.687 103.839 L
267.475 103.405 L
268.264 102.971 L
269.053 102.539 L
269.841 102.107 L
270.63 101.676 L
271.418 101.246 L
272.207 100.817 L
272.996 100.389 L
273.784 99.961 L
274.573 99.535 L
275.362 99.109 L
276.15 98.684 L
276.939 98.261 L
277.727 97.838 L
278.516 97.416 L
279.305 96.995 L
280.093 96.575 L
280.882 96.155 L
281.671 95.737 L
282.459 95.319 L
283.248 94.903 L
284.036 94.487 L
284.825 94.073 L
285.614 93.659 L
286.402 93.246 L
287.191 92.835 L
287.98 92.424 L
288.768 92.014 L
289.557 91.605 L
290.346 91.197 L
291.134 90.79 L
291.923 90.385 L
292.711 89.98 L
293.5 89.576 L
294.289 89.173 L
295.077 88.771 L
295.866 88.37 L
296.655 87.971 L
297.443 87.572 L
298.232 87.175 L
299.02 86.778 L
299.809 86.382 L
300.598 85.988 L
301.386 85.594 L
302.175 85.202 L
302.964 84.811 L
303.752 84.42 L
304.541 84.031 L
305.329 83.643 L
306.118 83.256 L
306.907 82.87 L
307.695 82.486 L
308.484 82.102 L
309.273 81.72 L
310.061 81.338 L
310.85 80.958 L
311.639 80.579 L
312.427 80.201 L
313.216 79.824 L
314.004 79.448 L
314.793 79.074 L
315.582 78.7 L
316.37 78.328 L
317.159 77.957 L
317.948 77.587 L
318.736 77.218 L
319.525 76.851 L
320.313 76.484 L
321.102 76.119 L
321.891 75.755 L
322.679 75.392 L
323.468 75.031 L
324.257 74.671 L
325.045 74.312 L
325.834 73.954 L
326.622 73.597 L
327.411 73.242 L
328.2 72.887 L
328.988 72.535 L
329.777 72.183 L
330.566 71.833 L
331.354 71.483 L
332.143 71.136 L
332.932 70.789 L
333.72 70.444 L
334.509 70.1 L
335.297 69.757 L
336.086 69.416 L
336.875 69.076 L
337.663 68.737 L
338.452 68.4 L
339.241 68.064 L
340.029 67.729 L
340.818 67.395 L
341.606 67.063 L
342.395 66.732 L
343.184 66.403 L
343.972 66.075 L
344.761 65.748 L
345.55 65.423 L
346.338 65.099 L
347.127 64.776 L
347.915 64.455 L
348.704 64.135 L
349.493 63.816 L
350.281 63.499 L
351.07 63.184 L
351.859 62.87 L
352.647 62.557 L
353.436 62.245 L
354.225 61.935 L
355.013 61.627 L
355.802 61.32 L
356.59 61.014 L
357.379 60.71 L
358.168 60.407 L
358.956 60.105 L
359.745 59.806 L
360.534 59.507 L
361.322 59.21 L
362.111 58.915 L
362.899 58.621 L
363.688 58.328 L
364.477 58.037 L
365.265 57.748 L
366.054 57.46 L
366.843 57.173 L
367.631 56.888 L
368.42 56.605 L
369.209 56.323 L
369.997 56.042 L
370.786 55.764 L
371.574 55.486 L
372.363 55.211 L
373.152 54.936 L
373.94 54.664 L
374.729 54.393 L
375.518 54.123 L
376.306 53.855 L
377.095 53.589 L
377.883 53.324 L
378.672 53.061 L
379.461 52.799 L
380.249 52.54 L
381.038 52.281 L
381.827 52.024 L
382.615 51.769 L
383.404 51.516 L
384.193 51.264 L
384.981 51.014 L
385.77 50.765 L
386.558 50.518 L
387.347 50.272 L
388.136 50.029 L
388.924 49.787 L
389.713 49.547 L
390.502 49.308 L
391.29 49.071 L
392.079 48.836 L
392.867 48.602 L
393.656 48.37 L
394.445 48.14 L
395.233 47.911 L
396.022 47.685 L
396.811 47.46 L
397.599 47.236 L
398.388 47.014 L
399.176 46.794 L
399.965 46.576 L
400.754 46.36 L
401.542 46.145 L
402.331 45.932 L
403.12 45.721 L
403.908 45.512 L
404.697 45.304 L
405.486 45.098 L
406.274 44.894 L
407.063 44.692 L
407.851 44.491 L
408.64 44.293 L
409.429 44.096 L
410.217 43.901 L
411.006 43.707 L
411.795 43.516 L
412.583 43.326 L
413.372 43.138 L
414.16 42.953 L
414.949 42.768 L
415.738 42.586 L
416.526 42.405 L
417.315 42.227 L
418.104 42.05 L
418.892 41.875 L
419.681 41.702 L
420.469 41.531 L
421.258 41.362 L
422.047 41.195 L
422.835 41.029 L
423.624 40.866 L
424.413 40.704 L
425.201 40.544 L
425.99 40.387 L
426.779 40.231 L
427.567 40.076 L
428.356 39.925 L
429.144 39.774 L
429.933 39.626 L
430.722 39.48 L
431.51 39.336 L
432.299 39.194 L
433.088 39.053 L
433.876 38.915 L
434.665 38.779 L
435.453 38.644 L
436.242 38.512 L
437.031 38.381 L
437.819 38.253 L
438.608 38.126 L
439.397 38.002 L
440.185 37.879 L
440.974 37.759 L
441.762 37.641 L
442.551 37.524 L
443.34 37.41 L
444.128 37.298 L
444.917 37.187 L
445.706 37.079 L
446.494 36.973 L
447.283 36.869 L
448.072 36.767 L
448.86 36.667 L
449.649 36.569 L
450.437 36.473 L
451.226 36.38 L
452.015 36.288 L
452.803 36.199 L
453.592 36.112 L
454.381 36.026 L
455.169 35.943 L
455.958 35.862 L
456.746 35.783 L
457.535 35.706 L
458.324 35.632 L
459.112 35.559 L
459.901 35.489 L
460.69 35.421 L
461.478 35.355 L
462.267 35.291 L
463.055 35.229 L
463.844 35.17 L
464.633 35.112 L
465.421 35.057 L
466.21 35.004 L
466.999 34.953 L
467.787 34.905 L
468.576 34.858 L
469.365 34.814 L
470.153 34.772 L
470.942 34.733 L
471.73 34.695 L
472.519 34.66 L
473.308 34.627 L
474.096 34.596 L
474.885 34.568 L
475.674 34.541 L
476.462 34.517 L
477.251 34.496 L
478.039 34.476 L
478.828 34.459 L
479.617 34.444 L
480.405 34.431 L
481.194 34.421 L
481.983 34.413 L
482.771 34.407 L
483.56 34.404 L
S
GR
GS
0.302 0.745 0.933 RC
[10 6] 0 setdash
2 LJ
0.5 LW
N
73.378 371.259 M
74.167 369.3 L
74.955 367.344 L
75.744 365.393 L
76.533 363.445 L
77.321 361.502 L
78.11 359.563 L
78.899 357.629 L
79.687 355.7 L
80.476 353.776 L
81.264 351.858 L
82.053 349.945 L
82.842 348.039 L
83.63 346.139 L
84.419 344.246 L
85.208 342.36 L
85.996 340.481 L
86.785 338.609 L
87.574 336.745 L
88.362 334.889 L
89.151 333.042 L
89.939 331.202 L
90.728 329.371 L
91.517 327.55 L
92.305 325.738 L
93.094 323.935 L
93.883 322.142 L
94.671 320.359 L
95.46 318.58 L
96.248 316.795 L
97.037 315.003 L
97.826 313.206 L
98.614 311.403 L
99.403 309.596 L
100.192 307.786 L
100.98 305.972 L
101.769 304.156 L
102.557 302.338 L
103.346 300.519 L
104.135 298.7 L
104.923 296.882 L
105.712 295.064 L
106.501 293.247 L
107.289 291.433 L
108.078 289.622 L
108.867 287.815 L
109.655 286.012 L
110.444 284.213 L
111.232 282.421 L
112.021 280.634 L
112.81 278.854 L
113.598 277.083 L
114.387 275.319 L
115.176 273.564 L
115.964 271.819 L
116.753 270.084 L
117.541 268.36 L
118.33 266.648 L
119.119 264.947 L
119.907 263.26 L
120.696 261.586 L
121.485 259.927 L
122.273 258.282 L
123.062 256.653 L
123.85 255.04 L
124.639 253.444 L
125.428 251.866 L
126.216 250.306 L
127.005 248.764 L
127.794 247.242 L
128.582 245.741 L
129.371 244.26 L
130.16 242.801 L
130.948 241.364 L
131.737 239.95 L
132.525 238.559 L
133.314 237.193 L
134.103 235.851 L
134.891 234.535 L
135.68 233.245 L
136.469 231.982 L
137.257 230.747 L
138.046 229.533 L
138.834 228.323 L
139.623 227.117 L
140.412 225.914 L
141.2 224.714 L
141.989 223.518 L
142.778 222.326 L
143.566 221.137 L
144.355 219.952 L
145.143 218.771 L
145.932 217.593 L
146.721 216.419 L
147.509 215.25 L
148.298 214.084 L
149.087 212.922 L
149.875 211.764 L
150.664 210.611 L
151.453 209.462 L
152.241 208.317 L
153.03 207.176 L
153.818 206.04 L
154.607 204.908 L
155.396 203.781 L
156.184 202.658 L
156.973 201.54 L
157.762 200.426 L
158.55 199.317 L
159.339 198.214 L
160.127 197.114 L
160.916 196.02 L
161.705 194.931 L
162.493 193.847 L
163.282 192.768 L
164.071 191.694 L
164.859 190.626 L
165.648 189.562 L
166.436 188.504 L
167.225 187.452 L
168.014 186.405 L
168.802 185.363 L
169.591 184.327 L
170.38 183.296 L
171.168 182.271 L
171.957 181.252 L
172.746 180.239 L
173.534 179.232 L
174.323 178.23 L
175.111 177.235 L
175.9 176.245 L
176.689 175.262 L
177.477 174.284 L
178.266 173.314 L
179.055 172.349 L
179.843 171.39 L
180.632 170.438 L
181.42 169.493 L
182.209 168.554 L
182.998 167.621 L
183.786 166.695 L
184.575 165.776 L
185.364 164.864 L
186.152 163.958 L
186.941 163.059 L
187.73 162.167 L
188.518 161.282 L
189.307 160.404 L
190.095 159.534 L
190.884 158.67 L
191.673 157.814 L
192.461 156.964 L
193.25 156.122 L
194.039 155.288 L
194.827 154.461 L
195.616 153.642 L
196.404 152.83 L
197.193 152.025 L
197.982 151.229 L
198.77 150.44 L
199.559 149.659 L
200.348 148.885 L
201.136 148.12 L
201.925 147.363 L
202.713 146.613 L
203.502 145.872 L
204.291 145.139 L
205.079 144.414 L
205.868 143.697 L
206.657 142.989 L
207.445 142.289 L
208.234 141.598 L
209.023 140.915 L
209.811 140.24 L
210.6 139.574 L
211.388 138.917 L
212.177 138.269 L
212.966 137.629 L
213.754 136.998 L
214.543 136.377 L
215.332 135.764 L
216.12 135.16 L
216.909 134.565 L
217.697 133.98 L
218.486 133.403 L
219.275 132.836 L
220.063 132.278 L
220.852 131.73 L
221.641 131.191 L
222.429 130.661 L
223.218 130.141 L
224.006 129.631 L
224.795 129.13 L
225.584 128.64 L
226.372 128.158 L
227.161 127.683 L
227.95 127.209 L
228.738 126.735 L
229.527 126.261 L
230.316 125.788 L
231.104 125.316 L
231.893 124.845 L
232.681 124.373 L
233.47 123.903 L
234.259 123.434 L
235.047 122.964 L
235.836 122.496 L
236.625 122.028 L
237.413 121.561 L
238.202 121.094 L
238.99 120.628 L
239.779 120.162 L
240.568 119.698 L
241.356 119.234 L
242.145 118.77 L
242.934 118.308 L
243.722 117.846 L
244.511 117.384 L
245.299 116.924 L
246.088 116.464 L
246.877 116.004 L
247.665 115.546 L
248.454 115.088 L
249.243 114.631 L
250.031 114.175 L
250.82 113.719 L
251.609 113.264 L
252.397 112.81 L
253.186 112.356 L
253.974 111.904 L
254.763 111.452 L
255.552 111.001 L
256.34 110.55 L
257.129 110.101 L
257.918 109.652 L
258.706 109.203 L
259.495 108.756 L
260.283 108.31 L
261.072 107.864 L
261.861 107.419 L
262.649 106.975 L
263.438 106.532 L
264.227 106.09 L
265.015 105.648 L
265.804 105.208 L
266.592 104.768 L
267.381 104.329 L
268.17 103.89 L
268.958 103.453 L
269.747 103.017 L
270.536 102.581 L
271.324 102.146 L
272.113 101.713 L
272.902 101.28 L
273.69 100.848 L
274.479 100.416 L
275.267 99.986 L
276.056 99.557 L
276.845 99.128 L
277.633 98.701 L
278.422 98.274 L
279.211 97.849 L
279.999 97.424 L
280.788 97 L
281.576 96.577 L
282.365 96.156 L
283.154 95.735 L
283.942 95.315 L
284.731 94.896 L
285.52 94.478 L
286.308 94.061 L
287.097 93.645 L
287.886 93.23 L
288.674 92.816 L
289.463 92.403 L
290.251 91.991 L
291.04 91.58 L
291.829 91.17 L
292.617 90.761 L
293.406 90.353 L
294.195 89.947 L
294.983 89.541 L
295.772 89.136 L
296.56 88.732 L
297.349 88.33 L
298.138 87.928 L
298.926 87.528 L
299.715 87.128 L
300.504 86.73 L
301.292 86.333 L
302.081 85.937 L
302.869 85.542 L
303.658 85.148 L
304.447 84.755 L
305.235 84.363 L
306.024 83.973 L
306.813 83.583 L
307.601 83.195 L
308.39 82.808 L
309.179 82.422 L
309.967 82.037 L
310.756 81.653 L
311.544 81.271 L
312.333 80.889 L
313.122 80.509 L
313.91 80.13 L
314.699 79.753 L
315.488 79.376 L
316.276 79 L
317.065 78.626 L
317.853 78.253 L
318.642 77.881 L
319.431 77.511 L
320.219 77.141 L
321.008 76.773 L
321.797 76.407 L
322.585 76.041 L
323.374 75.676 L
324.163 75.313 L
324.951 74.951 L
325.74 74.591 L
326.528 74.231 L
327.317 73.874 L
328.106 73.517 L
328.894 73.161 L
329.683 72.807 L
330.472 72.454 L
331.26 72.103 L
332.049 71.752 L
332.837 71.403 L
333.626 71.056 L
334.415 70.709 L
335.203 70.364 L
335.992 70.021 L
336.781 69.678 L
337.569 69.338 L
338.358 68.998 L
339.146 68.66 L
339.935 68.323 L
340.724 67.987 L
341.512 67.653 L
342.301 67.32 L
343.09 66.989 L
343.878 66.659 L
344.667 66.331 L
345.456 66.003 L
346.244 65.678 L
347.033 65.353 L
347.821 65.031 L
348.61 64.709 L
349.399 64.389 L
350.187 64.07 L
350.976 63.753 L
351.765 63.438 L
352.553 63.123 L
353.342 62.811 L
354.13 62.499 L
354.919 62.189 L
355.708 61.881 L
356.496 61.574 L
357.285 61.269 L
358.074 60.965 L
358.862 60.663 L
359.651 60.362 L
360.439 60.063 L
361.228 59.765 L
362.017 59.468 L
362.805 59.174 L
363.594 58.88 L
364.383 58.589 L
365.171 58.299 L
365.96 58.01 L
366.749 57.723 L
367.537 57.437 L
368.326 57.154 L
369.114 56.871 L
369.903 56.591 L
370.692 56.311 L
371.48 56.034 L
372.269 55.758 L
373.058 55.483 L
373.846 55.211 L
374.635 54.94 L
375.423 54.67 L
376.212 54.402 L
377.001 54.136 L
377.789 53.871 L
378.578 53.609 L
379.367 53.347 L
380.155 53.087 L
380.944 52.829 L
381.732 52.573 L
382.521 52.319 L
383.31 52.066 L
384.098 51.814 L
384.887 51.564 L
385.676 51.316 L
386.464 51.07 L
387.253 50.826 L
388.042 50.583 L
388.83 50.342 L
389.619 50.103 L
390.407 49.865 L
391.196 49.629 L
391.985 49.395 L
392.773 49.162 L
393.562 48.932 L
394.351 48.703 L
395.139 48.476 L
395.928 48.25 L
396.716 48.027 L
397.505 47.805 L
398.294 47.585 L
399.082 47.366 L
399.871 47.15 L
400.66 46.935 L
401.448 46.723 L
402.237 46.512 L
403.026 46.302 L
403.814 46.095 L
404.603 45.889 L
405.391 45.686 L
406.18 45.484 L
406.969 45.283 L
407.757 45.085 L
408.546 44.889 L
409.335 44.694 L
410.123 44.502 L
410.912 44.311 L
411.7 44.122 L
412.489 43.935 L
413.278 43.75 L
414.066 43.567 L
414.855 43.386 L
415.644 43.206 L
416.432 43.029 L
417.221 42.853 L
418.009 42.68 L
418.798 42.508 L
419.587 42.338 L
420.375 42.17 L
421.164 42.005 L
421.953 41.841 L
422.741 41.679 L
423.53 41.519 L
424.319 41.361 L
425.107 41.205 L
425.896 41.051 L
426.684 40.899 L
427.473 40.749 L
428.262 40.601 L
429.05 40.454 L
429.839 40.31 L
430.628 40.169 L
431.416 40.028 L
432.205 39.89 L
432.993 39.754 L
433.782 39.62 L
434.571 39.489 L
435.359 39.359 L
436.148 39.231 L
436.937 39.105 L
437.725 38.982 L
438.514 38.86 L
439.302 38.741 L
440.091 38.623 L
440.88 38.508 L
441.668 38.395 L
442.457 38.284 L
443.246 38.175 L
444.034 38.068 L
444.823 37.963 L
445.612 37.86 L
446.4 37.759 L
447.189 37.661 L
447.977 37.565 L
448.766 37.471 L
449.555 37.379 L
450.343 37.289 L
451.132 37.201 L
451.921 37.116 L
452.709 37.033 L
453.498 36.951 L
454.286 36.872 L
455.075 36.796 L
455.864 36.721 L
456.652 36.649 L
457.441 36.579 L
458.23 36.511 L
459.018 36.445 L
459.807 36.381 L
460.595 36.32 L
461.384 36.261 L
462.173 36.204 L
462.961 36.15 L
463.75 36.097 L
464.539 36.047 L
465.327 36 L
466.116 35.954 L
466.905 35.911 L
467.693 35.87 L
468.482 35.831 L
469.27 35.795 L
470.059 35.761 L
470.848 35.729 L
471.636 35.699 L
472.425 35.672 L
473.214 35.648 L
474.002 35.625 L
474.791 35.605 L
475.579 35.587 L
476.368 35.571 L
477.157 35.558 L
477.945 35.547 L
478.734 35.539 L
479.523 35.533 L
480.311 35.53 L
481.1 35.528 L
S
GR
GS
0.635 0.078 0.184 RC
[10 6] 0 setdash
2 LJ
0.5 LW
N
73.474 368.105 M
74.262 366.234 L
75.051 364.366 L
75.84 362.501 L
76.628 360.639 L
77.417 358.781 L
78.206 356.926 L
78.994 355.076 L
79.783 353.229 L
80.571 351.388 L
81.36 349.55 L
82.149 347.718 L
82.937 345.89 L
83.726 344.068 L
84.515 342.251 L
85.303 340.439 L
86.092 338.634 L
86.88 336.835 L
87.669 335.041 L
88.458 333.255 L
89.246 331.475 L
90.035 329.702 L
90.824 327.936 L
91.612 326.177 L
92.401 324.426 L
93.189 322.683 L
93.978 320.948 L
94.767 319.221 L
95.555 317.495 L
96.344 315.763 L
97.133 314.023 L
97.921 312.278 L
98.71 310.527 L
99.499 308.771 L
100.287 307.011 L
101.076 305.248 L
101.864 303.481 L
102.653 301.712 L
103.442 299.942 L
104.23 298.171 L
105.019 296.399 L
105.808 294.627 L
106.596 292.857 L
107.385 291.087 L
108.173 289.32 L
108.962 287.556 L
109.751 285.796 L
110.539 284.039 L
111.328 282.287 L
112.117 280.541 L
112.905 278.8 L
113.694 277.067 L
114.482 275.34 L
115.271 273.621 L
116.06 271.911 L
116.848 270.21 L
117.637 268.52 L
118.426 266.839 L
119.214 265.17 L
120.003 263.512 L
120.792 261.866 L
121.58 260.234 L
122.369 258.616 L
123.157 257.011 L
123.946 255.422 L
124.735 253.848 L
125.523 252.291 L
126.312 250.75 L
127.101 249.227 L
127.889 247.722 L
128.678 246.235 L
129.466 244.769 L
130.255 243.322 L
131.044 241.896 L
131.832 240.491 L
132.621 239.108 L
133.41 237.748 L
134.198 236.411 L
134.987 235.097 L
135.775 233.809 L
136.564 232.545 L
137.353 231.308 L
138.141 230.095 L
138.93 228.889 L
139.719 227.686 L
140.507 226.486 L
141.296 225.288 L
142.085 224.094 L
142.873 222.903 L
143.662 221.714 L
144.45 220.529 L
145.239 219.347 L
146.028 218.169 L
146.816 216.993 L
147.605 215.821 L
148.394 214.653 L
149.182 213.488 L
149.971 212.326 L
150.759 211.169 L
151.548 210.015 L
152.337 208.864 L
153.125 207.718 L
153.914 206.576 L
154.703 205.438 L
155.491 204.303 L
156.28 203.173 L
157.069 202.048 L
157.857 200.926 L
158.646 199.809 L
159.434 198.696 L
160.223 197.588 L
161.012 196.484 L
161.8 195.385 L
162.589 194.291 L
163.378 193.201 L
164.166 192.117 L
164.955 191.037 L
165.743 189.962 L
166.532 188.892 L
167.321 187.828 L
168.109 186.768 L
168.898 185.714 L
169.687 184.665 L
170.475 183.621 L
171.264 182.583 L
172.052 181.551 L
172.841 180.524 L
173.63 179.502 L
174.418 178.486 L
175.207 177.477 L
175.996 176.473 L
176.784 175.474 L
177.573 174.482 L
178.362 173.496 L
179.15 172.516 L
179.939 171.543 L
180.727 170.575 L
181.516 169.614 L
182.305 168.659 L
183.093 167.711 L
183.882 166.769 L
184.671 165.834 L
185.459 164.906 L
186.248 163.984 L
187.036 163.069 L
187.825 162.161 L
188.614 161.26 L
189.402 160.366 L
190.191 159.479 L
190.98 158.6 L
191.768 157.727 L
192.557 156.862 L
193.345 156.004 L
194.134 155.153 L
194.923 154.31 L
195.711 153.475 L
196.5 152.647 L
197.289 151.827 L
198.077 151.014 L
198.866 150.21 L
199.655 149.413 L
200.443 148.624 L
201.232 147.844 L
202.02 147.071 L
202.809 146.307 L
203.598 145.551 L
204.386 144.803 L
205.175 144.063 L
205.964 143.333 L
206.752 142.61 L
207.541 141.896 L
208.329 141.191 L
209.118 140.494 L
209.907 139.806 L
210.695 139.128 L
211.484 138.458 L
212.273 137.797 L
213.061 137.144 L
213.85 136.502 L
214.638 135.868 L
215.427 135.244 L
216.216 134.629 L
217.004 134.023 L
217.793 133.427 L
218.582 132.84 L
219.37 132.263 L
220.159 131.696 L
220.948 131.138 L
221.736 130.59 L
222.525 130.052 L
223.313 129.524 L
224.102 129.006 L
224.891 128.498 L
225.679 128 L
226.468 127.513 L
227.257 127.035 L
228.045 126.564 L
228.834 126.094 L
229.622 125.623 L
230.411 125.154 L
231.2 124.685 L
231.988 124.217 L
232.777 123.749 L
233.566 123.282 L
234.354 122.815 L
235.143 122.349 L
235.931 121.884 L
236.72 121.42 L
237.509 120.956 L
238.297 120.493 L
239.086 120.03 L
239.875 119.568 L
240.663 119.107 L
241.452 118.646 L
242.241 118.186 L
243.029 117.727 L
243.818 117.269 L
244.606 116.811 L
245.395 116.354 L
246.184 115.898 L
246.972 115.442 L
247.761 114.987 L
248.55 114.532 L
249.338 114.079 L
250.127 113.626 L
250.915 113.174 L
251.704 112.723 L
252.493 112.272 L
253.281 111.823 L
254.07 111.374 L
254.859 110.925 L
255.647 110.478 L
256.436 110.031 L
257.225 109.585 L
258.013 109.14 L
258.802 108.696 L
259.59 108.252 L
260.379 107.809 L
261.168 107.367 L
261.956 106.926 L
262.745 106.486 L
263.534 106.046 L
264.322 105.607 L
265.111 105.17 L
265.899 104.733 L
266.688 104.297 L
267.477 103.861 L
268.265 103.427 L
269.054 102.993 L
269.843 102.561 L
270.631 102.129 L
271.42 101.698 L
272.208 101.268 L
272.997 100.838 L
273.786 100.41 L
274.574 99.983 L
275.363 99.556 L
276.152 99.13 L
276.94 98.706 L
277.729 98.282 L
278.518 97.859 L
279.306 97.437 L
280.095 97.016 L
280.883 96.596 L
281.672 96.177 L
282.461 95.759 L
283.249 95.341 L
284.038 94.925 L
284.827 94.51 L
285.615 94.096 L
286.404 93.682 L
287.192 93.27 L
287.981 92.859 L
288.77 92.448 L
289.558 92.039 L
290.347 91.63 L
291.136 91.223 L
291.924 90.817 L
292.713 90.411 L
293.501 90.007 L
294.29 89.604 L
295.079 89.201 L
295.867 88.8 L
296.656 88.4 L
297.445 88.001 L
298.233 87.603 L
299.022 87.206 L
299.811 86.81 L
300.599 86.415 L
301.388 86.021 L
302.176 85.628 L
302.965 85.237 L
303.754 84.846 L
304.542 84.457 L
305.331 84.068 L
306.12 83.681 L
306.908 83.295 L
307.697 82.91 L
308.485 82.526 L
309.274 82.143 L
310.063 81.762 L
310.851 81.381 L
311.64 81.002 L
312.429 80.624 L
313.217 80.246 L
314.006 79.871 L
314.794 79.496 L
315.583 79.122 L
316.372 78.75 L
317.16 78.379 L
317.949 78.009 L
318.738 77.64 L
319.526 77.272 L
320.315 76.906 L
321.104 76.541 L
321.892 76.177 L
322.681 75.814 L
323.469 75.453 L
324.258 75.092 L
325.047 74.733 L
325.835 74.375 L
326.624 74.019 L
327.413 73.663 L
328.201 73.309 L
328.99 72.956 L
329.778 72.605 L
330.567 72.255 L
331.356 71.906 L
332.144 71.558 L
332.933 71.211 L
333.722 70.866 L
334.51 70.522 L
335.299 70.179 L
336.087 69.838 L
336.876 69.498 L
337.665 69.16 L
338.453 68.822 L
339.242 68.486 L
340.031 68.152 L
340.819 67.818 L
341.608 67.487 L
342.397 67.156 L
343.185 66.826 L
343.974 66.499 L
344.762 66.172 L
345.551 65.847 L
346.34 65.523 L
347.128 65.201 L
347.917 64.88 L
348.706 64.56 L
349.494 64.242 L
350.283 63.925 L
351.071 63.609 L
351.86 63.296 L
352.649 62.983 L
353.437 62.672 L
354.226 62.362 L
355.015 62.054 L
355.803 61.747 L
356.592 61.441 L
357.381 61.137 L
358.169 60.835 L
358.958 60.534 L
359.746 60.234 L
360.535 59.936 L
361.324 59.639 L
362.112 59.344 L
362.901 59.051 L
363.69 58.758 L
364.478 58.468 L
365.267 58.178 L
366.055 57.891 L
366.844 57.604 L
367.633 57.32 L
368.421 57.037 L
369.21 56.755 L
369.999 56.475 L
370.787 56.196 L
371.576 55.92 L
372.364 55.644 L
373.153 55.37 L
373.942 55.098 L
374.73 54.827 L
375.519 54.558 L
376.308 54.29 L
377.096 54.024 L
377.885 53.76 L
378.674 53.497 L
379.462 53.236 L
380.251 52.976 L
381.039 52.718 L
381.828 52.461 L
382.617 52.207 L
383.405 51.953 L
384.194 51.702 L
384.983 51.452 L
385.771 51.203 L
386.56 50.957 L
387.348 50.712 L
388.137 50.469 L
388.926 50.227 L
389.714 49.987 L
390.503 49.748 L
391.292 49.512 L
392.08 49.277 L
392.869 49.043 L
393.658 48.812 L
394.446 48.582 L
395.235 48.354 L
396.023 48.127 L
396.812 47.902 L
397.601 47.679 L
398.389 47.458 L
399.178 47.238 L
399.967 47.02 L
400.755 46.804 L
401.544 46.59 L
402.332 46.377 L
403.121 46.166 L
403.91 45.957 L
404.698 45.749 L
405.487 45.544 L
406.276 45.34 L
407.064 45.138 L
407.853 44.938 L
408.641 44.739 L
409.43 44.543 L
410.219 44.347 L
411.007 44.154 L
411.796 43.963 L
412.585 43.774 L
413.373 43.586 L
414.162 43.4 L
414.951 43.216 L
415.739 43.034 L
416.528 42.854 L
417.316 42.676 L
418.105 42.499 L
418.894 42.324 L
419.682 42.151 L
420.471 41.98 L
421.26 41.811 L
422.048 41.644 L
422.837 41.479 L
423.625 41.315 L
424.414 41.154 L
425.203 40.994 L
425.991 40.836 L
426.78 40.68 L
427.569 40.526 L
428.357 40.375 L
429.146 40.224 L
429.934 40.076 L
430.723 39.93 L
431.512 39.786 L
432.3 39.644 L
433.089 39.503 L
433.878 39.365 L
434.666 39.229 L
435.455 39.094 L
436.244 38.961 L
437.032 38.831 L
437.821 38.702 L
438.609 38.576 L
439.398 38.451 L
440.187 38.329 L
440.975 38.208 L
441.764 38.09 L
442.553 37.974 L
443.341 37.859 L
444.13 37.746 L
444.918 37.636 L
445.707 37.528 L
446.496 37.421 L
447.284 37.317 L
448.073 37.215 L
448.862 37.115 L
449.65 37.017 L
450.439 36.921 L
451.228 36.827 L
452.016 36.735 L
452.805 36.645 L
453.593 36.558 L
454.382 36.472 L
455.171 36.388 L
455.959 36.307 L
456.748 36.228 L
457.537 36.151 L
458.325 36.076 L
459.114 36.003 L
459.902 35.932 L
460.691 35.863 L
461.48 35.797 L
462.268 35.733 L
463.057 35.67 L
463.846 35.61 L
464.634 35.552 L
465.423 35.497 L
466.211 35.443 L
467 35.392 L
467.789 35.343 L
468.577 35.296 L
469.366 35.251 L
470.155 35.208 L
470.943 35.168 L
471.732 35.13 L
472.521 35.094 L
473.309 35.061 L
474.098 35.029 L
474.886 35 L
475.675 34.973 L
476.464 34.948 L
477.252 34.926 L
478.041 34.905 L
478.83 34.887 L
479.618 34.872 L
480.407 34.858 L
481.195 34.847 L
481.984 34.838 L
482.773 34.832 L
483.561 34.827 L
484.35 34.825 L
S
GR
GS
1 GC
N
499 366 M
499 250.5 L
344.5 250.5 L
344.5 366 L
cp
f
GR
GS
[1 0 0 1 381.5 260.25] CT
/Helvetica 13 F
GS
[1 0 0 1 0 0] CT
0 5 moveto 
1 -1 scale
(Base Run) t 
GR
GR
GS
0 0.447 0.741 RC
1 LJ
0.5 LW
N
348.5 260.25 M
378.5 260.25 L
S
GR
GS
[1 0 0 1 381.5 276.25] CT
/Helvetica 13 F
GS
[1 0 0 1 0 0] CT
0 5 moveto 
1 -1 scale
(I & B Frames) t 
GR
GR
GS
0.851 0.325 0.098 RC
1 LJ
0.5 LW
N
348.5 276.25 M
378.5 276.25 L
S
GR
GS
[1 0 0 1 381.5 292.25] CT
/Helvetica 13 F
GS
[1 0 0 1 0 0] CT
0 5 moveto 
1 -1 scale
(I Frames Only) t 
GR
GR
GS
0.929 0.694 0.125 RC
1 LJ
0.5 LW
N
348.5 292.25 M
378.5 292.25 L
S
GR
GS
[1 0 0 1 381.5 308.25] CT
/Helvetica 13 F
GS
[1 0 0 1 0 0] CT
0 5 moveto 
1 -1 scale
(B Frames Only) t 
GR
GR
GS
0.494 0.184 0.557 RC
1 LJ
0.5 LW
N
348.5 308.25 M
378.5 308.25 L
S
GR
GS
[1 0 0 1 381.5 324.25] CT
/Helvetica 13 F
GS
[1 0 0 1 0 0] CT
0 5 moveto 
1 -1 scale
(Part I & B Frames) t 
GR
GR
GS
0.467 0.675 0.188 RC
[10 6] 0 setdash
2 LJ
0.5 LW
N
348.5 324.25 M
378.5 324.25 L
S
GR
GS
[1 0 0 1 381.5 340.25] CT
/Helvetica 13 F
GS
[1 0 0 1 0 0] CT
0 5 moveto 
1 -1 scale
(Part I Frames Only) t 
GR
GR
GS
0.302 0.745 0.933 RC
[10 6] 0 setdash
2 LJ
0.5 LW
N
348.5 340.25 M
378.5 340.25 L
S
GR
GS
[1 0 0 1 381.5 356.25] CT
/Helvetica 13 F
GS
[1 0 0 1 0 0] CT
0 5 moveto 
1 -1 scale
(Part B Frames Only) t 
GR
GR
GS
0.635 0.078 0.184 RC
[10 6] 0 setdash
2 LJ
0.5 LW
N
348.5 356.25 M
378.5 356.25 L
S
GR
GS
0.149 GC
10.0 ML
0.5 LW
N
344.5 366 M
344.5 250.5 L
499 250.5 L
499 366 L
cp
S
GR
%%Trailer
%%Pages: 1
%%EOF
