%!PS-Adobe-3.0 EPSF-3.0
%%Creator: (MATLAB, The Mathworks, Inc. Version 9.11.0.1837725 \(R2021b\) Update 2. Operating System: Mac OS X)
%%Title: plots/pchip/FoodMarket_1920x1080_5994_10bit_420.y4m-hevc-DE2K.eps
%%CreationDate: 2022-02-03T19:14:09
%%Pages: (atend)
%%BoundingBox:    22   425   508   826
%%LanguageLevel: 3
%%EndComments
%%BeginProlog
%%BeginResource: procset (Apache XML Graphics Std ProcSet) 1.2 0
%%Version: 1.2 0
%%Copyright: (Copyright 2001-2003,2010 The Apache Software Foundation. License terms: http://www.apache.org/licenses/LICENSE-2.0)
/bd{bind def}bind def
/ld{load def}bd
/GR/grestore ld
/GS/gsave ld
/RM/rmoveto ld
/C/curveto ld
/t/show ld
/L/lineto ld
/ML/setmiterlimit ld
/CT/concat ld
/f/fill ld
/N/newpath ld
/S/stroke ld
/CC/setcmykcolor ld
/A/ashow ld
/cp/closepath ld
/RC/setrgbcolor ld
/LJ/setlinejoin ld
/GC/setgray ld
/LW/setlinewidth ld
/M/moveto ld
/re {4 2 roll M
1 index 0 rlineto
0 exch rlineto
neg 0 rlineto
cp } bd
/_ctm matrix def
/_tm matrix def
/BT { _ctm currentmatrix pop matrix _tm copy pop 0 0 moveto } bd
/ET { _ctm setmatrix } bd
/iTm { _ctm setmatrix _tm concat } bd
/Tm { _tm astore pop iTm 0 0 moveto } bd
/ux 0.0 def
/uy 0.0 def
/F {
  /Tp exch def
  /Tf exch def
  Tf findfont Tp scalefont setfont
  /cf Tf def  /cs Tp def
} bd
/ULS {currentpoint /uy exch def /ux exch def} bd
/ULE {
  /Tcx currentpoint pop def
  gsave
  newpath
  cf findfont cs scalefont dup
  /FontMatrix get 0 get /Ts exch def /FontInfo get dup
  /UnderlinePosition get Ts mul /To exch def
  /UnderlineThickness get Ts mul /Tt exch def
  ux uy To add moveto  Tcx uy To add lineto
  Tt setlinewidth stroke
  grestore
} bd
/OLE {
  /Tcx currentpoint pop def
  gsave
  newpath
  cf findfont cs scalefont dup
  /FontMatrix get 0 get /Ts exch def /FontInfo get dup
  /UnderlinePosition get Ts mul /To exch def
  /UnderlineThickness get Ts mul /Tt exch def
  ux uy To add cs add moveto Tcx uy To add cs add lineto
  Tt setlinewidth stroke
  grestore
} bd
/SOE {
  /Tcx currentpoint pop def
  gsave
  newpath
  cf findfont cs scalefont dup
  /FontMatrix get 0 get /Ts exch def /FontInfo get dup
  /UnderlinePosition get Ts mul /To exch def
  /UnderlineThickness get Ts mul /Tt exch def
  ux uy To add cs 10 mul 26 idiv add moveto Tcx uy To add cs 10 mul 26 idiv add lineto
  Tt setlinewidth stroke
  grestore
} bd
/QT {
/Y22 exch store
/X22 exch store
/Y21 exch store
/X21 exch store
currentpoint
/Y21 load 2 mul add 3 div exch
/X21 load 2 mul add 3 div exch
/X21 load 2 mul /X22 load add 3 div
/Y21 load 2 mul /Y22 load add 3 div
/X22 load /Y22 load curveto
} bd
/SSPD {
dup length /d exch dict def
{
/v exch def
/k exch def
currentpagedevice k known {
/cpdv currentpagedevice k get def
v cpdv ne {
/upd false def
/nullv v type /nulltype eq def
/nullcpdv cpdv type /nulltype eq def
nullv nullcpdv or
{
/upd true def
} {
/sametype v type cpdv type eq def
sametype {
v type /arraytype eq {
/vlen v length def
/cpdvlen cpdv length def
vlen cpdvlen eq {
0 1 vlen 1 sub {
/i exch def
/obj v i get def
/cpdobj cpdv i get def
obj cpdobj ne {
/upd true def
exit
} if
} for
} {
/upd true def
} ifelse
} {
v type /dicttype eq {
v {
/dv exch def
/dk exch def
/cpddv cpdv dk get def
dv cpddv ne {
/upd true def
exit
} if
} forall
} {
/upd true def
} ifelse
} ifelse
} if
} ifelse
upd true eq {
d k v put
} if
} if
} if
} forall
d length 0 gt {
d setpagedevice
} if
} bd
/RE { % /NewFontName [NewEncodingArray] /FontName RE -
  findfont dup length dict begin
  {
    1 index /FID ne
    {def} {pop pop} ifelse
  } forall
  /Encoding exch def
  /FontName 1 index def
  currentdict definefont pop
  end
} bind def
%%EndResource
%%BeginResource: procset (Apache XML Graphics EPS ProcSet) 1.0 0
%%Version: 1.0 0
%%Copyright: (Copyright 2002-2003 The Apache Software Foundation. License terms: http://www.apache.org/licenses/LICENSE-2.0)
/BeginEPSF { %def
/b4_Inc_state save def         % Save state for cleanup
/dict_count countdictstack def % Count objects on dict stack
/op_count count 1 sub def      % Count objects on operand stack
userdict begin                 % Push userdict on dict stack
/showpage { } def              % Redefine showpage, { } = null proc
0 setgray 0 setlinecap         % Prepare graphics state
1 setlinewidth 0 setlinejoin
10 setmiterlimit [ ] 0 setdash newpath
/languagelevel where           % If level not equal to 1 then
{pop languagelevel             % set strokeadjust and
1 ne                           % overprint to their defaults.
{false setstrokeadjust false setoverprint
} if
} if
} bd
/EndEPSF { %def
count op_count sub {pop} repeat            % Clean up stacks
countdictstack dict_count sub {end} repeat
b4_Inc_state restore
} bd
%%EndResource
%FOPBeginFontDict
%%IncludeResource: font Courier-Oblique
%%IncludeResource: font Courier-BoldOblique
%%IncludeResource: font Courier-Bold
%%IncludeResource: font ZapfDingbats
%%IncludeResource: font Symbol
%%IncludeResource: font Helvetica
%%IncludeResource: font Helvetica-Oblique
%%IncludeResource: font Helvetica-Bold
%%IncludeResource: font Helvetica-BoldOblique
%%IncludeResource: font Times-Roman
%%IncludeResource: font Times-Italic
%%IncludeResource: font Times-Bold
%%IncludeResource: font Times-BoldItalic
%%IncludeResource: font Courier
%FOPEndFontDict
%%BeginResource: encoding WinAnsiEncoding
/WinAnsiEncoding [
/.notdef /.notdef /.notdef /.notdef /.notdef
/.notdef /.notdef /.notdef /.notdef /.notdef
/.notdef /.notdef /.notdef /.notdef /.notdef
/.notdef /.notdef /.notdef /.notdef /.notdef
/.notdef /.notdef /.notdef /.notdef /.notdef
/.notdef /.notdef /.notdef /.notdef /.notdef
/.notdef /.notdef /space /exclam /quotedbl
/numbersign /dollar /percent /ampersand /quotesingle
/parenleft /parenright /asterisk /plus /comma
/hyphen /period /slash /zero /one
/two /three /four /five /six
/seven /eight /nine /colon /semicolon
/less /equal /greater /question /at
/A /B /C /D /E
/F /G /H /I /J
/K /L /M /N /O
/P /Q /R /S /T
/U /V /W /X /Y
/Z /bracketleft /backslash /bracketright /asciicircum
/underscore /quoteleft /a /b /c
/d /e /f /g /h
/i /j /k /l /m
/n /o /p /q /r
/s /t /u /v /w
/x /y /z /braceleft /bar
/braceright /asciitilde /bullet /Euro /bullet
/quotesinglbase /florin /quotedblbase /ellipsis /dagger
/daggerdbl /circumflex /perthousand /Scaron /guilsinglleft
/OE /bullet /Zcaron /bullet /bullet
/quoteleft /quoteright /quotedblleft /quotedblright /bullet
/endash /emdash /asciitilde /trademark /scaron
/guilsinglright /oe /bullet /zcaron /Ydieresis
/space /exclamdown /cent /sterling /currency
/yen /brokenbar /section /dieresis /copyright
/ordfeminine /guillemotleft /logicalnot /sfthyphen /registered
/macron /degree /plusminus /twosuperior /threesuperior
/acute /mu /paragraph /middot /cedilla
/onesuperior /ordmasculine /guillemotright /onequarter /onehalf
/threequarters /questiondown /Agrave /Aacute /Acircumflex
/Atilde /Adieresis /Aring /AE /Ccedilla
/Egrave /Eacute /Ecircumflex /Edieresis /Igrave
/Iacute /Icircumflex /Idieresis /Eth /Ntilde
/Ograve /Oacute /Ocircumflex /Otilde /Odieresis
/multiply /Oslash /Ugrave /Uacute /Ucircumflex
/Udieresis /Yacute /Thorn /germandbls /agrave
/aacute /acircumflex /atilde /adieresis /aring
/ae /ccedilla /egrave /eacute /ecircumflex
/edieresis /igrave /iacute /icircumflex /idieresis
/eth /ntilde /ograve /oacute /ocircumflex
/otilde /odieresis /divide /oslash /ugrave
/uacute /ucircumflex /udieresis /yacute /thorn
/ydieresis
] def
%%EndResource
%FOPBeginFontReencode
/Courier-Oblique findfont
dup length dict begin
  {1 index /FID ne {def} {pop pop} ifelse} forall
  /Encoding WinAnsiEncoding def
  currentdict
end
/Courier-Oblique exch definefont pop
/Courier-BoldOblique findfont
dup length dict begin
  {1 index /FID ne {def} {pop pop} ifelse} forall
  /Encoding WinAnsiEncoding def
  currentdict
end
/Courier-BoldOblique exch definefont pop
/Courier-Bold findfont
dup length dict begin
  {1 index /FID ne {def} {pop pop} ifelse} forall
  /Encoding WinAnsiEncoding def
  currentdict
end
/Courier-Bold exch definefont pop
/Helvetica findfont
dup length dict begin
  {1 index /FID ne {def} {pop pop} ifelse} forall
  /Encoding WinAnsiEncoding def
  currentdict
end
/Helvetica exch definefont pop
/Helvetica-Oblique findfont
dup length dict begin
  {1 index /FID ne {def} {pop pop} ifelse} forall
  /Encoding WinAnsiEncoding def
  currentdict
end
/Helvetica-Oblique exch definefont pop
/Helvetica-Bold findfont
dup length dict begin
  {1 index /FID ne {def} {pop pop} ifelse} forall
  /Encoding WinAnsiEncoding def
  currentdict
end
/Helvetica-Bold exch definefont pop
/Helvetica-BoldOblique findfont
dup length dict begin
  {1 index /FID ne {def} {pop pop} ifelse} forall
  /Encoding WinAnsiEncoding def
  currentdict
end
/Helvetica-BoldOblique exch definefont pop
/Times-Roman findfont
dup length dict begin
  {1 index /FID ne {def} {pop pop} ifelse} forall
  /Encoding WinAnsiEncoding def
  currentdict
end
/Times-Roman exch definefont pop
/Times-Italic findfont
dup length dict begin
  {1 index /FID ne {def} {pop pop} ifelse} forall
  /Encoding WinAnsiEncoding def
  currentdict
end
/Times-Italic exch definefont pop
/Times-Bold findfont
dup length dict begin
  {1 index /FID ne {def} {pop pop} ifelse} forall
  /Encoding WinAnsiEncoding def
  currentdict
end
/Times-Bold exch definefont pop
/Times-BoldItalic findfont
dup length dict begin
  {1 index /FID ne {def} {pop pop} ifelse} forall
  /Encoding WinAnsiEncoding def
  currentdict
end
/Times-BoldItalic exch definefont pop
/Courier findfont
dup length dict begin
  {1 index /FID ne {def} {pop pop} ifelse} forall
  /Encoding WinAnsiEncoding def
  currentdict
end
/Courier exch definefont pop
%FOPEndFontReencode
%%EndProlog
%%Page: 1 1
%%PageBoundingBox: 0 0 1120 840
%%BeginPageSetup
[1 0 0 -1 0 840] CT
%%EndPageSetup
GS
1 GC
N
0 0 1120 840 re
f
GR
GS
1 GC
N
73 374 M
507 374 L
507 31.5 L
73 31.5 L
cp
f
GR
GS
0.149 GC
2 setlinecap
1 LJ
0.5 LW
N
73 374 M
507 374 L
S
GR
GS
0.149 GC
2 setlinecap
1 LJ
0.5 LW
N
73 31.5 M
507 31.5 L
S
GR
GS
0.149 GC
2 setlinecap
1 LJ
0.5 LW
N
131.215 374 M
131.215 369.66 L
S
GR
GS
0.149 GC
2 setlinecap
1 LJ
0.5 LW
N
210.077 374 M
210.077 369.66 L
S
GR
GS
0.149 GC
2 setlinecap
1 LJ
0.5 LW
N
288.94 374 M
288.94 369.66 L
S
GR
GS
0.149 GC
2 setlinecap
1 LJ
0.5 LW
N
367.803 374 M
367.803 369.66 L
S
GR
GS
0.149 GC
2 setlinecap
1 LJ
0.5 LW
N
446.667 374 M
446.667 369.66 L
S
GR
GS
0.149 GC
2 setlinecap
1 LJ
0.5 LW
N
131.215 31.5 M
131.215 35.84 L
S
GR
GS
0.149 GC
2 setlinecap
1 LJ
0.5 LW
N
210.077 31.5 M
210.077 35.84 L
S
GR
GS
0.149 GC
2 setlinecap
1 LJ
0.5 LW
N
288.94 31.5 M
288.94 35.84 L
S
GR
GS
0.149 GC
2 setlinecap
1 LJ
0.5 LW
N
367.803 31.5 M
367.803 35.84 L
S
GR
GS
0.149 GC
2 setlinecap
1 LJ
0.5 LW
N
446.667 31.5 M
446.667 35.84 L
S
GR
GS
0.149 GC
2 setlinecap
1 LJ
0.5 LW
N
91.783 374 M
91.783 371.83 L
S
GR
GS
0.149 GC
2 setlinecap
1 LJ
0.5 LW
N
111.499 374 M
111.499 371.83 L
S
GR
GS
0.149 GC
2 setlinecap
1 LJ
0.5 LW
N
150.93 374 M
150.93 371.83 L
S
GR
GS
0.149 GC
2 setlinecap
1 LJ
0.5 LW
N
170.646 374 M
170.646 371.83 L
S
GR
GS
0.149 GC
2 setlinecap
1 LJ
0.5 LW
N
190.362 374 M
190.362 371.83 L
S
GR
GS
0.149 GC
2 setlinecap
1 LJ
0.5 LW
N
229.793 374 M
229.793 371.83 L
S
GR
GS
0.149 GC
2 setlinecap
1 LJ
0.5 LW
N
249.509 374 M
249.509 371.83 L
S
GR
GS
0.149 GC
2 setlinecap
1 LJ
0.5 LW
N
269.225 374 M
269.225 371.83 L
S
GR
GS
0.149 GC
2 setlinecap
1 LJ
0.5 LW
N
308.656 374 M
308.656 371.83 L
S
GR
GS
0.149 GC
2 setlinecap
1 LJ
0.5 LW
N
328.372 374 M
328.372 371.83 L
S
GR
GS
0.149 GC
2 setlinecap
1 LJ
0.5 LW
N
348.088 374 M
348.088 371.83 L
S
GR
GS
0.149 GC
2 setlinecap
1 LJ
0.5 LW
N
387.519 374 M
387.519 371.83 L
S
GR
GS
0.149 GC
2 setlinecap
1 LJ
0.5 LW
N
407.235 374 M
407.235 371.83 L
S
GR
GS
0.149 GC
2 setlinecap
1 LJ
0.5 LW
N
426.951 374 M
426.951 371.83 L
S
GR
GS
0.149 GC
2 setlinecap
1 LJ
0.5 LW
N
466.382 374 M
466.382 371.83 L
S
GR
GS
0.149 GC
2 setlinecap
1 LJ
0.5 LW
N
486.098 374 M
486.098 371.83 L
S
GR
GS
0.149 GC
2 setlinecap
1 LJ
0.5 LW
N
505.814 374 M
505.814 371.83 L
S
GR
GS
0.149 GC
2 setlinecap
1 LJ
0.5 LW
N
91.783 31.5 M
91.783 33.67 L
S
GR
GS
0.149 GC
2 setlinecap
1 LJ
0.5 LW
N
111.499 31.5 M
111.499 33.67 L
S
GR
GS
0.149 GC
2 setlinecap
1 LJ
0.5 LW
N
150.93 31.5 M
150.93 33.67 L
S
GR
GS
0.149 GC
2 setlinecap
1 LJ
0.5 LW
N
170.646 31.5 M
170.646 33.67 L
S
GR
GS
0.149 GC
2 setlinecap
1 LJ
0.5 LW
N
190.362 31.5 M
190.362 33.67 L
S
GR
GS
0.149 GC
2 setlinecap
1 LJ
0.5 LW
N
229.793 31.5 M
229.793 33.67 L
S
GR
GS
0.149 GC
2 setlinecap
1 LJ
0.5 LW
N
249.509 31.5 M
249.509 33.67 L
S
GR
GS
0.149 GC
2 setlinecap
1 LJ
0.5 LW
N
269.225 31.5 M
269.225 33.67 L
S
GR
GS
0.149 GC
2 setlinecap
1 LJ
0.5 LW
N
308.656 31.5 M
308.656 33.67 L
S
GR
GS
0.149 GC
2 setlinecap
1 LJ
0.5 LW
N
328.372 31.5 M
328.372 33.67 L
S
GR
GS
0.149 GC
2 setlinecap
1 LJ
0.5 LW
N
348.088 31.5 M
348.088 33.67 L
S
GR
GS
0.149 GC
2 setlinecap
1 LJ
0.5 LW
N
387.519 31.5 M
387.519 33.67 L
S
GR
GS
0.149 GC
2 setlinecap
1 LJ
0.5 LW
N
407.235 31.5 M
407.235 33.67 L
S
GR
GS
0.149 GC
2 setlinecap
1 LJ
0.5 LW
N
426.951 31.5 M
426.951 33.67 L
S
GR
GS
0.149 GC
2 setlinecap
1 LJ
0.5 LW
N
466.382 31.5 M
466.382 33.67 L
S
GR
GS
0.149 GC
2 setlinecap
1 LJ
0.5 LW
N
486.098 31.5 M
486.098 33.67 L
S
GR
GS
0.149 GC
2 setlinecap
1 LJ
0.5 LW
N
505.814 31.5 M
505.814 33.67 L
S
GR
GS
[1 0 0 1 131.21451 378.79999] CT
0.149 GC
/Helvetica 14 F
GS
[1 0 0 1 0 0] CT
-16 14 moveto 
1 -1 scale
(2000) t 
GR
GR
GS
[1 0 0 1 210.0775 378.79999] CT
0.149 GC
/Helvetica 14 F
GS
[1 0 0 1 0 0] CT
-16 14 moveto 
1 -1 scale
(4000) t 
GR
GR
GS
[1 0 0 1 288.94049 378.79999] CT
0.149 GC
/Helvetica 14 F
GS
[1 0 0 1 0 0] CT
-16 14 moveto 
1 -1 scale
(6000) t 
GR
GR
GS
[1 0 0 1 367.8035 378.79999] CT
0.149 GC
/Helvetica 14 F
GS
[1 0 0 1 0 0] CT
-16 14 moveto 
1 -1 scale
(8000) t 
GR
GR
GS
[1 0 0 1 446.6665 378.79999] CT
0.149 GC
/Helvetica 14 F
GS
[1 0 0 1 0 0] CT
-19.5 14 moveto 
1 -1 scale
(10000) t 
GR
GR
GS
[1 0 0 1 290.00021 396.29993] CT
0.149 GC
/Helvetica 15.4 F
GS
[1 0 0 1 0 0] CT
-42 15 moveto 
1 -1 scale
(Bitrate\(kb/s\)) t 
GR
GR
GS
0.149 GC
2 setlinecap
1 LJ
0.5 LW
N
73 374 M
73 31.5 L
S
GR
GS
0.149 GC
2 setlinecap
1 LJ
0.5 LW
N
507 374 M
507 31.5 L
S
GR
GS
0.149 GC
2 setlinecap
1 LJ
0.5 LW
N
73 368.899 M
77.34 368.899 L
S
GR
GS
0.149 GC
2 setlinecap
1 LJ
0.5 LW
N
73 335.22 M
77.34 335.22 L
S
GR
GS
0.149 GC
2 setlinecap
1 LJ
0.5 LW
N
73 301.54 M
77.34 301.54 L
S
GR
GS
0.149 GC
2 setlinecap
1 LJ
0.5 LW
N
73 267.86 M
77.34 267.86 L
S
GR
GS
0.149 GC
2 setlinecap
1 LJ
0.5 LW
N
73 234.181 M
77.34 234.181 L
S
GR
GS
0.149 GC
2 setlinecap
1 LJ
0.5 LW
N
73 200.501 M
77.34 200.501 L
S
GR
GS
0.149 GC
2 setlinecap
1 LJ
0.5 LW
N
73 166.821 M
77.34 166.821 L
S
GR
GS
0.149 GC
2 setlinecap
1 LJ
0.5 LW
N
73 133.142 M
77.34 133.142 L
S
GR
GS
0.149 GC
2 setlinecap
1 LJ
0.5 LW
N
73 99.462 M
77.34 99.462 L
S
GR
GS
0.149 GC
2 setlinecap
1 LJ
0.5 LW
N
73 65.782 M
77.34 65.782 L
S
GR
GS
0.149 GC
2 setlinecap
1 LJ
0.5 LW
N
73 32.103 M
77.34 32.103 L
S
GR
GS
0.149 GC
2 setlinecap
1 LJ
0.5 LW
N
507 368.899 M
502.66 368.899 L
S
GR
GS
0.149 GC
2 setlinecap
1 LJ
0.5 LW
N
507 335.22 M
502.66 335.22 L
S
GR
GS
0.149 GC
2 setlinecap
1 LJ
0.5 LW
N
507 301.54 M
502.66 301.54 L
S
GR
GS
0.149 GC
2 setlinecap
1 LJ
0.5 LW
N
507 267.86 M
502.66 267.86 L
S
GR
GS
0.149 GC
2 setlinecap
1 LJ
0.5 LW
N
507 234.181 M
502.66 234.181 L
S
GR
GS
0.149 GC
2 setlinecap
1 LJ
0.5 LW
N
507 200.501 M
502.66 200.501 L
S
GR
GS
0.149 GC
2 setlinecap
1 LJ
0.5 LW
N
507 166.821 M
502.66 166.821 L
S
GR
GS
0.149 GC
2 setlinecap
1 LJ
0.5 LW
N
507 133.142 M
502.66 133.142 L
S
GR
GS
0.149 GC
2 setlinecap
1 LJ
0.5 LW
N
507 99.462 M
502.66 99.462 L
S
GR
GS
0.149 GC
2 setlinecap
1 LJ
0.5 LW
N
507 65.782 M
502.66 65.782 L
S
GR
GS
0.149 GC
2 setlinecap
1 LJ
0.5 LW
N
507 32.103 M
502.66 32.103 L
S
GR
GS
0.149 GC
2 setlinecap
1 LJ
0.5 LW
N
73 362.164 M
75.17 362.164 L
S
GR
GS
0.149 GC
2 setlinecap
1 LJ
0.5 LW
N
73 355.428 M
75.17 355.428 L
S
GR
GS
0.149 GC
2 setlinecap
1 LJ
0.5 LW
N
73 348.692 M
75.17 348.692 L
S
GR
GS
0.149 GC
2 setlinecap
1 LJ
0.5 LW
N
73 341.956 M
75.17 341.956 L
S
GR
GS
0.149 GC
2 setlinecap
1 LJ
0.5 LW
N
73 328.484 M
75.17 328.484 L
S
GR
GS
0.149 GC
2 setlinecap
1 LJ
0.5 LW
N
73 321.748 M
75.17 321.748 L
S
GR
GS
0.149 GC
2 setlinecap
1 LJ
0.5 LW
N
73 315.012 M
75.17 315.012 L
S
GR
GS
0.149 GC
2 setlinecap
1 LJ
0.5 LW
N
73 308.276 M
75.17 308.276 L
S
GR
GS
0.149 GC
2 setlinecap
1 LJ
0.5 LW
N
73 294.804 M
75.17 294.804 L
S
GR
GS
0.149 GC
2 setlinecap
1 LJ
0.5 LW
N
73 288.068 M
75.17 288.068 L
S
GR
GS
0.149 GC
2 setlinecap
1 LJ
0.5 LW
N
73 281.332 M
75.17 281.332 L
S
GR
GS
0.149 GC
2 setlinecap
1 LJ
0.5 LW
N
73 274.596 M
75.17 274.596 L
S
GR
GS
0.149 GC
2 setlinecap
1 LJ
0.5 LW
N
73 261.125 M
75.17 261.125 L
S
GR
GS
0.149 GC
2 setlinecap
1 LJ
0.5 LW
N
73 254.389 M
75.17 254.389 L
S
GR
GS
0.149 GC
2 setlinecap
1 LJ
0.5 LW
N
73 247.653 M
75.17 247.653 L
S
GR
GS
0.149 GC
2 setlinecap
1 LJ
0.5 LW
N
73 240.917 M
75.17 240.917 L
S
GR
GS
0.149 GC
2 setlinecap
1 LJ
0.5 LW
N
73 227.445 M
75.17 227.445 L
S
GR
GS
0.149 GC
2 setlinecap
1 LJ
0.5 LW
N
73 220.709 M
75.17 220.709 L
S
GR
GS
0.149 GC
2 setlinecap
1 LJ
0.5 LW
N
73 213.973 M
75.17 213.973 L
S
GR
GS
0.149 GC
2 setlinecap
1 LJ
0.5 LW
N
73 207.237 M
75.17 207.237 L
S
GR
GS
0.149 GC
2 setlinecap
1 LJ
0.5 LW
N
73 193.765 M
75.17 193.765 L
S
GR
GS
0.149 GC
2 setlinecap
1 LJ
0.5 LW
N
73 187.029 M
75.17 187.029 L
S
GR
GS
0.149 GC
2 setlinecap
1 LJ
0.5 LW
N
73 180.293 M
75.17 180.293 L
S
GR
GS
0.149 GC
2 setlinecap
1 LJ
0.5 LW
N
73 173.557 M
75.17 173.557 L
S
GR
GS
0.149 GC
2 setlinecap
1 LJ
0.5 LW
N
73 160.086 M
75.17 160.086 L
S
GR
GS
0.149 GC
2 setlinecap
1 LJ
0.5 LW
N
73 153.35 M
75.17 153.35 L
S
GR
GS
0.149 GC
2 setlinecap
1 LJ
0.5 LW
N
73 146.614 M
75.17 146.614 L
S
GR
GS
0.149 GC
2 setlinecap
1 LJ
0.5 LW
N
73 139.878 M
75.17 139.878 L
S
GR
GS
0.149 GC
2 setlinecap
1 LJ
0.5 LW
N
73 126.406 M
75.17 126.406 L
S
GR
GS
0.149 GC
2 setlinecap
1 LJ
0.5 LW
N
73 119.67 M
75.17 119.67 L
S
GR
GS
0.149 GC
2 setlinecap
1 LJ
0.5 LW
N
73 112.934 M
75.17 112.934 L
S
GR
GS
0.149 GC
2 setlinecap
1 LJ
0.5 LW
N
73 106.198 M
75.17 106.198 L
S
GR
GS
0.149 GC
2 setlinecap
1 LJ
0.5 LW
N
73 92.726 M
75.17 92.726 L
S
GR
GS
0.149 GC
2 setlinecap
1 LJ
0.5 LW
N
73 85.99 M
75.17 85.99 L
S
GR
GS
0.149 GC
2 setlinecap
1 LJ
0.5 LW
N
73 79.254 M
75.17 79.254 L
S
GR
GS
0.149 GC
2 setlinecap
1 LJ
0.5 LW
N
73 72.518 M
75.17 72.518 L
S
GR
GS
0.149 GC
2 setlinecap
1 LJ
0.5 LW
N
73 59.047 M
75.17 59.047 L
S
GR
GS
0.149 GC
2 setlinecap
1 LJ
0.5 LW
N
73 52.31 M
75.17 52.31 L
S
GR
GS
0.149 GC
2 setlinecap
1 LJ
0.5 LW
N
73 45.575 M
75.17 45.575 L
S
GR
GS
0.149 GC
2 setlinecap
1 LJ
0.5 LW
N
73 38.839 M
75.17 38.839 L
S
GR
GS
0.149 GC
2 setlinecap
1 LJ
0.5 LW
N
507 362.164 M
504.83 362.164 L
S
GR
GS
0.149 GC
2 setlinecap
1 LJ
0.5 LW
N
507 355.428 M
504.83 355.428 L
S
GR
GS
0.149 GC
2 setlinecap
1 LJ
0.5 LW
N
507 348.692 M
504.83 348.692 L
S
GR
GS
0.149 GC
2 setlinecap
1 LJ
0.5 LW
N
507 341.956 M
504.83 341.956 L
S
GR
GS
0.149 GC
2 setlinecap
1 LJ
0.5 LW
N
507 328.484 M
504.83 328.484 L
S
GR
GS
0.149 GC
2 setlinecap
1 LJ
0.5 LW
N
507 321.748 M
504.83 321.748 L
S
GR
GS
0.149 GC
2 setlinecap
1 LJ
0.5 LW
N
507 315.012 M
504.83 315.012 L
S
GR
GS
0.149 GC
2 setlinecap
1 LJ
0.5 LW
N
507 308.276 M
504.83 308.276 L
S
GR
GS
0.149 GC
2 setlinecap
1 LJ
0.5 LW
N
507 294.804 M
504.83 294.804 L
S
GR
GS
0.149 GC
2 setlinecap
1 LJ
0.5 LW
N
507 288.068 M
504.83 288.068 L
S
GR
GS
0.149 GC
2 setlinecap
1 LJ
0.5 LW
N
507 281.332 M
504.83 281.332 L
S
GR
GS
0.149 GC
2 setlinecap
1 LJ
0.5 LW
N
507 274.596 M
504.83 274.596 L
S
GR
GS
0.149 GC
2 setlinecap
1 LJ
0.5 LW
N
507 261.125 M
504.83 261.125 L
S
GR
GS
0.149 GC
2 setlinecap
1 LJ
0.5 LW
N
507 254.389 M
504.83 254.389 L
S
GR
GS
0.149 GC
2 setlinecap
1 LJ
0.5 LW
N
507 247.653 M
504.83 247.653 L
S
GR
GS
0.149 GC
2 setlinecap
1 LJ
0.5 LW
N
507 240.917 M
504.83 240.917 L
S
GR
GS
0.149 GC
2 setlinecap
1 LJ
0.5 LW
N
507 227.445 M
504.83 227.445 L
S
GR
GS
0.149 GC
2 setlinecap
1 LJ
0.5 LW
N
507 220.709 M
504.83 220.709 L
S
GR
GS
0.149 GC
2 setlinecap
1 LJ
0.5 LW
N
507 213.973 M
504.83 213.973 L
S
GR
GS
0.149 GC
2 setlinecap
1 LJ
0.5 LW
N
507 207.237 M
504.83 207.237 L
S
GR
GS
0.149 GC
2 setlinecap
1 LJ
0.5 LW
N
507 193.765 M
504.83 193.765 L
S
GR
GS
0.149 GC
2 setlinecap
1 LJ
0.5 LW
N
507 187.029 M
504.83 187.029 L
S
GR
GS
0.149 GC
2 setlinecap
1 LJ
0.5 LW
N
507 180.293 M
504.83 180.293 L
S
GR
GS
0.149 GC
2 setlinecap
1 LJ
0.5 LW
N
507 173.557 M
504.83 173.557 L
S
GR
GS
0.149 GC
2 setlinecap
1 LJ
0.5 LW
N
507 160.086 M
504.83 160.086 L
S
GR
GS
0.149 GC
2 setlinecap
1 LJ
0.5 LW
N
507 153.35 M
504.83 153.35 L
S
GR
GS
0.149 GC
2 setlinecap
1 LJ
0.5 LW
N
507 146.614 M
504.83 146.614 L
S
GR
GS
0.149 GC
2 setlinecap
1 LJ
0.5 LW
N
507 139.878 M
504.83 139.878 L
S
GR
GS
0.149 GC
2 setlinecap
1 LJ
0.5 LW
N
507 126.406 M
504.83 126.406 L
S
GR
GS
0.149 GC
2 setlinecap
1 LJ
0.5 LW
N
507 119.67 M
504.83 119.67 L
S
GR
GS
0.149 GC
2 setlinecap
1 LJ
0.5 LW
N
507 112.934 M
504.83 112.934 L
S
GR
GS
0.149 GC
2 setlinecap
1 LJ
0.5 LW
N
507 106.198 M
504.83 106.198 L
S
GR
GS
0.149 GC
2 setlinecap
1 LJ
0.5 LW
N
507 92.726 M
504.83 92.726 L
S
GR
GS
0.149 GC
2 setlinecap
1 LJ
0.5 LW
N
507 85.99 M
504.83 85.99 L
S
GR
GS
0.149 GC
2 setlinecap
1 LJ
0.5 LW
N
507 79.254 M
504.83 79.254 L
S
GR
GS
0.149 GC
2 setlinecap
1 LJ
0.5 LW
N
507 72.518 M
504.83 72.518 L
S
GR
GS
0.149 GC
2 setlinecap
1 LJ
0.5 LW
N
507 59.047 M
504.83 59.047 L
S
GR
GS
0.149 GC
2 setlinecap
1 LJ
0.5 LW
N
507 52.31 M
504.83 52.31 L
S
GR
GS
0.149 GC
2 setlinecap
1 LJ
0.5 LW
N
507 45.575 M
504.83 45.575 L
S
GR
GS
0.149 GC
2 setlinecap
1 LJ
0.5 LW
N
507 38.839 M
504.83 38.839 L
S
GR
GS
[1 0 0 1 68.2 368.89948] CT
0.149 GC
/Helvetica 14 F
GS
[1 0 0 1 0 0] CT
-28 5.5 moveto 
1 -1 scale
(34.5) t 
GR
GR
GS
[1 0 0 1 68.2 335.21982] CT
0.149 GC
/Helvetica 14 F
GS
[1 0 0 1 0 0] CT
-16 5.5 moveto 
1 -1 scale
(35) t 
GR
GR
GS
[1 0 0 1 68.2 301.54013] CT
0.149 GC
/Helvetica 14 F
GS
[1 0 0 1 0 0] CT
-28 5.5 moveto 
1 -1 scale
(35.5) t 
GR
GR
GS
[1 0 0 1 68.2 267.86047] CT
0.149 GC
/Helvetica 14 F
GS
[1 0 0 1 0 0] CT
-16 5.5 moveto 
1 -1 scale
(36) t 
GR
GR
GS
[1 0 0 1 68.2 234.18079] CT
0.149 GC
/Helvetica 14 F
GS
[1 0 0 1 0 0] CT
-28 5.5 moveto 
1 -1 scale
(36.5) t 
GR
GR
GS
[1 0 0 1 68.2 200.50111] CT
0.149 GC
/Helvetica 14 F
GS
[1 0 0 1 0 0] CT
-16 5.5 moveto 
1 -1 scale
(37) t 
GR
GR
GS
[1 0 0 1 68.2 166.82144] CT
0.149 GC
/Helvetica 14 F
GS
[1 0 0 1 0 0] CT
-28 5.5 moveto 
1 -1 scale
(37.5) t 
GR
GR
GS
[1 0 0 1 68.2 133.14175] CT
0.149 GC
/Helvetica 14 F
GS
[1 0 0 1 0 0] CT
-16 5.5 moveto 
1 -1 scale
(38) t 
GR
GR
GS
[1 0 0 1 68.2 99.46209] CT
0.149 GC
/Helvetica 14 F
GS
[1 0 0 1 0 0] CT
-28 5.5 moveto 
1 -1 scale
(38.5) t 
GR
GR
GS
[1 0 0 1 68.2 65.78241] CT
0.149 GC
/Helvetica 14 F
GS
[1 0 0 1 0 0] CT
-16 5.5 moveto 
1 -1 scale
(39) t 
GR
GR
GS
[1 0 0 1 68.2 32.10274] CT
0.149 GC
/Helvetica 14 F
GS
[1 0 0 1 0 0] CT
-28 5.5 moveto 
1 -1 scale
(39.5) t 
GR
GR
GS
[0 -1 1 0 37.7 202.74973] CT
0.149 GC
/Helvetica 15.4 F
GS
[1 0 0 1 0 0] CT
-55.5 -4 moveto 
1 -1 scale
(CIEDE2000 \(dB\)) t 
GR
GR
GS
[1 0 0 1 290.00027 29.57481] CT
/Helvetica-Bold 15.4 F
GS
[1 0 0 1 0 0] CT
-184.5 -4 moveto 
1 -1 scale
(FoodMarket_1920x1080_5994_10bit_420.y4m-hevc) t 
GR
GR
GS
0 0.447 0.741 RC
1 LJ
0.5 LW
N
73.396 371.411 M
74.185 367.677 L
74.974 363.953 L
75.762 360.243 L
76.551 356.55 L
77.34 352.878 L
78.128 349.23 L
78.917 345.609 L
79.706 342.019 L
80.494 338.463 L
81.283 334.945 L
82.071 331.469 L
82.86 328.036 L
83.649 324.652 L
84.437 321.319 L
85.226 318.041 L
86.015 314.82 L
86.803 311.662 L
87.592 308.569 L
88.38 305.544 L
89.169 302.591 L
89.958 299.713 L
90.746 296.914 L
91.535 294.197 L
92.324 291.566 L
93.112 289.023 L
93.901 286.573 L
94.689 284.219 L
95.478 281.936 L
96.267 279.678 L
97.055 277.442 L
97.844 275.229 L
98.633 273.039 L
99.421 270.872 L
100.21 268.727 L
100.999 266.605 L
101.787 264.506 L
102.576 262.429 L
103.364 260.375 L
104.153 258.344 L
104.942 256.335 L
105.73 254.349 L
106.519 252.385 L
107.308 250.443 L
108.096 248.525 L
108.885 246.628 L
109.673 244.754 L
110.462 242.903 L
111.251 241.074 L
112.039 239.267 L
112.828 237.482 L
113.617 235.72 L
114.405 233.98 L
115.194 232.262 L
115.983 230.567 L
116.771 228.893 L
117.56 227.242 L
118.348 225.613 L
119.137 224.007 L
119.926 222.422 L
120.714 220.859 L
121.503 219.319 L
122.292 217.8 L
123.08 216.304 L
123.869 214.829 L
124.657 213.376 L
125.446 211.946 L
126.235 210.537 L
127.023 209.15 L
127.812 207.785 L
128.601 206.442 L
129.389 205.12 L
130.178 203.821 L
130.966 202.543 L
131.755 201.287 L
132.544 200.052 L
133.332 198.84 L
134.121 197.649 L
134.91 196.479 L
135.698 195.332 L
136.487 194.205 L
137.276 193.101 L
138.064 192.016 L
138.853 190.938 L
139.641 189.866 L
140.43 188.799 L
141.219 187.738 L
142.007 186.682 L
142.796 185.631 L
143.585 184.586 L
144.373 183.547 L
145.162 182.513 L
145.95 181.485 L
146.739 180.462 L
147.528 179.445 L
148.316 178.433 L
149.105 177.427 L
149.894 176.426 L
150.682 175.432 L
151.471 174.442 L
152.259 173.459 L
153.048 172.481 L
153.837 171.509 L
154.625 170.543 L
155.414 169.582 L
156.203 168.627 L
156.991 167.678 L
157.78 166.734 L
158.569 165.796 L
159.357 164.864 L
160.146 163.938 L
160.934 163.018 L
161.723 162.103 L
162.512 161.195 L
163.3 160.292 L
164.089 159.395 L
164.878 158.504 L
165.666 157.619 L
166.455 156.74 L
167.243 155.867 L
168.032 154.999 L
168.821 154.138 L
169.609 153.283 L
170.398 152.433 L
171.187 151.59 L
171.975 150.752 L
172.764 149.921 L
173.553 149.096 L
174.341 148.277 L
175.13 147.463 L
175.918 146.657 L
176.707 145.855 L
177.496 145.061 L
178.284 144.272 L
179.073 143.489 L
179.862 142.713 L
180.65 141.943 L
181.439 141.179 L
182.227 140.421 L
183.016 139.669 L
183.805 138.924 L
184.593 138.185 L
185.382 137.452 L
186.171 136.726 L
186.959 136.006 L
187.748 135.291 L
188.536 134.584 L
189.325 133.883 L
190.114 133.188 L
190.902 132.499 L
191.691 131.817 L
192.48 131.141 L
193.268 130.472 L
194.057 129.809 L
194.846 129.153 L
195.634 128.502 L
196.423 127.859 L
197.211 127.222 L
198 126.591 L
198.789 125.967 L
199.577 125.349 L
200.366 124.738 L
201.155 124.134 L
201.943 123.536 L
202.732 122.945 L
203.52 122.36 L
204.309 121.782 L
205.098 121.21 L
205.886 120.646 L
206.675 120.087 L
207.464 119.536 L
208.252 118.991 L
209.041 118.453 L
209.829 117.922 L
210.618 117.397 L
211.407 116.879 L
212.195 116.368 L
212.984 115.863 L
213.773 115.366 L
214.561 114.875 L
215.35 114.391 L
216.139 113.914 L
216.927 113.443 L
217.716 112.98 L
218.504 112.523 L
219.293 112.073 L
220.082 111.63 L
220.87 111.195 L
221.659 110.766 L
222.448 110.344 L
223.236 109.929 L
224.025 109.521 L
224.813 109.119 L
225.602 108.725 L
226.391 108.338 L
227.179 107.957 L
227.968 107.576 L
228.757 107.197 L
229.545 106.817 L
230.334 106.438 L
231.122 106.06 L
231.911 105.682 L
232.7 105.305 L
233.488 104.928 L
234.277 104.552 L
235.066 104.176 L
235.854 103.802 L
236.643 103.427 L
237.432 103.053 L
238.22 102.679 L
239.009 102.307 L
239.797 101.934 L
240.586 101.562 L
241.375 101.191 L
242.163 100.821 L
242.952 100.451 L
243.741 100.081 L
244.529 99.712 L
245.318 99.344 L
246.106 98.977 L
246.895 98.61 L
247.684 98.243 L
248.472 97.877 L
249.261 97.512 L
250.05 97.147 L
250.838 96.784 L
251.627 96.42 L
252.415 96.058 L
253.204 95.696 L
253.993 95.334 L
254.781 94.973 L
255.57 94.613 L
256.359 94.254 L
257.147 93.895 L
257.936 93.537 L
258.725 93.179 L
259.513 92.823 L
260.302 92.466 L
261.09 92.111 L
261.879 91.756 L
262.668 91.402 L
263.456 91.049 L
264.245 90.696 L
265.034 90.344 L
265.822 89.993 L
266.611 89.642 L
267.399 89.292 L
268.188 88.943 L
268.977 88.595 L
269.765 88.247 L
270.554 87.9 L
271.343 87.554 L
272.131 87.208 L
272.92 86.864 L
273.708 86.519 L
274.497 86.176 L
275.286 85.834 L
276.074 85.492 L
276.863 85.151 L
277.652 84.811 L
278.44 84.472 L
279.229 84.133 L
280.018 83.795 L
280.806 83.458 L
281.595 83.122 L
282.383 82.786 L
283.172 82.451 L
283.961 82.117 L
284.749 81.784 L
285.538 81.452 L
286.327 81.12 L
287.115 80.79 L
287.904 80.46 L
288.692 80.131 L
289.481 79.803 L
290.27 79.475 L
291.058 79.149 L
291.847 78.823 L
292.636 78.498 L
293.424 78.174 L
294.213 77.851 L
295.002 77.529 L
295.79 77.207 L
296.579 76.887 L
297.367 76.567 L
298.156 76.248 L
298.945 75.931 L
299.733 75.614 L
300.522 75.297 L
301.311 74.982 L
302.099 74.668 L
302.888 74.354 L
303.676 74.042 L
304.465 73.73 L
305.254 73.42 L
306.042 73.11 L
306.831 72.801 L
307.62 72.493 L
308.408 72.186 L
309.197 71.88 L
309.985 71.575 L
310.774 71.27 L
311.563 70.967 L
312.351 70.665 L
313.14 70.364 L
313.929 70.063 L
314.717 69.764 L
315.506 69.465 L
316.295 69.168 L
317.083 68.871 L
317.872 68.576 L
318.66 68.281 L
319.449 67.988 L
320.238 67.695 L
321.026 67.404 L
321.815 67.113 L
322.604 66.824 L
323.392 66.535 L
324.181 66.247 L
324.969 65.961 L
325.758 65.676 L
326.547 65.391 L
327.335 65.108 L
328.124 64.826 L
328.913 64.544 L
329.701 64.264 L
330.49 63.984 L
331.279 63.706 L
332.067 63.429 L
332.856 63.153 L
333.644 62.878 L
334.433 62.604 L
335.222 62.331 L
336.01 62.06 L
336.799 61.789 L
337.588 61.519 L
338.376 61.251 L
339.165 60.983 L
339.953 60.717 L
340.742 60.452 L
341.531 60.187 L
342.319 59.925 L
343.108 59.663 L
343.897 59.402 L
344.685 59.142 L
345.474 58.884 L
346.262 58.626 L
347.051 58.37 L
347.84 58.115 L
348.628 57.861 L
349.417 57.608 L
350.206 57.357 L
350.994 57.106 L
351.783 56.857 L
352.572 56.608 L
353.36 56.361 L
354.149 56.115 L
354.937 55.871 L
355.726 55.628 L
356.515 55.385 L
357.303 55.144 L
358.092 54.904 L
358.881 54.665 L
359.669 54.428 L
360.458 54.192 L
361.246 53.957 L
362.035 53.723 L
362.824 53.49 L
363.612 53.259 L
364.401 53.028 L
365.19 52.799 L
365.978 52.572 L
366.767 52.345 L
367.555 52.12 L
368.344 51.896 L
369.133 51.673 L
369.921 51.452 L
370.71 51.232 L
371.499 51.013 L
372.287 50.795 L
373.076 50.579 L
373.865 50.364 L
374.653 50.149 L
375.442 49.937 L
376.23 49.726 L
377.019 49.516 L
377.808 49.307 L
378.596 49.1 L
379.385 48.894 L
380.174 48.689 L
380.962 48.486 L
381.751 48.283 L
382.539 48.083 L
383.328 47.883 L
384.117 47.685 L
384.905 47.488 L
385.694 47.293 L
386.483 47.099 L
387.271 46.906 L
388.06 46.715 L
388.848 46.525 L
389.637 46.336 L
390.426 46.149 L
391.214 45.963 L
392.003 45.778 L
392.792 45.595 L
393.58 45.413 L
394.369 45.233 L
395.158 45.054 L
395.946 44.876 L
396.735 44.7 L
397.523 44.525 L
398.312 44.352 L
399.101 44.18 L
399.889 44.01 L
400.678 43.84 L
401.467 43.673 L
402.255 43.506 L
403.044 43.341 L
403.832 43.178 L
404.621 43.016 L
405.41 42.856 L
406.198 42.696 L
406.987 42.539 L
407.776 42.383 L
408.564 42.228 L
409.353 42.075 L
410.142 41.923 L
410.93 41.773 L
411.719 41.624 L
412.507 41.477 L
413.296 41.331 L
414.085 41.187 L
414.873 41.044 L
415.662 40.902 L
416.451 40.763 L
417.239 40.624 L
418.028 40.487 L
418.816 40.352 L
419.605 40.218 L
420.394 40.086 L
421.182 39.956 L
421.971 39.826 L
422.76 39.699 L
423.548 39.573 L
424.337 39.448 L
425.125 39.325 L
425.914 39.204 L
426.703 39.084 L
427.491 38.966 L
428.28 38.849 L
429.069 38.733 L
429.857 38.62 L
430.646 38.508 L
431.435 38.398 L
432.223 38.289 L
433.012 38.182 L
433.8 38.076 L
434.589 37.972 L
435.378 37.869 L
436.166 37.769 L
436.955 37.669 L
437.744 37.572 L
438.532 37.476 L
439.321 37.381 L
440.109 37.289 L
440.898 37.198 L
441.687 37.108 L
442.475 37.02 L
443.264 36.934 L
444.053 36.85 L
444.841 36.767 L
445.63 36.686 L
446.418 36.606 L
447.207 36.529 L
447.996 36.452 L
448.784 36.378 L
449.573 36.305 L
450.362 36.234 L
451.15 36.164 L
451.939 36.097 L
452.728 36.031 L
453.516 35.966 L
454.305 35.904 L
455.093 35.843 L
455.882 35.784 L
456.671 35.726 L
457.459 35.67 L
458.248 35.616 L
459.037 35.564 L
459.825 35.514 L
460.614 35.465 L
461.402 35.417 L
462.191 35.372 L
462.98 35.329 L
463.768 35.287 L
464.557 35.247 L
465.346 35.209 L
466.134 35.172 L
466.923 35.137 L
467.711 35.104 L
468.5 35.073 L
469.289 35.044 L
470.077 35.016 L
470.866 34.99 L
471.655 34.966 L
472.443 34.944 L
473.232 34.924 L
474.021 34.905 L
474.809 34.888 L
475.598 34.873 L
476.386 34.86 L
477.175 34.849 L
477.964 34.84 L
478.752 34.832 L
479.541 34.826 L
480.33 34.822 L
481.118 34.82 L
S
GR
GS
0.851 0.325 0.098 RC
1 LJ
0.5 LW
N
74.119 367.036 M
74.907 363.351 L
75.696 359.675 L
76.485 356.012 L
77.273 352.365 L
78.062 348.737 L
78.851 345.133 L
79.639 341.555 L
80.428 338.006 L
81.216 334.49 L
82.005 331.011 L
82.794 327.571 L
83.582 324.174 L
84.371 320.824 L
85.16 317.523 L
85.948 314.275 L
86.737 311.083 L
87.525 307.951 L
88.314 304.883 L
89.103 301.88 L
89.891 298.947 L
90.68 296.088 L
91.469 293.305 L
92.257 290.601 L
93.046 287.981 L
93.835 285.447 L
94.623 283.003 L
95.412 280.652 L
96.2 278.397 L
96.989 276.196 L
97.778 274.018 L
98.566 271.863 L
99.355 269.731 L
100.144 267.621 L
100.932 265.535 L
101.721 263.47 L
102.509 261.429 L
103.298 259.409 L
104.087 257.413 L
104.875 255.438 L
105.664 253.486 L
106.453 251.556 L
107.241 249.648 L
108.03 247.762 L
108.819 245.898 L
109.607 244.056 L
110.396 242.236 L
111.184 240.437 L
111.973 238.66 L
112.762 236.905 L
113.55 235.171 L
114.339 233.459 L
115.128 231.768 L
115.916 230.099 L
116.705 228.45 L
117.493 226.823 L
118.282 225.217 L
119.071 223.632 L
119.859 222.068 L
120.648 220.525 L
121.437 219.003 L
122.225 217.501 L
123.014 216.02 L
123.802 214.56 L
124.591 213.12 L
125.38 211.701 L
126.168 210.302 L
126.957 208.924 L
127.746 207.565 L
128.534 206.227 L
129.323 204.909 L
130.112 203.611 L
130.9 202.333 L
131.689 201.075 L
132.477 199.837 L
133.266 198.618 L
134.055 197.419 L
134.843 196.24 L
135.632 195.08 L
136.421 193.94 L
137.209 192.819 L
137.998 191.717 L
138.786 190.635 L
139.575 189.572 L
140.364 188.527 L
141.152 187.49 L
141.941 186.458 L
142.73 185.432 L
143.518 184.41 L
144.307 183.394 L
145.095 182.382 L
145.884 181.375 L
146.673 180.374 L
147.461 179.377 L
148.25 178.385 L
149.039 177.399 L
149.827 176.418 L
150.616 175.442 L
151.405 174.471 L
152.193 173.505 L
152.982 172.544 L
153.77 171.589 L
154.559 170.639 L
155.348 169.693 L
156.136 168.754 L
156.925 167.819 L
157.714 166.89 L
158.502 165.966 L
159.291 165.047 L
160.079 164.133 L
160.868 163.225 L
161.657 162.323 L
162.445 161.425 L
163.234 160.533 L
164.023 159.646 L
164.811 158.765 L
165.6 157.889 L
166.388 157.019 L
167.177 156.154 L
167.966 155.294 L
168.754 154.44 L
169.543 153.592 L
170.332 152.749 L
171.12 151.911 L
171.909 151.079 L
172.698 150.253 L
173.486 149.432 L
174.275 148.616 L
175.063 147.807 L
175.852 147.003 L
176.641 146.204 L
177.429 145.411 L
178.218 144.624 L
179.007 143.843 L
179.795 143.067 L
180.584 142.297 L
181.372 141.533 L
182.161 140.774 L
182.95 140.021 L
183.738 139.274 L
184.527 138.533 L
185.316 137.797 L
186.104 137.068 L
186.893 136.343 L
187.682 135.625 L
188.47 134.913 L
189.259 134.207 L
190.047 133.507 L
190.836 132.812 L
191.625 132.123 L
192.413 131.441 L
193.202 130.764 L
193.991 130.093 L
194.779 129.428 L
195.568 128.77 L
196.356 128.117 L
197.145 127.47 L
197.934 126.83 L
198.722 126.195 L
199.511 125.566 L
200.3 124.944 L
201.088 124.328 L
201.877 123.717 L
202.665 123.113 L
203.454 122.515 L
204.243 121.923 L
205.031 121.338 L
205.82 120.758 L
206.609 120.185 L
207.397 119.618 L
208.186 119.058 L
208.975 118.503 L
209.763 117.955 L
210.552 117.413 L
211.34 116.877 L
212.129 116.348 L
212.918 115.825 L
213.706 115.308 L
214.495 114.798 L
215.284 114.294 L
216.072 113.797 L
216.861 113.306 L
217.649 112.821 L
218.438 112.342 L
219.227 111.871 L
220.015 111.406 L
220.804 110.947 L
221.593 110.494 L
222.381 110.049 L
223.17 109.61 L
223.958 109.177 L
224.747 108.751 L
225.536 108.331 L
226.324 107.918 L
227.113 107.512 L
227.902 107.112 L
228.69 106.719 L
229.479 106.332 L
230.268 105.953 L
231.056 105.579 L
231.845 105.213 L
232.633 104.85 L
233.422 104.488 L
234.211 104.126 L
234.999 103.765 L
235.788 103.404 L
236.577 103.044 L
237.365 102.684 L
238.154 102.324 L
238.942 101.965 L
239.731 101.607 L
240.52 101.249 L
241.308 100.892 L
242.097 100.535 L
242.886 100.179 L
243.674 99.823 L
244.463 99.468 L
245.251 99.113 L
246.04 98.759 L
246.829 98.405 L
247.617 98.052 L
248.406 97.699 L
249.195 97.347 L
249.983 96.996 L
250.772 96.645 L
251.561 96.295 L
252.349 95.945 L
253.138 95.596 L
253.926 95.247 L
254.715 94.899 L
255.504 94.552 L
256.292 94.205 L
257.081 93.858 L
257.87 93.513 L
258.658 93.167 L
259.447 92.823 L
260.235 92.479 L
261.024 92.136 L
261.813 91.793 L
262.601 91.451 L
263.39 91.109 L
264.179 90.769 L
264.967 90.428 L
265.756 90.088 L
266.544 89.749 L
267.333 89.411 L
268.122 89.073 L
268.91 88.736 L
269.699 88.4 L
270.488 88.064 L
271.276 87.728 L
272.065 87.394 L
272.854 87.06 L
273.642 86.727 L
274.431 86.394 L
275.219 86.062 L
276.008 85.731 L
276.797 85.4 L
277.585 85.07 L
278.374 84.741 L
279.163 84.412 L
279.951 84.085 L
280.74 83.757 L
281.528 83.431 L
282.317 83.105 L
283.106 82.78 L
283.894 82.456 L
284.683 82.132 L
285.472 81.809 L
286.26 81.487 L
287.049 81.165 L
287.838 80.844 L
288.626 80.524 L
289.415 80.205 L
290.203 79.886 L
290.992 79.568 L
291.781 79.251 L
292.569 78.934 L
293.358 78.619 L
294.147 78.304 L
294.935 77.989 L
295.724 77.676 L
296.512 77.363 L
297.301 77.051 L
298.09 76.74 L
298.878 76.43 L
299.667 76.12 L
300.456 75.811 L
301.244 75.503 L
302.033 75.196 L
302.822 74.889 L
303.61 74.583 L
304.399 74.278 L
305.187 73.974 L
305.976 73.671 L
306.765 73.368 L
307.553 73.067 L
308.342 72.765 L
309.131 72.465 L
309.919 72.166 L
310.708 71.868 L
311.496 71.57 L
312.285 71.273 L
313.074 70.977 L
313.862 70.682 L
314.651 70.387 L
315.44 70.094 L
316.228 69.801 L
317.017 69.509 L
317.805 69.218 L
318.594 68.928 L
319.383 68.639 L
320.171 68.35 L
320.96 68.063 L
321.749 67.776 L
322.537 67.49 L
323.326 67.205 L
324.115 66.921 L
324.903 66.638 L
325.692 66.356 L
326.48 66.075 L
327.269 65.794 L
328.058 65.514 L
328.846 65.236 L
329.635 64.958 L
330.424 64.681 L
331.212 64.405 L
332.001 64.13 L
332.789 63.856 L
333.578 63.582 L
334.367 63.31 L
335.155 63.038 L
335.944 62.768 L
336.733 62.499 L
337.521 62.23 L
338.31 61.962 L
339.098 61.695 L
339.887 61.43 L
340.676 61.165 L
341.464 60.901 L
342.253 60.638 L
343.042 60.376 L
343.83 60.115 L
344.619 59.855 L
345.408 59.596 L
346.196 59.338 L
346.985 59.08 L
347.773 58.825 L
348.562 58.569 L
349.351 58.315 L
350.139 58.062 L
350.928 57.81 L
351.717 57.559 L
352.505 57.309 L
353.294 57.059 L
354.082 56.811 L
354.871 56.564 L
355.66 56.318 L
356.448 56.073 L
357.237 55.828 L
358.026 55.585 L
358.814 55.343 L
359.603 55.102 L
360.391 54.863 L
361.18 54.624 L
361.969 54.386 L
362.757 54.149 L
363.546 53.913 L
364.335 53.678 L
365.123 53.445 L
365.912 53.212 L
366.701 52.98 L
367.489 52.75 L
368.278 52.52 L
369.066 52.292 L
369.855 52.065 L
370.644 51.839 L
371.432 51.614 L
372.221 51.39 L
373.01 51.167 L
373.798 50.945 L
374.587 50.724 L
375.375 50.504 L
376.164 50.286 L
376.953 50.069 L
377.741 49.852 L
378.53 49.637 L
379.319 49.423 L
380.107 49.21 L
380.896 48.998 L
381.684 48.788 L
382.473 48.578 L
383.262 48.37 L
384.05 48.162 L
384.839 47.956 L
385.628 47.751 L
386.416 47.547 L
387.205 47.345 L
387.993 47.143 L
388.782 46.943 L
389.571 46.744 L
390.359 46.545 L
391.148 46.349 L
391.937 46.153 L
392.725 45.958 L
393.514 45.765 L
394.303 45.573 L
395.091 45.382 L
395.88 45.192 L
396.668 45.004 L
397.457 44.816 L
398.246 44.63 L
399.034 44.445 L
399.823 44.261 L
400.612 44.079 L
401.4 43.898 L
402.189 43.717 L
402.977 43.539 L
403.766 43.361 L
404.555 43.184 L
405.343 43.009 L
406.132 42.835 L
406.921 42.663 L
407.709 42.491 L
408.498 42.321 L
409.287 42.152 L
410.075 41.984 L
410.864 41.818 L
411.652 41.652 L
412.441 41.489 L
413.23 41.326 L
414.018 41.165 L
414.807 41.004 L
415.596 40.845 L
416.384 40.688 L
417.173 40.532 L
417.961 40.377 L
418.75 40.223 L
419.539 40.07 L
420.327 39.919 L
421.116 39.77 L
421.905 39.621 L
422.693 39.474 L
423.482 39.328 L
424.27 39.183 L
425.059 39.04 L
425.848 38.898 L
426.636 38.758 L
427.425 38.618 L
428.214 38.48 L
429.002 38.344 L
429.791 38.209 L
430.58 38.075 L
431.368 37.942 L
432.157 37.811 L
432.945 37.681 L
433.734 37.553 L
434.523 37.426 L
435.311 37.3 L
436.1 37.175 L
436.889 37.052 L
437.677 36.931 L
438.466 36.81 L
439.254 36.691 L
440.043 36.574 L
440.832 36.458 L
441.62 36.343 L
442.409 36.23 L
443.198 36.118 L
443.986 36.007 L
444.775 35.898 L
445.564 35.79 L
446.352 35.684 L
447.141 35.579 L
447.929 35.476 L
448.718 35.374 L
449.507 35.273 L
450.295 35.174 L
451.084 35.076 L
451.873 34.98 L
452.661 34.885 L
453.45 34.791 L
454.238 34.699 L
455.027 34.609 L
455.816 34.52 L
456.604 34.432 L
457.393 34.346 L
458.182 34.261 L
458.97 34.178 L
459.759 34.096 L
460.547 34.016 L
461.336 33.937 L
462.125 33.86 L
462.913 33.784 L
463.702 33.709 L
464.491 33.637 L
465.279 33.565 L
466.068 33.495 L
466.857 33.427 L
467.645 33.36 L
468.434 33.295 L
469.222 33.231 L
470.011 33.169 L
470.8 33.108 L
471.588 33.049 L
472.377 32.991 L
473.166 32.935 L
473.954 32.88 L
474.743 32.827 L
475.531 32.775 L
476.32 32.725 L
477.109 32.677 L
477.897 32.629 L
478.686 32.584 L
479.475 32.54 L
480.263 32.498 L
481.052 32.457 L
481.84 32.418 L
482.629 32.381 L
483.418 32.345 L
484.206 32.31 L
484.995 32.277 L
485.784 32.246 L
486.572 32.216 L
487.361 32.188 L
488.15 32.162 L
488.938 32.137 L
489.727 32.114 L
490.515 32.092 L
491.304 32.072 L
492.093 32.053 L
492.881 32.036 L
493.67 32.021 L
494.459 32.008 L
495.247 31.996 L
496.036 31.985 L
496.824 31.977 L
497.613 31.97 L
498.402 31.964 L
499.19 31.96 L
499.979 31.958 L
S
GR
GS
0.929 0.694 0.125 RC
1 LJ
0.5 LW
N
73 374 M
73.789 370.189 L
74.577 366.389 L
75.366 362.602 L
76.155 358.834 L
76.943 355.087 L
77.732 351.364 L
78.52 347.671 L
79.309 344.01 L
80.098 340.385 L
80.886 336.8 L
81.675 333.258 L
82.464 329.764 L
83.252 326.32 L
84.041 322.931 L
84.829 319.599 L
85.618 316.33 L
86.407 313.126 L
87.195 309.991 L
87.984 306.928 L
88.773 303.943 L
89.561 301.037 L
90.35 298.215 L
91.138 295.48 L
91.927 292.837 L
92.716 290.288 L
93.504 287.838 L
94.293 285.489 L
95.082 283.199 L
95.87 280.933 L
96.659 278.691 L
97.448 276.474 L
98.236 274.282 L
99.025 272.113 L
99.813 269.969 L
100.602 267.849 L
101.391 265.754 L
102.179 263.682 L
102.968 261.634 L
103.757 259.61 L
104.545 257.609 L
105.334 255.632 L
106.122 253.679 L
106.911 251.749 L
107.7 249.842 L
108.488 247.959 L
109.277 246.099 L
110.066 244.262 L
110.854 242.448 L
111.643 240.657 L
112.431 238.889 L
113.22 237.144 L
114.009 235.421 L
114.797 233.721 L
115.586 232.043 L
116.375 230.388 L
117.163 228.756 L
117.952 227.145 L
118.741 225.557 L
119.529 223.991 L
120.318 222.447 L
121.106 220.924 L
121.895 219.424 L
122.684 217.945 L
123.472 216.488 L
124.261 215.053 L
125.05 213.639 L
125.838 212.247 L
126.627 210.876 L
127.415 209.526 L
128.204 208.197 L
128.993 206.89 L
129.781 205.603 L
130.57 204.337 L
131.359 203.092 L
132.147 201.868 L
132.936 200.665 L
133.725 199.482 L
134.513 198.319 L
135.302 197.177 L
136.09 196.056 L
136.879 194.954 L
137.668 193.861 L
138.456 192.774 L
139.245 191.693 L
140.034 190.617 L
140.822 189.546 L
141.611 188.48 L
142.399 187.42 L
143.188 186.365 L
143.977 185.316 L
144.765 184.272 L
145.554 183.234 L
146.343 182.201 L
147.131 181.173 L
147.92 180.152 L
148.708 179.135 L
149.497 178.125 L
150.286 177.119 L
151.074 176.12 L
151.863 175.126 L
152.652 174.138 L
153.44 173.155 L
154.229 172.178 L
155.018 171.207 L
155.806 170.241 L
156.595 169.282 L
157.383 168.327 L
158.172 167.379 L
158.961 166.437 L
159.749 165.5 L
160.538 164.569 L
161.327 163.644 L
162.115 162.725 L
162.904 161.812 L
163.692 160.904 L
164.481 160.003 L
165.27 159.107 L
166.058 158.218 L
166.847 157.334 L
167.636 156.456 L
168.424 155.585 L
169.213 154.719 L
170.001 153.859 L
170.79 153.006 L
171.579 152.158 L
172.367 151.317 L
173.156 150.482 L
173.945 149.652 L
174.733 148.829 L
175.522 148.013 L
176.311 147.202 L
177.099 146.398 L
177.888 145.599 L
178.676 144.807 L
179.465 144.022 L
180.254 143.242 L
181.042 142.469 L
181.831 141.702 L
182.62 140.942 L
183.408 140.188 L
184.197 139.44 L
184.985 138.698 L
185.774 137.964 L
186.563 137.235 L
187.351 136.513 L
188.14 135.797 L
188.929 135.088 L
189.717 134.385 L
190.506 133.689 L
191.294 132.999 L
192.083 132.316 L
192.872 131.64 L
193.66 130.97 L
194.449 130.307 L
195.238 129.65 L
196.026 129 L
196.815 128.356 L
197.604 127.72 L
198.392 127.09 L
199.181 126.466 L
199.969 125.85 L
200.758 125.24 L
201.547 124.637 L
202.335 124.04 L
203.124 123.451 L
203.913 122.868 L
204.701 122.293 L
205.49 121.724 L
206.278 121.161 L
207.067 120.606 L
207.856 120.058 L
208.644 119.517 L
209.433 118.982 L
210.222 118.455 L
211.01 117.935 L
211.799 117.421 L
212.588 116.915 L
213.376 116.415 L
214.165 115.923 L
214.953 115.438 L
215.742 114.96 L
216.531 114.489 L
217.319 114.025 L
218.108 113.568 L
218.897 113.119 L
219.685 112.676 L
220.474 112.241 L
221.262 111.813 L
222.051 111.393 L
222.84 110.979 L
223.628 110.573 L
224.417 110.174 L
225.206 109.783 L
225.994 109.395 L
226.783 109.007 L
227.571 108.62 L
228.36 108.234 L
229.149 107.848 L
229.937 107.462 L
230.726 107.078 L
231.515 106.693 L
232.303 106.309 L
233.092 105.926 L
233.881 105.544 L
234.669 105.162 L
235.458 104.78 L
236.246 104.399 L
237.035 104.019 L
237.824 103.639 L
238.612 103.26 L
239.401 102.881 L
240.19 102.503 L
240.978 102.125 L
241.767 101.749 L
242.555 101.373 L
243.344 100.997 L
244.133 100.622 L
244.921 100.247 L
245.71 99.873 L
246.499 99.5 L
247.287 99.128 L
248.076 98.756 L
248.864 98.385 L
249.653 98.014 L
250.442 97.644 L
251.23 97.275 L
252.019 96.906 L
252.808 96.538 L
253.596 96.171 L
254.385 95.804 L
255.174 95.438 L
255.962 95.073 L
256.751 94.708 L
257.539 94.344 L
258.328 93.981 L
259.117 93.618 L
259.905 93.256 L
260.694 92.895 L
261.483 92.535 L
262.271 92.175 L
263.06 91.816 L
263.848 91.458 L
264.637 91.1 L
265.426 90.743 L
266.214 90.387 L
267.003 90.032 L
267.792 89.677 L
268.58 89.323 L
269.369 88.97 L
270.158 88.618 L
270.946 88.266 L
271.735 87.915 L
272.523 87.565 L
273.312 87.216 L
274.101 86.867 L
274.889 86.519 L
275.678 86.173 L
276.467 85.826 L
277.255 85.481 L
278.044 85.137 L
278.832 84.793 L
279.621 84.45 L
280.41 84.107 L
281.198 83.766 L
281.987 83.426 L
282.776 83.086 L
283.564 82.747 L
284.353 82.409 L
285.141 82.072 L
285.93 81.735 L
286.719 81.4 L
287.507 81.065 L
288.296 80.732 L
289.085 80.399 L
289.873 80.067 L
290.662 79.735 L
291.451 79.405 L
292.239 79.075 L
293.028 78.747 L
293.816 78.419 L
294.605 78.092 L
295.394 77.767 L
296.182 77.442 L
296.971 77.117 L
297.76 76.794 L
298.548 76.472 L
299.337 76.151 L
300.125 75.83 L
300.914 75.51 L
301.703 75.192 L
302.491 74.874 L
303.28 74.557 L
304.069 74.242 L
304.857 73.927 L
305.646 73.613 L
306.434 73.3 L
307.223 72.988 L
308.012 72.677 L
308.8 72.367 L
309.589 72.058 L
310.378 71.75 L
311.166 71.443 L
311.955 71.137 L
312.744 70.832 L
313.532 70.527 L
314.321 70.224 L
315.109 69.922 L
315.898 69.621 L
316.687 69.321 L
317.475 69.022 L
318.264 68.724 L
319.053 68.427 L
319.841 68.131 L
320.63 67.836 L
321.418 67.542 L
322.207 67.249 L
322.996 66.957 L
323.784 66.666 L
324.573 66.376 L
325.362 66.088 L
326.15 65.8 L
326.939 65.514 L
327.727 65.228 L
328.516 64.944 L
329.305 64.66 L
330.093 64.378 L
330.882 64.097 L
331.671 63.817 L
332.459 63.538 L
333.248 63.26 L
334.037 62.983 L
334.825 62.708 L
335.614 62.433 L
336.402 62.16 L
337.191 61.887 L
337.98 61.616 L
338.768 61.346 L
339.557 61.078 L
340.346 60.81 L
341.134 60.543 L
341.923 60.278 L
342.711 60.014 L
343.5 59.75 L
344.289 59.488 L
345.077 59.227 L
345.866 58.968 L
346.655 58.709 L
347.443 58.452 L
348.232 58.196 L
349.021 57.941 L
349.809 57.688 L
350.598 57.435 L
351.386 57.184 L
352.175 56.934 L
352.964 56.685 L
353.752 56.437 L
354.541 56.191 L
355.33 55.946 L
356.118 55.702 L
356.907 55.459 L
357.695 55.217 L
358.484 54.977 L
359.273 54.738 L
360.061 54.5 L
360.85 54.264 L
361.639 54.028 L
362.427 53.794 L
363.216 53.562 L
364.004 53.33 L
364.793 53.1 L
365.582 52.871 L
366.37 52.644 L
367.159 52.417 L
367.948 52.192 L
368.736 51.968 L
369.525 51.746 L
370.314 51.525 L
371.102 51.305 L
371.891 51.087 L
372.679 50.869 L
373.468 50.654 L
374.257 50.439 L
375.045 50.226 L
375.834 50.014 L
376.623 49.804 L
377.411 49.594 L
378.2 49.387 L
378.988 49.18 L
379.777 48.975 L
380.566 48.771 L
381.354 48.569 L
382.143 48.368 L
382.932 48.169 L
383.72 47.97 L
384.509 47.773 L
385.297 47.578 L
386.086 47.384 L
386.875 47.191 L
387.663 47 L
388.452 46.81 L
389.241 46.622 L
390.029 46.435 L
390.818 46.249 L
391.607 46.065 L
392.395 45.882 L
393.184 45.701 L
393.972 45.521 L
394.761 45.343 L
395.55 45.166 L
396.338 44.99 L
397.127 44.816 L
397.916 44.643 L
398.704 44.472 L
399.493 44.302 L
400.281 44.134 L
401.07 43.967 L
401.859 43.802 L
402.647 43.639 L
403.436 43.476 L
404.225 43.315 L
405.013 43.156 L
405.802 42.998 L
406.591 42.842 L
407.379 42.687 L
408.168 42.534 L
408.956 42.382 L
409.745 42.232 L
410.534 42.083 L
411.322 41.936 L
412.111 41.79 L
412.9 41.646 L
413.688 41.504 L
414.477 41.363 L
415.265 41.224 L
416.054 41.086 L
416.843 40.949 L
417.631 40.815 L
418.42 40.681 L
419.209 40.55 L
419.997 40.42 L
420.786 40.291 L
421.574 40.165 L
422.363 40.039 L
423.152 39.916 L
423.94 39.794 L
424.729 39.673 L
425.518 39.554 L
426.306 39.437 L
427.095 39.322 L
427.884 39.208 L
428.672 39.095 L
429.461 38.985 L
430.249 38.876 L
431.038 38.768 L
431.827 38.662 L
432.615 38.558 L
433.404 38.456 L
434.193 38.355 L
434.981 38.256 L
435.77 38.158 L
436.558 38.063 L
437.347 37.969 L
438.136 37.876 L
438.924 37.785 L
439.713 37.696 L
440.502 37.609 L
441.29 37.523 L
442.079 37.439 L
442.867 37.357 L
443.656 37.276 L
444.445 37.197 L
445.233 37.12 L
446.022 37.045 L
446.811 36.971 L
447.599 36.899 L
448.388 36.829 L
449.177 36.761 L
449.965 36.694 L
450.754 36.629 L
451.542 36.566 L
452.331 36.504 L
453.12 36.445 L
453.908 36.387 L
454.697 36.33 L
455.486 36.276 L
456.274 36.224 L
457.063 36.173 L
457.851 36.124 L
458.64 36.076 L
459.429 36.031 L
460.217 35.987 L
461.006 35.946 L
461.795 35.905 L
462.583 35.867 L
463.372 35.831 L
464.16 35.796 L
464.949 35.764 L
465.738 35.733 L
466.526 35.704 L
467.315 35.676 L
468.104 35.651 L
468.892 35.628 L
469.681 35.606 L
470.47 35.586 L
471.258 35.568 L
472.047 35.552 L
472.835 35.538 L
473.624 35.526 L
474.413 35.515 L
475.201 35.507 L
475.99 35.5 L
476.779 35.495 L
477.567 35.492 L
478.356 35.491 L
S
GR
GS
0.494 0.184 0.557 RC
1 LJ
0.5 LW
N
74.042 367.382 M
74.831 363.774 L
75.619 360.176 L
76.408 356.591 L
77.197 353.021 L
77.985 349.47 L
78.774 345.941 L
79.563 342.437 L
80.351 338.962 L
81.14 335.518 L
81.928 332.109 L
82.717 328.737 L
83.506 325.406 L
84.294 322.118 L
85.083 318.878 L
85.872 315.688 L
86.66 312.551 L
87.449 309.47 L
88.237 306.448 L
89.026 303.49 L
89.815 300.597 L
90.603 297.772 L
91.392 295.02 L
92.181 292.342 L
92.969 289.743 L
93.758 287.224 L
94.547 284.79 L
95.335 282.444 L
96.124 280.188 L
96.912 277.985 L
97.701 275.803 L
98.49 273.642 L
99.278 271.502 L
100.067 269.383 L
100.856 267.286 L
101.644 265.21 L
102.433 263.154 L
103.221 261.12 L
104.01 259.107 L
104.799 257.115 L
105.587 255.145 L
106.376 253.195 L
107.165 251.266 L
107.953 249.358 L
108.742 247.472 L
109.53 245.606 L
110.319 243.761 L
111.108 241.938 L
111.896 240.135 L
112.685 238.354 L
113.474 236.593 L
114.262 234.854 L
115.051 233.135 L
115.84 231.437 L
116.628 229.761 L
117.417 228.105 L
118.205 226.47 L
118.994 224.856 L
119.783 223.263 L
120.571 221.691 L
121.36 220.14 L
122.149 218.61 L
122.937 217.1 L
123.726 215.612 L
124.514 214.144 L
125.303 212.697 L
126.092 211.271 L
126.88 209.866 L
127.669 208.482 L
128.458 207.118 L
129.246 205.776 L
130.035 204.454 L
130.823 203.153 L
131.612 201.873 L
132.401 200.613 L
133.189 199.375 L
133.978 198.157 L
134.767 196.959 L
135.555 195.783 L
136.344 194.627 L
137.133 193.492 L
137.921 192.378 L
138.71 191.284 L
139.498 190.211 L
140.287 189.159 L
141.076 188.119 L
141.864 187.083 L
142.653 186.053 L
143.442 185.028 L
144.23 184.008 L
145.019 182.993 L
145.807 181.983 L
146.596 180.978 L
147.385 179.978 L
148.173 178.984 L
148.962 177.995 L
149.751 177.01 L
150.539 176.031 L
151.328 175.058 L
152.117 174.089 L
152.905 173.126 L
153.694 172.168 L
154.482 171.215 L
155.271 170.267 L
156.06 169.325 L
156.848 168.388 L
157.637 167.456 L
158.426 166.53 L
159.214 165.609 L
160.003 164.693 L
160.791 163.783 L
161.58 162.878 L
162.369 161.979 L
163.157 161.085 L
163.946 160.196 L
164.735 159.313 L
165.523 158.435 L
166.312 157.563 L
167.1 156.696 L
167.889 155.835 L
168.678 154.979 L
169.466 154.129 L
170.255 153.284 L
171.044 152.445 L
171.832 151.611 L
172.621 150.783 L
173.41 149.961 L
174.198 149.144 L
174.987 148.333 L
175.775 147.527 L
176.564 146.727 L
177.353 145.933 L
178.141 145.144 L
178.93 144.361 L
179.719 143.584 L
180.507 142.813 L
181.296 142.047 L
182.084 141.287 L
182.873 140.533 L
183.662 139.785 L
184.45 139.042 L
185.239 138.305 L
186.028 137.574 L
186.816 136.849 L
187.605 136.13 L
188.393 135.416 L
189.182 134.709 L
189.971 134.007 L
190.759 133.311 L
191.548 132.621 L
192.337 131.937 L
193.125 131.26 L
193.914 130.588 L
194.703 129.921 L
195.491 129.261 L
196.28 128.607 L
197.068 127.959 L
197.857 127.317 L
198.646 126.681 L
199.434 126.051 L
200.223 125.427 L
201.012 124.81 L
201.8 124.198 L
202.589 123.593 L
203.377 122.993 L
204.166 122.4 L
204.955 121.813 L
205.743 121.232 L
206.532 120.657 L
207.321 120.088 L
208.109 119.526 L
208.898 118.97 L
209.686 118.42 L
210.475 117.876 L
211.264 117.339 L
212.052 116.808 L
212.841 116.283 L
213.63 115.765 L
214.418 115.253 L
215.207 114.747 L
215.996 114.247 L
216.784 113.754 L
217.573 113.267 L
218.361 112.787 L
219.15 112.313 L
219.939 111.846 L
220.727 111.385 L
221.516 110.93 L
222.305 110.482 L
223.093 110.04 L
223.882 109.605 L
224.67 109.176 L
225.459 108.754 L
226.248 108.339 L
227.036 107.93 L
227.825 107.527 L
228.614 107.131 L
229.402 106.742 L
230.191 106.359 L
230.98 105.983 L
231.768 105.613 L
232.557 105.251 L
233.345 104.892 L
234.134 104.533 L
234.923 104.175 L
235.711 103.817 L
236.5 103.46 L
237.289 103.104 L
238.077 102.748 L
238.866 102.392 L
239.654 102.037 L
240.443 101.682 L
241.232 101.328 L
242.02 100.975 L
242.809 100.622 L
243.598 100.269 L
244.386 99.917 L
245.175 99.566 L
245.963 99.215 L
246.752 98.864 L
247.541 98.514 L
248.329 98.165 L
249.118 97.817 L
249.907 97.468 L
250.695 97.12 L
251.484 96.773 L
252.273 96.427 L
253.061 96.081 L
253.85 95.735 L
254.638 95.39 L
255.427 95.046 L
256.216 94.702 L
257.004 94.359 L
257.793 94.017 L
258.582 93.675 L
259.37 93.333 L
260.159 92.992 L
260.947 92.652 L
261.736 92.313 L
262.525 91.973 L
263.313 91.635 L
264.102 91.297 L
264.891 90.96 L
265.679 90.623 L
266.468 90.287 L
267.257 89.952 L
268.045 89.617 L
268.834 89.283 L
269.622 88.949 L
270.411 88.616 L
271.2 88.284 L
271.988 87.952 L
272.777 87.621 L
273.566 87.291 L
274.354 86.961 L
275.143 86.632 L
275.931 86.304 L
276.72 85.976 L
277.509 85.649 L
278.297 85.322 L
279.086 84.997 L
279.875 84.671 L
280.663 84.347 L
281.452 84.023 L
282.24 83.7 L
283.029 83.377 L
283.818 83.056 L
284.606 82.735 L
285.395 82.414 L
286.184 82.094 L
286.972 81.776 L
287.761 81.457 L
288.549 81.14 L
289.338 80.823 L
290.127 80.506 L
290.915 80.191 L
291.704 79.876 L
292.493 79.562 L
293.281 79.249 L
294.07 78.936 L
294.859 78.624 L
295.647 78.313 L
296.436 78.003 L
297.224 77.693 L
298.013 77.384 L
298.802 77.076 L
299.59 76.769 L
300.379 76.462 L
301.168 76.156 L
301.956 75.851 L
302.745 75.546 L
303.533 75.242 L
304.322 74.94 L
305.111 74.637 L
305.899 74.336 L
306.688 74.036 L
307.477 73.736 L
308.265 73.437 L
309.054 73.138 L
309.842 72.841 L
310.631 72.544 L
311.42 72.248 L
312.208 71.953 L
312.997 71.659 L
313.786 71.365 L
314.574 71.073 L
315.363 70.781 L
316.152 70.49 L
316.94 70.199 L
317.729 69.91 L
318.517 69.621 L
319.306 69.334 L
320.095 69.047 L
320.883 68.761 L
321.672 68.475 L
322.461 68.191 L
323.249 67.907 L
324.038 67.624 L
324.826 67.342 L
325.615 67.061 L
326.404 66.781 L
327.192 66.502 L
327.981 66.223 L
328.77 65.946 L
329.558 65.669 L
330.347 65.393 L
331.136 65.118 L
331.924 64.843 L
332.713 64.57 L
333.501 64.298 L
334.29 64.026 L
335.079 63.756 L
335.867 63.486 L
336.656 63.217 L
337.445 62.949 L
338.233 62.682 L
339.022 62.416 L
339.81 62.151 L
340.599 61.886 L
341.388 61.623 L
342.176 61.36 L
342.965 61.099 L
343.754 60.838 L
344.542 60.579 L
345.331 60.32 L
346.119 60.062 L
346.908 59.805 L
347.697 59.549 L
348.485 59.294 L
349.274 59.04 L
350.063 58.787 L
350.851 58.534 L
351.64 58.283 L
352.429 58.033 L
353.217 57.783 L
354.006 57.535 L
354.794 57.288 L
355.583 57.041 L
356.372 56.796 L
357.16 56.551 L
357.949 56.308 L
358.738 56.065 L
359.526 55.824 L
360.315 55.583 L
361.103 55.344 L
361.892 55.105 L
362.681 54.867 L
363.469 54.631 L
364.258 54.395 L
365.047 54.161 L
365.835 53.927 L
366.624 53.695 L
367.413 53.463 L
368.201 53.233 L
368.99 53.003 L
369.778 52.775 L
370.567 52.548 L
371.356 52.321 L
372.144 52.096 L
372.933 51.872 L
373.722 51.648 L
374.51 51.426 L
375.299 51.205 L
376.087 50.985 L
376.876 50.766 L
377.665 50.548 L
378.453 50.331 L
379.242 50.115 L
380.031 49.9 L
380.819 49.687 L
381.608 49.474 L
382.396 49.262 L
383.185 49.052 L
383.974 48.843 L
384.762 48.634 L
385.551 48.427 L
386.34 48.221 L
387.128 48.016 L
387.917 47.812 L
388.706 47.609 L
389.494 47.408 L
390.283 47.207 L
391.071 47.007 L
391.86 46.809 L
392.649 46.612 L
393.437 46.416 L
394.226 46.221 L
395.015 46.027 L
395.803 45.834 L
396.592 45.642 L
397.38 45.452 L
398.169 45.262 L
398.958 45.074 L
399.746 44.887 L
400.535 44.701 L
401.324 44.517 L
402.112 44.333 L
402.901 44.151 L
403.689 43.969 L
404.478 43.789 L
405.267 43.61 L
406.055 43.433 L
406.844 43.256 L
407.633 43.081 L
408.421 42.906 L
409.21 42.734 L
409.999 42.562 L
410.787 42.391 L
411.576 42.222 L
412.364 42.053 L
413.153 41.886 L
413.942 41.72 L
414.73 41.556 L
415.519 41.392 L
416.308 41.23 L
417.096 41.069 L
417.885 40.909 L
418.673 40.751 L
419.462 40.594 L
420.251 40.437 L
421.039 40.283 L
421.828 40.129 L
422.617 39.977 L
423.405 39.826 L
424.194 39.675 L
424.982 39.527 L
425.771 39.379 L
426.56 39.234 L
427.348 39.089 L
428.137 38.945 L
428.926 38.803 L
429.714 38.662 L
430.503 38.522 L
431.292 38.383 L
432.08 38.246 L
432.869 38.11 L
433.657 37.975 L
434.446 37.842 L
435.235 37.71 L
436.023 37.579 L
436.812 37.449 L
437.601 37.321 L
438.389 37.194 L
439.178 37.069 L
439.966 36.944 L
440.755 36.821 L
441.544 36.7 L
442.332 36.579 L
443.121 36.46 L
443.91 36.343 L
444.698 36.226 L
445.487 36.111 L
446.276 35.997 L
447.064 35.885 L
447.853 35.774 L
448.641 35.664 L
449.43 35.556 L
450.219 35.449 L
451.007 35.343 L
451.796 35.239 L
452.585 35.136 L
453.373 35.035 L
454.162 34.934 L
454.95 34.835 L
455.739 34.738 L
456.528 34.642 L
457.316 34.547 L
458.105 34.454 L
458.894 34.362 L
459.682 34.271 L
460.471 34.182 L
461.259 34.095 L
462.048 34.008 L
462.837 33.923 L
463.625 33.84 L
464.414 33.758 L
465.203 33.677 L
465.991 33.598 L
466.78 33.52 L
467.569 33.443 L
468.357 33.368 L
469.146 33.294 L
469.934 33.222 L
470.723 33.152 L
471.512 33.082 L
472.3 33.014 L
473.089 32.948 L
473.878 32.883 L
474.666 32.819 L
475.455 32.757 L
476.243 32.697 L
477.032 32.637 L
477.821 32.58 L
478.609 32.523 L
479.398 32.469 L
480.187 32.415 L
480.975 32.363 L
481.764 32.313 L
482.552 32.264 L
483.341 32.217 L
484.13 32.171 L
484.918 32.126 L
485.707 32.083 L
486.496 32.042 L
487.284 32.002 L
488.073 31.963 L
488.862 31.927 L
489.65 31.891 L
490.439 31.857 L
491.227 31.825 L
492.016 31.794 L
492.805 31.765 L
493.593 31.737 L
494.382 31.711 L
495.171 31.686 L
495.959 31.663 L
496.748 31.641 L
497.536 31.621 L
498.325 31.602 L
499.114 31.585 L
499.902 31.57 L
500.691 31.555 L
501.48 31.543 L
502.268 31.532 L
503.057 31.523 L
503.845 31.515 L
504.634 31.509 L
505.423 31.505 L
506.211 31.501 L
507 31.5 L
S
GR
GS
0.467 0.675 0.188 RC
[10 6] 0 setdash
2 LJ
0.5 LW
N
73.472 370.885 M
74.261 367.12 L
75.05 363.365 L
75.838 359.624 L
76.627 355.9 L
77.415 352.197 L
78.204 348.518 L
78.993 344.867 L
79.781 341.247 L
80.57 337.663 L
81.359 334.117 L
82.147 330.612 L
82.936 327.153 L
83.724 323.743 L
84.513 320.386 L
85.302 317.084 L
86.09 313.842 L
86.879 310.663 L
87.668 307.55 L
88.456 304.507 L
89.245 301.538 L
90.034 298.645 L
90.822 295.833 L
91.611 293.106 L
92.399 290.465 L
93.188 287.916 L
93.977 285.461 L
94.765 283.105 L
95.554 280.828 L
96.343 278.577 L
97.131 276.351 L
97.92 274.147 L
98.708 271.967 L
99.497 269.81 L
100.286 267.678 L
101.074 265.567 L
101.863 263.481 L
102.652 261.417 L
103.44 259.377 L
104.229 257.36 L
105.017 255.365 L
105.806 253.394 L
106.595 251.446 L
107.383 249.52 L
108.172 247.618 L
108.961 245.738 L
109.749 243.88 L
110.538 242.046 L
111.327 240.234 L
112.115 238.444 L
112.904 236.677 L
113.692 234.933 L
114.481 233.211 L
115.27 231.511 L
116.058 229.834 L
116.847 228.178 L
117.636 226.545 L
118.424 224.934 L
119.213 223.345 L
120.001 221.779 L
120.79 220.234 L
121.579 218.711 L
122.367 217.21 L
123.156 215.731 L
123.945 214.273 L
124.733 212.837 L
125.522 211.423 L
126.31 210.031 L
127.099 208.659 L
127.888 207.31 L
128.676 205.982 L
129.465 204.675 L
130.254 203.39 L
131.042 202.126 L
131.831 200.883 L
132.62 199.661 L
133.408 198.461 L
134.197 197.281 L
134.985 196.123 L
135.774 194.985 L
136.563 193.869 L
137.351 192.773 L
138.14 191.697 L
138.929 190.629 L
139.717 189.566 L
140.506 188.509 L
141.294 187.457 L
142.083 186.411 L
142.872 185.37 L
143.66 184.335 L
144.449 183.305 L
145.238 182.28 L
146.026 181.261 L
146.815 180.248 L
147.603 179.24 L
148.392 178.237 L
149.181 177.241 L
149.969 176.249 L
150.758 175.264 L
151.547 174.283 L
152.335 173.309 L
153.124 172.34 L
153.913 171.377 L
154.701 170.419 L
155.49 169.467 L
156.278 168.52 L
157.067 167.58 L
157.856 166.645 L
158.644 165.715 L
159.433 164.792 L
160.222 163.874 L
161.01 162.962 L
161.799 162.055 L
162.587 161.155 L
163.376 160.26 L
164.165 159.37 L
164.953 158.487 L
165.742 157.61 L
166.531 156.738 L
167.319 155.872 L
168.108 155.012 L
168.896 154.158 L
169.685 153.31 L
170.474 152.468 L
171.262 151.631 L
172.051 150.801 L
172.84 149.976 L
173.628 149.157 L
174.417 148.345 L
175.206 147.538 L
175.994 146.737 L
176.783 145.943 L
177.571 145.154 L
178.36 144.371 L
179.149 143.594 L
179.937 142.824 L
180.726 142.059 L
181.515 141.3 L
182.303 140.548 L
183.092 139.802 L
183.88 139.062 L
184.669 138.327 L
185.458 137.599 L
186.246 136.877 L
187.035 136.162 L
187.824 135.452 L
188.612 134.749 L
189.401 134.052 L
190.19 133.361 L
190.978 132.676 L
191.767 131.998 L
192.555 131.325 L
193.344 130.66 L
194.133 130 L
194.921 129.347 L
195.71 128.699 L
196.499 128.059 L
197.287 127.424 L
198.076 126.796 L
198.864 126.174 L
199.653 125.559 L
200.442 124.95 L
201.23 124.347 L
202.019 123.751 L
202.808 123.161 L
203.596 122.578 L
204.385 122.001 L
205.173 121.43 L
205.962 120.866 L
206.751 120.309 L
207.539 119.758 L
208.328 119.213 L
209.117 118.675 L
209.905 118.144 L
210.694 117.619 L
211.483 117.101 L
212.271 116.589 L
213.06 116.084 L
213.848 115.585 L
214.637 115.093 L
215.426 114.607 L
216.214 114.129 L
217.003 113.657 L
217.792 113.191 L
218.58 112.732 L
219.369 112.28 L
220.157 111.835 L
220.946 111.396 L
221.735 110.964 L
222.523 110.539 L
223.312 110.12 L
224.101 109.709 L
224.889 109.304 L
225.678 108.905 L
226.466 108.514 L
227.255 108.13 L
228.044 107.75 L
228.832 107.371 L
229.621 106.992 L
230.41 106.614 L
231.198 106.237 L
231.987 105.86 L
232.776 105.483 L
233.564 105.107 L
234.353 104.732 L
235.141 104.357 L
235.93 103.982 L
236.719 103.609 L
237.507 103.235 L
238.296 102.862 L
239.085 102.49 L
239.873 102.118 L
240.662 101.747 L
241.45 101.376 L
242.239 101.006 L
243.028 100.637 L
243.816 100.268 L
244.605 99.9 L
245.394 99.532 L
246.182 99.165 L
246.971 98.798 L
247.76 98.432 L
248.548 98.066 L
249.337 97.701 L
250.125 97.337 L
250.914 96.973 L
251.703 96.61 L
252.491 96.248 L
253.28 95.886 L
254.069 95.525 L
254.857 95.165 L
255.646 94.805 L
256.434 94.445 L
257.223 94.087 L
258.012 93.728 L
258.8 93.371 L
259.589 93.014 L
260.378 92.658 L
261.166 92.303 L
261.955 91.948 L
262.743 91.594 L
263.532 91.241 L
264.321 90.888 L
265.109 90.536 L
265.898 90.184 L
266.687 89.833 L
267.475 89.483 L
268.264 89.134 L
269.053 88.786 L
269.841 88.438 L
270.63 88.091 L
271.418 87.744 L
272.207 87.398 L
272.996 87.053 L
273.784 86.709 L
274.573 86.365 L
275.362 86.023 L
276.15 85.68 L
276.939 85.339 L
277.727 84.998 L
278.516 84.658 L
279.305 84.319 L
280.093 83.981 L
280.882 83.643 L
281.671 83.307 L
282.459 82.97 L
283.248 82.635 L
284.036 82.301 L
284.825 81.967 L
285.614 81.634 L
286.402 81.302 L
287.191 80.971 L
287.98 80.64 L
288.768 80.31 L
289.557 79.981 L
290.346 79.653 L
291.134 79.326 L
291.923 78.999 L
292.711 78.674 L
293.5 78.349 L
294.289 78.025 L
295.077 77.702 L
295.866 77.38 L
296.655 77.058 L
297.443 76.737 L
298.232 76.418 L
299.02 76.099 L
299.809 75.781 L
300.598 75.464 L
301.386 75.147 L
302.175 74.832 L
302.964 74.518 L
303.752 74.204 L
304.541 73.891 L
305.329 73.579 L
306.118 73.268 L
306.907 72.958 L
307.695 72.649 L
308.484 72.341 L
309.273 72.034 L
310.061 71.727 L
310.85 71.422 L
311.639 71.117 L
312.427 70.813 L
313.216 70.511 L
314.004 70.209 L
314.793 69.908 L
315.582 69.608 L
316.37 69.309 L
317.159 69.011 L
317.948 68.714 L
318.736 68.418 L
319.525 68.123 L
320.313 67.829 L
321.102 67.536 L
321.891 67.244 L
322.679 66.953 L
323.468 66.663 L
324.257 66.373 L
325.045 66.085 L
325.834 65.798 L
326.622 65.512 L
327.411 65.227 L
328.2 64.943 L
328.988 64.66 L
329.777 64.377 L
330.566 64.096 L
331.354 63.816 L
332.143 63.537 L
332.932 63.259 L
333.72 62.982 L
334.509 62.707 L
335.297 62.432 L
336.086 62.158 L
336.875 61.885 L
337.663 61.614 L
338.452 61.343 L
339.241 61.073 L
340.029 60.805 L
340.818 60.538 L
341.606 60.271 L
342.395 60.006 L
343.184 59.742 L
343.972 59.479 L
344.761 59.217 L
345.55 58.957 L
346.338 58.697 L
347.127 58.439 L
347.915 58.181 L
348.704 57.925 L
349.493 57.67 L
350.281 57.416 L
351.07 57.163 L
351.859 56.911 L
352.647 56.66 L
353.436 56.411 L
354.225 56.163 L
355.013 55.915 L
355.802 55.669 L
356.59 55.425 L
357.379 55.181 L
358.168 54.938 L
358.956 54.697 L
359.745 54.457 L
360.534 54.218 L
361.322 53.98 L
362.111 53.744 L
362.899 53.508 L
363.688 53.274 L
364.477 53.041 L
365.265 52.809 L
366.054 52.579 L
366.843 52.35 L
367.631 52.122 L
368.42 51.895 L
369.209 51.669 L
369.997 51.445 L
370.786 51.222 L
371.574 51 L
372.363 50.779 L
373.152 50.56 L
373.94 50.341 L
374.729 50.125 L
375.518 49.909 L
376.306 49.694 L
377.095 49.481 L
377.883 49.27 L
378.672 49.059 L
379.461 48.85 L
380.249 48.642 L
381.038 48.435 L
381.827 48.23 L
382.615 48.026 L
383.404 47.823 L
384.193 47.622 L
384.981 47.422 L
385.77 47.223 L
386.558 47.025 L
387.347 46.829 L
388.136 46.635 L
388.924 46.441 L
389.713 46.249 L
390.502 46.058 L
391.29 45.869 L
392.079 45.681 L
392.867 45.494 L
393.656 45.308 L
394.445 45.124 L
395.233 44.942 L
396.022 44.761 L
396.811 44.581 L
397.599 44.402 L
398.388 44.225 L
399.176 44.05 L
399.965 43.875 L
400.754 43.702 L
401.542 43.531 L
402.331 43.361 L
403.12 43.192 L
403.908 43.025 L
404.697 42.859 L
405.486 42.694 L
406.274 42.531 L
407.063 42.37 L
407.851 42.21 L
408.64 42.051 L
409.429 41.894 L
410.217 41.738 L
411.006 41.584 L
411.795 41.431 L
412.583 41.279 L
413.372 41.129 L
414.16 40.981 L
414.949 40.834 L
415.738 40.688 L
416.526 40.544 L
417.315 40.402 L
418.104 40.261 L
418.892 40.121 L
419.681 39.983 L
420.469 39.846 L
421.258 39.711 L
422.047 39.578 L
422.835 39.446 L
423.624 39.315 L
424.413 39.186 L
425.201 39.059 L
425.99 38.933 L
426.779 38.809 L
427.567 38.686 L
428.356 38.564 L
429.144 38.444 L
429.933 38.326 L
430.722 38.21 L
431.51 38.095 L
432.299 37.981 L
433.088 37.869 L
433.876 37.759 L
434.665 37.65 L
435.453 37.543 L
436.242 37.437 L
437.031 37.333 L
437.819 37.231 L
438.608 37.13 L
439.397 37.031 L
440.185 36.933 L
440.974 36.837 L
441.762 36.743 L
442.551 36.65 L
443.34 36.559 L
444.128 36.469 L
444.917 36.381 L
445.706 36.295 L
446.494 36.21 L
447.283 36.127 L
448.072 36.046 L
448.86 35.967 L
449.649 35.889 L
450.437 35.812 L
451.226 35.738 L
452.015 35.665 L
452.803 35.593 L
453.592 35.524 L
454.381 35.456 L
455.169 35.389 L
455.958 35.325 L
456.746 35.262 L
457.535 35.201 L
458.324 35.141 L
459.112 35.084 L
459.901 35.028 L
460.69 34.973 L
461.478 34.921 L
462.267 34.87 L
463.055 34.821 L
463.844 34.773 L
464.633 34.728 L
465.421 34.684 L
466.21 34.641 L
466.999 34.601 L
467.787 34.562 L
468.576 34.525 L
469.365 34.49 L
470.153 34.457 L
470.942 34.425 L
471.73 34.395 L
472.519 34.367 L
473.308 34.341 L
474.096 34.316 L
474.885 34.294 L
475.674 34.273 L
476.462 34.254 L
477.251 34.236 L
478.039 34.221 L
478.828 34.207 L
479.617 34.195 L
480.405 34.185 L
481.194 34.177 L
481.983 34.171 L
482.771 34.166 L
483.56 34.164 L
S
GR
GS
0.302 0.745 0.933 RC
[10 6] 0 setdash
2 LJ
0.5 LW
N
73.378 371.754 M
74.167 367.965 L
74.955 364.187 L
75.744 360.423 L
76.533 356.676 L
77.321 352.951 L
78.11 349.25 L
78.899 345.577 L
79.687 341.936 L
80.476 338.331 L
81.264 334.765 L
82.053 331.241 L
82.842 327.764 L
83.63 324.337 L
84.419 320.963 L
85.208 317.646 L
85.996 314.39 L
86.785 311.198 L
87.574 308.073 L
88.362 305.02 L
89.151 302.042 L
89.939 299.143 L
90.728 296.325 L
91.517 293.594 L
92.305 290.952 L
93.094 288.402 L
93.883 285.95 L
94.671 283.597 L
95.46 281.32 L
96.248 279.068 L
97.037 276.841 L
97.826 274.638 L
98.614 272.459 L
99.403 270.304 L
100.192 268.173 L
100.98 266.067 L
101.769 263.984 L
102.557 261.924 L
103.346 259.888 L
104.135 257.876 L
104.923 255.888 L
105.712 253.922 L
106.501 251.98 L
107.289 250.062 L
108.078 248.166 L
108.867 246.293 L
109.655 244.444 L
110.444 242.617 L
111.232 240.813 L
112.021 239.032 L
112.81 237.274 L
113.598 235.538 L
114.387 233.824 L
115.176 232.133 L
115.964 230.464 L
116.753 228.818 L
117.541 227.193 L
118.33 225.591 L
119.119 224.01 L
119.907 222.452 L
120.696 220.915 L
121.485 219.4 L
122.273 217.907 L
123.062 216.435 L
123.85 214.984 L
124.639 213.555 L
125.428 212.147 L
126.216 210.761 L
127.005 209.395 L
127.794 208.051 L
128.582 206.727 L
129.371 205.425 L
130.16 204.143 L
130.948 202.882 L
131.737 201.641 L
132.525 200.421 L
133.314 199.222 L
134.103 198.043 L
134.891 196.884 L
135.68 195.745 L
136.469 194.626 L
137.257 193.528 L
138.046 192.445 L
138.834 191.369 L
139.623 190.297 L
140.412 189.231 L
141.2 188.17 L
141.989 187.115 L
142.778 186.065 L
143.566 185.02 L
144.355 183.98 L
145.143 182.946 L
145.932 181.918 L
146.721 180.894 L
147.509 179.876 L
148.298 178.864 L
149.087 177.857 L
149.875 176.856 L
150.664 175.86 L
151.453 174.869 L
152.241 173.884 L
153.03 172.905 L
153.818 171.931 L
154.607 170.963 L
155.396 170 L
156.184 169.043 L
156.973 168.092 L
157.762 167.146 L
158.55 166.207 L
159.339 165.272 L
160.127 164.344 L
160.916 163.421 L
161.705 162.504 L
162.493 161.592 L
163.282 160.687 L
164.071 159.787 L
164.859 158.893 L
165.648 158.005 L
166.436 157.122 L
167.225 156.246 L
168.014 155.376 L
168.802 154.511 L
169.591 153.652 L
170.38 152.799 L
171.168 151.952 L
171.957 151.112 L
172.746 150.277 L
173.534 149.448 L
174.323 148.625 L
175.111 147.808 L
175.9 146.997 L
176.689 146.193 L
177.477 145.394 L
178.266 144.601 L
179.055 143.815 L
179.843 143.035 L
180.632 142.261 L
181.42 141.493 L
182.209 140.731 L
182.998 139.976 L
183.786 139.226 L
184.575 138.483 L
185.364 137.746 L
186.152 137.016 L
186.941 136.292 L
187.73 135.574 L
188.518 134.862 L
189.307 134.157 L
190.095 133.458 L
190.884 132.766 L
191.673 132.08 L
192.461 131.4 L
193.25 130.727 L
194.039 130.06 L
194.827 129.4 L
195.616 128.746 L
196.404 128.099 L
197.193 127.458 L
197.982 126.824 L
198.77 126.196 L
199.559 125.575 L
200.348 124.961 L
201.136 124.353 L
201.925 123.751 L
202.713 123.157 L
203.502 122.569 L
204.291 121.987 L
205.079 121.413 L
205.868 120.845 L
206.657 120.284 L
207.445 119.729 L
208.234 119.182 L
209.023 118.641 L
209.811 118.107 L
210.6 117.579 L
211.388 117.059 L
212.177 116.545 L
212.966 116.039 L
213.754 115.539 L
214.543 115.046 L
215.332 114.56 L
216.12 114.081 L
216.909 113.609 L
217.697 113.143 L
218.486 112.685 L
219.275 112.234 L
220.063 111.79 L
220.852 111.353 L
221.641 110.923 L
222.429 110.5 L
223.218 110.084 L
224.006 109.675 L
224.795 109.273 L
225.584 108.879 L
226.372 108.492 L
227.161 108.109 L
227.95 107.726 L
228.738 107.344 L
229.527 106.963 L
230.316 106.582 L
231.104 106.202 L
231.893 105.822 L
232.681 105.443 L
233.47 105.064 L
234.259 104.686 L
235.047 104.308 L
235.836 103.931 L
236.625 103.554 L
237.413 103.178 L
238.202 102.803 L
238.99 102.428 L
239.779 102.054 L
240.568 101.68 L
241.356 101.307 L
242.145 100.934 L
242.934 100.562 L
243.722 100.191 L
244.511 99.82 L
245.299 99.45 L
246.088 99.081 L
246.877 98.712 L
247.665 98.343 L
248.454 97.976 L
249.243 97.608 L
250.031 97.242 L
250.82 96.876 L
251.609 96.511 L
252.397 96.146 L
253.186 95.782 L
253.974 95.419 L
254.763 95.056 L
255.552 94.694 L
256.34 94.333 L
257.129 93.972 L
257.918 93.612 L
258.706 93.253 L
259.495 92.894 L
260.283 92.536 L
261.072 92.179 L
261.861 91.822 L
262.649 91.466 L
263.438 91.111 L
264.227 90.757 L
265.015 90.403 L
265.804 90.05 L
266.592 89.698 L
267.381 89.346 L
268.17 88.995 L
268.958 88.645 L
269.747 88.295 L
270.536 87.946 L
271.324 87.598 L
272.113 87.251 L
272.902 86.905 L
273.69 86.559 L
274.479 86.214 L
275.267 85.87 L
276.056 85.526 L
276.845 85.183 L
277.633 84.841 L
278.422 84.5 L
279.211 84.16 L
279.999 83.82 L
280.788 83.482 L
281.576 83.143 L
282.365 82.806 L
283.154 82.47 L
283.942 82.134 L
284.731 81.799 L
285.52 81.465 L
286.308 81.132 L
287.097 80.8 L
287.886 80.468 L
288.674 80.138 L
289.463 79.808 L
290.251 79.479 L
291.04 79.151 L
291.829 78.824 L
292.617 78.497 L
293.406 78.172 L
294.195 77.847 L
294.983 77.523 L
295.772 77.2 L
296.56 76.878 L
297.349 76.557 L
298.138 76.236 L
298.926 75.917 L
299.715 75.598 L
300.504 75.281 L
301.292 74.964 L
302.081 74.648 L
302.869 74.333 L
303.658 74.019 L
304.447 73.706 L
305.235 73.394 L
306.024 73.083 L
306.813 72.772 L
307.601 72.463 L
308.39 72.154 L
309.179 71.847 L
309.967 71.54 L
310.756 71.234 L
311.544 70.93 L
312.333 70.626 L
313.122 70.323 L
313.91 70.021 L
314.699 69.721 L
315.488 69.421 L
316.276 69.122 L
317.065 68.824 L
317.853 68.527 L
318.642 68.231 L
319.431 67.936 L
320.219 67.643 L
321.008 67.35 L
321.797 67.058 L
322.585 66.767 L
323.374 66.477 L
324.163 66.188 L
324.951 65.9 L
325.74 65.614 L
326.528 65.328 L
327.317 65.043 L
328.106 64.76 L
328.894 64.477 L
329.683 64.195 L
330.472 63.915 L
331.26 63.636 L
332.049 63.357 L
332.837 63.08 L
333.626 62.804 L
334.415 62.529 L
335.203 62.255 L
335.992 61.982 L
336.781 61.71 L
337.569 61.439 L
338.358 61.169 L
339.146 60.901 L
339.935 60.633 L
340.724 60.367 L
341.512 60.102 L
342.301 59.837 L
343.09 59.575 L
343.878 59.313 L
344.667 59.052 L
345.456 58.792 L
346.244 58.534 L
347.033 58.277 L
347.821 58.021 L
348.61 57.765 L
349.399 57.512 L
350.187 57.259 L
350.976 57.007 L
351.765 56.757 L
352.553 56.508 L
353.342 56.26 L
354.13 56.013 L
354.919 55.768 L
355.708 55.523 L
356.496 55.28 L
357.285 55.038 L
358.074 54.797 L
358.862 54.557 L
359.651 54.319 L
360.439 54.082 L
361.228 53.846 L
362.017 53.611 L
362.805 53.378 L
363.594 53.145 L
364.383 52.914 L
365.171 52.685 L
365.96 52.456 L
366.749 52.229 L
367.537 52.003 L
368.326 51.778 L
369.114 51.554 L
369.903 51.332 L
370.692 51.111 L
371.48 50.892 L
372.269 50.673 L
373.058 50.456 L
373.846 50.24 L
374.635 50.026 L
375.423 49.812 L
376.212 49.6 L
377.001 49.39 L
377.789 49.181 L
378.578 48.972 L
379.367 48.766 L
380.155 48.56 L
380.944 48.356 L
381.732 48.154 L
382.521 47.952 L
383.31 47.752 L
384.098 47.553 L
384.887 47.356 L
385.676 47.16 L
386.464 46.966 L
387.253 46.772 L
388.042 46.58 L
388.83 46.39 L
389.619 46.201 L
390.407 46.013 L
391.196 45.827 L
391.985 45.642 L
392.773 45.458 L
393.562 45.276 L
394.351 45.095 L
395.139 44.916 L
395.928 44.737 L
396.716 44.561 L
397.505 44.386 L
398.294 44.212 L
399.082 44.04 L
399.871 43.869 L
400.66 43.699 L
401.448 43.531 L
402.237 43.365 L
403.026 43.2 L
403.814 43.036 L
404.603 42.874 L
405.391 42.713 L
406.18 42.553 L
406.969 42.396 L
407.757 42.239 L
408.546 42.084 L
409.335 41.931 L
410.123 41.779 L
410.912 41.629 L
411.7 41.48 L
412.489 41.332 L
413.278 41.186 L
414.066 41.042 L
414.855 40.899 L
415.644 40.757 L
416.432 40.617 L
417.221 40.479 L
418.009 40.342 L
418.798 40.207 L
419.587 40.073 L
420.375 39.941 L
421.164 39.81 L
421.953 39.681 L
422.741 39.553 L
423.53 39.427 L
424.319 39.303 L
425.107 39.18 L
425.896 39.059 L
426.684 38.939 L
427.473 38.82 L
428.262 38.704 L
429.05 38.589 L
429.839 38.475 L
430.628 38.363 L
431.416 38.253 L
432.205 38.145 L
432.993 38.037 L
433.782 37.932 L
434.571 37.828 L
435.359 37.726 L
436.148 37.625 L
436.937 37.526 L
437.725 37.429 L
438.514 37.333 L
439.302 37.239 L
440.091 37.147 L
440.88 37.056 L
441.668 36.967 L
442.457 36.88 L
443.246 36.794 L
444.034 36.71 L
444.823 36.627 L
445.612 36.547 L
446.4 36.467 L
447.189 36.39 L
447.977 36.314 L
448.766 36.24 L
449.555 36.168 L
450.343 36.097 L
451.132 36.029 L
451.921 35.961 L
452.709 35.896 L
453.498 35.832 L
454.286 35.77 L
455.075 35.709 L
455.864 35.651 L
456.652 35.594 L
457.441 35.539 L
458.23 35.485 L
459.018 35.434 L
459.807 35.384 L
460.595 35.336 L
461.384 35.289 L
462.173 35.245 L
462.961 35.202 L
463.75 35.161 L
464.539 35.121 L
465.327 35.084 L
466.116 35.048 L
466.905 35.014 L
467.693 34.982 L
468.482 34.952 L
469.27 34.923 L
470.059 34.896 L
470.848 34.871 L
471.636 34.848 L
472.425 34.827 L
473.214 34.807 L
474.002 34.79 L
474.791 34.774 L
475.579 34.76 L
476.368 34.748 L
477.157 34.738 L
477.945 34.729 L
478.734 34.722 L
479.523 34.718 L
480.311 34.715 L
481.1 34.714 L
S
GR
GS
0.635 0.078 0.184 RC
[10 6] 0 setdash
2 LJ
0.5 LW
N
73.474 371.035 M
74.262 367.306 L
75.051 363.587 L
75.84 359.882 L
76.628 356.194 L
77.417 352.527 L
78.206 348.883 L
78.994 345.266 L
79.783 341.681 L
80.571 338.13 L
81.36 334.616 L
82.149 331.144 L
82.937 327.716 L
83.726 324.336 L
84.515 321.008 L
85.303 317.735 L
86.092 314.521 L
86.88 311.368 L
87.669 308.28 L
88.458 305.262 L
89.246 302.315 L
90.035 299.445 L
90.824 296.653 L
91.612 293.945 L
92.401 291.322 L
93.189 288.788 L
93.978 286.348 L
94.767 284.004 L
95.555 281.728 L
96.344 279.476 L
97.133 277.246 L
97.921 275.039 L
98.71 272.855 L
99.499 270.693 L
100.287 268.554 L
101.076 266.438 L
101.864 264.345 L
102.653 262.273 L
103.442 260.225 L
104.23 258.199 L
105.019 256.196 L
105.808 254.215 L
106.596 252.257 L
107.385 250.321 L
108.173 248.408 L
108.962 246.517 L
109.751 244.648 L
110.539 242.802 L
111.328 240.978 L
112.117 239.176 L
112.905 237.396 L
113.694 235.639 L
114.482 233.904 L
115.271 232.191 L
116.06 230.5 L
116.848 228.831 L
117.637 227.185 L
118.426 225.56 L
119.214 223.958 L
120.003 222.377 L
120.792 220.819 L
121.58 219.282 L
122.369 217.767 L
123.157 216.275 L
123.946 214.804 L
124.735 213.355 L
125.523 211.927 L
126.312 210.522 L
127.101 209.138 L
127.889 207.776 L
128.678 206.436 L
129.466 205.117 L
130.255 203.82 L
131.044 202.545 L
131.832 201.291 L
132.621 200.059 L
133.41 198.848 L
134.198 197.659 L
134.987 196.492 L
135.775 195.345 L
136.564 194.221 L
137.353 193.117 L
138.141 192.034 L
138.93 190.959 L
139.719 189.89 L
140.507 188.826 L
141.296 187.767 L
142.085 186.714 L
142.873 185.667 L
143.662 184.624 L
144.45 183.588 L
145.239 182.556 L
146.028 181.53 L
146.816 180.51 L
147.605 179.496 L
148.394 178.486 L
149.182 177.483 L
149.971 176.485 L
150.759 175.492 L
151.548 174.505 L
152.337 173.524 L
153.125 172.548 L
153.914 171.578 L
154.703 170.614 L
155.491 169.655 L
156.28 168.702 L
157.069 167.755 L
157.857 166.813 L
158.646 165.878 L
159.434 164.948 L
160.223 164.023 L
161.012 163.105 L
161.8 162.192 L
162.589 161.285 L
163.378 160.384 L
164.166 159.488 L
164.955 158.599 L
165.743 157.715 L
166.532 156.837 L
167.321 155.966 L
168.109 155.1 L
168.898 154.24 L
169.687 153.385 L
170.475 152.537 L
171.264 151.695 L
172.052 150.859 L
172.841 150.028 L
173.63 149.204 L
174.418 148.386 L
175.207 147.573 L
175.996 146.767 L
176.784 145.967 L
177.573 145.173 L
178.362 144.385 L
179.15 143.603 L
179.939 142.827 L
180.727 142.058 L
181.516 141.294 L
182.305 140.537 L
183.093 139.785 L
183.882 139.04 L
184.671 138.301 L
185.459 137.569 L
186.248 136.842 L
187.036 136.122 L
187.825 135.408 L
188.614 134.701 L
189.402 133.999 L
190.191 133.304 L
190.98 132.616 L
191.768 131.933 L
192.557 131.257 L
193.345 130.587 L
194.134 129.924 L
194.923 129.267 L
195.711 128.617 L
196.5 127.973 L
197.289 127.335 L
198.077 126.703 L
198.866 126.079 L
199.655 125.46 L
200.443 124.848 L
201.232 124.243 L
202.02 123.644 L
202.809 123.052 L
203.598 122.466 L
204.386 121.887 L
205.175 121.314 L
205.964 120.748 L
206.752 120.188 L
207.541 119.635 L
208.329 119.089 L
209.118 118.55 L
209.907 118.017 L
210.695 117.49 L
211.484 116.971 L
212.273 116.458 L
213.061 115.951 L
213.85 115.452 L
214.638 114.959 L
215.427 114.473 L
216.216 113.994 L
217.004 113.522 L
217.793 113.056 L
218.582 112.597 L
219.37 112.145 L
220.159 111.7 L
220.948 111.261 L
221.736 110.83 L
222.525 110.406 L
223.313 109.988 L
224.102 109.577 L
224.891 109.173 L
225.679 108.776 L
226.468 108.386 L
227.257 108.003 L
228.045 107.624 L
228.834 107.246 L
229.622 106.868 L
230.411 106.491 L
231.2 106.114 L
231.988 105.737 L
232.777 105.362 L
233.566 104.986 L
234.354 104.611 L
235.143 104.237 L
235.931 103.863 L
236.72 103.49 L
237.509 103.118 L
238.297 102.746 L
239.086 102.374 L
239.875 102.003 L
240.663 101.633 L
241.452 101.263 L
242.241 100.894 L
243.029 100.525 L
243.818 100.157 L
244.606 99.789 L
245.395 99.423 L
246.184 99.056 L
246.972 98.69 L
247.761 98.325 L
248.55 97.961 L
249.338 97.597 L
250.127 97.233 L
250.915 96.871 L
251.704 96.508 L
252.493 96.147 L
253.281 95.786 L
254.07 95.426 L
254.859 95.066 L
255.647 94.707 L
256.436 94.349 L
257.225 93.992 L
258.013 93.634 L
258.802 93.278 L
259.59 92.922 L
260.379 92.567 L
261.168 92.213 L
261.956 91.859 L
262.745 91.506 L
263.534 91.154 L
264.322 90.802 L
265.111 90.451 L
265.899 90.101 L
266.688 89.751 L
267.477 89.403 L
268.265 89.055 L
269.054 88.707 L
269.843 88.36 L
270.631 88.014 L
271.42 87.669 L
272.208 87.325 L
272.997 86.981 L
273.786 86.637 L
274.574 86.295 L
275.363 85.953 L
276.152 85.613 L
276.94 85.272 L
277.729 84.933 L
278.518 84.594 L
279.306 84.256 L
280.095 83.92 L
280.883 83.583 L
281.672 83.248 L
282.461 82.913 L
283.249 82.579 L
284.038 82.246 L
284.827 81.913 L
285.615 81.582 L
286.404 81.251 L
287.192 80.921 L
287.981 80.592 L
288.77 80.263 L
289.558 79.936 L
290.347 79.609 L
291.136 79.283 L
291.924 78.958 L
292.713 78.633 L
293.501 78.31 L
294.29 77.987 L
295.079 77.666 L
295.867 77.345 L
296.656 77.024 L
297.445 76.705 L
298.233 76.387 L
299.022 76.069 L
299.811 75.753 L
300.599 75.437 L
301.388 75.122 L
302.176 74.808 L
302.965 74.495 L
303.754 74.183 L
304.542 73.871 L
305.331 73.561 L
306.12 73.252 L
306.908 72.943 L
307.697 72.635 L
308.485 72.328 L
309.274 72.022 L
310.063 71.717 L
310.851 71.413 L
311.64 71.11 L
312.429 70.808 L
313.217 70.507 L
314.006 70.206 L
314.794 69.907 L
315.583 69.609 L
316.372 69.311 L
317.16 69.015 L
317.949 68.719 L
318.738 68.424 L
319.526 68.131 L
320.315 67.838 L
321.104 67.547 L
321.892 67.256 L
322.681 66.966 L
323.469 66.678 L
324.258 66.39 L
325.047 66.103 L
325.835 65.817 L
326.624 65.533 L
327.413 65.249 L
328.201 64.966 L
328.99 64.685 L
329.778 64.404 L
330.567 64.124 L
331.356 63.846 L
332.144 63.568 L
332.933 63.292 L
333.722 63.016 L
334.51 62.742 L
335.299 62.468 L
336.087 62.196 L
336.876 61.925 L
337.665 61.655 L
338.453 61.386 L
339.242 61.118 L
340.031 60.851 L
340.819 60.585 L
341.608 60.32 L
342.397 60.056 L
343.185 59.794 L
343.974 59.532 L
344.762 59.271 L
345.551 59.012 L
346.34 58.754 L
347.128 58.497 L
347.917 58.241 L
348.706 57.986 L
349.494 57.732 L
350.283 57.48 L
351.071 57.228 L
351.86 56.978 L
352.649 56.729 L
353.437 56.48 L
354.226 56.233 L
355.015 55.988 L
355.803 55.743 L
356.592 55.5 L
357.381 55.257 L
358.169 55.016 L
358.958 54.776 L
359.746 54.538 L
360.535 54.3 L
361.324 54.063 L
362.112 53.828 L
362.901 53.594 L
363.69 53.361 L
364.478 53.13 L
365.267 52.899 L
366.055 52.67 L
366.844 52.442 L
367.633 52.215 L
368.421 51.99 L
369.21 51.766 L
369.999 51.542 L
370.787 51.321 L
371.576 51.1 L
372.364 50.881 L
373.153 50.663 L
373.942 50.446 L
374.73 50.23 L
375.519 50.016 L
376.308 49.803 L
377.096 49.591 L
377.885 49.38 L
378.674 49.171 L
379.462 48.963 L
380.251 48.756 L
381.039 48.551 L
381.828 48.346 L
382.617 48.144 L
383.405 47.942 L
384.194 47.742 L
384.983 47.543 L
385.771 47.345 L
386.56 47.149 L
387.348 46.954 L
388.137 46.76 L
388.926 46.568 L
389.714 46.377 L
390.503 46.187 L
391.292 45.999 L
392.08 45.812 L
392.869 45.626 L
393.658 45.442 L
394.446 45.259 L
395.235 45.077 L
396.023 44.897 L
396.812 44.718 L
397.601 44.541 L
398.389 44.365 L
399.178 44.19 L
399.967 44.017 L
400.755 43.845 L
401.544 43.674 L
402.332 43.505 L
403.121 43.337 L
403.91 43.171 L
404.698 43.006 L
405.487 42.843 L
406.276 42.681 L
407.064 42.52 L
407.853 42.361 L
408.641 42.203 L
409.43 42.046 L
410.219 41.891 L
411.007 41.738 L
411.796 41.586 L
412.585 41.435 L
413.373 41.286 L
414.162 41.138 L
414.951 40.992 L
415.739 40.847 L
416.528 40.704 L
417.316 40.562 L
418.105 40.422 L
418.894 40.283 L
419.682 40.146 L
420.471 40.01 L
421.26 39.875 L
422.048 39.743 L
422.837 39.611 L
423.625 39.481 L
424.414 39.353 L
425.203 39.226 L
425.991 39.101 L
426.78 38.977 L
427.569 38.854 L
428.357 38.734 L
429.146 38.615 L
429.934 38.497 L
430.723 38.381 L
431.512 38.266 L
432.3 38.153 L
433.089 38.042 L
433.878 37.932 L
434.666 37.823 L
435.455 37.716 L
436.244 37.611 L
437.032 37.508 L
437.821 37.406 L
438.609 37.305 L
439.398 37.206 L
440.187 37.109 L
440.975 37.013 L
441.764 36.919 L
442.553 36.827 L
443.341 36.736 L
444.13 36.646 L
444.918 36.559 L
445.707 36.473 L
446.496 36.389 L
447.284 36.306 L
448.073 36.225 L
448.862 36.145 L
449.65 36.067 L
450.439 35.991 L
451.228 35.916 L
452.016 35.843 L
452.805 35.772 L
453.593 35.703 L
454.382 35.635 L
455.171 35.569 L
455.959 35.504 L
456.748 35.441 L
457.537 35.38 L
458.325 35.32 L
459.114 35.263 L
459.902 35.206 L
460.691 35.152 L
461.48 35.099 L
462.268 35.048 L
463.057 34.999 L
463.846 34.951 L
464.634 34.905 L
465.423 34.861 L
466.211 34.819 L
467 34.778 L
467.789 34.739 L
468.577 34.702 L
469.366 34.666 L
470.155 34.632 L
470.943 34.6 L
471.732 34.57 L
472.521 34.542 L
473.309 34.515 L
474.098 34.49 L
474.886 34.467 L
475.675 34.445 L
476.464 34.426 L
477.252 34.408 L
478.041 34.392 L
478.83 34.378 L
479.618 34.365 L
480.407 34.354 L
481.195 34.346 L
481.984 34.339 L
482.773 34.333 L
483.561 34.33 L
484.35 34.328 L
S
GR
GS
1 GC
N
499 366 M
499 250.5 L
344.5 250.5 L
344.5 366 L
cp
f
GR
GS
[1 0 0 1 381.5 260.25] CT
/Helvetica 13 F
GS
[1 0 0 1 0 0] CT
0 5 moveto 
1 -1 scale
(Base Run) t 
GR
GR
GS
0 0.447 0.741 RC
1 LJ
0.5 LW
N
348.5 260.25 M
378.5 260.25 L
S
GR
GS
[1 0 0 1 381.5 276.25] CT
/Helvetica 13 F
GS
[1 0 0 1 0 0] CT
0 5 moveto 
1 -1 scale
(I & B Frames) t 
GR
GR
GS
0.851 0.325 0.098 RC
1 LJ
0.5 LW
N
348.5 276.25 M
378.5 276.25 L
S
GR
GS
[1 0 0 1 381.5 292.25] CT
/Helvetica 13 F
GS
[1 0 0 1 0 0] CT
0 5 moveto 
1 -1 scale
(I Frames Only) t 
GR
GR
GS
0.929 0.694 0.125 RC
1 LJ
0.5 LW
N
348.5 292.25 M
378.5 292.25 L
S
GR
GS
[1 0 0 1 381.5 308.25] CT
/Helvetica 13 F
GS
[1 0 0 1 0 0] CT
0 5 moveto 
1 -1 scale
(B Frames Only) t 
GR
GR
GS
0.494 0.184 0.557 RC
1 LJ
0.5 LW
N
348.5 308.25 M
378.5 308.25 L
S
GR
GS
[1 0 0 1 381.5 324.25] CT
/Helvetica 13 F
GS
[1 0 0 1 0 0] CT
0 5 moveto 
1 -1 scale
(Part I & B Frames) t 
GR
GR
GS
0.467 0.675 0.188 RC
[10 6] 0 setdash
2 LJ
0.5 LW
N
348.5 324.25 M
378.5 324.25 L
S
GR
GS
[1 0 0 1 381.5 340.25] CT
/Helvetica 13 F
GS
[1 0 0 1 0 0] CT
0 5 moveto 
1 -1 scale
(Part I Frames Only) t 
GR
GR
GS
0.302 0.745 0.933 RC
[10 6] 0 setdash
2 LJ
0.5 LW
N
348.5 340.25 M
378.5 340.25 L
S
GR
GS
[1 0 0 1 381.5 356.25] CT
/Helvetica 13 F
GS
[1 0 0 1 0 0] CT
0 5 moveto 
1 -1 scale
(Part B Frames Only) t 
GR
GR
GS
0.635 0.078 0.184 RC
[10 6] 0 setdash
2 LJ
0.5 LW
N
348.5 356.25 M
378.5 356.25 L
S
GR
GS
0.149 GC
10.0 ML
0.5 LW
N
344.5 366 M
344.5 250.5 L
499 250.5 L
499 366 L
cp
S
GR
%%Trailer
%%Pages: 1
%%EOF
