%!PS-Adobe-3.0 EPSF-3.0
%%Creator: (MATLAB, The Mathworks, Inc. Version 9.11.0.1837725 \(R2021b\) Update 2. Operating System: Mac OS X)
%%Title: plots/pchip/FoodMarket_1920x1080_5994_10bit_420.y4m-hevc-PSNRY.eps
%%CreationDate: 2022-02-03T19:14:05
%%Pages: (atend)
%%BoundingBox:    33   425   508   826
%%LanguageLevel: 3
%%EndComments
%%BeginProlog
%%BeginResource: procset (Apache XML Graphics Std ProcSet) 1.2 0
%%Version: 1.2 0
%%Copyright: (Copyright 2001-2003,2010 The Apache Software Foundation. License terms: http://www.apache.org/licenses/LICENSE-2.0)
/bd{bind def}bind def
/ld{load def}bd
/GR/grestore ld
/GS/gsave ld
/RM/rmoveto ld
/C/curveto ld
/t/show ld
/L/lineto ld
/ML/setmiterlimit ld
/CT/concat ld
/f/fill ld
/N/newpath ld
/S/stroke ld
/CC/setcmykcolor ld
/A/ashow ld
/cp/closepath ld
/RC/setrgbcolor ld
/LJ/setlinejoin ld
/GC/setgray ld
/LW/setlinewidth ld
/M/moveto ld
/re {4 2 roll M
1 index 0 rlineto
0 exch rlineto
neg 0 rlineto
cp } bd
/_ctm matrix def
/_tm matrix def
/BT { _ctm currentmatrix pop matrix _tm copy pop 0 0 moveto } bd
/ET { _ctm setmatrix } bd
/iTm { _ctm setmatrix _tm concat } bd
/Tm { _tm astore pop iTm 0 0 moveto } bd
/ux 0.0 def
/uy 0.0 def
/F {
  /Tp exch def
  /Tf exch def
  Tf findfont Tp scalefont setfont
  /cf Tf def  /cs Tp def
} bd
/ULS {currentpoint /uy exch def /ux exch def} bd
/ULE {
  /Tcx currentpoint pop def
  gsave
  newpath
  cf findfont cs scalefont dup
  /FontMatrix get 0 get /Ts exch def /FontInfo get dup
  /UnderlinePosition get Ts mul /To exch def
  /UnderlineThickness get Ts mul /Tt exch def
  ux uy To add moveto  Tcx uy To add lineto
  Tt setlinewidth stroke
  grestore
} bd
/OLE {
  /Tcx currentpoint pop def
  gsave
  newpath
  cf findfont cs scalefont dup
  /FontMatrix get 0 get /Ts exch def /FontInfo get dup
  /UnderlinePosition get Ts mul /To exch def
  /UnderlineThickness get Ts mul /Tt exch def
  ux uy To add cs add moveto Tcx uy To add cs add lineto
  Tt setlinewidth stroke
  grestore
} bd
/SOE {
  /Tcx currentpoint pop def
  gsave
  newpath
  cf findfont cs scalefont dup
  /FontMatrix get 0 get /Ts exch def /FontInfo get dup
  /UnderlinePosition get Ts mul /To exch def
  /UnderlineThickness get Ts mul /Tt exch def
  ux uy To add cs 10 mul 26 idiv add moveto Tcx uy To add cs 10 mul 26 idiv add lineto
  Tt setlinewidth stroke
  grestore
} bd
/QT {
/Y22 exch store
/X22 exch store
/Y21 exch store
/X21 exch store
currentpoint
/Y21 load 2 mul add 3 div exch
/X21 load 2 mul add 3 div exch
/X21 load 2 mul /X22 load add 3 div
/Y21 load 2 mul /Y22 load add 3 div
/X22 load /Y22 load curveto
} bd
/SSPD {
dup length /d exch dict def
{
/v exch def
/k exch def
currentpagedevice k known {
/cpdv currentpagedevice k get def
v cpdv ne {
/upd false def
/nullv v type /nulltype eq def
/nullcpdv cpdv type /nulltype eq def
nullv nullcpdv or
{
/upd true def
} {
/sametype v type cpdv type eq def
sametype {
v type /arraytype eq {
/vlen v length def
/cpdvlen cpdv length def
vlen cpdvlen eq {
0 1 vlen 1 sub {
/i exch def
/obj v i get def
/cpdobj cpdv i get def
obj cpdobj ne {
/upd true def
exit
} if
} for
} {
/upd true def
} ifelse
} {
v type /dicttype eq {
v {
/dv exch def
/dk exch def
/cpddv cpdv dk get def
dv cpddv ne {
/upd true def
exit
} if
} forall
} {
/upd true def
} ifelse
} ifelse
} if
} ifelse
upd true eq {
d k v put
} if
} if
} if
} forall
d length 0 gt {
d setpagedevice
} if
} bd
/RE { % /NewFontName [NewEncodingArray] /FontName RE -
  findfont dup length dict begin
  {
    1 index /FID ne
    {def} {pop pop} ifelse
  } forall
  /Encoding exch def
  /FontName 1 index def
  currentdict definefont pop
  end
} bind def
%%EndResource
%%BeginResource: procset (Apache XML Graphics EPS ProcSet) 1.0 0
%%Version: 1.0 0
%%Copyright: (Copyright 2002-2003 The Apache Software Foundation. License terms: http://www.apache.org/licenses/LICENSE-2.0)
/BeginEPSF { %def
/b4_Inc_state save def         % Save state for cleanup
/dict_count countdictstack def % Count objects on dict stack
/op_count count 1 sub def      % Count objects on operand stack
userdict begin                 % Push userdict on dict stack
/showpage { } def              % Redefine showpage, { } = null proc
0 setgray 0 setlinecap         % Prepare graphics state
1 setlinewidth 0 setlinejoin
10 setmiterlimit [ ] 0 setdash newpath
/languagelevel where           % If level not equal to 1 then
{pop languagelevel             % set strokeadjust and
1 ne                           % overprint to their defaults.
{false setstrokeadjust false setoverprint
} if
} if
} bd
/EndEPSF { %def
count op_count sub {pop} repeat            % Clean up stacks
countdictstack dict_count sub {end} repeat
b4_Inc_state restore
} bd
%%EndResource
%FOPBeginFontDict
%%IncludeResource: font Courier-Oblique
%%IncludeResource: font Courier-BoldOblique
%%IncludeResource: font Courier-Bold
%%IncludeResource: font ZapfDingbats
%%IncludeResource: font Symbol
%%IncludeResource: font Helvetica
%%IncludeResource: font Helvetica-Oblique
%%IncludeResource: font Helvetica-Bold
%%IncludeResource: font Helvetica-BoldOblique
%%IncludeResource: font Times-Roman
%%IncludeResource: font Times-Italic
%%IncludeResource: font Times-Bold
%%IncludeResource: font Times-BoldItalic
%%IncludeResource: font Courier
%FOPEndFontDict
%%BeginResource: encoding WinAnsiEncoding
/WinAnsiEncoding [
/.notdef /.notdef /.notdef /.notdef /.notdef
/.notdef /.notdef /.notdef /.notdef /.notdef
/.notdef /.notdef /.notdef /.notdef /.notdef
/.notdef /.notdef /.notdef /.notdef /.notdef
/.notdef /.notdef /.notdef /.notdef /.notdef
/.notdef /.notdef /.notdef /.notdef /.notdef
/.notdef /.notdef /space /exclam /quotedbl
/numbersign /dollar /percent /ampersand /quotesingle
/parenleft /parenright /asterisk /plus /comma
/hyphen /period /slash /zero /one
/two /three /four /five /six
/seven /eight /nine /colon /semicolon
/less /equal /greater /question /at
/A /B /C /D /E
/F /G /H /I /J
/K /L /M /N /O
/P /Q /R /S /T
/U /V /W /X /Y
/Z /bracketleft /backslash /bracketright /asciicircum
/underscore /quoteleft /a /b /c
/d /e /f /g /h
/i /j /k /l /m
/n /o /p /q /r
/s /t /u /v /w
/x /y /z /braceleft /bar
/braceright /asciitilde /bullet /Euro /bullet
/quotesinglbase /florin /quotedblbase /ellipsis /dagger
/daggerdbl /circumflex /perthousand /Scaron /guilsinglleft
/OE /bullet /Zcaron /bullet /bullet
/quoteleft /quoteright /quotedblleft /quotedblright /bullet
/endash /emdash /asciitilde /trademark /scaron
/guilsinglright /oe /bullet /zcaron /Ydieresis
/space /exclamdown /cent /sterling /currency
/yen /brokenbar /section /dieresis /copyright
/ordfeminine /guillemotleft /logicalnot /sfthyphen /registered
/macron /degree /plusminus /twosuperior /threesuperior
/acute /mu /paragraph /middot /cedilla
/onesuperior /ordmasculine /guillemotright /onequarter /onehalf
/threequarters /questiondown /Agrave /Aacute /Acircumflex
/Atilde /Adieresis /Aring /AE /Ccedilla
/Egrave /Eacute /Ecircumflex /Edieresis /Igrave
/Iacute /Icircumflex /Idieresis /Eth /Ntilde
/Ograve /Oacute /Ocircumflex /Otilde /Odieresis
/multiply /Oslash /Ugrave /Uacute /Ucircumflex
/Udieresis /Yacute /Thorn /germandbls /agrave
/aacute /acircumflex /atilde /adieresis /aring
/ae /ccedilla /egrave /eacute /ecircumflex
/edieresis /igrave /iacute /icircumflex /idieresis
/eth /ntilde /ograve /oacute /ocircumflex
/otilde /odieresis /divide /oslash /ugrave
/uacute /ucircumflex /udieresis /yacute /thorn
/ydieresis
] def
%%EndResource
%FOPBeginFontReencode
/Courier-Oblique findfont
dup length dict begin
  {1 index /FID ne {def} {pop pop} ifelse} forall
  /Encoding WinAnsiEncoding def
  currentdict
end
/Courier-Oblique exch definefont pop
/Courier-BoldOblique findfont
dup length dict begin
  {1 index /FID ne {def} {pop pop} ifelse} forall
  /Encoding WinAnsiEncoding def
  currentdict
end
/Courier-BoldOblique exch definefont pop
/Courier-Bold findfont
dup length dict begin
  {1 index /FID ne {def} {pop pop} ifelse} forall
  /Encoding WinAnsiEncoding def
  currentdict
end
/Courier-Bold exch definefont pop
/Helvetica findfont
dup length dict begin
  {1 index /FID ne {def} {pop pop} ifelse} forall
  /Encoding WinAnsiEncoding def
  currentdict
end
/Helvetica exch definefont pop
/Helvetica-Oblique findfont
dup length dict begin
  {1 index /FID ne {def} {pop pop} ifelse} forall
  /Encoding WinAnsiEncoding def
  currentdict
end
/Helvetica-Oblique exch definefont pop
/Helvetica-Bold findfont
dup length dict begin
  {1 index /FID ne {def} {pop pop} ifelse} forall
  /Encoding WinAnsiEncoding def
  currentdict
end
/Helvetica-Bold exch definefont pop
/Helvetica-BoldOblique findfont
dup length dict begin
  {1 index /FID ne {def} {pop pop} ifelse} forall
  /Encoding WinAnsiEncoding def
  currentdict
end
/Helvetica-BoldOblique exch definefont pop
/Times-Roman findfont
dup length dict begin
  {1 index /FID ne {def} {pop pop} ifelse} forall
  /Encoding WinAnsiEncoding def
  currentdict
end
/Times-Roman exch definefont pop
/Times-Italic findfont
dup length dict begin
  {1 index /FID ne {def} {pop pop} ifelse} forall
  /Encoding WinAnsiEncoding def
  currentdict
end
/Times-Italic exch definefont pop
/Times-Bold findfont
dup length dict begin
  {1 index /FID ne {def} {pop pop} ifelse} forall
  /Encoding WinAnsiEncoding def
  currentdict
end
/Times-Bold exch definefont pop
/Times-BoldItalic findfont
dup length dict begin
  {1 index /FID ne {def} {pop pop} ifelse} forall
  /Encoding WinAnsiEncoding def
  currentdict
end
/Times-BoldItalic exch definefont pop
/Courier findfont
dup length dict begin
  {1 index /FID ne {def} {pop pop} ifelse} forall
  /Encoding WinAnsiEncoding def
  currentdict
end
/Courier exch definefont pop
%FOPEndFontReencode
%%EndProlog
%%Page: 1 1
%%PageBoundingBox: 0 0 1120 840
%%BeginPageSetup
[1 0 0 -1 0 840] CT
%%EndPageSetup
GS
1 GC
N
0 0 1120 840 re
f
GR
GS
1 GC
N
73 374 M
507 374 L
507 31.5 L
73 31.5 L
cp
f
GR
GS
0.149 GC
2 setlinecap
1 LJ
0.5 LW
N
73 374 M
507 374 L
S
GR
GS
0.149 GC
2 setlinecap
1 LJ
0.5 LW
N
73 31.5 M
507 31.5 L
S
GR
GS
0.149 GC
2 setlinecap
1 LJ
0.5 LW
N
131.215 374 M
131.215 369.66 L
S
GR
GS
0.149 GC
2 setlinecap
1 LJ
0.5 LW
N
210.077 374 M
210.077 369.66 L
S
GR
GS
0.149 GC
2 setlinecap
1 LJ
0.5 LW
N
288.94 374 M
288.94 369.66 L
S
GR
GS
0.149 GC
2 setlinecap
1 LJ
0.5 LW
N
367.803 374 M
367.803 369.66 L
S
GR
GS
0.149 GC
2 setlinecap
1 LJ
0.5 LW
N
446.667 374 M
446.667 369.66 L
S
GR
GS
0.149 GC
2 setlinecap
1 LJ
0.5 LW
N
131.215 31.5 M
131.215 35.84 L
S
GR
GS
0.149 GC
2 setlinecap
1 LJ
0.5 LW
N
210.077 31.5 M
210.077 35.84 L
S
GR
GS
0.149 GC
2 setlinecap
1 LJ
0.5 LW
N
288.94 31.5 M
288.94 35.84 L
S
GR
GS
0.149 GC
2 setlinecap
1 LJ
0.5 LW
N
367.803 31.5 M
367.803 35.84 L
S
GR
GS
0.149 GC
2 setlinecap
1 LJ
0.5 LW
N
446.667 31.5 M
446.667 35.84 L
S
GR
GS
0.149 GC
2 setlinecap
1 LJ
0.5 LW
N
91.783 374 M
91.783 371.83 L
S
GR
GS
0.149 GC
2 setlinecap
1 LJ
0.5 LW
N
111.499 374 M
111.499 371.83 L
S
GR
GS
0.149 GC
2 setlinecap
1 LJ
0.5 LW
N
150.93 374 M
150.93 371.83 L
S
GR
GS
0.149 GC
2 setlinecap
1 LJ
0.5 LW
N
170.646 374 M
170.646 371.83 L
S
GR
GS
0.149 GC
2 setlinecap
1 LJ
0.5 LW
N
190.362 374 M
190.362 371.83 L
S
GR
GS
0.149 GC
2 setlinecap
1 LJ
0.5 LW
N
229.793 374 M
229.793 371.83 L
S
GR
GS
0.149 GC
2 setlinecap
1 LJ
0.5 LW
N
249.509 374 M
249.509 371.83 L
S
GR
GS
0.149 GC
2 setlinecap
1 LJ
0.5 LW
N
269.225 374 M
269.225 371.83 L
S
GR
GS
0.149 GC
2 setlinecap
1 LJ
0.5 LW
N
308.656 374 M
308.656 371.83 L
S
GR
GS
0.149 GC
2 setlinecap
1 LJ
0.5 LW
N
328.372 374 M
328.372 371.83 L
S
GR
GS
0.149 GC
2 setlinecap
1 LJ
0.5 LW
N
348.088 374 M
348.088 371.83 L
S
GR
GS
0.149 GC
2 setlinecap
1 LJ
0.5 LW
N
387.519 374 M
387.519 371.83 L
S
GR
GS
0.149 GC
2 setlinecap
1 LJ
0.5 LW
N
407.235 374 M
407.235 371.83 L
S
GR
GS
0.149 GC
2 setlinecap
1 LJ
0.5 LW
N
426.951 374 M
426.951 371.83 L
S
GR
GS
0.149 GC
2 setlinecap
1 LJ
0.5 LW
N
466.382 374 M
466.382 371.83 L
S
GR
GS
0.149 GC
2 setlinecap
1 LJ
0.5 LW
N
486.098 374 M
486.098 371.83 L
S
GR
GS
0.149 GC
2 setlinecap
1 LJ
0.5 LW
N
505.814 374 M
505.814 371.83 L
S
GR
GS
0.149 GC
2 setlinecap
1 LJ
0.5 LW
N
91.783 31.5 M
91.783 33.67 L
S
GR
GS
0.149 GC
2 setlinecap
1 LJ
0.5 LW
N
111.499 31.5 M
111.499 33.67 L
S
GR
GS
0.149 GC
2 setlinecap
1 LJ
0.5 LW
N
150.93 31.5 M
150.93 33.67 L
S
GR
GS
0.149 GC
2 setlinecap
1 LJ
0.5 LW
N
170.646 31.5 M
170.646 33.67 L
S
GR
GS
0.149 GC
2 setlinecap
1 LJ
0.5 LW
N
190.362 31.5 M
190.362 33.67 L
S
GR
GS
0.149 GC
2 setlinecap
1 LJ
0.5 LW
N
229.793 31.5 M
229.793 33.67 L
S
GR
GS
0.149 GC
2 setlinecap
1 LJ
0.5 LW
N
249.509 31.5 M
249.509 33.67 L
S
GR
GS
0.149 GC
2 setlinecap
1 LJ
0.5 LW
N
269.225 31.5 M
269.225 33.67 L
S
GR
GS
0.149 GC
2 setlinecap
1 LJ
0.5 LW
N
308.656 31.5 M
308.656 33.67 L
S
GR
GS
0.149 GC
2 setlinecap
1 LJ
0.5 LW
N
328.372 31.5 M
328.372 33.67 L
S
GR
GS
0.149 GC
2 setlinecap
1 LJ
0.5 LW
N
348.088 31.5 M
348.088 33.67 L
S
GR
GS
0.149 GC
2 setlinecap
1 LJ
0.5 LW
N
387.519 31.5 M
387.519 33.67 L
S
GR
GS
0.149 GC
2 setlinecap
1 LJ
0.5 LW
N
407.235 31.5 M
407.235 33.67 L
S
GR
GS
0.149 GC
2 setlinecap
1 LJ
0.5 LW
N
426.951 31.5 M
426.951 33.67 L
S
GR
GS
0.149 GC
2 setlinecap
1 LJ
0.5 LW
N
466.382 31.5 M
466.382 33.67 L
S
GR
GS
0.149 GC
2 setlinecap
1 LJ
0.5 LW
N
486.098 31.5 M
486.098 33.67 L
S
GR
GS
0.149 GC
2 setlinecap
1 LJ
0.5 LW
N
505.814 31.5 M
505.814 33.67 L
S
GR
GS
[1 0 0 1 131.21451 378.80011] CT
0.149 GC
/Helvetica 14 F
GS
[1 0 0 1 0 0] CT
-16 14 moveto 
1 -1 scale
(2000) t 
GR
GR
GS
[1 0 0 1 210.0775 378.80011] CT
0.149 GC
/Helvetica 14 F
GS
[1 0 0 1 0 0] CT
-16 14 moveto 
1 -1 scale
(4000) t 
GR
GR
GS
[1 0 0 1 288.94049 378.80011] CT
0.149 GC
/Helvetica 14 F
GS
[1 0 0 1 0 0] CT
-16 14 moveto 
1 -1 scale
(6000) t 
GR
GR
GS
[1 0 0 1 367.8035 378.80011] CT
0.149 GC
/Helvetica 14 F
GS
[1 0 0 1 0 0] CT
-16 14 moveto 
1 -1 scale
(8000) t 
GR
GR
GS
[1 0 0 1 446.6665 378.80011] CT
0.149 GC
/Helvetica 14 F
GS
[1 0 0 1 0 0] CT
-19.5 14 moveto 
1 -1 scale
(10000) t 
GR
GR
GS
[1 0 0 1 290.00021 396.30011] CT
0.149 GC
/Helvetica 15.4 F
GS
[1 0 0 1 0 0] CT
-42 15 moveto 
1 -1 scale
(Bitrate\(kb/s\)) t 
GR
GR
GS
0.149 GC
2 setlinecap
1 LJ
0.5 LW
N
73 374 M
73 31.5 L
S
GR
GS
0.149 GC
2 setlinecap
1 LJ
0.5 LW
N
507 374 M
507 31.5 L
S
GR
GS
0.149 GC
2 setlinecap
1 LJ
0.5 LW
N
73 335.511 M
77.34 335.511 L
S
GR
GS
0.149 GC
2 setlinecap
1 LJ
0.5 LW
N
73 287.117 M
77.34 287.117 L
S
GR
GS
0.149 GC
2 setlinecap
1 LJ
0.5 LW
N
73 238.722 M
77.34 238.722 L
S
GR
GS
0.149 GC
2 setlinecap
1 LJ
0.5 LW
N
73 190.328 M
77.34 190.328 L
S
GR
GS
0.149 GC
2 setlinecap
1 LJ
0.5 LW
N
73 141.934 M
77.34 141.934 L
S
GR
GS
0.149 GC
2 setlinecap
1 LJ
0.5 LW
N
73 93.539 M
77.34 93.539 L
S
GR
GS
0.149 GC
2 setlinecap
1 LJ
0.5 LW
N
73 45.145 M
77.34 45.145 L
S
GR
GS
0.149 GC
2 setlinecap
1 LJ
0.5 LW
N
507 335.511 M
502.66 335.511 L
S
GR
GS
0.149 GC
2 setlinecap
1 LJ
0.5 LW
N
507 287.117 M
502.66 287.117 L
S
GR
GS
0.149 GC
2 setlinecap
1 LJ
0.5 LW
N
507 238.722 M
502.66 238.722 L
S
GR
GS
0.149 GC
2 setlinecap
1 LJ
0.5 LW
N
507 190.328 M
502.66 190.328 L
S
GR
GS
0.149 GC
2 setlinecap
1 LJ
0.5 LW
N
507 141.934 M
502.66 141.934 L
S
GR
GS
0.149 GC
2 setlinecap
1 LJ
0.5 LW
N
507 93.539 M
502.66 93.539 L
S
GR
GS
0.149 GC
2 setlinecap
1 LJ
0.5 LW
N
507 45.145 M
502.66 45.145 L
S
GR
GS
0.149 GC
2 setlinecap
1 LJ
0.5 LW
N
73 364.548 M
75.17 364.548 L
S
GR
GS
0.149 GC
2 setlinecap
1 LJ
0.5 LW
N
73 354.869 M
75.17 354.869 L
S
GR
GS
0.149 GC
2 setlinecap
1 LJ
0.5 LW
N
73 345.19 M
75.17 345.19 L
S
GR
GS
0.149 GC
2 setlinecap
1 LJ
0.5 LW
N
73 325.832 M
75.17 325.832 L
S
GR
GS
0.149 GC
2 setlinecap
1 LJ
0.5 LW
N
73 316.153 M
75.17 316.153 L
S
GR
GS
0.149 GC
2 setlinecap
1 LJ
0.5 LW
N
73 306.475 M
75.17 306.475 L
S
GR
GS
0.149 GC
2 setlinecap
1 LJ
0.5 LW
N
73 296.796 M
75.17 296.796 L
S
GR
GS
0.149 GC
2 setlinecap
1 LJ
0.5 LW
N
73 277.438 M
75.17 277.438 L
S
GR
GS
0.149 GC
2 setlinecap
1 LJ
0.5 LW
N
73 267.759 M
75.17 267.759 L
S
GR
GS
0.149 GC
2 setlinecap
1 LJ
0.5 LW
N
73 258.08 M
75.17 258.08 L
S
GR
GS
0.149 GC
2 setlinecap
1 LJ
0.5 LW
N
73 248.401 M
75.17 248.401 L
S
GR
GS
0.149 GC
2 setlinecap
1 LJ
0.5 LW
N
73 229.044 M
75.17 229.044 L
S
GR
GS
0.149 GC
2 setlinecap
1 LJ
0.5 LW
N
73 219.365 M
75.17 219.365 L
S
GR
GS
0.149 GC
2 setlinecap
1 LJ
0.5 LW
N
73 209.686 M
75.17 209.686 L
S
GR
GS
0.149 GC
2 setlinecap
1 LJ
0.5 LW
N
73 200.007 M
75.17 200.007 L
S
GR
GS
0.149 GC
2 setlinecap
1 LJ
0.5 LW
N
73 180.649 M
75.17 180.649 L
S
GR
GS
0.149 GC
2 setlinecap
1 LJ
0.5 LW
N
73 170.97 M
75.17 170.97 L
S
GR
GS
0.149 GC
2 setlinecap
1 LJ
0.5 LW
N
73 161.292 M
75.17 161.292 L
S
GR
GS
0.149 GC
2 setlinecap
1 LJ
0.5 LW
N
73 151.613 M
75.17 151.613 L
S
GR
GS
0.149 GC
2 setlinecap
1 LJ
0.5 LW
N
73 132.255 M
75.17 132.255 L
S
GR
GS
0.149 GC
2 setlinecap
1 LJ
0.5 LW
N
73 122.576 M
75.17 122.576 L
S
GR
GS
0.149 GC
2 setlinecap
1 LJ
0.5 LW
N
73 112.897 M
75.17 112.897 L
S
GR
GS
0.149 GC
2 setlinecap
1 LJ
0.5 LW
N
73 103.218 M
75.17 103.218 L
S
GR
GS
0.149 GC
2 setlinecap
1 LJ
0.5 LW
N
73 83.861 M
75.17 83.861 L
S
GR
GS
0.149 GC
2 setlinecap
1 LJ
0.5 LW
N
73 74.182 M
75.17 74.182 L
S
GR
GS
0.149 GC
2 setlinecap
1 LJ
0.5 LW
N
73 64.503 M
75.17 64.503 L
S
GR
GS
0.149 GC
2 setlinecap
1 LJ
0.5 LW
N
73 54.824 M
75.17 54.824 L
S
GR
GS
0.149 GC
2 setlinecap
1 LJ
0.5 LW
N
73 35.466 M
75.17 35.466 L
S
GR
GS
0.149 GC
2 setlinecap
1 LJ
0.5 LW
N
507 364.548 M
504.83 364.548 L
S
GR
GS
0.149 GC
2 setlinecap
1 LJ
0.5 LW
N
507 354.869 M
504.83 354.869 L
S
GR
GS
0.149 GC
2 setlinecap
1 LJ
0.5 LW
N
507 345.19 M
504.83 345.19 L
S
GR
GS
0.149 GC
2 setlinecap
1 LJ
0.5 LW
N
507 325.832 M
504.83 325.832 L
S
GR
GS
0.149 GC
2 setlinecap
1 LJ
0.5 LW
N
507 316.153 M
504.83 316.153 L
S
GR
GS
0.149 GC
2 setlinecap
1 LJ
0.5 LW
N
507 306.475 M
504.83 306.475 L
S
GR
GS
0.149 GC
2 setlinecap
1 LJ
0.5 LW
N
507 296.796 M
504.83 296.796 L
S
GR
GS
0.149 GC
2 setlinecap
1 LJ
0.5 LW
N
507 277.438 M
504.83 277.438 L
S
GR
GS
0.149 GC
2 setlinecap
1 LJ
0.5 LW
N
507 267.759 M
504.83 267.759 L
S
GR
GS
0.149 GC
2 setlinecap
1 LJ
0.5 LW
N
507 258.08 M
504.83 258.08 L
S
GR
GS
0.149 GC
2 setlinecap
1 LJ
0.5 LW
N
507 248.401 M
504.83 248.401 L
S
GR
GS
0.149 GC
2 setlinecap
1 LJ
0.5 LW
N
507 229.044 M
504.83 229.044 L
S
GR
GS
0.149 GC
2 setlinecap
1 LJ
0.5 LW
N
507 219.365 M
504.83 219.365 L
S
GR
GS
0.149 GC
2 setlinecap
1 LJ
0.5 LW
N
507 209.686 M
504.83 209.686 L
S
GR
GS
0.149 GC
2 setlinecap
1 LJ
0.5 LW
N
507 200.007 M
504.83 200.007 L
S
GR
GS
0.149 GC
2 setlinecap
1 LJ
0.5 LW
N
507 180.649 M
504.83 180.649 L
S
GR
GS
0.149 GC
2 setlinecap
1 LJ
0.5 LW
N
507 170.97 M
504.83 170.97 L
S
GR
GS
0.149 GC
2 setlinecap
1 LJ
0.5 LW
N
507 161.292 M
504.83 161.292 L
S
GR
GS
0.149 GC
2 setlinecap
1 LJ
0.5 LW
N
507 151.613 M
504.83 151.613 L
S
GR
GS
0.149 GC
2 setlinecap
1 LJ
0.5 LW
N
507 132.255 M
504.83 132.255 L
S
GR
GS
0.149 GC
2 setlinecap
1 LJ
0.5 LW
N
507 122.576 M
504.83 122.576 L
S
GR
GS
0.149 GC
2 setlinecap
1 LJ
0.5 LW
N
507 112.897 M
504.83 112.897 L
S
GR
GS
0.149 GC
2 setlinecap
1 LJ
0.5 LW
N
507 103.218 M
504.83 103.218 L
S
GR
GS
0.149 GC
2 setlinecap
1 LJ
0.5 LW
N
507 83.861 M
504.83 83.861 L
S
GR
GS
0.149 GC
2 setlinecap
1 LJ
0.5 LW
N
507 74.182 M
504.83 74.182 L
S
GR
GS
0.149 GC
2 setlinecap
1 LJ
0.5 LW
N
507 64.503 M
504.83 64.503 L
S
GR
GS
0.149 GC
2 setlinecap
1 LJ
0.5 LW
N
507 54.824 M
504.83 54.824 L
S
GR
GS
0.149 GC
2 setlinecap
1 LJ
0.5 LW
N
507 35.466 M
504.83 35.466 L
S
GR
GS
[1 0 0 1 68.2 335.51117] CT
0.149 GC
/Helvetica 14 F
GS
[1 0 0 1 0 0] CT
-16 5.5 moveto 
1 -1 scale
(33) t 
GR
GR
GS
[1 0 0 1 68.2 287.11682] CT
0.149 GC
/Helvetica 14 F
GS
[1 0 0 1 0 0] CT
-16 5.5 moveto 
1 -1 scale
(34) t 
GR
GR
GS
[1 0 0 1 68.2 238.72247] CT
0.149 GC
/Helvetica 14 F
GS
[1 0 0 1 0 0] CT
-16 5.5 moveto 
1 -1 scale
(35) t 
GR
GR
GS
[1 0 0 1 68.2 190.32813] CT
0.149 GC
/Helvetica 14 F
GS
[1 0 0 1 0 0] CT
-16 5.5 moveto 
1 -1 scale
(36) t 
GR
GR
GS
[1 0 0 1 68.2 141.93379] CT
0.149 GC
/Helvetica 14 F
GS
[1 0 0 1 0 0] CT
-16 5.5 moveto 
1 -1 scale
(37) t 
GR
GR
GS
[1 0 0 1 68.2 93.53944] CT
0.149 GC
/Helvetica 14 F
GS
[1 0 0 1 0 0] CT
-16 5.5 moveto 
1 -1 scale
(38) t 
GR
GR
GS
[1 0 0 1 68.2 45.1451] CT
0.149 GC
/Helvetica 14 F
GS
[1 0 0 1 0 0] CT
-16 5.5 moveto 
1 -1 scale
(39) t 
GR
GR
GS
[0 -1 1 0 49.2 202.74997] CT
0.149 GC
/Helvetica 15.4 F
GS
[1 0 0 1 0 0] CT
-42 -4 moveto 
1 -1 scale
(PSNR Y\(dB\)) t 
GR
GR
GS
[1 0 0 1 290.00027 29.57511] CT
/Helvetica-Bold 15.4 F
GS
[1 0 0 1 0 0] CT
-184.5 -4 moveto 
1 -1 scale
(FoodMarket_1920x1080_5994_10bit_420.y4m-hevc) t 
GR
GR
GS
0 0.447 0.741 RC
1 LJ
0.5 LW
N
73.396 371.936 M
74.185 367.748 L
74.974 363.57 L
75.762 359.406 L
76.551 355.262 L
77.34 351.14 L
78.128 347.047 L
78.917 342.985 L
79.706 338.961 L
80.494 334.977 L
81.283 331.039 L
82.071 327.152 L
82.86 323.319 L
83.649 319.545 L
84.437 315.834 L
85.226 312.192 L
86.015 308.622 L
86.803 305.129 L
87.592 301.718 L
88.38 298.392 L
89.169 295.157 L
89.958 292.017 L
90.746 288.975 L
91.535 286.038 L
92.324 283.209 L
93.112 280.493 L
93.901 277.894 L
94.689 275.417 L
95.478 273.03 L
96.267 270.672 L
97.055 268.341 L
97.844 266.038 L
98.633 263.761 L
99.421 261.511 L
100.21 259.288 L
100.999 257.092 L
101.787 254.922 L
102.576 252.779 L
103.364 250.662 L
104.153 248.572 L
104.942 246.508 L
105.73 244.47 L
106.519 242.458 L
107.308 240.472 L
108.096 238.512 L
108.885 236.578 L
109.673 234.67 L
110.462 232.787 L
111.251 230.93 L
112.039 229.098 L
112.828 227.291 L
113.617 225.51 L
114.405 223.754 L
115.194 222.022 L
115.983 220.316 L
116.771 218.635 L
117.56 216.978 L
118.348 215.347 L
119.137 213.739 L
119.926 212.157 L
120.714 210.598 L
121.503 209.064 L
122.292 207.555 L
123.08 206.069 L
123.869 204.608 L
124.657 203.17 L
125.446 201.756 L
126.235 200.366 L
127.023 199 L
127.812 197.657 L
128.601 196.338 L
129.389 195.042 L
130.178 193.77 L
130.966 192.521 L
131.755 191.294 L
132.544 190.091 L
133.332 188.911 L
134.121 187.754 L
134.91 186.619 L
135.698 185.507 L
136.487 184.418 L
137.276 183.351 L
138.064 182.305 L
138.853 181.266 L
139.641 180.234 L
140.43 179.207 L
141.219 178.187 L
142.007 177.172 L
142.796 176.164 L
143.585 175.161 L
144.373 174.164 L
145.162 173.173 L
145.95 172.189 L
146.739 171.21 L
147.528 170.237 L
148.316 169.271 L
149.105 168.31 L
149.894 167.355 L
150.682 166.406 L
151.471 165.464 L
152.259 164.527 L
153.048 163.596 L
153.837 162.671 L
154.625 161.753 L
155.414 160.84 L
156.203 159.933 L
156.991 159.033 L
157.78 158.138 L
158.569 157.249 L
159.357 156.367 L
160.146 155.49 L
160.934 154.62 L
161.723 153.755 L
162.512 152.897 L
163.3 152.044 L
164.089 151.198 L
164.878 150.357 L
165.666 149.523 L
166.455 148.695 L
167.243 147.873 L
168.032 147.057 L
168.821 146.246 L
169.609 145.442 L
170.398 144.644 L
171.187 143.852 L
171.975 143.067 L
172.764 142.287 L
173.553 141.513 L
174.341 140.745 L
175.13 139.984 L
175.918 139.228 L
176.707 138.479 L
177.496 137.736 L
178.284 136.998 L
179.073 136.267 L
179.862 135.542 L
180.65 134.823 L
181.439 134.11 L
182.227 133.404 L
183.016 132.703 L
183.805 132.008 L
184.593 131.32 L
185.382 130.637 L
186.171 129.961 L
186.959 129.291 L
187.748 128.627 L
188.536 127.969 L
189.325 127.317 L
190.114 126.671 L
190.902 126.032 L
191.691 125.398 L
192.48 124.771 L
193.268 124.15 L
194.057 123.535 L
194.846 122.926 L
195.634 122.323 L
196.423 121.726 L
197.211 121.136 L
198 120.552 L
198.789 119.973 L
199.577 119.401 L
200.366 118.835 L
201.155 118.276 L
201.943 117.722 L
202.732 117.175 L
203.52 116.633 L
204.309 116.098 L
205.098 115.569 L
205.886 115.047 L
206.675 114.53 L
207.464 114.02 L
208.252 113.515 L
209.041 113.017 L
209.829 112.525 L
210.618 112.04 L
211.407 111.56 L
212.195 111.087 L
212.984 110.62 L
213.773 110.159 L
214.561 109.704 L
215.35 109.255 L
216.139 108.813 L
216.927 108.377 L
217.716 107.947 L
218.504 107.523 L
219.293 107.106 L
220.082 106.695 L
220.87 106.29 L
221.659 105.891 L
222.448 105.498 L
223.236 105.112 L
224.025 104.731 L
224.813 104.357 L
225.602 103.99 L
226.391 103.628 L
227.179 103.272 L
227.968 102.916 L
228.757 102.561 L
229.545 102.207 L
230.334 101.852 L
231.122 101.499 L
231.911 101.146 L
232.7 100.793 L
233.488 100.441 L
234.277 100.09 L
235.066 99.739 L
235.854 99.388 L
236.643 99.038 L
237.432 98.689 L
238.22 98.34 L
239.009 97.991 L
239.797 97.644 L
240.586 97.296 L
241.375 96.949 L
242.163 96.603 L
242.952 96.257 L
243.741 95.912 L
244.529 95.568 L
245.318 95.224 L
246.106 94.88 L
246.895 94.538 L
247.684 94.195 L
248.472 93.854 L
249.261 93.512 L
250.05 93.172 L
250.838 92.832 L
251.627 92.493 L
252.415 92.154 L
253.204 91.816 L
253.993 91.478 L
254.781 91.142 L
255.57 90.805 L
256.359 90.47 L
257.147 90.134 L
257.936 89.8 L
258.725 89.466 L
259.513 89.133 L
260.302 88.801 L
261.09 88.469 L
261.879 88.138 L
262.668 87.807 L
263.456 87.477 L
264.245 87.148 L
265.034 86.819 L
265.822 86.491 L
266.611 86.164 L
267.399 85.838 L
268.188 85.512 L
268.977 85.186 L
269.765 84.862 L
270.554 84.538 L
271.343 84.215 L
272.131 83.892 L
272.92 83.571 L
273.708 83.249 L
274.497 82.929 L
275.286 82.609 L
276.074 82.29 L
276.863 81.972 L
277.652 81.655 L
278.44 81.338 L
279.229 81.022 L
280.018 80.707 L
280.806 80.392 L
281.595 80.078 L
282.383 79.765 L
283.172 79.453 L
283.961 79.141 L
284.749 78.83 L
285.538 78.521 L
286.327 78.211 L
287.115 77.903 L
287.904 77.595 L
288.692 77.288 L
289.481 76.982 L
290.27 76.676 L
291.058 76.372 L
291.847 76.068 L
292.636 75.765 L
293.424 75.463 L
294.213 75.161 L
295.002 74.861 L
295.79 74.561 L
296.579 74.262 L
297.367 73.964 L
298.156 73.667 L
298.945 73.37 L
299.733 73.074 L
300.522 72.78 L
301.311 72.486 L
302.099 72.192 L
302.888 71.9 L
303.676 71.609 L
304.465 71.318 L
305.254 71.028 L
306.042 70.739 L
306.831 70.451 L
307.62 70.164 L
308.408 69.878 L
309.197 69.593 L
309.985 69.308 L
310.774 69.025 L
311.563 68.742 L
312.351 68.46 L
313.14 68.179 L
313.929 67.899 L
314.717 67.62 L
315.506 67.341 L
316.295 67.064 L
317.083 66.788 L
317.872 66.512 L
318.66 66.238 L
319.449 65.964 L
320.238 65.691 L
321.026 65.42 L
321.815 65.149 L
322.604 64.879 L
323.392 64.61 L
324.181 64.342 L
324.969 64.075 L
325.758 63.809 L
326.547 63.544 L
327.335 63.28 L
328.124 63.016 L
328.913 62.754 L
329.701 62.493 L
330.49 62.233 L
331.279 61.974 L
332.067 61.715 L
332.856 61.458 L
333.644 61.202 L
334.433 60.947 L
335.222 60.692 L
336.01 60.439 L
336.799 60.187 L
337.588 59.935 L
338.376 59.685 L
339.165 59.436 L
339.953 59.188 L
340.742 58.941 L
341.531 58.695 L
342.319 58.45 L
343.108 58.206 L
343.897 57.963 L
344.685 57.721 L
345.474 57.48 L
346.262 57.24 L
347.051 57.001 L
347.84 56.764 L
348.628 56.527 L
349.417 56.292 L
350.206 56.057 L
350.994 55.824 L
351.783 55.592 L
352.572 55.36 L
353.36 55.13 L
354.149 54.902 L
354.937 54.674 L
355.726 54.447 L
356.515 54.221 L
357.303 53.997 L
358.092 53.773 L
358.881 53.551 L
359.669 53.33 L
360.458 53.11 L
361.246 52.891 L
362.035 52.673 L
362.824 52.456 L
363.612 52.241 L
364.401 52.026 L
365.19 51.813 L
365.978 51.601 L
366.767 51.39 L
367.555 51.18 L
368.344 50.972 L
369.133 50.764 L
369.921 50.558 L
370.71 50.353 L
371.499 50.149 L
372.287 49.947 L
373.076 49.745 L
373.865 49.545 L
374.653 49.346 L
375.442 49.148 L
376.23 48.951 L
377.019 48.756 L
377.808 48.561 L
378.596 48.368 L
379.385 48.177 L
380.174 47.986 L
380.962 47.797 L
381.751 47.609 L
382.539 47.422 L
383.328 47.236 L
384.117 47.051 L
384.905 46.868 L
385.694 46.686 L
386.483 46.506 L
387.271 46.326 L
388.06 46.148 L
388.848 45.971 L
389.637 45.796 L
390.426 45.621 L
391.214 45.448 L
392.003 45.277 L
392.792 45.106 L
393.58 44.937 L
394.369 44.769 L
395.158 44.602 L
395.946 44.437 L
396.735 44.273 L
397.523 44.111 L
398.312 43.949 L
399.101 43.789 L
399.889 43.63 L
400.678 43.473 L
401.467 43.317 L
402.255 43.162 L
403.044 43.009 L
403.832 42.857 L
404.621 42.706 L
405.41 42.557 L
406.198 42.409 L
406.987 42.262 L
407.776 42.117 L
408.564 41.973 L
409.353 41.83 L
410.142 41.689 L
410.93 41.549 L
411.719 41.411 L
412.507 41.274 L
413.296 41.138 L
414.085 41.004 L
414.873 40.871 L
415.662 40.739 L
416.451 40.609 L
417.239 40.481 L
418.028 40.353 L
418.816 40.227 L
419.605 40.103 L
420.394 39.98 L
421.182 39.858 L
421.971 39.738 L
422.76 39.62 L
423.548 39.502 L
424.337 39.386 L
425.125 39.272 L
425.914 39.159 L
426.703 39.048 L
427.491 38.938 L
428.28 38.829 L
429.069 38.722 L
429.857 38.616 L
430.646 38.512 L
431.435 38.409 L
432.223 38.308 L
433.012 38.208 L
433.8 38.11 L
434.589 38.013 L
435.378 37.918 L
436.166 37.824 L
436.955 37.732 L
437.744 37.641 L
438.532 37.552 L
439.321 37.464 L
440.109 37.378 L
440.898 37.293 L
441.687 37.21 L
442.475 37.129 L
443.264 37.048 L
444.053 36.97 L
444.841 36.893 L
445.63 36.818 L
446.418 36.744 L
447.207 36.671 L
447.996 36.6 L
448.784 36.531 L
449.573 36.463 L
450.362 36.397 L
451.15 36.333 L
451.939 36.27 L
452.728 36.208 L
453.516 36.149 L
454.305 36.09 L
455.093 36.034 L
455.882 35.979 L
456.671 35.925 L
457.459 35.873 L
458.248 35.823 L
459.037 35.774 L
459.825 35.727 L
460.614 35.682 L
461.402 35.638 L
462.191 35.596 L
462.98 35.556 L
463.768 35.517 L
464.557 35.48 L
465.346 35.444 L
466.134 35.41 L
466.923 35.378 L
467.711 35.347 L
468.5 35.318 L
469.289 35.291 L
470.077 35.265 L
470.866 35.241 L
471.655 35.219 L
472.443 35.198 L
473.232 35.179 L
474.021 35.162 L
474.809 35.146 L
475.598 35.132 L
476.386 35.12 L
477.175 35.11 L
477.964 35.101 L
478.752 35.094 L
479.541 35.088 L
480.33 35.085 L
481.118 35.083 L
S
GR
GS
0.851 0.325 0.098 RC
1 LJ
0.5 LW
N
74.119 367.337 M
74.907 363.272 L
75.696 359.217 L
76.485 355.175 L
77.273 351.151 L
78.062 347.148 L
78.851 343.172 L
79.639 339.224 L
80.428 335.311 L
81.216 331.436 L
82.005 327.604 L
82.794 323.817 L
83.582 320.081 L
84.371 316.4 L
85.16 312.777 L
85.948 309.218 L
86.737 305.725 L
87.525 302.303 L
88.314 298.957 L
89.103 295.69 L
89.891 292.506 L
90.68 289.41 L
91.469 286.406 L
92.257 283.497 L
93.046 280.689 L
93.835 277.985 L
94.623 275.389 L
95.412 272.905 L
96.2 270.537 L
96.989 268.233 L
97.778 265.955 L
98.566 263.702 L
99.355 261.475 L
100.144 259.273 L
100.932 257.096 L
101.721 254.945 L
102.509 252.819 L
103.298 250.718 L
104.087 248.642 L
104.875 246.591 L
105.664 244.565 L
106.453 242.564 L
107.241 240.587 L
108.03 238.635 L
108.819 236.708 L
109.607 234.805 L
110.396 232.926 L
111.184 231.072 L
111.973 229.242 L
112.762 227.436 L
113.55 225.654 L
114.339 223.897 L
115.128 222.163 L
115.916 220.453 L
116.705 218.767 L
117.493 217.104 L
118.282 215.465 L
119.071 213.85 L
119.859 212.258 L
120.648 210.689 L
121.437 209.144 L
122.225 207.622 L
123.014 206.123 L
123.802 204.647 L
124.591 203.194 L
125.38 201.764 L
126.168 200.357 L
126.957 198.973 L
127.746 197.611 L
128.534 196.272 L
129.323 194.955 L
130.112 193.661 L
130.9 192.389 L
131.689 191.139 L
132.477 189.912 L
133.266 188.707 L
134.055 187.523 L
134.843 186.362 L
135.632 185.223 L
136.421 184.105 L
137.209 183.009 L
137.998 181.935 L
138.786 180.882 L
139.575 179.851 L
140.364 178.84 L
141.152 177.839 L
141.941 176.843 L
142.73 175.853 L
143.518 174.868 L
144.307 173.889 L
145.095 172.916 L
145.884 171.948 L
146.673 170.986 L
147.461 170.03 L
148.25 169.079 L
149.039 168.133 L
149.827 167.194 L
150.616 166.26 L
151.405 165.331 L
152.193 164.409 L
152.982 163.491 L
153.77 162.58 L
154.559 161.674 L
155.348 160.774 L
156.136 159.879 L
156.925 158.99 L
157.714 158.107 L
158.502 157.229 L
159.291 156.357 L
160.079 155.491 L
160.868 154.63 L
161.657 153.775 L
162.445 152.926 L
163.234 152.082 L
164.023 151.244 L
164.811 150.411 L
165.6 149.585 L
166.388 148.764 L
167.177 147.948 L
167.966 147.139 L
168.754 146.335 L
169.543 145.536 L
170.332 144.744 L
171.12 143.957 L
171.909 143.175 L
172.698 142.4 L
173.486 141.63 L
174.275 140.866 L
175.063 140.108 L
175.852 139.355 L
176.641 138.608 L
177.429 137.866 L
178.218 137.131 L
179.007 136.401 L
179.795 135.677 L
180.584 134.958 L
181.372 134.246 L
182.161 133.539 L
182.95 132.837 L
183.738 132.142 L
184.527 131.452 L
185.316 130.768 L
186.104 130.09 L
186.893 129.417 L
187.682 128.75 L
188.47 128.089 L
189.259 127.434 L
190.047 126.784 L
190.836 126.14 L
191.625 125.502 L
192.413 124.87 L
193.202 124.243 L
193.991 123.622 L
194.779 123.007 L
195.568 122.398 L
196.356 121.795 L
197.145 121.197 L
197.934 120.605 L
198.722 120.019 L
199.511 119.438 L
200.3 118.864 L
201.088 118.295 L
201.877 117.732 L
202.665 117.175 L
203.454 116.623 L
204.243 116.078 L
205.031 115.538 L
205.82 115.004 L
206.609 114.475 L
207.397 113.953 L
208.186 113.437 L
208.975 112.926 L
209.763 112.421 L
210.552 111.922 L
211.34 111.428 L
212.129 110.941 L
212.918 110.459 L
213.706 109.983 L
214.495 109.513 L
215.284 109.049 L
216.072 108.59 L
216.861 108.138 L
217.649 107.691 L
218.438 107.25 L
219.227 106.815 L
220.015 106.386 L
220.804 105.963 L
221.593 105.546 L
222.381 105.134 L
223.17 104.728 L
223.958 104.328 L
224.747 103.934 L
225.536 103.546 L
226.324 103.164 L
227.113 102.788 L
227.902 102.417 L
228.69 102.053 L
229.479 101.694 L
230.268 101.341 L
231.056 100.994 L
231.845 100.653 L
232.633 100.315 L
233.422 99.978 L
234.211 99.64 L
234.999 99.304 L
235.788 98.968 L
236.577 98.632 L
237.365 98.297 L
238.154 97.963 L
238.942 97.628 L
239.731 97.295 L
240.52 96.961 L
241.308 96.629 L
242.097 96.296 L
242.886 95.965 L
243.674 95.633 L
244.463 95.303 L
245.251 94.973 L
246.04 94.643 L
246.829 94.314 L
247.617 93.985 L
248.406 93.657 L
249.195 93.329 L
249.983 93.002 L
250.772 92.675 L
251.561 92.349 L
252.349 92.024 L
253.138 91.699 L
253.926 91.375 L
254.715 91.051 L
255.504 90.727 L
256.292 90.404 L
257.081 90.082 L
257.87 89.76 L
258.658 89.439 L
259.447 89.119 L
260.235 88.799 L
261.024 88.479 L
261.813 88.16 L
262.601 87.842 L
263.39 87.524 L
264.179 87.207 L
264.967 86.891 L
265.756 86.575 L
266.544 86.259 L
267.333 85.945 L
268.122 85.63 L
268.91 85.317 L
269.699 85.004 L
270.488 84.691 L
271.276 84.38 L
272.065 84.069 L
272.854 83.758 L
273.642 83.448 L
274.431 83.139 L
275.219 82.83 L
276.008 82.522 L
276.797 82.215 L
277.585 81.908 L
278.374 81.602 L
279.163 81.296 L
279.951 80.992 L
280.74 80.687 L
281.528 80.384 L
282.317 80.081 L
283.106 79.778 L
283.894 79.477 L
284.683 79.176 L
285.472 78.876 L
286.26 78.576 L
287.049 78.277 L
287.838 77.979 L
288.626 77.681 L
289.415 77.385 L
290.203 77.089 L
290.992 76.793 L
291.781 76.498 L
292.569 76.204 L
293.358 75.911 L
294.147 75.618 L
294.935 75.326 L
295.724 75.035 L
296.512 74.744 L
297.301 74.454 L
298.09 74.165 L
298.878 73.876 L
299.667 73.589 L
300.456 73.302 L
301.244 73.015 L
302.033 72.73 L
302.822 72.445 L
303.61 72.161 L
304.399 71.878 L
305.187 71.595 L
305.976 71.314 L
306.765 71.032 L
307.553 70.752 L
308.342 70.472 L
309.131 70.194 L
309.919 69.916 L
310.708 69.638 L
311.496 69.362 L
312.285 69.086 L
313.074 68.811 L
313.862 68.537 L
314.651 68.264 L
315.44 67.991 L
316.228 67.719 L
317.017 67.448 L
317.805 67.178 L
318.594 66.909 L
319.383 66.64 L
320.171 66.372 L
320.96 66.105 L
321.749 65.839 L
322.537 65.574 L
323.326 65.309 L
324.115 65.045 L
324.903 64.782 L
325.692 64.52 L
326.48 64.259 L
327.269 63.999 L
328.058 63.739 L
328.846 63.48 L
329.635 63.222 L
330.424 62.965 L
331.212 62.709 L
332.001 62.454 L
332.789 62.199 L
333.578 61.946 L
334.367 61.693 L
335.155 61.441 L
335.944 61.19 L
336.733 60.94 L
337.521 60.691 L
338.31 60.442 L
339.098 60.194 L
339.887 59.948 L
340.676 59.702 L
341.464 59.457 L
342.253 59.213 L
343.042 58.97 L
343.83 58.728 L
344.619 58.487 L
345.408 58.246 L
346.196 58.007 L
346.985 57.768 L
347.773 57.531 L
348.562 57.294 L
349.351 57.058 L
350.139 56.823 L
350.928 56.589 L
351.717 56.356 L
352.505 56.124 L
353.294 55.893 L
354.082 55.663 L
354.871 55.433 L
355.66 55.205 L
356.448 54.978 L
357.237 54.751 L
358.026 54.526 L
358.814 54.301 L
359.603 54.078 L
360.391 53.855 L
361.18 53.634 L
361.969 53.413 L
362.757 53.193 L
363.546 52.975 L
364.335 52.757 L
365.123 52.54 L
365.912 52.325 L
366.701 52.11 L
367.489 51.896 L
368.278 51.683 L
369.066 51.471 L
369.855 51.261 L
370.644 51.051 L
371.432 50.842 L
372.221 50.635 L
373.01 50.428 L
373.798 50.222 L
374.587 50.018 L
375.375 49.814 L
376.164 49.611 L
376.953 49.41 L
377.741 49.209 L
378.53 49.01 L
379.319 48.811 L
380.107 48.614 L
380.896 48.418 L
381.684 48.222 L
382.473 48.028 L
383.262 47.835 L
384.05 47.643 L
384.839 47.452 L
385.628 47.262 L
386.416 47.073 L
387.205 46.885 L
387.993 46.698 L
388.782 46.512 L
389.571 46.328 L
390.359 46.144 L
391.148 45.962 L
391.937 45.78 L
392.725 45.6 L
393.514 45.421 L
394.303 45.243 L
395.091 45.066 L
395.88 44.89 L
396.668 44.715 L
397.457 44.542 L
398.246 44.369 L
399.034 44.198 L
399.823 44.027 L
400.612 43.858 L
401.4 43.69 L
402.189 43.523 L
402.977 43.358 L
403.766 43.193 L
404.555 43.03 L
405.343 42.867 L
406.132 42.706 L
406.921 42.546 L
407.709 42.387 L
408.498 42.23 L
409.287 42.073 L
410.075 41.918 L
410.864 41.763 L
411.652 41.61 L
412.441 41.459 L
413.23 41.308 L
414.018 41.158 L
414.807 41.01 L
415.596 40.863 L
416.384 40.717 L
417.173 40.572 L
417.961 40.429 L
418.75 40.286 L
419.539 40.145 L
420.327 40.005 L
421.116 39.866 L
421.905 39.729 L
422.693 39.593 L
423.482 39.457 L
424.27 39.324 L
425.059 39.191 L
425.848 39.06 L
426.636 38.929 L
427.425 38.8 L
428.214 38.673 L
429.002 38.546 L
429.791 38.421 L
430.58 38.297 L
431.368 38.174 L
432.157 38.053 L
432.945 37.932 L
433.734 37.814 L
434.523 37.696 L
435.311 37.579 L
436.1 37.464 L
436.889 37.35 L
437.677 37.238 L
438.466 37.126 L
439.254 37.016 L
440.043 36.907 L
440.832 36.8 L
441.62 36.694 L
442.409 36.589 L
443.198 36.485 L
443.986 36.383 L
444.775 36.282 L
445.564 36.182 L
446.352 36.084 L
447.141 35.986 L
447.929 35.891 L
448.718 35.796 L
449.507 35.703 L
450.295 35.611 L
451.084 35.521 L
451.873 35.432 L
452.661 35.344 L
453.45 35.257 L
454.238 35.172 L
455.027 35.088 L
455.816 35.006 L
456.604 34.925 L
457.393 34.845 L
458.182 34.767 L
458.97 34.69 L
459.759 34.614 L
460.547 34.54 L
461.336 34.467 L
462.125 34.395 L
462.913 34.325 L
463.702 34.256 L
464.491 34.189 L
465.279 34.123 L
466.068 34.058 L
466.857 33.995 L
467.645 33.933 L
468.434 33.872 L
469.222 33.813 L
470.011 33.756 L
470.8 33.699 L
471.588 33.645 L
472.377 33.591 L
473.166 33.539 L
473.954 33.489 L
474.743 33.44 L
475.531 33.392 L
476.32 33.345 L
477.109 33.301 L
477.897 33.257 L
478.686 33.215 L
479.475 33.174 L
480.263 33.135 L
481.052 33.098 L
481.84 33.061 L
482.629 33.027 L
483.418 32.993 L
484.206 32.961 L
484.995 32.931 L
485.784 32.902 L
486.572 32.875 L
487.361 32.849 L
488.15 32.824 L
488.938 32.801 L
489.727 32.78 L
490.515 32.76 L
491.304 32.741 L
492.093 32.724 L
492.881 32.708 L
493.67 32.694 L
494.459 32.682 L
495.247 32.671 L
496.036 32.661 L
496.824 32.653 L
497.613 32.646 L
498.402 32.641 L
499.19 32.638 L
499.979 32.636 L
S
GR
GS
0.929 0.694 0.125 RC
1 LJ
0.5 LW
N
73 374 M
73.789 369.752 L
74.577 365.514 L
75.366 361.291 L
76.155 357.088 L
76.943 352.908 L
77.732 348.757 L
78.52 344.639 L
79.309 340.56 L
80.098 336.522 L
80.886 332.532 L
81.675 328.594 L
82.464 324.713 L
83.252 320.892 L
84.041 317.138 L
84.829 313.453 L
85.618 309.844 L
86.407 306.314 L
87.195 302.869 L
87.984 299.512 L
88.773 296.249 L
89.561 293.085 L
90.35 290.023 L
91.138 287.068 L
91.927 284.226 L
92.716 281.5 L
93.504 278.896 L
94.293 276.417 L
95.082 274.009 L
95.87 271.628 L
96.659 269.276 L
97.448 266.951 L
98.236 264.654 L
99.025 262.385 L
99.813 260.143 L
100.602 257.929 L
101.391 255.742 L
102.179 253.582 L
102.968 251.449 L
103.757 249.344 L
104.545 247.265 L
105.334 245.213 L
106.122 243.187 L
106.911 241.189 L
107.7 239.216 L
108.488 237.271 L
109.277 235.351 L
110.066 233.458 L
110.854 231.59 L
111.643 229.749 L
112.431 227.933 L
113.22 226.144 L
114.009 224.379 L
114.797 222.641 L
115.586 220.928 L
116.375 219.24 L
117.163 217.577 L
117.952 215.94 L
118.741 214.328 L
119.529 212.74 L
120.318 211.178 L
121.106 209.64 L
121.895 208.126 L
122.684 206.638 L
123.472 205.173 L
124.261 203.733 L
125.05 202.317 L
125.838 200.926 L
126.627 199.558 L
127.415 198.214 L
128.204 196.894 L
128.993 195.598 L
129.781 194.325 L
130.57 193.075 L
131.359 191.85 L
132.147 190.647 L
132.936 189.467 L
133.725 188.311 L
134.513 187.177 L
135.302 186.067 L
136.09 184.979 L
136.879 183.913 L
137.668 182.858 L
138.456 181.809 L
139.245 180.767 L
140.034 179.73 L
140.822 178.699 L
141.611 177.675 L
142.399 176.656 L
143.188 175.644 L
143.977 174.637 L
144.765 173.637 L
145.554 172.643 L
146.343 171.655 L
147.131 170.673 L
147.92 169.697 L
148.708 168.727 L
149.497 167.763 L
150.286 166.805 L
151.074 165.854 L
151.863 164.908 L
152.652 163.969 L
153.44 163.035 L
154.229 162.108 L
155.018 161.187 L
155.806 160.272 L
156.595 159.364 L
157.383 158.461 L
158.172 157.564 L
158.961 156.674 L
159.749 155.79 L
160.538 154.911 L
161.327 154.04 L
162.115 153.174 L
162.904 152.314 L
163.692 151.461 L
164.481 150.613 L
165.27 149.772 L
166.058 148.937 L
166.847 148.108 L
167.636 147.285 L
168.424 146.469 L
169.213 145.658 L
170.001 144.854 L
170.79 144.056 L
171.579 143.264 L
172.367 142.479 L
173.156 141.699 L
173.945 140.926 L
174.733 140.159 L
175.522 139.398 L
176.311 138.643 L
177.099 137.895 L
177.888 137.152 L
178.676 136.416 L
179.465 135.687 L
180.254 134.963 L
181.042 134.246 L
181.831 133.534 L
182.62 132.83 L
183.408 132.131 L
184.197 131.438 L
184.985 130.752 L
185.774 130.072 L
186.563 129.398 L
187.351 128.731 L
188.14 128.07 L
188.929 127.415 L
189.717 126.766 L
190.506 126.124 L
191.294 125.487 L
192.083 124.858 L
192.872 124.234 L
193.66 123.616 L
194.449 123.005 L
195.238 122.401 L
196.026 121.802 L
196.815 121.21 L
197.604 120.624 L
198.392 120.044 L
199.181 119.471 L
199.969 118.904 L
200.758 118.343 L
201.547 117.788 L
202.335 117.24 L
203.124 116.699 L
203.913 116.163 L
204.701 115.634 L
205.49 115.111 L
206.278 114.594 L
207.067 114.084 L
207.856 113.58 L
208.644 113.083 L
209.433 112.592 L
210.222 112.107 L
211.01 111.628 L
211.799 111.156 L
212.588 110.69 L
213.376 110.231 L
214.165 109.778 L
214.953 109.331 L
215.742 108.89 L
216.531 108.456 L
217.319 108.029 L
218.108 107.607 L
218.897 107.192 L
219.685 106.784 L
220.474 106.382 L
221.262 105.986 L
222.051 105.597 L
222.84 105.214 L
223.628 104.837 L
224.417 104.467 L
225.206 104.103 L
225.994 103.742 L
226.783 103.382 L
227.571 103.023 L
228.36 102.663 L
229.149 102.305 L
229.937 101.947 L
230.726 101.589 L
231.515 101.232 L
232.303 100.875 L
233.092 100.519 L
233.881 100.163 L
234.669 99.808 L
235.458 99.454 L
236.246 99.1 L
237.035 98.747 L
237.824 98.394 L
238.612 98.041 L
239.401 97.69 L
240.19 97.338 L
240.978 96.988 L
241.767 96.638 L
242.555 96.288 L
243.344 95.939 L
244.133 95.591 L
244.921 95.243 L
245.71 94.896 L
246.499 94.55 L
247.287 94.204 L
248.076 93.858 L
248.864 93.513 L
249.653 93.169 L
250.442 92.826 L
251.23 92.483 L
252.019 92.14 L
252.808 91.799 L
253.596 91.458 L
254.385 91.117 L
255.174 90.778 L
255.962 90.439 L
256.751 90.1 L
257.539 89.762 L
258.328 89.425 L
259.117 89.089 L
259.905 88.753 L
260.694 88.417 L
261.483 88.083 L
262.271 87.749 L
263.06 87.416 L
263.848 87.083 L
264.637 86.751 L
265.426 86.42 L
266.214 86.09 L
267.003 85.76 L
267.792 85.431 L
268.58 85.103 L
269.369 84.775 L
270.158 84.448 L
270.946 84.122 L
271.735 83.796 L
272.523 83.471 L
273.312 83.147 L
274.101 82.824 L
274.889 82.501 L
275.678 82.18 L
276.467 81.859 L
277.255 81.538 L
278.044 81.219 L
278.832 80.9 L
279.621 80.582 L
280.41 80.264 L
281.198 79.948 L
281.987 79.632 L
282.776 79.317 L
283.564 79.003 L
284.353 78.689 L
285.141 78.377 L
285.93 78.065 L
286.719 77.754 L
287.507 77.443 L
288.296 77.134 L
289.085 76.825 L
289.873 76.517 L
290.662 76.21 L
291.451 75.904 L
292.239 75.599 L
293.028 75.294 L
293.816 74.99 L
294.605 74.687 L
295.394 74.385 L
296.182 74.084 L
296.971 73.783 L
297.76 73.484 L
298.548 73.185 L
299.337 72.887 L
300.125 72.59 L
300.914 72.294 L
301.703 71.999 L
302.491 71.705 L
303.28 71.411 L
304.069 71.119 L
304.857 70.827 L
305.646 70.536 L
306.434 70.246 L
307.223 69.957 L
308.012 69.669 L
308.8 69.382 L
309.589 69.095 L
310.378 68.81 L
311.166 68.525 L
311.955 68.242 L
312.744 67.959 L
313.532 67.677 L
314.321 67.397 L
315.109 67.117 L
315.898 66.838 L
316.687 66.56 L
317.475 66.283 L
318.264 66.007 L
319.053 65.732 L
319.841 65.458 L
320.63 65.184 L
321.418 64.912 L
322.207 64.641 L
322.996 64.371 L
323.784 64.101 L
324.573 63.833 L
325.362 63.566 L
326.15 63.299 L
326.939 63.034 L
327.727 62.77 L
328.516 62.506 L
329.305 62.244 L
330.093 61.983 L
330.882 61.722 L
331.671 61.463 L
332.459 61.205 L
333.248 60.948 L
334.037 60.691 L
334.825 60.436 L
335.614 60.182 L
336.402 59.929 L
337.191 59.677 L
337.98 59.426 L
338.768 59.176 L
339.557 58.927 L
340.346 58.679 L
341.134 58.433 L
341.923 58.187 L
342.711 57.942 L
343.5 57.699 L
344.289 57.457 L
345.077 57.215 L
345.866 56.975 L
346.655 56.736 L
347.443 56.498 L
348.232 56.261 L
349.021 56.025 L
349.809 55.79 L
350.598 55.557 L
351.386 55.324 L
352.175 55.093 L
352.964 54.862 L
353.752 54.633 L
354.541 54.405 L
355.33 54.178 L
356.118 53.953 L
356.907 53.728 L
357.695 53.505 L
358.484 53.283 L
359.273 53.061 L
360.061 52.841 L
360.85 52.623 L
361.639 52.405 L
362.427 52.189 L
363.216 51.973 L
364.004 51.759 L
364.793 51.546 L
365.582 51.335 L
366.37 51.124 L
367.159 50.915 L
367.948 50.707 L
368.736 50.5 L
369.525 50.294 L
370.314 50.09 L
371.102 49.886 L
371.891 49.684 L
372.679 49.484 L
373.468 49.284 L
374.257 49.086 L
375.045 48.889 L
375.834 48.693 L
376.623 48.498 L
377.411 48.305 L
378.2 48.113 L
378.988 47.922 L
379.777 47.732 L
380.566 47.544 L
381.354 47.357 L
382.143 47.171 L
382.932 46.986 L
383.72 46.803 L
384.509 46.621 L
385.297 46.441 L
386.086 46.261 L
386.875 46.083 L
387.663 45.906 L
388.452 45.731 L
389.241 45.557 L
390.029 45.384 L
390.818 45.212 L
391.607 45.042 L
392.395 44.873 L
393.184 44.705 L
393.972 44.539 L
394.761 44.374 L
395.55 44.211 L
396.338 44.049 L
397.127 43.888 L
397.916 43.728 L
398.704 43.57 L
399.493 43.413 L
400.281 43.258 L
401.07 43.104 L
401.859 42.951 L
402.647 42.8 L
403.436 42.65 L
404.225 42.501 L
405.013 42.354 L
405.802 42.208 L
406.591 42.064 L
407.379 41.921 L
408.168 41.779 L
408.956 41.639 L
409.745 41.5 L
410.534 41.363 L
411.322 41.227 L
412.111 41.092 L
412.9 40.959 L
413.688 40.827 L
414.477 40.697 L
415.265 40.568 L
416.054 40.441 L
416.843 40.315 L
417.631 40.191 L
418.42 40.068 L
419.209 39.946 L
419.997 39.826 L
420.786 39.708 L
421.574 39.59 L
422.363 39.475 L
423.152 39.361 L
423.94 39.248 L
424.729 39.137 L
425.518 39.027 L
426.306 38.919 L
427.095 38.812 L
427.884 38.707 L
428.672 38.603 L
429.461 38.501 L
430.249 38.4 L
431.038 38.301 L
431.827 38.203 L
432.615 38.107 L
433.404 38.013 L
434.193 37.919 L
434.981 37.828 L
435.77 37.738 L
436.558 37.649 L
437.347 37.562 L
438.136 37.477 L
438.924 37.393 L
439.713 37.311 L
440.502 37.231 L
441.29 37.151 L
442.079 37.074 L
442.867 36.998 L
443.656 36.924 L
444.445 36.851 L
445.233 36.78 L
446.022 36.71 L
446.811 36.642 L
447.599 36.576 L
448.388 36.511 L
449.177 36.447 L
449.965 36.386 L
450.754 36.326 L
451.542 36.268 L
452.331 36.211 L
453.12 36.156 L
453.908 36.102 L
454.697 36.05 L
455.486 36 L
456.274 35.952 L
457.063 35.905 L
457.851 35.86 L
458.64 35.816 L
459.429 35.774 L
460.217 35.734 L
461.006 35.695 L
461.795 35.658 L
462.583 35.623 L
463.372 35.59 L
464.16 35.558 L
464.949 35.527 L
465.738 35.499 L
466.526 35.472 L
467.315 35.447 L
468.104 35.424 L
468.892 35.402 L
469.681 35.382 L
470.47 35.364 L
471.258 35.347 L
472.047 35.332 L
472.835 35.319 L
473.624 35.308 L
474.413 35.298 L
475.201 35.29 L
475.99 35.284 L
476.779 35.28 L
477.567 35.277 L
478.356 35.276 L
S
GR
GS
0.494 0.184 0.557 RC
1 LJ
0.5 LW
N
74.042 367.273 M
74.831 363.199 L
75.619 359.135 L
76.408 355.084 L
77.197 351.05 L
77.985 347.038 L
78.774 343.051 L
79.563 339.094 L
80.351 335.171 L
81.14 331.287 L
81.928 327.444 L
82.717 323.648 L
83.506 319.903 L
84.294 316.212 L
85.083 312.58 L
85.872 309.012 L
86.66 305.51 L
87.449 302.08 L
88.237 298.726 L
89.026 295.451 L
89.815 292.26 L
90.603 289.158 L
91.392 286.147 L
92.181 283.232 L
92.969 280.419 L
93.758 277.709 L
94.547 275.109 L
95.335 272.622 L
96.124 270.251 L
96.912 267.948 L
97.701 265.671 L
98.49 263.42 L
99.278 261.194 L
100.067 258.994 L
100.856 256.819 L
101.644 254.669 L
102.433 252.545 L
103.221 250.446 L
104.01 248.373 L
104.799 246.324 L
105.587 244.3 L
106.376 242.301 L
107.165 240.327 L
107.953 238.377 L
108.742 236.452 L
109.53 234.551 L
110.319 232.675 L
111.108 230.823 L
111.896 228.996 L
112.685 227.192 L
113.474 225.413 L
114.262 223.657 L
115.051 221.926 L
115.84 220.218 L
116.628 218.534 L
117.417 216.874 L
118.205 215.237 L
118.994 213.624 L
119.783 212.034 L
120.571 210.467 L
121.36 208.923 L
122.149 207.403 L
122.937 205.905 L
123.726 204.431 L
124.514 202.979 L
125.303 201.55 L
126.092 200.144 L
126.88 198.76 L
127.669 197.399 L
128.458 196.06 L
129.246 194.744 L
130.035 193.45 L
130.823 192.177 L
131.612 190.927 L
132.401 189.699 L
133.189 188.493 L
133.978 187.309 L
134.767 186.146 L
135.555 185.005 L
136.344 183.885 L
137.133 182.787 L
137.921 181.711 L
138.71 180.655 L
139.498 179.621 L
140.287 178.608 L
141.076 177.607 L
141.864 176.612 L
142.653 175.622 L
143.442 174.637 L
144.23 173.659 L
145.019 172.685 L
145.807 171.717 L
146.596 170.755 L
147.385 169.798 L
148.173 168.847 L
148.962 167.901 L
149.751 166.961 L
150.539 166.026 L
151.328 165.097 L
152.117 164.173 L
152.905 163.255 L
153.694 162.342 L
154.482 161.435 L
155.271 160.534 L
156.06 159.638 L
156.848 158.748 L
157.637 157.863 L
158.426 156.984 L
159.214 156.11 L
160.003 155.242 L
160.791 154.38 L
161.58 153.523 L
162.369 152.672 L
163.157 151.826 L
163.946 150.986 L
164.735 150.151 L
165.523 149.322 L
166.312 148.499 L
167.1 147.682 L
167.889 146.87 L
168.678 146.063 L
169.466 145.262 L
170.255 144.467 L
171.044 143.678 L
171.832 142.894 L
172.621 142.116 L
173.41 141.343 L
174.198 140.576 L
174.987 139.815 L
175.775 139.059 L
176.564 138.31 L
177.353 137.565 L
178.141 136.827 L
178.93 136.094 L
179.719 135.366 L
180.507 134.645 L
181.296 133.929 L
182.084 133.219 L
182.873 132.515 L
183.662 131.816 L
184.45 131.123 L
185.239 130.436 L
186.028 129.754 L
186.816 129.078 L
187.605 128.408 L
188.393 127.743 L
189.182 127.085 L
189.971 126.432 L
190.759 125.784 L
191.548 125.143 L
192.337 124.507 L
193.125 123.877 L
193.914 123.253 L
194.703 122.634 L
195.491 122.022 L
196.28 121.415 L
197.068 120.814 L
197.857 120.218 L
198.646 119.628 L
199.434 119.045 L
200.223 118.467 L
201.012 117.894 L
201.8 117.328 L
202.589 116.767 L
203.377 116.212 L
204.166 115.663 L
204.955 115.12 L
205.743 114.583 L
206.532 114.051 L
207.321 113.525 L
208.109 113.005 L
208.898 112.491 L
209.686 111.983 L
210.475 111.48 L
211.264 110.984 L
212.052 110.493 L
212.841 110.008 L
213.63 109.529 L
214.418 109.056 L
215.207 108.588 L
215.996 108.127 L
216.784 107.671 L
217.573 107.222 L
218.361 106.778 L
219.15 106.34 L
219.939 105.908 L
220.727 105.482 L
221.516 105.061 L
222.305 104.647 L
223.093 104.239 L
223.882 103.836 L
224.67 103.439 L
225.459 103.049 L
226.248 102.664 L
227.036 102.285 L
227.825 101.912 L
228.614 101.545 L
229.402 101.184 L
230.191 100.829 L
230.98 100.48 L
231.768 100.136 L
232.557 99.799 L
233.345 99.465 L
234.134 99.132 L
234.923 98.799 L
235.711 98.467 L
236.5 98.135 L
237.289 97.803 L
238.077 97.472 L
238.866 97.142 L
239.654 96.811 L
240.443 96.482 L
241.232 96.153 L
242.02 95.824 L
242.809 95.496 L
243.598 95.168 L
244.386 94.841 L
245.175 94.515 L
245.963 94.189 L
246.752 93.863 L
247.541 93.538 L
248.329 93.213 L
249.118 92.889 L
249.907 92.566 L
250.695 92.243 L
251.484 91.92 L
252.273 91.598 L
253.061 91.277 L
253.85 90.956 L
254.638 90.636 L
255.427 90.316 L
256.216 89.997 L
257.004 89.678 L
257.793 89.36 L
258.582 89.042 L
259.37 88.725 L
260.159 88.408 L
260.947 88.093 L
261.736 87.777 L
262.525 87.462 L
263.313 87.148 L
264.102 86.834 L
264.891 86.521 L
265.679 86.209 L
266.468 85.897 L
267.257 85.585 L
268.045 85.275 L
268.834 84.964 L
269.622 84.655 L
270.411 84.346 L
271.2 84.037 L
271.988 83.729 L
272.777 83.422 L
273.566 83.116 L
274.354 82.81 L
275.143 82.504 L
275.931 82.2 L
276.72 81.895 L
277.509 81.592 L
278.297 81.289 L
279.086 80.987 L
279.875 80.685 L
280.663 80.384 L
281.452 80.084 L
282.24 79.784 L
283.029 79.485 L
283.818 79.186 L
284.606 78.888 L
285.395 78.591 L
286.184 78.295 L
286.972 77.999 L
287.761 77.704 L
288.549 77.409 L
289.338 77.115 L
290.127 76.822 L
290.915 76.529 L
291.704 76.237 L
292.493 75.946 L
293.281 75.656 L
294.07 75.366 L
294.859 75.077 L
295.647 74.788 L
296.436 74.5 L
297.224 74.213 L
298.013 73.927 L
298.802 73.641 L
299.59 73.356 L
300.379 73.072 L
301.168 72.788 L
301.956 72.505 L
302.745 72.223 L
303.533 71.942 L
304.322 71.661 L
305.111 71.381 L
305.899 71.102 L
306.688 70.823 L
307.477 70.545 L
308.265 70.268 L
309.054 69.992 L
309.842 69.716 L
310.631 69.441 L
311.42 69.167 L
312.208 68.893 L
312.997 68.621 L
313.786 68.349 L
314.574 68.078 L
315.363 67.807 L
316.152 67.538 L
316.94 67.269 L
317.729 67.001 L
318.517 66.733 L
319.306 66.467 L
320.095 66.201 L
320.883 65.936 L
321.672 65.672 L
322.461 65.408 L
323.249 65.146 L
324.038 64.884 L
324.826 64.623 L
325.615 64.362 L
326.404 64.103 L
327.192 63.844 L
327.981 63.586 L
328.77 63.329 L
329.558 63.073 L
330.347 62.817 L
331.136 62.563 L
331.924 62.309 L
332.713 62.056 L
333.501 61.804 L
334.29 61.552 L
335.079 61.302 L
335.867 61.052 L
336.656 60.803 L
337.445 60.555 L
338.233 60.308 L
339.022 60.062 L
339.81 59.816 L
340.599 59.572 L
341.388 59.328 L
342.176 59.085 L
342.965 58.843 L
343.754 58.601 L
344.542 58.361 L
345.331 58.122 L
346.119 57.883 L
346.908 57.645 L
347.697 57.408 L
348.485 57.172 L
349.274 56.937 L
350.063 56.703 L
350.851 56.47 L
351.64 56.237 L
352.429 56.006 L
353.217 55.775 L
354.006 55.545 L
354.794 55.316 L
355.583 55.088 L
356.372 54.861 L
357.16 54.635 L
357.949 54.41 L
358.738 54.186 L
359.526 53.962 L
360.315 53.74 L
361.103 53.518 L
361.892 53.298 L
362.681 53.078 L
363.469 52.859 L
364.258 52.641 L
365.047 52.424 L
365.835 52.208 L
366.624 51.993 L
367.413 51.779 L
368.201 51.566 L
368.99 51.354 L
369.778 51.143 L
370.567 50.933 L
371.356 50.723 L
372.144 50.515 L
372.933 50.308 L
373.722 50.101 L
374.51 49.896 L
375.299 49.691 L
376.087 49.488 L
376.876 49.286 L
377.665 49.084 L
378.453 48.883 L
379.242 48.684 L
380.031 48.485 L
380.819 48.288 L
381.608 48.091 L
382.396 47.896 L
383.185 47.701 L
383.974 47.508 L
384.762 47.315 L
385.551 47.124 L
386.34 46.933 L
387.128 46.744 L
387.917 46.556 L
388.706 46.368 L
389.494 46.182 L
390.283 45.996 L
391.071 45.812 L
391.86 45.629 L
392.649 45.446 L
393.437 45.265 L
394.226 45.085 L
395.015 44.906 L
395.803 44.728 L
396.592 44.551 L
397.38 44.375 L
398.169 44.2 L
398.958 44.026 L
399.746 43.853 L
400.535 43.682 L
401.324 43.511 L
402.112 43.341 L
402.901 43.173 L
403.689 43.005 L
404.478 42.839 L
405.267 42.674 L
406.055 42.51 L
406.844 42.347 L
407.633 42.185 L
408.421 42.024 L
409.21 41.864 L
409.999 41.705 L
410.787 41.548 L
411.576 41.391 L
412.364 41.236 L
413.153 41.082 L
413.942 40.929 L
414.73 40.777 L
415.519 40.626 L
416.308 40.476 L
417.096 40.327 L
417.885 40.18 L
418.673 40.033 L
419.462 39.888 L
420.251 39.744 L
421.039 39.601 L
421.828 39.459 L
422.617 39.319 L
423.405 39.179 L
424.194 39.041 L
424.982 38.904 L
425.771 38.768 L
426.56 38.633 L
427.348 38.499 L
428.137 38.367 L
428.926 38.235 L
429.714 38.105 L
430.503 37.976 L
431.292 37.848 L
432.08 37.721 L
432.869 37.596 L
433.657 37.472 L
434.446 37.348 L
435.235 37.227 L
436.023 37.106 L
436.812 36.986 L
437.601 36.868 L
438.389 36.751 L
439.178 36.635 L
439.966 36.52 L
440.755 36.407 L
441.544 36.295 L
442.332 36.184 L
443.121 36.074 L
443.91 35.965 L
444.698 35.858 L
445.487 35.752 L
446.276 35.647 L
447.064 35.543 L
447.853 35.441 L
448.641 35.339 L
449.43 35.239 L
450.219 35.141 L
451.007 35.043 L
451.796 34.947 L
452.585 34.852 L
453.373 34.759 L
454.162 34.666 L
454.95 34.575 L
455.739 34.485 L
456.528 34.397 L
457.316 34.309 L
458.105 34.223 L
458.894 34.138 L
459.682 34.055 L
460.471 33.973 L
461.259 33.892 L
462.048 33.812 L
462.837 33.734 L
463.625 33.657 L
464.414 33.581 L
465.203 33.507 L
465.991 33.433 L
466.78 33.362 L
467.569 33.291 L
468.357 33.222 L
469.146 33.154 L
469.934 33.087 L
470.723 33.022 L
471.512 32.958 L
472.3 32.896 L
473.089 32.834 L
473.878 32.774 L
474.666 32.716 L
475.455 32.659 L
476.243 32.603 L
477.032 32.548 L
477.821 32.495 L
478.609 32.443 L
479.398 32.393 L
480.187 32.343 L
480.975 32.296 L
481.764 32.249 L
482.552 32.204 L
483.341 32.16 L
484.13 32.118 L
484.918 32.077 L
485.707 32.038 L
486.496 31.999 L
487.284 31.963 L
488.073 31.927 L
488.862 31.893 L
489.65 31.86 L
490.439 31.829 L
491.227 31.799 L
492.016 31.771 L
492.805 31.744 L
493.593 31.718 L
494.382 31.694 L
495.171 31.671 L
495.959 31.65 L
496.748 31.63 L
497.536 31.611 L
498.325 31.594 L
499.114 31.578 L
499.902 31.564 L
500.691 31.551 L
501.48 31.54 L
502.268 31.53 L
503.057 31.521 L
503.845 31.514 L
504.634 31.508 L
505.423 31.504 L
506.211 31.501 L
507 31.5 L
S
GR
GS
0.467 0.675 0.188 RC
[10 6] 0 setdash
2 LJ
0.5 LW
N
73.472 371.765 M
74.261 367.573 L
75.05 363.39 L
75.838 359.222 L
76.627 355.073 L
77.415 350.947 L
78.204 346.848 L
78.993 342.783 L
79.781 338.753 L
80.57 334.765 L
81.359 330.823 L
82.147 326.931 L
82.936 323.093 L
83.724 319.314 L
84.513 315.599 L
85.302 311.952 L
86.09 308.377 L
86.879 304.879 L
87.668 301.462 L
88.456 298.131 L
89.245 294.89 L
90.034 291.744 L
90.822 288.697 L
91.611 285.754 L
92.399 282.919 L
93.188 280.196 L
93.977 277.591 L
94.765 275.106 L
95.554 272.721 L
96.343 270.366 L
97.131 268.038 L
97.92 265.738 L
98.708 263.464 L
99.497 261.218 L
100.286 258.998 L
101.074 256.805 L
101.863 254.639 L
102.652 252.5 L
103.44 250.387 L
104.229 248.3 L
105.017 246.24 L
105.806 244.206 L
106.595 242.198 L
107.383 240.216 L
108.172 238.26 L
108.961 236.33 L
109.749 234.425 L
110.538 232.546 L
111.327 230.693 L
112.115 228.865 L
112.904 227.063 L
113.692 225.285 L
114.481 223.533 L
115.27 221.806 L
116.058 220.104 L
116.847 218.427 L
117.636 216.774 L
118.424 215.146 L
119.213 213.543 L
120.001 211.964 L
120.79 210.41 L
121.579 208.88 L
122.367 207.374 L
123.156 205.892 L
123.945 204.434 L
124.733 203 L
125.522 201.59 L
126.31 200.204 L
127.099 198.841 L
127.888 197.502 L
128.676 196.186 L
129.465 194.893 L
130.254 193.624 L
131.042 192.377 L
131.831 191.154 L
132.62 189.954 L
133.408 188.777 L
134.197 187.622 L
134.985 186.49 L
135.774 185.381 L
136.563 184.294 L
137.351 183.229 L
138.14 182.186 L
138.929 181.151 L
139.717 180.122 L
140.506 179.099 L
141.294 178.082 L
142.083 177.071 L
142.872 176.066 L
143.66 175.067 L
144.449 174.074 L
145.238 173.087 L
146.026 172.105 L
146.815 171.13 L
147.603 170.161 L
148.392 169.197 L
149.181 168.24 L
149.969 167.288 L
150.758 166.343 L
151.547 165.403 L
152.335 164.469 L
153.124 163.541 L
153.913 162.62 L
154.701 161.704 L
155.49 160.794 L
156.278 159.89 L
157.067 158.992 L
157.856 158.1 L
158.644 157.214 L
159.433 156.334 L
160.222 155.461 L
161.01 154.592 L
161.799 153.731 L
162.587 152.874 L
163.376 152.024 L
164.165 151.18 L
164.953 150.342 L
165.742 149.51 L
166.531 148.684 L
167.319 147.864 L
168.108 147.05 L
168.896 146.242 L
169.685 145.44 L
170.474 144.644 L
171.262 143.854 L
172.051 143.07 L
172.84 142.291 L
173.628 141.519 L
174.417 140.753 L
175.206 139.993 L
175.994 139.239 L
176.783 138.491 L
177.571 137.749 L
178.36 137.014 L
179.149 136.284 L
179.937 135.56 L
180.726 134.842 L
181.515 134.13 L
182.303 133.424 L
183.092 132.725 L
183.88 132.031 L
184.669 131.343 L
185.458 130.662 L
186.246 129.986 L
187.035 129.317 L
187.824 128.653 L
188.612 127.996 L
189.401 127.345 L
190.19 126.699 L
190.978 126.06 L
191.767 125.427 L
192.555 124.8 L
193.344 124.179 L
194.133 123.564 L
194.921 122.955 L
195.71 122.352 L
196.499 121.755 L
197.287 121.164 L
198.076 120.58 L
198.864 120.001 L
199.653 119.429 L
200.442 118.863 L
201.23 118.302 L
202.019 117.748 L
202.808 117.2 L
203.596 116.658 L
204.385 116.122 L
205.173 115.592 L
205.962 115.068 L
206.751 114.551 L
207.539 114.039 L
208.328 113.534 L
209.117 113.034 L
209.905 112.541 L
210.694 112.054 L
211.483 111.573 L
212.271 111.098 L
213.06 110.629 L
213.848 110.167 L
214.637 109.71 L
215.426 109.26 L
216.214 108.815 L
217.003 108.377 L
217.792 107.945 L
218.58 107.519 L
219.369 107.099 L
220.157 106.686 L
220.946 106.278 L
221.735 105.877 L
222.523 105.481 L
223.312 105.092 L
224.101 104.709 L
224.889 104.332 L
225.678 103.962 L
226.466 103.597 L
227.255 103.239 L
228.044 102.885 L
228.832 102.532 L
229.621 102.179 L
230.41 101.826 L
231.198 101.475 L
231.987 101.123 L
232.776 100.772 L
233.564 100.422 L
234.353 100.072 L
235.141 99.722 L
235.93 99.373 L
236.719 99.025 L
237.507 98.677 L
238.296 98.33 L
239.085 97.983 L
239.873 97.637 L
240.662 97.291 L
241.45 96.946 L
242.239 96.601 L
243.028 96.257 L
243.816 95.914 L
244.605 95.571 L
245.394 95.228 L
246.182 94.886 L
246.971 94.545 L
247.76 94.204 L
248.548 93.864 L
249.337 93.524 L
250.125 93.185 L
250.914 92.846 L
251.703 92.509 L
252.491 92.171 L
253.28 91.835 L
254.069 91.498 L
254.857 91.163 L
255.646 90.828 L
256.434 90.494 L
257.223 90.16 L
258.012 89.827 L
258.8 89.494 L
259.589 89.163 L
260.378 88.831 L
261.166 88.501 L
261.955 88.171 L
262.743 87.841 L
263.532 87.513 L
264.321 87.185 L
265.109 86.857 L
265.898 86.531 L
266.687 86.205 L
267.475 85.879 L
268.264 85.554 L
269.053 85.23 L
269.841 84.907 L
270.63 84.584 L
271.418 84.262 L
272.207 83.941 L
272.996 83.62 L
273.784 83.3 L
274.573 82.981 L
275.362 82.662 L
276.15 82.344 L
276.939 82.027 L
277.727 81.711 L
278.516 81.395 L
279.305 81.08 L
280.093 80.765 L
280.882 80.452 L
281.671 80.139 L
282.459 79.827 L
283.248 79.515 L
284.036 79.205 L
284.825 78.895 L
285.614 78.586 L
286.402 78.277 L
287.191 77.969 L
287.98 77.662 L
288.768 77.356 L
289.557 77.051 L
290.346 76.746 L
291.134 76.443 L
291.923 76.139 L
292.711 75.837 L
293.5 75.536 L
294.289 75.235 L
295.077 74.935 L
295.866 74.636 L
296.655 74.338 L
297.443 74.04 L
298.232 73.743 L
299.02 73.447 L
299.809 73.152 L
300.598 72.858 L
301.386 72.565 L
302.175 72.272 L
302.964 71.98 L
303.752 71.689 L
304.541 71.399 L
305.329 71.11 L
306.118 70.821 L
306.907 70.534 L
307.695 70.247 L
308.484 69.961 L
309.273 69.676 L
310.061 69.392 L
310.85 69.109 L
311.639 68.826 L
312.427 68.545 L
313.216 68.264 L
314.004 67.984 L
314.793 67.706 L
315.582 67.427 L
316.37 67.15 L
317.159 66.874 L
317.948 66.599 L
318.736 66.324 L
319.525 66.051 L
320.313 65.778 L
321.102 65.507 L
321.891 65.236 L
322.679 64.966 L
323.468 64.697 L
324.257 64.429 L
325.045 64.162 L
325.834 63.896 L
326.622 63.631 L
327.411 63.367 L
328.2 63.104 L
328.988 62.841 L
329.777 62.58 L
330.566 62.32 L
331.354 62.06 L
332.143 61.802 L
332.932 61.544 L
333.72 61.288 L
334.509 61.032 L
335.297 60.778 L
336.086 60.524 L
336.875 60.272 L
337.663 60.02 L
338.452 59.77 L
339.241 59.52 L
340.029 59.272 L
340.818 59.024 L
341.606 58.778 L
342.395 58.532 L
343.184 58.288 L
343.972 58.044 L
344.761 57.802 L
345.55 57.56 L
346.338 57.32 L
347.127 57.081 L
347.915 56.843 L
348.704 56.605 L
349.493 56.369 L
350.281 56.134 L
351.07 55.9 L
351.859 55.667 L
352.647 55.435 L
353.436 55.204 L
354.225 54.975 L
355.013 54.746 L
355.802 54.518 L
356.59 54.292 L
357.379 54.067 L
358.168 53.842 L
358.956 53.619 L
359.745 53.397 L
360.534 53.176 L
361.322 52.956 L
362.111 52.737 L
362.899 52.519 L
363.688 52.303 L
364.477 52.087 L
365.265 51.873 L
366.054 51.66 L
366.843 51.448 L
367.631 51.237 L
368.42 51.027 L
369.209 50.819 L
369.997 50.611 L
370.786 50.405 L
371.574 50.2 L
372.363 49.996 L
373.152 49.793 L
373.94 49.591 L
374.729 49.391 L
375.518 49.191 L
376.306 48.993 L
377.095 48.796 L
377.883 48.601 L
378.672 48.406 L
379.461 48.213 L
380.249 48.02 L
381.038 47.83 L
381.827 47.64 L
382.615 47.451 L
383.404 47.264 L
384.193 47.078 L
384.981 46.893 L
385.77 46.709 L
386.558 46.527 L
387.347 46.345 L
388.136 46.165 L
388.924 45.987 L
389.713 45.809 L
390.502 45.633 L
391.29 45.458 L
392.079 45.284 L
392.867 45.112 L
393.656 44.941 L
394.445 44.771 L
395.233 44.602 L
396.022 44.435 L
396.811 44.269 L
397.599 44.104 L
398.388 43.94 L
399.176 43.778 L
399.965 43.617 L
400.754 43.457 L
401.542 43.299 L
402.331 43.142 L
403.12 42.986 L
403.908 42.832 L
404.697 42.679 L
405.486 42.527 L
406.274 42.376 L
407.063 42.227 L
407.851 42.079 L
408.64 41.933 L
409.429 41.788 L
410.217 41.644 L
411.006 41.501 L
411.795 41.36 L
412.583 41.22 L
413.372 41.082 L
414.16 40.945 L
414.949 40.809 L
415.738 40.675 L
416.526 40.542 L
417.315 40.411 L
418.104 40.28 L
418.892 40.152 L
419.681 40.024 L
420.469 39.898 L
421.258 39.774 L
422.047 39.65 L
422.835 39.529 L
423.624 39.408 L
424.413 39.289 L
425.201 39.171 L
425.99 39.055 L
426.779 38.941 L
427.567 38.827 L
428.356 38.716 L
429.144 38.605 L
429.933 38.496 L
430.722 38.388 L
431.51 38.282 L
432.299 38.178 L
433.088 38.074 L
433.876 37.972 L
434.665 37.872 L
435.453 37.773 L
436.242 37.676 L
437.031 37.58 L
437.819 37.486 L
438.608 37.393 L
439.397 37.301 L
440.185 37.211 L
440.974 37.123 L
441.762 37.036 L
442.551 36.95 L
443.34 36.866 L
444.128 36.784 L
444.917 36.703 L
445.706 36.623 L
446.494 36.545 L
447.283 36.469 L
448.072 36.394 L
448.86 36.32 L
449.649 36.248 L
450.437 36.178 L
451.226 36.109 L
452.015 36.042 L
452.803 35.976 L
453.592 35.912 L
454.381 35.849 L
455.169 35.788 L
455.958 35.729 L
456.746 35.671 L
457.535 35.615 L
458.324 35.56 L
459.112 35.506 L
459.901 35.455 L
460.69 35.405 L
461.478 35.356 L
462.267 35.309 L
463.055 35.264 L
463.844 35.22 L
464.633 35.178 L
465.421 35.138 L
466.21 35.099 L
466.999 35.062 L
467.787 35.026 L
468.576 34.992 L
469.365 34.96 L
470.153 34.929 L
470.942 34.9 L
471.73 34.872 L
472.519 34.847 L
473.308 34.822 L
474.096 34.8 L
474.885 34.779 L
475.674 34.76 L
476.462 34.742 L
477.251 34.726 L
478.039 34.712 L
478.828 34.699 L
479.617 34.688 L
480.405 34.679 L
481.194 34.672 L
481.983 34.666 L
482.771 34.661 L
483.56 34.659 L
S
GR
GS
0.302 0.745 0.933 RC
[10 6] 0 setdash
2 LJ
0.5 LW
N
73.378 372.23 M
74.167 368.028 L
74.955 363.835 L
75.744 359.657 L
76.533 355.498 L
77.321 351.362 L
78.11 347.255 L
78.899 343.18 L
79.687 339.143 L
80.476 335.146 L
81.264 331.196 L
82.053 327.296 L
82.842 323.452 L
83.63 319.666 L
84.419 315.945 L
85.208 312.292 L
85.996 308.712 L
86.785 305.21 L
87.574 301.79 L
88.362 298.456 L
89.151 295.213 L
89.939 292.065 L
90.728 289.017 L
91.517 286.074 L
92.305 283.239 L
93.094 280.518 L
93.883 277.915 L
94.671 275.434 L
95.46 273.045 L
96.248 270.685 L
97.037 268.352 L
97.826 266.047 L
98.614 263.769 L
99.403 261.518 L
100.192 259.294 L
100.98 257.097 L
101.769 254.928 L
102.557 252.785 L
103.346 250.668 L
104.135 248.578 L
104.923 246.515 L
105.712 244.478 L
106.501 242.467 L
107.289 240.483 L
108.078 238.525 L
108.867 236.592 L
109.655 234.685 L
110.444 232.805 L
111.232 230.95 L
112.021 229.12 L
112.81 227.316 L
113.598 225.537 L
114.387 223.784 L
115.176 222.056 L
115.964 220.352 L
116.753 218.674 L
117.541 217.021 L
118.33 215.392 L
119.119 213.788 L
119.907 212.209 L
120.696 210.654 L
121.485 209.123 L
122.273 207.617 L
123.062 206.134 L
123.85 204.676 L
124.639 203.242 L
125.428 201.832 L
126.216 200.445 L
127.005 199.082 L
127.794 197.742 L
128.582 196.426 L
129.371 195.134 L
130.16 193.864 L
130.948 192.618 L
131.737 191.394 L
132.525 190.194 L
133.314 189.016 L
134.103 187.862 L
134.891 186.729 L
135.68 185.62 L
136.469 184.532 L
137.257 183.467 L
138.046 182.42 L
138.834 181.38 L
139.623 180.346 L
140.412 179.317 L
141.2 178.295 L
141.989 177.278 L
142.778 176.267 L
143.566 175.262 L
144.355 174.264 L
145.143 173.271 L
145.932 172.284 L
146.721 171.303 L
147.509 170.329 L
148.298 169.36 L
149.087 168.397 L
149.875 167.44 L
150.664 166.489 L
151.453 165.544 L
152.241 164.605 L
153.03 163.672 L
153.818 162.746 L
154.607 161.825 L
155.396 160.91 L
156.184 160.001 L
156.973 159.098 L
157.762 158.201 L
158.55 157.31 L
159.339 156.426 L
160.127 155.547 L
160.916 154.674 L
161.705 153.808 L
162.493 152.947 L
163.282 152.092 L
164.071 151.244 L
164.859 150.401 L
165.648 149.565 L
166.436 148.734 L
167.225 147.91 L
168.014 147.092 L
168.802 146.28 L
169.591 145.473 L
170.38 144.673 L
171.168 143.879 L
171.957 143.092 L
172.746 142.31 L
173.534 141.534 L
174.323 140.764 L
175.111 140.001 L
175.9 139.243 L
176.689 138.492 L
177.477 137.747 L
178.266 137.008 L
179.055 136.275 L
179.843 135.548 L
180.632 134.827 L
181.42 134.112 L
182.209 133.404 L
182.998 132.701 L
183.786 132.005 L
184.575 131.314 L
185.364 130.63 L
186.152 129.952 L
186.941 129.281 L
187.73 128.615 L
188.518 127.956 L
189.307 127.302 L
190.095 126.655 L
190.884 126.014 L
191.673 125.379 L
192.461 124.75 L
193.25 124.128 L
194.039 123.511 L
194.827 122.901 L
195.616 122.297 L
196.404 121.699 L
197.193 121.108 L
197.982 120.522 L
198.77 119.943 L
199.559 119.37 L
200.348 118.803 L
201.136 118.242 L
201.925 117.688 L
202.713 117.139 L
203.502 116.597 L
204.291 116.061 L
205.079 115.532 L
205.868 115.008 L
206.657 114.491 L
207.445 113.98 L
208.234 113.475 L
209.023 112.977 L
209.811 112.484 L
210.6 111.999 L
211.388 111.519 L
212.177 111.045 L
212.966 110.578 L
213.754 110.117 L
214.543 109.662 L
215.332 109.213 L
216.12 108.771 L
216.909 108.335 L
217.697 107.905 L
218.486 107.482 L
219.275 107.065 L
220.063 106.654 L
220.852 106.249 L
221.641 105.851 L
222.429 105.458 L
223.218 105.073 L
224.006 104.693 L
224.795 104.32 L
225.584 103.953 L
226.372 103.592 L
227.161 103.236 L
227.95 102.879 L
228.738 102.523 L
229.527 102.168 L
230.316 101.814 L
231.104 101.459 L
231.893 101.106 L
232.681 100.752 L
233.47 100.4 L
234.259 100.047 L
235.047 99.696 L
235.836 99.345 L
236.625 98.994 L
237.413 98.644 L
238.202 98.294 L
238.99 97.945 L
239.779 97.597 L
240.568 97.249 L
241.356 96.902 L
242.145 96.555 L
242.934 96.209 L
243.722 95.863 L
244.511 95.518 L
245.299 95.173 L
246.088 94.829 L
246.877 94.486 L
247.665 94.143 L
248.454 93.801 L
249.243 93.459 L
250.031 93.118 L
250.82 92.778 L
251.609 92.438 L
252.397 92.098 L
253.186 91.76 L
253.974 91.422 L
254.763 91.084 L
255.552 90.748 L
256.34 90.411 L
257.129 90.076 L
257.918 89.741 L
258.706 89.407 L
259.495 89.073 L
260.283 88.74 L
261.072 88.408 L
261.861 88.076 L
262.649 87.745 L
263.438 87.415 L
264.227 87.085 L
265.015 86.756 L
265.804 86.428 L
266.592 86.1 L
267.381 85.773 L
268.17 85.446 L
268.958 85.121 L
269.747 84.796 L
270.536 84.472 L
271.324 84.148 L
272.113 83.825 L
272.902 83.503 L
273.69 83.182 L
274.479 82.861 L
275.267 82.541 L
276.056 82.221 L
276.845 81.903 L
277.633 81.585 L
278.422 81.268 L
279.211 80.951 L
279.999 80.636 L
280.788 80.321 L
281.576 80.007 L
282.365 79.694 L
283.154 79.381 L
283.942 79.069 L
284.731 78.758 L
285.52 78.447 L
286.308 78.138 L
287.097 77.829 L
287.886 77.521 L
288.674 77.214 L
289.463 76.907 L
290.251 76.602 L
291.04 76.297 L
291.829 75.993 L
292.617 75.69 L
293.406 75.387 L
294.195 75.085 L
294.983 74.785 L
295.772 74.485 L
296.56 74.185 L
297.349 73.887 L
298.138 73.589 L
298.926 73.293 L
299.715 72.997 L
300.504 72.702 L
301.292 72.408 L
302.081 72.114 L
302.869 71.822 L
303.658 71.53 L
304.447 71.239 L
305.235 70.949 L
306.024 70.66 L
306.813 70.372 L
307.601 70.085 L
308.39 69.798 L
309.179 69.513 L
309.967 69.228 L
310.756 68.944 L
311.544 68.662 L
312.333 68.38 L
313.122 68.099 L
313.91 67.819 L
314.699 67.539 L
315.488 67.261 L
316.276 66.984 L
317.065 66.707 L
317.853 66.431 L
318.642 66.157 L
319.431 65.883 L
320.219 65.61 L
321.008 65.338 L
321.797 65.068 L
322.585 64.798 L
323.374 64.529 L
324.163 64.261 L
324.951 63.994 L
325.74 63.727 L
326.528 63.462 L
327.317 63.198 L
328.106 62.935 L
328.894 62.673 L
329.683 62.411 L
330.472 62.151 L
331.26 61.892 L
332.049 61.634 L
332.837 61.377 L
333.626 61.12 L
334.415 60.865 L
335.203 60.611 L
335.992 60.358 L
336.781 60.105 L
337.569 59.854 L
338.358 59.604 L
339.146 59.355 L
339.935 59.107 L
340.724 58.86 L
341.512 58.614 L
342.301 58.369 L
343.09 58.125 L
343.878 57.882 L
344.667 57.64 L
345.456 57.399 L
346.244 57.16 L
347.033 56.921 L
347.821 56.684 L
348.61 56.447 L
349.399 56.212 L
350.187 55.977 L
350.976 55.744 L
351.765 55.512 L
352.553 55.281 L
353.342 55.051 L
354.13 54.822 L
354.919 54.595 L
355.708 54.368 L
356.496 54.142 L
357.285 53.918 L
358.074 53.695 L
358.862 53.473 L
359.651 53.252 L
360.439 53.032 L
361.228 52.813 L
362.017 52.596 L
362.805 52.379 L
363.594 52.164 L
364.383 51.95 L
365.171 51.737 L
365.96 51.525 L
366.749 51.314 L
367.537 51.105 L
368.326 50.896 L
369.114 50.689 L
369.903 50.483 L
370.692 50.279 L
371.48 50.075 L
372.269 49.872 L
373.058 49.671 L
373.846 49.471 L
374.635 49.272 L
375.423 49.075 L
376.212 48.878 L
377.001 48.683 L
377.789 48.489 L
378.578 48.297 L
379.367 48.105 L
380.155 47.915 L
380.944 47.726 L
381.732 47.538 L
382.521 47.352 L
383.31 47.166 L
384.098 46.982 L
384.887 46.799 L
385.676 46.618 L
386.464 46.438 L
387.253 46.258 L
388.042 46.081 L
388.83 45.904 L
389.619 45.729 L
390.407 45.555 L
391.196 45.383 L
391.985 45.211 L
392.773 45.041 L
393.562 44.872 L
394.351 44.705 L
395.139 44.539 L
395.928 44.374 L
396.716 44.21 L
397.505 44.048 L
398.294 43.887 L
399.082 43.727 L
399.871 43.569 L
400.66 43.412 L
401.448 43.257 L
402.237 43.102 L
403.026 42.95 L
403.814 42.798 L
404.603 42.648 L
405.391 42.499 L
406.18 42.351 L
406.969 42.205 L
407.757 42.06 L
408.546 41.917 L
409.335 41.775 L
410.123 41.634 L
410.912 41.495 L
411.7 41.357 L
412.489 41.221 L
413.278 41.086 L
414.066 40.952 L
414.855 40.82 L
415.644 40.688 L
416.432 40.559 L
417.221 40.431 L
418.009 40.304 L
418.798 40.179 L
419.587 40.055 L
420.375 39.933 L
421.164 39.812 L
421.953 39.692 L
422.741 39.574 L
423.53 39.457 L
424.319 39.342 L
425.107 39.228 L
425.896 39.116 L
426.684 39.005 L
427.473 38.896 L
428.262 38.788 L
429.05 38.681 L
429.839 38.576 L
430.628 38.473 L
431.416 38.371 L
432.205 38.27 L
432.993 38.171 L
433.782 38.074 L
434.571 37.978 L
435.359 37.883 L
436.148 37.79 L
436.937 37.698 L
437.725 37.608 L
438.514 37.52 L
439.302 37.433 L
440.091 37.347 L
440.88 37.263 L
441.668 37.181 L
442.457 37.1 L
443.246 37.021 L
444.034 36.943 L
444.823 36.867 L
445.612 36.792 L
446.4 36.719 L
447.189 36.647 L
447.977 36.577 L
448.766 36.509 L
449.555 36.442 L
450.343 36.376 L
451.132 36.313 L
451.921 36.25 L
452.709 36.19 L
453.498 36.131 L
454.286 36.073 L
455.075 36.018 L
455.864 35.963 L
456.652 35.911 L
457.441 35.86 L
458.23 35.81 L
459.018 35.763 L
459.807 35.717 L
460.595 35.672 L
461.384 35.629 L
462.173 35.588 L
462.961 35.548 L
463.75 35.51 L
464.539 35.474 L
465.327 35.439 L
466.116 35.406 L
466.905 35.375 L
467.693 35.345 L
468.482 35.317 L
469.27 35.29 L
470.059 35.266 L
470.848 35.243 L
471.636 35.221 L
472.425 35.201 L
473.214 35.184 L
474.002 35.167 L
474.791 35.153 L
475.579 35.14 L
476.368 35.128 L
477.157 35.119 L
477.945 35.111 L
478.734 35.105 L
479.523 35.1 L
480.311 35.098 L
481.1 35.097 L
S
GR
GS
0.635 0.078 0.184 RC
[10 6] 0 setdash
2 LJ
0.5 LW
N
73.474 371.485 M
74.262 367.294 L
75.051 363.113 L
75.84 358.946 L
76.628 354.798 L
77.417 350.673 L
78.206 346.575 L
78.994 342.51 L
79.783 338.482 L
80.571 334.495 L
81.36 330.554 L
82.149 326.663 L
82.937 322.827 L
83.726 319.051 L
84.515 315.339 L
85.303 311.696 L
86.092 308.126 L
86.88 304.634 L
87.669 301.223 L
88.458 297.9 L
89.246 294.668 L
90.035 291.532 L
90.824 288.496 L
91.612 285.566 L
92.401 282.745 L
93.189 280.037 L
93.978 277.449 L
94.767 274.984 L
95.555 272.605 L
96.344 270.254 L
97.133 267.93 L
97.921 265.634 L
98.71 263.365 L
99.499 261.123 L
100.287 258.907 L
101.076 256.719 L
101.864 254.557 L
102.653 252.422 L
103.442 250.314 L
104.23 248.232 L
105.019 246.176 L
105.808 244.146 L
106.596 242.143 L
107.385 240.166 L
108.173 238.214 L
108.962 236.288 L
109.751 234.388 L
110.539 232.514 L
111.328 230.665 L
112.117 228.841 L
112.905 227.043 L
113.694 225.27 L
114.482 223.522 L
115.271 221.798 L
116.06 220.1 L
116.848 218.427 L
117.637 216.778 L
118.426 215.154 L
119.214 213.554 L
120.003 211.978 L
120.792 210.427 L
121.58 208.9 L
122.369 207.397 L
123.157 205.918 L
123.946 204.463 L
124.735 203.031 L
125.523 201.623 L
126.312 200.239 L
127.101 198.878 L
127.889 197.54 L
128.678 196.226 L
129.466 194.935 L
130.255 193.666 L
131.044 192.421 L
131.832 191.198 L
132.621 189.998 L
133.41 188.821 L
134.198 187.666 L
134.987 186.533 L
135.775 185.423 L
136.564 184.335 L
137.353 183.269 L
138.141 182.224 L
138.93 181.188 L
139.719 180.158 L
140.507 179.133 L
141.296 178.115 L
142.085 177.102 L
142.873 176.095 L
143.662 175.095 L
144.45 174.1 L
145.239 173.111 L
146.028 172.128 L
146.816 171.15 L
147.605 170.179 L
148.394 169.214 L
149.182 168.254 L
149.971 167.301 L
150.759 166.353 L
151.548 165.412 L
152.337 164.476 L
153.125 163.546 L
153.914 162.622 L
154.703 161.704 L
155.491 160.792 L
156.28 159.886 L
157.069 158.986 L
157.857 158.092 L
158.646 157.204 L
159.434 156.322 L
160.223 155.446 L
161.012 154.576 L
161.8 153.711 L
162.589 152.853 L
163.378 152.001 L
164.166 151.154 L
164.955 150.314 L
165.743 149.48 L
166.532 148.651 L
167.321 147.829 L
168.109 147.013 L
168.898 146.202 L
169.687 145.398 L
170.475 144.6 L
171.264 143.807 L
172.052 143.021 L
172.841 142.241 L
173.63 141.466 L
174.418 140.698 L
175.207 139.936 L
175.996 139.18 L
176.784 138.429 L
177.573 137.685 L
178.362 136.947 L
179.15 136.215 L
179.939 135.489 L
180.727 134.769 L
181.516 134.055 L
182.305 133.347 L
183.093 132.646 L
183.882 131.95 L
184.671 131.26 L
185.459 130.577 L
186.248 129.899 L
187.036 129.228 L
187.825 128.562 L
188.614 127.903 L
189.402 127.25 L
190.191 126.603 L
190.98 125.962 L
191.768 125.326 L
192.557 124.698 L
193.345 124.075 L
194.134 123.458 L
194.923 122.848 L
195.711 122.243 L
196.5 121.645 L
197.289 121.053 L
198.077 120.467 L
198.866 119.887 L
199.655 119.313 L
200.443 118.745 L
201.232 118.184 L
202.02 117.628 L
202.809 117.079 L
203.598 116.536 L
204.386 115.999 L
205.175 115.468 L
205.964 114.943 L
206.752 114.425 L
207.541 113.912 L
208.329 113.406 L
209.118 112.906 L
209.907 112.412 L
210.695 111.924 L
211.484 111.442 L
212.273 110.967 L
213.061 110.498 L
213.85 110.035 L
214.638 109.578 L
215.427 109.127 L
216.216 108.683 L
217.004 108.244 L
217.793 107.812 L
218.582 107.386 L
219.37 106.967 L
220.159 106.553 L
220.948 106.146 L
221.736 105.745 L
222.525 105.35 L
223.313 104.961 L
224.102 104.579 L
224.891 104.203 L
225.679 103.833 L
226.468 103.469 L
227.257 103.112 L
228.045 102.758 L
228.834 102.404 L
229.622 102.052 L
230.411 101.699 L
231.2 101.347 L
231.988 100.996 L
232.777 100.645 L
233.566 100.295 L
234.354 99.945 L
235.143 99.596 L
235.931 99.247 L
236.72 98.898 L
237.509 98.551 L
238.297 98.203 L
239.086 97.857 L
239.875 97.51 L
240.663 97.165 L
241.452 96.82 L
242.241 96.475 L
243.029 96.131 L
243.818 95.788 L
244.606 95.445 L
245.395 95.102 L
246.184 94.76 L
246.972 94.419 L
247.761 94.079 L
248.55 93.738 L
249.338 93.399 L
250.127 93.06 L
250.915 92.722 L
251.704 92.384 L
252.493 92.047 L
253.281 91.71 L
254.07 91.374 L
254.859 91.039 L
255.647 90.704 L
256.436 90.37 L
257.225 90.036 L
258.013 89.703 L
258.802 89.371 L
259.59 89.04 L
260.379 88.709 L
261.168 88.378 L
261.956 88.048 L
262.745 87.719 L
263.534 87.391 L
264.322 87.063 L
265.111 86.736 L
265.899 86.409 L
266.688 86.083 L
267.477 85.758 L
268.265 85.434 L
269.054 85.11 L
269.843 84.787 L
270.631 84.464 L
271.42 84.142 L
272.208 83.821 L
272.997 83.501 L
273.786 83.181 L
274.574 82.862 L
275.363 82.544 L
276.152 82.226 L
276.94 81.909 L
277.729 81.593 L
278.518 81.277 L
279.306 80.962 L
280.095 80.648 L
280.883 80.335 L
281.672 80.022 L
282.461 79.711 L
283.249 79.399 L
284.038 79.089 L
284.827 78.779 L
285.615 78.47 L
286.404 78.162 L
287.192 77.855 L
287.981 77.548 L
288.77 77.242 L
289.558 76.937 L
290.347 76.633 L
291.136 76.329 L
291.924 76.027 L
292.713 75.725 L
293.501 75.423 L
294.29 75.123 L
295.079 74.823 L
295.867 74.524 L
296.656 74.226 L
297.445 73.929 L
298.233 73.633 L
299.022 73.337 L
299.811 73.042 L
300.599 72.749 L
301.388 72.455 L
302.176 72.163 L
302.965 71.872 L
303.754 71.581 L
304.542 71.291 L
305.331 71.002 L
306.12 70.714 L
306.908 70.427 L
307.697 70.14 L
308.485 69.855 L
309.274 69.57 L
310.063 69.286 L
310.851 69.003 L
311.64 68.721 L
312.429 68.44 L
313.217 68.16 L
314.006 67.88 L
314.794 67.602 L
315.583 67.324 L
316.372 67.047 L
317.16 66.771 L
317.949 66.496 L
318.738 66.222 L
319.526 65.949 L
320.315 65.677 L
321.104 65.405 L
321.892 65.135 L
322.681 64.865 L
323.469 64.597 L
324.258 64.329 L
325.047 64.063 L
325.835 63.797 L
326.624 63.532 L
327.413 63.268 L
328.201 63.005 L
328.99 62.743 L
329.778 62.482 L
330.567 62.222 L
331.356 61.963 L
332.144 61.705 L
332.933 61.448 L
333.722 61.192 L
334.51 60.936 L
335.299 60.682 L
336.087 60.429 L
336.876 60.177 L
337.665 59.926 L
338.453 59.675 L
339.242 59.426 L
340.031 59.178 L
340.819 58.931 L
341.608 58.685 L
342.397 58.439 L
343.185 58.195 L
343.974 57.952 L
344.762 57.71 L
345.551 57.469 L
346.34 57.229 L
347.128 56.99 L
347.917 56.752 L
348.706 56.515 L
349.494 56.279 L
350.283 56.044 L
351.071 55.811 L
351.86 55.578 L
352.649 55.346 L
353.437 55.116 L
354.226 54.886 L
355.015 54.658 L
355.803 54.43 L
356.592 54.204 L
357.381 53.979 L
358.169 53.755 L
358.958 53.532 L
359.746 53.31 L
360.535 53.089 L
361.324 52.87 L
362.112 52.651 L
362.901 52.434 L
363.69 52.218 L
364.478 52.002 L
365.267 51.788 L
366.055 51.575 L
366.844 51.363 L
367.633 51.153 L
368.421 50.943 L
369.21 50.735 L
369.999 50.528 L
370.787 50.322 L
371.576 50.117 L
372.364 49.913 L
373.153 49.71 L
373.942 49.509 L
374.73 49.308 L
375.519 49.109 L
376.308 48.912 L
377.096 48.715 L
377.885 48.519 L
378.674 48.325 L
379.462 48.132 L
380.251 47.94 L
381.039 47.749 L
381.828 47.559 L
382.617 47.371 L
383.405 47.184 L
384.194 46.998 L
384.983 46.813 L
385.771 46.63 L
386.56 46.447 L
387.348 46.266 L
388.137 46.086 L
388.926 45.908 L
389.714 45.73 L
390.503 45.554 L
391.292 45.379 L
392.08 45.206 L
392.869 45.033 L
393.658 44.862 L
394.446 44.693 L
395.235 44.524 L
396.023 44.357 L
396.812 44.191 L
397.601 44.026 L
398.389 43.862 L
399.178 43.7 L
399.967 43.539 L
400.755 43.38 L
401.544 43.221 L
402.332 43.065 L
403.121 42.909 L
403.91 42.754 L
404.698 42.601 L
405.487 42.45 L
406.276 42.299 L
407.064 42.15 L
407.853 42.002 L
408.641 41.856 L
409.43 41.711 L
410.219 41.567 L
411.007 41.424 L
411.796 41.283 L
412.585 41.144 L
413.373 41.005 L
414.162 40.868 L
414.951 40.733 L
415.739 40.598 L
416.528 40.465 L
417.316 40.334 L
418.105 40.203 L
418.894 40.075 L
419.682 39.947 L
420.471 39.821 L
421.26 39.696 L
422.048 39.573 L
422.837 39.451 L
423.625 39.331 L
424.414 39.212 L
425.203 39.094 L
425.991 38.978 L
426.78 38.863 L
427.569 38.749 L
428.357 38.637 L
429.146 38.527 L
429.934 38.418 L
430.723 38.31 L
431.512 38.204 L
432.3 38.099 L
433.089 37.995 L
433.878 37.893 L
434.666 37.793 L
435.455 37.694 L
436.244 37.596 L
437.032 37.5 L
437.821 37.406 L
438.609 37.312 L
439.398 37.221 L
440.187 37.13 L
440.975 37.042 L
441.764 36.955 L
442.553 36.869 L
443.341 36.784 L
444.13 36.702 L
444.918 36.621 L
445.707 36.541 L
446.496 36.463 L
447.284 36.386 L
448.073 36.31 L
448.862 36.237 L
449.65 36.165 L
450.439 36.094 L
451.228 36.025 L
452.016 35.957 L
452.805 35.891 L
453.593 35.827 L
454.382 35.764 L
455.171 35.702 L
455.959 35.642 L
456.748 35.584 L
457.537 35.527 L
458.325 35.472 L
459.114 35.419 L
459.902 35.367 L
460.691 35.316 L
461.48 35.267 L
462.268 35.22 L
463.057 35.174 L
463.846 35.13 L
464.634 35.087 L
465.423 35.046 L
466.211 35.007 L
467 34.969 L
467.789 34.933 L
468.577 34.899 L
469.366 34.866 L
470.155 34.835 L
470.943 34.805 L
471.732 34.777 L
472.521 34.75 L
473.309 34.726 L
474.098 34.703 L
474.886 34.681 L
475.675 34.661 L
476.464 34.643 L
477.252 34.627 L
478.041 34.612 L
478.83 34.599 L
479.618 34.587 L
480.407 34.577 L
481.195 34.569 L
481.984 34.562 L
482.773 34.558 L
483.561 34.554 L
484.35 34.553 L
S
GR
GS
1 GC
N
499 366 M
499 250.5 L
344.5 250.5 L
344.5 366 L
cp
f
GR
GS
[1 0 0 1 381.5 260.25] CT
/Helvetica 13 F
GS
[1 0 0 1 0 0] CT
0 5 moveto 
1 -1 scale
(Base Run) t 
GR
GR
GS
0 0.447 0.741 RC
1 LJ
0.5 LW
N
348.5 260.25 M
378.5 260.25 L
S
GR
GS
[1 0 0 1 381.5 276.25] CT
/Helvetica 13 F
GS
[1 0 0 1 0 0] CT
0 5 moveto 
1 -1 scale
(I & B Frames) t 
GR
GR
GS
0.851 0.325 0.098 RC
1 LJ
0.5 LW
N
348.5 276.25 M
378.5 276.25 L
S
GR
GS
[1 0 0 1 381.5 292.25] CT
/Helvetica 13 F
GS
[1 0 0 1 0 0] CT
0 5 moveto 
1 -1 scale
(I Frames Only) t 
GR
GR
GS
0.929 0.694 0.125 RC
1 LJ
0.5 LW
N
348.5 292.25 M
378.5 292.25 L
S
GR
GS
[1 0 0 1 381.5 308.25] CT
/Helvetica 13 F
GS
[1 0 0 1 0 0] CT
0 5 moveto 
1 -1 scale
(B Frames Only) t 
GR
GR
GS
0.494 0.184 0.557 RC
1 LJ
0.5 LW
N
348.5 308.25 M
378.5 308.25 L
S
GR
GS
[1 0 0 1 381.5 324.25] CT
/Helvetica 13 F
GS
[1 0 0 1 0 0] CT
0 5 moveto 
1 -1 scale
(Part I & B Frames) t 
GR
GR
GS
0.467 0.675 0.188 RC
[10 6] 0 setdash
2 LJ
0.5 LW
N
348.5 324.25 M
378.5 324.25 L
S
GR
GS
[1 0 0 1 381.5 340.25] CT
/Helvetica 13 F
GS
[1 0 0 1 0 0] CT
0 5 moveto 
1 -1 scale
(Part I Frames Only) t 
GR
GR
GS
0.302 0.745 0.933 RC
[10 6] 0 setdash
2 LJ
0.5 LW
N
348.5 340.25 M
378.5 340.25 L
S
GR
GS
[1 0 0 1 381.5 356.25] CT
/Helvetica 13 F
GS
[1 0 0 1 0 0] CT
0 5 moveto 
1 -1 scale
(Part B Frames Only) t 
GR
GR
GS
0.635 0.078 0.184 RC
[10 6] 0 setdash
2 LJ
0.5 LW
N
348.5 356.25 M
378.5 356.25 L
S
GR
GS
0.149 GC
10.0 ML
0.5 LW
N
344.5 366 M
344.5 250.5 L
499 250.5 L
499 366 L
cp
S
GR
%%Trailer
%%Pages: 1
%%EOF
