%!PS-Adobe-3.0 EPSF-3.0
%%Creator: (MATLAB, The Mathworks, Inc. Version 9.11.0.1837725 \(R2021b\) Update 2. Operating System: Mac OS X)
%%Title: plots/pchip/FoodMarket_1920x1080_5994_10bit_420.y4m-hevc-VMAF.eps
%%CreationDate: 2022-02-03T19:14:08
%%Pages: (atend)
%%BoundingBox:    34   425   508   826
%%LanguageLevel: 3
%%EndComments
%%BeginProlog
%%BeginResource: procset (Apache XML Graphics Std ProcSet) 1.2 0
%%Version: 1.2 0
%%Copyright: (Copyright 2001-2003,2010 The Apache Software Foundation. License terms: http://www.apache.org/licenses/LICENSE-2.0)
/bd{bind def}bind def
/ld{load def}bd
/GR/grestore ld
/GS/gsave ld
/RM/rmoveto ld
/C/curveto ld
/t/show ld
/L/lineto ld
/ML/setmiterlimit ld
/CT/concat ld
/f/fill ld
/N/newpath ld
/S/stroke ld
/CC/setcmykcolor ld
/A/ashow ld
/cp/closepath ld
/RC/setrgbcolor ld
/LJ/setlinejoin ld
/GC/setgray ld
/LW/setlinewidth ld
/M/moveto ld
/re {4 2 roll M
1 index 0 rlineto
0 exch rlineto
neg 0 rlineto
cp } bd
/_ctm matrix def
/_tm matrix def
/BT { _ctm currentmatrix pop matrix _tm copy pop 0 0 moveto } bd
/ET { _ctm setmatrix } bd
/iTm { _ctm setmatrix _tm concat } bd
/Tm { _tm astore pop iTm 0 0 moveto } bd
/ux 0.0 def
/uy 0.0 def
/F {
  /Tp exch def
  /Tf exch def
  Tf findfont Tp scalefont setfont
  /cf Tf def  /cs Tp def
} bd
/ULS {currentpoint /uy exch def /ux exch def} bd
/ULE {
  /Tcx currentpoint pop def
  gsave
  newpath
  cf findfont cs scalefont dup
  /FontMatrix get 0 get /Ts exch def /FontInfo get dup
  /UnderlinePosition get Ts mul /To exch def
  /UnderlineThickness get Ts mul /Tt exch def
  ux uy To add moveto  Tcx uy To add lineto
  Tt setlinewidth stroke
  grestore
} bd
/OLE {
  /Tcx currentpoint pop def
  gsave
  newpath
  cf findfont cs scalefont dup
  /FontMatrix get 0 get /Ts exch def /FontInfo get dup
  /UnderlinePosition get Ts mul /To exch def
  /UnderlineThickness get Ts mul /Tt exch def
  ux uy To add cs add moveto Tcx uy To add cs add lineto
  Tt setlinewidth stroke
  grestore
} bd
/SOE {
  /Tcx currentpoint pop def
  gsave
  newpath
  cf findfont cs scalefont dup
  /FontMatrix get 0 get /Ts exch def /FontInfo get dup
  /UnderlinePosition get Ts mul /To exch def
  /UnderlineThickness get Ts mul /Tt exch def
  ux uy To add cs 10 mul 26 idiv add moveto Tcx uy To add cs 10 mul 26 idiv add lineto
  Tt setlinewidth stroke
  grestore
} bd
/QT {
/Y22 exch store
/X22 exch store
/Y21 exch store
/X21 exch store
currentpoint
/Y21 load 2 mul add 3 div exch
/X21 load 2 mul add 3 div exch
/X21 load 2 mul /X22 load add 3 div
/Y21 load 2 mul /Y22 load add 3 div
/X22 load /Y22 load curveto
} bd
/SSPD {
dup length /d exch dict def
{
/v exch def
/k exch def
currentpagedevice k known {
/cpdv currentpagedevice k get def
v cpdv ne {
/upd false def
/nullv v type /nulltype eq def
/nullcpdv cpdv type /nulltype eq def
nullv nullcpdv or
{
/upd true def
} {
/sametype v type cpdv type eq def
sametype {
v type /arraytype eq {
/vlen v length def
/cpdvlen cpdv length def
vlen cpdvlen eq {
0 1 vlen 1 sub {
/i exch def
/obj v i get def
/cpdobj cpdv i get def
obj cpdobj ne {
/upd true def
exit
} if
} for
} {
/upd true def
} ifelse
} {
v type /dicttype eq {
v {
/dv exch def
/dk exch def
/cpddv cpdv dk get def
dv cpddv ne {
/upd true def
exit
} if
} forall
} {
/upd true def
} ifelse
} ifelse
} if
} ifelse
upd true eq {
d k v put
} if
} if
} if
} forall
d length 0 gt {
d setpagedevice
} if
} bd
/RE { % /NewFontName [NewEncodingArray] /FontName RE -
  findfont dup length dict begin
  {
    1 index /FID ne
    {def} {pop pop} ifelse
  } forall
  /Encoding exch def
  /FontName 1 index def
  currentdict definefont pop
  end
} bind def
%%EndResource
%%BeginResource: procset (Apache XML Graphics EPS ProcSet) 1.0 0
%%Version: 1.0 0
%%Copyright: (Copyright 2002-2003 The Apache Software Foundation. License terms: http://www.apache.org/licenses/LICENSE-2.0)
/BeginEPSF { %def
/b4_Inc_state save def         % Save state for cleanup
/dict_count countdictstack def % Count objects on dict stack
/op_count count 1 sub def      % Count objects on operand stack
userdict begin                 % Push userdict on dict stack
/showpage { } def              % Redefine showpage, { } = null proc
0 setgray 0 setlinecap         % Prepare graphics state
1 setlinewidth 0 setlinejoin
10 setmiterlimit [ ] 0 setdash newpath
/languagelevel where           % If level not equal to 1 then
{pop languagelevel             % set strokeadjust and
1 ne                           % overprint to their defaults.
{false setstrokeadjust false setoverprint
} if
} if
} bd
/EndEPSF { %def
count op_count sub {pop} repeat            % Clean up stacks
countdictstack dict_count sub {end} repeat
b4_Inc_state restore
} bd
%%EndResource
%FOPBeginFontDict
%%IncludeResource: font Courier-Oblique
%%IncludeResource: font Courier-BoldOblique
%%IncludeResource: font Courier-Bold
%%IncludeResource: font ZapfDingbats
%%IncludeResource: font Symbol
%%IncludeResource: font Helvetica
%%IncludeResource: font Helvetica-Oblique
%%IncludeResource: font Helvetica-Bold
%%IncludeResource: font Helvetica-BoldOblique
%%IncludeResource: font Times-Roman
%%IncludeResource: font Times-Italic
%%IncludeResource: font Times-Bold
%%IncludeResource: font Times-BoldItalic
%%IncludeResource: font Courier
%FOPEndFontDict
%%BeginResource: encoding WinAnsiEncoding
/WinAnsiEncoding [
/.notdef /.notdef /.notdef /.notdef /.notdef
/.notdef /.notdef /.notdef /.notdef /.notdef
/.notdef /.notdef /.notdef /.notdef /.notdef
/.notdef /.notdef /.notdef /.notdef /.notdef
/.notdef /.notdef /.notdef /.notdef /.notdef
/.notdef /.notdef /.notdef /.notdef /.notdef
/.notdef /.notdef /space /exclam /quotedbl
/numbersign /dollar /percent /ampersand /quotesingle
/parenleft /parenright /asterisk /plus /comma
/hyphen /period /slash /zero /one
/two /three /four /five /six
/seven /eight /nine /colon /semicolon
/less /equal /greater /question /at
/A /B /C /D /E
/F /G /H /I /J
/K /L /M /N /O
/P /Q /R /S /T
/U /V /W /X /Y
/Z /bracketleft /backslash /bracketright /asciicircum
/underscore /quoteleft /a /b /c
/d /e /f /g /h
/i /j /k /l /m
/n /o /p /q /r
/s /t /u /v /w
/x /y /z /braceleft /bar
/braceright /asciitilde /bullet /Euro /bullet
/quotesinglbase /florin /quotedblbase /ellipsis /dagger
/daggerdbl /circumflex /perthousand /Scaron /guilsinglleft
/OE /bullet /Zcaron /bullet /bullet
/quoteleft /quoteright /quotedblleft /quotedblright /bullet
/endash /emdash /asciitilde /trademark /scaron
/guilsinglright /oe /bullet /zcaron /Ydieresis
/space /exclamdown /cent /sterling /currency
/yen /brokenbar /section /dieresis /copyright
/ordfeminine /guillemotleft /logicalnot /sfthyphen /registered
/macron /degree /plusminus /twosuperior /threesuperior
/acute /mu /paragraph /middot /cedilla
/onesuperior /ordmasculine /guillemotright /onequarter /onehalf
/threequarters /questiondown /Agrave /Aacute /Acircumflex
/Atilde /Adieresis /Aring /AE /Ccedilla
/Egrave /Eacute /Ecircumflex /Edieresis /Igrave
/Iacute /Icircumflex /Idieresis /Eth /Ntilde
/Ograve /Oacute /Ocircumflex /Otilde /Odieresis
/multiply /Oslash /Ugrave /Uacute /Ucircumflex
/Udieresis /Yacute /Thorn /germandbls /agrave
/aacute /acircumflex /atilde /adieresis /aring
/ae /ccedilla /egrave /eacute /ecircumflex
/edieresis /igrave /iacute /icircumflex /idieresis
/eth /ntilde /ograve /oacute /ocircumflex
/otilde /odieresis /divide /oslash /ugrave
/uacute /ucircumflex /udieresis /yacute /thorn
/ydieresis
] def
%%EndResource
%FOPBeginFontReencode
/Courier-Oblique findfont
dup length dict begin
  {1 index /FID ne {def} {pop pop} ifelse} forall
  /Encoding WinAnsiEncoding def
  currentdict
end
/Courier-Oblique exch definefont pop
/Courier-BoldOblique findfont
dup length dict begin
  {1 index /FID ne {def} {pop pop} ifelse} forall
  /Encoding WinAnsiEncoding def
  currentdict
end
/Courier-BoldOblique exch definefont pop
/Courier-Bold findfont
dup length dict begin
  {1 index /FID ne {def} {pop pop} ifelse} forall
  /Encoding WinAnsiEncoding def
  currentdict
end
/Courier-Bold exch definefont pop
/Helvetica findfont
dup length dict begin
  {1 index /FID ne {def} {pop pop} ifelse} forall
  /Encoding WinAnsiEncoding def
  currentdict
end
/Helvetica exch definefont pop
/Helvetica-Oblique findfont
dup length dict begin
  {1 index /FID ne {def} {pop pop} ifelse} forall
  /Encoding WinAnsiEncoding def
  currentdict
end
/Helvetica-Oblique exch definefont pop
/Helvetica-Bold findfont
dup length dict begin
  {1 index /FID ne {def} {pop pop} ifelse} forall
  /Encoding WinAnsiEncoding def
  currentdict
end
/Helvetica-Bold exch definefont pop
/Helvetica-BoldOblique findfont
dup length dict begin
  {1 index /FID ne {def} {pop pop} ifelse} forall
  /Encoding WinAnsiEncoding def
  currentdict
end
/Helvetica-BoldOblique exch definefont pop
/Times-Roman findfont
dup length dict begin
  {1 index /FID ne {def} {pop pop} ifelse} forall
  /Encoding WinAnsiEncoding def
  currentdict
end
/Times-Roman exch definefont pop
/Times-Italic findfont
dup length dict begin
  {1 index /FID ne {def} {pop pop} ifelse} forall
  /Encoding WinAnsiEncoding def
  currentdict
end
/Times-Italic exch definefont pop
/Times-Bold findfont
dup length dict begin
  {1 index /FID ne {def} {pop pop} ifelse} forall
  /Encoding WinAnsiEncoding def
  currentdict
end
/Times-Bold exch definefont pop
/Times-BoldItalic findfont
dup length dict begin
  {1 index /FID ne {def} {pop pop} ifelse} forall
  /Encoding WinAnsiEncoding def
  currentdict
end
/Times-BoldItalic exch definefont pop
/Courier findfont
dup length dict begin
  {1 index /FID ne {def} {pop pop} ifelse} forall
  /Encoding WinAnsiEncoding def
  currentdict
end
/Courier exch definefont pop
%FOPEndFontReencode
%%EndProlog
%%Page: 1 1
%%PageBoundingBox: 0 0 1120 840
%%BeginPageSetup
[1 0 0 -1 0 840] CT
%%EndPageSetup
GS
1 GC
N
0 0 1120 840 re
f
GR
GS
1 GC
N
73 374 M
507 374 L
507 31.5 L
73 31.5 L
cp
f
GR
GS
0.149 GC
2 setlinecap
1 LJ
0.5 LW
N
73 374 M
507 374 L
S
GR
GS
0.149 GC
2 setlinecap
1 LJ
0.5 LW
N
73 31.5 M
507 31.5 L
S
GR
GS
0.149 GC
2 setlinecap
1 LJ
0.5 LW
N
131.215 374 M
131.215 369.66 L
S
GR
GS
0.149 GC
2 setlinecap
1 LJ
0.5 LW
N
210.077 374 M
210.077 369.66 L
S
GR
GS
0.149 GC
2 setlinecap
1 LJ
0.5 LW
N
288.94 374 M
288.94 369.66 L
S
GR
GS
0.149 GC
2 setlinecap
1 LJ
0.5 LW
N
367.803 374 M
367.803 369.66 L
S
GR
GS
0.149 GC
2 setlinecap
1 LJ
0.5 LW
N
446.667 374 M
446.667 369.66 L
S
GR
GS
0.149 GC
2 setlinecap
1 LJ
0.5 LW
N
131.215 31.5 M
131.215 35.84 L
S
GR
GS
0.149 GC
2 setlinecap
1 LJ
0.5 LW
N
210.077 31.5 M
210.077 35.84 L
S
GR
GS
0.149 GC
2 setlinecap
1 LJ
0.5 LW
N
288.94 31.5 M
288.94 35.84 L
S
GR
GS
0.149 GC
2 setlinecap
1 LJ
0.5 LW
N
367.803 31.5 M
367.803 35.84 L
S
GR
GS
0.149 GC
2 setlinecap
1 LJ
0.5 LW
N
446.667 31.5 M
446.667 35.84 L
S
GR
GS
0.149 GC
2 setlinecap
1 LJ
0.5 LW
N
91.783 374 M
91.783 371.83 L
S
GR
GS
0.149 GC
2 setlinecap
1 LJ
0.5 LW
N
111.499 374 M
111.499 371.83 L
S
GR
GS
0.149 GC
2 setlinecap
1 LJ
0.5 LW
N
150.93 374 M
150.93 371.83 L
S
GR
GS
0.149 GC
2 setlinecap
1 LJ
0.5 LW
N
170.646 374 M
170.646 371.83 L
S
GR
GS
0.149 GC
2 setlinecap
1 LJ
0.5 LW
N
190.362 374 M
190.362 371.83 L
S
GR
GS
0.149 GC
2 setlinecap
1 LJ
0.5 LW
N
229.793 374 M
229.793 371.83 L
S
GR
GS
0.149 GC
2 setlinecap
1 LJ
0.5 LW
N
249.509 374 M
249.509 371.83 L
S
GR
GS
0.149 GC
2 setlinecap
1 LJ
0.5 LW
N
269.225 374 M
269.225 371.83 L
S
GR
GS
0.149 GC
2 setlinecap
1 LJ
0.5 LW
N
308.656 374 M
308.656 371.83 L
S
GR
GS
0.149 GC
2 setlinecap
1 LJ
0.5 LW
N
328.372 374 M
328.372 371.83 L
S
GR
GS
0.149 GC
2 setlinecap
1 LJ
0.5 LW
N
348.088 374 M
348.088 371.83 L
S
GR
GS
0.149 GC
2 setlinecap
1 LJ
0.5 LW
N
387.519 374 M
387.519 371.83 L
S
GR
GS
0.149 GC
2 setlinecap
1 LJ
0.5 LW
N
407.235 374 M
407.235 371.83 L
S
GR
GS
0.149 GC
2 setlinecap
1 LJ
0.5 LW
N
426.951 374 M
426.951 371.83 L
S
GR
GS
0.149 GC
2 setlinecap
1 LJ
0.5 LW
N
466.382 374 M
466.382 371.83 L
S
GR
GS
0.149 GC
2 setlinecap
1 LJ
0.5 LW
N
486.098 374 M
486.098 371.83 L
S
GR
GS
0.149 GC
2 setlinecap
1 LJ
0.5 LW
N
505.814 374 M
505.814 371.83 L
S
GR
GS
0.149 GC
2 setlinecap
1 LJ
0.5 LW
N
91.783 31.5 M
91.783 33.67 L
S
GR
GS
0.149 GC
2 setlinecap
1 LJ
0.5 LW
N
111.499 31.5 M
111.499 33.67 L
S
GR
GS
0.149 GC
2 setlinecap
1 LJ
0.5 LW
N
150.93 31.5 M
150.93 33.67 L
S
GR
GS
0.149 GC
2 setlinecap
1 LJ
0.5 LW
N
170.646 31.5 M
170.646 33.67 L
S
GR
GS
0.149 GC
2 setlinecap
1 LJ
0.5 LW
N
190.362 31.5 M
190.362 33.67 L
S
GR
GS
0.149 GC
2 setlinecap
1 LJ
0.5 LW
N
229.793 31.5 M
229.793 33.67 L
S
GR
GS
0.149 GC
2 setlinecap
1 LJ
0.5 LW
N
249.509 31.5 M
249.509 33.67 L
S
GR
GS
0.149 GC
2 setlinecap
1 LJ
0.5 LW
N
269.225 31.5 M
269.225 33.67 L
S
GR
GS
0.149 GC
2 setlinecap
1 LJ
0.5 LW
N
308.656 31.5 M
308.656 33.67 L
S
GR
GS
0.149 GC
2 setlinecap
1 LJ
0.5 LW
N
328.372 31.5 M
328.372 33.67 L
S
GR
GS
0.149 GC
2 setlinecap
1 LJ
0.5 LW
N
348.088 31.5 M
348.088 33.67 L
S
GR
GS
0.149 GC
2 setlinecap
1 LJ
0.5 LW
N
387.519 31.5 M
387.519 33.67 L
S
GR
GS
0.149 GC
2 setlinecap
1 LJ
0.5 LW
N
407.235 31.5 M
407.235 33.67 L
S
GR
GS
0.149 GC
2 setlinecap
1 LJ
0.5 LW
N
426.951 31.5 M
426.951 33.67 L
S
GR
GS
0.149 GC
2 setlinecap
1 LJ
0.5 LW
N
466.382 31.5 M
466.382 33.67 L
S
GR
GS
0.149 GC
2 setlinecap
1 LJ
0.5 LW
N
486.098 31.5 M
486.098 33.67 L
S
GR
GS
0.149 GC
2 setlinecap
1 LJ
0.5 LW
N
505.814 31.5 M
505.814 33.67 L
S
GR
GS
[1 0 0 1 131.21451 378.79999] CT
0.149 GC
/Helvetica 14 F
GS
[1 0 0 1 0 0] CT
-16 14 moveto 
1 -1 scale
(2000) t 
GR
GR
GS
[1 0 0 1 210.0775 378.79999] CT
0.149 GC
/Helvetica 14 F
GS
[1 0 0 1 0 0] CT
-16 14 moveto 
1 -1 scale
(4000) t 
GR
GR
GS
[1 0 0 1 288.94049 378.79999] CT
0.149 GC
/Helvetica 14 F
GS
[1 0 0 1 0 0] CT
-16 14 moveto 
1 -1 scale
(6000) t 
GR
GR
GS
[1 0 0 1 367.8035 378.79999] CT
0.149 GC
/Helvetica 14 F
GS
[1 0 0 1 0 0] CT
-16 14 moveto 
1 -1 scale
(8000) t 
GR
GR
GS
[1 0 0 1 446.6665 378.79999] CT
0.149 GC
/Helvetica 14 F
GS
[1 0 0 1 0 0] CT
-19.5 14 moveto 
1 -1 scale
(10000) t 
GR
GR
GS
[1 0 0 1 290.00021 396.29999] CT
0.149 GC
/Helvetica 15.4 F
GS
[1 0 0 1 0 0] CT
-42 15 moveto 
1 -1 scale
(Bitrate\(kb/s\)) t 
GR
GR
GS
0.149 GC
2 setlinecap
1 LJ
0.5 LW
N
73 374 M
73 31.5 L
S
GR
GS
0.149 GC
2 setlinecap
1 LJ
0.5 LW
N
507 374 M
507 31.5 L
S
GR
GS
0.149 GC
2 setlinecap
1 LJ
0.5 LW
N
73 361.758 M
77.34 361.758 L
S
GR
GS
0.149 GC
2 setlinecap
1 LJ
0.5 LW
N
73 323.482 M
77.34 323.482 L
S
GR
GS
0.149 GC
2 setlinecap
1 LJ
0.5 LW
N
73 285.207 M
77.34 285.207 L
S
GR
GS
0.149 GC
2 setlinecap
1 LJ
0.5 LW
N
73 246.931 M
77.34 246.931 L
S
GR
GS
0.149 GC
2 setlinecap
1 LJ
0.5 LW
N
73 208.655 M
77.34 208.655 L
S
GR
GS
0.149 GC
2 setlinecap
1 LJ
0.5 LW
N
73 170.38 M
77.34 170.38 L
S
GR
GS
0.149 GC
2 setlinecap
1 LJ
0.5 LW
N
73 132.104 M
77.34 132.104 L
S
GR
GS
0.149 GC
2 setlinecap
1 LJ
0.5 LW
N
73 93.828 M
77.34 93.828 L
S
GR
GS
0.149 GC
2 setlinecap
1 LJ
0.5 LW
N
73 55.553 M
77.34 55.553 L
S
GR
GS
0.149 GC
2 setlinecap
1 LJ
0.5 LW
N
507 361.758 M
502.66 361.758 L
S
GR
GS
0.149 GC
2 setlinecap
1 LJ
0.5 LW
N
507 323.482 M
502.66 323.482 L
S
GR
GS
0.149 GC
2 setlinecap
1 LJ
0.5 LW
N
507 285.207 M
502.66 285.207 L
S
GR
GS
0.149 GC
2 setlinecap
1 LJ
0.5 LW
N
507 246.931 M
502.66 246.931 L
S
GR
GS
0.149 GC
2 setlinecap
1 LJ
0.5 LW
N
507 208.655 M
502.66 208.655 L
S
GR
GS
0.149 GC
2 setlinecap
1 LJ
0.5 LW
N
507 170.38 M
502.66 170.38 L
S
GR
GS
0.149 GC
2 setlinecap
1 LJ
0.5 LW
N
507 132.104 M
502.66 132.104 L
S
GR
GS
0.149 GC
2 setlinecap
1 LJ
0.5 LW
N
507 93.828 M
502.66 93.828 L
S
GR
GS
0.149 GC
2 setlinecap
1 LJ
0.5 LW
N
507 55.553 M
502.66 55.553 L
S
GR
GS
0.149 GC
2 setlinecap
1 LJ
0.5 LW
N
73 369.413 M
75.17 369.413 L
S
GR
GS
0.149 GC
2 setlinecap
1 LJ
0.5 LW
N
73 354.103 M
75.17 354.103 L
S
GR
GS
0.149 GC
2 setlinecap
1 LJ
0.5 LW
N
73 346.448 M
75.17 346.448 L
S
GR
GS
0.149 GC
2 setlinecap
1 LJ
0.5 LW
N
73 338.793 M
75.17 338.793 L
S
GR
GS
0.149 GC
2 setlinecap
1 LJ
0.5 LW
N
73 331.137 M
75.17 331.137 L
S
GR
GS
0.149 GC
2 setlinecap
1 LJ
0.5 LW
N
73 315.827 M
75.17 315.827 L
S
GR
GS
0.149 GC
2 setlinecap
1 LJ
0.5 LW
N
73 308.172 M
75.17 308.172 L
S
GR
GS
0.149 GC
2 setlinecap
1 LJ
0.5 LW
N
73 300.517 M
75.17 300.517 L
S
GR
GS
0.149 GC
2 setlinecap
1 LJ
0.5 LW
N
73 292.862 M
75.17 292.862 L
S
GR
GS
0.149 GC
2 setlinecap
1 LJ
0.5 LW
N
73 277.552 M
75.17 277.552 L
S
GR
GS
0.149 GC
2 setlinecap
1 LJ
0.5 LW
N
73 269.896 M
75.17 269.896 L
S
GR
GS
0.149 GC
2 setlinecap
1 LJ
0.5 LW
N
73 262.241 M
75.17 262.241 L
S
GR
GS
0.149 GC
2 setlinecap
1 LJ
0.5 LW
N
73 254.586 M
75.17 254.586 L
S
GR
GS
0.149 GC
2 setlinecap
1 LJ
0.5 LW
N
73 239.276 M
75.17 239.276 L
S
GR
GS
0.149 GC
2 setlinecap
1 LJ
0.5 LW
N
73 231.621 M
75.17 231.621 L
S
GR
GS
0.149 GC
2 setlinecap
1 LJ
0.5 LW
N
73 223.966 M
75.17 223.966 L
S
GR
GS
0.149 GC
2 setlinecap
1 LJ
0.5 LW
N
73 216.311 M
75.17 216.311 L
S
GR
GS
0.149 GC
2 setlinecap
1 LJ
0.5 LW
N
73 201 M
75.17 201 L
S
GR
GS
0.149 GC
2 setlinecap
1 LJ
0.5 LW
N
73 193.345 M
75.17 193.345 L
S
GR
GS
0.149 GC
2 setlinecap
1 LJ
0.5 LW
N
73 185.69 M
75.17 185.69 L
S
GR
GS
0.149 GC
2 setlinecap
1 LJ
0.5 LW
N
73 178.035 M
75.17 178.035 L
S
GR
GS
0.149 GC
2 setlinecap
1 LJ
0.5 LW
N
73 162.725 M
75.17 162.725 L
S
GR
GS
0.149 GC
2 setlinecap
1 LJ
0.5 LW
N
73 155.07 M
75.17 155.07 L
S
GR
GS
0.149 GC
2 setlinecap
1 LJ
0.5 LW
N
73 147.414 M
75.17 147.414 L
S
GR
GS
0.149 GC
2 setlinecap
1 LJ
0.5 LW
N
73 139.759 M
75.17 139.759 L
S
GR
GS
0.149 GC
2 setlinecap
1 LJ
0.5 LW
N
73 124.449 M
75.17 124.449 L
S
GR
GS
0.149 GC
2 setlinecap
1 LJ
0.5 LW
N
73 116.794 M
75.17 116.794 L
S
GR
GS
0.149 GC
2 setlinecap
1 LJ
0.5 LW
N
73 109.139 M
75.17 109.139 L
S
GR
GS
0.149 GC
2 setlinecap
1 LJ
0.5 LW
N
73 101.484 M
75.17 101.484 L
S
GR
GS
0.149 GC
2 setlinecap
1 LJ
0.5 LW
N
73 86.173 M
75.17 86.173 L
S
GR
GS
0.149 GC
2 setlinecap
1 LJ
0.5 LW
N
73 78.518 M
75.17 78.518 L
S
GR
GS
0.149 GC
2 setlinecap
1 LJ
0.5 LW
N
73 70.863 M
75.17 70.863 L
S
GR
GS
0.149 GC
2 setlinecap
1 LJ
0.5 LW
N
73 63.208 M
75.17 63.208 L
S
GR
GS
0.149 GC
2 setlinecap
1 LJ
0.5 LW
N
73 47.898 M
75.17 47.898 L
S
GR
GS
0.149 GC
2 setlinecap
1 LJ
0.5 LW
N
73 40.243 M
75.17 40.243 L
S
GR
GS
0.149 GC
2 setlinecap
1 LJ
0.5 LW
N
73 32.587 M
75.17 32.587 L
S
GR
GS
0.149 GC
2 setlinecap
1 LJ
0.5 LW
N
507 369.413 M
504.83 369.413 L
S
GR
GS
0.149 GC
2 setlinecap
1 LJ
0.5 LW
N
507 354.103 M
504.83 354.103 L
S
GR
GS
0.149 GC
2 setlinecap
1 LJ
0.5 LW
N
507 346.448 M
504.83 346.448 L
S
GR
GS
0.149 GC
2 setlinecap
1 LJ
0.5 LW
N
507 338.793 M
504.83 338.793 L
S
GR
GS
0.149 GC
2 setlinecap
1 LJ
0.5 LW
N
507 331.137 M
504.83 331.137 L
S
GR
GS
0.149 GC
2 setlinecap
1 LJ
0.5 LW
N
507 315.827 M
504.83 315.827 L
S
GR
GS
0.149 GC
2 setlinecap
1 LJ
0.5 LW
N
507 308.172 M
504.83 308.172 L
S
GR
GS
0.149 GC
2 setlinecap
1 LJ
0.5 LW
N
507 300.517 M
504.83 300.517 L
S
GR
GS
0.149 GC
2 setlinecap
1 LJ
0.5 LW
N
507 292.862 M
504.83 292.862 L
S
GR
GS
0.149 GC
2 setlinecap
1 LJ
0.5 LW
N
507 277.552 M
504.83 277.552 L
S
GR
GS
0.149 GC
2 setlinecap
1 LJ
0.5 LW
N
507 269.896 M
504.83 269.896 L
S
GR
GS
0.149 GC
2 setlinecap
1 LJ
0.5 LW
N
507 262.241 M
504.83 262.241 L
S
GR
GS
0.149 GC
2 setlinecap
1 LJ
0.5 LW
N
507 254.586 M
504.83 254.586 L
S
GR
GS
0.149 GC
2 setlinecap
1 LJ
0.5 LW
N
507 239.276 M
504.83 239.276 L
S
GR
GS
0.149 GC
2 setlinecap
1 LJ
0.5 LW
N
507 231.621 M
504.83 231.621 L
S
GR
GS
0.149 GC
2 setlinecap
1 LJ
0.5 LW
N
507 223.966 M
504.83 223.966 L
S
GR
GS
0.149 GC
2 setlinecap
1 LJ
0.5 LW
N
507 216.311 M
504.83 216.311 L
S
GR
GS
0.149 GC
2 setlinecap
1 LJ
0.5 LW
N
507 201 M
504.83 201 L
S
GR
GS
0.149 GC
2 setlinecap
1 LJ
0.5 LW
N
507 193.345 M
504.83 193.345 L
S
GR
GS
0.149 GC
2 setlinecap
1 LJ
0.5 LW
N
507 185.69 M
504.83 185.69 L
S
GR
GS
0.149 GC
2 setlinecap
1 LJ
0.5 LW
N
507 178.035 M
504.83 178.035 L
S
GR
GS
0.149 GC
2 setlinecap
1 LJ
0.5 LW
N
507 162.725 M
504.83 162.725 L
S
GR
GS
0.149 GC
2 setlinecap
1 LJ
0.5 LW
N
507 155.07 M
504.83 155.07 L
S
GR
GS
0.149 GC
2 setlinecap
1 LJ
0.5 LW
N
507 147.414 M
504.83 147.414 L
S
GR
GS
0.149 GC
2 setlinecap
1 LJ
0.5 LW
N
507 139.759 M
504.83 139.759 L
S
GR
GS
0.149 GC
2 setlinecap
1 LJ
0.5 LW
N
507 124.449 M
504.83 124.449 L
S
GR
GS
0.149 GC
2 setlinecap
1 LJ
0.5 LW
N
507 116.794 M
504.83 116.794 L
S
GR
GS
0.149 GC
2 setlinecap
1 LJ
0.5 LW
N
507 109.139 M
504.83 109.139 L
S
GR
GS
0.149 GC
2 setlinecap
1 LJ
0.5 LW
N
507 101.484 M
504.83 101.484 L
S
GR
GS
0.149 GC
2 setlinecap
1 LJ
0.5 LW
N
507 86.173 M
504.83 86.173 L
S
GR
GS
0.149 GC
2 setlinecap
1 LJ
0.5 LW
N
507 78.518 M
504.83 78.518 L
S
GR
GS
0.149 GC
2 setlinecap
1 LJ
0.5 LW
N
507 70.863 M
504.83 70.863 L
S
GR
GS
0.149 GC
2 setlinecap
1 LJ
0.5 LW
N
507 63.208 M
504.83 63.208 L
S
GR
GS
0.149 GC
2 setlinecap
1 LJ
0.5 LW
N
507 47.898 M
504.83 47.898 L
S
GR
GS
0.149 GC
2 setlinecap
1 LJ
0.5 LW
N
507 40.243 M
504.83 40.243 L
S
GR
GS
0.149 GC
2 setlinecap
1 LJ
0.5 LW
N
507 32.587 M
504.83 32.587 L
S
GR
GS
[1 0 0 1 68.2 361.758] CT
0.149 GC
/Helvetica 14 F
GS
[1 0 0 1 0 0] CT
-16 5.5 moveto 
1 -1 scale
(55) t 
GR
GR
GS
[1 0 0 1 68.2 323.48233] CT
0.149 GC
/Helvetica 14 F
GS
[1 0 0 1 0 0] CT
-16 5.5 moveto 
1 -1 scale
(60) t 
GR
GR
GS
[1 0 0 1 68.2 285.2067] CT
0.149 GC
/Helvetica 14 F
GS
[1 0 0 1 0 0] CT
-16 5.5 moveto 
1 -1 scale
(65) t 
GR
GR
GS
[1 0 0 1 68.2 246.93106] CT
0.149 GC
/Helvetica 14 F
GS
[1 0 0 1 0 0] CT
-16 5.5 moveto 
1 -1 scale
(70) t 
GR
GR
GS
[1 0 0 1 68.2 208.65541] CT
0.149 GC
/Helvetica 14 F
GS
[1 0 0 1 0 0] CT
-16 5.5 moveto 
1 -1 scale
(75) t 
GR
GR
GS
[1 0 0 1 68.2 170.37978] CT
0.149 GC
/Helvetica 14 F
GS
[1 0 0 1 0 0] CT
-16 5.5 moveto 
1 -1 scale
(80) t 
GR
GR
GS
[1 0 0 1 68.2 132.10413] CT
0.149 GC
/Helvetica 14 F
GS
[1 0 0 1 0 0] CT
-16 5.5 moveto 
1 -1 scale
(85) t 
GR
GR
GS
[1 0 0 1 68.2 93.82849] CT
0.149 GC
/Helvetica 14 F
GS
[1 0 0 1 0 0] CT
-16 5.5 moveto 
1 -1 scale
(90) t 
GR
GR
GS
[1 0 0 1 68.2 55.55285] CT
0.149 GC
/Helvetica 14 F
GS
[1 0 0 1 0 0] CT
-16 5.5 moveto 
1 -1 scale
(95) t 
GR
GR
GS
[0 -1 1 0 49.2 202.74983] CT
0.149 GC
/Helvetica 15.4 F
GS
[1 0 0 1 0 0] CT
-21 -4 moveto 
1 -1 scale
(VMAF) t 
GR
GR
GS
[1 0 0 1 290.00027 29.57498] CT
/Helvetica-Bold 15.4 F
GS
[1 0 0 1 0 0] CT
-184.5 -4 moveto 
1 -1 scale
(FoodMarket_1920x1080_5994_10bit_420.y4m-hevc) t 
GR
GR
GS
0 0.447 0.741 RC
1 LJ
0.5 LW
N
73.396 371.69 M
74.185 366.256 L
74.974 360.832 L
75.762 355.424 L
76.551 350.038 L
77.34 344.682 L
78.128 339.363 L
78.917 334.088 L
79.706 328.864 L
80.494 323.697 L
81.283 318.594 L
82.071 313.564 L
82.86 308.612 L
83.649 303.745 L
84.437 298.971 L
85.226 294.296 L
86.015 289.728 L
86.803 285.273 L
87.592 280.939 L
88.38 276.731 L
89.169 272.658 L
89.958 268.727 L
90.746 264.943 L
91.535 261.315 L
92.324 257.849 L
93.112 254.552 L
93.901 251.431 L
94.689 248.493 L
95.478 245.689 L
96.267 242.92 L
97.055 240.183 L
97.844 237.478 L
98.633 234.807 L
99.421 232.168 L
100.21 229.561 L
100.999 226.988 L
101.787 224.447 L
102.576 221.94 L
103.364 219.465 L
104.153 217.024 L
104.942 214.615 L
105.73 212.24 L
106.519 209.898 L
107.308 207.589 L
108.096 205.314 L
108.885 203.072 L
109.673 200.863 L
110.462 198.688 L
111.251 196.547 L
112.039 194.439 L
112.828 192.365 L
113.617 190.325 L
114.405 188.318 L
115.194 186.345 L
115.983 184.406 L
116.771 182.501 L
117.56 180.631 L
118.348 178.794 L
119.137 176.991 L
119.926 175.223 L
120.714 173.488 L
121.503 171.789 L
122.292 170.123 L
123.08 168.492 L
123.869 166.895 L
124.657 165.333 L
125.446 163.806 L
126.235 162.313 L
127.023 160.855 L
127.812 159.431 L
128.601 158.043 L
129.389 156.689 L
130.178 155.37 L
130.966 154.087 L
131.755 152.838 L
132.544 151.624 L
133.332 150.446 L
134.121 149.303 L
134.91 148.195 L
135.698 147.122 L
136.487 146.085 L
137.276 145.083 L
138.064 144.113 L
138.853 143.154 L
139.641 142.201 L
140.43 141.256 L
141.219 140.317 L
142.007 139.385 L
142.796 138.46 L
143.585 137.542 L
144.373 136.631 L
145.162 135.727 L
145.95 134.83 L
146.739 133.939 L
147.528 133.056 L
148.316 132.179 L
149.105 131.309 L
149.894 130.445 L
150.682 129.589 L
151.471 128.739 L
152.259 127.896 L
153.048 127.06 L
153.837 126.231 L
154.625 125.408 L
155.414 124.592 L
156.203 123.783 L
156.991 122.981 L
157.78 122.185 L
158.569 121.396 L
159.357 120.613 L
160.146 119.838 L
160.934 119.069 L
161.723 118.306 L
162.512 117.55 L
163.3 116.801 L
164.089 116.059 L
164.878 115.323 L
165.666 114.594 L
166.455 113.871 L
167.243 113.155 L
168.032 112.445 L
168.821 111.742 L
169.609 111.046 L
170.398 110.356 L
171.187 109.672 L
171.975 108.996 L
172.764 108.325 L
173.553 107.661 L
174.341 107.004 L
175.13 106.353 L
175.918 105.709 L
176.707 105.071 L
177.496 104.439 L
178.284 103.814 L
179.073 103.196 L
179.862 102.583 L
180.65 101.978 L
181.439 101.378 L
182.227 100.785 L
183.016 100.198 L
183.805 99.618 L
184.593 99.044 L
185.382 98.477 L
186.171 97.915 L
186.959 97.361 L
187.748 96.812 L
188.536 96.27 L
189.325 95.734 L
190.114 95.204 L
190.902 94.681 L
191.691 94.163 L
192.48 93.652 L
193.268 93.148 L
194.057 92.649 L
194.846 92.157 L
195.634 91.671 L
196.423 91.191 L
197.211 90.718 L
198 90.25 L
198.789 89.789 L
199.577 89.334 L
200.366 88.885 L
201.155 88.443 L
201.943 88.006 L
202.732 87.575 L
203.52 87.151 L
204.309 86.733 L
205.098 86.321 L
205.886 85.914 L
206.675 85.514 L
207.464 85.12 L
208.252 84.733 L
209.041 84.351 L
209.829 83.975 L
210.618 83.605 L
211.407 83.241 L
212.195 82.883 L
212.984 82.532 L
213.773 82.186 L
214.561 81.846 L
215.35 81.512 L
216.139 81.184 L
216.927 80.862 L
217.716 80.546 L
218.504 80.236 L
219.293 79.932 L
220.082 79.633 L
220.87 79.341 L
221.659 79.054 L
222.448 78.774 L
223.236 78.499 L
224.025 78.23 L
224.813 77.967 L
225.602 77.71 L
226.391 77.458 L
227.179 77.211 L
227.968 76.965 L
228.757 76.72 L
229.545 76.475 L
230.334 76.231 L
231.122 75.988 L
231.911 75.744 L
232.7 75.502 L
233.488 75.26 L
234.277 75.018 L
235.066 74.777 L
235.854 74.537 L
236.643 74.297 L
237.432 74.057 L
238.22 73.818 L
239.009 73.58 L
239.797 73.342 L
240.586 73.105 L
241.375 72.868 L
242.163 72.632 L
242.952 72.397 L
243.741 72.162 L
244.529 71.927 L
245.318 71.693 L
246.106 71.46 L
246.895 71.227 L
247.684 70.995 L
248.472 70.763 L
249.261 70.532 L
250.05 70.302 L
250.838 70.072 L
251.627 69.842 L
252.415 69.614 L
253.204 69.385 L
253.993 69.158 L
254.781 68.931 L
255.57 68.704 L
256.359 68.478 L
257.147 68.253 L
257.936 68.028 L
258.725 67.804 L
259.513 67.58 L
260.302 67.357 L
261.09 67.135 L
261.879 66.913 L
262.668 66.691 L
263.456 66.471 L
264.245 66.251 L
265.034 66.031 L
265.822 65.812 L
266.611 65.594 L
267.399 65.376 L
268.188 65.159 L
268.977 64.943 L
269.765 64.727 L
270.554 64.511 L
271.343 64.297 L
272.131 64.083 L
272.92 63.869 L
273.708 63.656 L
274.497 63.444 L
275.286 63.232 L
276.074 63.021 L
276.863 62.811 L
277.652 62.601 L
278.44 62.392 L
279.229 62.183 L
280.018 61.976 L
280.806 61.768 L
281.595 61.562 L
282.383 61.356 L
283.172 61.15 L
283.961 60.945 L
284.749 60.741 L
285.538 60.538 L
286.327 60.335 L
287.115 60.132 L
287.904 59.931 L
288.692 59.73 L
289.481 59.529 L
290.27 59.33 L
291.058 59.131 L
291.847 58.932 L
292.636 58.734 L
293.424 58.537 L
294.213 58.341 L
295.002 58.145 L
295.79 57.95 L
296.579 57.755 L
297.367 57.561 L
298.156 57.368 L
298.945 57.176 L
299.733 56.984 L
300.522 56.792 L
301.311 56.602 L
302.099 56.412 L
302.888 56.223 L
303.676 56.034 L
304.465 55.846 L
305.254 55.659 L
306.042 55.472 L
306.831 55.287 L
307.62 55.101 L
308.408 54.917 L
309.197 54.733 L
309.985 54.55 L
310.774 54.367 L
311.563 54.185 L
312.351 54.004 L
313.14 53.824 L
313.929 53.644 L
314.717 53.465 L
315.506 53.286 L
316.295 53.109 L
317.083 52.932 L
317.872 52.755 L
318.66 52.58 L
319.449 52.405 L
320.238 52.23 L
321.026 52.057 L
321.815 51.884 L
322.604 51.712 L
323.392 51.54 L
324.181 51.37 L
324.969 51.2 L
325.758 51.03 L
326.547 50.862 L
327.335 50.694 L
328.124 50.527 L
328.913 50.36 L
329.701 50.194 L
330.49 50.029 L
331.279 49.865 L
332.067 49.701 L
332.856 49.538 L
333.644 49.376 L
334.433 49.215 L
335.222 49.054 L
336.01 48.894 L
336.799 48.735 L
337.588 48.576 L
338.376 48.418 L
339.165 48.261 L
339.953 48.105 L
340.742 47.949 L
341.531 47.795 L
342.319 47.64 L
343.108 47.487 L
343.897 47.334 L
344.685 47.182 L
345.474 47.031 L
346.262 46.881 L
347.051 46.731 L
347.84 46.582 L
348.628 46.434 L
349.417 46.287 L
350.206 46.14 L
350.994 45.994 L
351.783 45.849 L
352.572 45.705 L
353.36 45.561 L
354.149 45.418 L
354.937 45.276 L
355.726 45.135 L
356.515 44.994 L
357.303 44.854 L
358.092 44.715 L
358.881 44.577 L
359.669 44.439 L
360.458 44.303 L
361.246 44.167 L
362.035 44.032 L
362.824 43.897 L
363.612 43.764 L
364.401 43.631 L
365.19 43.499 L
365.978 43.367 L
366.767 43.237 L
367.555 43.107 L
368.344 42.978 L
369.133 42.85 L
369.921 42.723 L
370.71 42.596 L
371.499 42.47 L
372.287 42.345 L
373.076 42.221 L
373.865 42.098 L
374.653 41.975 L
375.442 41.854 L
376.23 41.733 L
377.019 41.612 L
377.808 41.493 L
378.596 41.374 L
379.385 41.257 L
380.174 41.14 L
380.962 41.024 L
381.751 40.908 L
382.539 40.794 L
383.328 40.68 L
384.117 40.567 L
384.905 40.455 L
385.694 40.344 L
386.483 40.234 L
387.271 40.124 L
388.06 40.015 L
388.848 39.907 L
389.637 39.8 L
390.426 39.694 L
391.214 39.588 L
392.003 39.484 L
392.792 39.38 L
393.58 39.277 L
394.369 39.175 L
395.158 39.074 L
395.946 38.973 L
396.735 38.874 L
397.523 38.775 L
398.312 38.677 L
399.101 38.58 L
399.889 38.484 L
400.678 38.388 L
401.467 38.294 L
402.255 38.2 L
403.044 38.107 L
403.832 38.015 L
404.621 37.924 L
405.41 37.834 L
406.198 37.745 L
406.987 37.656 L
407.776 37.568 L
408.564 37.482 L
409.353 37.396 L
410.142 37.311 L
410.93 37.226 L
411.719 37.143 L
412.507 37.061 L
413.296 36.979 L
414.085 36.898 L
414.873 36.818 L
415.662 36.739 L
416.451 36.661 L
417.239 36.584 L
418.028 36.508 L
418.816 36.432 L
419.605 36.358 L
420.394 36.284 L
421.182 36.211 L
421.971 36.139 L
422.76 36.068 L
423.548 35.998 L
424.337 35.929 L
425.125 35.86 L
425.914 35.793 L
426.703 35.726 L
427.491 35.661 L
428.28 35.596 L
429.069 35.532 L
429.857 35.469 L
430.646 35.407 L
431.435 35.346 L
432.223 35.286 L
433.012 35.226 L
433.8 35.168 L
434.589 35.11 L
435.378 35.054 L
436.166 34.998 L
436.955 34.943 L
437.744 34.889 L
438.532 34.836 L
439.321 34.785 L
440.109 34.733 L
440.898 34.683 L
441.687 34.634 L
442.475 34.586 L
443.264 34.538 L
444.053 34.492 L
444.841 34.446 L
445.63 34.402 L
446.418 34.358 L
447.207 34.315 L
447.996 34.273 L
448.784 34.233 L
449.573 34.193 L
450.362 34.154 L
451.15 34.116 L
451.939 34.079 L
452.728 34.042 L
453.516 34.007 L
454.305 33.973 L
455.093 33.94 L
455.882 33.907 L
456.671 33.876 L
457.459 33.845 L
458.248 33.816 L
459.037 33.787 L
459.825 33.76 L
460.614 33.733 L
461.402 33.708 L
462.191 33.683 L
462.98 33.659 L
463.768 33.636 L
464.557 33.615 L
465.346 33.594 L
466.134 33.574 L
466.923 33.555 L
467.711 33.537 L
468.5 33.52 L
469.289 33.504 L
470.077 33.489 L
470.866 33.475 L
471.655 33.462 L
472.443 33.45 L
473.232 33.439 L
474.021 33.429 L
474.809 33.42 L
475.598 33.412 L
476.386 33.405 L
477.175 33.399 L
477.964 33.394 L
478.752 33.39 L
479.541 33.386 L
480.33 33.384 L
481.118 33.383 L
S
GR
GS
0.851 0.325 0.098 RC
1 LJ
0.5 LW
N
74.119 364.872 M
74.907 359.621 L
75.696 354.376 L
76.485 349.146 L
77.273 343.937 L
78.062 338.755 L
78.851 333.607 L
79.639 328.499 L
80.428 323.438 L
81.216 318.43 L
82.005 313.482 L
82.794 308.6 L
83.582 303.792 L
84.371 299.062 L
85.16 294.419 L
85.948 289.867 L
86.737 285.415 L
87.525 281.068 L
88.314 276.833 L
89.103 272.717 L
89.891 268.725 L
90.68 264.865 L
91.469 261.143 L
92.257 257.566 L
93.046 254.14 L
93.835 250.871 L
94.623 247.766 L
95.412 244.831 L
96.2 242.074 L
96.989 239.408 L
97.778 236.774 L
98.566 234.171 L
99.355 231.599 L
100.144 229.059 L
100.932 226.55 L
101.721 224.073 L
102.509 221.627 L
103.298 219.212 L
104.087 216.829 L
104.875 214.477 L
105.664 212.157 L
106.453 209.868 L
107.241 207.61 L
108.03 205.384 L
108.819 203.189 L
109.607 201.026 L
110.396 198.895 L
111.184 196.794 L
111.973 194.726 L
112.762 192.688 L
113.55 190.682 L
114.339 188.708 L
115.128 186.765 L
115.916 184.854 L
116.705 182.974 L
117.493 181.126 L
118.282 179.309 L
119.071 177.524 L
119.859 175.77 L
120.648 174.048 L
121.437 172.358 L
122.225 170.699 L
123.014 169.072 L
123.802 167.476 L
124.591 165.912 L
125.38 164.379 L
126.168 162.878 L
126.957 161.409 L
127.746 159.971 L
128.534 158.565 L
129.323 157.191 L
130.112 155.848 L
130.9 154.537 L
131.689 153.257 L
132.477 152.01 L
133.266 150.793 L
134.055 149.609 L
134.843 148.456 L
135.632 147.335 L
136.421 146.246 L
137.209 145.188 L
137.998 144.162 L
138.786 143.168 L
139.575 142.206 L
140.364 141.274 L
141.152 140.354 L
141.941 139.44 L
142.73 138.533 L
143.518 137.632 L
144.307 136.737 L
145.095 135.849 L
145.884 134.967 L
146.673 134.09 L
147.461 133.221 L
148.25 132.357 L
149.039 131.5 L
149.827 130.648 L
150.616 129.803 L
151.405 128.965 L
152.193 128.132 L
152.982 127.306 L
153.77 126.486 L
154.559 125.672 L
155.348 124.864 L
156.136 124.062 L
156.925 123.267 L
157.714 122.477 L
158.502 121.694 L
159.291 120.917 L
160.079 120.146 L
160.868 119.382 L
161.657 118.623 L
162.445 117.871 L
163.234 117.124 L
164.023 116.384 L
164.811 115.65 L
165.6 114.922 L
166.388 114.2 L
167.177 113.484 L
167.966 112.775 L
168.754 112.071 L
169.543 111.374 L
170.332 110.682 L
171.12 109.997 L
171.909 109.317 L
172.698 108.644 L
173.486 107.977 L
174.275 107.316 L
175.063 106.661 L
175.852 106.012 L
176.641 105.369 L
177.429 104.732 L
178.218 104.101 L
179.007 103.476 L
179.795 102.857 L
180.584 102.245 L
181.372 101.638 L
182.161 101.037 L
182.95 100.442 L
183.738 99.853 L
184.527 99.27 L
185.316 98.693 L
186.104 98.122 L
186.893 97.558 L
187.682 96.999 L
188.47 96.446 L
189.259 95.898 L
190.047 95.357 L
190.836 94.822 L
191.625 94.293 L
192.413 93.77 L
193.202 93.252 L
193.991 92.741 L
194.779 92.235 L
195.568 91.736 L
196.356 91.242 L
197.145 90.754 L
197.934 90.273 L
198.722 89.797 L
199.511 89.327 L
200.3 88.862 L
201.088 88.404 L
201.877 87.952 L
202.665 87.505 L
203.454 87.064 L
204.243 86.629 L
205.031 86.2 L
205.82 85.777 L
206.609 85.36 L
207.397 84.949 L
208.186 84.543 L
208.975 84.143 L
209.763 83.749 L
210.552 83.361 L
211.34 82.979 L
212.129 82.602 L
212.918 82.231 L
213.706 81.866 L
214.495 81.507 L
215.284 81.154 L
216.072 80.806 L
216.861 80.464 L
217.649 80.128 L
218.438 79.798 L
219.227 79.474 L
220.015 79.155 L
220.804 78.842 L
221.593 78.535 L
222.381 78.233 L
223.17 77.937 L
223.958 77.647 L
224.747 77.363 L
225.536 77.084 L
226.324 76.812 L
227.113 76.544 L
227.902 76.283 L
228.69 76.027 L
229.479 75.777 L
230.268 75.533 L
231.056 75.294 L
231.845 75.061 L
232.633 74.831 L
233.422 74.602 L
234.211 74.373 L
234.999 74.144 L
235.788 73.916 L
236.577 73.689 L
237.365 73.462 L
238.154 73.235 L
238.942 73.009 L
239.731 72.784 L
240.52 72.559 L
241.308 72.334 L
242.097 72.11 L
242.886 71.887 L
243.674 71.664 L
244.463 71.441 L
245.251 71.219 L
246.04 70.998 L
246.829 70.777 L
247.617 70.556 L
248.406 70.336 L
249.195 70.117 L
249.983 69.898 L
250.772 69.68 L
251.561 69.462 L
252.349 69.244 L
253.138 69.028 L
253.926 68.811 L
254.715 68.595 L
255.504 68.38 L
256.292 68.165 L
257.081 67.951 L
257.87 67.737 L
258.658 67.524 L
259.447 67.311 L
260.235 67.099 L
261.024 66.888 L
261.813 66.677 L
262.601 66.466 L
263.39 66.256 L
264.179 66.047 L
264.967 65.838 L
265.756 65.629 L
266.544 65.421 L
267.333 65.214 L
268.122 65.007 L
268.91 64.801 L
269.699 64.595 L
270.488 64.39 L
271.276 64.185 L
272.065 63.981 L
272.854 63.778 L
273.642 63.575 L
274.431 63.372 L
275.219 63.17 L
276.008 62.969 L
276.797 62.768 L
277.585 62.568 L
278.374 62.368 L
279.163 62.169 L
279.951 61.97 L
280.74 61.772 L
281.528 61.575 L
282.317 61.378 L
283.106 61.181 L
283.894 60.985 L
284.683 60.79 L
285.472 60.596 L
286.26 60.401 L
287.049 60.208 L
287.838 60.015 L
288.626 59.822 L
289.415 59.63 L
290.203 59.439 L
290.992 59.248 L
291.781 59.058 L
292.569 58.869 L
293.358 58.68 L
294.147 58.491 L
294.935 58.303 L
295.724 58.116 L
296.512 57.929 L
297.301 57.743 L
298.09 57.558 L
298.878 57.373 L
299.667 57.188 L
300.456 57.004 L
301.244 56.821 L
302.033 56.639 L
302.822 56.456 L
303.61 56.275 L
304.399 56.094 L
305.187 55.914 L
305.976 55.734 L
306.765 55.555 L
307.553 55.377 L
308.342 55.199 L
309.131 55.021 L
309.919 54.845 L
310.708 54.668 L
311.496 54.493 L
312.285 54.318 L
313.074 54.144 L
313.862 53.97 L
314.651 53.797 L
315.44 53.624 L
316.228 53.452 L
317.017 53.281 L
317.805 53.11 L
318.594 52.94 L
319.383 52.771 L
320.171 52.602 L
320.96 52.433 L
321.749 52.266 L
322.537 52.099 L
323.326 51.932 L
324.115 51.767 L
324.903 51.601 L
325.692 51.437 L
326.48 51.273 L
327.269 51.109 L
328.058 50.947 L
328.846 50.785 L
329.635 50.623 L
330.424 50.462 L
331.212 50.302 L
332.001 50.142 L
332.789 49.984 L
333.578 49.825 L
334.367 49.667 L
335.155 49.51 L
335.944 49.354 L
336.733 49.198 L
337.521 49.043 L
338.31 48.888 L
339.098 48.735 L
339.887 48.581 L
340.676 48.429 L
341.464 48.277 L
342.253 48.125 L
343.042 47.975 L
343.83 47.825 L
344.619 47.675 L
345.408 47.526 L
346.196 47.378 L
346.985 47.231 L
347.773 47.084 L
348.562 46.938 L
349.351 46.792 L
350.139 46.647 L
350.928 46.503 L
351.717 46.36 L
352.505 46.217 L
353.294 46.074 L
354.082 45.933 L
354.871 45.792 L
355.66 45.651 L
356.448 45.512 L
357.237 45.373 L
358.026 45.235 L
358.814 45.097 L
359.603 44.96 L
360.391 44.824 L
361.18 44.688 L
361.969 44.553 L
362.757 44.419 L
363.546 44.285 L
364.335 44.152 L
365.123 44.02 L
365.912 43.888 L
366.701 43.757 L
367.489 43.627 L
368.278 43.498 L
369.066 43.369 L
369.855 43.24 L
370.644 43.113 L
371.432 42.986 L
372.221 42.86 L
373.01 42.734 L
373.798 42.61 L
374.587 42.485 L
375.375 42.362 L
376.164 42.239 L
376.953 42.117 L
377.741 41.996 L
378.53 41.875 L
379.319 41.755 L
380.107 41.636 L
380.896 41.517 L
381.684 41.399 L
382.473 41.282 L
383.262 41.166 L
384.05 41.05 L
384.839 40.935 L
385.628 40.82 L
386.416 40.707 L
387.205 40.594 L
387.993 40.481 L
388.782 40.37 L
389.571 40.259 L
390.359 40.149 L
391.148 40.039 L
391.937 39.931 L
392.725 39.823 L
393.514 39.715 L
394.303 39.609 L
395.091 39.503 L
395.88 39.397 L
396.668 39.293 L
397.457 39.189 L
398.246 39.086 L
399.034 38.984 L
399.823 38.882 L
400.612 38.781 L
401.4 38.681 L
402.189 38.582 L
402.977 38.483 L
403.766 38.385 L
404.555 38.288 L
405.343 38.191 L
406.132 38.096 L
406.921 38.001 L
407.709 37.906 L
408.498 37.813 L
409.287 37.72 L
410.075 37.628 L
410.864 37.536 L
411.652 37.446 L
412.441 37.356 L
413.23 37.267 L
414.018 37.178 L
414.807 37.091 L
415.596 37.004 L
416.384 36.917 L
417.173 36.832 L
417.961 36.747 L
418.75 36.663 L
419.539 36.58 L
420.327 36.498 L
421.116 36.416 L
421.905 36.335 L
422.693 36.255 L
423.482 36.175 L
424.27 36.097 L
425.059 36.019 L
425.848 35.941 L
426.636 35.865 L
427.425 35.789 L
428.214 35.714 L
429.002 35.64 L
429.791 35.567 L
430.58 35.494 L
431.368 35.422 L
432.157 35.351 L
432.945 35.281 L
433.734 35.211 L
434.523 35.143 L
435.311 35.075 L
436.1 35.007 L
436.889 34.941 L
437.677 34.875 L
438.466 34.81 L
439.254 34.746 L
440.043 34.683 L
440.832 34.62 L
441.62 34.558 L
442.409 34.497 L
443.198 34.437 L
443.986 34.378 L
444.775 34.319 L
445.564 34.261 L
446.352 34.204 L
447.141 34.148 L
447.929 34.092 L
448.718 34.037 L
449.507 33.983 L
450.295 33.93 L
451.084 33.878 L
451.873 33.826 L
452.661 33.776 L
453.45 33.726 L
454.238 33.676 L
455.027 33.628 L
455.816 33.58 L
456.604 33.534 L
457.393 33.488 L
458.182 33.442 L
458.97 33.398 L
459.759 33.354 L
460.547 33.312 L
461.336 33.27 L
462.125 33.228 L
462.913 33.188 L
463.702 33.149 L
464.491 33.11 L
465.279 33.072 L
466.068 33.035 L
466.857 32.998 L
467.645 32.963 L
468.434 32.928 L
469.222 32.894 L
470.011 32.861 L
470.8 32.829 L
471.588 32.798 L
472.377 32.767 L
473.166 32.737 L
473.954 32.709 L
474.743 32.68 L
475.531 32.653 L
476.32 32.627 L
477.109 32.601 L
477.897 32.576 L
478.686 32.552 L
479.475 32.529 L
480.263 32.507 L
481.052 32.486 L
481.84 32.465 L
482.629 32.445 L
483.418 32.426 L
484.206 32.408 L
484.995 32.391 L
485.784 32.374 L
486.572 32.359 L
487.361 32.344 L
488.15 32.33 L
488.938 32.317 L
489.727 32.305 L
490.515 32.293 L
491.304 32.283 L
492.093 32.273 L
492.881 32.264 L
493.67 32.256 L
494.459 32.249 L
495.247 32.243 L
496.036 32.238 L
496.824 32.233 L
497.613 32.229 L
498.402 32.227 L
499.19 32.225 L
499.979 32.224 L
S
GR
GS
0.929 0.694 0.125 RC
1 LJ
0.5 LW
N
73 374 M
73.789 368.444 L
74.577 362.896 L
75.366 357.365 L
76.155 351.857 L
76.943 346.38 L
77.732 340.941 L
78.52 335.548 L
79.309 330.209 L
80.098 324.929 L
80.886 319.718 L
81.675 314.582 L
82.464 309.528 L
83.252 304.565 L
84.041 299.7 L
84.829 294.939 L
85.618 290.291 L
86.407 285.762 L
87.195 281.361 L
87.984 277.094 L
88.773 272.97 L
89.561 268.995 L
90.35 265.176 L
91.138 261.522 L
91.927 258.039 L
92.716 254.736 L
93.504 251.619 L
94.293 248.695 L
95.082 245.875 L
95.87 243.088 L
96.659 240.337 L
97.448 237.62 L
98.236 234.937 L
99.025 232.289 L
99.813 229.675 L
100.602 227.096 L
101.391 224.552 L
102.179 222.042 L
102.968 219.566 L
103.757 217.125 L
104.545 214.719 L
105.334 212.347 L
106.122 210.01 L
106.911 207.707 L
107.7 205.438 L
108.488 203.204 L
109.277 201.005 L
110.066 198.84 L
110.854 196.71 L
111.643 194.614 L
112.431 192.552 L
113.22 190.525 L
114.009 188.533 L
114.797 186.575 L
115.586 184.652 L
116.375 182.763 L
117.163 180.908 L
117.952 179.088 L
118.741 177.303 L
119.529 175.551 L
120.318 173.835 L
121.106 172.153 L
121.895 170.505 L
122.684 168.892 L
123.472 167.313 L
124.261 165.769 L
125.05 164.259 L
125.838 162.783 L
126.627 161.343 L
127.415 159.936 L
128.204 158.564 L
128.993 157.226 L
129.781 155.923 L
130.57 154.654 L
131.359 153.42 L
132.147 152.22 L
132.936 151.055 L
133.725 149.924 L
134.513 148.827 L
135.302 147.765 L
136.09 146.738 L
136.879 145.744 L
137.668 144.764 L
138.456 143.792 L
139.245 142.827 L
140.034 141.868 L
140.822 140.917 L
141.611 139.972 L
142.399 139.034 L
143.188 138.104 L
143.977 137.18 L
144.765 136.262 L
145.554 135.352 L
146.343 134.449 L
147.131 133.552 L
147.92 132.662 L
148.708 131.78 L
149.497 130.904 L
150.286 130.034 L
151.074 129.172 L
151.863 128.316 L
152.652 127.467 L
153.44 126.625 L
154.229 125.79 L
155.018 124.962 L
155.806 124.14 L
156.595 123.325 L
157.383 122.517 L
158.172 121.716 L
158.961 120.921 L
159.749 120.133 L
160.538 119.352 L
161.327 118.577 L
162.115 117.81 L
162.904 117.049 L
163.692 116.294 L
164.481 115.547 L
165.27 114.806 L
166.058 114.071 L
166.847 113.344 L
167.636 112.623 L
168.424 111.909 L
169.213 111.201 L
170.001 110.5 L
170.79 109.806 L
171.579 109.118 L
172.367 108.437 L
173.156 107.763 L
173.945 107.095 L
174.733 106.434 L
175.522 105.779 L
176.311 105.131 L
177.099 104.49 L
177.888 103.855 L
178.676 103.227 L
179.465 102.605 L
180.254 101.99 L
181.042 101.381 L
181.831 100.779 L
182.62 100.184 L
183.408 99.595 L
184.197 99.012 L
184.985 98.437 L
185.774 97.867 L
186.563 97.304 L
187.351 96.748 L
188.14 96.198 L
188.929 95.655 L
189.717 95.118 L
190.506 94.587 L
191.294 94.063 L
192.083 93.546 L
192.872 93.035 L
193.66 92.53 L
194.449 92.032 L
195.238 91.54 L
196.026 91.055 L
196.815 90.576 L
197.604 90.103 L
198.392 89.637 L
199.181 89.177 L
199.969 88.724 L
200.758 88.277 L
201.547 87.836 L
202.335 87.402 L
203.124 86.974 L
203.913 86.553 L
204.701 86.138 L
205.49 85.729 L
206.278 85.326 L
207.067 84.93 L
207.856 84.54 L
208.644 84.157 L
209.433 83.78 L
210.222 83.409 L
211.01 83.044 L
211.799 82.686 L
212.588 82.334 L
213.376 81.988 L
214.165 81.648 L
214.953 81.315 L
215.742 80.988 L
216.531 80.667 L
217.319 80.353 L
218.108 80.045 L
218.897 79.742 L
219.685 79.447 L
220.474 79.157 L
221.262 78.874 L
222.051 78.596 L
222.84 78.325 L
223.628 78.06 L
224.417 77.802 L
225.206 77.549 L
225.994 77.3 L
226.783 77.051 L
227.571 76.802 L
228.36 76.554 L
229.149 76.307 L
229.937 76.06 L
230.726 75.814 L
231.515 75.568 L
232.303 75.323 L
233.092 75.079 L
233.881 74.835 L
234.669 74.591 L
235.458 74.348 L
236.246 74.106 L
237.035 73.864 L
237.824 73.623 L
238.612 73.383 L
239.401 73.142 L
240.19 72.903 L
240.978 72.664 L
241.767 72.426 L
242.555 72.188 L
243.344 71.951 L
244.133 71.714 L
244.921 71.478 L
245.71 71.243 L
246.499 71.008 L
247.287 70.773 L
248.076 70.54 L
248.864 70.307 L
249.653 70.074 L
250.442 69.842 L
251.23 69.611 L
252.019 69.38 L
252.808 69.15 L
253.596 68.92 L
254.385 68.691 L
255.174 68.463 L
255.962 68.235 L
256.751 68.008 L
257.539 67.781 L
258.328 67.555 L
259.117 67.33 L
259.905 67.105 L
260.694 66.881 L
261.483 66.657 L
262.271 66.434 L
263.06 66.212 L
263.848 65.99 L
264.637 65.769 L
265.426 65.548 L
266.214 65.328 L
267.003 65.109 L
267.792 64.89 L
268.58 64.672 L
269.369 64.455 L
270.158 64.238 L
270.946 64.022 L
271.735 63.807 L
272.523 63.592 L
273.312 63.377 L
274.101 63.164 L
274.889 62.951 L
275.678 62.738 L
276.467 62.527 L
277.255 62.315 L
278.044 62.105 L
278.832 61.895 L
279.621 61.686 L
280.41 61.477 L
281.198 61.27 L
281.987 61.062 L
282.776 60.856 L
283.564 60.65 L
284.353 60.444 L
285.141 60.24 L
285.93 60.036 L
286.719 59.833 L
287.507 59.63 L
288.296 59.428 L
289.085 59.226 L
289.873 59.026 L
290.662 58.826 L
291.451 58.626 L
292.239 58.428 L
293.028 58.23 L
293.816 58.032 L
294.605 57.836 L
295.394 57.64 L
296.182 57.444 L
296.971 57.249 L
297.76 57.055 L
298.548 56.862 L
299.337 56.669 L
300.125 56.477 L
300.914 56.286 L
301.703 56.096 L
302.491 55.906 L
303.28 55.716 L
304.069 55.528 L
304.857 55.34 L
305.646 55.153 L
306.434 54.966 L
307.223 54.781 L
308.012 54.596 L
308.8 54.411 L
309.589 54.227 L
310.378 54.045 L
311.166 53.862 L
311.955 53.681 L
312.744 53.5 L
313.532 53.32 L
314.321 53.14 L
315.109 52.961 L
315.898 52.783 L
316.687 52.606 L
317.475 52.429 L
318.264 52.253 L
319.053 52.078 L
319.841 51.904 L
320.63 51.73 L
321.418 51.557 L
322.207 51.385 L
322.996 51.213 L
323.784 51.042 L
324.573 50.872 L
325.362 50.703 L
326.15 50.534 L
326.939 50.366 L
327.727 50.199 L
328.516 50.032 L
329.305 49.866 L
330.093 49.701 L
330.882 49.537 L
331.671 49.374 L
332.459 49.211 L
333.248 49.049 L
334.037 48.887 L
334.825 48.727 L
335.614 48.567 L
336.402 48.408 L
337.191 48.25 L
337.98 48.092 L
338.768 47.935 L
339.557 47.779 L
340.346 47.624 L
341.134 47.469 L
341.923 47.315 L
342.711 47.162 L
343.5 47.01 L
344.289 46.859 L
345.077 46.708 L
345.866 46.558 L
346.655 46.409 L
347.443 46.26 L
348.232 46.112 L
349.021 45.966 L
349.809 45.819 L
350.598 45.674 L
351.386 45.529 L
352.175 45.386 L
352.964 45.243 L
353.752 45.1 L
354.541 44.959 L
355.33 44.818 L
356.118 44.678 L
356.907 44.539 L
357.695 44.401 L
358.484 44.263 L
359.273 44.127 L
360.061 43.991 L
360.85 43.855 L
361.639 43.721 L
362.427 43.587 L
363.216 43.455 L
364.004 43.323 L
364.793 43.192 L
365.582 43.061 L
366.37 42.932 L
367.159 42.803 L
367.948 42.675 L
368.736 42.548 L
369.525 42.421 L
370.314 42.296 L
371.102 42.171 L
371.891 42.047 L
372.679 41.924 L
373.468 41.802 L
374.257 41.68 L
375.045 41.56 L
375.834 41.44 L
376.623 41.321 L
377.411 41.203 L
378.2 41.085 L
378.988 40.969 L
379.777 40.853 L
380.566 40.738 L
381.354 40.624 L
382.143 40.511 L
382.932 40.399 L
383.72 40.287 L
384.509 40.177 L
385.297 40.067 L
386.086 39.958 L
386.875 39.85 L
387.663 39.742 L
388.452 39.636 L
389.241 39.53 L
390.029 39.426 L
390.818 39.322 L
391.607 39.218 L
392.395 39.116 L
393.184 39.015 L
393.972 38.914 L
394.761 38.815 L
395.55 38.716 L
396.338 38.618 L
397.127 38.521 L
397.916 38.425 L
398.704 38.329 L
399.493 38.235 L
400.281 38.141 L
401.07 38.049 L
401.859 37.957 L
402.647 37.866 L
403.436 37.775 L
404.225 37.686 L
405.013 37.598 L
405.802 37.51 L
406.591 37.424 L
407.379 37.338 L
408.168 37.253 L
408.956 37.169 L
409.745 37.086 L
410.534 37.004 L
411.322 36.922 L
412.111 36.842 L
412.9 36.762 L
413.688 36.684 L
414.477 36.606 L
415.265 36.529 L
416.054 36.453 L
416.843 36.378 L
417.631 36.304 L
418.42 36.231 L
419.209 36.158 L
419.997 36.087 L
420.786 36.016 L
421.574 35.947 L
422.363 35.878 L
423.152 35.81 L
423.94 35.743 L
424.729 35.677 L
425.518 35.612 L
426.306 35.548 L
427.095 35.485 L
427.884 35.422 L
428.672 35.361 L
429.461 35.3 L
430.249 35.241 L
431.038 35.182 L
431.827 35.124 L
432.615 35.067 L
433.404 35.012 L
434.193 34.957 L
434.981 34.903 L
435.77 34.85 L
436.558 34.797 L
437.347 34.746 L
438.136 34.696 L
438.924 34.647 L
439.713 34.598 L
440.502 34.551 L
441.29 34.504 L
442.079 34.459 L
442.867 34.414 L
443.656 34.37 L
444.445 34.328 L
445.233 34.286 L
446.022 34.245 L
446.811 34.205 L
447.599 34.166 L
448.388 34.128 L
449.177 34.091 L
449.965 34.055 L
450.754 34.02 L
451.542 33.986 L
452.331 33.953 L
453.12 33.921 L
453.908 33.889 L
454.697 33.859 L
455.486 33.83 L
456.274 33.802 L
457.063 33.774 L
457.851 33.748 L
458.64 33.722 L
459.429 33.698 L
460.217 33.675 L
461.006 33.652 L
461.795 33.631 L
462.583 33.61 L
463.372 33.591 L
464.16 33.572 L
464.949 33.555 L
465.738 33.538 L
466.526 33.523 L
467.315 33.508 L
468.104 33.494 L
468.892 33.482 L
469.681 33.47 L
470.47 33.46 L
471.258 33.45 L
472.047 33.442 L
472.835 33.434 L
473.624 33.427 L
474.413 33.422 L
475.201 33.417 L
475.99 33.414 L
476.779 33.411 L
477.567 33.41 L
478.356 33.409 L
S
GR
GS
0.494 0.184 0.557 RC
1 LJ
0.5 LW
N
74.042 365.463 M
74.831 360.168 L
75.619 354.879 L
76.408 349.605 L
77.197 344.351 L
77.985 339.125 L
78.774 333.932 L
79.563 328.78 L
80.351 323.675 L
81.14 318.623 L
81.928 313.632 L
82.717 308.707 L
83.506 303.856 L
84.294 299.085 L
85.083 294.4 L
85.872 289.808 L
86.66 285.317 L
87.449 280.931 L
88.237 276.659 L
89.026 272.506 L
89.815 268.479 L
90.603 264.584 L
91.392 260.83 L
92.181 257.22 L
92.969 253.764 L
93.758 250.466 L
94.547 247.335 L
95.335 244.375 L
96.124 241.594 L
96.912 238.912 L
97.701 236.26 L
98.49 233.64 L
99.278 231.052 L
100.067 228.494 L
100.856 225.968 L
101.644 223.473 L
102.433 221.009 L
103.221 218.577 L
104.01 216.176 L
104.799 213.807 L
105.587 211.469 L
106.376 209.162 L
107.165 206.887 L
107.953 204.644 L
108.742 202.432 L
109.53 200.251 L
110.319 198.103 L
111.108 195.985 L
111.896 193.9 L
112.685 191.846 L
113.474 189.824 L
114.262 187.833 L
115.051 185.874 L
115.84 183.947 L
116.628 182.052 L
117.417 180.189 L
118.205 178.357 L
118.994 176.557 L
119.783 174.789 L
120.571 173.053 L
121.36 171.349 L
122.149 169.677 L
122.937 168.037 L
123.726 166.429 L
124.514 164.853 L
125.303 163.309 L
126.092 161.797 L
126.88 160.317 L
127.669 158.87 L
128.458 157.454 L
129.246 156.071 L
130.035 154.72 L
130.823 153.401 L
131.612 152.114 L
132.401 150.86 L
133.189 149.638 L
133.978 148.448 L
134.767 147.291 L
135.555 146.166 L
136.344 145.073 L
137.133 144.013 L
137.921 142.985 L
138.71 141.99 L
139.498 141.027 L
140.287 140.097 L
141.076 139.184 L
141.864 138.278 L
142.653 137.378 L
143.442 136.485 L
144.23 135.597 L
145.019 134.716 L
145.807 133.841 L
146.596 132.973 L
147.385 132.11 L
148.173 131.254 L
148.962 130.405 L
149.751 129.561 L
150.539 128.723 L
151.328 127.892 L
152.117 127.067 L
152.905 126.248 L
153.694 125.436 L
154.482 124.629 L
155.271 123.829 L
156.06 123.035 L
156.848 122.247 L
157.637 121.465 L
158.426 120.69 L
159.214 119.92 L
160.003 119.157 L
160.791 118.399 L
161.58 117.648 L
162.369 116.903 L
163.157 116.164 L
163.946 115.431 L
164.735 114.705 L
165.523 113.984 L
166.312 113.269 L
167.1 112.561 L
167.889 111.859 L
168.678 111.162 L
169.466 110.472 L
170.255 109.787 L
171.044 109.109 L
171.832 108.437 L
172.621 107.771 L
173.41 107.111 L
174.198 106.456 L
174.987 105.808 L
175.775 105.166 L
176.564 104.53 L
177.353 103.9 L
178.141 103.276 L
178.93 102.657 L
179.719 102.045 L
180.507 101.439 L
181.296 100.838 L
182.084 100.244 L
182.873 99.655 L
183.662 99.073 L
184.45 98.496 L
185.239 97.925 L
186.028 97.36 L
186.816 96.801 L
187.605 96.248 L
188.393 95.701 L
189.182 95.16 L
189.971 94.624 L
190.759 94.095 L
191.548 93.571 L
192.337 93.053 L
193.125 92.541 L
193.914 92.035 L
194.703 91.535 L
195.491 91.04 L
196.28 90.552 L
197.068 90.069 L
197.857 89.592 L
198.646 89.121 L
199.434 88.655 L
200.223 88.195 L
201.012 87.742 L
201.8 87.293 L
202.589 86.851 L
203.377 86.414 L
204.166 85.983 L
204.955 85.558 L
205.743 85.139 L
206.532 84.725 L
207.321 84.317 L
208.109 83.915 L
208.898 83.519 L
209.686 83.128 L
210.475 82.743 L
211.264 82.363 L
212.052 81.99 L
212.841 81.622 L
213.63 81.259 L
214.418 80.902 L
215.207 80.551 L
215.996 80.206 L
216.784 79.866 L
217.573 79.532 L
218.361 79.203 L
219.15 78.881 L
219.939 78.563 L
220.727 78.252 L
221.516 77.946 L
222.305 77.645 L
223.093 77.35 L
223.882 77.061 L
224.67 76.777 L
225.459 76.499 L
226.248 76.226 L
227.036 75.959 L
227.825 75.698 L
228.614 75.442 L
229.402 75.191 L
230.191 74.946 L
230.98 74.707 L
231.768 74.473 L
232.557 74.245 L
233.345 74.019 L
234.134 73.795 L
234.923 73.57 L
235.711 73.347 L
236.5 73.123 L
237.289 72.901 L
238.077 72.678 L
238.866 72.456 L
239.654 72.235 L
240.443 72.014 L
241.232 71.794 L
242.02 71.574 L
242.809 71.354 L
243.598 71.135 L
244.386 70.917 L
245.175 70.699 L
245.963 70.482 L
246.752 70.265 L
247.541 70.048 L
248.329 69.832 L
249.118 69.617 L
249.907 69.402 L
250.695 69.187 L
251.484 68.973 L
252.273 68.76 L
253.061 68.547 L
253.85 68.334 L
254.638 68.122 L
255.427 67.911 L
256.216 67.7 L
257.004 67.489 L
257.793 67.279 L
258.582 67.07 L
259.37 66.861 L
260.159 66.652 L
260.947 66.444 L
261.736 66.237 L
262.525 66.03 L
263.313 65.824 L
264.102 65.618 L
264.891 65.412 L
265.679 65.208 L
266.468 65.003 L
267.257 64.799 L
268.045 64.596 L
268.834 64.393 L
269.622 64.191 L
270.411 63.989 L
271.2 63.788 L
271.988 63.587 L
272.777 63.387 L
273.566 63.188 L
274.354 62.988 L
275.143 62.79 L
275.931 62.592 L
276.72 62.394 L
277.509 62.197 L
278.297 62.001 L
279.086 61.805 L
279.875 61.609 L
280.663 61.415 L
281.452 61.22 L
282.24 61.026 L
283.029 60.833 L
283.818 60.64 L
284.606 60.448 L
285.395 60.257 L
286.184 60.065 L
286.972 59.875 L
287.761 59.685 L
288.549 59.495 L
289.338 59.306 L
290.127 59.118 L
290.915 58.93 L
291.704 58.743 L
292.493 58.556 L
293.281 58.37 L
294.07 58.184 L
294.859 57.999 L
295.647 57.815 L
296.436 57.631 L
297.224 57.447 L
298.013 57.265 L
298.802 57.082 L
299.59 56.9 L
300.379 56.719 L
301.168 56.539 L
301.956 56.359 L
302.745 56.179 L
303.533 56 L
304.322 55.822 L
305.111 55.644 L
305.899 55.467 L
306.688 55.29 L
307.477 55.114 L
308.265 54.938 L
309.054 54.763 L
309.842 54.589 L
310.631 54.415 L
311.42 54.242 L
312.208 54.069 L
312.997 53.897 L
313.786 53.726 L
314.574 53.555 L
315.363 53.384 L
316.152 53.214 L
316.94 53.045 L
317.729 52.877 L
318.517 52.709 L
319.306 52.541 L
320.095 52.374 L
320.883 52.208 L
321.672 52.042 L
322.461 51.877 L
323.249 51.712 L
324.038 51.548 L
324.826 51.385 L
325.615 51.222 L
326.404 51.06 L
327.192 50.899 L
327.981 50.738 L
328.77 50.577 L
329.558 50.417 L
330.347 50.258 L
331.136 50.1 L
331.924 49.942 L
332.713 49.784 L
333.501 49.627 L
334.29 49.471 L
335.079 49.315 L
335.867 49.16 L
336.656 49.006 L
337.445 48.852 L
338.233 48.699 L
339.022 48.546 L
339.81 48.395 L
340.599 48.243 L
341.388 48.092 L
342.176 47.942 L
342.965 47.793 L
343.754 47.644 L
344.542 47.495 L
345.331 47.348 L
346.119 47.201 L
346.908 47.054 L
347.697 46.908 L
348.485 46.763 L
349.274 46.619 L
350.063 46.475 L
350.851 46.331 L
351.64 46.189 L
352.429 46.046 L
353.217 45.905 L
354.006 45.764 L
354.794 45.624 L
355.583 45.484 L
356.372 45.345 L
357.16 45.207 L
357.949 45.069 L
358.738 44.932 L
359.526 44.796 L
360.315 44.66 L
361.103 44.525 L
361.892 44.39 L
362.681 44.256 L
363.469 44.123 L
364.258 43.99 L
365.047 43.858 L
365.835 43.727 L
366.624 43.596 L
367.413 43.466 L
368.201 43.337 L
368.99 43.208 L
369.778 43.08 L
370.567 42.953 L
371.356 42.826 L
372.144 42.7 L
372.933 42.574 L
373.722 42.449 L
374.51 42.325 L
375.299 42.201 L
376.087 42.078 L
376.876 41.956 L
377.665 41.835 L
378.453 41.714 L
379.242 41.593 L
380.031 41.474 L
380.819 41.355 L
381.608 41.236 L
382.396 41.119 L
383.185 41.002 L
383.974 40.885 L
384.762 40.77 L
385.551 40.655 L
386.34 40.54 L
387.128 40.427 L
387.917 40.314 L
388.706 40.201 L
389.494 40.09 L
390.283 39.979 L
391.071 39.868 L
391.86 39.759 L
392.649 39.65 L
393.437 39.542 L
394.226 39.434 L
395.015 39.327 L
395.803 39.221 L
396.592 39.115 L
397.38 39.01 L
398.169 38.906 L
398.958 38.802 L
399.746 38.7 L
400.535 38.597 L
401.324 38.496 L
402.112 38.395 L
402.901 38.295 L
403.689 38.196 L
404.478 38.097 L
405.267 37.999 L
406.055 37.902 L
406.844 37.805 L
407.633 37.709 L
408.421 37.614 L
409.21 37.519 L
409.999 37.425 L
410.787 37.332 L
411.576 37.24 L
412.364 37.148 L
413.153 37.057 L
413.942 36.966 L
414.73 36.877 L
415.519 36.788 L
416.308 36.699 L
417.096 36.612 L
417.885 36.525 L
418.673 36.439 L
419.462 36.353 L
420.251 36.269 L
421.039 36.185 L
421.828 36.101 L
422.617 36.019 L
423.405 35.937 L
424.194 35.856 L
424.982 35.775 L
425.771 35.695 L
426.56 35.616 L
427.348 35.538 L
428.137 35.46 L
428.926 35.383 L
429.714 35.307 L
430.503 35.232 L
431.292 35.157 L
432.08 35.083 L
432.869 35.01 L
433.657 34.937 L
434.446 34.866 L
435.235 34.795 L
436.023 34.724 L
436.812 34.655 L
437.601 34.586 L
438.389 34.518 L
439.178 34.45 L
439.966 34.383 L
440.755 34.317 L
441.544 34.252 L
442.332 34.188 L
443.121 34.124 L
443.91 34.061 L
444.698 33.999 L
445.487 33.937 L
446.276 33.876 L
447.064 33.816 L
447.853 33.757 L
448.641 33.698 L
449.43 33.641 L
450.219 33.584 L
451.007 33.527 L
451.796 33.472 L
452.585 33.417 L
453.373 33.363 L
454.162 33.309 L
454.95 33.257 L
455.739 33.205 L
456.528 33.154 L
457.316 33.104 L
458.105 33.054 L
458.894 33.005 L
459.682 32.957 L
460.471 32.91 L
461.259 32.864 L
462.048 32.818 L
462.837 32.773 L
463.625 32.729 L
464.414 32.685 L
465.203 32.642 L
465.991 32.6 L
466.78 32.559 L
467.569 32.519 L
468.357 32.479 L
469.146 32.44 L
469.934 32.402 L
470.723 32.365 L
471.512 32.328 L
472.3 32.293 L
473.089 32.258 L
473.878 32.223 L
474.666 32.19 L
475.455 32.157 L
476.243 32.125 L
477.032 32.094 L
477.821 32.064 L
478.609 32.034 L
479.398 32.006 L
480.187 31.978 L
480.975 31.951 L
481.764 31.924 L
482.552 31.899 L
483.341 31.874 L
484.13 31.85 L
484.918 31.826 L
485.707 31.804 L
486.496 31.782 L
487.284 31.761 L
488.073 31.741 L
488.862 31.722 L
489.65 31.704 L
490.439 31.686 L
491.227 31.669 L
492.016 31.653 L
492.805 31.638 L
493.593 31.623 L
494.382 31.609 L
495.171 31.596 L
495.959 31.584 L
496.748 31.573 L
497.536 31.563 L
498.325 31.553 L
499.114 31.544 L
499.902 31.536 L
500.691 31.529 L
501.48 31.522 L
502.268 31.517 L
503.057 31.512 L
503.845 31.508 L
504.634 31.505 L
505.423 31.502 L
506.211 31.501 L
507 31.5 L
S
GR
GS
0.467 0.675 0.188 RC
[10 6] 0 setdash
2 LJ
0.5 LW
N
73.472 370.725 M
74.261 365.294 L
75.05 359.871 L
75.838 354.465 L
76.627 349.081 L
77.415 343.726 L
78.204 338.409 L
78.993 333.135 L
79.781 327.911 L
80.57 322.746 L
81.359 317.645 L
82.147 312.616 L
82.936 307.665 L
83.724 302.801 L
84.513 298.028 L
85.302 293.356 L
86.09 288.791 L
86.879 284.339 L
87.668 280.008 L
88.456 275.804 L
89.245 271.736 L
90.034 267.809 L
90.822 264.03 L
91.611 260.408 L
92.399 256.948 L
93.188 253.658 L
93.977 250.545 L
94.765 247.616 L
95.554 244.833 L
96.343 242.089 L
97.131 239.378 L
97.92 236.701 L
98.708 234.056 L
99.497 231.445 L
100.286 228.867 L
101.074 226.322 L
101.863 223.811 L
102.652 221.332 L
103.44 218.887 L
104.229 216.475 L
105.017 214.097 L
105.806 211.752 L
106.595 209.44 L
107.383 207.162 L
108.172 204.917 L
108.961 202.705 L
109.749 200.526 L
110.538 198.381 L
111.327 196.27 L
112.115 194.192 L
112.904 192.147 L
113.692 190.136 L
114.481 188.158 L
115.27 186.214 L
116.058 184.303 L
116.847 182.426 L
117.636 180.582 L
118.424 178.772 L
119.213 176.995 L
120.001 175.252 L
120.79 173.543 L
121.579 171.867 L
122.367 170.225 L
123.156 168.616 L
123.945 167.041 L
124.733 165.5 L
125.522 163.993 L
126.31 162.519 L
127.099 161.078 L
127.888 159.672 L
128.676 158.299 L
129.465 156.96 L
130.254 155.655 L
131.042 154.383 L
131.831 153.146 L
132.62 151.942 L
133.408 150.772 L
134.197 149.636 L
134.985 148.533 L
135.774 147.465 L
136.563 146.43 L
137.351 145.429 L
138.14 144.461 L
138.929 143.503 L
139.717 142.553 L
140.506 141.609 L
141.294 140.672 L
142.083 139.742 L
142.872 138.818 L
143.66 137.901 L
144.449 136.991 L
145.238 136.088 L
146.026 135.191 L
146.815 134.301 L
147.603 133.417 L
148.392 132.541 L
149.181 131.67 L
149.969 130.807 L
150.758 129.95 L
151.547 129.1 L
152.335 128.256 L
153.124 127.419 L
153.913 126.589 L
154.701 125.765 L
155.49 124.948 L
156.278 124.137 L
157.067 123.333 L
157.856 122.536 L
158.644 121.745 L
159.433 120.961 L
160.222 120.183 L
161.01 119.412 L
161.799 118.647 L
162.587 117.889 L
163.376 117.137 L
164.165 116.392 L
164.953 115.654 L
165.742 114.921 L
166.531 114.196 L
167.319 113.477 L
168.108 112.764 L
168.896 112.058 L
169.685 111.358 L
170.474 110.665 L
171.262 109.978 L
172.051 109.297 L
172.84 108.623 L
173.628 107.956 L
174.417 107.294 L
175.206 106.64 L
175.994 105.991 L
176.783 105.349 L
177.571 104.714 L
178.36 104.084 L
179.149 103.461 L
179.937 102.845 L
180.726 102.235 L
181.515 101.631 L
182.303 101.033 L
183.092 100.442 L
183.88 99.857 L
184.669 99.279 L
185.458 98.707 L
186.246 98.141 L
187.035 97.581 L
187.824 97.028 L
188.612 96.481 L
189.401 95.94 L
190.19 95.406 L
190.978 94.877 L
191.767 94.355 L
192.555 93.839 L
193.344 93.33 L
194.133 92.827 L
194.921 92.329 L
195.71 91.838 L
196.499 91.354 L
197.287 90.875 L
198.076 90.403 L
198.864 89.937 L
199.653 89.477 L
200.442 89.023 L
201.23 88.575 L
202.019 88.134 L
202.808 87.698 L
203.596 87.269 L
204.385 86.846 L
205.173 86.429 L
205.962 86.018 L
206.751 85.613 L
207.539 85.215 L
208.328 84.822 L
209.117 84.436 L
209.905 84.055 L
210.694 83.681 L
211.483 83.313 L
212.271 82.95 L
213.06 82.594 L
213.848 82.244 L
214.637 81.9 L
215.426 81.562 L
216.214 81.229 L
217.003 80.903 L
217.792 80.583 L
218.58 80.269 L
219.369 79.961 L
220.157 79.659 L
220.946 79.363 L
221.735 79.072 L
222.523 78.788 L
223.312 78.51 L
224.101 78.237 L
224.889 77.971 L
225.678 77.71 L
226.466 77.456 L
227.255 77.207 L
228.044 76.962 L
228.832 76.719 L
229.621 76.475 L
230.41 76.232 L
231.198 75.99 L
231.987 75.748 L
232.776 75.507 L
233.564 75.267 L
234.353 75.026 L
235.141 74.787 L
235.93 74.548 L
236.719 74.309 L
237.507 74.071 L
238.296 73.834 L
239.085 73.597 L
239.873 73.361 L
240.662 73.125 L
241.45 72.89 L
242.239 72.655 L
243.028 72.421 L
243.816 72.187 L
244.605 71.954 L
245.394 71.721 L
246.182 71.489 L
246.971 71.258 L
247.76 71.027 L
248.548 70.797 L
249.337 70.567 L
250.125 70.338 L
250.914 70.109 L
251.703 69.881 L
252.491 69.654 L
253.28 69.427 L
254.069 69.201 L
254.857 68.975 L
255.646 68.75 L
256.434 68.525 L
257.223 68.301 L
258.012 68.078 L
258.8 67.855 L
259.589 67.632 L
260.378 67.411 L
261.166 67.189 L
261.955 66.969 L
262.743 66.749 L
263.532 66.529 L
264.321 66.311 L
265.109 66.092 L
265.898 65.875 L
266.687 65.658 L
267.475 65.441 L
268.264 65.225 L
269.053 65.01 L
269.841 64.795 L
270.63 64.581 L
271.418 64.368 L
272.207 64.155 L
272.996 63.942 L
273.784 63.731 L
274.573 63.52 L
275.362 63.309 L
276.15 63.099 L
276.939 62.89 L
277.727 62.681 L
278.516 62.473 L
279.305 62.266 L
280.093 62.059 L
280.882 61.853 L
281.671 61.647 L
282.459 61.442 L
283.248 61.238 L
284.036 61.034 L
284.825 60.831 L
285.614 60.629 L
286.402 60.427 L
287.191 60.226 L
287.98 60.025 L
288.768 59.825 L
289.557 59.626 L
290.346 59.427 L
291.134 59.229 L
291.923 59.032 L
292.711 58.835 L
293.5 58.639 L
294.289 58.443 L
295.077 58.248 L
295.866 58.054 L
296.655 57.861 L
297.443 57.668 L
298.232 57.475 L
299.02 57.284 L
299.809 57.093 L
300.598 56.902 L
301.386 56.713 L
302.175 56.524 L
302.964 56.335 L
303.752 56.148 L
304.541 55.961 L
305.329 55.774 L
306.118 55.588 L
306.907 55.403 L
307.695 55.219 L
308.484 55.035 L
309.273 54.852 L
310.061 54.67 L
310.85 54.488 L
311.639 54.307 L
312.427 54.126 L
313.216 53.947 L
314.004 53.767 L
314.793 53.589 L
315.582 53.411 L
316.37 53.234 L
317.159 53.058 L
317.948 52.882 L
318.736 52.707 L
319.525 52.533 L
320.313 52.359 L
321.102 52.186 L
321.891 52.014 L
322.679 51.843 L
323.468 51.672 L
324.257 51.502 L
325.045 51.332 L
325.834 51.163 L
326.622 50.995 L
327.411 50.828 L
328.2 50.661 L
328.988 50.495 L
329.777 50.33 L
330.566 50.165 L
331.354 50.002 L
332.143 49.838 L
332.932 49.676 L
333.72 49.514 L
334.509 49.353 L
335.297 49.193 L
336.086 49.033 L
336.875 48.874 L
337.663 48.716 L
338.452 48.559 L
339.241 48.402 L
340.029 48.246 L
340.818 48.091 L
341.606 47.936 L
342.395 47.782 L
343.184 47.629 L
343.972 47.477 L
344.761 47.325 L
345.55 47.174 L
346.338 47.024 L
347.127 46.875 L
347.915 46.726 L
348.704 46.578 L
349.493 46.431 L
350.281 46.284 L
351.07 46.138 L
351.859 45.993 L
352.647 45.849 L
353.436 45.706 L
354.225 45.563 L
355.013 45.421 L
355.802 45.279 L
356.59 45.139 L
357.379 44.999 L
358.168 44.86 L
358.956 44.722 L
359.745 44.584 L
360.534 44.447 L
361.322 44.311 L
362.111 44.176 L
362.899 44.042 L
363.688 43.908 L
364.477 43.775 L
365.265 43.643 L
366.054 43.511 L
366.843 43.381 L
367.631 43.251 L
368.42 43.122 L
369.209 42.993 L
369.997 42.866 L
370.786 42.739 L
371.574 42.613 L
372.363 42.488 L
373.152 42.363 L
373.94 42.24 L
374.729 42.117 L
375.518 41.994 L
376.306 41.873 L
377.095 41.753 L
377.883 41.633 L
378.672 41.514 L
379.461 41.396 L
380.249 41.278 L
381.038 41.162 L
381.827 41.046 L
382.615 40.931 L
383.404 40.817 L
384.193 40.703 L
384.981 40.591 L
385.77 40.479 L
386.558 40.368 L
387.347 40.258 L
388.136 40.148 L
388.924 40.04 L
389.713 39.932 L
390.502 39.825 L
391.29 39.719 L
392.079 39.614 L
392.867 39.509 L
393.656 39.405 L
394.445 39.303 L
395.233 39.201 L
396.022 39.099 L
396.811 38.999 L
397.599 38.899 L
398.388 38.801 L
399.176 38.703 L
399.965 38.605 L
400.754 38.509 L
401.542 38.414 L
402.331 38.319 L
403.12 38.225 L
403.908 38.132 L
404.697 38.04 L
405.486 37.949 L
406.274 37.859 L
407.063 37.769 L
407.851 37.68 L
408.64 37.592 L
409.429 37.505 L
410.217 37.419 L
411.006 37.334 L
411.795 37.249 L
412.583 37.165 L
413.372 37.083 L
414.16 37.001 L
414.949 36.919 L
415.738 36.839 L
416.526 36.76 L
417.315 36.681 L
418.104 36.603 L
418.892 36.527 L
419.681 36.451 L
420.469 36.376 L
421.258 36.301 L
422.047 36.228 L
422.835 36.155 L
423.624 36.084 L
424.413 36.013 L
425.201 35.943 L
425.99 35.874 L
426.779 35.806 L
427.567 35.739 L
428.356 35.672 L
429.144 35.607 L
429.933 35.542 L
430.722 35.479 L
431.51 35.416 L
432.299 35.354 L
433.088 35.293 L
433.876 35.232 L
434.665 35.173 L
435.453 35.115 L
436.242 35.057 L
437.031 35 L
437.819 34.945 L
438.608 34.89 L
439.397 34.836 L
440.185 34.783 L
440.974 34.731 L
441.762 34.68 L
442.551 34.629 L
443.34 34.58 L
444.128 34.531 L
444.917 34.484 L
445.706 34.437 L
446.494 34.391 L
447.283 34.346 L
448.072 34.302 L
448.86 34.259 L
449.649 34.217 L
450.437 34.176 L
451.226 34.135 L
452.015 34.096 L
452.803 34.058 L
453.592 34.02 L
454.381 33.983 L
455.169 33.948 L
455.958 33.913 L
456.746 33.879 L
457.535 33.846 L
458.324 33.814 L
459.112 33.783 L
459.901 33.753 L
460.69 33.724 L
461.478 33.696 L
462.267 33.668 L
463.055 33.642 L
463.844 33.617 L
464.633 33.592 L
465.421 33.569 L
466.21 33.546 L
466.999 33.524 L
467.787 33.504 L
468.576 33.484 L
469.365 33.465 L
470.153 33.447 L
470.942 33.43 L
471.73 33.414 L
472.519 33.399 L
473.308 33.385 L
474.096 33.372 L
474.885 33.36 L
475.674 33.349 L
476.462 33.339 L
477.251 33.33 L
478.039 33.321 L
478.828 33.314 L
479.617 33.308 L
480.405 33.303 L
481.194 33.298 L
481.983 33.295 L
482.771 33.292 L
483.56 33.291 L
S
GR
GS
0.302 0.745 0.933 RC
[10 6] 0 setdash
2 LJ
0.5 LW
N
73.378 370.657 M
74.167 365.262 L
74.955 359.876 L
75.744 354.506 L
76.533 349.16 L
77.321 343.843 L
78.11 338.562 L
78.899 333.326 L
79.687 328.14 L
80.476 323.011 L
81.264 317.946 L
82.053 312.952 L
82.842 308.037 L
83.63 303.206 L
84.419 298.466 L
85.208 293.825 L
85.996 289.29 L
86.785 284.867 L
87.574 280.562 L
88.362 276.384 L
89.151 272.339 L
89.939 268.433 L
90.728 264.674 L
91.517 261.068 L
92.305 257.623 L
93.094 254.345 L
93.883 251.241 L
94.671 248.317 L
95.46 245.527 L
96.248 242.771 L
97.037 240.047 L
97.826 237.357 L
98.614 234.699 L
99.403 232.074 L
100.192 229.481 L
100.98 226.922 L
101.769 224.395 L
102.557 221.902 L
103.346 219.441 L
104.135 217.013 L
104.923 214.618 L
105.712 212.257 L
106.501 209.928 L
107.289 207.633 L
108.078 205.371 L
108.867 203.142 L
109.655 200.947 L
110.444 198.785 L
111.232 196.656 L
112.021 194.561 L
112.81 192.499 L
113.598 190.471 L
114.387 188.477 L
115.176 186.516 L
115.964 184.589 L
116.753 182.695 L
117.541 180.836 L
118.33 179.01 L
119.119 177.218 L
119.907 175.46 L
120.696 173.736 L
121.485 172.046 L
122.273 170.39 L
123.062 168.768 L
123.85 167.18 L
124.639 165.626 L
125.428 164.107 L
126.216 162.622 L
127.005 161.171 L
127.794 159.755 L
128.582 158.373 L
129.371 157.025 L
130.16 155.712 L
130.948 154.433 L
131.737 153.189 L
132.525 151.98 L
133.314 150.805 L
134.103 149.665 L
134.891 148.56 L
135.68 147.49 L
136.469 146.454 L
137.257 145.454 L
138.046 144.481 L
138.834 143.516 L
139.623 142.557 L
140.412 141.606 L
141.2 140.661 L
141.989 139.724 L
142.778 138.792 L
143.566 137.868 L
144.355 136.951 L
145.143 136.04 L
145.932 135.136 L
146.721 134.239 L
147.509 133.349 L
148.298 132.465 L
149.087 131.589 L
149.875 130.718 L
150.664 129.855 L
151.453 128.999 L
152.241 128.149 L
153.03 127.305 L
153.818 126.469 L
154.607 125.639 L
155.396 124.816 L
156.184 124 L
156.973 123.19 L
157.762 122.387 L
158.55 121.59 L
159.339 120.801 L
160.127 120.018 L
160.916 119.241 L
161.705 118.471 L
162.493 117.708 L
163.282 116.952 L
164.071 116.202 L
164.859 115.458 L
165.648 114.721 L
166.436 113.991 L
167.225 113.268 L
168.014 112.551 L
168.802 111.84 L
169.591 111.137 L
170.38 110.439 L
171.168 109.748 L
171.957 109.064 L
172.746 108.387 L
173.534 107.715 L
174.323 107.051 L
175.111 106.393 L
175.9 105.741 L
176.689 105.096 L
177.477 104.458 L
178.266 103.826 L
179.055 103.2 L
179.843 102.581 L
180.632 101.968 L
181.42 101.362 L
182.209 100.762 L
182.998 100.169 L
183.786 99.582 L
184.575 99.001 L
185.364 98.427 L
186.152 97.86 L
186.941 97.299 L
187.73 96.744 L
188.518 96.195 L
189.307 95.653 L
190.095 95.118 L
190.884 94.589 L
191.673 94.066 L
192.461 93.549 L
193.25 93.039 L
194.039 92.535 L
194.827 92.038 L
195.616 91.547 L
196.404 91.062 L
197.193 90.583 L
197.982 90.111 L
198.77 89.645 L
199.559 89.186 L
200.348 88.733 L
201.136 88.286 L
201.925 87.845 L
202.713 87.41 L
203.502 86.982 L
204.291 86.56 L
205.079 86.145 L
205.868 85.735 L
206.657 85.332 L
207.445 84.935 L
208.234 84.544 L
209.023 84.16 L
209.811 83.781 L
210.6 83.409 L
211.388 83.043 L
212.177 82.684 L
212.966 82.33 L
213.754 81.983 L
214.543 81.641 L
215.332 81.306 L
216.12 80.977 L
216.909 80.655 L
217.697 80.338 L
218.486 80.028 L
219.275 79.723 L
220.063 79.425 L
220.852 79.133 L
221.641 78.847 L
222.429 78.567 L
223.218 78.293 L
224.006 78.025 L
224.795 77.763 L
225.584 77.508 L
226.372 77.258 L
227.161 77.012 L
227.95 76.767 L
228.738 76.522 L
229.527 76.278 L
230.316 76.034 L
231.104 75.791 L
231.893 75.549 L
232.681 75.307 L
233.47 75.065 L
234.259 74.824 L
235.047 74.584 L
235.836 74.344 L
236.625 74.105 L
237.413 73.866 L
238.202 73.628 L
238.99 73.39 L
239.779 73.153 L
240.568 72.916 L
241.356 72.68 L
242.145 72.445 L
242.934 72.21 L
243.722 71.976 L
244.511 71.742 L
245.299 71.509 L
246.088 71.276 L
246.877 71.044 L
247.665 70.813 L
248.454 70.582 L
249.243 70.352 L
250.031 70.122 L
250.82 69.893 L
251.609 69.664 L
252.397 69.436 L
253.186 69.209 L
253.974 68.982 L
254.763 68.756 L
255.552 68.53 L
256.34 68.305 L
257.129 68.08 L
257.918 67.856 L
258.706 67.633 L
259.495 67.41 L
260.283 67.188 L
261.072 66.967 L
261.861 66.746 L
262.649 66.525 L
263.438 66.306 L
264.227 66.086 L
265.015 65.868 L
265.804 65.65 L
266.592 65.433 L
267.381 65.216 L
268.17 65 L
268.958 64.784 L
269.747 64.569 L
270.536 64.355 L
271.324 64.141 L
272.113 63.928 L
272.902 63.716 L
273.69 63.504 L
274.479 63.293 L
275.267 63.082 L
276.056 62.872 L
276.845 62.663 L
277.633 62.454 L
278.422 62.246 L
279.211 62.038 L
279.999 61.831 L
280.788 61.625 L
281.576 61.42 L
282.365 61.215 L
283.154 61.01 L
283.942 60.807 L
284.731 60.603 L
285.52 60.401 L
286.308 60.199 L
287.097 59.998 L
287.886 59.798 L
288.674 59.598 L
289.463 59.398 L
290.251 59.2 L
291.04 59.002 L
291.829 58.805 L
292.617 58.608 L
293.406 58.412 L
294.195 58.217 L
294.983 58.022 L
295.772 57.828 L
296.56 57.635 L
297.349 57.442 L
298.138 57.25 L
298.926 57.059 L
299.715 56.868 L
300.504 56.678 L
301.292 56.488 L
302.081 56.3 L
302.869 56.112 L
303.658 55.924 L
304.447 55.738 L
305.235 55.552 L
306.024 55.366 L
306.813 55.181 L
307.601 54.997 L
308.39 54.814 L
309.179 54.632 L
309.967 54.45 L
310.756 54.268 L
311.544 54.088 L
312.333 53.908 L
313.122 53.729 L
313.91 53.55 L
314.699 53.372 L
315.488 53.195 L
316.276 53.019 L
317.065 52.843 L
317.853 52.668 L
318.642 52.493 L
319.431 52.32 L
320.219 52.147 L
321.008 51.974 L
321.797 51.803 L
322.585 51.632 L
323.374 51.462 L
324.163 51.292 L
324.951 51.124 L
325.74 50.956 L
326.528 50.788 L
327.317 50.622 L
328.106 50.456 L
328.894 50.291 L
329.683 50.126 L
330.472 49.962 L
331.26 49.799 L
332.049 49.637 L
332.837 49.476 L
333.626 49.315 L
334.415 49.155 L
335.203 48.995 L
335.992 48.837 L
336.781 48.679 L
337.569 48.521 L
338.358 48.365 L
339.146 48.209 L
339.935 48.054 L
340.724 47.9 L
341.512 47.746 L
342.301 47.593 L
343.09 47.441 L
343.878 47.29 L
344.667 47.14 L
345.456 46.99 L
346.244 46.841 L
347.033 46.692 L
347.821 46.545 L
348.61 46.398 L
349.399 46.252 L
350.187 46.107 L
350.976 45.962 L
351.765 45.818 L
352.553 45.675 L
353.342 45.533 L
354.13 45.391 L
354.919 45.251 L
355.708 45.111 L
356.496 44.971 L
357.285 44.833 L
358.074 44.695 L
358.862 44.558 L
359.651 44.422 L
360.439 44.287 L
361.228 44.152 L
362.017 44.018 L
362.805 43.885 L
363.594 43.753 L
364.383 43.621 L
365.171 43.491 L
365.96 43.361 L
366.749 43.232 L
367.537 43.103 L
368.326 42.976 L
369.114 42.849 L
369.903 42.723 L
370.692 42.597 L
371.48 42.473 L
372.269 42.349 L
373.058 42.227 L
373.846 42.105 L
374.635 41.983 L
375.423 41.863 L
376.212 41.743 L
377.001 41.624 L
377.789 41.506 L
378.578 41.389 L
379.367 41.273 L
380.155 41.157 L
380.944 41.042 L
381.732 40.928 L
382.521 40.815 L
383.31 40.703 L
384.098 40.591 L
384.887 40.48 L
385.676 40.37 L
386.464 40.261 L
387.253 40.153 L
388.042 40.046 L
388.83 39.939 L
389.619 39.833 L
390.407 39.728 L
391.196 39.624 L
391.985 39.521 L
392.773 39.418 L
393.562 39.316 L
394.351 39.216 L
395.139 39.116 L
395.928 39.016 L
396.716 38.918 L
397.505 38.821 L
398.294 38.724 L
399.082 38.628 L
399.871 38.533 L
400.66 38.439 L
401.448 38.346 L
402.237 38.253 L
403.026 38.162 L
403.814 38.071 L
404.603 37.981 L
405.391 37.892 L
406.18 37.804 L
406.969 37.717 L
407.757 37.63 L
408.546 37.544 L
409.335 37.46 L
410.123 37.376 L
410.912 37.293 L
411.7 37.211 L
412.489 37.129 L
413.278 37.049 L
414.066 36.969 L
414.855 36.891 L
415.644 36.813 L
416.432 36.736 L
417.221 36.66 L
418.009 36.585 L
418.798 36.51 L
419.587 36.437 L
420.375 36.365 L
421.164 36.293 L
421.953 36.222 L
422.741 36.152 L
423.53 36.083 L
424.319 36.015 L
425.107 35.948 L
425.896 35.881 L
426.684 35.816 L
427.473 35.751 L
428.262 35.688 L
429.05 35.625 L
429.839 35.563 L
430.628 35.502 L
431.416 35.442 L
432.205 35.383 L
432.993 35.325 L
433.782 35.267 L
434.571 35.211 L
435.359 35.155 L
436.148 35.1 L
436.937 35.047 L
437.725 34.994 L
438.514 34.942 L
439.302 34.891 L
440.091 34.841 L
440.88 34.792 L
441.668 34.743 L
442.457 34.696 L
443.246 34.65 L
444.034 34.604 L
444.823 34.56 L
445.612 34.516 L
446.4 34.473 L
447.189 34.431 L
447.977 34.391 L
448.766 34.351 L
449.555 34.312 L
450.343 34.274 L
451.132 34.236 L
451.921 34.2 L
452.709 34.165 L
453.498 34.131 L
454.286 34.097 L
455.075 34.065 L
455.864 34.033 L
456.652 34.003 L
457.441 33.973 L
458.23 33.944 L
459.018 33.917 L
459.807 33.89 L
460.595 33.864 L
461.384 33.839 L
462.173 33.816 L
462.961 33.793 L
463.75 33.771 L
464.539 33.75 L
465.327 33.729 L
466.116 33.71 L
466.905 33.692 L
467.693 33.675 L
468.482 33.659 L
469.27 33.644 L
470.059 33.629 L
470.848 33.616 L
471.636 33.604 L
472.425 33.592 L
473.214 33.582 L
474.002 33.573 L
474.791 33.564 L
475.579 33.557 L
476.368 33.55 L
477.157 33.545 L
477.945 33.54 L
478.734 33.537 L
479.523 33.534 L
480.311 33.533 L
481.1 33.532 L
S
GR
GS
0.635 0.078 0.184 RC
[10 6] 0 setdash
2 LJ
0.5 LW
N
73.474 372.006 M
74.262 366.517 L
75.051 361.036 L
75.84 355.57 L
76.628 350.127 L
77.417 344.713 L
78.206 339.337 L
78.994 334.004 L
79.783 328.724 L
80.571 323.502 L
81.36 318.346 L
82.149 313.263 L
82.937 308.26 L
83.726 303.345 L
84.515 298.525 L
85.303 293.807 L
86.092 289.198 L
86.88 284.705 L
87.669 280.337 L
88.458 276.099 L
89.246 271.999 L
90.035 268.045 L
90.824 264.243 L
91.612 260.601 L
92.401 257.126 L
93.189 253.826 L
93.978 250.707 L
94.767 247.776 L
95.555 244.975 L
96.344 242.207 L
97.133 239.473 L
97.921 236.772 L
98.71 234.105 L
99.499 231.47 L
100.287 228.87 L
101.076 226.302 L
101.864 223.768 L
102.653 221.268 L
103.442 218.801 L
104.23 216.367 L
105.019 213.967 L
105.808 211.601 L
106.596 209.268 L
107.385 206.969 L
108.173 204.704 L
108.962 202.472 L
109.751 200.274 L
110.539 198.11 L
111.328 195.979 L
112.117 193.883 L
112.905 191.82 L
113.694 189.791 L
114.482 187.796 L
115.271 185.835 L
116.06 183.907 L
116.848 182.014 L
117.637 180.155 L
118.426 178.33 L
119.214 176.538 L
120.003 174.781 L
120.792 173.058 L
121.58 171.369 L
122.369 169.715 L
123.157 168.094 L
123.946 166.508 L
124.735 164.956 L
125.523 163.438 L
126.312 161.955 L
127.101 160.506 L
127.889 159.091 L
128.678 157.711 L
129.466 156.365 L
130.255 155.053 L
131.044 153.776 L
131.832 152.534 L
132.621 151.326 L
133.41 150.152 L
134.198 149.013 L
134.987 147.909 L
135.775 146.84 L
136.564 145.805 L
137.353 144.804 L
138.141 143.837 L
138.93 142.882 L
139.719 141.933 L
140.507 140.992 L
141.296 140.057 L
142.085 139.129 L
142.873 138.208 L
143.662 137.293 L
144.45 136.386 L
145.239 135.485 L
146.028 134.591 L
146.816 133.704 L
147.605 132.824 L
148.394 131.95 L
149.182 131.083 L
149.971 130.223 L
150.759 129.369 L
151.548 128.523 L
152.337 127.683 L
153.125 126.849 L
153.914 126.023 L
154.703 125.203 L
155.491 124.389 L
156.28 123.582 L
157.069 122.782 L
157.857 121.989 L
158.646 121.202 L
159.434 120.422 L
160.223 119.648 L
161.012 118.881 L
161.8 118.121 L
162.589 117.367 L
163.378 116.62 L
164.166 115.879 L
164.955 115.145 L
165.743 114.417 L
166.532 113.696 L
167.321 112.982 L
168.109 112.274 L
168.898 111.572 L
169.687 110.877 L
170.475 110.189 L
171.264 109.507 L
172.052 108.831 L
172.841 108.162 L
173.63 107.499 L
174.418 106.843 L
175.207 106.193 L
175.996 105.549 L
176.784 104.912 L
177.573 104.282 L
178.362 103.657 L
179.15 103.039 L
179.939 102.428 L
180.727 101.823 L
181.516 101.224 L
182.305 100.631 L
183.093 100.045 L
183.882 99.465 L
184.671 98.892 L
185.459 98.325 L
186.248 97.764 L
187.036 97.209 L
187.825 96.661 L
188.614 96.119 L
189.402 95.583 L
190.191 95.053 L
190.98 94.53 L
191.768 94.013 L
192.557 93.502 L
193.345 92.997 L
194.134 92.498 L
194.923 92.006 L
195.711 91.52 L
196.5 91.04 L
197.289 90.566 L
198.077 90.098 L
198.866 89.637 L
199.655 89.181 L
200.443 88.732 L
201.232 88.289 L
202.02 87.852 L
202.809 87.421 L
203.598 86.996 L
204.386 86.577 L
205.175 86.164 L
205.964 85.757 L
206.752 85.357 L
207.541 84.962 L
208.329 84.573 L
209.118 84.191 L
209.907 83.814 L
210.695 83.443 L
211.484 83.079 L
212.273 82.72 L
213.061 82.367 L
213.85 82.021 L
214.638 81.68 L
215.427 81.345 L
216.216 81.016 L
217.004 80.693 L
217.793 80.376 L
218.582 80.065 L
219.37 79.759 L
220.159 79.46 L
220.948 79.166 L
221.736 78.879 L
222.525 78.597 L
223.313 78.321 L
224.102 78.051 L
224.891 77.786 L
225.679 77.528 L
226.468 77.275 L
227.257 77.028 L
228.045 76.785 L
228.834 76.542 L
229.622 76.299 L
230.411 76.057 L
231.2 75.816 L
231.988 75.575 L
232.777 75.335 L
233.566 75.095 L
234.354 74.856 L
235.143 74.617 L
235.931 74.379 L
236.72 74.141 L
237.509 73.904 L
238.297 73.667 L
239.086 73.431 L
239.875 73.196 L
240.663 72.961 L
241.452 72.726 L
242.241 72.492 L
243.029 72.259 L
243.818 72.026 L
244.606 71.794 L
245.395 71.562 L
246.184 71.331 L
246.972 71.1 L
247.761 70.87 L
248.55 70.641 L
249.338 70.412 L
250.127 70.183 L
250.915 69.956 L
251.704 69.728 L
252.493 69.502 L
253.281 69.275 L
254.07 69.05 L
254.859 68.825 L
255.647 68.6 L
256.436 68.376 L
257.225 68.153 L
258.013 67.93 L
258.802 67.708 L
259.59 67.487 L
260.379 67.266 L
261.168 67.045 L
261.956 66.825 L
262.745 66.606 L
263.534 66.387 L
264.322 66.169 L
265.111 65.952 L
265.899 65.735 L
266.688 65.518 L
267.477 65.302 L
268.265 65.087 L
269.054 64.873 L
269.843 64.659 L
270.631 64.445 L
271.42 64.232 L
272.208 64.02 L
272.997 63.809 L
273.786 63.598 L
274.574 63.387 L
275.363 63.177 L
276.152 62.968 L
276.94 62.759 L
277.729 62.552 L
278.518 62.344 L
279.306 62.137 L
280.095 61.931 L
280.883 61.726 L
281.672 61.521 L
282.461 61.316 L
283.249 61.113 L
284.038 60.909 L
284.827 60.707 L
285.615 60.505 L
286.404 60.304 L
287.192 60.103 L
287.981 59.903 L
288.77 59.704 L
289.558 59.505 L
290.347 59.307 L
291.136 59.11 L
291.924 58.913 L
292.713 58.717 L
293.501 58.521 L
294.29 58.326 L
295.079 58.132 L
295.867 57.938 L
296.656 57.745 L
297.445 57.553 L
298.233 57.361 L
299.022 57.17 L
299.811 56.979 L
300.599 56.79 L
301.388 56.6 L
302.176 56.412 L
302.965 56.224 L
303.754 56.037 L
304.542 55.85 L
305.331 55.664 L
306.12 55.479 L
306.908 55.295 L
307.697 55.111 L
308.485 54.928 L
309.274 54.745 L
310.063 54.563 L
310.851 54.382 L
311.64 54.201 L
312.429 54.021 L
313.217 53.842 L
314.006 53.663 L
314.794 53.485 L
315.583 53.308 L
316.372 53.132 L
317.16 52.956 L
317.949 52.781 L
318.738 52.606 L
319.526 52.432 L
320.315 52.259 L
321.104 52.087 L
321.892 51.915 L
322.681 51.744 L
323.469 51.573 L
324.258 51.403 L
325.047 51.234 L
325.835 51.066 L
326.624 50.898 L
327.413 50.731 L
328.201 50.565 L
328.99 50.4 L
329.778 50.235 L
330.567 50.071 L
331.356 49.907 L
332.144 49.744 L
332.933 49.582 L
333.722 49.421 L
334.51 49.26 L
335.299 49.1 L
336.087 48.941 L
336.876 48.783 L
337.665 48.625 L
338.453 48.468 L
339.242 48.311 L
340.031 48.156 L
340.819 48.001 L
341.608 47.846 L
342.397 47.693 L
343.185 47.54 L
343.974 47.388 L
344.762 47.237 L
345.551 47.086 L
346.34 46.936 L
347.128 46.787 L
347.917 46.639 L
348.706 46.491 L
349.494 46.344 L
350.283 46.198 L
351.071 46.053 L
351.86 45.908 L
352.649 45.764 L
353.437 45.62 L
354.226 45.478 L
355.015 45.336 L
355.803 45.195 L
356.592 45.055 L
357.381 44.915 L
358.169 44.777 L
358.958 44.639 L
359.746 44.501 L
360.535 44.365 L
361.324 44.229 L
362.112 44.094 L
362.901 43.96 L
363.69 43.826 L
364.478 43.694 L
365.267 43.562 L
366.055 43.43 L
366.844 43.3 L
367.633 43.17 L
368.421 43.041 L
369.21 42.913 L
369.999 42.786 L
370.787 42.659 L
371.576 42.533 L
372.364 42.408 L
373.153 42.284 L
373.942 42.161 L
374.73 42.038 L
375.519 41.916 L
376.308 41.795 L
377.096 41.674 L
377.885 41.555 L
378.674 41.436 L
379.462 41.318 L
380.251 41.201 L
381.039 41.084 L
381.828 40.969 L
382.617 40.854 L
383.405 40.74 L
384.194 40.627 L
384.983 40.514 L
385.771 40.402 L
386.56 40.292 L
387.348 40.181 L
388.137 40.072 L
388.926 39.964 L
389.714 39.856 L
390.503 39.749 L
391.292 39.643 L
392.08 39.538 L
392.869 39.434 L
393.658 39.33 L
394.446 39.227 L
395.235 39.125 L
396.023 39.024 L
396.812 38.924 L
397.601 38.824 L
398.389 38.725 L
399.178 38.628 L
399.967 38.531 L
400.755 38.434 L
401.544 38.339 L
402.332 38.244 L
403.121 38.151 L
403.91 38.058 L
404.698 37.966 L
405.487 37.874 L
406.276 37.784 L
407.064 37.694 L
407.853 37.606 L
408.641 37.518 L
409.43 37.431 L
410.219 37.344 L
411.007 37.259 L
411.796 37.174 L
412.585 37.091 L
413.373 37.008 L
414.162 36.926 L
414.951 36.845 L
415.739 36.764 L
416.528 36.685 L
417.316 36.606 L
418.105 36.529 L
418.894 36.452 L
419.682 36.376 L
420.471 36.301 L
421.26 36.226 L
422.048 36.153 L
422.837 36.08 L
423.625 36.009 L
424.414 35.938 L
425.203 35.868 L
425.991 35.799 L
426.78 35.731 L
427.569 35.663 L
428.357 35.597 L
429.146 35.531 L
429.934 35.466 L
430.723 35.403 L
431.512 35.34 L
432.3 35.277 L
433.089 35.216 L
433.878 35.156 L
434.666 35.096 L
435.455 35.038 L
436.244 34.98 L
437.032 34.924 L
437.821 34.868 L
438.609 34.813 L
439.398 34.759 L
440.187 34.705 L
440.975 34.653 L
441.764 34.602 L
442.553 34.551 L
443.341 34.502 L
444.13 34.453 L
444.918 34.405 L
445.707 34.358 L
446.496 34.312 L
447.284 34.267 L
448.073 34.223 L
448.862 34.18 L
449.65 34.137 L
450.439 34.096 L
451.228 34.055 L
452.016 34.016 L
452.805 33.977 L
453.593 33.939 L
454.382 33.902 L
455.171 33.866 L
455.959 33.831 L
456.748 33.797 L
457.537 33.764 L
458.325 33.732 L
459.114 33.701 L
459.902 33.67 L
460.691 33.641 L
461.48 33.612 L
462.268 33.585 L
463.057 33.558 L
463.846 33.532 L
464.634 33.508 L
465.423 33.484 L
466.211 33.461 L
467 33.439 L
467.789 33.418 L
468.577 33.398 L
469.366 33.379 L
470.155 33.361 L
470.943 33.343 L
471.732 33.327 L
472.521 33.312 L
473.309 33.298 L
474.098 33.284 L
474.886 33.272 L
475.675 33.26 L
476.464 33.25 L
477.252 33.24 L
478.041 33.232 L
478.83 33.224 L
479.618 33.217 L
480.407 33.212 L
481.195 33.207 L
481.984 33.203 L
482.773 33.2 L
483.561 33.198 L
484.35 33.198 L
S
GR
GS
1 GC
N
499 366 M
499 250.5 L
344.5 250.5 L
344.5 366 L
cp
f
GR
GS
[1 0 0 1 381.5 260.25] CT
/Helvetica 13 F
GS
[1 0 0 1 0 0] CT
0 5 moveto 
1 -1 scale
(Base Run) t 
GR
GR
GS
0 0.447 0.741 RC
1 LJ
0.5 LW
N
348.5 260.25 M
378.5 260.25 L
S
GR
GS
[1 0 0 1 381.5 276.25] CT
/Helvetica 13 F
GS
[1 0 0 1 0 0] CT
0 5 moveto 
1 -1 scale
(I & B Frames) t 
GR
GR
GS
0.851 0.325 0.098 RC
1 LJ
0.5 LW
N
348.5 276.25 M
378.5 276.25 L
S
GR
GS
[1 0 0 1 381.5 292.25] CT
/Helvetica 13 F
GS
[1 0 0 1 0 0] CT
0 5 moveto 
1 -1 scale
(I Frames Only) t 
GR
GR
GS
0.929 0.694 0.125 RC
1 LJ
0.5 LW
N
348.5 292.25 M
378.5 292.25 L
S
GR
GS
[1 0 0 1 381.5 308.25] CT
/Helvetica 13 F
GS
[1 0 0 1 0 0] CT
0 5 moveto 
1 -1 scale
(B Frames Only) t 
GR
GR
GS
0.494 0.184 0.557 RC
1 LJ
0.5 LW
N
348.5 308.25 M
378.5 308.25 L
S
GR
GS
[1 0 0 1 381.5 324.25] CT
/Helvetica 13 F
GS
[1 0 0 1 0 0] CT
0 5 moveto 
1 -1 scale
(Part I & B Frames) t 
GR
GR
GS
0.467 0.675 0.188 RC
[10 6] 0 setdash
2 LJ
0.5 LW
N
348.5 324.25 M
378.5 324.25 L
S
GR
GS
[1 0 0 1 381.5 340.25] CT
/Helvetica 13 F
GS
[1 0 0 1 0 0] CT
0 5 moveto 
1 -1 scale
(Part I Frames Only) t 
GR
GR
GS
0.302 0.745 0.933 RC
[10 6] 0 setdash
2 LJ
0.5 LW
N
348.5 340.25 M
378.5 340.25 L
S
GR
GS
[1 0 0 1 381.5 356.25] CT
/Helvetica 13 F
GS
[1 0 0 1 0 0] CT
0 5 moveto 
1 -1 scale
(Part B Frames Only) t 
GR
GR
GS
0.635 0.078 0.184 RC
[10 6] 0 setdash
2 LJ
0.5 LW
N
348.5 356.25 M
378.5 356.25 L
S
GR
GS
0.149 GC
10.0 ML
0.5 LW
N
344.5 366 M
344.5 250.5 L
499 250.5 L
499 366 L
cp
S
GR
%%Trailer
%%Pages: 1
%%EOF
