%!PS-Adobe-3.0 EPSF-3.0
%%Creator: (MATLAB, The Mathworks, Inc. Version 9.11.0.1837725 \(R2021b\) Update 2. Operating System: Mac OS X)
%%Title: plots/pchip/FoodMarket_1920x1080_5994_10bit_420.y4m-hevc-APSNRY.eps
%%CreationDate: 2022-02-03T19:14:10
%%Pages: (atend)
%%BoundingBox:    33   425   508   826
%%LanguageLevel: 3
%%EndComments
%%BeginProlog
%%BeginResource: procset (Apache XML Graphics Std ProcSet) 1.2 0
%%Version: 1.2 0
%%Copyright: (Copyright 2001-2003,2010 The Apache Software Foundation. License terms: http://www.apache.org/licenses/LICENSE-2.0)
/bd{bind def}bind def
/ld{load def}bd
/GR/grestore ld
/GS/gsave ld
/RM/rmoveto ld
/C/curveto ld
/t/show ld
/L/lineto ld
/ML/setmiterlimit ld
/CT/concat ld
/f/fill ld
/N/newpath ld
/S/stroke ld
/CC/setcmykcolor ld
/A/ashow ld
/cp/closepath ld
/RC/setrgbcolor ld
/LJ/setlinejoin ld
/GC/setgray ld
/LW/setlinewidth ld
/M/moveto ld
/re {4 2 roll M
1 index 0 rlineto
0 exch rlineto
neg 0 rlineto
cp } bd
/_ctm matrix def
/_tm matrix def
/BT { _ctm currentmatrix pop matrix _tm copy pop 0 0 moveto } bd
/ET { _ctm setmatrix } bd
/iTm { _ctm setmatrix _tm concat } bd
/Tm { _tm astore pop iTm 0 0 moveto } bd
/ux 0.0 def
/uy 0.0 def
/F {
  /Tp exch def
  /Tf exch def
  Tf findfont Tp scalefont setfont
  /cf Tf def  /cs Tp def
} bd
/ULS {currentpoint /uy exch def /ux exch def} bd
/ULE {
  /Tcx currentpoint pop def
  gsave
  newpath
  cf findfont cs scalefont dup
  /FontMatrix get 0 get /Ts exch def /FontInfo get dup
  /UnderlinePosition get Ts mul /To exch def
  /UnderlineThickness get Ts mul /Tt exch def
  ux uy To add moveto  Tcx uy To add lineto
  Tt setlinewidth stroke
  grestore
} bd
/OLE {
  /Tcx currentpoint pop def
  gsave
  newpath
  cf findfont cs scalefont dup
  /FontMatrix get 0 get /Ts exch def /FontInfo get dup
  /UnderlinePosition get Ts mul /To exch def
  /UnderlineThickness get Ts mul /Tt exch def
  ux uy To add cs add moveto Tcx uy To add cs add lineto
  Tt setlinewidth stroke
  grestore
} bd
/SOE {
  /Tcx currentpoint pop def
  gsave
  newpath
  cf findfont cs scalefont dup
  /FontMatrix get 0 get /Ts exch def /FontInfo get dup
  /UnderlinePosition get Ts mul /To exch def
  /UnderlineThickness get Ts mul /Tt exch def
  ux uy To add cs 10 mul 26 idiv add moveto Tcx uy To add cs 10 mul 26 idiv add lineto
  Tt setlinewidth stroke
  grestore
} bd
/QT {
/Y22 exch store
/X22 exch store
/Y21 exch store
/X21 exch store
currentpoint
/Y21 load 2 mul add 3 div exch
/X21 load 2 mul add 3 div exch
/X21 load 2 mul /X22 load add 3 div
/Y21 load 2 mul /Y22 load add 3 div
/X22 load /Y22 load curveto
} bd
/SSPD {
dup length /d exch dict def
{
/v exch def
/k exch def
currentpagedevice k known {
/cpdv currentpagedevice k get def
v cpdv ne {
/upd false def
/nullv v type /nulltype eq def
/nullcpdv cpdv type /nulltype eq def
nullv nullcpdv or
{
/upd true def
} {
/sametype v type cpdv type eq def
sametype {
v type /arraytype eq {
/vlen v length def
/cpdvlen cpdv length def
vlen cpdvlen eq {
0 1 vlen 1 sub {
/i exch def
/obj v i get def
/cpdobj cpdv i get def
obj cpdobj ne {
/upd true def
exit
} if
} for
} {
/upd true def
} ifelse
} {
v type /dicttype eq {
v {
/dv exch def
/dk exch def
/cpddv cpdv dk get def
dv cpddv ne {
/upd true def
exit
} if
} forall
} {
/upd true def
} ifelse
} ifelse
} if
} ifelse
upd true eq {
d k v put
} if
} if
} if
} forall
d length 0 gt {
d setpagedevice
} if
} bd
/RE { % /NewFontName [NewEncodingArray] /FontName RE -
  findfont dup length dict begin
  {
    1 index /FID ne
    {def} {pop pop} ifelse
  } forall
  /Encoding exch def
  /FontName 1 index def
  currentdict definefont pop
  end
} bind def
%%EndResource
%%BeginResource: procset (Apache XML Graphics EPS ProcSet) 1.0 0
%%Version: 1.0 0
%%Copyright: (Copyright 2002-2003 The Apache Software Foundation. License terms: http://www.apache.org/licenses/LICENSE-2.0)
/BeginEPSF { %def
/b4_Inc_state save def         % Save state for cleanup
/dict_count countdictstack def % Count objects on dict stack
/op_count count 1 sub def      % Count objects on operand stack
userdict begin                 % Push userdict on dict stack
/showpage { } def              % Redefine showpage, { } = null proc
0 setgray 0 setlinecap         % Prepare graphics state
1 setlinewidth 0 setlinejoin
10 setmiterlimit [ ] 0 setdash newpath
/languagelevel where           % If level not equal to 1 then
{pop languagelevel             % set strokeadjust and
1 ne                           % overprint to their defaults.
{false setstrokeadjust false setoverprint
} if
} if
} bd
/EndEPSF { %def
count op_count sub {pop} repeat            % Clean up stacks
countdictstack dict_count sub {end} repeat
b4_Inc_state restore
} bd
%%EndResource
%FOPBeginFontDict
%%IncludeResource: font Courier-Oblique
%%IncludeResource: font Courier-BoldOblique
%%IncludeResource: font Courier-Bold
%%IncludeResource: font ZapfDingbats
%%IncludeResource: font Symbol
%%IncludeResource: font Helvetica
%%IncludeResource: font Helvetica-Oblique
%%IncludeResource: font Helvetica-Bold
%%IncludeResource: font Helvetica-BoldOblique
%%IncludeResource: font Times-Roman
%%IncludeResource: font Times-Italic
%%IncludeResource: font Times-Bold
%%IncludeResource: font Times-BoldItalic
%%IncludeResource: font Courier
%FOPEndFontDict
%%BeginResource: encoding WinAnsiEncoding
/WinAnsiEncoding [
/.notdef /.notdef /.notdef /.notdef /.notdef
/.notdef /.notdef /.notdef /.notdef /.notdef
/.notdef /.notdef /.notdef /.notdef /.notdef
/.notdef /.notdef /.notdef /.notdef /.notdef
/.notdef /.notdef /.notdef /.notdef /.notdef
/.notdef /.notdef /.notdef /.notdef /.notdef
/.notdef /.notdef /space /exclam /quotedbl
/numbersign /dollar /percent /ampersand /quotesingle
/parenleft /parenright /asterisk /plus /comma
/hyphen /period /slash /zero /one
/two /three /four /five /six
/seven /eight /nine /colon /semicolon
/less /equal /greater /question /at
/A /B /C /D /E
/F /G /H /I /J
/K /L /M /N /O
/P /Q /R /S /T
/U /V /W /X /Y
/Z /bracketleft /backslash /bracketright /asciicircum
/underscore /quoteleft /a /b /c
/d /e /f /g /h
/i /j /k /l /m
/n /o /p /q /r
/s /t /u /v /w
/x /y /z /braceleft /bar
/braceright /asciitilde /bullet /Euro /bullet
/quotesinglbase /florin /quotedblbase /ellipsis /dagger
/daggerdbl /circumflex /perthousand /Scaron /guilsinglleft
/OE /bullet /Zcaron /bullet /bullet
/quoteleft /quoteright /quotedblleft /quotedblright /bullet
/endash /emdash /asciitilde /trademark /scaron
/guilsinglright /oe /bullet /zcaron /Ydieresis
/space /exclamdown /cent /sterling /currency
/yen /brokenbar /section /dieresis /copyright
/ordfeminine /guillemotleft /logicalnot /sfthyphen /registered
/macron /degree /plusminus /twosuperior /threesuperior
/acute /mu /paragraph /middot /cedilla
/onesuperior /ordmasculine /guillemotright /onequarter /onehalf
/threequarters /questiondown /Agrave /Aacute /Acircumflex
/Atilde /Adieresis /Aring /AE /Ccedilla
/Egrave /Eacute /Ecircumflex /Edieresis /Igrave
/Iacute /Icircumflex /Idieresis /Eth /Ntilde
/Ograve /Oacute /Ocircumflex /Otilde /Odieresis
/multiply /Oslash /Ugrave /Uacute /Ucircumflex
/Udieresis /Yacute /Thorn /germandbls /agrave
/aacute /acircumflex /atilde /adieresis /aring
/ae /ccedilla /egrave /eacute /ecircumflex
/edieresis /igrave /iacute /icircumflex /idieresis
/eth /ntilde /ograve /oacute /ocircumflex
/otilde /odieresis /divide /oslash /ugrave
/uacute /ucircumflex /udieresis /yacute /thorn
/ydieresis
] def
%%EndResource
%FOPBeginFontReencode
/Courier-Oblique findfont
dup length dict begin
  {1 index /FID ne {def} {pop pop} ifelse} forall
  /Encoding WinAnsiEncoding def
  currentdict
end
/Courier-Oblique exch definefont pop
/Courier-BoldOblique findfont
dup length dict begin
  {1 index /FID ne {def} {pop pop} ifelse} forall
  /Encoding WinAnsiEncoding def
  currentdict
end
/Courier-BoldOblique exch definefont pop
/Courier-Bold findfont
dup length dict begin
  {1 index /FID ne {def} {pop pop} ifelse} forall
  /Encoding WinAnsiEncoding def
  currentdict
end
/Courier-Bold exch definefont pop
/Helvetica findfont
dup length dict begin
  {1 index /FID ne {def} {pop pop} ifelse} forall
  /Encoding WinAnsiEncoding def
  currentdict
end
/Helvetica exch definefont pop
/Helvetica-Oblique findfont
dup length dict begin
  {1 index /FID ne {def} {pop pop} ifelse} forall
  /Encoding WinAnsiEncoding def
  currentdict
end
/Helvetica-Oblique exch definefont pop
/Helvetica-Bold findfont
dup length dict begin
  {1 index /FID ne {def} {pop pop} ifelse} forall
  /Encoding WinAnsiEncoding def
  currentdict
end
/Helvetica-Bold exch definefont pop
/Helvetica-BoldOblique findfont
dup length dict begin
  {1 index /FID ne {def} {pop pop} ifelse} forall
  /Encoding WinAnsiEncoding def
  currentdict
end
/Helvetica-BoldOblique exch definefont pop
/Times-Roman findfont
dup length dict begin
  {1 index /FID ne {def} {pop pop} ifelse} forall
  /Encoding WinAnsiEncoding def
  currentdict
end
/Times-Roman exch definefont pop
/Times-Italic findfont
dup length dict begin
  {1 index /FID ne {def} {pop pop} ifelse} forall
  /Encoding WinAnsiEncoding def
  currentdict
end
/Times-Italic exch definefont pop
/Times-Bold findfont
dup length dict begin
  {1 index /FID ne {def} {pop pop} ifelse} forall
  /Encoding WinAnsiEncoding def
  currentdict
end
/Times-Bold exch definefont pop
/Times-BoldItalic findfont
dup length dict begin
  {1 index /FID ne {def} {pop pop} ifelse} forall
  /Encoding WinAnsiEncoding def
  currentdict
end
/Times-BoldItalic exch definefont pop
/Courier findfont
dup length dict begin
  {1 index /FID ne {def} {pop pop} ifelse} forall
  /Encoding WinAnsiEncoding def
  currentdict
end
/Courier exch definefont pop
%FOPEndFontReencode
%%EndProlog
%%Page: 1 1
%%PageBoundingBox: 0 0 1120 840
%%BeginPageSetup
[1 0 0 -1 0 840] CT
%%EndPageSetup
GS
1 GC
N
0 0 1120 840 re
f
GR
GS
1 GC
N
73 374 M
507 374 L
507 31.5 L
73 31.5 L
cp
f
GR
GS
0.149 GC
2 setlinecap
1 LJ
0.5 LW
N
73 374 M
507 374 L
S
GR
GS
0.149 GC
2 setlinecap
1 LJ
0.5 LW
N
73 31.5 M
507 31.5 L
S
GR
GS
0.149 GC
2 setlinecap
1 LJ
0.5 LW
N
131.215 374 M
131.215 369.66 L
S
GR
GS
0.149 GC
2 setlinecap
1 LJ
0.5 LW
N
210.077 374 M
210.077 369.66 L
S
GR
GS
0.149 GC
2 setlinecap
1 LJ
0.5 LW
N
288.94 374 M
288.94 369.66 L
S
GR
GS
0.149 GC
2 setlinecap
1 LJ
0.5 LW
N
367.803 374 M
367.803 369.66 L
S
GR
GS
0.149 GC
2 setlinecap
1 LJ
0.5 LW
N
446.667 374 M
446.667 369.66 L
S
GR
GS
0.149 GC
2 setlinecap
1 LJ
0.5 LW
N
131.215 31.5 M
131.215 35.84 L
S
GR
GS
0.149 GC
2 setlinecap
1 LJ
0.5 LW
N
210.077 31.5 M
210.077 35.84 L
S
GR
GS
0.149 GC
2 setlinecap
1 LJ
0.5 LW
N
288.94 31.5 M
288.94 35.84 L
S
GR
GS
0.149 GC
2 setlinecap
1 LJ
0.5 LW
N
367.803 31.5 M
367.803 35.84 L
S
GR
GS
0.149 GC
2 setlinecap
1 LJ
0.5 LW
N
446.667 31.5 M
446.667 35.84 L
S
GR
GS
0.149 GC
2 setlinecap
1 LJ
0.5 LW
N
91.783 374 M
91.783 371.83 L
S
GR
GS
0.149 GC
2 setlinecap
1 LJ
0.5 LW
N
111.499 374 M
111.499 371.83 L
S
GR
GS
0.149 GC
2 setlinecap
1 LJ
0.5 LW
N
150.93 374 M
150.93 371.83 L
S
GR
GS
0.149 GC
2 setlinecap
1 LJ
0.5 LW
N
170.646 374 M
170.646 371.83 L
S
GR
GS
0.149 GC
2 setlinecap
1 LJ
0.5 LW
N
190.362 374 M
190.362 371.83 L
S
GR
GS
0.149 GC
2 setlinecap
1 LJ
0.5 LW
N
229.793 374 M
229.793 371.83 L
S
GR
GS
0.149 GC
2 setlinecap
1 LJ
0.5 LW
N
249.509 374 M
249.509 371.83 L
S
GR
GS
0.149 GC
2 setlinecap
1 LJ
0.5 LW
N
269.225 374 M
269.225 371.83 L
S
GR
GS
0.149 GC
2 setlinecap
1 LJ
0.5 LW
N
308.656 374 M
308.656 371.83 L
S
GR
GS
0.149 GC
2 setlinecap
1 LJ
0.5 LW
N
328.372 374 M
328.372 371.83 L
S
GR
GS
0.149 GC
2 setlinecap
1 LJ
0.5 LW
N
348.088 374 M
348.088 371.83 L
S
GR
GS
0.149 GC
2 setlinecap
1 LJ
0.5 LW
N
387.519 374 M
387.519 371.83 L
S
GR
GS
0.149 GC
2 setlinecap
1 LJ
0.5 LW
N
407.235 374 M
407.235 371.83 L
S
GR
GS
0.149 GC
2 setlinecap
1 LJ
0.5 LW
N
426.951 374 M
426.951 371.83 L
S
GR
GS
0.149 GC
2 setlinecap
1 LJ
0.5 LW
N
466.382 374 M
466.382 371.83 L
S
GR
GS
0.149 GC
2 setlinecap
1 LJ
0.5 LW
N
486.098 374 M
486.098 371.83 L
S
GR
GS
0.149 GC
2 setlinecap
1 LJ
0.5 LW
N
505.814 374 M
505.814 371.83 L
S
GR
GS
0.149 GC
2 setlinecap
1 LJ
0.5 LW
N
91.783 31.5 M
91.783 33.67 L
S
GR
GS
0.149 GC
2 setlinecap
1 LJ
0.5 LW
N
111.499 31.5 M
111.499 33.67 L
S
GR
GS
0.149 GC
2 setlinecap
1 LJ
0.5 LW
N
150.93 31.5 M
150.93 33.67 L
S
GR
GS
0.149 GC
2 setlinecap
1 LJ
0.5 LW
N
170.646 31.5 M
170.646 33.67 L
S
GR
GS
0.149 GC
2 setlinecap
1 LJ
0.5 LW
N
190.362 31.5 M
190.362 33.67 L
S
GR
GS
0.149 GC
2 setlinecap
1 LJ
0.5 LW
N
229.793 31.5 M
229.793 33.67 L
S
GR
GS
0.149 GC
2 setlinecap
1 LJ
0.5 LW
N
249.509 31.5 M
249.509 33.67 L
S
GR
GS
0.149 GC
2 setlinecap
1 LJ
0.5 LW
N
269.225 31.5 M
269.225 33.67 L
S
GR
GS
0.149 GC
2 setlinecap
1 LJ
0.5 LW
N
308.656 31.5 M
308.656 33.67 L
S
GR
GS
0.149 GC
2 setlinecap
1 LJ
0.5 LW
N
328.372 31.5 M
328.372 33.67 L
S
GR
GS
0.149 GC
2 setlinecap
1 LJ
0.5 LW
N
348.088 31.5 M
348.088 33.67 L
S
GR
GS
0.149 GC
2 setlinecap
1 LJ
0.5 LW
N
387.519 31.5 M
387.519 33.67 L
S
GR
GS
0.149 GC
2 setlinecap
1 LJ
0.5 LW
N
407.235 31.5 M
407.235 33.67 L
S
GR
GS
0.149 GC
2 setlinecap
1 LJ
0.5 LW
N
426.951 31.5 M
426.951 33.67 L
S
GR
GS
0.149 GC
2 setlinecap
1 LJ
0.5 LW
N
466.382 31.5 M
466.382 33.67 L
S
GR
GS
0.149 GC
2 setlinecap
1 LJ
0.5 LW
N
486.098 31.5 M
486.098 33.67 L
S
GR
GS
0.149 GC
2 setlinecap
1 LJ
0.5 LW
N
505.814 31.5 M
505.814 33.67 L
S
GR
GS
[1 0 0 1 131.21451 378.79993] CT
0.149 GC
/Helvetica 14 F
GS
[1 0 0 1 0 0] CT
-16 14 moveto 
1 -1 scale
(2000) t 
GR
GR
GS
[1 0 0 1 210.0775 378.79993] CT
0.149 GC
/Helvetica 14 F
GS
[1 0 0 1 0 0] CT
-16 14 moveto 
1 -1 scale
(4000) t 
GR
GR
GS
[1 0 0 1 288.94049 378.79993] CT
0.149 GC
/Helvetica 14 F
GS
[1 0 0 1 0 0] CT
-16 14 moveto 
1 -1 scale
(6000) t 
GR
GR
GS
[1 0 0 1 367.8035 378.79993] CT
0.149 GC
/Helvetica 14 F
GS
[1 0 0 1 0 0] CT
-16 14 moveto 
1 -1 scale
(8000) t 
GR
GR
GS
[1 0 0 1 446.6665 378.79993] CT
0.149 GC
/Helvetica 14 F
GS
[1 0 0 1 0 0] CT
-19.5 14 moveto 
1 -1 scale
(10000) t 
GR
GR
GS
[1 0 0 1 290.00021 396.29999] CT
0.149 GC
/Helvetica 15.4 F
GS
[1 0 0 1 0 0] CT
-42 15 moveto 
1 -1 scale
(Bitrate\(kb/s\)) t 
GR
GR
GS
0.149 GC
2 setlinecap
1 LJ
0.5 LW
N
73 374 M
73 31.5 L
S
GR
GS
0.149 GC
2 setlinecap
1 LJ
0.5 LW
N
507 374 M
507 31.5 L
S
GR
GS
0.149 GC
2 setlinecap
1 LJ
0.5 LW
N
73 333.97 M
77.34 333.97 L
S
GR
GS
0.149 GC
2 setlinecap
1 LJ
0.5 LW
N
73 285.616 M
77.34 285.616 L
S
GR
GS
0.149 GC
2 setlinecap
1 LJ
0.5 LW
N
73 237.261 M
77.34 237.261 L
S
GR
GS
0.149 GC
2 setlinecap
1 LJ
0.5 LW
N
73 188.907 M
77.34 188.907 L
S
GR
GS
0.149 GC
2 setlinecap
1 LJ
0.5 LW
N
73 140.552 M
77.34 140.552 L
S
GR
GS
0.149 GC
2 setlinecap
1 LJ
0.5 LW
N
73 92.198 M
77.34 92.198 L
S
GR
GS
0.149 GC
2 setlinecap
1 LJ
0.5 LW
N
73 43.843 M
77.34 43.843 L
S
GR
GS
0.149 GC
2 setlinecap
1 LJ
0.5 LW
N
507 333.97 M
502.66 333.97 L
S
GR
GS
0.149 GC
2 setlinecap
1 LJ
0.5 LW
N
507 285.616 M
502.66 285.616 L
S
GR
GS
0.149 GC
2 setlinecap
1 LJ
0.5 LW
N
507 237.261 M
502.66 237.261 L
S
GR
GS
0.149 GC
2 setlinecap
1 LJ
0.5 LW
N
507 188.907 M
502.66 188.907 L
S
GR
GS
0.149 GC
2 setlinecap
1 LJ
0.5 LW
N
507 140.552 M
502.66 140.552 L
S
GR
GS
0.149 GC
2 setlinecap
1 LJ
0.5 LW
N
507 92.198 M
502.66 92.198 L
S
GR
GS
0.149 GC
2 setlinecap
1 LJ
0.5 LW
N
507 43.843 M
502.66 43.843 L
S
GR
GS
0.149 GC
2 setlinecap
1 LJ
0.5 LW
N
73 372.654 M
75.17 372.654 L
S
GR
GS
0.149 GC
2 setlinecap
1 LJ
0.5 LW
N
73 362.983 M
75.17 362.983 L
S
GR
GS
0.149 GC
2 setlinecap
1 LJ
0.5 LW
N
73 353.312 M
75.17 353.312 L
S
GR
GS
0.149 GC
2 setlinecap
1 LJ
0.5 LW
N
73 343.641 M
75.17 343.641 L
S
GR
GS
0.149 GC
2 setlinecap
1 LJ
0.5 LW
N
73 324.299 M
75.17 324.299 L
S
GR
GS
0.149 GC
2 setlinecap
1 LJ
0.5 LW
N
73 314.629 M
75.17 314.629 L
S
GR
GS
0.149 GC
2 setlinecap
1 LJ
0.5 LW
N
73 304.958 M
75.17 304.958 L
S
GR
GS
0.149 GC
2 setlinecap
1 LJ
0.5 LW
N
73 295.287 M
75.17 295.287 L
S
GR
GS
0.149 GC
2 setlinecap
1 LJ
0.5 LW
N
73 275.945 M
75.17 275.945 L
S
GR
GS
0.149 GC
2 setlinecap
1 LJ
0.5 LW
N
73 266.274 M
75.17 266.274 L
S
GR
GS
0.149 GC
2 setlinecap
1 LJ
0.5 LW
N
73 256.603 M
75.17 256.603 L
S
GR
GS
0.149 GC
2 setlinecap
1 LJ
0.5 LW
N
73 246.932 M
75.17 246.932 L
S
GR
GS
0.149 GC
2 setlinecap
1 LJ
0.5 LW
N
73 227.59 M
75.17 227.59 L
S
GR
GS
0.149 GC
2 setlinecap
1 LJ
0.5 LW
N
73 217.92 M
75.17 217.92 L
S
GR
GS
0.149 GC
2 setlinecap
1 LJ
0.5 LW
N
73 208.249 M
75.17 208.249 L
S
GR
GS
0.149 GC
2 setlinecap
1 LJ
0.5 LW
N
73 198.578 M
75.17 198.578 L
S
GR
GS
0.149 GC
2 setlinecap
1 LJ
0.5 LW
N
73 179.236 M
75.17 179.236 L
S
GR
GS
0.149 GC
2 setlinecap
1 LJ
0.5 LW
N
73 169.565 M
75.17 169.565 L
S
GR
GS
0.149 GC
2 setlinecap
1 LJ
0.5 LW
N
73 159.894 M
75.17 159.894 L
S
GR
GS
0.149 GC
2 setlinecap
1 LJ
0.5 LW
N
73 150.223 M
75.17 150.223 L
S
GR
GS
0.149 GC
2 setlinecap
1 LJ
0.5 LW
N
73 130.881 M
75.17 130.881 L
S
GR
GS
0.149 GC
2 setlinecap
1 LJ
0.5 LW
N
73 121.211 M
75.17 121.211 L
S
GR
GS
0.149 GC
2 setlinecap
1 LJ
0.5 LW
N
73 111.54 M
75.17 111.54 L
S
GR
GS
0.149 GC
2 setlinecap
1 LJ
0.5 LW
N
73 101.869 M
75.17 101.869 L
S
GR
GS
0.149 GC
2 setlinecap
1 LJ
0.5 LW
N
73 82.527 M
75.17 82.527 L
S
GR
GS
0.149 GC
2 setlinecap
1 LJ
0.5 LW
N
73 72.856 M
75.17 72.856 L
S
GR
GS
0.149 GC
2 setlinecap
1 LJ
0.5 LW
N
73 63.185 M
75.17 63.185 L
S
GR
GS
0.149 GC
2 setlinecap
1 LJ
0.5 LW
N
73 53.514 M
75.17 53.514 L
S
GR
GS
0.149 GC
2 setlinecap
1 LJ
0.5 LW
N
73 34.172 M
75.17 34.172 L
S
GR
GS
0.149 GC
2 setlinecap
1 LJ
0.5 LW
N
507 372.654 M
504.83 372.654 L
S
GR
GS
0.149 GC
2 setlinecap
1 LJ
0.5 LW
N
507 362.983 M
504.83 362.983 L
S
GR
GS
0.149 GC
2 setlinecap
1 LJ
0.5 LW
N
507 353.312 M
504.83 353.312 L
S
GR
GS
0.149 GC
2 setlinecap
1 LJ
0.5 LW
N
507 343.641 M
504.83 343.641 L
S
GR
GS
0.149 GC
2 setlinecap
1 LJ
0.5 LW
N
507 324.299 M
504.83 324.299 L
S
GR
GS
0.149 GC
2 setlinecap
1 LJ
0.5 LW
N
507 314.629 M
504.83 314.629 L
S
GR
GS
0.149 GC
2 setlinecap
1 LJ
0.5 LW
N
507 304.958 M
504.83 304.958 L
S
GR
GS
0.149 GC
2 setlinecap
1 LJ
0.5 LW
N
507 295.287 M
504.83 295.287 L
S
GR
GS
0.149 GC
2 setlinecap
1 LJ
0.5 LW
N
507 275.945 M
504.83 275.945 L
S
GR
GS
0.149 GC
2 setlinecap
1 LJ
0.5 LW
N
507 266.274 M
504.83 266.274 L
S
GR
GS
0.149 GC
2 setlinecap
1 LJ
0.5 LW
N
507 256.603 M
504.83 256.603 L
S
GR
GS
0.149 GC
2 setlinecap
1 LJ
0.5 LW
N
507 246.932 M
504.83 246.932 L
S
GR
GS
0.149 GC
2 setlinecap
1 LJ
0.5 LW
N
507 227.59 M
504.83 227.59 L
S
GR
GS
0.149 GC
2 setlinecap
1 LJ
0.5 LW
N
507 217.92 M
504.83 217.92 L
S
GR
GS
0.149 GC
2 setlinecap
1 LJ
0.5 LW
N
507 208.249 M
504.83 208.249 L
S
GR
GS
0.149 GC
2 setlinecap
1 LJ
0.5 LW
N
507 198.578 M
504.83 198.578 L
S
GR
GS
0.149 GC
2 setlinecap
1 LJ
0.5 LW
N
507 179.236 M
504.83 179.236 L
S
GR
GS
0.149 GC
2 setlinecap
1 LJ
0.5 LW
N
507 169.565 M
504.83 169.565 L
S
GR
GS
0.149 GC
2 setlinecap
1 LJ
0.5 LW
N
507 159.894 M
504.83 159.894 L
S
GR
GS
0.149 GC
2 setlinecap
1 LJ
0.5 LW
N
507 150.223 M
504.83 150.223 L
S
GR
GS
0.149 GC
2 setlinecap
1 LJ
0.5 LW
N
507 130.881 M
504.83 130.881 L
S
GR
GS
0.149 GC
2 setlinecap
1 LJ
0.5 LW
N
507 121.211 M
504.83 121.211 L
S
GR
GS
0.149 GC
2 setlinecap
1 LJ
0.5 LW
N
507 111.54 M
504.83 111.54 L
S
GR
GS
0.149 GC
2 setlinecap
1 LJ
0.5 LW
N
507 101.869 M
504.83 101.869 L
S
GR
GS
0.149 GC
2 setlinecap
1 LJ
0.5 LW
N
507 82.527 M
504.83 82.527 L
S
GR
GS
0.149 GC
2 setlinecap
1 LJ
0.5 LW
N
507 72.856 M
504.83 72.856 L
S
GR
GS
0.149 GC
2 setlinecap
1 LJ
0.5 LW
N
507 63.185 M
504.83 63.185 L
S
GR
GS
0.149 GC
2 setlinecap
1 LJ
0.5 LW
N
507 53.514 M
504.83 53.514 L
S
GR
GS
0.149 GC
2 setlinecap
1 LJ
0.5 LW
N
507 34.172 M
504.83 34.172 L
S
GR
GS
[1 0 0 1 68.2 333.9704] CT
0.149 GC
/Helvetica 14 F
GS
[1 0 0 1 0 0] CT
-16 5.5 moveto 
1 -1 scale
(33) t 
GR
GR
GS
[1 0 0 1 68.2 285.61591] CT
0.149 GC
/Helvetica 14 F
GS
[1 0 0 1 0 0] CT
-16 5.5 moveto 
1 -1 scale
(34) t 
GR
GR
GS
[1 0 0 1 68.2 237.26141] CT
0.149 GC
/Helvetica 14 F
GS
[1 0 0 1 0 0] CT
-16 5.5 moveto 
1 -1 scale
(35) t 
GR
GR
GS
[1 0 0 1 68.2 188.90692] CT
0.149 GC
/Helvetica 14 F
GS
[1 0 0 1 0 0] CT
-16 5.5 moveto 
1 -1 scale
(36) t 
GR
GR
GS
[1 0 0 1 68.2 140.55243] CT
0.149 GC
/Helvetica 14 F
GS
[1 0 0 1 0 0] CT
-16 5.5 moveto 
1 -1 scale
(37) t 
GR
GR
GS
[1 0 0 1 68.2 92.19793] CT
0.149 GC
/Helvetica 14 F
GS
[1 0 0 1 0 0] CT
-16 5.5 moveto 
1 -1 scale
(38) t 
GR
GR
GS
[1 0 0 1 68.2 43.84343] CT
0.149 GC
/Helvetica 14 F
GS
[1 0 0 1 0 0] CT
-16 5.5 moveto 
1 -1 scale
(39) t 
GR
GR
GS
[0 -1 1 0 49.2 202.74992] CT
0.149 GC
/Helvetica 15.4 F
GS
[1 0 0 1 0 0] CT
-47 -4 moveto 
1 -1 scale
(APSNR Y\(dB\)) t 
GR
GR
GS
[1 0 0 1 290.00027 29.57507] CT
/Helvetica-Bold 15.4 F
GS
[1 0 0 1 0 0] CT
-184.5 -4 moveto 
1 -1 scale
(FoodMarket_1920x1080_5994_10bit_420.y4m-hevc) t 
GR
GR
GS
0 0.447 0.741 RC
1 LJ
0.5 LW
N
73.396 372.041 M
74.185 367.863 L
74.974 363.696 L
75.762 359.542 L
76.551 355.408 L
77.34 351.296 L
78.128 347.213 L
78.917 343.161 L
79.706 339.146 L
80.494 335.173 L
81.283 331.244 L
82.071 327.366 L
82.86 323.541 L
83.649 319.776 L
84.437 316.074 L
85.226 312.439 L
86.015 308.877 L
86.803 305.391 L
87.592 301.986 L
88.38 298.666 L
89.169 295.437 L
89.958 292.301 L
90.746 289.265 L
91.535 286.331 L
92.324 283.505 L
93.112 280.791 L
93.901 278.194 L
94.689 275.718 L
95.478 273.332 L
96.267 270.974 L
97.055 268.643 L
97.844 266.34 L
98.633 264.063 L
99.421 261.813 L
100.21 259.59 L
100.999 257.393 L
101.787 255.224 L
102.576 253.08 L
103.364 250.963 L
104.153 248.872 L
104.942 246.807 L
105.73 244.769 L
106.519 242.756 L
107.308 240.769 L
108.096 238.808 L
108.885 236.873 L
109.673 234.964 L
110.462 233.08 L
111.251 231.221 L
112.039 229.388 L
112.828 227.58 L
113.617 225.797 L
114.405 224.039 L
115.194 222.307 L
115.983 220.599 L
116.771 218.916 L
117.56 217.258 L
118.348 215.624 L
119.137 214.015 L
119.926 212.43 L
120.714 210.87 L
121.503 209.334 L
122.292 207.822 L
123.08 206.334 L
123.869 204.87 L
124.657 203.43 L
125.446 202.014 L
126.235 200.622 L
127.023 199.253 L
127.812 197.908 L
128.601 196.586 L
129.389 195.288 L
130.178 194.013 L
130.966 192.761 L
131.755 191.532 L
132.544 190.326 L
133.332 189.143 L
134.121 187.983 L
134.91 186.845 L
135.698 185.73 L
136.487 184.638 L
137.276 183.568 L
138.064 182.518 L
138.853 181.477 L
139.641 180.441 L
140.43 179.411 L
141.219 178.387 L
142.007 177.37 L
142.796 176.358 L
143.585 175.351 L
144.373 174.351 L
145.162 173.357 L
145.95 172.369 L
146.739 171.387 L
147.528 170.411 L
148.316 169.44 L
149.105 168.476 L
149.894 167.518 L
150.682 166.565 L
151.471 165.619 L
152.259 164.678 L
153.048 163.744 L
153.837 162.816 L
154.625 161.893 L
155.414 160.977 L
156.203 160.066 L
156.991 159.162 L
157.78 158.263 L
158.569 157.371 L
159.357 156.484 L
160.146 155.604 L
160.934 154.73 L
161.723 153.861 L
162.512 152.999 L
163.3 152.143 L
164.089 151.292 L
164.878 150.448 L
165.666 149.61 L
166.455 148.778 L
167.243 147.952 L
168.032 147.132 L
168.821 146.318 L
169.609 145.51 L
170.398 144.708 L
171.187 143.913 L
171.975 143.123 L
172.764 142.34 L
173.553 141.562 L
174.341 140.791 L
175.13 140.025 L
175.918 139.266 L
176.707 138.513 L
177.496 137.766 L
178.284 137.025 L
179.073 136.29 L
179.862 135.562 L
180.65 134.839 L
181.439 134.123 L
182.227 133.412 L
183.016 132.708 L
183.805 132.01 L
184.593 131.318 L
185.382 130.632 L
186.171 129.953 L
186.959 129.279 L
187.748 128.612 L
188.536 127.951 L
189.325 127.296 L
190.114 126.647 L
190.902 126.004 L
191.691 125.367 L
192.48 124.737 L
193.268 124.113 L
194.057 123.495 L
194.846 122.883 L
195.634 122.277 L
196.423 121.678 L
197.211 121.085 L
198 120.498 L
198.789 119.917 L
199.577 119.342 L
200.366 118.773 L
201.155 118.211 L
201.943 117.655 L
202.732 117.105 L
203.52 116.562 L
204.309 116.025 L
205.098 115.493 L
205.886 114.968 L
206.675 114.45 L
207.464 113.937 L
208.252 113.431 L
209.041 112.931 L
209.829 112.438 L
210.618 111.95 L
211.407 111.469 L
212.195 110.994 L
212.984 110.525 L
213.773 110.063 L
214.561 109.607 L
215.35 109.157 L
216.139 108.714 L
216.927 108.276 L
217.716 107.845 L
218.504 107.421 L
219.293 107.003 L
220.082 106.59 L
220.87 106.185 L
221.659 105.785 L
222.448 105.392 L
223.236 105.005 L
224.025 104.625 L
224.813 104.251 L
225.602 103.883 L
226.391 103.521 L
227.179 103.165 L
227.968 102.809 L
228.757 102.455 L
229.545 102.1 L
230.334 101.746 L
231.122 101.393 L
231.911 101.04 L
232.7 100.687 L
233.488 100.335 L
234.277 99.984 L
235.066 99.633 L
235.854 99.283 L
236.643 98.933 L
237.432 98.583 L
238.22 98.235 L
239.009 97.887 L
239.797 97.539 L
240.586 97.192 L
241.375 96.845 L
242.163 96.499 L
242.952 96.154 L
243.741 95.809 L
244.529 95.464 L
245.318 95.121 L
246.106 94.778 L
246.895 94.435 L
247.684 94.093 L
248.472 93.751 L
249.261 93.411 L
250.05 93.07 L
250.838 92.731 L
251.627 92.392 L
252.415 92.053 L
253.204 91.715 L
253.993 91.378 L
254.781 91.041 L
255.57 90.705 L
256.359 90.37 L
257.147 90.035 L
257.936 89.701 L
258.725 89.368 L
259.513 89.035 L
260.302 88.703 L
261.09 88.371 L
261.879 88.04 L
262.668 87.71 L
263.456 87.38 L
264.245 87.052 L
265.034 86.723 L
265.822 86.396 L
266.611 86.069 L
267.399 85.743 L
268.188 85.417 L
268.977 85.092 L
269.765 84.768 L
270.554 84.445 L
271.343 84.122 L
272.131 83.8 L
272.92 83.478 L
273.708 83.158 L
274.497 82.838 L
275.286 82.519 L
276.074 82.2 L
276.863 81.882 L
277.652 81.565 L
278.44 81.249 L
279.229 80.933 L
280.018 80.618 L
280.806 80.304 L
281.595 79.991 L
282.383 79.678 L
283.172 79.366 L
283.961 79.055 L
284.749 78.745 L
285.538 78.435 L
286.327 78.127 L
287.115 77.819 L
287.904 77.511 L
288.692 77.205 L
289.481 76.899 L
290.27 76.594 L
291.058 76.29 L
291.847 75.987 L
292.636 75.684 L
293.424 75.382 L
294.213 75.082 L
295.002 74.781 L
295.79 74.482 L
296.579 74.184 L
297.367 73.886 L
298.156 73.589 L
298.945 73.293 L
299.733 72.998 L
300.522 72.704 L
301.311 72.41 L
302.099 72.118 L
302.888 71.826 L
303.676 71.535 L
304.465 71.245 L
305.254 70.956 L
306.042 70.667 L
306.831 70.38 L
307.62 70.093 L
308.408 69.808 L
309.197 69.523 L
309.985 69.239 L
310.774 68.956 L
311.563 68.674 L
312.351 68.392 L
313.14 68.112 L
313.929 67.832 L
314.717 67.554 L
315.506 67.276 L
316.295 67 L
317.083 66.724 L
317.872 66.449 L
318.66 66.175 L
319.449 65.902 L
320.238 65.63 L
321.026 65.358 L
321.815 65.088 L
322.604 64.819 L
323.392 64.55 L
324.181 64.283 L
324.969 64.017 L
325.758 63.751 L
326.547 63.487 L
327.335 63.223 L
328.124 62.96 L
328.913 62.699 L
329.701 62.438 L
330.49 62.179 L
331.279 61.92 L
332.067 61.662 L
332.856 61.406 L
333.644 61.15 L
334.433 60.895 L
335.222 60.642 L
336.01 60.389 L
336.799 60.137 L
337.588 59.887 L
338.376 59.637 L
339.165 59.389 L
339.953 59.141 L
340.742 58.894 L
341.531 58.649 L
342.319 58.405 L
343.108 58.161 L
343.897 57.919 L
344.685 57.678 L
345.474 57.437 L
346.262 57.198 L
347.051 56.96 L
347.84 56.723 L
348.628 56.487 L
349.417 56.252 L
350.206 56.018 L
350.994 55.786 L
351.783 55.554 L
352.572 55.323 L
353.36 55.094 L
354.149 54.866 L
354.937 54.638 L
355.726 54.412 L
356.515 54.187 L
357.303 53.963 L
358.092 53.74 L
358.881 53.518 L
359.669 53.298 L
360.458 53.078 L
361.246 52.86 L
362.035 52.643 L
362.824 52.427 L
363.612 52.212 L
364.401 51.998 L
365.19 51.785 L
365.978 51.574 L
366.767 51.364 L
367.555 51.155 L
368.344 50.947 L
369.133 50.74 L
369.921 50.534 L
370.71 50.33 L
371.499 50.126 L
372.287 49.924 L
373.076 49.724 L
373.865 49.524 L
374.653 49.325 L
375.442 49.128 L
376.23 48.932 L
377.019 48.737 L
377.808 48.543 L
378.596 48.351 L
379.385 48.16 L
380.174 47.97 L
380.962 47.781 L
381.751 47.593 L
382.539 47.407 L
383.328 47.222 L
384.117 47.038 L
384.905 46.855 L
385.694 46.674 L
386.483 46.494 L
387.271 46.315 L
388.06 46.138 L
388.848 45.961 L
389.637 45.786 L
390.426 45.612 L
391.214 45.44 L
392.003 45.269 L
392.792 45.099 L
393.58 44.93 L
394.369 44.763 L
395.158 44.597 L
395.946 44.432 L
396.735 44.269 L
397.523 44.106 L
398.312 43.946 L
399.101 43.786 L
399.889 43.628 L
400.678 43.471 L
401.467 43.315 L
402.255 43.161 L
403.044 43.008 L
403.832 42.857 L
404.621 42.707 L
405.41 42.558 L
406.198 42.41 L
406.987 42.264 L
407.776 42.119 L
408.564 41.976 L
409.353 41.834 L
410.142 41.693 L
410.93 41.554 L
411.719 41.416 L
412.507 41.279 L
413.296 41.144 L
414.085 41.01 L
414.873 40.878 L
415.662 40.747 L
416.451 40.617 L
417.239 40.489 L
418.028 40.362 L
418.816 40.237 L
419.605 40.113 L
420.394 39.99 L
421.182 39.869 L
421.971 39.749 L
422.76 39.631 L
423.548 39.514 L
424.337 39.399 L
425.125 39.285 L
425.914 39.172 L
426.703 39.061 L
427.491 38.951 L
428.28 38.843 L
429.069 38.736 L
429.857 38.631 L
430.646 38.527 L
431.435 38.425 L
432.223 38.324 L
433.012 38.225 L
433.8 38.127 L
434.589 38.031 L
435.378 37.936 L
436.166 37.842 L
436.955 37.75 L
437.744 37.66 L
438.532 37.571 L
439.321 37.484 L
440.109 37.398 L
440.898 37.313 L
441.687 37.23 L
442.475 37.149 L
443.264 37.069 L
444.053 36.991 L
444.841 36.914 L
445.63 36.839 L
446.418 36.766 L
447.207 36.693 L
447.996 36.623 L
448.784 36.554 L
449.573 36.487 L
450.362 36.421 L
451.15 36.356 L
451.939 36.294 L
452.728 36.232 L
453.516 36.173 L
454.305 36.115 L
455.093 36.058 L
455.882 36.004 L
456.671 35.95 L
457.459 35.899 L
458.248 35.849 L
459.037 35.8 L
459.825 35.753 L
460.614 35.708 L
461.402 35.665 L
462.191 35.623 L
462.98 35.582 L
463.768 35.544 L
464.557 35.507 L
465.346 35.471 L
466.134 35.437 L
466.923 35.405 L
467.711 35.375 L
468.5 35.346 L
469.289 35.319 L
470.077 35.293 L
470.866 35.269 L
471.655 35.247 L
472.443 35.226 L
473.232 35.207 L
474.021 35.19 L
474.809 35.175 L
475.598 35.161 L
476.386 35.149 L
477.175 35.138 L
477.964 35.129 L
478.752 35.122 L
479.541 35.117 L
480.33 35.113 L
481.118 35.112 L
S
GR
GS
0.851 0.325 0.098 RC
1 LJ
0.5 LW
N
74.119 367.417 M
74.907 363.364 L
75.696 359.319 L
76.485 355.288 L
77.273 351.275 L
78.062 347.283 L
78.851 343.316 L
79.639 339.38 L
80.428 335.477 L
81.216 331.612 L
82.005 327.789 L
82.794 324.012 L
83.582 320.286 L
84.371 316.613 L
85.16 313 L
85.948 309.448 L
86.737 305.963 L
87.525 302.549 L
88.314 299.21 L
89.103 295.949 L
89.891 292.772 L
90.68 289.682 L
91.469 286.682 L
92.257 283.778 L
93.046 280.973 L
93.835 278.272 L
94.623 275.678 L
95.412 273.196 L
96.2 270.829 L
96.989 268.525 L
97.778 266.247 L
98.566 263.995 L
99.355 261.767 L
100.144 259.565 L
100.932 257.389 L
101.721 255.237 L
102.509 253.111 L
103.298 251.01 L
104.087 248.933 L
104.875 246.882 L
105.664 244.855 L
106.453 242.853 L
107.241 240.876 L
108.03 238.923 L
108.819 236.994 L
109.607 235.09 L
110.396 233.211 L
111.184 231.355 L
111.973 229.524 L
112.762 227.716 L
113.55 225.933 L
114.339 224.174 L
115.128 222.439 L
115.916 220.727 L
116.705 219.039 L
117.493 217.375 L
118.282 215.734 L
119.071 214.117 L
119.859 212.523 L
120.648 210.952 L
121.437 209.405 L
122.225 207.881 L
123.014 206.38 L
123.802 204.901 L
124.591 203.446 L
125.38 202.014 L
126.168 200.604 L
126.957 199.218 L
127.746 197.853 L
128.534 196.512 L
129.323 195.192 L
130.112 193.895 L
130.9 192.621 L
131.689 191.369 L
132.477 190.138 L
133.266 188.93 L
134.055 187.744 L
134.843 186.58 L
135.632 185.438 L
136.421 184.317 L
137.209 183.218 L
137.998 182.141 L
138.786 181.085 L
139.575 180.051 L
140.364 179.037 L
141.152 178.033 L
141.941 177.034 L
142.73 176.041 L
143.518 175.053 L
144.307 174.071 L
145.095 173.094 L
145.884 172.123 L
146.673 171.157 L
147.461 170.197 L
148.25 169.243 L
149.039 168.294 L
149.827 167.351 L
150.616 166.414 L
151.405 165.482 L
152.193 164.555 L
152.982 163.635 L
153.77 162.719 L
154.559 161.81 L
155.348 160.906 L
156.136 160.008 L
156.925 159.115 L
157.714 158.228 L
158.502 157.347 L
159.291 156.471 L
160.079 155.601 L
160.868 154.736 L
161.657 153.877 L
162.445 153.024 L
163.234 152.177 L
164.023 151.335 L
164.811 150.499 L
165.6 149.668 L
166.388 148.843 L
167.177 148.024 L
167.966 147.211 L
168.754 146.403 L
169.543 145.601 L
170.332 144.804 L
171.12 144.014 L
171.909 143.229 L
172.698 142.449 L
173.486 141.676 L
174.275 140.908 L
175.063 140.146 L
175.852 139.389 L
176.641 138.638 L
177.429 137.893 L
178.218 137.154 L
179.007 136.42 L
179.795 135.693 L
180.584 134.971 L
181.372 134.254 L
182.161 133.544 L
182.95 132.839 L
183.738 132.139 L
184.527 131.446 L
185.316 130.759 L
186.104 130.077 L
186.893 129.401 L
187.682 128.731 L
188.47 128.066 L
189.259 127.407 L
190.047 126.754 L
190.836 126.107 L
191.625 125.466 L
192.413 124.83 L
193.202 124.201 L
193.991 123.577 L
194.779 122.958 L
195.568 122.346 L
196.356 121.74 L
197.145 121.139 L
197.934 120.544 L
198.722 119.955 L
199.511 119.372 L
200.3 118.795 L
201.088 118.223 L
201.877 117.657 L
202.665 117.098 L
203.454 116.543 L
204.243 115.995 L
205.031 115.453 L
205.82 114.917 L
206.609 114.386 L
207.397 113.861 L
208.186 113.343 L
208.975 112.83 L
209.763 112.322 L
210.552 111.821 L
211.34 111.326 L
212.129 110.837 L
212.918 110.353 L
213.706 109.876 L
214.495 109.404 L
215.284 108.938 L
216.072 108.478 L
216.861 108.024 L
217.649 107.576 L
218.438 107.134 L
219.227 106.698 L
220.015 106.267 L
220.804 105.843 L
221.593 105.425 L
222.381 105.012 L
223.17 104.606 L
223.958 104.205 L
224.747 103.811 L
225.536 103.422 L
226.324 103.039 L
227.113 102.662 L
227.902 102.292 L
228.69 101.927 L
229.479 101.568 L
230.268 101.215 L
231.056 100.868 L
231.845 100.527 L
232.633 100.19 L
233.422 99.853 L
234.211 99.516 L
234.999 99.179 L
235.788 98.844 L
236.577 98.508 L
237.365 98.174 L
238.154 97.839 L
238.942 97.505 L
239.731 97.172 L
240.52 96.839 L
241.308 96.507 L
242.097 96.175 L
242.886 95.844 L
243.674 95.513 L
244.463 95.182 L
245.251 94.852 L
246.04 94.523 L
246.829 94.194 L
247.617 93.866 L
248.406 93.538 L
249.195 93.211 L
249.983 92.884 L
250.772 92.558 L
251.561 92.232 L
252.349 91.907 L
253.138 91.583 L
253.926 91.259 L
254.715 90.935 L
255.504 90.612 L
256.292 90.29 L
257.081 89.968 L
257.87 89.647 L
258.658 89.326 L
259.447 89.006 L
260.235 88.686 L
261.024 88.367 L
261.813 88.049 L
262.601 87.731 L
263.39 87.414 L
264.179 87.097 L
264.967 86.781 L
265.756 86.466 L
266.544 86.151 L
267.333 85.837 L
268.122 85.523 L
268.91 85.21 L
269.699 84.898 L
270.488 84.586 L
271.276 84.275 L
272.065 83.964 L
272.854 83.654 L
273.642 83.345 L
274.431 83.036 L
275.219 82.728 L
276.008 82.42 L
276.797 82.113 L
277.585 81.807 L
278.374 81.502 L
279.163 81.197 L
279.951 80.892 L
280.74 80.589 L
281.528 80.286 L
282.317 79.984 L
283.106 79.682 L
283.894 79.381 L
284.683 79.081 L
285.472 78.781 L
286.26 78.482 L
287.049 78.184 L
287.838 77.886 L
288.626 77.589 L
289.415 77.293 L
290.203 76.997 L
290.992 76.702 L
291.781 76.408 L
292.569 76.115 L
293.358 75.822 L
294.147 75.53 L
294.935 75.239 L
295.724 74.948 L
296.512 74.658 L
297.301 74.369 L
298.09 74.08 L
298.878 73.793 L
299.667 73.506 L
300.456 73.219 L
301.244 72.934 L
302.033 72.649 L
302.822 72.365 L
303.61 72.081 L
304.399 71.799 L
305.187 71.517 L
305.976 71.236 L
306.765 70.955 L
307.553 70.676 L
308.342 70.397 L
309.131 70.119 L
309.919 69.841 L
310.708 69.565 L
311.496 69.289 L
312.285 69.014 L
313.074 68.74 L
313.862 68.466 L
314.651 68.194 L
315.44 67.922 L
316.228 67.651 L
317.017 67.38 L
317.805 67.111 L
318.594 66.842 L
319.383 66.574 L
320.171 66.307 L
320.96 66.041 L
321.749 65.775 L
322.537 65.511 L
323.326 65.247 L
324.115 64.984 L
324.903 64.722 L
325.692 64.46 L
326.48 64.2 L
327.269 63.94 L
328.058 63.681 L
328.846 63.423 L
329.635 63.166 L
330.424 62.91 L
331.212 62.655 L
332.001 62.4 L
332.789 62.146 L
333.578 61.893 L
334.367 61.641 L
335.155 61.39 L
335.944 61.14 L
336.733 60.89 L
337.521 60.642 L
338.31 60.394 L
339.098 60.147 L
339.887 59.902 L
340.676 59.656 L
341.464 59.412 L
342.253 59.169 L
343.042 58.927 L
343.83 58.685 L
344.619 58.445 L
345.408 58.205 L
346.196 57.966 L
346.985 57.729 L
347.773 57.492 L
348.562 57.256 L
349.351 57.021 L
350.139 56.787 L
350.928 56.553 L
351.717 56.321 L
352.505 56.09 L
353.294 55.86 L
354.082 55.63 L
354.871 55.402 L
355.66 55.174 L
356.448 54.947 L
357.237 54.722 L
358.026 54.497 L
358.814 54.273 L
359.603 54.051 L
360.391 53.829 L
361.18 53.608 L
361.969 53.388 L
362.757 53.169 L
363.546 52.951 L
364.335 52.734 L
365.123 52.518 L
365.912 52.303 L
366.701 52.089 L
367.489 51.876 L
368.278 51.664 L
369.066 51.453 L
369.855 51.244 L
370.644 51.035 L
371.432 50.827 L
372.221 50.62 L
373.01 50.414 L
373.798 50.209 L
374.587 50.005 L
375.375 49.802 L
376.164 49.6 L
376.953 49.399 L
377.741 49.2 L
378.53 49.001 L
379.319 48.803 L
380.107 48.606 L
380.896 48.411 L
381.684 48.216 L
382.473 48.023 L
383.262 47.83 L
384.05 47.639 L
384.839 47.448 L
385.628 47.259 L
386.416 47.071 L
387.205 46.884 L
387.993 46.698 L
388.782 46.513 L
389.571 46.329 L
390.359 46.146 L
391.148 45.964 L
391.937 45.784 L
392.725 45.604 L
393.514 45.426 L
394.303 45.248 L
395.091 45.072 L
395.88 44.897 L
396.668 44.723 L
397.457 44.55 L
398.246 44.378 L
399.034 44.208 L
399.823 44.038 L
400.612 43.869 L
401.4 43.702 L
402.189 43.536 L
402.977 43.371 L
403.766 43.207 L
404.555 43.044 L
405.343 42.883 L
406.132 42.722 L
406.921 42.563 L
407.709 42.404 L
408.498 42.248 L
409.287 42.092 L
410.075 41.937 L
410.864 41.783 L
411.652 41.631 L
412.441 41.48 L
413.23 41.33 L
414.018 41.181 L
414.807 41.033 L
415.596 40.887 L
416.384 40.741 L
417.173 40.597 L
417.961 40.454 L
418.75 40.312 L
419.539 40.172 L
420.327 40.033 L
421.116 39.894 L
421.905 39.758 L
422.693 39.622 L
423.482 39.487 L
424.27 39.354 L
425.059 39.222 L
425.848 39.091 L
426.636 38.961 L
427.425 38.833 L
428.214 38.706 L
429.002 38.58 L
429.791 38.455 L
430.58 38.332 L
431.368 38.21 L
432.157 38.089 L
432.945 37.969 L
433.734 37.851 L
434.523 37.733 L
435.311 37.617 L
436.1 37.503 L
436.889 37.389 L
437.677 37.277 L
438.466 37.166 L
439.254 37.057 L
440.043 36.949 L
440.832 36.842 L
441.62 36.736 L
442.409 36.631 L
443.198 36.528 L
443.986 36.426 L
444.775 36.326 L
445.564 36.227 L
446.352 36.129 L
447.141 36.032 L
447.929 35.937 L
448.718 35.843 L
449.507 35.75 L
450.295 35.658 L
451.084 35.568 L
451.873 35.48 L
452.661 35.392 L
453.45 35.306 L
454.238 35.222 L
455.027 35.138 L
455.816 35.056 L
456.604 34.975 L
457.393 34.896 L
458.182 34.818 L
458.97 34.741 L
459.759 34.666 L
460.547 34.592 L
461.336 34.52 L
462.125 34.448 L
462.913 34.379 L
463.702 34.31 L
464.491 34.243 L
465.279 34.177 L
466.068 34.113 L
466.857 34.05 L
467.645 33.988 L
468.434 33.928 L
469.222 33.869 L
470.011 33.812 L
470.8 33.756 L
471.588 33.702 L
472.377 33.648 L
473.166 33.597 L
473.954 33.546 L
474.743 33.497 L
475.531 33.45 L
476.32 33.404 L
477.109 33.359 L
477.897 33.316 L
478.686 33.274 L
479.475 33.234 L
480.263 33.195 L
481.052 33.157 L
481.84 33.121 L
482.629 33.087 L
483.418 33.054 L
484.206 33.022 L
484.995 32.992 L
485.784 32.963 L
486.572 32.936 L
487.361 32.91 L
488.15 32.885 L
488.938 32.862 L
489.727 32.841 L
490.515 32.821 L
491.304 32.803 L
492.093 32.786 L
492.881 32.77 L
493.67 32.756 L
494.459 32.743 L
495.247 32.732 L
496.036 32.723 L
496.824 32.715 L
497.613 32.708 L
498.402 32.703 L
499.19 32.7 L
499.979 32.698 L
S
GR
GS
0.929 0.694 0.125 RC
1 LJ
0.5 LW
N
73 374 M
73.789 369.765 L
74.577 365.54 L
75.366 361.33 L
76.155 357.139 L
76.943 352.972 L
77.732 348.834 L
78.52 344.729 L
79.309 340.662 L
80.098 336.637 L
80.886 332.659 L
81.675 328.732 L
82.464 324.862 L
83.252 321.052 L
84.041 317.308 L
84.829 313.634 L
85.618 310.034 L
86.407 306.513 L
87.195 303.076 L
87.984 299.727 L
88.773 296.471 L
89.561 293.313 L
90.35 290.257 L
91.138 287.308 L
91.927 284.47 L
92.716 281.747 L
93.504 279.146 L
94.293 276.668 L
95.082 274.261 L
95.87 271.882 L
96.659 269.53 L
97.448 267.206 L
98.236 264.91 L
99.025 262.641 L
99.813 260.4 L
100.602 258.186 L
101.391 255.999 L
102.179 253.84 L
102.968 251.707 L
103.757 249.601 L
104.545 247.522 L
105.334 245.47 L
106.122 243.444 L
106.911 241.445 L
107.7 239.472 L
108.488 237.525 L
109.277 235.605 L
110.066 233.711 L
110.854 231.842 L
111.643 230 L
112.431 228.183 L
113.22 226.392 L
114.009 224.627 L
114.797 222.887 L
115.586 221.172 L
116.375 219.483 L
117.163 217.819 L
117.952 216.18 L
118.741 214.566 L
119.529 212.977 L
120.318 211.412 L
121.106 209.872 L
121.895 208.357 L
122.684 206.866 L
123.472 205.4 L
124.261 203.957 L
125.05 202.539 L
125.838 201.145 L
126.627 199.775 L
127.415 198.429 L
128.204 197.106 L
128.993 195.807 L
129.781 194.532 L
130.57 193.28 L
131.359 192.051 L
132.147 190.846 L
132.936 189.664 L
133.725 188.504 L
134.513 187.368 L
135.302 186.255 L
136.09 185.164 L
136.879 184.095 L
137.668 183.037 L
138.456 181.986 L
139.245 180.94 L
140.034 179.9 L
140.822 178.866 L
141.611 177.838 L
142.399 176.816 L
143.188 175.801 L
143.977 174.791 L
144.765 173.787 L
145.554 172.79 L
146.343 171.798 L
147.131 170.813 L
147.92 169.833 L
148.708 168.86 L
149.497 167.893 L
150.286 166.932 L
151.074 165.976 L
151.863 165.027 L
152.652 164.084 L
153.44 163.148 L
154.229 162.217 L
155.018 161.292 L
155.806 160.374 L
156.595 159.461 L
157.383 158.555 L
158.172 157.655 L
158.961 156.761 L
159.749 155.873 L
160.538 154.991 L
161.327 154.115 L
162.115 153.246 L
162.904 152.382 L
163.692 151.525 L
164.481 150.674 L
165.27 149.829 L
166.058 148.99 L
166.847 148.158 L
167.636 147.331 L
168.424 146.511 L
169.213 145.697 L
170.001 144.889 L
170.79 144.088 L
171.579 143.292 L
172.367 142.503 L
173.156 141.72 L
173.945 140.943 L
174.733 140.172 L
175.522 139.408 L
176.311 138.65 L
177.099 137.898 L
177.888 137.152 L
178.676 136.412 L
179.465 135.679 L
180.254 134.952 L
181.042 134.231 L
181.831 133.517 L
182.62 132.808 L
183.408 132.106 L
184.197 131.411 L
184.985 130.721 L
185.774 130.038 L
186.563 129.361 L
187.351 128.69 L
188.14 128.026 L
188.929 127.368 L
189.717 126.716 L
190.506 126.071 L
191.294 125.431 L
192.083 124.799 L
192.872 124.172 L
193.66 123.552 L
194.449 122.938 L
195.238 122.33 L
196.026 121.729 L
196.815 121.134 L
197.604 120.546 L
198.392 119.963 L
199.181 119.387 L
199.969 118.818 L
200.758 118.255 L
201.547 117.698 L
202.335 117.147 L
203.124 116.604 L
203.913 116.066 L
204.701 115.534 L
205.49 115.01 L
206.278 114.491 L
207.067 113.979 L
207.856 113.473 L
208.644 112.974 L
209.433 112.481 L
210.222 111.994 L
211.01 111.514 L
211.799 111.04 L
212.588 110.573 L
213.376 110.112 L
214.165 109.658 L
214.953 109.21 L
215.742 108.769 L
216.531 108.334 L
217.319 107.905 L
218.108 107.483 L
218.897 107.067 L
219.685 106.658 L
220.474 106.255 L
221.262 105.859 L
222.051 105.469 L
222.84 105.085 L
223.628 104.709 L
224.417 104.338 L
225.206 103.974 L
225.994 103.614 L
226.783 103.253 L
227.571 102.894 L
228.36 102.534 L
229.149 102.176 L
229.937 101.818 L
230.726 101.46 L
231.515 101.103 L
232.303 100.746 L
233.092 100.39 L
233.881 100.034 L
234.669 99.679 L
235.458 99.325 L
236.246 98.971 L
237.035 98.618 L
237.824 98.265 L
238.612 97.912 L
239.401 97.561 L
240.19 97.21 L
240.978 96.859 L
241.767 96.509 L
242.555 96.16 L
243.344 95.811 L
244.133 95.463 L
244.921 95.115 L
245.71 94.768 L
246.499 94.421 L
247.287 94.076 L
248.076 93.73 L
248.864 93.386 L
249.653 93.042 L
250.442 92.698 L
251.23 92.355 L
252.019 92.013 L
252.808 91.672 L
253.596 91.331 L
254.385 90.991 L
255.174 90.651 L
255.962 90.312 L
256.751 89.974 L
257.539 89.636 L
258.328 89.299 L
259.117 88.963 L
259.905 88.627 L
260.694 88.292 L
261.483 87.957 L
262.271 87.624 L
263.06 87.291 L
263.848 86.958 L
264.637 86.627 L
265.426 86.296 L
266.214 85.966 L
267.003 85.636 L
267.792 85.307 L
268.58 84.979 L
269.369 84.652 L
270.158 84.325 L
270.946 83.999 L
271.735 83.674 L
272.523 83.349 L
273.312 83.026 L
274.101 82.702 L
274.889 82.38 L
275.678 82.058 L
276.467 81.738 L
277.255 81.418 L
278.044 81.098 L
278.832 80.78 L
279.621 80.462 L
280.41 80.145 L
281.198 79.829 L
281.987 79.513 L
282.776 79.198 L
283.564 78.885 L
284.353 78.571 L
285.141 78.259 L
285.93 77.947 L
286.719 77.637 L
287.507 77.327 L
288.296 77.017 L
289.085 76.709 L
289.873 76.402 L
290.662 76.095 L
291.451 75.789 L
292.239 75.484 L
293.028 75.18 L
293.816 74.876 L
294.605 74.574 L
295.394 74.272 L
296.182 73.971 L
296.971 73.671 L
297.76 73.372 L
298.548 73.073 L
299.337 72.776 L
300.125 72.479 L
300.914 72.184 L
301.703 71.889 L
302.491 71.595 L
303.28 71.302 L
304.069 71.009 L
304.857 70.718 L
305.646 70.427 L
306.434 70.138 L
307.223 69.849 L
308.012 69.562 L
308.8 69.275 L
309.589 68.989 L
310.378 68.704 L
311.166 68.42 L
311.955 68.137 L
312.744 67.854 L
313.532 67.573 L
314.321 67.292 L
315.109 67.013 L
315.898 66.735 L
316.687 66.457 L
317.475 66.18 L
318.264 65.905 L
319.053 65.63 L
319.841 65.356 L
320.63 65.084 L
321.418 64.812 L
322.207 64.541 L
322.996 64.271 L
323.784 64.002 L
324.573 63.734 L
325.362 63.468 L
326.15 63.202 L
326.939 62.937 L
327.727 62.673 L
328.516 62.41 L
329.305 62.148 L
330.093 61.887 L
330.882 61.627 L
331.671 61.368 L
332.459 61.111 L
333.248 60.854 L
334.037 60.598 L
334.825 60.343 L
335.614 60.09 L
336.402 59.837 L
337.191 59.585 L
337.98 59.335 L
338.768 59.086 L
339.557 58.837 L
340.346 58.59 L
341.134 58.343 L
341.923 58.098 L
342.711 57.854 L
343.5 57.611 L
344.289 57.369 L
345.077 57.128 L
345.866 56.888 L
346.655 56.65 L
347.443 56.412 L
348.232 56.176 L
349.021 55.94 L
349.809 55.706 L
350.598 55.473 L
351.386 55.241 L
352.175 55.01 L
352.964 54.78 L
353.752 54.551 L
354.541 54.324 L
355.33 54.097 L
356.118 53.872 L
356.907 53.648 L
357.695 53.425 L
358.484 53.203 L
359.273 52.983 L
360.061 52.763 L
360.85 52.545 L
361.639 52.328 L
362.427 52.112 L
363.216 51.897 L
364.004 51.683 L
364.793 51.471 L
365.582 51.26 L
366.37 51.05 L
367.159 50.841 L
367.948 50.633 L
368.736 50.427 L
369.525 50.222 L
370.314 50.018 L
371.102 49.815 L
371.891 49.613 L
372.679 49.413 L
373.468 49.214 L
374.257 49.016 L
375.045 48.819 L
375.834 48.624 L
376.623 48.429 L
377.411 48.236 L
378.2 48.045 L
378.988 47.854 L
379.777 47.665 L
380.566 47.477 L
381.354 47.291 L
382.143 47.105 L
382.932 46.921 L
383.72 46.738 L
384.509 46.557 L
385.297 46.377 L
386.086 46.198 L
386.875 46.02 L
387.663 45.844 L
388.452 45.669 L
389.241 45.495 L
390.029 45.323 L
390.818 45.151 L
391.607 44.982 L
392.395 44.813 L
393.184 44.646 L
393.972 44.48 L
394.761 44.316 L
395.55 44.153 L
396.338 43.991 L
397.127 43.83 L
397.916 43.671 L
398.704 43.513 L
399.493 43.357 L
400.281 43.202 L
401.07 43.048 L
401.859 42.896 L
402.647 42.745 L
403.436 42.595 L
404.225 42.447 L
405.013 42.3 L
405.802 42.155 L
406.591 42.011 L
407.379 41.868 L
408.168 41.727 L
408.956 41.587 L
409.745 41.449 L
410.534 41.312 L
411.322 41.176 L
412.111 41.042 L
412.9 40.91 L
413.688 40.778 L
414.477 40.648 L
415.265 40.52 L
416.054 40.393 L
416.843 40.267 L
417.631 40.143 L
418.42 40.021 L
419.209 39.899 L
419.997 39.78 L
420.786 39.661 L
421.574 39.545 L
422.363 39.429 L
423.152 39.315 L
423.94 39.203 L
424.729 39.092 L
425.518 38.983 L
426.306 38.875 L
427.095 38.768 L
427.884 38.663 L
428.672 38.56 L
429.461 38.458 L
430.249 38.358 L
431.038 38.259 L
431.827 38.161 L
432.615 38.065 L
433.404 37.971 L
434.193 37.878 L
434.981 37.787 L
435.77 37.697 L
436.558 37.609 L
437.347 37.522 L
438.136 37.437 L
438.924 37.354 L
439.713 37.272 L
440.502 37.192 L
441.29 37.113 L
442.079 37.035 L
442.867 36.96 L
443.656 36.885 L
444.445 36.813 L
445.233 36.742 L
446.022 36.672 L
446.811 36.605 L
447.599 36.539 L
448.388 36.474 L
449.177 36.411 L
449.965 36.349 L
450.754 36.29 L
451.542 36.232 L
452.331 36.175 L
453.12 36.12 L
453.908 36.067 L
454.697 36.015 L
455.486 35.965 L
456.274 35.917 L
457.063 35.87 L
457.851 35.825 L
458.64 35.782 L
459.429 35.74 L
460.217 35.699 L
461.006 35.661 L
461.795 35.624 L
462.583 35.589 L
463.372 35.556 L
464.16 35.524 L
464.949 35.494 L
465.738 35.465 L
466.526 35.439 L
467.315 35.414 L
468.104 35.39 L
468.892 35.369 L
469.681 35.349 L
470.47 35.331 L
471.258 35.314 L
472.047 35.299 L
472.835 35.286 L
473.624 35.275 L
474.413 35.265 L
475.201 35.257 L
475.99 35.251 L
476.779 35.247 L
477.567 35.244 L
478.356 35.243 L
S
GR
GS
0.494 0.184 0.557 RC
1 LJ
0.5 LW
N
74.042 367.288 M
74.831 363.224 L
75.619 359.17 L
76.408 355.129 L
77.197 351.106 L
77.985 347.103 L
78.774 343.127 L
79.563 339.18 L
80.351 335.267 L
81.14 331.391 L
81.928 327.558 L
82.717 323.771 L
83.506 320.035 L
84.294 316.353 L
85.083 312.729 L
85.872 309.169 L
86.66 305.675 L
87.449 302.252 L
88.237 298.904 L
89.026 295.635 L
89.815 292.45 L
90.603 289.353 L
91.392 286.347 L
92.181 283.436 L
92.969 280.626 L
93.758 277.919 L
94.547 275.321 L
95.335 272.835 L
96.124 270.465 L
96.912 268.162 L
97.701 265.885 L
98.49 263.634 L
99.278 261.408 L
100.067 259.208 L
100.856 257.033 L
101.644 254.883 L
102.433 252.758 L
103.221 250.659 L
104.01 248.584 L
104.799 246.535 L
105.587 244.51 L
106.376 242.51 L
107.165 240.535 L
107.953 238.584 L
108.742 236.658 L
109.53 234.756 L
110.319 232.879 L
111.108 231.026 L
111.896 229.197 L
112.685 227.392 L
113.474 225.611 L
114.262 223.854 L
115.051 222.121 L
115.84 220.412 L
116.628 218.726 L
117.417 217.064 L
118.205 215.425 L
118.994 213.81 L
119.783 212.218 L
120.571 210.649 L
121.36 209.103 L
122.149 207.581 L
122.937 206.081 L
123.726 204.604 L
124.514 203.15 L
125.303 201.719 L
126.092 200.31 L
126.88 198.924 L
127.669 197.561 L
128.458 196.219 L
129.246 194.901 L
130.035 193.604 L
130.823 192.329 L
131.612 191.076 L
132.401 189.846 L
133.189 188.637 L
133.978 187.45 L
134.767 186.284 L
135.555 185.14 L
136.344 184.018 L
137.133 182.917 L
137.921 181.838 L
138.71 180.78 L
139.498 179.743 L
140.287 178.727 L
141.076 177.723 L
141.864 176.724 L
142.653 175.732 L
143.442 174.744 L
144.23 173.762 L
145.019 172.786 L
145.807 171.815 L
146.596 170.85 L
147.385 169.89 L
148.173 168.935 L
148.962 167.986 L
149.751 167.043 L
150.539 166.105 L
151.328 165.172 L
152.117 164.245 L
152.905 163.324 L
153.694 162.408 L
154.482 161.498 L
155.271 160.593 L
156.06 159.694 L
156.848 158.8 L
157.637 157.912 L
158.426 157.029 L
159.214 156.152 L
160.003 155.28 L
160.791 154.415 L
161.58 153.554 L
162.369 152.7 L
163.157 151.85 L
163.946 151.007 L
164.735 150.169 L
165.523 149.336 L
166.312 148.51 L
167.1 147.689 L
167.889 146.873 L
168.678 146.063 L
169.466 145.259 L
170.255 144.46 L
171.044 143.667 L
171.832 142.88 L
172.621 142.098 L
173.41 141.322 L
174.198 140.552 L
174.987 139.787 L
175.775 139.028 L
176.564 138.275 L
177.353 137.527 L
178.141 136.785 L
178.93 136.049 L
179.719 135.318 L
180.507 134.593 L
181.296 133.874 L
182.084 133.161 L
182.873 132.453 L
183.662 131.751 L
184.45 131.055 L
185.239 130.364 L
186.028 129.679 L
186.816 129 L
187.605 128.327 L
188.393 127.659 L
189.182 126.998 L
189.971 126.341 L
190.759 125.691 L
191.548 125.047 L
192.337 124.408 L
193.125 123.775 L
193.914 123.148 L
194.703 122.526 L
195.491 121.911 L
196.28 121.301 L
197.068 120.697 L
197.857 120.099 L
198.646 119.507 L
199.434 118.921 L
200.223 118.34 L
201.012 117.765 L
201.8 117.196 L
202.589 116.633 L
203.377 116.076 L
204.166 115.524 L
204.955 114.979 L
205.743 114.439 L
206.532 113.905 L
207.321 113.378 L
208.109 112.856 L
208.898 112.339 L
209.686 111.829 L
210.475 111.325 L
211.264 110.826 L
212.052 110.334 L
212.841 109.847 L
213.63 109.367 L
214.418 108.892 L
215.207 108.423 L
215.996 107.96 L
216.784 107.503 L
217.573 107.052 L
218.361 106.607 L
219.15 106.168 L
219.939 105.735 L
220.727 105.308 L
221.516 104.886 L
222.305 104.471 L
223.093 104.062 L
223.882 103.659 L
224.67 103.261 L
225.459 102.87 L
226.248 102.485 L
227.036 102.106 L
227.825 101.732 L
228.614 101.365 L
229.402 101.004 L
230.191 100.649 L
230.98 100.299 L
231.768 99.956 L
232.557 99.619 L
233.345 99.286 L
234.134 98.953 L
234.923 98.62 L
235.711 98.288 L
236.5 97.956 L
237.289 97.625 L
238.077 97.294 L
238.866 96.964 L
239.654 96.634 L
240.443 96.305 L
241.232 95.976 L
242.02 95.648 L
242.809 95.32 L
243.598 94.993 L
244.386 94.666 L
245.175 94.34 L
245.963 94.014 L
246.752 93.689 L
247.541 93.364 L
248.329 93.04 L
249.118 92.716 L
249.907 92.393 L
250.695 92.07 L
251.484 91.748 L
252.273 91.427 L
253.061 91.106 L
253.85 90.785 L
254.638 90.465 L
255.427 90.146 L
256.216 89.827 L
257.004 89.509 L
257.793 89.191 L
258.582 88.874 L
259.37 88.557 L
260.159 88.241 L
260.947 87.926 L
261.736 87.611 L
262.525 87.296 L
263.313 86.983 L
264.102 86.669 L
264.891 86.357 L
265.679 86.045 L
266.468 85.733 L
267.257 85.422 L
268.045 85.112 L
268.834 84.802 L
269.622 84.493 L
270.411 84.185 L
271.2 83.877 L
271.988 83.569 L
272.777 83.263 L
273.566 82.957 L
274.354 82.651 L
275.143 82.346 L
275.931 82.042 L
276.72 81.738 L
277.509 81.435 L
278.297 81.133 L
279.086 80.831 L
279.875 80.53 L
280.663 80.23 L
281.452 79.93 L
282.24 79.631 L
283.029 79.332 L
283.818 79.034 L
284.606 78.737 L
285.395 78.44 L
286.184 78.144 L
286.972 77.849 L
287.761 77.554 L
288.549 77.26 L
289.338 76.967 L
290.127 76.674 L
290.915 76.383 L
291.704 76.091 L
292.493 75.801 L
293.281 75.511 L
294.07 75.221 L
294.859 74.933 L
295.647 74.645 L
296.436 74.358 L
297.224 74.071 L
298.013 73.785 L
298.802 73.5 L
299.59 73.216 L
300.379 72.932 L
301.168 72.649 L
301.956 72.367 L
302.745 72.085 L
303.533 71.805 L
304.322 71.524 L
305.111 71.245 L
305.899 70.966 L
306.688 70.688 L
307.477 70.411 L
308.265 70.135 L
309.054 69.859 L
309.842 69.584 L
310.631 69.31 L
311.42 69.036 L
312.208 68.764 L
312.997 68.492 L
313.786 68.22 L
314.574 67.95 L
315.363 67.68 L
316.152 67.411 L
316.94 67.143 L
317.729 66.876 L
318.517 66.609 L
319.306 66.343 L
320.095 66.078 L
320.883 65.813 L
321.672 65.55 L
322.461 65.287 L
323.249 65.025 L
324.038 64.764 L
324.826 64.504 L
325.615 64.244 L
326.404 63.985 L
327.192 63.727 L
327.981 63.47 L
328.77 63.214 L
329.558 62.958 L
330.347 62.703 L
331.136 62.449 L
331.924 62.196 L
332.713 61.944 L
333.501 61.692 L
334.29 61.442 L
335.079 61.192 L
335.867 60.943 L
336.656 60.695 L
337.445 60.447 L
338.233 60.201 L
339.022 59.955 L
339.81 59.71 L
340.599 59.466 L
341.388 59.223 L
342.176 58.981 L
342.965 58.74 L
343.754 58.499 L
344.542 58.26 L
345.331 58.021 L
346.119 57.783 L
346.908 57.546 L
347.697 57.31 L
348.485 57.075 L
349.274 56.84 L
350.063 56.607 L
350.851 56.374 L
351.64 56.142 L
352.429 55.911 L
353.217 55.681 L
354.006 55.452 L
354.794 55.224 L
355.583 54.997 L
356.372 54.771 L
357.16 54.545 L
357.949 54.321 L
358.738 54.097 L
359.526 53.874 L
360.315 53.653 L
361.103 53.432 L
361.892 53.212 L
362.681 52.993 L
363.469 52.775 L
364.258 52.558 L
365.047 52.342 L
365.835 52.126 L
366.624 51.912 L
367.413 51.699 L
368.201 51.486 L
368.99 51.275 L
369.778 51.064 L
370.567 50.855 L
371.356 50.646 L
372.144 50.439 L
372.933 50.232 L
373.722 50.026 L
374.51 49.822 L
375.299 49.618 L
376.087 49.415 L
376.876 49.213 L
377.665 49.012 L
378.453 48.813 L
379.242 48.614 L
380.031 48.416 L
380.819 48.219 L
381.608 48.023 L
382.396 47.828 L
383.185 47.635 L
383.974 47.442 L
384.762 47.25 L
385.551 47.059 L
386.34 46.869 L
387.128 46.681 L
387.917 46.493 L
388.706 46.306 L
389.494 46.12 L
390.283 45.936 L
391.071 45.752 L
391.86 45.569 L
392.649 45.388 L
393.437 45.207 L
394.226 45.028 L
395.015 44.849 L
395.803 44.672 L
396.592 44.496 L
397.38 44.32 L
398.169 44.146 L
398.958 43.973 L
399.746 43.801 L
400.535 43.63 L
401.324 43.46 L
402.112 43.291 L
402.901 43.123 L
403.689 42.956 L
404.478 42.791 L
405.267 42.626 L
406.055 42.462 L
406.844 42.3 L
407.633 42.139 L
408.421 41.978 L
409.21 41.819 L
409.999 41.661 L
410.787 41.504 L
411.576 41.348 L
412.364 41.194 L
413.153 41.04 L
413.942 40.887 L
414.73 40.736 L
415.519 40.586 L
416.308 40.437 L
417.096 40.289 L
417.885 40.142 L
418.673 39.996 L
419.462 39.851 L
420.251 39.708 L
421.039 39.565 L
421.828 39.424 L
422.617 39.284 L
423.405 39.145 L
424.194 39.007 L
424.982 38.871 L
425.771 38.735 L
426.56 38.601 L
427.348 38.468 L
428.137 38.336 L
428.926 38.205 L
429.714 38.075 L
430.503 37.947 L
431.292 37.819 L
432.08 37.693 L
432.869 37.568 L
433.657 37.445 L
434.446 37.322 L
435.235 37.201 L
436.023 37.08 L
436.812 36.961 L
437.601 36.844 L
438.389 36.727 L
439.178 36.612 L
439.966 36.497 L
440.755 36.384 L
441.544 36.273 L
442.332 36.162 L
443.121 36.053 L
443.91 35.945 L
444.698 35.838 L
445.487 35.732 L
446.276 35.627 L
447.064 35.524 L
447.853 35.422 L
448.641 35.322 L
449.43 35.222 L
450.219 35.124 L
451.007 35.027 L
451.796 34.931 L
452.585 34.837 L
453.373 34.743 L
454.162 34.651 L
454.95 34.561 L
455.739 34.471 L
456.528 34.383 L
457.316 34.296 L
458.105 34.21 L
458.894 34.126 L
459.682 34.043 L
460.471 33.961 L
461.259 33.88 L
462.048 33.801 L
462.837 33.723 L
463.625 33.646 L
464.414 33.571 L
465.203 33.497 L
465.991 33.424 L
466.78 33.353 L
467.569 33.282 L
468.357 33.214 L
469.146 33.146 L
469.934 33.08 L
470.723 33.015 L
471.512 32.951 L
472.3 32.889 L
473.089 32.828 L
473.878 32.768 L
474.666 32.71 L
475.455 32.653 L
476.243 32.597 L
477.032 32.543 L
477.821 32.49 L
478.609 32.438 L
479.398 32.388 L
480.187 32.339 L
480.975 32.292 L
481.764 32.245 L
482.552 32.201 L
483.341 32.157 L
484.13 32.115 L
484.918 32.074 L
485.707 32.035 L
486.496 31.997 L
487.284 31.96 L
488.073 31.925 L
488.862 31.891 L
489.65 31.859 L
490.439 31.828 L
491.227 31.798 L
492.016 31.77 L
492.805 31.743 L
493.593 31.717 L
494.382 31.693 L
495.171 31.67 L
495.959 31.649 L
496.748 31.629 L
497.536 31.611 L
498.325 31.594 L
499.114 31.578 L
499.902 31.564 L
500.691 31.551 L
501.48 31.54 L
502.268 31.53 L
503.057 31.521 L
503.845 31.514 L
504.634 31.508 L
505.423 31.504 L
506.211 31.501 L
507 31.5 L
S
GR
GS
0.467 0.675 0.188 RC
[10 6] 0 setdash
2 LJ
0.5 LW
N
73.472 371.863 M
74.261 367.682 L
75.05 363.512 L
75.838 359.356 L
76.627 355.218 L
77.415 351.104 L
78.204 347.018 L
78.993 342.964 L
79.781 338.946 L
80.57 334.969 L
81.359 331.038 L
82.147 327.157 L
82.936 323.329 L
83.724 319.561 L
84.513 315.855 L
85.302 312.217 L
86.09 308.651 L
86.879 305.161 L
87.668 301.752 L
88.456 298.428 L
89.245 295.194 L
90.034 292.054 L
90.822 289.013 L
91.611 286.074 L
92.399 283.242 L
93.188 280.523 L
93.977 277.919 L
94.765 275.437 L
95.554 273.052 L
96.343 270.697 L
97.131 268.37 L
97.92 266.07 L
98.708 263.797 L
99.497 261.55 L
100.286 259.331 L
101.074 257.138 L
101.863 254.972 L
102.652 252.832 L
103.44 250.718 L
104.229 248.631 L
105.017 246.57 L
105.806 244.536 L
106.595 242.527 L
107.383 240.544 L
108.172 238.587 L
108.961 236.656 L
109.749 234.75 L
110.538 232.87 L
111.327 231.016 L
112.115 229.186 L
112.904 227.382 L
113.692 225.604 L
114.481 223.85 L
115.27 222.121 L
116.058 220.417 L
116.847 218.738 L
117.636 217.084 L
118.424 215.454 L
119.213 213.849 L
120.001 212.268 L
120.79 210.711 L
121.579 209.179 L
122.367 207.671 L
123.156 206.186 L
123.945 204.726 L
124.733 203.29 L
125.522 201.877 L
126.31 200.488 L
127.099 199.123 L
127.888 197.781 L
128.676 196.462 L
129.465 195.166 L
130.254 193.894 L
131.042 192.645 L
131.831 191.419 L
132.62 190.216 L
133.408 189.035 L
134.197 187.878 L
134.985 186.743 L
135.774 185.63 L
136.563 184.54 L
137.351 183.472 L
138.14 182.425 L
138.929 181.387 L
139.717 180.355 L
140.506 179.329 L
141.294 178.308 L
142.083 177.294 L
142.872 176.285 L
143.66 175.283 L
144.449 174.286 L
145.238 173.295 L
146.026 172.31 L
146.815 171.331 L
147.603 170.358 L
148.392 169.391 L
149.181 168.429 L
149.969 167.474 L
150.758 166.525 L
151.547 165.581 L
152.335 164.644 L
153.124 163.712 L
153.913 162.786 L
154.701 161.867 L
155.49 160.953 L
156.278 160.045 L
157.067 159.143 L
157.856 158.247 L
158.644 157.357 L
159.433 156.473 L
160.222 155.595 L
161.01 154.723 L
161.799 153.857 L
162.587 152.997 L
163.376 152.143 L
164.165 151.295 L
164.953 150.453 L
165.742 149.617 L
166.531 148.787 L
167.319 147.962 L
168.108 147.144 L
168.896 146.332 L
169.685 145.526 L
170.474 144.726 L
171.262 143.932 L
172.051 143.144 L
172.84 142.362 L
173.628 141.586 L
174.417 140.816 L
175.206 140.052 L
175.994 139.294 L
176.783 138.542 L
177.571 137.796 L
178.36 137.057 L
179.149 136.323 L
179.937 135.595 L
180.726 134.874 L
181.515 134.158 L
182.303 133.449 L
183.092 132.745 L
183.88 132.048 L
184.669 131.356 L
185.458 130.671 L
186.246 129.992 L
187.035 129.319 L
187.824 128.652 L
188.612 127.991 L
189.401 127.337 L
190.19 126.688 L
190.978 126.045 L
191.767 125.409 L
192.555 124.779 L
193.344 124.154 L
194.133 123.536 L
194.921 122.924 L
195.71 122.318 L
196.499 121.718 L
197.287 121.125 L
198.076 120.537 L
198.864 119.956 L
199.653 119.381 L
200.442 118.811 L
201.23 118.248 L
202.019 117.692 L
202.808 117.141 L
203.596 116.596 L
204.385 116.058 L
205.173 115.526 L
205.962 115 L
206.751 114.48 L
207.539 113.966 L
208.328 113.459 L
209.117 112.957 L
209.905 112.462 L
210.694 111.973 L
211.483 111.49 L
212.271 111.014 L
213.06 110.543 L
213.848 110.079 L
214.637 109.621 L
215.426 109.169 L
216.214 108.723 L
217.003 108.284 L
217.792 107.851 L
218.58 107.424 L
219.369 107.003 L
220.157 106.589 L
220.946 106.18 L
221.735 105.778 L
222.523 105.382 L
223.312 104.993 L
224.101 104.609 L
224.889 104.232 L
225.678 103.861 L
226.466 103.497 L
227.255 103.138 L
228.044 102.784 L
228.832 102.431 L
229.621 102.078 L
230.41 101.726 L
231.198 101.374 L
231.987 101.023 L
232.776 100.672 L
233.564 100.322 L
234.353 99.972 L
235.141 99.623 L
235.93 99.274 L
236.719 98.926 L
237.507 98.578 L
238.296 98.231 L
239.085 97.884 L
239.873 97.538 L
240.662 97.192 L
241.45 96.847 L
242.239 96.503 L
243.028 96.159 L
243.816 95.815 L
244.605 95.473 L
245.394 95.13 L
246.182 94.789 L
246.971 94.447 L
247.76 94.107 L
248.548 93.767 L
249.337 93.428 L
250.125 93.089 L
250.914 92.75 L
251.703 92.413 L
252.491 92.076 L
253.28 91.739 L
254.069 91.403 L
254.857 91.068 L
255.646 90.734 L
256.434 90.399 L
257.223 90.066 L
258.012 89.733 L
258.8 89.401 L
259.589 89.07 L
260.378 88.739 L
261.166 88.408 L
261.955 88.079 L
262.743 87.75 L
263.532 87.421 L
264.321 87.094 L
265.109 86.767 L
265.898 86.44 L
266.687 86.115 L
267.475 85.789 L
268.264 85.465 L
269.053 85.141 L
269.841 84.818 L
270.63 84.496 L
271.418 84.174 L
272.207 83.853 L
272.996 83.533 L
273.784 83.214 L
274.573 82.895 L
275.362 82.576 L
276.15 82.259 L
276.939 81.942 L
277.727 81.626 L
278.516 81.311 L
279.305 80.996 L
280.093 80.682 L
280.882 80.369 L
281.671 80.057 L
282.459 79.745 L
283.248 79.434 L
284.036 79.124 L
284.825 78.814 L
285.614 78.505 L
286.402 78.198 L
287.191 77.89 L
287.98 77.584 L
288.768 77.278 L
289.557 76.973 L
290.346 76.669 L
291.134 76.366 L
291.923 76.063 L
292.711 75.761 L
293.5 75.46 L
294.289 75.16 L
295.077 74.861 L
295.866 74.562 L
296.655 74.264 L
297.443 73.967 L
298.232 73.671 L
299.02 73.376 L
299.809 73.081 L
300.598 72.787 L
301.386 72.495 L
302.175 72.202 L
302.964 71.911 L
303.752 71.621 L
304.541 71.331 L
305.329 71.042 L
306.118 70.755 L
306.907 70.468 L
307.695 70.181 L
308.484 69.896 L
309.273 69.611 L
310.061 69.328 L
310.85 69.045 L
311.639 68.763 L
312.427 68.482 L
313.216 68.202 L
314.004 67.923 L
314.793 67.645 L
315.582 67.367 L
316.37 67.091 L
317.159 66.815 L
317.948 66.54 L
318.736 66.267 L
319.525 65.994 L
320.313 65.722 L
321.102 65.451 L
321.891 65.181 L
322.679 64.911 L
323.468 64.643 L
324.257 64.376 L
325.045 64.109 L
325.834 63.844 L
326.622 63.579 L
327.411 63.316 L
328.2 63.053 L
328.988 62.791 L
329.777 62.53 L
330.566 62.271 L
331.354 62.012 L
332.143 61.754 L
332.932 61.497 L
333.72 61.241 L
334.509 60.987 L
335.297 60.733 L
336.086 60.48 L
336.875 60.228 L
337.663 59.977 L
338.452 59.727 L
339.241 59.478 L
340.029 59.23 L
340.818 58.983 L
341.606 58.737 L
342.395 58.493 L
343.184 58.249 L
343.972 58.006 L
344.761 57.764 L
345.55 57.523 L
346.338 57.284 L
347.127 57.045 L
347.915 56.807 L
348.704 56.571 L
349.493 56.335 L
350.281 56.101 L
351.07 55.867 L
351.859 55.635 L
352.647 55.404 L
353.436 55.173 L
354.225 54.944 L
355.013 54.716 L
355.802 54.489 L
356.59 54.263 L
357.379 54.039 L
358.168 53.815 L
358.956 53.592 L
359.745 53.371 L
360.534 53.15 L
361.322 52.931 L
362.111 52.713 L
362.899 52.496 L
363.688 52.28 L
364.477 52.065 L
365.265 51.851 L
366.054 51.639 L
366.843 51.427 L
367.631 51.217 L
368.42 51.008 L
369.209 50.8 L
369.997 50.593 L
370.786 50.387 L
371.574 50.183 L
372.363 49.979 L
373.152 49.777 L
373.94 49.576 L
374.729 49.376 L
375.518 49.178 L
376.306 48.98 L
377.095 48.784 L
377.883 48.589 L
378.672 48.395 L
379.461 48.202 L
380.249 48.01 L
381.038 47.82 L
381.827 47.631 L
382.615 47.443 L
383.404 47.256 L
384.193 47.071 L
384.981 46.886 L
385.77 46.703 L
386.558 46.521 L
387.347 46.341 L
388.136 46.161 L
388.924 45.983 L
389.713 45.806 L
390.502 45.63 L
391.29 45.456 L
392.079 45.283 L
392.867 45.111 L
393.656 44.94 L
394.445 44.771 L
395.233 44.603 L
396.022 44.436 L
396.811 44.27 L
397.599 44.106 L
398.388 43.943 L
399.176 43.781 L
399.965 43.621 L
400.754 43.462 L
401.542 43.304 L
402.331 43.147 L
403.12 42.992 L
403.908 42.838 L
404.697 42.686 L
405.486 42.535 L
406.274 42.385 L
407.063 42.236 L
407.851 42.089 L
408.64 41.943 L
409.429 41.798 L
410.217 41.655 L
411.006 41.513 L
411.795 41.372 L
412.583 41.233 L
413.372 41.095 L
414.16 40.958 L
414.949 40.823 L
415.738 40.689 L
416.526 40.557 L
417.315 40.426 L
418.104 40.296 L
418.892 40.168 L
419.681 40.041 L
420.469 39.915 L
421.258 39.791 L
422.047 39.668 L
422.835 39.547 L
423.624 39.427 L
424.413 39.309 L
425.201 39.191 L
425.99 39.076 L
426.779 38.961 L
427.567 38.848 L
428.356 38.737 L
429.144 38.627 L
429.933 38.518 L
430.722 38.411 L
431.51 38.305 L
432.299 38.201 L
433.088 38.098 L
433.876 37.997 L
434.665 37.897 L
435.453 37.798 L
436.242 37.701 L
437.031 37.606 L
437.819 37.512 L
438.608 37.419 L
439.397 37.328 L
440.185 37.238 L
440.974 37.15 L
441.762 37.063 L
442.551 36.978 L
443.34 36.895 L
444.128 36.812 L
444.917 36.732 L
445.706 36.653 L
446.494 36.575 L
447.283 36.499 L
448.072 36.424 L
448.86 36.351 L
449.649 36.279 L
450.437 36.209 L
451.226 36.141 L
452.015 36.074 L
452.803 36.008 L
453.592 35.944 L
454.381 35.882 L
455.169 35.821 L
455.958 35.762 L
456.746 35.704 L
457.535 35.648 L
458.324 35.594 L
459.112 35.541 L
459.901 35.489 L
460.69 35.439 L
461.478 35.391 L
462.267 35.344 L
463.055 35.299 L
463.844 35.256 L
464.633 35.214 L
465.421 35.174 L
466.21 35.135 L
466.999 35.098 L
467.787 35.062 L
468.576 35.028 L
469.365 34.996 L
470.153 34.965 L
470.942 34.937 L
471.73 34.909 L
472.519 34.883 L
473.308 34.859 L
474.096 34.837 L
474.885 34.816 L
475.674 34.797 L
476.462 34.779 L
477.251 34.763 L
478.039 34.749 L
478.828 34.737 L
479.617 34.726 L
480.405 34.717 L
481.194 34.709 L
481.983 34.703 L
482.771 34.699 L
483.56 34.697 L
S
GR
GS
0.302 0.745 0.933 RC
[10 6] 0 setdash
2 LJ
0.5 LW
N
73.378 372.303 M
74.167 368.111 L
74.955 363.93 L
75.744 359.763 L
76.533 355.615 L
77.321 351.491 L
78.11 347.394 L
78.899 343.33 L
79.687 339.303 L
80.476 335.318 L
81.264 331.377 L
82.053 327.488 L
82.842 323.653 L
83.63 319.877 L
84.419 316.165 L
85.208 312.521 L
85.996 308.949 L
86.785 305.455 L
87.574 302.042 L
88.362 298.714 L
89.151 295.477 L
89.939 292.335 L
90.728 289.293 L
91.517 286.354 L
92.305 283.523 L
93.094 280.805 L
93.883 278.204 L
94.671 275.724 L
95.46 273.336 L
96.248 270.976 L
97.037 268.644 L
97.826 266.34 L
98.614 264.062 L
99.403 261.811 L
100.192 259.588 L
100.98 257.391 L
101.769 255.222 L
102.557 253.079 L
103.346 250.962 L
104.135 248.872 L
104.923 246.809 L
105.712 244.772 L
106.501 242.761 L
107.289 240.776 L
108.078 238.817 L
108.867 236.884 L
109.655 234.977 L
110.444 233.095 L
111.232 231.239 L
112.021 229.409 L
112.81 227.604 L
113.598 225.824 L
114.387 224.069 L
115.176 222.34 L
115.964 220.635 L
116.753 218.955 L
117.541 217.301 L
118.33 215.67 L
119.119 214.065 L
119.907 212.484 L
120.696 210.927 L
121.485 209.395 L
122.273 207.886 L
123.062 206.402 L
123.85 204.942 L
124.639 203.506 L
125.428 202.093 L
126.216 200.704 L
127.005 199.339 L
127.794 197.997 L
128.582 196.678 L
129.371 195.383 L
130.16 194.111 L
130.948 192.862 L
131.737 191.636 L
132.525 190.433 L
133.314 189.253 L
134.103 188.095 L
134.891 186.96 L
135.68 185.848 L
136.469 184.757 L
137.257 183.689 L
138.046 182.639 L
138.834 181.595 L
139.623 180.558 L
140.412 179.526 L
141.2 178.5 L
141.989 177.48 L
142.778 176.466 L
143.566 175.458 L
144.355 174.456 L
145.143 173.459 L
145.932 172.469 L
146.721 171.485 L
147.509 170.506 L
148.298 169.534 L
149.087 168.567 L
149.875 167.607 L
150.664 166.652 L
151.453 165.703 L
152.241 164.761 L
153.03 163.824 L
153.818 162.893 L
154.607 161.969 L
155.396 161.05 L
156.184 160.137 L
156.973 159.23 L
157.762 158.33 L
158.55 157.435 L
159.339 156.546 L
160.127 155.664 L
160.916 154.787 L
161.705 153.916 L
162.493 153.052 L
163.282 152.193 L
164.071 151.341 L
164.859 150.494 L
165.648 149.654 L
166.436 148.82 L
167.225 147.991 L
168.014 147.169 L
168.802 146.353 L
169.591 145.543 L
170.38 144.739 L
171.168 143.941 L
171.957 143.149 L
172.746 142.364 L
173.534 141.584 L
174.323 140.81 L
175.111 140.043 L
175.9 139.282 L
176.689 138.527 L
177.477 137.777 L
178.266 137.034 L
179.055 136.298 L
179.843 135.567 L
180.632 134.843 L
181.42 134.124 L
182.209 133.412 L
182.998 132.706 L
183.786 132.006 L
184.575 131.312 L
185.364 130.625 L
186.152 129.943 L
186.941 129.268 L
187.73 128.599 L
188.518 127.936 L
189.307 127.279 L
190.095 126.629 L
190.884 125.984 L
191.673 125.346 L
192.461 124.714 L
193.25 124.089 L
194.039 123.469 L
194.827 122.856 L
195.616 122.249 L
196.404 121.648 L
197.193 121.054 L
197.982 120.465 L
198.77 119.883 L
199.559 119.308 L
200.348 118.738 L
201.136 118.175 L
201.925 117.618 L
202.713 117.067 L
203.502 116.522 L
204.291 115.984 L
205.079 115.452 L
205.868 114.926 L
206.657 114.407 L
207.445 113.894 L
208.234 113.387 L
209.023 112.887 L
209.811 112.393 L
210.6 111.905 L
211.388 111.423 L
212.177 110.948 L
212.966 110.479 L
213.754 110.017 L
214.543 109.56 L
215.332 109.11 L
216.12 108.667 L
216.909 108.23 L
217.697 107.799 L
218.486 107.374 L
219.275 106.956 L
220.063 106.544 L
220.852 106.139 L
221.641 105.74 L
222.429 105.348 L
223.218 104.961 L
224.006 104.581 L
224.795 104.208 L
225.584 103.841 L
226.372 103.48 L
227.161 103.124 L
227.95 102.768 L
228.738 102.412 L
229.527 102.057 L
230.316 101.702 L
231.104 101.348 L
231.893 100.994 L
232.681 100.641 L
233.47 100.289 L
234.259 99.936 L
235.047 99.585 L
235.836 99.234 L
236.625 98.883 L
237.413 98.534 L
238.202 98.184 L
238.99 97.835 L
239.779 97.487 L
240.568 97.139 L
241.356 96.792 L
242.145 96.445 L
242.934 96.099 L
243.722 95.754 L
244.511 95.409 L
245.299 95.064 L
246.088 94.721 L
246.877 94.377 L
247.665 94.035 L
248.454 93.693 L
249.243 93.351 L
250.031 93.01 L
250.82 92.67 L
251.609 92.331 L
252.397 91.992 L
253.186 91.653 L
253.974 91.315 L
254.763 90.978 L
255.552 90.642 L
256.34 90.306 L
257.129 89.971 L
257.918 89.636 L
258.706 89.302 L
259.495 88.969 L
260.283 88.636 L
261.072 88.304 L
261.861 87.973 L
262.649 87.642 L
263.438 87.312 L
264.227 86.983 L
265.015 86.654 L
265.804 86.326 L
266.592 85.998 L
267.381 85.672 L
268.17 85.346 L
268.958 85.02 L
269.747 84.696 L
270.536 84.372 L
271.324 84.049 L
272.113 83.726 L
272.902 83.404 L
273.69 83.083 L
274.479 82.763 L
275.267 82.443 L
276.056 82.125 L
276.845 81.806 L
277.633 81.489 L
278.422 81.172 L
279.211 80.856 L
279.999 80.541 L
280.788 80.227 L
281.576 79.913 L
282.365 79.6 L
283.154 79.288 L
283.942 78.976 L
284.731 78.666 L
285.52 78.356 L
286.308 78.047 L
287.097 77.738 L
287.886 77.431 L
288.674 77.124 L
289.463 76.818 L
290.251 76.513 L
291.04 76.208 L
291.829 75.905 L
292.617 75.602 L
293.406 75.3 L
294.195 74.999 L
294.983 74.698 L
295.772 74.399 L
296.56 74.1 L
297.349 73.802 L
298.138 73.505 L
298.926 73.209 L
299.715 72.914 L
300.504 72.619 L
301.292 72.325 L
302.081 72.032 L
302.869 71.74 L
303.658 71.449 L
304.447 71.159 L
305.235 70.87 L
306.024 70.581 L
306.813 70.294 L
307.601 70.007 L
308.39 69.721 L
309.179 69.436 L
309.967 69.152 L
310.756 68.869 L
311.544 68.586 L
312.333 68.305 L
313.122 68.024 L
313.91 67.745 L
314.699 67.466 L
315.488 67.188 L
316.276 66.911 L
317.065 66.635 L
317.853 66.36 L
318.642 66.086 L
319.431 65.813 L
320.219 65.541 L
321.008 65.27 L
321.797 64.999 L
322.585 64.73 L
323.374 64.462 L
324.163 64.194 L
324.951 63.928 L
325.74 63.662 L
326.528 63.398 L
327.317 63.134 L
328.106 62.871 L
328.894 62.61 L
329.683 62.349 L
330.472 62.089 L
331.26 61.831 L
332.049 61.573 L
332.837 61.316 L
333.626 61.061 L
334.415 60.806 L
335.203 60.553 L
335.992 60.3 L
336.781 60.048 L
337.569 59.798 L
338.358 59.548 L
339.146 59.3 L
339.935 59.052 L
340.724 58.806 L
341.512 58.56 L
342.301 58.316 L
343.09 58.073 L
343.878 57.83 L
344.667 57.589 L
345.456 57.349 L
346.244 57.11 L
347.033 56.872 L
347.821 56.635 L
348.61 56.399 L
349.399 56.164 L
350.187 55.93 L
350.976 55.698 L
351.765 55.466 L
352.553 55.236 L
353.342 55.006 L
354.13 54.778 L
354.919 54.551 L
355.708 54.325 L
356.496 54.1 L
357.285 53.876 L
358.074 53.654 L
358.862 53.432 L
359.651 53.212 L
360.439 52.993 L
361.228 52.775 L
362.017 52.557 L
362.805 52.342 L
363.594 52.127 L
364.383 51.913 L
365.171 51.701 L
365.96 51.49 L
366.749 51.28 L
367.537 51.071 L
368.326 50.863 L
369.114 50.656 L
369.903 50.451 L
370.692 50.247 L
371.48 50.044 L
372.269 49.842 L
373.058 49.641 L
373.846 49.442 L
374.635 49.244 L
375.423 49.047 L
376.212 48.851 L
377.001 48.656 L
377.789 48.463 L
378.578 48.271 L
379.367 48.08 L
380.155 47.89 L
380.944 47.702 L
381.732 47.515 L
382.521 47.329 L
383.31 47.144 L
384.098 46.96 L
384.887 46.778 L
385.676 46.597 L
386.464 46.417 L
387.253 46.239 L
388.042 46.062 L
388.83 45.886 L
389.619 45.711 L
390.407 45.538 L
391.196 45.366 L
391.985 45.195 L
392.773 45.025 L
393.562 44.857 L
394.351 44.69 L
395.139 44.524 L
395.928 44.36 L
396.716 44.197 L
397.505 44.035 L
398.294 43.875 L
399.082 43.716 L
399.871 43.558 L
400.66 43.402 L
401.448 43.247 L
402.237 43.093 L
403.026 42.941 L
403.814 42.789 L
404.603 42.64 L
405.391 42.491 L
406.18 42.344 L
406.969 42.199 L
407.757 42.054 L
408.546 41.911 L
409.335 41.77 L
410.123 41.63 L
410.912 41.491 L
411.7 41.353 L
412.489 41.217 L
413.278 41.083 L
414.066 40.949 L
414.855 40.818 L
415.644 40.687 L
416.432 40.558 L
417.221 40.43 L
418.009 40.304 L
418.798 40.179 L
419.587 40.056 L
420.375 39.934 L
421.164 39.813 L
421.953 39.694 L
422.741 39.577 L
423.53 39.46 L
424.319 39.345 L
425.107 39.232 L
425.896 39.12 L
426.684 39.01 L
427.473 38.901 L
428.262 38.793 L
429.05 38.687 L
429.839 38.583 L
430.628 38.479 L
431.416 38.378 L
432.205 38.277 L
432.993 38.179 L
433.782 38.082 L
434.571 37.986 L
435.359 37.892 L
436.148 37.799 L
436.937 37.708 L
437.725 37.618 L
438.514 37.53 L
439.302 37.443 L
440.091 37.358 L
440.88 37.274 L
441.668 37.192 L
442.457 37.111 L
443.246 37.033 L
444.034 36.955 L
444.823 36.879 L
445.612 36.805 L
446.4 36.732 L
447.189 36.66 L
447.977 36.591 L
448.766 36.522 L
449.555 36.456 L
450.343 36.391 L
451.132 36.327 L
451.921 36.265 L
452.709 36.205 L
453.498 36.146 L
454.286 36.089 L
455.075 36.033 L
455.864 35.979 L
456.652 35.927 L
457.441 35.876 L
458.23 35.827 L
459.018 35.779 L
459.807 35.733 L
460.595 35.689 L
461.384 35.646 L
462.173 35.605 L
462.961 35.566 L
463.75 35.528 L
464.539 35.492 L
465.327 35.457 L
466.116 35.424 L
466.905 35.393 L
467.693 35.363 L
468.482 35.335 L
469.27 35.309 L
470.059 35.284 L
470.848 35.261 L
471.636 35.24 L
472.425 35.22 L
473.214 35.203 L
474.002 35.186 L
474.791 35.172 L
475.579 35.159 L
476.368 35.148 L
477.157 35.138 L
477.945 35.13 L
478.734 35.124 L
479.523 35.12 L
480.311 35.117 L
481.1 35.116 L
S
GR
GS
0.635 0.078 0.184 RC
[10 6] 0 setdash
2 LJ
0.5 LW
N
73.474 371.577 M
74.262 367.397 L
75.051 363.227 L
75.84 359.071 L
76.628 354.933 L
77.417 350.819 L
78.206 346.733 L
78.994 342.678 L
79.783 338.661 L
80.571 334.684 L
81.36 330.753 L
82.149 326.872 L
82.937 323.047 L
83.726 319.28 L
84.515 315.577 L
85.303 311.942 L
86.092 308.38 L
86.88 304.895 L
87.669 301.492 L
88.458 298.175 L
89.246 294.949 L
90.035 291.819 L
90.824 288.788 L
91.612 285.861 L
92.401 283.043 L
93.189 280.339 L
93.978 277.752 L
94.767 275.288 L
95.555 272.91 L
96.344 270.559 L
97.133 268.236 L
97.921 265.94 L
98.71 263.671 L
99.499 261.429 L
100.287 259.213 L
101.076 257.025 L
101.864 254.863 L
102.653 252.728 L
103.442 250.619 L
104.23 248.536 L
105.019 246.48 L
105.808 244.45 L
106.596 242.445 L
107.385 240.467 L
108.173 238.515 L
108.962 236.588 L
109.751 234.687 L
110.539 232.811 L
111.328 230.961 L
112.117 229.136 L
112.905 227.336 L
113.694 225.562 L
114.482 223.812 L
115.271 222.088 L
116.06 220.388 L
116.848 218.713 L
117.637 217.062 L
118.426 215.436 L
119.214 213.834 L
120.003 212.257 L
120.792 210.703 L
121.58 209.174 L
122.369 207.669 L
123.157 206.188 L
123.946 204.73 L
124.735 203.296 L
125.523 201.886 L
126.312 200.499 L
127.101 199.135 L
127.889 197.795 L
128.678 196.478 L
129.466 195.184 L
130.255 193.913 L
131.044 192.665 L
131.832 191.439 L
132.621 190.236 L
133.41 189.056 L
134.198 187.898 L
134.987 186.763 L
135.775 185.65 L
136.564 184.558 L
137.353 183.489 L
138.141 182.441 L
138.93 181.402 L
139.719 180.368 L
140.507 179.34 L
141.296 178.318 L
142.085 177.302 L
142.873 176.292 L
143.662 175.288 L
144.45 174.289 L
145.239 173.297 L
146.028 172.31 L
146.816 171.329 L
147.605 170.354 L
148.394 169.385 L
149.182 168.422 L
149.971 167.465 L
150.759 166.514 L
151.548 165.568 L
152.337 164.629 L
153.125 163.695 L
153.914 162.767 L
154.703 161.846 L
155.491 160.93 L
156.28 160.02 L
157.069 159.116 L
157.857 158.218 L
158.646 157.326 L
159.434 156.44 L
160.223 155.56 L
161.012 154.686 L
161.8 153.817 L
162.589 152.955 L
163.378 152.099 L
164.166 151.249 L
164.955 150.404 L
165.743 149.566 L
166.532 148.734 L
167.321 147.907 L
168.109 147.087 L
168.898 146.273 L
169.687 145.464 L
170.475 144.662 L
171.264 143.866 L
172.052 143.075 L
172.841 142.291 L
173.63 141.513 L
174.418 140.741 L
175.207 139.975 L
175.996 139.215 L
176.784 138.461 L
177.573 137.713 L
178.362 136.971 L
179.15 136.235 L
179.939 135.505 L
180.727 134.782 L
181.516 134.064 L
182.305 133.352 L
183.093 132.647 L
183.882 131.948 L
184.671 131.254 L
185.459 130.567 L
186.248 129.886 L
187.036 129.211 L
187.825 128.543 L
188.614 127.88 L
189.402 127.223 L
190.191 126.573 L
190.98 125.928 L
191.768 125.29 L
192.557 124.658 L
193.345 124.032 L
194.134 123.413 L
194.923 122.799 L
195.711 122.191 L
196.5 121.59 L
197.289 120.995 L
198.077 120.406 L
198.866 119.823 L
199.655 119.247 L
200.443 118.676 L
201.232 118.112 L
202.02 117.554 L
202.809 117.003 L
203.598 116.457 L
204.386 115.917 L
205.175 115.384 L
205.964 114.857 L
206.752 114.337 L
207.541 113.822 L
208.329 113.314 L
209.118 112.812 L
209.907 112.316 L
210.695 111.826 L
211.484 111.343 L
212.273 110.866 L
213.061 110.395 L
213.85 109.93 L
214.638 109.472 L
215.427 109.02 L
216.216 108.574 L
217.004 108.135 L
217.793 107.702 L
218.582 107.275 L
219.37 106.854 L
220.159 106.44 L
220.948 106.032 L
221.736 105.63 L
222.525 105.235 L
223.313 104.845 L
224.102 104.463 L
224.891 104.086 L
225.679 103.716 L
226.468 103.352 L
227.257 102.995 L
228.045 102.641 L
228.834 102.288 L
229.622 101.935 L
230.411 101.583 L
231.2 101.231 L
231.988 100.88 L
232.777 100.529 L
233.566 100.179 L
234.354 99.829 L
235.143 99.48 L
235.931 99.132 L
236.72 98.783 L
237.509 98.436 L
238.297 98.089 L
239.086 97.742 L
239.875 97.396 L
240.663 97.05 L
241.452 96.706 L
242.241 96.361 L
243.029 96.017 L
243.818 95.674 L
244.606 95.331 L
245.395 94.989 L
246.184 94.648 L
246.972 94.307 L
247.761 93.966 L
248.55 93.627 L
249.338 93.287 L
250.127 92.948 L
250.915 92.611 L
251.704 92.273 L
252.493 91.936 L
253.281 91.6 L
254.07 91.264 L
254.859 90.929 L
255.647 90.595 L
256.436 90.261 L
257.225 89.928 L
258.013 89.595 L
258.802 89.263 L
259.59 88.932 L
260.379 88.601 L
261.168 88.271 L
261.956 87.942 L
262.745 87.613 L
263.534 87.285 L
264.322 86.957 L
265.111 86.63 L
265.899 86.304 L
266.688 85.979 L
267.477 85.654 L
268.265 85.33 L
269.054 85.006 L
269.843 84.684 L
270.631 84.361 L
271.42 84.04 L
272.208 83.719 L
272.997 83.399 L
273.786 83.08 L
274.574 82.761 L
275.363 82.443 L
276.152 82.126 L
276.94 81.81 L
277.729 81.494 L
278.518 81.179 L
279.306 80.864 L
280.095 80.551 L
280.883 80.238 L
281.672 79.926 L
282.461 79.614 L
283.249 79.304 L
284.038 78.994 L
284.827 78.685 L
285.615 78.376 L
286.404 78.068 L
287.192 77.762 L
287.981 77.456 L
288.77 77.15 L
289.558 76.846 L
290.347 76.542 L
291.136 76.239 L
291.924 75.936 L
292.713 75.635 L
293.501 75.334 L
294.29 75.034 L
295.079 74.735 L
295.867 74.437 L
296.656 74.139 L
297.445 73.843 L
298.233 73.547 L
299.022 73.252 L
299.811 72.958 L
300.599 72.664 L
301.388 72.371 L
302.176 72.08 L
302.965 71.789 L
303.754 71.499 L
304.542 71.209 L
305.331 70.921 L
306.12 70.634 L
306.908 70.347 L
307.697 70.061 L
308.485 69.776 L
309.274 69.492 L
310.063 69.209 L
310.851 68.926 L
311.64 68.645 L
312.429 68.364 L
313.217 68.084 L
314.006 67.805 L
314.794 67.527 L
315.583 67.25 L
316.372 66.974 L
317.16 66.699 L
317.949 66.424 L
318.738 66.151 L
319.526 65.878 L
320.315 65.607 L
321.104 65.336 L
321.892 65.066 L
322.681 64.797 L
323.469 64.529 L
324.258 64.262 L
325.047 63.996 L
325.835 63.731 L
326.624 63.467 L
327.413 63.204 L
328.201 62.941 L
328.99 62.68 L
329.778 62.419 L
330.567 62.16 L
331.356 61.901 L
332.144 61.644 L
332.933 61.388 L
333.722 61.132 L
334.51 60.877 L
335.299 60.624 L
336.087 60.371 L
336.876 60.12 L
337.665 59.869 L
338.453 59.619 L
339.242 59.371 L
340.031 59.123 L
340.819 58.877 L
341.608 58.631 L
342.397 58.386 L
343.185 58.143 L
343.974 57.9 L
344.762 57.659 L
345.551 57.419 L
346.34 57.179 L
347.128 56.941 L
347.917 56.703 L
348.706 56.467 L
349.494 56.232 L
350.283 55.998 L
351.071 55.765 L
351.86 55.533 L
352.649 55.302 L
353.437 55.072 L
354.226 54.843 L
355.015 54.615 L
355.803 54.388 L
356.592 54.163 L
357.381 53.938 L
358.169 53.715 L
358.958 53.492 L
359.746 53.271 L
360.535 53.051 L
361.324 52.832 L
362.112 52.614 L
362.901 52.397 L
363.69 52.182 L
364.478 51.967 L
365.267 51.754 L
366.055 51.541 L
366.844 51.33 L
367.633 51.12 L
368.421 50.911 L
369.21 50.703 L
369.999 50.497 L
370.787 50.291 L
371.576 50.087 L
372.364 49.884 L
373.153 49.682 L
373.942 49.481 L
374.73 49.281 L
375.519 49.083 L
376.308 48.886 L
377.096 48.69 L
377.885 48.495 L
378.674 48.301 L
379.462 48.108 L
380.251 47.917 L
381.039 47.727 L
381.828 47.538 L
382.617 47.35 L
383.405 47.163 L
384.194 46.978 L
384.983 46.794 L
385.771 46.611 L
386.56 46.429 L
387.348 46.249 L
388.137 46.069 L
388.926 45.891 L
389.714 45.715 L
390.503 45.539 L
391.292 45.365 L
392.08 45.192 L
392.869 45.02 L
393.658 44.85 L
394.446 44.68 L
395.235 44.512 L
396.023 44.346 L
396.812 44.18 L
397.601 44.016 L
398.389 43.853 L
399.178 43.691 L
399.967 43.531 L
400.755 43.372 L
401.544 43.214 L
402.332 43.058 L
403.121 42.903 L
403.91 42.749 L
404.698 42.596 L
405.487 42.445 L
406.276 42.295 L
407.064 42.147 L
407.853 41.999 L
408.641 41.854 L
409.43 41.709 L
410.219 41.566 L
411.007 41.424 L
411.796 41.283 L
412.585 41.144 L
413.373 41.006 L
414.162 40.869 L
414.951 40.734 L
415.739 40.6 L
416.528 40.468 L
417.316 40.337 L
418.105 40.207 L
418.894 40.079 L
419.682 39.952 L
420.471 39.826 L
421.26 39.702 L
422.048 39.579 L
422.837 39.458 L
423.625 39.337 L
424.414 39.219 L
425.203 39.102 L
425.991 38.986 L
426.78 38.871 L
427.569 38.758 L
428.357 38.647 L
429.146 38.537 L
429.934 38.428 L
430.723 38.321 L
431.512 38.215 L
432.3 38.11 L
433.089 38.007 L
433.878 37.906 L
434.666 37.806 L
435.455 37.707 L
436.244 37.61 L
437.032 37.514 L
437.821 37.42 L
438.609 37.327 L
439.398 37.236 L
440.187 37.146 L
440.975 37.057 L
441.764 36.971 L
442.553 36.885 L
443.341 36.801 L
444.13 36.719 L
444.918 36.638 L
445.707 36.558 L
446.496 36.48 L
447.284 36.404 L
448.073 36.329 L
448.862 36.256 L
449.65 36.184 L
450.439 36.113 L
451.228 36.044 L
452.016 35.977 L
452.805 35.911 L
453.593 35.847 L
454.382 35.784 L
455.171 35.723 L
455.959 35.664 L
456.748 35.606 L
457.537 35.549 L
458.325 35.494 L
459.114 35.441 L
459.902 35.389 L
460.691 35.339 L
461.48 35.29 L
462.268 35.243 L
463.057 35.197 L
463.846 35.153 L
464.634 35.111 L
465.423 35.07 L
466.211 35.031 L
467 34.994 L
467.789 34.958 L
468.577 34.923 L
469.366 34.89 L
470.155 34.859 L
470.943 34.83 L
471.732 34.802 L
472.521 34.775 L
473.309 34.751 L
474.098 34.728 L
474.886 34.707 L
475.675 34.687 L
476.464 34.669 L
477.252 34.652 L
478.041 34.637 L
478.83 34.624 L
479.618 34.613 L
480.407 34.603 L
481.195 34.595 L
481.984 34.588 L
482.773 34.583 L
483.561 34.58 L
484.35 34.579 L
S
GR
GS
1 GC
N
499 366 M
499 250.5 L
344.5 250.5 L
344.5 366 L
cp
f
GR
GS
[1 0 0 1 381.5 260.25] CT
/Helvetica 13 F
GS
[1 0 0 1 0 0] CT
0 5 moveto 
1 -1 scale
(Base Run) t 
GR
GR
GS
0 0.447 0.741 RC
1 LJ
0.5 LW
N
348.5 260.25 M
378.5 260.25 L
S
GR
GS
[1 0 0 1 381.5 276.25] CT
/Helvetica 13 F
GS
[1 0 0 1 0 0] CT
0 5 moveto 
1 -1 scale
(I & B Frames) t 
GR
GR
GS
0.851 0.325 0.098 RC
1 LJ
0.5 LW
N
348.5 276.25 M
378.5 276.25 L
S
GR
GS
[1 0 0 1 381.5 292.25] CT
/Helvetica 13 F
GS
[1 0 0 1 0 0] CT
0 5 moveto 
1 -1 scale
(I Frames Only) t 
GR
GR
GS
0.929 0.694 0.125 RC
1 LJ
0.5 LW
N
348.5 292.25 M
378.5 292.25 L
S
GR
GS
[1 0 0 1 381.5 308.25] CT
/Helvetica 13 F
GS
[1 0 0 1 0 0] CT
0 5 moveto 
1 -1 scale
(B Frames Only) t 
GR
GR
GS
0.494 0.184 0.557 RC
1 LJ
0.5 LW
N
348.5 308.25 M
378.5 308.25 L
S
GR
GS
[1 0 0 1 381.5 324.25] CT
/Helvetica 13 F
GS
[1 0 0 1 0 0] CT
0 5 moveto 
1 -1 scale
(Part I & B Frames) t 
GR
GR
GS
0.467 0.675 0.188 RC
[10 6] 0 setdash
2 LJ
0.5 LW
N
348.5 324.25 M
378.5 324.25 L
S
GR
GS
[1 0 0 1 381.5 340.25] CT
/Helvetica 13 F
GS
[1 0 0 1 0 0] CT
0 5 moveto 
1 -1 scale
(Part I Frames Only) t 
GR
GR
GS
0.302 0.745 0.933 RC
[10 6] 0 setdash
2 LJ
0.5 LW
N
348.5 340.25 M
378.5 340.25 L
S
GR
GS
[1 0 0 1 381.5 356.25] CT
/Helvetica 13 F
GS
[1 0 0 1 0 0] CT
0 5 moveto 
1 -1 scale
(Part B Frames Only) t 
GR
GR
GS
0.635 0.078 0.184 RC
[10 6] 0 setdash
2 LJ
0.5 LW
N
348.5 356.25 M
378.5 356.25 L
S
GR
GS
0.149 GC
10.0 ML
0.5 LW
N
344.5 366 M
344.5 250.5 L
499 250.5 L
499 366 L
cp
S
GR
%%Trailer
%%Pages: 1
%%EOF
